﻿Original Event Name,Event Name,Sales Person,Order Number,Order Date,Customer Name,State,Zip,Product Name,Color,Product Status,QTY,Tax,Total Before Tax,Order Total,Primary Payment Method,Second Payment Method,Thirdl Payment Method,Warranty,Order Items,Pick up,Delivered On,Order Status,Chair Type,Order Notes,Private Note,Branch,No Tax,Actual Tax Rate,SKU,Primary Payment Balance,Primary Authorize Number,Primary Purchase Order Number,Primary Synchrony Account Number,Primary Synchrony Application Key,Primary Synchrony Account Info,Primary Synchrony Term,Primary Synchrony Primary ID,Primary Synchrony Issued State,Primary Synchrony Expiretion Date,Second Payment Balance,Second Authorize Number,Second Purchase Order Number,Second Synchrony Account Number,Second Synchrony Application Key,Second Synchrony Account Info,Second SynchronyTerm,Second Synchrony Primary ID,Second Synchrony Issued State,Second Synchrony Expiretion Date,Third Payment Balance,Third Authorize Number,Third Purchase Order Number,Third Synchrony Account Number,Third Synchrony Application Key,Third Synchrony Account Info,Third Synchrony Term,Third Synchrony Primary ID,Third Synchrony Issued State,Third Synchrony Expiretion Date
"Sam's Club #8225 Macon, GA","Sam's Club #8225 Macon, GA",Salliana Bernardino,121726,10/10/2019 10:45:28 AM,Trisha Godfrey,GA,31005,Symphony  - Sam's Club,Demo (Box) Choco[-500],Demo,1,0.00,4898.00,4898.00,Purchase Order,,,"3 years parts, 1 year labor (Free)","Symphony  - Sam's Club,",No,,Called,,,"Original received.-Erika 10/10/19 12:00pm
CC, Jasmin Carrizales, 10/11/19, 1:36pm, Just kept saying hello.",FL,1,7.00,USJ-9300Symphony-BW-DEMOBX,0.00,,1490206091462173499984,,,,,,,/,0.00,,,,,,,,,/,0.00,,,,,,,,,/
"Sam's Club #8225 Macon, GA","Sam's Club #8225 Macon, GA",Salliana Bernardino,121727,10/10/2019 10:52:37 AM,Joseph Howard,GA,31069,Foot Vibe Pro,,New,1,0.00,119.98,119.98,Purchase Order,,,"2 years parts, 1 year labor (Free)","Foot Vibe Pro,",YES,,Delivered,,,Picked Up Item At Sam’s; No delivery required,FL,1,7.00,USJ-871,0.00,,632096591458177490984,,,,,,,/,0.00,,,,,,,,,/,0.00,,,,,,,,,/
"Sam's Club #8225 Macon, GA","Sam's Club #8225 Macon, GA",Salliana Bernardino,121728,10/10/2019 10:57:14 AM,Muhammad Ahmad,GA,31210,Shogun Neck & Back Massger,New,New,1,0.00,199.98,199.98,Purchase Order,,,"2 years parts, 1 year labor (Free)","Shogun Neck &amp; Back Massger,",YES,,Delivered,,,Picked Item Up At Sam’s; No delivery required,FL,1,7.00,USJ-874USJ-874,0.00,,1123200063199948130651,,,,,,,/,0.00,,,,,,,,,/,0.00,,,,,,,,,/
"Sam's Club #8225 Macon, GA","Sam's Club #8225 Macon, GA",Salliana Bernardino,121792,10/13/2019 8:14:57 AM,James Lucas,HI,31217,Symphony  - Sam's Club,Demo (Box) Choco[-500],Demo,1,0.00,4898.00,4898.00,Purchase Order,,,"3 years parts, 1 year labor (Free)","Symphony  - Sam's Club,",No,,Called,,,"Original received.-Erika 10/14/19 2:50pm  *Georgia*  Correct Address:      1045 Mccall Rd
                                                                                                                                                   Macon, Ga 31217
CC, Jasmin Carrizales, 10/15/19, 1:59pm/Av. 10/28th+10/29th",FL,1,7.00,USJ-9300Symphony-BW-DEMOBX,0.00,,1460306093462173499984,,,,,,,/,0.00,,,,,,,,,/,0.00,,,,,,,,,/
"Sam's Club #8225 Macon, GA","Sam's Club #8225 Macon, GA",Salliana Bernardino,121793,10/13/2019 8:26:11 AM,Aubrey Williams,GA,31093,Foot Vibe Pro,,New,1,0.00,119.98,119.98,Purchase Order,,,"2 years parts, 1 year labor (Free)","Foot Vibe Pro,",YES,,Delivered,,,"Picked Up Item At Sam's Club , No Delivery Needed",FL,1,7.00,USJ-871,0.00,,043310463174946132661,,,,,,,/,0.00,,,,,,,,,/,0.00,,,,,,,,,/
"Sam's Club #8225 Macon, GA","Sam's Club #8225 Macon, GA",Salliana Bernardino,121796,10/13/2019 10:29:51 AM,Ann Boyce,GA,31088,Symphony  - Sam's Club,New Choco,New,1,0.00,5398.00,5398.00,Purchase Order,,,"3 years parts, 1 year labor (Free)","Symphony  - Sam's Club,",No,,Called,,,"Original received-Erika 10/14/19 2:54pm
CC, Jasmin Carrizales, 10/14/19, 5:58pm, VM",FL,1,7.00,USJ-9300Symphony-BW,0.00,,1560356799420173493914,,,,,,,/,0.00,,,,,,,,,/,0.00,,,,,,,,,/
"Sam's Club #8225 Macon, GA","Sam's Club #8225 Macon, GA",Salliana Bernardino,121797,10/13/2019 10:41:33 AM,Glenn Carter,GA,31088,Legacy 3D - Sam's Club,Demo(Box) Choco[-500],Demo,1,0.00,4598.86,4598.86,Purchase Order,,,"3 years parts, 1 year labor (Free)","Legacy 3D - Sam's Club,Vitality Plate for Sam's,",No,,Called,,,"Original received-Erika 10/14/19 2:57pm
CC, Jasmin Carrizales, 10/15/19, 2:10pm/Av. Anytime",FL,1,7.00,DWA-9150DWA-9150CH-Box,0.00,,7885603422597806526225,,,,,,,/,0.00,,,,,,,,,/,0.00,,,,,,,,,/
"Sam's Club #8225 Macon, GA","Sam's Club #8225 Macon, GA",Salliana Bernardino,121797,10/13/2019 10:41:33 AM,Glenn Carter,GA,31088,Vitality Plate for Sam's,New,New,1,0.00,4598.86,4598.86,Purchase Order,,,"2 years parts, 1 year labor (Free)","Legacy 3D - Sam's Club,Vitality Plate for Sam's,",No,,Called,,,"Original received-Erika 10/14/19 2:57pm
CC, Jasmin Carrizales, 10/15/19, 2:10pm/Av. Anytime",FL,1,7.00,USJ-849USJ-849,0.00,,7885603422597806526225,,,,,,,/,0.00,,,,,,,,,/,0.00,,,,,,,,,/
"Sam's Club #8225 Macon, GA","Sam's Club #8225 Macon, GA",Salliana Bernardino,121798,10/13/2019 10:51:18 AM,Patricia Dasher,GA,31029,Shogun Neck & Back Massger,New,New,1,0.00,199.98,199.98,Purchase Order,,,"2 years parts, 1 year labor (Free)","Shogun Neck &amp; Back Massger,",YES,,Delivered,,,"Picked up at Sam's Club , No delivery needed",FL,1,7.00,USJ-874USJ-874,0.00,,453066893458179476924,,,,,,,/,0.00,,,,,,,,,/,0.00,,,,,,,,,/
