﻿Original Event Name,Event Name,Sales Person,Order Number,Order Date,Customer Name,State,Zip,Product Name,Color,Product Status,QTY,Tax,Total Before Tax,Order Total,Primary Payment Method,Second Payment Method,Thirdl Payment Method,Warranty,Order Items,Pick up,Delivered On,Order Status,Chair Type,Order Notes,Private Note,Branch,No Tax,Actual Tax Rate,SKU,Primary Payment Balance,Primary Authorize Number,Primary Purchase Order Number,Primary Synchrony Account Number,Primary Synchrony Application Key,Primary Synchrony Account Info,Primary Synchrony Term,Second Payment Balance,Second Authorize Number,Second Purchase Order Number,Second Synchrony Account Number,Second Synchrony Application Key,Second Synchrony Account Info,Second SynchronyTerm,Third Payment Balance,Third Authorize Number,Third Purchase Order Number,Third Synchrony Account Number,Third Synchrony Application Key,Third Synchrony Account Info,Third Synchrony Term
"SUMMER HM&GD (MARICOPA) 3/1-3/19 PHOENIX,AZ (NV)","SUMMER HM&GD (MARICOPA) 3/1-3/19 PHOENIX,AZ (NV)",Rolly San Jose,115387,3/1/2019 7:12:57 PM,Andrew Gorchov,AZ,85024,Legacy 3D,Demo Black,Demo,1,0.00,0.00,0.00,Synchrony,,,"5 years parts, 2 years labor ($200)","Legacy 3D,",YES,,Cancelled,,,"Pick up demo chair on March 3, 2019
03/04/19- Per rolly cancelled order and replace it with 115388",NV,1,9.20,DWA-9150USJ-9150BL-DEMO,0.00,,,6501723375036363,72000251,Las Vegas,24 months,0.00,,,,,,,0.00,,,,,,
"SUMMER HM&GD (MARICOPA) 3/1-3/19 PHOENIX,AZ (NV)","SUMMER HM&GD (MARICOPA) 3/1-3/19 PHOENIX,AZ (NV)",Rolly San Jose,115388,3/1/2019 7:23:48 PM,Andrew Gorchov,AZ,85024,Legacy 3D,Demo Black,Demo,1,0.00,4435.00,4435.00,Synchrony,,,"5 years parts, 2 years labor ($200)","Legacy 3D,",YES,3/2/2019 12:00:00 AM,Delivered,Demo,,"Pick up demo black chair on March 3, 2019
Correct order for number #115387
3/4/19-Confirmed SYNC $5,400 and original. will confirm pickup confirmation and synchrony transaction -Hitomi
3/5/19-Confirmed pickup confirmation and charged synchrony -Hitomi",NV,1,9.20,DWA-9150USJ-9150BL-DEMO,4435.00,,,6501723375036363,72000251,Las Vegas,24 months,0.00,,,,,,,0.00,,,,,,
"SUMMER HM&GD (MARICOPA) 3/1-3/19 PHOENIX,AZ (NV)","SUMMER HM&GD (MARICOPA) 3/1-3/19 PHOENIX,AZ (NV)",Ariel Milanes,115389,3/1/2019 7:29:01 PM,Wyllie Humphreys,NV,89506,Legacy 3D,Demo Choco,Demo,1,0.00,4435.00,4435.00,CreditCard,,,"3 years parts, 1 year labor (Free)","Legacy 3D,",No,3/11/2019 12:00:00 AM,Delivered,Demo,,"COnfirmed $4,435.00 in SQ. Per.Kohei's request , CA will take care of the delivery. DEMO chair will be brought back from the show to CA office by Chris W and Dai   - 3/4/19 Hitomi
3/14Maritza- Per Alex chair was delivered as Demo",CA,1,9.20,DWA-9150USJ-9150CH-DEMO,4435.00,SQ# MZl9,,,,,,0.00,,,,,,,0.00,,,,,,
"SUMMER HM&GD (MARICOPA) 3/1-3/19 PHOENIX,AZ (NV)","SUMMER HM&GD (MARICOPA) 3/1-3/19 PHOENIX,AZ (NV)",Rolly San Jose,115416,3/2/2019 8:34:55 PM,Michael Rodrigues,AZ,85224,Legacy 3D,New Choco,New,1,0.00,4200.00,4200.00,CreditCard,,,"5 years parts, 1 year labor (Free)","Legacy 3D,",No,3/19/2019 12:00:00 AM,Delivered,New,,"Confirmed $4,200.00 in SQ. -3/4/19 Hitomi
03/05/19- Re-dispatched to CA- Cristina Printed 5:21 pm
3/7Maritza Courtesy message sent @ 3:14",CA,1,9.20,DWA-9150USJ-9150CH,4200.00,SQ# WQZW,,,,,,0.00,,,,,,,0.00,,,,,,
"SUMMER HM&GD (MARICOPA) 3/1-3/19 PHOENIX,AZ (NV)","SUMMER HM&GD (MARICOPA) 3/1-3/19 PHOENIX,AZ (NV)",Rolly San Jose,115417,3/2/2019 8:40:06 PM,Heidi Luekenga,AZ,85392,Legacy 3D,Demo Choco,Demo,1,0.00,4200.00,4200.00,CreditCard,,,"5 years parts, 1 year labor (Free)","Legacy 3D,",YES,3/3/2019 12:00:00 AM,Delivered,Demo,,"To be picked up mar 3, 2019
3/4/19 confirmed $4,200.00 inSQ. Received pickup confirmation   - Hitomi",NV,1,9.20,DWA-9150USJ-9150CH-DEMO,4200.00,SQ# jx3b,,,,,,0.00,,,,,,,0.00,,,,,,
"SUMMER HM&GD (MARICOPA) 3/1-3/19 PHOENIX,AZ (NV)","SUMMER HM&GD (MARICOPA) 3/1-3/19 PHOENIX,AZ (NV)",Christoper Williams,115421,3/2/2019 8:52:53 PM,Anne Timmerman,AZ,85022,Relax 2 Zero 2.0,Demo Black,Demo,1,0.00,3168.00,3168.00,CreditCard,,,"5 years parts, 1 year labor (Free)","Relax 2 Zero 2.0,",YES,3/3/2019 12:00:00 AM,Delivered,Demo,,"in SQ $3,168.93,  will confirm pickup and total amount - 3/4/19 Hitomi
3/6/19- Received pickup confirmation. On original invoice , it says sold in $3,168 include tax. Rolly informed that refund is not needed  -3/4/19 Hitomi",NV,1,9.20,USJ-9050USJ-9050BL-DEMO,3168.00,SQ# tTw0,,,,,,0.00,,,,,,,0.00,,,,,,
"SUMMER HM&GD (MARICOPA) 3/1-3/19 PHOENIX,AZ (NV)","SUMMER HM&GD (MARICOPA) 3/1-3/19 PHOENIX,AZ (NV)",Christoper Williams,115463,3/4/2019 8:39:32 AM,Michael Vogler,AZ,85377,Relax 2 Zero 3D,New Choco,New,1,0.00,3900.00,3900.00,CreditCard,,,"5 years parts, 1 year labor (Free)","Relax 2 Zero 3D,",No,3/19/2019 12:00:00 AM,Delivered,New,,"in SQ total is $3,901.48.  on original invoice , it says sold in $3,900 include tax. Rolly informed that refund is not needed  -3/4/19 Hitomi
03/05/19- Re-dispatched to CA- Printed- Cristina 5:20 pm
3/7Maritza- Courtesy message sent @ 3:15PM",CA,1,9.20,DWA-9060USJ-9060BR,3900.00,Receipt #lGoV,,,,,,0.00,,,,,,,0.00,,,,,,
"SUMMER HM&GD (MARICOPA) 3/1-3/19 PHOENIX,AZ (NV)","SUMMER HM&GD (MARICOPA) 3/1-3/19 PHOENIX,AZ (NV)",Christoper Williams,115465,3/4/2019 8:49:07 AM,Jerry Baker,AZ,85304,Relax 2 Zero 3D,New Black,New,1,0.00,4200.00,4200.00,CreditCard,,,"5 years parts, 1 year labor (Free)","Relax 2 Zero 3D,",No,3/24/2019 12:00:00 AM,Delivered,New,,"in SQ $4,270.50. on original invoice , it says sold in $4,200 include tax. Rolly informed that refund is not needed  -3/4/19 Hitomi
03/05/19- Re- dispatched to CA- printed 5:19 pm
3/7Maritza Courtesy message sent @ 3:16PM
3/13Maritza- Customer couldn't be accommodated in CA schedule. Can only accept delivery Fridays all day or M-TH after 4PM.  Will redispatch to NV @ 10:37AM",NV,1,9.20,DWA-9060USJ-9060BL,4200.00,Receipt #a4JE,,,,,,0.00,,,,,,,0.00,,,,,,
"SUMMER HM&GD (MARICOPA) 3/1-3/19 PHOENIX,AZ (NV)","SUMMER HM&GD (MARICOPA) 3/1-3/19 PHOENIX,AZ (NV)",Christoper Williams,115468,3/4/2019 8:56:52 AM,Lynn Spivey,ID,83714,Relax 2 Zero 2.0,New Brown,New,1,0.00,3000.00,3000.00,CreditCard,,,"5 years parts, 1 year labor (Free)","Relax 2 Zero 2.0,",No,3/9/2019 12:00:00 AM,Delivered,,,"in SQ $3,005.16 . on original invoice , it says sold in $3,000 include tax. Rolly informed that refund is not needed, will confirm delivery branch -3/4/19 Hitomi
3/5/19-COnfirmed w/ Kohei NV will take care of it . slot is 3/9 th 3-6pm. Confirmed w/customer the delivery date&time  - Hitomi",NV,1,9.20,USJ-9050USJ-9050BR,3000.00,Receipt #rSZZ,,,,,,0.00,,,,,,,0.00,,,,,,
