﻿Original Event Name,Event Name,Sales Person,Order Number,Order Date,Customer Name,State,Zip,Product Name,Color,Product Status,QTY,Tax,Total Before Tax,Order Total,Primary Payment Method,Second Payment Method,Thirdl Payment Method,Warranty,Order Items,Pick up,Delivered On,Order Status,Chair Type,Order Notes,Private Note,Branch,No Tax,Actual Tax Rate,SKU,Primary Payment Balance,Primary Authorize Number,Primary Purchase Order Number,Primary Synchrony Account Number,Primary Synchrony Application Key,Primary Synchrony Account Info,Primary Synchrony Term,Primary Synchrony Primary ID,Primary Synchrony Issued State,Primary Synchrony Expiretion Date,Second Payment Balance,Second Authorize Number,Second Purchase Order Number,Second Synchrony Account Number,Second Synchrony Application Key,Second Synchrony Account Info,Second SynchronyTerm,Second Synchrony Primary ID,Second Synchrony Issued State,Second Synchrony Expiretion Date,Third Payment Balance,Third Authorize Number,Third Purchase Order Number,Third Synchrony Account Number,Third Synchrony Application Key,Third Synchrony Account Info,Third Synchrony Term,Third Synchrony Primary ID,Third Synchrony Issued State,Third Synchrony Expiretion Date
"Natural Products Expo East 9/12-14/19 Baltimore, MD","Natural Products Expo East 9/12-14/19 Baltimore, MD",Andres Soto,121010,9/15/2019 9:15:52 PM,MR. YASSIN SIBAI,TX,78726,PEGASUS 2 SMART,New Choco,New,1,0.00,5400.00,5400.00,Synchrony,,,"5 years parts, 1 year labor (Free)","PEGASUS 2 SMART,",No,,New,,,,Not Dispatched,1,6.00,PEGS-2PEGS-2-BR,5400.00,,,6501723375326749,81205491,Huston,36 months,Driver’s License,TX,01/2021,0.00,,,,,,,,,/,0.00,,,,,,,,,/
"Natural Products Expo East 9/12-14/19 Baltimore, MD","Natural Products Expo East 9/12-14/19 Baltimore, MD",Andres Soto,121013,9/15/2019 9:24:45 PM,ANDREW APPELL,NY,11598,Orbit - 3,New Black,New,1,0.00,3000.00,3000.00,Check,,,"5 years parts, 1 year labor (Free)","Orbit - 3,",No,,New,,,"Check will mail to main office, please deposit and dispatch sales when check clears. Thank you ( Andres)",Not Dispatched,1,6.00,ORBT-1ORBT-3BL,3000.00,,,,,,,,,/,0.00,,,,,,,,,/,0.00,,,,,,,,,/
"Natural Products Expo East 9/12-14/19 Baltimore, MD","Natural Products Expo East 9/12-14/19 Baltimore, MD",Andres Soto,121014,9/15/2019 9:43:33 PM,DAVID KORNBERG,FL,33473,PEGASUS 2 SMART,Demo Choco,Demo,1,0.00,3900.00,3900.00,Credit Card,,,"5 years parts, 1 year labor (Free)","PEGASUS 2 SMART,",No,,New,,,"SALES REP- HIDEMITSU YOSHIDA. 
NOT ADDED IN DAIWA SPACE SALES REP LIST.",Not Dispatched,1,6.00,PEGS-2PEGS-2-BR-DEMO,3900.00,SQUARE# FNQC,,,,,,,,/,0.00,,,,,,,,,/,0.00,,,,,,,,,/
"Natural Products Expo East 9/12-14/19 Baltimore, MD","Natural Products Expo East 9/12-14/19 Baltimore, MD",Lex Gonzalez,121015,9/15/2019 9:47:39 PM,SY DARDASHTY,CA,90024,PEGASUS 2 SMART,New Black,New,1,0.00,5300.00,5300.00,Credit Card,,,"5 years parts, 1 year labor (Free)","PEGASUS 2 SMART,",No,,New,,,,Not Dispatched,1,6.00,PEGS-2PEGS-2-BL,5300.00,P8J2,,,,,,,,/,0.00,,,,,,,,,/,0.00,,,,,,,,,/
"Natural Products Expo East 9/12-14/19 Baltimore, MD","Natural Products Expo East 9/12-14/19 Baltimore, MD",Andres Soto,121016,9/15/2019 9:57:36 PM,SHARI HAMDANI,MD,21228,PEGASUS 2 SMART,Demo Black,Demo,1,0.00,4500.00,4500.00,Cash,Credit Card,,"5 years parts, 1 year labor (Free)","PEGASUS 2 SMART,",No,,New,,,CHAIR DELIVERED BY ANDRES AFTER SHOW. S/N 1201001180222,Not Dispatched,1,6.00,PEGS-2PEGS-2-BL-DEMO,200.00,,,,,,,,,/,4300.00,OHEA,,,,,,,,/,0.00,,,,,,,,,/
"Natural Products Expo East 9/12-14/19 Baltimore, MD","Natural Products Expo East 9/12-14/19 Baltimore, MD",Andres Soto,121017,9/15/2019 10:05:37 PM,MIRIAM BENNETT,MD,21212,Orbit - 3,Demo Black,Demo,1,0.00,3200.00,3200.00,Synchrony,,,"5 years parts, 1 year labor (Free)","Orbit - 3,",No,,New,,,CHAIR WILL BE DELIVERED AFTER SHOW. ANDRES WILL PROVIDE COPY OF DELIVERY CONFIRMATION.,Not Dispatched,1,6.00,ORBT-1ORBT-3BL-DEMO,3200.00,,,6501723375325329,81175572,Huston,36 months,Driver’s License,MD,06/2020,0.00,,,,,,,,,/,0.00,,,,,,,,,/
