﻿Original Event Name,Event Name,Sales Person,Order Number,Order Date,Customer Name,State,Zip,Product Name,Color,Product Status,QTY,Tax,Total Before Tax,Order Total,Primary Payment Method,Second Payment Method,Thirdl Payment Method,Warranty,Order Items,Pick up,Delivered On,Order Status,Chair Type,Order Notes,Private Note,Branch,No Tax,Actual Tax Rate,SKU,Primary Payment Balance,Primary Authorize Number,Primary Purchase Order Number,Primary Synchrony Account Number,Primary Synchrony Application Key,Primary Synchrony Account Info,Primary Synchrony Term,Second Payment Balance,Second Authorize Number,Second Purchase Order Number,Second Synchrony Account Number,Second Synchrony Application Key,Second Synchrony Account Info,Second SynchronyTerm,Third Payment Balance,Third Authorize Number,Third Purchase Order Number,Third Synchrony Account Number,Third Synchrony Application Key,Third Synchrony Account Info,Third Synchrony Term
"Sam's Club #4872 Columbia, SC 2/14-24/19 (FL)","Sam's Club #4872 Columbia, SC 2/14-24/19 (FL)",Michael Wang,114989,2/15/2019 9:14:06 AM,Phil Stonehouse,SC,29229,Legacy for Sam's,Demo(Box) Choco[-700],Demo,1,287.92,3599.00,3886.92,CreditCard,,,"3 years parts, 1 year labor (Free)","Legacy for Sam's,Chair Pad for Legacy,Daiwa Blanket,",No,,Assigned,,,"For the second chair pad please give 1 black foam chair pad. In case you cannot contact customer you can call house number at 803-661-6260 or email bqphil@aol.com.1st floor delivery.
02/15/19- Courtesy call/Text completed - Cristina 10:02 am",FL,0,8.00,DWA-9100DWA-9150CH-Box,3886.92,Tc# 9005 6535 7118 1504 4067 32,,,,,,0.00,,,,,,,0.00,,,,,,
"Sam's Club #4872 Columbia, SC 2/14-24/19 (FL)","Sam's Club #4872 Columbia, SC 2/14-24/19 (FL)",Michael Wang,114999,2/16/2019 9:57:47 AM,Samuel Johnny,SC,29229,Shogun Neck & Back Massger,New,New,1,16.00,199.98,215.98,CreditCard,,,"2 years parts, 1 year labor for Small Items","Shogun Neck &amp; Back Massger,",YES,,Delivered,,,"For Texas office to ship Florida out of Shogun.
Your tracking number: 774494400923    2/18/2019 June",TX,0,8.00,USJ-874USJ-874,215.98,Tc# 3664 2139 5090 3256 0998 4,,,,,,0.00,,,,,,,0.00,,,,,,
"Sam's Club #4872 Columbia, SC 2/14-24/19 (FL)","Sam's Club #4872 Columbia, SC 2/14-24/19 (FL)",Michael Wang,115012,2/16/2019 4:59:51 PM,"U.S.  JACLEAN, INC.",CA,90249,Ninja Leg Massager 2,New,New,1,24.00,299.98,323.98,CreditCard,,,"2 years parts, 1 year labor for Small Items","Ninja Leg Massager 2,",YES,,Delivered,,,,CA,0,8.00,USJ-880,323.98,Tc# 4626 5518 9341 9132 9588 0,,,,,,0.00,,,,,,,0.00,,,,,,
"Sam's Club #4872 Columbia, SC 2/14-24/19 (FL)","Sam's Club #4872 Columbia, SC 2/14-24/19 (FL)",Michael Wang,115013,2/16/2019 5:44:44 PM,"U.S.  JACLEAN, INC.",CA,90249,Shogun Neck & Back Massger,New,New,1,16.00,199.98,215.98,CreditCard,,,"2 years parts, 1 year labor for Small Items","Shogun Neck &amp; Back Massger,",YES,,Delivered,,,"Customer added an extra year of warranty through Sam’s thus the price difference.
Your tracking number: 774494717630 2/18/2018 June",TX,0,8.00,USJ-874USJ-874,237.45,Tc# 5045 9357 1180 5084 7874 2,,,,,,0.00,,,,,,,0.00,,,,,,
"Sam's Club #4872 Columbia, SC 2/14-24/19 (FL)","Sam's Club #4872 Columbia, SC 2/14-24/19 (FL)",Michael Wang,115045,2/17/2019 10:23:15 AM,"U.S.  JACLEAN, INC.",CA,90249,Ninja Leg Massager 2,Demo[-20.00],Demo,1,22.40,279.98,302.38,CreditCard,,,"2 years parts, 1 year labor for Small Items","Ninja Leg Massager 2,",YES,,Delivered,,,,CA,0,8.00,USJ-880-Demo,302.38,Tc# 0071 6411 0656 2879 0312 7,,,,,,0.00,,,,,,,0.00,,,,,,
"Sam's Club #4872 Columbia, SC 2/14-24/19 (FL)","Sam's Club #4872 Columbia, SC 2/14-24/19 (FL)",Michael Wang,115065,2/17/2019 3:48:20 PM,"U.S.  JACLEAN, INC.",CA,90249,Ninja Leg Massager 2,Demo[-20.00],Demo,1,22.40,279.98,302.38,CreditCard,,,"2 years parts, 1 year labor for Small Items","Ninja Leg Massager 2,",YES,,Delivered,,,confirmed pickup,CA,0,8.00,USJ-880-Demo,302.38,Tc# 3263 2015 8222 1468 3051 6,,,,,,0.00,,,,,,,0.00,,,,,,
"Sam's Club #4872 Columbia, SC 2/14-24/19 (FL)","Sam's Club #4872 Columbia, SC 2/14-24/19 (FL)",Michael Wang,115102,2/18/2019 9:34:55 AM,Robert Welsh,SC,29223,Legacy for Sam's,Demo(Box) Choco[-700],Demo,1,287.92,3599.00,3886.92,CreditCard,,,"3 years parts, 1 year labor (Free)","Legacy for Sam's,Chair Pad for Legacy,Daiwa Blanket,",No,,Scheduled,,,"CC Josefina - 2/21/19 1:55pm VM
1st floor delivery.2nd chair pad give 1 black foam chair pad.",FL,0,8.00,DWA-9100DWA-9150CH-Box,3886.92,Tc# 5474 2414 9406 2323 6259 84,,,,,,0.00,,,,,,,0.00,,,,,,
"Sam's Club #4872 Columbia, SC 2/14-24/19 (FL)","Sam's Club #4872 Columbia, SC 2/14-24/19 (FL)",Michael Wang,115132,2/19/2019 3:15:12 PM,Joe Corder,SC,29045,Shogun Neck & Back Massger,New,New,1,16.00,199.98,215.98,CreditCard,,,"2 years parts, 1 year labor for Small Items","Shogun Neck &amp; Back Massger,",YES,,Delivered,,,"Please ship from Dallas office to Elgin,SC.Please text customer tracking number.
Confirmed with Michael;  FL is out of Shogun so TX will deliver it. ---2/19/19 Asumi
Your tracking number: 774514197820 . 2/20/2019 June",TX,0,8.00,USJ-874USJ-874,215.98,Tc# 0342 2225 8436 0687 6935 8,,,,,,0.00,,,,,,,0.00,,,,,,
"Sam's Club #4872 Columbia, SC 2/14-24/19 (FL)","Sam's Club #4872 Columbia, SC 2/14-24/19 (FL)",Michael Wang,115135,2/19/2019 4:59:48 PM,Calvin Gibbs,NC,27520,Shogun Neck & Back Massger,New,New,1,40.00,499.96,539.96,CreditCard,,,"2 years parts, 1 year labor for Small Items","Shogun Neck &amp; Back Massger,Ninja Leg Massager 2,",YES,,Delivered,,,"@June in Dallas: Please ship 1 shogun to customer.

@Maggie/Josefina in Orlando: Please ship 1 ninja leg 2.0 to customer.I sold out of ninja leg 2.0,
FedEx Tracking #: 774512002814
Your tracking number: 774513894607   -  Shogun. June2/20/2019",FL,0,8.00,USJ-874USJ-874,539.96,Tc# 3061 0403 7618 2859 8518 7,,,,,,0.00,,,,,,,0.00,,,,,,
"Sam's Club #4872 Columbia, SC 2/14-24/19 (FL)","Sam's Club #4872 Columbia, SC 2/14-24/19 (FL)",Michael Wang,115135,2/19/2019 4:59:48 PM,Calvin Gibbs,NC,27520,Ninja Leg Massager 2,New,New,1,40.00,499.96,539.96,CreditCard,,,"2 years parts, 1 year labor for Small Items","Shogun Neck &amp; Back Massger,Ninja Leg Massager 2,",YES,,Delivered,,,"@June in Dallas: Please ship 1 shogun to customer.

@Maggie/Josefina in Orlando: Please ship 1 ninja leg 2.0 to customer.I sold out of ninja leg 2.0,
FedEx Tracking #: 774512002814
Your tracking number: 774513894607   -  Shogun. June2/20/2019",FL,0,8.00,USJ-880,539.96,Tc# 3061 0403 7618 2859 8518 7,,,,,,0.00,,,,,,,0.00,,,,,,
"Sam's Club #4872 Columbia, SC 2/14-24/19 (FL)","Sam's Club #4872 Columbia, SC 2/14-24/19 (FL)",Michael Wang,115137,2/19/2019 5:16:27 PM,Calvin Gibbs,SC,29229,Shogun Neck & Back Massger,New,New,2,76.79,959.92,1036.71,CreditCard,,,"2 years parts, 1 year labor for Small Items","Shogun Neck &amp; Back Massger,Ninja Leg Massager 2,",YES,,Delivered,,,"Customer picked up 2 ninja leg 2.0 massagers.

@June: Please ship 2 Shogun neck and back massagers to customer.Please text me the tracking numbers and I will text the tracking numbers to customer.",TX,0,8.00,USJ-874USJ-874,1036.71,Tc# 8729 7484 0572 9698 3312 15,,,,,,0.00,,,,,,,0.00,,,,,,
"Sam's Club #4872 Columbia, SC 2/14-24/19 (FL)","Sam's Club #4872 Columbia, SC 2/14-24/19 (FL)",Michael Wang,115137,2/19/2019 5:16:27 PM,Calvin Gibbs,SC,29229,Ninja Leg Massager 2,Demo[-20.00],Demo,2,76.79,959.92,1036.71,CreditCard,,,"2 years parts, 1 year labor for Small Items","Shogun Neck &amp; Back Massger,Ninja Leg Massager 2,",YES,,Delivered,,,"Customer picked up 2 ninja leg 2.0 massagers.

@June: Please ship 2 Shogun neck and back massagers to customer.Please text me the tracking numbers and I will text the tracking numbers to customer.",TX,0,8.00,USJ-880-Demo,1036.71,Tc# 8729 7484 0572 9698 3312 15,,,,,,0.00,,,,,,,0.00,,,,,,
"Sam's Club #4872 Columbia, SC 2/14-24/19 (FL)","Sam's Club #4872 Columbia, SC 2/14-24/19 (FL)",Michael Wang,115161,2/20/2019 12:22:36 PM,Gary Dixon,SC,29078,Ninja Leg Massager 2,New,New,1,24.00,299.98,323.98,CreditCard,,,"2 years parts, 1 year labor for Small Items","Ninja Leg Massager 2,",YES,,Delivered,,,Please ship to customer’s house and text Michael Wang tracking number.Thanks.,FL,0,8.00,USJ-880,323.98,Tc# 2760 4681 9808 4795 7202 9,,,,,,0.00,,,,,,,0.00,,,,,,
"Sam's Club #4872 Columbia, SC 2/14-24/19 (FL)","Sam's Club #4872 Columbia, SC 2/14-24/19 (FL)",Michael Wang,115162,2/20/2019 12:54:11 PM,Lan Pham,SC,29223,Orbit for Sam's ,Demo Choco(Box)[-300],Demo,1,215.84,2698.00,2913.84,CreditCard,,,"3 years parts, 1 year labor (Free)","Orbit for Sam's ,Chair Pad for Legacy,Daiwa Blanket,",No,,Scheduled,,,"CC Josefina - 2/21/19 2:00pm
1st floor delivery.If you cannot contact customer by phone email at nguyennanhdung42@yahoo.com.For the extra 2 chair pads please make sure they are leather.",FL,0,8.00,ORBT-1ORBT-1CH-BOX,2913.84,Tc# 7347 9991 4650 3736 0166 81,,,,,,0.00,,,,,,,0.00,,,,,,
"Sam's Club #4872 Columbia, SC 2/14-24/19 (FL)","Sam's Club #4872 Columbia, SC 2/14-24/19 (FL)",Michael Wang,115175,2/20/2019 5:48:04 PM,Calvin Gibbs,SC,29574,Shogun Neck & Back Massger,New,New,1,40.00,499.96,539.96,CreditCard,,,"2 years parts, 1 year labor for Small Items","Shogun Neck &amp; Back Massger,Ninja Leg Massager 2,",YES,,Delivered,,,"@Maggie/Josefina: Please ship 1 Ninja Leg 2.0 to customer’s house. (TRACKING#774522993527)

@June: Please ship 1 shogun neck and back massager to customer’s house.

Please text me the track numbers.Thanks.",FL,0,8.00,USJ-874USJ-874,539.96,Tc# 9803 3089 9294 1478 4954 6,,,,,,0.00,,,,,,,0.00,,,,,,
"Sam's Club #4872 Columbia, SC 2/14-24/19 (FL)","Sam's Club #4872 Columbia, SC 2/14-24/19 (FL)",Michael Wang,115175,2/20/2019 5:48:04 PM,Calvin Gibbs,SC,29574,Ninja Leg Massager 2,New,New,1,40.00,499.96,539.96,CreditCard,,,"2 years parts, 1 year labor for Small Items","Shogun Neck &amp; Back Massger,Ninja Leg Massager 2,",YES,,Delivered,,,"@Maggie/Josefina: Please ship 1 Ninja Leg 2.0 to customer’s house. (TRACKING#774522993527)

@June: Please ship 1 shogun neck and back massager to customer’s house.

Please text me the track numbers.Thanks.",FL,0,8.00,USJ-880,539.96,Tc# 9803 3089 9294 1478 4954 6,,,,,,0.00,,,,,,,0.00,,,,,,
"Sam's Club #4872 Columbia, SC 2/14-24/19 (FL)","Sam's Club #4872 Columbia, SC 2/14-24/19 (FL)",Michael Wang,115204,2/22/2019 10:33:41 AM,Patricia Sizemore,SC,29078,Orbit for Sam's ,Demo Choco(Box)[-300],Demo,1,215.84,2698.00,2913.84,CreditCard,,,"3 years parts, 1 year labor (Free)","Orbit for Sam's ,Chair Pad for Legacy,Daiwa Blanket,Chair Pad for Majesty,",No,,Scheduled,,,"CC Josefina - 2/25/19 10:45am TXT
Please note the extra 2 chair pads should be leather.1st floor delivery.Also please bring 1 refurbished foot vibe as a gift for customer during delivery.Please make sure the foot vibe is still in decent condition and has instructions.Please show customer how to use basics of foot vibe she didn’t have time today for me to show her.",FL,0,8.00,ORBT-1ORBT-1CH-BOX,2913.84,Tc# 9116 7552 6432 1918 2088 70,,,,,,0.00,,,,,,,0.00,,,,,,
"Sam's Club #4872 Columbia, SC 2/14-24/19 (FL)","Sam's Club #4872 Columbia, SC 2/14-24/19 (FL)",Michael Wang,115210,2/22/2019 3:25:58 PM,Avery Littlefield,SC,29045,Orbit for Sam's ,Demo Choco(Box)[-300],Demo,1,215.84,2698.00,2913.84,CreditCard,,,"3 years parts, 1 year labor (Free)","Orbit for Sam's ,Chair Pad for Legacy,Daiwa Blanket,",No,,Assigned,,,"CC Josefina - 2/25/19 10:46am
1st floor delivery.Please make sure you give customer 2 leather chair pads.Give customer 1 refurbished foot vibe pro as a gift.Please check that the foot vibe is in good condition.Please do give them the instructions to foot vibe and a foot vibe pro retail box if possible.In case you cannot reach customer please call 803-438-1711.",FL,0,8.00,ORBT-1ORBT-1CH-BOX,2913.84,Tc# 8568 6776 2392 5854 1324 63,,,,,,0.00,,,,,,,0.00,,,,,,
"Sam's Club #4872 Columbia, SC 2/14-24/19 (FL)","Sam's Club #4872 Columbia, SC 2/14-24/19 (FL)",Michael Wang,115225,2/23/2019 9:52:05 AM,Jay Kates,SC,29223,Orbit for Sam's ,Demo Choco(Box)[-300],Demo,1,215.84,2698.00,2913.84,CreditCard,,,"3 years parts, 1 year labor (Free)","Orbit for Sam's ,Chair Pad for Legacy,Daiwa Blanket,",No,,Assigned,,,"CC Josefina - 2/26/19 3:12pm
1st floor delivery please make sure the 2nd chair pad is leather.",FL,0,8.00,ORBT-1ORBT-1CH-BOX,2913.84,Tc# 0692 3126 5747 6066 7733 78,,,,,,0.00,,,,,,,0.00,,,,,,
"Sam's Club #4872 Columbia, SC 2/14-24/19 (FL)","Sam's Club #4872 Columbia, SC 2/14-24/19 (FL)",Michael Wang,115228,2/23/2019 11:59:23 AM,Sam Drew,SC,29223,Orbit for Sam's ,Demo Choco(Box)[-300],Demo,1,215.84,2698.00,2913.84,CreditCard,,,"3 years parts, 1 year labor (Free)","Orbit for Sam's ,Chair Pad for Legacy,Daiwa Blanket,",No,,Assigned,,,"CC Josefina - 2/26/19 3:15pm VM
2nd floor delivery.Please take customer’s small recliner from 2nd floor to first floor before you bring the orbit to 2nd floor.Otherwise no space for the orbit.",FL,0,8.00,ORBT-1ORBT-1CH-BOX,2913.84,Tc# 7377 6791 4859 3732 0376 51,,,,,,0.00,,,,,,,0.00,,,,,,
"Sam's Club #4872 Columbia, SC 2/14-24/19 (FL)","Sam's Club #4872 Columbia, SC 2/14-24/19 (FL)",Michael Wang,115231,2/23/2019 1:41:18 PM,Calvin Gibbs,SC,29229,Relax 2 Zero 2.0 for Sam's,Demo (Box) Black[-701],Demo,1,255.92,3199.00,3454.92,CreditCard,,,"3 years parts, 1 year labor (Free)","Relax 2 Zero 2.0 for Sam's,Daiwa Blanket,Chair Pad for Legacy,",No,,Assigned,,,"CC  Josefina - 2/26/19 3:21pm
1st floor delivery.The extra chair pads are leather.",FL,0,8.00,USJ-9050USJ-9050BL-DEMO (Box),3454.92,Tc# 9785 7839 8918 0505 4067 72,,,,,,0.00,,,,,,,0.00,,,,,,
"Sam's Club #4872 Columbia, SC 2/14-24/19 (FL)","Sam's Club #4872 Columbia, SC 2/14-24/19 (FL)",Michael Wang,115240,2/23/2019 5:16:43 PM,Darrel Fitch,SC,29229,Relax 2 Zero 2.0 for Sam's,Demo (Box) Black[-701],Demo,1,255.92,3199.00,3454.92,CreditCard,,,"3 years parts, 1 year labor (Free)","Relax 2 Zero 2.0 for Sam's,Chair Pad for Relax2Zero 2.0,Daiwa Blanket,",No,,Assigned,,,"CC Josefina - 2/26/19 3:26pm
1st floor delivery.Give Customer 1 relax2zero 2.0 Flyer.Florida branch ran out of relax2zero 2.0 flyers.",FL,0,8.00,USJ-9050USJ-9050BL-DEMO (Box),3454.92,Tc# 1362 3520 5647 6060 7633 38,,,,,,0.00,,,,,,,0.00,,,,,,
"Sam's Club #4872 Columbia, SC 2/14-24/19 (FL)","Sam's Club #4872 Columbia, SC 2/14-24/19 (FL)",Michael Wang,115241,2/23/2019 5:33:45 PM,Beverly Anderson,SC,29020,Relax 2 Zero 2.0 for Sam's,Demo (Box) Black[-701],Demo,1,255.92,3199.00,3454.92,CreditCard,,,"3 years parts, 1 year labor (Free)","Relax 2 Zero 2.0 for Sam's,Chair Pad for Relax2Zero 2.0,Daiwa Blanket,",No,,Cancelled,,,"CC Josefina - 2/26/19 3:29pm
1st floor delivery.Please give customer 1 refurbished ninja leg 2.0.Please do bring ninja leg 2.0 retail box and instructions.Please make sure Ninja Leg 2.0 still in good condition.Husband will be answering the number not wife because wife has phone turned off during 8am to 5pm.//
2/25/19 Per.Michael , there is Demo Ninja 2.0 in the van FL -Hitomi",FL,0,8.00,USJ-9050USJ-9050BL-DEMO (Box),3454.92,Tc# 1392 3526 5145 6060 7693 38,,,,,,0.00,,,,,,,0.00,,,,,,
"Sam's Club #4872 Columbia, SC 2/14-24/19 (FL)","Sam's Club #4872 Columbia, SC 2/14-24/19 (FL)",Michael Wang,115268,2/24/2019 9:28:34 AM,Quandolyn Frierson,SC,29150,Shogun Neck & Back Massger,New,New,1,16.00,199.98,215.98,CreditCard,,,"2 years parts, 1 year labor for Small Items","Shogun Neck &amp; Back Massger,",No,,Delivered,,,"@June: Please ship to customer and text her the tracking number.
2/25/19-will confirm -Hitomi",TX,0,8.00,USJ-874USJ-874,215.98,Tc# 1893 0059 5294 1468 4759 6,,,,,,0.00,,,,,,,0.00,,,,,,
"Sam's Club #4872 Columbia, SC 2/14-24/19 (FL)","Sam's Club #4872 Columbia, SC 2/14-24/19 (FL)",Michael Wang,115275,2/24/2019 1:50:05 PM,Rabinder Singh,SC,29229,Relax 2 Zero 2.0 for Sam's,Demo (Box) Black[-701],Demo,1,255.92,3199.00,3454.92,CreditCard,,,"3 years parts, 1 year labor (Free)","Relax 2 Zero 2.0 for Sam's,Chair Pad for Relax2Zero 2.0,Daiwa Blanket,",No,,Cancelled,,,Give one refurnished ninja leg 2.0 upon delivery.Customer available 2/25 before 12pm or after 3pm.Then on Fri 3/1 customer available anytime.1st floor delivery.,Not Dispatched,0,8.00,USJ-9050USJ-9050BL-DEMO (Box),3454.92,Tc# 1302 5525 5448 6060 7633 38,,,,,,0.00,,,,,,,0.00,,,,,,
"Sam's Club #4872 Columbia, SC 2/14-24/19 (FL)","Sam's Club #4872 Columbia, SC 2/14-24/19 (FL)",Michael Wang,115358,2/27/2019 1:44:52 PM,Beverly Anderson,SC,29020,Ninja Leg Massager 2,New,New,1,24.00,299.98,323.98,CreditCard,,,"2 years parts, 1 year labor for Small Items","Ninja Leg Massager 2,",No,,Delivered,,,"Please ship from Orlando office to customer and text the tracking number.Thanks.
2/27/19-PLease ship the item from FL branch - Hitomi",FL,0,8.00,USJ-880,323.98,Tc# 3663 1029 7203 1468 4653 6,,,,,,0.00,,,,,,,0.00,,,,,,
