﻿Original Event Name,Event Name,Sales Person,Order Number,Order Date,Customer Name,State,Zip,Product Name,Color,Product Status,QTY,Tax,Total Before Tax,Order Total,Primary Payment Method,Second Payment Method,Thirdl Payment Method,Warranty,Order Items,Pick up,Delivered On,Order Status,Chair Type,Order Notes,Private Note,Branch,No Tax,Actual Tax Rate,SKU,Primary Payment Balance,Primary Authorize Number,Primary Purchase Order Number,Primary Synchrony Account Number,Primary Synchrony Application Key,Primary Synchrony Account Info,Primary Synchrony Term,Primary Synchrony Primary ID,Primary Synchrony Issued State,Primary Synchrony Expiretion Date,Second Payment Balance,Second Authorize Number,Second Purchase Order Number,Second Synchrony Account Number,Second Synchrony Application Key,Second Synchrony Account Info,Second SynchronyTerm,Second Synchrony Primary ID,Second Synchrony Issued State,Second Synchrony Expiretion Date,Third Payment Balance,Third Authorize Number,Third Purchase Order Number,Third Synchrony Account Number,Third Synchrony Application Key,Third Synchrony Account Info,Third Synchrony Term,Third Synchrony Primary ID,Third Synchrony Issued State,Third Synchrony Expiretion Date
NC State Fair 10/17-27/19,NC State Fair 10/17-27/19,Rodrigo Malabunga,121898,10/19/2019 6:03:23 AM,Micahel A Piccarelli,NC,27576,PEGASUS 2 SMART,New Choco,New,1,0.00,5250.00,5250.00,Credit Card,Cash,,"5 years parts, 1 year labor (Free)","PEGASUS 2 SMART,",No,11/5/2019 12:00:00 AM,Delivered,New,,"Tracking Number for Back Pad: 776906462050
COD $4750 2 extra leather pads  Receive after November 5
Original received. $500 verified on SQ. Remaining bal $4750. Collect COD @ delivery-Erika 10/21/19 3:10pm
CC, Jasmin Carrizales, 10/22/19, 12:54pm/Av. 11/5/19 after 1pm
Delivery conf completed, COD of $4750 cash verified & signed by Andres-Erika 11/15/19 4:18pm",FL,1,7.25,PEGS-2PEGS-2-BR,500.00,5wtR,,,,,,,,/,4750.00,,,,,,,,,/,0.00,,,,,,,,,/
NC State Fair 10/17-27/19,NC State Fair 10/17-27/19,Neneth Finley,121899,10/19/2019 6:16:10 AM,Sandraw Grissom,NC,27565,Relax 2 Zero 3D,New Choco,New,1,0.00,4300.00,4300.00,Credit Card,Credit Card,,"5 years parts, 1 year labor (Free)","Relax 2 Zero 3D,",No,11/6/2019 12:00:00 AM,Delivered,New,,"Original received. $500 verified on SQ. Remaining balance $3800. Collect COD @ delivery-Erika 10/21/19 3:11pm
CC, Jasmin Carrizales, 10/22/19, 1:03pm/Av. Mon.-Thurs.
*Discounted $300 to avoid rescheduling delivery (approved by Andres) Total COD collected =$3500 -- 11/7/19 MQ
Delivery conf completed. COD of $3500 verified on Sq-Erika 11/15/19 4:17pm",FL,1,7.25,DWA-9060USJ-9060BR,500.00,es9N,,,,,,,,/,3500.00,AAEH,,,,,,,,/,0.00,,,,,,,,,/
NC State Fair 10/17-27/19,NC State Fair 10/17-27/19,Rodrigo Malabunga,121900,10/19/2019 6:21:56 AM,Chris Hatley,NC,28390,Relax 2 Zero 3D,New Black,New,1,0.00,4000.00,4000.00,Credit Card,,,"5 years parts, 1 year labor (Free)","Relax 2 Zero 3D,",No,11/5/2019 12:00:00 AM,Delivered,New,,"Original received. $4000 verified on SQ-Erika 10/21/19 3:13pm
CC, Jasmin Carrizales, 10/22/19, 1:07pm, VM
Delivery conf completed.-Erika 11/27/19 3:51pm",FL,1,7.25,DWA-9060USJ-9060BL,4000.00,aOwM,,,,,,,,/,0.00,,,,,,,,,/,0.00,,,,,,,,,/
NC State Fair 10/17-27/19,NC State Fair 10/17-27/19,Neneth Finley,121901,10/19/2019 6:30:27 AM,Sharif Deveaux,NC,27613,Orbit,Demo Choco,Demo,1,0.00,2800.00,2800.00,Synchrony,,,"5 years parts, 1 year labor (Free)","Orbit,",No,11/7/2019 12:00:00 AM,Delivered,Demo,,"orbit/majesty
Synchrony original verified. Credit avail $7000. Remaining balance $2800. Charge sync acct, have sales draft signed-Erika 10/21/19 3:21pm
CC, Jasmin Carrizales, 10/23/19, VM
Delivery conf completed, sales draft signed-Erika 11/15/19 4:42pm",FL,1,7.25,ORBT-1ORBT-1CH-DEMO,2800.00,,,6501723375372339,82684372,San Diego,36 months,Driver’s License,NC,01/2026,0.00,,,,,,,,,/,0.00,,,,,,,,,/
NC State Fair 10/17-27/19,NC State Fair 10/17-27/19,Ruben Cuatrona,121902,10/19/2019 6:35:46 AM,Kate Simmons,NC,28590,Relax 2 Zero 3D,New Black,New,1,0.00,4200.00,4200.00,Credit Card,,,"5 years parts, 2 years labor ($200)","Relax 2 Zero 3D,",No,11/6/2019 12:00:00 AM,Delivered,New,,"Original verified. $4200 verified on SQ. Paid in full-Erika 10/21/19 3:22pm
CC, Jasmin Carrizales, 10/22/19, 1:38pm/Av. Anytime+Any day
Delivery conf completed-Erika 11/15/19 4:21pm",FL,1,7.25,DWA-9060USJ-9060BL,4200.00,bIYM,,,,,,,,/,0.00,,,,,,,,,/,0.00,,,,,,,,,/
NC State Fair 10/17-27/19,NC State Fair 10/17-27/19,Rodrigo Malabunga,121925,10/20/2019 6:56:43 AM,John Guthrie,NC,27243,PEGASUS 2 SMART,New Choco,New,1,0.00,5800.00,5800.00,Credit Card,,,"5 years parts, 2 years labor ($200)","PEGASUS 2 SMART,",No,11/12/2019 12:00:00 AM,Delivered,New,,"Original received. $5800 verified on SQ. Paid in full-Erika 10/21/19 11:53am
CC, Jasmin Carrizales, 10/22/19, 1:52pm, VM
Delivery conf completed-Erika 11/27/19 4:00pm",FL,1,7.25,PEGS-2PEGS-2-BR,5800.00,RH0n,,,,,,,,/,0.00,,,,,,,,,/,0.00,,,,,,,,,/
NC State Fair 10/17-27/19,NC State Fair 10/17-27/19,Neneth Finley,121926,10/20/2019 7:11:38 AM,Danny tanya Fitzko,NC,27284,Legacy 3D,Demo Choco,Demo,1,0.00,4200.00,4200.00,Synchrony,Synchrony,,"5 years parts, 1 year labor (Free)","Legacy 3D,",No,11/7/2019 12:00:00 AM,Delivered,Demo,,"Synchrony original verified. Credit avail ending in 5001 is $2000. Charge (1800) have sales draft signed. Credit avail ending in 5100 is $2400. Charge (2400) have sales draft signed-Erika 10/21/19 11:18am
CC, Jasmin Carrizales, 10/22/19, 1:56pm/Av. Anytime before 11/17/19
Delivery conf completed, sales draft signed-Erika 11/15/19 4:10pm",FL,1,7.25,DWA-9150USJ-9150CH-DEMO,1800.00,,,6501723375375001,82750765,San Diego,36 months,Driver’s License,NC,08/2023,2400.00,,,6501723375375100,82751318,San Diego,36 months,Driver’s License,NC,06/2025,0.00,,,,,,,,,/
NC State Fair 10/17-27/19,NC State Fair 10/17-27/19,Ruben Cuatrona,121927,10/20/2019 7:20:17 AM,James And Laura Medlin,NC,27823,PEGASUS 2 SMART,New Choco,New,1,0.00,5800.00,5800.00,Synchrony,Synchrony,,"5 years parts, 1 year labor (Free)","PEGASUS 2 SMART,",No,11/6/2019 12:00:00 AM,Delivered,New,,"Sync acc verified. Credit avail for account ending in 4087 is $5100. Charge acct (5100) have sales draft signed. Credit avail for account ending in 4046 is $2400. Charge acct (700) have sales draft signed-Erika 10/21/19 11:51am
CC, Jasmin Carrizales, 10/22/19, 2:08pm/Av. 11/4th, 5th, 6th + 8th
Delivery conf completed, sales draft signed-Erika 11/15/19 4:26pm",FL,1,7.25,PEGS-2PEGS-2-BR,5100.00,,,6501723375374087,82734795,San Diego,36 months,Driver’s License,NC,10/2026,700.00,,,6501723375374046,82734305,San Diego,36 months,Driver’s License,NC,07/2023,0.00,,,,,,,,,/
NC State Fair 10/17-27/19,NC State Fair 10/17-27/19,Rodrigo Malabunga,121928,10/20/2019 7:29:41 AM,Herbert Jordan Pendergast,NC,27816,Orbit,New Black,New,1,0.00,3000.00,3000.00,Synchrony,,,"5 years parts, 1 year labor (Free)","Orbit,",No,,Cancelled,,,"Own syncrony account
Sync acct verified. Credit avail $3181. Remaining bal $3000. charge sync acct, have sales draft signed-Erika 10/21/19 11:25am
canceled new order#121986",Not Dispatched,1,7.25,ORBT-1ORBT-1BL,3000.00,,,6019191253313988,,San Diego,36 months,Driver’s License,NC,01/2022,0.00,,,,,,,,,/,0.00,,,,,,,,,/
NC State Fair 10/17-27/19,NC State Fair 10/17-27/19,Rodrigo Malabunga,121964,10/21/2019 6:37:18 AM,Kathy Lowry,NC,28212,Legacy 3D,New Black,New,1,0.00,4200.00,4200.00,Synchrony,,,"5 years parts, 1 year labor (Free)","Legacy 3D,",No,11/6/2019 12:00:00 AM,Delivered,New,,"Synchrony original verified. Credit avail $6800. Remaining bal $4200. Charge sync acct, have sales draft signed-Erika 10/22/19 11:41am
CC, Jasmin Carrizales, 10/23/19, 2:30pm, VM
Delivery conf completed, sales draft signed-Erika 11/27/19 3:50pm",FL,1,7.25,DWA-9150USJ-9150BL,4200.00,,,6501723375375613,82767336,San Diego,36 months,Driver’s License,NC,06/2024,0.00,,,,,,,,,/,0.00,,,,,,,,,/
NC State Fair 10/17-27/19,NC State Fair 10/17-27/19,Rodrigo Malabunga,121986,10/21/2019 11:43:03 AM,Herbert Jordan Pendergrass,NC,27816,Majesty,New Black,New,1,0.00,3000.00,3000.00,Synchrony,,,"5 years parts, 1 year labor (Free)","Majesty,",No,11/6/2019 12:00:00 AM,Delivered,New,,"Own syncrony account
Sync acct verified. Credit avail $3181. Remaining bal $3000. charge sync acct, have sales draft signed-Erika 10/21/19 11:25am
CC, Jasmin Carrizales, 10/22/19, 2:42pm/Av. Mon.-Fri. After 3:30pm
Delivery conf completed, sales draft signed-Erika 11/15/19 4:13pm",FL,1,7.25,MAJ-1010MAJ-1010-BL,3000.00,,,6019191253313988,,San Diego,36 months,Driver’s License,NC,01/2022,0.00,,,,,,,,,/,0.00,,,,,,,,,/
NC State Fair 10/17-27/19,NC State Fair 10/17-27/19,Neneth Finley,122004,10/22/2019 6:44:43 AM,Mathew Timothy o’Shea,NC,27520,Relax 2 Zero 3D,New Choco,New,1,0.00,4900.00,4900.00,Synchrony,,,"5 years parts, 1 year labor (Free)","Relax 2 Zero 3D,",No,,Hold,,,"** Customer requested we charge his Synchrony account but HOLD the delivery until Feb. 2020**


Synchrony original verified. Credit avail $6500. Remaining balance $4900. Charge synchrony acct, have sales draft signed-Erika
CC, Jasmin Carrizales, 10/23/19, 3:46pm, VM",FL,1,7.25,DWA-9060USJ-9060BR,4900.00,,,6501723375378252,82829709,San Diego,36 months,Driver’s License,NC,03/2026,0.00,,,,,,,,,/,0.00,,,,,,,,,/
NC State Fair 10/17-27/19,NC State Fair 10/17-27/19,Ruben Cuatrona,122006,10/22/2019 7:02:18 AM,Veronica Santiago Gonzalez,NC,27603,Relax 2 Zero 3D,Demo Choco,Demo,1,0.00,4200.00,4200.00,Synchrony,Credit Card,,"5 years parts, 1 year labor (Free)","Relax 2 Zero 3D,",No,11/5/2019 12:00:00 AM,Delivered,Demo,,"Correct Phone numbers: 
919-395-9472 /919-866-9131
Synchrony account verified. Credit avail $2282. Charge sync acct (2200) have sales draft signed.  Remaining balance $2000. Collect COD @ delivery-Erika 10/22/19 9:17am
CC, Jasmin Carrizales,10/23/19,4:10pm, Wrong Number,sent an email to address provided
Delivery conf completed, sales draft signed COD of $2000 paid in housecall-Erika 11/15/19 4:36pm",FL,1,7.25,DWA-9060USJ-9060BR-DEMO,2200.00,,,6019191235579201,,San Diego,24 months,Driver’s License,NC,01/2022,2000.00,House call Pro,,,,,,,,/,0.00,,,,,,,,,/
NC State Fair 10/17-27/19,NC State Fair 10/17-27/19,Ting Ritchie,122008,10/22/2019 7:35:03 AM,Andrea Jackson,NC,27610,Legacy 3D,Demo Black,Demo,1,0.00,4200.00,4200.00,Synchrony,,,"5 years parts, 1 year labor (Free)","Legacy 3D,",No,11/5/2019 12:00:00 AM,Delivered,Demo,,"Synchrony original verified. Credit avail $5000. Remaining balance $4200. Charge sync acct, have sales draft signed-Erika 10/22/19 9:12am
CC, Jasmin Carrizales, 10/24/19, 8:51am, VM
Delivery conf completed, sales draft signed-Erika 11/15/19 4:31pm",FL,1,7.25,DWA-9150USJ-9150BL-DEMO,4200.00,,,6501723375378500,82834708,San Diego,48 months,Driver’s License,NC,04/2023,0.00,,,,,,,,,/,0.00,,,,,,,,,/
NC State Fair 10/17-27/19,NC State Fair 10/17-27/19,Neneth Finley,122009,10/22/2019 8:30:42 AM,Rosetta Pitts,NC,28326,Majesty,New Choco,New,1,0.00,3500.00,3500.00,Synchrony,,,"5 years parts, 1 year labor (Free)","Majesty,",No,,Called,,,"Synchrony original verified. Credit avail $6500. Remaining bal $3500. Charge Sync acct, have sales draft signed-Erika 10/22/19 9:09am
CC, Jasmin Carrizales, 10/23/19, 5:58pm, will not go to voicemail + No one answers",FL,1,7.25,MAJ-1010MAJ-1010-BR,3500.00,,,6501723375378732,82847858,San Diego,36 months,Driver’s License,TX,09/2025,0.00,,,,,,,,,/,0.00,,,,,,,,,/
NC State Fair 10/17-27/19,NC State Fair 10/17-27/19,Rodrigo Malabunga,122011,10/22/2019 8:37:26 AM,Angela Tim Gouge,NC,27539,Relax 2 Zero 3D,New Black,New,1,0.00,5100.00,5100.00,Credit Card,Credit Card,,"5 years parts, 2 years labor ($200)","Relax 2 Zero 3D,",No,11/5/2019 12:00:00 AM,Delivered,New,,"Pls left a message if the customer not answering the call. Total $4500 disregard remaining bal
Original received. $2250 x2 verified on SQ. Paid in full-Erika 10/22/19 10:34am 
CC,Jasmin Carrizales, 10/24/19, 9:22am
Delivery conf completed-Erika 11/15/19 4:32pm",FL,1,7.25,DWA-9060USJ-9060BL,2250.00,MBBk,,,,,,,,/,2250.00,Oiu5,,,,,,,,/,0.00,,,,,,,,,/
NC State Fair 10/17-27/19,NC State Fair 10/17-27/19,Ting Ritchie,122026,10/22/2019 1:21:09 PM,Kristin Carter,NC,27703,Legacy 3D,Demo Choco,Demo,1,0.00,4200.00,4200.00,Synchrony,,,"5 years parts, 1 year labor (Free)","Legacy 3D,",No,,Cancelled,,,"(HOLD) do not charge the customer yet,wait for the advice
10/28Maritza- Customer called to cancel order. Will confirm with Ting. Confirmed cancellation",Not Dispatched,1,7.25,DWA-9150USJ-9150CH-DEMO,4200.00,,,6501723375378757,82850561,San Diego,48 months,Driver’s License,NC,03/2022,0.00,,,,,,,,,/,0.00,,,,,,,,,/
NC State Fair 10/17-27/19,NC State Fair 10/17-27/19,Rodrigo Malabunga,122027,10/22/2019 1:27:57 PM,Donna Ring,NC,27549,Legacy 3D,Demo Choco,Demo,1,0.00,4140.00,4140.00,Synchrony,,,"5 years parts, 1 year labor (Free)","Legacy 3D,",No,11/6/2019 12:00:00 AM,Delivered,Demo,,"Synchrony original verified. Credit avail $5000. Remaining bal $4140. Charge sync acct, have sales draft signed-Erika 10/22/19 2:35pm
CC, Jasmin Carrizales, 10/24/19, 10:13am, VM
Delivery conf completed, sales draft signed-Erika 11/15/19 4:14pm",FL,1,7.25,DWA-9150USJ-9150CH-DEMO,4140.00,,,6501723375379151,82862352,San Diego,36 months,Driver’s License,NC,11/2023,0.00,,,,,,,,,/,0.00,,,,,,,,,/
NC State Fair 10/17-27/19,NC State Fair 10/17-27/19,Ruben Cuatrona,122032,10/23/2019 6:53:54 AM,David Ramirez,NC,27517,Relax 2 Zero 3D,New Black,New,1,0.00,4500.00,4500.00,Synchrony,,,"5 years parts, 1 year labor (Free)","Relax 2 Zero 3D,",No,11/6/2019 12:00:00 AM,Delivered,New,,"Synchrony original verified. Credit avail $5000. Remaining bal $4500. charge sync acct, have sales draft signed-Erika 10/23/19 9:32am
CC, Jasmin Carrizales, 10/24/19, 9:50am, VM
Delivery conf completed, sales draft signed-Erika 11/15/19 4:12pm",FL,1,7.25,DWA-9060USJ-9060BL,4500.00,,,6501723375378690,82844772,San Diego,24 months,Driver’s License,NC,03/2020,0.00,,,,,,,,,/,0.00,,,,,,,,,/
NC State Fair 10/17-27/19,NC State Fair 10/17-27/19,Ruben Cuatrona,122069,10/24/2019 6:49:22 AM,Caleb Roncaguone,NC,27712,PEGASUS 2 SMART,New Choco,New,1,0.00,5500.00,5500.00,Synchrony,Credit Card,,"5 years parts, 1 year labor (Free)","PEGASUS 2 SMART,",No,11/6/2019 12:00:00 AM,Delivered,New,,"Synchrony $4,500 COD $1,000 Total priced $5,500
Synchrony acct verified. Credit avail $7200. Charge sync acct (4500), have sales draft signed. Remaining bal $1000. Collect COD (1000) @ delivery-Erika 10/24/19 9:35am
CC, Jasmin Carrizales, 10/25/19, 1:03pm, VM-Av. Mon.-Thurs after 3pm, Fri. All Day
Delivery conf completed, sales draft signed. $1000 verified on housecall paid by credit card-Erika 11/25/19",FL,1,7.25,PEGS-2PEGS-2-BR,4500.00,,,6501723375380555,82919717,San Diego,48 months,Driver’s License,NC,12/2024,1000.00,House call Pro,,,,,,,,/,0.00,,,,,,,,,/
NC State Fair 10/17-27/19,NC State Fair 10/17-27/19,Ting Ritchie,122070,10/24/2019 6:57:07 AM,Melinda Finch,NC,27896,Relax 2 Zero 3D,New Choco,New,1,0.00,4500.00,4500.00,Synchrony,,,"5 years parts, 1 year labor (Free)","Relax 2 Zero 3D,",No,11/5/2019 12:00:00 AM,Delivered,New,,"Synchrony original verified. Credit avail $7026. Remaining bal $4500. Charge sync acct, have sales draft signed-Erika 10/24/19 9:07am
CC, Jasmin Carrizales, 10/25/19, 1:06pm, VM
Delivery conf completed, sales draft signed-Erika 11/15/19 4:28pm",FL,1,7.25,DWA-9060USJ-9060BR,4500.00,,,6019191226033614,,San Diego,36 months,Driver’s License,NC,09/2023,0.00,,,,,,,,,/,0.00,,,,,,,,,/
NC State Fair 10/17-27/19,NC State Fair 10/17-27/19,Ruben Cuatrona,122071,10/24/2019 7:06:57 AM,Thomas Morre,NC,28513,Relax 2 Zero 3D,New Choco,New,1,0.00,3600.00,3600.00,Synchrony,,,"5 years parts, 1 year labor (Free)","Relax 2 Zero 3D,",No,,Cancelled,,,"Synchrony original verified. Credit avail $5000. Remaining bal $3600. Charge sync acct, have sales draft signed-Erika 10/24/19 9:11am
incorrect warranty will update new order#122074",Not Dispatched,1,7.25,DWA-9060USJ-9060BR,3600.00,,,6501723375380597,82920859,San Diego,24 months,Driver’s License,NC,01/2023,0.00,,,,,,,,,/,0.00,,,,,,,,,/
NC State Fair 10/17-27/19,NC State Fair 10/17-27/19,Ruben Cuatrona,122072,10/24/2019 7:17:07 AM,George Smith,NC,28513,Relax 2 Zero 3D,New Choco,New,1,0.00,3600.00,3600.00,Credit Card,Cash,,"5 years parts, 2 years labor ($200)","Relax 2 Zero 3D,",No,11/6/2019 12:00:00 AM,Delivered,New,,"** Customer Requested color change to BLACK ** - 10/29/19 JD
Thomas E Moore order # 122072 change to a 5 yrs parts 2 yrs labor and Thomas Morre and George smith are neighbors pls delivery both at same time thank you very much.
COD $3,400
--Original received. $200 verified on SQ. Remaining balance $3400. Charge sync acct, have sales draft signed-Erika 10/24/19 9:31am
CC, Jasmin Carrizales, 10/25/19, 1:24pm/Av. Anytime.
Delivery conf completed. COD of $3400 verified in cash received by Maggie Q-Erika 11/27/19 3:45pm",FL,1,7.25,DWA-9060USJ-9060BR,200.00,Sq #Pvyv,,,,,,,,/,3400.00,,,,,,,,,/,0.00,,,,,,,,,/
NC State Fair 10/17-27/19,NC State Fair 10/17-27/19,Ruben Cuatrona,122074,10/24/2019 9:20:11 AM,Thomas E. Moore,NC,28513,Relax 2 Zero 3D,New Choco,New,1,0.00,3600.00,3600.00,Synchrony,,,"5 years parts, 2 years labor ($200)","Relax 2 Zero 3D,",No,11/6/2019 12:00:00 AM,Delivered,New,,"Synchrony original verified. Credit avail $5000. Remaining bal $3600. Charge sync acct, have sales draft signed-Erika 10/24/19 9:11am
CC, Jasmin Carrizales, 10/25/19, 1:28pm/Av. Anytime
11/13Maritza- Customer called to ask about billing. Provided number just in case.
Delivery conf completed, sales draft signed-Erika 11/15/19 4:09pm",FL,1,7.25,DWA-9060USJ-9060BR,3600.00,,,6501723375380597,82920859,San Diego,24 months,Driver’s License,NC,01/2023,0.00,,,,,,,,,/,0.00,,,,,,,,,/
NC State Fair 10/17-27/19,NC State Fair 10/17-27/19,Ruben Cuatrona,122079,10/24/2019 2:51:56 PM,Alfred Wilson,NC,27587,PEGASUS 2 SMART,New Choco,New,1,0.00,5500.00,5500.00,Synchrony,,,"5 years parts, 1 year labor (Free)","PEGASUS 2 SMART,",No,11/6/2019 12:00:00 AM,Delivered,New,,"Synchrony original verified. Credit avail $9000. Remaining bal $5500. Charge sync acct, have sales draft signed-Erika 10/24/19 5:14pm *Pls collect sig on invoice*
CC, Jasmin Carrizales, 10/25/19, 2:36pm/Av. Mon.-Wed.-Anytime + Thurs. + Fri.-After 3pm
Delivery conf completed, sales draft signed-Erika 11/27/19 3:50pm",FL,1,7.25,PEGS-2PEGS-2-BR,5500.00,,,6501723375381702,82867278,San Diego,36 months,Driver’s License,NC,12/2021,0.00,,,,,,,,,/,0.00,,,,,,,,,/
NC State Fair 10/17-27/19,NC State Fair 10/17-27/19,Ting Ritchie,122088,10/25/2019 7:12:13 AM,Robert Brumfield,NC,27612,Legacy 3D,New Choco,New,1,0.00,4100.00,4100.00,Synchrony,,,"5 years parts, 1 year labor (Free)","Legacy 3D,",No,11/12/2019 12:00:00 AM,Delivered,New,,"Synchrony account verified. Credit avail $7600. Remaining bal $4100. Charge sync acct, have sales draft signed-Erika 10/25/19 10:14am
CC, Jasmin Carrizales, 10/25/19, 2:53pm
Delivery conf completed, sales draft signed-Erika 11/27/19 4:04pm",FL,1,7.25,DWA-9150USJ-9150CH,4100.00,,,6501723375381462,82958909,San Diego,36 months,Driver’s License,NC,06/2021,0.00,,,,,,,,,/,0.00,,,,,,,,,/
NC State Fair 10/17-27/19,NC State Fair 10/17-27/19,Ruben Cuatrona,122089,10/25/2019 7:17:26 AM,Theresa Gardner,NC,28103,Legacy 3D,New Choco,New,1,0.00,4200.00,4200.00,Synchrony,,,"5 years parts, 1 year labor (Free)","Legacy 3D,",No,11/14/2019 12:00:00 AM,Delivered,New,,"Synchrony original verified. Credit avail $9500. Remaining balance $4200. Charge sync acct, have sales draft signed-Erika 10/25/19 10:16 am
CC, Jasmin Carrizales, 10/25/19, 3:10pm/Av. Mon.-Fri. After 4pm
Delivery conf completed, sales draft signed-Erika 11/27/19",FL,1,7.25,DWA-9150USJ-9150CH,4200.00,,,6501723375381728,82964609,San Diego,36 months,Driver’s License,NC,06/2021,0.00,,,,,,,,,/,0.00,,,,,,,,,/
NC State Fair 10/17-27/19,NC State Fair 10/17-27/19,Rodrigo Malabunga,122091,10/25/2019 8:50:02 AM,Ben Whitt,NC,27244,PEGASUS 2 SMART,New Black,New,1,0.00,5500.00,5500.00,Credit Card,Credit Card,,"5 years parts, 2 years labor ($200)","PEGASUS 2 SMART,",No,11/12/2019 12:00:00 AM,Delivered,New,,"COD $4,500.00
-Original received $1000 verified on SQ. Remaining bal $4500. Collect Cod @ delivery-Erika 10/25/19 10:22am
CC, Jasmin Carrizales, 10/25/19, 3:30pm, VM-Full
Delivery conf completed. COD of $4500 verified on housecall by credit card-Erika 11/25/19 5:11pm",FL,1,7.25,PEGS-2PEGS-2-BL,1000.00,Sq #FmWc,,,,,,,,/,4500.00,House call Pro,,,,,,,,/,0.00,,,,,,,,,/
NC State Fair 10/17-27/19,NC State Fair 10/17-27/19,Neneth Finley,122106,10/26/2019 6:48:39 AM,Martin Steinert,NC,27540,Relax 2 Zero 3D,New Choco,New,1,0.00,4900.00,4900.00,Credit Card,COD,,"5 years parts, 1 year labor (Free)","Relax 2 Zero 3D,",No,,Cancelled,,,"COD $3700.00
Original received. $200 verified on SQ. Remaining bal $3700. Collect COD @ delivery-Erika 10/28/19 9:50am
Canceled incorrect amount. New order# 122176",Not Dispatched,1,7.25,DWA-9060USJ-9060BR,200.00,Sq #ZTHz,,,,,,,,/,0.00,,,,,,,,,/,0.00,,,,,,,,,/
NC State Fair 10/17-27/19,NC State Fair 10/17-27/19,Ruben Cuatrona,122107,10/26/2019 6:55:06 AM,Walter Branch,NC,27610,PEGASUS 2 SMART,New Choco,New,1,0.00,5500.00,5500.00,Synchrony,,,"5 years parts, 1 year labor (Free)","PEGASUS 2 SMART,",No,11/13/2019 12:00:00 AM,Delivered,New,,"Own account
Synchrony account verified. Credit avail $6109. Remaining bal $5500. Charge sync acct, have sales draft signed-Erika 10/28/19 10:08am
919-637-1615
CC, Jasmin Carrizales, 10/29/19, 4:38pm
Delivery conf completed, sales draft signed-Erika 11/27/19 4:06pm",FL,1,7.25,PEGS-2PEGS-2-BR,5500.00,,,6501722451120612,,San Diego,48 months,Driver’s License,NC,11/2023,0.00,,,,,,,,,/,0.00,,,,,,,,,/
NC State Fair 10/17-27/19,NC State Fair 10/17-27/19,Neneth Finley,122108,10/26/2019 7:02:50 AM,Mary helen Yehl,NC,27215,Majesty,New Choco,New,1,0.00,3500.00,3500.00,Synchrony,,,"5 years parts, 1 year labor (Free)","Majesty,",No,11/12/2019 12:00:00 AM,Delivered,New,,"Synchrony original verified. Credit avail $6500. Remaining bal $3500. Charge sync acct, have sales draft signed-Erika 10/28/19 10:12am
CC, Jasmin Carrizales, 10/29/19, 4:42pm, VM/Av. Mon. + Fri. 
If charged interest will want chair to be taken back. 11/4/19 JC
Delivery conf completed, sales draft signed-Erika 11/27/19",FL,1,7.25,MAJ-1010MAJ-1010-BR,3500.00,,,6501723375382452,82996366,San Diego,36 months,Driver’s License,NC,08/2025,0.00,,,,,,,,,/,0.00,,,,,,,,,/
NC State Fair 10/17-27/19,NC State Fair 10/17-27/19,Rodrigo Malabunga,122110,10/26/2019 7:18:28 AM,Laura Klein,NC,27540,Relax 2 Zero 3D,New Choco,New,1,0.00,4800.00,4800.00,Synchrony,,,"5 years parts, 2 years labor ($200)","Relax 2 Zero 3D,",No,11/20/2019 12:00:00 AM,Delivered,New,,"Customer waiting for credit account,pls hold
Per Rod customer send her acct # info. Pls call to see if shes ready for delivery.
Synchrony original verified. Credit avail $6,996. Remaining bal $4800. Charge sync acct, have sales draft signed-Erika 11/4/19 3:24pm
CC, Jasmin Carrizles, 11/5/19, 11:20am, VM
Delivery conf completed, sales draft signed-Erika 11/27/19 3:40pm",FL,1,7.25,DWA-9060USJ-9060BR,4800.00,,,6501722456186097,,San Diego,48 months,Driver’s License,NC,09/2022,0.00,,,,,,,,,/,0.00,,,,,,,,,/
NC State Fair 10/17-27/19,NC State Fair 10/17-27/19,Rodrigo Malabunga,122112,10/26/2019 7:29:13 AM,Stacia Hamidi,NC,27614,Relax 2 Zero 3D,New Black,New,1,0.00,4200.00,4200.00,Synchrony,,,"5 years parts, 2 years labor ($200)","Relax 2 Zero 3D,",No,,Hold,,,"Synchrony original verified. Credit avail $6800. Remaining bal $4200. Charge sync acct, have sales draft signed-Erika 10/28/19 10:26am
10/28Maritza- Customer called saying she wants to cancel order due to job telling her she would be laid off. Will text Rod about situation.",FL,1,7.25,DWA-9060USJ-9060BL,4200.00,,,6501723375383310,83016634,San Diego,36 months,Driver’s License,NC,01/2023,0.00,,,,,,,,,/,0.00,,,,,,,,,/
NC State Fair 10/17-27/19,NC State Fair 10/17-27/19,Neneth Finley,122127,10/27/2019 6:56:43 AM,Jeremy Goodwin,NC,28675,Relax 2 Zero 3D,New Black,New,1,0.00,3900.00,3900.00,Synchrony,,,"5 years parts, 1 year labor (Free)","Relax 2 Zero 3D,",No,11/14/2019 12:00:00 AM,Delivered,New,,"Synchrony original verified. Credit avail $7000. Remaining bal $3900. Charge sync acct, have sales draft signed-Erika 10/28/19 11:22am
CC, Jasmin Carrizales, 10/29/19, 5:02pm/Av. Anytime
Delivery conf completed, sales draft signed-Erika 11/27/19 4:18pm",FL,1,7.25,DWA-9060USJ-9060BL,3900.00,,,6501723375383559,83027573,San Diego,36 months,Driver’s License,NC,04/2021,0.00,,,,,,,,,/,0.00,,,,,,,,,/
NC State Fair 10/17-27/19,NC State Fair 10/17-27/19,Ruben Cuatrona,122128,10/27/2019 7:00:42 AM,Isodora Fuentes,NC,27203,Relax 2 Zero 3D,Demo Black,Demo,1,0.00,3500.00,3500.00,Credit Card,Credit Card,,"5 years parts, 1 year labor (Free)","Relax 2 Zero 3D,",No,11/14/2019 12:00:00 AM,Delivered,Demo,,"COD $2500.00
Original verified. $1000 verified on SQ. Remaining bal $2500. Collect COD @ delivery-Erika 10/28/19 10:55am
CC, Jasmin Carrizales, 10/29/19, 5:07pm, VM
Delivery conf completed, $2500 was paid on housecall by credit card-Erika 11/25/19 5:14pm",FL,1,7.25,DWA-9060USJ-9060BL-DEMO,1000.00,Sq #qCAN,,,,,,,,/,2500.00,House call Pro,,,,,,,,/,0.00,,,,,,,,,/
NC State Fair 10/17-27/19,NC State Fair 10/17-27/19,Neneth Finley,122129,10/27/2019 7:01:23 AM,Brett Goodwin,NC,28675,Relax 2 Zero 3D,New Black,New,1,0.00,3900.00,3900.00,Synchrony,,,"5 years parts, 1 year labor (Free)","Relax 2 Zero 3D,",No,11/13/2019 12:00:00 AM,Delivered,New,,"UPDATED ADDRESS: 1020 Investment Blvd, Apex, NC 27502

Synchrony original verified. Credit avail $7000. Remaining bal $3900. Charge sync acct, have sales draft signed-Erika 10/28/19 11:20am
CC Jasmin Carrizales, 10/29/19, 5:11pm, VM
Delivery conf completed, sales draft signed-erika 11/27/19 5:21pm",FL,1,7.25,DWA-9060USJ-9060BL,3900.00,,,6501723375383542,83027274,San Diego,36 months,Driver’s License,NC,09/2025,0.00,,,,,,,,,/,0.00,,,,,,,,,/
NC State Fair 10/17-27/19,NC State Fair 10/17-27/19,Ting Ritchie,122130,10/27/2019 7:07:14 AM,Stephany Hicks,NC,27616,Relax 2 Zero 3D,Demo Choco,Demo,1,0.00,3600.00,3600.00,Synchrony,,,"5 years parts, 1 year labor (Free)","Relax 2 Zero 3D,",No,11/13/2019 12:00:00 AM,Delivered,Demo,,"**Will receive a free Shogun due to salesrep having promised 1 week delivery, Andres approved ** 11/5/19 JD
Synchrony original verified. Credit avail $7000. Remaining bal $3600. Charge sync acct, have sales draft signed-Erika 10/28/19 11:05am
CC, Jasmin Carrizales, 10/29/19, 5:16pm/Av. the 11th from 11am-4pm and the 12th+13th before 4pm.
Shipped Shogun 11/13/19 Tracking # 776972522576
Delivery conf completed, sales draft signed-Erika 11/27/19 4:05pm",FL,1,7.25,DWA-9060USJ-9060BR-DEMO,3600.00,,,6501723375384037,83036798,San Diego,36 months,Driver’s License,NC,09/2023,0.00,,,,,,,,,/,0.00,,,,,,,,,/
NC State Fair 10/17-27/19,NC State Fair 10/17-27/19,Neneth Finley,122131,10/27/2019 7:07:35 AM,Robert&Rebecca Schupp,NC,27592,Relax 2 Zero 3D,New Choco,New,1,0.00,4200.00,4200.00,Synchrony,,,"5 years parts, 1 year labor (Free)","Relax 2 Zero 3D,",No,11/13/2019 12:00:00 AM,Delivered,New,,"Synchrony acct verified. Credit avail $8500. Remaining bal $4200. Charge sync acct, have sales draft signed-Erika 10/28/19 11:15am
CC, Jasmin Carrizales, 10/29/19, 5:23/Av. week of the 11th Mon.morning,wed. morning and thurs all day
Delivery conf completed, sales draft signed-Erika 11/27/19 4:07pm",FL,1,7.25,DWA-9060USJ-9060BR,4200.00,,,6501723375383708,83031116,San Diego,36 months,Driver’s License,NC,09/2020,0.00,,,,,,,,,/,0.00,,,,,,,,,/
NC State Fair 10/17-27/19,NC State Fair 10/17-27/19,Ruben Cuatrona,122132,10/27/2019 7:12:41 AM,Jana Passe,NC,27617,Relax 2 Zero 3D,New Black,New,1,0.00,3900.00,3900.00,Synchrony,,,"5 years parts, 1 year labor (Free)","Relax 2 Zero 3D,",No,11/14/2019 12:00:00 AM,Delivered,New,,"Synchrony acct verified. Credit avail $8500. Remaining bal $3900. Charge sync acct, have sales draft signed-Erika 10/28/19 11:11am
CC, Jasmin Carrizales, 10/29/19, 5:36pm, Hung up on me
Delivery conf completed, sales draft signed-Erika 11/27/19 3:55pm",FL,1,7.25,DWA-9060USJ-9060BL,3900.00,,,6501723375383872,83034423,San Diego,36 months,Driver’s License,NC,05/2023,0.00,,,,,,,,,/,0.00,,,,,,,,,/
NC State Fair 10/17-27/19,NC State Fair 10/17-27/19,Neneth Finley,122133,10/27/2019 7:12:57 AM,Tony&Edna Campbell,NC,28586,Relax 2 Zero 3D,New Black,New,1,0.00,4200.00,4200.00,Synchrony,,,"5 years parts, 1 year labor (Free)","Relax 2 Zero 3D,",No,11/14/2019 12:00:00 AM,Delivered,New,,"Synchrony original verified. Credit avail $7500. Remaining bal $4200. Charge sync acct, have sales draft signed-Erika 10/28/19 10:51am
CC, Jasmin Carrizales, 10/29/19, 5:40pm/Av. Anytime
Delivery conf completed, sales draft signed-erika 11/27/19 3:55pm",FL,1,7.25,DWA-9060USJ-9060BL,4200.00,,,6501723375385000,83056204,San Diego,36 months,Driver’s License,NC,10/2021,0.00,,,,,,,,,/,0.00,,,,,,,,,/
NC State Fair 10/17-27/19,NC State Fair 10/17-27/19,Rodrigo Malabunga,122134,10/27/2019 7:22:38 AM,Robert/melvin Melvin,NC,27377,Legacy 3D,New Choco,New,1,0.00,4500.00,4500.00,Synchrony,,,"5 years parts, 1 year labor (Free)","Legacy 3D,",No,11/13/2019 12:00:00 AM,Delivered,New,,"Sync acct verified. Credit avail $5000. Remaining bal $4500. Charge sync acct, have sales draft signed-Erika 10/28/19 11:18am
CC, Jasmin Carrizales, 10/29/19, 5:44pm, VM",FL,1,7.25,DWA-9150USJ-9150CH,4500.00,,,6501723375383666,83029798,San Diego,48 months,Driver’s License,NC,01/2022,0.00,,,,,,,,,/,0.00,,,,,,,,,/
NC State Fair 10/17-27/19,NC State Fair 10/17-27/19,Neneth Finley,122135,10/27/2019 7:22:59 AM,Linda Cribb,NC,28412,Relax 2 Zero 3D,New Choco,New,1,0.00,4000.00,4000.00,Credit Card,Check,,"5 years parts, 2 years labor ($200)","Relax 2 Zero 3D,",No,11/14/2019 12:00:00 AM,Delivered,New,,"COD 2000
Original received. $2000 verified on SQ. Remaining bal $2000. Collect COD @ delivery-Erika 10/28/19 10:57am
CC, Jasmin Carrizales, 10/29/19, 5:46pm, VM
Delivery conf completed COD paid by Check. Waiting for Check to clear with Yumi-Erika 11/25/19",FL,1,7.25,DWA-9060USJ-9060BR,2000.00,bZA3,,,,,,,,/,2000.00,,,,,,,,,/,0.00,,,,,,,,,/
NC State Fair 10/17-27/19,NC State Fair 10/17-27/19,Rodrigo Malabunga,122158,10/27/2019 3:56:10 PM,Mary Prince,NC,27705,Legacy 3D,New Choco,New,1,0.00,4100.00,4100.00,Synchrony,,,"5 years parts, 1 year labor (Free)","Legacy 3D,",No,11/13/2019 12:00:00 AM,Delivered,New,,"Synchrony acct verified. Credit avail $9000. Remaining bal $4100. Charge sync acct, have sales draft signed-Erika 10/29/19 1:50pm
CC, Jasmin Carrizales 10/29/19, 5:48pm, VM
Delivery confirmation completed, sales draft signed-Erika 11/27/19 3:56pm",FL,1,7.25,DWA-9150USJ-9150CH,4100.00,,,6501723375386503,83093770,San Diego,48 months,Driver’s License,NC,10/2022,0.00,,,,,,,,,/,0.00,,,,,,,,,/
NC State Fair 10/17-27/19,NC State Fair 10/17-27/19,Rodrigo Malabunga,122160,10/27/2019 4:02:27 PM,Keith Spencer,NC,27703,Legacy 3D,New Black,New,1,0.00,4100.00,4100.00,Synchrony,,,"5 years parts, 1 year labor (Free)","Legacy 3D,",No,11/12/2019 12:00:00 AM,Delivered,New,,"Synchrony original verified. Credit avail $9000. Remaining bal $4100. Charge sync acct, have sales draft signed-Erika 10/29/19 1:53pm
CC, Jasmi Carrizales, 10/29/19, 5:51pm/Av. Anytime-wants the legacy-Blue saw it on the website.
Delivery conf completed, sales draft signed-Erika 11/27",FL,1,7.25,DWA-9150USJ-9150BL,4100.00,,,6501723375386495,83093730,San Diego,48 months,Driver’s License,NC,05/2021,0.00,,,,,,,,,/,0.00,,,,,,,,,/
NC State Fair 10/17-27/19,NC State Fair 10/17-27/19,Ting Ritchie,122163,10/27/2019 4:12:30 PM,Christie Cooper,NC,27349,Relax 2 Zero 3D,New Choco,New,1,0.00,4200.00,4200.00,Credit Card,,,"5 years parts, 2 years labor ($200)","Relax 2 Zero 3D,",No,11/13/2019 12:00:00 AM,Delivered,New,,"Original received. $4200 verified on SQ. Paid in full-Erika 10/29/19 1:47pm
CC, Jasmin Carrizales, 10/29/19, 5:57pm, VM
Delivery conf completed-Erika 11/27/19 3:54pm",FL,1,7.25,DWA-9060USJ-9060BR,4200.00,Sq #Z0RT,,,,,,,,/,0.00,,,,,,,,,/,0.00,,,,,,,,,/
NC State Fair 10/17-27/19,NC State Fair 10/17-27/19,Neneth Finley,122165,10/27/2019 4:51:14 PM,Thomas/ Emily Mckoy,NC,27713,Relax 2 Zero 3D,New Choco,New,1,0.00,3900.00,3900.00,Credit Card,,,"5 years parts, 2 years labor ($200)","Relax 2 Zero 3D,",No,11/13/2019 12:00:00 AM,Delivered,New,,"Original received. $3900 verified on SQ. Paid in full-Erika 10/29/19 1:45pm
CC, Jasmin Carrizales, 10/29/19, 5:57pm, VM
Delivery conf completed-Erika 11/27/19 3:52pm",FL,1,7.25,DWA-9060USJ-9060BR,3900.00,Aq #EaeU,,,,,,,,/,0.00,,,,,,,,,/,0.00,,,,,,,,,/
NC State Fair 10/17-27/19,NC State Fair 10/17-27/19,Rodrigo Malabunga,122174,10/27/2019 8:09:46 PM,Dexter Gibson jr,NC,27371,PEGASUS 2 SMART,New Choco,New,1,0.00,5000.00,5000.00,Synchrony,,,"5 years parts, 2 years labor ($200)","PEGASUS 2 SMART,",No,11/14/2019 12:00:00 AM,Delivered,New,,"Synchrony account verified. Credit avail $6500. Remaining bal $5000. Charge sync acct have sales draft signed-Erika 10/29/19 1:42pm
CC, Jasmin Carrizales,10/29/19,/Av. Anytime week of the 11th
Delivery conf completed, sales draft signed-Erika 11/27/19",FL,1,7.25,PEGS-2PEGS-2-BR,5000.00,,,6501723375386784,83098518,San Diego,48 months,Driver’s License,NC,11/2020,0.00,,,,,,,,,/,0.00,,,,,,,,,/
NC State Fair 10/17-27/19,NC State Fair 10/17-27/19,Neneth Finley,122176,10/28/2019 9:57:33 AM,Martin Steinert,NC,27540,Relax 2 Zero 3D,New Choco,New,1,0.00,3900.00,3900.00,Credit Card,COD,,"5 years parts, 1 year labor (Free)","Relax 2 Zero 3D,",No,,Cancelled,,,"Original received. $200 verified on SQ. Remaining bal $3700. Collect COD @ delivery-Erika 10/28/19 10:06am
CC, Jasmin Carrizales, 10/29/19, 10:20am/Wants to cancel
10/29Maritza- FL branch confirmed with sales rep about cancellation. Will issue refund.",FL,1,7.25,DWA-9060USJ-9060BR,200.00,2THZ,,,,,,,,/,0.00,,,,,,,,,/,0.00,,,,,,,,,/
