﻿Date,CustomerName,State,Zipcode,Description,productNo,Color,IsDemo,Net,ShippingFee,GiftPrice,FinancingProcessingFee,Gross,Pre_tax,Tax,Commission,Primary Payment Method,Primary Payment Balance,Primary Authorize Number,Primary Purchase Order Number,Primary Synchrony Account Number,Primary Synchrony Application Key,Primary Synchrony AccountInfo,Primary SynchronyTerm,Secondly Payment Method,Secondly Payment Balance,Secondly Authorize Number,Secondly Purchase Order Number,Secondly Synchrony Account Number,Secondly Synchrony Application Key,Secondly Synchrony AccountInfo,Secondly SynchronyTerm,Thirdly Payment Method,Thirdly Payment Balance,Thirdly Authorize Number,Thirdly Purchase Order Number,Thirdly Synchrony Account Number,Thirdly Synchrony Application Key,Thirdly Synchrony AccountInfo,Thirdly SynchronyTerm,DeliveryDate,Ispickup,Warranty,Status,Event Name,Synchrony Notes,Order Notes,Order number,Private Note,Branch,IsNoTax,ActualTaxRate
4/26/2018 10:56:33 PM,Christina Serrano,AZ,85383,Legacy 3D,DWA-9150USJ-9150CH-DEMO,Demo Choco,Demo,,,,,3600.00,3600.00,0.00,Ruben Cuatrona,Synchrony,3600.00,,,6034610083236466,88034625,San Diego,36 months,,0.00,,,,,,,,0.00,,,,,,,5/9/2018 12:00:00 AM,No,"3 years parts, 1 year labor (Free)",Delivered,Waste Expo 4/24-26/18 (NV),,,105528,"Deliver demo chair, test, clean and disinfect first before ship.
4/27 Maritza confirmed available funds for $8,500. Need to check original synchrony form. **CHARGE BEFORE DELIVERY**// confirmed synchrony form  4/30/18 Hitomi
4/30Maritza Courtesy call @1:40PM
SYNCHRONY CHARGED $3600  # 011329  - STEPHANY 05/11/18",NV,1,8.25
4/26/2018 11:19:50 PM,Mohd Dudin,CA,95926,Relax2Zero 3D,DWA-9060USJ-9060BR-DEMO,Demo Choco,Demo,,,,,4100.00,4100.00,0.00,Rolly San Jose,CreditCard,2000.00,985368,,,,,,CreditCard,1100.00,024231,,,,,,CreditCard,1000.00,05014z,,,,,,5/7/2018 12:00:00 AM,No,"3 years parts, 1 year labor (Free)",Delivered,Waste Expo 4/24-26/18 (NV),,,105530,"Deliver demo chair
4/27Maritza Confirmed 2000 on wells fargo. Confirmed 1100 on wells fargo. confirmed 1000 on wells fargo. Completely paid off.
4/30Printed",CA,1,8.25
4/26/2018 11:34:57 PM,Ken Graham,GA,31028,Legacy 3D,DWA-9150USJ-9150CH-DEMO,Demo Choco,Demo,,,,,3900.00,3900.00,0.00,Ruben Cuatrona,CreditCard,3900.00,471691,,,,,,,0.00,,,,,,,,0.00,,,,,,,5/10/2018 12:00:00 AM,No,"3 years parts, 1 year labor (Free)",Delivered,Waste Expo 4/24-26/18 (NV),,,105531,"Deliver demo chair//Confirmed $3,900.00 in Wells Fargo.(Debit) 4/30/18 Hitomi
4/30Maritza Courtesy call @ 1:41PM
5/2 2:50pm c.c.",FL,1,8.25
4/26/2018 11:42:05 PM,Mark Wubben,WA,98671,Legacy 3D,DWA-9150USJ-9150BL,New Black,New,,,,,4500.00,4500.00,0.00,Rolly San Jose,CreditCard,4500.00,08413G,,,,,,,0.00,,,,,,,,0.00,,,,,,,5/4/2018 12:00:00 AM,No,"3 years parts, 1 year labor (Free)",Delivered,Waste Expo 4/24-26/18 (NV),,,105532,"Confirmed $4,500.00 in Wells Fargo.4/30/18 Hitomi
Courtesy call by Scott on 5/1/2018 left a message.",WA,1,8.25
4/26/2018 11:49:05 PM,Jenny Snyder,PA,15501,Legacy 3D,DWA-9150USJ-9150CH-DEMO,Demo Choco,Demo,,,,,3700.00,3700.00,0.00,Ruben Cuatrona,CreditCard,3700.00,02046D,,,,,,,0.00,,,,,,,,0.00,,,,,,,5/13/2018 12:00:00 AM,No,"3 years parts, 1 year labor (Free)",Delivered,Waste Expo 4/24-26/18 (NV),,,105533,"Deliver demo chair
04/27/18- payment cleared on Wells Fargo - Cristina 11:16 am
4/27Maritza Courtesy call @2:42PM
5/4 Customer called today at 12:50PM",TX,1,8.25
4/26/2018 11:56:47 PM,Michael Brown,WA,98110,Legacy 3D,DWA-9150USJ-9150CH,New Choco,New,,,,,4500.00,4500.00,0.00,Ruben Cuatrona,CreditCard,4500.00,06483G,,,,,,,0.00,,,,,,,,0.00,,,,,,,5/11/2018 12:00:00 AM,No,"3 years parts, 1 year labor (Free)",Delivered,Waste Expo 4/24-26/18 (NV),,,105534,"Confirmed $4,500.00 in Wells Fargo. 4/30/18 Hitomi.
Courtesy Call by Scott on 5/1/18 left a message.
CUSTOMER WANTS DELIVER FRIDAY 05/11- STEPHANY 05/03/18
City is not baybridge.  correct City is Bainbridge Island,  WA",WA,1,8.25
4/27/2018 12:11:10 AM,Eric Smith,NC,28562,Pegasus,DWA-9400Pegasus-BL,New Black,New,,,,,5000.00,5000.00,0.00,Rolly San Jose,CreditCard,5000.00,864736,,,,,,,0.00,,,,,,,,0.00,,,,,,,,No,"3 years parts, 1 year labor (Free)",Cancelled,Waste Expo 4/24-26/18 (NV),,,105535,"Confirmed $5,000.00 in Wells Fargo. 4/30/18 Hitomi
4/30 11:50AM - t.t. -Maggie//REVISED TO 105707 UNDER CORRECT EVENT NAME 5/1/18 HITOMI",FL,1,8.25
4/27/2018 7:32:56 PM,Seth Taube,CA,94957,Legacy 3D,DWA-9150USJ-9150BL,New Black,New,,,,,4800.00,4800.00,0.00,Ruben Cuatrona,CreditCard,4800.00,41502P,,,,,,,0.00,,,,,,,,0.00,,,,,,,5/8/2018 12:00:00 AM,No,"3 years parts, 1 year labor (Free)",Delivered,Waste Expo 4/24-26/18 (NV),,,105556,"Confirmed $4,800.00 in Wells Fargo. 4/30/18 Hitomi PRINTED",CA,1,8.25
