﻿Order Number,Order Date,Event Name,Salesperson,SKU,Product Name,Color,QTY,Warranty,Payment Details,Tax,Order Total,Gross,Primary Payment Method,Primary Payment Balance,Primary Authorize Number,Primary Purchase Order Number,Primary Synchrony Account Number,Primary Synchrony Application Key,Primary Synchrony AccountInfo,Primary SynchronyTerm,Secondly Payment Method,Secondly Payment Balance,Secondly Authorize Number,Secondly Purchase Order Number,Secondly Synchrony Account Number,Secondly Synchrony Application Key,Secondly Synchrony AccountInfo,Secondly SynchronyTerm,Thirdly Payment Method,Thirdly Payment Balance,Thirdly Authorize Number,Thirdly Purchase Order Number,Thirdly Synchrony Account Number,Thirdly Synchrony Application Key,Thirdly Synchrony AccountInfo,Thirdly SynchronyTerm,Actual Shipping Cost,CustomerName,Shipping Address,Delivered On,Serial Number (TO Be),Note,Branch,IsNoTax,ActualTaxRate
106529,6/1/2018 7:46:41 PM,SAN DIEGO COUNTY FAIR 6/1-7/4/18 DEL MAR(CA),Kohei Uno,DWA-9060USJ-9060BL-DEMO,Relax2Zero 3D,Demo Black,1,"3 years parts, 1 year labor (Free)",CUSTOM CreditCard,0.00,3700.00,3700.00,CreditCard,1700.00,849014,,,,,,CreditCard,2000.00,895232,,,,,,,0.00,,,,,,,0.00,Denise Walker,7025922686,6/12/2018 12:00:00 AM,,,NV,1,7.75
106543,6/3/2018 10:52:32 AM,SAN DIEGO COUNTY FAIR 6/1-7/4/18 DEL MAR(CA),Rodrigo Malabunga,DWA-9150USJ-9150CH-DEMO,Legacy 3D,Demo Choco,1,"3 years parts, 1 year labor (Free)",CUSTOM ,0.00,3800.00,3800.00,CreditCard,3800.00,Approval #862422,,,,,,,0.00,,,,,,,,0.00,,,,,,,0.00,Troy Green,760 533 0197,,,,CA,1,7.75
106544,6/3/2018 11:02:44 AM,SAN DIEGO COUNTY FAIR 6/1-7/4/18 DEL MAR(CA),Rodrigo Malabunga,DWA-9150USJ-9150CH-DEMO,Legacy 3D,Demo Choco,1,"3 years parts, 1 year labor (Free)",CUSTOM ,0.00,3900.00,3900.00,CreditCard,3900.00,Sq #nvVr,,,,,,,0.00,,,,,,,,0.00,,,,,,,0.00,John Brockmeyer,314 443 4816,,,,TX,1,7.75
106545,6/3/2018 11:10:02 AM,SAN DIEGO COUNTY FAIR 6/1-7/4/18 DEL MAR(CA),Rolly San Jose,DWA-9150USJ-9150BL-DEMO,Legacy 3D,Demo Black,1,"3 years parts, 1 year labor (Free)",CUSTOM ,0.00,3900.00,3900.00,CreditCard,4202.00,Approval #22046B,,,,,,,0.00,,,,,,,,0.00,,,,,,,0.00,Maria Nieto,619 656 5302,,,,CA,1,7.75
106549,6/3/2018 5:46:58 PM,SAN DIEGO COUNTY FAIR 6/1-7/4/18 DEL MAR(CA),Rodrigo Malabunga,DWA-9400Pegasus-BR-DEMO,Pegasus,Demo Choco,1,"3 years parts, 1 year labor (Free)",CUSTOM CreditCard,0.00,4500.00,4500.00,CreditCard,500.00,Sq #00De,,,,,,CreditCard,4000.00,housecall pro,,,,,,,0.00,,,,,,,0.00,William Kim,925 330 1910,6/6/2018 12:00:00 AM,,,CA,1,7.75
106556,6/3/2018 9:44:42 PM,SAN DIEGO COUNTY FAIR 6/1-7/4/18 DEL MAR(CA),Querubin Milanes,DWA-9060USJ-9060BR-DEMO,Relax2Zero 3D,Demo Choco,1,"3 years parts, 1 year labor (Free)",CUSTOM ,0.00,3700.00,3700.00,Synchrony,3700.00,,,6034610083311632,89781641,San Diego,36 months,,0.00,,,,,,,,0.00,,,,,,,0.00,Ruben Ramos,6196935419,6/6/2018 12:00:00 AM,,,CA,1,7.75
106567,6/4/2018 11:19:09 AM,SAN DIEGO COUNTY FAIR 6/1-7/4/18 DEL MAR(CA),Ruben Cuatrona,DWA-9060USJ-9060BR-DEMO,Relax2Zero 3D,Demo Choco,1,"3 years parts, 1 year labor (Free)",CUSTOM ,0.00,3900.00,3900.00,Synchrony,3900.00,,,6034610083312242,89788309,San Diego,36 months,,0.00,,,,,,,,0.00,,,,,,,0.00,Dana Olson,6199570765,,,,CA,1,7.75
106568,6/4/2018 11:30:32 AM,SAN DIEGO COUNTY FAIR 6/1-7/4/18 DEL MAR(CA),Ruben Cuatrona,DWA-9060USJ-9060BR,Relax2Zero 3D,New Choco,1,"3 years parts, 1 year labor (Free)",CUSTOM ,0.00,3900.00,3900.00,Synchrony,3900.00,,,6034610083314461,89823531,San Diego,36 months,,0.00,,,,,,,,0.00,,,,,,,0.00,Jacqueline Coronel,8582480564,,,,CA,1,7.75
106569,6/4/2018 11:30:43 AM,SAN DIEGO COUNTY FAIR 6/1-7/4/18 DEL MAR(CA),Rolly San Jose,DWA-9150USJ-9150CH,Legacy 3D,New Choco,1,"3 years parts, 1 year labor (Free)",CUSTOM ,0.00,4500.00,4500.00,Synchrony,4500.00,,,6034610083314354,89822409,San Diego,36 months,,0.00,,,,,,,,0.00,,,,,,,0.00,Kenneth Smith,760 294 9987,,,,CA,1,7.75
106570,6/4/2018 11:43:26 AM,SAN DIEGO COUNTY FAIR 6/1-7/4/18 DEL MAR(CA),Ruben Cuatrona,DWA-9060USJ-9060BR,Relax2Zero 3D,New Choco,1,"3 years parts, 1 year labor (Free)",CUSTOM ,0.00,3900.00,3900.00,Synchrony,3900.00,,,6034610083314479,89823538,San Diego,36 months,,0.00,,,,,,,,0.00,,,,,,,0.00,Sylvia Gonzalez,6192501570,,,Please include chair cover to the order.,CA,1,7.75
106571,6/4/2018 11:54:15 AM,SAN DIEGO COUNTY FAIR 6/1-7/4/18 DEL MAR(CA),Kohei Uno,DWA-9150USJ-9150CH-DEMO,Legacy 3D,Demo Choco,1,"3 years parts, 1 year labor (Free)",CUSTOM ,0.00,3500.00,3500.00,Synchrony,3500.00,,,6034610083312259,89788364,San Diego,36 months,,0.00,,,,,,,,0.00,,,,,,,0.00,Chad Graybill,2094044056,,,,CA,1,7.75
106597,6/6/2018 6:10:54 PM,SAN DIEGO COUNTY FAIR 6/1-7/4/18 DEL MAR(CA),Kohei Uno,DWA-9060USJ-9060BR-DEMO,Relax2Zero 3D,Demo Choco,1,"3 years parts, 1 year labor (Free)",CUSTOM Synchrony,256.44,4212.00,4212.00,CreditCard,312.00,zeBl,,,,,,Synchrony,3900.00,,,6034610083318959,89954940,San Diego,36 months,,0.00,,,,,,,0.00,Rena Marrocco,7609177700,,,Please remove old massage inside customer's home.,CA,0,8.00
106599,6/6/2018 9:44:45 PM,SAN DIEGO COUNTY FAIR 6/1-7/4/18 DEL MAR(CA),Ruben Cuatrona,DWA-9060USJ-9060BL-DEMO,Relax2Zero 3D,Demo Black,1,"3 years parts, 1 year labor (Free)",CUSTOM ,0.00,3900.00,3900.00,CreditCard,3900.00,a2mj,,,,,,,0.00,,,,,,,,0.00,,,,,,,0.00,Melissa Stottlemyer,6199922217,6/13/2018 12:00:00 AM,,,CA,1,8.00
106604,6/7/2018 7:36:16 PM,SAN DIEGO COUNTY FAIR 6/1-7/4/18 DEL MAR(CA),Rolly San Jose,DWA-9150USJ-9150BL-DEMO,Legacy 3D,Demo Black,1,"3 years parts, 1 year labor (Free)",CUSTOM ,0.00,3900.00,3900.00,Synchrony,3900.00,,,6034610083319122,89958374,San Diego,36 months,,0.00,,,,,,,,0.00,,,,,,,0.00,Nicholas Tudor,951 704 0608,,,,CA,1,8.00
106605,6/7/2018 7:46:05 PM,SAN DIEGO COUNTY FAIR 6/1-7/4/18 DEL MAR(CA),Rodrigo Malabunga,DWA-9400Pegasus-BR,Pegasus,New Choco,1,"3 years parts, 3 years labor ($400)",CUSTOM ,0.00,4800.00,4800.00,Synchrony,4800.00,,,6034610083320526,89999207,San Diego,36 months,,0.00,,,,,,,,0.00,,,,,,,0.00,Tammy Marlette,302 249 2635,,,,TX,1,8.00
106606,6/7/2018 7:55:28 PM,SAN DIEGO COUNTY FAIR 6/1-7/4/18 DEL MAR(CA),Rolly San Jose,DWA-9150USJ-9150CH,Legacy 3D,New Choco,1,"3 years parts, 1 year labor (Free)",CUSTOM ,0.00,4500.00,4500.00,CreditCard,4500.00,Sq #ncQ9,,,,,,,0.00,,,,,,,,0.00,,,,,,,0.00,Nancy Schuman,909 797 2217,,,,CA,1,8.00
106607,6/7/2018 8:04:50 PM,SAN DIEGO COUNTY FAIR 6/1-7/4/18 DEL MAR(CA),Rolly San Jose,DWA-9150USJ-9150BL-DEMO,Legacy 3D,Demo Black,1,"3 years parts, 1 year labor (Free)",CUSTOM COD,0.00,3900.00,3900.00,Synchrony,2400.00,,,6034610083319007,89956477,Las Vegas,36 months,COD,1500.00,,,,,,,,0.00,,,,,,,0.00,Jamie Morales,760 519 6171,,,,Not Dispatched,1,8.00
106655,6/10/2018 10:26:14 AM,SAN DIEGO COUNTY FAIR 6/1-7/4/18 DEL MAR(CA),Rolly San Jose,DWA-9150USJ-9150CH,Legacy 3D,New Choco,1,"3 years parts, 1 year labor (Free)",CUSTOM CreditCard,0.00,4600.00,4600.00,CreditCard,3400.00,Sq #1sGn,,,,,,CreditCard,1100.00,Sq #pS4o,,,,,,,0.00,,,,,,,0.00,Flora danquel Cara lawler,619 247 6554,,,,CA,1,8.00
106656,6/10/2018 10:27:49 AM,SAN DIEGO COUNTY FAIR 6/1-7/4/18 DEL MAR(CA),Ruben Cuatrona,DWA-9060USJ-9060BR,Relax2Zero 3D,New Choco,1,"3 years parts, 1 year labor (Free)",CUSTOM CreditCard,0.00,4200.00,4200.00,CreditCard,2100.00,KtQY,,,,,,CreditCard,2100.00,Nfia,,,,,,,0.00,,,,,,,0.00,Andrew Arriola,6269263702,,,,CA,1,8.00
106657,6/10/2018 10:38:05 AM,SAN DIEGO COUNTY FAIR 6/1-7/4/18 DEL MAR(CA),Ruben Cuatrona,DWA-9060USJ-9060BR,Relax2Zero 3D,New Choco,1,"3 years parts, 1 year labor (Free)",CUSTOM ,0.00,4500.00,4500.00,Synchrony,4500.00,,,6034610083324973,90088019,Las Vegas,36 months,,0.00,,,,,,,,0.00,,,,,,,0.00,Michael Gorin,6199721376,,,,CA,1,8.00
106658,6/10/2018 10:38:23 AM,SAN DIEGO COUNTY FAIR 6/1-7/4/18 DEL MAR(CA),Robert Shih,DWA-9060USJ-9060BL,Relax2Zero 3D,New Black,1,"3 years parts, 1 year labor (Free)",CUSTOM COD,312.00,4212.00,4212.00,CreditCard,100.00,SQUARE# s4D3,,,,,,COD,4112.00,,,,,,,,0.00,,,,,,,0.00,Doug Humphrey,9516934828,,,"Thank you very much for your business with us in San Diego county fair / COD $ 4,112 / Please deliver ASAP / Please assistance  customer to move his old chair to the upstairs",CA,0,8.00
106659,6/10/2018 10:44:36 AM,SAN DIEGO COUNTY FAIR 6/1-7/4/18 DEL MAR(CA),Rolly San Jose,DWA-9400Pegasus-BR-DEMO,Pegasus,Demo Choco,1,"3 years parts, 1 year labor (Free)",CUSTOM ,0.00,4500.00,4500.00,Synchrony,4500.00,,,6034610083323082,90065069,San Diego,48 months,,0.00,,,,,,,,0.00,,,,,,,0.00,David Fernandez,760 672 2950,,,,CA,1,8.00
106660,6/10/2018 10:45:11 AM,SAN DIEGO COUNTY FAIR 6/1-7/4/18 DEL MAR(CA),Robert Shih,DWA-9060USJ-9060BR,Relax2Zero 3D,New Choco,1,"3 years parts, 1 year labor (Free)",CUSTOM ,312.00,4212.00,4212.00,CreditCard,4212.00,Square# USKc,,,,,,,0.00,,,,,,,,0.00,,,,,,,0.00,Vincent R Torres,6199486660,,,Thank you very much for your business with us in San Diego county fair / Please deliver ASAP / Sencond floor delivery,CA,0,8.00
106661,6/10/2018 10:55:57 AM,SAN DIEGO COUNTY FAIR 6/1-7/4/18 DEL MAR(CA),Rodrigo Malabunga,DWA-9150USJ-9150CH,Legacy 3D,New Choco,1,"3 years parts, 1 year labor (Free)",CUSTOM ,0.00,4500.00,4500.00,CreditCard,4500.00,40539C,,,,San Diego,,,0.00,,,,,,,,0.00,,,,,,,0.00,William Dozier,619 985 4523,,,,CA,1,8.00
106661,6/10/2018 10:55:57 AM,SAN DIEGO COUNTY FAIR 6/1-7/4/18 DEL MAR(CA),Rodrigo Malabunga,,Chair Pad for Legacy 3D,,1,no warranty,CUSTOM ,0.00,4500.00,4500.00,CreditCard,4500.00,40539C,,,,San Diego,,,0.00,,,,,,,,0.00,,,,,,,0.00,William Dozier,619 985 4523,,,,CA,1,8.00
106662,6/10/2018 11:04:41 AM,SAN DIEGO COUNTY FAIR 6/1-7/4/18 DEL MAR(CA),Rolly San Jose,DWA-9400Pegasus-BL-DEMO,Pegasus,Demo Black,1,"3 years parts, 3 years labor ($400)",CUSTOM ,0.00,4800.00,4800.00,Synchrony,4800.00,,,6034610083321797,90035808,San Diego,48 months,,0.00,,,,,,,,0.00,,,,,,,0.00,Joshua Compbell,6197579997,,,,CA,1,8.00
106663,6/10/2018 11:18:41 AM,SAN DIEGO COUNTY FAIR 6/1-7/4/18 DEL MAR(CA),Rodrigo Malabunga,DWA-9150USJ-9150BL,Legacy 3D,New Black,1,"3 years parts, 3 years labor ($400)",CUSTOM ,0.00,4000.00,4000.00,Synchrony,4000.00,,,6034610083323629,90069783,San Diego,24 months,,0.00,,,,,,,,0.00,,,,,,,0.00,Maria isabel Cuevas,619 944 1645,,,,CA,1,8.00
106702,6/10/2018 8:49:16 PM,SAN DIEGO COUNTY FAIR 6/1-7/4/18 DEL MAR(CA),Kohei Uno,DWA-9060USJ-9060BL-DEMO,Relax2Zero 3D,Demo Black,1,"3 years parts, 1 year labor (Free)",CUSTOM ,0.00,3400.00,3400.00,CreditCard,3400.00,Square # rAsY,,,,,,,0.00,,,,,,,,0.00,,,,,,,0.00,Jennifer Su,8582077573,,,,CA,1,8.00
106703,6/10/2018 8:55:19 PM,SAN DIEGO COUNTY FAIR 6/1-7/4/18 DEL MAR(CA),Ruben Cuatrona,DWA-9400Pegasus-BL,Pegasus,New Black,1,"3 years parts, 3 years labor ($400)",CUSTOM ,0.00,5000.00,5000.00,Synchrony,5000.00,,,6034610083326846,90117109,Las Vegas,48 months,,0.00,,,,,,,,0.00,,,,,,,0.00,Michael Abelgas,9518169222,,,,CA,1,8.00
106705,6/10/2018 9:04:52 PM,SAN DIEGO COUNTY FAIR 6/1-7/4/18 DEL MAR(CA),Ruben Cuatrona,DWA-9060USJ-9060BR-DEMO,Relax2Zero 3D,Demo Choco,1,"3 years parts, 1 year labor (Free)",CUSTOM ,0.00,3900.00,3900.00,Synchrony,3900.00,,,6034610083326804,90116661,Las Vegas,36 months,,0.00,,,,,,,,0.00,,,,,,,0.00,James Strachan,7609362453,,,Gate Code: #3171,CA,1,8.00
106707,6/10/2018 9:11:49 PM,SAN DIEGO COUNTY FAIR 6/1-7/4/18 DEL MAR(CA),Kohei Uno,DWA-9060USJ-9060BL,Relax2Zero 3D,New Black,1,"3 years parts, 1 year labor (Free)",CUSTOM ,0.00,4500.00,4500.00,CreditCard,4500.00,Square# 7iCc,,,,,,,0.00,,,,,,,,0.00,,,,,,,0.00,Richard Lowenthal,8583351300,,,***Please schedule delivery date for after August 2nd***,CA,1,8.00
106709,6/10/2018 9:29:22 PM,SAN DIEGO COUNTY FAIR 6/1-7/4/18 DEL MAR(CA),Ruben Cuatrona,DWA-9400Pegasus-BR-DEMO,Pegasus,Demo Choco,1,"3 years parts, 1 year labor (Free)",CUSTOM ,0.00,4600.00,4600.00,Synchrony,4600.00,,,6034610083326861,90118528,San Diego,36 months,,0.00,,,,,,,,0.00,,,,,,,0.00,Bruce Wafer,6193005495,,,,CA,1,8.00
106728,6/11/2018 11:28:09 AM,SAN DIEGO COUNTY FAIR 6/1-7/4/18 DEL MAR(CA),Rolly San Jose,DWA-9400Pegasus-BR,Pegasus,New Choco,1,"3 years parts, 3 years labor ($400)",CUSTOM ,0.00,5000.00,5000.00,Synchrony,5000.00,,,6034610083325931,90104466,San Diego,48 months,,0.00,,,,,,,,0.00,,,,,,,0.00,Anastasia Schmoll,760 583 5674,,,,CA,1,8.00
106730,6/11/2018 11:35:30 AM,SAN DIEGO COUNTY FAIR 6/1-7/4/18 DEL MAR(CA),Ruben Cuatrona,DWA-9060USJ-9060BL-DEMO,Relax2Zero 3D,Demo Black,1,"3 years parts, 1 year labor (Free)",CUSTOM ,0.00,3700.00,3700.00,Synchrony,3700.00,,,6034610083326986,90117861,San Diego,36 months,,0.00,,,,,,,,0.00,,,,,,,0.00,Ishmael Castillo,9103824313,,,Thank you very much for your business with us in San Diego county fair / Synchrony 36 months 0% APR / Please deliver ASAP / Must delivery by Thursday 6/15,CA,1,8.00
106732,6/11/2018 11:39:41 AM,SAN DIEGO COUNTY FAIR 6/1-7/4/18 DEL MAR(CA),Robert Shih,DWA-9060USJ-9060BR-DEMO,Relax2Zero 3D,Demo Choco,1,"3 years parts, 1 year labor (Free)",CUSTOM ,0.00,3900.00,3900.00,Synchrony,3900.00,,,6034610083326838,90117004,Las Vegas,48 months,,0.00,,,,,,,,0.00,,,,,,,0.00,Wanda Belenzon,6192581893,,,Thank you very much for your business with San Diego county fair / Synchrony 48 months 0% APR / Please deliver ASAP,CA,1,8.00
106738,6/11/2018 11:54:33 AM,SAN DIEGO COUNTY FAIR 6/1-7/4/18 DEL MAR(CA),Rolly San Jose,DWA-9150USJ-9150CH-DEMO,Legacy 3D,Demo Choco,1,"3 years parts, 1 year labor (Free)",CUSTOM COD,0.00,3800.00,3800.00,CreditCard,200.00,890272,,,,,,COD,3600.00,,,,,,,,0.00,,,,,,,0.00,Naseer Shahib,858 999 4464,,,,CA,1,8.00
106743,6/11/2018 12:07:25 PM,SAN DIEGO COUNTY FAIR 6/1-7/4/18 DEL MAR(CA),Robert Shih,DWA-9060USJ-9060BR,Relax2Zero 3D,New Choco,1,"3 years parts, 1 year labor (Free)",CUSTOM ,312.00,4212.00,4212.00,Synchrony,4212.00,,,6034610083326887,90118721,Las Vegas,48 months,,0.00,,,,,,,,0.00,,,,,,,0.00,Jason & Erica Sell,8584056828,,,Thank you very much for your business with us in San Diego county fair / Synchrony 48 months 0% APR / Please deliver ASAP / Second floor deliver,CA,0,8.00
106782,6/13/2018 10:18:04 AM,SAN DIEGO COUNTY FAIR 6/1-7/4/18 DEL MAR(CA),Rolly San Jose,DWA-9150USJ-9150BL-DEMO,Legacy 3D,Demo Black,1,"3 years parts, 1 year labor (Free)",CUSTOM ,0.00,4202.00,4202.00,CreditCard,0.00,Approval #22046B,,,,,,,0.00,,,,,,,,0.00,,,,,,,0.00,Maria Nieto,(619)646-1642,,,,CA,1,8.00
106796,6/13/2018 8:02:05 PM,SAN DIEGO COUNTY FAIR 6/1-7/4/18 DEL MAR(CA),Robert Shih,DWA-9060USJ-9060BL-DEMO,Relax2Zero 3D,Demo Black,1,"3 years parts, 1 year labor (Free)",CUSTOM ,0.00,3900.00,3900.00,Synchrony,3900.00,,,6034610083331325,90254181,Las Vegas,36 months,,0.00,,,,,,,,0.00,,,,,,,0.00,Addy Ojeda,6194477469,,,Thank you very much for your business with us in San Diego county fair / Synchrony 36 months 0% APR / Please deliver ASAP,CA,1,8.00
106804,6/13/2018 9:45:58 PM,SAN DIEGO COUNTY FAIR 6/1-7/4/18 DEL MAR(CA),Robert Shih,DWA-9400Pegasus-BR,Pegasus,New Choco,1,"3 years parts, 1 year labor (Free)",CUSTOM ,0.00,5800.00,5800.00,CreditCard,5800.00,SQUARE # RGUb,,,,,,,0.00,,,,,,,,0.00,,,,,,,0.00,Maria A. Baviera,6198088515,,,Thank you very much for your business with us in San Diego county fair / Please deliver ASAP,CA,1,8.00
