﻿Date,CustomerName,State,Zipcode,Description,productNo,Color,IsDemo,Net,ShippingFee,GiftPrice,FinancingProcessingFee,Gross,Pre_tax,Tax,Commission,Primary Payment Method,Primary Payment Balance,Primary Authorize Number,Primary Purchase Order Number,Primary Synchrony Account Number,Primary Synchrony Application Key,Primary Synchrony AccountInfo,Primary SynchronyTerm,Secondly Payment Method,Secondly Payment Balance,Secondly Authorize Number,Secondly Purchase Order Number,Secondly Synchrony Account Number,Secondly Synchrony Application Key,Secondly Synchrony AccountInfo,Secondly SynchronyTerm,Thirdly Payment Method,Thirdly Payment Balance,Thirdly Authorize Number,Thirdly Purchase Order Number,Thirdly Synchrony Account Number,Thirdly Synchrony Application Key,Thirdly Synchrony AccountInfo,Thirdly SynchronyTerm,DeliveryDate,Ispickup,Warranty,Status,Event Name,Synchrony Notes,Order Notes,Order number,Private Note,Branch,IsNoTax,ActualTaxRate
11/10/2017 8:05:57 AM,Mohammed Chowdhury,FL,32720,Vitality Plate for Sam's,USJ-849USJ-849-DEMO,Deomo,New,,,,,399.00,372.90,26.10,Alex Brackelsberg,,399.00,Eape272767e7b649,,,,,,,,,,,,,,,,,,,,,,,YES,"2 years parts, 1 year labor (Small Items)",Delivered,Sam's Club #4785 11/9-11/19 (FL),,Total $399 (Tax Exempt),101779,Customer Picked Up,FL,,
11/11/2017 1:42:42 PM,Robert Brown,FL,32738,Legacy for Sam's,DWA-9100DWA-9100CH,Choco,New,,,,,3850.93,3599.00,251.93,Alex Brackelsberg,,0.00,D8fd7b058doa8397,,,,,,,,,,,,,,,,,,,,,,11/15/2017 12:00:00 AM,No,"3 years parts, 1 year labor (Free)",Delivered,Sam's Club #4785 11/9-11/19 (FL),,,101795,New chocolate legacy,FL,,
11/14/2017 11:03:04 AM,fan li,FL,32746,Legacy for Sam's,DWA-9100DWA-9100BG,Beige,New,,,,,3599.41,3413.00,186.41,Ting Ritchie,,3599.00,01483R,,,,,,,,,,,,,,,,,,,,,,12/1/2017 12:00:00 AM,No,"3 years parts, 1 year labor (Free)",Delivered,Sam's Club #4785 11/9-11/19 (FL),,Please ship a NEW one.,101871,$3599 plus tax.,FL,0,7.00
11/14/2017 12:32:15 PM,Charles Edward,FL,32703,Vitality Plate for Sam's,USJ-849USJ-849,New,New,,,,,427.99,399.99,28.00,Ting Ritchie,,427.99,08761A,,,,,,,,,,,,,,,,,,,,,,,YES,"2 years parts, 1 year labor (Small Items)",Delivered,Sam's Club #4785 11/9-11/19 (FL),,,101872,,FL,0,7.00
11/14/2017 2:53:15 PM,Geurmaline Valcourt,FL,32771,Vitality Plate for Sam's,USJ-849USJ-849,New,New,,,,,427.99,399.99,28.00,Ting Ritchie,,427.99,05978B,,,,,,,,,,,,,,,,,,,,,,,YES,"2 years parts, 1 year labor (Small Items)",Delivered,Sam's Club #4785 11/9-11/19 (FL),,,101875,,FL,0,7.00
11/16/2017 2:03:05 PM,Teresa Torres,FL,32766,Vitality Plate for Sam's,USJ-849USJ-849,New,New,,,,,427.99,399.99,28.00,Ting Ritchie,,427.99,001306,,,,,,,,,,,,,,,,,,,,,,,YES,"2 years parts, 1 year labor (Small Items)",Delivered,Sam's Club #4785 11/9-11/19 (FL),,,101903,,FL,0,7.00
11/17/2017 11:17:43 AM,Paul Douglas,WV,26508,Legacy for Sam's,DWA-9100DWA-9100BL-DEMO,Demo Blue,Demo,,,,,3798.43,3599.00,199.43,Ting Ritchie,,3850.93,06692C,,,,,,,,,,,,,,,,,,,,,,12/19/2017 12:00:00 AM,No,"3 years parts, 1 year labor (Free)",Delivered,Sam's Club #4785 11/9-11/19 (FL),,"Please ship a BRAND NEW one, please delivery between Dec, 11th to Dec,17th.",101919,"Please deliver extra set of Back pad/ Foot pads
COLOR CHANGE TO SIENNA BROWN -Per Ting 11/29
asking hold to 12/11/2017",TX,0,7.00
11/17/2017 11:25:12 AM,Retha Beeler,FL,32747,Legacy for Sam's,DWA-9100DWA-9100CH,Choco,New,,,,,3798.43,3599.00,199.43,Ting Ritchie,,3850.93,06692C,,,,,,,,,,,,,,,,,,,,,,12/1/2017 12:00:00 AM,No,"3 years parts, 1 year labor (Free)",Delivered,Sam's Club #4785 11/9-11/19 (FL),,Please give extra pads for the back and the foot. Thank you.,101920,Ship Sienna back pad/ foot pads to customer 12/1,FL,0,7.00
11/18/2017 11:43:53 AM,Phyllis Chen,FL,32779,Legacy for Sam's,DWA-9100DWA-9100CH-DEMO,Demo Choco,Demo,,,,,3850.93,3599.00,251.93,Tom Nguyen,,3850.93,03389D,,,,,,,,,,,,,,,,,,,,,,12/4/2017 12:00:00 AM,No,"3 years parts, 1 year labor (Free)",Delivered,Sam's Club #4785 11/9-11/19 (FL),,Please ship the chair as soon as possible.,101936,"Please give this customer a new chair
Delivered 12/1/2017",FL,0,7.00
11/18/2017 12:03:42 PM,Chad Hochili,FL,32771,Relax2Zero 2.0 for Sam's,USJ-9050USJ-9050BL-DEMO,Demo Black,Demo,,,,,3422.93,3199.00,223.93,Tom Nguyen,,3422.93,811284,,,,,,,,,,,,,,,,,,,,,,12/1/2017 12:00:00 AM,No,"3 years parts, 1 year labor (Free)",Delivered,Sam's Club #4785 11/9-11/19 (FL),,Please give customer a new chair,101937,Please give customer a new chair,FL,0,7.00
11/18/2017 3:05:04 PM,Ron Muller,FL,32725,Vitality Plate for Sam's,USJ-849USJ-849-DEMO,Deomo,New,,,,,427.99,399.99,28.00,Ting Ritchie,,427.99,001206,,,,,,,,,,,,,,,,,,,,,,,YES,"2 years parts, 1 year labor (Small Items)",Delivered,Sam's Club #4785 11/9-11/19 (FL),,,101941,Brand new one for demo price,FL,0,7.00
11/19/2017 12:28:22 PM,Joanne Coury,FL,32746,Relax2Zero 2.0 for Sam's,USJ-9050USJ-9050BR,Brown,New,,,,,3422.93,3199.00,223.93,Alex Brackelsberg,,0.00,5cf1ad4257d72e17,,,,,,,,,,,,,,,,,,,,,,11/19/2017 12:00:00 AM,No,"3 years parts, 1 year labor (Free)",Delivered,Sam's Club #4785 11/9-11/19 (FL),,,101975,,FL,0,7.00
11/19/2017 2:24:52 PM,Jyoti Combs,FL,32764,Legacy for Sam's,DWA-9100DWA-9100BL,Black,New,,,,,3850.86,3648.00,202.86,Ting Ritchie,,3850.93,019391,,,,,,,,,,,,,,,,,,,,,,12/1/2017 12:00:00 AM,No,"3 years parts, 1 year labor (Free)",Delivered,Sam's Club #4785 11/9-11/19 (FL),,,101981,,FL,0,7.00
