﻿Original Event Name,Event Name,Sales Person,Order Number,Order Date,Customer Name,State,Zip,Product Name,Color,Product Status,QTY,Tax,Total Before Tax,Order Total,Primary Payment Method,Second Payment Method,Thirdl Payment Method,Warranty,Order Items,Pick up,Delivered On,Order Status,Chair Type,Order Notes,Private Note,Branch,No Tax,Actual Tax Rate,SKU,Primary Payment Balance,Primary Authorize Number,Primary Purchase Order Number,Primary Synchrony Account Number,Primary Synchrony Application Key,Primary Synchrony Account Info,Primary Synchrony Term,Second Payment Balance,Second Authorize Number,Second Purchase Order Number,Second Synchrony Account Number,Second Synchrony Application Key,Second Synchrony Account Info,Second SynchronyTerm,Third Payment Balance,Third Authorize Number,Third Purchase Order Number,Third Synchrony Account Number,Third Synchrony Application Key,Third Synchrony Account Info,Third Synchrony Term
MITSUWA CHAIR EVENT 1/24-2/2/19 SAN JOSE (CA),MITSUWA CHAIR EVENT 1/24-2/2/19 SAN JOSE (CA),May Kam,114606,1/26/2019 10:29:59 PM,Mrs Hue Le,CA,94531,Legacy,Demo Choco,Demo,1,0.00,3850.00,3850.00,CreditCard,COD,,"3 years parts, 1 year labor (Free)","Legacy,Tourmaline Pad for Legacy,",No,,Scheduled,,Special discount for one time payment.,"Confirmed $200.00 in square. Please charge $3,650.00 upon delivery.--- 1/28/19 Asumi",CA,1,9.25,DWA-9100DWA-9100BU-DEMO,200.00,Receipt #M0hN,,,,,,3650.00,,,,,,,0.00,,,,,,
MITSUWA CHAIR EVENT 1/24-2/2/19 SAN JOSE (CA),MITSUWA CHAIR EVENT 1/24-2/2/19 SAN JOSE (CA),May Kam,114607,1/26/2019 10:36:40 PM,Mr & Mrs Tom Tran,CA,95148,Relax2Zero 3D,Demo Choco,Demo,1,0.00,3550.00,3550.00,CreditCard,COD,,"5 years parts, 1 year labor (Free)","Relax2Zero 3D,Chair Pad for Relax2Zero 3D,Tourmaline Pad for Relax2Zero 3D,",No,,Called,,"Special discount for one time payment, manager approval.","Confirmed $200.00 in square. Please  charge COD $3,350.00 upon delivery --- 1/28/19 Asumi",CA,1,9.25,DWA-9060USJ-9060BR-DEMO,200.00,Receipt #GbVQ,,,,,,3350.00,,,,,,,0.00,,,,,,
MITSUWA CHAIR EVENT 1/24-2/2/19 SAN JOSE (CA),MITSUWA CHAIR EVENT 1/24-2/2/19 SAN JOSE (CA),May Kam,114608,1/26/2019 10:45:01 PM,Mrs Wen Ching Lih,CA,95129,Legacy 3D,New Choco,New,1,0.00,4212.00,4212.00,Synchrony,,,"3 years parts, 1 year labor (Free)","Legacy 3D,Tourmaline Pad for Legacy 3D,",No,,Scheduled,,"Pls make finance $ 4212 purchasing , thanks","Confirmed synchrony approved $8,500.00 and original invoice and application form. Please charge $4212.00 before delivery and have sales draft signed. --- 1/28/19 Asumi",CA,1,9.25,DWA-9150USJ-9150CH,4212.00,,,6019170813355150,70499919,Las Vegas,36 months,0.00,,,,,,,0.00,,,,,,
MITSUWA CHAIR EVENT 1/24-2/2/19 SAN JOSE (CA),MITSUWA CHAIR EVENT 1/24-2/2/19 SAN JOSE (CA),May Kam,114609,1/26/2019 10:58:04 PM,Mr Daniel Ho,CA,95014,Relax2Zero 3D,New Choco,New,1,0.00,4200.00,4200.00,CreditCard,COD,,"5 years parts, 1 year labor (Free)","Relax2Zero 3D,",No,,Scheduled,,"Special discount for one time payment, manager approval , thanks","Confirmed $200.00 in square. Please charge $4,000.00 upon delivery. --- 1/28/19 Asumi",CA,1,9.25,DWA-9060USJ-9060BR,200.00,spW7,,,,,,4000.00,,,,,,,0.00,,,,,,
MITSUWA CHAIR EVENT 1/24-2/2/19 SAN JOSE (CA),MITSUWA CHAIR EVENT 1/24-2/2/19 SAN JOSE (CA),May Kam,114636,1/27/2019 9:41:02 PM,Mr David sheets,CA,95051,Legacy,New Choco,New,1,0.00,3600.00,3600.00,Cash,COD,,"3 years parts, 1 year labor (Free)","Legacy,Tourmaline Pad for Legacy,",No,,Scheduled,,Special discount for one time payment,"May has check now. She will bring it to CA branch when the show finished. Please charge COD $3,400.00 upon delivery --- 1/28/19 Asumi
Received cash confirmation --- 2/4/19 Asumi",CA,1,9.25,DWA-9100DWA-9100BU,200.00,,,,,,,3400.00,,,,,,,0.00,,,,,,
MITSUWA CHAIR EVENT 1/24-2/2/19 SAN JOSE (CA),MITSUWA CHAIR EVENT 1/24-2/2/19 SAN JOSE (CA),May Kam,114640,1/27/2019 9:54:59 PM,Mrs Carol,CA,94027,Legacy 3D,New Choco,New,1,0.00,3800.00,3800.00,CreditCard,CreditCard,CreditCard,"5 years parts, 1 year labor (Free)","Legacy 3D,Tourmaline Pad for Legacy 3D,",No,,Scheduled,,"Request to deliver home address, different with invoice , another phone is 4155158888",Confirmed $200.00 in square. --- 1/28/19 Asumi,CA,1,9.25,DWA-9150USJ-9150CH,200.00,Kwk1,,,,,,1800.00,,,,,,,1800.00,,,,,,
MITSUWA CHAIR EVENT 1/24-2/2/19 SAN JOSE (CA),MITSUWA CHAIR EVENT 1/24-2/2/19 SAN JOSE (CA),May Kam,114643,1/27/2019 10:01:47 PM,Mr Wei-Chun Hsu,CA,95129,Relax2Zero 3D,Demo Black,Demo,1,0.00,3800.00,3800.00,CreditCard,COD,,"5 years parts, 1 year labor (Free)","Relax2Zero 3D,Tourmaline Pad for Relax2Zero 3D,",No,,Scheduled,,"Special discount for one time payment; request delivery on Saturday or Sunday , since nobody at home.","Confirmed $200.00 in square. Please charge COD$3,600.00 upon delivery. --- 1/28/19 Asumi",CA,1,9.25,DWA-9060USJ-9060BL-DEMO,200.00,CCXo,,,,,,3600.00,,,,,,,0.00,,,,,,
MITSUWA CHAIR EVENT 1/24-2/2/19 SAN JOSE (CA),MITSUWA CHAIR EVENT 1/24-2/2/19 SAN JOSE (CA),May Kam,114646,1/27/2019 10:11:27 PM,Mr Andrei Kosolobov,CA,95123,Relax2Zero 3D,New Choco,New,1,0.00,4350.00,4350.00,Synchrony,,,"3 years parts, 1 year labor (Free)","Relax2Zero 3D,Daiwa Blanket,Tourmaline Pad for Relax2Zero 3D,",No,,Scheduled,,"Pls make finance $4350 purchase, thanks","Confirmed synchrony approved $8,500.00. and original application form and invoice. Please charge $4,350.00 before delivery and have sales draft signed. ---1/28/19 Asumi",CA,1,9.25,DWA-9060USJ-9060BR,4350.00,,,6019170813356901,70531956,Las Vegas,36 months,0.00,,,,,,,0.00,,,,,,
MITSUWA CHAIR EVENT 1/24-2/2/19 SAN JOSE (CA),MITSUWA CHAIR EVENT 1/24-2/2/19 SAN JOSE (CA),May Kam,114695,1/29/2019 7:48:14 PM,Mr & Mrs Li Li Anna,CA,94536,Legacy 3D,New Black,New,1,0.00,3850.00,3850.00,CreditCard,COD,,"3 years parts, 1 year labor (Free)","Legacy 3D,Tourmaline Pad for Legacy 3D,",No,,Scheduled,,"Request before Feb 12,2019 delivery, since will be out of country in Feb 13,2019, Thanks",,CA,1,9.25,DWA-9150USJ-9150BL,200.00,Receipt #F337,,,,,,3650.00,,,,,,,0.00,,,,,,
MITSUWA CHAIR EVENT 1/24-2/2/19 SAN JOSE (CA),MITSUWA CHAIR EVENT 1/24-2/2/19 SAN JOSE (CA),May Kam,114704,1/30/2019 7:32:02 PM,Mr & Mrs Tex Nguyen,CA,95123,Legacy 3D,New Choco,New,1,0.00,3800.00,3800.00,Cash,COD,,"3 years parts, 1 year labor (Free)","Legacy 3D,Tourmaline Pad for Legacy 3D,",No,,Called,,"Special discount for one time payment .request delivery only on Monday .
Thanks","May has cash now. She will bring cash into Gardena branch after finishing the show. *Pls change color to Black *--- 1/30/19 Asumi
Received cash confirmation --- 2/4/19 Asumi",CA,1,9.25,DWA-9150USJ-9150CH,200.00,,,,,,,3600.00,,,,,,,0.00,,,,,,
MITSUWA CHAIR EVENT 1/24-2/2/19 SAN JOSE (CA),MITSUWA CHAIR EVENT 1/24-2/2/19 SAN JOSE (CA),May Kam,114741,2/2/2019 9:15:03 PM,Mr & Mrs Jing Cai,CA,95129,Legacy 3D,New Choco,New,1,0.00,3950.00,3950.00,CreditCard,COD,,"3 years parts, 1 year labor (Free)","Legacy 3D,",No,,Scheduled,,"Special discount for one time payment, USJ 862 - Reflexlogy Foot Massager 
as gift free , pls deliver with chair together. Thanks",2/4Maritza Confirmed $200 on square. COD$3750,CA,1,9.25,DWA-9150USJ-9150CH,200.00,#2Sip,,,,,,3750.00,,,,,,,0.00,,,,,,
MITSUWA CHAIR EVENT 1/24-2/2/19 SAN JOSE (CA),MITSUWA CHAIR EVENT 1/24-2/2/19 SAN JOSE (CA),May Kam,114742,2/2/2019 9:43:46 PM,Mr Alex Chou,CA,95129,Relax2Zero 3D,Demo Choco,Demo,1,0.00,3550.00,3550.00,CreditCard,,,"5 years parts, 1 year labor (Free)","Relax2Zero 3D,Tourmaline Pad for Relax2Zero 3D,",No,,Scheduled,,Special discount for one time payment. Paid off,"Confirmed $3,550 in Square. 2/4/19 Hitomi",CA,1,9.25,DWA-9060USJ-9060BR-DEMO,3550.00,SjVi,,,,,,0.00,,,,,,,0.00,,,,,,
MITSUWA CHAIR EVENT 1/24-2/2/19 SAN JOSE (CA),MITSUWA CHAIR EVENT 1/24-2/2/19 SAN JOSE (CA),May Kam,114743,2/2/2019 10:59:55 PM,Mr Jimmy Fong,CA,94606,Legacy 3D,New Black,New,1,0.00,3950.00,3950.00,CreditCard,COD,,"3 years parts, 1 year labor (Free)","Legacy 3D,Tourmaline Pad for Legacy 3D,",No,,Scheduled,,"Special warranty : Total four years parts, two years labor","Confirmed $200.00 in Square. **COD $3,750*** -2/4/19 Hitomi",CA,1,9.25,DWA-9150USJ-9150BL,200.00,Z5e2,,,,,,3750.00,,,,,,,0.00,,,,,,
MITSUWA CHAIR EVENT 1/24-2/2/19 SAN JOSE (CA),MITSUWA CHAIR EVENT 1/24-2/2/19 SAN JOSE (CA),May Kam,114744,2/2/2019 11:09:17 PM,Mrs Sharon Hsing,CA,95070,Legacy 3D,New Choco,New,1,0.00,3950.00,3950.00,CreditCard,COD,,"3 years parts, 1 year labor (Free)","Legacy 3D,Tourmaline Pad for Legacy 3D,Daiwa Blanket,",No,,Called,,"House entrance road is narrow, only for small truck","Confirmed $200 in SQuare. **COD$3,750** 2/4/19 Hitomi",CA,1,9.25,DWA-9150USJ-9150CH,200.00,Receipt #uIvu,,,,,,3750.00,,,,,,,0.00,,,,,,
MITSUWA CHAIR EVENT 1/24-2/2/19 SAN JOSE (CA),MITSUWA CHAIR EVENT 1/24-2/2/19 SAN JOSE (CA),May Kam,114745,2/3/2019 12:03:42 AM,Mr & Mrs Daniel Cole,CA,95138,Relax2Zero 3D,Demo Choco,Demo,1,0.00,3780.00,3780.00,Synchrony,,,"5 years parts, 1 year labor (Free)","Relax2Zero 3D,Tourmaline Pad for Relax2Zero 3D,",No,,Called,,"Special discount for finance, pls make Purchase $3780, Thanks","SYNC approved $8,500. Confirmed synchrony application form and original. ***Please charge $3,780 before delivery and sales draft signed.***  - 2/4/19 Hitomi",CA,1,9.25,DWA-9060USJ-9060BR-DEMO,3780.00,,,6019170813364350,70788195,Las Vegas,36 months,0.00,,,,,,,0.00,,,,,,
MITSUWA CHAIR EVENT 1/24-2/2/19 SAN JOSE (CA),MITSUWA CHAIR EVENT 1/24-2/2/19 SAN JOSE (CA),May Kam,114756,2/3/2019 11:26:11 AM,Mr Anuraha T Singh,CA,95070,Legacy 3D,Demo Choco,Demo,1,0.00,4900.00,4900.00,CreditCard,,,"5 years parts, 1 year labor (Free)","Legacy 3D,Tourmaline Pad for Legacy 3D,",No,,Cancelled,,Special discount for one time payment,"Confirmed $3,500.00 in Square. correct total amount is $3,500 confirmed with original . revised to #114783  - 2/4/19 Hitomi",Not Dispatched,1,9.25,DWA-9150USJ-9150CH-DEMO,3500.00,eaPf,,,,,,0.00,,,,,,,0.00,,,,,,
MITSUWA CHAIR EVENT 1/24-2/2/19 SAN JOSE (CA),MITSUWA CHAIR EVENT 1/24-2/2/19 SAN JOSE (CA),May Kam,114769,2/3/2019 10:36:51 PM,Mrs Farida A Fletcher,CA,95135,Legacy,New Sienna,New,1,0.00,3600.00,3600.00,CreditCard,COD,,"3 years parts, 1 year labor (Free)","Legacy,",No,,Called,,"Pls deliver after Feb 17,2019; Pls call the customer before coming delivery for opening community gate . Thanks","COnfirmed $200 in Square. **COD$3,400** 2/4/19 Hitomi",CA,1,9.25,DWA-9100DWA-9100SI,200.00,#l9q6,,,,,,3400.00,,,,,,,0.00,,,,,,
MITSUWA CHAIR EVENT 1/24-2/2/19 SAN JOSE (CA),MITSUWA CHAIR EVENT 1/24-2/2/19 SAN JOSE (CA),May Kam,114770,2/3/2019 10:49:10 PM,Mr & Mrs Dong Seok Youm,CA,95138,Legacy 3D,New Choco,New,1,0.00,4100.00,4100.00,CreditCard,COD,CreditCard,"3 years parts, 1 year labor (Free)","Legacy 3D,",No,,Called,,"Special discount for payment plan , manager approval ; Pls arrange to bring back old sofa , thanks","Confirmed $1,000 in Square. **COD$1,000**Layaway $2,100 from 3/30/19. Confirmed Layaway form(emailed to Cristina). Spoke to Cristina, long sofa wouldn't fit to our van. Advised to May-2/4/19 Hitomi",CA,1,9.25,DWA-9150USJ-9150CH,1000.00,#S22g,,,,,,1000.00,,,,,,,2100.00,Monthly payment,,,,,
MITSUWA CHAIR EVENT 1/24-2/2/19 SAN JOSE (CA),MITSUWA CHAIR EVENT 1/24-2/2/19 SAN JOSE (CA),May Kam,114771,2/3/2019 11:16:42 PM,Mr & Mrs Si Tan,CA,95117,Legacy 3D,New Black,New,1,0.00,3950.00,3950.00,CreditCard,COD,,"3 years parts, 1 year labor (Free)","Legacy 3D,Tourmaline Pad for Legacy 3D,",No,,Scheduled,,"Special discount for one time payment , manager approval ; Request to deliver after 7pm, since working place far away .","COnfirmed $200 in Square. ***COD$3,750*** (confirmed w/original) -2/4/19 Hitomi",CA,1,9.25,DWA-9150USJ-9150BL,200.00,Receipt #l96I,,,,,,3750.00,,,,,,,0.00,,,,,,
MITSUWA CHAIR EVENT 1/24-2/2/19 SAN JOSE (CA),MITSUWA CHAIR EVENT 1/24-2/2/19 SAN JOSE (CA),May Kam,114772,2/3/2019 11:25:41 PM,Mr & Mrs Wen Mu Jin,CA,95129,Relax2Zero 3D,New Choco,New,1,0.00,3700.00,3700.00,Cash,,,"3 years parts, 1 year labor (Free)","Relax2Zero 3D,",No,,Scheduled,,"Special discount for cash price ; Request delivery before Feb 11,2019, thanks","will confirm cash when May comes into the office. -2/4/19 Hitomi
Received cash confirmation --- 2/4/19 Asumi",CA,1,9.25,DWA-9060USJ-9060BR,3700.00,,,,,,,0.00,,,,,,,0.00,,,,,,
MITSUWA CHAIR EVENT 1/24-2/2/19 SAN JOSE (CA),MITSUWA CHAIR EVENT 1/24-2/2/19 SAN JOSE (CA),May Kam,114773,2/3/2019 11:34:22 PM,Mrs Hisae Liang,CA,95032,Legacy,New Choco,New,1,0.00,3800.00,3800.00,Check,COD,,"3 years parts, 1 year labor (Free)","Legacy,Tourmaline Pad for Legacy,",No,,New,,"Special discount for one time payment, manager approval .",the $200Check(#6658) needs to be confirmed - 2/4/19 Hitomi,Not Dispatched,1,9.25,DWA-9100DWA-9100BU,200.00,,,,,,,3600.00,,,,,,,0.00,,,,,,
MITSUWA CHAIR EVENT 1/24-2/2/19 SAN JOSE (CA),MITSUWA CHAIR EVENT 1/24-2/2/19 SAN JOSE (CA),May Kam,114774,2/3/2019 11:42:59 PM,Mr Zheng Yuan,CA,95124,Legacy 3D,New Choco,New,1,0.00,4000.00,4000.00,CreditCard,COD,,"3 years parts, 1 year labor (Free)","Legacy 3D,Tourmaline Pad for Legacy 3D,",No,,Called,,"Special discount for one time payment, total Four years parts, one year labor (  system can’t enter four years parts) Thanks","Confirmed $200 in Square. **COD$3,800** -2/4/19 Hitomi",CA,1,9.25,DWA-9150USJ-9150CH,200.00,4Sej,,,,,,3800.00,,,,,,,0.00,,,,,,
MITSUWA CHAIR EVENT 1/24-2/2/19 SAN JOSE (CA),MITSUWA CHAIR EVENT 1/24-2/2/19 SAN JOSE (CA),May Kam,114775,2/3/2019 11:48:35 PM,Mrs Yang Lu,CA,95051,Legacy,New Beige,New,1,0.00,3800.00,3800.00,Cash,COD,,"3 years parts, 1 year labor (Free)","Legacy,Tourmaline Pad for Legacy,",No,,Hold,,"Hold a few month , the customer need change color , thanks","will confirm cash after aMay comes into the office. Legacy Beige is out of stock. The customer needs to change the color as May stated in Note. - 2/4/19 Hitomi
Received cash confirmation--- 2/4/19 ASumi",CA,1,9.25,DWA-9100DWA-9100CH,100.00,,,,,,,3700.00,,,,,,,0.00,,,,,,
MITSUWA CHAIR EVENT 1/24-2/2/19 SAN JOSE (CA),MITSUWA CHAIR EVENT 1/24-2/2/19 SAN JOSE (CA),May Kam,114783,2/4/2019 10:31:22 AM,Mr Anuraha T Singh,CA,95070,Legacy 3D,Demo Choco,Demo,1,0.00,3500.00,3500.00,CreditCard,,,"5 years parts, 1 year labor (Free)","Legacy 3D,Tourmaline Pad for Legacy 3D,",No,,Called,,Special discount for one time payment,"Correction for #114756 under correct total amount. Confirmed $3,500 in Square. - 2/4/19 Hitomi",CA,1,9.25,DWA-9150USJ-9150CH-DEMO,3500.00,eaPf,,,,,,0.00,,,,,,,0.00,,,,,,
