﻿Date,CustomerName,State,Zipcode,Description,productNo,Color,IsDemo,Net,ShippingFee,GiftPrice,FinancingProcessingFee,Gross,Pre_tax,Tax,Commission,Primary Payment Method,Primary Payment Balance,Primary Authorize Number,Primary Purchase Order Number,Primary Synchrony Account Number,Primary Synchrony Application Key,Primary Synchrony AccountInfo,Primary SynchronyTerm,Secondly Payment Method,Secondly Payment Balance,Secondly Authorize Number,Secondly Purchase Order Number,Secondly Synchrony Account Number,Secondly Synchrony Application Key,Secondly Synchrony AccountInfo,Secondly SynchronyTerm,Thirdly Payment Method,Thirdly Payment Balance,Thirdly Authorize Number,Thirdly Purchase Order Number,Thirdly Synchrony Account Number,Thirdly Synchrony Application Key,Thirdly Synchrony AccountInfo,Thirdly SynchronyTerm,DeliveryDate,Ispickup,Warranty,Status,Event Name,Synchrony Notes,Order Notes,Order number,Private Note,Branch,IsNoTax,ActualTaxRate
9/1/2017 11:26:27 PM,Randy Costales,AA,91724,Legacy,DWA-9100DWA-9100CH-DEMO,Demo Choco Brown,Demo,,,,,3098.88,2900.00,198.88,David Wang,,0.00,09516c,,,,,,,,,,,,,,,,,,,,,,9/13/2017 12:00:00 AM,No,"3 years parts, 1 year labor (Free)",Delivered,LA County Fair 9/1-24 (CA),,Ship as soon as possible,100335,,CA,,
9/2/2017 1:17:43 AM,NADINE ZARRINKOUH,CA,92507,Legacy,DWA-9100DWA-9100CH-DEMO,Demo Choco Brown,Demo,,,,,3208.13,3000.00,208.13,Mei Kang,,3208.13,,,6034610081488309,77889850,San Diego,24 months,,,,,,,,,,,,,,,,,,No,"3 years parts, 1 year labor (Free)",Cancelled,LA County Fair 9/1-24 (CA),,Second Floor Delivery,100336,SYNCHRONY CLEARED BY ALICIA 9/5/17,CA,,
9/2/2017 5:36:23 PM,Test Test,CA,90401,Legacy,DWA-9100DWA-9100CH,Choco Brown,New,,,,,3863.63,3600.00,263.63,Mei Kang,,100.00,187599,,,,,,COD,,,,,,,,,,,,,,,,,No,"3 years parts, 1 year labor (Free)",Cancelled,LA County Fair 9/1-24 (CA),,Ship a chair after 9/22,100344,,Not Dispatched,,
9/2/2017 5:36:23 PM,Test Test,CA,90401,Tourmaline Pad for Lagacy,,,New,,,,,3863.63,3600.00,263.63,Mei Kang,,100.00,187599,,,,,,COD,,,,,,,,,,,,,,,,,No,no warranty,Cancelled,LA County Fair 9/1-24 (CA),,Ship a chair after 9/22,100344,,Not Dispatched,,
9/2/2017 9:13:25 PM,Jimmy Retana,CA,91766,Legacy,DWA-9100DWA-9100CH-DEMO,Demo Choco Brown,Demo,,,,,3197.20,2990.00,207.20,Kaz Ohashi,,100.00,330346,,,,,,,,,,,,,,,,,,,,,,,No,"3 years parts, 1 year labor (Free)",Cancelled,LA County Fair 9/1-24 (CA),,,100348,,Not Dispatched,,
9/3/2017 5:21:39 PM,George Hernandez,CA,91762,Relax2Zero 1.0,USJ-9000USJ-9000KU,Black,New,,,,,3754.38,3500.00,254.38,Kohei Uno,,0.00,,,6034610081492194,77965042,Las Vegas,24 months,,,,,,,,,,,,,,,,,9/22/2017 12:00:00 AM,No,"3 years parts, 1 year labor (Free)",Delivered,LA County Fair 9/1-24 (CA),,,100358,"SYNCHRONY CLEARED BY ALICIA 9/7/17, REFUNDED $70, OVER CHARGED ON SYNCHRONY 
CHECKED WITH KOHEI ON 9/6/17
09/22/17 (3:30-4:30)",CA,,
9/3/2017 5:21:39 PM,George Hernandez,CA,91762,Daiwa Blanket,,,New,,,,,3754.38,3500.00,254.38,Kohei Uno,,0.00,,,6034610081492194,77965042,Las Vegas,24 months,,,,,,,,,,,,,,,,,9/22/2017 12:00:00 AM,No,no warranty,Delivered,LA County Fair 9/1-24 (CA),,,100358,"SYNCHRONY CLEARED BY ALICIA 9/7/17, REFUNDED $70, OVER CHARGED ON SYNCHRONY 
CHECKED WITH KOHEI ON 9/6/17
09/22/17 (3:30-4:30)",CA,,
9/3/2017 5:21:39 PM,George Hernandez,CA,91762,Chair Pad for Relax2Zero 1.0,,,New,,,,,3754.38,3500.00,254.38,Kohei Uno,,0.00,,,6034610081492194,77965042,Las Vegas,24 months,,,,,,,,,,,,,,,,,9/22/2017 12:00:00 AM,No,no warranty,Delivered,LA County Fair 9/1-24 (CA),,,100358,"SYNCHRONY CLEARED BY ALICIA 9/7/17, REFUNDED $70, OVER CHARGED ON SYNCHRONY 
CHECKED WITH KOHEI ON 9/6/17
09/22/17 (3:30-4:30)",CA,,
9/3/2017 5:21:39 PM,George Hernandez,CA,91762,Foot Pads for Relax2Zero 1.0,,,New,,,,,3754.38,3500.00,254.38,Kohei Uno,,0.00,,,6034610081492194,77965042,Las Vegas,24 months,,,,,,,,,,,,,,,,,9/22/2017 12:00:00 AM,No,no warranty,Delivered,LA County Fair 9/1-24 (CA),,,100358,"SYNCHRONY CLEARED BY ALICIA 9/7/17, REFUNDED $70, OVER CHARGED ON SYNCHRONY 
CHECKED WITH KOHEI ON 9/6/17
09/22/17 (3:30-4:30)",CA,,
9/3/2017 9:02:11 PM,Juam Rodriguez,CA,91709,Legacy,DWA-9100DWA-9100CR-DEMO,Demo Cream,Demo,,,,,3393.85,3170.00,223.85,Ting Ritchie,,3393.85,003872,,,,,,,,,,,,,,,,,,,,,,9/11/2017 12:00:00 AM,No,"3 years parts, 1 year labor (Free)",Delivered,LA County Fair 9/1-24 (CA),,Please delivery ASAP,100360,"Overcharged $600 by accident. please refund $600 when we delivery.
We charged $3993.85. Called the customer.
Sorry by Kaz
WELLS FARGO PAYMENT CLEARED 9/5/17 BY ALICIA, NEED TO REFUND $600",CA,,
9/3/2017 9:06:53 PM,Laurie Werk,CA,92505,Pegasus,DWA-9400Pegasus-BR-DEMO,Demo Choco Brown,Demo,,,,,4344.33,4040.00,304.33,David Wang,,0.00,,,6034610081493705,77994779,San Diego,36 months,,,,,,,,,,,,,,,,,9/19/2017 12:00:00 AM,No,"3 years parts, 1 year labor (Free)",Delivered,LA County Fair 9/1-24 (CA),,,100361,SYNCHRONY CLEARED BY ALICIA 9/11/17,CA,,
9/4/2017 2:06:06 AM,Cathy Yoel,CA,91304,Legacy,DWA-9100DWA-9100CH-DEMO,Demo Choco Brown,Demo,,,,,3393.85,3170.00,223.85,David Wang,,0.00,,,6034610081495023,78012388,San Diego,24 months,,,,,,,,,,,,,,,,,9/15/2017 12:00:00 AM,No,"3 years parts, 1 year labor (Free)",Delivered,LA County Fair 9/1-24 (CA),,,100363,SYNCHRONY CLEARED BY ALICIA 9/5/17,CA,,
9/4/2017 2:06:06 AM,Cathy Yoel,CA,91304,Foot Pads for Lagacy,,,New,,,,,3393.85,3170.00,223.85,David Wang,,0.00,,,6034610081495023,78012388,San Diego,24 months,,,,,,,,,,,,,,,,,9/15/2017 12:00:00 AM,No,no warranty,Delivered,LA County Fair 9/1-24 (CA),,,100363,SYNCHRONY CLEARED BY ALICIA 9/5/17,CA,,
9/4/2017 3:31:28 AM,Giselle Zarrinkouh,CA,92507,Legacy,DWA-9100DWA-9100CH-DEMO,Demo Choco Brown,Demo,,,,,3208.13,3000.00,208.13,Mei Kang,,0.00,,,6034610081488509,77889850,San Diego,24 months,,,,,,,,,,,,,,,,,,No,"3 years parts, 1 year labor (Free)",Cancelled,LA County Fair 9/1-24 (CA),,Not process yet,100364,,CA,,
9/4/2017 3:42:36 AM,Lucas Blankenship,CA,92530,Legacy,DWA-9100DWA-9100BL,Black,New,,,,,3328.30,3110.00,218.30,Mei Kang,,0.00,,,6034610081495130,78013946,San Diego,36 months,,,,,,,,,,,,,,,,,9/14/2017 12:00:00 AM,No,"3 years parts, 1 year labor (Free)",Delivered,LA County Fair 9/1-24 (CA),,#003242,100365,SYNCHRONY CLEARED BY ALICIA 9/5/17,CA,,
9/4/2017 4:18:34 AM,Amy Gray,CA,92307,Legacy 3D,DWA-9150USJ-9150BL,Black,New,,,,,3863.63,3600.00,263.63,Ting Ritchie,,0.00,,,6034610081495171,78014636,San Diego,36 months,,,,,,,,,,,,,,,,,9/25/2017 12:00:00 AM,No,"3 years parts, 1 year labor (Free)",Delivered,LA County Fair 9/1-24 (CA),,,100366,"SYNCHRONY TRANSACTION CHARGED ON 9/7/17 BY ALICIA, PER TING
Authorization # 007322
09/25/17 8-9",CA,,
9/4/2017 6:16:53 PM,Natalie Dick,CA,92220,Relax2Zero 1.0,USJ-9000USJ-9000KU,Black,New,,,,,3754.38,3500.00,254.38,Kohei Uno,,3754.38,,,6034610081494018,77998381,Las Vegas,36 months,,,,,,,,,,,,,,,,,9/14/2017 12:00:00 AM,No,"3 years parts, 1 year labor (Free)",Delivered,LA County Fair 9/1-24 (CA),,,100377,SYNCHRONY CLEARED BY ALICIA 9/5/17,CA,,
9/5/2017 3:09:35 AM,Carl Levinger,CA,90048,Legacy,DWA-9100DWA-9100CH-DEMO,Demo Choco Brown,Demo,,,,,3197.20,2990.00,207.20,Ting Ritchie,,0.00,94188z,,,,,,,,,,,,,,,,,,,,,,9/13/2017 12:00:00 AM,No,"3 years parts, 1 year labor (Free)",Delivered,LA County Fair 9/1-24 (CA),,"Charged customer $3200
Trade in discount, please make sure to get the customer's old one when delivery.",100397,WELLS FARGO PAYMENT CLEARED BY ALICIA 9/5/17,CA,,
9/5/2017 4:11:19 PM,Agustin Caudillo,CA,92505,Relax2Zero 1.0,USJ-9000USJ-9000KU,Black,New,,,,,3208.13,3000.00,208.13,Kohei Uno,,3208.13,,,6034610081494430,78005783,Las Vegas,24 months,,,,,,,,,,,,,,,,,9/11/2017 12:00:00 AM,No,"3 years parts, 1 year labor (Free)",Delivered,LA County Fair 9/1-24 (CA),,,100410,SYNCHRONY CLEARED BY ALICIA 9/5/17,CA,,
9/5/2017 4:23:53 PM,Javier Romero,CA,91335,Relax2Zero 1.0,USJ-9000USJ-9000KU,Black,New,,,,,3000.55,2810.00,190.55,Kohei Uno,,3000.55,,,6034610081495148,78014271,Las Vegas,36 months,,,,,,,,,,,,,,,,,10/14/2017 12:00:00 AM,No,"3 years parts, 1 year labor (Free)",Delivered,LA County Fair 9/1-24 (CA),,Customer purchased chair for $3000 out the door. Please discount the extra $0.55 from the bill.,100411,"SYNCHRONY PAYMENTS CLEARED BY ALICIA 9/5/17
10/07/17 10-11 -Customer Confirmed date and time (9/26/17 Riho)",CA,,
9/5/2017 4:23:53 PM,Javier Romero,CA,91335,Daiwa Blanket,,,New,,,,,3000.55,2810.00,190.55,Kohei Uno,,3000.55,,,6034610081495148,78014271,Las Vegas,36 months,,,,,,,,,,,,,,,,,10/14/2017 12:00:00 AM,No,no warranty,Delivered,LA County Fair 9/1-24 (CA),,Customer purchased chair for $3000 out the door. Please discount the extra $0.55 from the bill.,100411,"SYNCHRONY PAYMENTS CLEARED BY ALICIA 9/5/17
10/07/17 10-11 -Customer Confirmed date and time (9/26/17 Riho)",CA,,
9/5/2017 4:32:24 PM,Stuart Sam,CA,90405,Relax2Zero 1.0,USJ-9000USJ-9000BR,Brown,New,,,,,3754.38,3500.00,254.38,Kohei Uno,,0.00,7d35,,,,,,,,,,,,,,,,,,,,,,9/14/2017 12:00:00 AM,No,"3 years parts, 3 years labor ($400)",Delivered,LA County Fair 9/1-24 (CA),,,100412,"SQUARE PAYMENT CLEARED BY ALICIA 9/5/17, $69.37 DIFFERENCE
The difference was refunded by Riho on 9/6/17.",CA,,
9/5/2017 6:44:56 PM,Jeanne Tso,CA,91770,Legacy,DWA-9100DWA-9100BL-DEMO,Demo Black,Demo,,,,,3408.13,3200.00,208.13,Mei Kang,,0.00,,,6034610081500541,78107215,San Diego,36 months,,,,,,,,,,,,,,,,,9/13/2017 12:00:00 AM,No,"3 years parts, 1 year labor (Free)",Delivered,LA County Fair 9/1-24 (CA),,,100413,SYNCHRONY CLEARED BY ALICIA 9/5/17,CA,,
9/5/2017 7:14:44 PM,Victor Ontiveros,CA,91722,Legacy,DWA-9100DWA-9100BL,Black,New,,,,,4227.50,3950.00,277.50,Mei Kang,,351.00,,,6034610081500194,78098957,San Diego,24 months,CreditCard,,,,,,,,,,,,,,,,9/13/2017 12:00:00 AM,No,"3 years parts, 1 year labor (Free)",Delivered,LA County Fair 9/1-24 (CA),,"Synchrony approved $3500, Pls Charge COD $ $351, the customer confirmed already",100415,"SYNCHRONY CLEARED BY ALICIA 9/5/17 $3500, COD $351 was paid by  check #1110 (Need to be confirmed by AC department after 9/21/17)  S#91178125",CA,,
9/5/2017 7:37:49 PM,Carl Levinger,CA,90048,Legacy,DWA-9100DWA-9100CH-DEMO,Demo Choco Brown,Demo,,,,,3481.25,3250.00,231.25,Ting Ritchie,,0.00,94188Z,,,,,,,,,,,,,,,,,,,,,,,No,"3 years parts, 1 year labor (Free)",Cancelled,LA County Fair 9/1-24 (CA),,,100416,"WELLS FARGO PAYMENT CLEARED FOR $3200, CONTACT SALES REP FOR DIFFERENCE BEFORE SCHEDULING
-printed",CA,,
9/5/2017 2:41:58 PM,Wayne Luster,NV,89121,Pegasus,DWA-9400Pegasus-BL-DEMO,Demo Black,Demo,,,,,4344.33,4040.00,304.33,Mei Kang,,2000.00,test123,,,,,,COD,,,,,,,,,,,,,,,,9/8/2017 12:00:00 AM,No,"3 years parts, 1 year labor (Free)",Delivered,LA County Fair 9/1-24 (CA),,,100419,Forwarded order to Stephanie to dispatch to the appropriate branch (Las Vegas) 09/08/17,NV,,
9/5/2017 2:41:58 PM,Wayne Luster,NV,89121,Daiwa Blanket,,,New,,,,,4344.33,4040.00,304.33,Mei Kang,,2000.00,test123,,,,,,COD,,,,,,,,,,,,,,,,9/8/2017 12:00:00 AM,No,no warranty,Delivered,LA County Fair 9/1-24 (CA),,,100419,Forwarded order to Stephanie to dispatch to the appropriate branch (Las Vegas) 09/08/17,NV,,
9/6/2017 6:02:06 PM,Robert Gursslin,CA,92509,Serenity,SSRT-1SSRT-1-BR,Choco Brown,New,,,,,3426.63,3200.00,226.63,Kohei Uno,,0.00,cUqE,,,,,,,,,,,,,,,,,,,,,,9/19/2017 12:00:00 AM,No,"3 years parts, 3 years labor ($400)",Delivered,LA County Fair 9/1-24 (CA),,,100425,"SQUARE PAYMENT CLEARED BY ALICIA 9/11/17
09/19/17",CA,,
9/6/2017 6:06:02 PM,Sharee Moore,CA,91387,Serenity,SSRT-1SSRT-1-BL,Black,New,,,,,3754.38,3500.00,254.38,Kohei Uno,,0.00,9p6l,,,,,,,,,,,,,,,,,,,,,,9/15/2017 12:00:00 AM,No,"3 years parts, 3 years labor ($400)",Delivered,LA County Fair 9/1-24 (CA),,,100426,SQUARE PAYMENT CLEARED BY ALICIA 9/11/17,CA,,
9/6/2017 6:06:02 PM,Sharee Moore,CA,91387,Daiwa Blanket,,,New,,,,,3754.38,3500.00,254.38,Kohei Uno,,0.00,9p6l,,,,,,,,,,,,,,,,,,,,,,9/15/2017 12:00:00 AM,No,no warranty,Delivered,LA County Fair 9/1-24 (CA),,,100426,SQUARE PAYMENT CLEARED BY ALICIA 9/11/17,CA,,
9/6/2017 9:03:14 PM,Troy Abbott,CA,91739,Legacy,DWA-9100DWA-9100CH,Choco Brown,New,,,,,3896.40,3630.00,266.40,Ting Ritchie,,0.00,,,6034610081503172,78176441,San Diego,36 months,,,,,,,,,,,,,,,,,,No,"3 years parts, 3 years labor ($400)",Cancelled,LA County Fair 9/1-24 (CA),,,100427,"THIS IS A DOUBLE ORDER, CANCELLED THIS ONE 
-ALICIA",Not Dispatched,,
9/7/2017 8:07:09 AM,Dennis Smith,CA,91107,Pegasus,DWA-9400Pegasus-BL,Black,New,,,,,5557.00,5150.00,407.00,Mei Kang,,4150.00,22962D,,,,,,,,,,,,,,,,,,,,,,9/18/2017 12:00:00 AM,No,"3 years parts, 3 years labor ($400)",Delivered,LA County Fair 9/1-24 (CA),,"Requested to fix our Sanyo chair , they bought from us before, leg problem",100428,"WELLS FARGO PAYMENT CLEARED BY ALICIA 9/7/17
sched 09/18/17",CA,,
9/7/2017 8:07:09 AM,Dennis Smith,CA,91107,Tourmaline Pad for Pegasus,,,New,,,,,5557.00,5150.00,407.00,Mei Kang,,4150.00,22962D,,,,,,,,,,,,,,,,,,,,,,9/18/2017 12:00:00 AM,No,no warranty,Delivered,LA County Fair 9/1-24 (CA),,"Requested to fix our Sanyo chair , they bought from us before, leg problem",100428,"WELLS FARGO PAYMENT CLEARED BY ALICIA 9/7/17
sched 09/18/17",CA,,
9/7/2017 11:07:28 AM,Troy Abbott,CA,91739,Legacy,DWA-9100DWA-9100CH,Choco Brown,New,,,,,3918.25,3650.00,268.25,Ting Ritchie,,0.00,,,6034610081503172,78176441,San Diego,36 months,Cash,,,,,,,,,,,,,,,,,No,"3 years parts, 3 years labor ($400)",Cancelled,LA County Fair 9/1-24 (CA),,Approved aut #006679,100429,"SYNCHRONY CLEARED BY ALICIA 9/11/17
THIS WAS A DOUBLE ORDER. SECOND ONE CANCELLED
customer is claiming fraud: refunded however we have proof as too signed invoice and synchrony sheet",CA,,
9/7/2017 12:26:40 PM,Titoanits Rodriguo,CA,90063,Legacy,DWA-9100DWA-9100CH-DEMO,Demo Choco Brown,Demo,,,,,3295.53,3080.00,215.53,Mei Kang,,200.00,,,,,,,CreditCard,,,,,,,,,,,,,,,,9/20/2017 12:00:00 AM,No,"3 years parts, 3 years labor ($400)",Delivered,LA County Fair 9/1-24 (CA),,,100430,"WELLS FARGO $200 PAYMENT CLEARED BY ALICIA 9/12/17, COD $3,100.00 ($3,095.53)
Per customer he stated we are to remove 2 chairs from home?",CA,,
9/7/2017 12:26:40 PM,Titoanits Rodriguo,CA,90063,Tourmaline Pad for Lagacy,,,New,,,,,3295.53,3080.00,215.53,Mei Kang,,200.00,,,,,,,CreditCard,,,,,,,,,,,,,,,,9/20/2017 12:00:00 AM,No,no warranty,Delivered,LA County Fair 9/1-24 (CA),,,100430,"WELLS FARGO $200 PAYMENT CLEARED BY ALICIA 9/12/17, COD $3,100.00 ($3,095.53)
Per customer he stated we are to remove 2 chairs from home?",CA,,
9/7/2017 8:09:10 PM,Marilyn Williams,CA,90220,Legacy,DWA-9100DWA-9100BL-DEMO,Demo Black,Demo,,,,,3186.28,2980.00,206.28,David Wang,,3186.28,,,6034610081504444,78217601,San Diego,24 months,,,,,,,,,,,,,,,,,,No,"3 years parts, 1 year labor (Free)",Cancelled,LA County Fair 9/1-24 (CA),,Auth# 007683,100432,"Refunded .72 cents due to over charge- cristina
Cancelled and refunded due to getting billed by synchrony before she received  her chair.",CA,,
9/7/2017 9:35:12 PM,Angela Riccio,NV,89169,Legacy,DWA-9100DWA-9100BL,Black,New,,,,,3481.25,3250.00,231.25,Mikito Nakanishi,Synchrony,3496.00,,,6034610081503263,78181596,,36 months,,0.00,,,,,,,,0.00,,,,,,,11/3/2017 12:00:00 AM,No,"3 years parts, 1 year labor (Free)",Delivered,LA County Fair 9/1-24 (CA),,,100437,Checked payment and forwarded to Stephanie as well as emailed customer synchrony info.,NV,,
9/7/2017 11:44:28 PM,Kuey Wong,CA,90026,Legacy,DWA-9100DWA-9100CH,Choco Brown,New,,,,,3404.78,3180.00,224.78,Mikito Nakanishi,,3400.00,09277C,,,,,,,,,,,,,,,,,,,,,,9/20/2017 12:00:00 AM,No,"3 years parts, 1 year labor (Free)",Delivered,LA County Fair 9/1-24 (CA),,Total $3400 paid off,100438,WELLS FARGO PAYMENT CLEARED 9/11/17,CA,,
9/8/2017 5:55:53 AM,Allen Cayir,CA,91709,Legacy,DWA-9100DWA-9100CH,Choco Brown,New,,,,,3809.00,3550.00,259.00,Mikito Nakanishi,,3800.00,849763,,,,,,,,,,,,,,,,,,,,,,10/4/2017 12:00:00 AM,No,"3 years parts, 1 year labor (Free)",Delivered,LA County Fair 9/1-24 (CA),,Paid off,100439,"WELLS FARGO PAYMENT CLEARED BY ALICIA 9/11/17
09/26/17- cristina printed",CA,,
9/8/2017 7:03:39 AM,Fredy Galindo,CA,91335,Legacy,DWA-9100DWA-9100CH-DEMO,Demo Choco Brown,Demo,,,,,3208.13,3000.00,208.13,David Wang,,2500.00,,,6034610081499975,78088777,San Diego,24 months,CreditCard,,,,,,,,,,,,,,,,9/15/2017 12:00:00 AM,No,"3 years parts, 1 year labor (Free)",Delivered,LA County Fair 9/1-24 (CA),,,100440,"SYNCHRONY CLEARED FOR $2500 BY ALICIA
Need to collect COD $700 even (Per David, total amount is $3200) 9/12/17 Riho",CA,,
9/8/2017 9:06:01 AM,Teri Muse,CA,91706,Legacy 3D,DWA-9150USJ-9150CH-DEMO,Demo Choco Brown,Demo,,,,,3503.10,3270.00,233.10,Mei Kang,,3500.00,,,6034610081504600,78225932,San Diego,24 months,,,,,,,,,,,,,,,,,9/18/2017 12:00:00 AM,No,"3 years parts, 3 years labor ($400)",Delivered,LA County Fair 9/1-24 (CA),,Approved aut #008359 $3500,100442,"SYNCHRONY CLEARED $3500 BY ALICIA 9/12/17
sched 09/18/17",CA,,
9/8/2017 9:06:01 AM,Teri Muse,CA,91706,Daiwa Blanket,,,New,,,,,3503.10,3270.00,233.10,Mei Kang,,3500.00,,,6034610081504600,78225932,San Diego,24 months,,,,,,,,,,,,,,,,,9/18/2017 12:00:00 AM,No,no warranty,Delivered,LA County Fair 9/1-24 (CA),,Approved aut #008359 $3500,100442,"SYNCHRONY CLEARED $3500 BY ALICIA 9/12/17
sched 09/18/17",CA,,
9/8/2017 9:46:53 AM,Joy Fisher,CA,92584,Serenity,SSRT-1SSRT-1-BL-DEMO,Demo Black,Demo,,,,,2552.63,2400.00,152.63,Kohei Uno,,0.00,tP66,,,,,,,,,,,,,,,,,,,,,,9/14/2017 12:00:00 AM,No,"3 years parts, 1 year labor (Free)",Delivered,LA County Fair 9/1-24 (CA),,Please deliver as soon as possible.,100443,"PAID IN FULL, PER KOHEI 9/12/17",CA,,
9/8/2017 9:55:28 AM,Joy Sotto,CA,91205,Relax2Zero 1.0,USJ-9000USJ-9000BR,Brown,New,,,,,3426.63,3200.00,226.63,Kohei Uno,,3426.63,,,6034610081504477,78218591,San Diego,36 months,,,,,,,,,,,,,,,,,9/29/2017 12:00:00 AM,No,"3 years parts, 3 years labor ($400)",Delivered,LA County Fair 9/1-24 (CA),,"Auth# 007692

3rd floor delivery, however, there is an elevator to transport the chair up to the 3rd floor.",100444,"Synchrony Checked by: Cristina
09/29/17 12:30-1:30",CA,,
9/8/2017 9:58:50 AM,Daniel Manzano,CA,92392,Relax2Zero 1.0,USJ-9000USJ-9000BR,Brown,New,,,,,3098.88,2900.00,198.88,Kohei Uno,,0.00,ZnPq,,,,,,,,,,,,,,,,,,,,,,9/25/2017 12:00:00 AM,No,"3 years parts, 3 years labor ($400)",Delivered,LA County Fair 9/1-24 (CA),,,100445,Per Agreement of Kohie of me and myself  customer will be scheduled for 09/25/17 (7-8:30 am),CA,,
9/8/2017 5:49:23 PM,Thomas Briggs,CA,92315,Relax2Zero 1.0,USJ-9000USJ-9000BR,Brown,New,,,,,3754.38,3500.00,254.38,Kohei Uno,,3754.38,,,6034610081505854,78251818,San Diego,36 months,,,,,,,,,,,,,,,,,10/6/2017 12:00:00 AM,No,"3 years parts, 1 year labor (Free)",Cancelled,LA County Fair 9/1-24 (CA),,,100449,"SYNCHRONY CLEARED BY ALICIA 9/12/17
11/08/17-Cristina- Refunded 11/08/17
Picked up 11/07/17",CA,,
9/8/2017 6:16:13 PM,Sandra Dixon,CA,92064,Legacy,DWA-9100DWA-9100SI,Sienna Brown,New,,,,,3907.33,3640.00,267.33,Ting Ritchie,,0.00,80527B,,,,,,,,,,,,,,,,,,,,,,9/21/2017 12:00:00 AM,No,"3 years parts, 3 years labor ($400)",Delivered,LA County Fair 9/1-24 (CA),,Offer $3900.,100450,"WELLS FARGO PAYMENT CLEARED BY ALICIA 9/12/17
09/21/17 (3-4)",CA,,
9/8/2017 10:30:11 PM,Jolynn Barnes,CA,92501,Legacy,DWA-9100DWA-9100CH,Choco Brown,New,,,,,3798.08,3540.00,258.08,Kaz Ohashi,,3798.08,,,6034610081500068,78256145,San Diego,36 months,,,,,,,,,,,,,,,,,9/22/2017 12:00:00 AM,No,"3 years parts, 3 years labor ($400)",Delivered,LA County Fair 9/1-24 (CA),,,100455,"SYNCHRONY TRANSACTION BY ALICIA 9/12/17
09/22/17 (5:30-6:30)",CA,,
9/8/2017 10:30:11 PM,Jolynn Barnes,CA,92501,Chair Pad for Lagacy,,,New,,,,,3798.08,3540.00,258.08,Kaz Ohashi,,3798.08,,,6034610081500068,78256145,San Diego,36 months,,,,,,,,,,,,,,,,,9/22/2017 12:00:00 AM,No,no warranty,Delivered,LA County Fair 9/1-24 (CA),,,100455,"SYNCHRONY TRANSACTION BY ALICIA 9/12/17
09/22/17 (5:30-6:30)",CA,,
9/9/2017 10:10:18 AM,Yolanda Fardnazari,CA,92335,Legacy 3D,DWA-9150USJ-9150BL,Black,New,,,,,3809.00,3550.00,259.00,Mei Kang,,100.00,481974,,,,,,COD,,,,,,,,,,,,,,,,,No,"3 years parts, 3 years labor ($400)",Cancelled,LA County Fair 9/1-24 (CA),,"Pls hold a few month , waiting for the customer call",100456,"WELLS FARGO PAYMENT CLEARED BY ALICIA 9/12/17
12/05/17- Cancelled and Refunded- Cristina",CA,,
9/9/2017 11:57:09 AM,Robert Lane,CA,90047,Legacy,DWA-9100DWA-9100CR-DEMO,Demo Cream,Demo,,,,,3819.93,3560.00,259.93,Mikito Nakanishi,,3819.93,,,6034610081505623,78248140,San Diego,24 months,,,,,,,,,,,,,,,,,9/29/2017 12:00:00 AM,No,"3 years parts, 1 year labor (Free)",Delivered,LA County Fair 9/1-24 (CA),,"Not cream, please deliver the Gold color",100457,"Authorization # 012308 
SYNCHRONY CLEARED BY ALICIA 9/12/17
09/29/17 8:30-9:30",CA,,
9/9/2017 10:58:24 PM,Linda Koblick,CA,91789,Relax2Zero 3D,DWA-9060USJ-9060BR,Choco Brown,New,,,,,4846.88,4500.00,346.88,Joseph Chan,,4846.88,,,6034610081508056,78285373,San Diego,24 months,CreditCard,,,,,,,,,,,,,,,,10/4/2017 12:00:00 AM,No,"3 years parts, 3 years labor ($400)",Delivered,LA County Fair 9/1-24 (CA),,"$2000 down payment.
Square # WuLA

Synchrony Auth # 010021",100461,"CUSTOMER WAS OVER CHARGED ON SYNCHRONY FOR $1847, REFUNDED 9/12/17
PAYMENT ON SQUARE CLEARED, SYNCHRONY CLEARED BY ALICIA 9/12/17
OK TO DELIVER",CA,,
9/10/2017 10:00:59 AM,Jennifer Dasteel,CA,92618,Legacy,DWA-9100DWA-9100BL,Black,New,,,,,3896.40,3630.00,266.40,Ting Ritchie,,0.00,,,6034610081508742,78293378,,,,,,,,,,,,,,,,,,,9/21/2017 12:00:00 AM,No,"3 years parts, 3 years labor ($400)",Delivered,LA County Fair 9/1-24 (CA),,,100462,"Processed purchase transaction for $3,896.40 (San Diego/424/Auth#012570) 9/12/17 Riho
09/21/17 (7-8 am)",CA,,
9/10/2017 10:10:38 AM,Tian Ling Xu,CA,91770,Legacy,DWA-9100DWA-9100BL,Black,New,,,,,3896.40,3630.00,266.40,Ting Ritchie,,0.00,00025D,,,,,,,,,,,,,,,,,,,,,,9/18/2017 12:00:00 AM,No,"3 years parts, 1 year labor (Free)",Delivered,LA County Fair 9/1-24 (CA),,,100464,"Please change to color : BLUE
Confirmed the transaction $3900, 9/12/17 Riho
sched 09/18/17",CA,,
9/10/2017 10:23:55 AM,John Cheung,CA,91007,Legacy,DWA-9100DWA-9100CH-DEMO,Demo Choco Brown,Demo,,,,,3393.85,3170.00,223.85,Ting Ritchie,,0.00,04403C,,,,,,,,,,,,,,,,,,,,,,,No,"3 years parts, 3 years labor ($400)",Cancelled,LA County Fair 9/1-24 (CA),,,100469,"WELLS FARGO PAYMENT CLEARED BY ALICIA 9/12/17
Customer ID is incorrect, Ting will make a new order with Customer ID : John Cheung 9/12/17 Riho",CA,,
9/10/2017 10:26:37 AM,Kristie Song,CA,91780,Legacy,DWA-9100DWA-9100BL,Black,New,,,,,3590.50,3350.00,240.50,Kaz Ohashi,,3590.50,,,6034610081509120,78302508,San Diego,36 months,,,,,,,,,,,,,,,,,9/18/2017 12:00:00 AM,No,"3 years parts, 3 years labor ($400)",Delivered,LA County Fair 9/1-24 (CA),,"24 or 36 months not decided yet.
Kaz will follow up",100470,"Please process 24 months. Thank you by Kaz 09/10
SYNCHRONY PROCESSED BY ALICIA 9/12/17
Authorization # 012346
sched 09/18/17",CA,,
9/10/2017 10:26:37 AM,Kristie Song,CA,91780,Tourmaline Pad for Legacy,,,New,,,,,3590.50,3350.00,240.50,Kaz Ohashi,,3590.50,,,6034610081509120,78302508,San Diego,36 months,,,,,,,,,,,,,,,,,9/18/2017 12:00:00 AM,No,no warranty,Delivered,LA County Fair 9/1-24 (CA),,"24 or 36 months not decided yet.
Kaz will follow up",100470,"Please process 24 months. Thank you by Kaz 09/10
SYNCHRONY PROCESSED BY ALICIA 9/12/17
Authorization # 012346
sched 09/18/17",CA,,
9/10/2017 10:33:16 AM,Pascual Bizarro,CA,90063,Relax2Zero 1.0,USJ-9000USJ-9000BR,Brown,New,,,,,3754.38,3500.00,254.38,Kohei Uno,,3754.38,,,6034610081508510,78290410,San Diego,36 months,,,,,,,,,,,,,,,,,9/20/2017 12:00:00 AM,No,"3 years parts, 1 year labor (Free)",Delivered,LA County Fair 9/1-24 (CA),,Synchrony Auth# 009688,100473,SYNCHRONY CLEARED BY ALICIA 9/12/17,CA,,
9/10/2017 10:37:10 AM,Lean Nealon,CA,91773,Legacy 3D,DWA-9150USJ-9150CH-DEMO,Demo Choco Brown,Demo,,,,,3415.70,3190.00,225.70,May Kam,,3415.70,,,6034610081508999,78299607,San Diego,36 months,,,,,,,,,,,,,,,,,9/22/2017 12:00:00 AM,No,"3 years parts, 3 years labor ($400)",Delivered,LA County Fair 9/1-24 (CA),,,100474,"SYNCHRONY PAYMENT CLEARED BY ALICIA 9/12/17
09/22/17 (11:30-12:30)",CA,,
9/10/2017 10:46:37 AM,Sonjia McKinley,CA,93536,Relax2Zero 3D,DWA-9060USJ-9060BR,Choco Brown,New,,,,,4497.28,4180.00,317.28,Kohei Uno,,4497.28,,,6034610081508338,78288951,San Diego,36 months,,,,,,,,,,,,,,,,,10/4/2017 12:00:00 AM,No,"3 years parts, 3 years labor ($400)",Delivered,LA County Fair 9/1-24 (CA),,"Paid $300 down payment.
Square# JDnP.
Financing balance of $4197.28.
Synchrony Auth# 009807",100477,"SQUARE PAYMENT CLEARED BY ALICIA 9/12/17, $300
SYNCHRONY PAYMENT CLEARED BY ALICIA $4200, 9/12/17",CA,,
9/10/2017 10:48:42 AM,Janette Herrera,CA,92345,Legacy,DWA-9100DWA-9100CH-DEMO,Demo Choco Brown,Demo,,,,,3317.38,3100.00,217.38,May Kam,,0.00,,,6034610081508981,78299536,San Diego,36 months,,,,,,,,,,,,,,,,,9/25/2017 12:00:00 AM,No,"3 years parts, 3 years labor ($400)",Delivered,LA County Fair 9/1-24 (CA),,"Offer $3300 included Tax.
Auth# 010283",100478,"Confirmed the transaction $3300 by Riho 9/12/17
09/25/17 11-12",CA,,
9/10/2017 10:55:21 AM,Michelle Wendlandt,CA,92860,Relax2Zero 1.0,USJ-9000USJ-9000KU,Black,New,,,,,4082.13,3800.00,282.13,Kohei Uno,,4082.13,RlTh,,,,,,,,,,,,,,,,,,,,,,9/19/2019 12:00:00 AM,No,"3 years parts, 3 years labor ($400)",Delivered,LA County Fair 9/1-24 (CA),,,100480,"Confirmed the transaction $4,082.13 by Riho 9/12/17",CA,,
9/10/2017 10:57:06 AM,Barbara Seeget,CA,91796,Legacy,DWA-9100DWA-9100BL,Black,New,,,,,3896.40,3630.00,266.40,Kaz Ohashi,,100.00,002267,,,,,,COD,,,,,,,,,,,,,,,,,No,"3 years parts, 3 years labor ($400)",Hold,LA County Fair 9/1-24 (CA),,Hold this order up to 12 months.,100481,,Not Dispatched,,
9/10/2017 10:57:08 AM,binh chau,CA,91732,Legacy,DWA-9100DWA-9100BL-DEMO,Demo Black,Demo,,,,,2853.06,2675.00,178.06,David Wang,,2853.06,14647D,,,,,,,,,,,,,,,,,,,,,,9/29/2017 12:00:00 AM,No,"3 years parts, 3 years labor ($400)",Delivered,LA County Fair 9/1-24 (CA),,,100482,Confirmed the transaction $2850 by Riho 9/12/17,CA,,
9/10/2017 11:09:32 AM,Frank Phillips,CA,90746,Relax2Zero 3D,DWA-9060USJ-9060BR,Choco Brown,New,,,,,4497.28,4180.00,317.28,Joseph Chan,,4497.28,,,6034610081508940,78296540,San Diego,36 months,,,,,,,,,,,,,,,,,9/27/2017 12:00:00 AM,No,"3 years parts, 3 years labor ($400)",Delivered,LA County Fair 9/1-24 (CA),,Synchrony Auth# 010485,100485,SYNCHRONY CLERED BY ALICIA 9/13/17,CA,,
9/10/2017 11:10:19 AM,Rashid Manzoor,CA,91748,Legacy,DWA-9100DWA-9100CH,Choco Brown,New,,,,,3300.99,3085.00,215.99,May Kam,,100.00,,,,,,,CreditCard,,,,,,,,,,,,,,,,,No,"3 years parts, 3 years labor ($400)",Hold,LA County Fair 9/1-24 (CA),,"Cash Deal $3300 included Tax.
C.O.D CASH. Remaining $3200",100486,"$100 RECEIVED DEPOSIT PER MAY 9/13/17
$3200 COD
09/26/17 cristina printed",CA,,
9/10/2017 11:14:55 AM,Krish Singh,CA,92376,Legacy,DWA-9100DWA-9100BL,Black,New,,,,,3000.55,2810.00,190.55,Kaz Ohashi,,100.00,,,,,,,CreditCard,,,,,,,,,,,,,,,,9/19/2017 12:00:00 AM,No,"3 years parts, 3 years labor ($400)",Delivered,LA County Fair 9/1-24 (CA),,"Cash Deal $3000 included Tax.
Remaining Balance $2900
C.O.D CASH",100488,"$2,900 COD",CA,,
9/10/2017 11:18:37 AM,jamal brown,CA,92532,Pegasus,DWA-9400Pegasus-BR,Choco Brown,New,,,,,4992.25,4650.00,342.25,David Wang,CreditCard,500.00,275009,,,,,,CreditCard,4492.25,UFZp,,,,,,,0.00,,,,,,,9/21/2017 12:00:00 AM,No,"3 years parts, 3 years labor ($400)",Delivered,LA County Fair 9/1-24 (CA),,customer paid 500 deposit. cod 4492.25 when we deliver the chair. second floor delivery. pls give the customer 1 free tourmaline pad.,100489,"WELLS FARGO PAYMENT CLEARED FOR $500 BY ALICIA 9/13/17
$4492.25 COD was paid by Square #UFZp on 9/21/17. Riho
09/21/17 (9-10)
4/2 replacement serial#: 0501002170109
4/20 Replacement of complete chair (NEW) S#: 0501002170104",CA,,
9/10/2017 11:18:37 AM,jamal brown,CA,92532,Tourmaline Pad for Pegasus,,,New,,,,,4992.25,4650.00,342.25,David Wang,CreditCard,500.00,275009,,,,,,CreditCard,4492.25,UFZp,,,,,,,0.00,,,,,,,9/21/2017 12:00:00 AM,No,no warranty,Delivered,LA County Fair 9/1-24 (CA),,customer paid 500 deposit. cod 4492.25 when we deliver the chair. second floor delivery. pls give the customer 1 free tourmaline pad.,100489,"WELLS FARGO PAYMENT CLEARED FOR $500 BY ALICIA 9/13/17
$4492.25 COD was paid by Square #UFZp on 9/21/17. Riho
09/21/17 (9-10)
4/2 replacement serial#: 0501002170109
4/20 Replacement of complete chair (NEW) S#: 0501002170104",CA,,
9/10/2017 11:19:55 AM,Jeffery Phelps,CA,92507,Relax2Zero 3D,DWA-9060USJ-9060BL,Black,New,,,,,4191.38,3900.00,291.38,Joseph Chan,,500.00,,,,,,,Check,,,,,,,,,,,,,,,,,No,"3 years parts, 3 years labor ($400)",Cancelled,LA County Fair 9/1-24 (CA),,Customer will pay cash on delivery.,100492,"Order Total is $4200, $500 was paid by Check (Kohei will follow up), Need to collect COD $3700.
9/13/17 Riho - printed
10/07/17  1-2 pm - cr",CA,,
9/10/2017 11:30:50 AM,Sandy Melendez,CA,91766,Legacy 3D,DWA-9150USJ-9150BL,Black,New,,,,,4295.16,3995.00,300.16,Ting Ritchie,,0.00,,,6034610081509260,78303419,San Diego,36 months,,,,,,,,,,,,,,,,,9/22/2017 12:00:00 AM,No,"3 years parts, 1 year labor (Free)",Delivered,LA County Fair 9/1-24 (CA),,,100494,"Authorization # 013577 
SYNCHRONY CLEARED BY ALICIA 9/13/17 -printed
09/22/17 (10-11)",CA,,
9/10/2017 7:46:13 PM,Chris Lacy,CA,92545,Legacy,DWA-9100DWA-9100CH,Choco Brown,New,,,,,4005.65,3730.00,275.65,Ting Ritchie,,0.00,WizG,,,,,,,,,,,,,,,,,,,,,,10/6/2017 12:00:00 AM,No,"3 years parts, 3 years labor ($400)",Delivered,LA County Fair 9/1-24 (CA),,,100498,"SQUARE PAYMENT CLEARED 9/13/17 BY ALICIA
printed",CA,,
9/10/2017 7:56:17 PM,Ben Raygoza,CA,91737,Legacy,DWA-9100DWA-9100CH,Choco Brown,New,,,,,3404.78,3180.00,224.78,Ting Ritchie,,0.00,07850C,,,,,,,,,,,,,,,,,,,,,,9/22/2017 12:00:00 AM,No,"3 years parts, 3 years labor ($400)",Delivered,LA County Fair 9/1-24 (CA),,"$200 deposit paid with credit card, the balance $3400 will be paid in check when delivery.",100499,"ACTUAL PURCHASE PRICE IS $3600
$200 DEPOSIT, $3400 COD
WELLS FARGO $200 CLEARED BY ALICIA 9/13/17-printed
09/22/17 (2-3)",CA,,
9/10/2017 8:24:20 PM,Jay Dillera,CA,91343,Relax2Zero 3D,DWA-9060USJ-9060BR,Choco Brown,New,,,,,4846.88,4500.00,346.88,Joseph Chan,,4846.88,,,6034610081510342,78316221,San Diego,48 months,,,,,,,,,,,,,,,,,9/29/2017 12:00:00 AM,No,"3 years parts, 3 years labor ($400)",Delivered,LA County Fair 9/1-24 (CA),,Synchrony Auth# 010166,100500,"Refunded over charged (12 cents) Verified synchrony transaction -Cristina
-printed 09/29/17 4-5 pm",CA,,
9/10/2017 8:33:49 PM,Anthony Guzman,CA,90603,Relax2Zero 1.0,USJ-9000USJ-9000KU,Black,New,,,,,3590.50,3350.00,240.50,Joseph Chan,,3590.50,,,6034610081509864,78312681,San Diego,36 months,CreditCard,,,,,,,,,,,,,,,,9/27/2017 12:00:00 AM,No,"3 years parts, 3 years labor ($400)",Delivered,LA County Fair 9/1-24 (CA),,"$200 Deposit paid.
Square# ysdx

Synchrony Auth# 010166",100501,"SYNCHRONY CLEARED BY ALICIA 9/13/17
SQUARE PAYMENT CLEARED -printed",CA,,
9/13/2017 4:42:09 PM,John Cheung,CA,91007,Legacy,DWA-9100DWA-9100CH-DEMO,Demo Choco Brown,Demo,,,,,3393.85,3170.00,223.85,Ting Ritchie,,0.00,04403C,,,,,,,,,,,,,,,,,,,,,,9/18/2017 12:00:00 AM,No,"3 years parts, 3 years labor ($400)",Delivered,LA County Fair 9/1-24 (CA),,,100531,"WELLS FARGO PAYMENT CLEARED BY ALICIA 9/12/17 (It's revised from order #100469
sched 09/18/17",CA,,
9/13/2017 9:50:09 PM,michael nelson,CA,92570,Legacy,DWA-9100DWA-9100BL-DEMO,Demo Black,Demo,,,,,3251.83,3040.00,211.83,David Wang,,3251.83,38480D,,,,,,,,,,,,,,,,,,,,,,10/6/2017 12:00:00 AM,No,"3 years parts, 2 years labor ($200)",Delivered,LA County Fair 9/1-24 (CA),,the customer paid off the balance with the credit card already.,100538,"Confirmed  WF transaction for $3,250.00. 9/14/17 Riho
printed",CA,,
9/14/2017 10:12:43 AM,Reiko Sakata,CA,91016,Legacy,DWA-9100DWA-9100BL,Black,New,,,,,3809.00,3550.00,259.00,Mikito Nakanishi,,0.00,,,,,,,CreditCard,,,,,,,,,,,,,,,,,No,"3 years parts, 1 year labor (Free)",Cancelled,LA County Fair 9/1-24 (CA),,,100542,"This customer didn't pay deposit. Nakanishi will collect it, then the Balance will be collected as COD. 9/14/17 Riho
sched 09/18/17

This order has wrong information. It was cancelled by Nakanishi. He will create new order later.",CA,,
9/14/2017 10:12:43 AM,Reiko Sakata,CA,91016,Chair Pad for Legacy,,,New,,,,,3809.00,3550.00,259.00,Mikito Nakanishi,,0.00,,,,,,,CreditCard,,,,,,,,,,,,,,,,,No,no warranty,Cancelled,LA County Fair 9/1-24 (CA),,,100542,"This customer didn't pay deposit. Nakanishi will collect it, then the Balance will be collected as COD. 9/14/17 Riho
sched 09/18/17

This order has wrong information. It was cancelled by Nakanishi. He will create new order later.",CA,,
9/14/2017 10:12:43 AM,Reiko Sakata,CA,91016,Daiwa Blanket,,,New,,,,,3809.00,3550.00,259.00,Mikito Nakanishi,,0.00,,,,,,,CreditCard,,,,,,,,,,,,,,,,,No,no warranty,Cancelled,LA County Fair 9/1-24 (CA),,,100542,"This customer didn't pay deposit. Nakanishi will collect it, then the Balance will be collected as COD. 9/14/17 Riho
sched 09/18/17

This order has wrong information. It was cancelled by Nakanishi. He will create new order later.",CA,,
9/14/2017 10:12:43 AM,Reiko Sakata,CA,91016,Foot Pads for Legacy,,,New,,,,,3809.00,3550.00,259.00,Mikito Nakanishi,,0.00,,,,,,,CreditCard,,,,,,,,,,,,,,,,,No,no warranty,Cancelled,LA County Fair 9/1-24 (CA),,,100542,"This customer didn't pay deposit. Nakanishi will collect it, then the Balance will be collected as COD. 9/14/17 Riho
sched 09/18/17

This order has wrong information. It was cancelled by Nakanishi. He will create new order later.",CA,,
9/14/2017 6:48:15 PM,Mack Moore,CA,91765,Relax2Zero 3D,DWA-9060USJ-9060BR,Choco Brown,New,,,,,4846.88,4500.00,346.88,Kohei Uno,,4200.00,,,6034610081517107,78480563,San Diego,36 months,CreditCard,,,,,,,,,,,,,,,,10/4/2017 12:00:00 AM,No,"3 years parts, 3 years labor ($400)",Delivered,LA County Fair 9/1-24 (CA),,"Deposit paid $646.88
Square# uimr

Synchrony Auth# 014145",100544,"SYNCHRONY CLEARED BY ALICIA 9/14/17
SQUARE PAYMENT CLEARED 9/14/17 -printed",CA,,
9/14/2017 8:34:19 PM,Mariano Castillejo,CA,93552,Relax2Zero 3D,DWA-9060USJ-9060BR,Choco Brown,New,,,,,4519.13,4200.00,319.13,Kohei Uno,,0.00,h91v,,,,,,,,,,,,,,,,,,,,,,10/4/2017 12:00:00 AM,No,"3 years parts, 3 years labor ($400)",Delivered,LA County Fair 9/1-24 (CA),,,100545,"SQUARE PAYMENT CLEARED BY ALICIA 9/15/17
_printed",CA,,
9/15/2017 7:53:24 AM,Willy Phillips,CA,90045,Legacy,DWA-9100DWA-9100SI-DEMO,Demo Sienna Brown,Demo,,,,,3399.31,3175.00,224.31,May Kam,,3400.00,,,6034610081517230,78491006,San Diego,36 months,,,,,,,,,,,,,,,,,9/20/2017 12:00:00 AM,No,"3 years parts, 3 years labor ($400)",Delivered,LA County Fair 9/1-24 (CA),,"Pls pay attention on delivery address , different with billing address",100546,"SYNCHRONY PROCESSED BY ALICIA 9/15/17, CHARGED $3400
Authorization # 015880",CA,,
9/15/2017 8:07:29 AM,Richard Brown,MO,65616,Pegasus,DWA-9400Pegasus-BL,Black,New,,,,,4846.88,4500.00,346.88,May Kam,,4850.00,,,6034610081517255,78491335,San Diego,36 months,,,,,,,,,,,,,,,,,10/10/2017 12:00:00 AM,No,"3 years parts, 3 years labor ($400)",Delivered,LA County Fair 9/1-24 (CA),,"4 years parts, 3 years labor",100547,"SYNCHRONY PROCESSED BY ALICIA 9/15/17
Authorization # 015811",TX,,
9/15/2017 8:17:02 AM,Tony Chu,CA,91752,Legacy 3D,DWA-9150USJ-9150BL,Black,New,,,,,3503.10,3270.00,233.10,May Kam,,3500.00,04721C,,,,,,,,,,,,,,,,,,,,,,10/6/2017 12:00:00 AM,No,"3 years parts, 3 years labor ($400)",Delivered,LA County Fair 9/1-24 (CA),,Paid off,100548,"NOT POSTED ON WELLS FARGO YET 9/15/17- ALICIA
Confirmed the transaction By Riho 9/19/17 printed _CR",CA,,
9/15/2017 12:12:45 PM,Susie Gonzales,AA,91745,Legacy,DWA-9100DWA-9100CH,Choco Brown,New,,,,,3798.08,3540.00,258.08,May Kam,,3798.08,,,6034610081515879,78451276,San Diego,24 months,,,,,,,,,,,,,,,,,,No,"3 years parts, 1 year labor (Free)",Cancelled,LA County Fair 9/1-24 (CA),,,100558,"Charged Synchrony $3,798.08 
printed - CR
Sales rep information was wrong. It was cancelled. Created new order. Sales rep was changed from May to Nakanishi. Yashio",CA,,
9/15/2017 12:21:30 PM,Jesus Rubio,CA,91740,Legacy,DWA-9100DWA-9100CH,Choco Brown,New,,,,,3798.08,3540.00,258.08,Mikito Nakanishi,,3798.08,,,6034610081515895,78452075,San Diego,,,,,,,,,,,,,,,,,,10/3/2017 12:00:00 AM,No,"3 years parts, 1 year labor (Free)",Delivered,LA County Fair 9/1-24 (CA),,Please ask Mr.Nakanishi about How many months for financing.,100559,"Processed sale $3798.08 by cristina(Printed) 
Per Nakanishi 24 months",CA,,
9/15/2017 12:29:28 PM,Jason Eckerson,CA,91710,Legacy,DWA-9100DWA-9100CH,Choco Brown,New,,,,,3197.20,2990.00,207.20,May Kam,,200.00,862100,,,,,,COD,,,,,,,,,,,,,,,,9/28/2017 12:00:00 AM,No,"3 years parts, 1 year labor (Free)",Delivered,LA County Fair 9/1-24 (CA),,customer paid 200 debit card already. cod 3000.,100561,"Please ignore comment on Order Notes.
I fixed the price so Remaining balance: $2,997.20 Not $3000
C.o.D Master Debit Card
09/15 by Kaz
09/25/17 cristina printed",CA,,
9/15/2017 2:41:38 PM,John Solis,CA,90601,Legacy,DWA-9100DWA-9100CH,Choco Brown,New,,,,,3849.42,3587.00,262.42,May Kam,,3849.42,,,6034610081518469,78514503,San Diego,36 months,,,,,,,,,,,,,,,,,9/27/2017 12:00:00 AM,No,"3 years parts, 3 years labor ($400)",Delivered,LA County Fair 9/1-24 (CA),,,100564,"It hasn't been charged yet. (Approved $8500.00 for this customer), texted May to confirm the payment. 9/15/17 Riho Printed-CR

Processed sale $3,849.42 _cristina",CA,,
9/16/2017 7:16:00 AM,George Chardy,CA,92506,Legacy,DWA-9100DWA-9100GD,Gold,New,,,,,3450.66,3222.00,228.66,May Kam,,200.00,Square no jfaq,,,,,,COD,,,,,,,,,,,,,,,,9/28/2017 12:00:00 AM,No,"3 years parts, 3 years labor ($400)",Delivered,LA County Fair 9/1-24 (CA),,,100568,"Need to collect the balance $3,250.66 as COD. 9/19/17-Riho
printed",CA,,
9/16/2017 10:41:03 AM,Mark Sikula,CA,92545,Legacy 3D,DWA-9150USJ-9150CH,Choco Brown,New,,,,,3551.17,3314.00,237.17,David Wang,,3551.17,LK5L,,,,,,,,,,,,,,,,,,,,,,9/28/2017 12:00:00 AM,No,"3 years parts, 3 years labor ($400)",Delivered,LA County Fair 9/1-24 (CA),,"Please schedule a delivery on Sep28th(Customer's Birthday).
Offer $3550 included Tax.",100572,"SQUARE PAYMENT CLEARED BY ALICIA 9/19/17, $3550
09/21/17 printed",CA,,
9/16/2017 10:48:46 AM,John Chevng,CA,91007,Legacy,DWA-9100DWA-9100CH-DEMO,Demo Choco Brown,Demo,,,,,3393.85,3170.00,223.85,Kaz Ohashi,,3393.85,04403C,,,,,,,,,,,,,,,,,,,,,,10/3/2017 12:00:00 AM,No,"3 years parts, 3 years labor ($400)",Delivered,LA County Fair 9/1-24 (CA),,"Re-enter Order.
Original Order: 100469
by Kaz",100573,"WELLS FARGO PAYMENT CLEARED 9/19/17, $3,393.85
09/26/17 cristina printed",CA,,
9/16/2017 1:11:12 PM,Test Test,CA,90249,Legacy 3D,DWA-9150USJ-9150BL,Black,New,,,,,1310.53,1280.00,30.53,Kaz Ohashi,,50000.00,,,,,,,,,,,,,,,,,,,,,,,,No,"3 years parts, 1 year labor (Free)",Cancelled,LA County Fair 9/1-24 (CA),,Test,100574,Test Order - Cancelled,Not Dispatched,,
9/16/2017 1:11:12 PM,Test Test,CA,90249,Chair Pad for Legacy,,,New,,,,,1310.53,1280.00,30.53,Kaz Ohashi,,50000.00,,,,,,,,,,,,,,,,,,,,,,,,No,no warranty,Cancelled,LA County Fair 9/1-24 (CA),,Test,100574,Test Order - Cancelled,Not Dispatched,,
9/16/2017 1:11:12 PM,Test Test,CA,90249,Foot Pads for Legacy,,,New,,,,,1310.53,1280.00,30.53,Kaz Ohashi,,50000.00,,,,,,,,,,,,,,,,,,,,,,,,No,no warranty,Cancelled,LA County Fair 9/1-24 (CA),,Test,100574,Test Order - Cancelled,Not Dispatched,,
9/16/2017 3:47:49 PM,Leinberg Wilson,CA,92223,Pegasus,DWA-9400Pegasus-BR-DEMO,Demo Choco Brown,Demo,,,,,3798.08,3540.00,258.08,Charles Ishida,,50.00,s3lk,,,,,,Synchrony,,,,,,,,,,,,,,,,,No,"3 years parts, 1 year labor (Free)",Cancelled,LA County Fair 9/1-24 (CA),,"#6034610081521299
#78559415
Not processed yet.
$50 deposit
When we deliver the chair pls refund $50 and process the synchrony.",100577,Wrong Order - Canncelled,Not Dispatched,,
9/16/2017 3:59:16 PM,Leinberg Wilson,CA,92223,Pegasus,DWA-9400Pegasus-BR-DEMO,Demo Choco Brown,Demo,,,,,3799.17,3541.00,258.17,Charles Ishida,,0.00,,,6034610081521299,78559415,San Diego,36 months,,,,,,,,,,,,,,,,,,No,"3 years parts, 1 year labor (Free)",Cancelled,LA County Fair 9/1-24 (CA),,We took $50 deposit by square which is #s3lk receipt number. Please give the customer back the deposit. Customer is going to be paid off by Synchlony.,100578,Wrong Order - Cancelled,Not Dispatched,,
9/16/2017 4:30:59 PM,Cecilia Javel,CA,91401,Legacy,DWA-9100DWA-9100CH,Choco Brown,New,,,,,3899.68,3633.00,266.68,David Wang,,0.00,,,6034610081521588,78562185,San Diego,36 months,,,,,,,,,,,,,,,,,9/29/2017 12:00:00 AM,No,"3 years parts, 3 years labor ($400)",Delivered,LA County Fair 9/1-24 (CA),,,100579,"Charged $3,899.68/
Printed - Cristina 09/29/17 2-3",CA,,
9/16/2017 4:51:29 PM,Leinberg Wilson,CA,92223,Pegasus,DWA-9400Pegasus-BR-DEMO,Demo Choco Brown,Demo,,,,,3799.17,3541.00,258.17,Charles Ishida,,0.00,,,6034610081521299,78559415,San Diego,36 months,,,,,,,,,,,,,,,,,,No,"3 years parts, 1 year labor (Free)",Cancelled,LA County Fair 9/1-24 (CA),,,100580,"Customer changed his order from Demo chair to brand new chair.
This order was cancelled. New order was created.",Not Dispatched,,
9/16/2017 6:08:54 PM,Wallace Iwata,CA,90034,Legacy,DWA-9100DWA-9100GD,Gold,New,,,,,3899.68,3633.00,266.68,Kaz Ohashi,,100.00,#hybp,,,,,,,,,,,,,,,,,,,,,,10/2/2017 12:00:00 AM,No,"3 years parts, 1 year labor (Free)",Delivered,LA County Fair 9/1-24 (CA),,$100 deposit. Rest amount will be C.O.D,100581,"SQUARE PAYMENT CLEARED BY ALICIA, 9/19/17 $100
CHECK WITH KAZ COD AMOUNT -$3799.68 was paid by C.C. on 10/2/17 Riho
09/26/17 cristina printed",CA,,
9/16/2017 6:20:37 PM,Shanna Rojas,CA,92345,Legacy,DWA-9100DWA-9100BU,Blue,New,,,,,3899.68,3633.00,266.68,Kaz Ohashi,,0.00,,,6034610081522057,78566251,San Diego,36 months,,,,,,,,,,,,,,,,,9/25/2017 12:00:00 AM,No,"3 years parts, 1 year labor (Free)",Delivered,LA County Fair 9/1-24 (CA),,,100582,"Processed $3,899.68 / printed CR.
09/25/17 12-1",CA,,
9/16/2017 7:45:54 PM,Lori Vanzant,CA,93644,Legacy,DWA-9100DWA-9100CH,Choco Brown,New,,,,,3748.91,3495.00,253.91,May Kam,,200.00,#IUZV,,,,,,,,,,,,,,,,,,,,,,,No,"3 years parts, 2 years labor ($200)",Cancelled,LA County Fair 9/1-24 (CA),,Remaining balance will be C.O.D.,100583,"Accidentally charged extended warranty.
This order was cancelled and new order was created.",Not Dispatched,,
9/16/2017 8:00:22 PM,Malcolm Penton,CA,93601,Legacy,DWA-9100DWA-9100CH,Choco Brown,New,,,,,3748.91,3495.00,253.91,May Kam,,200.00,#IUVZ,,,,,,,,,,,,,,,,,,,,,,9/27/2017 12:00:00 AM,No,"3 years parts, 1 year labor (Free)",Delivered,LA County Fair 9/1-24 (CA),,$200 deposit. Rest amount will be C.O.D.,100584,"confirmed - printed -sched -cristina
09/27/17 11-12",CA,,
9/16/2017 8:19:37 PM,Cathy Sean Bolton,CA,90305,Legacy,DWA-9100DWA-9100CH-DEMO,Demo Choco Brown,Demo,,,,,3149.13,2946.00,203.13,Charles Ishida,,2500.00,,,6034610081522248,78568057,San Diego,36 months,CreditCard,,,,,,,,,,,,,,,,,No,"3 years parts, 1 year labor (Free)",Hold,LA County Fair 9/1-24 (CA),,"Deposit by square #ecvJ $50.
We adjusted remaining balance. Remaining will be paid by C.O.D $649.13-",100585,"SQUARE PAYMENT CLEARED BY ALICIA 9/19/17, $50
Processed purchase transaction for $2500 (Auth#019072) Need to collect the balance $650 as COD. 9/19/17-Riho 
09/26/17 cristina printed",CA,,
9/16/2017 8:40:27 PM,Lori Vanzant,CA,93644,Legacy,DWA-9100DWA-9100CH,Choco Brown,New,,,,,3748.91,3495.00,253.91,May Kam,,200.00,#IUVZ,,,,,,COD,,,,,,,,,,,,,,,,9/27/2017 12:00:00 AM,No,"3 years parts, 1 year labor (Free)",Delivered,LA County Fair 9/1-24 (CA),,Square Receipt#IUVZ charged 400. It is deposit for 2 orders. $200 is deposit of this order.,100587,"Confirmed the payment $400 at Square. 9/19/17 Riho
printed 09/27/17 1-2",CA,,
9/16/2017 8:53:33 PM,Leinberg Wilson,CA,92223,Tourmaline Pad for Pegasus,,,New,,,,,4799.90,4457.00,342.90,Charles Ishida,,0.00,,,6034610081521299,78559414,Las Vegas,36 months,,,,,,,,,,,,,,,,,9/28/2017 12:00:00 AM,No,no warranty,Delivered,LA County Fair 9/1-24 (CA),,,100589,"Charged for 4,800.00 by Cristina (printed)
on the San Diego Log in. Per Charles did not know if it was charged yet",CA,,
9/16/2017 8:53:33 PM,Leinberg Wilson,CA,92223,Pegasus,DWA-9400Pegasus-BR,Choco Brown,New,,,,,4799.90,4457.00,342.90,Charles Ishida,,0.00,,,6034610081521299,78559414,Las Vegas,36 months,,,,,,,,,,,,,,,,,9/28/2017 12:00:00 AM,No,"3 years parts, 1 year labor (Free)",Delivered,LA County Fair 9/1-24 (CA),,,100589,"Charged for 4,800.00 by Cristina (printed)
on the San Diego Log in. Per Charles did not know if it was charged yet",CA,,
9/16/2017 10:36:31 PM,Donna Nolls,CA,91306,Relax2Zero 1.0,USJ-9000USJ-9000BR,Brown,New,,,,,3754.38,3500.00,254.38,Kohei Uno,,3500.00,,,6034610081522271,78568193,San Diego,36 months,CreditCard,,,,,,,,,,,,,,,,,No,"3 years parts, 3 years labor ($400)",Cancelled,LA County Fair 9/1-24 (CA),,"Deposit Paid $254.38
Square# RSMz

Synchrony Auth# 016010",100590,"Payment cleared -CR
Refunded 09/19/17 both on square and Synchrony (Okay per Kohei)",CA,,
9/16/2017 10:42:53 PM,Eric Stumpf,CA,92336,Relax2Zero 3D,DWA-9060USJ-9060BR,Choco Brown,New,,,,,4846.88,4500.00,346.88,Joseph Chan,,4846.88,,,6034610081522305,78569136,San Diego,36 months,,,,,,,,,,,,,,,,,,No,"3 years parts, 3 years labor ($400)",Cancelled,LA County Fair 9/1-24 (CA),,Synchrony Auth# 016979,100591,"Cleared payment / printed Cristina
refunded full amount 09/19/17",CA,,
9/17/2017 7:56:31 AM,Candy Sanchez,CA,90065,Legacy,DWA-9100DWA-9100CH,Choco Brown,New,,,,,3050.81,2856.00,194.81,May Kam,,3050.00,# 73GA,,,,,,,,,,,,,,,,,,,,,,10/2/2017 12:00:00 AM,No,"3 years parts, 3 years labor ($400)",Delivered,LA County Fair 9/1-24 (CA),,Paid off,100592,"SQUARE PAYMENT CLEARED BY ALICIA 9/19/17, 
$3,050.00",CA,,
9/17/2017 1:08:43 PM,Jorge Lopez,CA,91791,Legacy,DWA-9100DWA-9100CH,Choco Brown,New,,,,,3999.10,3724.00,275.10,Kaz Ohashi,,100.00,vvfX,,,,,,COD,,,,,,,,,,,,,,,,,No,"3 years parts, 1 year labor (Free)",Hold,LA County Fair 9/1-24 (CA),,,100594,"SQUARE PAYMENT CLEARED BY ALICIA 9/19/17, $100
CHECK WITH KAZ COD AMOUNT",CA,,
9/17/2017 2:16:12 PM,Leonardo Legaspi,CA,91331,Legacy,DWA-9100DWA-9100CH,Choco Brown,New,,,,,3900.77,3634.00,266.77,Kaz Ohashi,,3900.77,ZEWV,,,,,,,,,,,,,,,,,,,,,,10/2/2017 12:00:00 AM,No,"3 years parts, 1 year labor (Free)",Delivered,LA County Fair 9/1-24 (CA),,Offer $3900 included Tax,100596,"Confirmed the transaction $3900.00 at Square, correct receipt number is ""ZEWU"" 9/20/17 Riho
printed",CA,,
9/17/2017 7:39:17 PM,Jose Zamudio,CA,91763,Relax2Zero 1.0,USJ-9000USJ-9000BR,Brown,New,,,,,3645.13,3400.00,245.13,Kohei Uno,,3645.13,,,6034610081523303,78584253,San Diego,36 months,,,,,,,,,,,,,,,,,10/4/2017 12:00:00 AM,No,"3 years parts, 3 years labor ($400)",Delivered,LA County Fair 9/1-24 (CA),,Synchrony Auth#017922,100597,payment cleared / printed CR,CA,,
9/17/2017 7:45:55 PM,Bill Markloff,CA,92345,Relax2Zero 3D,DWA-9060USJ-9060BR,Choco Brown,New,,,,,4846.88,4500.00,346.88,Joseph Chan,,4846.88,,,6034610081523477,78586552,San Diego,36 months,,,,,,,,,,,,,,,,,9/28/2017 12:00:00 AM,No,"3 years parts, 3 years labor ($400)",Delivered,LA County Fair 9/1-24 (CA),,Synchrony Auth# 017730,100598,"payment cleared / printed cristina
09/25/17 9-10",CA,,
9/17/2017 8:14:43 PM,Russell Tanaka,CA,90278,Relax2Zero 3D,DWA-9060USJ-9060BR,Choco Brown,New,,,,,4499.46,4182.00,317.46,Kohei Uno,,50.00,,,,,,,CreditCard,,,,,,,,,,,,,,,,10/20/2017 12:00:00 AM,No,"3 years parts, 3 years labor ($400)",Delivered,LA County Fair 9/1-24 (CA),,"Offer deal is $4500 out the door including tax.

Balance paid $4450.00
Square# lcPc

The closest amount I was able to get the balance on daiwa space with the promotional codes was $4449.46",100599,"The cash $50 was received by president Michael, Confirmed the transaction $4450 at Square. 9/20/17 Riho
printed- Cristina",CA,,
9/17/2017 8:22:08 PM,Armando Sepulveda,CA,90660,Relax2Zero 3D,DWA-9060USJ-9060BR,Choco Brown,New,,,,,4519.13,4200.00,319.13,Kohei Uno,,4519.13,,,6034610081524103,78592010,San Diego,36 months,,,,,,,,,,,,,,,,,10/3/2017 12:00:00 AM,No,"3 years parts, 3 years labor ($400)",Delivered,LA County Fair 9/1-24 (CA),,Synchrony Auth# 017957,100600,payment cleared/ printed- cristina,CA,,
9/18/2017 10:29:50 AM,Steven Collins,TX,77076,Legacy 3D,DWA-9150USJ-9150BL,Black,New,,,,,3900.77,3634.00,266.77,May Kam,,200.00,,,,,,,CreditCard,,,,,,,,,,,,,,,,10/3/2017 12:00:00 AM,No,"3 years parts, 3 years labor ($400)",Delivered,LA County Fair 9/1-24 (CA),,"COD $3700, requested delivery Oct 2nd,2017 or after , thanks",100601,"The deposit $200 was paid by Cash, and the balance $ was paid by check. It's confirmed by Yumi.",TX,,
9/18/2017 10:53:47 AM,Rey Rodriguez,CA,90813,Legacy,DWA-9100DWA-9100CH-DEMO,Demo Choco Brown,Demo,,,,,3550.08,3313.00,237.08,May Kam,,0.00,,,6034610081524889,78613573,Las Vegas,48 months,,,,,,,,,,,,,,,,,10/10/2017 12:00:00 AM,No,"3 years parts, 3 years labor ($400)",Delivered,LA County Fair 9/1-24 (CA),,Total $3550,100602,cleared transaction/ printed- cristina,CA,,
9/18/2017 11:55:38 AM,Carmen Acevedo,CA,92555,Legacy,DWA-9100DWA-9100CH,Choco Brown,New,,,,,3900.77,3634.00,266.77,Charles Ishida,,0.00,,,6034610081525084,78617499,Las Vegas,36 months,,,,,,,,,,,,,,,,,9/18/2017 12:00:00 AM,No,"3 years parts, 1 year labor (Free)",Delivered,LA County Fair 9/1-24 (CA),,Total $3900,100603,processed-printed cristina 09/19/17,CA,,
9/18/2017 4:08:13 PM,Reiko Sakata,CA,91016,Legacy,DWA-9100DWA-9100BL,Black,New,,,,,3058.45,2863.00,195.45,Mikito Nakanishi,,3058.45,5291499810817263,,,,,,,,,,,,,,,,,,,,,,9/18/2017 12:00:00 AM,No,"3 years parts, 1 year labor (Free)",Delivered,LA County Fair 9/1-24 (CA),,,100605,Confirm the transaction $3029.00(eJT5) $29.45(G3KY) at Square. 9/19/17-Riho,CA,,
9/18/2017 4:08:13 PM,Reiko Sakata,CA,91016,Daiwa Blanket,,,New,,,,,3058.45,2863.00,195.45,Mikito Nakanishi,,3058.45,5291499810817263,,,,,,,,,,,,,,,,,,,,,,9/18/2017 12:00:00 AM,No,no warranty,Delivered,LA County Fair 9/1-24 (CA),,,100605,Confirm the transaction $3029.00(eJT5) $29.45(G3KY) at Square. 9/19/17-Riho,CA,,
9/18/2017 4:08:13 PM,Reiko Sakata,CA,91016,Chair Pad for Legacy,,,New,,,,,3058.45,2863.00,195.45,Mikito Nakanishi,,3058.45,5291499810817263,,,,,,,,,,,,,,,,,,,,,,9/18/2017 12:00:00 AM,No,no warranty,Delivered,LA County Fair 9/1-24 (CA),,,100605,Confirm the transaction $3029.00(eJT5) $29.45(G3KY) at Square. 9/19/17-Riho,CA,,
9/18/2017 4:08:13 PM,Reiko Sakata,CA,91016,Foot Pads for Legacy,,,New,,,,,3058.45,2863.00,195.45,Mikito Nakanishi,,3058.45,5291499810817263,,,,,,,,,,,,,,,,,,,,,,9/18/2017 12:00:00 AM,No,no warranty,Delivered,LA County Fair 9/1-24 (CA),,,100605,Confirm the transaction $3029.00(eJT5) $29.45(G3KY) at Square. 9/19/17-Riho,CA,,
9/20/2017 1:22:24 PM,Susie Gonzales,AA,91745,Legacy,DWA-9100DWA-9100CH,Choco Brown,New,,,,,3798.08,3540.00,258.08,Mikito Nakanishi,,3798.08,,,6034610081515879,78451276,San Diego,24 months,,,,,,,,,,,,,,,,,9/27/2017 12:00:00 AM,No,"3 years parts, 1 year labor (Free)",Delivered,LA County Fair 9/1-24 (CA),,,100644,"Charged Synchrony $3,798.08 
printed - CR
This order is re-created order because of wrong information. Actual order date is 09/15/2017 Yashio",CA,,
9/20/2017 3:21:19 PM,Saeko Kimura,CA,90703,Legacy,DWA-9100DWA-9100SI,Sienna Brown,New,,,,,3481.25,3250.00,231.25,Kaz Ohashi,,100.00,yvS9,,,,,,COD,,,,,,,,,,,,,,,,10/10/2017 12:00:00 AM,No,"3 years parts, 3 years labor ($400)",Delivered,LA County Fair 9/1-24 (CA),,,100654,"SQUARE DEPOSIT CLEARED BY ALICIA 9/20/17, $100
SQUARE DEPOSIT #Amiy $2000
Remaining Balance $1381.25 was paid by C.C. on 10/10/17

printed-cr",CA,,
9/21/2017 6:16:12 AM,David Lowther,CA,92394,Legacy 3D,DWA-9150USJ-9150BL,Black,New,,,,,3699.75,3450.00,249.75,May Kam,,200.00,,,,,,,CreditCard,,,,,,,,,,,,,,,,10/2/2017 12:00:00 AM,No,"3 years parts, 3 years labor ($400)",Delivered,LA County Fair 9/1-24 (CA),,Paid deposit $200 approval code :05101D; COD $3450,100682,"Chair Color was changed to ""Choco Brown""
Confirmed the payment $200 by Riho 9/21/17
printed-cr",CA,,
9/21/2017 6:33:59 AM,Keith Clark,CA,91773,Legacy 3D,DWA-9150USJ-9150CH,Choco Brown,New,,,,,3499.82,3267.00,232.82,May Kam,,200.00,,,,,,,CreditCard,,,,,,,,,,,,,,,,10/3/2017 12:00:00 AM,No,"3 years parts, 3 years labor ($400)",Delivered,LA County Fair 9/1-24 (CA),,"Paid in cash $200, balance $3300",100683,"$3300 COD -the cash was received by CA office. 11/2/17 Riho 
09/26/17 cristina - printed",CA,,
9/21/2017 6:33:59 AM,Keith Clark,CA,91773,Daiwa Blanket,,,New,,,,,3499.82,3267.00,232.82,May Kam,,200.00,,,,,,,CreditCard,,,,,,,,,,,,,,,,10/3/2017 12:00:00 AM,No,no warranty,Delivered,LA County Fair 9/1-24 (CA),,"Paid in cash $200, balance $3300",100683,"$3300 COD -the cash was received by CA office. 11/2/17 Riho 
09/26/17 cristina - printed",CA,,
9/21/2017 12:06:13 PM,tatiana furstenberg,CA,90027,Legacy,DWA-9100DWA-9100SI-DEMO,Demo Sienna Brown,Demo,,,,,2999.46,2809.00,190.46,David Wang,,500.00,,,,,,,CreditCard,,,,,,,,,,,,,,,,10/9/2017 12:00:00 AM,No,"3 years parts, 3 years labor ($400)",Delivered,LA County Fair 9/1-24 (CA),,"serial number 91167515. customer want the chair in the booth, pls deliver after the show finish. thank you. COD 2499.46.customer paid 500 deposit.(receipt #Kil7.)",100696,"NEEDS TO BE DELIVERED AFTER L.A COUNTY FAIR
COD $2499.46 was paid by Check, and it's confirmed by Yumi.
09/26/17 printed",CA,,
9/21/2017 6:58:29 PM,Clara Kim,CA,90013,Legacy 3D,DWA-9150USJ-9150BL,Black,New,,,,,3548.99,3312.00,236.99,Kaz Ohashi,,100.00,upCx,,,,,,Synchrony,,,,,,,,,,,,,,,,,No,"3 years parts, 1 year labor (Free)",Hold,LA County Fair 9/1-24 (CA),,Please hold this order utill customer is ready to get a chair.,100735,,Not Dispatched,,
9/21/2017 9:26:23 PM,James Leckie,CA,91790,Relax2Zero 3D,DWA-9060USJ-9060BR,Choco Brown,New,,,,,3499.82,3267.00,232.82,Joseph Chan,,0.00,Lyvw,,,,,,,,,,,,,,,,,,,,,,9/27/2017 12:00:00 AM,No,"3 years parts, 3 years labor ($400)",Delivered,LA County Fair 9/1-24 (CA),,"Offer price is $3500 out the door price including tax.

***Special Request***
Please try to schedule delivery on Friday, October 6th.",100738,Confirmed $3500 at Square. 9/22/17 Riho,CA,,
9/21/2017 9:53:56 PM,Ken Palmer,CA,91311,Legacy,DWA-9100DWA-9100BL,Black,New,,,,,3550.08,3313.00,237.08,May Kam,,200.00,#9XOV,,,,,,COD,,,,,,,,,,,,,,,,10/7/2017 12:00:00 AM,No,"3 years parts, 3 years labor ($400)",Delivered,LA County Fair 9/1-24 (CA),,"$200 deposit as square , balance $3350",100739,"Confirmed the payment $200, Need to collect COD $3350.00 9/22/17 Riho
09/26/17 cristina printed",CA,,
9/21/2017 9:53:56 PM,Ken Palmer,CA,91311,Daiwa Blanket,,,New,,,,,3550.08,3313.00,237.08,May Kam,,200.00,#9XOV,,,,,,COD,,,,,,,,,,,,,,,,10/7/2017 12:00:00 AM,No,no warranty,Delivered,LA County Fair 9/1-24 (CA),,"$200 deposit as square , balance $3350",100739,"Confirmed the payment $200, Need to collect COD $3350.00 9/22/17 Riho
09/26/17 cristina printed",CA,,
9/22/2017 8:11:46 AM,Colin Criswell,AZ,85254,Pegasus,DWA-9400Pegasus-BL,Black,New,,,,,4400.04,4091.00,309.04,May Kam,CreditCard,200.00,06277P,,,,,,CreditCard,4000.00,06832P,,,,,,,0.00,,,,,,,10/11/2017 12:00:00 AM,No,"3 years parts, 3 years labor ($400)",Delivered,LA County Fair 9/1-24 (CA),,COD $4000,100740,"Confirmed WF's transaction $200 by Riho 9/22/17
Confirmed WF's $4000 - Auth code #06832P 10/25/17 STEPHANY",NV,,
9/22/2017 1:21:47 PM,Jorge Lopez,CA,91791,Legacy,DWA-9100DWA-9100CH,Choco Brown,New,,,,,3898.59,3632.00,266.59,Kaz Ohashi,,100.00,vvfX,,,,,,COD,,,,,,,,,,,,,,,,,No,"3 years parts, 1 year labor (Free)",Hold,LA County Fair 9/1-24 (CA),,,100746,"SQUARE PAYMENT CLEARED BY ALICIA 9/19/17, $100
CHECK WITH KAZ COD AMOUNT",CA,,
9/22/2017 3:03:50 PM,Douglas Sam,CA,90045,Relax2Zero 1.0,USJ-9000USJ-9000BR,Brown,New,,,,,3426.63,3200.00,226.63,Kohei Uno,,3426.63,knqC,,,,,,,,,,,,,,,,,,,,,,10/10/2017 12:00:00 AM,No,"3 years parts, 3 years labor ($400)",Delivered,LA County Fair 9/1-24 (CA),,***2nd Floor Delivery***,100748,"Square payment cleared: Cristina ( Printed) 09/25/17
Customer wants to get a Black not Brown. 09/25/17 Kaz",CA,,
9/23/2017 2:37:28 PM,Chris Wilson,SD,57569,Legacy 3D,DWA-9150USJ-9150CH,Choco Brown,New,,,,,3546.40,3280.00,266.40,David Wang,,200.00,513205,,,,,,COD,,,,,,,,,,,,,,,,10/17/2017 12:00:00 AM,No,"3 years parts, 3 years labor ($400)",Delivered,LA County Fair 9/1-24 (CA),,"David offered $3550 in total, customer paid $200, the balance $3350 is COD. It's Drop Ship (No assembly)",100788,"Confirmed $200.00 at WF. 9/26/17 Riho
CUSTOMER PICKED IT UP FROM GARDENA WAREHOUSE $3346.40 was paid by C.C.",CA,,
9/23/2017 6:21:14 PM,Jonny&Rachel Carrillo,CA,90813,Legacy,DWA-9100DWA-9100CR,Cream,New,,,,,3899.68,3633.00,266.68,David Wang,,3900.00,,,6034610081534672,78848006,San Diego,36 months,,,,,,,,,,,,,,,,,10/11/2017 12:00:00 AM,No,"3 years parts, 3 years labor ($400)",Delivered,LA County Fair 9/1-24 (CA),,"David offered $3900, please give 1Blanket as gift.",100804,Synchrony payment cleared: 09/25/17 Cristina- Printed,CA,,
9/23/2017 6:21:14 PM,Jonny&Rachel Carrillo,CA,90813,Daiwa Blanket,,,New,,,,,3899.68,3633.00,266.68,David Wang,,3900.00,,,6034610081534672,78848006,San Diego,36 months,,,,,,,,,,,,,,,,,10/11/2017 12:00:00 AM,No,no warranty,Delivered,LA County Fair 9/1-24 (CA),,"David offered $3900, please give 1Blanket as gift.",100804,Synchrony payment cleared: 09/25/17 Cristina- Printed,CA,,
9/24/2017 10:03:29 AM,mathine cline,CA,90245,Legacy,DWA-9100DWA-9100BL-DEMO,Demo Black,Demo,,,,,3420.07,3194.00,226.07,David Wang,,0.00,,,6034610081534961,78853984,San Diego,36 months,,,,,,,,,,,,,,,,,,No,"3 years parts, 3 years labor ($400)",Cancelled,LA County Fair 9/1-24 (CA),,3420 total.36 mo synchrony.,100812,"Synchrony payment cleared 09/25/17 cristina - Printed
**Cancelled**9/26/17 Riho",CA,,
9/24/2017 10:26:28 AM,Marisela Rangel,CA,91706,Relax2Zero 3D,DWA-9060USJ-9060BL,Black,New,,,,,3999.10,3724.00,275.10,Joseph Chan,,4000.00,f4FX,,,,,,,,,,,,,,,,,,,,,,10/3/2017 12:00:00 AM,No,"3 years parts, 3 years labor ($400)",Delivered,LA County Fair 9/1-24 (CA),,Offer for customer is $4000 out the door including tax.,100815,payment cleared threw square- cristina 09/25/17 printed,CA,,
9/24/2017 12:33:39 PM,Randolph Hammock,CA,90064,Legacy 3D,DWA-9150USJ-9150BL,Black,New,,,,,4260.20,3963.00,297.20,Kaz Ohashi,,4260.20,0uUu,,,,,,,,,,,,,,,,,,,,,,10/2/2017 12:00:00 AM,No,"3 years parts, 1 year labor (Free)",Delivered,LA County Fair 9/1-24 (CA),,$4260 Tax Included,100831,Square payment cleared: 09/25/17 Cristina (Printed),CA,,
9/24/2017 3:47:56 PM,Max Uribe,CA,91764,Legacy 3D,DWA-9150USJ-9150CH,Choco Brown,New,,,,,4300.63,4000.00,300.63,David Wang,,2000.00,362547,,,,,,,,,,,,,,,,,,,,,,10/4/2017 12:00:00 AM,No,"3 years parts, 3 years labor ($400)",Delivered,LA County Fair 9/1-24 (CA),,"Sold by Riho, offered $4300.00 (the balance $2300 will be paid by Layaway)",100844,"Wells fargo $2,000.00 cleared the rest of the bal. is layaway- Cristina 09/25/17 Printed",CA,,
9/24/2017 9:13:08 PM,Reynaldo Anobya,CA,91763,Legacy,DWA-9100DWA-9100CH,Choco Brown,New,,,,,3900.77,3634.00,266.77,Kaz Ohashi,,3900.77,QbWr,,,,,,,,,,,,,,,,,,,,,,10/11/2017 12:00:00 AM,No,"3 years parts, 1 year labor (Free)",Delivered,LA County Fair 9/1-24 (CA),,$3900 Tax included,100869,"Square #QbWv
Payment cleared 09/25/17 cristina - printed",CA,,
9/24/2017 9:20:37 PM,Rhonda Hart,CA,93534,Legacy,DWA-9100DWA-9100BL,Black,New,,,,,3499.82,3267.00,232.82,Kaz Ohashi,,200.00,4QEP,,,,,,Synchrony,,,,,,,,,,,,,,,,,No,"3 years parts, 1 year labor (Free)",Cancelled,LA County Fair 9/1-24 (CA),,"Layway 12 month.
Please confirm a color of chair again.",100871,"Square payment $200 Cleared 
09/27/17 Cancelled / Refunded- Cristina
COD: Not sure if its layaway or synchrony  (Printed) Cristina09/25/17",CA,,
9/25/2017 9:30:05 AM,James Prichard,CA,91739,Relax2Zero 3D,DWA-9060USJ-9060BL,Black,New,,,,,4500.55,4183.00,317.55,Joseph Chan,,4500.00,,,6034610081536628,78873121,San Diego,36 months,,,,,,,,,,,,,,,,,10/2/2017 12:00:00 AM,No,"3 years parts, 3 years labor ($400)",Delivered,LA County Fair 9/1-24 (CA),,Offer price is $4500 out the door including tax,100884,Synchrony payment cleared: 09/25/17 Cristina (Printed),CA,,
9/25/2017 9:38:07 AM,Barry Illsley,CA,92860,Relax2Zero 3D,DWA-9060USJ-9060BL,Black,New,,,,,3600.33,3359.00,241.33,Joseph Chan,,3600.00,,,6034610081535976,78866222,San Diego,36 months,,,,,,,,,,,,,,,,,10/6/2017 12:00:00 AM,No,"3 years parts, 3 years labor ($400)",Delivered,LA County Fair 9/1-24 (CA),,Offer price is $3600 out the door including taxes,100885,Synchrony payment cleared - 09/25/17 Cristina (printed),CA,,
9/25/2017 9:41:59 AM,Roberto Ibarra,CA,91739,Relax2Zero 3D,DWA-9060USJ-9060BR,Choco Brown,New,,,,,4519.13,4200.00,319.13,Kohei Uno,,4519.13,,,6034610081536701,78873921,San Diego,36 months,,,,,,,,,,,,,,,,,10/10/2017 12:00:00 AM,No,"3 years parts, 3 years labor ($400)",Delivered,LA County Fair 9/1-24 (CA),,Synchrony Auth# 024448,100886,Synchrony payment cleared 09/25/17 Cristina (Printed),CA,,
9/25/2017 9:47:49 AM,Chris Tam,CA,91709,Relax2Zero 3D,DWA-9060USJ-9060BL,Black,New,,,,,4000.19,3725.00,275.19,Kohei Uno,,4000.00,gZ5z,,,,,,,,,,,,,,,,,,,,,,11/28/2017 12:00:00 AM,No,"3 years parts, 3 years labor ($400)",Delivered,LA County Fair 9/1-24 (CA),,Offer price is $4000 out door including tax,100887,"SQUARE PAYMENT CLERED Y ALICIA 9.27.17
10/12/17 cristina printed",CA,,
9/25/2017 9:52:54 AM,Tommy Yu,CA,92880,Relax2Zero 3D,DWA-9060USJ-9060BL,Black,New,,,,,4140.03,3853.00,287.03,Joseph Chan,,4140.00,,,6034610081537113,78879383,San Diego,36 months,,,,,,,,,,,,,,,,,10/10/2017 12:00:00 AM,No,"3 years parts, 3 years labor ($400)",Delivered,LA County Fair 9/1-24 (CA),,"Offer price is $4140 out the door including tax

Synchrony Auth# 024001",100888,Synchrony payment cleared: 09/25/17 Cristina (Printed),CA,,
9/25/2017 9:58:15 AM,Martha Moreno,CA,92507,Relax2Zero 3D,DWA-9060USJ-9060BR-DEMO,Demo Choco Brown,Demo,,,,,4000.19,3725.00,275.19,Joseph Chan,,3000.00,,,,,,,CreditCard,,,,,,,,,,,,,,,,10/6/2017 12:00:00 AM,No,"3 years parts, 3 years labor ($400)",Delivered,LA County Fair 9/1-24 (CA),,"Offer price is $4000 out the door including tax.

$3000 cash received. COD $1000 upon delivery.",100889,"09/25/17 11:32am Per Joseph he is holding the $3,000.00 
COD: 1,000.00 paid by Square #Pn39. 11/2/17 Riho",CA,,
9/25/2017 10:01:19 AM,Henry Chen,CA,91780,Legacy,DWA-9100DWA-9100CH-DEMO,Demo Choco Brown,Demo,,,,,3535.88,3300.00,235.88,Kohei Uno,,3535.88,Laus,,,,,,,,,,,,,,,,,,,,,,,No,"3 years parts, 1 year labor (Free)",Cancelled,LA County Fair 9/1-24 (CA),,,100890,"Confirmed $3535.88 at Square, 9/26/17 Riho
09/26/17 cristina printed.
09/29/17 cancelled/refunded- cristina",CA,,
9/25/2017 1:09:16 PM,Guadalupe Romo,CA,92313,Legacy,DWA-9100DWA-9100CH-DEMO,Demo Choco Brown,Demo,,,,,3000.55,2810.00,190.55,David Wang,,3000.00,,,6034610081535737,78864625,San Diego,12 months,,,,,,,,,,,,,,,,,10/6/2017 12:00:00 AM,No,"3 years parts, 3 years labor ($400)",Delivered,LA County Fair 9/1-24 (CA),,"Sold with Riho
Legacy Choco Demo was offered $3000.00, paid by Synchrony 12months Auth#025015",100891,09/26/17 cristina printed,CA,,
9/25/2017 4:32:27 PM,mancilla TM,CA,91791,Legacy,DWA-9100DWA-9100BL,Black,New,,,,,3799.17,3541.00,258.17,Kaz Ohashi,,3800.00,square #iplx,,,,,,,,,,,,,,,,,,,,,,10/5/2017 12:00:00 AM,No,"3 years parts, 3 years labor ($400)",Delivered,LA County Fair 9/1-24 (CA),,paid off,100893,"SQUARE PAYMENT CLEARED BY 9.27.17
09/27/17 cristina printed",CA,,
9/25/2017 4:32:27 PM,mancilla TM,CA,91791,Chair Pad for Legacy,,,New,,,,,3799.17,3541.00,258.17,Kaz Ohashi,,3800.00,square #iplx,,,,,,,,,,,,,,,,,,,,,,10/5/2017 12:00:00 AM,No,no warranty,Delivered,LA County Fair 9/1-24 (CA),,paid off,100893,"SQUARE PAYMENT CLEARED BY 9.27.17
09/27/17 cristina printed",CA,,
9/25/2017 6:10:22 PM,Juan Macius,CA,91767,Pegasus,DWA-9400Pegasus-BR,Choco Brown,New,,,,,4350.88,4046.00,304.88,Kaz Ohashi,,4350.00,837577,,,,,,,,,,,,,,,,,,,,,,10/5/2017 12:00:00 AM,No,"3 years parts, 3 years labor ($400)",Delivered,LA County Fair 9/1-24 (CA),,Paid off,100896,"Sold by ""Stephany"" Confirmed $4350.00 at WF system. 9/26/17 Riho
09/27/17 cristina- printed",CA,,
9/25/2017 7:22:35 PM,Jesse Simon,CA,92880,Tourmaline Pad for Legacy 3D,,,New,,,,,3600.33,3359.00,241.33,May Kam,,3600.00,02490B,,,,,,,,,,,,,,,,,,,,,,10/10/2017 12:00:00 AM,No,no warranty,Delivered,LA County Fair 9/1-24 (CA),,Paid off,100897,"WELLS FARGO PAYMENT CLEARED BY ALICIA 9.27.17
09/27/17 cristina printed",CA,,
9/25/2017 7:22:35 PM,Jesse Simon,CA,92880,Legacy 3D,DWA-9150USJ-9150CH,Choco Brown,New,,,,,3600.33,3359.00,241.33,May Kam,,3600.00,02490B,,,,,,,,,,,,,,,,,,,,,,10/10/2017 12:00:00 AM,No,"3 years parts, 3 years labor ($400)",Delivered,LA County Fair 9/1-24 (CA),,Paid off,100897,"WELLS FARGO PAYMENT CLEARED BY ALICIA 9.27.17
09/27/17 cristina printed",CA,,
9/26/2017 5:28:35 AM,Cynthia Johann,CA,91910,Legacy 3D,DWA-9150USJ-9150BL,Black,New,,,,,3500.92,3268.00,232.92,Mikito Nakanishi,,3500.00,,,,,,,,,,,,,,,,,,,,,,,10/7/2017 12:00:00 AM,No,"3 years parts, 1 year labor (Free)",Delivered,LA County Fair 9/1-24 (CA),,"Check no 1703, will ask to deposit",100898,"CHECK CLEARED ON 9/26/17 BY ACCOUNTING
SCH FOR SAT. 10/7, 3-6PM",CA,,
9/26/2017 7:20:15 AM,David Wallace,CA,91307,Pegasus,DWA-9400Pegasus-BR,Choco Brown,New,,,,,4000.19,3725.00,275.19,May Kam,CreditCard,4000.00,02584P,,,,,,,0.00,,,,,,,,0.00,,,,,,,10/9/2017 12:00:00 AM,No,"3 years parts, 3 years labor ($400)",Delivered,LA County Fair 9/1-24 (CA),,"Paid off, special discount for one family bought two chairs",100899,"WELLS FARGO PAYMENT CLEARED BY ALICIA 9/29/17
10/02/17- cristina printed",CA,,
9/26/2017 7:20:15 AM,David Wallace,CA,91307,Tourmaline Pad for Pegasus,,,New,,,,,4000.19,3725.00,275.19,May Kam,CreditCard,4000.00,02584P,,,,,,,0.00,,,,,,,,0.00,,,,,,,10/9/2017 12:00:00 AM,No,no warranty,Delivered,LA County Fair 9/1-24 (CA),,"Paid off, special discount for one family bought two chairs",100899,"WELLS FARGO PAYMENT CLEARED BY ALICIA 9/29/17
10/02/17- cristina printed",CA,,
9/26/2017 7:51:07 AM,Vicki Desmet,CA,91741,Legacy,DWA-9100DWA-9100CH,Choco Brown,New,,,,,3900.77,3634.00,266.77,May Kam,,3900.00,,,6034610081538574,78921367,,36 months,,,,,,,,,,,,,,,,,10/4/2017 12:00:00 AM,No,"3 years parts, 3 years labor ($400)",Delivered,LA County Fair 9/1-24 (CA),,,100900,"Confirmed $3900.00 at Synchrony. 9/26/17 Riho
09/27/17 cristina printed",CA,,
9/26/2017 7:51:07 AM,Vicki Desmet,CA,91741,Daiwa Blanket,,,New,,,,,3900.77,3634.00,266.77,May Kam,,3900.00,,,6034610081538574,78921367,,36 months,,,,,,,,,,,,,,,,,10/4/2017 12:00:00 AM,No,no warranty,Delivered,LA County Fair 9/1-24 (CA),,,100900,"Confirmed $3900.00 at Synchrony. 9/26/17 Riho
09/27/17 cristina printed",CA,,
9/26/2017 8:18:00 AM,Vinh Dinh,CA,91789,Legacy 3D,DWA-9150USJ-9150BL,Black,New,,,,,3500.92,3268.00,232.92,Kaz Ohashi,,200.00,,,,,,,CreditCard,,,,,,,,,,,,,,,,10/5/2017 12:00:00 AM,No,"3 years parts, 1 year labor (Free)",Delivered,LA County Fair 9/1-24 (CA),,,100902,"Deposit $200 was paid by Cash. This customer's phone number is ""909-569-7153"" Confirmed by Riho
The balance $3300 was paid by cash, and received by CA office. 11/2/17 Riho",CA,,
9/26/2017 11:37:54 AM,Troy Shoup,CA,91741,Legacy 3D,DWA-9150USJ-9150BL,Black,New,,,,,3750.01,3496.00,254.01,May Kam,,3750.00,,,6034610081539184,78942108,San Diego,24 months,,,,,,,,,,,,,,,,,9/29/2017 12:00:00 AM,No,"3 years parts, 3 years labor ($400)",Delivered,LA County Fair 9/1-24 (CA),,"Total $3750, could u pls arrange to deliver this week, thanks",100910,"SYNCHRONY CLEARED BY ALICIA 9/26/17
Authorization # 026524
WILL BE DELIVERED FRIDAY 9/29",CA,,
9/26/2017 11:37:54 AM,Troy Shoup,CA,91741,Tourmaline Pad for Legacy 3D,,,New,,,,,3750.01,3496.00,254.01,May Kam,,3750.00,,,6034610081539184,78942108,San Diego,24 months,,,,,,,,,,,,,,,,,9/29/2017 12:00:00 AM,No,no warranty,Delivered,LA County Fair 9/1-24 (CA),,"Total $3750, could u pls arrange to deliver this week, thanks",100910,"SYNCHRONY CLEARED BY ALICIA 9/26/17
Authorization # 026524
WILL BE DELIVERED FRIDAY 9/29",CA,,
9/26/2017 11:55:31 AM,Linda Telis,CA,92301,Pegasus,DWA-9400Pegasus-BL,Black,New,,,,,4500.55,4183.00,317.55,David Wang,,4500.00,,,6034610081537063,78877984,San Diego,36 months,,,,,,,,,,,,,,,,,,No,"3 years parts, 3 years labor ($400)",Cancelled,LA County Fair 9/1-24 (CA),,,100911,"Confirmed $4500.00 at Synchrony. 9/26/17 Riho
Per David, it has been cancelled. I refunded $4500.00. 10/3/17 Riho",CA,,
9/26/2017 2:41:53 PM,Cecilia Hurst,CA,92530,Legacy 3D,DWA-9150USJ-9150CH,Choco Brown,New,,,,,3500.92,3268.00,232.92,May Kam,,3500.00,,,6034610081538715,78925635,San Diego,36 months,CreditCard,,,,,,,,,,,,,,,,10/5/2017 12:00:00 AM,No,"3 years parts, 3 years labor ($400)",Delivered,LA County Fair 9/1-24 (CA),,"COD $233, total $3733",100914,"CUSTOMER NOT CHARGED BY SALES REP, CHARGED AT OFFICE BY ALICIA 9/27/17 $3500 (Authorization # 027252) The balance $233 was paid by check, and it's confirmed by Yumi.

09/27/17 cristina- Printed",CA,,
9/26/2017 2:41:53 PM,Cecilia Hurst,CA,92530,Tourmaline Pad for Legacy 3D,,,New,,,,,3500.92,3268.00,232.92,May Kam,,3500.00,,,6034610081538715,78925635,San Diego,36 months,CreditCard,,,,,,,,,,,,,,,,10/5/2017 12:00:00 AM,No,no warranty,Delivered,LA County Fair 9/1-24 (CA),,"COD $233, total $3733",100914,"CUSTOMER NOT CHARGED BY SALES REP, CHARGED AT OFFICE BY ALICIA 9/27/17 $3500 (Authorization # 027252) The balance $233 was paid by check, and it's confirmed by Yumi.

09/27/17 cristina- Printed",CA,,
9/26/2017 5:40:11 PM,Test Test,CA,90249,Legacy 3D,DWA-9150USJ-9150BL,Black,New,,,,,4846.88,4500.00,346.88,Ruben Cuatrona,,500.00,Ssssss,,,,,,,,,,,,,,,,,,,,,,,No,"3 years parts, 1 year labor (Free)",Cancelled,LA County Fair 9/1-24 (CA),,,100915,,Not Dispatched,,
9/26/2017 5:40:11 PM,Test Test,CA,90249,Tourmaline Pad for Legacy 3D,,,New,,,,,4846.88,4500.00,346.88,Ruben Cuatrona,,500.00,Ssssss,,,,,,,,,,,,,,,,,,,,,,,No,No Warranty,Cancelled,LA County Fair 9/1-24 (CA),,,100915,,Not Dispatched,,
9/26/2017 6:02:46 PM,Beatriz Vega,CA,90303,Legacy,DWA-9100DWA-9100CH-DEMO,Demo Choco Brown,Demo,,,,,3400.41,3176.00,224.41,May Kam,,3400.00,,,6034610081539838,78961465,San Diego,36 months,,,,,,,,,,,,,,,,,10/2/2017 12:00:00 AM,No,"3 years parts, 3 years labor ($400)",Delivered,LA County Fair 9/1-24 (CA),,,100916,"CHARGED ON SYNCHRONY $3400 BY ALICIA 9/27/17
Authorization # 027354   
09/27/17 cristina printed",CA,,
9/26/2017 6:38:04 PM,Joe Acosta,CA,90650,Legacy 3D,DWA-9150USJ-9150BL,Black,New,,,,,3949.93,3679.00,270.93,May Kam,,3950.00,,,6034623333349914,,San Diego,36 months,,,,,,,,,,,,,,,,,10/5/2017 12:00:00 AM,No,"3 years parts, 3 years labor ($400)",Delivered,LA County Fair 9/1-24 (CA),,Synchrony Approved aut # 026750,100917,"SYNCHRONY CLEARED BY ALICIA 9/27/17
09/27/17- cristina- printed",CA,,
9/26/2017 6:38:04 PM,Joe Acosta,CA,90650,Daiwa Blanket,,,New,,,,,3949.93,3679.00,270.93,May Kam,,3950.00,,,6034623333349914,,San Diego,36 months,,,,,,,,,,,,,,,,,10/5/2017 12:00:00 AM,No,no warranty,Delivered,LA County Fair 9/1-24 (CA),,Synchrony Approved aut # 026750,100917,"SYNCHRONY CLEARED BY ALICIA 9/27/17
09/27/17- cristina- printed",CA,,
9/27/2017 5:17:02 PM,Pamela Jacobs,CA,90303,Legacy 3D,DWA-9150USJ-9150CH,Choco Brown,New,,,,,3634.20,3390.00,244.20,May Kam,,3500.00,,,6034610081538616,78921673,San Diego,36 months,CreditCard,,,,,,,,,,,,,,,,10/11/2017 12:00:00 AM,No,"3 years parts, 3 years labor ($400)",Delivered,LA County Fair 9/1-24 (CA),,"COD $134; Synchrony Two accounts , approval aut #027561 $2000; #027121 $1500;",100933,"1ST ACCOUNT: PAMELA JACOBS / 2ND ACCOUNT: JAMES JACOBS
SYNCHRONY CLEARED BY ALICIA 9/29/17   COD $134.20 was paid through Square (Receipt #IjFG)
10/03/17 cristina printed",CA,,
9/27/2017 5:35:15 PM,Jon Leigh,CA,91304,Pegasus,DWA-9400Pegasus-BR,Choco Brown,New,,,,,4200.12,3908.00,292.12,May Kam,,3000.00,,,6034610081540894,78982513,San Diego,24 months,CreditCard,,,,,,,,,,,,,,,,10/9/2017 12:00:00 AM,No,"3 years parts, 3 years labor ($400)",Delivered,LA County Fair 9/1-24 (CA),,Approval aut #027354 $3000; Balance $1200 pls process by Jon leigh A/C 6034610081540894;,100934,"Stacey Leigh had been charged $3000, and Jon Leigh had been charged $1500. So I refunded the difference $300 from Jon's A/C (6034610081540794) 9/29/17 Riho

09/29/17 printed",CA,,
9/27/2017 5:35:15 PM,Jon Leigh,CA,91304,Tourmaline Pad for Pegasus,,,New,,,,,4200.12,3908.00,292.12,May Kam,,3000.00,,,6034610081540894,78982513,San Diego,24 months,CreditCard,,,,,,,,,,,,,,,,10/9/2017 12:00:00 AM,No,no warranty,Delivered,LA County Fair 9/1-24 (CA),,Approval aut #027354 $3000; Balance $1200 pls process by Jon leigh A/C 6034610081540894;,100934,"Stacey Leigh had been charged $3000, and Jon Leigh had been charged $1500. So I refunded the difference $300 from Jon's A/C (6034610081540794) 9/29/17 Riho

09/29/17 printed",CA,,
9/27/2017 6:37:41 PM,Ana Tribble,CA,91324,Legacy,DWA-9100DWA-9100SI,Sienna Brown,New,,,,,3900.77,3634.00,266.77,Kaz Ohashi,,100.00,WoY2,,,,,,COD,,,,,,,,,,,,,,,,,No,"3 years parts, 3 years labor ($400)",Hold,LA County Fair 9/1-24 (CA),,"Pls call first, may need to hold",100935,"Confirmed $100.00 at Square. 9/29/17 Riho
09/29/17 cristina Printed",CA,,
9/28/2017 10:23:20 AM,gary taylor,CA,90056,Legacy,DWA-9100DWA-9100CH,Choco Brown,New,,,,,3650.59,3405.00,245.59,May Kam,,100.00,,,,,,,CreditCard,,,,,,,,,,,,,,,,,No,"3 years parts, 3 years labor ($400)",Cancelled,LA County Fair 9/1-24 (CA),,"hold to Dec.15th, 2017 DELIVERY",100941,"Per May, it's cancelled, and Yumi issued $100 check for refund. 12/18/17 Riho",CA,,
9/28/2017 10:38:36 AM,DAN HERER,CA,91367,Legacy 3D,DWA-9150USJ-9150BL,Black,New,,,,,4150.95,3863.00,287.95,May Kam,,50.00,,,,,,,CreditCard,,,,,,,,,,,,,,,,,No,"3 years parts, 3 years labor ($400)",Hold,LA County Fair 9/1-24 (CA),,"HOLD TO OCT 7,2017",100942,,Not Dispatched,,
9/28/2017 10:38:36 AM,DAN HERER,CA,91367,Daiwa Blanket,,,New,,,,,4150.95,3863.00,287.95,May Kam,,50.00,,,,,,,CreditCard,,,,,,,,,,,,,,,,,No,no warranty,Hold,LA County Fair 9/1-24 (CA),,"HOLD TO OCT 7,2017",100942,,Not Dispatched,,
9/28/2017 10:48:35 AM,ROY BAYSINGER,CA,92553,Legacy,DWA-9100DWA-9100BL,Black,New,,,,,3900.77,3634.00,266.77,May Kam,,50.00,BEZD,,,,,,COD,,,,,,,,,,,,,,,,,No,"3 years parts, 3 years labor ($400)",Hold,LA County Fair 9/1-24 (CA),,Will bring wife to try chair in office soon,100943,,Not Dispatched,,
9/28/2017 10:59:28 AM,Alexander Lee,CA,90240,Legacy 3D,DWA-9150USJ-9150BL,Black,New,,,,,4200.12,3908.00,292.12,Charles Ishida,,100.00,9aVs,,,,,,COD,,,,,,,,,,,,,,,,,No,"3 years parts, 3 years labor ($400)",Cancelled,LA County Fair 9/1-24 (CA),,will bring Mom to try chair in office soon,100944,"cancelled, refunded $100. 10/25/17 Riho",CA,,
9/28/2017 11:18:52 AM,Stacey PRUITT,CA,90016,Legacy,DWA-9100DWA-9100BL,Black,New,,,,,3500.92,3268.00,232.92,Kaz Ohashi,,100.00,FGGV,,,,,,COD,,,,,,,,,,,,,,,,,No,"3 years parts, 3 years labor ($400)",Hold,LA County Fair 9/1-24 (CA),,"She will bring father to try Pegasus in office soon, might change chair and price",100945,,Not Dispatched,,
