﻿Date,CustomerName,State,Zipcode,Description,productNo,Color,IsDemo,Net,ShippingFee,GiftPrice,FinancingProcessingFee,Gross,Pre_tax,Tax,Commission,Primary Payment Method,Primary Payment Balance,Primary Authorize Number,Primary Purchase Order Number,Primary Synchrony Account Number,Primary Synchrony Application Key,Primary Synchrony AccountInfo,Primary SynchronyTerm,Secondly Payment Method,Secondly Payment Balance,Secondly Authorize Number,Secondly Purchase Order Number,Secondly Synchrony Account Number,Secondly Synchrony Application Key,Secondly Synchrony AccountInfo,Secondly SynchronyTerm,Thirdly Payment Method,Thirdly Payment Balance,Thirdly Authorize Number,Thirdly Purchase Order Number,Thirdly Synchrony Account Number,Thirdly Synchrony Application Key,Thirdly Synchrony AccountInfo,Thirdly SynchronyTerm,DeliveryDate,Ispickup,Warranty,Status,Event Name,Synchrony Notes,Order Notes,Order number,Private Note,Branch,IsNoTax,ActualTaxRate
2/18/2018 9:41:52 AM,Terry Moore,AL,35096,Legacy 3D,DWA-9150USJ-9150CH,Choco Brown,New,,,,,3800.00,3800.00,0.00,Kristy Tran,CreditCard,200.00,Square #yYX5,,,,,,Cash,3600.00,,,,,,,,0.00,,,,,,,3/2/2018 12:00:00 AM,No,"3 years parts, 1 year labor (Free)",Delivered,BIRMINGHAM HM & GD 	(2/15 - 2/18),,"Deliver BEFORE March 2nd
CASH on Delivery
No cards or checks",103784,"confirmed $200 in Square. dispatched to TX branch. 2/19/18 Hitomi
Mario received $3,600 cash.3/14/18Hitomi",TX,1,10.00
2/18/2018 9:47:37 AM,Randy D Holmes,AL,35055,Majesty,DWA-8000DWA-8000-BR,Choco Brown,New,,,,,3520.00,3268.18,251.82,Kristy Tran,Synchrony,3520.00,,,6034610083102312,85035661,Huston,36 months,,0.00,,,,,,,,0.00,,,,,,,,No,"3 years parts, 1 year labor (Free)",Cancelled,BIRMINGHAM HM & GD 	(2/15 - 2/18),,Please proceed with Synchrony sale.,103785,"confirmed the form and  account in Synchrony.($8,500)  ***Please charge before delivery.***2/19/18 Hitomi
Customer cancel this order and repurchased as $2800. $100 Square and $2700 cash on delivery. The new order # is 103896 2/21/2018 June",TX,0,10.00
2/18/2018 9:52:16 AM,Dave J Monceaux,AL,00000,Majesty,DWA-8000DWA-8000-BL,Black,New,,,,,2700.00,2700.00,0.00,Kristy Tran,Cash,200.00,,,,,,,Cash,0.00,,,,,,,,0.00,,,,,,,,No,"3 years parts, 1 year labor (Free)",Hold,BIRMINGHAM HM & GD 	(2/15 - 2/18),,"Customer is building a house so HOLD Delivery until April 9th. 
CASH on Delivery
No cards or checks",103786,,Not Dispatched,1,10.00
2/18/2018 9:57:17 AM,Bradley Phillips,AL,35216,Relax2Zero 3D,DWA-9060USJ-9060BR,Choco Brown,New,,,,,4200.00,4200.00,0.00,Kristy Tran,Synchrony,4200.00,,,6034610083103971,85077615,Huston,36 months,,0.00,,,,,,,,0.00,,,,,,,3/1/2018 12:00:00 AM,No,"3 years parts, 1 year labor (Free)",Delivered,BIRMINGHAM HM & GD 	(2/15 - 2/18),Auth# 021422,Please proceed with Synchrony sale.,103787,"confirmed the account in SYnchrony($8,500)***Please charge before delivery.***2/19/18 Hitomi
TX charged the Synchrony $4200/36months/Auth#021422 -3/16/18 Riho",TX,1,10.00
2/18/2018 10:05:15 AM,David Wolford,AL,35173,Majesty,DWA-8000DWA-8000-BR,Choco Brown,New,,,,,3000.00,3000.00,0.00,Tom Nguyen,Synchrony,3000.00,,,6034610083106008,85106828,Huston,24 months,,0.00,,,,,,,,0.00,,,,,,,3/2/2018 12:00:00 AM,No,"3 years parts, 1 year labor (Free)",Delivered,BIRMINGHAM HM & GD 	(2/15 - 2/18),"Auth# 021466
","Proceed with Synchrony sale.
Prefer delivery after 2pm",103788,"confirmed Synchrony form and the account $8,500.***Please charge before delivery.***2/20/18 Hitomi
TX charged Synchrony $3000/24months/Auth#021466 -3/16/18 Riho",TX,1,10.00
2/18/2018 10:10:02 AM,Sara Ayers,AL,00000,Relax2Zero 3D,DWA-9060USJ-9060BL,Black,New,,,,,3700.00,3700.00,0.00,Kristy Tran,Synchrony,3700.00,,,6034610083104961,85092215,Huston,36 months,,0.00,,,,,,,,0.00,,,,,,,,No,"3 years parts, 1 year labor (Free)",Hold,BIRMINGHAM HM & GD 	(2/15 - 2/18),,"HOLD Synchrony sale until Delivery.
HOLD Delivery for 6 months.",103790,,Not Dispatched,1,10.00
2/18/2018 10:15:40 AM,Albert DelGreco,AL,35242,Majesty,DWA-8000DWA-8000-BR,Choco Brown,New,,,,,3000.00,3000.00,0.00,Jennifer Tran,Synchrony,3000.00,,,6034610083104623,85087889,Huston,36 months,,0.00,,,,,,,,0.00,,,,,,,3/1/2018 12:00:00 AM,No,"3 years parts, 1 year labor (Free)",Delivered,BIRMINGHAM HM & GD 	(2/15 - 2/18),Auth# 021392,Proceed with Synchrony sale.,103791,"confirmed Synchrony form and the account $6,500. ***Please charge before delivery.***2/20/18 Hitomi
TX charged Synchrony $3000/36months/Auth#021392 -3/16/18 Riho",TX,1,10.00
2/18/2018 10:20:46 AM,Steve Rogers,AL,35570,Legacy 3D,DWA-9150USJ-9150BL,Black,New,,,,,4000.00,4000.00,0.00,Jennifer Tran,CreditCard,200.00,Square #gQh5,,,,,,Cash,3800.00,,,,,,,,0.00,,,,,,,3/1/2018 12:00:00 AM,No,"5 years parts, 3 years labor ($700)",Delivered,BIRMINGHAM HM & GD 	(2/15 - 2/18),,"CASH on Delivery
No cards or checks",103792,"confirmed $200 in Square. 2/19/18 Hitomi
*COD $3800*
Mario received $3,800 cash. 3/14 Hitomi",TX,1,10.00
2/18/2018 10:29:48 AM,James Cazzaly,AL,35244,Majesty,DWA-8000DWA-8000-BR-DEMO,Demo Choco Brown,Demo,,,,,2500.00,2500.00,0.00,Jennifer Tran,Synchrony,2000.00,,,6034610083106461,85113696,Huston,,CreditCard,500.00,Square #SSNZ,,,,,,,0.00,,,,,,,2/18/2018 12:00:00 AM,YES,"3 years parts, 1 year labor (Free)",Delivered,BIRMINGHAM HM & GD 	(2/15 - 2/18),"Authorization Number:	018122
confirmed $2,00 was charged for 18 months.
Received delivery confirmation. 2/20/18 Hitomi ","18 months no interest ($2000). Already processed Synchrony (Auth# 018122). 
Customer picked up 2/18/2018.
SN# 0901002170015",103793,confirmed $500 in Square. confirmed Synchrony form and the account. Synchrony Term is 18 months. 2/20/18 Hitomi,TX,1,10.00
2/18/2018 10:37:49 AM,David Todd Peak,AL,35094,Majesty,DWA-8000DWA-8000-BL-DEMO,Demo Black,Demo,,,,,2750.00,2500.00,250.00,Tom Nguyen,Synchrony,2750.00,,,6034610083103864,85075466,Huston,24 months,,0.00,,,,,,,,0.00,,,,,,,2/18/2018 12:00:00 AM,YES,"3 years parts, 1 year labor (Free)",Delivered,BIRMINGHAM HM & GD 	(2/15 - 2/18),"Authorization Number:	018400
confirmed $2750 was charged for 24 months. Received delivery confirmation. 2/20/18 Hitomi","Already processed Synchrony sale.
TRANSACTION APPROVED 
Authorization # 018400
Customer picked up 2/18/2018
SN# 090100110126",103794,confirmed Synchrony account and process.  2/19/18 Hitomi,TX,0,10.00
2/21/2018 8:05:20 AM,Paulio Sontong,AL,35124,Legacy 3D,DWA-9150USJ-9150CH-DEMO,Demo Choco,Demo,,,,,3500.00,3500.00,0.00,Tom Nguyen,Cash,100.00,,,,,,,CreditCard,1650.00,ezvu,,,,,,CreditCard,1750.00,2Ic4,,,,,,2/18/2018 12:00:00 AM,YES,"5 years parts, 1 year labor ($300)",Delivered,BIRMINGHAM HM & GD 	(2/15 - 2/18),,,103894,"customer already pick up the chair after the show.
Received $100 cash.
Serial number is 0202002170242. 2/21/2018 June
confirmed $1650 & $1750 in Square. the cash was passed to Humberto Higareda by June. 2/21/18 Hitomi",TX,1,10.00
2/21/2018 11:41:04 AM,Randy D Holmes,AL,35055,Majesty,MAJ-1010MAJ-1010-BR,New Choco,New,,,,,2700.00,2700.00,0.00,Kristy Tran,CreditCard,0.00,#olMp,,,,,,,0.00,,,,,,,,0.00,,,,,,,,No,"3 years parts, 1 year labor (Free)",Cancelled,BIRMINGHAM HM & GD 	(2/15 - 2/18),,,103896,"Customer cancel the old order(#103785) and repurchased. New price is $2800. $100 paid by square #olMp.
confirmed $100 in Square. PLEASE CANCEL new invoice #103904",Not Dispatched,1,10.00
2/22/2018 10:14:02 AM,Randy D. Holmes,IL,35055,Majesty,MAJ-1010MAJ-1010-BR,New Choco,New,,,,,2800.00,2800.00,0.00,Kristy Tran,CreditCard,100.00,#olMp,,,,,,Cash,2700.00,,,,,,,,0.00,,,,,,,3/1/2018 12:00:00 AM,No,"3 years parts, 1 year labor (Free)",Delivered,BIRMINGHAM HM & GD 	(2/15 - 2/18),,COD $2700 CASH only (no checks or cards),103904,"Customer cancel the old order(#103785 and #103896) and repurchased. New price is $2800. $100 paid by square #olMp.
confirmed $100 in Square. ***CORRECT ADDRESS IS AL***2/22/18HITOMI
Mario received $2,700 cash 3/14/18 Hitomi",TX,1,10.00
