﻿Original Event Name,Event Name,Sales Person,Order Number,Order Date,Customer Name,State,Zip,Product Name,Color,Product Status,QTY,Tax,Total Before Tax,Order Total,Primary Payment Method,Second Payment Method,Thirdl Payment Method,Warranty,Order Items,Pick up,Delivered On,Order Status,Chair Type,Order Notes,Private Note,Branch,No Tax,Actual Tax Rate,SKU,Primary Payment Balance,Primary Authorize Number,Primary Purchase Order Number,Primary Synchrony Account Number,Primary Synchrony Application Key,Primary Synchrony Account Info,Primary Synchrony Term,Primary Synchrony Primary ID,Primary Synchrony Issued State,Primary Synchrony Expiretion Date,Second Payment Balance,Second Authorize Number,Second Purchase Order Number,Second Synchrony Account Number,Second Synchrony Application Key,Second Synchrony Account Info,Second SynchronyTerm,Second Synchrony Primary ID,Second Synchrony Issued State,Second Synchrony Expiretion Date,Third Payment Balance,Third Authorize Number,Third Purchase Order Number,Third Synchrony Account Number,Third Synchrony Application Key,Third Synchrony Account Info,Third Synchrony Term,Third Synchrony Primary ID,Third Synchrony Issued State,Third Synchrony Expiretion Date
"Sams Club #6217 Miami, FL","Sam's Club #6217 Miami, FL (FL)",Hector Bernardino,120350,8/18/2019 8:14:23 AM,Juana Guzman,FL,33165,Legacy for Sam's,New Choco,New,1,307.86,4398.00,4705.86,Sam’s Club Synchrony,Credit Card,,"3 years parts, 1 year labor (Free)","Legacy for Sam's,",No,,Cancelled,,,"**CANCELLED 8/27/19**

Only $3500 out of $4660.86 was financed balance was paid with customer other credit card
Original received-Erika 8/19/19 10:05am
CC, Jasmin Carrizales, 8/21/19, 11:07am",FL,0,7.00,DWA-9100DWA-9100CH,0.00,,,,,,,,,/,0.00,7495013256599406322685,,,,,,,,/,0.00,,,,,,,,,/
"Sams Club #6217 Miami, FL","Sam's Club #6217 Miami, FL (FL)",Hector Bernardino,120401,8/21/2019 11:08:31 AM,Liseidy Madrigal Bardo,FL,33032,Relax 2 Zero 2.0 for Sam's,New Black,New,1,279.86,3998.00,4277.86,Sam’s Club Synchrony,,,"3 years parts, 1 year labor (Free)","Relax 2 Zero 2.0 for Sam's,",No,9/11/2019 12:00:00 AM,Delivered,New,,"Upgrade to relax zero 3D by Andre, at no extra cost
Original received-Erika 8/21/19 11:15am
CC, Jasmin Carrizales, 8/22/19, 5:54pm, VM/Av. Tues. 8/27/19- Fri. 8/30/19  or not until 9/9/19 or later.
Delivery conf completed-Erika 9/13/19 11:28am",FL,0,7.00,USJ-9050USJ-9050BL,0.00,,,,,,,,,/,0.00,,,,,,,,,/,0.00,,,,,,,,,/
"Sams Club #6217 Miami, FL","Sam's Club #6217 Miami, FL (FL)",Hector Bernardino,120427,8/23/2019 7:20:54 AM,Pablo Lopez,FL,33182,Relax 2 Zero 2.0 for Sam's,New Brown,New,1,279.86,3998.00,4277.86,Sam’s Club Synchrony,,,"3 years parts, 1 year labor (Free)","Relax 2 Zero 2.0 for Sam's,",No,9/5/2019 12:00:00 AM,Delivered,New,,"Andres approved an upgrade to Relax 3D due to no more stock of 2.0 - JD
Original received-Erika 8/23/19 10:01am
CC, Jasmin Carrizales, 8/26/19, 1:42pm/Av. Mon.-Fri. Anytime
Delivery conf completed-Erika 9/6/19 10:20am",FL,0,7.00,USJ-9050USJ-9050BR,0.00,,,,,,,,,/,0.00,,,,,,,,,/,0.00,,,,,,,,,/
"Sams Club #6217 Miami, FL","Sam's Club #6217 Miami, FL (FL)",Hector Bernardino,120437,8/23/2019 6:26:40 PM,Yiletsy Granadillo,FL,33178,Shogun Neck & Back Massger,New,New,1,14.00,199.98,213.98,Purchase Order,,,"2 years parts, 1 year labor for Small Items","Shogun Neck &amp; Back Massger,",YES,,Delivered,,,,FL,0,7.00,USJ-874USJ-874,0.00,,630988743624395895146,,,,,,,/,0.00,,,,,,,,,/,0.00,,,,,,,,,/
"Sams Club #6217 Miami, FL","Sam's Club #6217 Miami, FL (FL)",Hector Bernardino,120441,8/24/2019 10:15:17 AM,Ingris Cruz,FL,33145,Relax 2 Zero 2.0 for Sam's,New Brown,New,1,279.86,3998.00,4277.86,Sam’s Club Synchrony,,,"3 years parts, 1 year labor (Free)","Relax 2 Zero 2.0 for Sam's,",No,9/5/2019 12:00:00 AM,Delivered,New,,"Original received.-Erika 8/26/19 10:07am
CC, Jasmin Carrizales, 8/26/19, 2:03pm, Call cannot be completed, try again later.
Delivery conf completed-Erika 9/6/19 10:19am",FL,0,7.00,USJ-9050USJ-9050BR,0.00,,,,,,,,,/,0.00,,,,,,,,,/,0.00,,,,,,,,,/
"Sams Club #6217 Miami, FL","Sam's Club #6217 Miami, FL (FL)",Hector Bernardino,120446,8/24/2019 6:40:19 PM,Reynier Lara,FL,33134,Shogun Neck & Back Massger,New,New,1,14.00,199.98,213.98,Purchase Order,,,"2 years parts, 1 year labor for Small Items","Shogun Neck &amp; Back Massger,",YES,,Delivered,,,,FL,0,7.00,USJ-874USJ-874,0.00,,2262902512024766270970,,,,,,,/,0.00,,,,,,,,,/,0.00,,,,,,,,,/
"Sams Club #6217 Miami, FL","Sam's Club #6217 Miami, FL (FL)",Hector Bernardino,120463,8/25/2019 12:49:01 PM,Fernando Lund,FL,33130,Legacy for Sam's,New Black,New,1,307.86,4398.00,4705.86,Sam’s Club Synchrony,,,"3 years parts, 1 year labor (Free)","Legacy for Sam's,",No,9/5/2019 12:00:00 AM,Delivered,New,,"Shogun 11/5/19
Original received-Erika 8/26/19 10:23am
CC, Jasmin Carrizales, 8/26/19, 2:30pm/Av. Mon.-Fri.-Anytime, before 9/4/19
Delivery conf completed-Erika 9/6/19 10:18am",FL,0,7.00,DWA-9100DWA-9100BL,0.00,,,,,,,,,/,0.00,,,,,,,,,/,0.00,,,,,,,,,/
"Sams Club #6217 Miami, FL","Sam's Club #6217 Miami, FL (FL)",Hector Bernardino,120464,8/25/2019 12:55:03 PM,Fernando Lund,FL,33130,Vitality Plate for Sam's,Demo[-60],Demo,1,28.00,399.99,427.99,Sam’s Club Synchrony,,,"2 years parts, 1 year labor (Free)","Vitality Plate for Sam's,",YES,,Delivered,,,Finance with legacy chair,FL,0,7.00,USJ-849USJ-849-DEMO,0.00,,,,,,,,,/,0.00,,,,,,,,,/,0.00,,,,,,,,,/
"Sam's Club #6217 Miami, FL (FL)","Sam's Club #6217 Miami, FL (FL)",Fernando Lund,123314,12/29/2019 8:08:59 AM,Muna Ghawali,FL,33411,Ninja Leg Massager 2,New,New,1,21.00,299.98,320.98,Credit Card,,,"2 years parts, 1 year labor for Small Items","Ninja Leg Massager 2,",YES,,Delivered,,,,FL,0,7.00,USJ-880,320.97,331310970392846041721,,,,,,,,/,0.00,,,,,,,,,/,0.00,,,,,,,,,/
"Sam's Club #6217 Miami, FL (FL)","Sam's Club #6217 Miami, FL (FL)",Fernando Lund,123315,12/29/2019 8:13:40 AM,Miguel Mejia,FL,33185,Vitality Plate for Sam's,Demo[-60],Demo,1,28.00,399.99,427.99,Credit Card,,,"2 years parts, 1 year labor for Small Items","Vitality Plate for Sam's,",YES,,Delivered,,,,FL,0,7.00,USJ-849USJ-849-DEMO,427.98,913431184500622121863,,,,,,,,/,0.00,,,,,,,,,/,0.00,,,,,,,,,/
"Sam's Club #6217 Miami, FL (FL)","Sam's Club #6217 Miami, FL (FL)",Fernando Lund,123371,1/3/2020 1:39:28 PM,Silvia Ontivero,FL,33178,Ninja Leg Massager 2,New,New,1,35.00,499.96,534.96,Credit Card,,,"2 years parts, 1 year labor for Small Items","Ninja Leg Massager 2,Shogun Neck &amp; Back Massger,",YES,,Delivered,,,,FL,0,7.00,USJ-880,534.96,152024888848583676304,,,,,,,,/,0.00,,,,,,,,,/,0.00,,,,,,,,,/
"Sam's Club #6217 Miami, FL (FL)","Sam's Club #6217 Miami, FL (FL)",Fernando Lund,123371,1/3/2020 1:39:28 PM,Silvia Ontivero,FL,33178,Shogun Neck & Back Massger,New,New,1,35.00,499.96,534.96,Credit Card,,,"2 years parts, 1 year labor for Small Items","Ninja Leg Massager 2,Shogun Neck &amp; Back Massger,",YES,,Delivered,,,,FL,0,7.00,USJ-874USJ-874,534.96,152024888848583676304,,,,,,,,/,0.00,,,,,,,,,/,0.00,,,,,,,,,/
"Sam's Club #6217 Miami, FL (FL)","Sam's Club #6217 Miami, FL (FL)",Fernando Lund,123379,1/5/2020 8:06:52 AM,Odlily Rivera,FL,33172,Ninja Leg Massager 2,New,New,1,21.00,299.98,320.98,Credit Card,,,"2 years parts, 1 year labor for Small Items","Ninja Leg Massager 2,",YES,,Delivered,,,,FL,0,7.00,USJ-880,320.97,201044484818589671384,,,,,,,,/,0.00,,,,,,,,,/,0.00,,,,,,,,,/
"Sam's Club #6217 Miami, FL (FL)","Sam's Club #6217 Miami, FL (FL)",Fernando Lund,123392,1/6/2020 7:01:12 AM,James Battle,FL,33167,Vitality Plate for Sam's,Demo[-60],Demo,1,28.00,399.99,427.99,Credit Card,,,"2 years parts, 1 year labor for Small Items","Vitality Plate for Sam's,",YES,,Delivered,,,,FL,0,7.00,USJ-849USJ-849-DEMO,427.99,917433900080602125863,,,,,,,,/,0.00,,,,,,,,,/,0.00,,,,,,,,,/
"Sam's Club #6217 Miami, FL (FL)","Sam's Club #6217 Miami, FL (FL)",Fernando Lund,123394,1/6/2020 7:06:07 AM,Salvador Jarcia,FL,33182,Vitality Plate for Sam's,Demo[-60],Demo,1,28.00,399.99,427.99,Credit Card,,,"2 years parts, 1 year labor for Small Items","Vitality Plate for Sam's,",YES,,Delivered,,,,FL,0,7.00,USJ-849USJ-849-DEMO,427.99,402888894986195753018,,,,,,,,/,0.00,,,,,,,,,/,0.00,,,,,,,,,/
