﻿Original Event Name,Event Name,Sales Person,Order Number,Order Date,Customer Name,State,Zip,Product Name,Color,Product Status,QTY,Tax,Total Before Tax,Order Total,Primary Payment Method,Second Payment Method,Thirdl Payment Method,Warranty,Order Items,Pick up,Delivered On,Order Status,Chair Type,Order Notes,Private Note,Branch,No Tax,Actual Tax Rate,SKU,Primary Payment Balance,Primary Authorize Number,Primary Purchase Order Number,Primary Synchrony Account Number,Primary Synchrony Application Key,Primary Synchrony Account Info,Primary Synchrony Term,Second Payment Balance,Second Authorize Number,Second Purchase Order Number,Second Synchrony Account Number,Second Synchrony Application Key,Second Synchrony Account Info,Second SynchronyTerm,Third Payment Balance,Third Authorize Number,Third Purchase Order Number,Third Synchrony Account Number,Third Synchrony Application Key,Third Synchrony Account Info,Third Synchrony Term
"Sam's Club #4875 Wentzville, MO","Sam's Club #4875 Wentzville, MO",Evans Client,117936,6/10/2019 3:38:34 PM,Ikbal Raziq,MO,63385,Orbit for Sam's ,Demo Choco(Box)[-300],Demo,1,227.98,2698.00,2925.98,Credit Card,,,"3 years parts, 1 year labor (Free)","Orbit for Sam's ,",No,,New,,,,Not Dispatched,0,8.45,ORBT-1ORBT-1CH-BOX,2939.47,1463030378024948859546,,,,,,0.00,,,,,,,0.00,,,,,,
"Sam's Club #4875 Wentzville, MO","Sam's Club #4875 Wentzville, MO",Evans Client,117938,6/10/2019 3:47:10 PM,Jennifer Conner,MO,63368,PEGASUS 2 SMART - Sam's,New Choco,New,1,523.82,6199.00,6722.82,Credit Card,,,"3 years parts, 1 year labor (Free)","PEGASUS 2 SMART - Sam's,",No,,New,,,please don’t deliver for 2-3 weeks.,Not Dispatched,0,8.45,PEGS-2PEGS-2-BR,6753.81,4296165562521615204870,,,,,,0.00,,,,,,,0.00,,,,,,
"Sam's Club #4875 Wentzville, MO","Sam's Club #4875 Wentzville, MO",Evans Client,117940,6/10/2019 3:54:11 PM,Victoria Foster,MO,63366,Vitality Plate for Sam's,New,New,1,38.87,459.99,498.86,Credit Card,,,"3 years parts, 1 year labor (Free)","Vitality Plate for Sam's,",YES,,Delivered,,,Customer p/u from sams club,IL,0,8.45,USJ-849USJ-849,501.16,017978918837091380285,,,,,,0.00,,,,,,,0.00,,,,,,
"Sam's Club #4875 Wentzville, MO","Sam's Club #4875 Wentzville, MO",Evans Client,117946,6/10/2019 5:44:03 PM,Long Do,MO,63376,Vitality Plate for Sam's,New,New,1,38.87,459.99,498.86,Credit Card,,,"5 years parts, 1 year labor (Free)","Vitality Plate for Sam's,",YES,,Delivered,,,,CA,0,8.45,USJ-849USJ-849,501.16,504242296204569729328,,,,,,0.00,,,,,,,0.00,,,,,,
"Sam's Club #4875 Wentzville, MO","Sam's Club #4875 Wentzville, MO",Evans Client,117947,6/10/2019 8:49:31 PM,Long Do,MO,63376,Vitality Plate for Sam's,New,New,1,38.87,459.99,498.86,Credit Card,,,"5 years parts, 1 year labor (Free)","Vitality Plate for Sam's,",YES,,Delivered,,,,IL,0,8.45,USJ-849USJ-849,501.16,504242296204569729328,,,,,,0.00,,,,,,,0.00,,,,,,
"Sam's Club #4875 Wentzville, MO","Sam's Club #4875 Wentzville, MO",Evans Client,117948,6/10/2019 8:59:51 PM,Keith Jones,MO,63367,Legacy for Sam's,Demo Black[-700],Demo,1,304.12,3599.00,3903.12,Sam’s Club Synchrony,,,"3 years parts, 1 year labor (Free)","Legacy for Sam's,",No,,New,,,,Not Dispatched,0,8.45,DWA-9100DWA-9100BL-DEMO,3921.11,,,,,,,0.00,,,,,,,0.00,,,,,,
"Sam's Club #4875 Wentzville, MO","Sam's Club #4875 Wentzville, MO",Evans Client,117949,6/10/2019 9:05:33 PM,Rodney Mcgee,MO,63367,Orbit for Sam's ,New Black,New,1,253.33,2998.00,3251.33,Credit Card,,,"3 years parts, 1 year labor (Free)","Orbit for Sam's ,",No,,New,,,,Not Dispatched,0,8.45,ORBT-1ORBT-1BL,3266.32,9575163565310805499762,,,,,,0.00,,,,,,,0.00,,,,,,
"Sam's Club #4875 Wentzville, MO","Sam's Club #4875 Wentzville, MO",Evans Client,117950,6/10/2019 9:12:42 PM,Sharon Podorski,MO,63348,Legacy for Sam's,Demo(Box) Choco[-700],Demo,1,304.12,3599.00,3903.12,Credit Card,,,"3 years parts, 1 year labor (Free)","Legacy for Sam's,",No,,New,,,,Not Dispatched,0,8.45,DWA-9100DWA-9100CH-Box,3921.11,4979868714879098384285,,,,,,0.00,,,,,,,0.00,,,,,,
"Sam's Club #4875 Wentzville, MO","Sam's Club #4875 Wentzville, MO",Evans Client,117951,6/10/2019 9:18:13 PM,Jonathan Bradshaw,MO,63385,PEGASUS 2 SMART - Sam's,New Choco,New,1,523.82,6199.00,6722.82,Credit Card,,,"3 years parts, 1 year labor (Free)","PEGASUS 2 SMART - Sam's,",No,,New,,,,Not Dispatched,0,8.45,PEGS-2PEGS-2-BR,6753.81,7843090374063943807506,,,,,,0.00,,,,,,,0.00,,,,,,
"Sam's Club #4875 Wentzville, MO","Sam's Club #4875 Wentzville, MO",Evans Client,117952,6/10/2019 9:23:14 PM,Ikbel Raziq,MO,63385,Orbit for Sam's ,Demo Choco(Box)[-300],Demo,1,227.98,2698.00,2925.98,Credit Card,,,"3 years parts, 1 year labor (Free)","Orbit for Sam's ,",No,,New,,,,Not Dispatched,0,8.45,ORBT-1ORBT-1CH-BOX,2939.47,1463030378024948859546,,,,,,0.00,,,,,,,0.00,,,,,,
