﻿Original Event Name,Event Name,Sales Person,Order Number,Order Date,Customer Name,State,Zip,Product Name,Color,Product Status,QTY,Tax,Total Before Tax,Order Total,Primary Payment Method,Second Payment Method,Thirdl Payment Method,Warranty,Order Items,Pick up,Delivered On,Order Status,Chair Type,Order Notes,Private Note,Branch,No Tax,Actual Tax Rate,SKU,Primary Payment Balance,Primary Authorize Number,Primary Purchase Order Number,Primary Synchrony Account Number,Primary Synchrony Application Key,Primary Synchrony Account Info,Primary Synchrony Term,Primary Synchrony Primary ID,Primary Synchrony Issued State,Primary Synchrony Expiretion Date,Second Payment Balance,Second Authorize Number,Second Purchase Order Number,Second Synchrony Account Number,Second Synchrony Application Key,Second Synchrony Account Info,Second SynchronyTerm,Second Synchrony Primary ID,Second Synchrony Issued State,Second Synchrony Expiretion Date,Third Payment Balance,Third Authorize Number,Third Purchase Order Number,Third Synchrony Account Number,Third Synchrony Application Key,Third Synchrony Account Info,Third Synchrony Term,Third Synchrony Primary ID,Third Synchrony Issued State,Third Synchrony Expiretion Date
"Sam's Club #8244 Houston, TX","Sam's Club #8244 Houston, TX",Xiongxiaojun Ji,118366,6/29/2019 8:54:05 AM,Unknown Unknown,TX,77000,Ninja Leg Massager 2,New,New,1,24.75,299.98,324.73,Purchase Order,,,"2 years parts, 1 year labor for Small Items","Ninja Leg Massager 2,",YES,,Delivered,,,Customer bought it when I was not there.,TX,0,8.25,USJ-880,324.73,,TC#972553349358709743275,,,,,,,/,0.00,,,,,,,,,/,0.00,,,,,,,,,/
"Sam's Club #8244 Houston, TX","Sam's Club #8244 Houston, TX",Xiongxiaojun Ji,118367,6/29/2019 8:57:51 AM,Panagiota Tsigelis,TX,77000,Ninja Leg Massager 2,New,New,1,24.75,299.98,324.73,Purchase Order,,,"2 years parts, 1 year labor for Small Items","Ninja Leg Massager 2,",YES,,Delivered,,,Picked up,TX,0,8.25,USJ-880,324.73,,TC#529222873294363350820,,,,,,,/,0.00,,,,,,,,,/,0.00,,,,,,,,,/
"Sam's Club #8244 Houston, TX","Sam's Club #8244 Houston, TX",Xiongxiaojun Ji,118368,6/29/2019 9:04:52 AM,Martha L Villagomez,TX,77000,Shogun Neck & Back Massger,New,New,1,16.50,199.98,216.48,Purchase Order,,,"2 years parts, 1 year labor for Small Items","Shogun Neck &amp; Back Massger,",YES,,Delivered,,,Picked up,TX,0,8.25,USJ-874USJ-874,216.48,,TC# 997461166140922939473,,,,,,,/,0.00,,,,,,,,,/,0.00,,,,,,,,,/
"Sam's Club #8244 Houston, TX","Sam's Club #8244 Houston, TX",Xiongxiaojun Ji,118369,6/29/2019 9:07:28 AM,Tina Burns,TX,77000,Shogun Neck & Back Massger,New,New,1,16.50,199.98,216.48,Purchase Order,,,"2 years parts, 1 year labor for Small Items","Shogun Neck &amp; Back Massger,",YES,,Delivered,,,Picked up,TX,0,8.25,USJ-874USJ-874,216.48,,TC# 451066850658079001934,,,,,,,/,0.00,,,,,,,,,/,0.00,,,,,,,,,/
"Sam's Club #8244 Houston, TX","Sam's Club #8244 Houston, TX",Xiongxiaojun Ji,118370,6/29/2019 9:10:48 AM,Guadalupe Chapa,TX,77502,Vitality Plate for Sam's,New,New,1,37.95,459.99,497.94,Purchase Order,,,"2 years parts, 1 year labor for Small Items","Vitality Plate for Sam's,",YES,,Delivered,,,Picked up,TX,0,8.25,USJ-849USJ-849,497.94,,TC# 330262072226363364870,,,,,,,/,0.00,,,,,,,,,/,0.00,,,,,,,,,/
"Sam's Club #8244 Houston, TX","Sam's Club #8244 Houston, TX",Xiongxiaojun Ji,118372,6/29/2019 9:14:59 AM,Antonio Rosa,TX,77000,Shogun Neck & Back Massger,New,New,1,16.50,199.98,216.48,Purchase Order,,,"2 years parts, 1 year labor for Small Items","Shogun Neck &amp; Back Massger,",YES,,Delivered,,,Picked up,TX,0,8.25,USJ-874USJ-874,216.48,,TC# 258769601925632674187,,,,,,,/,0.00,,,,,,,,,/,0.00,,,,,,,,,/
"Sam's Club #8244 Houston, TX","Sam's Club #8244 Houston, TX",Xiongxiaojun Ji,118373,6/29/2019 9:18:52 AM,Maria Sanches,TX,77000,Vitality Plate for Sam's,New,New,1,37.95,459.99,497.94,Purchase Order,,,"2 years parts, 1 year labor for Small Items","Vitality Plate for Sam's,",YES,,Delivered,,,Picked up,TX,0,8.25,USJ-849USJ-849,497.94,,TC# 268998835804292295536,,,,,,,/,0.00,,,,,,,,,/,0.00,,,,,,,,,/
"Sam's Club #8244 Houston, TX","Sam's Club #8244 Houston, TX",Xiongxiaojun Ji,118374,6/29/2019 9:45:26 AM,Krystal Tinker,TX,77351,Ninja Leg Massager 2,New,New,1,41.25,499.96,541.21,Purchase Order,,,"2 years parts, 1 year labor for Small Items","Shogun Neck &amp; Back Massger,Ninja Leg Massager 2,",YES,,Delivered,,,Picked up,TX,0,8.25,USJ-880,541.21,,TC# 847471260112928911453,,,,,,,/,0.00,,,,,,,,,/,0.00,,,,,,,,,/
"Sam's Club #8244 Houston, TX","Sam's Club #8244 Houston, TX",Xiongxiaojun Ji,118374,6/29/2019 9:45:26 AM,Krystal Tinker,TX,77351,Shogun Neck & Back Massger,New,New,1,41.25,499.96,541.21,Purchase Order,,,"2 years parts, 1 year labor for Small Items","Shogun Neck &amp; Back Massger,Ninja Leg Massager 2,",YES,,Delivered,,,Picked up,TX,0,8.25,USJ-874USJ-874,541.21,,TC# 847471260112928911453,,,,,,,/,0.00,,,,,,,,,/,0.00,,,,,,,,,/
"Sam's Club #8244 Houston, TX","Sam's Club #8244 Houston, TX",Xiongxiaojun Ji,118397,6/30/2019 2:19:00 PM,Johnny Tran,TX,77000,Ninja Leg Massager 2,New,New,1,24.75,299.98,324.73,Purchase Order,,,"2 years parts, 1 year labor for Small Items","Ninja Leg Massager 2,",YES,,Delivered,,,Picked up,TX,0,8.25,USJ-880,324.73,,TC#068928352869298237596,,,,,,,/,0.00,,,,,,,,,/,0.00,,,,,,,,,/
"Sam's Club #8244 Houston, TX","Sam's Club #8244 Houston, TX",Xiongxiaojun Ji,118398,6/30/2019 2:23:08 PM,Linda Parra,TX,77502,PEGASUS 2 SMART - Sam's,New Choco,New,1,544.42,6598.99,7143.41,Purchase Order,,,"3 years parts, 1 year labor (Free)","PEGASUS 2 SMART - Sam's,Vitality Plate for Sam's,",No,,New,,,"Vitality plate already picked up.
Original received. Vitality plate was already picked up. Erika 7/1/19 11:34am",TX,0,8.25,PEGS-2PEGS-2-BR,7143.41,,TC# 0967569611905639669187,,,,,,,/,0.00,,,,,,,,,/,0.00,,,,,,,,,/
"Sam's Club #8244 Houston, TX","Sam's Club #8244 Houston, TX",Xiongxiaojun Ji,118398,6/30/2019 2:23:08 PM,Linda Parra,TX,77502,Vitality Plate for Sam's,Demo[-60],Demo,1,544.42,6598.99,7143.41,Purchase Order,,,"2 years parts, 1 year labor for Small Items","PEGASUS 2 SMART - Sam's,Vitality Plate for Sam's,",No,,New,,,"Vitality plate already picked up.
Original received. Vitality plate was already picked up. Erika 7/1/19 11:34am",TX,0,8.25,USJ-849USJ-849-DEMO,7143.41,,TC# 0967569611905639669187,,,,,,,/,0.00,,,,,,,,,/,0.00,,,,,,,,,/
