﻿Date,CustomerName,State,Zipcode,Description,productNo,Color,IsDemo,Net,ShippingFee,GiftPrice,FinancingProcessingFee,Gross,Pre_tax,Tax,Commission,Primary Payment Method,Primary Payment Balance,Primary Authorize Number,Primary Purchase Order Number,Primary Synchrony Account Number,Primary Synchrony Application Key,Primary Synchrony AccountInfo,Primary SynchronyTerm,Secondly Payment Method,Secondly Payment Balance,Secondly Authorize Number,Secondly Purchase Order Number,Secondly Synchrony Account Number,Secondly Synchrony Application Key,Secondly Synchrony AccountInfo,Secondly SynchronyTerm,Thirdly Payment Method,Thirdly Payment Balance,Thirdly Authorize Number,Thirdly Purchase Order Number,Thirdly Synchrony Account Number,Thirdly Synchrony Application Key,Thirdly Synchrony AccountInfo,Thirdly SynchronyTerm,DeliveryDate,Ispickup,Warranty,Status,Event Name,Synchrony Notes,Order Notes,Order number,Private Note,Branch,IsNoTax,ActualTaxRate
4/3/2018 11:18:56 PM,Madicke Seck,MN,55443,Pegasus,DWA-9400Pegasus-BL-DEMO,Demo Black,Demo,,,,,4280.00,4280.00,0.00,Noni Ignacio,Synchrony,4280.00,,,6034610083187420,86939695,Las Vegas,36 months,,0.00,,,,,,,,0.00,,,,,,,,YES,"3 years parts, 1 year labor (Free)",New,Minneapolis Home & Garden Show 3/30-4/8/18 (IL),,,104995,"Confirmed synchrony form and the account ($7,200). They will pick up on 4/8/18 . will wait for the confirmation. Need to charge synchrony. 4/4/18 Hitomi",Not Dispatched,1,6.88
4/3/2018 11:24:32 PM,Donald Raleigh,MN,55014,Pegasus,DWA-9400Pegasus-BL-DEMO,Demo Black,Demo,,,,,4500.00,4500.00,0.00,Noni Ignacio,CreditCard,4500.00,Sq# vQZu,,,,,,,0.00,,,,,,,,0.00,,,,,,,,No,"3 years parts, 1 year labor (Free)",Scheduled,Minneapolis Home & Garden Show 3/30-4/8/18 (IL),,,104996,"Confirmed $4,500 in Square.  4/4/18 Hitomi
courtesy call 04/05/18 stephany",TX,1,6.88
4/3/2018 11:35:15 PM,Steve Ward,MN,55316,Relax2Zero 3D,DWA-9060USJ-9060BL-DEMO,Demo Black,Demo,,,,,4000.00,4000.00,0.00,Noni Ignacio,Synchrony,4000.00,,,6034610083190705,87004624,Las Vegas,36 months,,0.00,,,,,,,,0.00,,,,,,,,No,"3 years parts, 1 year labor (Free)",Called,Minneapolis Home & Garden Show 3/30-4/8/18 (IL),,,104997,"Chicago branch to deliver this demo black relax 3D chair.
Confirmed synchrony form and the account ($7,200). **PLEASE CHARGE BEFORE DELIVERY.**4/4/18 Hitomi
courtesy call done 04/05/18 stephany",TX,1,6.88
4/3/2018 11:45:46 PM,Stephen Kleis,WI,54017,Relax2Zero 3D,DWA-9060USJ-9060BL,New Black,New,,,,,3900.00,3900.00,0.00,Rodrigo Malabunga,CreditCard,1000.00,SQ# 0TT6,,,,,,CreditCard,2900.00,SQ # OBrv,,,,,,,0.00,,,,,,,,No,"3 years parts, 1 year labor (Free)",Called,Minneapolis Home & Garden Show 3/30-4/8/18 (IL),,,104998,"Confirmed $1,000 + $2,900 in Square. 4/4/18 Hitomi
courtesy call 04/05/18 stephany",TX,1,6.88
4/3/2018 11:55:41 PM,Jerry Smith,MN,55372,Relax2Zero 3D,DWA-9060USJ-9060BL,New Black,New,,,,,4173.00,4173.00,0.00,Ruben Cuatrona,CreditCard,4173.00,SQ# 8aOg,,,,,,,0.00,,,,,,,,0.00,,,,,,,,No,"3 years parts, 1 year labor (Free)",Called,Minneapolis Home & Garden Show 3/30-4/8/18 (IL),,,104999,"Confirmed $4,173 in Square. 4/4/18 Hitomi
courtesy call done 04/05/18 stephany",TX,1,6.88
4/4/2018 12:04:40 AM,Douglas Maple,OH,44281,Legacy 3D,DWA-9150USJ-9150BL-DEMO,Demo Black,Demo,,,,,4173.00,4173.00,0.00,Rodrigo Malabunga,Synchrony,4173.00,,,6034610083192735,87030900,Las Vegas,36 months,,0.00,,,,,,,,0.00,,,,,,,,No,"3 years parts, 1 year labor (Free)",Called,Minneapolis Home & Garden Show 3/30-4/8/18 (IL),,,105000,"Chicago branch to deliver the demo chair
Confirmed synchrony form and the account ($8,400.) ***PLEASE CHARGE BEFORE DELIVERY.***4/4/18Hitomi
courtesy call done 04/05/18 stephany 
per customer cannot accept delivery until after APRIL 27th 2018 - stephany 04/05/18",TX,1,6.88
4/4/2018 12:19:38 AM,Frederick Costantin,MN,55436,Legacy 3D,DWA-9150USJ-9150CH-DEMO,Demo Choco,Demo,,,,,4173.00,4173.00,0.00,Rodrigo Malabunga,CreditCard,4173.00,SQ# 416g,,,,,,,0.00,,,,,,,,0.00,,,,,,,,YES,"3 years parts, 1 year labor (Free)",New,Minneapolis Home & Garden Show 3/30-4/8/18 (IL),,,105001,"Confirmed $4,173 in Square. They will pick up on 4/8/18. will wait for the confirmation.  4/4/18 Hitomi",Not Dispatched,1,6.88
4/4/2018 12:28:21 AM,Renee Renshaw,MN,55427,Legacy 3D,DWA-9150USJ-9150BL-DEMO,Demo Black,Demo,,,,,4173.00,4173.00,0.00,Noni Ignacio,Synchrony,4173.00,,,6034610083192925,87031877,Las Vegas,36 months,,0.00,,,,,,,,0.00,,,,,,,,No,"3 years parts, 1 year labor (Free)",Called,Minneapolis Home & Garden Show 3/30-4/8/18 (IL),,,105002,"Chicago branch to deliver this demo chair.
Confirmed synchrony form and the account ($8,400) ***PLEASE CHARGE BEFORE DELIVERY.***4/4/18 Hitomi
courtesy call 04/05/18 stephany",TX,1,6.88
4/4/2018 12:40:49 AM,Mai non Thao,MN,55445,Legacy 3D,DWA-9150USJ-9150BL,New Black,New,,,,,4500.00,4500.00,0.00,Ruben Cuatrona,Synchrony,4500.00,,,6019192902059063,,Las Vegas,36 months,,0.00,,,,,,,,0.00,,,,,,,4/8/2018 12:00:00 AM,No,"3 years parts, 1 year labor (Free)",Delivered,Minneapolis Home & Garden Show 3/30-4/8/18 (IL),"Confirmed transaction $4,500/36 months/A#006160 in Synchrony LV. 4/13/18 Riho",,105003,"Confirmed the account in Synchrony ($4,500). ***PLEASE CHARGE BEFORE DELIVERY.***4/4/18 Hitomi
courtesy call  04/05/18 stephany",TX,1,6.88
4/8/2018 5:18:53 AM,Robin Edwards,MN,55313,Legacy 3D,DWA-9150USJ-9150BL-DEMO,Demo Black,Demo,,,,,4173.00,4173.00,0.00,Noni Ignacio,Synchrony,4173.00,,,6034610083200413,87254061,Las Vegas,36 months,,0.00,,,,,,,,0.00,,,,,,,4/6/2018 12:00:00 AM,No,"3 years parts, 1 year labor (Free)",Delivered,Minneapolis Home & Garden Show 3/30-4/8/18 (IL),"Authorization # 009744
",,105043,"mo chair will be delivered by Chicago branch
Forgot to put in daiwa space comments
Fyi
Rolly
Confirmed the account ($8,500) and synchrony form..4/9/18 Hitomi",TX,1,6.88
4/8/2018 5:24:20 AM,Norman Drews,MN,56450,Legacy 3D,DWA-9150USJ-9150CH-DEMO,Demo Choco,Demo,,,,,3900.00,3900.00,0.00,Ruben Cuatrona,CreditCard,3900.00,Sq# ikVH,,,,,,,0.00,,,,,,,,0.00,,,,,,,,No,"3 years parts, 1 year labor (Free)",Called,Minneapolis Home & Garden Show 3/30-4/8/18 (IL),,,105044,"Chicago branch to deliver demo chair.
Confirmed $3,900 in Square. 4/9/18 Hitomi
4/9 Maritza- courtesy call @10:27AM",TX,1,6.88
4/8/2018 5:32:57 AM,Cheryl Ficocello,MN,55448,Legacy 3D,DWA-9150USJ-9150BL-DEMO,Demo Black,Demo,,,,,3900.00,3900.00,0.00,Ruben Cuatrona,CreditCard,3900.00,SQ# 4DjN,,,,,,,0.00,,,,,,,,0.00,,,,,,,,No,"3 years parts, 1 year labor (Free)",Assigned,Minneapolis Home & Garden Show 3/30-4/8/18 (IL),,,105045,"Chicago branch to deliver the demo chair
Confirmed $3,900 in Square. 4/9/18
4/9- Maritza Courtesy call @10:30AM",IL,1,6.88
4/8/2018 5:41:40 AM,Ed Belland,MN,55340,Pegasus,DWA-9400Pegasus-BR-DEMO,Demo Choco,Demo,,,,,4800.00,4800.00,0.00,Rodrigo Malabunga,Synchrony,4800.00,,,6034610083203557,87305117,Las Vegas,48 months,,0.00,,,,,,,,0.00,,,,,,,,No,"3 years parts, 1 year labor (Free)",Called,Minneapolis Home & Garden Show 3/30-4/8/18 (IL),,,105046,"Chicago branch to deliver this demo chair
Confirmed the account ($7,200) under ""NIELSEN, BETH"" who is Ed's wife. per Rod. ***Please charge before delivery.***4/10/18 Hitomi

4/10 Maritza- Courtesy call @11:37AM",TX,1,6.88
4/8/2018 5:47:39 AM,Lee Moey,MN,55406,Pegasus,DWA-9400Pegasus-BL-DEMO,Demo Black,Demo,,,,,4600.00,4600.00,0.00,Noni Ignacio,CreditCard,2000.00,SQ# t7jt,,,,,,Synchrony,2600.00,,,6034610083209422,87419199,Las Vegas,36 months,,0.00,,,,,,,,YES,"3 years parts, 1 year labor (Free)",New,Minneapolis Home & Garden Show 3/30-4/8/18 (IL),"Authorization Number:	010562
Confirmed $2,600 was charged for 36 months. 4/10/18 Hitomi",,105047,"Confirmed $2,000 in Square. Noni informed me that chair has been delivered already. will confirm. 4/10/18 Hitomi",Not Dispatched,1,6.88
4/8/2018 5:53:11 AM,Carie Krogeh,MN,55343,Relax2Zero 3D,DWA-9060USJ-9060BL,New Black,New,,,,,4026.00,4026.00,0.00,Rolly San Jose,CreditCard,4026.00,SQ# BL4k,,,,,,,0.00,,,,,,,,0.00,,,,,,,,No,"3 years parts, 1 year labor (Free)",Scheduled,Minneapolis Home & Garden Show 3/30-4/8/18 (IL),,,105048,"Confirmed $4,026 in Square. 4/9/18 Hitomi
4/9 Maritza- courtesy call @10:38AM",TX,1,6.88
4/8/2018 7:18:39 AM,Nancy Bartusch,MN,55118,Relax2Zero 3D,DWA-9060USJ-9060BR-DEMO,Demo Choco,Demo,,,,,3900.00,3900.00,0.00,Rodrigo Malabunga,CreditCard,3900.00,SQ# 4So2,,,,,,,0.00,,,,,,,,0.00,,,,,,,,No,"3 years parts, 1 year labor (Free)",Called,Minneapolis Home & Garden Show 3/30-4/8/18 (IL),,,105049,"Confirmed $3,900 in Square. 4/9/18 Hitomi
4/9 Maritza- Courtesy call @10:42AM",TX,1,6.88
4/8/2018 7:23:25 AM,Staci Plum,MN,55379,Relax2Zero 3D,DWA-9060USJ-9060BR-DEMO,Demo Choco,Demo,,,,,3900.00,3900.00,0.00,Ruben Cuatrona,CreditCard,3900.00,SQ# GHVM,,,,,,,0.00,,,,,,,,0.00,,,,,,,,No,"3 years parts, 1 year labor (Free)",Called,Minneapolis Home & Garden Show 3/30-4/8/18 (IL),,,105050,"COnfirmed $3,900 in Square. 4/9/18 Hitomi

4/9 Maritza- Courtesy call @10:44AM",TX,1,6.88
4/8/2018 7:29:06 AM,Mark Vogel,MN,55304,Legacy 3D,DWA-9150USJ-9150CH,New Choco,New,,,,,3900.00,3900.00,0.00,Ruben Cuatrona,Synchrony,3900.00,,,6034610083203086,87299997,Las Vegas,36 months,,0.00,,,,,,,,0.00,,,,,,,,No,"3 years parts, 1 year labor (Free)",Called,Minneapolis Home & Garden Show 3/30-4/8/18 (IL),,,105051,"Confirmed the account ($8,500) and synchrony form.(ITS HUSBAND AND WIFE AT SHOW. MARK ACCOMPLISHED THE SYNCRONY WHILE THE WIFE SIGNED THE SALES ORDER FORM. ITS SHOULD BE GOOD PER RUBEN) **Please charge before delivery.***4/10/18 Hitomi

4/10 Maritza- Courtesy call @11:42AM",TX,1,6.88
4/8/2018 7:33:54 AM,Terrie Mau,MN,55432,Pegasus,DWA-9400Pegasus-BL-DEMO,Demo Black,Demo,,,,,4800.00,4800.00,0.00,Rodrigo Malabunga,Cash,1000.00,,,,,,,COD,0.00,,,,,,,,0.00,,,,,,,,YES,"3 years parts, 1 year labor (Free)",New,Minneapolis Home & Garden Show 3/30-4/8/18 (IL),,,105052,will confirm cash 4/9/18 Hitomi,Not Dispatched,1,6.88
4/8/2018 7:43:00 AM,Robert Tomassoni,MN,55449,Legacy 3D,DWA-9150USJ-9150BL,New Black,New,,,,,4173.00,4173.00,0.00,Ruben Cuatrona,Synchrony,4173.00,,,6034610083203045,87299606,Las Vegas,48 months,,0.00,,,,,,,,0.00,,,,,,,,No,"3 years parts, 3 years labor ($400)",Called,Minneapolis Home & Garden Show 3/30-4/8/18 (IL),,,105054,"Competitor tried to steal our sale so we just match their warranty 3 yrs parts 3 yrs labo . Pls do not deduct $400 from sale price
Confirmed the account ($8,500.) and synchrony form .***Please charge before delivery.***4/9/18 Hitomi
4/9 Maritza- Courtesy call @5:24PM",TX,1,6.88
4/8/2018 6:05:56 PM,Don Palm,WI,54016,Legacy 3D,DWA-9150USJ-9150CH,New Choco,New,,,,,4800.00,4800.00,0.00,Noni Ignacio,Synchrony,4800.00,,,6034610083204803,87326148,Las Vegas,48 months,,0.00,,,,,,,,0.00,,,,,,,,No,"3 years parts, 1 year labor (Free)",Called,Minneapolis Home & Garden Show 3/30-4/8/18 (IL),,,105107,"Confirmed synchrony form and the account ($8,400) ***Please charge before delivery.***4/9/18 Hitomi
4/9 Maritza- Courtesy call @5:30PM",TX,1,6.88
4/9/2018 8:48:52 AM,Ernie Delanghe,MN,55337,Pegasus,DWA-9400Pegasus-BR-DEMO,Demo Choco,Demo,,,,,4200.00,4200.00,0.00,Rolly San Jose,Check,4200.00,,,,,,,,0.00,,,,,,,,0.00,,,,,,,,No,"2 years parts, 1 year labor (Free)",New,Minneapolis Home & Garden Show 3/30-4/8/18 (IL),,,105131,"Chicago branch to deliver so just charge minimum for delivery. This is a demo chair
Received check deposit slip,will confirm the transaction 4/16/18 . 4/10/18 Hitomi",Not Dispatched,1,6.88
4/9/2018 8:55:44 AM,Paul Dahlseid,MN,55427,Legacy 3D,DWA-9150USJ-9150BL-DEMO,Demo Black,Demo,,,,,4173.00,4173.00,0.00,Ruben Cuatrona,Synchrony,4173.00,,,6034610083205735,87339643,Las Vegas,36 months,,0.00,,,,,,,,0.00,,,,,,,,No,"3 years parts, 1 year labor (Free)",Called,Minneapolis Home & Garden Show 3/30-4/8/18 (IL),,,105134,"4/9 Maritza- Confirmed credit availability of $8400 *Charge before delivery*
Confirmed synchrony form  4/9/18 Hitomi
4/9 Maritza Courtesy call @5:20PM",TX,1,6.88
4/9/2018 9:03:14 AM,Mark allen Bixby,MN,55124,Legacy 3D,DWA-9150USJ-9150BL,New Black,New,,,,,4500.00,4500.00,0.00,Ruben Cuatrona,Synchrony,4500.00,,,6034610083205784,87339949,Las Vegas,48 months,,0.00,,,,,,,,0.00,,,,,,,,No,"3 years parts, 1 year labor (Free)",Hold,Minneapolis Home & Garden Show 3/30-4/8/18 (IL),,,105136,"4/9 Maritza- Confirmed credit availability of $6000 *Charge before delivery*
Confirmed synchrony form . 4/9/18 Hitomi
4/9Maritza- Courtesy call @5:21PM

4/10 Maritza- Customer called and asked to place order on hold for a year due to home construction.",TX,1,6.88
