﻿Order Number,Order Date,Event Name,Salesperson,SKU,Product Name,Color,QTY,Warranty,Payment Details,Tax,Order Total,Gross,Actual Shipping Cost,CustomerName,Shipping Address,Delivered On,Serial Number (TO Be),Note
100332,9/1/2017 2:09:27 PM,Referral (Main Office),Mitch Valdes,DWA-9100DWA-9100BL,Legacy,Black,1,"3 years parts, 1 year labor (Free)",CreditCard ,294.15,4224.15,4224.15,0.00,Tae Lee,770-633-0993,9/6/2017 12:00:00 AM,,"ASSI Plaza Referral
$3,700 - cash price
$222 - (6% tax)
$300 - delivery"
100333,9/1/2017 5:15:48 PM,Sam's Club #6363 8/24-9/2 (FL),Jonathan Bhowani,DWA-9100DWA-9100CH-DEMO,Legacy for Sam's,Demo Choco,1,"3 years parts, 1 year labor (Free)",CreditCard ,251.93,3850.93,3850.93,0.00,Clarence Fox,9047102134,,,
100333,9/1/2017 5:15:48 PM,Sam's Club #6363 8/24-9/2 (FL),Jonathan Bhowani,,Daiwa Blanket,,1,No Warranty,CreditCard ,251.93,3850.93,3850.93,0.00,Clarence Fox,9047102134,,,
100335,9/1/2017 11:26:27 PM,LA County Fair 9/1-24 (CA),David Wang,DWA-9100DWA-9100CH-DEMO,Legacy,Demo Choco Brown,1,"3 years parts, 1 year labor (Free)",CreditCard ,198.88,3098.88,3098.88,0.00,Randy Costales,909-772-2957,,,Ship as soon as possible
100336,9/2/2017 1:17:43 AM,LA County Fair 9/1-24 (CA),Mei Kang,DWA-9100DWA-9100CH-DEMO,Legacy,Demo Choco Brown,1,"3 years parts, 1 year labor (Free)",Synchrony ,208.13,3208.13,3208.13,0.00,NADINE ZARRINKOUH,951-333-7986,,,Second Floor Delivery
100337,9/2/2017 4:23:39 PM,Washington State Fair 9/1-24 (WA),Kristy Tran,DWA-9150USJ-9150CH-DEMO,Legacy 3D,Demo Choco Brown,1,"5 years parts, 3 years labor ($700)",COD CreditCard,267.90,3867.90,3867.90,0.00,Geri Cooper,206-242-0206,,,"Showplex Invoice 1
$500 Square #8CLv
We charged 9.9% Tax 
Total: $3956.40
Deposit: $500
Remaining: $3456.40"
100338,9/2/2017 4:34:08 PM,Washington State Fair 9/1-24 (WA),Tom Nguyen,DWA-9150USJ-9150CH-DEMO,Legacy 3D,Demo Choco Brown,1,"5 years parts, 3 years labor ($700)",Synchrony ,305.50,4305.50,4305.50,0.00,Lucinda Bryant,253-326-9391,,,"Showplex Invoice 2 
PLEASE Deliver BEFORE September 10th 
Waived Tax
Synchrony $4000 @ 24 months
#001044"
100339,9/2/2017 4:41:31 PM,Washington State Fair 9/1-24 (WA),Ruben Cuatrona,DWA-9150USJ-9150BL-DEMO,Legacy 3D,Demo Black,1,"5 years parts, 3 years labor ($700)",COD CreditCard,305.50,4305.50,4305.50,0.00,Tom Weber,425-888-4851,,,"Showplex Invoice 3
PLEASE Deliver NEXT WEEK 
Prefer Weekday Delivery - Call first 
Waived Tax
Total: $4000
Deposit: $1000
Remaining: $3000"
100340,9/2/2017 4:52:20 PM,Washington State Fair 9/1-24 (WA),Christoper Richard Williams,DWA-9150USJ-9150BL,Legacy 3D,Black,1,"5 years parts, 3 years labor ($700)",CreditCard ,361.90,4961.90,4961.90,0.00,Jane Schultz,724-630-4011,,,"Invoice 4
PLEASE Deliver Tourmaline Pad with Chair 
Total: $5055.40
Remaining: 0"
100340,9/2/2017 4:52:20 PM,Washington State Fair 9/1-24 (WA),Christoper Richard Williams,,Tourmaline Pad for Lagacy 3D,,1,no warranty,CreditCard ,361.90,4961.90,4961.90,0.00,Jane Schultz,724-630-4011,,,"Invoice 4
PLEASE Deliver Tourmaline Pad with Chair 
Total: $5055.40
Remaining: 0"
100341,9/2/2017 4:58:44 PM,Evergreen State Fair 8/24-9/4 (WA),Joseph Chan,DWA-9100DWA-9100CH-DEMO,Legacy,Demo Choco Brown,1,"3 years parts, 3 years labor ($400)",CreditCard ,262.20,3862.20,3862.20,0.00,Barb Sankey,425-330-8440,,,
100342,9/2/2017 5:04:04 PM,Washington State Fair 9/1-24 (WA),Phuoc Van,DWA-9150USJ-9150BL,Legacy 3D,Black,1,"5 years parts, 3 years labor ($700)",COD CreditCard,361.90,4961.90,4961.90,0.00,Brian Nokes,425-366-7697,,,"Invoice 5 
Total: $5055.40 
Deposit: $300 Square #eyPk 
Remaining: $4755.40"
100343,9/2/2017 5:21:20 PM,Washington State Fair 9/1-24 (WA),Laser Howell,DWA-9060USJ-9060BR-DEMO,Relax2Zero 3D,Demo Choco Brown,1,"5 years parts, 3 years labor ($700)",Synchrony ,305.50,4305.50,4305.50,0.00,Sam Hankins,253-770-4245,,,"Invoice 6 
Waived Tax
Total: $4000
Synchrony $4000 @ 36 months #001320"
100344,9/2/2017 5:36:23 PM,LA County Fair 9/1-24 (CA),Mei Kang,DWA-9100DWA-9100CH,Legacy,Choco Brown,1,"3 years parts, 1 year labor (Free)",CreditCard COD,263.63,3863.63,3863.63,0.00,Test Test,3101231234,,,Ship a chair after 9/22
100344,9/2/2017 5:36:23 PM,LA County Fair 9/1-24 (CA),Mei Kang,,Tourmaline Pad for Lagacy,,1,no warranty,CreditCard COD,263.63,3863.63,3863.63,0.00,Test Test,3101231234,,,Ship a chair after 9/22
100345,9/2/2017 5:50:06 PM,Washington State Fair 9/1-24 (WA),Tom Nguyen,DWA-9060USJ-9060BR-DEMO,Relax2Zero 3D,Demo Choco Brown,1,"5 years parts, 3 years labor ($700)",Synchrony CreditCard,286.70,4086.70,4086.70,0.00,Richard Callaham,505-385-8411,,,"Invoice 7 
Waived Tax 
Total: $3800 
Synchrony $3500 @ 36 months 
Remaining: $300 C.O.D."
100346,9/2/2017 7:18:40 PM,Health&Wellness Factory AGM (CA),Jessica Phung,DWA-9150USJ-9150BL,Legacy 3D,Black,1,"3 years parts, 1 year labor (Free)",Synchrony ,319.38,4719.38,4719.38,0.00,Cuc Nguyen,5617039806,,,
100346,9/2/2017 7:18:40 PM,Health&Wellness Factory AGM (CA),Jessica Phung,,Chair Pad for Lagacy 3D,,1,no warranty,Synchrony ,319.38,4719.38,4719.38,0.00,Cuc Nguyen,5617039806,,,
100346,9/2/2017 7:18:40 PM,Health&Wellness Factory AGM (CA),Jessica Phung,,Daiwa Blanket,,1,no warranty,Synchrony ,319.38,4719.38,4719.38,0.00,Cuc Nguyen,5617039806,,,
100346,9/2/2017 7:18:40 PM,Health&Wellness Factory AGM (CA),Jessica Phung,,Foot Pads for Lagacy 3D,,1,no warranty,Synchrony ,319.38,4719.38,4719.38,0.00,Cuc Nguyen,5617039806,,,
100347,9/2/2017 8:21:04 PM,Health&Wellness Factory AGM (CA),Jessica Phung,DWA-9150USJ-9150CH,Legacy 3D,Choco Brown,1,"3 years parts, 1 year labor (Free)",Synchrony ,319.38,4719.38,4719.38,0.00,Sau Coc Thong,8583978905,,,
100347,9/2/2017 8:21:04 PM,Health&Wellness Factory AGM (CA),Jessica Phung,,Chair Pad for Lagacy 3D,,1,no warranty,Synchrony ,319.38,4719.38,4719.38,0.00,Sau Coc Thong,8583978905,,,
100347,9/2/2017 8:21:04 PM,Health&Wellness Factory AGM (CA),Jessica Phung,,Foot Pads for Lagacy 3D,,1,no warranty,Synchrony ,319.38,4719.38,4719.38,0.00,Sau Coc Thong,8583978905,,,
100348,9/2/2017 9:13:25 PM,LA County Fair 9/1-24 (CA),Kaz Ohashi,DWA-9100DWA-9100CH-DEMO,Legacy,Demo Choco Brown,1,"3 years parts, 1 year labor (Free)",CreditCard ,207.20,3197.20,3197.20,0.00,Jimmy Retana,9094555765,,,
100349,9/2/2017 9:17:46 PM,Evergreen State Fair 8/24-9/4 (WA),Joseph Chan,DWA-9060USJ-9060BL-DEMO,Relax2Zero 3D,Demo Black,1,"3 years parts, 3 years labor ($400)",CreditCard ,267.72,3927.72,3927.72,0.00,Claudia Dodel,206-992-9533,,,Total charge is $4000.00
100350,9/2/2017 10:23:32 PM,Health&Wellness Factory AGM (CA),Jessica Phung,DWA-9150USJ-9150CH,Legacy 3D,Choco Brown,1,"3 years parts, 1 year labor (Free)",COD ,319.38,4719.38,4719.38,0.00,John Smith,1111111111,,,
100350,9/2/2017 10:23:32 PM,Health&Wellness Factory AGM (CA),Jessica Phung,,Chair Pad for Lagacy 3D,,1,no warranty,COD ,319.38,4719.38,4719.38,0.00,John Smith,1111111111,,,
100351,9/3/2017 4:11:55 PM,Washington State Fair 9/1-24 (WA),Ruben Cuatrona,DWA-9150USJ-9150CH-DEMO,Legacy 3D,Demo Choco Brown,1,"5 years parts, 3 years labor ($700)",Synchrony ,305.50,4305.50,4305.50,0.00,Mary Miller,360-832-8930,,,"Invoice 9 
PLEASE Deliver Tuesday or Wednesday IF Thursday or Friday then AFTER 3pm
Waived Tax
Synchrony $4000 @ 36 months #002621"
100352,9/3/2017 4:19:47 PM,Washington State Fair 9/1-24 (WA),Tom Nguyen,DWA-9150USJ-9150CH,Legacy 3D,Choco Brown,1,"5 years parts, 3 years labor ($700)",CreditCard COD,324.30,4524.30,4524.30,0.00,Terri Vaughn,253-377-8619,,,"Invoice 10 
Waived Tax 
Remaining: $3700"
100353,9/3/2017 4:34:06 PM,Washington State Fair 9/1-24 (WA),Kristy Tran,DWA-9150USJ-9150BL,Legacy 3D,Black,1,"5 years parts, 3 years labor ($700)",Synchrony ,333.70,4633.70,4633.70,0.00,Ronald & Pamela Greene,425-268-9709,,,"Invoice 11 
Waived Tax
Synchrony $4300 @ 36 months #002934"
100354,9/3/2017 4:41:22 PM,Washington State Fair 9/1-24 (WA),Ruben Cuatrona,DWA-9150USJ-9150BL,Legacy 3D,Black,1,"5 years parts, 3 years labor ($700)",CreditCard ,305.50,4305.50,4305.50,0.00,Robert Breynaert,425-442-1143,,,"Invoice 12 
PLEASE Deliver on Friday, September 8 (Birthday) @ 3pm or later 
Waived Tax"
100355,9/3/2017 4:47:51 PM,Washington State Fair 9/1-24 (WA),Larhonda Ingram,DWA-9060USJ-9060BR,Relax2Zero 3D,Choco Brown,1,"5 years parts, 3 years labor ($700)",CreditCard COD,305.50,4305.50,4305.50,0.00,Tara Kleca,253-719-7897,,,"Invoice 13 
Waived Tax 
Remaining: $3500 (CASH on Delivery)"
100356,9/3/2017 5:03:48 PM,Washington State Fair 9/1-24 (WA),Scott Ishikawa,DWA-9060USJ-9060BL,Relax2Zero 3D,Black,1,"5 years parts, 3 years labor ($700)",CreditCard COD,361.90,4961.90,4961.90,0.00,James Young,925-383-3626,,,"Invoice 14 
Tax: 9.4% $432.40
Total: $5032.40
Deposit: $100
Remaining: $4932.40"
100357,9/3/2017 5:12:52 PM,Washington State Fair 9/1-24 (WA),Laser Howell,DWA-9060USJ-9060BR,Relax2Zero 3D,Choco Brown,1,"5 years parts, 3 years labor ($700)",CreditCard COD,305.50,4305.50,4305.50,0.00,Susan Dones,253-677-5293,,,"Invoice 15 
PLEASE Deliver September 12
Waived Tax
Remaining: $3600"
100358,9/3/2017 5:21:39 PM,LA County Fair 9/1-24 (CA),Kohei Uno,USJ-9000USJ-9000KU,Relax2Zero 1.0,Black,1,"3 years parts, 1 year labor (Free)",Synchrony ,254.38,3754.38,3754.38,0.00,George Hernandez,562-612-8112,,,
100358,9/3/2017 5:21:39 PM,LA County Fair 9/1-24 (CA),Kohei Uno,,Daiwa Blanket,,1,no warranty,Synchrony ,254.38,3754.38,3754.38,0.00,George Hernandez,562-612-8112,,,
100358,9/3/2017 5:21:39 PM,LA County Fair 9/1-24 (CA),Kohei Uno,,Chair Pad for Relax2Zero 1.0,,1,no warranty,Synchrony ,254.38,3754.38,3754.38,0.00,George Hernandez,562-612-8112,,,
100358,9/3/2017 5:21:39 PM,LA County Fair 9/1-24 (CA),Kohei Uno,,Foot Pads for Relax2Zero 1.0,,1,no warranty,Synchrony ,254.38,3754.38,3754.38,0.00,George Hernandez,562-612-8112,,,
100359,9/3/2017 6:37:02 PM,Sam's Club #4998 8/17-27 (FL),Fnu Pierce Wusilong,USJ-9050USJ-9050BR,Relax2Zero 2.0 for Sam's,Brown,1,"3 years parts, 1 year labor (Free)",CreditCard ,223.93,3422.93,3422.93,0.00,Joe Cruz,9046515468,,,"Shipping new one to customer as the final day sale discount. Demo price, but shipping new one. Pierce covering Mitch in Jacksonville Sam's Club"
100360,9/3/2017 9:02:11 PM,LA County Fair 9/1-24 (CA),Ting Ritchie,DWA-9100DWA-9100CR-DEMO,Legacy,Demo Cream,1,"3 years parts, 1 year labor (Free)",CreditCard ,223.85,3393.85,3393.85,0.00,Juam Rodriguez,909-212-1529,,,Please delivery ASAP
100361,9/3/2017 9:06:53 PM,LA County Fair 9/1-24 (CA),David Wang,DWA-9400Pegasus-BR-DEMO,Pegasus,Demo Choco Brown,1,"3 years parts, 1 year labor (Free)",Synchrony ,304.33,4344.33,4344.33,,Laurie Werk,9516379172,,,
100362,9/3/2017 9:43:30 PM,Health&Wellness Factory AGM (CA),Jessica Phung,,Chair Pad for Relax2Zero 1.0,,1,no warranty,Cash ,166.25,2816.25,2816.25,,Hoa Huynh,858-484-8415,,,The balance will be COD ($1500)
100362,9/3/2017 9:43:30 PM,Health&Wellness Factory AGM (CA),Jessica Phung,,Foot Pads for Relax2Zero 1.0,,1,no warranty,Cash ,166.25,2816.25,2816.25,,Hoa Huynh,858-484-8415,,,The balance will be COD ($1500)
100362,9/3/2017 9:43:30 PM,Health&Wellness Factory AGM (CA),Jessica Phung,USJ-9000USJ-9000CR,Relax2Zero 1.0,Cream,1,"3 years parts, 1 year labor (Free)",Cash ,166.25,2816.25,2816.25,,Hoa Huynh,858-484-8415,,,The balance will be COD ($1500)
100363,9/4/2017 2:06:06 AM,LA County Fair 9/1-24 (CA),David Wang,DWA-9100DWA-9100CH-DEMO,Legacy,Demo Choco Brown,1,"3 years parts, 1 year labor (Free)",Synchrony ,223.85,3393.85,3393.85,0.00,Cathy Yoel,8185716666,,,
100363,9/4/2017 2:06:06 AM,LA County Fair 9/1-24 (CA),David Wang,,Foot Pads for Lagacy,,1,no warranty,Synchrony ,223.85,3393.85,3393.85,0.00,Cathy Yoel,8185716666,,,
100364,9/4/2017 3:31:28 AM,LA County Fair 9/1-24 (CA),Mei Kang,DWA-9100DWA-9100CH-DEMO,Legacy,Demo Choco Brown,1,"3 years parts, 1 year labor (Free)",Synchrony ,208.13,3208.13,3208.13,0.00,Giselle Zarrinkouh,9513337986,,,Not process yet
100365,9/4/2017 3:42:36 AM,LA County Fair 9/1-24 (CA),Mei Kang,DWA-9100DWA-9100BL,Legacy,Black,1,"3 years parts, 1 year labor (Free)",Synchrony ,218.30,3328.30,3328.30,0.00,Lucas Blankenship,7608873575,,,#003242
100366,9/4/2017 4:18:34 AM,LA County Fair 9/1-24 (CA),Ting Ritchie,DWA-9150USJ-9150BL,Legacy 3D,Black,1,"3 years parts, 1 year labor (Free)",Synchrony ,263.63,3863.63,3863.63,0.00,Amy Gray,7608854182,,,
100367,9/4/2017 4:49:31 PM,Washington State Fair 9/1-24 (WA),Kristy Tran,DWA-9150USJ-9150CH,Legacy 3D,Choco Brown,1,"5 years parts, 3 years labor ($700)",CreditCard ,361.90,4961.90,4961.90,0.00,Ken Hebert,253-631-5424,,,
100368,9/4/2017 4:58:18 PM,Washington State Fair 9/1-24 (WA),Kristy Tran,DWA-9150USJ-9150CH,Legacy 3D,Choco Brown,1,"5 years parts, 3 years labor ($700)",Synchrony ,361.90,4961.90,4961.90,0.00,Nathalie Watsek,360-798-8082,,,Invoice 17
100369,9/4/2017 5:12:18 PM,Washington State Fair 9/1-24 (WA),Kamille Gines,DWA-9150USJ-9150BL,Legacy 3D,Black,1,"5 years parts, 3 years labor ($700)",Synchrony ,305.50,4305.50,4305.50,0.00,Charlie Megia,408-591-8386,,,"Invoice 18 
Auth#: 003793 
Waived Tax
PLEASE Deliver Tourmaline Pad"
100369,9/4/2017 5:12:18 PM,Washington State Fair 9/1-24 (WA),Kamille Gines,,Tourmaline Pad for Lagacy 3D,,1,no warranty,Synchrony ,305.50,4305.50,4305.50,0.00,Charlie Megia,408-591-8386,,,"Invoice 18 
Auth#: 003793 
Waived Tax
PLEASE Deliver Tourmaline Pad"
100370,9/4/2017 5:20:14 PM,Washington State Fair 9/1-24 (WA),Kamille Gines,DWA-9150USJ-9150BL,Legacy 3D,Black,1,"5 years parts, 3 years labor ($700)",Synchrony ,305.50,4305.50,4305.50,0.00,Marnie Gonzales,206-396-4805,,,"Invoice 19 
Auth#: 003556 
Waived Tax
PLEASE Deliver Tourmaline Pad"
100370,9/4/2017 5:20:14 PM,Washington State Fair 9/1-24 (WA),Kamille Gines,,Tourmaline Pad for Lagacy 3D,,1,no warranty,Synchrony ,305.50,4305.50,4305.50,0.00,Marnie Gonzales,206-396-4805,,,"Invoice 19 
Auth#: 003556 
Waived Tax
PLEASE Deliver Tourmaline Pad"
100371,9/4/2017 5:25:26 PM,Washington State Fair 9/1-24 (WA),Tom Nguyen,DWA-9100DWA-9100BL-DEMO,Legacy,Demo Black,1,"5 years parts, 3 years labor ($700)",CreditCard ,211.50,3211.50,3211.50,0.00,Brian Baltierra,916-225-0564,,,"Invoice 20 
Waived Tax"
100372,9/4/2017 5:39:21 PM,Washington State Fair 9/1-24 (WA),Alex Brackelsberg,DWA-9150USJ-9150BL,Legacy 3D,Black,1,"5 years parts, 3 years labor ($700)",Synchrony CreditCard,361.90,4961.90,4961.90,,Meredith Blache,206-271-1600,,,"Invoice 21 
HOLD Order Until Beginning of OCTOBER 
We have NOT gone through to process the Synchrony 
They were approved for $3500 for 36 months. 
They will pay remaining with Credit Card. 
Please follow up.
Total: $4961.90
Synchrony: $3500 (OWE)
CC: $1461.90 (OWE)"
100373,9/4/2017 5:50:10 PM,Washington State Fair 9/1-24 (WA),Jennifer Tran,DWA-9150USJ-9150CH-DEMO,Legacy 3D,Demo Choco Brown,1,"5 years parts, 3 years labor ($700)",Synchrony ,305.50,4305.50,4305.50,0.00,Connie Ryerson,206-200-3180,,,"Invoice 22 
Auth#: 003016 
Remaining: 0"
100374,9/4/2017 5:56:13 PM,Washington State Fair 9/1-24 (WA),Christoper Richard Williams,DWA-9150USJ-9150BL,Legacy 3D,Black,1,"5 years parts, 3 years labor ($700)",CreditCard ,385.40,5235.40,5235.40,0.00,Daniel Kirby,253-507-7600,,,"Invoice 23 
Waived Tax"
100375,9/4/2017 6:02:25 PM,Washington State Fair 9/1-24 (WA),Kristy Tran,DWA-9150USJ-9150CH,Legacy 3D,Choco Brown,1,"5 years parts, 3 years labor ($700)",CreditCard COD,324.30,4524.30,4524.30,0.00,Bernard Tagalan,206-295-2769,,,"Invoice 24 
Waived Tax
Remaining: $3700"
100376,9/4/2017 6:13:31 PM,Washington State Fair 9/1-24 (WA),Jennifer Tran,DWA-9150USJ-9150BL,Legacy 3D,Black,2,"5 years parts, 3 years labor ($700)",CreditCard ,531.10,6931.10,6931.10,0.00,Desert Green Farms Inc. Mianecki,509-989-0404,,,"Invoice 25 & 26 (Invoice 27 is together as one purchase)
Waived Tax"
100377,9/4/2017 6:16:53 PM,LA County Fair 9/1-24 (CA),Kohei Uno,USJ-9000USJ-9000KU,Relax2Zero 1.0,Black,1,"3 years parts, 1 year labor (Free)",Synchrony ,254.38,3754.38,3754.38,0.00,Natalie Dick,951-467-9666,,,
100378,9/4/2017 6:22:04 PM,Washington State Fair 9/1-24 (WA),Jennifer Tran,DWA-9150USJ-9150BL,Legacy 3D,Black,1,"5 years parts, 3 years labor ($700)",CreditCard ,230.30,3430.30,3430.30,0.00,Dennis Fischer,509-899-3652,,,"Invoice 27 (Invoice 25 & 26 is together) 
Waived Tax"
100379,9/4/2017 6:33:17 PM,Washington State Fair 9/1-24 (WA),Ruben Cuatrona,DWA-9150USJ-9150BL,Legacy 3D,Black,1,"5 years parts, 3 years labor ($700)",Synchrony ,333.70,4633.70,4633.70,0.00,Brian Klein,206-280-7025,,,"Invoice 28 
Auth# 003269
PLEASE Deliver FRIDAYs only
Waived Tax"
100380,9/4/2017 6:40:12 PM,Washington State Fair 9/1-24 (WA),Christoper Richard Williams,DWA-9150USJ-9150CH,Legacy 3D,Choco Brown,1,"5 years parts, 3 years labor ($700)",CreditCard COD,361.90,4961.90,4961.90,,James Bliss,360-791-5709,,,"Invoice 29
New Address:
5680 W Cloquallum Rd. Shelton, WA 98584
Waived Tax
Deposit $500 is Refundable by October 15, 2017
They are in the process of closing on the new house and will pay remaining balance when complete.
Remaining: $4100
Please Follow up"
100381,9/4/2017 6:46:22 PM,Washington State Fair 9/1-24 (WA),Kristy Tran,DWA-9150USJ-9150CH-DEMO,Legacy 3D,Demo Choco Brown,1,"5 years parts, 3 years labor ($700)",Synchrony ,258.50,3758.50,3758.50,0.00,Adam Pegum,253-225-3945,,,"Invoice 30
Auth# 003938
PLEASE Delivery 1-2 weeks from Today (Latest is Sept. 17)
Waived Tax"
100382,9/4/2017 6:56:32 PM,Washington State Fair 9/1-24 (WA),Kamille Gines,DWA-9400Pegasus-BL,Pegasus,Black,1,"5 years parts, 3 years labor ($700)",Synchrony CreditCard,390.10,5290.10,5290.10,,John Lucier III,701-425-8404,,,"Invoice 31
HOLD Order Until next week 
We have NOT processed the Synchrony, it was approved for $1500 for 12 months
Waived Tax
COD: $3400
Remaining: $4900
Please follow up"
100383,9/4/2017 7:01:25 PM,Washington State Fair 9/1-24 (WA),Kamille Gines,DWA-9150USJ-9150CH,Legacy 3D,Choco Brown,1,"5 years parts, 3 years labor ($700)",Synchrony ,333.70,4633.70,4633.70,0.00,Roman Gonzales,916-765-2685,,,"Invoice 32 
Waived Tax"
100384,9/4/2017 7:10:29 PM,Washington State Fair 9/1-24 (WA),Kristy Tran,DWA-9150USJ-9150BL,Legacy 3D,Black,1,"5 years parts, 3 years labor ($700)",CreditCard ,338.40,4338.40,4338.40,0.00,Vitaily Topal,253-486-2978,,,"Invoice 33
Drop Shipping
Customer is planning on surprising his dad for Birthday
We will drop ship the chair in the box at this address and he will bring it to his father's place (different address) on his own to set up.
Waived Tax"
100385,9/4/2017 7:23:47 PM,Washington State Fair 9/1-24 (WA),Jennifer Tran,DWA-9100DWA-9100BL,Legacy,Black,1,"5 years parts, 3 years labor ($700)",CreditCard ,230.30,3430.30,3430.30,0.00,Robert Mina,425-345-9547,,,"Invoice 34
Waived Tax"
100386,9/4/2017 7:29:14 PM,Washington State Fair 9/1-24 (WA),Kamille Gines,DWA-9400Pegasus-BL,Pegasus,Black,1,"5 years parts, 3 years labor ($700)",Synchrony ,380.70,5180.70,5180.70,0.00,Aleta Gehrke,206-349-4751,,,"Invoice 35
Auth# 004764
PLEASE Deliver with Black Chair Cover
Waived Tax"
100387,9/4/2017 7:42:11 PM,Washington State Fair 9/1-24 (WA),Rodrigo Malabunga,DWA-9060USJ-9060BL,Relax2Zero 3D,Black,1,"3 years parts, 2 years labor ($200)",CreditCard ,371.30,5071.30,5071.30,0.00,Christeli Brunder,860-806-1056,,,"Invoice 36
PLEASE Update the Program System Chair 
**PLEASE Send or Email this Order to Chicago Branch ASAP!!**
Remaining: 0"
100388,9/4/2017 7:49:10 PM,Washington State Fair 9/1-24 (WA),Rodrigo Malabunga,USJ-9050USJ-9050BL,Relax2Zero 2.0,Black,1,"5 years parts, 3 years labor ($700)",CreditCard COD,211.50,3211.50,3211.50,0.00,Jeff Mucha,253-255-8239,,,"Invoice 37 
Waived Tax
Remaining: $2500 COD"
100389,9/4/2017 7:59:50 PM,Washington State Fair 9/1-24 (WA),Scott Ishikawa,DWA-9060USJ-9060BL,Relax2Zero 3D,Black,1,"5 years parts, 3 years labor ($700)",Cash CreditCard,361.90,4961.90,4961.90,,Sam Canfield,360-324-8061,,,"Invoice 38
PLEASE Call in 2 weeks
Waived Tax
Please follow up
Remaining: $4580"
100390,9/4/2017 8:07:28 PM,Washington State Fair 9/1-24 (WA),Larhonda Ingram,DWA-9150USJ-9150CH,Legacy 3D,Choco Brown,1,"5 years parts, 3 years labor ($700)",Synchrony ,333.70,4633.70,4633.70,0.00,Cathy Bennett,360-275-0328,,,"Invoice 39
**PLEASE Deliver in 2 weeks**
Waived Tax"
100391,9/4/2017 8:12:13 PM,Washington State Fair 9/1-24 (WA),Kamille Gines,DWA-9060USJ-9060BR-DEMO,Relax2Zero 3D,Demo Choco Brown,1,"5 years parts, 3 years labor ($700)",Synchrony ,305.50,4305.50,4305.50,0.00,Clifford Cox,360-763-3121,,,"Invoice 40
Waived Tax"
100392,9/4/2017 8:17:56 PM,Washington State Fair 9/1-24 (WA),Jennifer Tran,DWA-9150USJ-9150BL-DEMO,Legacy 3D,Demo Black,1,"5 years parts, 3 years labor ($700)",CreditCard ,267.90,3867.90,3867.90,0.00,Jan Miller,360-479-2658,,,"Invoice 41
Waived Tax"
100393,9/4/2017 8:23:13 PM,Washington State Fair 9/1-24 (WA),Jennifer Tran,DWA-9150USJ-9150BL-DEMO,Legacy 3D,Demo Black,1,"5 years parts, 3 years labor ($700)",Synchrony ,277.30,3977.30,3977.30,0.00,Debbie Tateishi,808-398-5130,,,"Invoice 42
Auth #004329
Waived Tax"
100394,9/4/2017 8:27:53 PM,Washington State Fair 9/1-24 (WA),Kamille Gines,DWA-9150USJ-9150CH,Legacy 3D,Choco Brown,1,"5 years parts, 3 years labor ($700)",CreditCard ,343.10,4743.10,4743.10,0.00,Richard and Charlene Spring,253-588-5207,,,"Invoice 43
Waived Tax"
100395,9/4/2017 11:57:21 PM,Health&Wellness Factory AGM (CA),Jessica Phung,DWA-9150USJ-9150CH,Legacy 3D,Choco Brown,1,"3 years parts, 1 year labor (Free)",PURCHASEORDER ,301.88,4501.88,4501.88,,Tuyen Thanh Phan,6194105542,,,
100395,9/4/2017 11:57:21 PM,Health&Wellness Factory AGM (CA),Jessica Phung,,Chair Pad for Lagacy 3D,,1,no warranty,PURCHASEORDER ,301.88,4501.88,4501.88,,Tuyen Thanh Phan,6194105542,,,
100395,9/4/2017 11:57:21 PM,Health&Wellness Factory AGM (CA),Jessica Phung,,Foot Pads for Lagacy 3D,,1,no warranty,PURCHASEORDER ,301.88,4501.88,4501.88,,Tuyen Thanh Phan,6194105542,,,
100396,9/5/2017 12:33:01 AM,Health&Wellness Factory AGM (CA),Jessica Phung,DWA-9150USJ-9150CH,Legacy 3D,Choco Brown,1,"3 years parts, 1 year labor (Free)",CreditCard ,301.88,4501.88,4501.88,,Luong Thi,9095519084,,,
100396,9/5/2017 12:33:01 AM,Health&Wellness Factory AGM (CA),Jessica Phung,,Chair Pad for Lagacy 3D,,1,no warranty,CreditCard ,301.88,4501.88,4501.88,,Luong Thi,9095519084,,,
100396,9/5/2017 12:33:01 AM,Health&Wellness Factory AGM (CA),Jessica Phung,,Foot Pads for Lagacy 3D,,1,no warranty,CreditCard ,301.88,4501.88,4501.88,,Luong Thi,9095519084,,,
100397,9/5/2017 3:09:35 AM,LA County Fair 9/1-24 (CA),Ting Ritchie,DWA-9100DWA-9100CH-DEMO,Legacy,Demo Choco Brown,1,"3 years parts, 1 year labor (Free)",CreditCard ,207.20,3197.20,3197.20,0.00,Carl Levinger,3103673212,,,"Charged customer $3200
Trade in discount, please make sure to get the customer's old one when delivery."
100398,9/5/2017 3:18:17 AM,Washington State Fair 9/1-24 (WA),Christoper Richard Williams,DWA-9150USJ-9150CH,Legacy 3D,Choco Brown,1,"5 years parts, 3 years labor ($700)",Synchrony ,361.90,4961.90,4961.90,0.00,George Close,360-689-1453,,,"Invoice 44
Auth #004156
Waived Tax"
100399,9/5/2017 3:23:44 AM,Washington State Fair 9/1-24 (WA),Tom Nguyen,DWA-9100DWA-9100BL,Legacy,Black,1,"5 years parts, 3 years labor ($700)",Synchrony ,267.90,3867.90,3867.90,0.00,Jose Martinez,206-859-7549,,,"Invoice 45
Auth #004043
Waived Tax"
100400,9/5/2017 3:30:05 AM,Washington State Fair 9/1-24 (WA),Kristy Tran,DWA-9400Pegasus-BL-DEMO,Pegasus,Demo Black,1,"5 years parts, 3 years labor ($700)",Synchrony ,380.70,5180.70,5180.70,0.00,Eric Daniels,253-348-9110,,,"Invoice 46
Auth #004271
Waived Tax"
100401,9/5/2017 3:34:59 AM,Washington State Fair 9/1-24 (WA),Kristy Tran,DWA-9150USJ-9150CH,Legacy 3D,Choco Brown,1,"5 years parts, 1 year labor ($300)",CreditCard ,305.50,4305.50,4305.50,0.00,Bryce VanDevender,253-219-1779,,,"Invoice 47
Waived Tax"
100402,9/5/2017 3:40:52 AM,Washington State Fair 9/1-24 (WA),Tom Nguyen,DWA-9150USJ-9150CH,Legacy 3D,Choco Brown,1,"5 years parts, 3 years labor ($700)",Synchrony CreditCard,305.50,4305.50,4305.50,0.00,Dale Anderson,602-386-8795,,,"Invoice 48
Waived Tax
Remaining: $500 on Delivery"
100403,9/5/2017 3:44:37 AM,Washington State Fair 9/1-24 (WA),Phuoc Van,DWA-9150USJ-9150BL-DEMO,Legacy 3D,Demo Black,1,"5 years parts, 3 years labor ($700)",CreditCard ,305.50,4305.50,4305.50,0.00,Jennifer Dean,206-445-5672,,,"Invoice 49
Waived Tax"
100404,9/5/2017 3:50:21 AM,Washington State Fair 9/1-24 (WA),Kamille Gines,DWA-9150USJ-9150CH,Legacy 3D,Choco Brown,1,"5 years parts, 3 years labor ($700)",CreditCard ,343.10,4743.10,4743.10,0.00,Jerry Thatcher,253-459-2944,,,"Invoice 50
Waived Tax"
100405,9/5/2017 3:57:55 AM,Washington State Fair 9/1-24 (WA),Ruben Cuatrona,DWA-9400Pegasus-BR,Pegasus,Choco Brown,1,"5 years parts, 3 years labor ($700)",Synchrony ,399.50,5399.50,5399.50,0.00,Elsa Kilburn,253-732-4004,,,"Invoice 51 
Waived Tax
Auth #004426"
100406,9/5/2017 4:02:17 AM,Washington State Fair 9/1-24 (WA),Phuoc Van,DWA-9150USJ-9150BL,Legacy 3D,Black,1,"5 years parts, 3 years labor ($700)",Synchrony ,333.70,4633.70,4633.70,0.00,Janet Bernert,425-306-3412,,,"Invoice 52 
Waived Tax
Auth #004819"
100407,9/5/2017 4:06:36 AM,Washington State Fair 9/1-24 (WA),Ruben Cuatrona,DWA-9150USJ-9150CH,Legacy 3D,Choco Brown,1,"5 years parts, 3 years labor ($700)",Synchrony ,333.70,4633.70,4633.70,0.00,Jay Hall,360-450-1065,,,"Invoice 53
Waived Tax
Auth #004762"
100408,9/5/2017 4:24:38 AM,Washington State Fair 9/1-24 (WA),Rodrigo Malabunga,DWA-9060USJ-9060BR,Relax2Zero 3D,Choco Brown,1,"5 years parts, 3 years labor ($700)",Synchrony ,324.30,4524.30,4524.30,0.00,Robert and Yeonsun Park,253-292-7907,,,"Invoice 54
Waived Tax
Auth #004935"
100409,9/5/2017 4:34:30 AM,Washington State Fair 9/1-24 (WA),Scott Ishikawa,DWA-9060USJ-9060BL,Relax2Zero 3D,Black,2,"5 years parts, 3 years labor ($700)",Synchrony ,582.80,7532.80,7532.80,0.00,Aung Aung,253-370-1517,,,"Invoice 55 & 56
Waived Tax
Auth #004481
PLEASE Deliver one chair to 2nd Address: Nan Moe Moe Aye 
4019 189th Pl SW 
Lynnwood, WA 98036
WARRANTY Correction: 3yrs parts and labor"
100410,9/5/2017 4:11:19 PM,LA County Fair 9/1-24 (CA),Kohei Uno,USJ-9000USJ-9000KU,Relax2Zero 1.0,Black,1,"3 years parts, 1 year labor (Free)",Synchrony ,208.13,3208.13,3208.13,0.00,Agustin Caudillo,951-323-7690,,,
100411,9/5/2017 4:23:53 PM,LA County Fair 9/1-24 (CA),Kohei Uno,USJ-9000USJ-9000KU,Relax2Zero 1.0,Black,1,"3 years parts, 1 year labor (Free)",Synchrony ,190.55,3000.55,3000.55,0.00,Javier Romero,818-578-3503,,,Customer purchased chair for $3000 out the door. Please discount the extra $0.55 from the bill.
100411,9/5/2017 4:23:53 PM,LA County Fair 9/1-24 (CA),Kohei Uno,,Daiwa Blanket,,1,no warranty,Synchrony ,190.55,3000.55,3000.55,0.00,Javier Romero,818-578-3503,,,Customer purchased chair for $3000 out the door. Please discount the extra $0.55 from the bill.
100412,9/5/2017 4:32:24 PM,LA County Fair 9/1-24 (CA),Kohei Uno,USJ-9000USJ-9000BR,Relax2Zero 1.0,Brown,1,"3 years parts, 3 years labor ($400)",CreditCard ,254.38,3754.38,3754.38,0.00,Stuart Sam,310-738-3861,,,
100413,9/5/2017 6:44:56 PM,LA County Fair 9/1-24 (CA),Mei Kang,DWA-9100DWA-9100BL-DEMO,Legacy,Demo Black,1,"3 years parts, 1 year labor (Free)",Synchrony ,208.13,3408.13,3408.13,0.00,Jeanne Tso,3108083452,,,
100414,9/5/2017 7:04:44 PM,Health and Wellness Carrollton Store 2017 (TX),Mario Higareda,DWA-9100DWA-9100BU,Legacy,Blue,1,"3 years parts, 1 year labor (Free)",CreditCard ,209.55,3499.55,3499.55,,Lee Luong,2145173457,,,
100415,9/5/2017 7:14:44 PM,LA County Fair 9/1-24 (CA),Mei Kang,DWA-9100DWA-9100BL,Legacy,Black,1,"3 years parts, 1 year labor (Free)",Synchrony CreditCard,277.50,4227.50,4227.50,0.00,Victor Ontiveros,6264825307,,,"Synchrony approved $3500, Pls Charge COD $ $351, the customer confirmed already"
100416,9/5/2017 7:37:49 PM,LA County Fair 9/1-24 (CA),Ting Ritchie,DWA-9100DWA-9100CH-DEMO,Legacy,Demo Choco Brown,1,"3 years parts, 1 year labor (Free)",CreditCard ,231.25,3481.25,3481.25,0.00,Carl Levinger,3103673212,,,
100417,9/5/2017 1:21:05 PM,Health and Wellness Plano Store 2017 (TX),Tangyu Jin,DWA-9060USJ-9060BR,Relax2Zero 3D,Choco Brown,1,"3 years parts, 1 year labor (Free)",Synchrony ,396.00,5946.00,5946.00,0.00,Willi Xiang,2145972043,,,
100418,9/5/2017 2:30:51 PM,Health and Wellness Carrollton Store 2017 (TX),Molly Zhao,DWA-9060USJ-9060BR,Relax2Zero 3D,Choco Brown,1,"3 years parts, 1 year labor (Free)",CreditCard ,243.38,3943.38,3943.38,0.00,NGOc Trinh,4692315638,,,
100419,9/5/2017 2:41:58 PM,LA County Fair 9/1-24 (CA),Mei Kang,DWA-9400Pegasus-BL-DEMO,Pegasus,Demo Black,1,"3 years parts, 1 year labor (Free)",CreditCard COD,304.33,4344.33,4344.33,0.00,Wayne Luster,702-286-8932,,,
100419,9/5/2017 2:41:58 PM,LA County Fair 9/1-24 (CA),Mei Kang,,Daiwa Blanket,,1,no warranty,CreditCard COD,304.33,4344.33,4344.33,0.00,Wayne Luster,702-286-8932,,,
100420,9/5/2017 5:24:00 PM,Health&Wellness Factory AGM (CA),Jessica Phung,DWA-9150USJ-9150CH,Legacy 3D,Choco Brown,1,"3 years parts, 1 year labor (Free)",Synchrony ,319.38,4719.38,4719.38,,Sau Coc Thong,8583978905,,,"Order Date: 09/02/2017
Syncrony processed for $4,720.00"
100420,9/5/2017 5:24:00 PM,Health&Wellness Factory AGM (CA),Jessica Phung,,Chair Pad for Lagacy 3D,,1,no warranty,Synchrony ,319.38,4719.38,4719.38,,Sau Coc Thong,8583978905,,,"Order Date: 09/02/2017
Syncrony processed for $4,720.00"
100420,9/5/2017 5:24:00 PM,Health&Wellness Factory AGM (CA),Jessica Phung,,Foot Pads for Lagacy 3D,,1,no warranty,Synchrony ,319.38,4719.38,4719.38,,Sau Coc Thong,8583978905,,,"Order Date: 09/02/2017
Syncrony processed for $4,720.00"
100421,9/6/2017 10:35:10 AM,Evergreen State Fair 8/24-9/4 (WA),Joseph Chan,DWA-9060USJ-9060BR,Relax2Zero 3D,Choco Brown,1,"3 years parts, 3 years labor ($400)",COD ,350.52,4910.52,4910.52,0.00,Candance Robles,253-318-7817,,,Customer will call for deposit
100422,9/6/2017 10:42:01 AM,Evergreen State Fair 8/24-9/4 (WA),Joseph Chan,DWA-9060USJ-9060BL,Relax2Zero 3D,Black,1,"3 years parts, 3 years labor ($400)",CreditCard Synchrony,350.52,4910.52,4910.52,0.00,David & Cheryl Travis,360-319-5038,,,"Customer needs 2 weeks before running Synchrony, total sales is $4914"
100423,9/6/2017 10:47:40 AM,Evergreen State Fair 8/24-9/4 (WA),Joseph Chan,DWA-9060USJ-9060BR-DEMO,Relax2Zero 3D,Demo Choco Brown,1,"3 years parts, 3 years labor ($400)",Synchrony ,286.12,4146.12,4146.12,,Sandy Koch,425-344-7769,,,
100424,9/6/2017 10:54:03 AM,Evergreen State Fair 8/24-9/4 (WA),Joseph Chan,DWA-9100DWA-9100CH,Legacy,Choco Brown,1,"3 years parts, 3 years labor ($400)",CreditCard COD,256.68,3796.68,3796.68,,Kirk Fisher,425-387-5420,,,"Deposit of $100 refundable if customer change mind within 90 days, total sales is $3800.00"
100425,9/6/2017 6:02:06 PM,LA County Fair 9/1-24 (CA),Kohei Uno,SSRT-1SSRT-1-BR,Serenity,Choco Brown,1,"3 years parts, 3 years labor ($400)",CreditCard ,226.63,3426.63,3426.63,,Robert Gursslin,909-518-8334,,,
100426,9/6/2017 6:06:02 PM,LA County Fair 9/1-24 (CA),Kohei Uno,SSRT-1SSRT-1-BL,Serenity,Black,1,"3 years parts, 3 years labor ($400)",CreditCard ,254.38,3754.38,3754.38,,Sharee Moore,661-977-1459,,,
100426,9/6/2017 6:06:02 PM,LA County Fair 9/1-24 (CA),Kohei Uno,,Daiwa Blanket,,1,no warranty,CreditCard ,254.38,3754.38,3754.38,,Sharee Moore,661-977-1459,,,
100427,9/6/2017 9:03:14 PM,LA County Fair 9/1-24 (CA),Ting Ritchie,DWA-9100DWA-9100CH,Legacy,Choco Brown,1,"3 years parts, 3 years labor ($400)",Synchrony ,266.40,3896.40,3896.40,,Troy Abbott,3106222711,,,
100428,9/7/2017 8:07:09 AM,LA County Fair 9/1-24 (CA),Mei Kang,DWA-9400Pegasus-BL,Pegasus,Black,1,"3 years parts, 3 years labor ($400)",CreditCard ,407.00,5557.00,5557.00,0.00,Dennis Smith,6264855551,,,"Requested to fix our Sanyo chair , they bought from us before, leg problem"
100428,9/7/2017 8:07:09 AM,LA County Fair 9/1-24 (CA),Mei Kang,,Tourmaline Pad for Pegasus,,1,no warranty,CreditCard ,407.00,5557.00,5557.00,0.00,Dennis Smith,6264855551,,,"Requested to fix our Sanyo chair , they bought from us before, leg problem"
100429,9/7/2017 11:07:28 AM,LA County Fair 9/1-24 (CA),Ting Ritchie,DWA-9100DWA-9100CH,Legacy,Choco Brown,1,"3 years parts, 3 years labor ($400)",Synchrony Cash,268.25,3918.25,3918.25,,Troy Abbott,3106222711,,,Approved aut #006679
100430,9/7/2017 12:26:40 PM,LA County Fair 9/1-24 (CA),Mei Kang,DWA-9100DWA-9100CH-DEMO,Legacy,Demo Choco Brown,1,"3 years parts, 3 years labor ($400)",COD CreditCard,215.53,3295.53,3295.53,,Titoanits Rodriguo,3232659589,,,
100430,9/7/2017 12:26:40 PM,LA County Fair 9/1-24 (CA),Mei Kang,,Tourmaline Pad for Lagacy,,1,no warranty,COD CreditCard,215.53,3295.53,3295.53,,Titoanits Rodriguo,3232659589,,,
100431,9/7/2017 5:35:59 PM,New Mexico State Fair 9/7-9/16 (TX),Xiongxiaojun Ji,SSRT-1SSRT-1-BL-DEMO,Serenity,Demo Black,1,"3 years parts, 1 year labor (Free)",CreditCard ,187.88,3442.88,3442.88,,"Pauline, A Chavez",5059302687,,,"The actual value we charged the customer is $3440.00
But this is the closest value we can get through the new system
So the customer owe nothing."
100432,9/7/2017 8:09:10 PM,LA County Fair 9/1-24 (CA),David Wang,DWA-9100DWA-9100BL-DEMO,Legacy,Demo Black,1,"3 years parts, 1 year labor (Free)",Synchrony ,206.28,3186.28,3186.28,,Marilyn Williams,3106398737,,,Auth# 007683
100433,9/7/2017 8:35:37 PM,Washington State Fair 9/1-24 (WA),Jennifer Tran,DWA-9150USJ-9150CH,Legacy 3D,Choco Brown,1,"5 years parts, 3 years labor ($700)",CreditCard ,340.28,4710.28,4710.28,,Darlene Johnson,253-709-6416,,,"Invoice 57 
Tax included
Remaining: 0"
100434,9/7/2017 8:53:58 PM,Washington State Fair 9/1-24 (WA),Larhonda Ingram,DWA-9100DWA-9100BL-DEMO,Legacy,Demo Black,1,"5 years parts, 3 years labor ($700)",Synchrony ,211.50,3211.50,3211.50,,Tony Xie,206-747-9122,,,"Invoice 58
Remaining: 0"
100435,9/7/2017 9:01:55 PM,Washington State Fair 9/1-24 (WA),Robert Shih,DWA-9060USJ-9060BR,Relax2Zero 3D,Choco Brown,1,"5 years parts, 3 years labor ($700)",Synchrony ,361.90,4961.90,4961.90,,Becky Bond,253-848-4299,,,"Invoice 59
Tax included
Total: $4600
Remaining: 0
Auth# 007055"
100436,9/7/2017 9:13:17 PM,Washington State Fair 9/1-24 (WA),Robert Shih,DWA-9060USJ-9060BR,Relax2Zero 3D,Choco Brown,1,"5 years parts, 3 years labor ($700)",Synchrony ,361.90,4961.90,4961.90,0.00,Donald and Debbie Noble,360-354-0615,,,"Invoice 60
We have NOT proceeding with this purchase transaction. Once we deliver, please proceed with the sale on Synchrony. 
Total: $5000
Remaining: $5000"
100437,9/7/2017 9:35:12 PM,LA County Fair 9/1-24 (CA),Mikito Nakanishi,DWA-9100DWA-9100BL,Legacy,Black,1,"3 years parts, 1 year labor (Free)",Synchrony ,231.25,3481.25,3481.25,,Angela Riccio,3109458173,,,
100438,9/7/2017 11:44:28 PM,LA County Fair 9/1-24 (CA),Mikito Nakanishi,DWA-9100DWA-9100CH,Legacy,Choco Brown,1,"3 years parts, 1 year labor (Free)",CreditCard ,224.78,3404.78,3404.78,,Kuey Wong,2134222671,,,Total $3400 paid off
