﻿Order Number,Order Date,Event Name,Salesperson,SKU,Product Name,Color,QTY,Warranty,Payment Details,Tax,Order Total,Gross,Primary Payment Method,Primary Payment Balance,Primary Authorize Number,Primary Purchase Order Number,Primary Synchrony Account Number,Primary Synchrony Application Key,Primary Synchrony AccountInfo,Primary SynchronyTerm,Secondly Payment Method,Secondly Payment Balance,Secondly Authorize Number,Secondly Purchase Order Number,Secondly Synchrony Account Number,Secondly Synchrony Application Key,Secondly Synchrony AccountInfo,Secondly SynchronyTerm,Thirdly Payment Method,Thirdly Payment Balance,Thirdly Authorize Number,Thirdly Purchase Order Number,Thirdly Synchrony Account Number,Thirdly Synchrony Application Key,Thirdly Synchrony AccountInfo,Thirdly SynchronyTerm,Actual Shipping Cost,CustomerName,Shipping Address,Delivered On,Serial Number (TO Be),Note,Branch,IsNoTax,ActualTaxRate
106008,5/12/2018 4:13:41 AM,Sam's Club #8116 5/3-13/18 (FL),Harmony Daiwa,USJ-9050USJ-9050BL-DEMO,Relax 2 Zero 2.0 for Sam's,Demo Black,1,"3 years parts, 1 year labor (Free)",CUSTOM ,273.00,4173.00,4173.00,CreditCard,0.00,,,,,,,,0.00,,,,,,,,0.00,,,,,,,0.00,Joyce Jones,9043860844,5/13/2018 12:00:00 AM,,TC#01814241004065704837 serial#0102001170211,FL,0,7.00
106009,5/12/2018 4:23:09 AM,Sam's Club #8116 5/3-13/18 (FL),Harmony Daiwa,USJ-871,Foot Vibe Pro,,1,"2 years parts, 1 year labor (Free)",CUSTOM ,7.70,117.69,117.69,CreditCard,0.00,,,,,,,,0.00,,,,,,,,0.00,,,,,,,0.00,Idoleine Paul,9045543441,,,TC#162411088180842184461,Not Dispatched,0,7.00
106010,5/12/2018 4:26:54 AM,Sam's Club #8116 5/3-13/18 (FL),Harmony Daiwa,USJ-871,Foot Vibe Pro,,1,"2 years parts, 1 year labor for Small Items",CUSTOM ,7.70,117.69,117.69,CreditCard,0.00,,,,,,,,0.00,,,,,,,,0.00,,,,,,,0.00,Sonu Iznutor,9049942800,,,TC#8099881608571598195338,FL,0,7.00
106019,5/12/2018 1:09:51 PM,Sam's Club #8116 5/3-13/18 (FL),Harmony Daiwa,DWA-9100DWA-9100CH-Box,Legacy for Sam's,Demo(Box) Choco,1,"3 years parts, 1 year labor (Free)",CUSTOM ,251.93,3850.93,3850.93,CreditCard,0.00,,,,,,,,0.00,,,,,,,,0.00,,,,,,,0.00,Brandon Penn,9049829605,,,TC# 0781234700456570482764,FL,0,7.00
106059,5/13/2018 2:02:17 PM,Sam's Club #8116 5/3-13/18 (FL),Harmony Daiwa,USJ-9050USJ-9050BL-DEMO (Box),Relax 2 Zero 2.0 for Sam's,Demo (Box) Black,1,"3 years parts, 1 year labor (Free)",CUSTOM ,224.00,3423.99,3423.99,CreditCard,0.00,,,,,,,,0.00,,,,,,,,0.00,,,,,,,0.00,Dennis Chan,4073533373,,,TC#6498087066719036753387,FL,0,7.00
