﻿Date,Customer Name,State,Zipcode,Description,Product Number,Color,Product Status,Net,Shipping Fee,Gift Price,Financing Processing Fee,Order Total,Total Before Tax,Tax,Commission,Primary Payment Method,Primary Payment Balance,Primary Authorize Number,Primary Purchase Order Number,Primary Synchrony Account Number,Primary Synchrony Application Key,Primary Synchrony Account Info,Primary Synchrony Term,Second Payment Method,Second Payment Balance,Second Authorize Number,Second Purchase Order Number,Second Synchrony Account Number,Second Synchrony Application Key,Second Synchrony Account Info,Second Synchrony Term,Third Payment Method,Third Payment Balance,Third Authorize Number,Third Purchase Order Number,Third Synchrony Account Number,Third Synchrony Application Key,Third Synchrony Account Info,Third Synchrony Term,Delivery Date,Pick up,Warranty,Status,Chair Type,Original Event Name,Event Name,Synchrony Notes,Order Notes,Order Number,Private Note,Branch,No Tax,Actual Tax Rate
6/2/2018 9:05:12 AM,Nakyoung Ju,NV,89012,Pegasus,DWA-9400Pegasus-BR,New Choco,New,,,,,4500.00,4500.00,0.00,Kohei Uno,Synchrony,4500.00,,,6034610083310006,89758147,Las Vegas,24 months,,0.00,,,,,,,,0.00,,,,,,,6/22/2018 12:00:00 AM,No,"3 years parts, 1 year labor (Free)",Delivered,,CES (NV),CES (NV),,,106534,"Confirmed the account ($6,500). original needs to be confirmed 6/4/18 Hitomi///received synchrony form.***PLEASE HAVE SIGN ON INVOICE.charge before delivery and have sales draft signed. ***6/5/18 Hitomi
6/6Maritza Courtesy call @ 1:19PM",NV,1,8.25
6/5/2018 11:22:14 AM,Taro Daiwa,CA,90249,Legacy for Sam's,DWA-9100DWA-9100BL,New Black,New,,,,,4299.00,4299.00,0.00,Kaz Ohashi,CreditCard,100.00,rXE7,,,,,,CreditCard,1300.00,N6kV,,,,,,Synchrony,2899.00,,,,,,,,No,"3 years parts, 1 year labor (Free)",Cancelled,,CES (NV),CES (NV),,,106591,,Not Dispatched,1,8.25
6/27/2018 3:04:19 PM,Jack Woodward,OR,97123,Legacy,DWA-9100DWA-9100SI,New Sienna,New,,,,,3500.00,3500.00,0.00,Rodrigo Malabunga,CreditCard,3500.00,Sq #9qVD,,,,,,,0.00,,,,,,,,0.00,,,,,,,,No,"3 years parts, 1 year labor (Free)",Cancelled,,CES (NV),CES (NV),,,107103,"Hitomi san pls send 2 pillow to this address 
Name: Ka Yun MOK
8213 meadow rd. 
Apt #1234
Dallas.  Tx 75231
Tel. #408 234 9393
I told her if you bought 5 chairs 
I will give her pillow.pls send her 2 pillow pls thanks 
This is the 5th chair this’s is from ASD///Confirmed $3,500 in Square. sending two pillows USJ-911.Fedex#448984411230--6/27/18 Hitomi
PER ROD CANCEL AND REFUNDED DONE BY STEPHANY 07/02/18",WA,1,8.25
