﻿Order Number,Order Date,Event Name,Salesperson,SKU,Product Name,Color,QTY,Warranty,Payment Details,Tax,Order Total,Gross,Primary Payment Method,Primary Payment Balance,Primary Authorize Number,Primary Purchase Order Number,Primary Synchrony Account Number,Primary Synchrony Application Key,Primary Synchrony AccountInfo,Primary SynchronyTerm,Secondly Payment Method,Secondly Payment Balance,Secondly Authorize Number,Secondly Purchase Order Number,Secondly Synchrony Account Number,Secondly Synchrony Application Key,Secondly Synchrony AccountInfo,Secondly SynchronyTerm,Thirdly Payment Method,Thirdly Payment Balance,Thirdly Authorize Number,Thirdly Purchase Order Number,Thirdly Synchrony Account Number,Thirdly Synchrony Application Key,Thirdly Synchrony AccountInfo,Thirdly SynchronyTerm,Actual Shipping Cost,CustomerName,Shipping Address,Delivered On,Serial Number (TO Be),Note,Branch,IsNoTax,ActualTaxRate
103759,2/17/2018 4:06:43 PM,Bakersfield Home Show 2/23-25/18 (CA),Kaz Ohashi,DWA-9150USJ-9150BL,Legacy 3D,Black,1,"3 years parts, 3 years labor ($400)",CUSTOM COD,0.00,4300.00,4300.00,CreditCard,100.00,mSFE,,,,,,COD,0.00,,,,,,,,0.00,,,,,,,0.00,Jeff Margarit,8185908574,,,Cash Discount,CA,1,7.25
103865,2/19/2018 10:51:37 AM,Bakersfield Home Show 2/23-25/18 (CA),Kaz Ohashi,DWA-9100DWA-9100CH-DEMO,Legacy,Demo Choco Brown,1,"3 years parts, 3 years labor ($400)",CUSTOM COD,0.00,3599.99,3599.99,CreditCard,100.00,FlvT,,,,,,COD,0.00,,,,,,,,0.00,,,,,,,0.00,Eduarrdo Martinez,909-215-0977,,,"Nurse Discount Approved By Kaz
Please give a new chair",CA,1,7.25
103960,2/25/2018 12:46:30 PM,Bakersfield Home Show 2/23-25/18 (CA),Christoper Richard Williams,USJ-9000USJ-9000KU-DEMO,Relax2Zero 1.0,Demo Black,1,"3 years parts, 1 year labor (Free)",CUSTOM ,189.28,2800.00,2800.00,CreditCard,0.00,#ywla,,,,,,,0.00,,,,,,,,0.00,,,,,,,0.00,Russeu Pret,6613191007,2/24/2018 12:00:00 AM,,"Square #ywla sold for 2800
This chair was picked up, serial number is 90156153",CA,0,7.25
103962,2/25/2018 12:59:26 PM,Bakersfield Home Show 2/23-25/18 (CA),Christoper Richard Williams,DWA-9060USJ-9060BR,Relax2Zero 3D,New Choco,1,"3 years parts, 1 year labor (Free)",CUSTOM CreditCard,233.22,4200.00,4200.00,Synchrony,3500.00,,,6034610083119803,85428308,Las Vegas,36 months,CreditCard,700.00,3e22,,,,,,,0.00,,,,,,,0.00,Suzie Weldongrey,6612466220,,,"Approved for 3500 had a balance of 700$ due they payed that through square.#HB8C
This chair needs to be delivered within 2-3weeks",CA,0,7.25
103963,2/25/2018 1:39:27 PM,Bakersfield Home Show 2/23-25/18 (CA),Christoper Richard Williams,DWA-9060USJ-9060BR,Relax2Zero 3D,New Choco,1,"3 years parts, 1 year labor (Free)",CUSTOM ,233.22,4200.00,4200.00,Synchrony,0.00,,,6034610083120009,85434099,Las Vegas,36 months,,0.00,,,,,,,,0.00,,,,,,,0.00,Don Peeler,6616797957,,,,CA,0,7.25
103980,2/25/2018 9:56:04 PM,Bakersfield Home Show 2/23-25/18 (CA),Bryan Albert,DWA-9100DWA-9100BU,Legacy,New Choco,1,"3 years parts, 1 year labor (Free)",CUSTOM ,0.00,3400.00,3400.00,CreditCard,3400.00,Receipt # zg1v (collected by Kaz Ohashi),,,,,,,0.00,,,,,,,,0.00,,,,,,,0.00,Sherrie Richardson,661-867-2565,,,"3 year parts & 1year in home labor.
Please allow 2-3 weeks delivery.
Please call both telephone numbers when scheduling delivery.",CA,1,7.25
103997,2/26/2018 11:23:59 AM,Bakersfield Home Show 2/23-25/18 (CA),Kaz Ohashi,DWA-9400Pegasus-BR-DEMO,Pegasus,Demo Choco,1,"3 years parts, 1 year labor (Free)",CUSTOM ,0.00,4600.00,4600.00,Synchrony,4600.00,,,6034610083123672,85487256,San Diego,48 months,,0.00,,,,,,,,0.00,,,,,,,0.00,Jeanne Smith,6615877491,,,,CA,1,7.25
