﻿Original Event Name,Event Name,Sales Person,Order Number,Order Date,Customer Name,State,Zip,Product Name,Color,Product Status,QTY,Tax,Total Before Tax,Order Total,Primary Payment Method,Second Payment Method,Thirdl Payment Method,Warranty,Order Items,Pick up,Delivered On,Order Status,Chair Type,Order Notes,Private Note,Branch,No Tax,Actual Tax Rate,SKU,Primary Payment Balance,Primary Authorize Number,Primary Purchase Order Number,Primary Synchrony Account Number,Primary Synchrony Application Key,Primary Synchrony Account Info,Primary Synchrony Term,Second Payment Balance,Second Authorize Number,Second Purchase Order Number,Second Synchrony Account Number,Second Synchrony Application Key,Second Synchrony Account Info,Second SynchronyTerm,Third Payment Balance,Third Authorize Number,Third Purchase Order Number,Third Synchrony Account Number,Third Synchrony Application Key,Third Synchrony Account Info,Third Synchrony Term
AMERICA'S BEAUTY SHOW 3/30-4/1/19 CHICAGO (IL),AMERICA'S BEAUTY SHOW 3/30-4/1/19 CHICAGO (IL),May Kam,116255,3/30/2019 6:51:09 PM,Mrs Luz Flores,TX,79706,Relax 2 Zero 3D,Demo Choco,Demo,1,0.00,3800.00,3800.00,Cash,COD,,"5 years parts, 1 year labor (Free)","Relax 2 Zero 3D,Tourmaline Pad for Relax2Zero 3D,",No,,Hold,,"Special discount for one time payment, manager approval . Pls call the 
customer about Aug , 2019 for delivery schedule , since moving to TX new place , Balance will be pay as COD, thanks","4/1/19-will confirm cash once May comes back. ***COD $3,750.***  - Hitomi
4/2Maritza- Courtesy message sent @ 9:28AM
4/26/19 -Received $50 Cash confirmation signed by MK. -Riho",TX,1,10.25,DWA-9060USJ-9060BR-DEMO,50.00,,,,,,,3750.00,,,,,,,0.00,,,,,,
AMERICA'S BEAUTY SHOW 3/30-4/1/19 CHICAGO (IL),AMERICA'S BEAUTY SHOW 3/30-4/1/19 CHICAGO (IL),Abagail Stirling,116318,3/31/2019 7:29:21 PM,Nancy Hefner,IL,60035,Relax 2 Zero 3D,Demo Black,Demo,1,0.00,4000.00,4000.00,CreditCard,,,"5 years parts, 1 year labor (Free)","Relax 2 Zero 3D,",No,4/11/2019 12:00:00 AM,Delivered,New,,"4/1/19-Confirmed $4,000.00 in SQ. - Hitomi
4/2Maritza Courtesy message sent @ 9:02AM
4/3/2019 Print / Courtesy message done - Tina
Customer called and informed us she would prefer text to schedule at  847-650-5555. -4/3/19 Alysa
Customer confirmed delivery appointment - 11-2P Thursday, 4/11/2019. 4/4/2019 June",TX,1,10.25,DWA-9060USJ-9060BL-DEMO,4000.00,Sq# ejLC,,,,,,0.00,,,,,,,0.00,,,,,,
AMERICA'S BEAUTY SHOW 3/30-4/1/19 CHICAGO (IL),AMERICA'S BEAUTY SHOW 3/30-4/1/19 CHICAGO (IL),Ilene Maynard,116319,3/31/2019 7:33:40 PM,Angela Vassallo Vitale,MI,48183,Legacy 3D,Demo Black,Demo,1,0.00,3800.00,3800.00,CreditCard,,,"5 years parts, 1 year labor (Free)","Legacy 3D,",No,4/15/2019 12:00:00 AM,Delivered,Demo,,"4/1/19- COnfirmed $3,800.00 in SQ. -Hitomi
4/2Maritza Courtesy message sent @ 9:05AM **CUSTOMER CAN ONLY ACCEPT DELIVERY SUNDAY OR MONDAY**
4/3/2019 Print / Courtesy message done - Tina
Customer Confirmed Schedule Delivery (4/15 3-6PM) - Alysa 4/4/19",TX,1,10.25,DWA-9150USJ-9150BL-DEMO,3800.00,Sq# LVcm,,,,,,0.00,,,,,,,0.00,,,,,,
AMERICA'S BEAUTY SHOW 3/30-4/1/19 CHICAGO (IL),AMERICA'S BEAUTY SHOW 3/30-4/1/19 CHICAGO (IL),May Kam,116320,3/31/2019 7:39:18 PM,Mrs Debrah Englert,OH,45236,Relax 2 Zero 3D,New Black,New,1,0.00,4350.00,4350.00,CreditCard,COD,,"5 years parts, 1 year labor (Free)","Relax 2 Zero 3D,Tourmaline Pad for Relax2Zero 3D,",No,,Scheduled,,"Special discount for one time payment, manager approval . Balance will be paid when we deliver chair ( including Assembly), Thanks","4/1/19-Confirmed $200.00 in SQ. ***COD$4,150****-Hitomi
4/2Maritza- Courtesy message sent @ 9:06AM
4/3/2019 Print / Courtesy message done - Tina
5/2/19- @ 8:40am- CC for payment confirmation; customer did not answer left VM.",TX,1,10.25,DWA-9060USJ-9060BL,200.00,#FhTy,,,,,,4150.00,,,,,,,0.00,,,,,,
AMERICA'S BEAUTY SHOW 3/30-4/1/19 CHICAGO (IL),AMERICA'S BEAUTY SHOW 3/30-4/1/19 CHICAGO (IL),Abagail Stirling,116321,3/31/2019 7:40:29 PM,Jacqueline Carrejo,TX,78543,Relax 2 Zero 3D,New Black,New,1,0.00,4500.00,4500.00,CreditCard,CreditCard,,"5 years parts, 1 year labor (Free)","Relax 2 Zero 3D,",No,4/13/2019 12:00:00 AM,Delivered,New,,"4/1/19- Confirmed $4,500 in SQ.-Hitomi
4/2Maritza Courtesy message sent @ 4:59PM
4/3/2019 Print / Courtesy message done - Tina
customer confirmed Saturday 4/13/2019 between 6-8PM. 4/9/2019 June
4/17Maritza- Delivery confirmation received.",TX,1,10.25,DWA-9060USJ-9060BL,2250.00,Receipt #IQeu,,,,,,2250.00,TC# Crcl,,,,,,0.00,,,,,,
AMERICA'S BEAUTY SHOW 3/30-4/1/19 CHICAGO (IL),AMERICA'S BEAUTY SHOW 3/30-4/1/19 CHICAGO (IL),May Kam,116322,3/31/2019 7:54:54 PM,Mrs Yvonne Gray,IL,60643,Legacy 3D,Demo Choco,Demo,1,0.00,3500.00,3500.00,CreditCard,COD,CreditCard,"5 years parts, 1 year labor (Free)","Legacy 3D,Tourmaline Pad for Legacy 3D,",No,,Cancelled,,"Special discount for payment plan , manager approval","4/1/19-Confirmed $100.00 in SQ. ***COD$1,900*** Confirmed LAYAWAY form. ($1,500 for 10 months)- Emailed to Cristina.-*Please pass delivery confirmation to Cristina.* -Hitomi
4/2/19-Per.May, cancelled and issued the refund of $100. (From May : ""The customer came to booth, since she won’t have $1900 to pay chair , refunded $100"" .)-Hitomi",TX,1,10.25,DWA-9150USJ-9150CH-DEMO,100.00,#5rZw,,,,,,1900.00,,,,,,,1500.00,LAYAWAY 10 months,,,,,
AMERICA'S BEAUTY SHOW 3/30-4/1/19 CHICAGO (IL),AMERICA'S BEAUTY SHOW 3/30-4/1/19 CHICAGO (IL),May Kam,116323,3/31/2019 8:24:23 PM,Mrs Chrystalin Sherrell,SC,29201,Legacy 3D,Demo Black,Demo,1,0.00,4900.00,4900.00,CreditCard,COD,CreditCard,"5 years parts, 1 year labor (Free)","Tourmaline Pad for Legacy 3D,Legacy 3D,",No,,Cancelled,,"Special discount for monthly payment, manager approval","4/1/19-Per.Invoice, total amount is $3,800.  Revised to #116372  - Hitomi",Not Dispatched,1,10.25,DWA-9150USJ-9150BL-DEMO,200.00,uYmL,,,,,,1800.00,,,,,,,1800.00,Monthly payment,,,,,
AMERICA'S BEAUTY SHOW 3/30-4/1/19 CHICAGO (IL),AMERICA'S BEAUTY SHOW 3/30-4/1/19 CHICAGO (IL),Ilene Maynard,116338,4/1/2019 3:22:06 AM,Rebecca Yarnell,OH,45875,Legacy 3D,New Black,New,1,0.00,4900.00,4900.00,Synchrony,,,"5 years parts, 1 year labor (Free)","Legacy 3D,",No,,Cancelled,,"Pls make finance $4500 purchase, thanks","4/1/19- will confirm sync- Hitomi 
4/2/19- Confirmed total amount is $4,500 . Revised to #116392 - Hitomi",Not Dispatched,1,10.25,DWA-9150USJ-9150BL,4500.00,,,6501723375085097,73423214,Las Vegas,36 months,0.00,,,,,,,0.00,,,,,,
AMERICA'S BEAUTY SHOW 3/30-4/1/19 CHICAGO (IL),AMERICA'S BEAUTY SHOW 3/30-4/1/19 CHICAGO (IL),Abagail Stirling,116339,4/1/2019 3:32:22 AM,Tammy Scott,IN,47725,Relax 2 Zero 3D,New Choco,New,1,0.00,4500.00,4500.00,Synchrony,,,"5 years parts, 1 year labor (Free)","Relax 2 Zero 3D,",No,,Scheduled,,"Pls make finance $4500 purchase, thanks","Dear Team : Could u pls help check synchrony account no is correct, thanks
4/1/19-will confirm sync - Hitomi
4/2/19-Confirmed SYNC$8,500 and original. ***Please charge $4,500/sales draft***-Hitomi
4/3/2019 Print / Courtesy message done - Tina
4/4/19 - Alysa - Customer Confirmed Delivery Wed. 4/17 12-4PM",TX,1,10.25,DWA-9060USJ-9060BR,4500.00,,,6501723375085105,73423271,Las Vegas,36 months,0.00,,,,,,,0.00,,,,,,
AMERICA'S BEAUTY SHOW 3/30-4/1/19 CHICAGO (IL),AMERICA'S BEAUTY SHOW 3/30-4/1/19 CHICAGO (IL),Ilene Maynard,116353,4/1/2019 7:24:30 AM,Lori Anne DiDonato,NC,28031,Legacy 3D,New Choco,New,1,0.00,4500.00,4500.00,CreditCard,Synchrony,,"5 years parts, 1 year labor (Free)","Legacy 3D,",No,,Cancelled,,,"4/1/19-Confirmed $500.00 in SQ. will confirm sync -Hitomi
4/2/19-Confirmed SYNC$6,500 and original. ***Please charge $4,000/sales draft*** -Hitomi
CC, Jasmin Carrizales, 4/4/19, 1:10pm, VM
4/4Maritza- Shoko spoke with customer yesterday. Customer would like to cancel. Shoko followed up with Ilene. Ilene confirmed cancellation. Refund for $500 will be returned to customer today. Sent receipt to contact number.",FL,1,10.25,DWA-9150USJ-9150CH,500.00,Sq# G5DC,,,,,,4000.00,,,6501723375085220,73427687,Las Vegas,36 months,0.00,,,,,,
AMERICA'S BEAUTY SHOW 3/30-4/1/19 CHICAGO (IL),AMERICA'S BEAUTY SHOW 3/30-4/1/19 CHICAGO (IL),Ilene Maynard,116357,4/1/2019 7:49:10 AM,Simply Beautiful Salon/Danielle Withouse,MO,65101,Legacy 3D,New Black,New,1,0.00,4500.00,4500.00,Synchrony,,,"5 years parts, 1 year labor (Free)","Legacy 3D,",No,4/12/2019 12:00:00 AM,Delivered,New,,"4/1/19-will confirm sync -Hitomi
4/2/19-Confirmed SYNC$8,500 under DANIELLE WITHOUSE and original. ***Please charge $4,500/sales draft ***-Hitomi
4/3/2019 Print / Courtesy message done - Tina
4/8/2019 - Scheduled for Friday April 12, 2019 between 2pm to 5pm - Tina
4/19Maritza Delivery confirmaation received with signed sales draft",TX,1,10.25,DWA-9150USJ-9150BL,4500.00,,,6501723375085246,73428701,Las Vegas,36 months,0.00,,,6501723375085246,73428701,Las Vegas,36 months,0.00,,,,,,
AMERICA'S BEAUTY SHOW 3/30-4/1/19 CHICAGO (IL),AMERICA'S BEAUTY SHOW 3/30-4/1/19 CHICAGO (IL),May Kam,116372,4/1/2019 2:32:29 PM,Mrs Chrystalin Sherrell,SC,29201,Legacy 3D,Demo Black,Demo,1,0.00,3800.00,3800.00,CreditCard,COD,PurchaseOrder,"5 years parts, 1 year labor (Free)","Legacy 3D,Tourmaline Pad for Legacy 3D,",No,,Scheduled,,"Special discount for monthly payment, manager approval","4/1/19-Confirmed $200.00 in SQ. ***COD $1,800/LAYAWAY$1,800*** .LAYAWAY form needs to be signed - Hitomi
4/4/19-Received signed LAYAWAY form and confirmed. ***COD $1,800/LAYAWAY$1,800*** send Layaway form to Cristina. Please send delivery confirmation to Cristina once it is delivered. .-Hitomi
CC, Jasmin Carrizales, 4/5/19, 12:06pm, VM",FL,1,10.25,DWA-9150USJ-9150BL-DEMO,200.00,uYmL,,,,,,1800.00,,,,,,,1800.00,,Monthly payment(12months),,,,
AMERICA'S BEAUTY SHOW 3/30-4/1/19 CHICAGO (IL),AMERICA'S BEAUTY SHOW 3/30-4/1/19 CHICAGO (IL),May Kam,116382,4/2/2019 11:48:08 AM,Mrs Iffat Hussain,IL,60660,Legacy 3D,Demo Choco,Demo,1,0.00,3200.00,3200.00,Credit Card,Check,,"5 years parts, 1 year labor (Free)","Legacy 3D,",No,4/11/2019 12:00:00 AM,Delivered,Demo,Special discount for senior one time payment,"4/2/19-Confirmed $200.00 in SQ. ***COD$3,000*** -Hitomi
4/3/2019 Print / Courtesy message done - Tina
Customer confirmed appointment on Thursday 4/11/2019 between 3-8PM. 4/5/2019 June

Confirmed with Yumi, COD casher's check $3,000 was deposited by Bill (IL)on  April. 16 --- 4/17/19 Asumi",TX,1,10.25,DWA-9150USJ-9150CH-DEMO,200.00,jKju,,,,,,3000.00,,,,,,,0.00,,,,,,
AMERICA'S BEAUTY SHOW 3/30-4/1/19 CHICAGO (IL),AMERICA'S BEAUTY SHOW 3/30-4/1/19 CHICAGO (IL),May Kam,116383,4/2/2019 12:09:04 PM,Mrs Jennifer Pettie,UT,84780,Legacy 3D,New Black,New,1,0.00,4000.00,4000.00,Cash,COD,,"5 years parts, 1 year labor (Free)","Legacy 3D,Tourmaline Pad for Legacy 3D,",No,,Cancelled,,"Vendor Special discount , before delivery need confirm color again , thanks","Another# 435-574-2208
4/2/19-will confirm $2,000 cash once May comes back. ***COD $2,000*** - Hitomi
4/10/19-Per.May , customer wants to cancel. May is asking Yumi to issue the check with having May depositing $2000 cash into our WF account -Hitomi
4/19/19- COnfirmed by Yumi $2,000 deposit and mailed check #17047 to the customer's house. -Hitomi",NV,1,10.25,DWA-9150USJ-9150BL,2000.00,,,,,,,2000.00,,,,,,,0.00,,,,,,
AMERICA'S BEAUTY SHOW 3/30-4/1/19 CHICAGO (IL),AMERICA'S BEAUTY SHOW 3/30-4/1/19 CHICAGO (IL),May Kam,116384,4/2/2019 12:31:19 PM,Mrs Kimberley Sprinkle,KS,66067,Legacy 3D,Demo Black,Demo,1,0.00,3500.00,3500.00,CreditCard,COD,CreditCard,"5 years parts, 1 year labor (Free)","Legacy 3D,",No,,Cancelled,,"Vendor Special  discount, may finish balance less than 10 month","4/2/19-Confirmed $100.00 in SQ. ***COD $1,900****LAYAWAY$1,500.00*-Hitomi
4/2Maritza- Customer emailed zendesk that she wants to cancel her order and is requesting a refund. Have sent a text message to May and waiting for further instructions.
4/3Maritza May acknowledged cancellation and I have refunded the $100 back to original form of payment. Order will now be cancelled @ 10:40AM",Not Dispatched,1,10.25,DWA-9150USJ-9150BL-DEMO,100.00,KkXG,,,,,,1900.00,,,,,,,1500.00,Payment plan,,,,,
AMERICA'S BEAUTY SHOW 3/30-4/1/19 CHICAGO (IL),AMERICA'S BEAUTY SHOW 3/30-4/1/19 CHICAGO (IL),Abagail Stirling,116386,4/2/2019 1:53:11 PM,Allison Bates,OH,44107,Relax 2 Zero 3D,New Black,New,1,0.00,4500.00,4500.00,Synchrony,,,"5 years parts, 1 year labor (Free)","Relax 2 Zero 3D,",No,4/25/2019 12:00:00 AM,Delivered,New,"Pls make finance $4500 purchase, thanks","4/2/19-will confirm sync -Hitomi
4/3/19-Confirmed SYNC$7,000 and original. ***Please charge $4,500/sales draft***-Hitomi
4/3/2019 Tina - Printed / Courtesy message sent
4/22/2019 Confirmed for April 25, 2019 Thursday 5pm to 7pm - Tina",TX,1,10.25,DWA-9060USJ-9060BL,4500.00,,,6501723375087358,73501729,Las Vegas,36 months,0.00,,,,,,,0.00,,,,,,
AMERICA'S BEAUTY SHOW 3/30-4/1/19 CHICAGO (IL),AMERICA'S BEAUTY SHOW 3/30-4/1/19 CHICAGO (IL),Abagail Stirling,116387,4/2/2019 1:58:11 PM,Andreea Bude,MI,48188,Relax 2 Zero 3D,New Black,New,1,0.00,4500.00,4500.00,Synchrony,,,"5 years parts, 1 year labor (Free)","Relax 2 Zero 3D,",No,4/15/2019 12:00:00 AM,Delivered,New,"Pls make finance $4500 purchase, thanks","Another# 408-857-9240/Basement delivery
4/2/19-will confirm sync-Hitomi
4/3/19-Confirmed SYNC$6,500 and original. ***Please charge $4,500/sales draft***-Hitomi
4/3/2019 Tina - Printed / Courtesy message sent
Customer Confirmed Scheduled Delivery (4/15 5-8PM) - Alysa 4/4/19",TX,1,10.25,DWA-9060USJ-9060BL,4500.00,,,6501723375087333,73500215,Las Vegas,36 months,0.00,,,,,,,0.00,,,,,,
AMERICA'S BEAUTY SHOW 3/30-4/1/19 CHICAGO (IL),AMERICA'S BEAUTY SHOW 3/30-4/1/19 CHICAGO (IL),Abagail Stirling,116389,4/2/2019 2:19:27 PM,Charlotte Anderson,CA,92675,Relax 2 Zero 3D,Demo Black,Demo,1,0.00,4900.00,4900.00,Synchrony,CreditCard,,"3 years parts, 1 year labor (Free)","Relax 2 Zero 3D,",No,,Cancelled,,"Pls make finance $1900 purchase, thanks","4/2/19-will confirm sync -Hitomi
4/3Maritza- Left voicemail regarding zendesk ticket. We will work on creating a new invoice and email customer updated invoice for her records.
4/3/19-Total amount is $3,800. will re-enter -hitomi",Not Dispatched,1,10.25,DWA-9060USJ-9060BL-DEMO,1900.00,,,6501723375087317,73499617,Las Vegas,24 months,1900.00,Receipt #kONW,,,,,,0.00,,,,,,
AMERICA'S BEAUTY SHOW 3/30-4/1/19 CHICAGO (IL),AMERICA'S BEAUTY SHOW 3/30-4/1/19 CHICAGO (IL),May Kam,116390,4/2/2019 2:31:24 PM,Sarry Yono,IL,60640,Relax 2 Zero 3D,New Black,New,1,0.00,4500.00,4500.00,Synchrony,,,"5 years parts, 1 year labor (Free)","Relax 2 Zero 3D,",No,5/6/2019 12:00:00 AM,Delivered,New,"Pls make finance $4500 purchase, thanks","Don't deliver until May 6 
4/2/19-will confirm sync Hitomi
4/3/19- Confirmed SYNC$6,500 and original.***Please charge $4,500/ sales draft***-Hitomi
4/3/2019 Print / Courtesy message done - Tina - noted for May 6 HOLD
Spoke with customer, he actually need the chair delivery before 5/6/2019. Schedule to 4/30/2019 between 4-7PM. 4/25/2019 June
5/2/-Karen: Delivered to customer but chair was disassembled; Set up a delivery for next week please. Providing customer Free Gifts for the inconvenience dual tapper and daiwa blanket(per Bill).
5/3 Alysa - Customer confirmed delivery Monday 5/3 between 3-5PM.",TX,1,10.25,DWA-9060USJ-9060BL,4500.00,,,6501723375087283,73499011,Las Vegas,36 months,0.00,,,,,,,0.00,,,,,,
AMERICA'S BEAUTY SHOW 3/30-4/1/19 CHICAGO (IL),AMERICA'S BEAUTY SHOW 3/30-4/1/19 CHICAGO (IL),Ilene Maynard,116392,4/2/2019 4:57:25 PM,Rebecca Yarnell,OH,45875,Legacy 3D,New Black,New,1,0.00,4500.00,4500.00,Synchrony,,,"5 years parts, 1 year labor (Free)","Legacy 3D,",No,4/15/2019 12:00:00 AM,Delivered,New,"Pls make finance $4500 purchase, thanks","4/2/19-correction for #116338. Confirmed SYNC$5,500 and original.  ***Please charge $4,500/sales draft***-Hitomi
4/3/2019 Print / Courtesy message done - Tina
4/15/19 - Alysa - Customer confirmed schedule delivery Thursday 4/25 between 1-5PM",TX,1,10.25,DWA-9150USJ-9150BL,4500.00,,,6501723375085097,73423214,Las Vegas,36 months,0.00,,,,,,,0.00,,,,,,
AMERICA'S BEAUTY SHOW 3/30-4/1/19 CHICAGO (IL),AMERICA'S BEAUTY SHOW 3/30-4/1/19 CHICAGO (IL),Abagail Stirling,116403,4/3/2019 9:59:42 AM,Charlotte Anderson,CA,92675,Relax 2 Zero 3D,Demo Black,Demo,1,0.00,3800.00,3800.00,Synchrony,CreditCard,,"3 years parts, 1 year labor (Free)","Relax 2 Zero 3D,",No,4/8/2019 12:00:00 AM,Delivered,Demo,"Pls make finance $1900 purchase, thanks","Correction #116389
4/3/19-Confirmed $1,900 in SQ. SYNC$9,000 and original. ***Please charge $1,900/sales draft***- Hitomi
4/3/19-emailed revised invoice to  the customer . -Hitomi
4/3Maritza- Printed
4/9Maritza- Delivery confirmation and sales draft received. Will be sending out manual on 4/15",CA,1,10.25,DWA-9060USJ-9060BL-DEMO,1900.00,,,6501723375087317,73499617,Las Vegas,24 months,1900.00,Receipt #kONW,,,,,,0.00,,,,,,
AMERICA'S BEAUTY SHOW 3/30-4/1/19 CHICAGO (IL),AMERICA'S BEAUTY SHOW 3/30-4/1/19 CHICAGO (IL),Abagail Stirling,116408,4/3/2019 5:44:46 PM,Yehya Altamimi,IL,60464,Relax 2 Zero 3D,New Black,New,1,0.00,4500.00,4500.00,Synchrony,,,"5 years parts, 1 year labor (Free)","Relax 2 Zero 3D,",No,4/11/2019 12:00:00 AM,Delivered,New,"Pls make finance $4500 purchase,thanks","4/4/19-Confirmed SYNC$6,500 and original. [DL:IL 02/20,CC:VISA 12/23]***Please charge $4,500/sales draft***-Hitomi
Tina - 4/5/2019 Print / Courtesy message sent
customer confirmed to 4/11/2019 Thursday between 5-8PM.",TX,1,10.25,DWA-9060USJ-9060BL,4500.00,,,6501723375087242,73498653,Las Vegas,36 months,0.00,,,,,,,0.00,,,,,,
