﻿Original Event Name,Event Name,Sales Person,Order Number,Order Date,Customer Name,State,Zip,Product Name,Color,Product Status,QTY,Tax,Total Before Tax,Order Total,Primary Payment Method,Second Payment Method,Thirdl Payment Method,Warranty,Order Items,Pick up,Delivered On,Order Status,Chair Type,Order Notes,Private Note,Branch,No Tax,Actual Tax Rate,SKU,Primary Payment Balance,Primary Authorize Number,Primary Purchase Order Number,Primary Synchrony Account Number,Primary Synchrony Application Key,Primary Synchrony Account Info,Primary Synchrony Term,Second Payment Balance,Second Authorize Number,Second Purchase Order Number,Second Synchrony Account Number,Second Synchrony Application Key,Second Synchrony Account Info,Second SynchronyTerm,Third Payment Balance,Third Authorize Number,Third Purchase Order Number,Third Synchrony Account Number,Third Synchrony Application Key,Third Synchrony Account Info,Third Synchrony Term,First Name,Last Name,Email,Shipping Company,Shipping Address1,Shipping Address2,Shipping Suite,Shipping City,Shipping State,Shipping Zip,Shipping Country,Shipping Phone
"Sam's Club #6412 Southgate, MI 4/11-21/19 (IL)","Sam's Club #6412 Southgate, MI 4/11-21/19 (IL)",Michael Wang,116611,4/13/2019 9:40:09 AM,"U.S.  JACLEAN, INC.",CA,90249,Foot Vibe Pro,,New,1,6.60,109.99,116.59,Credit Card,,,"2 years parts, 1 year labor for Small Items","Foot Vibe Pro,",YES,,Delivered,,,,CA,0,6.00,USJ-871,116.59,Tc# 2612 2274 9246 0662 5199 3,,,,,,0.00,,,,,,,0.00,,,,,,,U.S.,"JACLEAN, INC.",sales@usjaclean.com,"U.S. JACLEAN, INC.",1816 West 135th Street,,,Gardena,CA,90249,United States,310-538-2298
"Sam's Club #6412 Southgate, MI 4/11-21/19 (IL)","Sam's Club #6412 Southgate, MI 4/11-21/19 (IL)",Michael Wang,116612,4/13/2019 9:52:24 AM,"U.S.  JACLEAN, INC.",CA,90249,Foot Vibe Pro,,New,1,6.60,109.99,116.59,Credit Card,,,"2 years parts, 1 year labor for Small Items","Foot Vibe Pro,",YES,,Delivered,,,,CA,0,6.00,USJ-871,116.59,Tc# 5376 5503 4531 9115 6744 8,,,,,,0.00,,,,,,,0.00,,,,,,,U.S.,"JACLEAN, INC.",sales@usjaclean.com,"U.S. JACLEAN, INC.",1816 West 135th Street,,,Gardena,CA,90249,United States,310-538-2298
"Sam's Club #6412 Southgate, MI 4/11-21/19 (IL)","Sam's Club #6412 Southgate, MI 4/11-21/19 (IL)",Michael Wang,116619,4/13/2019 11:52:50 AM,"U.S.  JACLEAN, INC.",CA,90249,Foot Vibe Pro,,New,1,6.60,109.99,116.59,Credit Card,,,"2 years parts, 1 year labor for Small Items","Foot Vibe Pro,",YES,,Delivered,,,,CA,0,6.00,USJ-871,116.59,Tc# 3295 3361 3370 5003 8566 7,,,,,,0.00,,,,,,,0.00,,,,,,,U.S.,"JACLEAN, INC.",sales@usjaclean.com,"U.S. JACLEAN, INC.",1816 West 135th Street,,,Gardena,CA,90249,United States,310-538-2298
"Sam's Club #6412 Southgate, MI 4/11-21/19 (IL)","Sam's Club #6412 Southgate, MI 4/11-21/19 (IL)",Michael Wang,116623,4/13/2019 12:22:26 PM,"U.S.  JACLEAN, INC.",CA,90249,Foot Vibe Pro,,New,1,6.60,109.99,116.59,Credit Card,,,"2 years parts, 1 year labor for Small Items","Foot Vibe Pro,",YES,,Delivered,,,,CA,0,6.00,USJ-871,116.59,Tc# 4301 4496 4418 2884 3255 1,,,,,,0.00,,,,,,,0.00,,,,,,,U.S.,"JACLEAN, INC.",sales@usjaclean.com,"U.S. JACLEAN, INC.",1816 West 135th Street,,,Gardena,CA,90249,United States,310-538-2298
"Sam's Club #6412 Southgate, MI 4/11-21/19 (IL)","Sam's Club #6412 Southgate, MI 4/11-21/19 (IL)",Michael Wang,116674,4/14/2019 1:58:36 PM,"U.S.  JACLEAN, INC.",CA,90249,Foot Vibe Pro,,New,1,6.60,109.99,116.59,Credit Card,,,"2 years parts, 1 year labor for Small Items","Foot Vibe Pro,",YES,,Delivered,,,,CA,0,6.00,USJ-871,116.59,Tc# 3175 3341 1330 5003 8966 7,,,,,,0.00,,,,,,,0.00,,,,,,,U.S.,"JACLEAN, INC.",sales@usjaclean.com,"U.S. JACLEAN, INC.",1816 West 135th Street,,,Gardena,CA,90249,United States,310-538-2298
"Sam's Club #6412 Southgate, MI 4/11-21/19 (IL)","Sam's Club #6412 Southgate, MI 4/11-21/19 (IL)",Michael Wang,116676,4/14/2019 3:18:56 PM,"U.S.  JACLEAN, INC.",CA,90249,Foot Vibe Pro,,New,1,6.60,109.99,116.59,Credit Card,,,"2 years parts, 1 year labor for Small Items","Foot Vibe Pro,",YES,,Delivered,,,,CA,0,6.00,USJ-871,116.59,Tc# 0753 0042 6012 1440 9777 5,,,,,,0.00,,,,,,,0.00,,,,,,,U.S.,"JACLEAN, INC.",sales@usjaclean.com,"U.S. JACLEAN, INC.",1816 West 135th Street,,,Gardena,CA,90249,United States,310-538-2298
"Sam's Club #6412 Southgate, MI 4/11-21/19 (IL)","Sam's Club #6412 Southgate, MI 4/11-21/19 (IL)",Michael Wang,116739,4/15/2019 3:31:42 PM,"U.S.  JACLEAN, INC.",CA,90249,Foot Vibe Pro,,New,1,6.60,109.99,116.59,Credit Card,,,"2 years parts, 1 year labor for Small Items","Foot Vibe Pro,",YES,,Delivered,,,,CA,0,6.00,USJ-871,116.59,Tc# 0293 0002 9003 1440 9677 5,,,,,,0.00,,,,,,,0.00,,,,,,,U.S.,"JACLEAN, INC.",sales@usjaclean.com,"U.S. JACLEAN, INC.",1816 West 135th Street,,,Gardena,CA,90249,United States,310-538-2298
"Sam's Club #6412 Southgate, MI 4/11-21/19 (IL)","Sam's Club #6412 Southgate, MI 4/11-21/19 (IL)",Michael Wang,116741,4/15/2019 5:24:31 PM,"U.S.  JACLEAN, INC.",CA,90249,Foot Vibe Pro,,New,1,6.60,109.99,116.59,Credit Card,,,"2 years parts, 1 year labor for Small Items","Foot Vibe Pro,",YES,,Delivered,,,,CA,0,6.00,USJ-871,116.59,Tc# 0593 0042 2082 1440 9977 5,,,,,,0.00,,,,,,,0.00,,,,,,,U.S.,"JACLEAN, INC.",sales@usjaclean.com,"U.S. JACLEAN, INC.",1816 West 135th Street,,,Gardena,CA,90249,United States,310-538-2298
"Sam's Club #6412 Southgate, MI 4/11-21/19 (IL)","Sam's Club #6412 Southgate, MI 4/11-21/19 (IL)",Michael Wang,116757,4/16/2019 11:12:18 AM,"U.S.  JACLEAN, INC.",CA,90249,Foot Vibe Pro,,New,1,6.60,109.99,116.59,Credit Card,,,"2 years parts, 1 year labor for Small Items","Foot Vibe Pro,",YES,,Delivered,,,,CA,0,6.00,USJ-871,116.59,Tc# 9027 9945 4973 7339 4922 6,,,,,,0.00,,,,,,,0.00,,,,,,,U.S.,"JACLEAN, INC.",sales@usjaclean.com,"U.S. JACLEAN, INC.",1816 West 135th Street,,,Gardena,CA,90249,United States,310-538-2298
"Sam's Club #6412 Southgate, MI 4/11-21/19 (IL)","Sam's Club #6412 Southgate, MI 4/11-21/19 (IL)",Michael Wang,116758,4/16/2019 12:40:51 PM,Adam Mallah,MI,48126,Foot Vibe Pro,,New,1,6.60,109.99,116.59,Credit Card,,,"2 years parts, 1 year labor for Small Items","Foot Vibe Pro,",No,,Delivered,,,"Please ship to customer and text tracking number.Sold out of foot vibe pro.
4/16/19-will have IL to ship it out   - Hitomi
4/19/19-sent text message w/ TRK# -Hitomi",IL,0,6.00,USJ-871,116.59,Tc# 5046 5513 6557 9115 6044 8,,,,,,0.00,,,,,,,0.00,,,,,,,Adam,Mallah,defaultmail@daiwamassage.com,,7644 Middlepointe,,,Dearborn,MI,48126,United States,313-478-7823
"Sam's Club #6412 Southgate, MI 4/11-21/19 (IL)","Sam's Club #6412 Southgate, MI 4/11-21/19 (IL)",Michael Wang,116777,4/17/2019 10:24:41 AM,Virgil Igna,MI,48180,Foot Vibe Pro,,New,1,6.60,109.99,116.59,Credit Card,,,"2 years parts, 1 year labor for Small Items","Foot Vibe Pro,",No,,Delivered,,,"Ship 1 Foot vibe to customer and text tracking number.
4/17/19-will take care of the shipment - Hitomi
4/19/19-sent text message w/ TRK# -Hitomi",IL,0,6.00,USJ-871,116.59,Tc# 3245 3361 6390 5003 8166 7,,,,,,0.00,,,,,,,0.00,,,,,,,Virgil,Igna,defaultmail@daiwamassage.com,,13468 Mulberry Trail,,,Taylor,MI,48180,United States,734-934-4943
"Sam's Club #6412 Southgate, MI 4/11-21/19 (IL)","Sam's Club #6412 Southgate, MI 4/11-21/19 (IL)",Michael Wang,116779,4/17/2019 11:38:50 AM,John Rock,MI,48180,Foot Vibe Pro,,New,1,6.60,109.99,116.59,Credit Card,,,"2 years parts, 1 year labor for Small Items","Foot Vibe Pro,",No,,Delivered,,,"Ship Foot vibe pro to customer.Please call customer to tell him tracking number.
4/18/19-will take care of the shipment - Hitomi
4/19/19-sent email to MW w/ TRK# -Hitomi",IL,0,6.00,USJ-871,116.59,Tc# 3945 5331 4339 5083 5262 7,,,,,,0.00,,,,,,,0.00,,,,,,,John,Rock,defaultmail@daiwamassage.com,,25027 Chestnut,,,Taylor,MI,48180,United States,734-287-9623
"Sam's Club #6412 Southgate, MI 4/11-21/19 (IL)","Sam's Club #6412 Southgate, MI 4/11-21/19 (IL)",Michael Wang,116780,4/17/2019 12:03:05 PM,Kevin London,MI,48122,Foot Vibe Pro,,New,1,6.60,109.99,116.59,Credit Card,,,"2 years parts, 1 year labor for Small Items","Foot Vibe Pro,",No,,Delivered,,,"Ship 1 Foot vibe pro to customer and text tracking number.
4/18/19-will take care of the shipment  -Hitomi
4/19/19-sent text message w/ TRK# -Hitomi",IL,0,6.00,USJ-871,116.59,Tc# 9407 9975 9943 7339 4722 6,,,,,,0.00,,,,,,,0.00,,,,,,,Kevin,London,defaultmail@daiwamassage.com,,18647 Wood St.,,,Melvindale,MI,48122,United States,313-320-5794
"Sam's Club #6412 Southgate, MI 4/11-21/19 (IL)","Sam's Club #6412 Southgate, MI 4/11-21/19 (IL)",Michael Wang,116834,4/19/2019 2:18:20 PM,Ruben Flores,MI,48209,Foot Vibe Pro,,New,1,6.60,109.99,116.59,Credit Card,,,"2 years parts, 1 year labor for Small Items","Foot Vibe Pro,",No,,Delivered,,,"4/19/19- will ship it out from CA -Hitomi
4/22/19-sent text w/trk# - Hitomi",CA,0,6.00,USJ-871,116.59,Tc# 7858 7799 6765 8557 2700 4,,,,,,0.00,,,,,,,0.00,,,,,,,Ruben,Flores,defaultmail@daiwamassage.com,,526 S. Cottrell,,,Detroit,MI,48209,United States,248-766-3286
"Sam's Club #6412 Southgate, MI 4/11-21/19 (IL)","Sam's Club #6412 Southgate, MI 4/11-21/19 (IL)",Michael Wang,116839,4/19/2019 5:24:01 PM,Juanita Piazza,MI,48134,Relax 2 Zero 3D for Sam's,Demo (Box) Brown[-700],Demo,1,227.94,3799.00,4026.94,Credit Card,,,"3 years parts, 1 year labor (Free)","Relax 2 Zero 3D for Sam's,",No,,Called,,,"1st floor delivery please give customer 1 fabric chair pad.
4/20/2019 - Printed and Courtesy message sent - Tina
4/22/19-Per.Michael W, ""Please update software during delivery."" - Hitomi
Confirmed with Billy, all the new chairs' are upgrade, no need to update the software. 4/23/2019 June",TX,0,6.00,DWA-9060DWA-9060BR-DEMO (Box),4026.94,Tc# 1661 8244 6744 6281 4815 51,,,,,,0.00,,,,,,,0.00,,,,,,,Juanita,Piazza,defaultmail@daiwamassage.com,,25412 Frontier Circle,,,Flat Rock,MI,48134,United States,734-245-3299
"Sam's Club #6412 Southgate, MI 4/11-21/19 (IL)","Sam's Club #6412 Southgate, MI 4/11-21/19 (IL)",Michael Wang,116867,4/20/2019 4:48:07 PM,Ravi Sharma,MI,48193,Legacy for Sam's,Demo(Box) Black[-700],Demo,1,215.94,3599.00,3814.94,Credit Card,,,"3 years parts, 1 year labor (Free)","Legacy for Sam's,",No,,Called,,,"Give 1 fabric chair pad and please note this is basement delivery.
4/22Maritza Courtesy message sent @ 10:41AM
4/26/2019 Printed and courtesy message sent - Tina",TX,0,6.00,DWA-9100DWA-9100BL-Box,3814.94,Tc# 1602 4522 2825 3069 2909 53,,,,,,0.00,,,,,,,0.00,,,,,,,Ravi,Sharma,defaultmail@daiwamassage.com,,13922 Perry,,,Riverview,MI,48193,United States,248-499-4243
