﻿Order Number,Order Date,Event Name,Salesperson,SKU,Product Name,Color,QTY,Warranty,Payment Details,Tax,Order Total,Gross,Primary Payment Method,Primary Payment Balance,Primary Authorize Number,Primary Purchase Order Number,Primary Synchrony Account Number,Primary Synchrony Application Key,Primary Synchrony AccountInfo,Primary SynchronyTerm,Secondly Payment Method,Secondly Payment Balance,Secondly Authorize Number,Secondly Purchase Order Number,Secondly Synchrony Account Number,Secondly Synchrony Application Key,Secondly Synchrony AccountInfo,Secondly SynchronyTerm,Thirdly Payment Method,Thirdly Payment Balance,Thirdly Authorize Number,Thirdly Purchase Order Number,Thirdly Synchrony Account Number,Thirdly Synchrony Application Key,Thirdly Synchrony AccountInfo,Thirdly SynchronyTerm,Actual Shipping Cost,CustomerName,Shipping Address,Delivered On,Serial Number (TO Be),Note,Branch,IsNoTax,ActualTaxRate
106114,5/14/2018 12:07:43 PM,"Sam's Club #8120  Tallahassee, Fl 5/10-5/20",Michael Cuatrona,DWA-9100DWA-9100CH,Legacy for Sam's,New Choco,1,"3 years parts, 2 years labor ($200)",CUSTOM ,322.43,4621.43,4621.43,PurchaseOrder,4621.43,,8436 7955 7451 3307 9060 55,,,,,,0.00,,,,,,,,0.00,,,,,,,0.00,Kenneth King,8509978007,5/17/2018 12:00:00 AM,,"[MIL UPG - MC] - warranty upgraded from (3 years parts, 1 year labor) to ( 3 years parts, 2 year labor) at no extra cost as per Michael",FL,0,7.50
106115,5/14/2018 12:38:31 PM,"Sam's Club #8120  Tallahassee, Fl 5/10-5/20",Michael Cuatrona,DWA-9100DWA-9100CH,Legacy for Sam's,New Choco,1,"3 years parts, 3 years labor ($400)",CUSTOM ,269.93,3868.93,3868.93,PurchaseOrder,3868.93,,8187 7292 8993 1518 7361 19,,,,,,0.00,,,,,,,,0.00,,,,,,,0.00,Nilay Patel,9176737571,5/17/2018 12:00:00 AM,,[Special case - this is a one time exception; MC arranged a deal with the customer (verified and approved by Hide)] - demo order has been upgraded to a new unit and it will come with a 3 year warranty on both parts and labor at no extra cost as per Michael. This is an isolated order and it's been approved by Hide (verified) - please apply the appropriate codes,FL,0,7.50
106235,5/19/2018 9:59:42 AM,"Sam's Club #8120  Tallahassee, Fl 5/10-5/20",Michael Cuatrona,DWA-9100DWA-9100CH,Legacy for Sam's,New Choco,1,"3 years parts, 1 year labor (Free)",CUSTOM ,0.00,3599.00,3599.00,PurchaseOrder,3599.00,,6248 3576 6572 1939 8993 57,,,,,,0.00,,,,,,,,0.00,,,,,,,0.00,Jofita Lie,9177745007,,,[UPG MKTNG** - MC] - Please hold the order and standby for the customer's update for their address. Michael will follow up. Also note that the demo order has been upgraded to brand new unit as per Michael at no extra cost (apply code)**,Not Dispatched,1,7.50
