﻿Order Number,Order Date,Original Event Name,Event Name,Salesperson,SKU,Product Name,Color,QTY,Warranty,Payment Details,Tax,Order Total,Gross,Primary Payment Method,Primary Payment Balance,Primary Authorize Number,Primary Purchase Order Number,Primary Synchrony Account Number,Primary Synchrony Application Key,Primary Synchrony AccountInfo,Primary SynchronyTerm,Secondly Payment Method,Secondly Payment Balance,Secondly Authorize Number,Secondly Purchase Order Number,Secondly Synchrony Account Number,Secondly Synchrony Application Key,Secondly Synchrony AccountInfo,Secondly SynchronyTerm,Thirdly Payment Method,Thirdly Payment Balance,Thirdly Authorize Number,Thirdly Purchase Order Number,Thirdly Synchrony Account Number,Thirdly Synchrony Application Key,Thirdly Synchrony AccountInfo,Thirdly SynchronyTerm,Actual Shipping Cost,CustomerName,Shipping Address,Delivered On,Serial Number (TO Be),Note,Branch,IsNoTax,ActualTaxRate
107041,6/25/2018 11:09:24 AM,PNDC(DENTAL) 6/21-22/18 Bellevue(WA),PNDC(DENTAL) 6/21-22/18 Bellevue(WA),Scott Ishikawa,DWA-9150USJ-9150BL-DEMO,Legacy 3D,Demo Black,1,"3 years parts, 1 year labor (Free)",CUSTOM COD,275.00,3775.00,3775.00,CreditCard,100.00,square #Rq1H,,,,,,COD,3400.00,,,,,,,,0.00,,,,,,,0.00,Jill Calvert,5093414564,6/28/2018 12:00:00 AM,,,WA,0,10.00
107043,6/25/2018 11:19:20 AM,PNDC(DENTAL) 6/21-22/18 Bellevue(WA),PNDC(DENTAL) 6/21-22/18 Bellevue(WA),Scott Ishikawa,DWA-9150USJ-9150CH,Legacy 3D,New Choco,1,"3 years parts, 1 year labor (Free)",CUSTOM COD,325.00,4325.00,4325.00,CreditCard,20.00,Square #SU8l,,,,,,COD,3980.00,,,,,,,,0.00,,,,,,,0.00,Kyung Lee,2535836332,,,COD $3980,WA,0,10.00
107045,6/25/2018 11:28:08 AM,PNDC(DENTAL) 6/21-22/18 Bellevue(WA),PNDC(DENTAL) 6/21-22/18 Bellevue(WA),Scott Ishikawa,DWA-9150USJ-9150BL,Legacy 3D,New Black,1,"3 years parts, 1 year labor (Free)",CUSTOM COD,0.00,3800.00,3800.00,Cash,20.00,,,,,,,COD,0.00,,,,,,,,0.00,,,,,,,0.00,Jason Wong,2064656145,,,,Not Dispatched,1,10.00
107046,6/25/2018 11:34:06 AM,PNDC(DENTAL) 6/21-22/18 Bellevue(WA),PNDC(DENTAL) 6/21-22/18 Bellevue(WA),Scott Ishikawa,DWA-9150USJ-9150BL,Legacy 3D,New Black,1,"3 years parts, 1 year labor (Free)",CUSTOM COD,0.00,4800.00,4800.00,Cash,20.00,,,,,,,COD,4780.00,,,,,,,,0.00,,,,,,,0.00,Avinash Gyta,4256474318,,,,WA,1,10.00
