﻿Original Event Name,Event Name,Sales Person,Order Number,Order Date,Customer Name,State,Zip,Product Name,Color,Product Status,QTY,Tax,Total Before Tax,Order Total,Primary Payment Method,Second Payment Method,Thirdl Payment Method,Warranty,Order Items,Pick up,Delivered On,Order Status,Chair Type,Order Notes,Private Note,Branch,No Tax,Actual Tax Rate,SKU,Primary Payment Balance,Primary Authorize Number,Primary Purchase Order Number,Primary Synchrony Account Number,Primary Synchrony Application Key,Primary Synchrony Account Info,Primary Synchrony Term,Second Payment Balance,Second Authorize Number,Second Purchase Order Number,Second Synchrony Account Number,Second Synchrony Application Key,Second Synchrony Account Info,Second SynchronyTerm,Third Payment Balance,Third Authorize Number,Third Purchase Order Number,Third Synchrony Account Number,Third Synchrony Application Key,Third Synchrony Account Info,Third Synchrony Term
Stetson Country Christmas 12/6-16/18 Las Vegas (NV),Stetson Country Christmas 12/6-16/18 Las Vegas (NV),Rolly San Jose,112998,12/8/2018 9:38:00 AM,Timothy Edgington,WA,98632,PEGASUS 2 SMART,New Choco,New,1,0.00,6000.00,6000.00,Synchrony,,,"5 years parts, 1 year labor (Free)","PEGASUS 2 SMART,",No,12/12/2018 12:00:00 AM,Delivered,New,,"Confirmed SYNC($7,200) and original.invoice was signed by his wife. ***Please charge $6,000 before delivery and make sure to have sales draft signed from TIMOTHY ***12/10/18 Hitomi
Synchrony processed Dec 10th 2018 Scott",WA,1,8.25,PEGS-2PEGS-2-BR,6000.00,,,6019170813285720,98246576,San Diego,48 months,0.00,,,,,,,0.00,,,,,,
Stetson Country Christmas 12/6-16/18 Las Vegas (NV),Stetson Country Christmas 12/6-16/18 Las Vegas (NV),Ilene Maynard,113000,12/8/2018 9:44:28 AM,Amber Bird,TX,76234,Relax2Zero 3D,Demo Black,Demo,1,0.00,4000.00,4000.00,Synchrony,,,"5 years parts, 1 year labor (Free)","Relax2Zero 3D,",No,,Cancelled,,,needs synchrony 12/10/18 Hitomi,Not Dispatched,1,8.25,DWA-9060USJ-9060BL-DEMO,4000.00,,,6019170813285688,98245615,San Diego,36 months,0.00,,,,,,,0.00,,,,,,
Stetson Country Christmas 12/6-16/18 Las Vegas (NV),Stetson Country Christmas 12/6-16/18 Las Vegas (NV),Ruben Cuatrona,113003,12/8/2018 9:51:00 AM,Jr Thompson,IL,62439,PEGASUS 2 SMART,Demo Choco,Demo,1,0.00,6000.00,6000.00,CreditCard,COD,,"5 years parts, 1 year labor (Free)","PEGASUS 2 SMART,",No,,Called,,,"Warranty is 5 yrs parts and 2 years labor. Pls change it. Thanks
//Confirmed $500.00 in Square. ***COD  $5,500*** 12/10/18 Hitomi
Printed -Tina 12/12/2018
12/12/18- Courtesy call completed- Cristina- 1:32 pm",TX,1,8.25,PEGS-2PEGS-2-BR-DEMO,500.00,Sq# cRfd,,,,,,5500.00,,,,,,,0.00,,,,,,
Stetson Country Christmas 12/6-16/18 Las Vegas (NV),Stetson Country Christmas 12/6-16/18 Las Vegas (NV),Rodrigo Malabunga,113004,12/8/2018 9:56:06 AM,Michael Mccarthy,HI,96706,PEGASUS 2 SMART,New Black,New,1,0.00,6900.00,6900.00,Synchrony,,,"5 years parts, 2 years labor ($200)","PEGASUS 2 SMART,",No,,Scheduled,,,"Confirmed SYNC($9,600.00) and original. ***Please charge $6,900 before delivery and sales draft singed.***- 12/10/18 Hitomi",HI,1,8.25,PEGS-2PEGS-2-BL,6900.00,,,6019170813285548,98242717,San Diego,36 months,0.00,,,,,,,0.00,,,,,,
Stetson Country Christmas 12/6-16/18 Las Vegas (NV),Stetson Country Christmas 12/6-16/18 Las Vegas (NV),Ilene Maynard,113006,12/8/2018 10:02:23 AM,Julie Munson,MT,59634,Relax2Zero 3D,New Choco,New,1,0.00,4900.00,4900.00,CreditCard,,,"5 years parts, 1 year labor (Free)","Relax2Zero 3D,",No,,Assigned,,,"Confirmed $4,900 in Square. will confirmed how we deliver or ship 12/10/18 Hitomi
Shipping from CA - 12/11/18 Hitomi
12/17/18- Cristina will take care of shipment- 4:46 pm",CA,1,8.25,DWA-9060USJ-9060BR,4900.00,Sq# tbGT,,,,,,0.00,,,,,,,0.00,,,,,,
Stetson Country Christmas 12/6-16/18 Las Vegas (NV),Stetson Country Christmas 12/6-16/18 Las Vegas (NV),Rodrigo Malabunga,113012,12/8/2018 10:47:42 AM,Raymond Buckner,CA,95139,Relax2Zero 3D,New Choco,New,1,0.00,4000.00,4000.00,CreditCard,,,"5 years parts, 2 years labor ($200)","Relax2Zero 3D,",No,12/19/2018 12:00:00 AM,Delivered,New,,"Confirmed $4,000.00 in Square. 12/10/18 Hitomi
Confirmed w/Rod that the chair model is correct. (Relax 2 Zero 3D)- 12/10/18 @11:35  Hitomi",CA,1,8.25,DWA-9060USJ-9060BR,4000.00,SQ#S8e0,,,,,,0.00,,,,,,,0.00,,,,,,
Stetson Country Christmas 12/6-16/18 Las Vegas (NV),Stetson Country Christmas 12/6-16/18 Las Vegas (NV),Bonnie Brooks,113081,12/9/2018 7:56:51 PM,Mr Howard S Namilton,TN,38321,Pegasus,Demo Choco,Demo,1,0.00,4200.00,4200.00,CreditCard,,,"5 years parts, 1 year labor (Free)","Pegasus,",No,,Cancelled,,"Special discount for one time payment
Another phone is 7319873007","COnfirmed $4,200 in Square. assigning to FL . 12/10/18 Hitomi",FL,1,8.25,DWA-9400Pegasus-BR-DEMO,4200.00,#Abqi,,,,,,0.00,,,,,,,0.00,,,,,,
Stetson Country Christmas 12/6-16/18 Las Vegas (NV),Stetson Country Christmas 12/6-16/18 Las Vegas (NV),Bonnie Brooks,113082,12/9/2018 8:29:56 PM,Mr Denise Hawkins,CO,81303,Legacy 3D,Demo Choco,Demo,1,0.00,4500.00,4500.00,Synchrony,,,"5 years parts, 1 year labor (Free)","Legacy 3D,",No,,Cancelled,,"Special discount for demo chair , manager approval",needs sync 12/10/18 Hitomi,Not Dispatched,1,8.25,DWA-9150USJ-9150CH-DEMO,4500.00,,,6019170813288286,98302126,Las Vegas,36 months,0.00,,,,,,,0.00,,,,,,
Stetson Country Christmas 12/6-16/18 Las Vegas (NV),Stetson Country Christmas 12/6-16/18 Las Vegas (NV),May Kam,113084,12/9/2018 8:42:21 PM,Mrs Shelly winn,UT,84711,Pegasus,Demo Black,Demo,1,0.00,4500.00,4500.00,CreditCard,,,"5 years parts, 1 year labor (Free)","Pegasus,",YES,,Cancelled,,"Special discount for pick up on Dec 16,2018; Manager approval",duplicate for #113085,Not Dispatched,1,8.25,DWA-9400Pegasus-BL-DEMO,4500.00,#7BNM,,,,,,0.00,,,,,,,0.00,,,,,,
Stetson Country Christmas 12/6-16/18 Las Vegas (NV),Stetson Country Christmas 12/6-16/18 Las Vegas (NV),May Kam,113085,12/9/2018 8:50:58 PM,Mrs Shelly winn,UT,84711,Pegasus,Demo Black,Demo,1,0.00,4500.00,4500.00,CreditCard,,,"5 years parts, 1 year labor (Free)","Pegasus,",YES,12/16/2018 12:00:00 AM,Delivered,Demo,"Special discount for pick up  ( on Dec 16,2018 ) , manager approval.","will confirm pickup confirmation   12/10/18 Hitomi
12/18/18-Confirmed $4,500.00 in Square. Received pickup confirmation. Hitomi",NV,1,8.25,DWA-9400Pegasus-BL-DEMO,4500.00,#7BNM,,,,,,0.00,,,,,,,0.00,,,,,,
Stetson Country Christmas 12/6-16/18 Las Vegas (NV),Stetson Country Christmas 12/6-16/18 Las Vegas (NV),Ruben Cuatrona,113086,12/10/2018 12:07:08 AM,Samuel Gross,AR,71909,PEGASUS 2 SMART,New Choco,New,1,0.00,6200.00,6200.00,Synchrony,,,"5 years parts, 2 years labor ($200)","PEGASUS 2 SMART,",No,12/21/2018 12:00:00 AM,Delivered,New,,"Confirmed SYNC($8,500) and original. ***Please charge $6,200 before delivery and sales draft signed.***12/10/18 Hitomi
Printed -Tina 12/12/2018
12/12Maritza Courtesy message sent @ 5:16PM
12/26/2018  Asumi/received delivery confirmation and sells draft",TX,1,8.25,PEGS-2PEGS-2-BR,6200.00,,,6019170813287759,98289048,San Diego,36 months,0.00,,,,,,,0.00,,,,,,
Stetson Country Christmas 12/6-16/18 Las Vegas (NV),Stetson Country Christmas 12/6-16/18 Las Vegas (NV),Rolly San Jose,113088,12/10/2018 12:12:25 AM,Deborah Vert,TX,76035,Relax2Zero 3D,New Choco,New,1,0.00,4500.00,4500.00,CreditCard,,,"5 years parts, 1 year labor (Free)","Relax2Zero 3D,",No,12/20/2018 12:00:00 AM,Delivered,New,,"Pls deliver within 2 weeks from dec 10, 2018
//Confirmed $4,500.00 in Square. 12/10/18 Hitomi
Printed -Tina 12/12/2018
12/12Maritza Courtesy message sent @ 5:18PM
12/24Maritza- Delivery confirmation received.",TX,1,8.25,DWA-9060USJ-9060BR,4500.00,SQ# 4BOL,,,,,,0.00,,,,,,,0.00,,,,,,
Stetson Country Christmas 12/6-16/18 Las Vegas (NV),Stetson Country Christmas 12/6-16/18 Las Vegas (NV),Ruben Cuatrona,113089,12/10/2018 12:18:59 AM,Mike Duncan,CA,93311,PEGASUS 2 SMART,Demo Choco,Demo,1,0.00,6200.00,6200.00,CreditCard,,,"5 years parts, 2 years labor ($200)","PEGASUS 2 SMART,",No,12/17/2018 12:00:00 AM,Delivered,Demo,,"Pls deliver asap within 10 days from Dec 10, 2018
//Confirmed $6,200 in Square. 12/10/18 Hitomi",CA,1,8.25,PEGS-2PEGS-2-BR-DEMO,6200.00,SQ# 3yJ0,,,,,,0.00,,,,,,,0.00,,,,,,
Stetson Country Christmas 12/6-16/18 Las Vegas (NV),Stetson Country Christmas 12/6-16/18 Las Vegas (NV),Rolly San Jose,113090,12/10/2018 12:23:26 AM,Vanessa Talley,TX,78634,Relax2Zero 3D,New Choco,New,1,0.00,4500.00,4500.00,Synchrony,,,"5 years parts, 1 year labor (Free)","Relax2Zero 3D,",No,12/21/2018 12:00:00 AM,Delivered,New,,"Confirmed SYNC($5,400) and original. ***Please charge $4,500 before delivery and sales draft signed.*** 12/10/18 Hitomi
Printed -Tina 12/12/2018
12/12Maritza Courtesy message sent @ 5:20PM
12/24Maritza- Delivery confirmation received.NEED SALES DRAFT Sales draft received 12/26",TX,1,8.25,DWA-9060USJ-9060BR,4500.00,,,6019170813288120,98294984,San Diego,36 months,0.00,,,,,,,0.00,,,,,,
Stetson Country Christmas 12/6-16/18 Las Vegas (NV),Stetson Country Christmas 12/6-16/18 Las Vegas (NV),Ilene Maynard,113091,12/10/2018 12:31:08 AM,Brian Terry,UT,84725,Relax2Zero 3D,New Black,New,1,0.00,4900.00,4900.00,Synchrony,,,"5 years parts, 1 year labor (Free)","Relax2Zero 3D,",No,12/21/2018 12:00:00 AM,Delivered,New,,"Confirmed SYNC($6,500) and original. *** Please charge $4,900 before delivery and have sales draft signed.*** 12/10/18 Hitomi
12/12/18-Courtesy call/text completed- Cristina 5:29pm
12/21-Synchrony charged by Kohei.
1/3Maritza Delivery confirmation received. plus sales draft",NV,1,8.25,DWA-9060USJ-9060BL,4900.00,,,6019170813288161,98295881,San Diego,36 months,0.00,,,,,,,0.00,,,,,,
Stetson Country Christmas 12/6-16/18 Las Vegas (NV),Stetson Country Christmas 12/6-16/18 Las Vegas (NV),Ilene Maynard,113092,12/10/2018 12:37:19 AM,Meisaidez Chun,HI,96782,Relax2Zero 3D,New Black,New,1,0.00,5304.00,5304.00,Synchrony,,,"5 years parts, 1 year labor (Free)","Relax2Zero 3D,",No,,Delivered,,,"Confirmed SYNC($6,600) and original. ***Please charge $5,304.00 before delivery and sales draft signed.***12/10/18 Hitomi
delivery date is 12/21/2018 @8:30am.",HI,1,8.25,DWA-9060USJ-9060BL,5304.00,,,6019170813289920,98329149,San Diego,36 months,0.00,,,,,,,0.00,,,,,,
Stetson Country Christmas 12/6-16/18 Las Vegas (NV),Stetson Country Christmas 12/6-16/18 Las Vegas (NV),May Kam,113112,12/10/2018 10:32:07 AM,Bret Burnsioe,WA,99224,Legacy 3D,Demo Choco,Demo,1,0.00,4200.00,4200.00,CreditCard,CreditCard,,"5 years parts, 1 year labor (Free)","Legacy 3D,Tourmaline Pad for Legacy 3D,",No,12/11/2018 12:00:00 AM,Delivered,Demo,,"Confirmed $2,000 in Square. ***COD $2,200***12/10/18 Hitomi
Scheduled Dec 11   4pm to 6pm Scott
12/20Maritza Delivery confirmation received (COD $2200 collected square)",WA,1,8.25,DWA-9150USJ-9150CH-DEMO,2000.00,Receipt #uPLv,,,,,,2200.00,L8sW,,,,,,0.00,,,,,,
Stetson Country Christmas 12/6-16/18 Las Vegas (NV),Stetson Country Christmas 12/6-16/18 Las Vegas (NV),Bonnie Brooks,113113,12/10/2018 10:50:23 AM,Mr Howard S Hamilton,TN,38321,Pegasus,Demo Choco,Demo,1,0.00,4200.00,4200.00,CreditCard,,,"5 years parts, 1 year labor (Free)","Pegasus,",No,12/22/2018 12:00:00 AM,Delivered,Demo,Special discount for one time payment,"CC Josefina - 12/11/18 10:53am TXT
Correction for #113081
Confirmed $4,200 in Square. assigning to FL . 12/10/18 Hitomi
1/2Maritza-Delivery confirmation received.",FL,1,8.25,DWA-9400Pegasus-BR-DEMO,4200.00,#Abqi,,,,,,0.00,,,,,,,0.00,,,,,,
Stetson Country Christmas 12/6-16/18 Las Vegas (NV),Stetson Country Christmas 12/6-16/18 Las Vegas (NV),Bonnie Brooks,113114,12/10/2018 11:07:29 AM,Mr Denise Hawkins,CO,81303,Legacy 3D,Demo Choco,Demo,1,0.00,4500.00,4500.00,Synchrony,,,"5 years parts, 1 year labor (Free)","Legacy 3D,",No,12/21/2018 12:00:00 AM,Delivered,New,"Special discount for demo chair , manager approval","Confirmed SYNC($4,500) and original.***Please charge $4,500.00 before delivery and sales draft signed ***12/10/18 Hitomi
Printed -Tina 12/12/2018
12/12Maritza Courtesy message sent @ 5:27PM
12/18Maritza- Per May, please upgrade to new chair (4:30PM)
12/26/2018  Asumi/received delivery confirmation and sells draft",TX,1,8.25,DWA-9150USJ-9150CH-DEMO,4500.00,,,6019170813288286,98302126,Las Vegas,36 months,0.00,,,,,,,0.00,,,,,,
Stetson Country Christmas 12/6-16/18 Las Vegas (NV),Stetson Country Christmas 12/6-16/18 Las Vegas (NV),Ilene Maynard,113116,12/10/2018 12:01:41 PM,Amber Bird,TX,76234,Relax2Zero 3D,New Black,New,1,0.00,4000.00,4000.00,Synchrony,,,"5 years parts, 1 year labor (Free)","Relax2Zero 3D,",No,12/20/2018 12:00:00 AM,Delivered,New,,"Confirmed SYNC($5,500) and original. ***Please charge $4,000 before delivery and sales draft signed.*** 12/10/18 Hitomi
Printed - Tina 12/12/2018
12/12Maritza Courtesy messages sent @ 5:31PM
12/24Maritza- Delivery confirmation and received. NEED SALES DRAFT. Received sales draft.",TX,1,8.25,DWA-9060USJ-9060BL,4000.00,,,6019170813285688,98245615,San Diego,36 months,0.00,,,,,,,0.00,,,,,,
Stetson Country Christmas 12/6-16/18 Las Vegas (NV),Stetson Country Christmas 12/6-16/18 Las Vegas (NV),May Kam,113122,12/10/2018 6:21:56 PM,Mr & Mrs Tom Pribyl,NE,68361,Legacy 3D,New Choco,New,1,0.00,4200.00,4200.00,CreditCard,CreditCard,,"5 years parts, 1 year labor (Free)","Legacy 3D,Tourmaline Pad for Legacy 3D,",No,12/23/2018 12:00:00 AM,Delivered,New,"Special discount for one time payment, manager approval; Another phone is 4027594620","Confirmed $2,000 in Square. ***COD $2,200.*** 12/11/18 Hitomi
Printed -Tina 12/12/2018
12/12Courtesy message sent @ 5:36PM
12/26/2018 Asumi/received delivery confirmation",TX,1,8.25,DWA-9150USJ-9150CH,2000.00,#mbzX,,,,,,2200.00,eh5S,,,,,,0.00,,,,,,
Stetson Country Christmas 12/6-16/18 Las Vegas (NV),Stetson Country Christmas 12/6-16/18 Las Vegas (NV),May Kam,113123,12/10/2018 7:11:30 PM,Mr & Mrs Lavieng Vongsoury,OR,97015,Legacy 3D,Demo Black,Demo,1,0.00,3450.00,3450.00,CreditCard,CreditCard,,"3 years parts, 1 year labor (Free)","Legacy 3D,Daiwa Blanket,Tourmaline Pad for Legacy 3D,",No,12/12/2018 12:00:00 AM,Delivered,Demo,Special discount from Referral # 112861 family .Another phone is 5039299127,"REFERRAL ORDER FROM HONG PHAT 
Confirmed $200.00 in Square. ***COD $3,250*** spoke to Scott, I assigned to WA 12/11/18 Hitomi
Scheduled for Dec 12 8am to10am Scott",WA,1,8.25,DWA-9150USJ-9150BL-DEMO,200.00,#jvTd,,,,,,3250.00,Receipt #8vTC,,,,,,0.00,,,,,,
Stetson Country Christmas 12/6-16/18 Las Vegas (NV),Stetson Country Christmas 12/6-16/18 Las Vegas (NV),Ilene Maynard,113125,12/10/2018 8:14:12 PM,Wayne McCurley,CA,95320,Relax2Zero 3D,New Choco,New,1,0.00,4900.00,4900.00,CreditCard,,,"5 years parts, 1 year labor (Free)","Relax2Zero 3D,",No,12/19/2018 12:00:00 AM,Delivered,New,,12/11Maritza Confirmed 4900 on square.,CA,1,8.25,DWA-9060USJ-9060BR,4900.00,SQ# 6mkY,,,,,,0.00,,,,,,,0.00,,,,,,
Stetson Country Christmas 12/6-16/18 Las Vegas (NV),Stetson Country Christmas 12/6-16/18 Las Vegas (NV),Rolly San Jose,113126,12/10/2018 8:30:59 PM,Gerald Johnson,WA,98619,Relax2Zero 3D,New Black,New,1,0.00,5650.00,5650.00,Synchrony,,,"5 years parts, 1 year labor (Free)","Relax2Zero 3D,",No,,Cancelled,,,,Not Dispatched,1,8.25,DWA-9060USJ-9060BL,4900.00,,,6019170813290670,98360143,San Diego,48 months,0.00,,,,,,,0.00,,,,,,
Stetson Country Christmas 12/6-16/18 Las Vegas (NV),Stetson Country Christmas 12/6-16/18 Las Vegas (NV),Rolly San Jose,113127,12/10/2018 8:42:57 PM,Dan and donna Hoffman,WY,82930,Relax2Zero 3D,New Choco,New,1,0.00,4500.00,4500.00,CreditCard,,,"5 years parts, 1 year labor (Free)","Relax2Zero 3D,",No,1/2/2019 12:00:00 AM,Delivered,New,,"COnfirmed $4,500 in Square. Spoke to Kohei , assigning to NV.  12/11/18 Hitomi
12/12/18- Courtesy call/ text completed- Cristina- 5:26pm",NV,1,8.25,DWA-9060USJ-9060BR,4500.00,SQ# 2wRC,,,,,,0.00,,,,,,,0.00,,,,,,
Stetson Country Christmas 12/6-16/18 Las Vegas (NV),Stetson Country Christmas 12/6-16/18 Las Vegas (NV),Ruben Cuatrona,113128,12/10/2018 8:48:50 PM,Mark Lundahl,UT,84325,Relax2Zero 3D,Demo Choco,Demo,1,0.00,4200.00,4200.00,Synchrony,,,"5 years parts, 2 years labor ($200)","Relax2Zero 3D,",No,12/28/2018 12:00:00 AM,Delivered,Demo,,"Confirmed SYNC($8,500) and original.***Please charge $4,200 before delivery and sales draft signed.***12/11/18 Hitomi
12/28 -  Delivered by Rex",NV,1,8.25,DWA-9060USJ-9060BR-DEMO,4200.00,,,6019170813290993,98369816,San Diego,36 months,0.00,,,,,,,0.00,,,,,,
Stetson Country Christmas 12/6-16/18 Las Vegas (NV),Stetson Country Christmas 12/6-16/18 Las Vegas (NV),Rolly San Jose,113136,12/11/2018 9:20:36 AM,Gerald Johnson,WA,98619,Relax2Zero 3D,New Black,New,1,0.00,4900.00,4900.00,Synchrony,,,"5 years parts, 1 year labor (Free)","Relax2Zero 3D,",No,12/21/2018 12:00:00 AM,Delivered,New,,"Confirmed SYNC($8,500) and original. ***Please charge  $4,900 before delivery and sales draft signed.***12/11/18 Hitomi
He will be back in his home dec 18. Pls call him on this date to set up appointment
Thanks
Rolly
12/12/18-Courtesy call/text completed- Cristina 5:20
12/24Maritza- Delivery confirmation and sales draft received.",WA,1,8.25,DWA-9060USJ-9060BL,4900.00,,,6019170813290670,98360143,San Diego,48 months,0.00,,,,,,,0.00,,,,,,
Stetson Country Christmas 12/6-16/18 Las Vegas (NV),Stetson Country Christmas 12/6-16/18 Las Vegas (NV),May Kam,113147,12/11/2018 6:28:07 PM,Mr & Mrs Paul Bagwell,AR,72764,Legacy 3D,New Choco,New,1,0.00,3850.00,3850.00,CreditCard,,,"5 years parts, 1 year labor (Free)","Legacy 3D,Tourmaline Pad for Legacy 3D,",No,12/28/2018 12:00:00 AM,Delivered,New,"Special discount for one time payment , manager approval","Confirmed $3,850.00 in Square. 12/12/18 Hitomi
Printed 12/12/2018 -Tina
12/13Maritza Courtesy message sent @ 2:47PM
12/31Delivery confirmation received",TX,1,8.25,DWA-9150USJ-9150CH,3850.00,#zqva,,,,,,0.00,,,,,,,0.00,,,,,,
Stetson Country Christmas 12/6-16/18 Las Vegas (NV),Stetson Country Christmas 12/6-16/18 Las Vegas (NV),Bonnie Brooks,113148,12/11/2018 6:39:32 PM,Mr Nathan Plendl,IA,51031,Pegasus,New Choco,New,1,0.00,5500.00,5500.00,Synchrony,,,"5 years parts, 1 year labor (Free)","Pegasus,",No,,Called,,"Pls make finance purchase $5500, thanks","Confirmed SYNC($6,600) and original. ***Please charge $5,500 before delivery and sales draft signed. ***12/12/18 Hitomi
Printed 12/12/2018 -Tina
12/13Maritza Courtesy message sent @ 2:49PM",TX,1,8.25,DWA-9400Pegasus-BR,5500.00,,,6019170813292742,98420768,Las Vegas,36 months,0.00,,,,,,,0.00,,,,,,
Stetson Country Christmas 12/6-16/18 Las Vegas (NV),Stetson Country Christmas 12/6-16/18 Las Vegas (NV),May Kam,113149,12/11/2018 7:04:25 PM,Mr &Mrs Bo Springer,OH,44404,Pegasus,New Choco,New,1,0.00,4600.00,4600.00,CreditCard,COD,,"5 years parts, 1 year labor (Free)","Pegasus,Tourmaline Pad for Pegasus,",No,,Cancelled,,"Special discount for one time payment , manager approval ; balance $ 2300 as COD , thanks","Confirmed $2,300.00 in Square. ***COD  $ 2300 *** 12/12/18 Hitomi
COLOR CHANGED TO BLACK
Printed 12/12/2018 - Tina",TX,1,8.25,DWA-9400Pegasus-BR,2300.00,#dgML,,,,,,2300.00,,,,,,,0.00,,,,,,
Stetson Country Christmas 12/6-16/18 Las Vegas (NV),Stetson Country Christmas 12/6-16/18 Las Vegas (NV),Ruben Cuatrona,113178,12/12/2018 10:43:16 PM,Brenda Neether,WY,82716,PEGASUS 2 SMART,New Choco,New,1,0.00,6900.00,6900.00,Synchrony,,,"5 years parts, 2 years labor ($200)","PEGASUS 2 SMART,",No,,Scheduled,,,"Deliver before christmas
//Confirmed sync($8,800) and original. ***Please charge $6,900 before delivery and sales draft signed.***",WA,1,8.25,PEGS-2PEGS-2-BR,6900.00,,,6019170813293591,98456477,Las Vegas,24 months,0.00,,,,,,,0.00,,,,,,
Stetson Country Christmas 12/6-16/18 Las Vegas (NV),Stetson Country Christmas 12/6-16/18 Las Vegas (NV),Ruben Cuatrona,113179,12/12/2018 10:50:22 PM,Cari Nelson,OR,97415,PEGASUS 2 SMART,New Black,New,1,0.00,6000.00,6000.00,Synchrony,,,"5 years parts, 2 years labor ($200)","PEGASUS 2 SMART,",No,12/22/2018 12:00:00 AM,Delivered,New,,"Deliver before christmas
//Confirmed SYNC($8,500) and original.***Please charge $6,000 before delivery and sales draft signed.*** 12/13/18 Hitomi
12/14Maritza Courtesy message sent @ 2:17PM
12/14Maritza- Have reached out to Yesa (Possible 3rd Party since Scott is booked) Due to 3rd party being over $1200, Scott will take care of it.
12/24Maritza- Delivery confirmation and sales draft received.",WA,1,8.25,PEGS-2PEGS-2-BL,6000.00,,,6019170813293468,98453888,Las Vegas,36 months,0.00,,,,,,,0.00,,,,,,
Stetson Country Christmas 12/6-16/18 Las Vegas (NV),Stetson Country Christmas 12/6-16/18 Las Vegas (NV),Ilene Maynard,113180,12/12/2018 10:57:34 PM,Brad Pictor,GA,30067,Relax2Zero 3D,New Choco,New,1,0.00,4300.00,4300.00,CreditCard,,,"5 years parts, 1 year labor (Free)","Relax2Zero 3D,",No,12/22/2018 12:00:00 AM,Delivered,New,,"Deliver before christmas
//Confirmed $4,300.00 in Square. 12/13/18 Hitomi
Received delivery confirmation -- 12/28/2018 Asumi",FL,1,8.25,DWA-9060USJ-9060BR,4300.00,SQ# wiS9,,,,,,0.00,,,,,,,0.00,,,,,,
Stetson Country Christmas 12/6-16/18 Las Vegas (NV),Stetson Country Christmas 12/6-16/18 Las Vegas (NV),Ilene Maynard,113181,12/12/2018 11:05:14 PM,Jim Bridges,FL,34236,Relax2Zero 3D,New Black,New,1,0.00,4300.00,4300.00,CreditCard,,,"5 years parts, 1 year labor (Free)","Relax2Zero 3D,",No,12/19/2018 12:00:00 AM,Delivered,New,,"CC Josefina - 12/14/18 2:48pm
Deliver before christmas
//Confirmed $4,300.00 in Square. 12/13/18 Hitomi
Received Delivery confirmation --  12/27/2018 Asumi",FL,1,8.25,DWA-9060USJ-9060BL,4300.00,Receipt #ZIom,,,,,,0.00,,,,,,,0.00,,,,,,
Stetson Country Christmas 12/6-16/18 Las Vegas (NV),Stetson Country Christmas 12/6-16/18 Las Vegas (NV),Ilene Maynard,113182,12/12/2018 11:13:07 PM,Charles Miller,OK,74727,Relax2Zero 3D,New Black,New,1,0.00,4300.00,4300.00,Synchrony,,,"5 years parts, 1 year labor (Free)","Relax2Zero 3D,",No,,Scheduled,,,"Deliver before christmas
//Synchrony approval $8,500 (for #113182&#113183).***Please charge $8,500 (for #113182&#113183) and sales draft signed from CHARLES MILLER*** 12/13/18 Hitomi
12/13Courtesy messages sent @ 5:10PM",TX,1,8.25,DWA-9060USJ-9060BL,4300.00,,,6019170813292148,98408758,Las Vegas,36 months,0.00,,,,,,,0.00,,,,,,
Stetson Country Christmas 12/6-16/18 Las Vegas (NV),Stetson Country Christmas 12/6-16/18 Las Vegas (NV),Ilene Maynard,113183,12/12/2018 11:19:26 PM,Charles Miller,OK,74727,Relax2Zero 3D,New Choco,New,1,0.00,4300.00,4300.00,Synchrony,CreditCard,,"5 years parts, 1 year labor (Free)","Relax2Zero 3D,",No,12/28/2018 12:00:00 AM,Delivered,New,,"Deliver before christmas.
//Confirmed $100.00 in Square. /Synchrony approval $8,500 (for #113182&#113183).***Please charge $8,500 (for #113182&#113183) and sales draft signed from CHARLES MILLER*** 12/13/18 Hitomi
12/13Courtesy message sent with other order.
1/2Maritza Delivery confirmation received with sales draft",TX,1,8.25,DWA-9060USJ-9060BR,4200.00,,,6019170813292148,98408758,Las Vegas,36 months,100.00,SQ# KB8P,,,,,,0.00,,,,,,
Stetson Country Christmas 12/6-16/18 Las Vegas (NV),Stetson Country Christmas 12/6-16/18 Las Vegas (NV),Rolly San Jose,113184,12/12/2018 11:32:01 PM,Cassandra Weaver,NY,12545,Relax2Zero 3D,New Choco,New,1,0.00,4900.00,4900.00,Synchrony,,,"5 years parts, 1 year labor (Free)","Relax2Zero 3D,",No,,Hold,,,"Deliver before christmas
//Confirmed sync($5,900) and original. ***Please charge $4,900 before delivery and sales draft signed.***12/13/18 Hitomi
12/13Courtesy message sent @ 5:13PM Customer has said she cancelled the order. Will place on hold until we reach out to sales rep.",TX,1,8.25,DWA-9060USJ-9060BR,4900.00,,,6019170813293963,98468326,Huston,48 months,0.00,,,,,,,0.00,,,,,,
Stetson Country Christmas 12/6-16/18 Las Vegas (NV),Stetson Country Christmas 12/6-16/18 Las Vegas (NV),Rodrigo Malabunga,113193,12/13/2018 9:51:42 PM,Chana Vasut,TX,78621,Relax2Zero 3D,New Choco,New,2,0.00,8000.00,8000.00,Synchrony,,,"5 years parts, 2 years labor ($200)","Relax2Zero 3D,",No,12/21/2018 12:00:00 AM,Delivered,New,,"Deliver before christmas
//Confirmed SYNC($9,600) and original. ***Please charge $8,000 before delivery and sales draft signed.*** 12/14/18 Hitomi
12/24Maritza- Delivery confirmation and sales draft received.",TX,1,8.25,DWA-9060USJ-9060BR,8000.00,,,6019170813294342,98489169,Las Vegas,36 months,0.00,,,,,,,0.00,,,,,,
Stetson Country Christmas 12/6-16/18 Las Vegas (NV),Stetson Country Christmas 12/6-16/18 Las Vegas (NV),Rolly San Jose,113194,12/13/2018 9:57:10 PM,John Meischeid,PA,18040,Relax2Zero 3D,New Choco,New,1,0.00,4000.00,4000.00,CreditCard,,,"5 years parts, 1 year labor (Free)","Relax2Zero 3D,",No,12/20/2018 12:00:00 AM,Delivered,New,,"Deliver before christmas//
Confirmed $4,000.00 in Square. 12/14/18 Hitomi
12/26/2018  Asumi/received delivery confirmation",TX,1,8.25,DWA-9060USJ-9060BR,4000.00,SQ# kjb7,,,,,,0.00,,,,,,,0.00,,,,,,
Stetson Country Christmas 12/6-16/18 Las Vegas (NV),Stetson Country Christmas 12/6-16/18 Las Vegas (NV),Rolly San Jose,113195,12/13/2018 10:04:44 PM,John and shari Rogers,UT,84078,Relax2Zero 3D,New Choco,New,1,0.00,4500.00,4500.00,Synchrony,COD,,"5 years parts, 1 year labor (Free)","Relax2Zero 3D,",No,,Cancelled,,,"Deliver after January 1, 2019
//Confirmed SYNC($2,000) and original. ***PLease charge $2,000 before delivery and collect COD $2,500. sales draft signed.  *** 12/14/18 Hitomi",Not Dispatched,1,8.25,DWA-9060USJ-9060BR,2000.00,,,6019170813294813,98501355,Las Vegas,24 months,2500.00,,,,,,,0.00,,,,,,
Stetson Country Christmas 12/6-16/18 Las Vegas (NV),Stetson Country Christmas 12/6-16/18 Las Vegas (NV),Rodrigo Malabunga,113196,12/13/2018 10:11:50 PM,Robert Jernigan,CA,93270,PEGASUS 2 SMART,New Choco,New,1,0.00,6000.00,6000.00,Synchrony,,,"5 years parts, 2 years labor ($200)","PEGASUS 2 SMART,",No,12/17/2018 12:00:00 AM,Delivered,New,,"Deliver before christmas
//Confirmed SYNC($6,000) and original.***Please charge $6,000 before delivery and sales draft signed.***12/14/18 Hitomi
12/18Delivery confirmation received with sales draft",CA,1,8.25,PEGS-2PEGS-2-BR,6000.00,,,6019170813294938,98503469,Las Vegas,48 months,0.00,,,,,,,0.00,,,,,,
Stetson Country Christmas 12/6-16/18 Las Vegas (NV),Stetson Country Christmas 12/6-16/18 Las Vegas (NV),Rolly San Jose,113199,12/14/2018 9:13:26 AM,John and Shari Rogers,UT,84078,Relax2Zero 3D,New Choco,New,1,0.00,4500.00,4500.00,Synchrony,COD,,"5 years parts, 1 year labor (Free)","Relax2Zero 3D,",No,1/2/2019 12:00:00 AM,Delivered,New,,"CORRECTION FOR #113195 
Deliver after January 1, 2019
//Confirmed SYNC($2,000) and original. ***PLease charge $2,000 before delivery and collect COD $2,500. sales draft signed.  *** 12/14/18 Hitomi
12/20Maritza Courtesy message sent @ 9:10AM
CHANGE COLOR TO BLACK
1/1/19 Synchrony charged by Rex",NV,1,8.25,DWA-9060USJ-9060BR,2000.00,,,6019170813294813,98501355,Las Vegas,24 months,2500.00,,,,,,,0.00,,,,,,
Stetson Country Christmas 12/6-16/18 Las Vegas (NV),Stetson Country Christmas 12/6-16/18 Las Vegas (NV),Ilene Maynard,113229,12/15/2018 12:33:31 AM,Marion Jenista,CO,81641,Relax2Zero 3D,Demo Choco,Demo,1,0.00,4200.00,4200.00,CreditCard,CreditCard,,"5 years parts, 1 year labor (Free)","Relax2Zero 3D,",No,,Cancelled,,,"Deliver after Jan 10, 2019
//Confirmed $3,000/$1,200  in Square. **Please confirm the chair color** 12/17/18 Hitomi",TX,1,8.25,DWA-9060USJ-9060BR-DEMO,3000.00,SQ# fEsv,,,,,,1200.00,SQ # jyFF,,,,,,0.00,,,,,,
Stetson Country Christmas 12/6-16/18 Las Vegas (NV),Stetson Country Christmas 12/6-16/18 Las Vegas (NV),Rolly San Jose,113230,12/15/2018 12:43:37 AM,John Meeks,OH,45011,PEGASUS 2 SMART,New Black,New,1,0.00,6000.00,6000.00,CreditCard,,,"5 years parts, 1 year labor (Free)","PEGASUS 2 SMART,",No,,Called,,,"Process credit card Amex # 371332749085005 exp 10/22 with Cvc # 2436 on Dec 21, 2018
After credit card passed, pls deliver after Jan 1, 2019
//12/21/18-Hitomi charged $6,000 with Receipt #pU2R. Rolly informed if it can be delivered before 1/1/19, it would be better. June will let me know.  - Hitomi
12/21Maritza Courtesy message sent @ 12:48PM",TX,1,8.25,PEGS-2PEGS-2-BL,6000.00,Receipt #pU2R,,,,,,0.00,,,,,,,0.00,,,,,,
Stetson Country Christmas 12/6-16/18 Las Vegas (NV),Stetson Country Christmas 12/6-16/18 Las Vegas (NV),Ilene Maynard,113231,12/15/2018 12:49:14 AM,Leilah Young,AZ,86040,Relax2Zero 3D,New Black,New,1,0.00,4900.00,4900.00,CreditCard,,,"5 years parts, 1 year labor (Free)","Relax2Zero 3D,",No,12/28/2018 12:00:00 AM,Delivered,New,,"Deliver after Jan 1,2019
//Confirmed $4,900 in Square.***Please confirm the chair color ** 12/17/18 Hitomi
12/20Maritza Courtesy message sent @ 9:20AM(CONFIRMED BLACK R2Z 3D)
12/28- Delivered by Rex.",NV,1,8.25,DWA-9060USJ-9060BL,4900.00,SQ# tFpN,,,,,,0.00,,,,,,,0.00,,,,,,
Stetson Country Christmas 12/6-16/18 Las Vegas (NV),Stetson Country Christmas 12/6-16/18 Las Vegas (NV),Ruben Cuatrona,113232,12/15/2018 12:57:29 AM,Nanda Sekhon,TX,79932,PEGASUS 2 SMART,New Black,New,1,0.00,6500.00,6500.00,CreditCard,,,"5 years parts, 2 years labor ($200)","PEGASUS 2 SMART,",No,,Scheduled,,,"Deliver on dec 24 as it is a birthday gift to her husband
//COnfirmed $6,500 in Square. Ruben talked to Mario on 12/17 and Mario stated TX would deliver it. Per.Ruben , before Christmas delivery is just request not promised. 12/17/18 Hitomi
12/20/18- Courtesy call/text completed- Cristina- 10:58 am
12/27Maritza- Customer called for a status. Spoke with June and TX will give courtesy call.",TX,1,8.25,PEGS-2PEGS-2-BL,6500.00,SQ# msqn,,,,,,0.00,,,,,,,0.00,,,,,,
Stetson Country Christmas 12/6-16/18 Las Vegas (NV),Stetson Country Christmas 12/6-16/18 Las Vegas (NV),May Kam,113242,12/15/2018 8:42:20 AM,Mr Homeo Coleman,AL,36502,Pegasus,New Choco,New,1,0.00,4700.00,4700.00,Cash,Check,,"5 years parts, 1 year labor (Free)","Pegasus,Tourmaline Pad for Pegasus,",No,12/28/2018 12:00:00 AM,Delivered,New,"Special discount for one time payment , manager approval","ANOTHER PHONE# 251-655-0232 
//will confirm $500 cash. ***Please collect COD $4,200 ***Please confirm the chair color**-12/17/18 Hitomi
//Pre.Michael received $500 cash. 12/20/18 Hitomi
Received delivery confirmation --- 1/2/2019 Asumi
//COD$4,200 was paid in personal check. will confirm if the check is cleared on next week. 1/2/19 @11:40 Hitomi",FL,1,8.25,DWA-9400Pegasus-BR,500.00,,,,,,,4200.00,,,,,,,0.00,,,,,,
Stetson Country Christmas 12/6-16/18 Las Vegas (NV),Stetson Country Christmas 12/6-16/18 Las Vegas (NV),Bonnie Brooks,113245,12/15/2018 9:46:59 AM,Mrs Allison Mcdorman,CA,92532,Legacy 3D,New Choco,New,1,0.00,4200.00,4200.00,Synchrony,,,"5 years parts, 1 year labor (Free)","Legacy 3D,",No,12/31/2018 12:00:00 AM,Delivered,New,"Pls mail Financial form to the customer , need her sign. Thank u so much for help","SYNC($8,500) approved. May will email synchrony form on 12/18 since it does not have signature . 12/17/18 Hitomi
12/18/18- Talked to May , we will have sign on synchrony upon the delivery. ***please charge $4,200  before delivery and sales draft and synchrony application form signed.***  Hitomi
1/3Delivery confirmation received but missing signature on Synchrony application. Will schedule to collect the signature",CA,1,8.25,DWA-9150USJ-9150CH,4200.00,,,6019170813296230,98550706,Las Vegas,36 months,0.00,,,,,,,0.00,,,,,,
Stetson Country Christmas 12/6-16/18 Las Vegas (NV),Stetson Country Christmas 12/6-16/18 Las Vegas (NV),Ruben Cuatrona,113267,12/15/2018 10:09:22 PM,Marleen Christy,UT,84725,PEGASUS 2 SMART,Demo Choco,Demo,1,0.00,6000.00,6000.00,Synchrony,,,"5 years parts, 2 years labor ($200)","PEGASUS 2 SMART,",No,12/21/2018 12:00:00 AM,Delivered,Demo,,"Deliver before Christmas. Address is just 2 hours from Las Vegas branch
//Confirmed SYNC($7,200) and original. **Please charge before delivery and sale draft signed*** will confirm w/NV if it is possible to deliver before Xmas 12/17/18 Hitomi
12/18/18 Kohei infomed this got scheduled for this friday. - Hitomi
12/21-Synchrony charged by Kohei.
1/3Maritza Delivery confirmation received. plus sales draft",NV,1,8.25,PEGS-2PEGS-2-BR-DEMO,6000.00,,,6019170813296693,98566880,Las Vegas,48 months,0.00,,,,,,,0.00,,,,,,
Stetson Country Christmas 12/6-16/18 Las Vegas (NV),Stetson Country Christmas 12/6-16/18 Las Vegas (NV),Ruben Cuatrona,113269,12/15/2018 10:17:48 PM,Kent Wilke,NE,68787,PEGASUS 2 SMART,New Choco,New,1,0.00,5500.00,5500.00,CreditCard,,,"5 years parts, 2 years labor ($200)","PEGASUS 2 SMART,",No,,Scheduled,,,"Pls add one more back pad and one pair of foot pads as the customer is senior
Printed 12/17/2018- Tina
//Confirmed $5,500 in Square.***Please double check the chair color. *** 12/17/18 Hitomi",TX,1,8.25,PEGS-2PEGS-2-BR,5500.00,Receipt #7eyJ,,,,,,0.00,,,,,,,0.00,,,,,,
Stetson Country Christmas 12/6-16/18 Las Vegas (NV),Stetson Country Christmas 12/6-16/18 Las Vegas (NV),Ilene Maynard,113271,12/15/2018 10:23:56 PM,Troy Vick,TX,77871,Relax2Zero 3D,Demo Choco,Demo,1,0.00,4000.00,4000.00,CreditCard,,,"5 years parts, 1 year labor (Free)","Relax2Zero 3D,",No,,Scheduled,,,"COnfirmed $4,000 in Square. **Please double check the chair color** 12/17/18 Hitomi
12/20/18-Courtesy call/ text completed- Cristina 10:59 am",TX,1,8.25,DWA-9060USJ-9060BR-DEMO,4000.00,Receipt #JIfi,,,,,,0.00,,,,,,,0.00,,,,,,
Stetson Country Christmas 12/6-16/18 Las Vegas (NV),Stetson Country Christmas 12/6-16/18 Las Vegas (NV),May Kam,113274,12/15/2018 10:35:24 PM,Mr & Mrs Friederich,IL,62258,Legacy 3D,New Black,New,1,0.00,3700.00,3700.00,CreditCard,,,"5 years parts, 1 year labor (Free)","Legacy 3D,Tourmaline Pad for Legacy 3D,",No,12/29/2018 12:00:00 AM,Delivered,New,"Need ask the customer chair color again , they may change , thanks!","**Please confirm the chair color**Confirmed $3,700 in Square.  - 12/17/18 Hitomi
12/20/18-Courtesy call/text completed- Cristina 11 am
12/31Maritza- Delivery confirmation received.",TX,1,8.25,DWA-9150USJ-9150BL,3700.00,#y7nm,,,,,,0.00,,,,,,,0.00,,,,,,
Stetson Country Christmas 12/6-16/18 Las Vegas (NV),Stetson Country Christmas 12/6-16/18 Las Vegas (NV),Rodrigo Malabunga,113276,12/15/2018 10:37:04 PM,Patty Edler,WY,82007,PEGASUS 2 SMART,New Choco,New,1,0.00,6200.00,6200.00,CreditCard,,,"5 years parts, 3 years labor ($400)","PEGASUS 2 SMART,",No,12/23/2018 12:00:00 AM,Delivered,New,,"Confirmed $6,200 in Square,  will confirm branch 12/17/18 Hitomi
changed stated under CA. 12/18/18 Hitomi
12/18/18- Cristina Re- dispatched to June; June stated she would add to Sean's schedule for delivery 12/23/18-
12/26/2018  Asumi/received delivery confirmation",TX,1,8.25,PEGS-2PEGS-2-BR,6200.00,Receipt #PGwz,,,,,,0.00,,,,,,,0.00,,,,,,
Stetson Country Christmas 12/6-16/18 Las Vegas (NV),Stetson Country Christmas 12/6-16/18 Las Vegas (NV),Rolly San Jose,113277,12/15/2018 10:41:45 PM,Viki Friedrieh,WA,98582,Relax2Zero 3D,New Black,New,1,0.00,4200.00,4200.00,CreditCard,,,"5 years parts, 1 year labor (Free)","Relax2Zero 3D,",No,,Cancelled,,,,Not Dispatched,1,8.25,DWA-9060USJ-9060BL,4200.00,SQ# x9Qv,,,,,,0.00,,,,,,,0.00,,,,,,
Stetson Country Christmas 12/6-16/18 Las Vegas (NV),Stetson Country Christmas 12/6-16/18 Las Vegas (NV),Ilene Maynard,113279,12/15/2018 10:47:00 PM,Mike Giannini,CA,93263,PEGASUS 2 SMART,New Choco,New,1,0.00,6900.00,6900.00,CreditCard,,,"5 years parts, 2 years labor ($200)","PEGASUS 2 SMART,",No,12/21/2018 12:00:00 AM,Delivered,New,,"will confirm SQUARE #/ needs to be signed on invoice since this was phone order 12/17/18 Hitomi
12/17/18 - confirmed $6,900 in Square - Receipt #R6OJ  --@3:23 PM Hitomi",CA,1,8.25,PEGS-2PEGS-2-BR,6900.00,Receipt #R6OJ,,,,,,0.00,,,,,,,0.00,,,,,,
Stetson Country Christmas 12/6-16/18 Las Vegas (NV),Stetson Country Christmas 12/6-16/18 Las Vegas (NV),Rodrigo Malabunga,113281,12/15/2018 10:56:10 PM,Anthony Simpson,NM,87401,PEGASUS 2 SMART,New Black,New,1,0.00,6900.00,6900.00,Synchrony,,,"5 years parts, 3 years labor ($400)","PEGASUS 2 SMART,",No,,Scheduled,,,"Confirmed SYNC($7,500) and original.***PLease charge $6,900 before delivery and sales draft signed.***Rod requests, please DO NOT use 3rd party 12/17/18 Hitomi",TX,1,8.25,PEGS-2PEGS-2-BL,6900.00,,,6019170813298566,98593602,San Diego,48 months,0.00,,,,,,,0.00,,,,,,
Stetson Country Christmas 12/6-16/18 Las Vegas (NV),Stetson Country Christmas 12/6-16/18 Las Vegas (NV),Ilene Maynard,113282,12/15/2018 11:03:16 PM,Richard Aaron,GA,30115,Relax2Zero 3D,New Choco,New,1,0.00,4900.00,4900.00,CreditCard,,,"5 years parts, 3 years labor ($400)","Relax2Zero 3D,",No,12/27/2018 12:00:00 AM,Delivered,New,,"Confirmed $4,900 in Square. **Please confirm the chair color **12/17/18 Hitomi
Received delivery confirmation ---  1/2/2019 Asumi",FL,1,8.25,DWA-9060USJ-9060BR,4900.00,SQ# fKts,,,,,,0.00,,,,,,,0.00,,,,,,
Stetson Country Christmas 12/6-16/18 Las Vegas (NV),Stetson Country Christmas 12/6-16/18 Las Vegas (NV),Ruben Cuatrona,113283,12/15/2018 11:11:41 PM,William Helmer,NY,13662,Relax2Zero 3D,Demo Black,Demo,1,0.00,4000.00,4000.00,CreditCard,COD,,"5 years parts, 2 years labor ($200)","Relax2Zero 3D,",No,,Scheduled,,,"Confirmed $2,000 in Square. ***COD $2,000*** Please confirm the chair  color ***12/17/18 hitomi
12/20/18-Courtesy call / text complete- Cristina 11:04am",TX,1,8.25,DWA-9060USJ-9060BL-DEMO,2000.00,SQ# d8L6,,,,,,2000.00,,,,,,,0.00,,,,,,
Stetson Country Christmas 12/6-16/18 Las Vegas (NV),Stetson Country Christmas 12/6-16/18 Las Vegas (NV),Ruben Cuatrona,113284,12/15/2018 11:23:09 PM,Heather Maddox,WA,98837,PEGASUS 2 SMART,Demo Choco,Demo,1,0.00,6000.00,6000.00,Synchrony,,,"5 years parts, 1 year labor (Free)","PEGASUS 2 SMART,",No,,Scheduled,,,"Confirmed 	SYNC($6,600) and original. *** Please charge $6,000 before delivery and sales draft signed.***Please confirm the chair color. 12/17/18 Hitomi
12/20/18- couresty call/ text completed- Cristina 10:22 am
Scheduled Dec 29th free all day.  12pm 4pm",WA,1,8.25,PEGS-2PEGS-2-BR-DEMO,6000.00,,,6019170813297782,98583708,San Diego,36 months,0.00,,,,,,,0.00,,,,,,
Stetson Country Christmas 12/6-16/18 Las Vegas (NV),Stetson Country Christmas 12/6-16/18 Las Vegas (NV),Rodrigo Malabunga,113285,12/16/2018 12:09:04 AM,Marlowe Houllion,PA,16262,Relax2Zero 3D,New Black,New,1,0.00,4600.00,4600.00,Synchrony,,,"5 years parts, 2 years labor ($200)","Relax2Zero 3D,",No,,Scheduled,,,"Confirmed SYNC($6,500) and original.***Please charge $4,600 before delivery and sales draft signed. since this is phone order, please have invoice and synchrony form signed upon the delivery*** Please confirm the chair color 12/17/18 Hitomi
12/20/18-Courtesy call/ text completed- Cristina 11:06 am",TX,1,8.25,DWA-9060USJ-9060BL,4600.00,,,6019170813298111,98587853,Huston,36 months,0.00,,,,,,,0.00,,,,,,
Stetson Country Christmas 12/6-16/18 Las Vegas (NV),Stetson Country Christmas 12/6-16/18 Las Vegas (NV),May Kam,113369,12/16/2018 10:21:44 PM,Mrs Michelle Sharples,NV,89019,Legacy 3D,Demo Black,Demo,1,0.00,3700.00,3700.00,CreditCard,COD,,"5 years parts, 1 year labor (Free)","Legacy 3D,Tourmaline Pad for Legacy 3D,",No,,Hold,,"Pls confirm color before delivery , thanks; hold for three month for parents using","***Please confirm the chair color ***Confirmed $50.00 in Square. ***COD $3,650*** -Place on hold 12/17/18 Hitomi",NV,1,8.25,DWA-9150USJ-9150BL-DEMO,50.00,#K39W,,,,,,3650.00,,,,,,,0.00,,,,,,
Stetson Country Christmas 12/6-16/18 Las Vegas (NV),Stetson Country Christmas 12/6-16/18 Las Vegas (NV),Rolly San Jose,113387,12/17/2018 10:21:54 AM,Viki Friedrieh,WA,98582,Relax2Zero 3D,New Black,New,1,0.00,4200.00,4200.00,CreditCard,,,"5 years parts, 1 year labor (Free)","Relax2Zero 3D,",No,,Scheduled,,,"CORRECTION FOR #113277 
delivery after 01/01/2019
Confirmed $4,200 in Square.**Please confirm the chair color address. *** 12/17/18 Hitomi
12/17/18- Courtesy call completed- Cristina 10:39 am Confirmed Chair color: Black
Scheduled Dec 5th 10am to 12pm",WA,1,8.25,DWA-9060USJ-9060BL,4200.00,Receipt #x9Qv,,,,,,0.00,,,,,,,0.00,,,,,,
Stetson Country Christmas 12/6-16/18 Las Vegas (NV),Stetson Country Christmas 12/6-16/18 Las Vegas (NV),Rolly San Jose,113456,12/18/2018 3:25:31 PM,Jesse Riedel,CA,95327,Relax2Zero 3D,New Choco,New,1,0.00,4500.00,4500.00,Synchrony,,,"5 years parts, 2 years labor ($200)","Relax2Zero 3D,",No,,Scheduled,,,"SYNC approved $5,500. Synchrony application form needs to be signed upon the delivery. ***Please charge $4,500 before delivery and sales draft and synchrony application form signed.***  12/19/18 Hitomi",CA,1,8.25,DWA-9060USJ-9060BR,4500.00,,,6019170813300164,98625674,Las Vegas,48 months,0.00,,,,,,,0.00,,,,,,
Stetson Country Christmas 12/6-16/18 Las Vegas (NV),Stetson Country Christmas 12/6-16/18 Las Vegas (NV),Ruben Cuatrona,113458,12/18/2018 3:53:47 PM,Shawna Morrison,LA,70657,Relax2Zero 3D,New Black,New,1,0.00,4000.00,4000.00,CreditCard,,,"5 years parts, 2 years labor ($200)","Relax2Zero 3D,",No,,Scheduled,,,"Confirmed $4,000 in Square. (#113458 and #113460 together )--12/19/18 Hitomi
12/20/18- Courtesy call/ text completed- 12/20/18 10:34 am",TX,1,8.25,DWA-9060USJ-9060BL,4000.00,Sq #8cGu,,,,,,0.00,,,,,,,0.00,,,,,,
Stetson Country Christmas 12/6-16/18 Las Vegas (NV),Stetson Country Christmas 12/6-16/18 Las Vegas (NV),Ruben Cuatrona,113460,12/18/2018 4:03:00 PM,Jim Linkous,OR,97124,Relax2Zero 3D,New Black,New,1,0.00,4000.00,4000.00,CreditCard,,,"5 years parts, 2 years labor ($200)","Relax2Zero 3D,",No,,Scheduled,,,"This is the second chair for 
Sq # 8cGu
//Confirmed $4,000 in Square. (#113458 and #113460 together )--12/19/18 Hitomi
12/20/18- Courtesy call completed- Cristina- 10:20 am",WA,1,8.25,DWA-9060USJ-9060BL,4000.00,Sq #8cGu,,,,,,0.00,,,,,,,0.00,,,,,,
Stetson Country Christmas 12/6-16/18 Las Vegas (NV),Stetson Country Christmas 12/6-16/18 Las Vegas (NV),Ruben Cuatrona,113463,12/18/2018 4:13:44 PM,Robin Rippy scott,TX,78620,PEGASUS 2 SMART,Demo Choco,Demo,1,0.00,5760.00,5760.00,Synchrony,,,"5 years parts, 2 years labor ($200)","PEGASUS 2 SMART,",No,,Scheduled,,,"Confirmed SYNC($7,200) and original. ***Please charge $5,760 before delivery and sales draft signed.*** 12/19/18 Hitomi
12/20/18- Courtesy call/ text completed-Cristina 10:41 am",TX,1,8.25,PEGS-2PEGS-2-BR-DEMO,5760.00,,,6019170813294762,98621134,San Diego,36 months,0.00,,,,,,,0.00,,,,,,
