﻿Original Event Name,Event Name,Sales Person,Order Number,Order Date,Customer Name,State,Zip,Product Name,Color,Product Status,QTY,Tax,Total Before Tax,Order Total,Primary Payment Method,Second Payment Method,Thirdl Payment Method,Warranty,Order Items,Pick up,Delivered On,Order Status,Chair Type,Order Notes,Private Note,Branch,No Tax,Actual Tax Rate,SKU,Primary Payment Balance,Primary Authorize Number,Primary Purchase Order Number,Primary Synchrony Account Number,Primary Synchrony Application Key,Primary Synchrony Account Info,Primary Synchrony Term,Primary Synchrony Primary ID,Primary Synchrony Issued State,Primary Synchrony Expiretion Date,Second Payment Balance,Second Authorize Number,Second Purchase Order Number,Second Synchrony Account Number,Second Synchrony Application Key,Second Synchrony Account Info,Second SynchronyTerm,Second Synchrony Primary ID,Second Synchrony Issued State,Second Synchrony Expiretion Date,Third Payment Balance,Third Authorize Number,Third Purchase Order Number,Third Synchrony Account Number,Third Synchrony Application Key,Third Synchrony Account Info,Third Synchrony Term,Third Synchrony Primary ID,Third Synchrony Issued State,Third Synchrony Expiretion Date
ANTELOPE VALLEY FAIR 8/17-26/18 LANCASTER (CA),ANTELOPE VALLEY FAIR 8/17-26/18 LANCASTER (CA),Harmony Williams,108778,8/26/2018 5:00:38 PM,Ester Chavez,CA,91324,Legacy,New Choco,New,1,0.00,4200.00,4200.00,Synchrony,COD,,"3 years parts, 1 year labor (Free)","Legacy,",No,,Hold,,,"Chair placed on hold for up to 6months . Customer owes $2200 .only $2000 was covered by synchrony//Confirmed synchrony account (2,000) and original. Harmony asked us to contact customer to find out how they want to pay the remaining. 8/27/18 Hitomi
8/28Maritza Called customer. she isn't ready for the chair. She will call once she has the money. Will put on hold.
2/15Maritza- No further info will place in sales reps folder.",CA,1,9.50,DWA-9100DWA-9100BU,2000.00,,,6019170813092654,93216865,San Diego,36 months,,,,2200.00,,,,,,,,,,0.00,,,,,,,,,
ANTELOPE VALLEY FAIR 8/17-26/18 LANCASTER (CA),ANTELOPE VALLEY FAIR 8/17-26/18 LANCASTER (CA),Harmony Williams,108779,8/26/2018 5:08:25 PM,Rosalina Jrmenez,CA,93535,Legacy,New Choco,New,1,0.00,4200.00,4200.00,Synchrony,,,"3 years parts, 1 year labor (Free)","Legacy,",No,,Cancelled,,,"COnfirmed synchrony account (6,500) under JIMENEZ, ROSALINDA and original .***Please charge $4,200 before delivery and have sales draft and invoice signed. ***  8/27/18 Hitomi",CA,1,9.50,DWA-9100DWA-9100BU,4200.00,,,6019170813092670,93217037,Las Vegas,36 months,,,,0.00,,,,,,,,,,0.00,,,,,,,,,
ANTELOPE VALLEY FAIR 8/17-26/18 LANCASTER (CA),ANTELOPE VALLEY FAIR 8/17-26/18 LANCASTER (CA),Harmony Williams,108780,8/26/2018 5:13:42 PM,Louise Lujan,CA,93560,Relax2Zero 1.0,New Brown,New,1,0.00,3900.00,3900.00,Synchrony,,,"3 years parts, 1 year labor (Free)","Relax2Zero 1.0,",No,8/31/2018 12:00:00 AM,Delivered,,,"Confirmed synchrony account (8,500) and original. **Please charge $3,900 before delivery and have sales draft signed. *** 8/27/18 Hitomi",CA,1,9.50,USJ-9000USJ-9000BR,3900.00,,,6019170813096069,93320822,Las Vegas,36 months,,,,0.00,,,,,,,,,,0.00,,,,,,,,,
ANTELOPE VALLEY FAIR 8/17-26/18 LANCASTER (CA),ANTELOPE VALLEY FAIR 8/17-26/18 LANCASTER (CA),Harmony Williams,108782,8/26/2018 5:22:36 PM,Marshall Zam,CA,93536,Legacy,New Black,New,1,0.00,4500.00,4500.00,Synchrony,,,"3 years parts, 1 year labor (Free)","Legacy,",No,9/8/2018 12:00:00 AM,Delivered,,,"COnfirmed synchrony account (8,500.00) and original. ***PLease charge before delivery and have sale draft signed. *** 8/27/18 Hitomi",CA,1,9.50,DWA-9100DWA-9100BL,4500.00,,,6019170813096028,93320019,Las Vegas,36 months,,,,0.00,,,,,,,,,,0.00,,,,,,,,,
ANTELOPE VALLEY FAIR 8/17-26/18 LANCASTER (CA),ANTELOPE VALLEY FAIR 8/17-26/18 LANCASTER (CA),Christoper Williams,108783,8/26/2018 5:27:08 PM,Tangee Goan,CA,93534,Legacy,Demo Choco,Demo,1,0.00,4200.00,4200.00,Synchrony,,,"3 years parts, 1 year labor (Free)","Legacy,",YES,8/26/2018 12:00:00 AM,Delivered,,,"COnfirmed synchrony account (5,100) under GUAN, TANGEE. it is picked up.  8/27/18 Hitomi
The delivered chair is Brown, not Choco Brown. Because the serial# is 0201004170109. 9/19/18 Riho",CA,1,9.50,DWA-9100DWA-9100BU-DEMO,4200.00,,,6019170813098412,93404400,Las Vegas,36 months,,,,0.00,,,,,,,,,,0.00,,,,,,,,,
ANTELOPE VALLEY FAIR 8/17-26/18 LANCASTER (CA),ANTELOPE VALLEY FAIR 8/17-26/18 LANCASTER (CA),Harmony Williams,108835,8/27/2018 1:34:52 PM,Louise Lujan,CA,93560,Relax2Zero 2.0,New Brown,New,1,0.00,3900.00,3900.00,Synchrony,,,"3 years parts, 1 year labor (Free)","Relax2Zero 2.0,",No,,Cancelled,,,"108780 WAS CORRECT //Confirmed synchrony account (8,500) and original. **Please charge $3,900 before delivery and have sales draft signed. *** 8/27/18 Hitomi",CA,1,9.50,USJ-9050USJ-9050BR,3900.00,,,6019170813096069,93320822,Las Vegas,36 months,,,,0.00,,,,,,,,,,0.00,,,,,,,,,
ANTELOPE VALLEY FAIR 8/17-26/18 LANCASTER (CA),ANTELOPE VALLEY FAIR 8/17-26/18 LANCASTER (CA),Christoper Williams,108895,8/30/2018 12:01:25 PM,Gorden Hensen,CA,93560,Legacy,Demo Choco,Demo,1,347.04,3653.00,4000.04,CreditCard,Cash,,"2 years parts, 1 year labor (Free)","Legacy,",YES,8/26/2018 12:00:00 AM,Delivered,,"square # is 32MH Paid 3,020",TOTAL AMOUNT IS $4000. Confirmed $980.02 in Square. $3020 cash received by Michael. 8/30/18 Hitomi,CA,0,9.50,DWA-9100DWA-9100BU-DEMO,980.02,Receipt #32mH,,,,,,,,,3020.00,,,,,,,,,,0.00,,,,,,,,,
