﻿Original Event Name,Event Name,Sales Person,Order Number,Order Date,Customer Name,State,Zip,Product Name,Color,Product Status,QTY,Tax,Total Before Tax,Order Total,Primary Payment Method,Second Payment Method,Thirdl Payment Method,Warranty,Order Items,Pick up,Delivered On,Order Status,Chair Type,Order Notes,Private Note,Branch,No Tax,Actual Tax Rate,SKU,Primary Payment Balance,Primary Authorize Number,Primary Purchase Order Number,Primary Synchrony Account Number,Primary Synchrony Application Key,Primary Synchrony Account Info,Primary Synchrony Term,Primary Synchrony Primary ID,Primary Synchrony Issued State,Primary Synchrony Expiretion Date,Second Payment Balance,Second Authorize Number,Second Purchase Order Number,Second Synchrony Account Number,Second Synchrony Application Key,Second Synchrony Account Info,Second SynchronyTerm,Second Synchrony Primary ID,Second Synchrony Issued State,Second Synchrony Expiretion Date,Third Payment Balance,Third Authorize Number,Third Purchase Order Number,Third Synchrony Account Number,Third Synchrony Application Key,Third Synchrony Account Info,Third Synchrony Term,Third Synchrony Primary ID,Third Synchrony Issued State,Third Synchrony Expiretion Date
"ICES Expo 5/6-5/7/2018 Dallas, TX","ICES Expo 5/6-5/7/2018 Dallas, TX",Jennifer Tran,105894,5/7/2018 9:57:10 AM,Ximena Talavera,TX,79902,Relax2Zero 3D,New Black,New,1,0.00,4500.00,4500.00,CreditCard,,,"3 years parts, 1 year labor (Free)","Relax2Zero 3D,",No,5/19/2018 12:00:00 AM,Delivered,,,"05/07/18- Cristina - Requested sales receipt to clear order. (pending)
5/8 Maritza Courtesy call @ 3:11PM",TX,1,8.25,DWA-9060USJ-9060BL,4500.00,093369,,,,,,,,,0.00,,,,,,,,,,0.00,,,,,,,,,
"ICES Expo 5/6-5/7/2018 Dallas, TX","ICES Expo 5/6-5/7/2018 Dallas, TX",Jennifer Tran,105905,5/7/2018 3:04:06 PM,Soudabeh Pouyan,TX,75024,Relax2Zero 3D,Demo Black,Demo,1,0.00,3500.00,3500.00,Cash,Cash,,"3 years parts, 1 year labor (Free)","Relax2Zero 3D,",No,5/15/2018 12:00:00 AM,Delivered,,CASH ON DELIVERY NO CHECKS NO CARDS,"Serial number: 961600549D
Please deliver black relax 2 zero 3D @ ICES Show//Please send cash confirmation after Mario signed.Jennifer has cash . 5/7/18 Hitomi//Mario received $200 cash deposit . Received cash confirmation. 5/15/18 Hitomi
5/8Maritza Courtesy call @ 10:36AM",TX,1,8.25,DWA-9060USJ-9060BL-DEMO,200.00,,,,,,,,,,3300.00,,,,,,,,,,0.00,,,,,,,,,
"ICES Expo 5/6-5/7/2018 Dallas, TX","ICES Expo 5/6-5/7/2018 Dallas, TX",Jennifer Tran,105907,5/7/2018 3:13:36 PM,Nick D'Anna,TX,75001,Majesty,New Black,New,1,0.00,3300.00,3300.00,Synchrony,,,"3 years parts, 1 year labor (Free)","Majesty,",No,5/15/2018 12:00:00 AM,Delivered,,Deliver ASAP,"Confirmed synchrony form and the account (DANNA, NICHOLAS $6,000.00). ***Please charge before delivery and have sales draft signed. ***5/8/18 Hitomi
5/8Maritza Courtesy call @ 10:39AM",TX,1,8.25,MAJ-1010MAJ-1010-BL,3300.00,,,6034610083259195,88557672,Huston,24 months,,,,0.00,,,,,,,,,,0.00,,,,,,,,,
"ICES Expo 5/6-5/7/2018 Dallas, TX","ICES Expo 5/6-5/7/2018 Dallas, TX",Jennifer Tran,105909,5/7/2018 3:21:58 PM,Rex Short,TX,77373,Majesty,New Choco,New,1,0.00,3000.00,3000.00,Synchrony,,,"3 years parts, 1 year labor (Free)","Majesty,",No,5/25/2018 12:00:00 AM,Delivered,,,"Confirmed synchrony form and the account ($5,000.00).***Please charge before delivery and have sales draft signed.***5/8/18 Hitomi
5/8Maritza Courtesy call @ 2:56PM",TX,1,8.25,MAJ-1010MAJ-1010-BR,3000.00,,,6034610083259815,88571929,Huston,24 months,,,,0.00,,,,,,,,,,0.00,,,,,,,,,
"ICES Expo 5/6-5/7/2018 Dallas, TX","ICES Expo 5/6-5/7/2018 Dallas, TX",Jennifer Tran,105911,5/7/2018 3:38:22 PM,Wende Lancaster,TX,78634,Majesty,New Choco,New,1,0.00,3400.00,3400.00,Synchrony,,,"3 years parts, 1 year labor (Free)","Majesty,",No,5/12/2018 12:00:00 AM,Delivered,,,"Confirmed synchrony form and the account ($8,500.00 ) ***Please charge before delivery and have sales draft signed.***5/8/18 Hitomi
5/8Maritza Courtesy call @ 3:03PM",TX,1,8.25,MAJ-1010MAJ-1010-BR,3400.00,,,6034610083259856,88572678,Huston,24 months,,,,0.00,,,,,,,,,,0.00,,,,,,,,,
"ICES Expo 5/6-5/7/2018 Dallas, TX","ICES Expo 5/6-5/7/2018 Dallas, TX",Jennifer Tran,105912,5/7/2018 3:47:18 PM,Cindy McCampbell,TX,77380,Majesty,New Choco,New,1,0.00,3000.00,3000.00,CreditCard,,,"3 years parts, 1 year labor (Free)","Majesty,",No,5/25/2018 12:00:00 AM,Delivered,,,"Confirmed 3,000.00 in Wells Fargo. 5/8/18 Hitomi
5/8Maritza Courtesy call @ 3:05PM",TX,1,8.25,MAJ-1010MAJ-1010-BR,3000.00,100093,,,,,,,,,0.00,,,,,,,,,,0.00,,,,,,,,,
"ICES Expo 5/6-5/7/2018 Dallas, TX","ICES Expo 5/6-5/7/2018 Dallas, TX",Jennifer Tran,105913,5/7/2018 3:58:40 PM,Donna Kirby,TX,76052,Majesty,Demo Choco,Demo,1,0.00,2900.00,2900.00,CreditCard,CreditCard,,"3 years parts, 1 year labor (Free)","Majesty,",No,5/16/2018 12:00:00 AM,Delivered,,,"Serial number: 0901002170537//Confirmed $400.00(Debit) in Wells Fargo. COD$2,500. 5/8/18 Hitomi
5/8Maritza Courtesy call @ 3:07PM
COD $2,500 was paid in C.C. auth#01678Z. 5/25/18 Riho",TX,1,8.25,MAJ-1010MAJ-1010-BR-DEMO,400.00,932460,,,,,,,,,2500.00,01678Z,,,,,,,,,0.00,,,,,,,,,
"ICES Expo 5/6-5/7/2018 Dallas, TX","ICES Expo 5/6-5/7/2018 Dallas, TX",Jennifer Tran,105914,5/7/2018 4:03:01 PM,June Anderson,TX,76426,Majesty,Demo Black,Demo,1,0.00,2900.00,2900.00,CreditCard,CreditCard,,"3 years parts, 1 year labor (Free)","Majesty,",No,5/18/2018 12:00:00 AM,Delivered,,,"Serial number: 0901001170359//Confirmed $400.00 in Wells Fargo . COD$2,500. 5/8/18 Hitomi
5/8Maritza Courtesy call @ 11:44AM
COD $2,500 was paid in Debit Card, confirmed the transaction in WF. 5/29/18 Riho",TX,1,8.25,MAJ-1010MAJ-1010-BL-DEMO,400.00,771718,,,,,,,,,2500.00,062218,,,,,,,,,0.00,,,,,,,,,
"ICES Expo 5/6-5/7/2018 Dallas, TX","ICES Expo 5/6-5/7/2018 Dallas, TX",Jennifer Tran,105915,5/7/2018 4:13:01 PM,Sherry Draper,TX,75462,Majesty,New Black,New,1,0.00,3500.00,3500.00,Synchrony,COD,,"3 years parts, 1 year labor (Free)","Majesty,",No,,Cancelled,,"Total: $3,500
Deposit: $1,200(Synchrony)
Remaining: $2,300(Card)
Hold Until June 1, 2018
Hold Synchrony Processing Until Delivery","Hold Until June 1, 2018
Hold Synchrony Processing Until Delivery//confirmed synchrony form and the account ($1,200.00) . COD$2,300. 5/8/18 Hitomi
5/8Maritza Courtesy Call @ 11:41AM Home phone does not belong to customer.
Customer cancel this order, repurchased #106161",TX,1,8.25,MAJ-1010MAJ-1010-BL,1200.00,,,6034610083259757,88571398,Huston,12 months,,,,2300.00,,,,,,,,,,0.00,,,,,,,,,
"ICES Expo 5/6-5/7/2018 Dallas, TX","ICES Expo 5/6-5/7/2018 Dallas, TX",Jennifer Tran,106161,5/16/2018 10:14:04 PM,Brandy Draper,TX,75460,Relax2Zero 3D,New Black,New,1,0.00,4200.00,4200.00,CreditCard,,,"3 years parts, 1 year labor (Free)","Relax2Zero 3D,",No,6/2/2018 12:00:00 AM,Delivered,,,"COnfirmed $4,200.00 in Square. 5/17/18 Hitomi
5/18Maritza Courtesy call @ 3:36PM",TX,1,8.25,DWA-9060USJ-9060BL,4200.00,Square #ktZk,,,,,,,,,0.00,,,,,,,,,,0.00,,,,,,,,,
