﻿Original Event Name,Event Name,Sales Person,Order Number,Order Date,Customer Name,State,Zip,Product Name,Color,Product Status,QTY,Tax,Total Before Tax,Order Total,Primary Payment Method,Second Payment Method,Thirdl Payment Method,Warranty,Order Items,Pick up,Delivered On,Order Status,Chair Type,Order Notes,Private Note,Branch,No Tax,Actual Tax Rate,SKU,Primary Payment Balance,Primary Authorize Number,Primary Purchase Order Number,Primary Synchrony Account Number,Primary Synchrony Application Key,Primary Synchrony Account Info,Primary Synchrony Term,Second Payment Balance,Second Authorize Number,Second Purchase Order Number,Second Synchrony Account Number,Second Synchrony Application Key,Second Synchrony Account Info,Second SynchronyTerm,Third Payment Balance,Third Authorize Number,Third Purchase Order Number,Third Synchrony Account Number,Third Synchrony Application Key,Third Synchrony Account Info,Third Synchrony Term
Pizza Expo 3/20-22/18 (NV),Pizza Expo 3/20-22/18 (NV),Rolly San Jose,104656,3/21/2018 7:25:58 PM,Kurt Miller,OK,73131,Pegasus,New Black,New,1,367.13,5200.00,5567.13,CreditCard,,,"3 years parts, 1 year labor (Free)","Pegasus,",No,4/23/2018 12:00:00 AM,Delivered,,,"No remaining balance, tax was included in $5200 - Stephany 03/22/18 *Correction*
confirmed 5,200 in Wells Fargo. 3/22/18 Hitomi",TX,0,8.25,DWA-9400Pegasus-BL,5200.00,05796D,,,,,,0.00,,,,,,,0.00,,,,,,
Pizza Expo 3/20-22/18 (NV),Pizza Expo 3/20-22/18 (NV),Abagail Stirling,104657,3/21/2018 7:31:37 PM,Vernon Cesta,OH,44446,Pegasus,New Black,New,1,0.00,5300.00,5300.00,Synchrony,,,"3 years parts, 1 year labor (Free)","Pegasus,",No,4/12/2018 12:00:00 AM,Delivered,,,"Confirmed synchrony form and the account($6,400) ***Please charge before delivery.***3/23/18 Hitomi",TX,1,8.25,DWA-9400Pegasus-BL,5300.00,,,6034610083172018,86576780,Las Vegas,36 months,0.00,,,,,,,0.00,,,,,,
Pizza Expo 3/20-22/18 (NV),Pizza Expo 3/20-22/18 (NV),Abagail Stirling,104658,3/21/2018 7:39:01 PM,Leo Henry,OH,44514,Pegasus,New Choco,New,1,0.00,5300.00,5300.00,Synchrony,,,"3 years parts, 1 year labor (Free)","Pegasus,",No,3/29/2018 12:00:00 AM,Delivered,,,"the account is under MANCINI, REBECCA. Synchrony cleared approved $6,500, pls charge before delivery - Stephany 03/22/18
confirmed SYnchrony form. 3/23/18Hitomi",TX,1,8.25,DWA-9400Pegasus-BR,5300.00,,,6034610083172000,86576583,Las Vegas,36 months,0.00,,,,,,,0.00,,,,,,
Pizza Expo 3/20-22/18 (NV),Pizza Expo 3/20-22/18 (NV),Rolly San Jose,104659,3/21/2018 7:43:39 PM,Shawn Mcguire,MI,48428,Pegasus,New Black,New,1,0.00,5200.00,5200.00,CreditCard,,,"3 years parts, 1 year labor (Free)","Pegasus,",No,3/24/2018 12:00:00 AM,Delivered,,,"WF cleared $5200 -  Stephany 03/22/18
PLEASE CHANGE THE COLOR TO CHOCO BROWN.",TX,1,8.25,DWA-9400Pegasus-BL,5200.00,01166C,,,,,,0.00,,,,,,,0.00,,,,,,
Pizza Expo 3/20-22/18 (NV),Pizza Expo 3/20-22/18 (NV),Rolly San Jose,104660,3/21/2018 7:50:35 PM,Sacco chiropractic - scott Sacco,PA,18201,Pegasus,New Black,New,1,0.00,5400.00,5400.00,Synchrony,,,"3 years parts, 1 year labor (Free)","Pegasus,",No,3/31/2018 12:00:00 AM,Delivered,,,"the account is under SACCO, LAUREN.  Synchrony cleared, approved for $6500 - Stephany 03/22/18
confirmed Synchrony form.***Please charge before delivery.***3/23/18 Hitomi
$5400 #027377",TX,1,8.25,DWA-9400Pegasus-BL,5400.00,,,6034610083170814,86535972,Las Vegas,36 months,0.00,,,,,,,0.00,,,,,,
Pizza Expo 3/20-22/18 (NV),Pizza Expo 3/20-22/18 (NV),Abagail Stirling,104662,3/22/2018 9:36:58 AM,Bujar Sacipi,PA,18704,Legacy 3D,New Black,New,1,0.00,4500.00,4500.00,Synchrony,CreditCard,CreditCard,"3 years parts, 1 year labor (Free)","Legacy 3D,",No,3/30/2018 12:00:00 AM,Delivered,,,"3/23- Maritza $2,000 verified on Wells Fargo. Verified $1,300 on Wells Fargo.
Confirmed synchrony form and the account ($1,200) ***Please charge $1,200 before delivery.***3/23/18 Hitomi
auth #027485 1200",TX,1,8.25,DWA-9150USJ-9150BL,1200.00,,,6034610083171986,86576229,Las Vegas,24 months,2000.00,091199,,,,,,1300.00,184148,,,,,
Pizza Expo 3/20-22/18 (NV),Pizza Expo 3/20-22/18 (NV),Patricia Whipple,104673,3/22/2018 7:13:01 PM,Brian Corradi,OH,44256,Legacy 3D,New Choco,New,1,0.00,4100.00,4100.00,CreditCard,,,"3 years parts, 1 year labor (Free)","Legacy 3D,",No,3/29/2018 12:00:00 AM,Delivered,,,"3/23-Maritza Confirmed on Wells Fargo (4,100)",TX,1,8.25,DWA-9150USJ-9150CH,4100.00,853542,,,,,,0.00,,,,,,,0.00,,,,,,
Pizza Expo 3/20-22/18 (NV),Pizza Expo 3/20-22/18 (NV),Rolly San Jose,104675,3/22/2018 7:35:38 PM,Brett Knowlton,NV,89102,Legacy 3D,Demo Choco,Demo,1,0.00,3900.00,3900.00,CreditCard,,,"3 years parts, 1 year labor (Free)","Legacy 3D,",YES,3/23/2018 12:00:00 AM,Delivered,,,"3/23-Maritza Confirmed payment on Wells Fargo (3900)
Rolly informed that they will deliver the chair. 3/23/18 Hitomi
Received delivery confirmation. 3/26/18 Hitomi",NV,1,8.25,DWA-9150USJ-9150CH-DEMO,3900.00,01948P,,,,,,0.00,,,,,,,0.00,,,,,,
Pizza Expo 3/20-22/18 (NV),Pizza Expo 3/20-22/18 (NV),Rolly San Jose,104676,3/22/2018 7:50:08 PM,Amari Dasher,NV,89149,Pegasus,Demo Choco,Demo,1,0.00,4200.00,4200.00,Synchrony,,,"3 years parts, 1 year labor (Free)","Pegasus,",YES,3/26/2018 12:00:00 AM,Delivered,,,"Pegasus serial# 94160120D
3/23-Maritza Fund available charge synchrony before delivery. Available credit (8500). Synchrony original application pending.
Confirmed synchrony form. Rolly informed that they will deliver the chair. 3/23/18 Hitomi",NV,1,8.25,DWA-9400Pegasus-BR-DEMO,4200.00,,,6034610083173685,86622657,Las Vegas,36 months,0.00,,,,,,,0.00,,,,,,
Pizza Expo 3/20-22/18 (NV),Pizza Expo 3/20-22/18 (NV),Patricia Whipple,104677,3/22/2018 8:04:34 PM,Dennis Wilson,ID,83843,Legacy 3D,New Black,New,1,0.00,4200.00,4200.00,CreditCard,,,"3 years parts, 1 year labor (Free)","Legacy 3D,",No,3/27/2018 12:00:00 AM,Delivered,,,3/23 Maritza Confirmed transaction on Wells Fargo(4200).,CA,1,8.25,DWA-9150USJ-9150BL,4200.00,886142,,,,,,0.00,,,,,,,0.00,,,,,,
Pizza Expo 3/20-22/18 (NV),Pizza Expo 3/20-22/18 (NV),Rolly San Jose,104678,3/22/2018 8:18:16 PM,Giuseppe Lomediko,CA,92081,Legacy,Demo Choco,Demo,1,0.00,3500.00,3500.00,CreditCard,,,"3 years parts, 1 year labor (Free)","Legacy,",No,4/6/2018 12:00:00 AM,Delivered,,,"Gardena branch to deliver to vista, ca - demo chair legacy 9100 color chocolate brown
3/23-Maritza Confirmed transaction on Wells Fargo (3500). Printed",CA,1,8.25,DWA-9100DWA-9100BU-DEMO,3500.00,860154,,,,,,0.00,,,,,,,0.00,,,,,,
Pizza Expo 3/20-22/18 (NV),Pizza Expo 3/20-22/18 (NV),Rolly San Jose,104679,3/22/2018 8:35:45 PM,Frank Dominguez,KS,66104,Pegasus,New Choco,New,1,0.00,5000.00,5000.00,Synchrony,,,"3 years parts, 1 year labor (Free)","Pegasus,",No,4/1/2018 12:00:00 AM,Delivered,,,"3/23- Maritza Available funds (6000) in synchrony. Charge before delivery.
Confirmed synchrony form . 3/23/18 Hitomi
Auth 029022 $5000 - Stephany 04/10/18 Confirmed",TX,1,8.25,DWA-9400Pegasus-BR,5000.00,,,6034610083173693,86623275,Las Vegas,36 months,0.00,,,,,,,0.00,,,,,,
Pizza Expo 3/20-22/18 (NV),Pizza Expo 3/20-22/18 (NV),Rolly San Jose,104680,3/22/2018 8:48:26 PM,Rick Ahlborn,WI,53154,Pegasus,New Choco,New,1,0.00,5000.00,5000.00,CreditCard,,,"3 years parts, 1 year labor (Free)","Pegasus,",No,4/6/2018 12:00:00 AM,Delivered,,,3/23-Maritza Confirmed transaction on Wells Fargo (5000),TX,1,8.25,DWA-9400Pegasus-BR,5000.00,01694A,,,,,,0.00,,,,,,,0.00,,,,,,
Pizza Expo 3/20-22/18 (NV),Pizza Expo 3/20-22/18 (NV),Abagail Stirling,104681,3/22/2018 8:58:12 PM,Andy Nadkarni,TX,77065,Pegasus,New Black,New,1,0.00,4800.00,4800.00,CreditCard,Synchrony,,"3 years parts, 1 year labor (Free)","Pegasus,",No,4/20/2018 12:00:00 AM,Delivered,,,"3/23-Maritza Confirmed transaction on Wells Fargo($50).
Confirmed synchrony form and the account ($5,700) .***Please charge $4,900 before delivery***",TX,1,8.25,DWA-9400Pegasus-BL,50.00,85000G,,,,,,4900.00,,,6034610083192362,87028739,Huston,36 months,0.00,,,,,,
Pizza Expo 3/20-22/18 (NV),Pizza Expo 3/20-22/18 (NV),Ilene Maynard,104682,3/22/2018 10:09:00 PM,Maryjane Crowns,NH,03051,Relax2Zero 3D,New Choco,New,1,0.00,4800.00,4800.00,CreditCard,,,"3 years parts, 2 years labor ($200)","Relax2Zero 3D,",No,4/2/2018 12:00:00 AM,Delivered,,,3/23-Maritza Confirmed square payment of (4800). Different last name on square receipt.,TX,1,8.25,DWA-9060USJ-9060BR,4800.00,Sq #AHYV,,,,,,0.00,,,,,,,0.00,,,,,,
Pizza Expo 3/20-22/18 (NV),Pizza Expo 3/20-22/18 (NV),Ilene Maynard,104683,3/22/2018 10:16:32 PM,Donna Granger,CA,92342,Relax2Zero 3D,New Choco,New,1,0.00,5196.00,5196.00,Synchrony,,,"3 years parts, 2 years labor ($200)","Relax2Zero 3D,",No,,Cancelled,,,"Received email from customer, she wants to cancel this order due to her doctor's advice. 3/23/18 Riho
Ilene confirmed the CXL request.",CA,1,8.25,DWA-9060USJ-9060BR,5196.00,,,6034610083172067,86577404,Las Vegas,36 months,0.00,,,,,,,0.00,,,,,,
Pizza Expo 3/20-22/18 (NV),Pizza Expo 3/20-22/18 (NV),Ilene Maynard,104684,3/22/2018 10:22:05 PM,Zachary Graybill,VA,22204,Relax2Zero 3D,New Choco,New,1,0.00,5196.00,5196.00,Synchrony,,,"3 years parts, 2 years labor ($200)","Relax2Zero 3D,",No,4/27/2018 12:00:00 AM,Delivered,,,"Confirmed synchrony form and the account ($6,600).***Please charge before delivery.***3/23/18 Hitomi///",TX,1,8.25,DWA-9060USJ-9060BR,5196.00,,,6034610083171549,86561531,Las Vegas,36 months,0.00,,,,,,,0.00,,,,,,
Pizza Expo 3/20-22/18 (NV),Pizza Expo 3/20-22/18 (NV),Ilene Maynard,104685,3/22/2018 10:30:24 PM,Maja Arcobaleno,PA,17601,Pegasus,New Black,New,1,0.00,4450.00,4450.00,CreditCard,Check,,"3 years parts, 1 year labor (Free)","Pegasus,",No,3/31/2018 12:00:00 AM,Delivered,,,"3/23- Maritza Confirmed payment on square (4250) Different last name on square receipt.
COD of $200 
check#7370 $200",TX,1,8.25,DWA-9400Pegasus-BL,4250.00,Sq #ONWe,,,,,,200.00,,,,,,,0.00,,,,,,
Pizza Expo 3/20-22/18 (NV),Pizza Expo 3/20-22/18 (NV),Ilene Maynard,104686,3/22/2018 10:37:29 PM,James Alario,NJ,07036,Relax2Zero 3D,New Black,New,1,0.00,4500.00,4500.00,CreditCard,COD,,"3 years parts, 2 years labor ($200)","Relax2Zero 3D,",No,,Cancelled,,,"Order on “HOLD” do not ship
House not ready 
500.00 down
4000.00 balanced

4500.00 total priced


amap18@aol.com",Not Dispatched,1,8.25,DWA-9060USJ-9060BL,500.00,Sq #ckNQ,,,,,,4000.00,,,,,,,0.00,,,,,,
Pizza Expo 3/20-22/18 (NV),Pizza Expo 3/20-22/18 (NV),Ilene Maynard,104687,3/22/2018 10:43:58 PM,Paul Adkins,OH,45661,Relax2Zero 3D,New Choco,New,1,0.00,3900.00,3900.00,CreditCard,,,"3 years parts, 1 year labor (Free)","Relax2Zero 3D,",No,4/3/2018 12:00:00 AM,Delivered,,,3/23 -Maritza Confirmed payment on square (3900).,TX,1,8.25,DWA-9060USJ-9060BR,3900.00,bF8u,,,,,,0.00,,,,,,,0.00,,,,,,
Pizza Expo 3/20-22/18 (NV),Pizza Expo 3/20-22/18 (NV),Ilene Maynard,104688,3/22/2018 10:49:29 PM,Dan Daniels,MN,56308,Relax2Zero 3D,New Choco,New,1,0.00,3700.00,3700.00,CreditCard,,,"3 years parts, 1 year labor (Free)","Relax2Zero 3D,",No,4/7/2018 12:00:00 AM,Delivered,,,3/28- Maritza Confirmed payment on square for (3700).,TX,1,8.25,DWA-9060USJ-9060BR,3700.00,Sq #yKWj,,,,,,0.00,,,,,,,0.00,,,,,,
Pizza Expo 3/20-22/18 (NV),Pizza Expo 3/20-22/18 (NV),Ilene Maynard,104689,3/22/2018 10:57:59 PM,Jeff Daniels,UT,84321,Relax2Zero 3D,New Choco,New,1,0.00,3700.00,3700.00,CreditCard,,,"3 years parts, 1 year labor (Free)","Relax2Zero 3D,",No,4/4/2018 12:00:00 AM,Delivered,,,3/23- Maritza Confirmed payment on square for (3700).,NV,1,8.25,DWA-9060USJ-9060BR,3700.00,Sq #DGz5,,,,,,0.00,,,,,,,0.00,,,,,,
Pizza Expo 3/20-22/18 (NV),Pizza Expo 3/20-22/18 (NV),Ilene Maynard,104690,3/22/2018 11:04:02 PM,Rich Bowman,IN,46307,Relax2Zero 3D,New Black,New,1,0.00,4000.00,4000.00,CreditCard,,,"3 years parts, 1 year labor (Free)","Relax2Zero 3D,",No,4/4/2018 12:00:00 AM,Delivered,,,3/28-Maritza Confirmed payment on square for (4000).,TX,1,8.25,DWA-9060USJ-9060BL,4000.00,Sq #wmGj,,,,,,0.00,,,,,,,0.00,,,,,,
Pizza Expo 3/20-22/18 (NV),Pizza Expo 3/20-22/18 (NV),Ilene Maynard,104691,3/22/2018 11:10:13 PM,Barry Brownhill,OH,43054,Relax2Zero 3D,New Choco,New,1,0.00,4000.00,4000.00,CreditCard,,,"3 years parts, 1 year labor (Free)","Relax2Zero 3D,",No,4/3/2018 12:00:00 AM,Delivered,,,3/28-Maritza Confirmed payment on square for (4000).,TX,1,8.25,DWA-9060USJ-9060BR,4000.00,Sq #2gHd,,,,,,0.00,,,,,,,0.00,,,,,,
Pizza Expo 3/20-22/18 (NV),Pizza Expo 3/20-22/18 (NV),Ilene Maynard,104698,3/23/2018 1:11:39 PM,Chrissy Sandy,WA,98074,Relax2Zero 3D,New Choco,New,2,0.00,7400.00,7400.00,CreditCard,CreditCard,,"3 years parts, 1 year labor (Free)","Relax2Zero 3D,",No,4/18/2018 12:00:00 AM,Delivered,,,"2 different address
1) Chrissy Sandy
667 E lake Sammamish sh ln NE
Sammamish. WA 98074
Tel. # 248 722 4769
2) Jennifer Maertens
6833 156th pl NE
Redmond. WA 98052
Tel # 248 802. 6974
Color not sure yet, customer they will advice us pls. HOLD this order",WA,1,8.25,DWA-9060USJ-9060BR,1000.00,Sq #fPba,,,,,,6400.00,Sq #Rcem,,,,,,0.00,,,,,,
