﻿Original Event Name,Event Name,Sales Person,Order Number,Order Date,Customer Name,State,Zip,Product Name,Color,Product Status,QTY,Tax,Total Before Tax,Order Total,Primary Payment Method,Second Payment Method,Thirdl Payment Method,Warranty,Order Items,Pick up,Delivered On,Order Status,Chair Type,Order Notes,Private Note,Branch,No Tax,Actual Tax Rate,SKU,Primary Payment Balance,Primary Authorize Number,Primary Purchase Order Number,Primary Synchrony Account Number,Primary Synchrony Application Key,Primary Synchrony Account Info,Primary Synchrony Term,Second Payment Balance,Second Authorize Number,Second Purchase Order Number,Second Synchrony Account Number,Second Synchrony Application Key,Second Synchrony Account Info,Second SynchronyTerm,Third Payment Balance,Third Authorize Number,Third Purchase Order Number,Third Synchrony Account Number,Third Synchrony Application Key,Third Synchrony Account Info,Third Synchrony Term
"Sam's Club #4738 Eagan, MN 5/23-6/2/19 (IL)","Sam's Club #4738 Eagan, MN 5/23-6/2/19 (IL)",Paul Wang,117578,5/26/2019 9:14:39 AM,W Michael Smith,MN,55123,Ninja Leg Massager 2,Demo[-20.00],Demo,1,32.77,459.96,492.73,Credit Card,,,"2 years parts, 1 year labor for Small Items","Ninja Leg Massager 2,Shogun Neck &amp; Back Massger,",YES,,Delivered,,,,IL,0,7.13,USJ-880-Demo,0.00,919242431294861163307,,,,,,0.00,,,,,,,0.00,,,,,,
"Sam's Club #4738 Eagan, MN 5/23-6/2/19 (IL)","Sam's Club #4738 Eagan, MN 5/23-6/2/19 (IL)",Paul Wang,117578,5/26/2019 9:14:39 AM,W Michael Smith,MN,55123,Shogun Neck & Back Massger,Demo[-20],Demo,1,32.77,459.96,492.73,Credit Card,,,"2 years parts, 1 year labor for Small Items","Ninja Leg Massager 2,Shogun Neck &amp; Back Massger,",YES,,Delivered,,,,IL,0,7.13,USJ-874USJ-874-DEMO,0.00,919242431294861163307,,,,,,0.00,,,,,,,0.00,,,,,,
"Sam's Club #4738 Eagan, MN 5/23-6/2/19 (IL)","Sam's Club #4738 Eagan, MN 5/23-6/2/19 (IL)",Paul Wang,117654,5/29/2019 8:41:01 AM,Maria Zelinsky,MN,55122,Ninja Leg Massager 2,New,New,1,21.37,299.98,321.35,Credit Card,,,"2 years parts, 1 year labor for Small Items","Ninja Leg Massager 2,",YES,,Delivered,,,,IL,0,7.13,USJ-880,0.00,514481795100420565906,,,,,,0.00,,,,,,,0.00,,,,,,
"Sam's Club #4738 Eagan, MN 5/23-6/2/19 (IL)","Sam's Club #4738 Eagan, MN 5/23-6/2/19 (IL)",Paul Wang,117655,5/29/2019 8:53:14 AM,Carrie Chen,MN,55123,Foot Vibe Pro,,New,1,40.61,569.95,610.56,Credit Card,,,"2 years parts, 1 year labor for Small Items","Ninja Leg Massager 2,Shogun Neck &amp; Back Massger,Foot Vibe Pro,",YES,,Delivered,,,,IL,0,7.13,USJ-871,610.56,Tc 958262739294864123347,,,,,,0.00,,,,,,,0.00,,,,,,
"Sam's Club #4738 Eagan, MN 5/23-6/2/19 (IL)","Sam's Club #4738 Eagan, MN 5/23-6/2/19 (IL)",Paul Wang,117655,5/29/2019 8:53:14 AM,Carrie Chen,MN,55123,Ninja Leg Massager 2,Demo[-20.00],Demo,1,40.61,569.95,610.56,Credit Card,,,"2 years parts, 1 year labor for Small Items","Ninja Leg Massager 2,Shogun Neck &amp; Back Massger,Foot Vibe Pro,",YES,,Delivered,,,,IL,0,7.13,USJ-880-Demo,610.56,Tc 958262739294864123347,,,,,,0.00,,,,,,,0.00,,,,,,
"Sam's Club #4738 Eagan, MN 5/23-6/2/19 (IL)","Sam's Club #4738 Eagan, MN 5/23-6/2/19 (IL)",Paul Wang,117655,5/29/2019 8:53:14 AM,Carrie Chen,MN,55123,Shogun Neck & Back Massger,Demo[-20],Demo,1,40.61,569.95,610.56,Credit Card,,,"2 years parts, 1 year labor for Small Items","Ninja Leg Massager 2,Shogun Neck &amp; Back Massger,Foot Vibe Pro,",YES,,Delivered,,,,IL,0,7.13,USJ-874USJ-874-DEMO,610.56,Tc 958262739294864123347,,,,,,0.00,,,,,,,0.00,,,,,,
"Sam's Club #4738 Eagan, MN 5/23-6/2/19 (IL)","Sam's Club #4738 Eagan, MN 5/23-6/2/19 (IL)",Paul Wang,117677,5/30/2019 10:26:10 AM,Kaiti Wachter,MN,55123,Ninja Leg Massager 2,New,New,1,21.37,299.98,321.35,Credit Card,,,"2 years parts, 1 year labor for Small Items","Ninja Leg Massager 2,",YES,,Delivered,,,,IL,0,7.13,USJ-880,0.00,Tc 713695261561016774852,,,,,,0.00,,,,,,,0.00,,,,,,
