﻿Date,CustomerName,State,Zipcode,Description,productNo,Color,IsDemo,Net,ShippingFee,GiftPrice,FinancingProcessingFee,Gross,Pre_tax,Tax,Commission,Primary Payment Method,Primary Payment Balance,Primary Authorize Number,Primary Purchase Order Number,Primary Synchrony Account Number,Primary Synchrony Application Key,Primary Synchrony AccountInfo,Primary SynchronyTerm,Secondly Payment Method,Secondly Payment Balance,Secondly Authorize Number,Secondly Purchase Order Number,Secondly Synchrony Account Number,Secondly Synchrony Application Key,Secondly Synchrony AccountInfo,Secondly SynchronyTerm,Thirdly Payment Method,Thirdly Payment Balance,Thirdly Authorize Number,Thirdly Purchase Order Number,Thirdly Synchrony Account Number,Thirdly Synchrony Application Key,Thirdly Synchrony AccountInfo,Thirdly SynchronyTerm,DeliveryDate,Ispickup,Warranty,Status,Event Name,Synchrony Notes,Order Notes,Order number,Private Note,Branch,IsNoTax,ActualTaxRate
11/13/2017 3:59:01 PM,Anthony Stallings,OR,97146,Legacy 3D,DWA-9150USJ-9150BL-DEMO,Demo Black,Demo,,,,,3850.00,3850.00,0.00,May Kam,,200.00,079637,,,,,,COD,,,,,,,,,,,,,,,,11/20/2017 12:00:00 AM,No,"3 years parts, 1 year labor (Free)",Delivered,"Uwajimaya, Beaverton, OR 11/10-15(WA)",,"When we deliver chair, Pls charge balance $3650, thanks",101861,"balance received, Square # S8dL
COD SQUARE CLEARED - 11/20/17 STEPHANY",WA,,
11/13/2017 3:59:01 PM,Anthony Stallings,OR,97146,Daiwa Blanket,,,New,,,,,3850.00,3850.00,0.00,May Kam,,200.00,079637,,,,,,COD,,,,,,,,,,,,,,,,11/20/2017 12:00:00 AM,No,no warranty,Delivered,"Uwajimaya, Beaverton, OR 11/10-15(WA)",,"When we deliver chair, Pls charge balance $3650, thanks",101861,"balance received, Square # S8dL
COD SQUARE CLEARED - 11/20/17 STEPHANY",WA,,
11/13/2017 4:09:35 PM,Carlos Abalos,OR,97078,Legacy 3D,DWA-9150USJ-9150BL,Black,New,,,,,4350.00,4350.00,0.00,May Kam,,0.00,,,6034610081627831,80956270,San Diego,36 months,,,,,,,,,,,,,,,,,11/20/2017 12:00:00 AM,No,"3 years parts, 1 year labor (Free)",Delivered,"Uwajimaya, Beaverton, OR 11/10-15(WA)",,,101862,"Pls make finance $4350 purchase , thanks
SYNCHRONY CHARGED $4350 -Jiajia 11/17/2017 Authorization #017350",WA,,
11/13/2017 4:24:14 PM,Holly & Nick Forrette,OR,97223,Legacy 3D,DWA-9150USJ-9150CH,Choco Brown,New,,,,,3950.00,3950.00,0.00,May Kam,,200.00,60234P,,,,,,COD,,,,,,,,,,,,,,,,12/11/2017 12:00:00 AM,No,"3 years parts, 1 year labor (Free)",Delivered,"Uwajimaya, Beaverton, OR 11/10-15(WA)",,"Pls arrange delivery after Dec 2nd,2017, COD $3750, Thanks",101863,"charged her husband's card first and  refund. Scott charged her card, new Square # Eh5I.",WA,,
11/13/2017 4:24:14 PM,Holly & Nick Forrette,OR,97223,Daiwa Blanket,,,New,,,,,3950.00,3950.00,0.00,May Kam,,200.00,60234P,,,,,,COD,,,,,,,,,,,,,,,,12/11/2017 12:00:00 AM,No,no warranty,Delivered,"Uwajimaya, Beaverton, OR 11/10-15(WA)",,"Pls arrange delivery after Dec 2nd,2017, COD $3750, Thanks",101863,"charged her husband's card first and  refund. Scott charged her card, new Square # Eh5I.",WA,,
11/13/2017 4:56:24 PM,Lilly Zheng,OR,97229,Legacy 3D,DWA-9150USJ-9150BL,Black,New,,,,,3950.00,3950.00,0.00,May Kam,,0.00,,,6034610081631783,81035445,San Diego,24 months,,,,,,,,,,,,,,,,,11/20/2017 12:00:00 AM,No,"3 years parts, 1 year labor (Free)",Delivered,"Uwajimaya, Beaverton, OR 11/10-15(WA)",,,101867,"Pls make finance $3950 purchase, thanks
SYNCHRONY CHARGED $3950 -Jiajia 11/15/2017 Authorization #015306",WA,,
11/15/2017 10:00:52 AM,Sun Park,OR,97219,Legacy 3D,DWA-9150USJ-9150BL,Black,New,,,,,3850.00,3850.00,0.00,May Kam,,1850.00,03106C,,,,,,Synchrony,,,,,,,,,,,,,,,,11/20/2017 12:00:00 AM,No,"3 years parts, 1 year labor (Free)",Delivered,"Uwajimaya, Beaverton, OR 11/10-15(WA)",,,101888,"Synchrony A/ C #:  6034610081633912, Key #81091552, 

Pls make finance purchase $2000 for 24 Month, San Diego account.
SYNCHRONY CHARGED $2000 -Jiajia 11/15/2017 Authorization #015051",WA,0,0.00
11/15/2017 10:00:52 AM,Sun Park,OR,97219,Daiwa Blanket,,,New,,,,,3850.00,3850.00,0.00,May Kam,,1850.00,03106C,,,,,,Synchrony,,,,,,,,,,,,,,,,11/20/2017 12:00:00 AM,No,no warranty,Delivered,"Uwajimaya, Beaverton, OR 11/10-15(WA)",,,101888,"Synchrony A/ C #:  6034610081633912, Key #81091552, 

Pls make finance purchase $2000 for 24 Month, San Diego account.
SYNCHRONY CHARGED $2000 -Jiajia 11/15/2017 Authorization #015051",WA,0,0.00
11/15/2017 3:04:44 PM,Joseph Millenbach,OR,97006,Legacy 3D,DWA-9150USJ-9150BL,Black,New,,,,,4100.00,4100.00,0.00,May Kam,,300.00,01594B,,,,,,COD,,,,,,,,,,,,,,,,11/30/2017 12:00:00 AM,No,"3 years parts, 1 year labor (Free)",Delivered,"Uwajimaya, Beaverton, OR 11/10-15(WA)",,,101891,,WA,1,0.00
11/15/2017 3:04:44 PM,Joseph Millenbach,OR,97006,Daiwa Blanket,,,New,,,,,4100.00,4100.00,0.00,May Kam,,300.00,01594B,,,,,,COD,,,,,,,,,,,,,,,,11/30/2017 12:00:00 AM,No,no warranty,Delivered,"Uwajimaya, Beaverton, OR 11/10-15(WA)",,,101891,,WA,1,0.00
11/16/2017 9:42:18 AM,Jean Noel Phetnouvong,OR,97003,Legacy 3D,DWA-9150USJ-9150CH-DEMO,Demo Choco Brown,Demo,,,,,3700.00,3700.00,0.00,May Kam,,1000.00,762603,,,,,,Synchrony,,,,,,,,,,,,,,,,,No,"3 years parts, 1 year labor (Free)",Cancelled,"Uwajimaya, Beaverton, OR 11/10-15(WA)",,"Finance didn’t get approval, refunded already $1000 to the customer, order cancelled",101897,,WA,1,0.00
11/21/2017 9:30:19 AM,David Sun,OR,97223,Legacy 3D,DWA-9150USJ-9150BL,Black,New,,,,,3850.00,3850.00,0.00,May Kam,,3850.00,,,6034610081648266,81380757,San Diego,36 months,,,,,,,,,,,,,,,,,12/11/2017 12:00:00 AM,No,"3 years parts, 1 year labor (Free)",Delivered,"Uwajimaya, Beaverton, OR 11/10-15(WA)",,"Pls make finance $3850 purchase, thanks",102026,SYNCHRONY CHARGED $3850 -Jiajia 12/13/2017 Authorization #013494,WA,1,0.00
