﻿Date,Customer Name,State,Zipcode,Description,Product Number,Color,Product Status,Net,Shipping Fee,Gift Price,Financing Processing Fee,Order Total,Total Before Tax,Tax,Commission,Primary Payment Method,Primary Payment Balance,Primary Authorize Number,Primary Purchase Order Number,Primary Synchrony Account Number,Primary Synchrony Application Key,Primary Synchrony Account Info,Primary Synchrony Term,Primary Synchrony Primary ID,Primary Synchrony Issued State,Primary Synchrony Expiretion Date,Second Payment Method,Second Payment Balance,Second Authorize Number,Second Purchase Order Number,Second Synchrony Account Number,Second Synchrony Application Key,Second Synchrony Account Info,Second Synchrony Term,Second Synchrony Primary ID,Second Synchrony Issued State,Second Synchrony Expiretion Date,Third Payment Method,Third Payment Balance,Third Authorize Number,Third Purchase Order Number,Third Synchrony Account Number,Third Synchrony Application Key,Third Synchrony Account Info,Third Synchrony Term,Third Synchrony Primary ID,Third Synchrony Issued State,Third Synchrony Expiretion Date,Delivery Date,Pick up,Warranty,Status,Chair Type,Original Event Name,Event Name,Synchrony Notes,Order Notes,Order Number,Private Note,Branch,No Tax,Actual Tax Rate
8/10/2019 7:09:52 AM,David Beary,IA,50247,Hubble,HUBL-1HUBL-1CH-DEMO,Demo Choco,Demo,,,,,5800.00,5800.00,0.00,Rodrigo Malabunga,Credit Card,200.00,lE4Y,,,,,,,,/,Credit Card,5600.00,jlOH,,,,,,,,/,,0.00,,,,,,,,,/,8/16/2019 12:00:00 AM,No,"5 years parts, 2 years labor ($200)",Delivered,New,"IOWA STATE FAIR 8/8-18/19 DES MOINES, IA","IOWA STATE FAIR 8/8-18/19 DES MOINES, IA",,,120150,"Original received. Sq amount verified $200. Remaining balance $5600. Collect cod (5600) @ delivery-Erika 8/12/19 11:31am Per sales rep rq pls place it on hold.
08/13/19 Per Ji's text message customer is ready for delivery (Cristina removed from Hold) 08/13/19 10:28 am
8/14-Customer confirmed delivery for 8/16 5:30pm-8pm @ THIS ADDRESS: 2466 155TH PL. LOVILIA, IA 50150.-Karen
Delivery confirmation completed, verified both forms of payments through sq. Paid in full-Erika 8/21/19 9:22am",IL,1,6.00
8/10/2019 7:09:52 AM,David Beary,IA,50247,Chair Pad for Pegasus,,,New,,,,,5800.00,5800.00,0.00,Rodrigo Malabunga,Credit Card,200.00,lE4Y,,,,,,,,/,Credit Card,5600.00,jlOH,,,,,,,,/,,0.00,,,,,,,,,/,8/16/2019 12:00:00 AM,No,No Warranty,Delivered,New,"IOWA STATE FAIR 8/8-18/19 DES MOINES, IA","IOWA STATE FAIR 8/8-18/19 DES MOINES, IA",,,120150,"Original received. Sq amount verified $200. Remaining balance $5600. Collect cod (5600) @ delivery-Erika 8/12/19 11:31am Per sales rep rq pls place it on hold.
08/13/19 Per Ji's text message customer is ready for delivery (Cristina removed from Hold) 08/13/19 10:28 am
8/14-Customer confirmed delivery for 8/16 5:30pm-8pm @ THIS ADDRESS: 2466 155TH PL. LOVILIA, IA 50150.-Karen
Delivery confirmation completed, verified both forms of payments through sq. Paid in full-Erika 8/21/19 9:22am",IL,1,6.00
8/10/2019 7:13:19 AM,Vickie R Irving,MD,20745,PEGASUS 2 SMART,PEGS-2PEGS-2-BR,New Choco,New,,,,,6955.00,6603.77,351.23,Keith Kei,Synchrony,6955.00,,,6501723375267661,79364497,Huston,36 months,Driver’s License,TX,01/2025,,0.00,,,,,,,,,/,,0.00,,,,,,,,,/,,No,"5 years parts, 2 years labor ($200)",Hold,,"IOWA STATE FAIR 8/8-18/19 DES MOINES, IA","IOWA STATE FAIR 8/8-18/19 DES MOINES, IA",,Hold Delivery Until February 2020. Please call to confirm delivery address and time.,120151,"Customer will be moving from Maryland to San Antonio Texas in 2020
Synchrony original verified. Credit available $8400. Remaining balance $6955. pls charge synchrony account upon delivery have sales draft signed. Per sales rep request pls hold until feb 2020, customer will be moving to texas, confirm new address-Erika 8/12/19 10:47am
Printed, noted on paper - Tina 8/12/2019",TX,0,6.00
8/10/2019 7:14:44 AM,Steven Asche,IA,50533,Hubble,HUBL-1HUBL-1CH,New Choco,New,,,,,5800.00,5800.00,0.00,Rodrigo Malabunga,Credit Card,2000.00,hzmH,,,,,,,,/,COD,3800.00,,,,,,,,,/,,0.00,,,,,,,,,/,,No,"5 years parts, 3 years labor ($400)",Scheduled,,"IOWA STATE FAIR 8/8-18/19 DES MOINES, IA","IOWA STATE FAIR 8/8-18/19 DES MOINES, IA",,,120152,"Original received. SQ amount verified $2000. Remaining balance $3800. Collect Cod (3800) @ delivery-Erika 8/12/19 11:28am
8/13- Customer notified he will still be at the fair declined delivery will put onto another schedule to deliver-Karen
8/16- CC; Left VM (Different schedule to confirm)-Karen {11:28am}
8/16{1:25pm}-Confirmed delivery for 8/19 9:30am-1:30pm-Karen",IL,1,6.00
8/10/2019 7:18:40 AM,Donald Beyer,IA,50461,PEGASUS 2 SMART,PEGS-2PEGS-2-BR,New Choco,New,,,,,5800.00,5800.00,0.00,Rodrigo Malabunga,Credit Card,5800.00,R3cK,,,,,,,,/,,0.00,,,,,,,,,/,,0.00,,,,,,,,,/,8/14/2019 12:00:00 AM,No,"5 years parts, 2 years labor ($200)",Delivered,New,"IOWA STATE FAIR 8/8-18/19 DES MOINES, IA","IOWA STATE FAIR 8/8-18/19 DES MOINES, IA",,,120153,"Original received. SQ amount verified $5800. Paid in full-Erika 8/12/19 10:44am
8/14- Customer confirmed delivery for 8/14 8am-12pm-Karen

Verified delivery and payment, marked as delivered and passed complete invoice to Erika - Arisa 8/19/19 2:25pm",IL,1,6.00
8/10/2019 7:19:44 AM,Jeffrey Ray Claman,IA,50226,PEGASUS 2 SMART,PEGS-2PEGS-2-BL-DEMO,Demo Black,Demo,,,,,5500.00,5500.00,0.00,Keith Kei,Credit Card,5500.00,SQ# g8Cb,,,,,,,,/,,0.00,,,,,,,,,/,,0.00,,,,,,,,,/,,No,"5 years parts, 1 year labor (Free)",Cancelled,,"IOWA STATE FAIR 8/8-18/19 DES MOINES, IA","IOWA STATE FAIR 8/8-18/19 DES MOINES, IA",,,120154,"Original received. Sq amount verified $5500. Paid in full.-Erika 8/12/19 11:00am
8/13-Customer notified that they had cancelled delivery already.-Karen

Keith confirmed that the customer had cancelled the order, issued refund for the full amount $5,500 and sent the receipt to the customer via Square. 8/13/19 Riho",IL,1,6.00
8/10/2019 6:14:47 PM,Anthony Donahoo,IA,50841,PEGASUS 2 SMART,PEGS-2PEGS-2-BL-DEMO,Demo Black,Demo,,,,,5500.00,5500.00,0.00,Ruben Cuatrona,Synchrony,5500.00,,,6501723375266994,79342869,San Diego,48 months,Driver’s License,IA,09/2024,,0.00,,,,,,,,,/,,0.00,,,,,,,,,/,8/15/2019 12:00:00 AM,No,"5 years parts, 2 years labor ($200)",Delivered,New,"IOWA STATE FAIR 8/8-18/19 DES MOINES, IA","IOWA STATE FAIR 8/8-18/19 DES MOINES, IA",,,120163,"please give a new chair
Synchrony original verified. Credit available $9000. Remaining balance $5500. Pls charge synchrony account upon delivery, have sales draft sign. Per sales rep rq pls send a new chair. -Erika 8/12/19 4:04pm
8/13- Customer confirmed delivery for 8/15 11am-3pm-Karen",IL,1,6.00
8/10/2019 6:24:43 PM,Pam Jordan,IA,50021,PEGASUS 2 SMART,PEGS-2PEGS-2-BL-DEMO,Demo Black,Demo,,,,,5600.00,5600.00,0.00,Ruben Cuatrona,Synchrony,5600.00,,,6501723375267232,79347047,Huston,48 months,Driver’s License,IA,07/2024,,0.00,,,,,,,,,/,,0.00,,,,,,,,,/,8/14/2019 12:00:00 AM,No,"5 years parts, 2 years labor ($200)",Delivered,Demo,"IOWA STATE FAIR 8/8-18/19 DES MOINES, IA","IOWA STATE FAIR 8/8-18/19 DES MOINES, IA",,,120164,"Synchrony original verified. Credit available $7000. Remaining balance $5600. Pls charge synchrony account upon delivery, have sales draft signed.-Erika 8/12/19 10:41am
8/13-customer confirmed delivery for 8/14 4pm-8pm; will email synchrony account sales draft to collect signature as she wont be present during delivery-Karen

Waiting for signed sales draft - Arisa 8/21/19  11:11am",IL,1,6.00
8/10/2019 6:45:41 PM,patricia gerner,IA,52048,PEGASUS 2 SMART,PEGS-2PEGS-2-BL,New Black,New,,,,,5000.00,5000.00,0.00,Ruben Cuatrona,Credit Card,1000.00,hptt,,,,,,,,/,Synchrony,4000.00,,,6501723375270806,79447285,San Diego,36 months,Driver’s License,IA,02/2026,,0.00,,,,,,,,,/,8/13/2019 12:00:00 AM,No,"5 years parts, 3 years labor ($400)",Delivered,New,"IOWA STATE FAIR 8/8-18/19 DES MOINES, IA","IOWA STATE FAIR 8/8-18/19 DES MOINES, IA",,"When deliver the chair to the customer, please take the old chair and deliver to the address below.
Darla Kalchen
1387 210th ave
greeley IA 52050
Phone: 5638802873",120166,"Original received. Sq amount verified $1000. Synchrony original verified. Credit available $7000. Remaining balance $4000. Pls charge synchrony account upon delivery have sales draft signed.-Erika 8/12/19 11:05am
Per sales rep rq pick up old chair and deliver new address Darla Kalchen 1387 210th ave greeley IA 52050
Phone: 5638802873
8-13- Customer confirmed delivery for 8/13- 5pm-8pm.-Karen
CC; LEFT VM Darla for Delivery After.-Karen

Confirmed pick-up/delivery skip for Darla Kalchen and signed sales draft. Serial number of old chair transferred is 96160074d.
Verified delivery and payment, marked as delivered and passed complete invoice to Erika - Arisa 8/19/19 2:17pm",IL,1,6.00
8/10/2019 6:56:03 PM,Michael Lynn Bang,SD,57108,PEGASUS 2 SMART,PEGS-2PEGS-2-BR,New Choco,New,,,,,6000.00,6000.00,0.00,Xiongxiaojun Ji,Credit Card,2900.00,Sq# qlkz,,,,,,,,/,Synchrony,3100.00,,,6501723375268131,79383119,Huston,24 months,Driver’s License,SD,07/2020,,0.00,,,,,,,,,/,,No,"5 years parts, 1 year labor (Free)",Scheduled,,"IOWA STATE FAIR 8/8-18/19 DES MOINES, IA","IOWA STATE FAIR 8/8-18/19 DES MOINES, IA",,,120167,"Original received. Sq amount verified $2900.Synchrony original verified. Credit available $7200. Remaining balance $3100. Pls charge synchrony account upon delivery, have sales draft sign.-Erika 8/12/19 11:20 am
8/15 - Alysa - Printed
8/16 - Alysa - Customer confirmed delivery Sun. 8/25 between 4-8PM. Synchrony Authorization Code
016307",TX,1,6.00
8/10/2019 6:56:56 PM,Shannon Loyd,IA,50633,PEGASUS 2 SMART,PEGS-2PEGS-2-BL,New Black,New,,,,,5500.00,5500.00,0.00,Ruben Cuatrona,Synchrony,4700.00,,,6501723375268057,79381102,San Diego,24 months,Driver’s License,IA,02/2023,COD,800.00,,,,,,,,,/,,0.00,,,,,,,,,/,,No,"5 years parts, 2 years labor ($200)",Scheduled,,"IOWA STATE FAIR 8/8-18/19 DES MOINES, IA","IOWA STATE FAIR 8/8-18/19 DES MOINES, IA",,"Customer already have synchrony account , last 4 digit account number is 8057",120169,"Synchrony account verified. Credit available $4700. Remaining balance $4700. Pls charge synchrony account (4700) upon delivery, have sales draft signed. Remaining balance $800. Collect COD (800) @ delivery---Erika 8/12/19 11:13am
8/13- Customer is out of town thought we would deliver in 2 weeks, will set a schedule for customer in two weeks-Karen
8/22- Confirmed delivery for 9/5 1-5pm; Customer wants 1 day notification of delivery-(Karen)",IL,1,6.00
8/11/2019 7:01:01 AM,Shaelea Riggins,IA,50315,Majesty,MAJ-1010MAJ-1010-BL-DEMO,Demo Black,Demo,,,,,2300.00,2300.00,0.00,Winston Melgar,Synchrony,2000.00,,,6501723375276392,79440660,San Diego,24 months,Driver’s License,IA,04/2020,COD,300.00,,,,,,,,,/,,0.00,,,,,,,,,/,,No,"5 years parts, 1 year labor (Free)",Cancelled,,"IOWA STATE FAIR 8/8-18/19 DES MOINES, IA","IOWA STATE FAIR 8/8-18/19 DES MOINES, IA",,,120173,"Synchrony original verified through synchrony application key.Credit available$2000. remaining balance $2000. Pls charge synchrony account upon delivery, have sales draft sign. Collect Cod $300 @ delivery.-Erika 8/12/19 11:43am pls have customer sign on synchrony application, sales rep forgot to receive customers sig.-Erika NEW order# 120226 sales rep inputted two names on orders, didnt sign out after creating a new one",IL,1,6.00
8/11/2019 7:05:23 AM,Jeff Stangle,NE,68046,PEGASUS 2 SMART,PEGS-2PEGS-2-BR,New Choco,New,,,,,5500.00,5500.00,0.00,Ruben Cuatrona,Credit Card,5500.00,#8h0D,,,,,,,,/,,0.00,,,,,,,,,/,,0.00,,,,,,,,,/,,No,"5 years parts, 2 years labor ($200)",Cancelled,,"IOWA STATE FAIR 8/8-18/19 DES MOINES, IA","IOWA STATE FAIR 8/8-18/19 DES MOINES, IA",,Please mail a XL Daiwa shirt and one acu-ball USJ867,120174,"Original received. Sq amount verified $5500. Paid in full-Erika 8/12/19 12:13pm
courtesy call completed-Erika 8/13/19 11:38am

Cristina had informed us about the cancellation and gave me the copy of refund receipt, will attach it to the invoice. 8/13/19 Riho",TX,1,6.00
8/11/2019 7:06:32 AM,Terry Lambirth,IA,50138,PEGASUS 2 SMART,PEGS-2PEGS-2-BL-DEMO,Demo Black,Demo,,,,,5885.00,5594.34,290.66,Keith Kei,Credit Card,1000.00,SQ# dsPy,,,,,,,,/,,0.00,,,,,,,,,/,,0.00,,,,,,,,,/,,No,"5 years parts, 1 year labor (Free)",Hold,,"IOWA STATE FAIR 8/8-18/19 DES MOINES, IA","IOWA STATE FAIR 8/8-18/19 DES MOINES, IA",,"Deposit: $1000.00
CoD: $4885.00
Remaining Balance: $4885.00
Order require to be hold until customer notify.",120175,"Please call after a month if customer haven't respond back yet.
Original received. SQ amount verified $1000. Remaining balance $4885. Pls collect Cod (4885) @ delivery. Per sales rep rq pls place on hold, if customer doesn't call, reach out after one month of 8/12. Erika 8/12/19 1:42pm",IL,0,6.00
8/11/2019 7:11:34 AM,Rebbca Hinkle,AR,72715,Majesty,MAJ-1010MAJ-1010-BL,New Black,New,,,,,3745.00,3745.00,0.00,Amit Bharam,Credit Card,3745.00,hoBS,,,,,,,,/,,0.00,,,,,,,,,/,,0.00,,,,,,,,,/,8/17/2019 12:00:00 AM,No,"5 years parts, 1 year labor (Free)",Delivered,New,"IOWA STATE FAIR 8/8-18/19 DES MOINES, IA","IOWA STATE FAIR 8/8-18/19 DES MOINES, IA",,,120176,"Original received. Sq amount verified $3745. Paid in full. -Erika 8/12/19 12:23pm
courtesy call completed-Erika 8/13/19 11:42am
printed 8/14/2019 June
8/16 - Alysa - Customer confirmed delivery 8/17 between 9-12PM.

Verified delivery and payment, marked as delivered and passed complete invoice to Erika - Arisa 8/19/19 2:39pm",TX,1,6.00
8/11/2019 7:16:28 AM,Tom O E Scheffers,IA,50217,Hubble,HUBL-1HUBL-1BL-DEMO,Demo Black,Demo,,,,,5000.00,5000.00,0.00,Rodrigo Malabunga,Synchrony,5000.00,,,6501723375269337,79417630,San Diego,36 months,Driver’s License,IA,07/2025,,0.00,,,,,,,,,/,,0.00,,,,,,,,,/,,No,"5 years parts, 2 years labor ($200)",Called,,"IOWA STATE FAIR 8/8-18/19 DES MOINES, IA","IOWA STATE FAIR 8/8-18/19 DES MOINES, IA",,,120178,"Synchrony original verified. Credit available $8400. Remaining balance $5000. pls charge synchrony account upon delivery, have sales draft sign.-Erika 8/12/19 12:26pm
8/20- Courtesy Call Completed.-Karen",IL,1,6.00
8/11/2019 7:18:28 AM,Annette Bice,TN,37129,PEGASUS 2 SMART,PEGS-2PEGS-2-BR,New Choco,New,,,,,5500.00,5500.00,0.00,Ruben Cuatrona,Synchrony,5500.00,,,6501723375270780,79446799,San Diego,36 months,Driver’s License,TN,12/2020,,0.00,,,,,,,,,/,,0.00,,,,,,,,,/,,No,"5 years parts, 2 years labor ($200)",Cancelled,,"IOWA STATE FAIR 8/8-18/19 DES MOINES, IA","IOWA STATE FAIR 8/8-18/19 DES MOINES, IA",,,120179,"Synchrony original verified. Credit available $9000. Remaining balance $5500. pls charge synchrony account upon delivery, have sales draft sign.-Erika 8/12/19 12:29pm
8/13- CC; Left VM-Karen (4:27pm)
8/19-Customer needs to put order on hold due to dad having heart surgery; will notify us.-Karen
08/20/19 Per Rubens text cancel due to customers father being ill - Cristina 9:43 am",IL,1,6.00
8/11/2019 6:18:48 PM,Josephine Weston,IA,50321,Relax 2 Zero 3D,DWA-9060USJ-9060BR,New Choco,New,,,,,4900.00,4900.00,0.00,Rodrigo Malabunga,Synchrony,4900.00,,,,79447088,San Diego,36 months,Driver’s License,IA,05/2023,,0.00,,,,,,,,,/,,0.00,,,,,,,,,/,,No,"5 years parts, 2 years labor ($200)",Cancelled,,"IOWA STATE FAIR 8/8-18/19 DES MOINES, IA","IOWA STATE FAIR 8/8-18/19 DES MOINES, IA",,,120203,"Please hold the order, still need to call synchrony.
Order re-entered as #120342",IL,1,6.00
8/11/2019 6:29:21 PM,Terry Schnirring,IA,50061,Hubble,HUBL-1HUBL-1BL,New Black,New,,,,,5800.00,5800.00,0.00,Rodrigo Malabunga,Synchrony,5800.00,,,6034622615439377,,San Diego,48 months,Military ID,IA,07/2020,,0.00,,,,,,,,,/,,0.00,,,,,,,,,/,,No,"5 years parts, 2 years labor ($200)",Called,,"IOWA STATE FAIR 8/8-18/19 DES MOINES, IA","IOWA STATE FAIR 8/8-18/19 DES MOINES, IA",,,120204,"ID for synchrony is government ID.
Already have a synchrony account
Synchrony original verified. Credit available $8410. Remaining balance $5800. Pls charge synchrony account upon delivery, have sales draft sign-Erika 8/12/19 1:49pm
8/13-CC-Left VM-Karen
8/15-CC; Left VM -{9:52am}Karen
8/15-Declined delivery due to conflict in schedule; will reschedule for the week of the 19th or so mornings work best for customer-Karen",IL,1,6.00
8/11/2019 6:35:44 PM,Phil Corwin,IA,52722,Majesty,MAJ-1010MAJ-1010-BR-DEMO,Demo Choco,Demo,,,,,2675.00,2675.00,0.00,Winston Melgar,Credit Card,2675.00,5e7a,,,,,,,,/,,0.00,,,,,,,,,/,,0.00,,,,,,,,,/,,No,"5 years parts, 1 year labor (Free)",Scheduled,,"IOWA STATE FAIR 8/8-18/19 DES MOINES, IA","IOWA STATE FAIR 8/8-18/19 DES MOINES, IA",,,120205,"Deliver after Show
Take the old chair away 
$500 trade in value
--Original received. Sq amount verified $2675. Paid in full. sales rep rq, trade in old chair- Erika 8/12/19 1:53pm
8/20- Confirmed Delivery for 8/26-12:00P-3:00P-Karen",IL,1,6.00
8/11/2019 6:40:37 PM,Susan Thorp,IA,50207,PEGASUS 2 SMART,PEGS-2PEGS-2-BR,New Choco,New,,,,,6955.00,6955.00,0.00,Keith Kei,Credit Card,6955.00,OBTG,,,,,,,,/,,0.00,,,,,,,,,/,,0.00,,,,,,,,,/,,No,"5 years parts, 1 year labor (Free)",Called,,"IOWA STATE FAIR 8/8-18/19 DES MOINES, IA","IOWA STATE FAIR 8/8-18/19 DES MOINES, IA",,,120206,"Original received. SQ amount verified $6955. Paid in full.-Erika 8/12/19 1:56pm
8/13: CC left vm & text (1PM) - Emily",IL,1,6.00
8/11/2019 6:50:02 PM,Patty / Ben Lesofski,TX,77386,PEGASUS 2 SMART,PEGS-2PEGS-2-BR-DEMO,Demo Choco,Demo,,,,,5800.00,5800.00,0.00,Keith Kei,Credit Card,300.00,SQ# AsLq,,,,,,,,/,COD,5500.00,,,,,,,,,/,,0.00,,,,,,,,,/,,No,"5 years parts, 1 year labor (Free)",Cancelled,,"IOWA STATE FAIR 8/8-18/19 DES MOINES, IA","IOWA STATE FAIR 8/8-18/19 DES MOINES, IA",,"Main contact : Patty 4064595720
Secondary: Melisa 4065998383
Backup contact: Ben 4064595719
Please Hold chair when customer ask to deliver.",120207,"Please check with customer after 2 months.
Original received. SQ amount verified $300. Remaining balance $5500. Collect COD @ delivery. Per sales rep rq hold until customer calls .-Erika 8/12/19 1:59pm
Printed - Tina 8/12/2019
-Per sales rep pricing has changed. will create a new order with a new total amount of $4999. New order#120269",TX,1,6.00
8/12/2019 12:01:14 PM,Shaelea Riggins,IA,50315,Majesty,MAJ-1010MAJ-1010-BL-DEMO,Demo Black,Demo,,,,,2300.00,2300.00,0.00,Winston Melgar,Synchrony,2000.00,,,6501723375276392,79440660,San Diego,36 months,Driver’s License,IA,04/2020,Credit Card,300.00,SQ# XTyX,,,,,,,,/,,0.00,,,,,,,,,/,8/15/2019 12:00:00 AM,No,"5 years parts, 1 year labor (Free)",Delivered,,"IOWA STATE FAIR 8/8-18/19 DES MOINES, IA","IOWA STATE FAIR 8/8-18/19 DES MOINES, IA",,,120226,"Synchrony original verified through synchrony application key.Credit available$2000. remaining balance $2000. Pls charge synchrony account upon delivery, have sales draft sign. Collect Cod $300 @ delivery.-Erika 8/12/19 11:43am pls have customer sign on synchrony application, sales rep forgot to receive customers sig.-Erika
8/13- Customer confirmed delivery for 8am-12pm on 8/15-Karen
8/13-Spoke to winston; he and the customer agreed upon 36months therefore I will change it on the order and apply to synchrony sales draft. Thank you-Karen
delivery confirmation completed
Note on delivery confirmation, ""Plastic cracked on the side."" 
IL team is scheduling a repair or exchange - Arisa 8/21/19 11:02am
serial#0901001180454",IL,1,6.00
8/12/2019 5:32:46 PM,Sandra Winter,IA,51106,PEGASUS 2 SMART,PEGS-2PEGS-2-BL-DEMO,Demo Black,Demo,,,,,5800.00,5800.00,0.00,Keith Kei,Credit Card,5800.00,Sq# lgkp,,,,,,,,/,,0.00,,,,,,,,,/,,0.00,,,,,,,,,/,8/18/2019 12:00:00 AM,No,"5 years parts, 1 year labor (Free)",Delivered,Demo,"IOWA STATE FAIR 8/8-18/19 DES MOINES, IA","IOWA STATE FAIR 8/8-18/19 DES MOINES, IA",,,120231,"Please deliver asap
Original received. SQ amount verified $5800. Paid in full-Erika 8/13/19
8/14-CC; Left VM-Karen (12:02pm)
8/16-CC; LEFT VM both #'s {9:44am}-Karen
8/16{10:45am}-Customer confirmed delivery for 8/18 1:30pm-5:30pm-Karen

Verified delivery and payment, marked as delivered and passed complete invoice to Erika - Arisa 8/20/19 1:51pm",IL,1,6.00
8/12/2019 5:36:08 PM,Jeff Yeager,IA,50132,Relax 2 Zero 3D,DWA-9060USJ-9060BR,New Choco,New,,,,,4173.00,4173.00,0.00,Winston Melgar,Credit Card,4173.00,W7N4,,,,,,,,/,,0.00,,,,,,,,,/,,0.00,,,,,,,,,/,,No,"5 years parts, 1 year labor (Free)",Called,,"IOWA STATE FAIR 8/8-18/19 DES MOINES, IA","IOWA STATE FAIR 8/8-18/19 DES MOINES, IA",,Please take the old infinity chair for trade in value $1000,120232,"Original received. Sq amount verified $4173.-Erika 8/13/19 8:56am
Please take the old infinity chair for trade in value $1000
CC-Left VM-Karen
8/13-Customer informed me he will be back in town next week; will schedule something then.-Karen
8/20-Courtesy Call Completed; informed customer of our scheduled trip to Iowa to schedule-Karen",IL,1,6.00
8/12/2019 5:36:08 PM,Jeff Yeager,IA,50132,Chair Pad for Relax2Zero 3D,,,New,,,,,4173.00,4173.00,0.00,Winston Melgar,Credit Card,4173.00,W7N4,,,,,,,,/,,0.00,,,,,,,,,/,,0.00,,,,,,,,,/,,No,no warranty,Called,,"IOWA STATE FAIR 8/8-18/19 DES MOINES, IA","IOWA STATE FAIR 8/8-18/19 DES MOINES, IA",,Please take the old infinity chair for trade in value $1000,120232,"Original received. Sq amount verified $4173.-Erika 8/13/19 8:56am
Please take the old infinity chair for trade in value $1000
CC-Left VM-Karen
8/13-Customer informed me he will be back in town next week; will schedule something then.-Karen
8/20-Courtesy Call Completed; informed customer of our scheduled trip to Iowa to schedule-Karen",IL,1,6.00
8/12/2019 5:42:45 PM,Randall Peterson,IA,50023,Relax 2 Zero 3D,DWA-9060USJ-9060BL-DEMO,Demo Black,Demo,,,,,3600.00,3600.00,0.00,Winston Melgar,Synchrony,3600.00,,,6501723375272828,79507230,San Diego,36 months,Driver’s License,IA,09/2020,,0.00,,,,,,,,,/,,0.00,,,,,,,,,/,8/14/2019 12:00:00 AM,No,"5 years parts, 1 year labor (Free)",Delivered,Demo,"IOWA STATE FAIR 8/8-18/19 DES MOINES, IA","IOWA STATE FAIR 8/8-18/19 DES MOINES, IA",,,120233,"Synchrony original verified. Credit available $5500. Remaining balance $3600. Pls charge synchrony account upon delivery, have sales draft signed.-Erika 8/13/19 9:02am
8/13- Customer confirmed delivery for 8/14 5-8pm.-Karen

Waiting for signed sales draft - Arisa 8/21/19 11:05am

--Delivery conf. completed. Paid in full ,Sales draft signed.-Erika 8/22/19 10:20am",IL,1,6.00
8/12/2019 5:45:27 PM,Brenda Differding,IA,52302,Majesty,MAJ-1010MAJ-1010-BL-DEMO,Demo Black,Demo,,,,,3178.94,3041.45,137.49,Xiongxiaojun Ji,Credit Card,3178.94,SQ# Re8B,,,,,,,,/,,0.00,,,,,,,,,/,,0.00,,,,,,,,,/,,No,"5 years parts, 1 year labor (Free)",Hold,,"IOWA STATE FAIR 8/8-18/19 DES MOINES, IA","IOWA STATE FAIR 8/8-18/19 DES MOINES, IA",,this is a Christmas gift present for customer.,120234,"Please hold order to deliver around Christmas time. Call a month ahead to confirm delivery time and date.
Original received. SQ amount verified $3178.94. Paid in full-Erika 8/13/19 9:10am",IL,0,6.00
8/12/2019 5:48:26 PM,Daniel Boyer,IA,50112,PEGASUS 2 SMART,PEGS-2PEGS-2-BL,New Black,New,,,,,5000.00,5000.00,0.00,Ruben Cuatrona,Credit Card,5000.00,dC6M,,,,,,,,/,,0.00,,,,,,,,,/,,0.00,,,,,,,,,/,8/15/2019 12:00:00 AM,No,"5 years parts, 2 years labor ($200)",Delivered,New,"IOWA STATE FAIR 8/8-18/19 DES MOINES, IA","IOWA STATE FAIR 8/8-18/19 DES MOINES, IA",,"Please take the old chair on delivery, trade in value $1500",120235,"Original received. Sq amount verified $5000. Paid in full-Erika 8/13/19 9:06am
Please take the old chair on delivery, trade in value $1500
8/13 : CC left vm & text - Emily (1PM)
Customer informed me wil be out of town the 8/17- the end of august, we will try to schedule him for something before then. - Emily (4:45PM)
8/14- Customer confirmed delivery for 8/15 3pm-7pm-Karen {2:08pm}.

Verified delivery, pick-up and payment. Marked as delivered and passed complete invoice to Erika - Arisa 8/19/19 12:27pm",IL,1,6.00
8/12/2019 5:53:16 PM,Michael Hulsebus,IA,50220,Relax 2 Zero 3D,DWA-9060USJ-9060BR,New Choco,New,,,,,4200.00,4200.00,0.00,Rodrigo Malabunga,Synchrony,4200.00,,,6501723375273453,79522211,San Diego,36 months,Driver’s License,IA,12/2026,,0.00,,,,,,,,,/,,0.00,,,,,,,,,/,8/18/2019 12:00:00 AM,No,"5 years parts, 2 years labor ($200)",Delivered,New,"IOWA STATE FAIR 8/8-18/19 DES MOINES, IA","IOWA STATE FAIR 8/8-18/19 DES MOINES, IA",Authority #016652,,120236,"Synchrony original verified. Credit available $7000. Remaining balance $4200. Pls charge synchrony account upon delivery, have sales draft sign.-Erika 8/13/19 9:41am
8/16-Confirmed delivery for 8/18 6-8pm-Karen

Confirmed signed sales draft, verified delivery and payment, marked as delivered and passed complete invoice to Erika - 8/20/19 2:42pm",IL,1,6.00
8/12/2019 5:58:33 PM,Lana Hood,IA,50010,Relax 2 Zero 3D,DWA-9060USJ-9060BL,New Black,New,,,,,4900.00,4900.00,0.00,Rolly San Jose,Synchrony,4900.00,,,6501723375273461,79522404,San Diego,36 months,Driver’s License,IA,04/2021,,0.00,,,,,,,,,/,,0.00,,,,,,,,,/,,No,"5 years parts, 1 year labor (Free)",Called,,"IOWA STATE FAIR 8/8-18/19 DES MOINES, IA","IOWA STATE FAIR 8/8-18/19 DES MOINES, IA",,,120237,"Synchrony original verified. Credit available $9000. Remaining balance $4900. Pls charge synchrony account upon delivery, have sales draft sign.-Erika 8/13/19 9:47am
8/13- CC; customer still in iowa state fair; will reschedule-Karen",IL,1,6.00
8/12/2019 6:00:36 PM,Kevin / Kristi Lenz,IA,50008,PEGASUS 2 SMART,PEGS-2PEGS-2-BR-DEMO,Demo Choco,Demo,,,,,5800.00,5800.00,0.00,Ruben Cuatrona,Synchrony,5800.00,,,6501723375273230,79518384,Huston,48 months,Driver’s License,IA,07/2024,Synchrony,0.00,,,6501723375273230,79518384,Huston,48 months,Driver’s License,IA,09/2025,,0.00,,,,,,,,,/,8/17/2019 12:00:00 AM,No,"5 years parts, 2 years labor ($200)",Delivered,New,"IOWA STATE FAIR 8/8-18/19 DES MOINES, IA","IOWA STATE FAIR 8/8-18/19 DES MOINES, IA",,Financing with joint applicant.,120238,"Financing with joint applicant.
-Synchrony original verified. Credit available $7000. Remaining balance $5800. Pls charge synchrony account upon delivery, have sales draft sign-Erika 8/13/19 9:33am
8/15-Customer confirmed delivery for 8/17 8am-12pm-Karen

Delivered NEW chair DEMO was out of stock.
Verified delivery and payment, marked as delivered and passed complete invoice to Erika - Arisa 8/21/19 10:49am",IL,1,6.00
8/12/2019 6:10:24 PM,Cinday Lane,IA,50310,PEGASUS 2 SMART,PEGS-2PEGS-2-BL,New Black,New,,,,,5500.00,5500.00,0.00,Ruben Cuatrona,Credit Card,5500.00,F2Qq,,,,,,,,/,,0.00,,,,,,,,,/,,0.00,,,,,,,,,/,8/14/2019 12:00:00 AM,No,"5 years parts, 2 years labor ($200)",Delivered,New,"IOWA STATE FAIR 8/8-18/19 DES MOINES, IA","IOWA STATE FAIR 8/8-18/19 DES MOINES, IA",,Please delivery this chair ASAP!!!,120239,"Original received. Sq amount verified $5500. Paid in full, Per sales rep Rq pls deliver chair asap-Erika 8/13/19 9:12am
courtesy call text send
8/13- CC-Left VM-Karen (12:12pm) Confirmed delivery for 8/14- 6:30pm-8pm-Karen

Verified delivery and payment, marked as delivered and passed complete invoice to Erika - Arisa 8/19/19 2:27pm",IL,1,6.00
8/13/2019 6:31:35 PM,Steve Ernst,IA,50702,PEGASUS 2 SMART,PEGS-2PEGS-2-BR,New Choco,New,,,,,6527.00,6200.00,327.00,Keith Kei,Credit Card,6200.00,SQ# Ssls,,,,,,,,/,,0.00,,,,,,,,,/,,0.00,,,,,,,,,/,,No,"5 years parts, 1 year labor (Free)",Cancelled,,"IOWA STATE FAIR 8/8-18/19 DES MOINES, IA","IOWA STATE FAIR 8/8-18/19 DES MOINES, IA",,,120258,"Please expedite delivery.
Original received. SQ amount verified $6200. Paid in full-Erika 8/14/19 9:06am
Paid in full $6, 200 - Please disregard balance of $327- Cristina 08/14/19 10:15
8/14- CC; LEFT VM-Karen (3:17pm)-Karen
8/14-Customer called back and notified me that he spoke to Keith and cancelled. Removing from schedule.-Karen
08/14/19 Verified Keith's cancellation; Keith has already issued the customers refund.-Cristina 2:53 pm

Received the copy of invoice and confirmed the refund transaction #SsIs on SQ dashboard. 8/14/19 Riho",IL,0,6.00
8/13/2019 6:31:54 PM,Loren Beseman,IA,50248,Relax 2 Zero 3D,DWA-9060USJ-9060BL-DEMO,Demo Black,Demo,,,,,4200.00,4200.00,0.00,Winston Melgar,Synchrony,4200.00,,,6501723375275144,79579402,San Diego,36 months,Driver’s License,IA,09/2024,,0.00,,,,,,,,,/,,0.00,,,,,,,,,/,,No,"5 years parts, 1 year labor (Free)",Printed,,"IOWA STATE FAIR 8/8-18/19 DES MOINES, IA","IOWA STATE FAIR 8/8-18/19 DES MOINES, IA",,Deliver the chair on Monday after the show,120259,Synchrony original verified. Credit available $6800. Remaining balance $4200. Pls charge synchrony account upon delivery have sales draft signed-Erika 8/14/19 9:26am Pls Deliver the chair on Monday after the show per sales rep RQ.,IL,1,6.00
8/13/2019 6:35:42 PM,Debbie Newhouse,IA,51534,PEGASUS 2 SMART,PEGS-2PEGS-2-BR-DEMO,Demo Choco,Demo,,,,,5000.00,5000.00,0.00,Ruben Cuatrona,Credit Card,5000.00,8hZK,,,,,,,,/,,0.00,,,,,,,,,/,,0.00,,,,,,,,,/,8/18/2019 12:00:00 AM,No,"5 years parts, 2 years labor ($200)",Delivered,Demo,"IOWA STATE FAIR 8/8-18/19 DES MOINES, IA","IOWA STATE FAIR 8/8-18/19 DES MOINES, IA",,,120260,"Original received. SQ amount verified $5000. paid in full-Erika 8/14/19 9:20am
8/15-{4:34pm}-CC; LEFT VM-Karen
8/16-Customer confirmed delivery for 8/18 8am-12pm ; Friend Deanne Nelson will be accepting delivery relayed message to delivery team.-Karen

Note of delivery confirmation, ""Scratch on left arm upper. Customer wants new arm for Peg 2 Choco left arm only.""
Waiting for delivery confirmation of left arm - Arisa 8/21/19  11:08am
Delivery conf  completed. Paid in full-Erika 8/22/19 10:48am",IL,1,6.00
8/13/2019 6:40:38 PM,Deanne Nelson,IA,51503,PEGASUS 2 SMART,PEGS-2PEGS-2-BR-DEMO,Demo Choco,Demo,,,,,5000.00,5000.00,0.00,Ruben Cuatrona,Credit Card,5000.00,SQ# oGaM,,,,,,,,/,,0.00,,,,,,,,,/,,0.00,,,,,,,,,/,8/18/2019 12:00:00 AM,No,"5 years parts, 2 years labor ($200)",Delivered,Demo,"IOWA STATE FAIR 8/8-18/19 DES MOINES, IA","IOWA STATE FAIR 8/8-18/19 DES MOINES, IA",,,120261,"Original received. SQ amount verified $5000. paid in full-Erika 8/14/19 9:16am
8/15- CC; Left VM-Karen
8/15- Confirmed delivery for 8/18 9:30am-1:30pm-Karen

Note on delivery confirmation, ""Bluetooth & voice command does not work."" 
Il will schedule for repairing.  Sq amount verified. Paid in full.-Erika 8/22/19",IL,1,6.00
8/13/2019 6:41:34 PM,Joe D Kriegel,IA,52211,PEGASUS 2 SMART,PEGS-2PEGS-2-BR,New Choco,New,,,,,5800.00,5800.00,0.00,Rodrigo Malabunga,Synchrony,5800.00,,,6501723375274915,79571586,San Diego,48 months,Driver’s License,IA,11/2024,,0.00,,,,,,,,,/,,0.00,,,,,,,,,/,8/16/2019 12:00:00 AM,No,"5 years parts, 2 years labor ($200)",Delivered,New,"IOWA STATE FAIR 8/8-18/19 DES MOINES, IA","IOWA STATE FAIR 8/8-18/19 DES MOINES, IA",,,120262,"Synchrony original verified. Credit available $9000. Remaining balance $5800. Pls charge synchrony account upon delivery, have sales draft signed-Erika  8/14/19 9:13am
8/14- CC; Left VM- Karen
8/15- CC; Left VM-Karen {9:50}
8/15- Confirmed delivery for 8/16 11am-1pm-Karen

Confirmed signed sales draft, verified delivery and payment, marked as delivered, and passed complete invoice to Erika - Arisa 8/19/19 12:23pm",IL,1,6.00
8/13/2019 6:46:00 PM,Josh Reynolds,IA,50261,Majesty,MAJ-1010MAJ-1010-BR-DEMO,Demo Choco,Demo,,,,,2800.00,2800.00,0.00,Winston Melgar,Synchrony,2800.00,,,6501723375274667,79563253,San Diego,24 months,Driver’s License,IA,06/2022,,0.00,,,,,,,,,/,,0.00,,,,,,,,,/,8/16/2019 12:00:00 AM,No,"5 years parts, 1 year labor (Free)",Delivered,Demo,"IOWA STATE FAIR 8/8-18/19 DES MOINES, IA","IOWA STATE FAIR 8/8-18/19 DES MOINES, IA",,,120263,"Synchrony original verified. Credit available  $7000. Remaining balance $2800. Pls charge synchrony account upon delivery, have sales draft signed-Erika 8/14/19 9:10am
8/14- CC;  Spoke to customer will schedule soon.-Karen
8/15 Confirmed Schedule for Friday 8-10am-Karen

Confirmed signed sales draft, verified delivery and payment, marked as delivered, and passed complete invoice to Erika - Arisa 8/19/19 12:19pm",IL,1,6.00
8/13/2019 8:30:54 PM,robert faigin,CA,92040,PEGASUS 2 SMART,PEGS-2PEGS-2-BL,New Black,New,,,,,5500.00,5500.00,0.00,Rolly San Jose,Credit Card,5500.00,sq# UHFy,,,,,,,,/,,0.00,,,,,,,,,/,,0.00,,,,,,,,,/,,No,"5 years parts, 1 year labor (Free)",Scheduled,,"IOWA STATE FAIR 8/8-18/19 DES MOINES, IA","IOWA STATE FAIR 8/8-18/19 DES MOINES, IA",,,120264,"Pls deliver within 1 week from Aug 13
Original received. SQ amount verified $5500. Paid in full, have customer sign the invoice-Erika 8/14/19 9:36am
8/16Printed
scheduled 8/20 11:30-1:30",CA,1,6.00
8/14/2019 11:59:11 AM,Patty/Ben Lesofski,TX,77386,PEGASUS 2 SMART,PEGS-2PEGS-2-BR-DEMO,Demo Choco,Demo,,,,,4999.00,4999.00,0.00,Keith Kei,Credit Card,300.00,SQ# AsLq,,,,,,,,/,COD,4699.00,,,,,,,,,/,,0.00,,,,,,,,,/,,No,"5 years parts, 1 year labor (Free)",Printed,,"IOWA STATE FAIR 8/8-18/19 DES MOINES, IA","IOWA STATE FAIR 8/8-18/19 DES MOINES, IA",,,120269,"Main contact : Patty 4064595720
Secondary: Melisa 4065998383 Disregard order#120207
Backup contact: Ben 4064595719 Please Hold chair when customer ask to deliver. 
original received. SQ amount verified $300. Remaining balance $4699. Collect COD @ delivery.(CASH DEAL) Per sales rep rq hold until customer calls .-Erika 8/14/19 12:07pm
Printed -Tina 8/14/2019",TX,1,6.00
8/14/2019 6:01:06 PM,Bruce Tracy,IA,52544,Relax 2 Zero 3D,DWA-9060USJ-9060BR,New Choco,New,,,,,4000.00,4000.00,0.00,Winston Melgar,Credit Card,4000.00,DSnA,,,,,,,,/,,0.00,,,,,,,,,/,,0.00,,,,,,,,,/,8/17/2019 12:00:00 AM,No,"5 years parts, 1 year labor (Free)",Delivered,New,"IOWA STATE FAIR 8/8-18/19 DES MOINES, IA","IOWA STATE FAIR 8/8-18/19 DES MOINES, IA",,Take the old chair for trade in value $900,120274,"Original received. SQ amount verified $4000. Paid in full-Erika 8/15/19 9:02am
Take the old chair for trade in value $900
8/15- confirmed 8/17 8am-10:30am-Karen

Confirmed pick-up slip of old non-US Jaclean chair.
Verified delivery and payment, marked as delivered and passed complete invoice to Erika - Arisa 8/21/19 10:44am",IL,1,6.00
8/14/2019 6:06:39 PM,Andy Uthoff,IA,52404,PEGASUS 2 SMART,PEGS-2PEGS-2-BR,New Choco,New,,,,,4500.00,4500.00,0.00,Winston Melgar,Credit Card,4500.00,cREm,,,,,,,,/,,0.00,,,,,,,,,/,,0.00,,,,,,,,,/,,No,"5 years parts, 1 year labor (Free)",Scheduled,,"IOWA STATE FAIR 8/8-18/19 DES MOINES, IA","IOWA STATE FAIR 8/8-18/19 DES MOINES, IA",,Please take the old chair when delivery,120275,"This order placed on 08/09/2019, was waiting for customer to call to confirm.
Original received. Sq amount verified $4500. Fully paid.collect customers sig on invoice-Erika 8/15/19 10:51am
Please take the old chair when delivery
Courtesy call completed-Erika 8/15/19 1:50pm
8/16- Confirmed for 8/19- 5:30P-8:00P-Karen",IL,1,6.00
8/14/2019 6:07:46 PM,James Weaver,IA,50322,PEGASUS 2 SMART,PEGS-2PEGS-2-BR,New Choco,New,,,,,5500.00,5500.00,0.00,Keith Kei,Credit Card,5500.00,SQ# 76dq,,,,,,,,/,,0.00,,,,,,,,,/,,0.00,,,,,,,,,/,,No,"5 years parts, 2 years labor ($200)",Called,,"IOWA STATE FAIR 8/8-18/19 DES MOINES, IA","IOWA STATE FAIR 8/8-18/19 DES MOINES, IA",,,120276,"Delivery asap, please expedite
Original received. SQ amount verified $5500. Paid in full-Erika 8/15/19 9:47am
8/15-CC; Son answered notified other # would work better to reach James.-Karen
8/15-Has a previous engagement cannot accept delivery-will reschedule for following week.-Karen
Austin (SON) 515-991-0984",IL,1,6.00
8/14/2019 6:10:34 PM,Montgomery Smith,IA,50072,PEGASUS 2 SMART,PEGS-2PEGS-2-BL,New Black,New,,,,,5500.00,5500.00,0.00,Xiongxiaojun Ji,Synchrony,5500.00,,,6501723375275441,79596003,San Diego,48 months,Driver’s License,IA,05/2023,,0.00,,,,,,,,,/,,0.00,,,,,,,,,/,,No,"5 years parts, 1 year labor (Free)",Printed,,"IOWA STATE FAIR 8/8-18/19 DES MOINES, IA","IOWA STATE FAIR 8/8-18/19 DES MOINES, IA",,,120277,"Synchrony original verified. Credit available $7200. Remaining balance $5500. Pls charge synchrony account upon delivery, have sales draft signed-Erika 8/15/19 9:09am
8/20Maritza- Courtesy call made @ 11:20AM Please call/text wife's number to schedule 5153710928.",IL,1,6.00
8/14/2019 6:15:12 PM,Wayne Jarois,IA,50322,Relax 2 Zero 3D,DWA-9060USJ-9060BL-DEMO,Demo Black,Demo,,,,,3800.00,3800.00,0.00,Winston Melgar,Credit Card,3800.00,L1dt,,,,,,,,/,,0.00,,,,,,,,,/,,0.00,,,,,,,,,/,8/17/2019 12:00:00 AM,No,"5 years parts, 1 year labor (Free)",Delivered,Demo,"IOWA STATE FAIR 8/8-18/19 DES MOINES, IA","IOWA STATE FAIR 8/8-18/19 DES MOINES, IA",,,120278,"Already took the extra pad
Original received. SQ amount verified $3800. Paid in full-Erika 8/15/19 9:13am
courtesy call completed-Erika 8/15/19 1:51pm
8/15-Confirmed delivery for 8/17- 4:30-8pm-Karen

Verified delivery and payment, marked as delivered and passed complete invoice to Erika - Arisa 8/20/19 1:55pm",IL,1,6.00
8/14/2019 6:18:42 PM,Jeffrey R Heim,IA,50009,Relax 2 Zero 3D,DWA-9060USJ-9060BR,New Choco,New,,,,,4000.00,4000.00,0.00,Ruben Cuatrona,Credit Card,4000.00,Sq# SgSc,,,,,,,,/,,0.00,,,,,,,,,/,,0.00,,,,,,,,,/,8/17/2019 12:00:00 AM,No,"5 years parts, 2 years labor ($200)",Delivered,New,"IOWA STATE FAIR 8/8-18/19 DES MOINES, IA","IOWA STATE FAIR 8/8-18/19 DES MOINES, IA",,,120279,"Original received. SQ amount verified $4000. Paid in full-Erika 8/15/19 9:20am
8/15-CC; LEFT VM- Karen {3:43pm}
8/15{4:02pm}-Customer confirmed delivery for 8/17 2-6pm-Karen

Verified delivery and payment, marked as delivered and passed complete invoice to Erika - Arisa 8/20/19 2:02pm",IL,1,6.00
8/14/2019 6:21:25 PM,Matthew Nielsen,IA,50109,Majesty,MAJ-1010MAJ-1010-BL-DEMO,Demo Black,Demo,,,,,3000.00,3000.00,0.00,Xiongxiaojun Ji,Synchrony,3000.00,,,6501723375276209,79621518,San Diego,24 months,Driver’s License,IA,11/2024,,0.00,,,,,,,,,/,,0.00,,,,,,,,,/,8/17/2019 12:00:00 AM,No,"5 years parts, 1 year labor (Free)",Delivered,New,"IOWA STATE FAIR 8/8-18/19 DES MOINES, IA","IOWA STATE FAIR 8/8-18/19 DES MOINES, IA",,,120280,"Join account for synchrony
Matthew IA 11/2024
Erin IA 04/2027
-Synchrony original verified. Credit available $9000. Remaining balance $3000. Pls charge synchrony account upon delivery, have sales draft signed-Erika 8/15/19 9:39am
8/15-Confirmed delivery for 8/17-3:30pm-7:30pm-Karen
8/15: successfully charged synchrony - Joleia 4:41pm

Delivered NEW chair as DEMO was out of stock. 
Verified delivery and payment, marked as delivered and passed complete invoice to Erika - Arisa 8/21/19 10:46am",IL,1,6.00
8/14/2019 6:28:04 PM,Faith Elder,IA,50321,Majesty,MAJ-1010MAJ-1010-BL,New Black,New,,,,,2900.00,2900.00,0.00,Winston Melgar,Credit Card,2900.00,hq5Q,,,,,,,,/,,0.00,,,,,,,,,/,,0.00,,,,,,,,,/,,No,"5 years parts, 1 year labor (Free)",Scheduled,,"IOWA STATE FAIR 8/8-18/19 DES MOINES, IA","IOWA STATE FAIR 8/8-18/19 DES MOINES, IA",,,120281,"Original received. SQ amount verified $2900. Paid in full-Erika 8/15/19 9:51am
8/15- Customer cannot take delivery for set schedule will call to reschedule after the 30th when customer will be available.-
Karen
8/22- Confirmed delivery for 9/5- 9am-1pm.-Karen {9:43am)",IL,1,6.00
8/14/2019 6:28:40 PM,Jesse Kalb,IA,50662,Relax 2 Zero 3D,DWA-9060USJ-9060BL,New Black,New,,,,,3600.00,3600.00,0.00,Rodrigo Malabunga,Cash,500.00,,,,,,,,,/,COD,3100.00,,,,,,,,,/,,0.00,,,,,,,,,/,,No,"5 years parts, 1 year labor (Free)",Scheduled,,"IOWA STATE FAIR 8/8-18/19 DES MOINES, IA","IOWA STATE FAIR 8/8-18/19 DES MOINES, IA",,"Deposit $500 cash
Remaining balance$3100",120282,"$500 Cash received and signed by Ruben Cuatrona
Original received. $500 deposit cash  confirmed and signed by Ruben. He will come to the office on AUG 20. Remaining balance $3100. Pls collect cod @ delivery.-Erika 8/15/19 10:00am
8/16{2:00pm}-Customer confirmed delivery for 8/19 3-7pm-Karen",IL,1,6.00
8/14/2019 6:34:56 PM,Jill Cameron,IA,50322,Hubble,HUBL-1HUBL-1CH,New Choco,New,,,,,5785.00,5500.00,285.00,Rolly San Jose,Synchrony,5500.00,,,6501723375276258,79622564,San Diego,48 months,Driver’s License,IA,05/2020,,0.00,,,,,,,,,/,,0.00,,,,,,,,,/,,No,"5 years parts, 1 year labor (Free)",Printed,,"IOWA STATE FAIR 8/8-18/19 DES MOINES, IA","IOWA STATE FAIR 8/8-18/19 DES MOINES, IA",,Deliver on SEPT 9-12,120283,"Synchrony original verified. Credit available $9000. Remaining balance $5500. Pls charge synchrony account upon delivery,have sales draft signed.-Erika 8/15/19 9:42am PLS DISREGARD THE REMAINING BALANCE. TOTAL IS $5500. Pls deliver Sept9-12
8/20Maritza- Courtesy voicemail left on first number.(Home answering machine) Informed them that we will place her order on hold until September 9-12 and provided her IL branch number just in case she needed to contact us.",IL,0,6.00
8/15/2019 6:23:44 PM,Betty Brant,IA,50054,Relax 2 Zero 3D,DWA-9060USJ-9060BL-DEMO,Demo Black,Demo,,,,,3800.00,3800.00,0.00,Winston Melgar,Synchrony,3800.00,,,6501723375276639,79644105,San Diego,24 months,Driver’s License,IA,05/2027,,0.00,,,,,,,,,/,,0.00,,,,,,,,,/,8/18/2019 12:00:00 AM,YES,"5 years parts, 1 year labor (Free)",Delivered,Demo,"IOWA STATE FAIR 8/8-18/19 DES MOINES, IA","IOWA STATE FAIR 8/8-18/19 DES MOINES, IA","Authorization Code
016870

Account Number
••••••••••••6639

Tran/Promo Code
424 : 24 MONTH EQUAL PAYMENT NO INTEREST

Program Name
Synchrony HOME- Furniture

Amount
$ 3800.00

Invoice Number
120290

Transaction Type
Purchase

Cardholder Name
BETTY M BRANT

---ERIKA 8/16/19 10:57AM",PICK UP ON SUNDAY 8-8:30,120290,"-Original received. Synchrony original verified. credit available $6500. Remaining balance $3800. Pls charge synchrony account upon delivery, have sales draft signed-Erika 8/16/19 Per sales rep, chair will be delivered on Sunday. Account was charged, need to have sales draft signed- Asked winston to received a signed copy of sales draft.-Erika 8/16/19 11:15am",IL,1,6.00
8/15/2019 6:32:05 PM,Mency Andersen,IA,50613,PEGASUS 2 SMART,PEGS-2PEGS-2-BL,New Black,New,,,,,5500.00,5500.00,0.00,Rolly San Jose,Synchrony,5500.00,,,6501723375277140,79662636,San Diego,48 months,Driver’s License,IA,03/2021,,0.00,,,,,,,,,/,,0.00,,,,,,,,,/,,No,"5 years parts, 1 year labor (Free)",Scheduled,,"IOWA STATE FAIR 8/8-18/19 DES MOINES, IA","IOWA STATE FAIR 8/8-18/19 DES MOINES, IA",,,120291,"*Mercy Anderson
Synchrony original verified. Credit available $7000. Remaining balance $5500. Pls charge synchrony account upon delivery, have sales draft signed-Erika 8/16/19 9:58am
8/20- She informed me she has hospital bills to prioritize and at this moment would need to cancel-hasnt spoken to her sales rep yet I will let corporate know of this incident so customer can speak to sales rep.-Karen
8/22-Confirmed delivery for 8/26 6:30pm-8:00P-Karen",IL,1,6.00
8/15/2019 6:36:11 PM,Cheryl Roe,IA,50131,PEGASUS 2 SMART,PEGS-2PEGS-2-BL,New Black,New,,,,,5000.00,5000.00,0.00,Ruben Cuatrona,Check,1500.00,,,,,,,,,/,,0.00,,,,,,,,,/,,0.00,,,,,,,,,/,,No,"5 years parts, 2 years labor ($200)",Hold,,"IOWA STATE FAIR 8/8-18/19 DES MOINES, IA","IOWA STATE FAIR 8/8-18/19 DES MOINES, IA",,"Deposit check $1500
CoD remaining $3500
Trade in old massage chair.
Customer will advise delivery time, around November/December.",120292,,Not Dispatched,1,6.00
8/15/2019 6:36:11 PM,Cheryl Roe,IA,50131,Chair Pad for Pegasus,,,New,,,,,5000.00,5000.00,0.00,Ruben Cuatrona,Check,1500.00,,,,,,,,,/,,0.00,,,,,,,,,/,,0.00,,,,,,,,,/,,No,No Warranty,Hold,,"IOWA STATE FAIR 8/8-18/19 DES MOINES, IA","IOWA STATE FAIR 8/8-18/19 DES MOINES, IA",,"Deposit check $1500
CoD remaining $3500
Trade in old massage chair.
Customer will advise delivery time, around November/December.",120292,,Not Dispatched,1,6.00
8/15/2019 6:37:44 PM,Rick Wulf,IA,52804,Hubble,HUBL-1HUBL-1CH,New Choco,New,,,,,5800.00,5800.00,0.00,Rodrigo Malabunga,Synchrony,5800.00,,,6501723375277181,79663831,San Diego,48 months,Driver’s License,IA,09/2022,,0.00,,,,,,,,,/,,0.00,,,,,,,,,/,,No,"5 years parts, 2 years labor ($200)",Called,,"IOWA STATE FAIR 8/8-18/19 DES MOINES, IA","IOWA STATE FAIR 8/8-18/19 DES MOINES, IA",,,120293,"Synchrony original verified. Credit available $9000. Remaining balance $5800. Pls charge synchrony account upon delivery, have sales draft signed-Erika 8/16/19 9:50am
8/20-CC; LEFT VM-Karen",IL,1,6.00
8/15/2019 6:37:44 PM,Rick Wulf,IA,52804,Chair Pad for Legacy,,,New,,,,,5800.00,5800.00,0.00,Rodrigo Malabunga,Synchrony,5800.00,,,6501723375277181,79663831,San Diego,48 months,Driver’s License,IA,09/2022,,0.00,,,,,,,,,/,,0.00,,,,,,,,,/,,No,no warranty,Called,,"IOWA STATE FAIR 8/8-18/19 DES MOINES, IA","IOWA STATE FAIR 8/8-18/19 DES MOINES, IA",,,120293,"Synchrony original verified. Credit available $9000. Remaining balance $5800. Pls charge synchrony account upon delivery, have sales draft signed-Erika 8/16/19 9:50am
8/20-CC; LEFT VM-Karen",IL,1,6.00
8/15/2019 6:42:01 PM,Linda Christensen,IA,50851,PEGASUS 2 SMART,PEGS-2PEGS-2-BL,New Black,New,,,,,5000.00,5000.00,0.00,Ruben Cuatrona,Credit Card,2000.00,sbDk,,,,,,,,/,COD,3000.00,,,,,,,,,/,,0.00,,,,,,,,,/,,No,"5 years parts, 2 years labor ($200)",Printed,,"IOWA STATE FAIR 8/8-18/19 DES MOINES, IA","IOWA STATE FAIR 8/8-18/19 DES MOINES, IA",,,120294,"Original received. SQ amount verified $2000. Remaining balance $3000. Pls collect COD  (3000) @ delivery.-Erika 8/16/19
8/20Maritza- Courtesy call (voicemail) @ 11:42",IL,1,6.00
8/15/2019 6:44:44 PM,Anna Hansen,IA,52804,Hubble,HUBL-1HUBL-1CH,New Choco,New,,,,,5500.00,5500.00,0.00,Rodrigo Malabunga,Credit Card,1000.00,Sq# EbNu,,,,,,,,/,COD,4500.00,,,,,,,,,/,,0.00,,,,,,,,,/,,No,"5 years parts, 2 years labor ($200)",Called,,"IOWA STATE FAIR 8/8-18/19 DES MOINES, IA","IOWA STATE FAIR 8/8-18/19 DES MOINES, IA",,CoD $4500,120295,"Original received. SQ amount verified $1000. Remaining balance $4500. Pls collect COD (4500) @ delivery-Erika 8/16/19 9:21am
8/20- Customer would like a wednesday-will have to accommodate-Karen",IL,1,6.00
8/15/2019 6:47:02 PM,Ronald Hurley,IA,50669,PEGASUS 2 SMART,PEGS-2PEGS-2-BL-DEMO,Demo Black,Demo,,,,,5000.00,5000.00,0.00,Xiongxiaojun Ji,Credit Card,300.00,8jlZ,,,,,,,,/,Synchrony,4700.00,,,6501723375277371,79670805,San Diego,24 months,Driver’s License,IA,12/2019,,0.00,,,,,,,,,/,,No,"5 years parts, 1 year labor (Free)",Scheduled,,"IOWA STATE FAIR 8/8-18/19 DES MOINES, IA","IOWA STATE FAIR 8/8-18/19 DES MOINES, IA",,Please gift one set of Tens-unit,120296,"Original received. Sq amount verified $300. Credit available $4700. Pls charge synchrony account (4700) upon delivery, have sales draft signed-Erika 8/16/19 9:30am
Please gift one set of Tens-unit
8/20-Courtesy Call Completed.-Karen
8/22-Scheduled for 8/27 9:30am-12:30pm-Karen",IL,1,6.00
8/16/2019 6:27:15 PM,Leea Ostrander,IA,52533,Relax 2 Zero 3D,DWA-9060USJ-9060BL,New Black,New,,,,,4900.00,4900.00,0.00,Rodrigo Malabunga,Synchrony,4900.00,,,6501723375278693,79718564,San Diego,36 months,Driver’s License,IA,01/2022,,0.00,,,,,,,,,/,,0.00,,,,,,,,,/,,No,"5 years parts, 2 years labor ($200)",Printed,,"IOWA STATE FAIR 8/8-18/19 DES MOINES, IA","IOWA STATE FAIR 8/8-18/19 DES MOINES, IA",,,120312,"Synchrony original verified through application key. Credit available $7000. Remaining balance $4900. Charge synchrony account(4900) upon delivery, have sales draft signed-Erika 8/20/19 10:16am",IL,1,6.00
8/16/2019 6:34:52 PM,Martin Carlson,IA,50543,Hubble,HUBL-1HUBL-1BL,New Black,New,,,,,5500.00,5500.00,0.00,Rolly San Jose,Synchrony,5500.00,,,6501723375278577,79716734,San Diego,48 months,Driver’s License,IA,03/2027,,0.00,,,,,,,,,/,,0.00,,,,,,,,,/,,No,"5 years parts, 1 year labor (Free)",Printed,,"IOWA STATE FAIR 8/8-18/19 DES MOINES, IA","IOWA STATE FAIR 8/8-18/19 DES MOINES, IA",,Delivery within 2 weeks from 8/16,120313,"Synchrony original verified. Credit available $7000. Remaining balance $5500. Charge synchrony account upon delivery, have sales draft signed-Erika 8/20/19 10:40am",IL,1,6.00
8/16/2019 6:39:28 PM,Justin Lee / Coria Robinson,IA,50249,PEGASUS 2 SMART,PEGS-2PEGS-2-BL-DEMO,Demo Black,Demo,,,,,6148.00,6148.00,0.00,Keith Kei,Synchrony,6148.00,,,6501723375278064,79702524,San Diego,48 months,Driver’s License,IA,12/2024,,0.00,,,,,,,,,/,,0.00,,,,,,,,,/,,No,"5 years parts, 1 year labor (Free)",Printed,,"IOWA STATE FAIR 8/8-18/19 DES MOINES, IA","IOWA STATE FAIR 8/8-18/19 DES MOINES, IA",,,120314,"Synchrony original verified. Credit available $7000. Remaining balance $6148. Charge synchrony account (6148)  upon delivery, have sales draft signed-Erika 8/20/19 10:22am",IL,1,6.00
8/16/2019 6:39:28 PM,Marta Ford,IA,50208,PEGASUS 2 SMART,PEGS-2PEGS-2-BR,New Choco,New,,,,,5500.00,5500.00,0.00,Rodrigo Malabunga,Credit Card,400.00,y2vA,,,,,,,,/,COD,5100.00,,,,,,,,,/,,0.00,,,,,,,,,/,,No,"5 years parts, 2 years labor ($200)",Scheduled,,"IOWA STATE FAIR 8/8-18/19 DES MOINES, IA","IOWA STATE FAIR 8/8-18/19 DES MOINES, IA",,Free 2nd floor delivery,120315,"Original received. Sq amount verified $400. Remaining balance $5100. Collect COD (5100) @ delivery-Erika 8/20/19 10:31am
8/22-Confirmed delivery for  8/27- 1:00P-4:00P-Karen",IL,1,6.00
8/16/2019 6:45:21 PM,David Logan,IA,50322,Majesty,MAJ-1010MAJ-1010-BL,New Black,New,,,,,3200.00,3200.00,0.00,Xiongxiaojun Ji,Credit Card,3000.00,Sq# xquk,,,,,,,,/,,0.00,,,,,,,,,/,,0.00,,,,,,,,,/,,No,"5 years parts, 1 year labor (Free)",Printed,,"IOWA STATE FAIR 8/8-18/19 DES MOINES, IA","IOWA STATE FAIR 8/8-18/19 DES MOINES, IA",,,120316,"Original received. Sq amount verified $3200. Paid in full-Erika 8/20/19 10:35am

Total amount had changed to $3,000. (Keith discounted $200 because the customer had find better deal on QVC) Refunded the price difference $200 and sent the receipt via SQ . 8/22/19 Riho",IL,1,6.00
8/16/2019 6:48:31 PM,Kevin Derrinjaquet,IA,52042,Hubble,HUBL-1HUBL-1CH,New Choco,New,,,,,5500.00,5500.00,0.00,Rolly San Jose,Credit Card,5500.00,7svb,,,,,,,,/,,0.00,,,,,,,,,/,,0.00,,,,,,,,,/,,No,"5 years parts, 1 year labor (Free)",Printed,,"IOWA STATE FAIR 8/8-18/19 DES MOINES, IA","IOWA STATE FAIR 8/8-18/19 DES MOINES, IA",,Delivery within 2 weeks from 8/16,120317,Original received. Sq amount verified $5500. Paid in full-Erika 8/20/19 10:05am,IL,1,6.00
8/16/2019 6:58:19 PM,Kym Stein,IA,52339,Relax 2 Zero 3D,DWA-9060USJ-9060BL-DEMO,Demo Black,Demo,,,,,3700.00,3700.00,0.00,Xiongxiaojun Ji,Credit Card,3700.00,Sq#9O2I,,,,,,,,/,,0.00,,,,,,,,,/,,0.00,,,,,,,,,/,,No,"5 years parts, 2 years labor ($200)",Scheduled,,"IOWA STATE FAIR 8/8-18/19 DES MOINES, IA","IOWA STATE FAIR 8/8-18/19 DES MOINES, IA",,Customer request to deliver on the August 30th 2019,120318,"Brandon helped with sales
Original received. SQ amount verified $3700. paid in full-Erika 8/20/19 9:29am
8/22-Called; No Answer
8/22 (3:09pm)-Confirmed delivery for 8/27 11am-2pm; Mom will accept delivery let team know to call ahead 30min to meet at residence.-Karen",IL,1,6.00
8/16/2019 6:58:19 PM,Kym Stein,IA,52339,Chair Pad for Relax2Zero 3D,,,New,,,,,3700.00,3700.00,0.00,Xiongxiaojun Ji,Credit Card,3700.00,Sq#9O2I,,,,,,,,/,,0.00,,,,,,,,,/,,0.00,,,,,,,,,/,,No,no warranty,Scheduled,,"IOWA STATE FAIR 8/8-18/19 DES MOINES, IA","IOWA STATE FAIR 8/8-18/19 DES MOINES, IA",,Customer request to deliver on the August 30th 2019,120318,"Brandon helped with sales
Original received. SQ amount verified $3700. paid in full-Erika 8/20/19 9:29am
8/22-Called; No Answer
8/22 (3:09pm)-Confirmed delivery for 8/27 11am-2pm; Mom will accept delivery let team know to call ahead 30min to meet at residence.-Karen",IL,1,6.00
8/17/2019 6:59:02 AM,Jack Middlekoop,IA,52580,PEGASUS 2 SMART,PEGS-2PEGS-2-BR,New Choco,New,,,,,3900.00,3900.00,0.00,Rodrigo Malabunga,Credit Card,3900.00,atWH,,,,,,,,/,,0.00,,,,,,,,,/,,0.00,,,,,,,,,/,,No,"5 years parts, 2 years labor ($200)",Printed,,"IOWA STATE FAIR 8/8-18/19 DES MOINES, IA","IOWA STATE FAIR 8/8-18/19 DES MOINES, IA",,Trade in relax 2 zero 3D for $2500,120320,Original received. Sq amount verified $3900. Paid in full. Pick up customers chair it will be a trade in.-Erika 8/20/19 10:00am,IL,1,6.00
8/17/2019 6:59:10 AM,David Kristy Timm,IA,52347,PEGASUS 2 SMART,PEGS-2PEGS-2-BR-DEMO,Demo Choco,Demo,,,,,5000.00,5000.00,0.00,Ruben Cuatrona,Credit Card,5000.00,Sq#5yIf,,,,,,,,/,,0.00,,,,,,,,,/,,0.00,,,,,,,,,/,,No,"5 years parts, 1 year labor (Free)",Printed,,"IOWA STATE FAIR 8/8-18/19 DES MOINES, IA","IOWA STATE FAIR 8/8-18/19 DES MOINES, IA",,,120321,Original received. Sq amount verified $5000. Paid in full-Erika 8/20/19 10:02am,IL,1,6.00
8/17/2019 7:04:13 AM,Kaammovne Vonephasouk,IA,50316,PEGASUS 2 SMART,PEGS-2PEGS-2-BL,New Black,New,,,,,5500.00,5500.00,0.00,Winston Melgar,Synchrony,5500.00,,,6501723375277959,79698101,San Diego,36 months,Driver’s License,IA,02/2026,,0.00,,,,,,,,,/,,0.00,,,,,,,,,/,,No,"5 years parts, 2 years labor ($200)",Called,,"IOWA STATE FAIR 8/8-18/19 DES MOINES, IA","IOWA STATE FAIR 8/8-18/19 DES MOINES, IA",,,120322,"Synchrony original verified. Credit available $7200. Remaining balance $5500. Charge synchrony account(5500) upon delivery, have sales draft signed-Erika 8/20/19 9:32am
8/22-CC; left VM-Karen",IL,1,6.00
8/17/2019 7:05:21 AM,Fayeth Walton,IA,50613,PEGASUS 2 SMART,PEGS-2PEGS-2-BR-DEMO,Demo Choco,Demo,,,,,5000.00,5000.00,0.00,Ruben Cuatrona,Credit Card,500.00,Sq# VmU1,,,,,,,,/,COD,4500.00,,,,,,,,,/,,0.00,,,,,,,,,/,,No,"5 years parts, 2 years labor ($200)",Cancelled,,"IOWA STATE FAIR 8/8-18/19 DES MOINES, IA","IOWA STATE FAIR 8/8-18/19 DES MOINES, IA",,,120323,"Original received. Sq amount verified $500. Remaining balance $4500. Collect COD (4500) @ delivery.-Erika 8/20/19
8/22- Customer cancelled and spoke to ruben.-Karen
08/22/19 Ruben & Rod confirmed cancellation and refund - Cristina 10:57 am",IL,1,6.00
8/17/2019 5:58:51 PM,Kelli Hapes,IA,50554,PEGASUS 2 SMART,PEGS-2PEGS-2-BR-DEMO,Demo Choco,Demo,,,,,5800.00,5800.00,0.00,Ruben Cuatrona,Synchrony,5800.00,,,6501723375279021,79736413,San Diego,48 months,Driver’s License,IA,12/2022,,0.00,,,,,,,,,/,,0.00,,,,,,,,,/,,No,"5 years parts, 2 years labor ($200)",Called,,"IOWA STATE FAIR 8/8-18/19 DES MOINES, IA","IOWA STATE FAIR 8/8-18/19 DES MOINES, IA",,,120336,"Synchrony original verified. Credit available $5800. Remaining balance $5800. Pls charge synchrony account upon delivery, have sales draft signed-Erika 8/19/19 9:15am
courtesy call completed-Erika
8/20-Courtesy Call Completed-Karen",IL,1,6.00
8/17/2019 6:03:04 PM,Anthony Hartley,IA,52302,PEGASUS 2 SMART,PEGS-2PEGS-2-BR-DEMO,Demo Choco,Demo,,,,,4500.00,4500.00,0.00,Ruben Cuatrona,Synchrony,4500.00,,,6501723375279245,79741875,San Diego,36 months,Driver’s License,IA,07/2022,,0.00,,,,,,,,,/,,0.00,,,,,,,,,/,,No,"5 years parts, 1 year labor (Free)",Called,,"IOWA STATE FAIR 8/8-18/19 DES MOINES, IA","IOWA STATE FAIR 8/8-18/19 DES MOINES, IA",,Trade in old chair for $2000 value,120337,"Synchrony original verified. Credit available $9000. Remaining balance $4500. Pls charge synchrony account (4500) upon delivery, have sales draft  signed. Trade in pls pick up old chair. $2000 value -Erika 8/19/19 9:20am
courtesy call completed-Erika
8-20: Customers phone is not in working order-Karen
C# 3109-721-1446
Alt # 319-826-2445
Email Tandhartley@aol.com
8/20-CC; LEFT VM-Karen",IL,1,6.00
8/17/2019 6:11:07 PM,Daniel Beckman,IA,52623,PEGASUS 2 SMART,PEGS-2PEGS-2-BL,New Black,New,,,,,5800.00,5800.00,0.00,Rodrigo Malabunga,Synchrony,5800.00,,,6501723375280334,79764489,San Diego,48 months,Driver’s License,IA,07/2026,,0.00,,,,,,,,,/,,0.00,,,,,,,,,/,,No,"5 years parts, 2 years labor ($200)",Printed,,"IOWA STATE FAIR 8/8-18/19 DES MOINES, IA","IOWA STATE FAIR 8/8-18/19 DES MOINES, IA",,,120338,"Synchrony original verified. Credit available $9000. Remaining balance $5800. Charge synchrony account (5800) upon delivery, have sales draft signed-Erika 8/19/19 9:51am
courtesy call/text completed-Erika 8/19/19 1:43pm
8/20Maritza- Courtesy call (voicemail) left on first number(sounds like it is his cell)",IL,1,6.00
8/17/2019 6:17:02 PM,Frederick Goodman,IA,51534,PEGASUS 2 SMART,PEGS-2PEGS-2-BR-DEMO,Demo Choco,Demo,,,,,5000.00,5000.00,0.00,Ruben Cuatrona,Credit Card,5000.00,yVnk,,,,,,,,/,,0.00,,,,,,,,,/,,0.00,,,,,,,,,/,,No,"5 years parts, 2 years labor ($200)",Called,,"IOWA STATE FAIR 8/8-18/19 DES MOINES, IA","IOWA STATE FAIR 8/8-18/19 DES MOINES, IA",,,120339,"Original received. SQ amount verified $5000. Paid in full-Erika 8/19/19 9:45am
courtesy call completed-Erika 8/19/19 1:44pm
8/20-Courtesy Call Completed.-Karen",IL,1,6.00
8/17/2019 6:23:35 PM,Debra Gilmere,IA,52353,PEGASUS 2 SMART,PEGS-2PEGS-2-BL,New Black,New,,,,,5000.00,5000.00,0.00,Keith Kei,Credit Card,5000.00,Sq# 4RKm,,,,,,,,/,,0.00,,,,,,,,,/,,0.00,,,,,,,,,/,,No,"5 years parts, 1 year labor (Free)",Printed,,"IOWA STATE FAIR 8/8-18/19 DES MOINES, IA","IOWA STATE FAIR 8/8-18/19 DES MOINES, IA",,,120340,"Original received. SQ amount verified $5000. Paid in full.-Erika 8/19/19 9:33am
courtesy call completed-Erika 8/19/19 1:44pm",IL,1,6.00
8/17/2019 6:25:06 PM,Debora Wessels,IA,50023,PEGASUS 2 SMART,PEGS-2PEGS-2-BL,New Black,New,,,,,6000.00,6000.00,0.00,Ruben Cuatrona,Credit Card,6000.00,OMB4,,,,,,,,/,,0.00,,,,,,,,,/,,0.00,,,,,,,,,/,,No,"5 years parts, 2 years labor ($200)",Scheduled,,"IOWA STATE FAIR 8/8-18/19 DES MOINES, IA","IOWA STATE FAIR 8/8-18/19 DES MOINES, IA",,,120341,"Original received. SQ amount verified $6000. Paid in full-Erika 8/19/19 9:37am
courtesy call/text completed-Erika 8/19/19 1:45pm
8/22-Confirmed delivery for 8/27 3-6pm-Karen",IL,1,6.00
8/17/2019 6:30:01 PM,Josephine Weston,IA,50321,PEGASUS 2 SMART,PEGS-2PEGS-2-BR,New Choco,New,,,,,5900.00,5900.00,0.00,Rodrigo Malabunga,Synchrony,5000.00,,,6501723375278734,79447088,San Diego,36 months,Driver’s License,IA,05/2023,COD,900.00,,,,,,,,,/,,0.00,,,,,,,,,/,,No,"5 years parts, 2 years labor ($200)",Called,,"IOWA STATE FAIR 8/8-18/19 DES MOINES, IA","IOWA STATE FAIR 8/8-18/19 DES MOINES, IA",,,120342,"Original Order #120203 ; 2nd floor delivery ;
Please charge 5,000 threw synchrony (Have sales draft signed) and collect COD of $900 - Cristina 08/19/19 9:19am
8/22-CC ; left VM-Karen",IL,1,6.00
8/17/2019 6:34:39 PM,Monica Hernandez,IA,50317,PEGASUS 2 SMART,PEGS-2PEGS-2-BL,New Black,New,,,,,6000.00,6000.00,0.00,Ruben Cuatrona,Synchrony,6000.00,,,6501723375280474,79768447,San Diego,48 months,Driver’s License,IA,04/2022,,0.00,,,,,,,,,/,,0.00,,,,,,,,,/,,No,"5 years parts, 2 years labor ($200)",Scheduled,,"IOWA STATE FAIR 8/8-18/19 DES MOINES, IA","IOWA STATE FAIR 8/8-18/19 DES MOINES, IA",,,120343,"Synchrony original verified. Credit available $7200. Remaining balance $6000. Charge synchrony account (6000) upon delivery, have sales draft signed-Erika 8/19/19 9:54am
courtesy call/text completed-Erika 8/19/19 1:47pm
8/22-Confirmed delivery for 8/27- 4pm-7pm-Karen",IL,1,6.00
8/17/2019 6:35:27 PM,Brenda Kinsey Groves,IA,50129,PEGASUS 2 SMART,PEGS-2PEGS-2-BR-DEMO,Demo Choco,Demo,,,,,5600.00,5600.00,0.00,Xiongxiaojun Ji,Synchrony,5600.00,,,6501723375279567,79749818,San Diego,48 months,Driver’s License,IA,06/2020,,0.00,,,,,,,,,/,,0.00,,,,,,,,,/,,No,"5 years parts, 1 year labor (Free)",Called,,"IOWA STATE FAIR 8/8-18/19 DES MOINES, IA","IOWA STATE FAIR 8/8-18/19 DES MOINES, IA",,,120344,"Contact salesperson: Keith if have question
-Synchrony original verified. Credit available $6800. Remaining balance $5600. Charge synchrony account (5600) upon delivery, have sales draft signed-Erika 8/19/19 9:41am
courtesy call completed-Erika 8/19/19 1:47pm
8/20 Courtesy Call Completed-Karen",IL,1,6.00
8/17/2019 6:40:46 PM,Michael Tremel,IA,51530,Hubble,HUBL-1HUBL-1BL,New Black,New,,,,,5500.00,5500.00,0.00,Rolly San Jose,Synchrony,5500.00,,,6501723375280664,79772909,San Diego,48 months,Driver’s License,IA,12/2026,,0.00,,,,,,,,,/,,0.00,,,,,,,,,/,,No,"5 years parts, 1 year labor (Free)",Cancelled,,"IOWA STATE FAIR 8/8-18/19 DES MOINES, IA","IOWA STATE FAIR 8/8-18/19 DES MOINES, IA",,,120345,"Synchrony original verified. Credit available $9000. Remaining balance $5500. Charge synchrony account (5500) upon delivery, have sales draft signed-Erika 8/19/19 10:01am
Courtesy call completed-Erika 8/19/19 1:50pm
8/20- Says he cancelled order with Rolly.-Karen

08/20/19 Per Rolly okay to cancel-Cristina",IL,1,6.00
8/18/2019 7:33:36 AM,James Neugebauer,NE,68116,PEGASUS 2 SMART,PEGS-2PEGS-2-BL,New Black,New,,,,,3500.00,3500.00,0.00,Rodrigo Malabunga,Credit Card,3500.00,Sq #eMdc,,,,,,,,/,,0.00,,,,,,,,,/,,0.00,,,,,,,,,/,,No,"5 years parts, 3 years labor ($400)",Printed,,"IOWA STATE FAIR 8/8-18/19 DES MOINES, IA","IOWA STATE FAIR 8/8-18/19 DES MOINES, IA",,,120347,"Original received. SQ amount verified $3500. Pls pick up customers chair, TRADE IN (DEAL) LEGACY CHAIR.-Approved by Hide Erika 8/19/19 3:06pm
courtesy call completed
Printed -Tina 8/21/2019
Re- Dispatch Request -> Re- Dispatched to IL 08/21/19 -Cristina 12:49",IL,1,6.00
8/19/2019 4:55:38 AM,iliana solis,NE,68022,Majesty,MAJ-1010MAJ-1010-BR-DEMO,Demo Choco,Demo,,,,,2800.00,2800.00,0.00,Ruben Cuatrona,Synchrony,2800.00,,,6501723375280987,79785735,San Diego,24 months,Driver’s License,NE,11/2020,,0.00,,,,,,,,,/,,0.00,,,,,,,,,/,,No,"5 years parts, 1 year labor (Free)",Printed,,"IOWA STATE FAIR 8/8-18/19 DES MOINES, IA","IOWA STATE FAIR 8/8-18/19 DES MOINES, IA",,,120374,"Pls deliver actual demo chair w/ S/N 0901002180700.  Customer took the controller already
Synchrony original verified. Credit available $6500. Remaining balance $2800. Pls charge synchrony account upon delivery, have sales draft signed-Erika 8/19/19 2:33pm
courtesy call/text send-Erika
Printed - Tina 8/21/2019
Re- Dispatch Request -> Re- Dispatched to IL 08/21/19 -Cristina 12:49

The customer called CA office, told her that IL branch will let her know the delivery status. Requested Karen to follow up via Email. 8/22/19 Riho",IL,1,6.00
8/19/2019 8:53:27 AM,james klever,IA,50644,PEGASUS 2 SMART,PEGS-2PEGS-2-BL,New Black,New,,,,,5900.00,5900.00,0.00,Ruben Cuatrona,Credit Card,5900.00,sQ# XFPn,,,,,,,,/,,0.00,,,,,,,,,/,,0.00,,,,,,,,,/,,No,"5 years parts, 2 years labor ($200)",Scheduled,,"IOWA STATE FAIR 8/8-18/19 DES MOINES, IA","IOWA STATE FAIR 8/8-18/19 DES MOINES, IA",,,120375,"Pls deliver within 2 weeks from Aug 18
Original received. SQ amount verified $5900. Paid in full-Erika 8/19/19 2:41pm
8/22-Confirmed delivery for 8/26-4-7pm-Karen",IL,1,6.00
8/19/2019 9:05:48 AM,scott wiederkoeff,MN,55904,PEGASUS 2 SMART,PEGS-2PEGS-2-BR-DEMO,Demo Choco,Demo,,,,,5300.00,5300.00,0.00,Keith Kei,Credit Card,5300.00,sQ# jTre,,,,,,,,/,,0.00,,,,,,,,,/,,0.00,,,,,,,,,/,,No,"5 years parts, 1 year labor (Free)",Scheduled,,"IOWA STATE FAIR 8/8-18/19 DES MOINES, IA","IOWA STATE FAIR 8/8-18/19 DES MOINES, IA",,,120376,"Pls deliver actual demo chair. Serial #1201002190395
Original received. SQ amount verified $5300. Paid in full-Erika 8/19/19 2:44pm
8/23- Confirmed delivery for 9/6- 9:30am-1:30pm-Karen",IL,1,6.00
8/19/2019 9:15:02 AM,susan westra,IA,50125,Hubble,HUBL-1HUBL-1BL,New Black,New,,,,,4500.00,4500.00,0.00,Rolly San Jose,Synchrony,4500.00,,,6501723375281597,79799839,San Diego,36 months,Driver’s License,IA,05/2024,,0.00,,,,,,,,,/,,0.00,,,,,,,,,/,,No,"5 years parts, 1 year labor (Free)",Printed,,"IOWA STATE FAIR 8/8-18/19 DES MOINES, IA","IOWA STATE FAIR 8/8-18/19 DES MOINES, IA",,,120377,"Pls deliver within 2 weeks from Aug 18
Synchrony original verified. Credit available $9000. Remaining balance $4500. Pls charge synchrony account upon delivery, have sales draft signed-Erika 8/19/19 2:56pm",IL,1,6.00
8/19/2019 9:22:14 AM,doug hawn,IA,51462,PEGASUS 2 SMART,PEGS-2PEGS-2-BR,New Choco,New,,,,,6500.00,6500.00,0.00,Xiongxiaojun Ji,Credit Card,6500.00,sQ # HzDD,,,,,,,,/,,0.00,,,,,,,,,/,,0.00,,,,,,,,,/,,No,"5 years parts, 1 year labor (Free)",Printed,,"IOWA STATE FAIR 8/8-18/19 DES MOINES, IA","IOWA STATE FAIR 8/8-18/19 DES MOINES, IA",,,120378,"Pls deliver within 2 weeks from Aug 18
Original received. Sq amount verified $6500. Paid in full-Erika 8/19/19 3:14pm",IL,1,6.00
8/19/2019 9:29:32 AM,donna cretin,IA,50126,Majesty,MAJ-1010MAJ-1010-BL-DEMO,Demo Black,Demo,,,,,2800.00,2800.00,0.00,Rodrigo Malabunga,Credit Card,200.00,sq# EuFv,,,,,,,,/,COD,2600.00,,,,,,,,,/,,0.00,,,,,,,,,/,,No,"5 years parts, 1 year labor (Free)",Called,,"IOWA STATE FAIR 8/8-18/19 DES MOINES, IA","IOWA STATE FAIR 8/8-18/19 DES MOINES, IA",,,120379,"Pls deliver actual demo chair w/ s/N 0901001170188
Original received. Sq amount verified $200. Remaining balance $2600. Collect COD *(2600) @ delivery.-Erika 8/19/19 3:16pm
8/22-Called to schedule but customer is not answering or has VM option-Karen",IL,1,6.00
8/19/2019 9:35:14 AM,darryl elswick,IA,50317,Majesty,MAJ-1010MAJ-1010-BL,New Black,New,,,,,3000.00,3000.00,0.00,Rodrigo Malabunga,Credit Card,1000.00,sq# IRYL,,,,,,,,/,COD,2000.00,,,,,,,,,/,,0.00,,,,,,,,,/,,No,"5 years parts, 1 year labor (Free)",Called,,"IOWA STATE FAIR 8/8-18/19 DES MOINES, IA","IOWA STATE FAIR 8/8-18/19 DES MOINES, IA",,,120380,"Original received. SQ amount verified $1000. Remaining balance $2000. Pls collect COD (2000) @ delivery-Erika 8/19/19 3:21pm
8/22- Called-LEFT VM-Karen",IL,1,6.00
8/19/2019 11:36:37 AM,bryan lolwing,IA,50158,PEGASUS 2 SMART,PEGS-2PEGS-2-BL,New Black,New,,,,,5800.00,5800.00,0.00,Xiongxiaojun Ji,Synchrony,5000.00,,,6501723375282041,79806894,San Diego,36 months,Driver’s License,IA,12/2027,COD,800.00,,,,,,,,,/,,0.00,,,,,,,,,/,,No,"5 years parts, 1 year labor (Free)",Printed,,"IOWA STATE FAIR 8/8-18/19 DES MOINES, IA","IOWA STATE FAIR 8/8-18/19 DES MOINES, IA",,,120381,"Synchrony original verified. Credit available $5000. Charge synchrony account (5000) upon delivery, have sales draft signed. Remaining balance $800. Collect COD (800) @ delivery-Erika 8/19/19 3:53pm",IL,1,6.00
8/19/2019 11:41:38 AM,jeffrey wahl,IA,50115,PEGASUS 2 SMART,PEGS-2PEGS-2-BR,New Choco,New,,,,,5500.00,5500.00,0.00,Rodrigo Malabunga,Credit Card,5500.00,sq# qNkR,,,,,,,,/,,0.00,,,,,,,,,/,,0.00,,,,,,,,,/,,No,"5 years parts, 2 years labor ($200)",Printed,,"IOWA STATE FAIR 8/8-18/19 DES MOINES, IA","IOWA STATE FAIR 8/8-18/19 DES MOINES, IA",,,120382,Original received. SQ amount verified $5500. Paid in full-Erika 8/19/19 3:23pm,IL,1,6.00
8/19/2019 11:47:14 AM,jason curry,IA,50323,Hubble,HUBL-1HUBL-1CH,New Choco,New,,,,,6890.00,6890.00,0.00,Xiongxiaojun Ji,Synchrony,6890.00,,,6501723375282249,79811379,San Diego,48 months,Driver’s License,IA,08/2022,,0.00,,,,,,,,,/,,0.00,,,,,,,,,/,,No,"5 years parts, 1 year labor (Free)",Printed,,"IOWA STATE FAIR 8/8-18/19 DES MOINES, IA","IOWA STATE FAIR 8/8-18/19 DES MOINES, IA",,,120383,"Synchrony original verified. Credit available $8300. Remaining balance $6890. Charge synchrony account (6890) upon delivery, have sales draft signed-Erika 8/19/19 3:26pm",IL,1,6.00
8/19/2019 11:53:59 AM,donald eveland,IA,50317,PEGASUS 2 SMART,PEGS-2PEGS-2-BL-DEMO,Demo Black,Demo,,,,,5800.00,5800.00,0.00,Xiongxiaojun Ji,Synchrony,5800.00,,,6501723375282298,79812100,San Diego,48 months,Driver’s License,IA,07/2024,,0.00,,,,,,,,,/,,0.00,,,,,,,,,/,,No,"5 years parts, 1 year labor (Free)",Called,,"IOWA STATE FAIR 8/8-18/19 DES MOINES, IA","IOWA STATE FAIR 8/8-18/19 DES MOINES, IA",,,120384,"Synchrony original verified. Credit available $7000. Remaining balance $5800. Charge synchrony account (5800) upon delivery, have sales draft signed-Erika 8/19/19 3:30pm
8/22- Called Customer; LEFT VM-Karen",IL,1,6.00
8/21/2019 11:30:54 AM,jason vandermark,IA,50327,Hubble,HUBL-1HUBL-1BL,New Black,New,,,,,5500.00,5500.00,0.00,Rolly San Jose,Synchrony,5500.00,,,6501723375285226,79934391,San Diego,48 months,Driver’s License,IA,02/2022,,0.00,,,,,,,,,/,,0.00,,,,,,,,,/,,No,"5 years parts, 1 year labor (Free)",Printed,,"IOWA STATE FAIR 8/8-18/19 DES MOINES, IA","IOWA STATE FAIR 8/8-18/19 DES MOINES, IA",,,120403,"Pls deliver within 2 weeks from Aug 21 and pls have sign the Synchrony form before you put the chair inside his house
Synchrony original verified. Credit available $6800. Remaining balance $5500. Charge synchrony account (5500) upon delivery, have sales draft signed. Pls collect customers sig on invoice & synchrony application as well.-Erika 8/21/19 12:02pm",IL,1,6.00
