﻿Date,Customer Name,State,Zipcode,Description,Product Number,Color,Product Status,Net,Shipping Fee,Gift Price,Financing Processing Fee,Order Total,Total Before Tax,Tax,Commission,Primary Payment Method,Primary Payment Balance,Primary Authorize Number,Primary Purchase Order Number,Primary Synchrony Account Number,Primary Synchrony Application Key,Primary Synchrony Account Info,Primary Synchrony Term,Second Payment Method,Second Payment Balance,Second Authorize Number,Second Purchase Order Number,Second Synchrony Account Number,Second Synchrony Application Key,Second Synchrony Account Info,Second Synchrony Term,Third Payment Method,Third Payment Balance,Third Authorize Number,Third Purchase Order Number,Third Synchrony Account Number,Third Synchrony Application Key,Third Synchrony Account Info,Third Synchrony Term,Delivery Date,Pick up,Warranty,Status,Chair Type,Original Event Name,Event Name,Synchrony Notes,Order Notes,Order Number,Private Note,Branch,No Tax,Actual Tax Rate
8/23/2018 9:08:29 AM,James Benson’Valdes,FL,34744,Relax 2 Zero 1.0 for Sam's,USJ-9000USJ-9000KU-DEMO,Demo Black,Demo,,,,,3438.93,3199.00,239.93,Rebecca Miller,CreditCard,3199.00,9725893296579529202724,,,,,,,0.00,,,,,,,,0.00,,,,,,,8/24/2018 12:00:00 AM,No,"3 years parts, 1 year labor (Free)",Delivered,,Sam's Club #4782 Kissimmee 8/23-9/2/18 (FL),Sam's Club #4782 Kissimmee 8/23-9/2/18 (FL),,,108691,"RELAX 2.0 BLACK (Not 1.0)
SPOKE TO CUSTOMER THIS MORNING GAVE HIM MAGGIE'S NUMBER - 08/23/18 STEPHANY",FL,0,7.50
8/23/2018 1:57:41 PM,Melvin Tyner,FL,33848,Foot Vibe Pro,USJ-871,,New,,,,,333.22,309.97,23.25,Rebecca Miller,CreditCard,309.97,,,,,,,,0.00,,,,,,,,0.00,,,,,,,,YES,"2 years parts, 1 year labor for Small Items",Delivered,,Sam's Club #4782 Kissimmee 8/23-9/2/18 (FL),Sam's Club #4782 Kissimmee 8/23-9/2/18 (FL),,,108695,"Tc# 622867363839838381461
8/23 Per Rebecca, items were picked up same day at Sam's Club.",FL,0,7.50
8/23/2018 1:57:41 PM,Melvin Tyner,FL,33848,Shogun Neck & Back Massger,USJ-874USJ-874,New,New,,,,,333.22,309.97,23.25,Rebecca Miller,CreditCard,309.97,,,,,,,,0.00,,,,,,,,0.00,,,,,,,,YES,"2 years parts, 1 year labor for Small Items",Delivered,,Sam's Club #4782 Kissimmee 8/23-9/2/18 (FL),Sam's Club #4782 Kissimmee 8/23-9/2/18 (FL),,,108695,"Tc# 622867363839838381461
8/23 Per Rebecca, items were picked up same day at Sam's Club.",FL,0,7.50
8/23/2018 8:18:05 PM,Elizabeth Aguirre,FL,34746,Vitality Plate for Sam's,USJ-849USJ-849,New,New,,,,,494.49,459.99,34.50,Rebecca Miller,CreditCard,0.00,,,,,,,,0.00,,,,,,,,0.00,,,,,,,,YES,"2 years parts, 1 year labor for Small Items",Delivered,,Sam's Club #4782 Kissimmee 8/23-9/2/18 (FL),Sam's Club #4782 Kissimmee 8/23-9/2/18 (FL),,,108707,,FL,0,7.50
8/23/2018 8:25:36 PM,Dewell Edwards,FL,33837,Foot Vibe Pro,USJ-871,,New,,,,,118.24,109.99,8.25,Rebecca Miller,CreditCard,0.00,,,,,,,,0.00,,,,,,,,0.00,,,,,,,,YES,"2 years parts, 1 year labor for Small Items",Delivered,,Sam's Club #4782 Kissimmee 8/23-9/2/18 (FL),Sam's Club #4782 Kissimmee 8/23-9/2/18 (FL),,,108708,,FL,0,7.50
8/24/2018 9:29:43 PM,Rebecca Chea,AA,33897,Vitality Plate for Sam's,USJ-849USJ-849,New,New,,,,,494.49,459.99,34.50,Rebecca Miller,CreditCard,494.49,093076327470497903005,,,,,,,0.00,,,,,,,,0.00,,,,,,,,YES,"2 years parts, 1 year labor for Small Items",Delivered,,Sam's Club #4782 Kissimmee 8/23-9/2/18 (FL),Sam's Club #4782 Kissimmee 8/23-9/2/18 (FL),,,108733,,FL,0,7.50
8/24/2018 9:40:43 PM,Elisabeth Aguirre,FL,34746,Legacy for Sam's,DWA-9100DWA-9100CH-DEMO,Demo Choco,Demo,,,,,3868.93,3599.00,269.93,Rebecca Miller,CreditCard,3868.93,1822992615061081869387,,,,,,,0.00,,,,,,,,0.00,,,,,,,9/12/2018 12:00:00 AM,No,"3 years parts, 1 year labor (Free)",Delivered,,Sam's Club #4782 Kissimmee 8/23-9/2/18 (FL),Sam's Club #4782 Kissimmee 8/23-9/2/18 (FL),,,108734,8/27Maritza Courtesy email+text @ 10:03AM,FL,0,7.50
8/27/2018 8:35:57 AM,David Chea,FL,33897,Foot Vibe Pro,USJ-871,,New,,,,,118.24,109.99,8.25,Rebecca Miller,CreditCard,118.24,809988247604652565253,,,,,,,0.00,,,,,,,,0.00,,,,,,,,YES,"2 years parts, 1 year labor for Small Items",Delivered,,Sam's Club #4782 Kissimmee 8/23-9/2/18 (FL),Sam's Club #4782 Kissimmee 8/23-9/2/18 (FL),,,108820,,FL,0,7.50
8/28/2018 6:15:47 AM,Sam Vangala,FL,32707,Shogun Neck & Back Massger,USJ-874USJ-874-DEMO,Demo,Demo,,,,,193.48,179.98,13.50,Rebecca Miller,PurchaseOrder,193.48,,427184206290277717109,,,,,,0.00,,,,,,,,0.00,,,,,,,,YES,"2 years parts, 1 year labor for Small Items",Delivered,,Sam's Club #4782 Kissimmee 8/23-9/2/18 (FL),Sam's Club #4782 Kissimmee 8/23-9/2/18 (FL),,,108841,"picked up at show
Sold by Alex B.",FL,0,7.50
8/28/2018 9:56:59 AM,Albert Martinez,FL,34746,Relax 2 Zero 2.0 for Sam's,USJ-9050USJ-9050BL-DEMO,Demo Black,Demo,,,,,3438.93,3199.00,239.93,Rebecca Miller,PurchaseOrder,3438.93,,7876065573967905010882,,,,,,0.00,,,,,,,,0.00,,,,,,,8/29/2018 12:00:00 AM,No,"3 years parts, 1 year labor (Free)",Delivered,,Sam's Club #4782 Kissimmee 8/23-9/2/18 (FL),Sam's Club #4782 Kissimmee 8/23-9/2/18 (FL),,,108846,Delivery preferred on Sunday 9/2,FL,0,7.50
8/28/2018 10:36:54 AM,Amond Richmond,FL,34746,Legacy for Sam's,DWA-9100DWA-9100CH-DEMO,Demo Choco,Demo,,,,,3198.99,2975.80,223.19,Rebecca Miller,PurchaseOrder,3199.00,,8937039783768715151630,,,,,,0.00,,,,,,,,0.00,,,,,,,9/12/2018 12:00:00 AM,No,"3 years parts, 1 year labor (Free)",Delivered,,Sam's Club #4782 Kissimmee 8/23-9/2/18 (FL),Sam's Club #4782 Kissimmee 8/23-9/2/18 (FL),,,108848,"CC Josefina - 8/28/18 3:40pm ****Do not deliver Thursday or Friday****
**tax exempt**",FL,0,7.50
8/28/2018 10:42:58 AM,Amond Richmond,FL,34746,Vitality Plate for Sam's,USJ-849USJ-849-DEMO,Demo,Demo,,,,,399.99,372.08,27.91,Rebecca Miller,PurchaseOrder,399.99,,980045349,,,,,,0.00,,,,,,,,0.00,,,,,,,,No,"2 years parts, 1 year labor for Small Items",Delivered,,Sam's Club #4782 Kissimmee 8/23-9/2/18 (FL),Sam's Club #4782 Kissimmee 8/23-9/2/18 (FL),,,108849,"PICK UP SUNDAY 9/2
same customer as #108848/TC#8937039783768715151630/product was already picked up - 8/28/18 Hitomi",FL,0,7.50
9/1/2018 10:25:08 AM,Cesar Hidalgo,FL,34759,Relax 2 Zero 2.0 for Sam's,USJ-9050USJ-9050BR,New Brown,New,,,,,4192.50,3900.00,292.50,Rebecca Miller,CreditCard,4192.50,1471184011230276737129,,,,,,,0.00,,,,,,,,0.00,,,,,,,9/7/2018 12:00:00 AM,No,"3 years parts, 1 year labor (Free)",Delivered,,Sam's Club #4782 Kissimmee 8/23-9/2/18 (FL),Sam's Club #4782 Kissimmee 8/23-9/2/18 (FL),,,108945,CC Josefina - 9/4/18 3:47pm,FL,0,7.50
9/2/2018 1:07:42 PM,Lisa Frazier,FL,33837,Foot Vibe Pro,USJ-871,,New,,,,,333.22,309.97,23.25,Rebecca Miller,CreditCard,333.04,616827246826835323441,,,,,,,0.00,,,,,,,,0.00,,,,,,,,YES,"2 years parts, 1 year labor for Small Items",Delivered,,Sam's Club #4782 Kissimmee 8/23-9/2/18 (FL),Sam's Club #4782 Kissimmee 8/23-9/2/18 (FL),,,108980,,FL,0,7.50
9/2/2018 1:07:42 PM,Lisa Frazier,FL,33837,Shogun Neck & Back Massger,USJ-874USJ-874,New,New,,,,,333.22,309.97,23.25,Rebecca Miller,CreditCard,333.04,616827246826835323441,,,,,,,0.00,,,,,,,,0.00,,,,,,,,YES,"2 years parts, 1 year labor (Free)",Delivered,,Sam's Club #4782 Kissimmee 8/23-9/2/18 (FL),Sam's Club #4782 Kissimmee 8/23-9/2/18 (FL),,,108980,,FL,0,7.50
9/4/2018 7:27:05 AM,Helen Mills,FL,34945,Vitality Plate for Sam's,USJ-849USJ-849,New,New,,,,,494.49,459.99,34.50,Rebecca Miller,CreditCard,494.49,325262833043086839337,,,,,,,0.00,,,,,,,,0.00,,,,,,,,YES,"2 years parts, 1 year labor for Small Items",Delivered,,Sam's Club #4782 Kissimmee 8/23-9/2/18 (FL),Sam's Club #4782 Kissimmee 8/23-9/2/18 (FL),,,109046,Picked up 9/2,FL,0,7.50
9/4/2018 7:32:29 AM,Alis Nikolson,FL,34747,Vitality Plate for Sam's,USJ-849USJ-849,New,New,,,,,494.49,459.99,34.50,Rebecca Miller,PurchaseOrder,494.49,,App# 25524D,,,,,,0.00,,,,,,,,0.00,,,,,,,,YES,"2 years parts, 1 year labor for Small Items",Delivered,,Sam's Club #4782 Kissimmee 8/23-9/2/18 (FL),Sam's Club #4782 Kissimmee 8/23-9/2/18 (FL),,,109047,Picked up 9/2//will confirm TC# 9/4/18 Hitomi//received sales receipt. 9/5/18 Hitomi,FL,0,7.50
9/4/2018 7:54:51 AM,Mercel Kyle,FL,34744,Legacy for Sam's,DWA-9100DWA-9100BL-DEMO,Demo Black,Demo,,,,,3199.00,3028.14,170.86,Rebecca Miller,PurchaseOrder,3199.00,,7556915280917903034812,,,,,,0.00,,,,,,,,0.00,,,,,,,9/7/2018 12:00:00 AM,No,"3 years parts, 1 year labor (Free)",Delivered,,Sam's Club #4782 Kissimmee 8/23-9/2/18 (FL),Sam's Club #4782 Kissimmee 8/23-9/2/18 (FL),,,109048,"*Tax Exempt
10/4/18-Customer paid Demo-R2Z2.0 price and received R2Z2.0. However they insisted to receive Legacy because the sales rep wrote down a Legacy on sales receipt. So FL branch exchanged the chair to Legacy. -Hitomi/Andres informed me that they ended up getting New R2Z2.0. will confirm detail. -10/4/18 Hitomi//Confirmed Maggie that they ended up getting brand new Legacy.10/10/18 Hitomi",FL,0,7.50
9/4/2018 8:13:27 AM,Darrell Dehaven Jr,FL,34714,Foot Vibe Pro,USJ-871,,New,,,,,118.24,109.99,8.25,Rebecca Miller,PurchaseOrder,118.24,,936799363738716172610,,,,,,0.00,,,,,,,,0.00,,,,,,,,YES,"2 years parts, 1 year labor for Small Items",Delivered,,Sam's Club #4782 Kissimmee 8/23-9/2/18 (FL),Sam's Club #4782 Kissimmee 8/23-9/2/18 (FL),,,109049,Picked up 9/1,FL,0,7.50
9/4/2018 8:18:16 AM,Ernesto Paredes,FL,34741,Foot Vibe Pro,USJ-871,,New,,,,,118.24,109.99,8.25,Rebecca Miller,PurchaseOrder,118.24,,636066809465490948095,,,,,,0.00,,,,,,,,0.00,,,,,,,,YES,"2 years parts, 1 year labor for Small Items",Delivered,,Sam's Club #4782 Kissimmee 8/23-9/2/18 (FL),Sam's Club #4782 Kissimmee 8/23-9/2/18 (FL),,,109050,Picked up 8/29,FL,0,7.50
