﻿Date,CustomerName,State,Zipcode,Description,productNo,Color,IsDemo,Net,ShippingFee,GiftPrice,FinancingProcessingFee,Gross,Pre_tax,Tax,Commission,Primary Payment Method,Primary Payment Balance,Primary Authorize Number,Primary Purchase Order Number,Primary Synchrony Account Number,Primary Synchrony Application Key,Primary Synchrony AccountInfo,Primary SynchronyTerm,Secondly Payment Method,Secondly Payment Balance,Secondly Authorize Number,Secondly Purchase Order Number,Secondly Synchrony Account Number,Secondly Synchrony Application Key,Secondly Synchrony AccountInfo,Secondly SynchronyTerm,Thirdly Payment Method,Thirdly Payment Balance,Thirdly Authorize Number,Thirdly Purchase Order Number,Thirdly Synchrony Account Number,Thirdly Synchrony Application Key,Thirdly Synchrony AccountInfo,Thirdly SynchronyTerm,DeliveryDate,Ispickup,Warranty,Status,Event Name,Synchrony Notes,Order Notes,Order number,Private Note,Branch,IsNoTax,ActualTaxRate
1/8/2018 4:47:36 PM,Ernesto Eloriaga,FL,32738,Legacy 3D,DWA-9150USJ-9150BL-DEMO,Demo Black,Demo,,,,,3500.00,3500.00,0.00,Ruben Cuatrona,CreditCard,3500.00,884417,,,,,,,0.00,,,,,,,,0.00,,,,,,,1/7/2018 12:00:00 AM,No,"3 years parts, 1 year labor (Free)",Delivered,Volusia County Home and Garden 1/5-7/18 (FL),,"Delivered to customer 1/7/18
SN# 0202001170339",102794,"confirmed $3,500 in Wells Fargo. 1/9/18 Hitomi",FL,1,6.50
1/8/2018 4:51:52 PM,Pam Pennella,FL,32129,Legacy 3D,DWA-9150USJ-9150CH-DEMO,Demo Choco Brown,Demo,,,,,3900.00,3900.00,0.00,Ruben Cuatrona,CreditCard,3900.00,844018,,,,,,,0.00,,,,,,,,0.00,,,,,,,1/7/2018 12:00:00 AM,No,"3 years parts, 1 year labor (Free)",Delivered,Volusia County Home and Garden 1/5-7/18 (FL),,"Delivered to customer 1/7/18
SN# 0202002170362",102795,"confirmed $3,900 in Wells Fargo. 1/9/18 Hitomi",FL,1,6.50
1/8/2018 5:00:50 PM,Reford Dingress,AZ,85602,Legacy 3D,DWA-9150USJ-9150CH,Choco Brown,New,,,,,3500.00,3500.00,0.00,Ruben Cuatrona,Synchrony,3500.00,,,,,,,,0.00,,,,,,,,0.00,,,,,,,,No,"3 years parts, 1 year labor (Free)",New,Volusia County Home and Garden 1/5-7/18 (FL),,"**Customer will mail signed Synchrony Form to California office, please process and proceed with Sale $3500 total price for 36 months 0% apr**",102796,,Not Dispatched,1,6.50
1/8/2018 5:11:04 PM,Megaen Mikell,FL,32724,Legacy 3D,DWA-9150USJ-9150BL,Black,New,,,,,7800.00,7800.00,0.00,Ruben Cuatrona,Synchrony,7800.00,,,6034610083036361,83421826,Las Vegas,36 months,,0.00,,,,,,,,0.00,,,,,,,,No,"3 years parts, 1 year labor (Free)",Scheduled,Volusia County Home and Garden 1/5-7/18 (FL),,"**Please Deliver BROWN to: 424 N Frankfort Ave. DeLand, FL 32724 
**Please Deliver BLACK to: 5008 Sail Court, Port Orange, FL 32124
*Remeber to Process the Sale",102797,"confirmed the account in Synchrony.($8,300) *Please charge before delivery.* 1/9/2018 Hitomi
1) WILL BE DELIVERED 1/11 (DELAND) ~AUTH# 011497 / SN: 202002170389
2) WILL BE DELIVERED NEXT WEEK (PORT ORANGE)",FL,1,6.50
1/8/2018 5:11:04 PM,Megaen Mikell,FL,32724,Legacy 3D,DWA-9150USJ-9150CH,Choco Brown,New,,,,,7800.00,7800.00,0.00,Ruben Cuatrona,Synchrony,7800.00,,,6034610083036361,83421826,Las Vegas,36 months,,0.00,,,,,,,,0.00,,,,,,,,No,"3 years parts, 1 year labor (Free)",Scheduled,Volusia County Home and Garden 1/5-7/18 (FL),,"**Please Deliver BROWN to: 424 N Frankfort Ave. DeLand, FL 32724 
**Please Deliver BLACK to: 5008 Sail Court, Port Orange, FL 32124
*Remeber to Process the Sale",102797,"confirmed the account in Synchrony.($8,300) *Please charge before delivery.* 1/9/2018 Hitomi
1) WILL BE DELIVERED 1/11 (DELAND) ~AUTH# 011497 / SN: 202002170389
2) WILL BE DELIVERED NEXT WEEK (PORT ORANGE)",FL,1,6.50
1/8/2018 5:15:37 PM,Colenn Shaw,FL,32174,Relax2Zero 3D,DWA-9060USJ-9060BR,Choco Brown,New,,,,,4000.00,4000.00,0.00,Ruben Cuatrona,CreditCard,4000.00,127039,,,,,,,0.00,,,,,,,,0.00,,,,,,,1/11/2018 12:00:00 AM,No,"3 years parts, 1 year labor (Free)",Delivered,Volusia County Home and Garden 1/5-7/18 (FL),,,102798,"confirmed $4,000 in Wells Fargo. 1/9/18 Hitomi",FL,1,6.50
1/8/2018 5:20:18 PM,Angelia Asdot,FL,32043,Relax2Zero 3D,DWA-9060USJ-9060BR,Choco Brown,New,,,,,3700.00,3700.00,0.00,Ruben Cuatrona,Synchrony,3700.00,,,6034610083038433,83469159,Las Vegas,36 months,,0.00,,,,,,,,0.00,,,,,,,1/11/2018 12:00:00 AM,No,"3 years parts, 1 year labor (Free)",Delivered,Volusia County Home and Garden 1/5-7/18 (FL),,Please process the sale,102799,"confirmed the account in Synchrony. ($8,500) *Please charge before delivery.* 1/9/18 Hitomi
 AUTH # 011017 (1/11 MQ)",FL,1,6.50
1/8/2018 5:29:06 PM,Brenda Duncan,FL,32725,Legacy 3D,DWA-9150USJ-9150BL-DEMO,Demo Black,Demo,,,,,3900.00,3900.00,0.00,Ruben Cuatrona,Synchrony,1500.00,,,6034610083035728,83409006,Las Vegas,36 months,,0.00,,,,,,,,0.00,,,,,,,,No,"3 years parts, 1 year labor (Free)",Hold,Volusia County Home and Garden 1/5-7/18 (FL),,"Customer was approved for $1500, they will call for the balance payment.",102800,1/10 mq - Customer does not have $ for COD - Hold until July 2018,Not Dispatched,1,6.50
