﻿Order Number,Order Date,Event Name,Salesperson,SKU,Product Name,Color,QTY,Warranty,Payment Details,Tax,Order Total,Gross,Primary Payment Method,Primary Payment Balance,Primary Authorize Number,Primary Purchase Order Number,Primary Synchrony Account Number,Primary Synchrony Application Key,Primary Synchrony AccountInfo,Primary SynchronyTerm,Secondly Payment Method,Secondly Payment Balance,Secondly Authorize Number,Secondly Purchase Order Number,Secondly Synchrony Account Number,Secondly Synchrony Application Key,Secondly Synchrony AccountInfo,Secondly SynchronyTerm,Thirdly Payment Method,Thirdly Payment Balance,Thirdly Authorize Number,Thirdly Purchase Order Number,Thirdly Synchrony Account Number,Thirdly Synchrony Application Key,Thirdly Synchrony AccountInfo,Thirdly SynchronyTerm,Actual Shipping Cost,CustomerName,Shipping Address,Delivered On,Serial Number (TO Be),Note,Branch,IsNoTax,ActualTaxRate
101705,11/5/2017 4:44:05 AM,Mitsuwa  IL 10/27-11/5/17 (IL),May Kam,DWA-9060USJ-9060BL-DEMO,Relax2Zero 3D,Demo Black,1,"3 years parts, 1 year labor (Free)",Synchrony ,291.90,3960.90,3960.90,,3960.00,,,6034610081613625,80622736,San Diego,36 months,,,,,,,,,,,,,,,,,350.00,Jay Bernstern,3123750866,11/11/2017 12:00:00 AM,,"Special discount , Manager approval",TX,,
101706,11/5/2017 9:13:36 AM,Sam's Club #8224 11/2-11/12/17 (TX),Christoper Richard Williams,,Ninja Leg Massager,,1,"2 years parts, 1 year labor (Small Items)",CreditCard ,31.27,410.27,410.27,,0.00,564691,,,,,,,,,,,,,,,,,,,,,,0.00,Mary Marsden,5856106315,,,,TX,,
101707,11/5/2017 10:00:39 AM,Sam's Club #8265 11/2-11/12/17 (TX),Keith Kei,DWA-9100DWA-9100BG-DEMO,Legacy for Sam's,Demo Beige,2,"3 years parts, 1 year labor (Free)",PURCHASEORDER ,773.79,7971.79,7971.79,,0.00,,TC# 3909338676484039131586,,,,,,,,,,,,,,,,,,,,,350.00,Charlatte Coco,3375327733,11/10/2017 12:00:00 AM,,"Invoice #1
Customer wants the chairs to be deliver as soon as possible.
Paid in full with cash through sam's club 
Use 3375327733 as primary contact for delivery.",TX,,
101708,11/5/2017 10:16:18 AM,Sam's Club #8265 11/2-11/12/17 (TX),Keith Kei,DWA-9100DWA-9100CH-DEMO,Legacy for Sam's,Demo Choco,1,"3 years parts, 1 year labor (Free)",PURCHASEORDER ,386.89,3985.89,3985.89,,0.00,,TC# 9085223716941840625285,,,,,,,,,,,,,,,,,,,,,350.00,Karl Ray,3375406563,11/16/2017 12:00:00 AM,,"Invoice #2
Customer paid in full with card through sam's club",TX,,
101709,11/5/2017 10:24:41 AM,Sam's Club #6448 10/26-11/5 (FL),Alex Brackelsberg,USJ-9050USJ-9050BE,Relax2Zero 2.0 for Sam's,Beige,1,"3 years parts, 1 year labor (Free)",CreditCard ,223.93,3422.93,3422.93,,0.00,002d4858fa1aa23a,,,,,,,,,,,,,,,,,,,,,,0.00,Patricia Auman,9417044978,11/9/2017 12:00:00 AM,,,FL,,
101710,11/5/2017 11:51:02 AM,Sam's Club #6623 (CA),Michael Wang,USJ-871,Foot Vibe Pro,,1,"2 years parts, 1 year labor (Small Items)",CreditCard ,9.07,119.06,119.06,,0.00,Paid in full approval number 000743,,,,,,,,,,,,,,,,,,,,,,0.00,Marion Donaldson,9169449524,,,,CA,,
101711,11/5/2017 12:00:06 PM,Health&Wellness H Mart Illinois,Winston Melgar,DWA-9100DWA-9100BL,Legacy,Black,1,"3 years parts, 1 year labor (Free)",CreditCard ,180.29,3051.29,3051.29,,0.00,08269c,,,,,,,,,,,,,,,,,,,,,,350.00,Manjuvani Vrishna,3122032894,11/12/2017 12:00:00 AM,,"Sold for 3,050 
1 foam pad free,",TX,,
101712,11/5/2017 12:16:45 PM,Sam's Club #8224 11/2-11/12/17 (TX),Christoper Richard Williams,DWA-9100DWA-9100BL-DEMO,Legacy for Sam's,Demo Blue,1,"3 years parts, 1 year labor (Free)",Check ,296.92,3895.92,3895.92,,3895.00,,,,,,,,,,,,,,,,,,,,,,,0.00,Deborah Dyer,9403372002,,,,TX,,
101713,11/5/2017 12:40:27 PM,Sam's Club #6244 Fort Worth  10/26-11/05 (TX),Gail Kerns,DWA-9100DWA-9100BL-DEMO,Legacy for Sam's,Demo Black,1,"3 years parts, 1 year labor (Free)",CreditCard ,296.92,3895.92,3895.92,,3895.92,TC#066115532733829817469 Ap#006351 Ap#600138,,,,,,,,,,,,,,,,,,,,,,0.00,Jamie Spade,682-472-2483,11/5/2017 12:00:00 AM,,Picked up by customer,TX,,
101714,11/5/2017 12:55:28 PM,Sam's Club #6244 Fort Worth  10/26-11/05 (TX),Gail Kerns,DWA-9100DWA-9100CH,Legacy for Sam's,Choco,1,"3 years parts, 1 year labor (Free)",CreditCard ,329.92,4328.91,4328.91,,4328.91,Approval#00839,,,,,,,,,,,,,,,,,,,,,,350.00,Wes Gardner,817-676-3508,,,,TX,,
101714,11/5/2017 12:55:28 PM,Sam's Club #6244 Fort Worth  10/26-11/05 (TX),Gail Kerns,USJ-849USJ-849,Vitality Plate for Sam's,New,1,"2 years parts, 1 year labor (Small Items)",CreditCard ,329.92,4328.91,4328.91,,4328.91,Approval#00839,,,,,,,,,,,,,,,,,,,,,,350.00,Wes Gardner,817-676-3508,,,,TX,,
101715,11/5/2017 1:08:22 PM,Sam's Club #6244 Fort Worth  10/26-11/05 (TX),Gail Kerns,USJ-849USJ-849,Vitality Plate for Sam's,New,1,"2 years parts, 1 year labor (Small Items)",CreditCard ,4.95,464.94,464.94,,497.94,Ap#001472,,,,,,,,,,,,,,,,,,,,,,0.00,Brian Pohlman,817-371-3371,11/13/2017 12:00:00 AM,,,TX,,
101716,11/5/2017 1:21:14 PM,Sam's Club #6623 (CA),Michael Wang,USJ-871,Foot Vibe Pro,,1,"2 years parts, 1 year labor (Small Items)",CreditCard ,9.07,119.06,119.06,,0.00,Paid in full approval number 001040,,,,,,,,,,,,,,,,,,,,,,0.00,Brenda Clark,9162547255,,,,CA,,
101717,11/5/2017 1:46:08 PM,Sam's Club #8224 11/2-11/12/17 (TX),Christoper Richard Williams,USJ-849USJ-849,Vitality Plate for Sam's,New,1,"2 years parts, 1 year labor (Small Items)",CreditCard ,37.95,497.94,497.94,,0.00,08756b,,,,,,,,,,,,,,,,,,,,,,0.00,Susan Gill,9072292298,,,,TX,,
101718,11/5/2017 2:00:58 PM,Sam's Club #8224 11/2-11/12/17 (TX),Christoper Richard Williams,,Ninja Leg Massager,,1,"2 years parts, 1 year labor (Small Items)",CreditCard ,31.27,410.27,410.27,,0.00,00718Z,,,,,,,,,,,,,,,,,,,,,,0.00,Veola Washington,9407666154,,,Sold for 497.94,TX,,
101719,11/5/2017 3:43:08 PM,Sam's Club #6244 Fort Worth  10/26-11/05 (TX),Gail Kerns,USJ-849USJ-849,Vitality Plate for Sam's,New,1,"2 years parts, 1 year labor (Small Items)",CreditCard ,4.95,464.94,464.94,,432.99,000715,,,,,,,,,,,,,,,,,,,,,,0.00,Olivia Suits,817-280-2332,11/10/2017 12:00:00 AM,,,TX,,
101720,11/5/2017 4:25:54 PM,Sam's Club #6244 Fort Worth  10/26-11/05 (TX),Gail Kerns,DWA-9100DWA-9100CH,Legacy for Sam's,Choco,1,"3 years parts, 1 year labor (Free)",CreditCard ,354.67,4653.67,4653.67,,4653.67,App#001579,,,,,,,,,,,,,,,,,,,,,,350.00,James Burleson,682-438-3784,,,,TX,,
101721,11/5/2017 4:27:26 PM,Health and Wellness Plano Store 2017 (TX),Tianlong Jia,DWA-9100DWA-9100CH,Legacy,Choco Brown,1,"3 years parts, 1 year labor (Free)",Cash ,270.55,4300.00,4300.00,,4300.00,,,,,,,,,,,,,,,,,,,,,,,350.00,Mei Delmont,9033273793,11/12/2017 12:00:00 AM,,,TX,,
101722,11/5/2017 4:54:04 PM,Sam's Club #6387 10/26-11/5 (FL),Gary Cyrlin,DWA-9100DWA-9100CH,Legacy for Sam's,Choco,1,"3 years parts, 3 years labor ($400)",CreditCard ,251.80,4599.00,4599.00,,4599.00,001828,,,,,,,,,,,,,,,,,,,,,,0.00,Roslyn Start,9049932456,11/22/2017 12:00:00 AM,,,FL,,
101723,11/5/2017 10:02:33 PM,Mitsuwa  IL 10/27-11/5/17 (IL),May Kam,DWA-9150USJ-9150BL-DEMO,Legacy 3D,Demo Black,1,"3 years parts, 1 year labor (Free)",CreditCard COD,254.60,3550.60,3550.60,,200.00,75928E,,,,,,COD,,,,,,,,,,,,,,,,350.00,Family Kobayashi,8159880076,11/11/2017 12:00:00 AM,,,TX,,
101724,11/5/2017 10:37:17 PM,Mitsuwa  IL 10/27-11/5/17 (IL),May Kam,DWA-9060USJ-9060BR-DEMO,Relax2Zero 3D,Demo Choco Brown,1,"3 years parts, 1 year labor (Free)",Synchrony ,360.00,3960.00,3960.00,,3960.00,,,6034610081610142,80568937,San Diego,36 months,,,,,,,,,,,,,,,,,0.00,Roland Droitsch,8476580713,11/5/2017 12:00:00 AM,,,TX,,
101725,11/6/2017 12:14:07 AM,Mitsuwa  IL 10/27-11/5/17 (IL),May Kam,DWA-9150USJ-9150BL-DEMO,Legacy 3D,Demo Black,1,"3 years parts, 1 year labor (Free)",CreditCard ,272.80,3750.80,3750.80,,3750.00,05680B,,,,,,,,,,,,,,,,,,,,,,0.00,Charles Baker,9097099550,,,,TX,,
101726,11/6/2017 12:30:11 AM,Mitsuwa  IL 10/27-11/5/17 (IL),May Kam,DWA-9150USJ-9150BL,Legacy 3D,Black,1,"3 years parts, 1 year labor (Free)",Synchrony ,317.80,4245.80,4245.80,,4245.00,,,6034610081615828,80657535,San Diego,36 months,,,,,,,,,,,,,,,,,0.00,Rupert Delcampo,8472440193,11/18/2017 12:00:00 AM,,,TX,,
101726,11/6/2017 12:30:11 AM,Mitsuwa  IL 10/27-11/5/17 (IL),May Kam,,Daiwa Blanket,,1,no warranty,Synchrony ,317.80,4245.80,4245.80,,4245.00,,,6034610081615828,80657535,San Diego,36 months,,,,,,,,,,,,,,,,,0.00,Rupert Delcampo,8472440193,11/18/2017 12:00:00 AM,,,TX,,
101727,11/6/2017 3:06:34 AM,Mitsuwa  IL 10/27-11/5/17 (IL),May Kam,DWA-9150USJ-9150CH,Legacy 3D,Choco Brown,1,"3 years parts, 1 year labor (Free)",CreditCard COD,259.10,3600.10,3600.10,,200.00,005748,,,,,,COD,,,,,,,,,,,,,,,,0.00,Jin Park,2243925263,,,,TX,,
101727,11/6/2017 3:06:34 AM,Mitsuwa  IL 10/27-11/5/17 (IL),May Kam,,Daiwa Blanket,,1,no warranty,CreditCard COD,259.10,3600.10,3600.10,,200.00,005748,,,,,,COD,,,,,,,,,,,,,,,,0.00,Jin Park,2243925263,,,,TX,,
101728,11/6/2017 3:36:13 AM,Mitsuwa  IL 10/27-11/5/17 (IL),May Kam,DWA-9060USJ-9060BL-DEMO,Relax2Zero 3D,Demo Black,1,"3 years parts, 1 year labor (Free)",CreditCard COD,281.90,3850.90,3850.90,,200.00,06488Z,,,,,,COD,,,,,,,,,,,,,,,,350.00,Banghui Wu,8479251780,11/15/2017 12:00:00 AM,,,TX,,
101729,11/6/2017 4:01:51 AM,Mitsuwa  IL 10/27-11/5/17 (IL),May Kam,DWA-9150USJ-9150CH,Legacy 3D,Choco Brown,1,"3 years parts, 1 year labor (Free)",Synchrony ,368.00,4798.00,4798.00,,4797.00,,,6034610081615836,80657852,San Diego,36 months,,,,,,,,,,,,,,,,,0.00,Nguyet Nguyen,5157084148,,,,TX,,
101729,11/6/2017 4:01:51 AM,Mitsuwa  IL 10/27-11/5/17 (IL),May Kam,,Daiwa Blanket,,1,no warranty,Synchrony ,368.00,4798.00,4798.00,,4797.00,,,6034610081615836,80657852,San Diego,36 months,,,,,,,,,,,,,,,,,0.00,Nguyet Nguyen,5157084148,,,,TX,,
101730,11/6/2017 8:38:50 AM,Health and Wellness Houston Store 2017 (TX),Lisa Zhou,DWA-9100DWA-9100CH,Legacy,Choco Brown,1,"3 years parts, 1 year labor (Free)",CreditCard ,232.45,3800.00,3800.00,,300.00,61WW,,,,,,,,,,,,,,,,,,,,,,0.00,Phu Vo,832-605-7517,,,"Customer has requier to be deliver after 12/23/2017,please call to confirm.thank you. This sale made with Yi Chuang Debbie yang and Ji .",Not Dispatched,,
101730,11/6/2017 8:38:50 AM,Health and Wellness Houston Store 2017 (TX),Lisa Zhou,,Chair Pad for Legacy,,1,no warranty,CreditCard ,232.45,3800.00,3800.00,,300.00,61WW,,,,,,,,,,,,,,,,,,,,,,0.00,Phu Vo,832-605-7517,,,"Customer has requier to be deliver after 12/23/2017,please call to confirm.thank you. This sale made with Yi Chuang Debbie yang and Ji .",Not Dispatched,,
101730,11/6/2017 8:38:50 AM,Health and Wellness Houston Store 2017 (TX),Lisa Zhou,,Foot Pads for Legacy,,1,no warranty,CreditCard ,232.45,3800.00,3800.00,,300.00,61WW,,,,,,,,,,,,,,,,,,,,,,0.00,Phu Vo,832-605-7517,,,"Customer has requier to be deliver after 12/23/2017,please call to confirm.thank you. This sale made with Yi Chuang Debbie yang and Ji .",Not Dispatched,,
101731,11/6/2017 10:17:46 AM,Sam's Club Fullerton #6616  11/2-11/12 (CA),Joseph Chan,USJ-871,Foot Vibe Pro,,1,"2 years parts, 1 year labor (Small Items)",Cash ,8.52,118.51,118.51,,118.51,,,,,,,,,,,,,,,,,,,,,,,0.00,Bassel Balouk,714-738-7755,,,,CA,,
101732,11/6/2017 11:02:50 AM,Sam's Club #6623 (CA),Michael Wang,,Ninja Leg Massager,,1,"2 years parts, 1 year labor (Small Items)",CreditCard ,31.27,410.27,410.27,,0.00,Paid in full approval number 866364,,,,,,,,,,,,,,,,,,,,,,0.00,Iuri Cuzeac,9167682415,,,,CA,,
101733,11/6/2017 12:19:42 PM,NRA 11/3-6/17 (IL),Ruben Cuatrona,DWA-9150USJ-9150BL-DEMO,Legacy 3D,Demo Black,1,"3 years parts, 1 year labor (Free)",Synchrony CreditCard,255.74,3500.74,3500.74,,0.00,,,6034610081612221,80603974,San Diego,36 months,CreditCard,,,,,,,,,,,,,,,,350.00,Fernando Resendiz,3122175654,11/14/2017 12:00:00 AM,,"Fernando $2000 synchrony, $1500 cc",TX,,
101734,11/6/2017 12:35:16 PM,NRA 11/3-6/17 (IL),Melissa Motooka,DWA-9150USJ-9150CH,Legacy 3D,Choco Brown,1,"3 years parts, 1 year labor (Free)",CreditCard ,348.64,4500.01,4500.01,,0.00,07031P,,,,,,,,,,,,,,,,,,,,,,0.00,Todd Haigh,6127015347,,,,TX,,
101735,11/6/2017 3:23:52 PM,Health&Wellness San Diego,Alan Zeng,DWA-9060USJ-9060BL,Relax2Zero 3D,Black,1,"3 years parts, 1 year labor (Free)",CreditCard ,305.75,4200.00,4200.00,,0.00,5656,,,,,,,,,,,,,,,,,,,,,,0.00,PHUOC HANG,5109151718,12/5/2017 12:00:00 AM,,,CA,,
101735,11/6/2017 3:23:52 PM,Health&Wellness San Diego,Alan Zeng,,Chair Pad for Relax2Zero 3D,,1,no warranty,CreditCard ,305.75,4200.00,4200.00,,0.00,5656,,,,,,,,,,,,,,,,,,,,,,0.00,PHUOC HANG,5109151718,12/5/2017 12:00:00 AM,,,CA,,
101735,11/6/2017 3:23:52 PM,Health&Wellness San Diego,Alan Zeng,,Foot Pads for Relax2Zero 3D,,1,no warranty,CreditCard ,305.75,4200.00,4200.00,,0.00,5656,,,,,,,,,,,,,,,,,,,,,,0.00,PHUOC HANG,5109151718,12/5/2017 12:00:00 AM,,,CA,,
101736,11/6/2017 4:32:32 PM,Sam's Club #8177 11/2-12/17 (LV),Laser Howell,DWA-9100DWA-9100SB,Legacy for Sam's,Sienna Brown,1,"3 years parts, 1 year labor (Free)",Cash ,296.92,3895.92,3895.92,,0.00,,,,,,,,,,,,,,,,,,,,,,,0.00,anna barber,5629656818,11/8/2017 12:00:00 AM,,"gate code #9000
please give new chair",NV,,
101737,11/6/2017 7:39:35 PM,NRA 11/3-6/17 (IL),Melissa Motooka,DWA-9150USJ-9150CH,Legacy 3D,Choco Brown,1,"3 years parts, 1 year labor (Free)",CreditCard ,390.53,4950.53,4950.53,,0.00,894673,,,,,,,,,,,,,,,,,,,,,,0.00,Janice Givens,2525377296,12/1/2017 12:00:00 AM,,,FL,,
101738,11/6/2017 7:52:35 PM,NRA 11/3-6/17 (IL),Rolly San Jose,DWA-9150USJ-9150CH,Legacy 3D,Choco Brown,1,"3 years parts, 1 year labor (Free)",Synchrony ,348.64,4500.00,4500.00,,0.00,,,6034610081615927,80662478,San Diego,36 months,,,,,,,,,,,,,,,,,0.00,Cheryl Poteet,2392939393,,,,FL,,
101739,11/6/2017 8:01:53 PM,NRA 11/3-6/17 (IL),Melissa Motooka,DWA-9060USJ-9060BR,Relax2Zero 3D,Choco Brown,1,"3 years parts, 1 year labor (Free)",Synchrony ,390.48,4950.00,4950.00,,0.00,,,6034610081615935,80662758,San Diego,36 months,,,,,,,,,,,,,,,,,0.00,Lisa Funk,6189103865,,,,TX,,
101740,11/6/2017 8:15:07 PM,NRA 11/3-6/17 (IL),Ruben Cuatrona,DWA-9150USJ-9150BL-DEMO,Legacy 3D,Demo Black,1,"3 years parts, 1 year labor (Free)",CreditCard ,255.67,3500.00,3500.00,,0.00,01970D,,,,,,,,,,,,,,,,,,,,,,350.00,Paul Paterakis,8473663455,11/14/2017 12:00:00 AM,,,TX,,
101741,11/6/2017 8:34:06 PM,NRA 11/3-6/17 (IL),Ruben Cuatrona,DWA-9150USJ-9150BL,Legacy 3D,Black,1,"3 years parts, 1 year labor (Free)",CreditCard ,283.56,3800.00,3800.00,,0.00,09338D,,,,,,,,,,,,,,,,,,,,,,0.00,Maurel Samonte,7735934261,11/16/2017 12:00:00 AM,,,TX,,
101742,11/7/2017 5:22:22 AM,Dema Show 11/1-4/17 (FL),Rodrigo Malabunga,DWA-9150USJ-9150BL,Legacy 3D,Black,1,"3 years parts, 1 year labor (Free)",CreditCard ,180.05,3700.00,3700.00,,3700.00,99018Z,,,,,,,,,,,,,,,,,,,,,,350.00,Maurice Squires,2546816889,12/14/2017 12:00:00 AM,,Paid in full through CC machine,TX,,
101743,11/7/2017 7:18:44 AM,"International Pool, Spa and Patio Expo 2017",Mitch Valdes,DWA-9060USJ-9060BR,Relax2Zero 3D,Choco Brown,1,"3 years parts, 1 year labor (Free)",Synchrony ,192.27,3900.27,3900.27,,3900.00,,,6034610081607726,80510449,San Diego,36 months,,,,,,,,,,,,,,,,,0.00,Steve Ohnemus,805-302-3306,11/10/2017 12:00:00 AM,,,CA,,
101744,11/7/2017 7:24:22 AM,"International Pool, Spa and Patio Expo 2017",Mitch Valdes,DWA-9400Pegasus-BL,Pegasus,Black,1,"3 years parts, 1 year labor (Free)",CreditCard ,259.39,5000.00,5000.00,,5000.00,101136,,,,,,,,,,,,,,,,,,,,,,350.00,Jennifer Grigsby,903-399-3629,12/1/2017 12:00:00 AM,,,TX,,
101745,11/7/2017 7:29:30 AM,"International Pool, Spa and Patio Expo 2017",Mitch Valdes,DWA-9150USJ-9150CH,Legacy 3D,Choco Brown,2,"3 years parts, 1 year labor (Free)",CreditCard ,430.28,7800.00,7800.00,,7800.00,004266,,,,,,,,,,,,,,,,,,,,,,350.00,Andrew Schneider,517-783-3067,11/21/2017 12:00:00 AM,,,TX,,
101746,11/7/2017 7:36:31 AM,"International Pool, Spa and Patio Expo 2017",Mitch Valdes,DWA-9060USJ-9060BR-DEMO,Relax2Zero 3D,Demo Choco Brown,1,"3 years parts, 1 year labor (Free)",CreditCard ,189.20,3500.00,3500.00,,3500.00,532287,,,,,,,,,,,,,,,,,,,,,,0.00,Sean Andersen,602-626-4050,11/10/2017 12:00:00 AM,,,NV,,
101747,11/7/2017 9:22:29 AM,Sam's Club #8265 11/2-11/12/17 (TX),Keith Kei,DWA-9100DWA-9100GD,Legacy for Sam's,Gold,1,"3 years parts, 1 year labor (Free)",PURCHASEORDER ,462.14,4761.14,4761.14,,0.00,,TC# 4148907273619214078378,,,,,,,,,,,,,,,,,,,,,350.00,Ernest Lowery,3373041739,11/10/2017 12:00:00 AM,,"Primary contact number: 3373041739
Call to confirm shipping address
Customer paid in full through sam's club.",TX,,
101748,11/7/2017 9:27:14 AM,Sam's Club #6685 10/19-29 (LV),Laser Howell,DWA-9100DWA-9100SB,Legacy for Sam's,Sienna Brown,1,"3 years parts, 1 year labor (Free)",Cash ,290.18,4589.18,4589.18,,0.00,,,,,,,,,,,,,,,,,,,,,,,0.00,Lafe Peavler,(801)377-5832,11/8/2017 12:00:00 AM,,,NV,,
101749,11/7/2017 9:32:33 AM,Sam's Club #6685 10/19-29 (LV),Laser Howell,DWA-9100DWA-9100SB,Legacy for Sam's,Sienna Brown,1,"3 years parts, 1 year labor (Free)",Cash ,242.93,3841.93,3841.93,,0.00,,,,,,,,,,,,,,,,,,,,,,,0.00,Lewis Mullins,(435)851-9659,11/22/2017 12:00:00 AM,,please give new chair,NV,,
101750,11/7/2017 9:36:18 AM,Sam's Club #8177 11/2-12/17 (LV),Laser Howell,USJ-9050USJ-9050BL,Relax2Zero 2.0 for Sam's,Black,1,"3 years parts, 1 year labor (Free)",Cash ,263.92,3462.92,3462.92,,0.00,,,,,,,,,,,,,,,,,,,,,,,0.00,Roman Possedi,(702)456-8353,11/6/2017 12:00:00 AM,,delivered on 11-06-17,NV,,
101751,11/7/2017 9:42:04 AM,Sam's Club #8265 11/2-11/12/17 (TX),Keith Kei,DWA-9100DWA-9100BL-DEMO,Legacy for Sam's,Demo Black,1,"3 years parts, 1 year labor (Free)",PURCHASEORDER ,386.89,3985.89,3985.89,,0.00,,TC# 4929758180447039154506,,,,,,,,,,,,,,,,,,,,,350.00,Joey Kulaga,3373048895,11/10/2017 12:00:00 AM,,"Invoice #5 
Primary contact: 3373048895
Paid in full through sam's club",TX,,
101752,11/7/2017 9:49:41 AM,Sam's Club #8265 11/2-11/12/17 (TX),Keith Kei,,Ninja Leg Massager,,1,"3 years parts, 1 year labor (Free)",PURCHASEORDER ,40.74,419.74,419.74,,0.00,,TC# 86365545677362842701,,,,,,,,,,,,,,,,,,,,,0.00,Joey Kulaga,3373048895,,,"Invoice #6
Paid through sams
Picked up already.",TX,,
101753,11/7/2017 10:00:10 AM,Sam's Club #8265 11/2-11/12/17 (TX),Keith Kei,USJ-849USJ-849,Vitality Plate for Sam's,New,1,"3 years parts, 1 year labor (Free)",PURCHASEORDER ,49.45,509.44,509.44,,0.00,,TC# 386164941056391514782,,,,,,,,,,,,,,,,,,,,,0.00,Keatha Poullard,3373048430,,,"Invoice #7
Paid in full through sams
Picked up already.",TX,,
101754,11/7/2017 10:46:34 AM,Main office (CA),May Kam,DWA-9100DWA-9100BU,Legacy,Blue,1,"3 years parts, 1 year labor (Free)",CreditCard COD,228.66,3450.66,3450.66,,200.00,84469P,,,,,,COD,,,,,,,,,,,,,,,,0.00,Koongyin Voon,6262360315,11/14/2017 12:00:00 AM,,,CA,,
101754,11/7/2017 10:46:34 AM,Main office (CA),May Kam,,Daiwa Blanket,,1,no warranty,CreditCard COD,228.66,3450.66,3450.66,,200.00,84469P,,,,,,COD,,,,,,,,,,,,,,,,0.00,Koongyin Voon,6262360315,11/14/2017 12:00:00 AM,,,CA,,
101755,11/7/2017 11:09:58 AM,Mitsuwa  IL 10/27-11/5/17 (IL),May Kam,DWA-9150USJ-9150BL-DEMO,Legacy 3D,Demo Black,1,"3 years parts, 1 year labor (Free)",CreditCard ,291.00,3951.00,3951.00,,3950.00,00461D,,,,,,,,,,,,,,,,,,,,,,350.00,Yaqun Liu,8472757538,11/17/2017 12:00:00 AM,,,TX,,
101755,11/7/2017 11:09:58 AM,Mitsuwa  IL 10/27-11/5/17 (IL),May Kam,,Daiwa Blanket,,1,no warranty,CreditCard ,291.00,3951.00,3951.00,,3950.00,00461D,,,,,,,,,,,,,,,,,,,,,,350.00,Yaqun Liu,8472757538,11/17/2017 12:00:00 AM,,,TX,,
101756,11/7/2017 11:25:56 AM,Mitsuwa  IL 10/27-11/5/17 (IL),May Kam,DWA-9150USJ-9150BL-DEMO,Legacy 3D,Demo Black,1,"3 years parts, 1 year labor (Free)",Synchrony CreditCard,295.00,3995.00,3995.00,,3000.00,,,6034610081610597,80581872,San Diego,36 months,CreditCard,,,,,,,,,,,,,,,,350.00,Krisel Reyes,7089855625,11/13/2017 12:00:00 AM,,,TX,,
101757,11/7/2017 12:05:03 PM,Mitsuwa  IL 10/27-11/5/17 (IL),May Kam,DWA-9060USJ-9060BR-DEMO,Relax2Zero 3D,Demo Choco Brown,1,"3 years parts, 1 year labor (Free)",CreditCard COD,291.00,3951.00,3951.00,,50.00,020316,,,,,,COD,,,,,,,,,,,,,,,,0.00,Daisy Kuroha,2245203604,,,"When the customer paid off $2000, we delivery chair, balance will pay within one year.Special layaway plan",Not Dispatched,,
101758,11/7/2017 3:50:38 PM,Sam's Club #4801 10/26-11/5 (FL),Gary Cyrlin,USJ-9050USJ-9050BR,Relax2Zero 2.0 for Sam's,Brown,1,"3 years parts, 1 year labor (Free)",CreditCard ,223.93,4172.93,4172.93,,4173.00,02092A,,,,,,,,,,,,,,,,,,,,,,0.00,Danny Gibble,7275202162,11/17/2017 12:00:00 AM,,,FL,,
101759,11/7/2017 3:54:31 PM,Sam's Club #8224 11/2-11/12/17 (TX),Christoper Richard Williams,,Ninja Leg Massager,,1,"2 years parts, 1 year labor (Small Items)",CreditCard ,31.27,410.27,410.27,,0.00,007798,,,,,,,,,,,,,,,,,,,,,,0.00,Hugo Barron,9408672516,,,,TX,,
101760,11/7/2017 4:01:44 PM,Sam's Club #8224 11/2-11/12/17 (TX),Christoper Richard Williams,DWA-9100DWA-9100BL,Legacy for Sam's,Blue,1,"3 years parts, 1 year labor (Free)",CreditCard ,354.67,4653.67,4653.67,,0.00,09611d,,,,,,,,,,,,,,,,,,,,,,350.00,Primo Galvez,9407280295,12/7/2017 12:00:00 AM,,,TX,,
101761,11/8/2017 9:05:21 AM,Health and Wellness Houston Store 2017 (TX),Lisa Zhou,DWA-9100DWA-9100BL,Legacy,Black,1,"3 years parts, 1 year labor (Free)",CreditCard CreditCard,224.83,3700.00,3700.00,,300.00,8erq,,,,,,CreditCard,3400.00,07322G,,,,,,,0.00,,,,,,,350.00,ADL Enterprise ADL Enterprise,832-228-1386,11/14/2017 12:00:00 AM,,,TX,,
101761,11/8/2017 9:05:21 AM,Health and Wellness Houston Store 2017 (TX),Lisa Zhou,,Chair Pad for Legacy,,1,no warranty,CreditCard CreditCard,224.83,3700.00,3700.00,,300.00,8erq,,,,,,CreditCard,3400.00,07322G,,,,,,,0.00,,,,,,,350.00,ADL Enterprise ADL Enterprise,832-228-1386,11/14/2017 12:00:00 AM,,,TX,,
101761,11/8/2017 9:05:21 AM,Health and Wellness Houston Store 2017 (TX),Lisa Zhou,,Foot Pads for Legacy,,1,no warranty,CreditCard CreditCard,224.83,3700.00,3700.00,,300.00,8erq,,,,,,CreditCard,3400.00,07322G,,,,,,,0.00,,,,,,,350.00,ADL Enterprise ADL Enterprise,832-228-1386,11/14/2017 12:00:00 AM,,,TX,,
101762,11/8/2017 9:59:42 AM,Health and Wellness Carrollton Store 2017 (TX),Mijung Song,DWA-9100DWA-9100CH,Legacy,Choco Brown,1,"3 years parts, 1 year labor (Free)",CreditCard ,240.08,3900.08,3900.08,,0.00,TkKu,,,,,,,,,,,,,,,,,,,,,,350.00,Don Tam,2143363029,,,,TX,,
101763,11/8/2017 10:05:39 AM,Sam's Club #6188 Austin 10/19-10/29 (TX),Rachelle Estanilla,,Ninja Leg Massager,,1,"2 years parts, 1 year labor (Small Items)",CreditCard ,31.27,410.27,410.27,,0.00,# 02158D,,,,,,,,,,,,,,,,,,,,,,0.00,Nithya Mandala,3157445809,,,,TX,,
101764,11/8/2017 12:50:34 PM,Health&Wellness Factory AGM (CA),Jessica Phung,,Chair Pad for Legacy 3D,,1,no warranty,COD ,261.54,4000.54,4000.54,,4000.54,,,,,,,,,,,,,,,,,,,,,,,0.00,Jimmy Ta,858-717-0482,11/14/2017 12:00:00 AM,,,CA,,
101764,11/8/2017 12:50:34 PM,Health&Wellness Factory AGM (CA),Jessica Phung,,Foot Pads for Legacy 3D,,1,no warranty,COD ,261.54,4000.54,4000.54,,4000.54,,,,,,,,,,,,,,,,,,,,,,,0.00,Jimmy Ta,858-717-0482,11/14/2017 12:00:00 AM,,,CA,,
101764,11/8/2017 12:50:34 PM,Health&Wellness Factory AGM (CA),Jessica Phung,DWA-9150USJ-9150BL, AGM Legacy 3D,Black,1,"3 years parts, 1 year labor (Free)",COD ,261.54,4000.54,4000.54,,4000.54,,,,,,,,,,,,,,,,,,,,,,,0.00,Jimmy Ta,858-717-0482,11/14/2017 12:00:00 AM,,,CA,,
101765,11/8/2017 1:49:59 PM,Health and Wellness Houston Store 2017 (TX),Lisa Zhou,DWA-9100DWA-9100BL,Legacy,Black,1,"3 years parts, 1 year labor (Free)",COD CreditCard,224.83,3700.00,3700.00,,300.00,,,,,,,CreditCard,,,,,,,,,,,,,,,,350.00,ADL Enterise,8322281386,11/14/2017 12:00:00 AM,,,TX,,
101766,11/8/2017 1:57:40 PM,Health and Wellness Houston Store 2017 (TX),Xiongxiaojun Ji,DWA-9150USJ-9150CH,Legacy 3D,Choco Brown,1,"3 years parts, 3 years labor ($400)",CreditCard ,298.85,4871.25,4871.25,,4871.25,YIOz,,,,,,,,,,,,,,,,,,,,,,350.00,Beei Chan,7138849488,11/14/2017 12:00:00 AM,,,TX,,
101767,11/8/2017 3:32:07 PM,Las Vegas SF Market (NV),Meiyan Yu,DWA-9100DWA-9100BL,SF Market Legacy,Black,1,"3 years parts, 1 year labor (Free)",Cash ,207.25,3500.25,3500.25,,0.00,,,,,,,,,,,,,,,,,,,,,,,0.00,Chun hwa Li,626-614-6748,11/17/2017 12:00:00 AM,,,NV,,
101768,11/8/2017 5:49:53 PM,Sam's Club #6623 (CA),Michael Wang,USJ-871,Foot Vibe Pro,,1,"2 years parts, 1 year labor (Small Items)",CreditCard ,8.52,118.51,118.51,,0.00,Paid in full auth number 01264c,,,,,,,,,,,,,,,,,,,,,,0.00,Joe Mann,9168066266,,,,CA,,
101769,11/8/2017 6:46:14 PM,Sam's Club #6627 11/2-12/17 (CA),Rodrigo Malabunga,DWA-9100DWA-9100GD,Legacy for Sam's,Gold,1,"3 years parts, 2 years labor ($200)",CreditCard ,254.57,3913.91,3913.91,,3913.91,808588,,,,,,,,,,,,,,,,,,,,,,0.00,Michael Ho,310 413 1160,11/12/2017 12:00:00 AM,,,CA,,
101770,11/8/2017 10:01:51 PM,Sam's Club #6627 11/2-12/17 (CA),Rodrigo Malabunga,USJ-849USJ-849-DEMO,Vitality Plate for Sam's,Deomo,1,"2 years parts, 1 year labor (Small Items)",CreditCard ,35.00,434.99,434.99,,434.99,000989,,,,,,,,,,,,,,,,,,,,,,0.00,Maria Villa,714 901 6974,,,,CA,,
101771,11/8/2017 10:15:56 PM,Sam's Club #6627 11/2-12/17 (CA),Rodrigo Malabunga,USJ-871,Foot Vibe Pro,,1,"2 years parts, 1 year labor (Small Items)",Cash ,9.62,119.61,119.61,,119.60,,,,,,,,,,,,,,,,,,,,,,,0.00,Jose Guzman,714 610 6666,,,,CA,,
101772,11/8/2017 10:22:19 PM,Sam's Club #6627 11/2-12/17 (CA),Rodrigo Malabunga,USJ-871,Foot Vibe Pro,,1,"2 years parts, 1 year labor (Small Items)",Cash ,9.62,119.61,119.61,,119.61,,,,,,,,,,,,,,,,,,,,,,,0.00,Pablo Villa,714 901 6974,,,,CA,,
101773,11/9/2017 8:12:09 AM,Sam's Club #8224 11/2-11/12/17 (TX),Christoper Richard Williams,,Ninja Leg Massager,,1,"2 years parts, 1 year labor (Small Items)",Check ,31.27,410.27,410.27,,0.00,,,,,,,,,,,,,,,,,,,,,,,0.00,Micheal Powd,9407236001,,,,TX,,
101774,11/9/2017 9:42:19 AM,Sam's Club #8265 11/2-11/12/17 (TX),Keith Kei,DWA-9100DWA-9100CH-DEMO,Legacy for Sam's,Demo Choco,1,"3 years parts, 1 year labor (Free)",PURCHASEORDER ,386.89,3985.89,3985.89,,0.00,,TC# 2740496166277157392914,,,,,,,,,,,,,,,,,,,,,350.00,Yolanda Denton,8173123134,11/16/2017 12:00:00 AM,,"Invoice #8
Paid in full through Sam's club.",TX,,
101775,11/9/2017 9:50:11 AM,Sam's Club #8265 11/2-11/12/17 (TX),Keith Kei,USJ-849USJ-849,Vitality Plate for Sam's,New,1,"3 years parts, 1 year labor (Free)",PURCHASEORDER ,49.45,509.44,509.44,,0.00,,TC# 298897678639214048358,,,,,,,,,,,,,,,,,,,,,0.00,John Jansen,3373533677,,,"Invoice #9
Paid in full through Sam's club
Item picked up by customer already.",TX,,
101776,11/9/2017 10:08:31 AM,Sam's Club #6439 11/2-11/12/17 (TX),Michael Wang,USJ-9050USJ-9050BR,Relax2Zero 2.0 for Sam's,Brown,1,"3 years parts, 1 year labor (Free)",CreditCard ,186.64,3199.00,3199.00,,3199.00,48513P,,,,,,,,,,,,,,,,,,,,,,0.00,Russ Nebhut,432-661-1029,11/10/2017 12:00:00 AM,,1 Extra Chair Pad (Total:2) and 1 Blanket are promotional gift. Also 1 USB Flash is including.,CA,,
101776,11/9/2017 10:08:31 AM,Sam's Club #6439 11/2-11/12/17 (TX),Michael Wang,,Daiwa Blanket,,1,no warranty,CreditCard ,186.64,3199.00,3199.00,,3199.00,48513P,,,,,,,,,,,,,,,,,,,,,,0.00,Russ Nebhut,432-661-1029,11/10/2017 12:00:00 AM,,1 Extra Chair Pad (Total:2) and 1 Blanket are promotional gift. Also 1 USB Flash is including.,CA,,
101776,11/9/2017 10:08:31 AM,Sam's Club #6439 11/2-11/12/17 (TX),Michael Wang,,Chair Pad for Relax2Zero 2.0,,1,no warranty,CreditCard ,186.64,3199.00,3199.00,,3199.00,48513P,,,,,,,,,,,,,,,,,,,,,,0.00,Russ Nebhut,432-661-1029,11/10/2017 12:00:00 AM,,1 Extra Chair Pad (Total:2) and 1 Blanket are promotional gift. Also 1 USB Flash is including.,CA,,
101777,11/9/2017 10:49:50 AM,Sam's Club #6387 10/26-11/5 (FL),Alex Brackelsberg,USJ-849USJ-849-DEMO,Vitality Plate for Sam's,Deomo,1,"2 years parts, 1 year labor (Small Items)",CreditCard ,28.00,427.99,427.99,,0.00,Eape272767e7b649,,,,,,,,,,,,,,,,,,,,,,0.00,Mohammed Chowdhury,3867857475,,,Customer picked up,FL,,
101778,11/9/2017 8:30:54 PM,Sam's Club #6623 11/2-11/12 (CA),Michael Wang,USJ-871,Foot Vibe Pro,,1,"2 years parts, 1 year labor (Small Items)",PURCHASEORDER ,8.52,118.51,118.51,,0.00,,Foot vibe pro #5,,,,,,,,,,,,,,,,,,,,,0.00,Daiwa Massage,800-241-2221,,,,CA,,
101779,11/10/2017 8:05:57 AM,Sam's Club #4785 11/9-11/19 (FL),Alex Brackelsberg,USJ-849USJ-849-DEMO,Vitality Plate for Sam's,Deomo,1,"2 years parts, 1 year labor (Small Items)",CreditCard ,26.10,399.00,399.00,,399.00,Eape272767e7b649,,,,,,,,,,,,,,,,,,,,,,0.00,Mohammed Chowdhury,386-785-7475,,,Total $399 (Tax Exempt),FL,,
101780,11/10/2017 8:07:11 AM,Sam's Club #8224 11/2-11/12/17 (TX),Christoper Richard Williams,DWA-9100DWA-9100BL,Legacy for Sam's,Blue,1,"3 years parts, 1 year labor (Free)",CreditCard ,354.67,4653.67,4653.67,,0.00,972863,,,,,,,,,,,,,,,,,,,,,,350.00,Berber Schurer,9407814460,11/15/2017 12:00:00 AM,,,TX,,
101781,11/10/2017 10:31:44 AM,Health and Wellness Carrollton Store 2017 (TX),Molly Zhao,DWA-9150USJ-9150BL,Legacy 3D,Black,1,"3 years parts, 1 year labor (Free)",Synchrony ,194.34,3500.00,3500.00,Synchrony,3500.00,,,6034610081622733,80860974,Huston,36 months,,0.00,,,,,,,,0.00,,,,,,,350.00,Qing Lin,9178262630,11/21/2017 12:00:00 AM,,,TX,,
101781,11/10/2017 10:31:44 AM,Health and Wellness Carrollton Store 2017 (TX),Molly Zhao,,Daiwa Blanket,,1,no warranty,Synchrony ,194.34,3500.00,3500.00,Synchrony,3500.00,,,6034610081622733,80860974,Huston,36 months,,0.00,,,,,,,,0.00,,,,,,,350.00,Qing Lin,9178262630,11/21/2017 12:00:00 AM,,,TX,,
101782,11/10/2017 1:30:17 PM,Sam's Club #6624 SAN BERNARDINO 11/9-19/17 (CA),Lori Daringer,DWA-9100DWA-9100CH,Legacy for Sam's,Choco,1,"3 years parts, 1 year labor (Free)",CreditCard ,343.92,4642.92,4642.92,,4642.92,001802,,,,,,,,,,,,,,,,,,,,,,0.00,Micheal Jedrysek,909-799-1921,11/11/2017 12:00:00 AM,,,CA,,
101783,11/10/2017 1:39:12 PM,Health and Wellness Plano Store 2017 (TX),Tianlong Jia,DWA-9100DWA-9100BL,Legacy,Black,1,"3 years parts, 1 year labor (Free)",Check ,247.69,4000.00,4000.00,,4000.00,,,,,,,,,,,,,,,,,,,,,,,350.00,Adam Stephen,4692124548,11/30/2017 12:00:00 AM,,,TX,,
101784,11/10/2017 1:52:16 PM,Sam's Club #4972 11/9-11/19 (FL),Robert Shih,DWA-9100DWA-9100CH,Legacy for Sam's,Choco,1,"2 years parts, 1 year labor (Small Items)",CreditCard ,233.94,3832.94,3832.94,,3832.94,TC# 0771 1041 4006 6291 9881 28,,,,,,,,,,,,,,,,,,,,,,0.00,Samon Nhean,7726185513,12/8/2017 12:00:00 AM,,Thank you very much for your business with us in the Sam's club Port St. Lucie / Deliver 2 - 3 weeks / Pls deliver the NEW one to the customer,FL,,
101785,11/10/2017 2:01:37 PM,Sam's Club #4835 11/9-11/19 (WA),Ilene Maynard,DWA-9100DWA-9100CH,Legacy for Sam's,Choco,1,"3 years parts, 1 year labor (Free)",CreditCard ,359.90,3958.90,3958.90,,0.00,510134,,,,,,,,,,,,,,,,,,,,,,0.00,Harvey Lesure,2067997296,,,,NV,,
101786,11/10/2017 2:51:36 PM,Sam's Club Fullerton #6616  11/2-11/12 (CA),Joseph Chan,,Ninja Leg Massager,,1,"2 years parts, 1 year labor (Small Items)",CreditCard ,29.37,408.37,408.37,,408.37,332508,,,,,,,,,,,,,,,,,,,,,,0.00,A J Johnson,562-408-1865,,,,CA,,
101787,11/10/2017 3:15:36 PM,Sam's Club #4972 11/9-11/19 (FL),Robert Shih,DWA-9100DWA-9100CH,Legacy for Sam's,Choco,1,"3 years parts, 1 year labor (Free)",CreditCard ,279.44,4578.44,4578.44,,4578.44,TC# 4248 4172 7861 9814 1434 35,,,,,,,,,,,,,,,,,,,,,,0.00,Barbara Allen,7725191504,11/21/2017 12:00:00 AM,,Thank you very much for your business with us in the Sam's club Port St Lucie  / Deliver about 2 - 3 weeks,FL,,
101788,11/10/2017 3:25:03 PM,Sam's Club #4972 11/9-11/19 (FL),Robert Shih,DWA-9100DWA-9100GD,Legacy for Sam's,Gold,1,"3 years parts, 1 year labor (Free)",CreditCard ,279.44,4578.44,4578.44,,4578.44,TC# 2009 2380 8643 7632 3252 59,,,,,,,,,,,,,,,,,,,,,,0.00,Eileen Frank,6033210361,11/21/2017 12:00:00 AM,,Thank you very much for your business with us in the Sam's club Port St Lucie / Deliver about 2 - 3 weeks.,FL,,
101789,11/10/2017 4:12:15 PM,Sam's Club #6624 SAN BERNARDINO 11/9-19/17 (CA),Lori Daringer,DWA-9100DWA-9100BL,Legacy for Sam's,Black,1,"3 years parts, 1 year labor (Free)",CreditCard ,343.92,4642.92,4642.92,,4642.92,001627,,,,,,,,,,,,,,,,,,,,,,0.00,Rob Warren,951-675-0764,11/11/2017 12:00:00 AM,,,CA,,
101790,11/10/2017 4:50:05 PM,Sam's Club #4972 11/9-11/19 (FL),Robert Shih,USJ-849USJ-849,Vitality Plate for Sam's,New,1,"2 years parts, 1 year labor (Small Items)",CreditCard ,29.90,489.89,489.89,,489.89,TC# 7775 2353 7911 5404 2070 0,,,,,,,,,,,,,,,,,,,,,,0.00,Luz Tavera,9549522288,,,Thank you very much for your business with us in the Sam's club Port St. Lucie / Picked up in store,FL,,
101791,11/10/2017 5:09:47 PM,Sam's Club #4835 11/9-11/19 (WA),Ilene Maynard,USJ-9050USJ-9050BR,Relax2Zero 2.0 for Sam's,Brown,1,"3 years parts, 1 year labor (Free)",CreditCard ,319.90,3518.90,3518.90,,0.00,05190B,,,,,,,,,,,,,,,,,,,,,,0.00,Hank Wang,4253585701,11/21/2017 12:00:00 AM,,,WA,,
101792,11/11/2017 6:13:29 AM,Sam's Club #8265 11/2-11/12/17 (TX),Keith Kei,DWA-9100DWA-9100CH-DEMO,Legacy for Sam's,Demo Choco,1,"3 years parts, 1 year labor (Free)",PURCHASEORDER ,386.89,3985.89,3985.89,,0.00,,TC# 8377819695865403218147,,,,,,,,,,,,,,,,,,,,,350.00,Michael Moreaux,3372461900,11/17/2017 12:00:00 AM,,,TX,,
101793,11/11/2017 6:21:49 AM,Sam's Club #8265 11/2-11/12/17 (TX),Keith Kei,DWA-9100DWA-9100GD-DEMO,Legacy for Sam's,Demo Gold,1,"3 years parts, 1 year labor (Free)",PURCHASEORDER ,386.89,3985.89,3985.89,,0.00,,TC# 0841174245040398575732,,,,,,,,,,,,,,,,,,,,,350.00,Bruce McClelland,4093130981,11/17/2017 12:00:00 AM,,"Invoice number 11
Paid in full through Sam's club",TX,,
101794,11/11/2017 9:16:19 AM,Sam's Club #4835 11/9-11/19 (WA),Ilene Maynard,,Ninja Leg Massager,,1,"2 years parts, 1 year labor (Small Items)",CreditCard ,37.90,416.90,416.90,,0.00,04884D Visa,,,,,,,,,,,,,,,,,,,,,,0.00,Raquelle Bassig,4259170468,,,,WA,,
101795,11/11/2017 1:42:42 PM,Sam's Club #4785 11/9-11/19 (FL),Alex Brackelsberg,DWA-9100DWA-9100CH,Legacy for Sam's,Choco,1,"3 years parts, 1 year labor (Free)",CreditCard ,251.93,3850.93,3850.93,,0.00,D8fd7b058doa8397,,,,,,,,,,,,,,,,,,,,,,0.00,Robert Brown,3213031706,11/15/2017 12:00:00 AM,,,FL,,
101796,11/11/2017 1:59:23 PM,Sam's Club #6240 GLENDORA 11/9-19/17 (CA),Patricia Whipple,USJ-9050USJ-9050BR,Relax2Zero 2.0 for Sam's,Brown,1,"3 years parts, 1 year labor (Free)",CreditCard ,303.91,3502.91,3502.91,,0.00,O13593,,,,,,,,,,,,,,,,,,,,,,0.00,Cheryl Winkelman,(909)938-3690,12/8/2017 12:00:00 AM,,"New RELAX2ZERO 
(Vetrans Day Special)",CA,,
101797,11/11/2017 4:16:32 PM,Health and Wellness Plano Store 2017 (TX),Tianlong Jia,DWA-9100DWA-9100CH,Legacy,Choco Brown,1,"3 years parts, 1 year labor (Free)",CreditCard ,247.69,4000.00,4000.00,,4000.00,3jzq,,,,,,,,,,,,,,,,,,,,,,350.00,Shahid Aziz,4697745963,11/21/2017 12:00:00 AM,,,TX,,
101798,11/11/2017 5:49:11 PM,Sam's Club #6623 11/2-11/12 (CA),Michael Wang,USJ-871,Foot Vibe Pro,,1,"2 years parts, 1 year labor (Small Items)",PURCHASEORDER ,8.52,118.51,118.51,,0.00,,Foot vibe Order 6,,,,,,,,,,,,,,,,,,,,,0.00,Daiwa Massage,800-241-2221,,,,CA,,
101799,11/11/2017 5:50:27 PM,Sam's Club #4972 11/9-11/19 (FL),Robert Shih,DWA-9100DWA-9100CH,Legacy for Sam's,Choco,1,"3 years parts, 1 year labor (Free)",CreditCard ,233.94,3832.94,3832.94,,3832.94,TC# 9205 8932 3099 3547 4057 50,,,,,,,,,,,,,,,,,,,,,,0.00,Yiu man Siu,5613798000,,,Thank you very much for your business with us in the Sam's club Port St Lucie FL / Pls on hold the deliver about 2 months / Pls deliver the NEW chair to the customer.,FL,,
101800,11/11/2017 6:06:39 PM,Sam's Club #4835 11/9-11/19 (WA),Ilene Maynard,DWA-9100DWA-9100CH,Legacy for Sam's,Choco,1,"3 years parts, 1 year labor (Free)",CreditCard ,359.90,3958.90,3958.90,,0.00,68027Z M/C,,,,,,,,,,,,,,,,,,,,,,0.00,Roman Kiryanov,4257865465,11/27/2017 12:00:00 AM,,,WA,,
101801,11/11/2017 6:11:22 PM,Sam's Club #8265 11/2-11/12/17 (TX),Keith Kei,DWA-9100DWA-9100BL,Legacy for Sam's,Black,1,"3 years parts, 1 year labor (Free)",PURCHASEORDER ,462.14,4761.14,4761.14,,0.00,,TC# 5173940001352982723641,,,,,,,,,,,,,,,,,,,,,350.00,Amrik Khinda,5597599848,11/16/2017 12:00:00 AM,,"Invoice # 12
Customer paid in full through Sam's Club.
Please note the customer have tax exemption iD: EIN 27-0963247
Sam's Club member #: 10159110523637924.",TX,,
101802,11/11/2017 6:23:44 PM,Sam's Club #4835 11/9-11/19 (WA),Ilene Maynard,USJ-849USJ-849,Vitality Plate for Sam's,New,1,"2 years parts, 1 year labor (Small Items)",CreditCard ,77.90,856.89,856.89,,0.00,881016 Amex,,,,,,,,,,,,,,,,,,,,,,0.00,Barbara Hamlett,2538500557,,,NEW Vitality Plate for demo price,WA,,
101802,11/11/2017 6:23:44 PM,Sam's Club #4835 11/9-11/19 (WA),Ilene Maynard,,Ninja Leg Massager,,1,"2 years parts, 1 year labor (Small Items)",CreditCard ,77.90,856.89,856.89,,0.00,881016 Amex,,,,,,,,,,,,,,,,,,,,,,0.00,Barbara Hamlett,2538500557,,,NEW Vitality Plate for demo price,WA,,
101803,11/11/2017 7:29:22 PM,Sam's Club #4835 11/9-11/19 (WA),Ilene Maynard,,Ninja Leg Massager,,1,"2 years parts, 1 year labor (Small Items)",CreditCard ,37.90,416.90,416.90,,0.00,001045 M/C,,,,,,,,,,,,,,,,,,,,,,0.00,Micol Le,2067787113,,,Cust picked up,WA,,
101804,11/11/2017 9:05:59 PM,"Sam's Club #4816 Aurora, CO 11/9-19/17 (TX)",Gail Kerns,DWA-9100DWA-9100BL,Legacy for Sam's,Black,1,"3 years parts, 1 year labor (Free)",CreditCard ,290.18,4589.18,4589.18,,4642.92,Approval #000996. TC#4088 6479 7867 4018 7504 83,,,,,,,,,,,,,,,,,,,,,,350.00,Rashid Ali,720-339-0609,11/25/2017 12:00:00 AM,,,TX,,
101805,11/11/2017 9:18:15 PM,"Sam's Club #4816 Aurora, CO 11/9-19/17 (TX)",Gail Kerns,USJ-9050USJ-9050BR,Relax2Zero 2.0 for Sam's,Brown,1,"3 years parts, 1 year labor (Free)",CreditCard ,215.93,3414.93,3414.93,,3454.92,Approval #001383 TC#8617449390865207932661,,,,,,,,,,,,,,,,,,,,,,350.00,Jose Garcia,720-262-6567,11/25/2017 12:00:00 AM,,,TX,,
101806,11/11/2017 9:26:03 PM,"Sam's Club #4816 Aurora, CO 11/9-19/17 (TX)",Gail Kerns,,Ninja Leg Massager,,1,"2 years parts, 1 year labor (Small Items)",Cash ,25.58,404.58,404.58,,409.32,,,,,,,,,,,,,,,,,,,,,,,0.00,Raelyn Sparks,719-342-0484,,,,TX,,
101807,11/11/2017 9:39:26 PM,Sam's Club #4977 11/2-12/17 (LV),Rachelle Estanilla,DWA-9100DWA-9100CH,Legacy for Sam's,Choco,1,"3 years parts, 1 year labor (Free)",Cash ,394.65,4693.65,4693.65,,0.00,,,,,,,,,,,,,,,,,,,,,,,0.00,Raymond Lam,7022866689,11/15/2017 12:00:00 AM,,,NV,,
101808,11/12/2017 9:52:24 AM,Sam's Club #4972 11/9-11/19 (FL),Robert Shih,USJ-9050USJ-9050BL,Relax2Zero 2.0 for Sam's,Black,1,"2 years parts, 1 year labor (Small Items)",CreditCard ,195.24,3199.00,3199.00,,3199.00,TC# 8937 2392 9680 5705 0516 33,,,,,,,,,,,,,,,,,,,,,,0.00,Kabir Ahomed,7728019128,11/21/2017 12:00:00 AM,,Thank you very much for your business with us in the Sam's club Port St Lucie FL / Pls deliver this order ASAP / Pls deliver the NEW one to the customer / Tax exempt,FL,,
101809,11/12/2017 10:28:26 AM,Sam's Club #4972 11/9-11/19 (FL),Robert Shih,USJ-849USJ-849-DEMO,Vitality Plate for Sam's,Deomo,1,"2 years parts, 1 year labor (Small Items)",CreditCard ,24.41,399.99,399.99,,399.99,TC# 9165 0343 7941 5404 0270 0,,,,,,,,,,,,,,,,,,,,,,0.00,Kabir Ahomed,7728019128,,,Thank you very much for your business with us in the Sam's club Port St Lucie FL / Tax exempt / Picked in store,FL,,
101810,11/12/2017 10:43:53 AM,Sam's Club Fullerton #6616  11/2-11/12 (CA),Joseph Chan,USJ-871,Foot Vibe Pro,,1,"2 years parts, 1 year labor (Small Items)",Cash ,8.52,118.51,118.51,,118.51,,,,,,,,,,,,,,,,,,,,,,,0.00,Arik Ratzon,714-488-9863,,,,CA,,
101811,11/12/2017 11:21:16 AM,Navy Exchange Bangor,Ethan Hayoyu Jiang,DWA-9150USJ-9150BL,Legacy 3D,Black,1,"3 years parts, 1 year labor (Free)",PURCHASEORDER ,0.00,5500.00,5500.00,,0.00,,Aaaa1111,,,,,,,,,,,,,,,,,,,,,0.00,Jonh Smith,2537777777,,,This is test,Not Dispatched,,
101812,11/12/2017 11:48:46 AM,Sam's Club #8224 11/2-11/12/17 (TX),Christoper Richard Williams,USJ-9050USJ-9050BL,Relax2Zero 2.0 for Sam's,Black,1,"3 years parts, 1 year labor (Free)",CreditCard ,321.75,4221.75,4221.75,,0.00,140042,,,,,,,,,,,,,,,,,,,,,,350.00,Saul Gonzalez,4792856463,11/15/2017 12:00:00 AM,,,TX,,
101813,11/12/2017 12:37:22 PM,Sam's Club #8224 11/2-11/12/17 (TX),Christoper Richard Williams,DWA-9100DWA-9100CH-DEMO,Legacy for Sam's,Demo Choco,1,"3 years parts, 1 year labor (Free)",CreditCard ,296.92,3895.92,3895.92,,0.00,002147,,,,,,,,,,,,,,,,,,,,,,0.00,Willie Brewer,5802284849,,,,TX,,
101814,11/12/2017 12:46:50 PM,Sam's Club #8224 11/2-11/12/17 (TX),Christoper Richard Williams,USJ-849USJ-849-DEMO,Vitality Plate for Sam's Alaska,Deomo,1,"2 years parts, 1 year labor (Small Items)",CreditCard ,33.00,432.99,432.99,,0.00,011853,,,,,,,,,,,,,,,,,,,,,,0.00,Carol Hogue,9406424971,,,,TX,,
101815,11/12/2017 12:55:10 PM,Sam's Club #8224 11/2-11/12/17 (TX),Christoper Richard Williams,USJ-849USJ-849,Vitality Plate for Sam's,New,1,"2 years parts, 1 year labor (Small Items)",Cash ,37.95,497.94,497.94,,0.00,,,,,,,,,,,,,,,,,,,,,,,0.00,Cal Solomon,9406423058,,,,TX,,
101816,11/12/2017 12:56:18 PM,1st Oriental Market Store Demo 11/9-11/13,Ting Ritchie,USJ-9050USJ-9050BL,Relax2Zero 2.0,Black,1,"3 years parts, 1 year labor (Free)",CreditCard ,167.90,3500.90,3500.90,,3500.00,2M8C,,,,,,,,,,,,,,,,,,,,,,0.00,Shao Mai,4079706798,12/6/2017 12:00:00 AM,,,FL,,
101817,11/12/2017 1:02:10 PM,1st Oriental Market Store Demo 11/9-11/13,Ting Ritchie,USJ-9050USJ-9050BL,Relax2Zero 2.0,Black,1,"3 years parts, 1 year labor (Free)",CreditCard COD,167.90,3500.90,3500.90,,500.00,4GZA,,,,,,COD,,,,,,,,,,,,,,,,0.00,Aurora Lalo,4074837250,11/16/2017 12:00:00 AM,,"Total $3500, Customer paid $500 deposit, C.O.D $3000.",FL,,
101818,11/12/2017 1:06:17 PM,Sam's Club #6623 11/2-11/12 (CA),Michael Wang,USJ-871,Foot Vibe Pro,,1,"2 years parts, 1 year labor (Small Items)",PURCHASEORDER ,8.52,118.51,118.51,,0.00,,Order number 7,,,,,,,,,,,,,,,,,,,,,0.00,Daiwa Massage,800-241-2221,,,,CA,,
101819,11/12/2017 1:07:53 PM,1st Oriental Market Store Demo 11/9-11/13,Ting Ritchie,USJ-9050USJ-9050BR-DEMO,Relax2Zero 2.0,Demo Brown,1,"3 years parts, 1 year labor (Free)",Cash ,137.35,3000.35,3000.35,,3000.00,,,,,,,,,,,,,,,,,,,,,,,0.00,Tony Wang,6262339917,11/11/2017 12:00:00 AM,,Delivered already.,FL,,
101820,11/12/2017 1:16:17 PM,Sam's Club #8265 11/2-11/12/17 (TX),Keith Kei,DWA-9100DWA-9100CH-DEMO,Legacy for Sam's,Demo Choco,2,"3 years parts, 1 year labor (Free)",PURCHASEORDER ,773.79,7971.79,7971.79,,0.00,,TC# 7632572427104576975820,,,,,,,,,,,,,,,,,,,,,350.00,Tammy Brafa,3373537200,11/21/2017 12:00:00 AM,,"Invoice # 13 & 14
Customer paid in full through Sam's Club.
This order is for 2 chairs.
Second floor delivery included.",TX,,
101821,11/12/2017 1:30:31 PM,Sam's Club #6623 11/2-11/12 (CA),Michael Wang,USJ-871,Foot Vibe Pro,,1,"2 years parts, 1 year labor (Small Items)",PURCHASEORDER ,8.52,118.51,118.51,,0.00,,Order 8,,,,,,,,,,,,,,,,,,,,,0.00,Daiwa Massage,800-241-2221,,,,CA,,
101822,11/12/2017 2:34:15 PM,Sam's Club #4969 11/2-11/12/17 (TX),Phuoc Van,DWA-9100DWA-9100BL-DEMO,Legacy for Sam's,Demo Black,1,"3 years parts, 1 year labor (Free)",CreditCard ,341.91,3940.91,3940.91,,0.00,001284,,,,,,,,,,,,,,,,,,,,,,350.00,Julin Turley,4795867967,11/12/2017 12:00:00 AM,,,TX,,
101823,11/12/2017 2:40:37 PM,Sam's Club #4969 11/2-11/12/17 (TX),Phuoc Van,DWA-9100DWA-9100CH-DEMO,Legacy for Sam's,Demo Choco,1,"3 years parts, 1 year labor (Free)",CreditCard ,341.91,3940.91,3940.91,,0.00,217080,,,,,,,,,,,,,,,,,,,,,,350.00,Jared Boyle,4793668885,11/12/2017 12:00:00 AM,,,TX,,
101824,11/12/2017 2:54:58 PM,Sam's Club #4969 11/2-11/12/17 (TX),Phuoc Van,DWA-9100DWA-9100SB,Legacy for Sam's,Sienna Brown,1,"3 years parts, 1 year labor (Free)",CreditCard ,408.41,4707.41,4707.41,,0.00,001887,,,,,,,,,,,,,,,,,,,,,,350.00,Rashelle Kemp,4794886379,11/12/2017 12:00:00 AM,,Order #4,TX,,
101825,11/12/2017 2:55:25 PM,Sam's Club #8265 11/2-11/12/17 (TX),Keith Kei,DWA-9100DWA-9100CH-DEMO,Legacy for Sam's,Demo Choco,1,"3 years parts, 1 year labor (Free)",PURCHASEORDER ,730.79,7528.79,7528.79,,0.00,,TC# 6754831314515762868443,,,,,,,,,,,,,,,,,,,,,350.00,Raissa Cecchini,3375401278,11/16/2017 12:00:00 AM,,"Invoice # 15 & 16
Paid in full through Sam's club
Please note this is order for 2 chairs.
Please give an extra legacy dwa-9100  brochure  when delivering.",TX,,
101825,11/12/2017 2:55:25 PM,Sam's Club #8265 11/2-11/12/17 (TX),Keith Kei,USJ-9050USJ-9050BL-DEMO,Relax2Zero 2.0 for Sam's,Demo Black,1,"3 years parts, 1 year labor (Free)",PURCHASEORDER ,730.79,7528.79,7528.79,,0.00,,TC# 6754831314515762868443,,,,,,,,,,,,,,,,,,,,,350.00,Raissa Cecchini,3375401278,11/16/2017 12:00:00 AM,,"Invoice # 15 & 16
Paid in full through Sam's club
Please note this is order for 2 chairs.
Please give an extra legacy dwa-9100  brochure  when delivering.",TX,,
101826,11/12/2017 2:58:45 PM,Sam's Club #4969 11/2-11/12/17 (TX),Phuoc Van,DWA-9100DWA-9100CH,Legacy for Sam's,Choco,1,"3 years parts, 1 year labor (Free)",CreditCard ,408.41,4707.41,4707.41,,0.00,05021D,,,,,,,,,,,,,,,,,,,,,,350.00,Randall Steen,4793815328,11/13/2017 12:00:00 AM,,Order #9,TX,,
101827,11/12/2017 3:08:31 PM,Sam's Club #4969 11/2-11/12/17 (TX),Phuoc Van,DWA-9100DWA-9100CH-DEMO,Legacy for Sam's,Demo Choco,1,"3 years parts, 1 year labor (Free)",CreditCard ,385.60,4444.59,4444.59,,0.00,01208B,,,,,,,,,,,,,,,,,,,,,,350.00,Brad Eason,4796213550,11/13/2017 12:00:00 AM,,"Order #13 for Vitality Plate
Order # 15 for Legacy 
Vitality plate is picked up by customer
Discounted price for Demo chair",TX,,
101827,11/12/2017 3:08:31 PM,Sam's Club #4969 11/2-11/12/17 (TX),Phuoc Van,USJ-849USJ-849,Vitality Plate for Sam's,New,1,"2 years parts, 1 year labor (Small Items)",CreditCard ,385.60,4444.59,4444.59,,0.00,01208B,,,,,,,,,,,,,,,,,,,,,,350.00,Brad Eason,4796213550,11/13/2017 12:00:00 AM,,"Order #13 for Vitality Plate
Order # 15 for Legacy 
Vitality plate is picked up by customer
Discounted price for Demo chair",TX,,
101828,11/12/2017 3:19:50 PM,Sam's Club #4969 11/2-11/12/17 (TX),Phuoc Van,DWA-9100DWA-9100CH,Legacy for Sam's,Choco,1,"3 years parts, 1 year labor (Free)",CreditCard ,408.41,4707.41,4707.41,,0.00,26473 P,,,,,,,,,,,,,,,,,,,,,,350.00,Trang Truong,4794300977,11/13/2017 12:00:00 AM,,Order #10,TX,,
101829,11/12/2017 3:21:31 PM,Health and Wellness Plano Store 2017 (TX),Tianlong Jia,DWA-9060USJ-9060BR,Relax2Zero 3D,Choco Brown,1,"3 years parts, 1 year labor (Free)",Cash ,217.21,3600.00,3600.00,,3600.00,,,,,,,,,,,,,,,,,,,,,,,350.00,Mei Chiou,4692156284,11/21/2017 12:00:00 AM,,,TX,,
101830,11/12/2017 3:25:49 PM,Sam's Club #4969 11/2-11/12/17 (TX),Phuoc Van,DWA-9100DWA-9100CH,Legacy for Sam's,Choco,1,"3 years parts, 1 year labor (Free)",CreditCard ,408.41,4707.41,4707.41,,0.00,001834,,,,,,,,,,,,,,,,,,,,,,0.00,Walt Martin,4256165273,11/27/2017 12:00:00 AM,,"Order#6
1 extra chair pad",WA,,
101830,11/12/2017 3:25:49 PM,Sam's Club #4969 11/2-11/12/17 (TX),Phuoc Van,,Chair Pad for Legacy,,1,no warranty,CreditCard ,408.41,4707.41,4707.41,,0.00,001834,,,,,,,,,,,,,,,,,,,,,,0.00,Walt Martin,4256165273,11/27/2017 12:00:00 AM,,"Order#6
1 extra chair pad",WA,,
101831,11/12/2017 3:29:59 PM,Sam's Club #4969 11/2-11/12/17 (TX),Phuoc Van,USJ-9050USJ-9050BR,Relax2Zero 2.0 for Sam's,Brown,1,"3 years parts, 1 year labor (Free)",CreditCard ,370.50,4270.50,4270.50,,0.00,00959,,,,,,,,,,,,,,,,,,,,,,350.00,Arnold Lottrell,4799036001,11/20/2017 12:00:00 AM,,Order #11,TX,,
101832,11/12/2017 3:34:36 PM,Sam's Club #4969 11/2-11/12/17 (TX),Phuoc Van,USJ-9050USJ-9050BR-DEMO,Relax2Zero 2.0 for Sam's,Demo Brown,1,"3 years parts, 1 year labor (Free)",CreditCard ,303.91,3502.91,3502.91,,0.00,04059B,,,,,,,,,,,,,,,,,,,,,,350.00,Kristin Copher,4796516370,11/20/2017 12:00:00 AM,,Order#14,TX,,
101833,11/12/2017 3:41:52 PM,Sam's Club #4969 11/2-11/12/17 (TX),Phuoc Van,,Ninja Leg Massager,,1,"2 years parts, 1 year labor (Small Items)",CreditCard ,36.01,415.01,415.01,,0.00,00546R,,,,,,,,,,,,,,,,,,,,,,0.00,Karamgist Brar,1234567893,,,Order #2,TX,,
101834,11/12/2017 3:47:05 PM,Sam's Club #4969 11/2-11/12/17 (TX),Phuoc Van,,Ninja Leg Massager,,1,"2 years parts, 1 year labor (Small Items)",CreditCard ,36.01,415.01,415.01,,0.00,02012C,,,,,,,,,,,,,,,,,,,,,,0.00,Melinda Ames,1234567891,,,Order #5,TX,,
101835,11/12/2017 3:51:26 PM,Sam's Club #4969 11/2-11/12/17 (TX),Phuoc Van,USJ-849USJ-849,Vitality Plate for Sam's,New,1,"2 years parts, 1 year labor (Small Items)",CreditCard ,43.70,503.69,503.69,,0.00,001517,,,,,,,,,,,,,,,,,,,,,,0.00,Emine Serm,4796855443,,,Order#7,TX,,
101836,11/12/2017 3:55:42 PM,Sam's Club #4969 11/2-11/12/17 (TX),Phuoc Van,USJ-849USJ-849,Vitality Plate for Sam's,New,1,"2 years parts, 1 year labor (Small Items)",CreditCard ,43.70,503.69,503.69,,0.00,859040,,,,,,,,,,,,,,,,,,,,,,0.00,Gary Crisp,4797152817,,,Order #8,TX,,
101837,11/12/2017 4:02:53 PM,Sam's Club #4969 11/2-11/12/17 (TX),Phuoc Van,USJ-849USJ-849,Vitality Plate for Sam's,New,1,"2 years parts, 1 year labor (Small Items)",CreditCard ,43.70,503.69,503.69,,0.00,001017,,,,,,,,,,,,,,,,,,,,,,0.00,Mahdi Mahmoodi,4793810404,,,Order #12,TX,,
101838,11/12/2017 4:12:05 PM,Sam's Club #4969 11/2-11/12/17 (TX),Phuoc Van,USJ-849USJ-849,Vitality Plate for Sam's,New,1,"2 years parts, 1 year labor (Small Items)",CreditCard ,43.70,503.69,503.69,,0.00,000997,,,,,,,,,,,,,,,,,,,,,,0.00,Emilio Santaella,4796163167,11/20/2017 12:00:00 AM,,"Order #16
Please ship the vitality plate to the address above. We rant out of stock at the show.",TX,,
101839,11/12/2017 4:20:36 PM,Sam's Club #6240 GLENDORA 11/9-19/17 (CA),Patricia Whipple,USJ-871,Foot Vibe Pro,,1,"2 years parts, 1 year labor (Small Items)",CreditCard ,10.45,120.44,120.44,,0.00,459919,,,,,,,,,,,,,,,,,,,,,,0.00,Christy Kington,(626)339-2161,,,,CA,,
101840,11/12/2017 9:12:41 PM,Sam's Club #4977 11/2-12/17 (LV),Rachelle Estanilla,DWA-9100DWA-9100CH,Legacy for Sam's,Choco,1,"3 years parts, 1 year labor (Free)",Cash ,330.39,3929.39,3929.39,,0.00,,,,,,,,,,,,,,,,,,,,,,,0.00,Gerald Wong,8083714930,11/15/2017 12:00:00 AM,,Gate code:5289,NV,,
101841,11/12/2017 11:08:09 PM,Sam's Club #6240 GLENDORA 11/9-19/17 (CA),Patricia Whipple,DWA-9100DWA-9100CH,Legacy for Sam's,Choco,1,"3 years parts, 1 year labor (Free)",CreditCard ,341.91,3940.91,3940.91,,0.00,002269,,,,,,,,,,,,,,,,,,,,,,0.00,Akbar Siddiqui,(626)523-3090,11/24/2017 12:00:00 AM,,"Veterans Day weekend discount 
Delivery after 6pm",CA,,
101842,11/12/2017 11:17:15 PM,Sam's Club #6240 GLENDORA 11/9-19/17 (CA),Patricia Whipple,USJ-849USJ-849,Vitality Plate for Sam's,New,1,"2 years parts, 1 year labor (Small Items)",CreditCard ,38.00,437.99,437.99,,0.00,000983,,,,,,,,,,,,,,,,,,,,,,0.00,Yui Cheng,(909)626-6706,,,Veterans Day weekend discount,CA,,
101843,11/12/2017 11:22:56 PM,Sam's Club #6240 GLENDORA 11/9-19/17 (CA),Patricia Whipple,USJ-849USJ-849,Vitality Plate for Sam's,New,1,"2 years parts, 1 year labor (Small Items)",CreditCard ,43.70,503.69,503.69,,0.00,889355,,,,,,,,,,,,,,,,,,,,,,0.00,Robert Thomas,(909)632-4828,,,,CA,,
101844,11/13/2017 9:22:01 AM,Sam's Club #6455 OXNARD 11/9-19/17 (CA),Bryan Albert,USJ-9050USJ-9050BR,Relax2Zero 2.0 for Sam's,Brown,1,"3 years parts, 1 year labor (Free)",PURCHASEORDER ,302.25,4202.25,4202.25,,0.00,,26122,,,,,,,,,,,,,,,,,,,,,0.00,John & Mandy Islam,805-983-1923,11/27/2017 12:00:00 AM,,,CA,,
101845,11/13/2017 9:29:03 AM,Sam's Club #6627 11/2-12/17 (CA),Rodrigo Malabunga,USJ-9050USJ-9050BL,Relax2Zero 2.0 for Sam's,Black,1,"3 years parts, 2 years labor ($200)",CreditCard ,219.56,3478.86,3478.86,,3478.91,Approval 863096,,,,,,,,,,,,,,,,,,,,,,0.00,Kevin Nguyen,714 719 2571,11/21/2017 12:00:00 AM,,,CA,,
101846,11/13/2017 9:32:01 AM,Sam's Club #6455 OXNARD 11/9-19/17 (CA),Bryan Albert,DWA-9100DWA-9100BL-DEMO,Legacy for Sam's,Demo Black,1,"3 years parts, 1 year labor (Free)",PURCHASEORDER ,333.17,4632.17,4632.17,,0.00,,26123,,,,,,,,,,,,,,,,,,,,,0.00,William & Kay Duarte / Champion,805-987-8577,11/19/2017 12:00:00 AM,,,CA,,
101847,11/13/2017 9:40:21 AM,Sam's Club #6627 11/2-12/17 (CA),Rodrigo Malabunga,USJ-9050USJ-9050BR,Relax2Zero 2.0 for Sam's,Brown,1,"3 years parts, 1 year labor (Free)",CreditCard ,216.84,3445.04,3445.04,,3445.00,Approval 001135,,,,,,,,,,,,,,,,,,,,,,0.00,Sabas Torres,714 636 3667,11/21/2017 12:00:00 AM,,,CA,,
101848,11/13/2017 9:40:58 AM,Sam's Club #6455 OXNARD 11/9-19/17 (CA),Bryan Albert,DWA-9100DWA-9100BL-DEMO,Legacy for Sam's,Demo Blue,1,"3 years parts, 2 years labor ($200)",PURCHASEORDER ,278.92,3877.92,3877.92,,0.00,,26124,,,,,,,,,,,,,,,,,,,,,0.00,Ramesh & Ujjala Kumar,586-354-8816,11/30/2017 12:00:00 AM,,1extra year in home labor!,CA,,
101849,11/13/2017 10:54:35 AM,"Sam's Club #4853 Castle Rock, CO 11/9-19/17 (TX)",Michael Cuatrona,USJ-9050USJ-9050BL,Relax2Zero 2.0 for Sam's,Black,1,"3 years parts, 1 year labor (Free)",CreditCard ,252.72,3451.72,3451.72,,3459.72,SAMS approval # 08440D,,,,,,,,,,,,,,,,,,,,,,350.00,Susette Whiteford,3036469580,11/25/2017 12:00:00 AM,,"Tax 1 @ 7.9 = $252.72
Tax 2 @ 0.25 = $8.00",TX,,
101850,11/13/2017 11:30:51 AM,Jacksonville Home and Patio Show,Alex Brackelsberg,DWA-9100DWA-9100BL,Legacy,Black,1,"3 years parts, 1 year labor (Free)",CreditCard ,252.00,3852.00,3852.00,,0.00,X00q,,,,,,,,,,,,,,,,,,,,,,350.00,Kent Rempe,8067774529,11/25/2017 12:00:00 AM,,,TX,,
101851,11/13/2017 12:48:19 PM,Sam's Club #6331 Kenosha 11/2-12/17 (IL),Noni Ignacio,DWA-9100DWA-9100BL,Legacy for Sam's,Black,1,"3 years parts, 1 year labor (Free)",CreditCard ,197.95,3796.95,3796.95,,0.00,001276,,,,,,,,,,,,,,,,,,,,,,0.00,Carlos Hernandez,2623581596,,,PLEASE DELIVER BRAND NEW CHAIR,TX,,
101852,11/13/2017 12:55:56 PM,Sam's Club #6331 Kenosha 11/2-12/17 (IL),Noni Ignacio,DWA-9100DWA-9100BL,Legacy for Sam's,Black,1,"3 years parts, 1 year labor (Free)",CreditCard ,197.95,3796.95,3796.95,,0.00,0011727,,,,,,,,,,,,,,,,,,,,,,350.00,Art/Diana Felix,2627700547,11/24/2017 12:00:00 AM,,PLEASE DELIVER BRAND NEW CHAIR,TX,,
101853,11/13/2017 1:05:16 PM,1st Oriental Market Store Demo 11/9-11/13,Ting Ritchie,USJ-9050USJ-9050BE,Relax2Zero 2.0,Beige,1,"3 years parts, 1 year labor (Free)",CreditCard ,167.90,3500.90,3500.90,,3500.00,UzVS,,,,,,,,,,,,,,,,,,,,,,0.00,Norl Puulmell,4079732537,12/6/2017 12:00:00 AM,,2nd Floor,FL,,
101854,11/13/2017 1:19:17 PM,Sam's Club #6331 Kenosha 11/2-12/17 (IL),Noni Ignacio,DWA-9100DWA-9100BL,Legacy for Sam's,Black,1,"3 years parts, 1 year labor (Free)",PURCHASEORDER ,197.95,3796.95,3796.95,,0.00,,,,,,,,,,,,,,,,,,,,,,,0.00,Andrea Nasello,2629391454,,,PLEASE DELIVER BRAND NEW CHAIR,TX,,
101855,11/13/2017 1:56:44 PM,1st Oriental Market Store Demo 11/9-11/13,Ting Ritchie,SSRT-1SSRT-1-BR,Serenity,Choco Brown,1,"3 years parts, 1 year labor (Free)",CreditCard COD,137.35,3000.35,3000.35,,200.00,UsVj,,,,,,COD,,,,,,,,,,,,,,,,0.00,Surgedai Kishuni,4072334057,,,Please hold the order til customer is ready.,FL,,
101856,11/13/2017 2:30:08 PM,Health and Wellness Plano Store 2017 (TX),Tianlong Jia,DWA-9060USJ-9060BR,Relax2Zero 3D,Choco Brown,1,"3 years parts, 1 year labor (Free)",Synchrony ,247.69,4000.00,4000.00,,4000.00,,,6034610081631304,81025967,,36 months,,,,,,,,,,,,,,,,,350.00,Trung Liu,2152281002,,,,TX,,
101857,11/13/2017 2:46:17 PM,Sam's Club #4835 11/9-11/19 (WA),Ilene Maynard,USJ-849USJ-849,Vitality Plate for Sam's,New,1,"2 years parts, 1 year labor (Small Items)",Cash ,46.00,505.99,505.99,,0.00,,,,,,,,,,,,,,,,,,,,,,,0.00,Juan Arellano,2068906072,,,Picked up,WA,,
101858,11/13/2017 3:02:25 PM,Sam's Club #6240 GLENDORA 11/9-19/17 (CA),Patricia Whipple,USJ-849USJ-849,Vitality Plate for Sam's,New,1,"2 years parts, 1 year labor (Small Items)",CreditCard ,38.00,437.99,437.99,,0.00,013418,,,,,,,,,,,,,,,,,,,,,,0.00,Cindy Ciulla,(909)322-0292,,,,CA,,
101859,11/13/2017 3:08:32 PM,Sam's Club #6240 GLENDORA 11/9-19/17 (CA),Patricia Whipple,USJ-871,Foot Vibe Pro,,1,"2 years parts, 1 year labor (Small Items)",CreditCard ,10.45,120.44,120.44,,0.00,013418,,,,,,,,,,,,,,,,,,,,,,0.00,Cindy Ciulla,9093220292,,,,CA,,
101860,11/13/2017 3:57:25 PM,Main office (CA),Alicia Ponce,DWA-9400Pegasus-BL,Pegasus,Black,1,"3 years parts, 1 year labor (Free)",PURCHASEORDER ,347.14,4500.00,4500.00,,0.00,,PAID BY INVOICE CREDIT,,,,,,,,,,,,,,,,,,,,,0.00,David Littenberg,9144504951,,,,CA,,
101861,11/13/2017 3:59:01 PM,"Uwajimaya, Beaverton, OR 11/10-15(WA)",May Kam,DWA-9150USJ-9150BL-DEMO,Legacy 3D,Demo Black,1,"3 years parts, 1 year labor (Free)",CreditCard COD,0.00,3850.00,3850.00,,200.00,079637,,,,,,COD,,,,,,,,,,,,,,,,0.00,Anthony Stallings,6012788844,11/20/2017 12:00:00 AM,,"When we deliver chair, Pls charge balance $3650, thanks",WA,,
101861,11/13/2017 3:59:01 PM,"Uwajimaya, Beaverton, OR 11/10-15(WA)",May Kam,,Daiwa Blanket,,1,no warranty,CreditCard COD,0.00,3850.00,3850.00,,200.00,079637,,,,,,COD,,,,,,,,,,,,,,,,0.00,Anthony Stallings,6012788844,11/20/2017 12:00:00 AM,,"When we deliver chair, Pls charge balance $3650, thanks",WA,,
101862,11/13/2017 4:09:35 PM,"Uwajimaya, Beaverton, OR 11/10-15(WA)",May Kam,DWA-9150USJ-9150BL,Legacy 3D,Black,1,"3 years parts, 1 year labor (Free)",Synchrony ,0.00,4350.00,4350.00,,0.00,,,6034610081627831,80956270,San Diego,36 months,,,,,,,,,,,,,,,,,0.00,Carlos Abalos,5034818092,11/20/2017 12:00:00 AM,,,WA,,
101863,11/13/2017 4:24:14 PM,"Uwajimaya, Beaverton, OR 11/10-15(WA)",May Kam,DWA-9150USJ-9150CH,Legacy 3D,Choco Brown,1,"3 years parts, 1 year labor (Free)",CreditCard COD,0.00,3950.00,3950.00,,200.00,60234P,,,,,,COD,,,,,,,,,,,,,,,,0.00,Holly & Nick Forrette,5035169846,12/11/2017 12:00:00 AM,,"Pls arrange delivery after Dec 2nd,2017, COD $3750, Thanks",WA,,
101863,11/13/2017 4:24:14 PM,"Uwajimaya, Beaverton, OR 11/10-15(WA)",May Kam,,Daiwa Blanket,,1,no warranty,CreditCard COD,0.00,3950.00,3950.00,,200.00,60234P,,,,,,COD,,,,,,,,,,,,,,,,0.00,Holly & Nick Forrette,5035169846,12/11/2017 12:00:00 AM,,"Pls arrange delivery after Dec 2nd,2017, COD $3750, Thanks",WA,,
101864,11/13/2017 4:25:11 PM,Sam's Club #4977 11/2-12/17 (LV),David Wang,USJ-871,Foot Vibe Pro,,12,"2 years parts, 1 year labor (Small Items)",PURCHASEORDER ,190.75,2268.63,2268.63,,0.00,,,,,,,,,,,,,,,,,,,,,,,0.00,Daiwa Massage,800-241-2221,,,,CA,,
101864,11/13/2017 4:25:11 PM,Sam's Club #4977 11/2-12/17 (LV),David Wang,,Ninja Leg Massager,,2,"2 years parts, 1 year labor (Small Items)",PURCHASEORDER ,190.75,2268.63,2268.63,,0.00,,,,,,,,,,,,,,,,,,,,,,,0.00,Daiwa Massage,800-241-2221,,,,CA,,
101865,11/13/2017 4:42:58 PM,Sam's Club #4977 11/2-12/17 (LV),David Wang,DWA-9100DWA-9100BL-DEMO,Legacy for Sam's,Demo Black,1,"3 years parts, 1 year labor (Free)",CreditCard ,330.39,3929.39,3929.39,,3929.39,00929R,,,,,,,,,,,,,,,,,,,,,,0.00,Eileen Killoran,9709469375,11/13/2017 12:00:00 AM,,,CA,,
101866,11/13/2017 4:55:07 PM,Sam's Club #4977 11/2-12/17 (LV),David Wang,USJ-9050USJ-9050BR-DEMO,Relax2Zero 2.0 for Sam's,Demo Brown,1,"3 years parts, 3 years labor ($400)",CreditCard ,293.67,3492.67,3492.67,,3492.67,001486,,,,,,,,,,,,,,,,,,,,,,0.00,Ben Castleberry,9286423590,11/12/2017 12:00:00 AM,,,CA,,
101867,11/13/2017 4:56:24 PM,"Uwajimaya, Beaverton, OR 11/10-15(WA)",May Kam,DWA-9150USJ-9150BL,Legacy 3D,Black,1,"3 years parts, 1 year labor (Free)",Synchrony ,0.00,3950.00,3950.00,,0.00,,,6034610081631783,81035445,San Diego,24 months,,,,,,,,,,,,,,,,,0.00,Lilly Zheng,5039989161,11/20/2017 12:00:00 AM,,,WA,,
101868,11/13/2017 8:02:57 PM,Sam's Club #4835 11/9-11/19 (WA),Ilene Maynard,,Ninja Leg Massager,,1,"2 years parts, 1 year labor (Small Items)",CreditCard ,37.90,416.90,416.90,,0.00,000792 M/C,,,,,,,,,,,,,,,,,,,,,,0.00,Gloria Johnson,2069313364,,,Picked up,WA,0,10.00
101870,11/13/2017 10:02:43 PM,Christmas Gift and Hobby 11/8-11/12 (IL),Ruben Cuatrona,DWA-9150USJ-9150CH-DEMO,Legacy 3D,Demo Choco Brown,1,"3 years parts, 1 year labor (Free)",CreditCard ,206.08,3900.08,3900.08,,0.00,07347c,,,,,,,,,,,,,,,,,,,,,,0.00,Kim Seals,8652070928,11/30/2017 12:00:00 AM,,,FL,0,7.00
