﻿Date,Customer Name,State,Zipcode,Description,Product Number,Color,Product Status,Net,Shipping Fee,Gift Price,Financing Processing Fee,Order Total,Total Before Tax,Tax,Commission,Primary Payment Method,Primary Payment Balance,Primary Authorize Number,Primary Purchase Order Number,Primary Synchrony Account Number,Primary Synchrony Application Key,Primary Synchrony Account Info,Primary Synchrony Term,Second Payment Method,Second Payment Balance,Second Authorize Number,Second Purchase Order Number,Second Synchrony Account Number,Second Synchrony Application Key,Second Synchrony Account Info,Second Synchrony Term,Third Payment Method,Third Payment Balance,Third Authorize Number,Third Purchase Order Number,Third Synchrony Account Number,Third Synchrony Application Key,Third Synchrony Account Info,Third Synchrony Term,Delivery Date,Pick up,Warranty,Status,Chair Type,Original Event Name,Event Name,Synchrony Notes,Order Notes,Order Number,Private Note,Branch,No Tax,Actual Tax Rate
7/18/2018 3:16:58 PM,Daiwa Massage,CA,90249,Vitality Plate for Sam's,USJ-849USJ-849-DEMO,Demo,Demo,,,,,435.19,435.19,0.00,Querubin Milanes,PurchaseOrder,435.19,,TC#9694 3132 5122 8424 5098 6,,,,,,0.00,,,,,,,,0.00,,,,,,,,YES,"2 years parts, 1 year labor for Small Items",Delivered,,"Sam's Club #4786 LOGAN,UT 7/12-22/18 (NV)","Sam's Club #4786 LOGAN,UT 7/12-22/18 (NV)",,,107583,,CA,1,6.60
7/18/2018 3:20:07 PM,Daiwa Massage,CA,90249,Vitality Plate for Sam's,USJ-849USJ-849-DEMO,Demo,Demo,,,,,435.19,435.19,0.00,Querubin Milanes,PurchaseOrder,435.19,,tc# 2359 5869 3857 7524 1224 5,,,,,,0.00,,,,,,,,0.00,,,,,,,,YES,"2 years parts, 1 year labor for Small Items",Delivered,,"Sam's Club #4786 LOGAN,UT 7/12-22/18 (NV)","Sam's Club #4786 LOGAN,UT 7/12-22/18 (NV)",,,107584,,CA,1,6.60
7/18/2018 3:24:19 PM,Daiwa Massage,CA,90249,Foot Vibe Pro,USJ-871,,New,,,,,117.25,109.99,7.26,Querubin Milanes,CreditCard,117.25,TC 1784 1122 4150 8474 3596 6,,,,,,,0.00,,,,,,,,0.00,,,,,,,,YES,"2 years parts, 1 year labor (Free)",Delivered,,"Sam's Club #4786 LOGAN,UT 7/12-22/18 (NV)","Sam's Club #4786 LOGAN,UT 7/12-22/18 (NV)",,,107585,Customer pick up the Footvibe Pro at Sam's Club,CA,0,6.60
7/18/2018 3:35:12 PM,Daiwa Massage,CA,90249,Foot Vibe Pro,USJ-871,,New,,,,,117.25,109.99,7.26,Querubin Milanes,CreditCard,117.25,TC 1673 5014 4032 7636 4359 8,,,,,,,0.00,,,,,,,,0.00,,,,,,,,YES,"2 years parts, 1 year labor (Free)",Delivered,,"Sam's Club #4786 LOGAN,UT 7/12-22/18 (NV)","Sam's Club #4786 LOGAN,UT 7/12-22/18 (NV)",,,107586,Customer pick up the Footvibe Pro at Sam's Club,CA,0,6.60
7/18/2018 3:39:35 PM,Daiwa Massage,CA,90249,Shogun Neck & Back Massger,USJ-874USJ-874-DEMO,Demo,Demo,,,,,191.86,179.98,11.88,Querubin Milanes,CreditCard,191.86,TC 6808 5735 3769 0303 1645 1,,,,,,,0.00,,,,,,,,0.00,,,,,,,,YES,"2 years parts, 1 year labor (Free)",Delivered,,"Sam's Club #4786 LOGAN,UT 7/12-22/18 (NV)","Sam's Club #4786 LOGAN,UT 7/12-22/18 (NV)",,,107587,Customer pick up the Shogun Neck and Back Massager @ Sam's Club,CA,0,6.60
7/18/2018 3:48:14 PM,Daiwa Massage,CA,90249,Vitality Plate for Sam's,USJ-849USJ-849-DEMO,Demo,Demo,,,,,426.39,399.99,26.40,Querubin Milanes,CreditCard,426.39,TC 7144 5112 2110 8474 1398 6,,,,,,,0.00,,,,,,,,0.00,,,,,,,,YES,"2 years parts, 1 year labor (Free)",Delivered,,"Sam's Club #4786 LOGAN,UT 7/12-22/18 (NV)","Sam's Club #4786 LOGAN,UT 7/12-22/18 (NV)",,,107588,Customer pick up the Vitality Plate @ Sam's Club,CA,0,6.60
7/18/2018 3:54:05 PM,Daiwa Massage,CA,90249,Vitality Plate for Sam's,USJ-849USJ-849-DEMO,Demo,Demo,,,,,426.39,399.99,26.40,Querubin Milanes,CreditCard,426.39,TC 0990 0627 7668 3979 0407 5,,,,,,,0.00,,,,,,,,0.00,,,,,,,,YES,"2 years parts, 1 year labor (Free)",Delivered,,"Sam's Club #4786 LOGAN,UT 7/12-22/18 (NV)","Sam's Club #4786 LOGAN,UT 7/12-22/18 (NV)",,,107589,Customer pick up the Vitality Plate @ Sam's Club,CA,0,6.60
7/18/2018 3:59:53 PM,Daiwa Massage,CA,90249,Shogun Neck & Back Massger,USJ-874USJ-874-DEMO,Demo,Demo,,,,,191.86,179.98,11.88,Querubin Milanes,CreditCard,191.86,TC 5025 1370 1351 6292 6577 4,,,,,,,0.00,,,,,,,,0.00,,,,,,,,YES,"2 years parts, 1 year labor (Free)",Delivered,,"Sam's Club #4786 LOGAN,UT 7/12-22/18 (NV)","Sam's Club #4786 LOGAN,UT 7/12-22/18 (NV)",,,107590,Customer pick up the Shogun Neck and Back Massager @ Sam's Club,CA,0,6.60
7/18/2018 4:03:49 PM,Daiwa Massage,CA,90249,Foot Vibe Pro,USJ-871,,New,,,,,117.25,109.99,7.26,Querubin Milanes,CreditCard,117.25,TC 8399 8859 8879 1505 6223 3,,,,,,,0.00,,,,,,,,0.00,,,,,,,,YES,"2 years parts, 1 year labor (Free)",Delivered,,"Sam's Club #4786 LOGAN,UT 7/12-22/18 (NV)","Sam's Club #4786 LOGAN,UT 7/12-22/18 (NV)",,,107591,Customer pick up the Footvibe Pro at Sam's Club,CA,0,6.60
7/18/2018 4:13:35 PM,Patricia Argyle,UT,84028,Legacy for Sam's,DWA-9100DWA-9100CH-DEMO,Demo Choco,Demo,,,,,3836.53,3599.00,237.53,Querubin Milanes,CreditCard,3836.53,TC 9285 0931 0337 1629 2897 64,,,,,,,0.00,,,,,,,,0.00,,,,,,,8/6/2018 12:00:00 AM,No,"3 years parts, 1 year labor (Free)",Delivered,,"Sam's Club #4786 LOGAN,UT 7/12-22/18 (NV)","Sam's Club #4786 LOGAN,UT 7/12-22/18 (NV)",,,107592,"Demo Price, Demo Choco Legacy Chair
7/19Maritza Courtesy call @ 9:30AM",NV,0,6.60
7/18/2018 6:12:57 PM,John Collins,NM,88101,Pegasus for Sam's,DWA-9400Pegasus-BR-BOX,Demo Choco(Box),Demo,,,,,5114.67,4798.00,316.67,Querubin Milanes,CreditCard,5114.67,TC 9093 6006 4201 2768 6715 58,,,,,,,0.00,,,,,,,,0.00,,,,,,,7/25/2018 12:00:00 AM,No,"3 years parts, 1 year labor (Free)",Delivered,,"Sam's Club #4786 LOGAN,UT 7/12-22/18 (NV)","Sam's Club #4786 LOGAN,UT 7/12-22/18 (NV)",,,107594,"Demo Price But Deliver Brand New Choco/Brown Pegasus Please.
7/19Maritza Courtesy call @ 9:41AM",TX,0,6.60
7/21/2018 6:16:56 PM,Daiwa Massage,CA,90249,Vitality Plate for Sam's,USJ-849USJ-849-DEMO,Demo,Demo,,,,,426.39,399.99,26.40,Querubin Milanes,CreditCard,426.39,TC 5213 1072 2132 7646 3157 8,,,,,,,0.00,,,,,,,,0.00,,,,,,,,YES,"2 years parts, 1 year labor (Free)",Delivered,,"Sam's Club #4786 LOGAN,UT 7/12-22/18 (NV)","Sam's Club #4786 LOGAN,UT 7/12-22/18 (NV)",,,107674,Customer pick up the Vitality Plate at Sam's Club,CA,0,6.60
7/21/2018 6:28:47 PM,Brett Broadhead,UT,84321,Legacy for Sam's,DWA-9100DWA-9100BL-Box,Demo(Box) Black,Demo,,,,,3836.53,3599.00,237.53,Querubin Milanes,CreditCard,3836.53,TC 7096 9750 3397 3407 0698 42,,,,,,,0.00,,,,,,,,0.00,,,,,,,8/6/2018 12:00:00 AM,No,"3 years parts, 1 year labor (Free)",Delivered,,"Sam's Club #4786 LOGAN,UT 7/12-22/18 (NV)","Sam's Club #4786 LOGAN,UT 7/12-22/18 (NV)",,,107675,"Demo Price Please Deliver a Brand New Black Legacy Chair
7/24Maritza Courtesy email @ 12:40PM",NV,0,6.60
7/21/2018 6:42:32 PM,Robert Creighton,UT,84319,Pegasus for Sam's,DWA-9400Pegasus-BL-BOX,Demo Black(Box),Demo,,,,,5114.67,4798.00,316.67,Querubin Milanes,CreditCard,5114.67,TC 5052 0224 4401 4988 8203 07,,,,,,,0.00,,,,,,,,0.00,,,,,,,8/6/2018 12:00:00 AM,No,"3 years parts, 1 year labor (Free)",Delivered,,"Sam's Club #4786 LOGAN,UT 7/12-22/18 (NV)","Sam's Club #4786 LOGAN,UT 7/12-22/18 (NV)",,,107676,"Demo Price Please Deliver New Black Pegasus Chair
7/24 Maritza courtesy call @ 12:47PM",NV,0,6.60
7/21/2018 6:54:22 PM,Scott James,UT,84332,Pegasus for Sam's,DWA-9400Pegasus-BL-BOX,Demo Black(Box),Demo,,,,,5114.67,4798.00,316.67,Querubin Milanes,CreditCard,5114.67,TC 6576 9555 3697 7402 0448 82,,,,,,,0.00,,,,,,,,0.00,,,,,,,8/6/2018 12:00:00 AM,No,"3 years parts, 1 year labor (Free)",Delivered,,"Sam's Club #4786 LOGAN,UT 7/12-22/18 (NV)","Sam's Club #4786 LOGAN,UT 7/12-22/18 (NV)",,,107679,"Demo Price Please Deliver a New Black Pegasus Chair
7/24Maritza Courtesy call @ 2:05PM",NV,0,6.60
7/21/2018 7:02:36 PM,Jeremy Hill,UT,84339,Pegasus for Sam's,DWA-9400Pegasus-BL-BOX,Demo Black(Box),Demo,,,,,5114.67,4798.00,316.67,Querubin Milanes,CreditCard,5114.67,TC 2808 7973 9388 9032 3284 31,,,,,,,0.00,,,,,,,,0.00,,,,,,,8/6/2018 12:00:00 AM,No,"3 years parts, 1 year labor (Free)",Delivered,,"Sam's Club #4786 LOGAN,UT 7/12-22/18 (NV)","Sam's Club #4786 LOGAN,UT 7/12-22/18 (NV)",,,107680,"Demo Price Please Deliver a New Black Pegasus Chair
7/24Maritza Courtesy call @ 2:07PM",NV,0,6.60
7/21/2018 7:11:56 PM,Todd or Roxanne Freestone,UT,84335,Pegasus for Sam's,DWA-9400Pegasus-BL-DEMO,Demo Black,Demo,,,,,5114.67,4798.00,316.67,Querubin Milanes,CreditCard,5114.67,TC 1610 4665 8844 7395 9360 05,,,,,,,0.00,,,,,,,,0.00,,,,,,,8/5/2018 12:00:00 AM,No,"3 years parts, 1 year labor (Free)",Delivered,,"Sam's Club #4786 LOGAN,UT 7/12-22/18 (NV)","Sam's Club #4786 LOGAN,UT 7/12-22/18 (NV)",,,107682,"Demo Price Please Deliver a Demo Black Pegasus Chair
7/24Maritza Courtesy call @ 4:09PM Please call home number to schedule appointment for delivery.",NV,0,6.60
7/22/2018 3:55:27 PM,Alfonso Estrada,UT,84321,Vitality Plate for Sam's,USJ-849USJ-849-DEMO,Demo,Demo,,,,,543.64,509.98,33.66,Querubin Milanes,CreditCard,543.64,TC 7533 0042 1132 7666 8150 8,,,,,,,0.00,,,,,,,,0.00,,,,,,,,YES,"2 years parts, 1 year labor (Free)",Delivered,,"Sam's Club #4786 LOGAN,UT 7/12-22/18 (NV)","Sam's Club #4786 LOGAN,UT 7/12-22/18 (NV)",,,107725,Customer pick up the Vitality Plate and Foot Vibe Pro @ Sam's Club,NV,0,6.60
7/22/2018 3:55:27 PM,Alfonso Estrada,UT,84321,Foot Vibe Pro,USJ-871,,New,,,,,543.64,509.98,33.66,Querubin Milanes,CreditCard,543.64,TC 7533 0042 1132 7666 8150 8,,,,,,,0.00,,,,,,,,0.00,,,,,,,,YES,"2 years parts, 1 year labor (Free)",Delivered,,"Sam's Club #4786 LOGAN,UT 7/12-22/18 (NV)","Sam's Club #4786 LOGAN,UT 7/12-22/18 (NV)",,,107725,Customer pick up the Vitality Plate and Foot Vibe Pro @ Sam's Club,NV,0,6.60
7/22/2018 3:59:44 PM,Alfonso Estrada,UT,84321,Foot Vibe Pro,USJ-871,,New,,,,,309.11,289.97,19.14,Querubin Milanes,CreditCard,309.11,TC 3433 1082 1132 7686 1156 8,,,,,,,0.00,,,,,,,,0.00,,,,,,,,YES,"2 years parts, 1 year labor (Free)",Delivered,,"Sam's Club #4786 LOGAN,UT 7/12-22/18 (NV)","Sam's Club #4786 LOGAN,UT 7/12-22/18 (NV)",,,107726,Customer pick up the Foot Vibe & Shogun Neck/Back @ Sam's Club,TX,0,6.60
7/22/2018 3:59:44 PM,Alfonso Estrada,UT,84321,Shogun Neck & Back Massger,USJ-874USJ-874-DEMO,Demo,Demo,,,,,309.11,289.97,19.14,Querubin Milanes,CreditCard,309.11,TC 3433 1082 1132 7686 1156 8,,,,,,,0.00,,,,,,,,0.00,,,,,,,,YES,"2 years parts, 1 year labor (Free)",Delivered,,"Sam's Club #4786 LOGAN,UT 7/12-22/18 (NV)","Sam's Club #4786 LOGAN,UT 7/12-22/18 (NV)",,,107726,Customer pick up the Foot Vibe & Shogun Neck/Back @ Sam's Club,TX,0,6.60
7/22/2018 4:10:44 PM,Olga Needham,WY,83001,Legacy for Sam's,DWA-9100DWA-9100CH-DEMO,Demo Choco,Demo,,,,,3836.53,3599.00,237.53,Querubin Milanes,CreditCard,3836.53,TC 5494 5510 0335 0845 4739 86,,,,,,,0.00,,,,,,,,0.00,,,,,,,,No,"3 years parts, 1 year labor (Free)",Delivered,New,"Sam's Club #4786 LOGAN,UT 7/12-22/18 (NV)","Sam's Club #4786 LOGAN,UT 7/12-22/18 (NV)",,,107727,"Demo Price, Demo Legacy Choco Chair.///Cristina confirmed with Querubin to deliver NEW chair. 7/25/18 Hitomi",CA,0,6.60
3/10/2019 12:52:46 PM,"U.S.  JACLEAN, INC.",CA,90249,Vitality Plate for Sam's,USJ-849USJ-849-DEMO,Demo[-60],Demo,,,,,427.39,399.99,27.40,Querubin Milanes,PurchaseOrder,427.39,,TC# 2379 6821 2727 1995 4223 3,,,,,,0.00,,,,,,,,0.00,,,,,,,,YES,"2 years parts, 1 year labor for Small Items",Delivered,,"Sam's Club #4786 LOGAN,UT 2/28-3/10/19 (NV)","Sam's Club #4786 LOGAN,UT 2/28-3/10/19 (NV)",,,115610,,CA,0,6.85
3/10/2019 12:55:27 PM,"U.S.  JACLEAN, INC.",CA,90249,Foot Vibe Pro,USJ-871,,New,,,,,117.52,109.99,7.53,Querubin Milanes,PurchaseOrder,117.52,,TC# 1904 6188 4032 8204 6398 6,,,,,,0.00,,,,,,,,0.00,,,,,,,,YES,"2 years parts, 1 year labor for Small Items",Delivered,,"Sam's Club #4786 LOGAN,UT 2/28-3/10/19 (NV)","Sam's Club #4786 LOGAN,UT 2/28-3/10/19 (NV)",,,115611,,CA,0,6.85
3/10/2019 12:57:52 PM,"U.S.  JACLEAN, INC.",CA,90249,Foot Vibe Pro,USJ-871,,New,,,,,117.52,109.99,7.53,Querubin Milanes,PurchaseOrder,117.52,,TC# 5356 5534 5383 4190 6782 2,,,,,,0.00,,,,,,,,0.00,,,,,,,,YES,"2 years parts, 1 year labor for Small Items",Delivered,,"Sam's Club #4786 LOGAN,UT 2/28-3/10/19 (NV)","Sam's Club #4786 LOGAN,UT 2/28-3/10/19 (NV)",,,115612,,CA,0,6.85
3/10/2019 1:01:43 PM,"U.S.  JACLEAN, INC.",CA,90249,Shogun Neck & Back Massger,USJ-874USJ-874-DEMO,Demo[-20],Demo,,,,,192.31,179.98,12.33,Querubin Milanes,PurchaseOrder,192.31,,TC# 5142 2222 9940 6967 8613 87,,,,,,0.00,,,,,,,,0.00,,,,,,,,YES,"2 years parts, 1 year labor for Small Items",Delivered,,"Sam's Club #4786 LOGAN,UT 2/28-3/10/19 (NV)","Sam's Club #4786 LOGAN,UT 2/28-3/10/19 (NV)",,,115613,,CA,0,6.85
3/10/2019 1:03:56 PM,"U.S.  JACLEAN, INC.",CA,90249,Shogun Neck & Back Massger,USJ-874USJ-874,New,New,,,,,213.68,199.98,13.70,Querubin Milanes,PurchaseOrder,213.68,,TC# 8888 0780 8909 0523 5040 1,,,,,,0.00,,,,,,,,0.00,,,,,,,,YES,"2 years parts, 1 year labor for Small Items",Delivered,,"Sam's Club #4786 LOGAN,UT 2/28-3/10/19 (NV)","Sam's Club #4786 LOGAN,UT 2/28-3/10/19 (NV)",,,115614,,CA,0,6.85
3/10/2019 1:07:00 PM,"U.S.  JACLEAN, INC.",CA,90249,Vitality Plate for Sam's,USJ-849USJ-849-DEMO,Demo[-60],Demo,,,,,427.39,399.99,27.40,Querubin Milanes,PurchaseOrder,427.39,,TC# 5713 1057 2292 7446 3558 8,,,,,,0.00,,,,,,,,0.00,,,,,,,,YES,"2 years parts, 1 year labor for Small Items",Delivered,,"Sam's Club #4786 LOGAN,UT 2/28-3/10/19 (NV)","Sam's Club #4786 LOGAN,UT 2/28-3/10/19 (NV)",,,115615,,CA,0,6.85
3/10/2019 1:11:48 PM,"U.S.  JACLEAN, INC.",CA,90249,Shogun Neck & Back Massger,USJ-874USJ-874,New,New,,,,,213.68,199.98,13.70,Querubin Milanes,PurchaseOrder,213.68,,TC# 3854 7148 4062 8204 9098 6,,,,,,0.00,,,,,,,,0.00,,,,,,,,YES,"2 years parts, 1 year labor for Small Items",Delivered,,"Sam's Club #4786 LOGAN,UT 2/28-3/10/19 (NV)","Sam's Club #4786 LOGAN,UT 2/28-3/10/19 (NV)",,,115616,,CA,0,6.85
3/10/2019 1:14:38 PM,"U.S.  JACLEAN, INC.",CA,90249,Foot Vibe Pro,USJ-871,,New,,,,,117.52,109.99,7.53,Querubin Milanes,PurchaseOrder,117.52,,TC# 1711 4485 7670 5887 9515 9,,,,,,0.00,,,,,,,,0.00,,,,,,,,YES,"2 years parts, 1 year labor for Small Items",Delivered,,"Sam's Club #4786 LOGAN,UT 2/28-3/10/19 (NV)","Sam's Club #4786 LOGAN,UT 2/28-3/10/19 (NV)",,,115617,,CA,0,6.85
3/10/2019 1:17:56 PM,"U.S.  JACLEAN, INC.",CA,90249,Vitality Plate for Sam's,USJ-849USJ-849,New,New,,,,,491.50,459.99,31.51,Querubin Milanes,PurchaseOrder,491.50,,TC# 9074 2118 1032 8204 7191 6,,,,,,0.00,,,,,,,,0.00,,,,,,,,YES,"2 years parts, 1 year labor for Small Items",Delivered,,"Sam's Club #4786 LOGAN,UT 2/28-3/10/19 (NV)","Sam's Club #4786 LOGAN,UT 2/28-3/10/19 (NV)",,,115618,,CA,0,6.85
3/10/2019 1:22:05 PM,"U.S.  JACLEAN, INC.",CA,90249,Foot Vibe Pro,USJ-871,,New,,,,,117.52,109.99,7.53,Querubin Milanes,PurchaseOrder,117.52,,TC# 0263 6047 8292 7406 7151 8,,,,,,0.00,,,,,,,,0.00,,,,,,,,YES,"2 years parts, 1 year labor for Small Items",Delivered,,"Sam's Club #4786 LOGAN,UT 2/28-3/10/19 (NV)","Sam's Club #4786 LOGAN,UT 2/28-3/10/19 (NV)",,,115619,,CA,0,6.85
3/10/2019 1:26:44 PM,"U.S.  JACLEAN, INC.",CA,90249,Shogun Neck & Back Massger,USJ-874USJ-874-DEMO,Demo[-20],Demo,,,,,619.70,579.97,39.73,Querubin Milanes,PurchaseOrder,619.70,,TC# 5071 4425 6656 5867 9218 9,,,,,,0.00,,,,,,,,0.00,,,,,,,,YES,"2 years parts, 1 year labor for Small Items",Delivered,,"Sam's Club #4786 LOGAN,UT 2/28-3/10/19 (NV)","Sam's Club #4786 LOGAN,UT 2/28-3/10/19 (NV)",,,115620,,CA,0,6.85
3/10/2019 1:26:44 PM,"U.S.  JACLEAN, INC.",CA,90249,Vitality Plate for Sam's,USJ-849USJ-849-DEMO,Demo[-60],Demo,,,,,619.70,579.97,39.73,Querubin Milanes,PurchaseOrder,619.70,,TC# 5071 4425 6656 5867 9218 9,,,,,,0.00,,,,,,,,0.00,,,,,,,,YES,"2 years parts, 1 year labor for Small Items",Delivered,,"Sam's Club #4786 LOGAN,UT 2/28-3/10/19 (NV)","Sam's Club #4786 LOGAN,UT 2/28-3/10/19 (NV)",,,115620,,CA,0,6.85
3/10/2019 1:29:54 PM,"U.S.  JACLEAN, INC.",CA,90249,Shogun Neck & Back Massger,USJ-874USJ-874-DEMO,Demo[-20],Demo,,,,,192.31,179.98,12.33,Querubin Milanes,PurchaseOrder,192.31,,TC# 5416 1584 5323 4150 7889 2,,,,,,0.00,,,,,,,,0.00,,,,,,,,YES,"2 years parts, 1 year labor for Small Items",Delivered,,"Sam's Club #4786 LOGAN,UT 2/28-3/10/19 (NV)","Sam's Club #4786 LOGAN,UT 2/28-3/10/19 (NV)",,,115621,,CA,0,6.85
3/11/2019 8:06:03 AM,"U.S.  JACLEAN, INC.",CA,90249,Shogun Neck & Back Massger,USJ-874USJ-874,New,New,,,,,213.68,199.98,13.70,Querubin Milanes,PurchaseOrder,213.68,,TC# 0262 2269 2474 9668 9331 7,,,,,,0.00,,,,,,,,0.00,,,,,,,,YES,"2 years parts, 1 year labor for Small Items",Delivered,,"Sam's Club #4786 LOGAN,UT 2/28-3/10/19 (NV)","Sam's Club #4786 LOGAN,UT 2/28-3/10/19 (NV)",,,115671,,CA,0,6.85
3/13/2019 8:25:45 AM,Craig Thomas,ID,83263,Pegasus for Sam's,DWA-9400Pegasus-BL-BOX,Demo Black(Box)[-700],Demo,,,,,5126.66,4798.00,328.66,Querubin Milanes,CreditCard,5126.66,TC 2738 9672 0899 5050 3024 91,,,,,,,0.00,,,,,,,,0.00,,,,,,,,No,"3 years parts, 1 year labor (Free)",Assigned,,"Sam's Club #4786 LOGAN,UT 2/28-3/10/19 (NV)","Sam's Club #4786 LOGAN,UT 2/28-3/10/19 (NV)",,,115718,"Demo Price Please Deliver a New Pegasus Black Chair.
cc Haleigh 3/13/2019",NV,0,6.85
3/13/2019 9:38:32 AM,Gerald Knight,UT,84321,Pegasus for Sam's,DWA-9400Pegasus-BL-BOX,Demo Black(Box)[-700],Demo,,,,,5126.66,4798.00,328.66,Querubin Milanes,CreditCard,5126.66,TC 5142 2222 9940 6967 8613 87,,,,,,,0.00,,,,,,,,0.00,,,,,,,,No,"3 years parts, 1 year labor (Free)",Assigned,,"Sam's Club #4786 LOGAN,UT 2/28-3/10/19 (NV)","Sam's Club #4786 LOGAN,UT 2/28-3/10/19 (NV)",,,115720,Demo Price Please Deliver a New Pegasus Black Chair.,NV,0,6.85
3/13/2019 9:46:04 AM,Rick Mayo,UT,84339,Pegasus for Sam's,DWA-9400Pegasus-BL-BOX,Demo Black(Box)[-700],Demo,,,,,5126.66,4798.00,328.66,Querubin Milanes,CreditCard,5126.66,TC 7384 6311 8206 0820 4689 36,,,,,,,0.00,,,,,,,,0.00,,,,,,,,No,"3 years parts, 1 year labor (Free)",Assigned,,"Sam's Club #4786 LOGAN,UT 2/28-3/10/19 (NV)","Sam's Club #4786 LOGAN,UT 2/28-3/10/19 (NV)",,,115721,"Demo Price Please Deliver a New Pegasus Black Chair
3/14/19-Haleigh CC",NV,0,6.85
3/13/2019 9:54:25 AM,Sandy Hansen,UT,84332,Pegasus for Sam's,DWA-9400Pegasus-BL-BOX,Demo Black(Box)[-700],Demo,,,,,5126.66,4798.00,328.66,Querubin Milanes,CreditCard,5126.66,TC 1610 9064 3886 7377 9110 85,,,,,,,0.00,,,,,,,,0.00,,,,,,,,No,"3 years parts, 1 year labor (Free)",Assigned,,"Sam's Club #4786 LOGAN,UT 2/28-3/10/19 (NV)","Sam's Club #4786 LOGAN,UT 2/28-3/10/19 (NV)",,,115722,"Demo Price Please Deliver a New Pegasus Black Chair
3/14/19-Haleigh CC",NV,0,6.85
3/13/2019 10:14:41 AM,Mark Larson,UT,84312,Pegasus for Sam's,DWA-9400Pegasus-BL-BOX,Demo Black(Box)[-700],Demo,,,,,5126.66,4798.00,328.66,Querubin Milanes,CreditCard,5126.66,TC 4737 1796 2558 6235 1026 70,,,,,,,0.00,,,,,,,,0.00,,,,,,,,No,"3 years parts, 1 year labor (Free)",Assigned,,"Sam's Club #4786 LOGAN,UT 2/28-3/10/19 (NV)","Sam's Club #4786 LOGAN,UT 2/28-3/10/19 (NV)",,,115723,3/14/19-Haleigh CC,NV,0,6.85
3/13/2019 10:23:56 AM,Hak Leng,UT,84321,Legacy for Sam's,DWA-9100DWA-9150BL-Box,Demo(Box) Black[-700],Demo,,,,,3845.53,3599.00,246.53,Querubin Milanes,CreditCard,3845.53,TC 1812 6324 9047 4961 8533 57,,,,,,,0.00,,,,,,,,0.00,,,,,,,,No,"3 years parts, 1 year labor (Free)",Assigned,,"Sam's Club #4786 LOGAN,UT 2/28-3/10/19 (NV)","Sam's Club #4786 LOGAN,UT 2/28-3/10/19 (NV)",,,115725,,NV,0,6.85
3/13/2019 11:10:58 AM,Angel Nails Thai Nguyen,UT,84335,PEGASUS 2 SMART - Sam's,PEGS-2PEGS-2-BR,New Choco,New,,,,,6874.61,6874.61,0.00,Querubin Milanes,CreditCard,5874.61,TC 9603 1809 7921 5740 6775 58,,,,,,Cash,1000.00,,,,,,,,0.00,,,,,,,,No,"5 years parts, 2 years labor ($200)",Assigned,,"Sam's Club #4786 LOGAN,UT 2/28-3/10/19 (NV)","Sam's Club #4786 LOGAN,UT 2/28-3/10/19 (NV)",,,115727,"Please Deliver a New Pegasus 2.0 Smart Choco Chair. Thank you.
3/15/19: Courtesy called 3/15 @ 3:11pm
The $1000.00 Cash is With Kohei Uno.
The 5 Years Parts and 2 Years Labor Warranty is Approved by Kohei Uno.

3/13/19-Querubin wasn't aware of PEGASUS 2 was activated in Sam's club. So he processed order as PEGASUS (NEW) at Sam's and took $1,000 in cash. Kohei has cash and will send confirmation later. - Hitomi
3/15/19-Received cash confirmation. Kohei received $1,000 cash. -Hitomi",NV,1,6.85
