﻿Original Event Name,Event Name,Sales Person,Order Number,Order Date,Customer Name,State,Zip,Product Name,Color,Product Status,QTY,Tax,Total Before Tax,Order Total,Primary Payment Method,Second Payment Method,Thirdl Payment Method,Warranty,Order Items,Pick up,Delivered On,Order Status,Chair Type,Order Notes,Private Note,Branch,No Tax,Actual Tax Rate,SKU,Primary Payment Balance,Primary Authorize Number,Primary Purchase Order Number,Primary Synchrony Account Number,Primary Synchrony Application Key,Primary Synchrony Account Info,Primary Synchrony Term,Second Payment Balance,Second Authorize Number,Second Purchase Order Number,Second Synchrony Account Number,Second Synchrony Application Key,Second Synchrony Account Info,Second SynchronyTerm,Third Payment Balance,Third Authorize Number,Third Purchase Order Number,Third Synchrony Account Number,Third Synchrony Application Key,Third Synchrony Account Info,Third Synchrony Term
Las Vegas SF Market (NV),Las Vegas SF Market (NV),Jovylyn Florea,112908,12/4/2018 4:41:34 PM,Yang Chenglong,NV,89103,PEGASUS 2 SMART,New Choco,New,1,0.00,7200.00,7200.00,Synchrony,,,"3 years parts, 1 year labor (Free)","PEGASUS 2 SMART,",No,,Cancelled,,,"Synchrony approved only $1,500. I will confirm the situation. 12/5/18 Hitomi
Jovylyn informed to cancel . - 12/5/18 @11:10 Hitomi",Not Dispatched,1,8.15,PEGS-2PEGS-2-BR,7200.00,,,6019170813281711,98116904,Las Vegas,36 months,0.00,,,,,,,0.00,,,,,,
Las Vegas SF Market (NV),Las Vegas SF Market (NV),Joy Anne Torres,112951,12/6/2018 4:51:15 PM,Trinidad Ganir,NV,89139,Kawasaki Massage Lounger,Black Armrest,New,1,0.00,1000.00,1000.00,CreditCard,,,"3 years parts, 1 year labor (Free)","Kawasaki Massage Lounger,",No,12/7/2018 12:00:00 AM,Delivered,New,,"Confirmed 	Square#yzCs-$1,000 (Auth code: 006926) , Kohei is aware of this order and approved to process -12/7/18 Hitomi
12/11/18 courtesy call completed- cristina 11:30
12/7 Delivered by Rex Q",NV,1,8.15,USJ-6000USJ-6000KU,1000.00,Receipt #yzCs,,,,,,0.00,,,,,,,0.00,,,,,,
Las Vegas SF Market (NV),Las Vegas SF Market (NV),Jovylyn Florea,113019,12/8/2018 2:44:10 PM,Ann Caday,NV,89142,Majesty,New Choco,New,1,0.00,3000.00,3000.00,Synchrony,,,"3 years parts, 1 year labor (Free)","Majesty,",No,12/13/2018 12:00:00 AM,Delivered,New,,"Please deliver ASAP thank you
//COnfirmed SYNC($3,000) and original. ***Please charge $3,000 before delivery and sales draft signed.*** 12/10/18 Hitomi
12/13-Delivered by Rex",NV,1,8.15,MAJ-1010MAJ-1010-BR,3000.00,,,6019170813287437,98285531,Las Vegas,24 months,0.00,,,,,,,0.00,,,,,,
Las Vegas SF Market (NV),Las Vegas SF Market (NV),Jovylyn Florea,113474,12/18/2018 8:45:34 PM,Nam Hoang,WA,98408,PEGASUS 2 SMART,New Black,New,1,0.00,6700.00,6700.00,Synchrony,,,"3 years parts, 1 year labor (Free)","PEGASUS 2 SMART,",No,,Scheduled,,,"COnfirmed SYNC($8,500) and original.***Please charge $6,700 before delivery and sales draft signed.*** 12/19/18 Hitomi
12/20/18- Courtesy call/text completed- Cristina 10:19 am
Scheduled Dec 31st 8am to 10am",WA,1,8.15,PEGS-2PEGS-2-BL,6700.00,,,6019170813303093,98723331,Las Vegas,36 months,0.00,,,,,,,0.00,,,,,,
