﻿Order Number,Order Date,Event Name,Salesperson,SKU,Product Name,Color,QTY,Warranty,Payment Details,Tax,Order Total,Gross,Primary Payment Method,Primary Payment Balance,Primary Authorize Number,Primary Purchase Order Number,Primary Synchrony Account Number,Primary Synchrony Application Key,Primary Synchrony AccountInfo,Primary SynchronyTerm,Secondly Payment Method,Secondly Payment Balance,Secondly Authorize Number,Secondly Purchase Order Number,Secondly Synchrony Account Number,Secondly Synchrony Application Key,Secondly Synchrony AccountInfo,Secondly SynchronyTerm,Thirdly Payment Method,Thirdly Payment Balance,Thirdly Authorize Number,Thirdly Purchase Order Number,Thirdly Synchrony Account Number,Thirdly Synchrony Application Key,Thirdly Synchrony AccountInfo,Thirdly SynchronyTerm,Actual Shipping Cost,CustomerName,Shipping Address,Delivered On,Serial Number (TO Be),Note,Branch,IsNoTax,ActualTaxRate
102307,12/7/2017 1:14:24 PM,Stetson Country Christmas 12/7-17/17 (NV),Ruben Cuatrona,DWA-9150USJ-9150CH,Legacy 3D,Choco Brown,1,"3 years parts, 1 year labor (Free)",CUSTOM ,268.04,4267.00,4267.00,CreditCard,0.00,Approval #35008D,,,,,,,0.00,,,,,,,,0.00,,,,,,,0.00,Cheryl Link,540-570-1349,1/15/2018 12:00:00 AM,,,TX,0,8.25
102313,12/7/2017 10:30:59 PM,Stetson Country Christmas 12/7-17/17 (NV),Patricia Whipple,DWA-9400Pegasus-BR,Pegasus,Choco Brown,1,"3 years parts, 1 year labor (Free)",CUSTOM ,0.00,5948.00,5948.00,CreditCard,5948.25,864206,,,,,,,0.00,,,,,,,,0.00,,,,,,,0.00,Marchel Newman,8014556645,12/21/2017 12:00:00 AM,,,NV,1,8.25
102314,12/7/2017 10:37:57 PM,Stetson Country Christmas 12/7-17/17 (NV),Rolly San Jose,DWA-9150USJ-9150CH,Legacy 3D,Choco Brown,1,"3 years parts, 1 year labor (Free)",CUSTOM ,0.00,4330.00,4330.00,CreditCard,4330.00,007980,,,,,,,0.00,,,,,,,,0.00,,,,,,,350.00,Kelby Bond,7192511702,12/12/2017 12:00:00 AM,,,TX,1,8.25
102323,12/8/2017 10:30:40 AM,Stetson Country Christmas 12/7-17/17 (NV),Abagail Stirling,DWA-9060USJ-9060BR,Relax2Zero 3D,Choco Brown,1,"2 years parts, 1 year labor (Small Items)",CUSTOM ,0.00,4600.00,4600.00,CreditCard,4600.00,05483G,,,,,,,0.00,,,,,,,,0.00,,,,,,,0.00,Lynnette Goodson,208 882 5460,12/26/2017 12:00:00 AM,,,WA,1,8.25
102324,12/8/2017 10:47:05 AM,Stetson Country Christmas 12/7-17/17 (NV),Ilene Maynard,DWA-9060USJ-9060BR,Relax2Zero 3D,Choco Brown,1,"3 years parts, 1 year labor (Free)",CUSTOM ,0.00,4500.00,4500.00,Synchrony,4500.00,,,6034610081687322,82223572,San Diego,36 months,,0.00,,,,,,,,0.00,,,,,,,0.00,Shiann Panetta,307 751 6253,12/15/2017 12:00:00 AM,,,NV,1,8.25
102325,12/8/2017 10:53:04 AM,Stetson Country Christmas 12/7-17/17 (NV),Ilene Maynard,DWA-9060USJ-9060BR,Relax2Zero 3D,Choco Brown,1,"3 years parts, 1 year labor (Free)",CUSTOM ,0.00,3900.00,3900.00,CreditCard,3900.00,007545,,,,,,,0.00,,,,,,,,0.00,,,,,,,350.00,Cory Gill,970 215 4609,12/12/2017 12:00:00 AM,,,TX,1,8.25
102332,12/8/2017 9:58:15 PM,Stetson Country Christmas 12/7-17/17 (NV),Gail Kerns,DWA-9150USJ-9150BL,Legacy 3D,Black,1,"3 years parts, 1 year labor (Free)",CUSTOM ,0.00,4547.00,4547.00,CreditCard,0.00,045417,,,,,,,0.00,,,,,,,,0.00,,,,,,,350.00,William Hodge,7133920111,12/19/2017 12:00:00 AM,,,TX,1,8.25
102354,12/9/2017 9:04:12 PM,Stetson Country Christmas 12/7-17/17 (NV),Rolly San Jose,DWA-9400Pegasus-BR,Pegasus,Choco Brown,1,"3 years parts, 1 year labor (Free)",CUSTOM ,0.00,5304.00,5304.00,CreditCard,0.00,05676d,,,,,,,0.00,,,,,,,,0.00,,,,,,,0.00,Lynn Austin,5592602737,12/21/2017 12:00:00 AM,,,CA,1,8.25
102356,12/9/2017 9:27:44 PM,Stetson Country Christmas 12/7-17/17 (NV),Ruben Cuatrona,DWA-9150USJ-9150CH-DEMO,Legacy 3D,Demo Choco Brown,1,"3 years parts, 1 year labor (Free)",CUSTOM ,0.00,4221.00,4221.00,Synchrony,0.00,,,6034610081691530,82310916,San Diego,36 months,,0.00,,,,,,,,0.00,,,,,,,350.00,David Flom,5072980125,12/16/2017 12:00:00 AM,,,TX,1,8.25
102358,12/9/2017 9:37:46 PM,Stetson Country Christmas 12/7-17/17 (NV),Ruben Cuatrona,DWA-9150USJ-9150CH,Legacy 3D,Choco Brown,1,"3 years parts, 1 year labor (Free)",CUSTOM ,0.00,4000.00,4000.00,Synchrony,0.00,,,6034610081090664,82298757,San Diego,24 months,,0.00,,,,,,,,0.00,,,,,,,350.00,Lisa Morris,3183721993,12/15/2017 12:00:00 AM,,,TX,1,8.25
102359,12/9/2017 9:55:52 PM,Stetson Country Christmas 12/7-17/17 (NV),Rolly San Jose,DWA-9400Pegasus-BR,Pegasus,Choco Brown,1,"3 years parts, 1 year labor (Free)",CUSTOM ,0.00,5629.00,5629.00,Synchrony,0.00,,,6034610081691605,82411428,San Diego,48 months,,0.00,,,,,,,,0.00,,,,,,,350.00,Lawrence Ford,4052194041,12/16/2017 12:00:00 AM,,,TX,1,8.25
102359,12/9/2017 9:55:52 PM,Stetson Country Christmas 12/7-17/17 (NV),Rolly San Jose,,Chair Pad for Pegasus,,1,no warranty,CUSTOM ,0.00,5629.00,5629.00,Synchrony,0.00,,,6034610081691605,82411428,San Diego,48 months,,0.00,,,,,,,,0.00,,,,,,,350.00,Lawrence Ford,4052194041,12/16/2017 12:00:00 AM,,,TX,1,8.25
102360,12/9/2017 10:16:16 PM,Stetson Country Christmas 12/7-17/17 (NV),Ruben Cuatrona,DWA-9400Pegasus-BR,Pegasus,Choco Brown,1,"3 years parts, 1 year labor (Free)",CUSTOM COD,0.00,5304.00,5304.00,CreditCard,1000.00,00449b,,,,,,COD,4300.00,,,,,,,,0.00,,,,,,,0.00,Floyd Simmers,7759621476,12/19/2017 12:00:00 AM,,,CA,1,8.25
102361,12/9/2017 10:36:53 PM,Stetson Country Christmas 12/7-17/17 (NV),Rolly San Jose,DWA-9150USJ-9150CH,Legacy 3D,Choco Brown,1,"3 years parts, 1 year labor (Free)",CUSTOM ,0.00,4500.00,4500.00,CreditCard,4500.00,00980b,,,,,,,0.00,,,,,,,,0.00,,,,,,,350.00,Debra Moses,3038179830,12/13/2017 12:00:00 AM,,,TX,1,8.25
102362,12/9/2017 10:45:12 PM,Stetson Country Christmas 12/7-17/17 (NV),Ruben Cuatrona,DWA-9150USJ-9150CH,Legacy 3D,Choco Brown,1,"3 years parts, 1 year labor (Free)",CUSTOM CreditCard,0.00,4000.00,4000.00,Synchrony,3500.00,,,6034610081691761,82313734,San Diego,48 months,CreditCard,500.00,024966,,,,,,,0.00,,,,,,,0.00,Kelly Rakowitz,2107094180,1/24/2018 12:00:00 AM,,,TX,1,8.25
102389,12/10/2017 9:23:45 PM,Stetson Country Christmas 12/7-17/17 (NV),Rolly San Jose,DWA-9150USJ-9150BL,Legacy 3D,Black,1,"3 years parts, 1 year labor (Free)",CUSTOM COD,0.00,4000.00,4000.00,Synchrony,0.00,,,6034610081688627,82258150,San Diego,36 months,COD,0.00,,,,,,,,0.00,,,,,,,350.00,Louann Sanders,8595529794,12/17/2017 12:00:00 AM,,,TX,1,8.25
102400,12/11/2017 10:28:08 AM,Stetson Country Christmas 12/7-17/17 (NV),Ilene Maynard,DWA-9060USJ-9060BR,Relax2Zero 3D,Choco Brown,2,"3 years parts, 1 year labor (Free)",CUSTOM ,0.00,8600.00,8600.00,Synchrony,8600.00,,,6034610081691076,82304192,San Diego,36 months,,0.00,,,,,,,,0.00,,,,,,,350.00,Jason Kindle,660 287 1862,12/13/2017 12:00:00 AM,,,TX,1,8.25
102401,12/11/2017 10:37:15 AM,Stetson Country Christmas 12/7-17/17 (NV),Ilene Maynard,DWA-9060USJ-9060BR,Relax2Zero 3D,Choco Brown,1,"3 years parts, 1 year labor (Free)",CUSTOM COD,0.00,3900.00,3900.00,Synchrony,3000.00,,,6034610081691399,82308387,San Diego,36 months,COD,900.00,,,,,,,,0.00,,,,,,,0.00,Jonathan Perez,831 776 9341,12/21/2017 12:00:00 AM,,,CA,1,8.25
102402,12/11/2017 10:43:37 AM,Stetson Country Christmas 12/7-17/17 (NV),Abagail Stirling,DWA-9060USJ-9060BR,Relax2Zero 3D,Choco Brown,1,"3 years parts, 1 year labor (Free)",CUSTOM ,0.00,4500.00,4500.00,CreditCard,4500.00,66636D,,,,,,,0.00,,,,,,,,0.00,,,,,,,0.00,Christine and peter Schueler,904 647 6804,12/20/2017 12:00:00 AM,,,FL,1,8.25
102403,12/11/2017 10:50:27 AM,Stetson Country Christmas 12/7-17/17 (NV),Abagail Stirling,DWA-9150USJ-9150CH,Legacy 3D,Choco Brown,1,"3 years parts, 1 year labor (Free)",CUSTOM ,0.00,4300.00,4300.00,CreditCard,4300.00,808426,,,,,,,0.00,,,,,,,,0.00,,,,,,,350.00,Randy Killam,817 583 3846,12/19/2017 12:00:00 AM,,,TX,1,8.25
102404,12/11/2017 10:57:11 AM,Stetson Country Christmas 12/7-17/17 (NV),Ilene Maynard,DWA-9060USJ-9060BR,Relax2Zero 3D,Choco Brown,1,"3 years parts, 1 year labor (Free)",CUSTOM ,0.00,3700.00,3700.00,CreditCard,3700.00,01033R,,,,,,,0.00,,,,,,,,0.00,,,,,,,0.00,Steve Brockus,805 732 7704,,,,CA,1,8.25
102423,12/12/2017 1:59:38 PM,Stetson Country Christmas 12/7-17/17 (NV),Rolly San Jose,DWA-9150USJ-9150CH,Legacy 3D,Choco Brown,1,"3 years parts, 1 year labor (Free)",CUSTOM ,0.00,4871.00,4871.00,CreditCard,4871.00,411100,,,,,,,0.00,,,,,,,,0.00,,,,,,,0.00,Kent Meshishnek,2083051209,12/26/2017 12:00:00 AM,,,WA,1,8.25
102424,12/12/2017 2:50:14 PM,Stetson Country Christmas 12/7-17/17 (NV),Ruben Cuatrona,DWA-9150USJ-9150CH,Legacy 3D,Choco Brown,1,"3 years parts, 1 year labor (Free)",CUSTOM ,0.00,3900.00,3900.00,CreditCard,3900.00,097552,,,,,,,0.00,,,,,,,,0.00,,,,,,,350.00,Don Bowles,4322676411,1/3/2018 12:00:00 AM,,,TX,1,8.25
102425,12/12/2017 2:58:13 PM,Stetson Country Christmas 12/7-17/17 (NV),Rolly San Jose,DWA-9400Pegasus-BL,Pegasus,Black,1,"3 years parts, 1 year labor (Free)",CUSTOM ,0.00,4900.00,4900.00,CreditCard,0.00,01738c,,,,,,,0.00,,,,,,,,0.00,,,,,,,350.00,Steve Wolf,4329653500,1/3/2018 12:00:00 AM,,,TX,1,8.25
102429,12/12/2017 3:57:54 PM,Stetson Country Christmas 12/7-17/17 (NV),Ruben Cuatrona,DWA-9150USJ-9150CH,Legacy 3D,Choco Brown,1,"3 years parts, 1 year labor (Free)",CUSTOM ,0.00,4500.00,4500.00,Synchrony,4500.00,,,6034610081697313,82433579,San Diego,36 months,,0.00,,,,,,,,0.00,,,,,,,0.00,Lisa Colby,317 716 0965,,,,TX,1,8.25
102431,12/12/2017 4:05:23 PM,Stetson Country Christmas 12/7-17/17 (NV),Ruben Cuatrona,DWA-9150USJ-9150CH,Legacy 3D,Choco Brown,1,"3 years parts, 1 year labor (Free)",CUSTOM ,0.00,4500.00,4500.00,Synchrony,4500.00,,,6034610081697339,82433839,San Diego,36 months,,0.00,,,,,,,,0.00,,,,,,,0.00,Gregory Sutphin,317 965 8179,,,,TX,1,8.25
102432,12/12/2017 4:14:03 PM,Stetson Country Christmas 12/7-17/17 (NV),Ruben Cuatrona,DWA-9150USJ-9150CH,Legacy 3D,Choco Brown,1,"3 years parts, 1 year labor (Free)",CUSTOM ,0.00,4800.00,4800.00,Synchrony,4800.00,,,6034610081697388,82434107,San Diego,48 months,,0.00,,,,,,,,0.00,,,,,,,0.00,Cheryl Medeiros,808 281 3011,,,,HI,1,8.25
102433,12/12/2017 4:30:48 PM,Stetson Country Christmas 12/7-17/17 (NV),Ruben Cuatrona,DWA-9150USJ-9150CH,Legacy 3D,Choco Brown,1,"3 years parts, 1 year labor (Free)",CUSTOM ,0.00,3900.00,3900.00,CreditCard,3900.00,05271C,,,,,,,0.00,,,,,,,,0.00,,,,,,,350.00,Allan Tucker,575 910 7509,12/21/2017 12:00:00 AM,,,TX,1,8.25
102433,12/12/2017 4:30:48 PM,Stetson Country Christmas 12/7-17/17 (NV),Ruben Cuatrona,,Tourmaline Pad for Legacy 3D,,1,no warranty,CUSTOM ,0.00,3900.00,3900.00,CreditCard,3900.00,05271C,,,,,,,0.00,,,,,,,,0.00,,,,,,,350.00,Allan Tucker,575 910 7509,12/21/2017 12:00:00 AM,,,TX,1,8.25
102434,12/12/2017 4:42:47 PM,Stetson Country Christmas 12/7-17/17 (NV),Ruben Cuatrona,DWA-9400Pegasus-BR,Pegasus,Choco Brown,2,"3 years parts, 1 year labor (Free)",CUSTOM ,0.00,7500.00,7500.00,CreditCard,7500.00,220248,,,,,,,0.00,,,,,,,,0.00,,,,,,,0.00,Bruce Biffert,701 225 4521,12/14/2017 12:00:00 AM,,,CA,1,8.25
102435,12/12/2017 4:48:00 PM,Stetson Country Christmas 12/7-17/17 (NV),Patricia Whipple,DWA-9150USJ-9150CH,Legacy 3D,Choco Brown,1,"3 years parts, 1 year labor (Free)",CUSTOM ,0.00,4200.00,4200.00,CreditCard,4200.00,07290Z,,,,,,,0.00,,,,,,,,0.00,,,,,,,350.00,Steve Brend,316 648 4842,12/28/2017 12:00:00 AM,,,TX,1,8.25
102448,12/13/2017 10:40:00 AM,Stetson Country Christmas 12/7-17/17 (NV),Abagail Stirling,DWA-9400Pegasus-BL,Pegasus,Black,1,"3 years parts, 1 year labor (Free)",CUSTOM ,0.00,4800.00,4800.00,CreditCard,4800.00,824520,,,,,,,0.00,,,,,,,,0.00,,,,,,,0.00,Stand Rowlan,435 994 1096,12/20/2017 12:00:00 AM,,,NV,1,8.25
102452,12/13/2017 9:12:47 PM,Stetson Country Christmas 12/7-17/17 (NV),Patricia Whipple,DWA-9150USJ-9150CH,Legacy 3D,Choco Brown,1,"3 years parts, 1 year labor (Free)",CUSTOM ,0.00,4871.00,4871.00,CreditCard,4871.00,01111c,,,,,,,0.00,,,,,,,,0.00,,,,,,,0.00,Melody Bowar,3072773800,12/14/2017 12:00:00 AM,,,CA,1,8.25
102453,12/13/2017 9:50:56 PM,Stetson Country Christmas 12/7-17/17 (NV),Bonnie Brooks,DWA-9400Pegasus-BR,Pegasus,Choco Brown,1,"3 years parts, 1 year labor (Free)",CUSTOM ,0.00,5954.00,5954.00,Synchrony,5954.00,,,6034610081698550,82472492,San Diego,36 months,,0.00,,,,,,,,0.00,,,,,,,0.00,Debra Russell,3073592792,12/14/2017 12:00:00 AM,,,CA,1,8.25
102454,12/13/2017 9:57:30 PM,Stetson Country Christmas 12/7-17/17 (NV),Rolly San Jose,DWA-9400Pegasus-BR,Pegasus,Choco Brown,1,"3 years parts, 1 year labor (Free)",CUSTOM ,0.00,5304.00,5304.00,CreditCard,5304.00,02833z,,,,,,,0.00,,,,,,,,0.00,,,,,,,350.00,Howard Click,9188410843,12/17/2017 12:00:00 AM,,,TX,1,8.25
102458,12/14/2017 10:33:43 AM,Stetson Country Christmas 12/7-17/17 (NV),Ilene Maynard,DWA-9060USJ-9060BL,Relax2Zero 3D,Black,1,"3 years parts, 1 year labor (Free)",CUSTOM ,0.00,4400.00,4400.00,CreditCard,4500.00,033579,,,,,,,0.00,,,,,,,,0.00,,,,,,,0.00,Lisa Brooks,229 777 7712,1/4/2018 12:00:00 AM,,,FL,1,8.25
102468,12/14/2017 11:20:23 PM,Stetson Country Christmas 12/7-17/17 (NV),Bonnie Brooks,DWA-9150USJ-9150CH-DEMO,Legacy 3D,Demo Choco Brown,1,"3 years parts, 1 year labor (Free)",CUSTOM ,0.00,4222.00,4222.00,CreditCard,0.00,863223,,,,,,,0.00,,,,,,,,0.00,,,,,,,350.00,Ron Maddux,8309970443,12/22/2017 12:00:00 AM,,,TX,1,8.25
102469,12/14/2017 11:28:05 PM,Stetson Country Christmas 12/7-17/17 (NV),Ruben Cuatrona,DWA-9150USJ-9150CH-DEMO,Legacy 3D,Demo Choco Brown,1,"3 years parts, 1 year labor (Free)",CUSTOM ,0.00,3700.00,3700.00,CreditCard,0.00,888173,,,,,,,0.00,,,,,,,,0.00,,,,,,,350.00,Josh Palmer,9036810058,12/23/2017 12:00:00 AM,,,TX,1,8.25
102470,12/14/2017 11:35:01 PM,Stetson Country Christmas 12/7-17/17 (NV),Ruben Cuatrona,DWA-9400Pegasus-BR,Pegasus,Choco Brown,1,"3 years parts, 1 year labor (Free)",CUSTOM ,0.00,4800.00,4800.00,Synchrony,0.00,,,6034610083000516,82512672,San Diego,48 months,,0.00,,,,,,,,0.00,,,,,,,0.00,Amy Pippinger,9518491042,12/22/2017 12:00:00 AM,,,CA,1,8.25
102479,12/15/2017 3:09:01 PM,Stetson Country Christmas 12/7-17/17 (NV),Rolly San Jose,DWA-9150USJ-9150CH,Legacy 3D,Choco Brown,1,"3 years parts, 1 year labor (Free)",CUSTOM ,0.00,4871.00,4871.00,Synchrony,4871.00,,,6034610083002082,82551054,San Diego,36 months,,0.00,,,,,,,,0.00,,,,,,,350.00,Thomas Olson,508-867-3908,12/22/2017 12:00:00 AM,,,TX,1,8.25
102480,12/15/2017 3:16:23 PM,Stetson Country Christmas 12/7-17/17 (NV),Rolly San Jose,DWA-9150USJ-9150BL,Legacy 3D,Black,1,"3 years parts, 1 year labor (Free)",CUSTOM ,0.00,4222.00,4222.00,Synchrony,4222.00,,,6034610083002116,82551401,San Diego,36 months,,0.00,,,,,,,,0.00,,,,,,,0.00,Chels Johnson,208-941-6337,12/22/2017 12:00:00 AM,,,NV,1,8.25
102481,12/15/2017 3:23:05 PM,Stetson Country Christmas 12/7-17/17 (NV),Ruben Cuatrona,DWA-9150USJ-9150CH-DEMO,Legacy 3D,Demo Choco Brown,1,"3 years parts, 1 year labor (Free)",CUSTOM ,0.00,3500.00,3500.00,Synchrony,3500.00,,,6034610083002223,82554018,San Diego,36 months,,0.00,,,,,,,,0.00,,,,,,,0.00,Karen Walker,520-971-9724,12/20/2017 12:00:00 AM,,,CA,1,8.25
102482,12/15/2017 3:29:26 PM,Stetson Country Christmas 12/7-17/17 (NV),Lori Daringer,DWA-9150USJ-9150CH,Legacy 3D,Choco Brown,1,"3 years parts, 1 year labor (Free)",CUSTOM ,0.00,3900.00,3900.00,CreditCard,3900.00,08758G,,,,,,,0.00,,,,,,,,0.00,,,,,,,0.00,Matt Kalmar,801-465-4467,12/21/2017 12:00:00 AM,,,NV,1,8.25
102498,12/16/2017 4:32:09 PM,Stetson Country Christmas 12/7-17/17 (NV),Abagail Stirling,DWA-9060USJ-9060BL,Relax2Zero 3D,Black,1,"3 years parts, 1 year labor (Free)",CUSTOM ,0.00,3900.00,3900.00,Synchrony,3900.00,,,6034610083004740,82604619,San Diego,36 months,,0.00,,,,,,,,0.00,,,,,,,350.00,Herman Mitchell,505 860 5811,1/4/2018 12:00:00 AM,,,TX,1,8.25
102499,12/16/2017 4:38:09 PM,Stetson Country Christmas 12/7-17/17 (NV),Abagail Stirling,DWA-9060USJ-9060BR,Relax2Zero 3D,Choco Brown,1,"3 years parts, 1 year labor (Free)",CUSTOM ,0.00,4200.00,4200.00,Synchrony,4200.00,,,6034610083004328,82599790,San Diego,36 months,,0.00,,,,,,,,0.00,,,,,,,0.00,Suzanne Wiczek,714 803 8436,12/22/2017 12:00:00 AM,,,CA,1,8.25
102500,12/16/2017 4:43:15 PM,Stetson Country Christmas 12/7-17/17 (NV),Ruben Cuatrona,DWA-9150USJ-9150CH,Legacy 3D,Choco Brown,1,"3 years parts, 1 year labor (Free)",CUSTOM ,0.00,3600.00,3600.00,CreditCard,3600.00,094383,,,,,,,0.00,,,,,,,,0.00,,,,,,,0.00,Melissa Park,801-864-2401,12/21/2017 12:00:00 AM,,,NV,1,8.25
102501,12/16/2017 4:45:43 PM,Stetson Country Christmas 12/7-17/17 (NV),Ilene Maynard,DWA-9060USJ-9060BR,Relax2Zero 3D,Choco Brown,1,"3 years parts, 1 year labor (Free)",CUSTOM CreditCard,0.00,4500.00,4500.00,Synchrony,2000.00,,,6034610083003320,82584007,San Diego,36 months,CreditCard,2500.00,862054,,,,,,,0.00,,,,,,,350.00,Teresa Oliver,405 368 8741,12/27/2017 12:00:00 AM,,,TX,1,8.25
102502,12/16/2017 4:50:53 PM,Stetson Country Christmas 12/7-17/17 (NV),Ruben Cuatrona,DWA-9150USJ-9150CH,Legacy 3D,Choco Brown,1,"3 years parts, 1 year labor (Free)",CUSTOM ,0.00,3600.00,3600.00,CreditCard,3600.00,64024A,,,,,,,0.00,,,,,,,,0.00,,,,,,,0.00,Brandon Lawrence,801-971-2533,12/21/2017 12:00:00 AM,,,NV,1,8.25
102503,12/16/2017 4:51:27 PM,Stetson Country Christmas 12/7-17/17 (NV),Ilene Maynard,DWA-9060USJ-9060BL,Relax2Zero 3D,Black,1,"3 years parts, 1 year labor (Free)",CUSTOM ,0.00,4500.00,4500.00,Synchrony,4500.00,,,6034610083003262,82583599,San Diego,36 months,,0.00,,,,,,,,0.00,,,,,,,350.00,Rhonda Jantzen,580 747 3436,1/2/2018 12:00:00 AM,,,TX,1,8.25
102504,12/16/2017 4:56:57 PM,Stetson Country Christmas 12/7-17/17 (NV),Ruben Cuatrona,DWA-9150USJ-9150CH,Legacy 3D,Choco Brown,1,"3 years parts, 1 year labor (Free)",CUSTOM ,0.00,3900.00,3900.00,CreditCard,3900.00,07614D,,,,,,,0.00,,,,,,,,0.00,,,,,,,0.00,Neil and Jill Kayser,509-773-4865,1/8/2018 12:00:00 AM,,,WA,1,8.25
102505,12/16/2017 5:04:56 PM,Stetson Country Christmas 12/7-17/17 (NV),Bonnie Brooks,DWA-9150USJ-9150CH-DEMO,Legacy 3D,Demo Choco Brown,1,"3 years parts, 1 year labor (Free)",CUSTOM ,0.00,3789.00,3789.00,Synchrony,3789.00,,,6034610083004930,82606526,San Diego,36 months,,0.00,,,,,,,,0.00,,,,,,,0.00,Gary Sampson,970-663-9392,,,,TX,1,8.25
102506,12/16/2017 5:10:28 PM,Stetson Country Christmas 12/7-17/17 (NV),Rolly San Jose,DWA-9400Pegasus-BR,Pegasus,Choco Brown,1,"3 years parts, 1 year labor (Free)",CUSTOM ,0.00,5304.00,5304.00,CreditCard,5304.00,801570,,,,,,,0.00,,,,,,,,0.00,,,,,,,0.00,Don Kosheba,231-206-3524,,,,TX,1,8.25
102508,12/16/2017 5:15:08 PM,Stetson Country Christmas 12/7-17/17 (NV),Ruben Cuatrona,DWA-9150USJ-9150CH,Legacy 3D,Choco Brown,1,"3 years parts, 1 year labor (Free)",CUSTOM ,0.00,3900.00,3900.00,Synchrony,3900.00,,,6034610083004906,82606079,San Diego,36 months,,0.00,,,,,,,,0.00,,,,,,,350.00,Tom Marshall,815-343-1191,12/20/2017 12:00:00 AM,,,TX,1,8.25
102530,12/17/2017 1:35:00 AM,Stetson Country Christmas 12/7-17/17 (NV),Rolly San Jose,DWA-9150USJ-9150CH,Legacy 3D,Choco Brown,1,"3 years parts, 1 year labor (Free)",CUSTOM ,0.00,4871.00,4871.00,Synchrony,0.00,,,6034610083005036,82607072,San Diego,36 months,,0.00,,,,,,,,0.00,,,,,,,0.00,Sonya Saadati,4232171174,,,,CA,1,8.25
102534,12/17/2017 10:10:07 AM,Stetson Country Christmas 12/7-17/17 (NV),Rolly San Jose,DWA-9400Pegasus-BR,Pegasus,Choco Brown,1,"3 years parts, 1 year labor (Free)",CUSTOM ,0.00,4900.00,4900.00,COD,0.00,,,,,,,,0.00,,,,,,,,0.00,,,,,,,0.00,Brad Johnson,208-550-0444,12/22/2017 12:00:00 AM,,,NV,1,8.25
102536,12/17/2017 10:21:10 AM,Stetson Country Christmas 12/7-17/17 (NV),Rolly San Jose,DWA-9400Pegasus-BR,Pegasus,Choco Brown,1,"3 years parts, 1 year labor (Free)",CUSTOM ,0.00,5404.00,5404.00,Synchrony,1500.00,,,6034610081691563,82311200,San Diego,48 months,,0.00,,,,,,,,0.00,,,,,,,0.00,Lee Cervantes,210-834-2060,,,,TX,1,8.25
102548,12/17/2017 4:09:03 PM,Stetson Country Christmas 12/7-17/17 (NV),Abagail Stirling,DWA-9060USJ-9060BR,Relax2Zero 3D,Choco Brown,1,"3 years parts, 1 year labor (Free)",CUSTOM ,0.00,3500.00,3500.00,Synchrony,3500.00,,,6034610083006604,82638143,San Diego,36 months,,0.00,,,,,,,,0.00,,,,,,,0.00,Nancy O ja,702 279 3945,12/18/2017 12:00:00 AM,,,NV,1,8.25
102587,12/18/2017 4:52:52 PM,Stetson Country Christmas 12/7-17/17 (NV),Rolly San Jose,DWA-9400Pegasus-BR,Pegasus,Choco Brown,1,"3 years parts, 1 year labor (Free)",CUSTOM ,0.00,3900.00,3900.00,CreditCard,3900.00,01409D,,,,,,,0.00,,,,,,,,0.00,,,,,,,0.00,CLIFFORD LAMPING,209-993-0079,12/19/2017 12:00:00 AM,,,NV,1,8.25
