﻿Original Event Name,Event Name,Sales Person,Order Number,Order Date,Customer Name,State,Zip,Product Name,Color,Product Status,QTY,Tax,Total Before Tax,Order Total,Primary Payment Method,Second Payment Method,Thirdl Payment Method,Warranty,Order Items,Pick up,Delivered On,Order Status,Chair Type,Order Notes,Private Note,Branch,No Tax,Actual Tax Rate,SKU,Primary Payment Balance,Primary Authorize Number,Primary Purchase Order Number,Primary Synchrony Account Number,Primary Synchrony Application Key,Primary Synchrony Account Info,Primary Synchrony Term,Primary Synchrony Primary ID,Primary Synchrony Issued State,Primary Synchrony Expiretion Date,Second Payment Balance,Second Authorize Number,Second Purchase Order Number,Second Synchrony Account Number,Second Synchrony Application Key,Second Synchrony Account Info,Second SynchronyTerm,Second Synchrony Primary ID,Second Synchrony Issued State,Second Synchrony Expiretion Date,Third Payment Balance,Third Authorize Number,Third Purchase Order Number,Third Synchrony Account Number,Third Synchrony Application Key,Third Synchrony Account Info,Third Synchrony Term,Third Synchrony Primary ID,Third Synchrony Issued State,Third Synchrony Expiretion Date
"Colorado State Fair 8/23-9/2/19 Pueblo, CO","Colorado State Fair 8/23-9/2/19 Pueblo, CO",Noni Ignacio,120565,8/30/2019 11:29:36 PM,Donna Casper,CO,81005,PEGASUS 2 SMART,New Choco,New,1,0.00,4500.00,4500.00,Synchrony,Cash,,"5 years parts, 2 years labor ($200)","PEGASUS 2 SMART,",No,,Scheduled,,"CASH $1500
2 TO 3 WEEKS DELIVERY","Original received. $1500 cash deposit received by Noni. (he will turn it in to IL branch). Synchrony account verified. credit available $3000. Remaining balance $3000. Charge synchrony account upon delivery, have sales draft signed-Erika 9/4/19 11:16am
cc per cristina assigned to alysa-Erika
9/4 - Alysa - Printed - Customer confirmed delivery Sun 9/8 between 4-7PM - Synchrony Authorization Code
004998",TX,1,7.60,PEGS-2PEGS-2-BR,3000.00,,,6501723375296488,80317886,Las Vegas,48 months,Driver’s License,CO,05/2021,1500.00,,,,,,,,,/,0.00,,,,,,,,,/
"Colorado State Fair 8/23-9/2/19 Pueblo, CO","Colorado State Fair 8/23-9/2/19 Pueblo, CO",Noni Ignacio,120566,8/30/2019 11:38:38 PM,Randy Johnson,CO,81212,Majesty,New Black,New,1,0.00,3100.00,3100.00,Cash,COD,,"5 years parts, 1 year labor (Free)","Majesty,",No,,Cancelled,,"CASH ADVAANCE $100
BALANCE OF $2900 IN CASH UPON
DELIVERY.","Original received. $100 cash deposit received by Noni. (he will turn in to illinois.) Remaining balance $2900. Collect Cod @ delivery-Erika 9/3/19 2:51pm
Wrong total inpuuted on Daiwa new order#120748-Erika",Not Dispatched,1,7.60,MAJ-1010MAJ-1010-BL,0.00,,,,,,,,,/,0.00,,,,,,,,,/,0.00,,,,,,,,,/
"Colorado State Fair 8/23-9/2/19 Pueblo, CO","Colorado State Fair 8/23-9/2/19 Pueblo, CO",Noni Ignacio,120567,8/30/2019 11:45:30 PM,Bernadette Williams,CO,80924,Majesty,New Choco,New,1,0.00,3000.00,3000.00,Credit Card,,,"5 years parts, 1 year labor (Free)","Majesty,",No,,Assigned,,2 to 3 weeks delivery,"Original received. Sq amount verified $3000. Paid in full-Erika 9/3/19 3:00pm
courtesy call completed-Erika 9/4/19 4:33pm",TX,1,7.60,MAJ-1010MAJ-1010-BR,0.00,Square #06Y1,,,,,,,,/,0.00,,,,,,,,,/,0.00,,,,,,,,,/
"Colorado State Fair 8/23-9/2/19 Pueblo, CO","Colorado State Fair 8/23-9/2/19 Pueblo, CO",Noni Ignacio,120568,8/30/2019 11:55:41 PM,Valerie Garnet,CO,81004,Legacy 4,New Black,New,1,0.00,3800.00,3800.00,Synchrony,,,"5 years parts, 2 years labor ($200)","Legacy 4,",No,,Scheduled,,2 to 3 weeks delivery,"Synchrony original verified. Credit available $7000. Remaining balance $3800. Charge synchrony account upon delivery, have sales draft signed-Erika 9/3/19 3:08pm
9/4 - Alysa - Printed - Customer confirmed delivery Sun. 9/8 between 3-6PM - Synchrony Authorization Code
004856",TX,1,7.60,LGCY-4LGCY-4BL,3800.00,,,6501723375299490,80416369,Las Vegas,36 months,Driver’s License,CO,02/2023,0.00,,,,,,,,,/,0.00,,,,,,,,,/
"Colorado State Fair 8/23-9/2/19 Pueblo, CO","Colorado State Fair 8/23-9/2/19 Pueblo, CO",Noni Ignacio,120591,9/1/2019 7:16:33 AM,Jeffrey Chilson,CO,80550,Legacy 4,New Black,New,1,0.00,4000.00,4000.00,Synchrony,,,"5 years parts, 1 year labor (Free)","Legacy 4,",No,,Scheduled,,"For delivery schedule call 970 218 3808
2 to 3 weeks delivery","Synchrony original verified. Credit available $9000. remaining balance $4000. Charge synchrony account upon delivery, have sales draft-Erika 9/3/19
9/4 - Alysa - Printed - Customer confirmed delivery Sat. 9/7 between 5-8PM. Synchrony Authorization Code
004037",TX,1,7.60,LGCY-4LGCY-4BL,4000.00,,,6501723375301593,80469869,Las Vegas,48 months,Driver’s License,CO,03/2021,0.00,,,,,,,,,/,0.00,,,,,,,,,/
"Colorado State Fair 8/23-9/2/19 Pueblo, CO","Colorado State Fair 8/23-9/2/19 Pueblo, CO",Noni Ignacio,120651,9/2/2019 10:13:53 AM,Paula Moungsiharat,CO,80831,PEGASUS 2 SMART,New Black,New,1,338.20,5200.00,5538.20,Synchrony,Cash,,"5 years parts, 2 years labor ($200)","PEGASUS 2 SMART,",No,,Cancelled,,2 to 3 weeks delivery,pls disregard this order. total amount is incorrect. New order#120747. -Erika 9/4/19 12:08pm,Not Dispatched,0,7.60,PEGS-2PEGS-2-BL,0.00,,,6501723375301809,80475703,Las Vegas,48 months,Driver’s License,NV,06/2022,0.00,,,,,,,,,/,0.00,,,,,,,,,/
