﻿Original Event Name,Event Name,Sales Person,Order Number,Order Date,Customer Name,State,Zip,Product Name,Color,Product Status,QTY,Tax,Total Before Tax,Order Total,Primary Payment Method,Second Payment Method,Thirdl Payment Method,Warranty,Order Items,Pick up,Delivered On,Order Status,Chair Type,Order Notes,Private Note,Branch,No Tax,Actual Tax Rate,SKU,Primary Payment Balance,Primary Authorize Number,Primary Purchase Order Number,Primary Synchrony Account Number,Primary Synchrony Application Key,Primary Synchrony Account Info,Primary Synchrony Term,Second Payment Balance,Second Authorize Number,Second Purchase Order Number,Second Synchrony Account Number,Second Synchrony Application Key,Second Synchrony Account Info,Second SynchronyTerm,Third Payment Balance,Third Authorize Number,Third Purchase Order Number,Third Synchrony Account Number,Third Synchrony Application Key,Third Synchrony Account Info,Third Synchrony Term
SAM'S CLUB KEEAUMOKU,SAM'S CLUB KEEAUMOKU,Irene Gott,114967,2/13/2019 2:33:05 PM,BERT NUNES,HI,96797,Legacy - Hawaii,New Black,New,1,0.00,4501.57,4501.57,CreditCard,,,"3 years parts, 1 year labor (Free)","Legacy - Hawaii,",No,,Scheduled,,,,HI,1,4.71,DWA-9100DWA-9100BL,4501.57,456377,,,,,,0.00,,,,,,,0.00,,,,,,
SAM'S CLUB KEEAUMOKU,SAM'S CLUB KEEAUMOKU,Irene Gott,115107,2/18/2019 11:53:11 AM,HUYMIN NGO,HI,96816,Legacy - Hawaii,New Black,New,1,0.00,4501.57,4501.57,CreditCard,,,"3 years parts, 1 year labor (Free)","Legacy - Hawaii,",No,,Scheduled,,,,HI,1,4.71,DWA-9100DWA-9100BL,4501.57,01692R,,,,,,0.00,,,,,,,0.00,,,,,,
SAM'S CLUB KEEAUMOKU,SAM'S CLUB KEEAUMOKU,Irene Gott,115125,2/19/2019 12:16:27 PM,DIANE LIU,HI,96744,Legacy - Hawaii,New Black,New,1,0.00,4501.57,4501.57,CreditCard,,,"3 years parts, 1 year labor (Free)","Legacy - Hawaii,",No,3/9/2019 12:00:00 AM,Scheduled,Demo,,Please disregard delivery details,HI,1,4.71,DWA-9100DWA-9100BL,4501.57,11148D,,,,,,0.00,,,,,,,0.00,,,,,,
SAM'S CLUB KEEAUMOKU,SAM'S CLUB KEEAUMOKU,Irene Gott,115128,2/19/2019 1:13:46 PM,ALAN OSHIMA,HI,96817,Majesty - Hawaii,New Black,New,1,0.00,3454.45,3454.45,CreditCard,,,"3 years parts, 1 year labor (Free)","Majesty - Hawaii,",No,,Scheduled,,,,HI,1,4.71,MAJ-1010MAJ-1010-BL,3454.45,37659P,,,,,,0.00,,,,,,,0.00,,,,,,
SAM'S CLUB KEEAUMOKU,SAM'S CLUB KEEAUMOKU,Irene Gott,115129,2/19/2019 2:14:31 PM,KEVIN SUEHIRO,HI,96822,Legacy - Hawaii,New Black,New,1,0.00,4501.57,4501.57,CreditCard,,,"3 years parts, 1 year labor (Free)","Legacy - Hawaii,",No,,Scheduled,,,,HI,1,4.71,DWA-9100DWA-9100BL,4501.57,001170,,,,,,0.00,,,,,,,0.00,,,,,,
SAM'S CLUB KEEAUMOKU,SAM'S CLUB KEEAUMOKU,Irene Gott,115136,2/19/2019 5:09:19 PM,DEANNA ASPENGREN,HI,96825,Relax2Zero 2.0 - Hawaii,New Beige,New,1,0.00,4081.68,4081.68,CreditCard,,,"3 years parts, 1 year labor (Free)","Relax2Zero 2.0 - Hawaii,",No,,Scheduled,,,,HI,1,4.71,USJ-9050USJ-9050BE,4081.68,21588D,,,,,,0.00,,,,,,,0.00,,,,,,
SAM'S CLUB KEEAUMOKU,SAM'S CLUB KEEAUMOKU,Irene Gott,115138,2/19/2019 5:52:38 PM,JUDITH SAKAMOTO,HI,96701,Legacy - Hawaii,New Black,New,1,0.00,4501.57,4501.57,CreditCard,,,"3 years parts, 1 year labor (Free)","Legacy - Hawaii,",No,,Scheduled,,,,HI,1,4.71,DWA-9100DWA-9100BL,4501.57,131734,,,,,,0.00,,,,,,,0.00,,,,,,
SAM'S CLUB KEEAUMOKU,SAM'S CLUB KEEAUMOKU,Irene Gott,115163,2/20/2019 4:43:31 PM,TARRYAL NEENE,HI,96816,Majesty - Hawaii,Demo Black,Demo,1,0.00,4299.00,4299.00,CreditCard,,,"3 years parts, 1 year labor (Free)","Majesty - Hawaii,",No,,Cancelled,,,Customer cancelled this order and purchased different chair.,HI,1,4.71,MAJ-1010MAJ-1010-BL-DEMO,4299.00,,,,,,,0.00,,,,,,,0.00,,,,,,
SAM'S CLUB KEEAUMOKU,SAM'S CLUB KEEAUMOKU,Irene Gott,115329,2/25/2019 12:27:43 PM,PRITAM TAPRYAL,HI,96816,Legacy - Hawaii,Demo Black,Demo,1,0.00,3599.00,3599.00,CreditCard,,,"3 years parts, 1 year labor (Free)","Legacy - Hawaii,",No,,Scheduled,,,,HI,1,4.71,DWA-9100DWA-9100BL-DEMO,3599.00,93371C,,,,,,0.00,,,,,,,0.00,,,,,,
SAM'S CLUB KEEAUMOKU,SAM'S CLUB KEEAUMOKU,Irene Gott,115341,2/26/2019 10:34:20 AM,IRVIN KING,HI,96813,Legacy - Hawaii,New Choco,New,1,0.00,4501.57,4501.57,CreditCard,,,"3 years parts, 1 year labor (Free)","Legacy - Hawaii,",No,,Scheduled,,,,HI,1,4.71,DWA-9100DWA-9100BU,4501.57,02431C,,,,,,0.00,,,,,,,0.00,,,,,,
SAM'S CLUB KEEAUMOKU,SAM'S CLUB KEEAUMOKU,Irene Gott,115344,2/26/2019 1:43:46 PM,TERESA ANNE VIERNES,HI,96706,Vitality Chair for Sam's,New Black,New,1,0.00,2683.23,2683.23,CreditCard,,,"3 years parts, 1 year labor (Free)","Vitality Chair for Sam's,",No,,Scheduled,,,,HI,1,4.71,VITY-1VITY-1BL,2683.23,SC010403,,,,,,0.00,,,,,,,0.00,,,,,,
SAM'S CLUB KEEAUMOKU,SAM'S CLUB KEEAUMOKU,Irene Gott,115345,2/26/2019 2:06:27 PM,SEAN OKAMOTO,HI,96825,Relax2Zero 2.0 - Hawaii,New Brown,New,1,0.00,4034.55,4034.55,CreditCard,,,"3 years parts, 1 year labor (Free)","Relax2Zero 2.0 - Hawaii,",No,,Scheduled,,,,HI,1,4.71,USJ-9050USJ-9050BR,4034.55,00752Z,,,,,,0.00,,,,,,,0.00,,,,,,
SAM'S CLUB KEEAUMOKU,SAM'S CLUB KEEAUMOKU,Irene Gott,115346,2/26/2019 2:47:08 PM,SHAKIL AHMED,HI,96816,Majesty - Hawaii,New Choco,New,1,0.00,3454.45,3454.45,CreditCard,,,"3 years parts, 1 year labor (Free)","Majesty - Hawaii,",No,,Scheduled,,,,HI,1,4.71,MAJ-1010MAJ-1010-BR,3454.45,93833P,,,,,,0.00,,,,,,,0.00,,,,,,
SAM'S CLUB KEEAUMOKU,SAM'S CLUB KEEAUMOKU,Irene Gott,115355,2/27/2019 9:32:24 AM,BOW MUN LUM,HI,96817,Legacy - Hawaii,New Black,New,1,0.00,4501.57,4501.57,CreditCard,,,"3 years parts, 1 year labor (Free)","Legacy - Hawaii,",No,,Scheduled,,,,HI,1,4.71,DWA-9100DWA-9100BL,4501.57,02565W,,,,,,0.00,,,,,,,0.00,,,,,,
SAM'S CLUB KEEAUMOKU,SAM'S CLUB KEEAUMOKU,Irene Gott,115356,2/27/2019 9:41:01 AM,COLTON CHING,HI,96744,Majesty - Hawaii,New Choco,New,1,0.00,3454.45,3454.45,CreditCard,,,"3 years parts, 1 year labor (Free)","Majesty - Hawaii,",No,,Scheduled,,,,HI,1,4.71,MAJ-1010MAJ-1010-BR,3454.45,001124,,,,,,0.00,,,,,,,0.00,,,,,,
SAM'S CLUB KEEAUMOKU,SAM'S CLUB KEEAUMOKU,Irene Gott,115507,3/5/2019 1:43:55 PM,CHELSEA ZHENG,HI,96815,Legacy - Hawaii,Demo Choco,Demo,1,0.00,3768.59,3768.59,CreditCard,,,"3 years parts, 1 year labor (Free)","Legacy - Hawaii,",No,,Scheduled,,,,HI,1,4.71,DWA-9100DWA-9100BU-DEMO,3768.59,02160S,,,,,,0.00,,,,,,,0.00,,,,,,
SAM'S CLUB KEEAUMOKU,SAM'S CLUB KEEAUMOKU,Irene Gott,116738,4/15/2019 2:42:18 PM,CYNDI KAM,HI,96817,Vitality Chair for Sam's,Demo Choco,Demo,1,0.00,1999.00,1999.00,Credit Card,,,"3 years parts, 1 year labor (Free)","Vitality Chair for Sam's,",No,4/22/2019 12:00:00 AM,Delivered,Demo,,,HI,1,4.71,VITY-1VITY-1CH-DEMO,1999.00,08536G,,,,,,0.00,,,,,,,0.00,,,,,,
SAM'S CLUB KEEAUMOKU,SAM'S CLUB KEEAUMOKU,Irene Gott,116913,4/22/2019 11:28:05 AM,KENNETH CHING,HI,96818,Vitality Chair for Sam's,New Choco,New,1,0.00,2499.00,2499.00,Credit Card,,,"3 years parts, 1 year labor (Free)","Vitality Chair for Sam's,",No,4/24/2019 12:00:00 AM,Delivered,New,,,HI,1,4.71,VITY-1VITY-1CH,2499.00,01075Z,,,,,,0.00,,,,,,,0.00,,,,,,
SAM'S CLUB KEEAUMOKU,SAM'S CLUB KEEAUMOKU,Irene Gott,116931,4/23/2019 11:48:13 AM,DENNIS KAYANO,HI,96744,Legacy 3D - Hawaii,New Choco,New,1,0.00,4799.00,4799.00,Credit Card,,,"3 years parts, 1 year labor (Free)","Legacy 3D - Hawaii,",No,4/25/2019 12:00:00 AM,Delivered,New,,,HI,1,4.71,DWA-9150USJ-9150CH,4799.00,00745Z,,,,,,0.00,,,,,,,0.00,,,,,,
SAM'S CLUB KEEAUMOKU,SAM'S CLUB KEEAUMOKU,Irene Gott,116941,4/23/2019 7:31:22 PM,BRANDON WU,HI,96826,Legacy 3D - Hawaii,New Black,New,1,0.00,4799.00,4799.00,Credit Card,,,"3 years parts, 1 year labor (Free)","Legacy 3D - Hawaii,",No,4/29/2019 12:00:00 AM,Delivered,New,,,HI,1,4.71,DWA-9150USJ-9150BL,4799.00,04671W,,,,,,0.00,,,,,,,0.00,,,,,,
SAM'S CLUB KEEAUMOKU,SAM'S CLUB KEEAUMOKU,Marybelle Tanjoco,116947,4/24/2019 7:13:52 PM,SUN NAM LEE,HI,96815,Legacy for Sam's,New Choco,New,1,0.00,4799.00,4799.00,Credit Card,,,"3 years parts, 1 year labor (Free)","Legacy for Sam's,Chair Pad for Legacy,Foot Pads for Legacy,",No,,Cancelled,,,,HI,1,4.71,DWA-9100DWA-9100CH,4799.00,,,,,,,0.00,,,,,,,0.00,,,,,,
SAM'S CLUB KEEAUMOKU,SAM'S CLUB KEEAUMOKU,Irene Gott,117054,4/29/2019 10:40:21 AM,VAL HATA,HI,96816,Legacy 3D - Hawaii,New Black,New,1,0.00,4799.00,4799.00,Credit Card,,,"3 years parts, 1 year labor (Free)","Legacy 3D - Hawaii,",No,4/29/2019 12:00:00 AM,Delivered,New,,,HI,1,4.71,DWA-9150USJ-9150BL,4799.00,,,,,,,0.00,,,,,,,0.00,,,,,,
SAM'S CLUB KEEAUMOKU,SAM'S CLUB KEEAUMOKU,Irene Gott,117057,4/29/2019 1:31:35 PM,SHIN JENLIN,HI,96744,Relax 2 Zero 2.0 for Sam's,New Black,New,1,0.00,3898.00,3898.00,Credit Card,,,"3 years parts, 1 year labor (Free)","Relax 2 Zero 2.0 for Sam's,",No,,Scheduled,,,,HI,1,4.71,USJ-9050USJ-9050BL,3898.00,05384C,,,,,,0.00,,,,,,,0.00,,,,,,
SAM'S CLUB KEEAUMOKU,SAM'S CLUB KEEAUMOKU,Marybelle Tanjoco,117076,4/30/2019 7:04:09 PM,SUN NAM LEE,HI,96815,Legacy 3D - Hawaii,New Choco,New,1,0.00,4799.00,4799.00,Credit Card,,,"3 years parts, 1 year labor (Free)","Legacy 3D - Hawaii,",No,5/1/2019 12:00:00 AM,Delivered,,,,HI,1,4.71,DWA-9150USJ-9150CH,4799.00,,,,,,,0.00,,,,,,,0.00,,,,,,
SAM'S CLUB KEEAUMOKU,SAM'S CLUB KEEAUMOKU,Irene Gott,117225,5/8/2019 1:22:31 PM,GUY CABRAL,HI,96816,Legacy 3D - Hawaii,Demo Choco,Demo,1,0.00,4298.00,4298.00,Credit Card,,,"3 years parts, 1 year labor (Free)","Legacy 3D - Hawaii,",No,,Scheduled,,,,HI,1,4.71,DWA-9150USJ-9150CH-DEMO,4298.00,,,,,,,0.00,,,,,,,0.00,,,,,,
SAM'S CLUB KEEAUMOKU,SAM'S CLUB KEEAUMOKU,Irene Gott,117648,5/28/2019 7:11:47 PM,SUNG JIN KIM,HI,96707,Legacy 3D - Hawaii,New Choco,New,1,0.00,4799.00,4799.00,Credit Card,,,"3 years parts, 1 year labor (Free)","Legacy 3D - Hawaii,",No,,Scheduled,,,,HI,1,4.71,DWA-9150USJ-9150CH,4799.00,,,,,,,0.00,,,,,,,0.00,,,,,,
SAM'S CLUB KEEAUMOKU,SAM'S CLUB KEEAUMOKU,Irene Gott,117685,5/30/2019 6:52:03 PM,WILLIAM YUEN,HI,96817,Legacy 3D - Hawaii,New Black,New,1,0.00,4799.00,4799.00,Credit Card,,,"3 years parts, 1 year labor (Free)","Legacy 3D - Hawaii,",No,,Scheduled,,,,HI,1,4.71,DWA-9150USJ-9150BL,4799.00,,,,,,,0.00,,,,,,,0.00,,,,,,
SAM'S CLUB KEEAUMOKU,SAM'S CLUB KEEAUMOKU,Irene Gott,117691,5/31/2019 10:17:41 AM,KIM STEVEN,HI,96813,Legacy 3D - Hawaii,New Choco,New,1,0.00,4799.00,4799.00,Credit Card,,,"3 years parts, 1 year labor (Free)","Legacy 3D - Hawaii,",No,6/4/2019 12:00:00 AM,Delivered,,,,HI,1,4.71,DWA-9150USJ-9150CH,4799.00,,,,,,,0.00,,,,,,,0.00,,,,,,
