﻿Order Number,Order Date,Event Name,Salesperson,SKU,Product Name,Color,QTY,Warranty,Payment Details,Tax,Order Total,Gross,Primary Payment Method,Primary Payment Balance,Primary Authorize Number,Primary Purchase Order Number,Primary Synchrony Account Number,Primary Synchrony Application Key,Primary Synchrony AccountInfo,Primary SynchronyTerm,Secondly Payment Method,Secondly Payment Balance,Secondly Authorize Number,Secondly Purchase Order Number,Secondly Synchrony Account Number,Secondly Synchrony Application Key,Secondly Synchrony AccountInfo,Secondly SynchronyTerm,Thirdly Payment Method,Thirdly Payment Balance,Thirdly Authorize Number,Thirdly Purchase Order Number,Thirdly Synchrony Account Number,Thirdly Synchrony Application Key,Thirdly Synchrony AccountInfo,Thirdly SynchronyTerm,Actual Shipping Cost,CustomerName,Shipping Address,Delivered On,Serial Number (TO Be),Note,Branch,IsNoTax,ActualTaxRate
105195,4/12/2018 9:32:33 AM,Sam's Club #6624 4/5-15/18 (CA),Hiroko Hudson,USJ-9050USJ-9050BR,Relax2Zero 2.0 for Sam's,New Brown,1,"3 years parts, 1 year labor (Free)",CUSTOM ,255.92,3454.92,3454.92,PurchaseOrder,0.00,,8677949951993617739262,,,,,,0.00,,,,,,,,0.00,,,,,,,0.00,James Marsh,9093373873,,,,Not Dispatched,0,8.00
105196,4/12/2018 11:46:51 AM,Sam's Club #6624 4/5-15/18 (CA),Hiroko Hudson,USJ-9000USJ-9000BR,Relax 2 Zero 1.0 for Sam's,New Brown,1,"3 years parts, 1 year labor (Free)",CUSTOM ,0.00,3454.92,3454.92,PurchaseOrder,3454.92,,8677949951993617739262,,,,,,0.00,,,,,,,,0.00,,,,,,,0.00,James Marsh,9093373873,4/27/2018 12:00:00 AM,,,CA,1,8.00
105378,4/20/2018 6:10:29 AM,Sam's Club #6624 4/5-15/18 (CA),Hiroko Hudson,USJ-849USJ-849,Vitality Plate for Sam's,New,1,"2 years parts, 1 year labor for Small Items",CUSTOM ,36.80,496.79,496.79,PurchaseOrder,0.00,,826615314391801923444,,,,,,0.00,,,,,,,,0.00,,,,,,,0.00,Josiane Beclkles,9097998485,,,,CA,0,8.00
105379,4/20/2018 6:17:11 AM,Sam's Club #6624 4/5-15/18 (CA),Hiroko Hudson,USJ-849USJ-849,Vitality Plate for Sam's,New,1,"2 years parts, 1 year labor for Small Items",CUSTOM ,36.80,496.79,496.79,PurchaseOrder,0.00,,972421324088942367888,,,,,,0.00,,,,,,,,0.00,,,,,,,0.00,Paula Whitcside,9097999029,,,,CA,0,8.00
105380,4/20/2018 6:31:44 AM,Sam's Club #6624 4/5-15/18 (CA),Hiroko Hudson,USJ-849USJ-849,Vitality Plate for Sam's,New,1,"2 years parts, 1 year labor for Small Items",CUSTOM ,36.80,496.79,496.79,PurchaseOrder,0.00,,144184169448178294555,,,,,,0.00,,,,,,,,0.00,,,,,,,0.00,Tina Birt,9099108770,,,,CA,0,8.00
105381,4/20/2018 6:41:01 AM,Sam's Club #6624 4/5-15/18 (CA),Hiroko Hudson,USJ-849USJ-849,Vitality Plate for Sam's,New,1,"2 years parts, 1 year labor for Small Items",CUSTOM ,32.00,431.99,431.99,PurchaseOrder,0.00,,145016378806099456383,,,,,,0.00,,,,,,,,0.00,,,,,,,0.00,Mike Garispe,9095576879,,,,CA,0,8.00
105382,4/20/2018 6:45:08 AM,Sam's Club #6624 4/5-15/18 (CA),Hiroko Hudson,USJ-871,Foot Vibe Pro,,1,"2 years parts, 1 year labor for Small Items",CUSTOM ,8.80,118.79,118.79,PurchaseOrder,0.00,,145016378806099456383,,,,,,0.00,,,,,,,,0.00,,,,,,,0.00,Mike Garispe,9095576879,,,,CA,0,8.00
105405,4/21/2018 12:16:31 AM,Sam's Club #6624 4/5-15/18 (CA),Hiroko Hudson,USJ-874USJ-874,Shogun Neck & Back Massger,New,1,"2 years parts, 1 year labor for Small Items",CUSTOM ,16.00,215.98,215.98,PurchaseOrder,0.00,,905655934591800917464,,,,,,0.00,,,,,,,,0.00,,,,,,,0.00,Benedicto Amador,9518336265,,,,CA,0,8.00
105421,4/21/2018 11:19:35 PM,Sam's Club #6624 4/5-15/18 (CA),Hiroko Hudson,USJ-871,Foot Vibe Pro,,1,"2 years parts, 1 year labor for Small Items",CUSTOM ,8.80,118.79,118.79,PurchaseOrder,0.00,,334533400103720541626,,,,,,0.00,,,,,,,,0.00,,,,,,,0.00,Marilyn Jerson Mendoza,9098099171,,,,CA,0,8.00
105422,4/21/2018 11:29:06 PM,Sam's Club #6624 4/5-15/18 (CA),Hiroko Hudson,USJ-871,Foot Vibe Pro,,1,"2 years parts, 1 year labor for Small Items",CUSTOM ,8.80,118.79,118.79,PurchaseOrder,0.00,,797877090785435816030,,,,,,0.00,,,,,,,,0.00,,,,,,,0.00,Shaharzad Sonagar,9092543960,,,,CA,0,8.00
105423,4/21/2018 11:36:32 PM,Sam's Club #6624 4/5-15/18 (CA),Hiroko Hudson,USJ-871,Foot Vibe Pro,,1,"2 years parts, 1 year labor for Small Items",CUSTOM ,8.80,118.79,118.79,PurchaseOrder,0.00,,318533511380720541626,,,,,,0.00,,,,,,,,0.00,,,,,,,0.00,Martin Escobedo,9512752080,,,,CA,0,8.00
