﻿Original Event Name,Event Name,Sales Person,Order Number,Order Date,Customer Name,State,Zip,Product Name,Color,Product Status,QTY,Tax,Total Before Tax,Order Total,Primary Payment Method,Second Payment Method,Thirdl Payment Method,Warranty,Order Items,Pick up,Delivered On,Order Status,Chair Type,Order Notes,Private Note,Branch,No Tax,Actual Tax Rate,SKU,Primary Payment Balance,Primary Authorize Number,Primary Purchase Order Number,Primary Synchrony Account Number,Primary Synchrony Application Key,Primary Synchrony Account Info,Primary Synchrony Term,Primary Synchrony Primary ID,Primary Synchrony Issued State,Primary Synchrony Expiretion Date,Second Payment Balance,Second Authorize Number,Second Purchase Order Number,Second Synchrony Account Number,Second Synchrony Application Key,Second Synchrony Account Info,Second SynchronyTerm,Second Synchrony Primary ID,Second Synchrony Issued State,Second Synchrony Expiretion Date,Third Payment Balance,Third Authorize Number,Third Purchase Order Number,Third Synchrony Account Number,Third Synchrony Application Key,Third Synchrony Account Info,Third Synchrony Term,Third Synchrony Primary ID,Third Synchrony Issued State,Third Synchrony Expiretion Date
Tampa Bay Home Show (6/21-6/23/19) FL,Tampa Bay Home Show (6/21-6/23/19) FL,Neneth Finley,118187,6/21/2019 12:40:38 PM,Rodney Ingram,FL,33615,Relax 2 Zero 3D,Demo Choco,Demo,1,213.50,3800.00,4013.50,Synchrony,,,"5 years parts, 1 year labor (Free)","Relax 2 Zero 3D,",No,6/23/2019 12:00:00 AM,Delivered,Demo,Delivery after show by Alex,"Synchrony was charged for 36 months  for $3,800.00; Erika will ask Neneth about the Synchrony sales draft.-Cristina 06/24/19 @9:41
Talked to Josephina said she would send me the draft sale and serial # tomorrow 6/25/19. Erika 6/24/19 2:02pm
Confirmation delivery received.  Paid in full of $3800 through synchrony. Sales draft sign. Auth#021760.-Erika 6/25/19 9:23am",FL,0,7.00,DWA-9060USJ-9060BR-DEMO,3800.00,,,6501723375199229,77115712,Huston,36 months,Driver’s License,FL,10/2023,0.00,,,,,,,,,/,0.00,,,,,,,,,/
Tampa Bay Home Show (6/21-6/23/19) FL,Tampa Bay Home Show (6/21-6/23/19) FL,Alex Brackelsberg,118197,6/22/2019 7:04:08 AM,Larry Hume,FL,33543,Relax 2 Zero 3D,Demo Choco,Demo,1,0.00,3250.00,3250.00,Credit Card,,,"5 years parts, 1 year labor (Free)","Relax 2 Zero 3D,",No,6/28/2019 12:00:00 AM,Delivered,New,,"Original received. SQ amount verified $3250. Erika 6/24/19 2:07pm
CC, Jasmin Carrizales, 6/24/19, 5:11pm/Av. Anytime.",FL,1,7.00,DWA-9060USJ-9060BR-DEMO,3250.00,#O4KS,,,,,,,,/,0.00,,,,,,,,,/,0.00,,,,,,,,,/
Tampa Bay Home Show (6/21-6/23/19) FL,Tampa Bay Home Show (6/21-6/23/19) FL,Alex Brackelsberg,118198,6/22/2019 7:10:20 AM,Eunice Morris,FL,29316,Legacy,New Sienna,New,1,0.00,4400.00,4400.00,Credit Card,,,"3 years parts, 2 years labor ($200)","Legacy,",No,,Hold,,,"Hold until September 27th or if the customer calls early three week delivery timeframe
Pls note the address is 4051 bible church RD. boiling springs SC. 29316
Original received. SQ amount verified. $4400. Per rep sales request order will be placed on hold. FL branch is aware. Erika 6/24/19 4:51pm",FL,1,7.00,DWA-9100DWA-9100SI,4400.00,#Xvk7,,,,,,,,/,0.00,,,,,,,,,/,0.00,,,,,,,,,/
Tampa Bay Home Show (6/21-6/23/19) FL,Tampa Bay Home Show (6/21-6/23/19) FL,Alex Brackelsberg,118226,6/23/2019 7:04:08 AM,Gilda Conger,FL,33711,Solace,New Choco,New,1,0.00,2600.00,2600.00,Credit Card,,,"5 years parts, 1 year labor (Free)","Solace,",No,7/8/2019 12:00:00 AM,Delivered,New,,"Original received. Sq amount verified of $2600. Erika 6/25/19 11:02am
CC, Jasmin Carrizales, 6/25/19, 2:42pm/Av. July 8th + 10th + 12th After 1pm

Attached delivery confirmation to invoice, verified delivery and payment, and passed complete invoice to Riho - Arisa 7/12/19 9:10am",FL,1,7.00,SOL-1SOL-1-CH,2600.00,#vg9H,,,,,,,,/,0.00,,,,,,,,,/,0.00,,,,,,,,,/
Tampa Bay Home Show (6/21-6/23/19) FL,Tampa Bay Home Show (6/21-6/23/19) FL,Alex Brackelsberg,118227,6/23/2019 7:06:01 AM,John Ryan,FL,33767,PEGASUS 2 SMART,New Black,New,1,0.00,5500.00,5500.00,Synchrony,,,"5 years parts, 1 year labor (Free)","PEGASUS 2 SMART,",No,7/2/2019 12:00:00 AM,Delivered,New,,"Synchrony original received. Credit available $9000. Remaining balance $5500. Pls charge synchrony account upon delivery, have sales draft sign. Erika 6/25/19 11:11am

Signatures on Synchrony application and sales draft are different; Josefina emailed customer requesting identical signature. Attached delivery confirmation + sales draft to invoice, verified delivery and payment, and passed complete invoice to Riho - Arisa 7/3/19 10:37am
Received correct signature on sales draft from Josefina, and included in complete invoice - Arisa 7/3/19 2:04pm",FL,1,7.00,PEGS-2PEGS-2-BL,5500.00,,,6501723375201348,77168387,Huston,48 months,Driver’s License,UT,11/2023,0.00,,,,,,,,,/,0.00,,,,,,,,,/
Tampa Bay Home Show (6/21-6/23/19) FL,Tampa Bay Home Show (6/21-6/23/19) FL,Alex Brackelsberg,118294,6/25/2019 7:07:57 AM,Michelle Mathis,FL,33702,Solace,New Black,New,1,0.00,2500.00,2500.00,Credit Card,,,"5 years parts, 2 years labor ($200)","Solace,",No,7/3/2019 12:00:00 AM,Delivered,New,2nd floor delivery,"Original received. SQ amount verified $2500. Erika 6/25/19 11:04am
CC, Jasmin Carrizales, 6/25/19, 3:45pm

Attached delivery confirmation to invoice, verified delivery and payment, and passed complete invoice to Riho - Arisa 7/5/19 11:21am",FL,1,7.00,SOL-1SOL-1-BL,2500.00,#7Mcx,,,,,,,,/,0.00,,,,,,,,,/,0.00,,,,,,,,,/
Tampa Bay Home Show (6/21-6/23/19) FL,Tampa Bay Home Show (6/21-6/23/19) FL,Alex Brackelsberg,118295,6/25/2019 7:12:13 AM,Scott McKenna,FL,33715,Solace,New Black,New,1,0.00,2800.00,2800.00,Credit Card,,,"5 years parts, 2 years labor ($200)","Solace,",No,,Cancelled,,,"Original received. SQ amount verified of $2800. Erika 6/25/19 11:06am
CC, Jasmin Carrizales, 6/25/19, 3:51pm/Av. Open",FL,1,7.00,SOL-1SOL-1-BL,2800.00,#94UT,,,,,,,,/,0.00,,,,,,,,,/,0.00,,,,,,,,,/
Tampa Bay Home Show (6/21-6/23/19) FL,Tampa Bay Home Show (6/21-6/23/19) FL,Alex Brackelsberg,118505,7/5/2019 7:31:12 AM,Ellen Blakeley,FL,33705,Relax 2 Zero 3D,Demo Black,Demo,1,0.00,3200.00,3200.00,Credit Card,,,"5 years parts, 1 year labor (Free)","Relax 2 Zero 3D,",No,7/8/2019 12:00:00 AM,Delivered,Demo,3100 COD,"Paid Via HouseCall Pro
Lady's Please check if order has already been delivered, If not please make sure to write up appropriate invoice for Alex's phone order sale.-Cristina 07/08/19 9:54am",FL,1,7.00,DWA-9060USJ-9060BL-DEMO,100.00,#8I05,,,,,,,,/,0.00,,,,,,,,,/,0.00,,,,,,,,,/
