﻿Original Event Name,Event Name,Sales Person,Order Number,Order Date,Customer Name,State,Zip,Product Name,Color,Product Status,QTY,Tax,Total Before Tax,Order Total,Primary Payment Method,Second Payment Method,Thirdl Payment Method,Warranty,Order Items,Pick up,Delivered On,Order Status,Chair Type,Order Notes,Private Note,Branch,No Tax,Actual Tax Rate,SKU,Primary Payment Balance,Primary Authorize Number,Primary Purchase Order Number,Primary Synchrony Account Number,Primary Synchrony Application Key,Primary Synchrony Account Info,Primary Synchrony Term,Second Payment Balance,Second Authorize Number,Second Purchase Order Number,Second Synchrony Account Number,Second Synchrony Application Key,Second Synchrony Account Info,Second SynchronyTerm,Third Payment Balance,Third Authorize Number,Third Purchase Order Number,Third Synchrony Account Number,Third Synchrony Application Key,Third Synchrony Account Info,Third Synchrony Term
"JF&A 2/21-24/19 Rosemont, IL (IL)","JF&A 2/21-24/19 Rosemont, IL (IL)",Billy Shea,115208,2/22/2019 3:00:45 PM,Christopher Manuel,IL,60652,Legacy 3D,New Black,New,1,0.00,4000.00,4000.00,Synchrony,,,"5 years parts, 1 year labor (Free)","Legacy 3D,",No,3/26/2019 12:00:00 AM,Delivered,New,,"Confirmed synchrony approved $5,100.00 Will confirm original --- 2/22/19 Asumi
2/26/19-Confirmed original. *DELIVERY ADDRESS IS 7334 S University Ave CHICAGO IL 60652***Please charge $4,000 before delivery and sales draft signed***-Hitomi
2/26Maritza Courtesy message sent @ 5:13PM",TX,1,10.00,DWA-9150USJ-9150BL,4000.00,,,6507233375026034,71686371,Las Vegas,48 months,0.00,,,,,,,0.00,,,,,,
"JF&A 2/21-24/19 Rosemont, IL (IL)","JF&A 2/21-24/19 Rosemont, IL (IL)",Billy Shea,115237,2/23/2019 4:25:42 PM,Patricia Marinho,IL,60018,Relax 2 Zero 3D,New Black,New,1,0.00,4000.00,4000.00,Synchrony,Cash,,"5 years parts, 1 year labor (Free)","Relax 2 Zero 3D,",No,2/14/2019 12:00:00 AM,Delivered,New,,"Please contact her after March 26th for delivery schedule( she will be out of country till then)
2/25/19 SYNC$2,000/original. NEED credit card info  -Hitomi
2/26/19-SYNC original is cleared. ***Please charge $2,000 before delivery and COD $2,000***- Hitomi
2/27Maritza Courtesy message sent @ 8:46
Please disregard Delivery date and serial number above!! --- 2/28/19 asumi",TX,1,10.00,DWA-9060USJ-9060BL,2000.00,,,6501723375028360,71745011,Las Vegas,36 months,2000.00,,,,,,,0.00,,,,,,
"JF&A 2/21-24/19 Rosemont, IL (IL)","JF&A 2/21-24/19 Rosemont, IL (IL)",Billy Shea,115294,2/24/2019 4:31:44 PM,Esceniath Davis Reed,IL,60430,Legacy 3D,Demo Choco,Demo,1,0.00,4000.00,4000.00,Synchrony,,,"5 years parts, 1 year labor (Free)","Legacy 3D,",No,3/26/2019 12:00:00 AM,Delivered,Demo,,"COnfirmed SYNC$8,500/original. ***Please charge $4,000 before delivery and sales drat signed*** - 2/25/19 Hitomi
2/27Maritza Courtesy message sent @ 10:55",TX,1,10.00,DWA-9150USJ-9150CH-DEMO,4000.00,,,6501723375028501,71746618,Las Vegas,48 months,0.00,,,,,,,0.00,,,,,,
"JF&A 2/21-24/19 Rosemont, IL (IL)","JF&A 2/21-24/19 Rosemont, IL (IL)",Billy Shea,115296,2/24/2019 4:37:03 PM,Teresa Warmac,IL,60438,Legacy 3D,New Choco,New,1,0.00,4000.00,4000.00,CreditCard,,,"5 years parts, 1 year labor (Free)","Legacy 3D,",No,3/24/2019 12:00:00 AM,Delivered,New,,"COnfirmed $4,000.00 in SQ - 2/25/19 Hitomi
2/27Maritza- Courtesy message sent @ 11AM",TX,1,10.00,DWA-9150USJ-9150CH,4000.00,Nk68,,,,,,0.00,,,,,,,0.00,,,,,,
"JF&A 2/21-24/19 Rosemont, IL (IL)","JF&A 2/21-24/19 Rosemont, IL (IL)",Billy Shea,115354,2/27/2019 7:19:37 AM,Jacqueline Davis,IL,60612,Relax 2 Zero 3D,New Choco,New,1,0.00,4000.00,4000.00,Synchrony,,,"5 years parts, 1 year labor (Free)","Relax 2 Zero 3D,",No,,Cancelled,,,"Confirmed SYNC$5,500/original.**Please charge $4,000 / sales draft*** - 2/27/19 Hitomi
2/28Maritza- Courtesy messages sent to both numbers @ 11:14AM",TX,1,10.00,DWA-9060USJ-9060BR,4000.00,,,6501723375029533,71767522,Las Vegas,48 months,0.00,,,,,,,0.00,,,,,,
