﻿Original Event Name,Event Name,Sales Person,Order Number,Order Date,Customer Name,State,Zip,Product Name,Color,Product Status,QTY,Tax,Total Before Tax,Order Total,Primary Payment Method,Second Payment Method,Thirdl Payment Method,Warranty,Order Items,Pick up,Delivered On,Order Status,Chair Type,Order Notes,Private Note,Branch,No Tax,Actual Tax Rate,SKU,Primary Payment Balance,Primary Authorize Number,Primary Purchase Order Number,Primary Synchrony Account Number,Primary Synchrony Application Key,Primary Synchrony Account Info,Primary Synchrony Term,Primary Synchrony Primary ID,Primary Synchrony Issued State,Primary Synchrony Expiretion Date,Second Payment Balance,Second Authorize Number,Second Purchase Order Number,Second Synchrony Account Number,Second Synchrony Application Key,Second Synchrony Account Info,Second SynchronyTerm,Second Synchrony Primary ID,Second Synchrony Issued State,Second Synchrony Expiretion Date,Third Payment Balance,Third Authorize Number,Third Purchase Order Number,Third Synchrony Account Number,Third Synchrony Application Key,Third Synchrony Account Info,Third Synchrony Term,Third Synchrony Primary ID,Third Synchrony Issued State,Third Synchrony Expiretion Date
Sam's Club #6261 Las Vegas 2/21-3/3/19 (NV),Sam's Club #6261 Las Vegas 2/21-3/3/19 (NV),Joy Anne Torres,115211,2/22/2019 4:06:12 PM,"U.S.  JACLEAN, INC.",CA,90249,Foot Vibe Pro,,New,1,9.07,109.99,119.06,PurchaseOrder,,,"2 years parts, 1 year labor for Small Items","Foot Vibe Pro,",YES,,Delivered,,,confirm pickup,CA,0,8.25,USJ-871,119.06,,TC# 5776 5516 5383 5144 3441 9,,,,,,,,0.00,,,,,,,,,,0.00,,,,,,,,,
Sam's Club #6261 Las Vegas 2/21-3/3/19 (NV),Sam's Club #6261 Las Vegas 2/21-3/3/19 (NV),Joy Anne Torres,115215,2/22/2019 5:15:09 PM,"U.S.  JACLEAN, INC.",CA,90249,Foot Vibe Pro,,New,1,9.07,109.99,119.06,PurchaseOrder,,,"2 years parts, 1 year labor for Small Items","Foot Vibe Pro,",YES,,Delivered,,,,CA,0,8.25,USJ-871,119.06,,TC# 2501 7413 0616 4845 7550 2,,,,,,,,0.00,,,,,,,,,,0.00,,,,,,,,,
Sam's Club #6261 Las Vegas 2/21-3/3/19 (NV),Sam's Club #6261 Las Vegas 2/21-3/3/19 (NV),Joy Anne Torres,115242,2/23/2019 5:41:54 PM,"U.S.  JACLEAN, INC.",CA,90249,Foot Vibe Pro,,New,1,23.92,289.97,313.89,PurchaseOrder,,,"2 years parts, 1 year labor for Small Items","Foot Vibe Pro,Shogun Neck &amp; Back Massger,",YES,,Delivered,,,,CA,0,8.25,USJ-871,313.89,,TC# 4929 8840 2729 8991 5014 6,,,,,,,,0.00,,,,,,,,,,0.00,,,,,,,,,
Sam's Club #6261 Las Vegas 2/21-3/3/19 (NV),Sam's Club #6261 Las Vegas 2/21-3/3/19 (NV),Joy Anne Torres,115242,2/23/2019 5:41:54 PM,"U.S.  JACLEAN, INC.",CA,90249,Shogun Neck & Back Massger,Demo[-20],Demo,1,23.92,289.97,313.89,PurchaseOrder,,,"2 years parts, 1 year labor for Small Items","Foot Vibe Pro,Shogun Neck &amp; Back Massger,",YES,,Delivered,,,,CA,0,8.25,USJ-874USJ-874-DEMO,313.89,,TC# 4929 8840 2729 8991 5014 6,,,,,,,,0.00,,,,,,,,,,0.00,,,,,,,,,
Sam's Club #6261 Las Vegas 2/21-3/3/19 (NV),Sam's Club #6261 Las Vegas 2/21-3/3/19 (NV),Joy Anne Torres,115243,2/23/2019 5:44:47 PM,"U.S.  JACLEAN, INC.",CA,90249,Foot Vibe Pro,,New,1,9.07,109.99,119.06,PurchaseOrder,,,"2 years parts, 1 year labor for Small Items","Foot Vibe Pro,",YES,,Delivered,,,,CA,0,8.25,USJ-871,119.06,,TC# 0553 8019 5212 0487 8976 1,,,,,,,,0.00,,,,,,,,,,0.00,,,,,,,,,
Sam's Club #6261 Las Vegas 2/21-3/3/19 (NV),Sam's Club #6261 Las Vegas 2/21-3/3/19 (NV),Joy Anne Torres,115245,2/23/2019 5:50:29 PM,"U.S.  JACLEAN, INC.",CA,90249,Foot Vibe Pro,,New,1,23.92,289.97,313.89,PurchaseOrder,,,"2 years parts, 1 year labor for Small Items","Foot Vibe Pro,Shogun Neck &amp; Back Massger,",YES,,Delivered,,,,CA,0,8.25,USJ-871,313.89,,TC# 9075 9308 4190 3086 4662 5,,,,,,,,0.00,,,,,,,,,,0.00,,,,,,,,,
Sam's Club #6261 Las Vegas 2/21-3/3/19 (NV),Sam's Club #6261 Las Vegas 2/21-3/3/19 (NV),Joy Anne Torres,115245,2/23/2019 5:50:29 PM,"U.S.  JACLEAN, INC.",CA,90249,Shogun Neck & Back Massger,Demo[-20],Demo,1,23.92,289.97,313.89,PurchaseOrder,,,"2 years parts, 1 year labor for Small Items","Foot Vibe Pro,Shogun Neck &amp; Back Massger,",YES,,Delivered,,,,CA,0,8.25,USJ-874USJ-874-DEMO,313.89,,TC# 9075 9308 4190 3086 4662 5,,,,,,,,0.00,,,,,,,,,,0.00,,,,,,,,,
Sam's Club #6261 Las Vegas 2/21-3/3/19 (NV),Sam's Club #6261 Las Vegas 2/21-3/3/19 (NV),Joy Anne Torres,115250,2/23/2019 6:52:40 PM,Herman Leong,NV,89052,Orbit for Sam's ,New Choco,New,1,247.34,2998.00,3245.34,CreditCard,,,"3 years parts, 1 year labor (Free)","Orbit for Sam's ,",No,,Cancelled,,,"02/26/19 courtesy call / text completed- Cristina
3/14/19-Haleigh CC
3/19/19: Joy Ann emailed: Customer cancelled due to Costco Promotion. Please cancel this order-Laura",NV,0,8.25,ORBT-1ORBT-1CH,3245.34,TC# 5384 9911 7403 2129 8568 73,,,,,,,,,0.00,,,,,,,,,,0.00,,,,,,,,,
Sam's Club #6261 Las Vegas 2/21-3/3/19 (NV),Sam's Club #6261 Las Vegas 2/21-3/3/19 (NV),Joy Anne Torres,115256,2/23/2019 7:44:58 PM,Mark Lindsey,NV,84052,Pegasus for Sam's,Demo Black(Box)[-700],Demo,2,791.67,9596.00,10387.67,CreditCard,,,"3 years parts, 1 year labor (Free)","Pegasus for Sam's,",No,3/26/2019 12:00:00 AM,Delivered,New,,02/26/19 courtesy call / text completed- cristina,NV,0,8.25,DWA-9400Pegasus-BL-BOX,10387.67,TC# 9557 8781 9949 5639 3022 4207,,,,,,,,,0.00,,,,,,,,,,0.00,,,,,,,,,
Sam's Club #6261 Las Vegas 2/21-3/3/19 (NV),Sam's Club #6261 Las Vegas 2/21-3/3/19 (NV),Joy Anne Torres,115274,2/24/2019 1:06:48 PM,"U.S.  JACLEAN, INC.",CA,90249,Foot Vibe Pro,,New,1,9.07,109.99,119.06,PurchaseOrder,,,"2 years parts, 1 year labor for Small Items","Foot Vibe Pro,",YES,,Delivered,,,,CA,0,8.25,USJ-871,119.06,,TC#3185 9338 4171 3056 1661 5,,,,,,,,0.00,,,,,,,,,,0.00,,,,,,,,,
Sam's Club #6261 Las Vegas 2/21-3/3/19 (NV),Sam's Club #6261 Las Vegas 2/21-3/3/19 (NV),Joy Anne Torres,115290,2/24/2019 3:53:04 PM,"U.S.  JACLEAN, INC.",CA,90249,Foot Vibe Pro,,New,1,9.07,109.99,119.06,PurchaseOrder,,,"2 years parts, 1 year labor for Small Items","Foot Vibe Pro,",YES,,Delivered,,,,CA,0,8.25,USJ-871,119.06,,TC# 2252 2275 7434 2699 4996 0,,,,,,,,0.00,,,,,,,,,,0.00,,,,,,,,,
Sam's Club #6261 Las Vegas 2/21-3/3/19 (NV),Sam's Club #6261 Las Vegas 2/21-3/3/19 (NV),Joy Anne Torres,115336,2/25/2019 4:36:28 PM,"U.S.  JACLEAN, INC.",CA,90249,Foot Vibe Pro,,New,1,9.07,109.99,119.06,CreditCard,,,"2 years parts, 1 year labor for Small Items","Foot Vibe Pro,",YES,,Delivered,,,,CA,0,8.25,USJ-871,119.06,TC# 9427 9924 9545 9322 5623 7,,,,,,,,,0.00,,,,,,,,,,0.00,,,,,,,,,
Sam's Club #6261 Las Vegas 2/21-3/3/19 (NV),Sam's Club #6261 Las Vegas 2/21-3/3/19 (NV),Joy Anne Torres,115348,2/26/2019 4:03:50 PM,"U.S.  JACLEAN, INC.",CA,90249,Shogun Neck & Back Massger,Demo[-20],Demo,1,14.85,179.98,194.83,PurchaseOrder,,,"2 years parts, 1 year labor for Small Items","Shogun Neck &amp; Back Massger,",YES,,Delivered,,,,CA,0,8.25,USJ-874USJ-874-DEMO,194.83,,TC# 8239 9800 2749 8941 5312 6,,,,,,,,0.00,,,,,,,,,,0.00,,,,,,,,,
Sam's Club #6261 Las Vegas 2/21-3/3/19 (NV),Sam's Club #6261 Las Vegas 2/21-3/3/19 (NV),Joy Anne Torres,115349,2/26/2019 4:14:27 PM,"U.S.  JACLEAN, INC.",CA,90249,Foot Vibe Pro,,New,1,9.07,109.99,119.06,PurchaseOrder,,,"2 years parts, 1 year labor for Small Items","Foot Vibe Pro,",YES,,Delivered,,,,CA,0,8.25,USJ-871,119.06,,TC# 9326 2506 9363 5184 6443 9,,,,,,,,0.00,,,,,,,,,,0.00,,,,,,,,,
Sam's Club #6261 Las Vegas 2/21-3/3/19 (NV),Sam's Club #6261 Las Vegas 2/21-3/3/19 (NV),Joy Anne Torres,115359,2/27/2019 2:53:57 PM,"U.S.  JACLEAN, INC.",CA,90249,Shogun Neck & Back Massger,New,New,1,16.50,199.98,216.48,PurchaseOrder,,,"2 years parts, 1 year labor for Small Items","Shogun Neck &amp; Back Massger,",YES,,Delivered,,,,CA,0,8.25,USJ-874USJ-874,216.48,,TC# 7406 8596 9373 5114 0647 9,,,,,,,,0.00,,,,,,,,,,0.00,,,,,,,,,
Sam's Club #6261 Las Vegas 2/21-3/3/19 (NV),Sam's Club #6261 Las Vegas 2/21-3/3/19 (NV),Joy Anne Torres,115363,2/27/2019 7:58:23 PM,"U.S.  JACLEAN, INC.",CA,90249,Foot Vibe Pro,,New,1,9.07,109.99,119.06,PurchaseOrder,,,"2 years parts, 1 year labor for Small Items","Foot Vibe Pro,",YES,,Delivered,,,,CA,0,8.25,USJ-871,119.06,,TC# 5206 5596 2381 5144 3441 9,,,,,,,,0.00,,,,,,,,,,0.00,,,,,,,,,
