﻿Order Number,Order Date,Event Name,Salesperson,SKU,Product Name,Color,QTY,Warranty,Payment Details,Tax,Order Total,Gross,Primary Payment Method,Primary Payment Balance,Primary Authorize Number,Primary Purchase Order Number,Primary Synchrony Account Number,Primary Synchrony Application Key,Primary Synchrony AccountInfo,Primary SynchronyTerm,Secondly Payment Method,Secondly Payment Balance,Secondly Authorize Number,Secondly Purchase Order Number,Secondly Synchrony Account Number,Secondly Synchrony Application Key,Secondly Synchrony AccountInfo,Secondly SynchronyTerm,Thirdly Payment Method,Thirdly Payment Balance,Thirdly Authorize Number,Thirdly Purchase Order Number,Thirdly Synchrony Account Number,Thirdly Synchrony Application Key,Thirdly Synchrony AccountInfo,Thirdly SynchronyTerm,Actual Shipping Cost,CustomerName,Shipping Address,Delivered On,Serial Number (TO Be),Note,Branch,IsNoTax,ActualTaxRate
105341,4/17/2018 9:03:04 AM,Toyota Grand Prix 4/13-15/18 (CA),Stephany Higareda,DWA-9150USJ-9150CH-DEMO,Legacy 3D,Demo Choco,1,"3 years parts, 1 year labor (Free)",CUSTOM ,0.00,3600.00,3600.00,CreditCard,3600.00,pWst,,,,,,,0.00,,,,,,,,0.00,,,,,,,0.00,GEORGE STEWART,310-508-7245,4/30/2018 12:00:00 AM,,,CA,1,10.25
105343,4/17/2018 9:12:52 AM,Toyota Grand Prix 4/13-15/18 (CA),Ilene Maynard,DWA-9250USJ-9250BL,Tech Touch 3D,New Black,1,"3 years parts, 1 year labor (Free)",CUSTOM ,0.00,4200.00,4200.00,CreditCard,4200.00,cB0e,,,,,,,0.00,,,,,,,,0.00,,,,,,,0.00,BEN KAWATA,310-990-1681,4/20/2018 12:00:00 AM,,Please give tablet.,CA,1,10.25
105344,4/17/2018 9:22:55 AM,Toyota Grand Prix 4/13-15/18 (CA),Kohei Uno,DWA-9150USJ-9150BL-DEMO,Legacy 3D,Demo Black,1,"3 years parts, 1 year labor (Free)",CUSTOM ,0.00,3900.00,3900.00,Synchrony,3900.00,,,6034610083218324,87618918,San Diego,36 months,,0.00,,,,,,,,0.00,,,,,,,0.00,JOHN FULKS,951-704-8166,,,"0% apr, for 36 months",CA,1,10.25
105345,4/17/2018 9:29:30 AM,Toyota Grand Prix 4/13-15/18 (CA),Ilene Maynard,DWA-9150USJ-9150BL,Legacy 3D,New Black,1,"3 years parts, 1 year labor (Free)",CUSTOM ,0.00,4500.00,4500.00,CreditCard,4500.00,86Uu,,,,,,,0.00,,,,,,,,0.00,,,,,,,0.00,Doug Endo,310-892-2407,4/30/2018 12:00:00 AM,,,CA,1,10.25
105346,4/17/2018 9:43:57 AM,Toyota Grand Prix 4/13-15/18 (CA),Ilene Maynard,DWA-9400Pegasus-BR,Pegasus,New Choco,1,"3 years parts, 2 years labor ($200)",CUSTOM ,0.00,5500.00,5500.00,CreditCard,5500.00,28BW,,,,,,,0.00,,,,,,,,0.00,,,,,,,0.00,Tamara Diexrica,402-709-1575,4/26/2018 12:00:00 AM,,,CA,1,10.25
105347,4/17/2018 10:00:38 AM,Toyota Grand Prix 4/13-15/18 (CA),Abagail Stirling,DWA-9150USJ-9150CH,Legacy 3D,New Choco,1,"3 years parts, 1 year labor (Free)",CUSTOM ,0.00,4200.00,4200.00,CreditCard,4200.00,8XvT,,,,,,,0.00,,,,,,,,0.00,,,,,,,0.00,Mike Johnson,626-487-1473,4/26/2018 12:00:00 AM,,,CA,1,10.25
105348,4/17/2018 10:07:38 AM,Toyota Grand Prix 4/13-15/18 (CA),Abagail Stirling,DWA-9150USJ-9150BL,Legacy 3D,New Black,1,"3 years parts, 1 year labor (Free)",CUSTOM ,0.00,4200.00,4200.00,CreditCard,4200.00,8XvT,,,,,,,0.00,,,,,,,,0.00,,,,,,,0.00,Candra Milohnic,727-328-2752,5/2/2018 12:00:00 AM,,,NV,1,10.25
105349,4/17/2018 10:15:22 AM,Toyota Grand Prix 4/13-15/18 (CA),Abagail Stirling,DWA-9400Pegasus-BL,Pegasus,New Black,1,"3 years parts, 1 year labor (Free)",CUSTOM ,0.00,5500.00,5500.00,Synchrony,5500.00,,,6034610083215569,87584450,San Diego,48 months,,0.00,,,,,,,,0.00,,,,,,,0.00,Jeff Hauptstueck,214-704-0511,5/7/2018 12:00:00 AM,,,TX,1,10.25
105350,4/17/2018 10:24:01 AM,Toyota Grand Prix 4/13-15/18 (CA),Ilene Maynard,DWA-9150USJ-9150BL,Legacy 3D,New Black,1,"3 years parts, 1 year labor (Free)",CUSTOM ,0.00,4800.00,4800.00,Synchrony,4800.00,,,6034610083215718,87587359,San Diego,36 months,,0.00,,,,,,,,0.00,,,,,,,0.00,Roger Orcamp,805-624-9571,4/21/2018 12:00:00 AM,,,CA,1,10.25
105351,4/17/2018 10:33:14 AM,Toyota Grand Prix 4/13-15/18 (CA),Stephany Higareda,DWA-9250USJ-9250CH-DEMO,Tech Touch 3D,Demo Choco,1,"3 years parts, 1 year labor (Free)",CUSTOM ,0.00,3600.00,3600.00,CreditCard,3600.00,NGc7,,,,,,,0.00,,,,,,,,0.00,,,,,,,0.00,Michael Wuerth,310-283-4215,4/26/2018 12:00:00 AM,,Give free tablet.,CA,1,10.25
105352,4/17/2018 10:41:21 AM,Toyota Grand Prix 4/13-15/18 (CA),Kohei Uno,DWA-9250USJ-9250CH,Tech Touch 3D,New Choco,1,"3 years parts, 1 year labor (Free)",CUSTOM ,0.00,4500.00,4500.00,Synchrony,4500.00,,,6034610083219280,87637893,San Diego,24 months,,0.00,,,,,,,,0.00,,,,,,,0.00,Larry Webb,714-906-3500,4/26/2018 12:00:00 AM,,0% Apr for 24 months,CA,1,10.25
