﻿Original Event Name,Event Name,Sales Person,Order Number,Order Date,Customer Name,State,Zip,Product Name,Color,Product Status,QTY,Tax,Total Before Tax,Order Total,Primary Payment Method,Second Payment Method,Thirdl Payment Method,Warranty,Order Items,Pick up,Delivered On,Order Status,Chair Type,Order Notes,Private Note,Branch,No Tax,Actual Tax Rate,SKU,Primary Payment Balance,Primary Authorize Number,Primary Purchase Order Number,Primary Synchrony Account Number,Primary Synchrony Application Key,Primary Synchrony Account Info,Primary Synchrony Term,Second Payment Balance,Second Authorize Number,Second Purchase Order Number,Second Synchrony Account Number,Second Synchrony Application Key,Second Synchrony Account Info,Second SynchronyTerm,Third Payment Balance,Third Authorize Number,Third Purchase Order Number,Third Synchrony Account Number,Third Synchrony Application Key,Third Synchrony Account Info,Third Synchrony Term
"Texas Home & Garden (3/1-3/3/2019) Dallas, TX","Texas Home & Garden (3/1-3/3/2019) Dallas, TX",Chris Tavira,115498,3/5/2019 10:26:42 AM,Pam Besteman,TX,75473,PEGASUS 2 SMART,Demo Black,Demo,1,0.00,5600.00,5600.00,CreditCard,COD,,"5 years parts, 3 years labor ($400)","PEGASUS 2 SMART,",No,,Scheduled,,Invoice # 0037381,"Confirmed $600 in SQ. ***COD $5,000*** 3/5/19 Hitomi
3/7Maritza- Courtesy message sent @ 2:29PM",TX,1,8.25,PEGS-2PEGS-2-BL-DEMO,600.00,Square # Nttk,,,,,,5000.00,,,,,,,0.00,,,,,,
"Texas Home & Garden (3/1-3/3/2019) Dallas, TX","Texas Home & Garden (3/1-3/3/2019) Dallas, TX",Chris Tavira,115499,3/5/2019 10:31:57 AM,Barnal Lambert,TX,78108,Legacy 3D,New Choco,New,1,0.00,4900.00,4900.00,CreditCard,,,"5 years parts, 1 year labor (Free)","Legacy 3D,",No,3/24/2019 12:00:00 AM,Delivered,New,Invoice # 0037387,"Confirmed $4,900 in SQ. 3/5/19 Hitomi
3/7Maritza- Courtesy message sent @ 2:30PM",TX,1,8.25,DWA-9150USJ-9150CH,4900.00,Square # 94jx,,,,,,0.00,,,,,,,0.00,,,,,,
"Texas Home & Garden (3/1-3/3/2019) Dallas, TX","Texas Home & Garden (3/1-3/3/2019) Dallas, TX",Chris Tavira,115500,3/5/2019 10:36:35 AM,Thomas Werling,TX,76137,Relax 2 Zero 3D,Demo Choco,Demo,1,0.00,4500.00,4500.00,CreditCard,,,"5 years parts, 1 year labor (Free)","Relax 2 Zero 3D,",No,3/21/2019 12:00:00 AM,Delivered,New,Invoice # 0037383,"Confirmed $4,500 in SQ. 3/5/19 Hitomi
3/7Maritza- Courtesy message and email sent @ 2:32PM
We delivered new chair to customer. 3/22/2019 June",TX,1,8.25,DWA-9060USJ-9060BR-DEMO,4500.00,Square # gzQF,,,,,,0.00,,,,,,,0.00,,,,,,
"Texas Home & Garden (3/1-3/3/2019) Dallas, TX","Texas Home & Garden (3/1-3/3/2019) Dallas, TX",Chris Tavira,115501,3/5/2019 10:43:47 AM,Stephen Bailey,TX,75117,Legacy 3D,Demo Black,Demo,1,0.00,4500.00,4500.00,Synchrony,,,"5 years parts, 1 year labor (Free)","Legacy 3D,",No,3/22/2019 12:00:00 AM,Delivered,New,Invoice # 0037384,"Confirmed SYNC$8,500. need original - 3/5/19 Hitomi
3/6/19-Confirmed original. ***Please charge $4,500/sales draft*** -Hitomi
3/7Maritza Courtesy message sent @ 2:34PM",TX,1,8.25,DWA-9150USJ-9150BL-DEMO,4500.00,,,6501723375042924,72145584,Huston,36 months,0.00,,,,,,,0.00,,,,,,
"Texas Home & Garden (3/1-3/3/2019) Dallas, TX","Texas Home & Garden (3/1-3/3/2019) Dallas, TX",Chris Tavira,115503,3/5/2019 12:12:59 PM,Ruth Eggeth,TX,76137,Relax 2 Zero 3D,Demo Choco,Demo,1,0.00,4500.00,4500.00,CreditCard,,,"5 years parts, 1 year labor (Free)","Relax 2 Zero 3D,",No,3/14/2019 12:00:00 AM,Delivered,Demo,Invoice # 0037394,"Confirmed $4,500 in SQ - 3/5/19 Hitomi
3/7Maritza Courtesy message sent @ 2:35PM",TX,1,8.25,DWA-9060USJ-9060BR-DEMO,4500.00,Square # FA4N,,,,,,0.00,,,,,,,0.00,,,,,,
"Texas Home & Garden (3/1-3/3/2019) Dallas, TX","Texas Home & Garden (3/1-3/3/2019) Dallas, TX",Chris Tavira,115505,3/5/2019 12:22:10 PM,Courtney Sanders,TX,75082,PEGASUS 2 SMART,New Choco,New,1,0.00,6900.00,6900.00,Synchrony,,,"5 years parts, 1 year labor (Free)","PEGASUS 2 SMART,",No,3/16/2019 12:00:00 AM,Delivered,New,,"Synchrony is under Stephen A Bailey?? Synchrony needs to be verified
Correct Key# 72146209
3/6/19-Confirmed SYNC$8,300 under COURTNEY SANDERS and original. ***Please charge $6,900/sales draft*** -Hitomi
3/7Maritza- Courtesy message and email sent @ 2:42PM",TX,1,8.25,PEGS-2PEGS-2-BR,6900.00,,,6501723375042965,72146209,Huston,48 months,0.00,,,,,,,0.00,,,,,,
"Texas Home & Garden (3/1-3/3/2019) Dallas, TX","Texas Home & Garden (3/1-3/3/2019) Dallas, TX",Chris Tavira,115506,3/5/2019 12:29:15 PM,Darrell Eye,AA,75077,PEGASUS 2 SMART,New Choco,New,1,0.00,6900.00,6900.00,Synchrony,,,"5 years parts, 1 year labor (Free)","PEGASUS 2 SMART,",No,3/14/2019 12:00:00 AM,Delivered,New,Invoice # 0037393,"COnfirmed SYNC$8,300 and original.***Please charge $6,900/sales draft*** -3/6/19 Hitomi
3/7Maritza- Courtesy message and email sent @ 2:45PM",TX,1,8.25,PEGS-2PEGS-2-BR,6900.00,,,6501723375043062,72148328,Huston,48 months,0.00,,,,,,,0.00,,,,,,
