﻿Order Number,Order Date,Original Event Name,Event Name,Salesperson,SKU,Product Name,Color,QTY,Warranty,Payment Details,Tax,Order Total,Gross,Primary Payment Method,Primary Payment Balance,Primary Authorize Number,Primary Purchase Order Number,Primary Synchrony Account Number,Primary Synchrony Application Key,Primary Synchrony AccountInfo,Primary SynchronyTerm,Secondly Payment Method,Secondly Payment Balance,Secondly Authorize Number,Secondly Purchase Order Number,Secondly Synchrony Account Number,Secondly Synchrony Application Key,Secondly Synchrony AccountInfo,Secondly SynchronyTerm,Thirdly Payment Method,Thirdly Payment Balance,Thirdly Authorize Number,Thirdly Purchase Order Number,Thirdly Synchrony Account Number,Thirdly Synchrony Application Key,Thirdly Synchrony AccountInfo,Thirdly SynchronyTerm,Actual Shipping Cost,CustomerName,Shipping Address,Delivered On,Serial Number (TO Be),Note,Branch,IsNoTax,ActualTaxRate
104615,3/19/2018 10:16:44 AM,Dayton Home and Garden Show 3/16-18/18 (IL),Dayton Home and Garden Show 3/16-18/18 (IL),Noni Ignacio,DWA-9400Pegasus-BL-DEMO,Pegasus,Demo Black,1,"3 years parts, 1 year labor (Free)",CUSTOM CreditCard,0.00,4600.00,4600.00,Synchrony,3000.00,,,6034610083165004,86406687,Las Vegas,36 months,CreditCard,800.00,4SEz,,,,,,,0.00,,,,,,,0.00,Matthew Bohn,9374146642,3/24/2018 12:00:00 AM,,Customer will pay by credit card when the message chair is delivered.,TX,1,7.25
104616,3/19/2018 10:33:23 AM,Dayton Home and Garden Show 3/16-18/18 (IL),Dayton Home and Garden Show 3/16-18/18 (IL),Noni Ignacio,DWA-9150USJ-9150BL,Legacy 3D,New Black,1,"3 years parts, 1 year labor (Free)",CUSTOM COD,0.00,4000.00,4000.00,Synchrony,0.00,,,6034610083165020,86407064,Las Vegas,36 months,COD,1000.00,,,,,,,,0.00,,,,,,,0.00,Sergio Elizalde,9379852007,,,HOLD DELIVERY IN 6 MONTHS. CUSTOMER WILL CALL. COD FOR THE BALANCE,TX,1,7.25
104617,3/19/2018 10:41:01 AM,Dayton Home and Garden Show 3/16-18/18 (IL),Dayton Home and Garden Show 3/16-18/18 (IL),Noni Ignacio,DWA-9100DWA-9100BL,Legacy,New Black,1,"3 years parts, 1 year labor (Free)",CUSTOM ,0.00,3400.00,3400.00,Cash,3400.00,,,,,,,,0.00,,,,,,,,0.00,,,,,,,0.00,Sharma Anupindi,7133010066,3/26/2018 12:00:00 AM,,Delivery within 2 weeks,TX,1,7.25
