﻿Original Event Name,Event Name,Sales Person,Order Number,Order Date,Customer Name,State,Zip,Product Name,Color,Product Status,QTY,Tax,Total Before Tax,Order Total,Primary Payment Method,Second Payment Method,Thirdl Payment Method,Warranty,Order Items,Pick up,Delivered On,Order Status,Chair Type,Order Notes,Private Note,Branch,No Tax,Actual Tax Rate,SKU,Primary Payment Balance,Primary Authorize Number,Primary Purchase Order Number,Primary Synchrony Account Number,Primary Synchrony Application Key,Primary Synchrony Account Info,Primary Synchrony Term,Second Payment Balance,Second Authorize Number,Second Purchase Order Number,Second Synchrony Account Number,Second Synchrony Application Key,Second Synchrony Account Info,Second SynchronyTerm,Third Payment Balance,Third Authorize Number,Third Purchase Order Number,Third Synchrony Account Number,Third Synchrony Application Key,Third Synchrony Account Info,Third Synchrony Term
IBS(NAHB) 2/19-21/19 (NV),IBS(NAHB) 2/19-21/19 (NV),Rolly San Jose,115151,2/20/2019 8:35:59 AM,Marc Bingham,UT,84058,PEGASUS 2 SMART,New Choco,New,2,0.00,10000.00,10000.00,CreditCard,,,"5 years parts, 1 year labor (Free)","PEGASUS 2 SMART,",No,3/10/2019 12:00:00 AM,Delivered,,"2nd Delivery Address:

Michael Bingham
1137 S 1620 E
Springville, UT 84663
(801)580-1197","Confirmed $10,000.00 in square --- 2/20/19 Asumi
02/22/19: Courtesy call at 5:19pm (Laura)
02/26/19 courtesy call / text completed- Cristina

First Serial # for 459 address: 1201002180135
Second Serial # for 1137 address: 1201002180141
Both chair is NEW",NV,1,8.25,PEGS-2PEGS-2-BR,10000.00,Square# VWj3,,,,,,0.00,,,,,,,0.00,,,,,,
IBS(NAHB) 2/19-21/19 (NV),IBS(NAHB) 2/19-21/19 (NV),Ilene Maynard,115152,2/20/2019 8:48:11 AM,Judy Saunders,FL,32195,PEGASUS 2 SMART,Demo Choco,Demo,1,0.00,6200.00,6200.00,Synchrony,,,"5 years parts, 1 year labor (Free)","PEGASUS 2 SMART,",No,3/5/2019 12:00:00 AM,Delivered,New,,"emailed sales draft to cust 3/11/19
CC Josefina - 2/25/19 10:40am (leaves on a cruise the 17th)
Confirmed synchrony approved $7,200.00 and original application form and invoice. Please charge $6200.00 before delivery and have sales draft signed. ---2/20/19 Asumi",FL,1,8.25,PEGS-2PEGS-2-BR-DEMO,6200.00,,,6501723375022702,71568501,Las Vegas,48 months,0.00,,,,,,,0.00,,,,,,
IBS(NAHB) 2/19-21/19 (NV),IBS(NAHB) 2/19-21/19 (NV),Rodrigo Malabunga,115153,2/20/2019 8:56:49 AM,David Stetson,CA,93455,Relax 2 Zero 3D,New Choco,New,1,0.00,4900.00,4900.00,CreditCard,,,"5 years parts, 2 years labor ($200)","Relax 2 Zero 3D,",No,3/13/2019 12:00:00 AM,Delivered,New,,"Confirmed $4,900.00 in square --- 2/20/19 Asumi",CA,1,8.25,DWA-9060USJ-9060BR,4900.00,Square#uiFB,,,,,,0.00,,,,,,,0.00,,,,,,
IBS(NAHB) 2/19-21/19 (NV),IBS(NAHB) 2/19-21/19 (NV),Laura Vargas,115154,2/20/2019 8:57:14 AM,Todd Scott,OH,44720,Legacy 3D,New Choco,New,1,342.38,4900.00,5242.38,Synchrony,,,"5 years parts, 1 year labor (Free)","Legacy 3D,",No,,Scheduled,,,"Confirmed synchrony approved $8,500.00 and original application form and invoice--- 2/20/19 Asumi
2/26Maritza- Courtesy message sent @ 4:43PM",TX,0,8.25,DWA-9150USJ-9150CH,4900.00,,,6501723375022744,71568930,Las Vegas,36 months,0.00,,,,,,,0.00,,,,,,
IBS(NAHB) 2/19-21/19 (NV),IBS(NAHB) 2/19-21/19 (NV),Querubin Milanes,115155,2/20/2019 9:02:28 AM,Terry Elrod,TX,74707,Legacy 3D,New Black,New,1,0.00,4500.00,4500.00,CreditCard,,,"3 years parts, 1 year labor (Free)","Legacy 3D,",No,2/20/2019 12:00:00 AM,Delivered,New,Please deliver chair before March 8th or after March 13th.,"Confirmed $4,500.00 in square --- 2/20/19 Asumi
Printed - Tina 2/20/2019
Customer confirmed appointment at 3/1/2019  between 9-12PM. 2/20/2019 June",TX,1,8.25,DWA-9150USJ-9150BL,4500.00,Square# si7r,,,,,,0.00,,,,,,,0.00,,,,,,
IBS(NAHB) 2/19-21/19 (NV),IBS(NAHB) 2/19-21/19 (NV),Rodrigo Malabunga,115156,2/20/2019 9:05:37 AM,Caroline Knudson,MT,59860,PEGASUS 2 SMART,New Choco,New,1,0.00,5500.00,5500.00,CreditCard,,,"5 years parts, 2 years labor ($200)","PEGASUS 2 SMART,",No,,Delivered,,,"Confirmed $5,500.00 in square. --- 2/20/19 Asumi
MT delivery
2/27/19-Mr.Knudson called in asking an ETA. I talked ALG and informed to the customer that the chair has been arrived in the terminal in MT area, it usually takes a week to deliver but he will receive another call on Friday or Monday with exact date and time. --Hitomi",CA,1,8.25,PEGS-2PEGS-2-BR,5500.00,SQ#Uzbk,,,,,,0.00,,,,,,,0.00,,,,,,
IBS(NAHB) 2/19-21/19 (NV),IBS(NAHB) 2/19-21/19 (NV),Ruben Cuatrona,115157,2/20/2019 9:12:42 AM,Windows Construction,AZ,85259,PEGASUS 2 SMART,New Black,New,2,680.63,9000.00,9680.63,CreditCard,COD,,"5 years parts, 1 year labor (Free)","PEGASUS 2 SMART,",No,,Cancelled,,"COD Balance of $4500 remaining.

2nd Address:

Bill OBrien
9902 E Monte Ave
Mesa, AZ 85209
(602)722-5031","Confirmed $4,500.00 in square **COD $5180.63** --- 2/20/19 Asumi
Confirmed with Ruben, correct total amount is $9,000.00  Will re-enter--- 2/22/19 Asumi
Revise to #115207",Not Dispatched,0,8.25,PEGS-2PEGS-2-BL,4500.00,Square# fwke,,,,,,5180.63,,,,,,,0.00,,,,,,
IBS(NAHB) 2/19-21/19 (NV),IBS(NAHB) 2/19-21/19 (NV),Rolly San Jose,115178,2/21/2019 8:47:13 AM,Charles Simms,OH,45449,PEGASUS 2 SMART,New Black,New,1,0.00,5500.00,5500.00,CreditCard,,,"5 years parts, 2 years labor ($200)","PEGASUS 2 SMART,",No,3/9/2019 12:00:00 AM,Delivered,New,,"Confirmed $5,500.00 in square. --- 2/21/19 Asumi
2/26Maritza Courtesy message sent @ 4:48PM",TX,1,8.25,PEGS-2PEGS-2-BL,5500.00,Square# LHyC,,,,,,0.00,,,,,,,0.00,,,,,,
IBS(NAHB) 2/19-21/19 (NV),IBS(NAHB) 2/19-21/19 (NV),Laura Vargas,115179,2/21/2019 9:03:49 AM,Jim Court,NV,89149,PEGASUS 2 SMART,New Black,New,1,0.00,5500.00,5500.00,CreditCard,,,"5 years parts, 2 years labor ($200)","PEGASUS 2 SMART,",No,3/5/2019 12:00:00 AM,Delivered,New,*Call Monday 25th to schedule delivery*,"Confirmed $5,500.00 in square. --- 2/21/19 Asumi
02/26/19 courtesy call / text completed- cristina",NV,1,8.25,PEGS-2PEGS-2-BL,5500.00,Square# sKkK,,,,,,0.00,,,,,,,0.00,,,,,,
IBS(NAHB) 2/19-21/19 (NV),IBS(NAHB) 2/19-21/19 (NV),Querubin Milanes,115180,2/21/2019 9:11:34 AM,Phillip Winston,UT,84105,Legacy 3D,New Black,New,1,0.00,7800.00,7800.00,CreditCard,,,"3 years parts, 1 year labor (Free)","Legacy 3D,Relax 2 Zero 3D,",No,3/8/2019 12:00:00 AM,Delivered,New,,"Confirmed $7,800.00 in square --- 2/21/19 Asumi
02/22/19: Courtesy call at 5pm (Laura)
02/26/19 courtesy call / text completed- cristina",NV,1,8.25,DWA-9150USJ-9150BL,7800.00,Square# OgvL,,,,,,0.00,,,,,,,0.00,,,,,,
IBS(NAHB) 2/19-21/19 (NV),IBS(NAHB) 2/19-21/19 (NV),Querubin Milanes,115180,2/21/2019 9:11:34 AM,Phillip Winston,UT,84105,Relax 2 Zero 3D,New Black,New,1,0.00,7800.00,7800.00,CreditCard,,,"3 years parts, 1 year labor (Free)","Legacy 3D,Relax 2 Zero 3D,",No,3/8/2019 12:00:00 AM,Delivered,New,,"Confirmed $7,800.00 in square --- 2/21/19 Asumi
02/22/19: Courtesy call at 5pm (Laura)
02/26/19 courtesy call / text completed- cristina",NV,1,8.25,DWA-9060USJ-9060BL,7800.00,Square# OgvL,,,,,,0.00,,,,,,,0.00,,,,,,
IBS(NAHB) 2/19-21/19 (NV),IBS(NAHB) 2/19-21/19 (NV),Ruben Cuatrona,115181,2/21/2019 9:15:28 AM,Daniel Bauer,NY,10022,PEGASUS 2 SMART,New Black,New,1,0.00,6900.00,6900.00,CreditCard,,,"5 years parts, 3 years labor ($400)","PEGASUS 2 SMART,",No,,Scheduled,,,"Confirmed $6,900.00 in square --- 2/21/19 Asumi
2/26Maritza- Courtesy message sent @ 4:51PM",TX,1,8.25,PEGS-2PEGS-2-BL,6900.00,Square# p3uL,,,,,,0.00,,,,,,,0.00,,,,,,
IBS(NAHB) 2/19-21/19 (NV),IBS(NAHB) 2/19-21/19 (NV),Ilene Maynard,115182,2/21/2019 9:21:52 AM,Scott Tenlulzon,WA,95012,PEGASUS 2 SMART,New Choco,New,1,0.00,6900.00,6900.00,CreditCard,,,"3 years parts, 1 year labor (Free)","PEGASUS 2 SMART,",No,3/5/2019 12:00:00 AM,Delivered,New,,"Confirmed $6,900.00 in square--- 2/20/19 Asumi
**Actual zip code is 98012 **---2/20/19 Asumi
02/26/19 courtesy call / text completed- cristina",WA,1,8.25,PEGS-2PEGS-2-BR,6900.00,Square#yh5k,,,,,,0.00,,,,,,,0.00,,,,,,
IBS(NAHB) 2/19-21/19 (NV),IBS(NAHB) 2/19-21/19 (NV),Kohei Uno,115183,2/21/2019 9:26:56 AM,Cindy Bradley,TN,37918,Relax 2 Zero 3D,New Choco,New,1,0.00,3800.00,3800.00,CreditCard,,,"5 years parts, 1 year labor (Free)","Relax 2 Zero 3D,",No,,Cancelled,,Multiple chair discount with Malinda Fortner.,"Confirmed $3800.00 in square. Will confirm which branch can deliver--- 2/21/19 Asumi
2/22Maritza- Per Kohei I have refunded the money. Customer will cancel order.",Not Dispatched,1,8.25,DWA-9060USJ-9060BR,3800.00,Receipt #OllV,,,,,,0.00,,,,,,,0.00,,,,,,
IBS(NAHB) 2/19-21/19 (NV),IBS(NAHB) 2/19-21/19 (NV),Kohei Uno,115184,2/21/2019 9:30:40 AM,Malinda Fortner,TN,37914,Relax 2 Zero 3D,New Choco,New,1,0.00,3800.00,3800.00,CreditCard,,,"5 years parts, 1 year labor (Free)","Relax 2 Zero 3D,",No,,Cancelled,,Multiple chair discount with Cindy Bradley,"Confirmed $3,800.00 in square. Will confirm which branch will deliver --- 2/21/19 Asumi
2/21Maritza Customer called in to cancel. Customer will call sales rep
2/22Maritza Per Kohei refund customer. Customer has cancelled and will email receipt to above telephone number.",Not Dispatched,1,8.25,DWA-9060USJ-9060BR,3800.00,Square# a1Rx,,,,,,0.00,,,,,,,0.00,,,,,,
IBS(NAHB) 2/19-21/19 (NV),IBS(NAHB) 2/19-21/19 (NV),Querubin Milanes,115191,2/22/2019 9:04:57 AM,Tom Barenberg,CO,80131,Legacy 3D,New Black,New,1,0.00,4500.00,4500.00,CreditCard,COD,,"5 years parts, 1 year labor (Free)","Legacy 3D,",No,,Scheduled,,,"Confirmed $200.00 in square *COD $4,300.00*---2/22/19 Asumi
2/26Maritza- Courtesy message sent @ 5PM",TX,1,8.25,DWA-9150USJ-9150BL,200.00,SQ#yWnB,,,,,,4300.00,,,,,,,0.00,,,,,,
IBS(NAHB) 2/19-21/19 (NV),IBS(NAHB) 2/19-21/19 (NV),Ruben Cuatrona,115192,2/22/2019 9:10:44 AM,Allan Edwards,TX,77007,Legacy 3D,Demo Black,Demo,1,0.00,4000.00,4000.00,Synchrony,,,"5 years parts, 1 year labor (Free)","Legacy 3D,",No,3/9/2019 12:00:00 AM,Scheduled,New,,"Tx to deliver next week.
Confirmed synchrony approved 6,500.00. and original application form and invoice Please charge $4,000.00 before delivery and have sales draft signed / Will confirm TX can deliver next week--- 2/22/19 Asumi
Confirmed with TX, they won't have team available next week for Houston. They will  ask Patrick  after he coming back 3/3/19 from the show. Riho talked with Ruben about that. --- 2/22/19 Asumi
2/26Maritza- Courtesy message sent @ 5:02PM",TX,1,8.25,DWA-9150USJ-9150BL-DEMO,4000.00,,,6501723375025796,71677772,Las Vegas,36 months,0.00,,,,,,,0.00,,,,,,
IBS(NAHB) 2/19-21/19 (NV),IBS(NAHB) 2/19-21/19 (NV),Rodrigo Malabunga,115193,2/22/2019 9:16:34 AM,Gilbert Scales,CA,90808,Relax 2 Zero 3D,New Black,New,1,0.00,3900.00,3900.00,Synchrony,,,"5 years parts, 2 years labor ($200)","Relax 2 Zero 3D,",No,3/6/2019 12:00:00 AM,Delivered,New,,"Confirmed synchrony approved $6,500.00 and original application form and invoice Please charge $3900.00 before delivery and have sales draft signed--- 2/22/19 Asumi",CA,1,8.25,DWA-9060USJ-9060BL,3900.00,,,6501723375025200,71656325,Las Vegas,12 months,0.00,,,,,,,0.00,,,,,,
IBS(NAHB) 2/19-21/19 (NV),IBS(NAHB) 2/19-21/19 (NV),Rolly San Jose,115194,2/22/2019 9:30:17 AM,Samor mirela Wagner,MO,63089,Legacy 3D,New Choco,New,1,0.00,4500.00,4500.00,Synchrony,,,"5 years parts, 2 years labor ($200)","Legacy 3D,",No,3/23/2019 12:00:00 AM,Delivered,New,,"Confirmed synchrony approved $8,500.00 and original application form and invoice, please charge $4,500.00 before delivery and have sales draft signed.  --- 2/22/19 Asumi
2/26Maritza Courtesy message sent @ 5:05PM",TX,1,8.25,DWA-9150USJ-9150CH,4500.00,,,6501723375025119,71655174,Las Vegas,36 months,0.00,,,,,,,0.00,,,,,,
IBS(NAHB) 2/19-21/19 (NV),IBS(NAHB) 2/19-21/19 (NV),Rolly San Jose,115196,2/22/2019 9:35:25 AM,Debra Meshishnek,ID,83823,PEGASUS 2 SMART,New Choco,New,1,0.00,6000.00,6000.00,Synchrony,,,"5 years parts, 2 years labor ($200)","PEGASUS 2 SMART,",No,,Cancelled,,,"Confirmed synchrony approved $7,200.00 and original application form and invoice Please charge $6,000.00 before delivery and have sales draft signed ---2/22/19 Asumi",NV,1,8.25,PEGS-2PEGS-2-BR,6000.00,,,6501723375024906,71649090,Las Vegas,36 months,0.00,,,,,,,0.00,,,,,,
IBS(NAHB) 2/19-21/19 (NV),IBS(NAHB) 2/19-21/19 (NV),Rodrigo Malabunga,115197,2/22/2019 9:42:45 AM,Randy Hall,IN,46307,PEGASUS 2 SMART,New Choco,New,1,0.00,6900.00,6900.00,CreditCard,,,"5 years parts, 3 years labor ($400)","PEGASUS 2 SMART,",No,3/10/2019 12:00:00 AM,Delivered,New,,"Confirmed $6,900.00 in square --- 2/22/19 Asumi
2/26Maritza Courtesy message sent @ 5:10PM",TX,1,8.25,PEGS-2PEGS-2-BR,6900.00,SQ# JlkX,,,,,,0.00,,,,,,,0.00,,,,,,
IBS(NAHB) 2/19-21/19 (NV),IBS(NAHB) 2/19-21/19 (NV),Rolly San Jose,115198,2/22/2019 9:52:16 AM,Glen Lumia,NJ,07675,PEGASUS 2 SMART,New Black,New,1,0.00,6500.00,6500.00,CreditCard,,,"5 years parts, 2 years labor ($200)","PEGASUS 2 SMART,",No,3/19/2019 12:00:00 AM,Delivered,New,,"Confirmed $6,500.00 in square --- 2/22/19 Asumi
2/26Maritza Courtesy message sent @ 5:11PM",TX,1,8.25,PEGS-2PEGS-2-BL,6500.00,SQ# aNBU,,,,,,0.00,,,,,,,0.00,,,,,,
IBS(NAHB) 2/19-21/19 (NV),IBS(NAHB) 2/19-21/19 (NV),Querubin Milanes,115199,2/22/2019 9:57:20 AM,Steve Marsh,UT,84324,Relax 2 Zero 3D,Demo Choco,Demo,1,0.00,3900.00,3900.00,CreditCard,,,"5 years parts, 1 year labor (Free)","Relax 2 Zero 3D,",No,3/9/2019 12:00:00 AM,Delivered,,,"Confirmed $3,900.00 in square --- 2/22/19 Asumi
02/22/19: Courtesy call at 5:14pm (Laura)
02/26/19 courtesy call / text completed- cristina",NV,1,8.25,DWA-9060USJ-9060BR-DEMO,3900.00,SQ# 0cQz,,,,,,0.00,,,,,,,0.00,,,,,,
IBS(NAHB) 2/19-21/19 (NV),IBS(NAHB) 2/19-21/19 (NV),Ruben Cuatrona,115200,2/22/2019 10:05:00 AM,Jame Woodman,GA,31522,PEGASUS 2 SMART,Demo Black,Demo,1,0.00,5200.00,5200.00,Synchrony,,,"5 years parts, 1 year labor (Free)","PEGASUS 2 SMART,",No,3/14/2019 12:00:00 AM,Delivered,Demo,,"CC Josefina - 2/25/19 10:42am VM (Exp. 02/24 CVV: 265)
Confirmed synchrony approved $8,400.00 and original application form and invoice. Please charge $5200.00 before delivery and have sales draft signed --- 2/22/19 Asumi",FL,1,8.25,PEGS-2PEGS-2-BL-DEMO,5200.00,,,6501723375024641,71639413,Las Vegas,36 months,0.00,,,,,,,0.00,,,,,,
IBS(NAHB) 2/19-21/19 (NV),IBS(NAHB) 2/19-21/19 (NV),Rolly San Jose,115201,2/22/2019 10:11:13 AM,Tammy Warner,CA,93514,PEGASUS 2 SMART,New Choco,New,1,0.00,6200.00,6200.00,Synchrony,,,"5 years parts, 2 years labor ($200)","PEGASUS 2 SMART,",No,3/11/2019 12:00:00 AM,Delivered,New,,"Confirmed synchrony approved $7,500.00  and original application form and invoice. Please charge $6200.00 before delivery and have sales draft signed --- 2/22/19 Asumi",CA,1,8.25,PEGS-2PEGS-2-BR,6200.00,,,6501723375024583,71638706,Las Vegas,48 months,0.00,,,,,,,0.00,,,,,,
IBS(NAHB) 2/19-21/19 (NV),IBS(NAHB) 2/19-21/19 (NV),Laura Vargas,115203,2/22/2019 10:17:35 AM,Craig Frame,ID,83616,Relax 2 Zero 3D,New Choco,New,1,0.00,4200.00,4200.00,CreditCard,,,"5 years parts, 2 years labor ($200)","Relax 2 Zero 3D,",No,3/9/2019 12:00:00 AM,Delivered,,,"Confirmed $4,200.00 in square --- 2/22/19 Asumi
02/22/19: Courtesy call at 5:21pm (Laura)
02/26/19 courtesy call / text completed- cristina",NV,1,8.25,DWA-9060USJ-9060BR,4200.00,SQ# jcJ8,,,,,,0.00,,,,,,,0.00,,,,,,
IBS(NAHB) 2/19-21/19 (NV),IBS(NAHB) 2/19-21/19 (NV),Ruben Cuatrona,115207,2/22/2019 2:08:32 PM,Windows Construction,AZ,85259,PEGASUS 2 SMART,New Black,New,2,0.00,9000.00,9000.00,CreditCard,CreditCard,,"5 years parts, 1 year labor (Free)","PEGASUS 2 SMART,",No,3/1/2019 12:00:00 AM,Delivered,New,"COD Balance of $4500 remaining.

2nd Address:

Bill OBrien
9902 E Monte Ave
Mesa, AZ 85209
(602)722-5031","Correction from 115157
Confirmed $4500.00 in square. *COD $4,500.00* --- 2/22/19 Asumi
2/27Maritza Courtesy message sent to Bill Obrien @ 12:22PM",NV,1,8.25,PEGS-2PEGS-2-BL,4500.00,Square# fwke,,,,,,4500.00,Square# P76N,,,,,,0.00,,,,,,
