﻿Order Number,Order Date,Event Name,Salesperson,SKU,Product Name,Color,QTY,Warranty,Payment Details,Tax,Order Total,Gross,Primary Payment Method,Primary Payment Balance,Primary Authorize Number,Primary Purchase Order Number,Primary Synchrony Account Number,Primary Synchrony Application Key,Primary Synchrony AccountInfo,Primary SynchronyTerm,Secondly Payment Method,Secondly Payment Balance,Secondly Authorize Number,Secondly Purchase Order Number,Secondly Synchrony Account Number,Secondly Synchrony Application Key,Secondly Synchrony AccountInfo,Secondly SynchronyTerm,Thirdly Payment Method,Thirdly Payment Balance,Thirdly Authorize Number,Thirdly Purchase Order Number,Thirdly Synchrony Account Number,Thirdly Synchrony Application Key,Thirdly Synchrony AccountInfo,Thirdly SynchronyTerm,Actual Shipping Cost,CustomerName,Shipping Address,Delivered On,Serial Number (TO Be),Note,Branch,IsNoTax,ActualTaxRate
102305,12/7/2017 12:49:28 PM,Sam's Club Gilbert #4829 12/7-17/17 (NV),Christoper Richard Williams,DWA-9100DWA-9100BL-DEMO,Legacy for Sam's,Demo Black,1,"3 years parts, 1 year labor (Free)",CUSTOM ,280.72,3879.72,3879.72,CreditCard,0.00,611851,,,,,,,0.00,,,,,,,,0.00,,,,,,,0.00,Micheal Penrod,4808615009,12/17/2017 12:00:00 AM,,,CA,0,7.80
102306,12/7/2017 1:09:46 PM,Sam's Club Gilbert #4829 12/7-17/17 (NV),Christoper Richard Williams,,Ninja Leg Massager,,1,"2 years parts, 1 year labor (Small Items)",CUSTOM ,29.56,408.56,408.56,CreditCard,0.00,482266,,,,,,,0.00,,,,,,,,0.00,,,,,,,0.00,Paul Sinclair,4806009944,,,,NV,0,7.80
102307,12/7/2017 1:14:24 PM,Stetson Country Christmas 12/7-17/17 (NV),Ruben Cuatrona,DWA-9150USJ-9150CH,Legacy 3D,Choco Brown,1,"3 years parts, 1 year labor (Free)",CUSTOM ,268.04,4267.00,4267.00,CreditCard,0.00,Approval #35008D,,,,,,,0.00,,,,,,,,0.00,,,,,,,0.00,Cheryl Link,540-570-1349,,,,TX,0,8.25
102308,12/7/2017 1:30:29 PM,Sam's Club #7658 11/30-12/10 (FL),Robert Shih,USJ-9050USJ-9050BL-DEMO,Relax2Zero 2.0 for Sam's,Demo Black,1,"2 years parts, 1 year labor (Small Items)",CUSTOM ,251.93,3850.92,3850.92,CreditCard,3850.92,TC# 7096 5658 8275 3029 6102 34,,,,,,,0.00,,,,,,,,0.00,,,,,,,0.00,Portia Jackson,9123997768,12/20/2017 12:00:00 AM,,Thank you very much for your business with us in the Sam's club Brunswick GA / Deliver about 2 weeks / Vitality plate has been picked up in store,FL,0,7.00
102308,12/7/2017 1:30:29 PM,Sam's Club #7658 11/30-12/10 (FL),Robert Shih,USJ-849USJ-849-DEMO,Vitality Plate for Sam's,Deomo,1,"2 years parts, 1 year labor (Small Items)",CUSTOM ,251.93,3850.92,3850.92,CreditCard,3850.92,TC# 7096 5658 8275 3029 6102 34,,,,,,,0.00,,,,,,,,0.00,,,,,,,0.00,Portia Jackson,9123997768,12/20/2017 12:00:00 AM,,Thank you very much for your business with us in the Sam's club Brunswick GA / Deliver about 2 weeks / Vitality plate has been picked up in store,FL,0,7.00
102309,12/7/2017 1:52:35 PM,Sam's Club #4991 11/30-12/10 (FL),Jonathan Bhowani,USJ-9050USJ-9050BL,Relax2Zero 2.0 for Sam's,Black,1,"3 years parts, 1 year labor (Free)",CUSTOM ,301.00,4600.99,4600.99,CreditCard,4600.99,TC# 9694 1014 9751 1162 2259 02,,,,,,,0.00,,,,,,,,0.00,,,,,,,0.00,Adam Cherup,9542634041,12/19/2017 12:00:00 AM,,Estimated delivery: 2-3 weeks. (Dec. 18th),FL,0,7.00
102309,12/7/2017 1:52:35 PM,Sam's Club #4991 11/30-12/10 (FL),Jonathan Bhowani,USJ-849USJ-849-DEMO,Vitality Plate for Sam's,Deomo,1,"2 years parts, 1 year labor (Small Items)",CUSTOM ,301.00,4600.99,4600.99,CreditCard,4600.99,TC# 9694 1014 9751 1162 2259 02,,,,,,,0.00,,,,,,,,0.00,,,,,,,0.00,Adam Cherup,9542634041,12/19/2017 12:00:00 AM,,Estimated delivery: 2-3 weeks. (Dec. 18th),FL,0,7.00
102310,12/7/2017 4:05:42 PM,"Sam's Club #6439 Odessa, TX 11/30-12/10/17 (TX)",Chris Tavira,DWA-9100DWA-9100SB,Legacy for Sam's,Sienna Brown,1,"3 years parts, 1 year labor (Free)",CUSTOM Cash,296.92,3895.92,3895.92,CreditCard,2000.00,TC# 5484 1219 9156 5263 5248 79,,,,,,Cash,1895.92,,,,,,,,0.00,,,,,,,350.00,Eliseo Bello,4323685049,12/11/2017 12:00:00 AM,,Invoice #20638,TX,0,8.25
102311,12/7/2017 4:11:46 PM,"Sam's Club #6439 Odessa, TX 11/30-12/10/17 (TX)",Chris Tavira,DWA-9100DWA-9100BL,Legacy for Sam's,Black,1,"3 years parts, 1 year labor (Free)",CUSTOM ,354.67,4653.67,4653.67,CreditCard,4653.67,TC# 1800 6363 0327 0750 2733 20,,,,,,,0.00,,,,,,,,0.00,,,,,,,350.00,Omar Orozco,5759977302,12/21/2017 12:00:00 AM,,Invoice #20627,TX,0,8.25
102312,12/7/2017 4:16:07 PM,"Sam's Club #6439 Odessa, TX 11/30-12/10/17 (TX)",Chris Tavira,,Ninja Leg Massager,,1,"2 years parts, 1 year labor (Small Items)",CUSTOM ,31.27,410.27,410.27,CreditCard,410.27,TC# 1800 6363 0327 0750 2733 20,,,,,,,0.00,,,,,,,,0.00,,,,,,,0.00,Omar Orozco,5759977302,,,Invoice #20639,TX,0,8.25
102313,12/7/2017 10:30:59 PM,Stetson Country Christmas 12/7-17/17 (NV),Patricia Whipple,DWA-9400Pegasus-BR,Pegasus,Choco Brown,1,"3 years parts, 1 year labor (Free)",CUSTOM ,0.00,5948.00,5948.00,CreditCard,0.00,864206,,,,,,,0.00,,,,,,,,0.00,,,,,,,0.00,Marchel Newman,8014556645,12/21/2017 12:00:00 AM,,,NV,1,8.25
102314,12/7/2017 10:37:57 PM,Stetson Country Christmas 12/7-17/17 (NV),Rolly San Jose,DWA-9150USJ-9150CH,Legacy 3D,Choco Brown,1,"3 years parts, 1 year labor (Free)",CUSTOM ,0.00,4330.00,4330.00,CreditCard,4330.00,007980,,,,,,,0.00,,,,,,,,0.00,,,,,,,350.00,Kelby Bond,7192511702,12/12/2017 12:00:00 AM,,,TX,1,8.25
102315,12/8/2017 7:16:08 AM,Main office (CA),Rodrigo Malabunga,DWA-9400Pegasus-BL,Pegasus,Black,1,"3 years parts, 1 year labor (Free)",CUSTOM ,0.00,4800.00,4800.00,CreditCard,4800.00,02539P,,,,,,,0.00,,,,,,,,0.00,,,,,,,0.00,Buddy Patton,602 295 0317,,,,CA,1,9.25
102316,12/8/2017 7:49:36 AM,Nam Dae Mun,Mitch Valdes,DWA-9100DWA-9100BL,Legacy,Black,1,"3 years parts, 1 year labor (Free)",CUSTOM ,181.48,3200.00,3200.00,CreditCard,0.00,kzrM,,,,,,,0.00,,,,,,,,0.00,,,,,,,0.00,Peter Lee,501-413-2233,12/13/2017 12:00:00 AM,,,FL,0,8.00
102317,12/8/2017 7:58:23 AM,Nam Dae Mun,Mitch Valdes,DWA-9100DWA-9100BL,Legacy,Black,1,"3 years parts, 1 year labor (Free)",CUSTOM ,181.48,3200.00,3200.00,Check,3200.00,,,,,,,,0.00,,,,,,,,0.00,,,,,,,0.00,Ramon Hernandez,678-775-9798,12/2/2017 12:00:00 AM,,,FL,0,8.00
102318,12/8/2017 8:22:52 AM,Sam's Club Gilbert #4829 12/7-17/17 (NV),Christoper Richard Williams,USJ-871,Foot Vibe Pro,,1,"2 years parts, 1 year labor (Small Items)",CUSTOM ,8.58,118.57,118.57,CreditCard,0.00,TC# 9987 9936 3815 3007 4661 1,,,,,,,0.00,,,,,,,,0.00,,,,,,,0.00,David Nevarez,4802742917,,,,NV,0,7.80
102319,12/8/2017 9:22:07 AM,Main office (CA),Dana Garcia,DWA-9100DWA-9100BL,Legacy,Black,1,"3 years parts, 1 year labor (Free)",CUSTOM ,0.00,4200.00,4200.00,CreditCard,4200.00,tj0f,,,,,,,0.00,,,,,,,,0.00,,,,,,,0.00,Daisy Benavidez,616-856-9979,12/8/2017 12:00:00 AM,,,CA,1,9.25
102320,12/8/2017 9:56:18 AM,"Asia Time Square, Grand Prairie (TX)",KHOA H,DWA-9100DWA-9100BL,Legacy,Black,1,"2 years parts, 1 year labor (Small Items)",CUSTOM Cash,0.00,3600.00,3600.00,Cash,600.00,,,,,,,Cash,3000.00,,,,,,,,0.00,,,,,,,350.00,Hanny Tanny,3035966472,12/13/2017 12:00:00 AM,,"Offer 1 banket Free
Customer deposit $600
Balance $3000 will be paid when chair delivery",TX,1,8.25
102320,12/8/2017 9:56:18 AM,"Asia Time Square, Grand Prairie (TX)",KHOA H,,Daiwa Blanket,,1,no warranty,CUSTOM Cash,0.00,3600.00,3600.00,Cash,600.00,,,,,,,Cash,3000.00,,,,,,,,0.00,,,,,,,350.00,Hanny Tanny,3035966472,12/13/2017 12:00:00 AM,,"Offer 1 banket Free
Customer deposit $600
Balance $3000 will be paid when chair delivery",TX,1,8.25
102321,12/8/2017 10:08:45 AM,Sam's Club Palmdale #4767 12/7-17/17 (CA),Larhonda Ingram,USJ-871,Foot Vibe Pro,,1,"2 years parts, 1 year labor (Small Items)",CUSTOM ,10.45,120.44,120.44,CreditCard,0.00,Tc# 0603 1035 0372 8857 5652 8,,,,,,,0.00,,,,,,,,0.00,,,,,,,0.00,Hermila Vasquez,6618191489,,,,CA,0,9.50
102322,12/8/2017 10:16:39 AM,Sam's Club Palmdale #4767 12/7-17/17 (CA),Larhonda Ingram,USJ-871,Foot Vibe Pro,,1,"2 years parts, 1 year labor (Small Items)",CUSTOM ,10.45,120.44,120.44,CreditCard,0.00,TC# 8764 2649 1140 4249 1,,,,,,,0.00,,,,,,,,0.00,,,,,,,0.00,James Cole,6614334945,,,,CA,0,9.50
102323,12/8/2017 10:30:40 AM,Stetson Country Christmas 12/7-17/17 (NV),Abagail Stirling,DWA-9060USJ-9060BR,Relax2Zero 3D,Choco Brown,1,"2 years parts, 1 year labor (Small Items)",CUSTOM ,0.00,4600.00,4600.00,CreditCard,4600.00,05483G,,,,,,,0.00,,,,,,,,0.00,,,,,,,0.00,Lynnette Goodson,208 882 5460,12/26/2017 12:00:00 AM,,,WA,1,8.25
102324,12/8/2017 10:47:05 AM,Stetson Country Christmas 12/7-17/17 (NV),Ilene Maynard,DWA-9060USJ-9060BR,Relax2Zero 3D,Choco Brown,1,"3 years parts, 1 year labor (Free)",CUSTOM ,0.00,4500.00,4500.00,Synchrony,4500.00,,,6034610081687322,82223572,San Diego,36 months,,0.00,,,,,,,,0.00,,,,,,,0.00,Shiann Panetta,307 751 6253,12/15/2017 12:00:00 AM,,,NV,1,8.25
102325,12/8/2017 10:53:04 AM,Stetson Country Christmas 12/7-17/17 (NV),Ilene Maynard,DWA-9060USJ-9060BR,Relax2Zero 3D,Choco Brown,1,"3 years parts, 1 year labor (Free)",CUSTOM ,0.00,3900.00,3900.00,CreditCard,3900.00,007545,,,,,,,0.00,,,,,,,,0.00,,,,,,,350.00,Cory Gill,970 215 4609,12/12/2017 12:00:00 AM,,,TX,1,8.25
102326,12/8/2017 11:26:22 AM,Sam's Club Daytona Beach #8138 12/7-17/17 (FL),Ting Ritchie,DWA-9100DWA-9100CH-DEMO,Legacy for Sam's,Demo Choco,1,"3 years parts, 1 year labor (Free)",CUSTOM ,279.44,5328.44,5328.44,CreditCard,4578.44,00761,,,,,,,0.00,,,,,,,,0.00,,,,,,,0.00,Cheryl Merli,7725798416,,,,FL,0,6.50
102327,12/8/2017 11:41:03 AM,Sam's Club Daytona Beach #8138 12/7-17/17 (FL),Ting Ritchie,DWA-9100DWA-9100BL-DEMO,Legacy for Sam's,Demo Blue,1,"3 years parts, 1 year labor (Free)",CUSTOM ,188.18,3833.18,3833.18,CreditCard,3832.94,008942,,,,,,,0.00,,,,,,,,0.00,,,,,,,0.00,Norman Brady,3862654170,12/20/2017 12:00:00 AM,,,FL,0,6.50
102328,12/8/2017 6:12:13 PM,"Sam's Club #6439 Odessa, TX 11/30-12/10/17 (TX)",Chris Tavira,,Ninja Leg Massager,,1,"2 years parts, 1 year labor (Small Items)",CUSTOM ,31.27,410.27,410.27,Cash,410.27,,,,,,,,0.00,,,,,,,,0.00,,,,,,,0.00,Darren Monthomery,4322723749,,,Invoice #20641,TX,0,8.25
102329,12/8/2017 6:38:28 PM,"Sam's Club #6439 Odessa, TX 11/30-12/10/17 (TX)",Chris Tavira,,Chair Pad for Legacy,,1,no warranty,CUSTOM ,296.92,3895.92,3895.92,CreditCard,3895.92,TC# 0711 2841 1209 0892 0855 31,,,,,,,0.00,,,,,,,,0.00,,,,,,,350.00,Cheryl Switzer,4325538887,12/20/2017 12:00:00 AM,,"Invoice #20642
Chair Color: CHOCOLATE BROWN",TX,0,8.25
102329,12/8/2017 6:38:28 PM,"Sam's Club #6439 Odessa, TX 11/30-12/10/17 (TX)",Chris Tavira,DWA-9100DWA-9100BL,Legacy for Sam's,Black,1,"3 years parts, 1 year labor (Free)",CUSTOM ,296.92,3895.92,3895.92,CreditCard,3895.92,TC# 0711 2841 1209 0892 0855 31,,,,,,,0.00,,,,,,,,0.00,,,,,,,350.00,Cheryl Switzer,4325538887,12/20/2017 12:00:00 AM,,"Invoice #20642
Chair Color: CHOCOLATE BROWN",TX,0,8.25
102330,12/8/2017 6:43:24 PM,"Sam's Club #6439 Odessa, TX 11/30-12/10/17 (TX)",Chris Tavira,,Ninja Leg Massager,,1,"3 years parts, 1 year labor (Free)",CUSTOM ,31.27,410.27,410.27,CreditCard,410.27,TC# 5013 0075 1383 4883 1772 5,,,,,,,0.00,,,,,,,,0.00,,,,,,,0.00,Ramon Saldivar,4322646111,,,Invoice #20637,TX,0,8.25
102331,12/8/2017 6:53:04 PM,Sam's Club Daytona Beach #8138 12/7-17/17 (FL),Ting Ritchie,USJ-849USJ-849,Vitality Plate for Sam's,New,1,"2 years parts, 1 year labor (Small Items)",CUSTOM ,233.67,4578.66,4578.66,CreditCard,4578.44,4208817449609314640337,,,,,,,0.00,,,,,,,,0.00,,,,,,,0.00,Cheryl Merli,7725798416,12/20/2017 12:00:00 AM,,"Please ship a NEW chair, Chocolate Brown to the customer. Vitality plate customer already picked up.",FL,0,6.50
102331,12/8/2017 6:53:04 PM,Sam's Club Daytona Beach #8138 12/7-17/17 (FL),Ting Ritchie,DWA-9100DWA-9100CH-DEMO,Legacy for Sam's,Demo Choco,1,"3 years parts, 1 year labor (Free)",CUSTOM ,233.67,4578.66,4578.66,CreditCard,4578.44,4208817449609314640337,,,,,,,0.00,,,,,,,,0.00,,,,,,,0.00,Cheryl Merli,7725798416,12/20/2017 12:00:00 AM,,"Please ship a NEW chair, Chocolate Brown to the customer. Vitality plate customer already picked up.",FL,0,6.50
102332,12/8/2017 9:58:15 PM,Stetson Country Christmas 12/7-17/17 (NV),Gail Kerns,DWA-9150USJ-9150BL,Legacy 3D,Black,1,"3 years parts, 1 year labor (Free)",CUSTOM ,0.00,4547.00,4547.00,CreditCard,0.00,045417,,,,,,,0.00,,,,,,,,0.00,,,,,,,350.00,William Hodge,7133920111,12/19/2017 12:00:00 AM,,,TX,1,8.25
102333,12/9/2017 7:27:34 AM,"Sam's Club #6376 Dallas, TX 12/7-17/17",Jennifer Tran,USJ-849USJ-849,Vitality Plate for Sam's,New,1,"2 years parts, 1 year labor (Small Items)",CUSTOM ,37.95,497.94,497.94,CreditCard,497.94,TC# 7055 0307 6991 6474 0564 9,,,,,,,0.00,,,,,,,,0.00,,,,,,,0.00,Robert Pellizzi,9728398861,,,,TX,0,8.25
102334,12/9/2017 7:33:10 AM,"Sam's Club #6376 Dallas, TX 12/7-17/17",Jennifer Tran,USJ-849USJ-849,Vitality Plate for Sam's,New,1,"2 years parts, 1 year labor (Small Items)",CUSTOM ,37.95,497.94,497.94,CreditCard,497.94,TC# 1921 8481 5006 5919 8259 0,,,,,,,0.00,,,,,,,,0.00,,,,,,,0.00,August Pellizzi,2147047355,,,,TX,0,8.25
102335,12/9/2017 8:08:01 AM,NGWA EXPO 12/6-7/17 (IL),Noni Ignacio,DWA-9060USJ-9060BR,Relax2Zero 3D,Choco Brown,1,"3 years parts, 1 year labor (Free)",CUSTOM COD,292.12,4200.12,4200.12,CreditCard,300.00,832123,,,,,,COD,3900.12,,,,,,,,0.00,,,,,,,350.00,Jeff Wyatt,8067772710,12/21/2017 12:00:00 AM,,Customer will call to pay FULL BALANCE before scheduling the delivery,TX,0,9.25
102336,12/9/2017 9:04:23 AM,Sam's Club Gilbert #4829 12/7-17/17 (NV),Christoper Richard Williams,USJ-871,Foot Vibe Pro for Alaska,,1,"2 years parts, 1 year labor (Small Items)",CUSTOM ,8.58,118.57,118.57,CreditCard,0.00,TC# 9277 9936 1865 3007 4061 1,,,,,,,0.00,,,,,,,,0.00,,,,,,,0.00,Holly Gilbert,4806486223,,,,NV,0,7.80
102337,12/9/2017 9:10:14 AM,Sam's Club #6335 Ocala  12/7-17/17,Alex Brackelsberg,USJ-9050USJ-9050BL-DEMO,Relax2Zero 2.0 for Sam's,Demo Black,1,"3 years parts, 1 year labor (Free)",CUSTOM ,223.93,3422.93,3422.93,CreditCard,0.00,8627879465835408830278,,,,,,,0.00,,,,,,,,0.00,,,,,,,0.00,Danny Davis,3522834657,,,,FL,0,7.00
102338,12/9/2017 10:18:03 AM,Sam's Club #8253 11/30-12/10 (FL),Michael Wang,USJ-9050USJ-9050BR,Relax2Zero 2.0 for Sam's,Brown,1,"3 years parts, 1 year labor (Free)",CUSTOM ,223.93,3422.93,3422.93,CreditCard,3422.93,TC# 4269 4689 2943 7434 0955 66,,,,,,,0.00,,,,,,,,0.00,,,,,,,0.00,Russell Swartzel,4027056148,,,2 free chair pads 1 free blanket.Give Customer a new chair.,TX,0,7.00
102339,12/9/2017 10:37:08 AM,Referral (Main Office),Joseph Chan,DWA-9400Pegasus-BR,Pegasus,Choco Brown,1,"3 years parts, 1 year labor (Free)",CUSTOM ,0.00,5000.00,5000.00,CreditCard,5000.00,#aqJ7,,,,,,,0.00,,,,,,,,0.00,,,,,,,0.00,Clinton Heinzen,206-228-3236,12/22/2017 12:00:00 AM,,,WA,1,9.25
102340,12/9/2017 10:48:24 AM,Sam's Club #8253 11/30-12/10 (FL),Michael Wang,DWA-9100DWA-9100SB,Legacy for Sam's,Sienna Brown,1,"3 years parts, 1 year labor (Free)",CUSTOM ,251.93,3850.93,3850.93,CreditCard,3850.93,Tc# 3673 3909 5835 3383 9476 21,,,,,,,0.00,,,,,,,,0.00,,,,,,,0.00,Kay Lee,9044776609,12/20/2017 12:00:00 AM,,Give customer new chair.2 free chair pads one free blanket.,FL,0,7.00
102341,12/9/2017 12:22:09 PM,Sam's Club Palmdale #4767 12/7-17/17 (CA),Larhonda Ingram,USJ-871,Foot Vibe Pro,,1,"2 years parts, 1 year labor (Small Items)",CUSTOM ,10.45,120.44,120.44,CreditCard,0.00,TC# 7568 8744 4619 1140,,,,,,,0.00,,,,,,,,0.00,,,,,,,0.00,Norma Sherman,6614354648,,,,CA,0,9.50
102342,12/9/2017 12:48:40 PM,Sam's Club #7658 11/30-12/10 (FL),Robert Shih,USJ-849USJ-849-DEMO,Vitality Plate for Sam's,Deomo,1,"2 years parts, 1 year labor (Small Items)",CUSTOM ,28.00,427.99,427.99,CreditCard,427.99,TC# 2949 6872 3487 5390 9933 1,,,,,,,0.00,,,,,,,,0.00,,,,,,,0.00,Yvonne White,9122712229,,,Thank you very much for your business with us in the Sam's club Brunswick GA .,FL,0,7.00
102343,12/9/2017 1:35:57 PM,Sam's Club #4991 11/30-12/10 (FL),Jonathan Bhowani,USJ-9050USJ-9050BR,Relax2Zero 2.0 for Sam's,Brown,1,"3 years parts, 1 year labor (Free)",CUSTOM ,273.00,4173.00,4173.00,CreditCard,4173.00,TC# 9124 5614 9953 0160 2049 52,,,,,,,0.00,,,,,,,,0.00,,,,,,,0.00,Nikki Muenchow,2695194845,12/19/2017 12:00:00 AM,,,FL,0,7.00
102344,12/9/2017 1:39:59 PM,Sam's Club #8253 11/30-12/10 (FL),Michael Wang,DWA-9100DWA-9100BL,Legacy for Sam's,Blue,1,"3 years parts, 1 year labor (Free)",CUSTOM ,251.93,3850.93,3850.93,CreditCard,3850.93,TC# 5484 5718 9659 5565 7284 03,,,,,,,0.00,,,,,,,,0.00,,,,,,,0.00,Gary Ross,9042520060,12/20/2017 12:00:00 AM,,2 free chair pads 1 free Daiwa blanket for customer.Please Give Customer new chair.,FL,0,7.00
102345,12/9/2017 1:41:40 PM,Sam's Club #4991 11/30-12/10 (FL),Jonathan Bhowani,,Ninja Leg Massager,,1,"2 years parts, 1 year labor (Small Items)",CUSTOM ,26.53,405.53,405.53,CreditCard,405.53,TC# 1601 6421 9084 4908 3113 8,,,,,,,0.00,,,,,,,,0.00,,,,,,,0.00,Robert Hall,3213837984,,,"Warranty: 2 years parts, 1 year in home service.",FL,0,7.00
102346,12/9/2017 5:32:32 PM,"Sam's Club #6439 Odessa, TX 11/30-12/10/17 (TX)",Chris Tavira,USJ-849USJ-849,Vitality Plate for Sam's,New,1,"2 years parts, 1 year labor (Small Items)",CUSTOM ,37.95,497.94,497.94,CreditCard,497.94,TC# 4668 5774 5654 5146 5001 4,,,,,,,0.00,,,,,,,,0.00,,,,,,,0.00,Mary Smith,4324484525,,,Invoice # 20646,TX,0,8.25
102347,12/9/2017 5:35:17 PM,Sam's Club #7658 11/30-12/10 (FL),Robert Shih,USJ-9050USJ-9050BR,Relax2Zero 2.0 for Sam's,Brown,1,"2 years parts, 1 year labor (Small Items)",CUSTOM ,223.93,3422.93,3422.93,CreditCard,3422.93,TC# 5964 5316 9651 0465 7226 38,,,,,,,0.00,,,,,,,,0.00,,,,,,,0.00,Tanya Harrell,9124647930,,,Thank you very much for your business with us in the Sam's club Brunswick GA / Pls deliver the NEW one / Pls deliver the chair at first week of January.,FL,0,7.00
102348,12/9/2017 5:48:12 PM,"Sam's Club #6439 Odessa, TX 11/30-12/10/17 (TX)",Chris Tavira,,Ninja Leg Massager,,1,"2 years parts, 1 year labor (Small Items)",CUSTOM ,31.27,410.27,410.27,CreditCard,410.27,TV# 9454 1149 3565 2665 3480 9,,,,,,,0.00,,,,,,,,0.00,,,,,,,0.00,Dona Scott,8017182242,,,Invoice #20640,NV,0,8.25
102349,12/9/2017 5:55:44 PM,"Sam's Club #6439 Odessa, TX 11/30-12/10/17 (TX)",Chris Tavira,DWA-9100DWA-9100BL,Legacy for Sam's,Black,1,"3 years parts, 1 year labor (Free)",CUSTOM ,296.92,3895.92,3895.92,CreditCard,3895.92,TC# 4509 4989 2549 2936 4911 02,,,,,,,0.00,,,,,,,,0.00,,,,,,,350.00,Ruben Hernandez,4323665193,12/22/2017 12:00:00 AM,,"Invoice # 10643
Chair Color: CHOCOLATE BROWN",TX,0,8.25
102350,12/9/2017 6:45:35 PM,"Asian Food Center, Seattle, 12/1-10(WA)",May Kam,DWA-9100DWA-9100CH,Legacy,Choco Brown,1,"3 years parts, 1 year labor (Free)",CUSTOM CreditCard,0.00,3580.00,3580.00,CreditCard,200.00,723184,,,,,,CreditCard,3380.00,COD,,,,,,,0.00,,,,,,,0.00,Jing Ma,2062254678,12/21/2017 12:00:00 AM,,"Chinese speaker for delivery schedule, Chinese manual ,",WA,1,10.10
102350,12/9/2017 6:45:35 PM,"Asian Food Center, Seattle, 12/1-10(WA)",May Kam,,Daiwa Blanket,,1,no warranty,CUSTOM CreditCard,0.00,3580.00,3580.00,CreditCard,200.00,723184,,,,,,CreditCard,3380.00,COD,,,,,,,0.00,,,,,,,0.00,Jing Ma,2062254678,12/21/2017 12:00:00 AM,,"Chinese speaker for delivery schedule, Chinese manual ,",WA,1,10.10
102351,12/9/2017 7:16:37 PM,Sam's Club Daytona Beach #8138 12/7-17/17 (FL),Ting Ritchie,USJ-9050USJ-9050BL-DEMO,Relax2Zero 2.0 for Sam's,Demo Black,1,"3 years parts, 1 year labor (Free)",CUSTOM ,162.18,3407.18,3407.18,CreditCard,3406.94,8677859566825106832129,,,,,,,0.00,,,,,,,,0.00,,,,,,,0.00,Matthew Johnson,3862375448,12/20/2017 12:00:00 AM,,Please ship a NEW one. Military discount,FL,0,6.50
102352,12/9/2017 7:26:51 PM,Sam's Club Daytona Beach #8138 12/7-17/17 (FL),Ting Ritchie,DWA-9100DWA-9100CH-DEMO,Legacy for Sam's,Demo Choco,1,"3 years parts, 1 year labor (Free)",CUSTOM ,188.18,3833.18,3833.18,CreditCard,3832.94,4559448825468532498568,,,,,,,0.00,,,,,,,,0.00,,,,,,,0.00,Owen Bellamy,4784554555,12/17/2017 12:00:00 AM,,Please ship a NEW one.,FL,0,6.50
102353,12/9/2017 8:46:19 PM,Main office (CA),KHOA H,DWA-9100DWA-9100BL,Legacy,Black,1,"3 years parts, 1 year labor (Free)",CUSTOM Cash,0.00,3500.00,3500.00,Cash,500.00,,,,,,,Cash,3000.00,,,,,,,,0.00,,,,,,,350.00,MEILEEN PAN,2132714325,12/13/2017 12:00:00 AM,,,TX,1,9.25
102353,12/9/2017 8:46:19 PM,Main office (CA),KHOA H,,Daiwa Blanket,,1,no warranty,CUSTOM Cash,0.00,3500.00,3500.00,Cash,500.00,,,,,,,Cash,3000.00,,,,,,,,0.00,,,,,,,350.00,MEILEEN PAN,2132714325,12/13/2017 12:00:00 AM,,,TX,1,9.25
102354,12/9/2017 9:04:12 PM,Stetson Country Christmas 12/7-17/17 (NV),Rolly San Jose,DWA-9400Pegasus-BR,Pegasus,Choco Brown,1,"3 years parts, 1 year labor (Free)",CUSTOM ,0.00,5304.00,5304.00,CreditCard,0.00,05676d,,,,,,,0.00,,,,,,,,0.00,,,,,,,0.00,Lynn Austin,5592602737,12/21/2017 12:00:00 AM,,,CA,1,8.25
102355,12/9/2017 9:09:55 PM,"Sam's Club #6376 Dallas, TX 12/7-17/17",Jennifer Tran,USJ-9050USJ-9050BL,Relax2Zero 2.0 for Sam's,Black,1,"3 years parts, 1 year labor (Free)",CUSTOM ,263.92,3462.92,3462.92,CreditCard,3462.92,TC# 3553 3708 5730 4701 0407 13,,,,,,,0.00,,,,,,,,0.00,,,,,,,350.00,Jeff Jantrakul,214-770-8896,12/13/2017 12:00:00 AM,,**PLEASE DELIVER ASAP**,TX,0,8.25
102356,12/9/2017 9:27:44 PM,Stetson Country Christmas 12/7-17/17 (NV),Ruben Cuatrona,DWA-9150USJ-9150CH-DEMO,Legacy 3D,Demo Choco Brown,1,"3 years parts, 1 year labor (Free)",CUSTOM ,0.00,4221.00,4221.00,Synchrony,0.00,,,6034610081691530,82310916,San Diego,36 months,,0.00,,,,,,,,0.00,,,,,,,350.00,David Flom,5072980125,12/16/2017 12:00:00 AM,,,TX,1,8.25
102357,12/9/2017 9:28:01 PM,Referral (Main Office),KHOA H,DWA-9100DWA-9100CH,Legacy,Choco Brown,1,"2 years parts, 1 year labor (Small Items)",CUSTOM ,0.00,3600.00,3600.00,Synchrony,3600.00,,,6034610081692074,82319926,,,,0.00,,,,,,,,0.00,,,,,,,0.00,Chi Chong,2067695794,12/24/2017 12:00:00 AM,,"Offer: 1 chair pad & 1 pair footpad free
Financing $3600 for 24 months 0% interest",WA,1,9.25
102357,12/9/2017 9:28:01 PM,Referral (Main Office),KHOA H,,Chair Pad for Legacy,,1,no warranty,CUSTOM ,0.00,3600.00,3600.00,Synchrony,3600.00,,,6034610081692074,82319926,,,,0.00,,,,,,,,0.00,,,,,,,0.00,Chi Chong,2067695794,12/24/2017 12:00:00 AM,,"Offer: 1 chair pad & 1 pair footpad free
Financing $3600 for 24 months 0% interest",WA,1,9.25
102357,12/9/2017 9:28:01 PM,Referral (Main Office),KHOA H,,Foot Pads for Legacy,,1,no warranty,CUSTOM ,0.00,3600.00,3600.00,Synchrony,3600.00,,,6034610081692074,82319926,,,,0.00,,,,,,,,0.00,,,,,,,0.00,Chi Chong,2067695794,12/24/2017 12:00:00 AM,,"Offer: 1 chair pad & 1 pair footpad free
Financing $3600 for 24 months 0% interest",WA,1,9.25
102358,12/9/2017 9:37:46 PM,Stetson Country Christmas 12/7-17/17 (NV),Ruben Cuatrona,DWA-9150USJ-9150CH,Legacy 3D,Choco Brown,1,"3 years parts, 1 year labor (Free)",CUSTOM ,0.00,4000.00,4000.00,Synchrony,0.00,,,6034610081090664,82298757,San Diego,24 months,,0.00,,,,,,,,0.00,,,,,,,350.00,Lisa Morris,3183721993,12/15/2017 12:00:00 AM,,,TX,1,8.25
102359,12/9/2017 9:55:52 PM,Stetson Country Christmas 12/7-17/17 (NV),Rolly San Jose,DWA-9400Pegasus-BR,Pegasus,Choco Brown,1,"3 years parts, 1 year labor (Free)",CUSTOM ,0.00,5629.00,5629.00,Synchrony,0.00,,,6034610081691605,82411428,San Diego,48 months,,0.00,,,,,,,,0.00,,,,,,,350.00,Lawrence Ford,4052194041,12/16/2017 12:00:00 AM,,,TX,1,8.25
102359,12/9/2017 9:55:52 PM,Stetson Country Christmas 12/7-17/17 (NV),Rolly San Jose,,Chair Pad for Pegasus,,1,no warranty,CUSTOM ,0.00,5629.00,5629.00,Synchrony,0.00,,,6034610081691605,82411428,San Diego,48 months,,0.00,,,,,,,,0.00,,,,,,,350.00,Lawrence Ford,4052194041,12/16/2017 12:00:00 AM,,,TX,1,8.25
102360,12/9/2017 10:16:16 PM,Stetson Country Christmas 12/7-17/17 (NV),Ruben Cuatrona,DWA-9400Pegasus-BR,Pegasus,Choco Brown,1,"3 years parts, 1 year labor (Free)",CUSTOM COD,0.00,5304.00,5304.00,CreditCard,1000.00,00449b,,,,,,COD,4300.00,,,,,,,,0.00,,,,,,,0.00,Floyd Simmers,7759621476,12/19/2017 12:00:00 AM,,,CA,1,8.25
102361,12/9/2017 10:36:53 PM,Stetson Country Christmas 12/7-17/17 (NV),Rolly San Jose,DWA-9150USJ-9150CH,Legacy 3D,Choco Brown,1,"3 years parts, 1 year labor (Free)",CUSTOM ,0.00,4500.00,4500.00,CreditCard,4500.00,00980b,,,,,,,0.00,,,,,,,,0.00,,,,,,,350.00,Debra Moses,3038179830,12/13/2017 12:00:00 AM,,,TX,1,8.25
102362,12/9/2017 10:45:12 PM,Stetson Country Christmas 12/7-17/17 (NV),Ruben Cuatrona,DWA-9150USJ-9150CH,Legacy 3D,Choco Brown,1,"3 years parts, 1 year labor (Free)",CUSTOM COD,0.00,4000.00,4000.00,Synchrony,0.00,,,6034610081691761,82313734,San Diego,48 months,COD,0.00,,,,,,,,0.00,,,,,,,0.00,Kelly Rakowitz,2107094180,,,,TX,1,8.25
102363,12/10/2017 7:42:39 AM,"Asian Food Center, Seattle, 12/1-10(WA)",May Kam,DWA-9100DWA-9100CH,Legacy,Choco Brown,1,"3 years parts, 1 year labor (Free)",CUSTOM CreditCard,0.00,3500.00,3500.00,CreditCard,200.00,07244D,,,,,,CreditCard,3300.00,COD,,,,,,,0.00,,,,,,,0.00,Lily DAI,4258351818,,,"Chinese speaker, request Chinese manual ,any day after 3 pm delivery requested",WA,1,10.10
102363,12/10/2017 7:42:39 AM,"Asian Food Center, Seattle, 12/1-10(WA)",May Kam,,Daiwa Blanket,,1,no warranty,CUSTOM CreditCard,0.00,3500.00,3500.00,CreditCard,200.00,07244D,,,,,,CreditCard,3300.00,COD,,,,,,,0.00,,,,,,,0.00,Lily DAI,4258351818,,,"Chinese speaker, request Chinese manual ,any day after 3 pm delivery requested",WA,1,10.10
102364,12/10/2017 9:24:25 AM,"Sam's Club #6342 Tulsa, OK 11/30-12/10/17 (TX)",Kristy Tran,DWA-9100DWA-9100GD,Legacy for Sam's,Gold,1,"3 years parts, 1 year labor (Free)",CUSTOM ,306.53,3905.53,3905.53,CreditCard,3905.53,TC 0801064715026290133530,,,,,,,0.00,,,,,,,,0.00,,,,,,,350.00,Rebekah & Kevin Lee,918-650-0143,12/16/2017 12:00:00 AM,,,TX,0,8.52
102365,12/10/2017 9:35:56 AM,"Sam's Club #6342 Tulsa, OK 11/30-12/10/17 (TX)",Kristy Tran,DWA-9100DWA-9100GD,Legacy for Sam's,Gold,1,"3 years parts, 1 year labor (Free)",CUSTOM ,0.00,3599.00,3599.00,CreditCard,3599.00,TC 3913340859364182529743,,,,,,,0.00,,,,,,,,0.00,,,,,,,0.00,Hector Hernandez,713-443-9335,,,"Delivery no later than December 14 BEFORE 5pm OR After January 2
*Customer will be out of town*",TX,1,8.52
102366,12/10/2017 9:50:27 AM,Sam's Club Palmdale #4767 12/7-17/17 (CA),Larhonda Ingram,USJ-871,Foot Vibe Pro,,1,"2 years parts, 1 year labor (Small Items)",CUSTOM ,10.45,120.44,120.44,CreditCard,0.00,TC# 6720 4460 2266 5503 0808 5,,,,,,,0.00,,,,,,,,0.00,,,,,,,0.00,Karolynns Goodman,6617233242,,,,CA,0,9.50
102367,12/10/2017 10:27:35 AM,Sam's Club Gilbert #4829 12/7-17/17 (NV),Christoper Richard Williams,USJ-849USJ-849,Vitality Plate for Sam's,New,1,"2 years parts, 1 year labor (Small Items)",CUSTOM ,35.88,495.87,495.87,Cash,0.00,,,,,,,,0.00,,,,,,,,0.00,,,,,,,0.00,Nicole Durkin,4806789803,,,,NV,0,7.80
102368,12/10/2017 10:30:15 AM,Sam's Club #8253 11/30-12/10 (FL),Michael Wang,USJ-9050USJ-9050BR,Relax2Zero 2.0 for Sam's,Brown,1,"3 years parts, 1 year labor (Free)",CUSTOM ,223.93,3422.93,3422.93,CreditCard,3422.93,Tc# 8647 6793 6683 5808 4321 77,,,,,,,0.00,,,,,,,,0.00,,,,,,,0.00,Emily Carter,9047574188,,,Give customer new chair.2 free chair pads 1 free Daiwa blanket.Give flash drive with music.,FL,0,7.00
102369,12/10/2017 10:43:13 AM,Sam's Club Gilbert #4829 12/7-17/17 (NV),Christoper Richard Williams,DWA-9100DWA-9100BL,Legacy for Sam's,Black,1,"3 years parts, 1 year labor (Free)",CUSTOM ,335.32,4634.32,4634.32,CreditCard,0.00,TC# 2129 4485 2241,,,,,,,0.00,,,,,,,,0.00,,,,,,,0.00,Brain Walker,4808923288,,,,CA,0,7.80
102370,12/10/2017 10:56:59 AM,Sam's Club #7658 11/30-12/10 (FL),Robert Shih,,Ninja Leg Massager,,1,"2 years parts, 1 year labor (Small Items)",CUSTOM ,26.53,405.53,405.53,CreditCard,405.53,TC# 9694 0169 1550 4657 7667 8,,,,,,,0.00,,,,,,,,0.00,,,,,,,0.00,John Schwarz,5802221810,,,Thank you very much for your business with us in the Sam's club Brunswick GA.,FL,0,7.00
102371,12/10/2017 12:01:35 PM,Mekong Plaza (AZ),Kohei Uno,DWA-9150USJ-9150CH-DEMO,Legacy 3D,Demo Choco Brown,1,"3 years parts, 1 year labor (Free)",CUSTOM ,0.00,3800.00,3800.00,Synchrony,3800.00,,,6034610081692249,82327639,Las Vegas,36 months,,0.00,,,,,,,,0.00,,,,,,,0.00,Ja Ree,6025187330,12/10/2017 12:00:00 AM,,,NV,1,8.05
102372,12/10/2017 12:05:06 PM,Mekong Plaza (AZ),Kohei Uno,DWA-9150USJ-9150BL-DEMO,Legacy 3D,Demo Black,1,"3 years parts, 1 year labor (Free)",CUSTOM ,0.00,3800.00,3800.00,Synchrony,3800.00,,,6034610081692470,82330777,Las Vegas,36 months,,0.00,,,,,,,,0.00,,,,,,,0.00,Habibullah Salamatullah,6029188137,12/10/2017 12:00:00 AM,,,NV,1,8.05
102373,12/10/2017 12:12:00 PM,"Sam's Club #6342 Tulsa, OK 11/30-12/10/17 (TX)",Kristy Tran,DWA-9100DWA-9100BL,Legacy for Sam's,Black,1,"3 years parts, 1 year labor (Free)",CUSTOM ,306.53,3905.53,3905.53,CreditCard,3905.53,TC 1632302933166070311991,,,,,,,0.00,,,,,,,,0.00,,,,,,,350.00,Howard Beaudry,918-809-4400,12/17/2017 12:00:00 AM,,Color of chair is Chocolate Brown**,TX,0,8.52
102374,12/10/2017 1:29:28 PM,Sam's Club Scottsdale #6241 12/7-17/17 (NV),Joseph Chan,DWA-9100DWA-9100SB-DEMO,Legacy for Sam's,Demo Sienna Brown,1,"3 years parts, 1 year labor (Free)",CUSTOM ,230.89,3885.12,3885.12,PurchaseOrder,3885.12,,TC# 1892 3825 3611 4270 3289 50,,,,,,0.00,,,,,,,,0.00,,,,,,,0.00,Terisha Driggs,480-678-0253,12/19/2017 12:00:00 AM,,,CA,0,7.95
102375,12/10/2017 2:09:47 PM,"Sam's Club #4839 Tulsa, OK 11/30-12/10/17 (TX)",Tom Nguyen,DWA-9100DWA-9100BL-DEMO,Legacy for Sam's,Demo Blue,1,"3 years parts, 1 year labor (Free)",CUSTOM ,306.53,3905.53,3905.53,CreditCard,3905.53,2E6B2378EBA87633,,,,,,,0.00,,,,,,,,0.00,,,,,,,350.00,Jinwoong Kim,405 922 4721,12/17/2017 12:00:00 AM,,Please them a new chair,TX,0,8.52
102376,12/10/2017 3:02:18 PM,Sam's Club #7658 11/30-12/10 (FL),Robert Shih,USJ-9050USJ-9050BR,Relax2Zero 2.0 for Sam's,Brown,1,"3 years parts, 1 year labor (Free)",CUSTOM ,273.00,4173.00,4173.00,CreditCard,4173.00,CT# 4788 4176 4664 9319 2921 60,,,,,,,0.00,,,,,,,,0.00,,,,,,,0.00,Hoang Vo,9125065786,12/20/2017 12:00:00 AM,,Thank you very much for your business with us in the Sam's club Brunswick GA / Deliver about 2 weeks,FL,0,7.00
102377,12/10/2017 4:40:47 PM,"Sam's Club #6439 Odessa, TX 11/30-12/10/17 (TX)",Chris Tavira,DWA-9100DWA-9100BL,Legacy for Sam's,Black,1,"3 years parts, 1 year labor (Free)",CUSTOM ,296.92,3895.92,3895.92,CreditCard,3895.92,TC# 5474 9210 9956 5263 5288 79,,,,,,,0.00,,,,,,,,0.00,,,,,,,350.00,Gary Frank,4326315293,12/20/2017 12:00:00 AM,,Invoice #20645,TX,0,8.25
102377,12/10/2017 4:40:47 PM,"Sam's Club #6439 Odessa, TX 11/30-12/10/17 (TX)",Chris Tavira,,Chair Pad for Legacy,,1,no warranty,CUSTOM ,296.92,3895.92,3895.92,CreditCard,3895.92,TC# 5474 9210 9956 5263 5288 79,,,,,,,0.00,,,,,,,,0.00,,,,,,,350.00,Gary Frank,4326315293,12/20/2017 12:00:00 AM,,Invoice #20645,TX,0,8.25
102378,12/10/2017 4:59:05 PM,"Asian Food Center, Seattle, 12/1-10(WA)",May Kam,DWA-9150USJ-9150CH-DEMO,Legacy 3D,Demo Choco Brown,1,"3 years parts, 1 year labor (Free)",CUSTOM ,0.00,3000.00,3000.00,Synchrony,3000.00,,,6034610081692603,82331535,San Diego,,,0.00,,,,,,,,0.00,,,,,,,0.00,Dongming Xu,2069796888,12/21/2017 12:00:00 AM,,"Pls make finance $3000 for 6 month purchase, thanks, special discount for 
store owner request : Chinese speaker for delivery schedule, Chinese manual",WA,1,10.10
102379,12/10/2017 5:10:18 PM,"Sam's Club #6376 Dallas, TX 12/7-17/17",Jennifer Tran,USJ-849USJ-849,Vitality Plate for Sam's,New,1,"2 years parts, 1 year labor (Small Items)",CUSTOM ,37.95,497.94,497.94,CreditCard,497.94,TC# 9894 2139 0520 8696 2286 5,,,,,,,0.00,,,,,,,,0.00,,,,,,,0.00,Emilita Morrison,8179463182,,,,TX,0,8.25
102380,12/10/2017 5:18:44 PM,"Asian Food Center, Seattle, 12/1-10(WA)",May Kam,DWA-9150USJ-9150BL,Legacy 3D,Black,1,"3 years parts, 2 years labor ($200)",CUSTOM CreditCard,0.00,3500.00,3500.00,CreditCard,100.00,05726D,,,,,,CreditCard,3400.00,COD,,,,,,,0.00,,,,,,,0.00,OH EJ DAI,2069792474,12/21/2017 12:00:00 AM,,"COD $3400, special discount for one time payment, manager approval",WA,1,10.10
102380,12/10/2017 5:18:44 PM,"Asian Food Center, Seattle, 12/1-10(WA)",May Kam,,Daiwa Blanket,,1,no warranty,CUSTOM CreditCard,0.00,3500.00,3500.00,CreditCard,100.00,05726D,,,,,,CreditCard,3400.00,COD,,,,,,,0.00,,,,,,,0.00,OH EJ DAI,2069792474,12/21/2017 12:00:00 AM,,"COD $3400, special discount for one time payment, manager approval",WA,1,10.10
102381,12/10/2017 6:26:15 PM,Sam's Club Daytona Beach #8138 12/7-17/17 (FL),Ting Ritchie,DWA-9100DWA-9100BL-DEMO,Legacy for Sam's,Demo Black,1,"3 years parts, 1 year labor (Free)",CUSTOM ,173.88,3598.88,3598.88,CreditCard,3599.00,0361184018056796069784,,,,,,,0.00,,,,,,,,0.00,,,,,,,0.00,Craig Kimmel,4072217161,12/20/2017 12:00:00 AM,,,FL,0,6.50
102382,12/10/2017 6:37:56 PM,Sam's Club Daytona Beach #8138 12/7-17/17 (FL),Ting Ritchie,DWA-9100DWA-9100BL,Legacy for Sam's,Blue,1,"3 years parts, 1 year labor (Free)",CUSTOM ,188.18,3833.18,3833.18,CreditCard,3832.94,6378467148699314652387,,,,,,,0.00,,,,,,,,0.00,,,,,,,0.00,Bridget Murphy,3867479658,12/20/2017 12:00:00 AM,,,FL,0,6.50
102383,12/10/2017 6:45:22 PM,Sam's Club Daytona Beach #8138 12/7-17/17 (FL),Ting Ritchie,DWA-9100DWA-9100CH-DEMO,Legacy for Sam's,Demo Choco,1,"3 years parts, 1 year labor (Free)",CUSTOM ,188.18,3833.18,3833.18,CreditCard,3832.94,290002680923895046,,,,,,,0.00,,,,,,,,0.00,,,,,,,0.00,Rhonda Crider,3867564286,12/20/2017 12:00:00 AM,,,FL,0,6.50
102384,12/10/2017 6:53:21 PM,Sam's Club Daytona Beach #8138 12/7-17/17 (FL),Ting Ritchie,USJ-849USJ-849,Vitality Plate for Sam's,New,1,"2 years parts, 1 year labor (Small Items)",CUSTOM ,26.00,425.99,425.99,CreditCard,425.99,343202938194876167852,,,,,,,0.00,,,,,,,,0.00,,,,,,,0.00,Bruce Jarrard,3868487890,,,,FL,0,6.50
102385,12/10/2017 7:00:09 PM,Sam's Club Daytona Beach #8138 12/7-17/17 (FL),Ting Ritchie,USJ-849USJ-849,Vitality Plate for Sam's,New,1,"3 years parts, 1 year labor (Free)",CUSTOM ,29.90,489.89,489.89,CreditCard,489.89,191174115026798071784,,,,,,,0.00,,,,,,,,0.00,,,,,,,0.00,Yong Goan,3863136652,,,,FL,0,6.50
102386,12/10/2017 9:02:59 PM,Sam's Club Long Beach #6613 12/7-17/17 (CA),Kamille Gines,DWA-9100DWA-9100BL,Legacy for Sam's,Black,1,"3 years parts, 1 year labor (Free)",CUSTOM ,368.90,3967.90,3967.90,CreditCard,3967.90,#07118D,,,,,,,0.00,,,,,,,,0.00,,,,,,,0.00,Mei Qing Ng,562-213-8844,,,,CA,0,10.25
102387,12/10/2017 9:07:29 PM,Sam's Club Long Beach #6613 12/7-17/17 (CA),Kamille Gines,DWA-9100DWA-9100BL,Legacy for Sam's,Black,1,"3 years parts, 1 year labor (Free)",CUSTOM ,368.90,3967.90,3967.90,CreditCard,3967.90,#06213D,,,,,,,0.00,,,,,,,,0.00,,,,,,,0.00,George Palagonia,562-416-9511,,,,CA,0,10.25
102388,12/10/2017 9:09:10 PM,"Sam's Club #6376 Dallas, TX 12/7-17/17",Jennifer Tran,USJ-849USJ-849,Vitality Plate for Sam's,New,1,"2 years parts, 1 year labor (Small Items)",CUSTOM ,37.95,497.94,497.94,CreditCard,497.94,TC# 8486 1538 0753 4282 1642 7,,,,,,,0.00,,,,,,,,0.00,,,,,,,0.00,Miguel Alday,469-223-9215,,,,TX,0,8.25
102389,12/10/2017 9:23:45 PM,Stetson Country Christmas 12/7-17/17 (NV),Rolly San Jose,DWA-9150USJ-9150BL,Legacy 3D,Black,1,"3 years parts, 1 year labor (Free)",CUSTOM COD,0.00,4000.00,4000.00,Synchrony,0.00,,,6034610081688627,82258150,San Diego,36 months,COD,0.00,,,,,,,,0.00,,,,,,,350.00,Louann Sanders,8595529794,12/17/2017 12:00:00 AM,,,TX,1,8.25
102390,12/11/2017 5:31:49 AM,Referral (Main Office),KHOA H,DWA-9100DWA-9100CH-DEMO,Legacy,Demo Choco Brown,1,"3 years parts, 1 year labor (Free)",CUSTOM Cash,0.00,3500.00,3500.00,Cash,500.00,,,,,,,Cash,3000.00,,,,,,,,0.00,,,,,,,350.00,Miran Han,3038770803,12/13/2017 12:00:00 AM,,"Customer deposit $500
Ballance $3000 will be paid upon delivery",TX,1,9.25
102391,12/11/2017 5:45:27 AM,Main office (CA),KHOA H,DWA-9100DWA-9100CH,Legacy,Choco Brown,1,"3 years parts, 1 year labor (Free)",CUSTOM Cash,0.00,3700.00,3700.00,Cash,500.00,,,,,,,Cash,3200.00,,,,,,,,0.00,,,,,,,350.00,Clara Lee,7209352626,12/13/2017 12:00:00 AM,,"Offer 1 blanket free
Customer deposit $500
Ballance $3200 will be paid upon delivery",TX,1,9.25
102391,12/11/2017 5:45:27 AM,Main office (CA),KHOA H,,Daiwa Blanket,,1,no warranty,CUSTOM Cash,0.00,3700.00,3700.00,Cash,500.00,,,,,,,Cash,3200.00,,,,,,,,0.00,,,,,,,350.00,Clara Lee,7209352626,12/13/2017 12:00:00 AM,,"Offer 1 blanket free
Customer deposit $500
Ballance $3200 will be paid upon delivery",TX,1,9.25
102392,12/11/2017 6:46:35 AM,Sam's Club #8253 11/30-12/10 (FL),Michael Wang,DWA-9100DWA-9100CH-DEMO,Legacy for Sam's,Demo Choco,1,"3 years parts, 1 year labor (Free)",CUSTOM ,251.93,3850.93,3850.93,CreditCard,3850.93,Tc# 3603 5903 5131 5383 9476 21,,,,,,,0.00,,,,,,,,0.00,,,,,,,0.00,Ruth Angela Carnes,9046135273,,,,FL,0,7.00
102393,12/11/2017 8:24:21 AM,Mekong Plaza (AZ),Kohei Uno,DWA-9150USJ-9150BL,Legacy 3D,Black,1,"3 years parts, 3 years labor ($400)",CUSTOM ,0.00,4300.00,4300.00,CreditCard,4300.00,t5kt,,,,,,,0.00,,,,,,,,0.00,,,,,,,0.00,Shirley Lam,917-270-2515,,,,CA,1,8.05
102394,12/11/2017 9:38:17 AM,"Sam's Club #4839 Tulsa, OK 11/30-12/10/17 (TX)",Kristy Tran,USJ-9050USJ-9050BR,Relax2Zero 2.0 for Sam's,Brown,1,"3 years parts, 1 year labor (Free)",CUSTOM ,272.46,3471.46,3471.46,CreditCard,3471.46,TC 6408417844622510645473,,,,,,,0.00,,,,,,,,0.00,,,,,,,350.00,Tammy Yoes,405-833-1266,12/17/2017 12:00:00 AM,,,TX,0,8.52
102395,12/11/2017 9:39:29 AM,"Sam's Club #4839 Tulsa, OK 11/30-12/10/17 (TX)",Tom Nguyen,DWA-9100DWA-9100BL-DEMO,Legacy for Sam's,Demo Blue,1,"3 years parts, 1 year labor (Free)",CUSTOM ,306.53,3905.53,3905.53,CreditCard,3905.53,354B424AB22A0A25,,,,,,,0.00,,,,,,,,0.00,,,,,,,350.00,David Worsham,9183468892,12/12/2017 12:00:00 AM,,Already delivery by Tom Nguyen. 12/10/2017. SN# 91168052,TX,0,8.52
102396,12/11/2017 10:06:51 AM,Sam's Club Palmdale #4767 12/7-17/17 (CA),Larhonda Ingram,USJ-871,Foot Vibe Pro,,1,"2 years parts, 1 year labor (Small Items)",CUSTOM ,10.45,120.44,120.44,CreditCard,0.00,TC# 0353 1035 1392 8857 5952 8,,,,,,,0.00,,,,,,,,0.00,,,,,,,0.00,Shirley Anderson,6615790915,,,,CA,0,9.50
102397,12/11/2017 10:12:43 AM,Sam's Club Palmdale #4767 12/7-17/17 (CA),Larhonda Ingram,USJ-871,Foot Vibe Pro,,1,"2 years parts, 1 year labor (Small Items)",CUSTOM ,10.45,120.44,120.44,CreditCard,0.00,TC# 5694 6199 6560 6638 4296 6,,,,,,,0.00,,,,,,,,0.00,,,,,,,0.00,John Cowben,6617181820,,,,CA,0,9.50
102398,12/11/2017 10:17:21 AM,Sam's Club Palmdale #4767 12/7-17/17 (CA),Larhonda Ingram,USJ-871,Foot Vibe Pro,,1,"2 years parts, 1 year labor (Small Items)",CUSTOM ,10.45,120.44,120.44,CreditCard,0.00,TC# 7548 8774 4667 1140 4749 1,,,,,,,0.00,,,,,,,,0.00,,,,,,,0.00,Angelina Las banez,6613178642,,,,CA,0,9.50
102399,12/11/2017 10:23:41 AM,Sam's Club Palmdale #4767 12/7-17/17 (CA),Larhonda Ingram,USJ-871,Foot Vibe Pro,,1,"2 years parts, 1 year labor (Small Items)",CUSTOM ,10.45,120.44,120.44,CreditCard,0.00,Tc# 8329 6862 5437 3321 2927 3,,,,,,,0.00,,,,,,,,0.00,,,,,,,0.00,Amber Macias,6614805465,,,,CA,0,9.50
102400,12/11/2017 10:28:08 AM,Stetson Country Christmas 12/7-17/17 (NV),Ilene Maynard,DWA-9060USJ-9060BR,Relax2Zero 3D,Choco Brown,2,"3 years parts, 1 year labor (Free)",CUSTOM ,0.00,8600.00,8600.00,Synchrony,8600.00,,,6034610081691076,82304192,San Diego,36 months,,0.00,,,,,,,,0.00,,,,,,,350.00,Jason Kindle,660 287 1862,12/13/2017 12:00:00 AM,,,TX,1,8.25
102401,12/11/2017 10:37:15 AM,Stetson Country Christmas 12/7-17/17 (NV),Ilene Maynard,DWA-9060USJ-9060BR,Relax2Zero 3D,Choco Brown,1,"3 years parts, 1 year labor (Free)",CUSTOM COD,0.00,3900.00,3900.00,Synchrony,3000.00,,,6034610081691399,82308387,San Diego,36 months,COD,900.00,,,,,,,,0.00,,,,,,,0.00,Jonathan Perez,831 776 9341,12/21/2017 12:00:00 AM,,,CA,1,8.25
102402,12/11/2017 10:43:37 AM,Stetson Country Christmas 12/7-17/17 (NV),Abagail Stirling,DWA-9060USJ-9060BR,Relax2Zero 3D,Choco Brown,1,"3 years parts, 1 year labor (Free)",CUSTOM ,0.00,4500.00,4500.00,CreditCard,4500.00,66636D,,,,,,,0.00,,,,,,,,0.00,,,,,,,0.00,Christine and peter Schueler,904 647 6804,12/20/2017 12:00:00 AM,,,FL,1,8.25
102403,12/11/2017 10:50:27 AM,Stetson Country Christmas 12/7-17/17 (NV),Abagail Stirling,DWA-9150USJ-9150CH,Legacy 3D,Choco Brown,1,"3 years parts, 1 year labor (Free)",CUSTOM ,0.00,4300.00,4300.00,CreditCard,4300.00,808426,,,,,,,0.00,,,,,,,,0.00,,,,,,,350.00,Randy Killam,817 583 3846,12/19/2017 12:00:00 AM,,,TX,1,8.25
102404,12/11/2017 10:57:11 AM,Stetson Country Christmas 12/7-17/17 (NV),Ilene Maynard,DWA-9060USJ-9060BR,Relax2Zero 3D,Choco Brown,1,"3 years parts, 1 year labor (Free)",CUSTOM ,0.00,3700.00,3700.00,CreditCard,3700.00,01033R,,,,,,,0.00,,,,,,,,0.00,,,,,,,0.00,Steve Brockus,805 732 7704,,,,CA,1,8.25
102405,12/11/2017 11:06:37 AM,Sam's Club Gilbert #4829 12/7-17/17 (NV),Christoper Richard Williams,USJ-871,Foot Vibe Pro,,1,"2 years parts, 1 year labor (Small Items)",CUSTOM ,8.58,118.57,118.57,CreditCard,0.00,TC# 2132 2293 2134 6770 5938 8,,,,,,,0.00,,,,,,,,0.00,,,,,,,0.00,Oscar Urrea,6026776835,,,,NV,0,7.80
102406,12/11/2017 12:44:01 PM,Sam's Club #8253 11/30-12/10 (FL),Michael Wang,,Ninja Leg Massager,,1,"2 years parts, 1 year labor (Small Items)",CUSTOM ,26.53,405.53,405.53,CreditCard,405.53,Tc 4208 9716 4657 6162 2732 8,,,,,,,0.00,,,,,,,,0.00,,,,,,,0.00,Daiwa Massage,800-241-2221,,,,CA,0,7.00
102407,12/11/2017 12:46:29 PM,Sam's Club #8253 11/30-12/10 (FL),Michael Wang,,Ninja Leg Massager,,1,"2 years parts, 1 year labor (Small Items)",CUSTOM ,26.53,405.53,405.53,CreditCard,405.53,Tc 9824 0195 8551 5657 7847 3,,,,,,,0.00,,,,,,,,0.00,,,,,,,0.00,Daiwa Massage,800-241-2221,,,,CA,0,7.00
102408,12/11/2017 12:54:39 PM,Sam's Club #8253 11/30-12/10 (FL),Michael Wang,USJ-849USJ-849,Vitality Plate for Sam's,New,1,"2 years parts, 1 year labor (Small Items)",CUSTOM ,28.00,427.99,427.99,CreditCard,427.99,Tc 9094 3125 2541 5627 2146 3,,,,,,,0.00,,,,,,,,0.00,,,,,,,0.00,Daiwa Massage,800-241-2221,,,,CA,0,7.00
102409,12/11/2017 1:32:39 PM,"Sam's Club #6335 Ocala, Fl (12/7-12/17)",Alex Brackelsberg,DWA-9100DWA-9100SB-DEMO,Legacy for Sam's,Demo Sienna Brown,1,"3 years parts, 1 year labor (Free)",CUSTOM ,251.93,3850.93,3850.93,CreditCard,0.00,607e7986a4fb8e6d,,,,,,,0.00,,,,,,,,0.00,,,,,,,0.00,Paul Sepulveda,9196020081,12/18/2017 12:00:00 AM,,Move old massage chair out of the way,FL,0,7.00
102410,12/12/2017 5:45:25 AM,Main office (CA),KHOA H,DWA-9100DWA-9100CH,Legacy,Choco Brown,1,"3 years parts, 1 year labor (Free)",CUSTOM ,0.00,3700.00,3700.00,Cash,500.00,,,,,,,,0.00,,,,,,,,0.00,,,,,,,0.00,Kristy Kim,2135050852,,,"Offer 1 blanket free
Deposit $500
Ballance $3200 will be paid upon delivery",TX,1,9.25
102410,12/12/2017 5:45:25 AM,Main office (CA),KHOA H,,Daiwa Blanket,,1,no warranty,CUSTOM ,0.00,3700.00,3700.00,Cash,500.00,,,,,,,,0.00,,,,,,,,0.00,,,,,,,0.00,Kristy Kim,2135050852,,,"Offer 1 blanket free
Deposit $500
Ballance $3200 will be paid upon delivery",TX,1,9.25
102411,12/12/2017 6:04:01 AM,Main office (CA),KHOA H,DWA-9100DWA-9100CH,Legacy,Choco Brown,1,"3 years parts, 1 year labor (Free)",CUSTOM ,0.00,3500.00,3500.00,Synchrony,3500.00,,,6034610081696059,82394511,,24 months,,0.00,,,,,,,,0.00,,,,,,,350.00,Yoshiko Thompson,3039102144,12/13/2017 12:00:00 AM,,"Offer 1 blanket free
Financing 24 months 0% interest 
Authorization # 011411",TX,1,9.25
102411,12/12/2017 6:04:01 AM,Main office (CA),KHOA H,,Daiwa Blanket,,1,no warranty,CUSTOM ,0.00,3500.00,3500.00,Synchrony,3500.00,,,6034610081696059,82394511,,24 months,,0.00,,,,,,,,0.00,,,,,,,350.00,Yoshiko Thompson,3039102144,12/13/2017 12:00:00 AM,,"Offer 1 blanket free
Financing 24 months 0% interest 
Authorization # 011411",TX,1,9.25
102412,12/12/2017 7:01:10 AM,Sam's Club N.Charleston #8252,Michael Cuatrona,DWA-9100DWA-9100BL,Legacy for Sam's,Black,1,"3 years parts, 1 year labor (Free)",CUSTOM ,323.91,3922.91,3922.91,PurchaseOrder,3922.91,,0821 0247 1207 6294 3817 22,,,,,,0.00,,,,,,,,0.00,,,,,,,0.00,Timothy Johnson,678-938-6142,,,Please send brand new as per Michael (free upgrade) - preferred delivery before 12/18,FL,0,9.00
102413,12/12/2017 7:09:29 AM,Sam's Club N.Charleston #8252,Michael Cuatrona,USJ-9050USJ-9050BR,Relax2Zero 2.0 for Sam's,Brown,1,"3 years parts, 2 years labor ($200)",CUSTOM ,351.00,4251.00,4251.00,PurchaseOrder,4251.00,,4878 6272 4263 6819 2903 78,,,,,,0.00,,,,,,,,0.00,,,,,,,0.00,Curtis Hall,262-412-0681,12/21/2017 12:00:00 AM,,"Upgraded service warranty - Total: 3 years parts, 2 years labor (no extra charge as per Michael)",FL,0,9.00
102414,12/12/2017 7:18:42 AM,Sam's Club N.Charleston #8252,Michael Cuatrona,USJ-9050USJ-9050BL,Relax2Zero 2.0 for Sam's,Black,1,"3 years parts, 1 year labor (Free)",CUSTOM ,0.00,3199.00,3199.00,PurchaseOrder,3199.00,,0431 1841 1507 0296 3657 82,,,,,,0.00,,,,,,,,0.00,,,,,,,0.00,Monica Phan,803-506-2804,12/21/2017 12:00:00 AM,,Please send a brand new chair (free upgrade as per Michael),FL,1,9.00
102415,12/12/2017 7:31:59 AM,Sam's Club N.Charleston #8252,Michael Cuatrona,USJ-9050USJ-9050BL,Relax2Zero 2.0 for Sam's,Black,1,"3 years parts, 2 years labor ($200)",CUSTOM ,351.00,4251.00,4251.00,PurchaseOrder,4251.00,,8956 6652 8270 7923 6340 59,,,,,,0.00,,,,,,,,0.00,,,,,,,0.00,Sondra Miller,843-851-7010,12/21/2017 12:00:00 AM,,"Upgrade service warranty to 2 years as per Michael
Total: 3 years parts, 2 years labor
Please make a courtesy call at least 2 days prior to delivery",FL,0,9.00
102416,12/12/2017 10:35:25 AM,"Asian Food Center, Seattle, 12/1-10(WA)",May Kam,DWA-9150USJ-9150BL,Legacy 3D,Black,1,"3 years parts, 1 year labor (Free)",CUSTOM COD,0.00,3500.00,3500.00,CreditCard,200.00,012032,,,,,,COD,3300.00,,,,,,,,0.00,,,,,,,0.00,Kathy Martinez,206-678-6318,12/21/2017 12:00:00 AM,,*COD $3300*,WA,1,10.10
102417,12/12/2017 11:01:29 AM,"Asian Food Center, Seattle, 12/1-10(WA)",May Kam,DWA-9100DWA-9100CH,Legacy,Choco Brown,1,"3 years parts, 1 year labor (Free)",CUSTOM COD,0.00,3500.00,3500.00,Cash,100.00,,,,,,,COD,3400.00,,,,,,,,0.00,,,,,,,0.00,Suzhen Peng,206-414-1893,,,*COD $3400*,WA,1,10.10
102417,12/12/2017 11:01:29 AM,"Asian Food Center, Seattle, 12/1-10(WA)",May Kam,,Daiwa Blanket,,1,no warranty,CUSTOM COD,0.00,3500.00,3500.00,Cash,100.00,,,,,,,COD,3400.00,,,,,,,,0.00,,,,,,,0.00,Suzhen Peng,206-414-1893,,,*COD $3400*,WA,1,10.10
102418,12/12/2017 11:20:15 AM,"Asia Time Square, Grand Prairie (TX)",May Kam,DWA-9100DWA-9100SI,Legacy,Sienna Brown,1,"3 years parts, 1 year labor (Free)",CUSTOM COD,0.00,3500.00,3500.00,Cash,100.00,,,,,,,COD,3400.00,,,,,,,,0.00,,,,,,,0.00,Gao Xumeng,425-391-1485,,,*COD $3400*,WA,1,8.25
102418,12/12/2017 11:20:15 AM,"Asia Time Square, Grand Prairie (TX)",May Kam,,Daiwa Blanket,,1,no warranty,CUSTOM COD,0.00,3500.00,3500.00,Cash,100.00,,,,,,,COD,3400.00,,,,,,,,0.00,,,,,,,0.00,Gao Xumeng,425-391-1485,,,*COD $3400*,WA,1,8.25
102419,12/12/2017 11:21:49 AM,Mitsuwa Plano 11/9-11/19/17 (TX),Tina Tran,USJ-9300Symphony-BL,Symphony,Black,1,"3 years parts, 1 year labor (Free)",CUSTOM ,0.00,4500.00,4500.00,CreditCard,0.00,#awSa,,,,,,,0.00,,,,,,,,0.00,,,,,,,0.00,Vanessa Liu,4697421562,11/22/2017 12:00:00 AM,,"Chair Color is actually BROWN
S#93160080D",TX,1,8.25
102420,12/12/2017 11:26:14 AM,Main office (CA),Rodrigo Malabunga,DWA-9150USJ-9150BL,Legacy 3D,Black,1,"3 years parts, 1 year labor (Free)",CUSTOM ,0.00,4500.00,4500.00,CreditCard,4500.00,152146,,,,,,,0.00,,,,,,,,0.00,,,,,,,350.00,Laura Petrillo,914 420 9490,12/23/2017 12:00:00 AM,,,TX,1,9.25
102421,12/12/2017 1:46:13 PM,Health and Wellness Houston Store 2017 (TX),Lisa Zhou,USJ-9000USJ-9000KU,Relax2Zero 1.0,Black,1,"3 years parts, 1 year labor (Free)",CUSTOM ,190.34,3247.50,3247.50,COD,300.00,,,,,,,,0.00,,,,,,,,0.00,,,,,,,350.00,Shana Nguyen,512-818-0408,12/22/2017 12:00:00 AM,,,TX,0,8.25
102421,12/12/2017 1:46:13 PM,Health and Wellness Houston Store 2017 (TX),Lisa Zhou,,Chair Pad for Relax2Zero 1.0,,1,no warranty,CUSTOM ,190.34,3247.50,3247.50,COD,300.00,,,,,,,,0.00,,,,,,,,0.00,,,,,,,350.00,Shana Nguyen,512-818-0408,12/22/2017 12:00:00 AM,,,TX,0,8.25
102421,12/12/2017 1:46:13 PM,Health and Wellness Houston Store 2017 (TX),Lisa Zhou,,Foot Pads for Relax2Zero 1.0,,1,no warranty,CUSTOM ,190.34,3247.50,3247.50,COD,300.00,,,,,,,,0.00,,,,,,,,0.00,,,,,,,350.00,Shana Nguyen,512-818-0408,12/22/2017 12:00:00 AM,,,TX,0,8.25
102422,12/12/2017 1:46:37 PM,Sam's Club N.Charleston #8252 12/7-17/17 (FL),Michael Cuatrona,USJ-9050USJ-9050BR,Relax2Zero 2.0 for Sam's,Brown,1,"3 years parts, 1 year labor (Free)",CUSTOM ,287.91,3486.91,3486.91,PurchaseOrder,3486.91,,5964 5413 9354 0361 7294 83,,,,,,0.00,,,,,,,,0.00,,,,,,,0.00,Jeff Masters,7709543535,12/22/2017 12:00:00 AM,,Please send a brand new unit,FL,0,9.00
102423,12/12/2017 1:59:38 PM,Stetson Country Christmas 12/7-17/17 (NV),Rolly San Jose,DWA-9150USJ-9150CH,Legacy 3D,Choco Brown,1,"3 years parts, 1 year labor (Free)",CUSTOM ,0.00,4871.00,4871.00,CreditCard,0.00,411100,,,,,,,0.00,,,,,,,,0.00,,,,,,,0.00,Kent Meshishnek,2083051209,12/26/2017 12:00:00 AM,,,WA,1,8.25
102424,12/12/2017 2:50:14 PM,Stetson Country Christmas 12/7-17/17 (NV),Ruben Cuatrona,DWA-9150USJ-9150CH,Legacy 3D,Choco Brown,1,"3 years parts, 1 year labor (Free)",CUSTOM ,0.00,3900.00,3900.00,CreditCard,3900.00,097552,,,,,,,0.00,,,,,,,,0.00,,,,,,,0.00,Don Bowles,4322676411,,,,TX,1,8.25
102425,12/12/2017 2:58:13 PM,Stetson Country Christmas 12/7-17/17 (NV),Rolly San Jose,DWA-9400Pegasus-BL,Pegasus,Black,1,"3 years parts, 1 year labor (Free)",CUSTOM ,0.00,4900.00,4900.00,CreditCard,0.00,01738c,,,,,,,0.00,,,,,,,,0.00,,,,,,,0.00,Steve Wolf,4329653500,,,,TX,1,8.25
102426,12/12/2017 3:11:22 PM,Sam's Club Seattle #6687 12/7-17/17 (WA),Jason Liu,DWA-9100DWA-9100CH,Legacy for Sam's,Choco,1,"3 years parts, 1 year labor (Free)",CUSTOM CreditCard,294.72,3962.72,3962.72,CreditCard,2000.00,01082R,,,,,,CreditCard,1962.50,001411,,,,,,,0.00,,,,,,,0.00,Wei Pin Chang,360-329-4197,12/22/2017 12:00:00 AM,,paid in full,WA,0,10.10
102427,12/12/2017 3:22:08 PM,Mekong Plaza (AZ),Kohei Uno,DWA-9060USJ-9060BL-DEMO,Relax2Zero 3D,Demo Black,1,"3 years parts, 1 year labor (Free)",CUSTOM CreditCard,0.00,3800.00,3800.00,CreditCard,500.00,mx7B,,,,,,CreditCard,3300.00,AkaV,,,,,,,0.00,,,,,,,0.00,John Vincenot,623-261-0107,12/12/2017 12:00:00 AM,,,NV,1,8.05
102428,12/12/2017 3:26:17 PM,Sam's Club Seattle #6687 12/7-17/17 (WA),Jason Liu,DWA-9100DWA-9100SB,Legacy for Sam's,Sienna Brown,1,"3 years parts, 1 year labor (Free)",CUSTOM ,294.72,3962.72,3962.72,CreditCard,3962.50,02403D,,,,,,,0.00,,,,,,,,0.00,,,,,,,0.00,Anthony Jonathan,2069403525,12/21/2017 12:00:00 AM,,paid in full,WA,0,10.10
102429,12/12/2017 3:57:54 PM,Stetson Country Christmas 12/7-17/17 (NV),Ruben Cuatrona,DWA-9150USJ-9150CH,Legacy 3D,Choco Brown,1,"3 years parts, 1 year labor (Free)",CUSTOM ,0.00,4500.00,4500.00,Synchrony,4500.00,,,6034610081697313,82433579,San Diego,36 months,,0.00,,,,,,,,0.00,,,,,,,0.00,Lisa Colby,317 716 0965,,,,TX,1,8.25
102430,12/12/2017 4:01:43 PM,Referral (Main Office),Joseph Chan,DWA-9250USJ-9150CH,Legend 3.0,Choco Brown,1,"3 years parts, 1 year labor (Free)",CUSTOM COD,0.00,3800.00,3800.00,CreditCard,500.00,#5iRv,,,,,,COD,3300.00,,,,,,,,0.00,,,,,,,350.00,Dhvani Patel,781-326-4040,12/22/2017 12:00:00 AM,,Balance $3300 to be charged before delivery,TX,1,9.25
102431,12/12/2017 4:05:23 PM,Stetson Country Christmas 12/7-17/17 (NV),Ruben Cuatrona,DWA-9150USJ-9150CH,Legacy 3D,Choco Brown,1,"3 years parts, 1 year labor (Free)",CUSTOM ,0.00,4500.00,4500.00,Synchrony,4500.00,,,6034610081697339,82433839,San Diego,36 months,,0.00,,,,,,,,0.00,,,,,,,0.00,Gregory Sutphin,317 965 8179,,,,TX,1,8.25
102432,12/12/2017 4:14:03 PM,Stetson Country Christmas 12/7-17/17 (NV),Ruben Cuatrona,DWA-9150USJ-9150CH,Legacy 3D,Choco Brown,1,"3 years parts, 1 year labor (Free)",CUSTOM ,0.00,4800.00,4800.00,Synchrony,4800.00,,,6034610081697388,82434107,San Diego,48 months,,0.00,,,,,,,,0.00,,,,,,,0.00,Cheryl Medeiros,808 281 3011,,,,HI,1,8.25
102433,12/12/2017 4:30:48 PM,Stetson Country Christmas 12/7-17/17 (NV),Ruben Cuatrona,DWA-9150USJ-9150CH,Legacy 3D,Choco Brown,1,"3 years parts, 1 year labor (Free)",CUSTOM ,0.00,3900.00,3900.00,CreditCard,3900.00,05271C,,,,,,,0.00,,,,,,,,0.00,,,,,,,350.00,Allan Tucker,575 910 7509,12/21/2017 12:00:00 AM,,,TX,1,8.25
102433,12/12/2017 4:30:48 PM,Stetson Country Christmas 12/7-17/17 (NV),Ruben Cuatrona,,Tourmaline Pad for Legacy 3D,,1,no warranty,CUSTOM ,0.00,3900.00,3900.00,CreditCard,3900.00,05271C,,,,,,,0.00,,,,,,,,0.00,,,,,,,350.00,Allan Tucker,575 910 7509,12/21/2017 12:00:00 AM,,,TX,1,8.25
102434,12/12/2017 4:42:47 PM,Stetson Country Christmas 12/7-17/17 (NV),Ruben Cuatrona,DWA-9400Pegasus-BR,Pegasus,Choco Brown,2,"3 years parts, 1 year labor (Free)",CUSTOM ,0.00,7500.00,7500.00,CreditCard,7500.00,220248,,,,,,,0.00,,,,,,,,0.00,,,,,,,0.00,Bruce Biffert,701 225 4521,12/14/2017 12:00:00 AM,,,CA,1,8.25
102435,12/12/2017 4:48:00 PM,Stetson Country Christmas 12/7-17/17 (NV),Patricia Whipple,DWA-9150USJ-9150CH,Legacy 3D,Choco Brown,1,"3 years parts, 1 year labor (Free)",CUSTOM ,0.00,4200.00,4200.00,CreditCard,4200.00,07290Z,,,,,,,0.00,,,,,,,,0.00,,,,,,,0.00,Steve Brend,316 648 4842,,,,TX,1,8.25
102436,12/12/2017 7:50:19 PM,Sam's Club Daytona Beach #8138 12/7-17/17 (FL),Ting Ritchie,DWA-9100DWA-9100BL,Legacy for Sam's,Black,1,"3 years parts, 1 year labor (Free)",CUSTOM ,188.18,3833.18,3833.18,CreditCard,3832.94,9205693379911247908253,,,,,,,0.00,,,,,,,,0.00,,,,,,,0.00,Ed Fennell,3866737410,12/20/2017 12:00:00 AM,,"Customer have an old chair to trade in, please take the old chair.",FL,0,6.50
102437,12/12/2017 7:58:44 PM,Sam's Club Daytona Beach #8138 12/7-17/17 (FL),Ting Ritchie,DWA-9100DWA-9100CH,Legacy for Sam's,Choco,1,"3 years parts, 1 year labor (Free)",CUSTOM ,188.18,3833.18,3833.18,CreditCard,3832.94,4509148521467532495568,,,,,,,0.00,,,,,,,,0.00,,,,,,,0.00,Ed Burns (Burns Building),3864053270,12/20/2017 12:00:00 AM,,,FL,0,6.50
102438,12/12/2017 8:09:24 PM,Sam's Club Daytona Beach #8138 12/7-17/17 (FL),Ting Ritchie,USJ-849USJ-849,Vitality Plate for Sam's,New,1,"2 years parts, 1 year labor (Small Items)",CUSTOM ,29.90,489.89,489.89,CreditCard,489.89,559292638194871109852,,,,,,,0.00,,,,,,,,0.00,,,,,,,0.00,Sandra Bruton,3864262039,,,,FL,0,6.50
102439,12/13/2017 12:12:55 AM,Sam's Club Long Beach #6613 12/7-17/17 (CA),Kamille Gines,DWA-9100DWA-9100CH,Legacy for Sam's,Choco,1,"3 years parts, 1 year labor (Free)",CUSTOM ,368.90,3967.90,3967.90,CreditCard,3967.90,TC# 4959118522456437897131,,,,,,,0.00,,,,,,,,0.00,,,,,,,0.00,Guillermo Padilla,562-413-1195,,,,CA,0,10.25
102440,12/13/2017 12:23:22 AM,Sam's Club Long Beach #6613 12/7-17/17 (CA),Kamille Gines,USJ-9050USJ-9050BR,Relax2Zero 2.0 for Sam's,Brown,1,"3 years parts, 1 year labor (Free)",CUSTOM ,399.75,4299.75,4299.75,CreditCard,4299.75,TC# 2689198522456430837191,,,,,,,0.00,,,,,,,,0.00,,,,,,,0.00,Ernie Carlos Knott,562-577-6303,,,,CA,0,10.25
102441,12/13/2017 7:52:02 AM,Health and Wellness Carrollton Store 2017 (TX),Mijung Song,USJ-9000USJ-9000KU,Relax2Zero 1.0,Black,1,"3 years parts, 1 year labor (Free)",CUSTOM ,0.00,3400.00,3400.00,CreditCard,3400.00,Square# xEzS,,,,,,,0.00,,,,,,,,0.00,,,,,,,350.00,John King,326-922-4187,12/21/2017 12:00:00 AM,,,TX,1,8.25
102442,12/13/2017 7:56:23 AM,Referral (Main Office),Rolly San Jose,DWA-9100DWA-9100CH,Legacy,Choco Brown,1,"3 years parts, 1 year labor (Free)",CUSTOM ,0.00,4000.00,4000.00,Check,0.00,,,,,,,,0.00,,,,,,,,0.00,,,,,,,0.00,Avelino Ong,7024612514,12/14/2017 12:00:00 AM,,,NV,1,9.25
102443,12/13/2017 8:01:31 AM,"Sam's Club #6376 Dallas, TX 12/7-17/17 (TX)",Jennifer Tran,DWA-9100DWA-9100SB,Legacy for Sam's,Sienna Brown,1,"3 years parts, 1 year labor (Free)",CUSTOM ,0.00,3599.00,3599.00,CreditCard,3599.00,TC# 5794 8211 9359 2860 6058 25,,,,,,,0.00,,,,,,,,0.00,,,,,,,350.00,Yeong Yoo,9728004699,12/14/2017 12:00:00 AM,,TAX-EXEMPT,TX,1,8.25
102444,12/13/2017 8:04:59 AM,"Sam's Club #6376 Dallas, TX 12/7-17/17 (TX)",Jennifer Tran,USJ-849USJ-849,Vitality Plate for Sam's,New,1,"2 years parts, 1 year labor (Small Items)",CUSTOM ,37.95,497.94,497.94,CreditCard,497.94,TC# 5273 4055 0389 7858 4078 3,,,,,,,0.00,,,,,,,,0.00,,,,,,,0.00,Saleem Hassan,4699397331,,,,TX,0,8.25
102445,12/13/2017 8:07:33 AM,Main office (CA),Chris Tavira,DWA-9400Pegasus-BL,Pegasus,Black,1,"3 years parts, 1 year labor (Free)",CUSTOM ,0.00,4300.00,4300.00,Check,4300.00,,,,,,,,0.00,,,,,,,,0.00,,,,,,,0.00,"Developing Potential, Inc. .",816-525-6000,,,,TX,1,9.25
102446,12/13/2017 8:46:51 AM,Referral (Main Office),Chris Tavira,DWA-9100DWA-9100CH,Legacy for Sam's,Choco,1,"3 years parts, 1 year labor (Free)",CUSTOM ,263.53,3862.53,3862.53,CreditCard,3862.53,5194,,,,,,,0.00,,,,,,,,0.00,,,,,,,350.00,Baccus Beavil,703-981-0450,12/18/2017 12:00:00 AM,,,TX,0,9.25
102447,12/13/2017 10:16:48 AM,Referral (Main Office),Kaz Ohashi,DWA-9100DWA-9100BL,Legacy,Black,1,"3 years parts, 1 year labor (Free)",CUSTOM COD,0.00,4200.00,4200.00,CreditCard,100.00,SAJX,,,,,,COD,0.00,,,,,,,,0.00,,,,,,,,Hideko Galaski,858-513-7909,,,,Not Dispatched,1,9.25
102448,12/13/2017 10:40:00 AM,Stetson Country Christmas 12/7-17/17 (NV),Abagail Stirling,DWA-9400Pegasus-BL,Pegasus,Black,1,"3 years parts, 1 year labor (Free)",CUSTOM ,0.00,4800.00,4800.00,CreditCard,4800.00,824520,,,,,,,0.00,,,,,,,,0.00,,,,,,,0.00,Stand Rowlan,435 994 1096,12/20/2017 12:00:00 AM,,,NV,1,8.25
102449,12/13/2017 1:25:59 PM,Sam's Club Naperville #8143 12/7-17/17 (IL),Mario Higareda,DWA-9100DWA-9100BL,Legacy for Sam's,Black,1,"3 years parts, 1 year labor (Free)",CUSTOM ,269.93,3868.93,3868.93,CreditCard,3868.93,,,,,,,,0.00,,,,,,,,0.00,,,,,,,350.00,Alphonse Kubwinmana,630-267-3977,12/14/2017 12:00:00 AM,,,TX,0,7.50
102450,12/13/2017 1:28:34 PM,Health&Wellness Factory AGM (CA),Jessica Phung,DWA-9060DWA-9060BL,AGM Relax2Zero 3D,Black,1,"3 years parts, 1 year labor (Free)",CUSTOM ,0.00,4009.00,4009.00,Check,4009.00,,,,,,,,0.00,,,,,,,,0.00,,,,,,,0.00,Long Vo,941-548-8957,,,,FL,1,8.75
102450,12/13/2017 1:28:34 PM,Health&Wellness Factory AGM (CA),Jessica Phung,,Chair Pad for Relax2Zero 3D,,1,no warranty,CUSTOM ,0.00,4009.00,4009.00,Check,4009.00,,,,,,,,0.00,,,,,,,,0.00,,,,,,,0.00,Long Vo,941-548-8957,,,,FL,1,8.75
102450,12/13/2017 1:28:34 PM,Health&Wellness Factory AGM (CA),Jessica Phung,,Foot Pads for Relax2Zero 3D,,1,no warranty,CUSTOM ,0.00,4009.00,4009.00,Check,4009.00,,,,,,,,0.00,,,,,,,,0.00,,,,,,,0.00,Long Vo,941-548-8957,,,,FL,1,8.75
102450,12/13/2017 1:28:34 PM,Health&Wellness Factory AGM (CA),Jessica Phung,,Daiwa Blanket,,1,no warranty,CUSTOM ,0.00,4009.00,4009.00,Check,4009.00,,,,,,,,0.00,,,,,,,,0.00,,,,,,,0.00,Long Vo,941-548-8957,,,,FL,1,8.75
102451,12/13/2017 6:57:14 PM,Sam's Club Daytona Beach #8138 12/7-17/17 (FL),Ting Ritchie,DWA-9100DWA-9100SB-DEMO,Legacy for Sam's,Demo Sienna Brown,1,"3 years parts, 1 year labor (Free)",CUSTOM ,188.18,3833.18,3833.18,CreditCard,3832.94,1812712333164873166802,,,,,,,0.00,,,,,,,,0.00,,,,,,,350.00,Steve Grodin,8458882334,12/21/2017 12:00:00 AM,,,TX,0,6.50
102452,12/13/2017 9:12:47 PM,Stetson Country Christmas 12/7-17/17 (NV),Patricia Whipple,DWA-9150USJ-9150CH,Legacy 3D,Choco Brown,1,"3 years parts, 1 year labor (Free)",CUSTOM ,0.00,4871.00,4871.00,CreditCard,4871.00,01111c,,,,,,,0.00,,,,,,,,0.00,,,,,,,0.00,Melody Bowar,3072773800,12/14/2017 12:00:00 AM,,,CA,1,8.25
102453,12/13/2017 9:50:56 PM,Stetson Country Christmas 12/7-17/17 (NV),Bonnie Brooks,DWA-9400Pegasus-BR,Pegasus,Choco Brown,1,"3 years parts, 1 year labor (Free)",CUSTOM ,0.00,5954.00,5954.00,Synchrony,5954.00,,,6034610081698550,82472492,San Diego,36 months,,0.00,,,,,,,,0.00,,,,,,,0.00,Debra Russell,3073592792,12/14/2017 12:00:00 AM,,,CA,1,8.25
102454,12/13/2017 9:57:30 PM,Stetson Country Christmas 12/7-17/17 (NV),Rolly San Jose,DWA-9400Pegasus-BR,Pegasus,Choco Brown,1,"3 years parts, 1 year labor (Free)",CUSTOM ,0.00,5304.00,5304.00,CreditCard,5304.00,02833z,,,,,,,0.00,,,,,,,,0.00,,,,,,,350.00,Howard Click,9188410843,12/17/2017 12:00:00 AM,,,TX,1,8.25
102455,12/13/2017 11:01:05 PM,Sam's Club Long Beach #6613 12/7-17/17 (CA),Kamille Gines,USJ-9050USJ-9050BR,Relax2Zero 2.0 for Sam's,Brown,1,"3 years parts, 1 year labor (Free)",CUSTOM ,327.90,3526.90,3526.90,CreditCard,3526.90,TC# 3933810956323382046777,,,,,,,0.00,,,,,,,,0.00,,,,,,,0.00,Huy Vo,562-256-0665,,,,CA,0,10.25
102456,12/14/2017 10:20:25 AM,"Sam's Club #8134 Fort Smith, AR 11/30-12/10/17 (TX)",Phuoc Van,DWA-9100DWA-9100CH,Legacy for Sam's,Choco,1,"3 years parts, 1 year labor (Free)",CUSTOM ,419.15,4718.15,4718.15,CreditCard,4718.15,001571,,,,,,,0.00,,,,,,,,0.00,,,,,,,350.00,Tim Sher,479-207-0508,12/10/2017 12:00:00 AM,,,TX,0,9.75
102457,12/14/2017 10:26:45 AM,"Sam's Club #8134 Fort Smith, AR 11/30-12/10/17 (TX)",Phuoc Van,USJ-849USJ-849,Vitality Plate for Sam's,New,1,"2 years parts, 1 year labor (Small Items)",CUSTOM ,44.85,504.84,504.84,CreditCard,504.84,001041,,,,,,,0.00,,,,,,,,0.00,,,,,,,0.00,Teresa Smith,479-462-1056,,,,TX,0,9.75
102458,12/14/2017 10:33:43 AM,Stetson Country Christmas 12/7-17/17 (NV),Ilene Maynard,DWA-9060USJ-9060BL,Relax2Zero 3D,Black,1,"3 years parts, 1 year labor (Free)",CUSTOM ,0.00,4400.00,4400.00,CreditCard,4500.00,033579,,,,,,,0.00,,,,,,,,0.00,,,,,,,0.00,Lisa Brooks,229 777 7712,,,,FL,1,8.25
102459,12/14/2017 10:33:46 AM,"Sam's Club #8134 Fort Smith, AR 11/30-12/10/17 (TX)",Phuoc Van,USJ-849USJ-849,Vitality Plate for Sam's,New,1,"2 years parts, 1 year labor (Small Items)",CUSTOM ,44.85,504.84,504.84,CreditCard,504.84,023655,,,,,,,0.00,,,,,,,,0.00,,,,,,,0.00,Rene Velasco Flgveroa,479-561-9944,,,,TX,0,9.75
102460,12/14/2017 10:39:08 AM,"Sam's Club #8134 Fort Smith, AR 11/30-12/10/17 (TX)",Phuoc Van,DWA-9100DWA-9100CH,Legacy for Sam's,Choco,1,"3 years parts, 1 year labor (Free)",CUSTOM ,419.15,4718.15,4718.15,CreditCard,4718.15,57729S,,,,,,,0.00,,,,,,,,0.00,,,,,,,350.00,Tom McCormack,918-864-1680,12/10/2017 12:00:00 AM,,,TX,0,9.75
102461,12/14/2017 10:40:11 AM,Health&Wellness H Mart Illinois,Noni Ignacio,DWA-9100DWA-9100BL,Legacy,Black,1,"3 years parts, 1 year labor (Free)",CUSTOM ,195.50,3245.50,3245.50,Cash,3245.50,,,,,,,,0.00,,,,,,,,0.00,,,,,,,0.00,Viraly Patel,4802860416,,,Please deliver before Christmas,CA,0,8.50
102462,12/14/2017 10:56:31 AM,Sam's Club Gilbert #4829 12/7-17/17 (NV),Christoper Richard Williams,DWA-9100DWA-9100BG-DEMO,Legacy for Sam's,Demo Beige,1,"3 years parts, 1 year labor (Free)",CUSTOM ,280.72,3879.72,3879.72,CreditCard,0.00,TC#2920 1564 0523 8754 4590 79,,,,,,,0.00,,,,,,,,0.00,,,,,,,0.00,Dallin Baum,4804158924,12/17/2017 12:00:00 AM,,,CA,0,7.80
102463,12/14/2017 12:04:55 PM,Sam's Club #4799 12/14-24 (CA),Michael Wang,USJ-871,Foot Vibe Pro,,1,"2 years parts, 1 year labor (Small Items)",CUSTOM ,8.52,118.51,118.51,CreditCard,118.51,Tc# 6490 6630 7217 7567 1409 5,,,,,,,0.00,,,,,,,,0.00,,,,,,,0.00,Daiwa Massage,800-241-2221,,,,CA,0,7.75
102464,12/14/2017 1:04:00 PM,Sam's Club Madison #8255 12/14-24/17 (IL),Noni Ignacio,DWA-9100DWA-9100BG,Legacy for Sam's,Beige,1,"3 years parts, 1 year labor (Free)",CUSTOM ,197.95,3796.95,3796.95,CreditCard,0.00,TC# 1782 8628 3719 4575 5628 90,,,,,,,0.00,,,,,,,,0.00,,,,,,,350.00,Donald Noegel,2627075435,12/16/2017 12:00:00 AM,,"PLEASE DELIVER BRAND NEW CHAIR
Before Christmas",TX,0,5.50
102465,12/14/2017 7:15:35 PM,Sam's Club Palmdale #4767 12/7-17/17 (CA),Harmony Daiwa,USJ-871,Foot Vibe Pro,,1,"2 years parts, 1 year labor (Small Items)",CUSTOM ,0.00,109.99,109.99,CreditCard,0.00,,,,,,,,0.00,,,,,,,,0.00,,,,,,,0.00,David Hardy,6617295508,,,,CA,1,9.50
102466,12/14/2017 8:36:29 PM,Sam's Club Daytona Beach #8138 12/7-17/17 (FL),Ting Ritchie,DWA-9100DWA-9100SB,Legacy for Sam's,Sienna Brown,1,"3 years parts, 1 year labor (Free)",CUSTOM ,188.18,3833.18,3833.18,CreditCard,3832.94,3673630358382685348610,,,,,,,0.00,,,,,,,,0.00,,,,,,,0.00,Gerry Corrigan,3868463030,,,,FL,0,6.50
102467,12/14/2017 8:48:55 PM,Sam's Club Daytona Beach #8138 12/7-17/17 (FL),Ting Ritchie,DWA-9100DWA-9100CH,Legacy for Sam's,Choco,1,"3 years parts, 1 year labor (Free)",CUSTOM ,233.68,4578.68,4578.68,CreditCard,4578.44,3532872037111873136882,,,,,,,0.00,,,,,,,,0.00,,,,,,,0.00,Francisco Apena,4074734147,12/19/2017 12:00:00 AM,,,FL,0,6.50
102468,12/14/2017 11:20:23 PM,Stetson Country Christmas 12/7-17/17 (NV),Bonnie Brooks,DWA-9150USJ-9150CH-DEMO,Legacy 3D,Demo Choco Brown,1,"3 years parts, 1 year labor (Free)",CUSTOM ,0.00,4222.00,4222.00,CreditCard,0.00,863223,,,,,,,0.00,,,,,,,,0.00,,,,,,,350.00,Ron Maddux,8309970443,12/22/2017 12:00:00 AM,,,TX,1,8.25
102469,12/14/2017 11:28:05 PM,Stetson Country Christmas 12/7-17/17 (NV),Ruben Cuatrona,DWA-9150USJ-9150CH-DEMO,Legacy 3D,Demo Choco Brown,1,"3 years parts, 1 year labor (Free)",CUSTOM ,0.00,3700.00,3700.00,CreditCard,0.00,888173,,,,,,,0.00,,,,,,,,0.00,,,,,,,350.00,Josh Palmer,9036810058,12/23/2017 12:00:00 AM,,,TX,1,8.25
102470,12/14/2017 11:35:01 PM,Stetson Country Christmas 12/7-17/17 (NV),Ruben Cuatrona,DWA-9400Pegasus-BR,Pegasus,Choco Brown,1,"3 years parts, 1 year labor (Free)",CUSTOM ,0.00,4800.00,4800.00,Synchrony,0.00,,,6034610083000516,82512672,San Diego,48 months,,0.00,,,,,,,,0.00,,,,,,,0.00,Amy Pippinger,9518491042,12/22/2017 12:00:00 AM,,,CA,1,8.25
102471,12/15/2017 7:08:35 AM,Sam's Club #6335 Ocala  12/7-17/17,Alex Brackelsberg,USJ-849USJ-849-DEMO,Vitality Plate for Sam's,Deomo,1,"2 years parts, 1 year labor (Small Items)",CUSTOM ,28.00,427.99,427.99,CreditCard,427.99,75355317891384090564,,,,,,,0.00,,,,,,,,0.00,,,,,,,0.00,Jose German,1111111111,,,Customer picked up from store,FL,0,7.00
102472,12/15/2017 10:40:15 AM,Referral (Main Office),Kaz Ohashi,USJ-9000USJ-9000KU,Relax2Zero 1.0,Black,1,"3 years parts, 1 year labor (Free)",CUSTOM COD,0.00,3500.00,3500.00,CreditCard,100.00,WaaV,,,,,,COD,3400.00,,,,,,,,0.00,,,,,,,0.00,Mervin Miller,330-893-2112,,,Business Customer: No Tax,TX,1,9.25
102472,12/15/2017 10:40:15 AM,Referral (Main Office),Kaz Ohashi,,Tourmaline Pad for Relax2Zero 1.0,,1,no warranty,CUSTOM COD,0.00,3500.00,3500.00,CreditCard,100.00,WaaV,,,,,,COD,3400.00,,,,,,,,0.00,,,,,,,0.00,Mervin Miller,330-893-2112,,,Business Customer: No Tax,TX,1,9.25
102473,12/15/2017 11:06:11 AM,Sam's Club Gilbert #4829 12/7-17/17 (NV),Christoper Richard Williams,,Ninja Leg Massager,,1,"2 years parts, 1 year labor (Small Items)",CUSTOM ,29.56,408.56,408.56,CreditCard,0.00,Tc# 7445 1317 0981 0465 8972 2,,,,,,,0.00,,,,,,,,0.00,,,,,,,0.00,Neithard Foley,4803527290,,,,CA,0,7.80
102474,12/15/2017 11:18:18 AM,Sam's Club Scottsdale #6241 12/7-17/17 (NV),Joseph Chan,,Ninja Leg Massager,,1,"2 years parts, 1 year labor (Small Items)",CUSTOM ,30.13,409.13,409.13,PurchaseOrder,409.13,,TC# 6837 2986 9875 9026 0026 7,,,,,,0.00,,,,,,,,0.00,,,,,,,0.00,Neha Chatuevedi,630-890-8112,,,,CA,0,7.95
102475,12/15/2017 11:47:41 AM,"Sam's Club #6335 Ocala, Fl 12/7-12/17 (FL)",Alex Brackelsberg,USJ-9050USJ-9050BE,Relax2Zero 2.0 for Sam's,Beige,1,"3 years parts, 1 year labor (Free)",CUSTOM ,223.93,3422.93,3422.93,CreditCard,3422.93,78661958877736277104,,,,,,,0.00,,,,,,,,0.00,,,,,,,0.00,Chris Penski,2103854250,12/18/2017 12:00:00 AM,,,FL,0,7.00
102476,12/15/2017 1:18:03 PM,Sam's Club Daytona Beach #8138 12/7-17/17 (FL),Ting Ritchie,DWA-9100DWA-9100CH,Legacy for Sam's,Choco,1,"3 years parts, 1 year labor (Free)",CUSTOM ,233.68,4578.68,4578.68,CreditCard,4578.44,4248537140699315612317,,,,,,,0.00,,,,,,,,0.00,,,,,,,0.00,Fen Li,7409812239,,,,FL,0,6.50
102477,12/15/2017 1:22:12 PM,Sam's Club Daytona Beach #8138 12/7-17/17 (FL),Ting Ritchie,USJ-849USJ-849,Vitality Plate for Sam's,New,1,"2 years parts, 1 year labor (Small Items)",CUSTOM ,26.00,425.99,425.99,CreditCard,425.99,962431095550462524471,,,,,,,0.00,,,,,,,,0.00,,,,,,,0.00,Tanya Scarbrough,4076569602,,,,FL,0,6.50
102478,12/15/2017 2:34:25 PM,Sam's Club Madison #8255 12/14-24/17 (IL),Noni Ignacio,USJ-9050USJ-9050BL,Relax2Zero 2.0 for Sam's,Black,1,"3 years parts, 1 year labor (Free)",CUSTOM ,175.95,3374.95,3374.95,PurchaseOrder,0.00,,TC# 4469 9387 2742 7030 0965 26,,,,,,0.00,,,,,,,,0.00,,,,,,,350.00,Steve Jansen,6083410791,12/22/2017 12:00:00 AM,,Please deliver NEW CHAIR,TX,0,5.50
102479,12/15/2017 3:09:01 PM,Stetson Country Christmas 12/7-17/17 (NV),Rolly San Jose,DWA-9150USJ-9150CH,Legacy 3D,Choco Brown,1,"3 years parts, 1 year labor (Free)",CUSTOM ,0.00,4871.00,4871.00,Synchrony,4871.00,,,6034610083002082,82551054,San Diego,36 months,,0.00,,,,,,,,0.00,,,,,,,350.00,Thomas Olson,508-867-3908,12/22/2017 12:00:00 AM,,,TX,1,8.25
102480,12/15/2017 3:16:23 PM,Stetson Country Christmas 12/7-17/17 (NV),Rolly San Jose,DWA-9150USJ-9150BL,Legacy 3D,Black,1,"3 years parts, 1 year labor (Free)",CUSTOM ,0.00,4222.00,4222.00,Synchrony,4222.00,,,6034610083002116,82551401,San Diego,36 months,,0.00,,,,,,,,0.00,,,,,,,0.00,Chels Johnson,208-941-6337,12/22/2017 12:00:00 AM,,,NV,1,8.25
102481,12/15/2017 3:23:05 PM,Stetson Country Christmas 12/7-17/17 (NV),Ruben Cuatrona,DWA-9150USJ-9150CH-DEMO,Legacy 3D,Demo Choco Brown,1,"3 years parts, 1 year labor (Free)",CUSTOM ,0.00,3500.00,3500.00,Synchrony,3500.00,,,6034610083002223,82554018,San Diego,36 months,,0.00,,,,,,,,0.00,,,,,,,0.00,Karen Walker,520-971-9724,12/20/2017 12:00:00 AM,,,CA,1,8.25
102482,12/15/2017 3:29:26 PM,Stetson Country Christmas 12/7-17/17 (NV),Lori Daringer,DWA-9150USJ-9150CH,Legacy 3D,Choco Brown,1,"3 years parts, 1 year labor (Free)",CUSTOM ,0.00,3900.00,3900.00,CreditCard,3900.00,08758G,,,,,,,0.00,,,,,,,,0.00,,,,,,,0.00,Matt Kalmar,801-465-4467,12/21/2017 12:00:00 AM,,,NV,1,8.25
102483,12/15/2017 3:37:07 PM,Sam's Club #4799 12/14-24 (CA),Michael Wang,USJ-871,Foot Vibe Pro,,1,"2 years parts, 1 year labor (Small Items)",CUSTOM ,8.52,118.51,118.51,CreditCard,118.51,Tc# 95A4BE5539D5D6E8,,,,,,,0.00,,,,,,,,0.00,,,,,,,0.00,Daiwa Massage,800-241-2221,,,,CA,0,7.75
102484,12/15/2017 4:38:05 PM,Sam's Club Corona #4709 12/14-24/17 (CA),David Wang,DWA-9100DWA-9100BL-DEMO,Legacy for Sam's,Demo Black,1,"3 years parts, 1 year labor (Free)",CUSTOM ,224.98,3877.92,3877.92,PurchaseOrder,3877.92,,9245043674951045102744,,,,,,0.00,,,,,,,,0.00,,,,,,,0.00,Linda Renard,9098967227,12/22/2017 12:00:00 AM,,,CA,0,7.75
102485,12/15/2017 4:46:55 PM,"Sam's Club #6335 Ocala, Fl 12/7-12/17 (FL)",Alex Brackelsberg,USJ-9050USJ-9050BR,Relax2Zero 2.0 for Sam's,Brown,1,"3 years parts, 1 year labor (Free)",CUSTOM ,223.93,3422.93,3422.93,CreditCard,3422.93,64885876436072166570,,,,,,,0.00,,,,,,,,0.00,,,,,,,0.00,Diley Brady,3524279131,12/22/2017 12:00:00 AM,,Brand new brown Relax 2.0,FL,0,7.00
102486,12/16/2017 7:10:53 AM,"Sam's Club #6376 Dallas, TX 12/7-17/17 (TX)",Jennifer Tran,DWA-9100DWA-9100CH,Legacy for Sam's,Choco,1,"3 years parts, 1 year labor (Free)",CUSTOM ,296.92,3895.92,3895.92,CreditCard,3895.92,TC# 6358 5575 4468 5018 1570 26,,,,,,,0.00,,,,,,,,0.00,,,,,,,350.00,Ellen Smith,2143737240,12/21/2017 12:00:00 AM,,,TX,0,8.25
102487,12/16/2017 7:23:40 AM,Sam's Club #6335 Ocala  12/7-17/17,Alex Brackelsberg,USJ-9050USJ-9050BR,Relax2Zero 2.0 for Sam's,Brown,1,"3 years parts, 1 year labor (Free)",CUSTOM ,223.93,3422.93,3422.93,CreditCard,3422.93,7866395761745627715497,,,,,,,0.00,,,,,,,,0.00,,,,,,,0.00,James Simmons,3528950165,12/27/2017 12:00:00 AM,,Brand new brown relax,FL,0,7.00
102488,12/16/2017 9:22:05 AM,Sam's Club Madison #8255 12/14-24/17 (IL),Noni Ignacio,DWA-9100DWA-9100CH,Legacy for Sam's,Choco,1,"3 years parts, 1 year labor (Free)",CUSTOM ,197.95,3796.95,3796.95,PurchaseOrder,0.00,,TC# 6108 9574 2360 9212 2573 08,,,,,,0.00,,,,,,,,0.00,,,,,,,350.00,Haiyan Zhou,6086923100,12/22/2017 12:00:00 AM,,PLEASE DELIVER BRAND NEW CHAIR,TX,0,5.50
102489,12/16/2017 9:56:59 AM,Sam's Club #6335 Ocala  12/7-17/17,Alex Brackelsberg,USJ-849USJ-849-DEMO,Vitality Plate for Sam's,Deomo,1,"2 years parts, 1 year labor (Small Items)",CUSTOM ,28.00,427.99,427.99,Cash,427.99,,,,,,,,0.00,,,,,,,,0.00,,,,,,,0.00,Teresita Gonzalez,3523612474,,,Customer picked up from store,FL,0,7.00
102490,12/16/2017 2:17:07 PM,Sam's Club #4799 12/14-24 (CA),Michael Wang,USJ-9050USJ-9050BR,Relax2Zero 2.0 for Sam's,Brown,1,"3 years parts, 1 year labor (Free)",CUSTOM ,247.92,3446.92,3446.92,CreditCard,3446.92,Tc# 2090 8066 1623 8754 7700 35,,,,,,,0.00,,,,,,,,0.00,,,,,,,0.00,Les Campbell,5303300485,12/20/2017 12:00:00 AM,,"Give customer new chair.Give customer 2 free chair pads, 1 free blanket, 1 usb flash drive.",CA,0,7.75
102491,12/16/2017 2:42:47 PM,Sam's Club Palmdale #4767 12/7-17/17 (CA),Harmony Daiwa,USJ-871,Foot Vibe Pro,,1,No Warranty,CUSTOM ,0.00,109.99,109.99,CreditCard,0.00,,,,,,,,0.00,,,,,,,,0.00,,,,,,,0.00,Connie Rodriguez,6617295508,,,,CA,1,9.50
102492,12/16/2017 2:50:13 PM,Sam's Club Palmdale #4767 12/7-17/17 (CA),Harmony Daiwa,USJ-871,Foot Vibe Pro,,1,No Warranty,CUSTOM ,0.00,109.99,109.99,CreditCard,0.00,,,,,,,,0.00,,,,,,,,0.00,,,,,,,0.00,Bob Sorensen,4023262890,12/28/2017 12:00:00 AM,,,CA,1,9.50
102493,12/16/2017 3:00:48 PM,Sam's Club Palmdale #4767 12/7-17/17 (CA),Harmony Daiwa,USJ-871,Foot Vibe Pro,,1,No Warranty,CUSTOM ,0.00,109.99,109.99,CreditCard,0.00,,,,,,,,0.00,,,,,,,,0.00,,,,,,,0.00,Nury Vasquez,6614805500,12/28/2017 12:00:00 AM,,,CA,1,9.50
102494,12/16/2017 3:20:19 PM,Sam's Club Scottsdale #6241 12/7-17/17 (NV),Joseph Chan,DWA-9100DWA-9100CH-DEMO,Legacy for Sam's,Demo Choco,1,"3 years parts, 1 year labor (Free)",CUSTOM ,230.89,3885.12,3885.12,PurchaseOrder,3885.12,,TC# 5454 0412 7769 0163 9148 73,,,,,,0.00,,,,,,,,0.00,,,,,,,0.00,Jonathan Barber,928-970-0887,,,,CA,0,7.95
102495,12/16/2017 3:21:26 PM,Sam's Club Palmdale #4767 12/7-17/17 (CA),Larhonda Ingram,USJ-871,Foot Vibe Pro,,1,No Warranty,CUSTOM ,0.00,109.99,109.99,CreditCard,0.00,,,,,,,,0.00,,,,,,,,0.00,,,,,,,0.00,Edward Barr,6619650098,,,,CA,1,9.50
102496,12/16/2017 3:27:23 PM,Sam's Club Palmdale #4767 12/7-17/17 (CA),Larhonda Ingram,USJ-871,Foot Vibe Pro,,1,"2 years parts, 1 year labor (Small Items)",CUSTOM ,0.00,109.99,109.99,CreditCard,0.00,,,,,,,,0.00,,,,,,,,0.00,,,,,,,0.00,Anayamsy Leal,6612259859,,,,CA,1,9.50
102497,12/16/2017 3:32:26 PM,Sam's Club Palmdale #4767 12/7-17/17 (CA),Larhonda Ingram,USJ-871,Foot Vibe Pro,,1,No Warranty,CUSTOM ,0.00,109.99,109.99,CreditCard,0.00,,,,,,,,0.00,,,,,,,,0.00,,,,,,,0.00,Trent Stewart,6614007736,,,,CA,1,9.50
102498,12/16/2017 4:32:09 PM,Stetson Country Christmas 12/7-17/17 (NV),Abagail Stirling,DWA-9060USJ-9060BL,Relax2Zero 3D,Black,1,"3 years parts, 1 year labor (Free)",CUSTOM ,0.00,3900.00,3900.00,Synchrony,3900.00,,,6034610083004740,82604619,San Diego,36 months,,0.00,,,,,,,,0.00,,,,,,,0.00,Herman Mitchell,505 860 5811,,,,TX,1,8.25
102499,12/16/2017 4:38:09 PM,Stetson Country Christmas 12/7-17/17 (NV),Abagail Stirling,DWA-9060USJ-9060BR,Relax2Zero 3D,Choco Brown,1,"3 years parts, 1 year labor (Free)",CUSTOM ,0.00,4200.00,4200.00,Synchrony,4200.00,,,6034610083004328,82599790,San Diego,36 months,,0.00,,,,,,,,0.00,,,,,,,0.00,Suzanne Wiczek,714 803 8436,12/22/2017 12:00:00 AM,,,CA,1,8.25
102500,12/16/2017 4:43:15 PM,Stetson Country Christmas 12/7-17/17 (NV),Ruben Cuatrona,DWA-9150USJ-9150CH,Legacy 3D,Choco Brown,1,"3 years parts, 1 year labor (Free)",CUSTOM ,0.00,3600.00,3600.00,CreditCard,3600.00,094383,,,,,,,0.00,,,,,,,,0.00,,,,,,,0.00,Melissa Park,801-864-2401,12/21/2017 12:00:00 AM,,,NV,1,8.25
102501,12/16/2017 4:45:43 PM,Stetson Country Christmas 12/7-17/17 (NV),Ilene Maynard,DWA-9060USJ-9060BR,Relax2Zero 3D,Choco Brown,1,"3 years parts, 1 year labor (Free)",CUSTOM CreditCard,0.00,4500.00,4500.00,Synchrony,2000.00,,,6034610083003320,82584007,San Diego,36 months,CreditCard,2500.00,862054,,,,,,,0.00,,,,,,,0.00,Teresa Oliver,405 368 8741,,,,TX,1,8.25
102502,12/16/2017 4:50:53 PM,Stetson Country Christmas 12/7-17/17 (NV),Ruben Cuatrona,DWA-9150USJ-9150CH,Legacy 3D,Choco Brown,1,"3 years parts, 1 year labor (Free)",CUSTOM ,0.00,3600.00,3600.00,CreditCard,3600.00,64024A,,,,,,,0.00,,,,,,,,0.00,,,,,,,0.00,Brandon Lawrence,801-971-2533,12/21/2017 12:00:00 AM,,,NV,1,8.25
102503,12/16/2017 4:51:27 PM,Stetson Country Christmas 12/7-17/17 (NV),Ilene Maynard,DWA-9060USJ-9060BL,Relax2Zero 3D,Black,1,"3 years parts, 1 year labor (Free)",CUSTOM ,0.00,4500.00,4500.00,Synchrony,4500.00,,,6034610083003262,82583599,San Diego,36 months,,0.00,,,,,,,,0.00,,,,,,,0.00,Rhonda Jantzen,580 747 3436,,,,TX,1,8.25
102504,12/16/2017 4:56:57 PM,Stetson Country Christmas 12/7-17/17 (NV),Ruben Cuatrona,DWA-9150USJ-9150CH,Legacy 3D,Choco Brown,1,"3 years parts, 1 year labor (Free)",CUSTOM ,0.00,3900.00,3900.00,CreditCard,3900.00,07614D,,,,,,,0.00,,,,,,,,0.00,,,,,,,0.00,Neil and Jill Kayser,509-773-4865,,,,WA,1,8.25
102505,12/16/2017 5:04:56 PM,Stetson Country Christmas 12/7-17/17 (NV),Bonnie Brooks,DWA-9150USJ-9150CH-DEMO,Legacy 3D,Demo Choco Brown,1,"3 years parts, 1 year labor (Free)",CUSTOM ,0.00,3789.00,3789.00,Synchrony,3789.00,,,6034610083004930,82606526,San Diego,36 months,,0.00,,,,,,,,0.00,,,,,,,0.00,Gary Sampson,970-663-9392,,,,TX,1,8.25
102506,12/16/2017 5:10:28 PM,Stetson Country Christmas 12/7-17/17 (NV),Rolly San Jose,DWA-9400Pegasus-BR,Pegasus,Choco Brown,1,"3 years parts, 1 year labor (Free)",CUSTOM ,0.00,5304.00,5304.00,CreditCard,5304.00,801570,,,,,,,0.00,,,,,,,,0.00,,,,,,,0.00,Don Kosheba,231-206-3524,,,,TX,1,8.25
102507,12/16/2017 5:12:13 PM,"Sam's Club #8117 Oklahoma City, OK 12/7-17/17",Bryan Albert,USJ-9050USJ-9050BE,Relax2Zero 2.0 for Sam's,Beige,1,"3 years parts, 1 year labor (Free)",CUSTOM ,268.00,3468.00,3468.00,CreditCard,0.00,TC # 1322 4925 5716 2770 92,,,,,,,0.00,,,,,,,,0.00,,,,,,,0.00,Louise Meek,405-973-5362,,,,TX,0,8.38
102508,12/16/2017 5:15:08 PM,Stetson Country Christmas 12/7-17/17 (NV),Ruben Cuatrona,DWA-9150USJ-9150CH,Legacy 3D,Choco Brown,1,"3 years parts, 1 year labor (Free)",CUSTOM ,0.00,3900.00,3900.00,Synchrony,3900.00,,,6034610083004906,82606079,San Diego,36 months,,0.00,,,,,,,,0.00,,,,,,,350.00,Tom Marshall,815-343-1191,12/20/2017 12:00:00 AM,,,TX,1,8.25
102509,12/16/2017 5:58:07 PM,Sam's Club Idaho Falls #6345 12/7-17/17  (WA),Laser Howell,DWA-9100DWA-9100CH,Legacy for Sam's,Choco,1,"3 years parts, 1 year labor (Free)",CUSTOM ,257.94,4556.94,4556.94,PurchaseOrder,0.00,,868554,,,,,,0.00,,,,,,,,0.00,,,,,,,0.00,Lana Miller,8014731708,12/22/2017 12:00:00 AM,,Sam’s approval# 868554,NV,0,6.00
102510,12/16/2017 6:30:15 PM,Sam's Club Daytona Beach #8138 12/7-17/17 (FL),Ting Ritchie,DWA-9100DWA-9100BL,Legacy for Sam's,Blue,1,"3 years parts, 1 year labor (Free)",CUSTOM ,233.67,4578.66,4578.66,CreditCard,4578.44,0110856615228950209996,,,,,,,0.00,,,,,,,,0.00,,,,,,,0.00,Mervin Linkous Jr.,4348253242,,,"Please delivery after Jan,1st.",TX,0,6.50
102510,12/16/2017 6:30:15 PM,Sam's Club Daytona Beach #8138 12/7-17/17 (FL),Ting Ritchie,USJ-849USJ-849,Vitality Plate for Sam's,New,1,No Warranty,CUSTOM ,233.67,4578.66,4578.66,CreditCard,4578.44,0110856615228950209996,,,,,,,0.00,,,,,,,,0.00,,,,,,,0.00,Mervin Linkous Jr.,4348253242,,,"Please delivery after Jan,1st.",TX,0,6.50
102511,12/16/2017 7:14:31 PM,Sam's Club Palmdale #4767 12/7-17/17 (CA),Larhonda Ingram,USJ-9050USJ-9050BL,Relax2Zero 2.0 for Sam's,Black,1,"2 years parts, 1 year labor (Small Items)",CUSTOM ,0.00,3199.99,3199.99,CreditCard,0.00,,,,,,,,0.00,,,,,,,,0.00,,,,,,,0.00,Gerardo Talusan,6619175432,,,,CA,1,9.50
102512,12/16/2017 7:22:35 PM,Sam's Club Palmdale #4767 12/7-17/17 (CA),Larhonda Ingram,USJ-849USJ-849-DEMO,Vitality Plate for Sam's,Deomo,1,"2 years parts, 1 year labor (Small Items)",CUSTOM ,0.00,399.99,399.99,CreditCard,0.00,,,,,,,,0.00,,,,,,,,0.00,,,,,,,0.00,Gerardo Talusan,6619175432,,,,CA,1,9.50
102513,12/16/2017 7:47:12 PM,Sam's Club #4799 12/14-24 (CA),Michael Wang,USJ-9050USJ-9050BR,Relax2Zero 2.0 for Sam's,Brown,1,"3 years parts, 1 year labor (Free)",CUSTOM ,247.92,3446.92,3446.92,CreditCard,3446.92,Tc# 3543 2507 9537 4481 4415 78,,,,,,,0.00,,,,,,,,0.00,,,,,,,0.00,Harjinder Singh,9162963187,12/24/2017 12:00:00 AM,,"Give customer new chair.Customer requests delivery for Wed, Dec 20 or Thursday, Dec 21.Customer only available after 4pm for delivery.

2nd floor delivery included.Give customer 2 free chair pads, 1 free Daiwa blanket, 1 usb flash drive.",CA,0,7.75
102514,12/16/2017 9:22:15 PM,Sam's Club #4974 NORTH LAS VEGAS (NV),Rachelle Estanilla,DWA-9100DWA-9100CH,Legacy for Sam's,Choco,1,"3 years parts, 1 year labor (Free)",CUSTOM ,354.67,4653.67,4653.67,Cash,4653.67,,,,,,,,0.00,,,,,,,,0.00,,,,,,,0.00,Cindy Ortiz,7023401491,12/19/2017 12:00:00 AM,,,NV,0,8.25
102515,12/16/2017 10:49:31 PM,Anti-Aging Show Las Vegas (NV),Kristy Tran,DWA-9150USJ-9150CH,Legacy 3D,Choco Brown,1,"3 years parts, 1 year labor (Free)",CUSTOM ,236.26,3850.00,3850.00,CreditCard,100.00,E491D8E4C1B5B051,,,,,,,0.00,,,,,,,,0.00,,,,,,,0.00,Mudit Arora,908 472 1004,,,Deposit $100. Please Call for Balance when We Are ready to ship.,TX,0,8.25
102516,12/16/2017 11:04:29 PM,Anti-Aging Show Las Vegas (NV),Kristy Tran,DWA-9060USJ-9060BR,Relax2Zero 3D,Choco Brown,1,"3 years parts, 1 year labor (Free)",CUSTOM ,274.36,4349.99,4349.99,CreditCard,4350.00,1243FC70699BD197,,,,,,,0.00,,,,,,,,0.00,,,,,,,0.00,James Schaan,520 647 1606,12/20/2017 12:00:00 AM,,Paid In Full. Please Give them Free Tourmaline Pad,CA,0,8.25
102516,12/16/2017 11:04:29 PM,Anti-Aging Show Las Vegas (NV),Kristy Tran,,Tourmaline Pad for Relax2Zero 3D,,1,no warranty,CUSTOM ,274.36,4349.99,4349.99,CreditCard,4350.00,1243FC70699BD197,,,,,,,0.00,,,,,,,,0.00,,,,,,,0.00,James Schaan,520 647 1606,12/20/2017 12:00:00 AM,,Paid In Full. Please Give them Free Tourmaline Pad,CA,0,8.25
102517,12/16/2017 11:10:47 PM,Anti-Aging Show Las Vegas (NV),Kristy Tran,DWA-9150USJ-9150BL,Legacy 3D,Black,1,"3 years parts, 1 year labor (Free)",CUSTOM ,232.45,3800.00,3800.00,CreditCard,3800.00,F273AC808BA3F8E0,,,,,,,0.00,,,,,,,,0.00,,,,,,,0.00,Alexandra Oleinik,954 643 2609,,,Paid in full.,FL,0,8.25
102518,12/16/2017 11:18:29 PM,Anti-Aging Show Las Vegas (NV),Tom Nguyen,DWA-9150USJ-9150CH-DEMO,Legacy 3D,Demo Choco Brown,1,"3 years parts, 1 year labor (Free)",CUSTOM CreditCard,232.45,3800.00,3800.00,CreditCard,100.00,07016G,,,,,,CreditCard,3700.00,05649G,,,,,,,0.00,,,,,,,0.00,Margo Emami,619 894 0246,12/21/2017 12:00:00 AM,,Paid In Full. Please ship As soon As Possible. Please Call for schedule before 12/20.,CA,0,8.25
102519,12/16/2017 11:22:55 PM,Anti-Aging Show Las Vegas (NV),Tom Nguyen,DWA-9150USJ-9150BL,Legacy 3D,Black,1,"3 years parts, 1 year labor (Free)",CUSTOM ,270.55,4300.00,4300.00,CreditCard,4300.00,C9549A4A08A14466,,,,,,,0.00,,,,,,,,0.00,,,,,,,0.00,James Lyons,480 342 8622,,,Paid In full. Please Give them Free Tourmaline Pad.,CA,0,8.25
102519,12/16/2017 11:22:55 PM,Anti-Aging Show Las Vegas (NV),Tom Nguyen,,Tourmaline Pad for Legacy 3D,,1,no warranty,CUSTOM ,270.55,4300.00,4300.00,CreditCard,4300.00,C9549A4A08A14466,,,,,,,0.00,,,,,,,,0.00,,,,,,,0.00,James Lyons,480 342 8622,,,Paid In full. Please Give them Free Tourmaline Pad.,CA,0,8.25
102520,12/16/2017 11:41:46 PM,Anti-Aging Show Las Vegas (NV),Tom Nguyen,DWA-9150USJ-9150BL,Legacy 3D,Black,1,"3 years parts, 1 year labor (Free)",CUSTOM ,0.00,4000.00,4000.00,CreditCard,4000.00,EC6F7632BB4A2CBD,,,,,,,0.00,,,,,,,,0.00,,,,,,,0.00,Marla Gibbs,345 945 1830,,,"Please call for her before drop off. If we use trucking company, please send her the tracking #.  her emal: newlands@candw.ky",FL,1,8.25
102521,12/16/2017 11:50:56 PM,Anti-Aging Show Las Vegas (NV),Kristy Tran,DWA-9060USJ-9060BL,Relax2Zero 3D,Black,1,"3 years parts, 1 year labor (Free)",CUSTOM ,209.58,3500.00,3500.00,CreditCard,3500.00,CDCD4B0096D636C5,,,,,,,0.00,,,,,,,,0.00,,,,,,,0.00,Tariq Mirza,510 789 8232,12/20/2017 12:00:00 AM,,Paid In full.,CA,0,8.25
102522,12/16/2017 11:57:16 PM,Anti-Aging Show Las Vegas (NV),Tom Nguyen,DWA-9060USJ-9060BL-DEMO,Relax2Zero 3D,Demo Black,1,"3 years parts, 1 year labor (Free)",CUSTOM ,232.45,3800.00,3800.00,CreditCard,3800.00,B3C7B247B975A792,,,,,,,0.00,,,,,,,,0.00,,,,,,,0.00,Dr. Stepher Rath,575 257 4772,,,Paid In Full. Please Pick Up their Old Chair and Throw Away.,TX,0,8.25
