﻿Date,CustomerName,State,Zipcode,Description,productNo,Color,IsDemo,Net,ShippingFee,GiftPrice,FinancingProcessingFee,Gross,Pre_tax,Tax,Commission,Primary Payment Method,Primary Payment Balance,Primary Authorize Number,Primary Purchase Order Number,Primary Synchrony Account Number,Primary Synchrony Application Key,Primary Synchrony AccountInfo,Primary SynchronyTerm,Secondly Payment Method,Secondly Payment Balance,Secondly Authorize Number,Secondly Purchase Order Number,Secondly Synchrony Account Number,Secondly Synchrony Application Key,Secondly Synchrony AccountInfo,Secondly SynchronyTerm,Thirdly Payment Method,Thirdly Payment Balance,Thirdly Authorize Number,Thirdly Purchase Order Number,Thirdly Synchrony Account Number,Thirdly Synchrony Application Key,Thirdly Synchrony AccountInfo,Thirdly SynchronyTerm,DeliveryDate,Ispickup,Warranty,Status,Event Name,Synchrony Notes,Order Notes,Order number,Private Note,Branch,IsNoTax,ActualTaxRate
2/5/2018 10:24:06 AM,Pnscilla Benavides,TX,78043,Foot Vibe Pro,USJ-871,,New,,,,,119.06,109.99,9.07,KHOA H,CreditCard,119.06,TC# 9067 9998 2124 5013 9,,,,,,,0.00,,,,,,,,0.00,,,,,,,,YES,"2 years parts, 1 year labor (Small Items)",Delivered,"Sam's Club #8156 LAREDO, TX (2/1-2/4/18)",,Customer picked up the product.,103479,,TX,0,8.25
2/5/2018 10:27:37 AM,Beatriz Trevino,TX,78045,Foot Vibe Pro,USJ-871,,New,,,,,119.06,109.99,9.07,KHOA H,CreditCard,119.06,TC# 0411 3440 5686 5713 8273 4,,,,,,,0.00,,,,,,,,0.00,,,,,,,,YES,"2 years parts, 1 year labor (Small Items)",Delivered,"Sam's Club #8156 LAREDO, TX (2/1-2/4/18)",,Customer picked up the product.,103480,,TX,0,8.25
2/5/2018 10:33:27 AM,Jose David,TX,78045,Foot Vibe Pro,USJ-871,,New,,,,,119.06,109.99,9.07,KHOA H,CreditCard,119.06,TC# 7328 7706 1959 0302 9835 7,,,,,,,0.00,,,,,,,,0.00,,,,,,,,YES,"2 years parts, 1 year labor (Small Items)",Delivered,"Sam's Club #8156 LAREDO, TX (2/1-2/4/18)",,Customer picked up the product.,103481,,TX,0,8.25
2/5/2018 10:37:05 AM,Mansol Julinas,TX,78043,Foot Vibe Pro,USJ-871,,New,,,,,119.06,109.99,9.07,KHOA H,CreditCard,119.96,TC# 6410 6672 2868 3931 8097 6,,,,,,,0.00,,,,,,,,0.00,,,,,,,,YES,"2 years parts, 1 year labor (Small Items)",Delivered,"Sam's Club #8156 LAREDO, TX (2/1-2/4/18)",,Customer picked up the product.,103482,,TX,0,8.25
