﻿Original Event Name,Event Name,Sales Person,Order Number,Order Date,Customer Name,State,Zip,Product Name,Color,Product Status,QTY,Tax,Total Before Tax,Order Total,Primary Payment Method,Second Payment Method,Thirdl Payment Method,Warranty,Order Items,Pick up,Delivered On,Order Status,Chair Type,Order Notes,Private Note,Branch,No Tax,Actual Tax Rate,SKU,Primary Payment Balance,Primary Authorize Number,Primary Purchase Order Number,Primary Synchrony Account Number,Primary Synchrony Application Key,Primary Synchrony Account Info,Primary Synchrony Term,Second Payment Balance,Second Authorize Number,Second Purchase Order Number,Second Synchrony Account Number,Second Synchrony Application Key,Second Synchrony Account Info,Second SynchronyTerm,Third Payment Balance,Third Authorize Number,Third Purchase Order Number,Third Synchrony Account Number,Third Synchrony Application Key,Third Synchrony Account Info,Third Synchrony Term
"Sam's Club #6678 Pittsburgh, PA 11/1-11/18 (IL)","Sam's Club #6678 Pittsburgh, PA 11/1-11/18 (IL)",Edwin Jacome,110904,11/4/2018 8:49:17 AM,Row Luniewski,PA,15116,Foot Vibe Pro,,New,1,7.70,109.99,117.69,CreditCard,,,"2 years parts, 1 year labor (Free)","Foot Vibe Pro,",YES,,Delivered,,,,IL,0,7.00,USJ-871,117.69,5406 5533 1731 0012 4342 4,,,,,,0.00,,,,,,,0.00,,,,,,
"Sam's Club #6678 Pittsburgh, PA 11/1-11/18 (IL)","Sam's Club #6678 Pittsburgh, PA 11/1-11/18 (IL)",Edwin Jacome,110906,11/4/2018 9:04:31 AM,Ray Sedwick,PA,16066,Foot Vibe Pro,,New,1,7.70,109.99,117.69,CreditCard,,,"2 years parts, 1 year labor (Free)","Foot Vibe Pro,",YES,,Delivered,,,,IL,0,7.00,USJ-871,117.69,9547 7995 1843 1100 2827 2,,,,,,0.00,,,,,,,0.00,,,,,,
"Sam's Club #6678 Pittsburgh, PA 11/1-11/18 (IL)","Sam's Club #6678 Pittsburgh, PA 11/1-11/18 (IL)",Edwin Jacome,110908,11/4/2018 9:08:27 AM,Catherine W,PA,15229,Foot Vibe Pro,,New,1,20.30,289.97,310.27,CreditCard,,,"2 years parts, 1 year labor (Free)","Foot Vibe Pro,Shogun Neck &amp; Back Massger,",YES,,Delivered,,,,TX,0,7.00,USJ-871,310.27,1052 2224 8156 8877 0394 9,,,,,,0.00,,,,,,,0.00,,,,,,
"Sam's Club #6678 Pittsburgh, PA 11/1-11/18 (IL)","Sam's Club #6678 Pittsburgh, PA 11/1-11/18 (IL)",Edwin Jacome,110908,11/4/2018 9:08:27 AM,Catherine W,PA,15229,Shogun Neck & Back Massger,Demo[-20],Demo,1,20.30,289.97,310.27,CreditCard,,,"2 years parts, 1 year labor (Free)","Foot Vibe Pro,Shogun Neck &amp; Back Massger,",YES,,Delivered,,,,TX,0,7.00,USJ-874USJ-874-DEMO,310.27,1052 2224 8156 8877 0394 9,,,,,,0.00,,,,,,,0.00,,,,,,
"Sam's Club #6678 Pittsburgh, PA 11/1-11/18 (IL)","Sam's Club #6678 Pittsburgh, PA 11/1-11/18 (IL)",Edwin Jacome,110989,11/5/2018 12:00:39 PM,Stephen Black,PA,15212,Foot Vibe Pro,,New,2,15.40,219.98,235.38,CreditCard,,,"2 years parts, 1 year labor (Free)","Foot Vibe Pro,",YES,,Delivered,,,"Billing and Shipping address are different, if you need Billing call customer.",IL,0,7.00,USJ-871,235.38,0982 1284 2114 8887 1395 9,,,,,,0.00,,,,,,,0.00,,,,,,
