﻿Original Event Name,Event Name,Sales Person,Order Number,Order Date,Customer Name,State,Zip,Product Name,Color,Product Status,QTY,Tax,Total Before Tax,Order Total,Primary Payment Method,Second Payment Method,Thirdl Payment Method,Warranty,Order Items,Pick up,Delivered On,Order Status,Chair Type,Order Notes,Private Note,Branch,No Tax,Actual Tax Rate,SKU,Primary Payment Balance,Primary Authorize Number,Primary Purchase Order Number,Primary Synchrony Account Number,Primary Synchrony Application Key,Primary Synchrony Account Info,Primary Synchrony Term,Second Payment Balance,Second Authorize Number,Second Purchase Order Number,Second Synchrony Account Number,Second Synchrony Application Key,Second Synchrony Account Info,Second SynchronyTerm,Third Payment Balance,Third Authorize Number,Third Purchase Order Number,Third Synchrony Account Number,Third Synchrony Application Key,Third Synchrony Account Info,Third Synchrony Term
Primm Valley Resort DEMO 12/27/18-1/2/19 Las Vegas (NV),Primm Valley Resort DEMO 12/27/18-1/2/19 Las Vegas (NV),May Kam,113743,12/28/2018 8:01:50 AM,Mr & Mrs Chan Thol Pong,CA,90706,Legacy,Demo Choco,Demo,1,0.00,3400.00,3400.00,CreditCard,COD,CreditCard,"3 years parts, 1 year labor (Free)","Legacy,Tourmaline Pad for Legacy,",No,,Called,,"Pls see attached payment plan form, thanks","12/28Maritza Confirmed 100 on square.
//Confirmed LAYAWAY form . ***COD $1,900** Layaway $1,400 for 10mnths** emailed layaway form to Cristina -12/28/18 Hitomi",CA,1,8.25,DWA-9100DWA-9100BU-DEMO,100.00,#Wz4e,,,,,,1900.00,,,,,,,1400.00,Monthly $140,,,,,
Primm Valley Resort DEMO 12/27/18-1/2/19 Las Vegas (NV),Primm Valley Resort DEMO 12/27/18-1/2/19 Las Vegas (NV),Kohei Uno,113748,12/28/2018 2:00:43 PM,Eric Reyes,CA,92307,Majesty,New Choco,New,1,0.00,2500.00,2500.00,CreditCard,,,"3 years parts, 1 year labor (Free)","Majesty,",No,1/2/2019 12:00:00 AM,Delivered,New,,"Confirmed $2,500 in Square. 12/28/19 Hitomi",CA,1,8.25,MAJ-1010MAJ-1010-BR,2500.00,Square# SAeb,,,,,,0.00,,,,,,,0.00,,,,,,
Primm Valley Resort DEMO 12/27/18-1/2/19 Las Vegas (NV),Primm Valley Resort DEMO 12/27/18-1/2/19 Las Vegas (NV),May Kam,113758,12/28/2018 8:01:12 PM,Mr & Mrs Delrick Ingram,CA,90250,Relax2Zero 3D,Demo Black,Demo,1,0.00,3450.00,3450.00,Synchrony,,,"3 years parts, 1 year labor (Free)","Relax2Zero 3D,Tourmaline Pad for Relax2Zero 3D,",No,,Scheduled,,"Special discount , manager approval . Pls make finance purchase $3450, thanks","Confirmed synchlony approved $5,000 and original invoice and application form.***please charge $3,450 before delivery and have sales draft signed.*** 12/31/2018 Asumi",CA,1,8.25,DWA-9060USJ-9060BL-DEMO,3450.00,,,6019170813315360,99090358,Las Vegas,36 months,0.00,,,,,,,0.00,,,,,,
Primm Valley Resort DEMO 12/27/18-1/2/19 Las Vegas (NV),Primm Valley Resort DEMO 12/27/18-1/2/19 Las Vegas (NV),Kohei Uno,113774,12/30/2018 12:59:14 PM,Carlos Lemus,CA,90650,Legacy 3D,New Choco,New,1,0.00,4000.00,4000.00,Synchrony,,,"5 years parts, 1 year labor (Free)","Legacy 3D,",No,1/2/2019 12:00:00 AM,Delivered,New,,"Confirmed synchlony approved $6.500 and original invoice and application form.***please charge $4,000 before delivery and have sales draft signed.*** 12/31/2019 Asumi
1/2Maritza- Due to no reply. I have refunded the synchrony account. No chair will be delivered. Will contact sales rep. Customer called after I refunded the money. We will deliver the chair and I will charge account tomorrow
1/3Delivery confirmation received. Waiting on sales draft",CA,1,8.25,DWA-9150USJ-9150CH,4000.00,,,6019170813318257,99156897,Las Vegas,24 months,0.00,,,,,,,0.00,,,,,,
Primm Valley Resort DEMO 12/27/18-1/2/19 Las Vegas (NV),Primm Valley Resort DEMO 12/27/18-1/2/19 Las Vegas (NV),Kohei Uno,113786,12/30/2018 4:56:36 PM,Simon Tran,CA,92683,Legacy 3D,New Choco,New,1,0.00,4000.00,4000.00,Synchrony,,,"3 years parts, 2 years labor ($200)","Legacy 3D,",No,,Scheduled,,***Please pick up customer's old chair***,"Customer is requesting delivery on Saturday.
Confirmed synchlony approved $6,000 under TIEN HUA (wife. confirmed w/Kohei)  and original invoice and application form.***please charge $4,000  before delivery and have sales draft signed by TIEN HUA.*** 12/31/2019 Asumi",CA,1,8.25,DWA-9150USJ-9150CH,4000.00,,,6019170813319107,99169738,Las Vegas,36 months,0.00,,,,,,,0.00,,,,,,
Primm Valley Resort DEMO 12/27/18-1/2/19 Las Vegas (NV),Primm Valley Resort DEMO 12/27/18-1/2/19 Las Vegas (NV),May Kam,113787,12/30/2018 10:11:35 PM,Mr Tejal Patel,CA,95377,Relax2Zero 3D,Demo Choco,Demo,1,0.00,3150.00,3150.00,CreditCard,COD,,"5 years parts, 1 year labor (Free)","Relax2Zero 3D,Tourmaline Pad for Relax2Zero 3D,",No,,Called,,"Special discount for one time payment, manager approval .","Confirmed payment by square -***COD$3,000*** -- 12/31/2018 Asumi",CA,1,8.25,DWA-9060USJ-9060BR-DEMO,150.00,#JhqH,,,,,,3000.00,,,,,,,0.00,,,,,,
Primm Valley Resort DEMO 12/27/18-1/2/19 Las Vegas (NV),Primm Valley Resort DEMO 12/27/18-1/2/19 Las Vegas (NV),May Kam,113788,12/30/2018 10:24:21 PM,Mr & Mrs Jaymie Soriano,HI,96797,Relax2Zero 3D,New Black,New,1,0.00,4300.00,4300.00,CreditCard,CreditCard,,"5 years parts, 1 year labor (Free)","Relax2Zero 3D,Chair Pad for Relax2Zero 3D,",No,1/2/2019 12:00:00 AM,Paid,New,"Special discount for one time payment , manager approval .  Requested delivery On Tuesday , Thanks","Confirmed payment ($100) by square **COD$4,200** --- 12/31/2018 Asumi
//Per.Anna, they will pick up the chair from the warehouse on 01/02/2019 and pay the balance at the same time.--1/2/19 Hitomi

***Customer picked up chair and paid off balance of $4200 on 01/02/2019. Emailed Hitomi details**** AS
S# 0103001180578",HI,1,8.25,DWA-9060USJ-9060BL,100.00,#5jOg,,,,,,4200.00,09169B,,,,,,0.00,,,,,,
Primm Valley Resort DEMO 12/27/18-1/2/19 Las Vegas (NV),Primm Valley Resort DEMO 12/27/18-1/2/19 Las Vegas (NV),May Kam,113790,12/30/2018 11:30:42 PM,Mr Glenn Paranaque,MB,R2R 2S9,Relax2Zero 3D,New Choco,New,1,0.00,4000.00,4000.00,CreditCard,CreditCard,,3 Years Parts (International),"Relax2Zero 3D,Tourmaline Pad for Relax2Zero 3D,",No,,Hold,,"Special discount for Canada customer. Manager approval .Pls Hold about a few month for shipping, the customer will call us . Before shipping, will pay balance.","Another phone : 2046979478
//COnfirmed $100.00 in Square. Remaining $3,900. place on hold till customer contacts us  12/31/18 Hitomi",CA,1,8.25,DWA-9060USJ-9060BR,100.00,#4PSf,,,,,,3900.00,Before shipping,,,,,,0.00,,,,,,
Primm Valley Resort DEMO 12/27/18-1/2/19 Las Vegas (NV),Primm Valley Resort DEMO 12/27/18-1/2/19 Las Vegas (NV),Kohei Uno,113814,1/1/2019 6:27:40 PM,Kenn Arakawa,HI,96720,Relax2Zero 3D,New Choco,New,1,0.00,4600.00,4600.00,Synchrony,,,"3 years parts, 1 year labor (Free)","Relax2Zero 3D,Tourmaline Pad for Relax2Zero 3D,",No,,Hold,,***Multiple chair discount***,"Confirmed $6,500 on synchlony and confirmed original invoice and application form.***please charge $4,600 before delivery and have sales draft signed.*** 1/2/2019 Asumi
//sent email to HI if they can deliver. 1/2/19 Hitomi
1/3/19 - Anna informed that we need to charge $800 more to ship to other island. Asked Kohei to contact the customer. Place on hold until we charge shipping fee--Hitomi",HI,1,8.25,DWA-9060USJ-9060BR,4600.00,,,6019170813320501,99225990,Las Vegas,36 months,0.00,,,,,,,0.00,,,,,,
Primm Valley Resort DEMO 12/27/18-1/2/19 Las Vegas (NV),Primm Valley Resort DEMO 12/27/18-1/2/19 Las Vegas (NV),May Kam,113826,1/2/2019 5:23:58 PM,Mr & Mrs Huang Cheng Dong,CA,91702,Relax2Zero 3D,New Black,New,1,0.00,3600.00,3600.00,Cash,COD,,"3 years parts, 1 year labor (Free)","Relax2Zero 3D,Tourmaline Pad for Relax2Zero 3D,",No,,Called,,"Special discount for one time payment
Another phone is 6272153310","will confirm cash. ***COD $3,500*** 1/3/19 Hitomi",CA,1,8.25,DWA-9060USJ-9060BL,100.00,,,,,,,3500.00,,,,,,,0.00,,,,,,
Primm Valley Resort DEMO 12/27/18-1/2/19 Las Vegas (NV),Primm Valley Resort DEMO 12/27/18-1/2/19 Las Vegas (NV),May Kam,113827,1/2/2019 5:56:53 PM,Mr Walter S Aguirre,CA,93117,Relax2Zero 3D,Demo Black,Demo,1,0.00,3550.00,3550.00,CreditCard,COD,,"3 years parts, 1 year labor (Free)","Relax2Zero 3D,Tourmaline Pad for Relax2Zero 3D,",No,,Called,,"Special discount for one time payment, manager approval .","Confirmed $100.00 in Square. ***COD $3,450*** 1/3/19 Hitomi",CA,1,8.25,DWA-9060USJ-9060BL-DEMO,100.00,#M5CB,,,,,,3450.00,,,,,,,0.00,,,,,,
Primm Valley Resort DEMO 12/27/18-1/2/19 Las Vegas (NV),Primm Valley Resort DEMO 12/27/18-1/2/19 Las Vegas (NV),May Kam,113828,1/2/2019 6:14:23 PM,Mrs Leilani Cruv,CA,92592,Relax2Zero 3D,Demo Choco,Demo,1,0.00,3550.00,3550.00,CreditCard,COD,CreditCard,"3 years parts, 1 year labor (Free)","Relax2Zero 3D,Tourmaline Pad for Relax2Zero 3D,",No,,Hold,,Special discount for payment plan . Hold about 2 month delivery . Payment form already gave the customer.Thanks,"Another phone is 9515067434
//Confirmed $100 in Square. ***COD$1,900**LAYAWAY$1,550*** Layaway form has not been filled out yet,place on hold 1/3/19 Hitomi",CA,1,8.25,DWA-9060USJ-9060BR-DEMO,100.00,#eYEN,,,,,,1900.00,,,,,,,1550.00,Monthly payment,,,,,
Primm Valley Resort DEMO 12/27/18-1/2/19 Las Vegas (NV),Primm Valley Resort DEMO 12/27/18-1/2/19 Las Vegas (NV),May Kam,113829,1/2/2019 6:36:37 PM,Mr & Mrs Cindy Jimenez,CA,93536,Relax2Zero 3D,Demo Choco,Demo,1,0.00,3500.00,3500.00,Cash,COD,CreditCard,"3 years parts, 1 year labor (Free)","Relax2Zero 3D,Tourmaline Pad for Relax2Zero 3D,",No,,Hold,,"Special discount for monthly payment, hold about a few month for delivery , thanks","will confirm cash . ***COD$1,900**LAYAWAY$1,500*** Layaway form has not been filled out yet,place on hold 1/3/19 Hitomi",CA,1,8.25,DWA-9060USJ-9060BR-DEMO,100.00,,,,,,,1900.00,,,,,,,1500.00,Monthly payment,,,,,
Primm Valley Resort DEMO 12/27/18-1/2/19 Las Vegas (NV),Primm Valley Resort DEMO 12/27/18-1/2/19 Las Vegas (NV),May Kam,113832,1/3/2019 7:19:23 AM,Mr Joseph Jerome,CA,95842,Relax2Zero 3D,Demo Choco,Demo,1,0.00,3550.00,3550.00,CreditCard,COD,CreditCard,"5 years parts, 1 year labor (Free)","Relax2Zero 3D,",No,,Called,,"For payment plan , The customer wants to use Canada Credit card , if we can’t charge , pls ask to change USA credit card, before delivery. Thanks","Confirmed $200 in Square. ***COD $1,800** Layaway $1,550.***Confirmed Layaway form. Layaway form is sent to Cristina via email .*Please hand delivery confirmation to Cristina*1/3/19 Hitomi",CA,1,8.25,DWA-9060USJ-9060BR-DEMO,200.00,#ScdD,,,,,,1800.00,,,,,,,1550.00,Monthly payment,,,,,
Primm Valley Resort DEMO 12/27/18-1/2/19 Las Vegas (NV),Primm Valley Resort DEMO 12/27/18-1/2/19 Las Vegas (NV),May Kam,113833,1/3/2019 7:37:39 AM,Mr & Mrs Jim Jenny Epley,NV,89130,Relax2Zero 3D,Demo Choco,Demo,1,0.00,3500.00,3500.00,CreditCard,COD,CreditCard,"3 years parts, 1 year labor (Free)","Relax2Zero 3D,Tourmaline Pad for Relax2Zero 3D,",No,,New,,Special discount for payment plan,"Confirmed $100 in Square. **COD$1,900**Layaway $1,500** Confirmed Layaway form. Layaway form is sent to Cristina via email .*Please hand delivery confirmation to Cristina* -1/3/19 Hitomi",NV,1,8.25,DWA-9060USJ-9060BR-DEMO,100.00,#CHyR,,,,,,1900.00,,,,,,,1500.00,Monthly payment,,,,,
Primm Valley Resort DEMO 12/27/18-1/2/19 Las Vegas (NV),Primm Valley Resort DEMO 12/27/18-1/2/19 Las Vegas (NV),May Kam,113837,1/3/2019 9:43:47 AM,Mr Ricky Nakamura,HI,96720,Relax2Zero 3D,New Choco,New,1,0.00,4600.00,4600.00,Synchrony,,,"3 years parts, 1 year labor (Free)","Relax2Zero 3D,",No,,New,,Special discount for one family bought two chairs (Mr Kenn Arakawa),"Confirmed  synchrony approved $8,500 and original invoice and application form. Please charge  &4,600 before delivery and sales draft signed. --- 1/3/2019 Asumi
//sent email to HI branch if they can deliver this chair as it is. 1/3/18 @12:17 PM Hitomi",HI,1,8.25,DWA-9060USJ-9060BR,4600.00,,,6019170813322481,99295886,Las Vegas,36 months,0.00,,,,,,,0.00,,,,,,
Primm Valley Resort DEMO 12/27/18-1/2/19 Las Vegas (NV),Primm Valley Resort DEMO 12/27/18-1/2/19 Las Vegas (NV),May Kam,113838,1/3/2019 10:22:46 AM,Mr Miguel Tapia,CA,90502,Relax2Zero 3D,Demo Black,Demo,1,0.00,3735.00,3735.00,Synchrony,,,"3 years parts, 1 year labor (Free)","Tourmaline Pad for Relax2Zero 3D,Relax2Zero 3D,",No,,Called,,"Special discount , manager approval ; Pls make finance $ 3735 purchase, thanks","Confirmed synchlony approved $6,500 and original invoice and application form. ***please charge $3,735 before delivery and have sales draft signed.*** 1/3/2019 Asumi",CA,1,8.25,DWA-9060USJ-9060BL-DEMO,3735.00,,,6019170813322556,99297541,Las Vegas,36 months,0.00,,,,,,,0.00,,,,,,
Primm Valley Resort DEMO 12/27/18-1/2/19 Las Vegas (NV),Primm Valley Resort DEMO 12/27/18-1/2/19 Las Vegas (NV),May Kam,113866,1/3/2019 8:57:08 PM,Mr Godfrey Bolano,CA,92563,Relax2Zero 3D,Demo Choco,Demo,1,0.00,3500.00,3500.00,Synchrony,,,"3 years parts, 1 year labor (Free)","Relax2Zero 3D,",No,,Called,,"Special discount for 24 month Finance. Pls make  $3500 purchase, Thanks","Confirmed synchrony approved $3,500 original invoice and application form. Please charge $3,500 before delivery and have sales draft signed. 1/4/2019 Asumi",CA,1,8.25,DWA-9060USJ-9060BR-DEMO,3500.00,,,6019170813323513,99327151,Las Vegas,24 months,0.00,,,,,,,0.00,,,,,,
Primm Valley Resort DEMO 12/27/18-1/2/19 Las Vegas (NV),Primm Valley Resort DEMO 12/27/18-1/2/19 Las Vegas (NV),May Kam,113867,1/3/2019 9:08:30 PM,Charles & Jayce Brooks,NV,89031,Relax2Zero 3D,Demo Black,Demo,1,0.00,3550.00,3550.00,Cash,COD,CreditCard,"3 years parts, 1 year labor (Free)","Relax2Zero 3D,",No,,Hold,,"Special discount for Payment plan. hold price about to Aug 2019, thanks",will confirm cash. Layaway form has not been received. Place on hold - 1/4/19 Hitomi,NV,1,8.25,DWA-9060USJ-9060BL-DEMO,50.00,,,,,,,1950.00,,,,,,,1550.00,Monthly payment,,,,,
