﻿Date,Customer Name,State,Zipcode,Description,Product Number,Color,Product Status,Net,Shipping Fee,Gift Price,Financing Processing Fee,Order Total,Total Before Tax,Tax,Commission,Primary Payment Method,Primary Payment Balance,Primary Authorize Number,Primary Purchase Order Number,Primary Synchrony Account Number,Primary Synchrony Application Key,Primary Synchrony Account Info,Primary Synchrony Term,Second Payment Method,Second Payment Balance,Second Authorize Number,Second Purchase Order Number,Second Synchrony Account Number,Second Synchrony Application Key,Second Synchrony Account Info,Second Synchrony Term,Third Payment Method,Third Payment Balance,Third Authorize Number,Third Purchase Order Number,Third Synchrony Account Number,Third Synchrony Application Key,Third Synchrony Account Info,Third Synchrony Term,Delivery Date,Pick up,Warranty,Status,Original Event Name,Event Name,Synchrony Notes,Order Notes,Order Number,Private Note,Branch,No Tax,Actual Tax Rate
7/14/2018 8:58:51 PM,Judith Wolfe,AZ,85282,Relax2Zero 1.0,USJ-9000USJ-9000KU-DEMO,Demo Black,Demo,,,,,3600.00,3600.00,0.00,Kohei Uno,Synchrony,3600.00,,,6019170813032403,91639305,Las Vegas,36 months,,0.00,,,,,,,,0.00,,,,,,,8/2/2018 12:00:00 AM,YES,"3 years parts, 1 year labor (Free)",Delivered,"SUMMER HM&GD (MARICOPA) 7/13-15/18 PHOENIX,AZ (NV)","SUMMER HM&GD (MARICOPA) 7/13-15/18 PHOENIX,AZ (NV)","Authorization # 027547
Confirmed $3,600/36 months/Auth#027547 on Synchrony LV. 9/13/18 Riho",,107428,"Confirmed synchrony account ($5,500) and original.talked to Kohei and said it changed to DELIVERY. ***Please charge before delivery and have sales draft signed.***7/16/18 Hitomi
7/17Maritza Courtesy call @ 1:50PM I have also sent out a request for chair pickups from GTZ from California to Nevada. Nevada should receive by 7/20.
07/24- Re- Dispatched to CA - sched 08/01-03-Cristina
7/24PRINTED",CA,1,9.20
7/14/2018 9:46:47 PM,Steve Norseth,AZ,85395,Relax2Zero 3D,DWA-9060USJ-9060BL-DEMO,Demo Black,Demo,,,,,3800.00,3800.00,0.00,Kohei Uno,CreditCard,3800.00,#JnLH,,,,,,,0.00,,,,,,,,0.00,,,,,,,7/15/2018 12:00:00 AM,YES,"3 years parts, 1 year labor (Free)",Delivered,"SUMMER HM&GD (MARICOPA) 7/13-15/18 PHOENIX,AZ (NV)","SUMMER HM&GD (MARICOPA) 7/13-15/18 PHOENIX,AZ (NV)",,,107429,"Confirmed $3,800 in Square. received pickup conf. 7/16/18 Hitomi",NV,1,9.20
7/14/2018 9:52:27 PM,Martin Castro,AZ,85338,Relax2Zero 3D,DWA-9060USJ-9060BL,New Black,New,,,,,4500.00,4500.00,0.00,Kohei Uno,Synchrony,4500.00,,,6019170813032882,91647159,Las Vegas,36 months,,0.00,,,,,,,,0.00,,,,,,,8/12/2018 12:00:00 AM,No,"3 years parts, 1 year labor (Free)",Delivered,"SUMMER HM&GD (MARICOPA) 7/13-15/18 PHOENIX,AZ (NV)","SUMMER HM&GD (MARICOPA) 7/13-15/18 PHOENIX,AZ (NV)",,,107430,"Confirmed synchrony account($8,500) and original. ***Please charge before delivery and have sales draft signed. *** 7/16/18 Hitomi
7/17Maritza Courtesy call @ 3:25PM
7/24PRINTED
07/24- Re- Dispatched to CA - sched 08/01-03-Cristina
7/26Maritza tried to schedule for CA trip to AZ but will be on vacation. NV deliver ASAP Re-Dispatched
8/8 Kohei charged synchrony account auth code#	008117",NV,1,9.20
7/14/2018 9:57:42 PM,Nancy O’Neil,CA,95640,Relax2Zero 3D,DWA-9060USJ-9060BL,New Black,New,,,,,4200.00,4200.00,0.00,Joseph Chan,Cash,200.00,,,,,,,COD,4000.00,,,,,,,,0.00,,,,,,,,No,"3 years parts, 1 year labor (Free)",Called,"SUMMER HM&GD (MARICOPA) 7/13-15/18 PHOENIX,AZ (NV)","SUMMER HM&GD (MARICOPA) 7/13-15/18 PHOENIX,AZ (NV)",,,107431,"Will confirm the cash $200 with Joseph. 7/16/18 Riho/ PRINTED
Per Joseph, the customer will be away for another 2-3 weeks.///Yumi received $200 cash. 7/16/18 Hitomi7/23 Maritza Spoke to customer hold until October.
9/28Maritza Spoke with customer to schedule her for first week of October. She is thinking about getting a vending chair instead for her business. Hold until November. Joseph is aware.",CA,1,9.20
7/14/2018 10:04:29 PM,Yolly Wright,AZ,85335,Relax2Zero 1.0,USJ-9000USJ-9000CR-DEMO,Demo Beige,Demo,,,,,3300.00,3300.00,0.00,Joseph Chan,CreditCard,300.00,#ZJCD,,,,,,COD,3000.00,,,,,,,,0.00,,,,,,,9/6/2018 12:00:00 AM,No,"3 years parts, 1 year labor (Free)",Delivered,"SUMMER HM&GD (MARICOPA) 7/13-15/18 PHOENIX,AZ (NV)","SUMMER HM&GD (MARICOPA) 7/13-15/18 PHOENIX,AZ (NV)",,,107432,"7/16Maritza Confirmed 300 on square. Remaining COD $3000
7/16Maritza Courtesy call @ 2:41PM SHE WANTS HER DELIVERY LATE AUGUST EARLY SEPTEMBER. CHANGE COLOR TO BROWN NOT BEIGE!!!",NV,1,9.20
7/14/2018 10:10:42 PM,Kenny Lessard,AZ,85326,Relax2Zero 3D,DWA-9060USJ-9060BL,New Black,New,,,,,4300.00,4300.00,0.00,Joseph Chan,Synchrony,4300.00,,,6019170813031991,91633340,Las Vegas,36 months,,0.00,,,,,,,,0.00,,,,,,,8/2/2018 12:00:00 AM,No,"3 years parts, 1 year labor (Free)",Delivered,"SUMMER HM&GD (MARICOPA) 7/13-15/18 PHOENIX,AZ (NV)","SUMMER HM&GD (MARICOPA) 7/13-15/18 PHOENIX,AZ (NV)","Authorization # 027617
Confirmed $4,300/36 months on Synchrony LV. 8/20/18 Riho",,107433,"Confirmed synchrony account ($5,400) and original.***Please charge before delivery and have sales draft signed.***  7/16/18 Hitomi
7/16Maritza Courtesy call @ 3:07PM
7/24PRINTED
07/24- Re- Dispatched to CA - sched 08/01-03-Cristina",CA,1,9.20
7/14/2018 10:15:51 PM,David Roberts,AZ,85086,Relax2Zero 3D,DWA-9060USJ-9060BR-DEMO,Demo Choco,Demo,,,,,4000.00,4000.00,0.00,Kohei Uno,CreditCard,4000.00,#i2mD,,,,,,,0.00,,,,,,,,0.00,,,,,,,8/1/2018 12:00:00 AM,No,"3 years parts, 1 year labor (Free)",Delivered,"SUMMER HM&GD (MARICOPA) 7/13-15/18 PHOENIX,AZ (NV)","SUMMER HM&GD (MARICOPA) 7/13-15/18 PHOENIX,AZ (NV)",,,107434,"7/16Maritza Confirmed 4000 on square. Fully Paid
7/16Maritza courtesy call @ 3:05PM
07/24- Re- Dispatched to CA - sched 08/01-03-Cristina
7/24PRINTED",CA,1,9.20
7/14/2018 10:22:41 PM,Vicki Sarti,AZ,85379,Relax2Zero 3D,DWA-9060USJ-9060BR,New Choco,New,,,,,4300.00,4300.00,0.00,Kohei Uno,CreditCard,2150.00,#WWYb,,,,,,Synchrony,2150.00,,,6019170813032205,91636656,Las Vegas,36 months,,0.00,,,,,,,8/1/2018 12:00:00 AM,No,"3 years parts, 1 year labor (Free)",Delivered,"SUMMER HM&GD (MARICOPA) 7/13-15/18 PHOENIX,AZ (NV)","SUMMER HM&GD (MARICOPA) 7/13-15/18 PHOENIX,AZ (NV)","Authorization # 027610
Confirmed $2150/36 months on Synchrony LV. 8/20/18 Riho",,107435,"7/16 Confirmed 2150 on Square. Please charge remaining balance of 2150 to their synchrony account(8500). Please Check original forms.///original synchrony needs to have signature. will mail NV to have sign upon the delivery. talked to Kohei . 7/16/18 Hitomi-//USPS Tracking#-9114 9014 9645 1246 9777 99 -7/18/18 Hitomi
7/18Maritza Courtesy call @ 9:53AM
07/24- Re- Dispatched to CA - sched 08/01-03-Cristina
7/24PRINTED",CA,1,9.20
7/15/2018 4:22:38 PM,Jay Miller,AZ,85375,Relax2Zero 3D,DWA-9060USJ-9060BR-DEMO,Demo Choco,Demo,,,,,4200.00,4200.00,0.00,Kohei Uno,CreditCard,4200.00,#EvoN,,,,,,,0.00,,,,,,,,0.00,,,,,,,8/1/2018 12:00:00 AM,No,"3 years parts, 1 year labor (Free)",Delivered,"SUMMER HM&GD (MARICOPA) 7/13-15/18 PHOENIX,AZ (NV)","SUMMER HM&GD (MARICOPA) 7/13-15/18 PHOENIX,AZ (NV)",,,107461,"7/16Maritza Confirmed 4200 on square. Fully Paid.
7/17Maritza courtesy call @ 2:26PM
07/24- Re- Dispatched to CA - sched 08/01-03-Cristina
7/24PRINTED",CA,1,9.20
7/15/2018 4:26:14 PM,Billy Brownlow,AZ,85351,Relax2Zero 1.0,USJ-9000USJ-9000BR,New Brown,New,,,,,4200.00,4200.00,0.00,Joseph Chan,Synchrony,4200.00,,,6019170813034128,91669380,Las Vegas,36 months,,0.00,,,,,,,,0.00,,,,,,,,No,"3 years parts, 1 year labor (Free)",Cancelled,"SUMMER HM&GD (MARICOPA) 7/13-15/18 PHOENIX,AZ (NV)","SUMMER HM&GD (MARICOPA) 7/13-15/18 PHOENIX,AZ (NV)",,,107462,"Confirmed synchrony account ($8,500) and original .***Please charge before delivery and have sales draft signed. ***  7/16/18 Hitomi
7/18Maritza Courtesy call @ 8:49AM
Per Joseph, this order had been cancelled on 7/23/18, Synchrony had not been charged yet. 7/23/18 Riho",NV,1,9.20
7/17/2018 9:05:59 AM,Dinah Lee,AZ,85041,Legacy 3D,DWA-9150USJ-9150CH-DEMO,Demo Choco,Demo,,,,,3950.00,3950.00,0.00,David Wang,Synchrony,3950.00,,,6019170813031934,91632675,Las Vegas,36 months,,0.00,,,,,,,,0.00,,,,,,,7/15/2018 12:00:00 AM,YES,"3 years parts, 1 year labor (Free)",Delivered,"SUMMER HM&GD (MARICOPA) 7/13-15/18 PHOENIX,AZ (NV)","SUMMER HM&GD (MARICOPA) 7/13-15/18 PHOENIX,AZ (NV)","Confirmed $3950.00 charged for 36 months.
Authorization Number:	014440. will confirm sales draft. 7/16/18 Hitomi
sent email to customer about sales draft @7/17/18 12:55PPM - Hitomi 
Received signed sales draft back. 7/19/18 Hitomi",,107539,correction for 107456///customer picked it up on July 15th after the show.Serial number is 0202002181069.///received delivery pick up conf. 7/16/18 Hitomi,NV,1,9.20
7/17/2018 9:14:07 AM,Christopher Crewell,AZ,85193,Legacy,DWA-9100DWA-9100SI-DEMO,Demo Sienna,Demo,,,,,3300.00,3300.00,0.00,David Wang,Synchrony,3300.00,,,6019170813033450,91660751,Las Vegas,36 months,,0.00,,,,,,,,0.00,,,,,,,7/15/2018 12:00:00 AM,YES,"3 years parts, 1 year labor (Free)",Delivered,"SUMMER HM&GD (MARICOPA) 7/13-15/18 PHOENIX,AZ (NV)","SUMMER HM&GD (MARICOPA) 7/13-15/18 PHOENIX,AZ (NV)","Confirmed $3300 was 36 months. 
Authorization Number:	015037
will confirm sales draft. 7/16/18 Hitomi
sent email to customer about sales draft @7/17/18 1:07PM -Hitomi",,107540,correction for 107457/// Customer picked it up on JULY 15 after the show. The serial number is 91154505///will confirm delivery  confirmation 7/16/18 Hitomi//received pickup conf.7/16/18 Hitomi,NV,1,9.20
7/17/2018 9:23:51 AM,Sherry Davis,AZ,85353,Legacy,DWA-9100DWA-9100BU-DEMO,Demo Choco,Demo,,,,,3906.00,3906.00,0.00,Kaz Ohashi,Synchrony,3906.00,,,6019170813032874,91646654,Las Vegas,36 months,,0.00,,,,,,,,0.00,,,,,,,7/15/2018 12:00:00 AM,YES,"3 years parts, 1 year labor (Free)",Delivered,"SUMMER HM&GD (MARICOPA) 7/13-15/18 PHOENIX,AZ (NV)","SUMMER HM&GD (MARICOPA) 7/13-15/18 PHOENIX,AZ (NV)","$3906 was charged for 36 months. 
Authorization Number:	015578
will confirm sales draft. 7/16/18 Hitomi
sent email to customer about sales draft @ 7/17/18 1:21PM - Hitomi",,107542,CORRECTION FOR 107458///customer email :msdr28@yahoo.com ///confirmed synchrony account and original.  received pickup confirmation. 7/16/18 Hitomi,NV,1,9.20
7/18/2018 5:16:15 PM,Kevin Graddy,AZ,85085,Legacy,DWA-9100DWA-9100BL-DEMO,Demo Black,Demo,,,,,3822.00,3580.04,241.96,Kohei Uno,Synchrony,3822.00,,,6019170813038517,91810839,Las Vegas,24 months,,0.00,,,,,,,,0.00,,,,,,,8/2/2018 12:00:00 AM,No,"3 years parts, 1 year labor (Free)",Delivered,"SUMMER HM&GD (MARICOPA) 7/13-15/18 PHOENIX,AZ (NV)","SUMMER HM&GD (MARICOPA) 7/13-15/18 PHOENIX,AZ (NV)","Authorization # 027285
Confirmed $3,822/24 months on Synchrony LV. 8/20/18 Riho",*****2nd Floor Delivery*****,107593,"Confirmed synchrony account ($4,800) and original. ***Please charge before delivery and have sales draft signed.***7/18/18 Hitomi
7/19Maritza Courtesy call @ 9:31AM
07/24- Re- Dispatched to CA - sched 08/01-03-Cristina
7/24PRINTED",CA,0,9.20
