﻿Date,Customer Name,State,Zipcode,Description,Product Number,Color,Product Status,Net,Shipping Fee,Gift Price,Financing Processing Fee,Order Total,Total Before Tax,Tax,Commission,Primary Payment Method,Primary Payment Balance,Primary Authorize Number,Primary Purchase Order Number,Primary Synchrony Account Number,Primary Synchrony Application Key,Primary Synchrony Account Info,Primary Synchrony Term,Second Payment Method,Second Payment Balance,Second Authorize Number,Second Purchase Order Number,Second Synchrony Account Number,Second Synchrony Application Key,Second Synchrony Account Info,Second Synchrony Term,Third Payment Method,Third Payment Balance,Third Authorize Number,Third Purchase Order Number,Third Synchrony Account Number,Third Synchrony Application Key,Third Synchrony Account Info,Third Synchrony Term,Delivery Date,Pick up,Warranty,Status,Chair Type,Original Event Name,Event Name,Synchrony Notes,Order Notes,Order Number,Private Note,Branch,No Tax,Actual Tax Rate
2/8/2018 3:56:42 PM,GREGORY Williams,NY,13329,Relax2Zero 3D,DWA-9060USJ-9060BL,Black,New,,,,,4000.00,4000.00,0.00,Ruben Cuatrona,Synchrony,4000.00,,,6034610083088743,84700237,Las Vegas,36 months,,0.00,,,,,,,,0.00,,,,,,,4/3/2018 12:00:00 AM,No,"3 years parts, 1 year labor (Free)",Delivered,,Florida State Fair 2/8-19/18 (FL),Florida State Fair 2/8-19/18 (FL),Confirmed transaction $4000/36 months/Auth#027641 in Synchrony LV. 4/25/18 Riho,,103544,"Synchrony  was approved for $8500 charge before delivery
Deliver week of March 12th -17th - Stephany
confirm  the account in Synchrony. 2/9/18 Hitomi",TX,1,7.00
2/8/2018 5:23:02 PM,GAIL Evans,FL,33543,Legacy 3D,DWA-9150USJ-9150CH,Choco Brown,New,,,,,3900.00,3900.00,0.00,Ruben Cuatrona,Synchrony,3900.00,,,6034610083088958,84705346,Las Vegas,36 months,,0.00,,,,,,,,0.00,,,,,,,2/22/2018 12:00:00 AM,No,"3 years parts, 1 year labor (Free)",Delivered,,Florida State Fair 2/8-19/18 (FL),Florida State Fair 2/8-19/18 (FL),,,103546,"Warranty promo (5 yrs parts, 1yr labor) 
Synchrony approved $6000 , pls charge before delivery - Stephany
confirmed the account in Synchrony. account is under GAIL B EUANS. 2/9/18 Hitomi
AUTH # 022194 (2/22 maggie)",FL,1,7.00
2/9/2018 7:21:36 AM,Leroy Felt,FL,33556,Pegasus,DWA-9400Pegasus-BL,Black,New,,,,,4900.00,4900.00,0.00,Ruben Cuatrona,CreditCard,2000.00,WUa6,,,,,,Cash,2900.00,,,,,,,,0.00,,,,,,,2/12/2018 12:00:00 AM,No,"3 years parts, 1 year labor (Free)",Delivered,,Florida State Fair 2/8-19/18 (FL),Florida State Fair 2/8-19/18 (FL),,,103548,"Pls delivery by next week Monday bday gift 
COD 2900
Pls push call button upon delivery *gated community
confirmed the $2,000 in Square. 2/9/18 Hitomi

CASH RECEIVED BY MITCH 2/13 - emailed to cristina & hitomi 2/13 - Maggie",FL,1,7.00
2/9/2018 7:28:00 AM,William Baker,FL,34212,Legacy 3D,DWA-9150USJ-9150CH,Choco Brown,New,,,,,4000.00,4000.00,0.00,Robert Shih,CreditCard,4000.00,FPBd,,,,,,,0.00,,,,,,,,0.00,,,,,,,,No,"3 years parts, 1 year labor (Free)",Cancelled,,Florida State Fair 2/8-19/18 (FL),Florida State Fair 2/8-19/18 (FL),,,103549,"confirmed $4,000 in Square. 2/9/18 Hitomi
Revised to #103556 under correct event name. 2/9/18 Hitomi",Not Dispatched,1,7.00
2/9/2018 11:11:53 AM,Narayan Viswanadhan,FL,33647,Legacy 3D,DWA-9150USJ-9150CH,Choco Brown,New,,,,,3500.00,3500.00,0.00,Robert Shih,CreditCard,3500.00,p6DQ,,,,,,,0.00,,,,,,,,0.00,,,,,,,2/16/2018 12:00:00 AM,No,"3 years parts, 1 year labor (Free)",Delivered,,Florida State Fair 2/8-19/18 (FL),Florida State Fair 2/8-19/18 (FL),,,103553,"(Demo) please have tech replace right arm *damaged
confirmed $3,500 in Square. 2/9/18 Hitomi",FL,1,7.00
2/9/2018 11:24:02 AM,Stephen Foster,FL,33813,Relax2Zero 3D,DWA-9060USJ-9060BR,Choco Brown,New,,,,,3900.00,3900.00,0.00,Robert Shih,CreditCard,3900.00,Q9Qt,,,,,,,0.00,,,,,,,,0.00,,,,,,,2/16/2018 12:00:00 AM,No,"5 years parts, 1 year labor ($300)",Delivered,,Florida State Fair 2/8-19/18 (FL),Florida State Fair 2/8-19/18 (FL),,,103554,"confirmed $3,900 in Square. 2/9/18 Hitomi",FL,1,7.00
2/9/2018 11:39:04 AM,Marcelo Caruso,FL,33616,Legacy 3D,DWA-9150USJ-9150CH,Choco Brown,New,,,,,3800.00,3800.00,0.00,Ruben Cuatrona,Check,0.00,,,,,,,,0.00,,,,,,,,0.00,,,,,,,,No,"5 years parts, 1 year labor ($300)",Hold,,Florida State Fair 2/8-19/18 (FL),Florida State Fair 2/8-19/18 (FL),,,103555,"Customer will call when he is ready

Previous customer will pay cod with company check upon delivery
Called Hide, and he approved the no deposit deal. 2/12/18 Riho",FL,1,7.00
2/9/2018 5:52:06 PM,Matthew Grimm,FL,34758,Legacy 3D,DWA-9150USJ-9150CH,Choco Brown,New,,,,,4000.00,4000.00,0.00,Jonathan Bhowani,CreditCard,4000.00,1Qkw,,,,,,,0.00,,,,,,,,0.00,,,,,,,2/12/2018 12:00:00 AM,No,"3 years parts, 1 year labor (Free)",Delivered,,Florida State Fair 2/8-19/18 (FL),Florida State Fair 2/8-19/18 (FL),,,103561,"Give (1) lumbar sculptur gift
confirmed $4,000 in Square. 2/12/18 Hitomi",FL,1,7.00
2/11/2018 6:36:51 AM,Janet Rodden,FL,33859,Majesty,DWA-8000DWA-8000-BR,Choco Brown,New,,,,,3900.00,3900.00,0.00,Robert Shih,Synchrony,3900.00,,,6034610083093636,84796193,Las Vegas,36 months,,0.00,,,,,,,,0.00,,,,,,,2/23/2018 12:00:00 AM,No,"5 years parts, 1 year labor ($300)",Delivered,,Florida State Fair 2/8-19/18 (FL),Florida State Fair 2/8-19/18 (FL),,,103589,"confirmed the account in Synchrony.($8,500) *Please charge before delivery.* 2/12/18 Hitomi
Change to legacy 3D
AUTH  # 028494 2/28 MAGGIE",FL,1,7.00
2/11/2018 6:53:49 AM,Dwayne Hall,FL,33570,Legacy 3D,DWA-9150USJ-9150BL,Black,New,,,,,3900.00,3900.00,0.00,Robert Shih,Synchrony,3900.00,,,6034610083090509,84747855,Huston,36 months,,0.00,,,,,,,,0.00,,,,,,,,No,"3 years parts, 1 year labor (Free)",Cancelled,,Florida State Fair 2/8-19/18 (FL),Florida State Fair 2/8-19/18 (FL),,,103591,"confirmed the account in Synchrony.($5,400) *PLease charge before delivery.* 2/12/18 Hitomi
CANCELLED 2/13 -Maggie",FL,1,7.00
2/11/2018 7:56:40 AM,Christie Barber,FL,34231,Relax2Zero 3D,DWA-9060USJ-9060BR,Choco Brown,New,,,,,3900.00,3900.00,0.00,Robert Shih,Synchrony,3900.00,,,6034610083093073,84778798,Las Vegas,36 months,,0.00,,,,,,,,0.00,,,,,,,2/16/2018 12:00:00 AM,No,"3 years parts, 1 year labor (Free)",Delivered,,Florida State Fair 2/8-19/18 (FL),Florida State Fair 2/8-19/18 (FL),,,103593,"confirmed the Synchrony account is under RUSSELL G BARBER($8,500) his wife Per Robert.  *correct Application Key #84787898* **Please charge before delivery.* **2/13/18 Hitomi
AUTH  # 016016",FL,1,7.00
2/11/2018 8:04:37 AM,Carmen Horobet,FL,33578,Legacy 3D,DWA-9150USJ-9150CH-DEMO,Demo Choco Brown,Demo,,,,,3900.00,3900.00,0.00,Ruben Cuatrona,CreditCard,3900.00,CcS0,,,,,,,0.00,,,,,,,,0.00,,,,,,,2/16/2018 12:00:00 AM,No,"3 years parts, 1 year labor (Free)",Delivered,,Florida State Fair 2/8-19/18 (FL),Florida State Fair 2/8-19/18 (FL),,,103594,confirmed $3900 in Square. 2/12/18 Hitomi,FL,1,7.00
2/11/2018 8:15:05 AM,Rebecca Copper,FL,33584,Relax2Zero 3D,DWA-9060USJ-9060BR-DEMO,Demo Choco Brown,Demo,,,,,3900.00,3900.00,0.00,Ruben Cuatrona,CreditCard,100.00,DET5,,,,,,,0.00,,,,,,,,0.00,,,,,,,,No,"3 years parts, 1 year labor (Free)",Called,,Florida State Fair 2/8-19/18 (FL),Florida State Fair 2/8-19/18 (FL),,,103595,"confirmed $100 in Square. 2/15/18 Hitomi
*COD $3800*",FL,1,7.00
2/11/2018 8:29:56 AM,Susan Hirschberg,FL,33765,Majesty,DWA-8000DWA-8000-BL-DEMO,Demo Black,Demo,,,,,3300.00,3300.00,0.00,Ruben Cuatrona,Synchrony,3300.00,,,6034610083094030,84803880,Las Vegas,36 months,,0.00,,,,,,,,0.00,,,,,,,2/28/2018 12:00:00 AM,No,"3 years parts, 1 year labor (Free)",Delivered,,Florida State Fair 2/8-19/18 (FL),Florida State Fair 2/8-19/18 (FL),"Confirmed $3,300/36 months/Auth#001807 on Synchrony LV. 5/15/18 Riho",,103596,"confirmed the account in Synchrony.($8,500) *Please charge before delivery.*2/12/18 Hitomi NEW MASSAGE CHAIR NOT DEMO
02/14/18- Chair transferred to FL
AUTH # 001807 3/1 MAGGIE",FL,1,7.00
2/11/2018 8:50:12 AM,Geraldo Ortiz,FL,32304,Relax2Zero 3D,DWA-9060USJ-9060BL-DEMO,Demo Black,Demo,,,,,3700.00,3700.00,0.00,Miku Yamaguchi,Synchrony,3700.00,,,6034610083094055,84804359,Las Vegas,36 months,,0.00,,,,,,,,0.00,,,,,,,3/7/2018 12:00:00 AM,No,"3 years parts, 1 year labor (Free)",Delivered,,Florida State Fair 2/8-19/18 (FL),Florida State Fair 2/8-19/18 (FL),"Confirmed $3,700/36 months/Auth#007604 on Synchrony LV. 5/15/18 Riho",,103598,"confirmed the account in Synchrony.($6,500) *Please charge before delivery.* 2/12/18 Hitomi
auth  # 007604 3/7 maggie",FL,1,7.00
2/11/2018 9:03:52 AM,Deborah Riddle,FL,33761,Legacy 3D,DWA-9150USJ-9150BL,Black,New,,,,,3900.00,3900.00,0.00,Ruben Cuatrona,Synchrony,3900.00,,,6034610083094097,84804670,Las Vegas,36 months,,0.00,,,,,,,,0.00,,,,,,,2/15/2018 12:00:00 AM,No,"3 years parts, 1 year labor (Free)",Delivered,,Florida State Fair 2/8-19/18 (FL),Florida State Fair 2/8-19/18 (FL),,,103600,"confirmed the account in Synchrony.($6,500) *Please charge before delivery.* 2/12/18 Hitomi
AUTH # 016339",FL,1,7.00
2/11/2018 9:15:21 AM,Sandra Ajakaye,FL,34203,Legacy 3D,DWA-9150USJ-9150BL-DEMO,Demo Black,Demo,,,,,3900.00,3900.00,0.00,Ruben Cuatrona,Synchrony,3900.00,,,6034610083094105,84804940,Las Vegas,36 months,,0.00,,,,,,,,0.00,,,,,,,2/16/2018 12:00:00 AM,No,"3 years parts, 1 year labor (Free)",Delivered,,Florida State Fair 2/8-19/18 (FL),Florida State Fair 2/8-19/18 (FL),,,103603,"confirmed the account in Synchrony.($5,000)*Please charge before delivery.* 2/12/18 Hitomi
AUTH  # 016821",FL,1,7.00
2/11/2018 9:33:11 AM,Tracy Shorb,FL,33810,Legacy,DWA-9100DWA-9100BU-DEMO,Demo Blue,Demo,,,,,3500.00,3500.00,0.00,Miku Yamaguchi,COD,0.00,,,,,,,,0.00,,,,,,,,0.00,,,,,,,,YES,"3 years parts, 1 year labor (Free)",Cancelled,,Florida State Fair 2/8-19/18 (FL),Florida State Fair 2/8-19/18 (FL),,,103606,"Customer will pick up and pay full  last day of fair
Sales team couldn't reach to the customer. Stephany told to cancel. 2/21/18 Hitomi",Not Dispatched,1,7.00
2/11/2018 10:10:23 AM,Denise Sierra,FL,34606,Relax2Zero 3D,DWA-9060USJ-9060BR-DEMO,Demo Choco Brown,Demo,,,,,3900.00,3900.00,0.00,Robert Shih,Synchrony,1500.00,,,6034610083093982,84803252,Las Vegas,36 months,,0.00,,,,,,,,0.00,,,,,,,,No,"3 years parts, 1 year labor (Free)",Hold,,Florida State Fair 2/8-19/18 (FL),Florida State Fair 2/8-19/18 (FL),,,103607,Only approved 1500 Robert will speak with customer,Not Dispatched,1,7.00
2/11/2018 10:17:02 AM,Bruce Garcia,FL,33609,Relax2Zero 3D,DWA-9060USJ-9060BL,Black,New,,,,,3900.00,3900.00,0.00,Li Chen,CreditCard,500.00,Vo2R,,,,,,CreditCard,3400.00,xbUA,,,,,,,0.00,,,,,,,2/15/2018 12:00:00 AM,No,"3 years parts, 1 year labor (Free)",Delivered,,Florida State Fair 2/8-19/18 (FL),Florida State Fair 2/8-19/18 (FL),,,103608,"confirmed $500 in Square. 2/12/18 Hitomi
COD $3,400 Square# xbUA",FL,1,7.00
2/12/2018 7:55:14 AM,Walter Bergmann,FL,34654,Relax2Zero 3D,DWA-9060USJ-9060BL,Black,New,,,,,4800.00,4800.00,0.00,Jonathan Bhowani,Synchrony,4800.00,,,6034610083096217,84840341,Las Vegas,36 months,,0.00,,,,,,,,0.00,,,,,,,2/19/2018 12:00:00 AM,No,"3 years parts, 1 year labor (Free)",Delivered,,Florida State Fair 2/8-19/18 (FL),Florida State Fair 2/8-19/18 (FL),,,103644,"Confirmed the application (approved $5800) in Synchrony NV. 2/12/18 Riho
AUTH # 019254 (2/19 Maggie)",FL,1,7.00
2/12/2018 8:08:42 AM,Richard Fortner,FL,34604,Pegasus,DWA-9400Pegasus-BR,Choco Brown,New,,,,,6100.00,6100.00,0.00,Robert Shih,Synchrony,1200.00,,,6034610083095383,84822580,Las Vegas,24 months,,0.00,,,,,,,,0.00,,,,,,,,No,"3 years parts, 1 year labor (Free)",Hold,,Florida State Fair 2/8-19/18 (FL),Florida State Fair 2/8-19/18 (FL),,,103645,"Reviewed original invoice, there  is no signature from the customer on it, so we need to get his signature when we deliver the chair. 2/23/18 Riho",FL,1,7.00
2/12/2018 8:17:31 AM,Kim Sandoval,FL,34256,Legacy 3D,DWA-9150USJ-9150CH,Choco Brown,New,,,,,3900.00,3900.00,0.00,Robert Shih,CreditCard,3900.00,5n80,,,,,,,0.00,,,,,,,,0.00,,,,,,,,No,"3 years parts, 1 year labor (Free)",Cancelled,,Florida State Fair 2/8-19/18 (FL),Florida State Fair 2/8-19/18 (FL),,,103646,"confirmed $3,900 in Square. 2/12/18 Hitomi
cancelled 2/14 (per robert)  - Maggie 2/14
02/14/17-Refund issued by cristina",FL,1,7.00
2/12/2018 8:28:21 AM,Diane Shonitsky,FL,34655,Relax2Zero 3D,DWA-9060USJ-9060BR-DEMO,Demo Choco Brown,Demo,,,,,3900.00,3900.00,0.00,Robert Shih,Synchrony,3900.00,,,6034610083094170,84806036,Las Vegas,36 months,,0.00,,,,,,,,0.00,,,,,,,2/19/2018 12:00:00 AM,No,"3 years parts, 1 year labor (Free)",Delivered,,Florida State Fair 2/8-19/18 (FL),Florida State Fair 2/8-19/18 (FL),,,103647,"confirmed the account in Synchrony. ($6,000) *Please charge before delivery.* 2/12/18 Hitomi
AUTH # 019217 (2/19 Maggie)",FL,1,7.00
2/12/2018 9:27:13 AM,Kenneth Simmonech,FL,33884,Legacy 3D,DWA-9150USJ-9150BL,Black,New,,,,,3900.00,3900.00,0.00,Ruben Cuatrona,Synchrony,3900.00,,,6034610083096274,84842752,Las Vegas,36 months,,0.00,,,,,,,,0.00,,,,,,,2/14/2018 12:00:00 AM,No,"3 years parts, 1 year labor (Free)",Delivered,,Florida State Fair 2/8-19/18 (FL),Florida State Fair 2/8-19/18 (FL),,,103648,"confirmed the account in Synchrony.($6,000)*Please charge before delivery.*2/13/18 Hitomi
AUTH  # 016488",FL,1,7.00
2/12/2018 9:33:17 AM,Sugako Patterson,FL,33569,Relax2Zero 3D,DWA-9060USJ-9060BR,Choco Brown,New,,,,,4800.00,4800.00,0.00,Li Chen,CreditCard,4800.00,VBoc,,,,,,,0.00,,,,,,,,0.00,,,,,,,2/16/2018 12:00:00 AM,No,"3 years parts, 1 year labor (Free)",Delivered,,Florida State Fair 2/8-19/18 (FL),Florida State Fair 2/8-19/18 (FL),,,103650,"confirmed $4,800 in Square. 2/12/18 Hitomi",FL,1,7.00
2/12/2018 9:55:35 AM,Chas Gerhart,FL,34476,Relax2Zero 3D,DWA-9060USJ-9060BL,Black,New,,,,,3920.00,3920.00,0.00,Ruben Cuatrona,Cash,30.00,,,,,,,CreditCard,3870.00,UXAK,,,,,,,0.00,,,,,,,2/21/2018 12:00:00 AM,No,"3 years parts, 1 year labor (Free)",Delivered,,Florida State Fair 2/8-19/18 (FL),Florida State Fair 2/8-19/18 (FL),,,103654,"Stephany passed $30 cash to Pre.Michaelle. 2/21/18 Hitomi
Correction*Total: $3900  COD: $3870* --sq# UXAK",FL,1,7.00
2/12/2018 10:43:02 AM,Dave & Lisa Ream,FL,34241,Legacy 3D,DWA-9150USJ-9150BL,Black,New,,,,,4800.00,4800.00,0.00,Jonathan Bhowani,CreditCard,4800.00,UJk9,,,,,,,0.00,,,,,,,,0.00,,,,,,,12/1/2018 12:00:00 AM,No,"3 years parts, 1 year labor (Free)",Delivered,New,Florida State Fair 2/8-19/18 (FL),Florida State Fair 2/8-19/18 (FL),,,103657,"Josefina - Talked to customer 11/14/18 12:30pm - they are ready for delivery (prefers Not Monday) 
confirmed $4,800 in Square. 2/12/18 Hitomi
Hold until the end of april (2/13 Maggie)
12/3Delivery confirmation received",FL,1,7.00
2/12/2018 10:48:36 AM,Julie Zuzula,FL,33773,Legacy 3D,DWA-9150USJ-9150CH-DEMO,Demo Choco Brown,Demo,,,,,4120.50,3900.00,220.50,Miku Yamaguchi,Synchrony,3900.00,,,6034610083096494,84849300,Las Vegas,36 months,,0.00,,,,,,,,0.00,,,,,,,,No,"3 years parts, 1 year labor (Free)",Cancelled,,Florida State Fair 2/8-19/18 (FL),Florida State Fair 2/8-19/18 (FL),,,103659,"confirmed the account in Synchrony. ($6,500)*Please charge before delivery.* 2/13/18 Hitomi
The total amount is $3900, revised to the order #103745. 2/16/18 Riho",FL,0,7.00
2/12/2018 10:55:28 AM,Joella Lowe,FL,34769,Relax2Zero 3D,DWA-9060USJ-9060BL,Black,New,,,,,3900.00,3900.00,0.00,Robert Shih,Synchrony,3900.00,,,,,,,,0.00,,,,,,,,0.00,,,,,,,,No,"3 years parts, 1 year labor (Free)",Hold,,Florida State Fair 2/8-19/18 (FL),Florida State Fair 2/8-19/18 (FL),,,103660,"Reviewed original invoices, there is no signature on the Synchrony Form, so we need to get the sign when the order is moved forward. 2/23/18 Riho",FL,1,7.00
2/12/2018 12:15:12 PM,Hector Reyes,FL,34639,Legacy 3D,DWA-9150USJ-9150CH,Choco Brown,New,,,,,4500.00,4500.00,0.00,Ruben Cuatrona,Synchrony,2000.00,,,6034610083092547,84782333,Las Vegas,36 months,,0.00,,,,,,,,0.00,,,,,,,,No,"3 years parts, 1 year labor (Free)",Cancelled,,Florida State Fair 2/8-19/18 (FL),Florida State Fair 2/8-19/18 (FL),,,103666,"Hold customer only approved for 2000
*correction for #103590 under correct event name. 2/12/18 Hitomi",FL,1,7.00
2/12/2018 1:28:50 PM,Andrew Quanzer,FL,33884,Relax2Zero 3D,DWA-9060USJ-9060BR,Choco Brown,New,,,,,3900.00,3900.00,0.00,Ruben Cuatrona,Synchrony,3600.00,,,6034610083096407,84823654,Las Vegas,36 months,,0.00,,,,,,,,0.00,,,,,,,,No,"3 years parts, 1 year labor (Free)",Cancelled,,Florida State Fair 2/8-19/18 (FL),Florida State Fair 2/8-19/18 (FL),,,103674,"Synchrony approved for 3600, please collect COD $300
confirmed the account in Synchrony.($3,600) *Please charge before delivery.*Please collect COD 2/13/18 Hitomi",FL,1,7.00
2/12/2018 3:32:43 PM,Jeremy Groen,FL,33578,Relax2Zero 3D,DWA-9060USJ-9060BL,Black,New,,,,,3900.00,3900.00,0.00,Jonathan Bhowani,CreditCard,3900.00,56f5,,,,,,,0.00,,,,,,,,0.00,,,,,,,2/19/2018 12:00:00 AM,No,"3 years parts, 1 year labor (Free)",Delivered,,Florida State Fair 2/8-19/18 (FL),Florida State Fair 2/8-19/18 (FL),,,103684,Confirmed $3900 in Square. 2/12/18 Riho,FL,1,7.00
2/13/2018 1:32:17 PM,Barbara Hunt,FL,33617,Relax2Zero 3D,DWA-9060USJ-9060BR-DEMO,Demo Choco Brown,Demo,,,,,3900.00,3900.00,0.00,Ruben Cuatrona,Synchrony,3900.00,,,6034610083098486,84907970,Las Vegas,36 months,,0.00,,,,,,,,0.00,,,,,,,3/8/2018 12:00:00 AM,No,"3 years parts, 1 year labor (Free)",Delivered,,Florida State Fair 2/8-19/18 (FL),Florida State Fair 2/8-19/18 (FL),AUTH # 001011 ,,103708,"Charge synchrony before delivery
Please send two tens units
**Correct application Key#84907970** confirmed the account in Synchrony.($8,500) *Please charge before delivery.* 2/14/18 Hitomi
Delivered demo chair 2/20/2018 - will go back to exchange with new (Per Ruben)
old S/N: 0103002170452
NEW CHAIR S# 103002170416 --delivered 3/8/18",FL,1,7.00
2/13/2018 3:46:27 PM,Gail Foster-Kingsley,NY,14226,Legacy 3D,DWA-9150USJ-9150BL,Black,New,,,,,4600.00,4600.00,0.00,Li Chen,CreditCard,500.00,RGbJ,,,,,,CreditCard,4100.00,qLAR,,,,,,,0.00,,,,,,,4/24/2018 12:00:00 AM,No,"3 years parts, 1 year labor (Free)",Delivered,,Florida State Fair 2/8-19/18 (FL),Florida State Fair 2/8-19/18 (FL),,,103709,"Cod $4100
***Correct Auth# for Square is ""R6bJ""***confirmed $500 in Square. 2/14/18 Hitomi
5/24Maritza confirmed COD $4100 on square",TX,1,7.00
2/13/2018 5:18:47 PM,Louis Cinotta,FL,33837,Legacy 3D,DWA-9150USJ-9150CH,Choco Brown,New,,,,,3900.00,3900.00,0.00,Robert Shih,Synchrony,3900.00,,,6034610083098791,84915722,Las Vegas,36 months,,0.00,,,,,,,,0.00,,,,,,,2/27/2018 12:00:00 AM,No,"3 years parts, 1 year labor (Free)",Delivered,,Florida State Fair 2/8-19/18 (FL),Florida State Fair 2/8-19/18 (FL),,,103711,"confirmed the account in Synchrony.($8,500) *Please charge before delivery.*2/14/18 Hitomi
AUTH # 027153 2/27 MAGGIE",FL,1,7.00
2/14/2018 7:45:40 AM,Nga Nguyen,FL,33615,Majesty,DWA-8000DWA-8000-BL,Black,New,,,,,3500.00,3500.00,0.00,Robert Shih,Synchrony,3500.00,,,6034610083099021,84922514,Las Vegas,36 months,,0.00,,,,,,,,0.00,,,,,,,2/27/2018 12:00:00 AM,No,"3 years parts, 1 year labor (Free)",Delivered,,Florida State Fair 2/8-19/18 (FL),Florida State Fair 2/8-19/18 (FL),Confirmed $3500/36 months/Auth#027136 in Synchrony LV. 5/15/18 Riho,,103714,"confirmed the account in Synchrony.($5,500)*Please charge before delivery.*2/14/18 Hitomi
AUTH  # 027136 2/27 MAGGIE",FL,1,7.00
2/14/2018 8:00:30 AM,Jose Puerto,FL,33592,Relax2Zero 3D,DWA-9060USJ-9060BR,Choco Brown,New,,,,,4600.00,4600.00,0.00,Li Chen,CreditCard,500.00,v6Yq,,,,,,,0.00,,,,,,,,0.00,,,,,,,,No,"3 years parts, 1 year labor (Free)",Cancelled,,Florida State Fair 2/8-19/18 (FL),Florida State Fair 2/8-19/18 (FL),,,103715,"confirmed $500 in Square. 2/14/18 Hitomi
According to the original invoice, this order was CANCELLED. 2/23/18 Riho
Refunded on 2/18/18 through Square.",FL,1,7.00
2/14/2018 12:14:52 PM,Frank Oddo,FL,34293,Legacy 3D,DWA-9150USJ-9150BL,Black,New,,,,,3600.00,3600.00,0.00,Miku Yamaguchi,CreditCard,3600.00,NOzu,,,,,,,0.00,,,,,,,,0.00,,,,,,,2/16/2018 12:00:00 AM,No,"3 years parts, 1 year labor (Free)",Delivered,,Florida State Fair 2/8-19/18 (FL),Florida State Fair 2/8-19/18 (FL),,,103718,"confirmed $3,600 in Square. 2/15/18 Hitomi",FL,1,7.00
2/14/2018 12:34:47 PM,Jacky Logemann,FL,33759,Legacy 3D,DWA-9150USJ-9150BL,Black,New,,,,,3900.00,3900.00,0.00,Robert Shih,CreditCard,3900.00,diOV,,,,,,,0.00,,,,,,,,0.00,,,,,,,2/19/2018 12:00:00 AM,No,"3 years parts, 1 year labor (Free)",Delivered,,Florida State Fair 2/8-19/18 (FL),Florida State Fair 2/8-19/18 (FL),,,103721,"confirmed $3,900 in Square. 2/15/18 Hitomi",FL,1,7.00
2/15/2018 8:01:36 AM,Katrina Noel,FL,33596,Majesty,DWA-8000DWA-8000-BL-DEMO,Demo Black,Demo,,,,,3300.00,3300.00,0.00,Stephany Higareda,CreditCard,50.00,fos7,,,,,,,0.00,,,,,,,,0.00,,,,,,,,No,"3 years parts, 1 year labor (Free)",Hold,,Florida State Fair 2/8-19/18 (FL),Florida State Fair 2/8-19/18 (FL),,,103723,Customer will come back with mom on Saturday to try finance if not approved she will do layaway hold pls,Not Dispatched,1,7.00
2/15/2018 10:50:47 AM,Lil Tolley,FL,33880,Legacy 3D,DWA-9150USJ-9150BL-DEMO,Demo Black,Demo,,,,,3900.00,3900.00,0.00,Miku Yamaguchi,CreditCard,500.00,EcoY,,,,,,Check,3400.00,,,,,,,,0.00,,,,,,,2/20/2018 12:00:00 AM,No,"3 years parts, 1 year labor (Free)",Delivered,,Florida State Fair 2/8-19/18 (FL),Florida State Fair 2/8-19/18 (FL),,,103724,"Cod $3400
confirmed $500 in Square. 2/15/18 Hitomi//COD $3,400 cashier's check received. 3/19/18 Hitomi",FL,1,7.00
2/15/2018 11:41:22 AM,Jordan King,FL,33805,Legacy 3D,DWA-9150USJ-9150BL,Black,New,,,,,3900.00,3900.00,0.00,Miku Yamaguchi,CreditCard,3900.00,#RTxw,,,,,,,0.00,,,,,,,,0.00,,,,,,,2/19/2018 12:00:00 AM,No,"3 years parts, 2 years labor ($200)",Delivered,,Florida State Fair 2/8-19/18 (FL),Florida State Fair 2/8-19/18 (FL),,,103725,"confirmed $3,900 in Square. 2/15/18 Hitomi",FL,1,7.00
2/15/2018 12:53:28 PM,Steve Buchanan,FL,32759,Majesty,DWA-8000DWA-8000-BR,Choco Brown,New,,,,,3200.00,3200.00,0.00,Stephany Higareda,Cash,1200.00,,,,,,,Cash,2000.00,,,,,,,,0.00,,,,,,,3/2/2018 12:00:00 AM,No,"3 years parts, 2 years labor ($200)",Delivered,,Florida State Fair 2/8-19/18 (FL),Florida State Fair 2/8-19/18 (FL),,,103727,"Stephany has $1200 cash, COD $2000
Upgrade to legacy 3D same price, competitor tried to steal customer
Stephany provided $1,200 cash to Pre.Michaelle. 2/21/18 Hitomi
Mitch received COD$2,000 cash. received confirmation. 3/28/18 Hitomi",FL,1,7.00
2/15/2018 2:57:57 PM,Virginia White,FL,33614,Majesty,DWA-8000DWA-8000-BL-DEMO,Demo Black,Demo,,,,,3000.00,3000.00,0.00,Jonathan Bhowani,Synchrony,3000.00,,,6034610083100803,84990223,Las Vegas,48 months,,0.00,,,,,,,,0.00,,,,,,,2/20/2018 12:00:00 AM,No,"3 years parts, 1 year labor (Free)",Delivered,,Florida State Fair 2/8-19/18 (FL),Florida State Fair 2/8-19/18 (FL),,48 months special financing 0% apr,103730,"confirmed the account in Synchrony. ($3,000) *Please charge before delivery.*2/16/18 Hitomi
AUTH  # 020062 2/20 Maggie",FL,1,7.00
2/15/2018 4:52:17 PM,Richard L Stoneberg,FL,33707,Relax2Zero 2.0,USJ-9050USJ-9050BR,Brown,New,,,,,3000.00,3000.00,0.00,Robert Shih,CreditCard,3000.00,SQUARE # VHRU,,,,,,,0.00,,,,,,,,0.00,,,,,,,2/19/2018 12:00:00 AM,No,"3 years parts, 1 year labor (Free)",Delivered,,Florida State Fair 2/8-19/18 (FL),Florida State Fair 2/8-19/18 (FL),,"Thank you very much for your business with us in Fl state fair / Royalty customer program 
/ Please set the deliver on February 26, 27, 28 either day.",103731,"confirmed $3,000 in Square. 2/16/18 Hitomi",FL,1,7.00
2/16/2018 7:13:01 AM,Kay D Gorman,GA,30180,Pegasus,DWA-9400Pegasus-BR,Choco Brown,New,,,,,6100.00,6100.00,0.00,Jonathan Bhowani,Synchrony,6100.00,,,6034610083101637,85015497,Las Vegas,36 months,,0.00,,,,,,,,0.00,,,,,,,2/26/2018 12:00:00 AM,No,"3 years parts, 3 years labor ($400)",Delivered,,Florida State Fair 2/8-19/18 (FL),Florida State Fair 2/8-19/18 (FL),,Thank you very much for your business with us in Fl state fair / Synchrony 36 months 0% APR / Extension warranty $150 × 2,103732,"confirmed the account in Synchrony.($7,400)**Please charge before delivery.**2/19/18 Hitomi
AUTH  # 027398 2/27 Maggie",FL,1,7.00
2/16/2018 7:13:57 AM,Fresdesbinda Mascunana Cloud,FL,34654,Legacy 3D,DWA-9150USJ-9150CH-DEMO,Demo Choco Brown,Demo,,,,,3900.00,3900.00,0.00,Stephany Higareda,Synchrony,3900.00,,,6034610083101264,85002455,Las Vegas,36 months,,0.00,,,,,,,,0.00,,,,,,,2/20/2018 12:00:00 AM,No,"3 years parts, 1 year labor (Free)",Delivered,,Florida State Fair 2/8-19/18 (FL),Florida State Fair 2/8-19/18 (FL),,36 months financing 0% apr,103733,"confirmed the account in Synchrony.($6,500) *Please charge before delivery.*2/16/18 Hitomi
AUTH # 020067 2/20 Maggie",FL,1,7.00
2/16/2018 9:43:39 AM,Qiong Liu,FL,34212,Legacy 3D,DWA-9150USJ-9150CH,Choco Brown,New,,,,,4100.00,4100.00,0.00,Robert Shih,CreditCard,100.00,Square# cJvh,,,,,,CreditCard,4000.00,APXV,,,,,,,0.00,,,,,,,3/1/2018 12:00:00 AM,No,"3 years parts, 1 year labor (Free)",Delivered,,Florida State Fair 2/8-19/18 (FL),Florida State Fair 2/8-19/18 (FL),,"Thank you very much for your business with us / COD $4,000",103735,"confirmed $100 in Square. 2/16/18 Hitomi
confirmed SQUARE# APXV ($4,000) for COD. 5/15/18 Riho",FL,1,7.00
2/16/2018 9:50:38 AM,Robert E. Burguieres,FL,33703,Relax2Zero 3D,DWA-9060USJ-9060BR,Choco Brown,New,,,,,3900.00,3900.00,0.00,Robert Shih,CreditCard,100.00,Square# 4FW0,,,,,,CreditCard,3800.00,7byS,,,,,,,0.00,,,,,,,2/28/2018 12:00:00 AM,No,"3 years parts, 1 year labor (Free)",Delivered,,Florida State Fair 2/8-19/18 (FL),Florida State Fair 2/8-19/18 (FL),,"Thank you very much for your business with us in Fl state fair / Manager discount / White glove ( included 3 new boxes + unbox + set up ) / COD $3,800",103736,"confirmed $100 in Square. 2/16/18 Hitomi
Square#7byS ($3,800)",FL,1,7.00
2/16/2018 11:05:47 AM,Philip Wegman,FL,33811,Legacy 3D,DWA-9150USJ-9150CH,Choco Brown,New,,,,,4800.00,4800.00,0.00,Li Chen,Synchrony,4800.00,,,6034610083101629,85014941,Las Vegas,48 months,,0.00,,,,,,,,0.00,,,,,,,2/22/2018 12:00:00 AM,No,"3 years parts, 3 years labor ($400)",Delivered,,Florida State Fair 2/8-19/18 (FL),Florida State Fair 2/8-19/18 (FL),,"48 months, 0% apr Synchrony Financing
Office (863) 688-1211",103738,"confirmed the account in Synchrony.($8,500)**Please charge before delivery.** 2/19/18 Hitomi
AUTH  # 022605 2/22 Maggie",FL,1,7.00
2/16/2018 11:16:26 AM,Cassandra Carter,FL,33602,Majesty,DWA-8000DWA-8000-BL-DEMO,Demo Black,Demo,,,,,3000.00,3000.00,0.00,Stephany Higareda,Synchrony,3000.00,,,6034610083101884,85023027,Las Vegas,36 months,,0.00,,,,,,,,0.00,,,,,,,3/2/2018 12:00:00 AM,No,"3 years parts, 1 year labor (Free)",Delivered,,Florida State Fair 2/8-19/18 (FL),Florida State Fair 2/8-19/18 (FL),"Delivered NEW chair per. FL. Confirmed $3,000 was charged for 36 months. Auth#002805. 5/2/18 Hitomi ",Please give a new chair. Manage approved,103739,"confirmed the account in Synchrony.($5,500)**Please charge before delivery.***. 2/19/18 Hitomi
AUTH  # 002805 3/2 MAGGIE",FL,1,7.00
2/16/2018 12:50:17 PM,John Albano,FL,33558,Relax2Zero 3D,DWA-9060USJ-9060BR,Choco Brown,New,,,,,3900.00,3900.00,0.00,Ruben Cuatrona,CreditCard,3900.00,JdoP,,,,,,,0.00,,,,,,,,0.00,,,,,,,2/27/2018 12:00:00 AM,No,"3 years parts, 1 year labor (Free)",Delivered,,Florida State Fair 2/8-19/18 (FL),Florida State Fair 2/8-19/18 (FL),,Paid in full,103744,"confirmed $3,900 in Square. 2/16/18 Hitomi",FL,1,7.00
2/16/2018 1:19:07 PM,Julie Zuzula,FL,33773,Legacy 3D,DWA-9150USJ-9150CH-DEMO,Demo Choco Brown,Demo,,,,,3900.00,3900.00,0.00,Miku Yamaguchi,Synchrony,3900.00,,,6034610083096449,84849300,Las Vegas,36 months,,0.00,,,,,,,,0.00,,,,,,,2/20/2018 12:00:00 AM,No,"3 years parts, 1 year labor (Free)",Delivered,,Florida State Fair 2/8-19/18 (FL),Florida State Fair 2/8-19/18 (FL),,"36 months, 0% apr financing",103745,"confirmed the account in Synchrony. ($6,500)*Please charge before delivery.* 2/13/18 Hitomi
It's revised from order #103659. 2/16/18 Riho ~~ AUTH# 020762 2/20Maggie",FL,1,7.00
2/16/2018 4:47:35 PM,May & Soren Rasmussen,FL,33810,Legacy 3D,DWA-9150USJ-9150BL-DEMO,Demo Black,Demo,,,,,3900.00,3900.00,0.00,Ruben Cuatrona,CreditCard,3900.00,EFpI,,,,,,,0.00,,,,,,,,0.00,,,,,,,2/20/2018 12:00:00 AM,No,"3 years parts, 1 year labor (Free)",Delivered,,Florida State Fair 2/8-19/18 (FL),Florida State Fair 2/8-19/18 (FL),,,103747,"Lower case L on square #
confirmed $3,900 in Square. 2/19/18 Hitomi",FL,1,7.00
2/17/2018 7:00:06 AM,Lachelle Eligon,FL,33578,Relax2Zero 3D,DWA-9060USJ-9060BR,Choco Brown,New,,,,,4800.00,4800.00,0.00,Li Chen,Synchrony,4800.00,,,6034610083103302,85056589,Las Vegas,48 months,,0.00,,,,,,,,0.00,,,,,,,3/1/2018 12:00:00 AM,No,"3 years parts, 1 year labor (Free)",Delivered,,Florida State Fair 2/8-19/18 (FL),Florida State Fair 2/8-19/18 (FL),"Confirmed $4,800/48 months/Auth#001807 on Synchrony LV. 5/15/18 Riho",48 months 0% apr financing,103752,"confirmed the account in Synchrony.($5,800)***Please charge before delivery.*** 2/19/18 Hitomi
AUTH  # 001807 3/1 MAGGIE",FL,1,7.00
2/17/2018 7:16:27 AM,Kimberly Rice,FL,34609,Relax2Zero 3D,DWA-9060USJ-9060BL,Black,New,,,,,3900.00,3900.00,0.00,Ruben Cuatrona,Synchrony,3000.00,,,6034610083103260,85055972,Las Vegas,48 months,CreditCard,0.00,kz4m,,,,,,CreditCard,0.00,icho,,,,,,2/20/2018 12:00:00 AM,No,"3 years parts, 1 year labor (Free)",Delivered,,Florida State Fair 2/8-19/18 (FL),Florida State Fair 2/8-19/18 (FL),,48 months 0% apr financing,103753,"Only approved for 3000, please charge cod 900 - Stephany 2-17-18
AUTH # 020582 2/20 Maggie",FL,1,7.00
2/17/2018 7:26:56 AM,Matthew Wirth,FL,33703,Relax2Zero 3D,DWA-9060USJ-9060BL,Black,New,,,,,3400.00,3400.00,0.00,Robert Shih,Synchrony,3400.00,,,6034610083103161,85053679,Las Vegas,36 months,,0.00,,,,,,,,0.00,,,,,,,2/20/2018 12:00:00 AM,No,"3 years parts, 1 year labor (Free)",Delivered,,Florida State Fair 2/8-19/18 (FL),Florida State Fair 2/8-19/18 (FL),,"36 months, 0% apr financing",103754,"confirmed the account in Synchrony.($8,500)***Please charge before delivery.***2/19/18 Hitomi
AUTH  # 020403 2/20 Maggie",FL,1,7.00
2/17/2018 7:42:52 AM,Terri Mason,FL,34655,Relax2Zero 3D,DWA-9060USJ-9060BL,Black,New,,,,,3400.00,3400.00,0.00,Robert Shih,Synchrony,3400.00,,,6034610083103149,85053421,Las Vegas,36 months,,0.00,,,,,,,,0.00,,,,,,,2/20/2018 12:00:00 AM,No,"3 years parts, 1 year labor (Free)",Delivered,,Florida State Fair 2/8-19/18 (FL),Florida State Fair 2/8-19/18 (FL),,"36 months, 0% apr financing",103755,"confirmed the account in Synchrony.($6,000)***Please charge before delivery.*** 2/19/18 Hitomi
AUTH  # 020939 2/20Maggie",FL,1,7.00
2/17/2018 8:54:11 AM,Julie Igilar,FL,33615,Legacy 3D,DWA-9150USJ-9150BL,Black,New,,,,,3900.00,3900.00,0.00,Li Chen,Synchrony,2000.00,,,6034610083103500,85065644,Las Vegas,36 months,CreditCard,1900.00,3wZv,,,,,,,0.00,,,,,,,2/20/2018 12:00:00 AM,No,"3 years parts, 1 year labor (Free)",Delivered,,Florida State Fair 2/8-19/18 (FL),Florida State Fair 2/8-19/18 (FL),,36 months 0% apr financing,103756,"Approved for 2000, charged balance on different cc
confirmed 1,900 in Square. 2/19/18 Hitomi  ~~ auth  # 020505 2/20 maggie",FL,1,7.00
2/17/2018 12:43:12 PM,Brent South,FL,34638,Relax2Zero 3D,DWA-9060USJ-9060BR-DEMO,Demo Choco Brown,Demo,,,,,3600.00,3600.00,0.00,Robert Shih,Synchrony,3000.00,,,6034610083104656,85088058,Las Vegas,36 months,CreditCard,400.00,Z1J8,,,,,,,0.00,,,,,,,2/17/2018 12:00:00 AM,No,"3 years parts, 1 year labor (Free)",Delivered,,Florida State Fair 2/8-19/18 (FL),Florida State Fair 2/8-19/18 (FL),"Authorization Number:	018794
confirmed $3000 was charged for 36 months.2/20/18 Hitomi
confirmed $400 in Square. 2/21/18 Hitomi",Chair will be picked up from show and balance will be paid.,103757,"Chair picked up 01030021770408 02/17/18
Charge synchrony #018794 $3000
Check square Z1J8
when the customer pick the chair up, Ruben discounted $200 from the total amount. 2/21/18 Riho",FL,1,7.00
2/18/2018 8:24:01 AM,Ken Deanna,FL,33547,Majesty,DWA-8000DWA-8000-BL-DEMO,Demo Black,Demo,,,,,3000.00,3000.00,0.00,Jonathan Bhowani,CreditCard,3000.00,oOKN,,,,,,,0.00,,,,,,,,0.00,,,,,,,3/1/2018 12:00:00 AM,No,"3 years parts, 1 year labor (Free)",Delivered,,Florida State Fair 2/8-19/18 (FL),Florida State Fair 2/8-19/18 (FL),,Call before delivery has dogs,103772,"confirmed $3,000 in Square. 2/19/18 Hitomi",FL,1,7.00
2/18/2018 8:32:47 AM,Susan Boda,FL,33610,Relax2Zero 3D,DWA-9060USJ-9060BL-DEMO,Demo Black,Demo,,,,,3900.00,3900.00,0.00,Ruben Cuatrona,Synchrony,3900.00,,,6034610083105141,85093997,Las Vegas,48 months,,0.00,,,,,,,,0.00,,,,,,,2/20/2018 12:00:00 AM,No,"3 years parts, 1 year labor (Free)",Delivered,,Florida State Fair 2/8-19/18 (FL),Florida State Fair 2/8-19/18 (FL),,48 months financing 0% apr,103773,"confirmed the account in Synchrony.($5,000)***Please charge before delivery.*** 2/19/18 Hitomi
auth # 020906 2/20 maggie",FL,1,7.00
2/18/2018 8:44:13 AM,George Case,FL,34689,Legacy 3D,DWA-9150USJ-9150BL-DEMO,Demo Black,Demo,,,,,3900.00,3900.00,0.00,Ruben Cuatrona,Synchrony,3900.00,,,6034610083105059,85092950,Las Vegas,36 months,,0.00,,,,,,,,0.00,,,,,,,3/2/2018 12:00:00 AM,No,"3 years parts, 1 year labor (Free)",Delivered,,Florida State Fair 2/8-19/18 (FL),Florida State Fair 2/8-19/18 (FL),"Delivered NEW chair per. FL. Confirmed $3,900 was charged for 36 months. Auth#002956. 5/2/18 Hitomi","36 months, 0% apr financing",103774,"confirmed the account in Synchrony.($8,500)***Please charge before delivery.***. 2/19/18 Hitomi
AUTH # 002956 3/2 MAGGIE",FL,1,7.00
2/18/2018 8:50:38 AM,Ronald Harrell,FL,33523,Legacy 3D,DWA-9150USJ-9150BL,Black,New,,,,,4500.00,4500.00,0.00,Jonathan Bhowani,Synchrony,4500.00,,,6034610083106370,85112626,Las Vegas,48 months,,0.00,,,,,,,,0.00,,,,,,,2/20/2018 12:00:00 AM,No,"3 years parts, 1 year labor (Free)",Delivered,,Florida State Fair 2/8-19/18 (FL),Florida State Fair 2/8-19/18 (FL),,,103776,"confirmed the account in Synchrony.($6,500)***Please charge before delivery.*** 2/19/18 Hitomi
AUTH # 020210 2/20 Maggie",FL,1,7.00
2/18/2018 8:56:29 AM,Jose Araujo,FL,33598,Legacy 3D,DWA-9150USJ-9150BL,Black,New,,,,,4400.00,4400.00,0.00,Jonathan Bhowani,Synchrony,4400.00,,,6035610083106768,85118567,Las Vegas,48 months,,0.00,,,,,,,,0.00,,,,,,,,No,"3 years parts, 1 year labor (Free)",Cancelled,,Florida State Fair 2/8-19/18 (FL),Florida State Fair 2/8-19/18 (FL),,48 months 0%apr,103777,"confirmed the account in Synchrony.($8,500)***Please charge before delivery***2/19/18 Hitomi
CANCELLED PER JON 2/21 (Maggie)",FL,1,7.00
2/18/2018 9:12:57 AM,Frank Foglia,FL,32819,Legacy,DWA-9100DWA-9100CH,Choco Brown,New,,,,,3500.00,3500.00,0.00,Miku Yamaguchi,Synchrony,3500.00,,,6034610083106735,85118313,Las Vegas,24 months,,0.00,,,,,,,,0.00,,,,,,,2/23/2018 12:00:00 AM,No,"3 years parts, 1 year labor (Free)",Delivered,,Florida State Fair 2/8-19/18 (FL),Florida State Fair 2/8-19/18 (FL),,,103780,"confirmed the account in Synchrony.($8,500)***Please charge before delivery.*** 2/19/18 Hitomi
AUTH  # 023388 2/23 MAGGIE",FL,1,7.00
2/18/2018 9:19:34 AM,Jodie Snyder,FL,33765,Legacy 3D,DWA-9150USJ-9150BL-DEMO,Demo Black,Demo,,,,,3900.00,3900.00,0.00,Li Chen,COD,0.00,,,,,,,,0.00,,,,,,,,0.00,,,,,,,,No,"3 years parts, 1 year labor (Free)",Hold,,Florida State Fair 2/8-19/18 (FL),Florida State Fair 2/8-19/18 (FL),,Customer will pay $2000 in May and then start layaway,103781,"will confirm if this is hold.  2/19/18 Hitomi
Sent Email to Li to confirm the Layaway form, put the invoice into Hold Folder'18. 2/23/18 Riho",FL,1,7.00
2/18/2018 9:34:43 AM,Darby john Ryan,FL,34470,Relax2Zero 3D,DWA-9060USJ-9060BL-DEMO,Demo Black,Demo,,,,,4800.00,4800.00,0.00,Robert Shih,Synchrony,3900.00,,,6034610081307014,85127898,Las Vegas,36 months,,0.00,,,,,,,,0.00,,,,,,,2/21/2018 12:00:00 AM,No,"3 years parts, 1 year labor (Free)",Delivered,,Florida State Fair 2/8-19/18 (FL),Florida State Fair 2/8-19/18 (FL),,,103783,"confirmed the account in Synchrony.($6,500)***PLease charge before delivery.***. 2/19/18 Hitomi
ORDER TOTAL = $3900 (per Robert) ~~ auth # 021957 (2/21 Maggie)",FL,1,7.00
2/18/2018 1:46:21 PM,David Hurley,FL,32757,Legacy 3D,DWA-9150USJ-9150CH,Choco Brown,New,,,,,4500.00,4500.00,0.00,Jonathan Bhowani,CreditCard,4500.00,y3uz,,,,,,,0.00,,,,,,,,0.00,,,,,,,3/6/2018 12:00:00 AM,No,"3 years parts, 1 year labor (Free)",Delivered,,Florida State Fair 2/8-19/18 (FL),Florida State Fair 2/8-19/18 (FL),,,103798,"confirmed $4,500 in Square. 2/19/18 Hitomi",FL,1,7.00
2/18/2018 3:03:20 PM,Kai Weng,FL,33569,Legacy 3D,DWA-9150USJ-9150BL,Black,New,,,,,4500.00,4500.00,0.00,Ruben Cuatrona,Synchrony,4500.00,,,6034610083108350,85150539,Las Vegas,36 months,,0.00,,,,,,,,0.00,,,,,,,2/20/2018 12:00:00 AM,No,"3 years parts, 3 years labor ($400)",Delivered,,Florida State Fair 2/8-19/18 (FL),Florida State Fair 2/8-19/18 (FL),,,103806,"Give Daiwa blanket
confirmed the account in Synchrony. ($5,400) 2/19/18 Hitomi ~auth # 020092 (2/20 Maggie)
03/20/18-cristina- refunded $150 per Rubens request (Due to faulty Chair)",FL,1,7.00
2/18/2018 4:15:05 PM,Penny Simmons,FL,33618,Relax2Zero 3D,DWA-9060USJ-9060BL,Black,New,,,,,4800.00,4800.00,0.00,Li Chen,Synchrony,4800.00,,,6034610083109168,85160300,Las Vegas,48 months,,0.00,,,,,,,,0.00,,,,,,,2/20/2018 12:00:00 AM,No,"3 years parts, 1 year labor (Free)",Cancelled,,Florida State Fair 2/8-19/18 (FL),Florida State Fair 2/8-19/18 (FL),,48 months 0% APR,103808,"confirmed the account in Synchrony.($6,000)***Please charge before delivery.*** 2/19/18 Hitomi
AUTH # 020271 2/20 maggie",FL,1,7.00
2/18/2018 4:24:54 PM,Nickey Murphy,FL,34638,Legacy 3D,DWA-9150USJ-9150CH,Choco Brown,New,,,,,4300.00,4300.00,0.00,Ruben Cuatrona,CreditCard,4300.00,Exvj,,,,,,,0.00,,,,,,,,0.00,,,,,,,2/27/2018 12:00:00 AM,No,"3 years parts, 1 year labor (Free)",Delivered,,Florida State Fair 2/8-19/18 (FL),Florida State Fair 2/8-19/18 (FL),,Military discount,103809,"confirmed $4,300 in Square. 2/19/18 Hitomi",FL,1,7.00
2/19/2018 8:17:15 AM,Alina Diaz Toledo,FL,33614,Relax2Zero 3D,DWA-9060USJ-9060BR,Choco Brown,New,,,,,4500.00,4500.00,0.00,Ruben Cuatrona,Synchrony,4500.00,,,6035610083109655,85174598,Las Vegas,36 months,,0.00,,,,,,,,0.00,,,,,,,2/27/2018 12:00:00 AM,No,"3 years parts, 3 years labor ($400)",Delivered,,Florida State Fair 2/8-19/18 (FL),Florida State Fair 2/8-19/18 (FL),Confirmed $4500/36 months/Auth#027363 on Synchrony LV. 5/15/18 Riho,36 months 0% apr,103845,"will confirm the Synchrony form.2/19/18Hitomi
Please charge $4500 before delivery. 2/19/18 Riho
AUTH # 027363 2/27 MAGGIE",FL,1,7.00
2/19/2018 8:35:55 AM,Anthony Baldwin,NC,28036,Legacy 3D,DWA-9150USJ-9150CH-DEMO,Demo Choco Brown,Demo,,,,,3500.00,3500.00,0.00,Robert Shih,Synchrony,3500.00,,,6034610083109556,85170802,Las Vegas,36 months,,0.00,,,,,,,,0.00,,,,,,,2/21/2018 12:00:00 AM,No,"3 years parts, 1 year labor (Free)",Delivered,,Florida State Fair 2/8-19/18 (FL),Florida State Fair 2/8-19/18 (FL),"Confirmed $3,500/36 months/Auth#021539 on Synchrony LV. 5/15/18 Riho",Pls deliver next Tuesday or the following Tuesday. Vendor discount,103851,"confirmed the account in Synchrony.($5,500)***Please charge before delivery.*** 2/19/18 hitomi
AUTH  # 021539 (2/21 maggie)",FL,1,7.00
2/19/2018 8:45:20 AM,Esminda Hernandez,FL,33596,Relax2Zero 3D,DWA-9060USJ-9060BR,Choco Brown,New,,,,,3900.00,3900.00,0.00,Robert Shih,Synchrony,3900.00,,,6034610083183122,86812451,Las Vegas,36 months,,0.00,,,,,,,,0.00,,,,,,,4/4/2018 12:00:00 AM,No,"3 years parts, 1 year labor (Free)",Delivered,,Florida State Fair 2/8-19/18 (FL),Florida State Fair 2/8-19/18 (FL),,"Military discount.
36 months 0%apr",103853,"No synchrony info Robert will Follow up March 15th. Hold pls
Put in HOLD folder 2018. 2/23/18 Riho
03/27/18-Cristina- checked funds, Please charge Synchrony before delivery
AUTH # 004211 4/4 MAGGIE",FL,1,7.00
2/19/2018 8:59:49 AM,Deb Melee,FL,32092,Legacy 3D,DWA-9150USJ-9150BL,Black,New,,,,,4000.00,4000.00,0.00,Jonathan Bhowani,CreditCard,4000.00,VVEg,,,,,,,0.00,,,,,,,,0.00,,,,,,,3/2/2018 12:00:00 AM,No,"3 years parts, 1 year labor (Free)",Delivered,,Florida State Fair 2/8-19/18 (FL),Florida State Fair 2/8-19/18 (FL),,Pick up old chair and remove.,103856,"Daniel Ritchie sale
Confirmed $4,000 in Square. 2/19/18 Riho",FL,1,7.00
2/19/2018 10:54:20 AM,Lawrence Jay,FL,33614,Legacy 3D,DWA-9150USJ-9150BL,Black,New,,,,,4350.00,4350.00,0.00,Li Chen,CreditCard,500.00,zwtt,,,,,,CreditCard,3850.00,mBbd,,,,,,,0.00,,,,,,,2/27/2018 12:00:00 AM,No,"3 years parts, 1 year labor (Free)",Delivered,,Florida State Fair 2/8-19/18 (FL),Florida State Fair 2/8-19/18 (FL),,Pending balance $3850,103866,"Cod 3850
confirmed $500 in Square. 2/19/18 Hitomi",FL,1,7.00
2/19/2018 11:16:57 AM,Houng Vu,FL,32127,Legacy 3D,DWA-9150USJ-9150CH,Choco Brown,New,,,,,3900.00,3900.00,0.00,Ruben Cuatrona,Synchrony,3000.00,,,6034610083110216,85188987,Las Vegas,36 months,,0.00,,,,,,,,0.00,,,,,,,,No,"3 years parts, 3 years labor ($400)",Cancelled,,Florida State Fair 2/8-19/18 (FL),Florida State Fair 2/8-19/18 (FL),,Cod $900 only  approved $3000 for 36 months 0% apr,103867,"Cod $900 only
confirmed the account $3,000 in Synchrony, *Please charge before delivery and collect $900 COD*2/22/18 Hitomi",FL,1,7.00
2/19/2018 4:08:45 PM,Andrea Duncan,FL,33511,Legacy 3D,DWA-9150USJ-9150CH,New Choco,New,,,,,4800.00,4800.00,0.00,Jonathan Bhowani,Synchrony,4800.00,,,6034610083112006,85219637,Las Vegas,48 months,,0.00,,,,,,,,0.00,,,,,,,3/1/2018 12:00:00 AM,No,"3 years parts, 1 year labor (Free)",Delivered,,Florida State Fair 2/8-19/18 (FL),Florida State Fair 2/8-19/18 (FL),"Confirmed $4,800/48 months/Auth#001622 on Synchrony LV. 5/15/18 Riho",36 months 0% apr,103877,"confirmed the account in Synchrony.($5,800) *Please charge before delivery*2/22/18 Hitomi
AUTH # 001622 3/1 MAGGIE",FL,1,7.00
2/19/2018 4:16:03 PM,Mike Menales,FL,34287,Legacy 3D,DWA-9150USJ-9150CH,New Choco,New,,,,,3700.00,3700.00,0.00,Ruben Cuatrona,CreditCard,3700.00,Gf64,,,,,,,0.00,,,,,,,,0.00,,,,,,,,No,"3 years parts, 1 year labor (Free)",Cancelled,,Florida State Fair 2/8-19/18 (FL),Florida State Fair 2/8-19/18 (FL),,Vendor discount,103878,"Warranty 3 yrs parts, 3 years labor
revised to 103895 under correct warranty . 2/21/18 Hitomi",Not Dispatched,1,7.00
2/19/2018 4:24:36 PM,Matt Keelan,FL,33602,Relax2Zero 3D,DWA-9060USJ-9060BL,New Black,New,,,,,3900.00,3900.00,0.00,Miku Yamaguchi,Synchrony,3900.00,,,6034610083111537,85213441,Las Vegas,36 months,,0.00,,,,,,,,0.00,,,,,,,2/22/2018 12:00:00 AM,No,"3 years parts, 3 years labor ($400)",Delivered,,Florida State Fair 2/8-19/18 (FL),Florida State Fair 2/8-19/18 (FL),,,103879,"confirmed the account in Synchrony. $6,000 *Please charge before delivery.*2/22/18 Hitomi
AUTH # 022694  2/22/18 Maggie",FL,1,7.00
2/19/2018 5:10:15 PM,John Grill,FL,33578,Legacy 3D,DWA-9150USJ-9150CH,New Choco,New,,,,,4400.00,4400.00,0.00,Jonathan Bhowani,CreditCard,4400.00,Oydq,,,,,,,0.00,,,,,,,,0.00,,,,,,,3/1/2018 12:00:00 AM,No,"3 years parts, 1 year labor (Free)",Delivered,,Florida State Fair 2/8-19/18 (FL),Florida State Fair 2/8-19/18 (FL),,,103880,Confirmed the transaction $4400 in Square. 2/19/18 Riho,FL,1,7.00
2/21/2018 11:24:10 AM,Mike Menales,FL,34287,Legacy 3D,DWA-9150USJ-9150CH,New Choco,New,,,,,3700.00,3700.00,0.00,Ruben Cuatrona,CreditCard,3700.00,Gf64,,,,,,,0.00,,,,,,,,0.00,,,,,,,3/1/2018 12:00:00 AM,No,"3 years parts, 3 years labor ($400)",Delivered,,Florida State Fair 2/8-19/18 (FL),Florida State Fair 2/8-19/18 (FL),,Vendor discount,103895,"correction for 103878. 
email address:mike@qualitytv.com
confirmed $3,700 in Square. 2/21/18 Hitomi",FL,1,7.00
2/21/2018 12:26:59 PM,Tai Rea Terry,FL,33605,Relax2Zero 3D,DWA-9060USJ-9060BL-DEMO,Demo Black,Demo,,,,,3900.00,3900.00,0.00,Ruben Cuatrona,CreditCard,100.00,pkcI,,,,,,,0.00,,,,,,,,0.00,,,,,,,,No,"3 years parts, 1 year labor (Free)",Hold,,Florida State Fair 2/8-19/18 (FL),Florida State Fair 2/8-19/18 (FL),,Ruben approved for customer to pay monthly for chair and then chair will be delivered.,103898,"Not sure when the payments will be receiv. she may call ruben or I will follow up with customer to receive payment - stephany 2/21/18
Sent Email to Ruben to figure out the situation. 2/23/18 Riho
HOLD UNTIL WE RECEIVE MONTHLY PAYMENT FROM CUSTOMER - STEPHANY 2/26/18",FL,1,7.00
2/26/2018 10:09:09 AM,ROBERT REID,GA,30263,Pegasus,DWA-9400Pegasus-BL,New Black,New,,,,,6100.00,6100.00,0.00,Jonathan Bhowani,Synchrony,6100.00,,,6034610083113251,85005959,Las Vegas,36 months,,0.00,,,,,,,,0.00,,,,,,,3/17/2018 12:00:00 AM,No,"3 years parts, 3 years labor ($400)",Delivered,,Florida State Fair 2/8-19/18 (FL),Florida State Fair 2/8-19/18 (FL),"AUTH  # 016053
Confirmed $6,100 was charged for 36 months. 5/11/18 Hitomi","Customer can receive chair as early as Thursday March 1st 2018, if not he will be out of town from 3/2-3/12, so he can receive delivery 3/13/18- Stephany 2/26/18",103996,"APPROVED 8500 CHARGE BEFORE DELIVERY - STEPHANY 2/26/18
AUTH  # 016053 3/16 MAGGIE",FL,1,7.00
