﻿Order Number,Order Date,Event Name,Salesperson,SKU,Product Name,Color,QTY,Warranty,Payment Details,Tax,Order Total,Gross,Primary Payment Method,Primary Payment Balance,Primary Authorize Number,Primary Purchase Order Number,Primary Synchrony Account Number,Primary Synchrony Application Key,Primary Synchrony AccountInfo,Primary SynchronyTerm,Secondly Payment Method,Secondly Payment Balance,Secondly Authorize Number,Secondly Purchase Order Number,Secondly Synchrony Account Number,Secondly Synchrony Application Key,Secondly Synchrony AccountInfo,Secondly SynchronyTerm,Thirdly Payment Method,Thirdly Payment Balance,Thirdly Authorize Number,Thirdly Purchase Order Number,Thirdly Synchrony Account Number,Thirdly Synchrony Application Key,Thirdly Synchrony AccountInfo,Thirdly SynchronyTerm,Actual Shipping Cost,CustomerName,Shipping Address,Delivered On,Serial Number (TO Be),Note,Branch,IsNoTax,ActualTaxRate
100417,9/5/2017 1:21:05 PM,Health and Wellness Plano Store 2017 (TX),Tangyu Jin,DWA-9060USJ-9060BR,Relax2Zero 3D,Choco Brown,1,"3 years parts, 1 year labor (Free)",Synchrony ,396.00,5946.00,5946.00,,4000.00,,,6034610081493267,77987013,Huston,36 months,,,,,,,,,,,,,,,,,350.00,Willi Xiang,2145972043,9/6/2017 12:00:00 AM,,,TX,,
100458,9/9/2017 12:53:50 PM,Health and Wellness Plano Store 2017 (TX),Yuhan Liu,DWA-9100DWA-9100CH,Legacy,Choco Brown,1,"3 years parts, 1 year labor (Free)",Synchrony ,236.36,3851.36,3851.36,,0.00,,,6034610081485370,77810794,Huston,36 months,,,,,,,,,,,,,,,,,350.00,Shu Yan,4699963389,9/4/2017 12:00:00 AM,,O,TX,,
100513,9/11/2017 2:19:23 PM,Health and Wellness Plano Store 2017 (TX),Tianlong Jia,DWA-9060USJ-9060BR,Relax2Zero 3D,Choco Brown,1,"3 years parts, 1 year labor (Free)",PURCHASEORDER ,285.86,4500.86,4500.86,,0.00,,21932,,,,,,,,,,,,,,,,,,,,,350.00,Robert Petersen,9726240209,9/12/2017 12:00:00 AM,,,TX,,
101390,10/17/2017 4:26:27 AM,Health and Wellness Plano Store 2017 (TX),Tianlong Jia,DWA-9060USJ-9060BR,Relax2Zero 3D,Choco Brown,1,"3 years parts, 1 year labor (Free)",CreditCard ,247.69,4000.00,4000.00,,4000.00,866754,,,,,,,,,,,,,,,,,,,,,,350.00,Cuili Qian,4697827809,10/24/2017 12:00:00 AM,,,TX,,
101721,11/5/2017 4:27:26 PM,Health and Wellness Plano Store 2017 (TX),Tianlong Jia,DWA-9100DWA-9100CH,Legacy,Choco Brown,1,"3 years parts, 1 year labor (Free)",Cash ,270.55,4300.00,4300.00,,4300.00,,,,,,,,,,,,,,,,,,,,,,,350.00,Mei Delmont,9033273793,11/12/2017 12:00:00 AM,,,TX,,
101783,11/10/2017 1:39:12 PM,Health and Wellness Plano Store 2017 (TX),Tianlong Jia,DWA-9100DWA-9100BL,Legacy,Black,1,"3 years parts, 1 year labor (Free)",Check ,247.69,4000.00,4000.00,,4000.00,,,,,,,,,,,,,,,,,,,,,,,350.00,Adam Stephen,4692124548,11/30/2017 12:00:00 AM,,,TX,,
101797,11/11/2017 4:16:32 PM,Health and Wellness Plano Store 2017 (TX),Tianlong Jia,DWA-9100DWA-9100CH,Legacy,Choco Brown,1,"3 years parts, 1 year labor (Free)",CreditCard ,247.69,4000.00,4000.00,,4000.00,3jzq,,,,,,,,,,,,,,,,,,,,,,350.00,Shahid Aziz,4697745963,11/21/2017 12:00:00 AM,,,TX,,
101829,11/12/2017 3:21:31 PM,Health and Wellness Plano Store 2017 (TX),Tianlong Jia,DWA-9060USJ-9060BR,Relax2Zero 3D,Choco Brown,1,"3 years parts, 1 year labor (Free)",Cash ,217.21,3600.00,3600.00,,3600.00,,,,,,,,,,,,,,,,,,,,,,,350.00,Mei Chiou,4692156284,11/21/2017 12:00:00 AM,,,TX,,
101856,11/13/2017 2:30:08 PM,Health and Wellness Plano Store 2017 (TX),Tianlong Jia,DWA-9060USJ-9060BR,Relax2Zero 3D,Choco Brown,1,"3 years parts, 1 year labor (Free)",Synchrony ,247.69,4000.00,4000.00,,4000.00,,,6034610081631304,81025967,,36 months,,,,,,,,,,,,,,,,,350.00,Trung Liu,2152281002,,,,TX,,
101928,11/17/2017 3:31:09 PM,Health and Wellness Plano Store 2017 (TX),Mario Higareda,DWA-9400Pegasus-BR-DEMO,Pegasus,Demo Choco Brown,1,"3 years parts, 1 year labor (Free)",Check ,0.00,4209.80,4209.80,,4209.80,,,,,,,,,,,,,,,,,,,,,,,350.00,LebRoy H. Weber,985-796-5022,11/27/2017 12:00:00 AM,,,TX,1,8.25
101929,11/17/2017 3:45:44 PM,Health and Wellness Plano Store 2017 (TX),Mario Higareda,DWA-9400Pegasus-BL-DEMO,Pegasus,Demo Black,1,"3 years parts, 1 year labor (Free)",Check ,0.00,4209.80,4209.80,,4209.80,,,,,,,,,,,,,,,,,,,,,,,350.00,Celia Guillory,985-789-2171,11/27/2017 12:00:00 AM,,,TX,1,8.25
101934,11/18/2017 9:13:36 AM,Health and Wellness Plano Store 2017 (TX),Tianlong Jia,DWA-9060USJ-9060BR,Relax2Zero 3D,Choco Brown,1,"3 years parts, 1 year labor (Free)",CreditCard ,247.69,4000.00,4000.00,,4000.00,01244D,,,,,,,,,,,,,,,,,,,,,,350.00,Ron Chu,4699071180,11/30/2017 12:00:00 AM,,,TX,0,8.25
102014,11/20/2017 5:17:55 PM,Health and Wellness Plano Store 2017 (TX),Tianlong Jia,DWA-9060USJ-9060BR,Relax2Zero 3D,Choco Brown,1,"3 years parts, 1 year labor (Free)",Synchrony ,247.69,4000.00,4000.00,Synchrony,4000.00,,,6034610081647839,81372222,Huston,36 months,,0.00,,,,,,,,0.00,,,,,,,350.00,Jingyu Feng,9723752599,11/30/2017 12:00:00 AM,,,TX,0,8.25
102025,11/21/2017 9:20:43 AM,Health and Wellness Plano Store 2017 (TX),Yuhan Liu,DWA-9100DWA-9100CH,Legacy,Choco Brown,1,"3 years parts, 1 year labor (Free)",Synchrony CreditCard,0.00,3500.00,3500.00,,3500.00,,,6034610081640347,81248878,Las Vegas,36 months,CreditCard,,,,,,,,,,,,,,,,350.00,Lingling Yan,214-475-8500,11/29/2017 12:00:00 AM,,,TX,1,8.25
102166,11/27/2017 2:10:05 PM,Health and Wellness Plano Store 2017 (TX),Tianlong Jia,DWA-9100DWA-9100BU,Legacy,Blue,1,"3 years parts, 1 year labor (Free)",CreditCard ,217.13,3599.00,3599.00,CreditCard,3599.00,Jr6T,,,,,,,0.00,,,,,,,,0.00,,,,,,,350.00,Cheng-pak Choi,4694385482,12/6/2017 12:00:00 AM,,,TX,0,8.25
102269,12/4/2017 3:40:45 PM,Health and Wellness Plano Store 2017 (TX),Tianlong Jia,DWA-9100DWA-9100CH,Legacy,Choco Brown,1,"3 years parts, 1 year labor (Free)",CUSTOM ,232.45,3800.00,3800.00,Cash,3800.00,,,,,,,,0.00,,,,,,,,0.00,,,,,,,350.00,Sha-Li Tsai,9722080294,12/16/2017 12:00:00 AM,,,TX,0,8.25
102626,12/21/2017 6:44:32 PM,Health and Wellness Plano Store 2017 (TX),Yuhan Liu,DWA-9060USJ-9060BR,Relax2Zero 3D,Choco Brown,1,"3 years parts, 1 year labor (Free)",CUSTOM ,0.00,4300.00,4300.00,Synchrony,4300.00,,,6034610083009038,,Huston,36 months,,0.00,,,,,,,,0.00,,,,,,,350.00,Saul Alcantar,682-802-8351,12/22/2017 12:00:00 AM,,,TX,1,8.25
102626,12/21/2017 6:44:32 PM,Health and Wellness Plano Store 2017 (TX),Yuhan Liu,,Chair Pad for Relax2Zero 3D,,1,no warranty,CUSTOM ,0.00,4300.00,4300.00,Synchrony,4300.00,,,6034610083009038,,Huston,36 months,,0.00,,,,,,,,0.00,,,,,,,350.00,Saul Alcantar,682-802-8351,12/22/2017 12:00:00 AM,,,TX,1,8.25
102626,12/21/2017 6:44:32 PM,Health and Wellness Plano Store 2017 (TX),Yuhan Liu,,Foot Pads for Relax2Zero 3D,,1,no warranty,CUSTOM ,0.00,4300.00,4300.00,Synchrony,4300.00,,,6034610083009038,,Huston,36 months,,0.00,,,,,,,,0.00,,,,,,,350.00,Saul Alcantar,682-802-8351,12/22/2017 12:00:00 AM,,,TX,1,8.25
102660,12/24/2017 2:41:45 PM,Health and Wellness Plano Store 2017 (TX),Tianlong Jia,DWA-9060USJ-9060BR,Relax2Zero 3D,Choco Brown,1,"3 years parts, 1 year labor (Free)",CUSTOM ,272.84,4330.00,4330.00,CreditCard,4330.00,lHqw,,,,,,,0.00,,,,,,,,0.00,,,,,,,350.00,Tony Le,2146735490,12/28/2017 12:00:00 AM,,,TX,0,8.25
102730,1/3/2018 9:11:11 AM,Health and Wellness Plano Store 2017 (TX),Mario Higareda,,Ninja Leg Massager,,1,"2 years parts, 1 year labor (Small Items)",CUSTOM ,0.00,5304.00,5304.00,CreditCard,5304.00,TC# 1969B2D58144C7E6,,,,,,,0.00,,,,,,,,0.00,,,,,,,350.00,Susan Maddy,972-814-0929,1/4/2018 12:00:00 AM,,,TX,1,8.25
102730,1/3/2018 9:11:11 AM,Health and Wellness Plano Store 2017 (TX),Mario Higareda,DWA-9400Pegasus-BL,Pegasus,Black,1,"3 years parts, 1 year labor (Free)",CUSTOM ,0.00,5304.00,5304.00,CreditCard,5304.00,TC# 1969B2D58144C7E6,,,,,,,0.00,,,,,,,,0.00,,,,,,,350.00,Susan Maddy,972-814-0929,1/4/2018 12:00:00 AM,,,TX,1,8.25
102793,1/8/2018 2:14:37 PM,Health and Wellness Plano Store 2017 (TX),Tianlong Jia,DWA-9060USJ-9060BR,Relax2Zero 3D,Choco Brown,1,"3 years parts, 1 year labor (Free)",CUSTOM ,272.84,4330.00,4330.00,Synchrony,4330.00,,,6034610083038029,83458850,Huston,36 months,,0.00,,,,,,,,0.00,,,,,,,0.00,Chon Huang,2146067359,1/18/2018 12:00:00 AM,,,TX,0,8.25
102864,1/11/2018 3:42:41 PM,Health and Wellness Plano Store 2017 (TX),Mijung Song,DWA-9150USJ-9150CH,Legacy 3D,Choco Brown,1,"3 years parts, 1 year labor (Free)",CUSTOM ,0.00,3800.00,3800.00,Synchrony,3800.00,,,6034610083042062,83579123,Huston,36 months,,0.00,,,,,,,,0.00,,,,,,,0.00,Robert Park,214-557-9229,1/18/2018 12:00:00 AM,,,TX,1,8.25
103097,1/20/2018 4:00:07 PM,Health and Wellness Plano Store 2017 (TX),Tianlong Jia,DWA-9060USJ-9060BR,Relax2Zero 3D,Choco Brown,1,"3 years parts, 1 year labor (Free)",CUSTOM ,272.84,4330.00,4330.00,CreditCard,4330.00,yx1P,,,,,,,0.00,,,,,,,,0.00,,,,,,,0.00,Jie Xia,2145782208,1/30/2018 12:00:00 AM,,,TX,0,8.25
103530,2/7/2018 5:16:07 PM,Health and Wellness Plano Store 2017 (TX),Mario Higareda,DWA-9250USJ-9250CH,Tech Touch 3D,Choco Brown,1,"3 years parts, 1 year labor (Free)",CUSTOM ,0.00,3800.00,3800.00,CreditCard,3800.00,x5972,,,,,,,0.00,,,,,,,,0.00,,,,,,,0.00,Mital Patel,214-491-8095,2/9/2018 12:00:00 AM,,,TX,1,8.25
103531,2/7/2018 5:21:50 PM,Health and Wellness Plano Store 2017 (TX),Mario Higareda,DWA-9250USJ-9250CH,Tech Touch 3D,Choco Brown,1,"3 years parts, 1 year labor (Free)",CUSTOM ,0.00,3800.00,3800.00,CreditCard,3800.00,x1157,,,,,,,0.00,,,,,,,,0.00,,,,,,,0.00,Yogesh Patel,214-385-1171,2/9/2018 12:00:00 AM,,,TX,1,8.25
103722,2/14/2018 3:10:09 PM,Health and Wellness Plano Store 2017 (TX),Mijung Song,DWA-9100DWA-9100CH,Legacy,Choco Brown,1,"3 years parts, 1 year labor (Free)",CUSTOM ,0.00,3000.00,3000.00,Cash,3000.00,,,,,,,,0.00,,,,,,,,0.00,,,,,,,0.00,Nam Mi Lim,720-226-6713,2/20/2018 12:00:00 AM,,,TX,1,8.25
103795,2/18/2018 1:18:53 PM,Health and Wellness Plano Store 2017 (TX),Tianlong Jia,DWA-9060USJ-9060BL,Relax2Zero 3D,Black,1,"3 years parts, 1 year labor (Free)",CUSTOM ,228.64,3750.00,3750.00,CreditCard,3750.00,BgED,,,,,,,0.00,,,,,,,,0.00,,,,,,,0.00,JIN Siao,3019923933,2/26/2018 12:00:00 AM,,,TX,0,8.25
103934,2/24/2018 12:27:11 PM,Health and Wellness Plano Store 2017 (TX),Tianlong Jia,DWA-9060USJ-9060BR,Relax2Zero 3D,New Choco,1,"3 years parts, 1 year labor (Free)",CUSTOM ,247.69,4000.00,4000.00,CreditCard,4000.00,uDDh,,,,,,,0.00,,,,,,,,0.00,,,,,,,0.00,Maria Hamblin,9409998186,3/2/2018 12:00:00 AM,,,TX,0,8.25
104471,3/12/2018 1:40:33 PM,Health and Wellness Plano Store 2017 (TX),Tianlong Jia,DWA-9060USJ-9060BR,Relax2Zero 3D,New Choco,1,"3 years parts, 1 year labor (Free)",CUSTOM CreditCard,232.45,3800.00,3800.00,Synchrony,3500.00,,,6034610083154511,86153239,Huston,36 months,CreditCard,300.00,bwA3,,,,,,,0.00,,,,,,,0.00,changlong liu,2147251218,,,,TX,0,8.25
104627,3/19/2018 3:58:46 PM,Health and Wellness Plano Store 2017 (TX),Mijung Song,DWA-9150USJ-9150CH,Legacy 3D,New Choco,1,"3 years parts, 1 year labor (Free)",CUSTOM COD,0.00,4000.00,4000.00,CreditCard,100.00,bAPO,,,,,,COD,3900.00,01761Z,,,,,,,0.00,,,,,,,0.00,Weidong Song,469-401-6861,,,,Not Dispatched,1,8.25
104651,3/21/2018 3:50:59 PM,Health and Wellness Plano Store 2017 (TX),Tianlong Jia,DWA-9060USJ-9060BL,Relax2Zero 3D,New Black,1,"3 years parts, 1 year labor (Free)",CUSTOM ,247.69,4000.00,4000.00,Synchrony,4000.00,,,6034610083171689,86568395,Huston,36 months,,0.00,,,,,,,,0.00,,,,,,,0.00,Kin Lin,901-581-6404,4/3/2018 12:00:00 AM,,,TX,0,8.25
104806,3/26/2018 4:33:34 PM,Health and Wellness Plano Store 2017 (TX),Tianlong Jia,DWA-9060USJ-9060BR,Relax2Zero 3D,New Choco,1,"3 years parts, 1 year labor (Free)",CUSTOM CreditCard,224.83,3700.00,3700.00,CreditCard,100.00,bAPO,,,,,,CreditCard,3600.00,94Hn,,,,,,,0.00,,,,,,,0.00,Weidong Song,9723103554,,,,Not Dispatched,0,8.25
104826,3/27/2018 8:40:22 AM,Health and Wellness Plano Store 2017 (TX),Tianlong Jia,DWA-9060USJ-9060BR,Relax2Zero 3D,New Choco,1,"3 years parts, 1 year labor (Free)",CUSTOM ,232.45,3800.00,3800.00,Synchrony,3800.00,,,6034610083182561,86792179,Huston,36 months,,0.00,,,,,,,,0.00,,,,,,,0.00,fang wang,4694509196,,,,TX,0,8.25
104953,4/2/2018 8:08:33 AM,Health and Wellness Plano Store 2017 (TX),Mijung Song,DWA-9060USJ-9060BR,Relax2Zero 3D,New Choco,1,"3 years parts, 1 year labor (Free)",CUSTOM CreditCard,0.00,3700.00,3700.00,CreditCard,100.00,bAPO,,,,,,CreditCard,3600.00,94Hn,,,,,,,0.00,,,,,,,0.00,Weidong Song,9723103554,,,,TX,1,8.25
