﻿Order Number,Order Date,Original Event Name,Event Name,Salesperson,SKU,Product Name,Color,QTY,Warranty,Payment Details,Tax,Order Total,Gross,Primary Payment Method,Primary Payment Balance,Primary Authorize Number,Primary Purchase Order Number,Primary Synchrony Account Number,Primary Synchrony Application Key,Primary Synchrony AccountInfo,Primary SynchronyTerm,Secondly Payment Method,Secondly Payment Balance,Secondly Authorize Number,Secondly Purchase Order Number,Secondly Synchrony Account Number,Secondly Synchrony Application Key,Secondly Synchrony AccountInfo,Secondly SynchronyTerm,Thirdly Payment Method,Thirdly Payment Balance,Thirdly Authorize Number,Thirdly Purchase Order Number,Thirdly Synchrony Account Number,Thirdly Synchrony Application Key,Thirdly Synchrony AccountInfo,Thirdly SynchronyTerm,Actual Shipping Cost,CustomerName,Shipping Address,Delivered On,Serial Number (TO Be),Note,Branch,IsNoTax,ActualTaxRate
109007,9/3/2018 5:59:31 AM,"Sam's Club #8142 Spartanburg, SC 8/30-9/9/18 (FL)","Sam's Club #8142 Spartanburg, SC 8/30-9/9/18 (FL)",Michael Rowe,USJ-9050USJ-9050BR-DEMO (Box),Relax 2 Zero 2.0 for Sam's,Demo (Box) Brown,1,"3 years parts, 1 year labor (Free)",CUSTOM ,0.00,3199.00,3199.00,PurchaseOrder,3199.00,,TC#B50C73B4FE0F35F5,,,,,,0.00,,,,,,,,0.00,,,,,,,0.00,Tina Pulley,8648095517,,,,FL,1,6.00
109008,9/3/2018 6:07:10 AM,"Sam's Club #8142 Spartanburg, SC 8/30-9/9/18 (FL)","Sam's Club #8142 Spartanburg, SC 8/30-9/9/18 (FL)",Michael Rowe,DWA-9100DWA-9100BL-Box,Legacy for Sam's,Demo(Box) Black,1,"3 years parts, 1 year labor (Free)",CUSTOM ,215.94,3814.94,3814.94,PurchaseOrder,3599.00,,TC#2D1374EB069464F8,,,,,,0.00,,,,,,,,0.00,,,,,,,0.00,Brian Howell,8642012166,,,,FL,0,6.00
109009,9/3/2018 6:11:25 AM,"Sam's Club #8142 Spartanburg, SC 8/30-9/9/18 (FL)","Sam's Club #8142 Spartanburg, SC 8/30-9/9/18 (FL)",Michael Rowe,USJ-874USJ-874,Shogun Neck & Back Massger,New,3,"2 years parts, 1 year labor (Free)",CUSTOM ,0.00,599.94,599.94,PurchaseOrder,599.94,,,,,,,,0.00,,,,,,,,0.00,,,,,,,0.00,US Jaclean Inc,800-241-2221,,,,CA,1,6.00
109010,9/3/2018 6:13:49 AM,"Sam's Club #8142 Spartanburg, SC 8/30-9/9/18 (FL)","Sam's Club #8142 Spartanburg, SC 8/30-9/9/18 (FL)",Michael Rowe,USJ-871,Foot Vibe Pro,,3,"2 years parts, 1 year labor (Free)",CUSTOM ,0.00,329.97,329.97,PurchaseOrder,329.97,,,,,,,,0.00,,,,,,,,0.00,,,,,,,0.00,US Jaclean Inc,800-241-2221,,,,CA,1,6.00
109079,9/5/2018 7:38:12 AM,"Sam's Club #8142 Spartanburg, SC 8/30-9/9/18 (FL)","Sam's Club #8142 Spartanburg, SC 8/30-9/9/18 (FL)",Michael Rowe,USJ-9050USJ-9050BL-DEMO (Box),Relax 2 Zero 2.0 for Sam's,Demo (Box) Black,1,"3 years parts, 1 year labor (Free)",CUSTOM ,0.00,3199.00,3199.00,PurchaseOrder,3199.00,,3AD4642E60695F4C,,,,,,0.00,,,,,,,,0.00,,,,,,,0.00,Mahesh Patel,3047315859,,,,FL,1,6.00
109109,9/6/2018 1:11:39 PM,"Sam's Club #8142 Spartanburg, SC 8/30-9/9/18 (FL)","Sam's Club #8142 Spartanburg, SC 8/30-9/9/18 (FL)",Michael Rowe,DWA-9100DWA-9100BL-Box,Legacy for Sam's,Demo(Box) Black,1,"3 years parts, 1 year labor (Free)",CUSTOM ,0.00,3599.00,3599.00,PurchaseOrder,3599.00,,TC#0841834715296270191734,,,,,,0.00,,,,,,,,0.00,,,,,,,0.00,Donna Bond,8286064247,,,,FL,1,6.00
109110,9/6/2018 1:21:28 PM,"Sam's Club #8142 Spartanburg, SC 8/30-9/9/18 (FL)","Sam's Club #8142 Spartanburg, SC 8/30-9/9/18 (FL)",Michael Rowe,USJ-871,Foot Vibe Pro,,5,"2 years parts, 1 year labor (Free)",CUSTOM ,0.00,549.95,549.95,CreditCard,549.95,,,,,,,,0.00,,,,,,,,0.00,,,,,,,0.00,US Jaclean Inc,800-241-2221,,,,CA,1,6.00
109113,9/6/2018 3:05:04 PM,"Sam's Club #8142 Spartanburg, SC 8/30-9/9/18 (FL)","Sam's Club #8142 Spartanburg, SC 8/30-9/9/18 (FL)",Michael Rowe,USJ-874USJ-874,Shogun Neck & Back Massger,New,4,"2 years parts, 1 year labor (Free)",CUSTOM ,0.00,799.92,799.92,CreditCard,799.92,,,,,,,,0.00,,,,,,,,0.00,,,,,,,0.00,US Jaclean Inc,800-241-2221,,,,CA,1,6.00
109114,9/6/2018 3:09:12 PM,"Sam's Club #8142 Spartanburg, SC 8/30-9/9/18 (FL)","Sam's Club #8142 Spartanburg, SC 8/30-9/9/18 (FL)",Michael Rowe,USJ-849USJ-849,Vitality Plate for Sam's,New,1,"2 years parts, 1 year labor (Free)",CUSTOM ,0.00,459.99,459.99,CreditCard,459.99,,,,,,,,0.00,,,,,,,,0.00,,,,,,,0.00,US Jaclean Inc,800-241-2221,,,,CA,1,6.00
109115,9/6/2018 3:12:10 PM,"Sam's Club #8142 Spartanburg, SC 8/30-9/9/18 (FL)","Sam's Club #8142 Spartanburg, SC 8/30-9/9/18 (FL)",Michael Rowe,USJ-849USJ-849-DEMO,Vitality Plate for Sam's,Demo,1,"2 years parts, 1 year labor (Free)",CUSTOM ,0.00,399.99,399.99,CreditCard,399.99,,,,,,,,0.00,,,,,,,,0.00,,,,,,,0.00,US Jaclean Inc,800-241-2221,,,,CA,1,6.00
109142,9/8/2018 7:30:35 AM,"Sam's Club #8142 Spartanburg, SC 8/30-9/9/18 (FL)","Sam's Club #8142 Spartanburg, SC 8/30-9/9/18 (FL)",Michael Rowe,DWA-9400Pegasus-BL-BOX,Pegasus for Sam's,Demo Black(Box),1,"3 years parts, 1 year labor (Free)",CUSTOM ,0.00,4798.00,4798.00,PurchaseOrder,4798.00,,TC#7154051170370348945451,,,,,,0.00,,,,,,,,0.00,,,,,,,0.00,Naimat Shah,8643020040,,,,FL,1,6.00
109150,9/8/2018 4:57:29 PM,"Sam's Club #8142 Spartanburg, SC 8/30-9/9/18 (FL)","Sam's Club #8142 Spartanburg, SC 8/30-9/9/18 (FL)",Michael Rowe,USJ-874USJ-874,Shogun Neck & Back Massger,New,1,"2 years parts, 1 year labor (Free)",CUSTOM ,0.00,199.98,199.98,PurchaseOrder,199.98,,TC#313503585581522705203,,,,,,0.00,,,,,,,,0.00,,,,,,,0.00,US Jaclean Inc,800-241-2221,,,,CA,1,6.00
109181,9/9/2018 7:10:55 AM,"Sam's Club #8142 Spartanburg, SC 8/30-9/9/18 (FL)","Sam's Club #8142 Spartanburg, SC 8/30-9/9/18 (FL)",Michael Rowe,USJ-9050USJ-9050BL-DEMO (Box),Relax 2 Zero 2.0 for Sam's,Demo (Box) Black,1,"3 years parts, 1 year labor (Free)",CUSTOM ,0.00,3199.00,3199.00,PurchaseOrder,3199.00,,TC#3533010097103163546610,,,,,,0.00,,,,,,,,0.00,,,,,,,0.00,Mike Packett,8282894067,,,,FL,1,6.00
109196,9/9/2018 4:15:41 PM,"Sam's Club #8142 Spartanburg, SC 8/30-9/9/18 (FL)","Sam's Club #8142 Spartanburg, SC 8/30-9/9/18 (FL)",Michael Rowe,DWA-9400Pegasus-BR-BOX,Pegasus for Sam's,Demo Choco(Box),1,"3 years parts, 1 year labor (Free)",CUSTOM ,0.00,4798.00,4798.00,PurchaseOrder,4798.00,,TC#5252072956041084359892,,,,,,0.00,,,,,,,,0.00,,,,,,,0.00,ION Darmancef,2154165009,,,,FL,1,6.00
109197,9/9/2018 4:23:32 PM,"Sam's Club #8142 Spartanburg, SC 8/30-9/9/18 (FL)","Sam's Club #8142 Spartanburg, SC 8/30-9/9/18 (FL)",Michael Rowe,DWA-9100DWA-9100CH-Box,Legacy for Sam's,Demo(Box) Choco,1,"3 years parts, 1 year labor (Free)",CUSTOM ,215.94,3814.94,3814.94,PurchaseOrder,3599.00,,TC#5404371079370341925481,,,,,,0.00,,,,,,,,0.00,,,,,,,0.00,Neela Limogiannis,6787790603,,,,FL,0,6.00
