﻿Original Event Name,Event Name,Sales Person,Order Number,Order Date,Customer Name,State,Zip,Product Name,Color,Product Status,QTY,Tax,Total Before Tax,Order Total,Primary Payment Method,Second Payment Method,Thirdl Payment Method,Warranty,Order Items,Pick up,Delivered On,Order Status,Chair Type,Order Notes,Private Note,Branch,No Tax,Actual Tax Rate,SKU,Primary Payment Balance,Primary Authorize Number,Primary Purchase Order Number,Primary Synchrony Account Number,Primary Synchrony Application Key,Primary Synchrony Account Info,Primary Synchrony Term,Second Payment Balance,Second Authorize Number,Second Purchase Order Number,Second Synchrony Account Number,Second Synchrony Application Key,Second Synchrony Account Info,Second SynchronyTerm,Third Payment Balance,Third Authorize Number,Third Purchase Order Number,Third Synchrony Account Number,Third Synchrony Application Key,Third Synchrony Account Info,Third Synchrony Term
"Sam's Club #4915 Bullhead City, AZ 1/17-27/19 (NV)","Sam's Club #4915 Bullhead City, AZ 1/17-27/19 (NV)",Li Chen,114349,1/17/2019 6:51:34 PM,Albert Martinez,AZ,86442,Pegasus for Sam's,Demo Choco(Box)[-700],Demo,1,376.64,4798.00,5174.64,PurchaseOrder,,,"3 years parts, 1 year labor (Free)","Pegasus for Sam's,",No,2/9/2019 12:00:00 AM,Delivered,New,,"1/23Maritza- Courtesy email sent @ 10:46AM
Received delivery confirmation --- 2/26/19 Asumi",NV,0,7.85,DWA-9400Pegasus-BR-BOX,5174.64,,TC# 2748 1174 7191 4254 7004 45,,,,,0.00,,,,,,,0.00,,,,,,
"Sam's Club #4915 Bullhead City, AZ 1/17-27/19 (NV)","Sam's Club #4915 Bullhead City, AZ 1/17-27/19 (NV)",Li Chen,114396,1/19/2019 5:53:53 PM,"U.S.  JACLEAN, INC.",CA,90249,Shogun Neck & Back Massger,New,New,1,15.70,199.98,215.68,PurchaseOrder,,,"2 years parts, 1 year labor for Small Items","Shogun Neck &amp; Back Massger,",YES,,Delivered,,,,CA,0,7.85,USJ-874USJ-874,215.68,,TC# 1043 5040 8224 9470 3055 4,,,,,0.00,,,,,,,0.00,,,,,,
"Sam's Club #4915 Bullhead City, AZ 1/17-27/19 (NV)","Sam's Club #4915 Bullhead City, AZ 1/17-27/19 (NV)",Li Chen,114437,1/20/2019 2:49:34 PM,"U.S.  JACLEAN, INC.",CA,90249,Shogun Neck & Back Massger,New,New,1,24.33,309.97,334.30,PurchaseOrder,,,"2 years parts, 1 year labor for Small Items","Foot Vibe Pro,Shogun Neck &amp; Back Massger,",YES,,Delivered,,,,CA,0,7.85,USJ-874USJ-874,334.30,,TC# 4179 4876 1747 0978 4822 9,,,,,0.00,,,,,,,0.00,,,,,,
"Sam's Club #4915 Bullhead City, AZ 1/17-27/19 (NV)","Sam's Club #4915 Bullhead City, AZ 1/17-27/19 (NV)",Li Chen,114491,1/21/2019 4:12:34 PM,"U.S.  JACLEAN, INC.",CA,90249,Shogun Neck & Back Massger,New,New,1,15.70,199.98,215.68,PurchaseOrder,,,"2 years parts, 1 year labor for Small Items","Shogun Neck &amp; Back Massger,",YES,,Delivered,,,,CA,0,7.85,USJ-874USJ-874,215.68,,TC# 5735 3355 2171 8023 6578 0,,,,,0.00,,,,,,,0.00,,,,,,
"Sam's Club #4915 Bullhead City, AZ 1/17-27/19 (NV)","Sam's Club #4915 Bullhead City, AZ 1/17-27/19 (NV)",Li Chen,114514,1/22/2019 5:20:40 PM,"U.S.  JACLEAN, INC.",CA,90249,Shogun Neck & Back Massger,New,New,1,15.70,199.98,215.68,PurchaseOrder,,,"2 years parts, 1 year labor for Small Items","Shogun Neck &amp; Back Massger,",YES,,Delivered,,,,CA,0,7.85,USJ-874USJ-874,215.68,,TC# 4440 6624 8818 1796 3401 7,,,,,0.00,,,,,,,0.00,,,,,,
"Sam's Club #4915 Bullhead City, AZ 1/17-27/19 (NV)","Sam's Club #4915 Bullhead City, AZ 1/17-27/19 (NV)",Li Chen,114518,1/23/2019 12:03:23 PM,"U.S.  JACLEAN, INC.",CA,90249,Vitality Plate for Sam's,Demo[-60],Demo,1,31.40,399.99,431.39,PurchaseOrder,,,"2 years parts, 1 year labor for Small Items","Vitality Plate for Sam's,",YES,,Delivered,,,,CA,0,7.85,USJ-849USJ-849-DEMO,431.39,,TC# 6887 8987 8553 4339 8869 3,,,,,0.00,,,,,,,0.00,,,,,,
"Sam's Club #4915 Bullhead City, AZ 1/17-27/19 (NV)","Sam's Club #4915 Bullhead City, AZ 1/17-27/19 (NV)",Li Chen,114525,1/23/2019 1:49:51 PM,"U.S.  JACLEAN, INC.",CA,90249,Shogun Neck & Back Massger,New,New,1,15.70,199.98,215.68,PurchaseOrder,,,"2 years parts, 1 year labor for Small Items","Shogun Neck &amp; Back Massger,",YES,,Delivered,,,,CA,0,7.85,USJ-874USJ-874,215.68,,TC# 6249 8826 8707 0958 1620 9,,,,,0.00,,,,,,,0.00,,,,,,
"Sam's Club #4915 Bullhead City, AZ 1/17-27/19 (NV)","Sam's Club #4915 Bullhead City, AZ 1/17-27/19 (NV)",Li Chen,114551,1/24/2019 6:25:43 PM,Kayle Stephens,NV,89131,Orbit for Sam's ,Demo Choco[-300],Demo,1,211.79,2698.00,2909.79,PurchaseOrder,,,"3 years parts, 1 year labor (Free)","Orbit for Sam's ,",No,1/28/2019 12:00:00 AM,Delivered,New,,2/5/19-confirmed delivery confirmation - Hitomi,NV,0,7.85,ORBT-1ORBT-1CH-DEMO,2909.79,,TC# 6929 2786 6975 4099 8352 99,,,,,0.00,,,,,,,0.00,,,,,,
"Sam's Club #4915 Bullhead City, AZ 1/17-27/19 (NV)","Sam's Club #4915 Bullhead City, AZ 1/17-27/19 (NV)",Li Chen,114580,1/25/2019 6:29:49 PM,Marsha Borleau,AZ,86404,Orbit for Sam's ,New Choco,New,1,235.34,2998.00,3233.34,PurchaseOrder,,,"3 years parts, 1 year labor (Free)","Orbit for Sam's ,",No,2/9/2019 12:00:00 AM,Delivered,New,Please call Mrs. Borleau one week ahead to schedule deliver the chair around 02/15/2019.,"Courtesy text message is sent - 1/30/19 @4:05PM Hitomi
Received delivery confirmation --- 2/26/19 Asumi",NV,0,7.85,ORBT-1ORBT-1CH,3233.34,,TC# 4659 0485 6775 2092 8412 49,,,,,0.00,,,,,,,0.00,,,,,,
