﻿Original Event Name,Event Name,Sales Person,Order Number,Order Date,Customer Name,State,Zip,Product Name,Color,Product Status,QTY,Tax,Total Before Tax,Order Total,Primary Payment Method,Second Payment Method,Thirdl Payment Method,Warranty,Order Items,Pick up,Delivered On,Order Status,Chair Type,Order Notes,Private Note,Branch,No Tax,Actual Tax Rate,SKU,Primary Payment Balance,Primary Authorize Number,Primary Purchase Order Number,Primary Synchrony Account Number,Primary Synchrony Application Key,Primary Synchrony Account Info,Primary Synchrony Term,Second Payment Balance,Second Authorize Number,Second Purchase Order Number,Second Synchrony Account Number,Second Synchrony Application Key,Second Synchrony Account Info,Second SynchronyTerm,Third Payment Balance,Third Authorize Number,Third Purchase Order Number,Third Synchrony Account Number,Third Synchrony Application Key,Third Synchrony Account Info,Third Synchrony Term
Sam's Club #6612 Concord 5/9-19/19(CA),Sam's Club #6612 Concord 5/9-19/19(CA),Michael Wang,117232,5/9/2019 1:48:33 PM,"U.S.  JACLEAN, INC.",CA,90249,Foot Vibe Pro,,New,1,9.62,109.99,119.61,Credit Card,,,"2 years parts, 1 year labor for Small Items","Foot Vibe Pro,",YES,,Delivered,,,Change tax rate should be 8.25 percent.,CA,0,8.75,USJ-871,119.06,Tc# 943799277943732950232,,,,,,0.00,,,,,,,0.00,,,,,,
Sam's Club #6612 Concord 5/9-19/19(CA),Sam's Club #6612 Concord 5/9-19/19(CA),Michael Wang,117235,5/9/2019 6:37:46 PM,"U.S.  JACLEAN, INC.",CA,90249,Foot Vibe Pro,,New,1,9.07,109.99,119.06,Credit Card,,,"2 years parts, 1 year labor for Small Items","Foot Vibe Pro,",YES,,Cancelled,,,"Forgot to get copy of receipt so I di not have tc number for the moment.
5/13Maritza- cancell this order correct one was typed in again #117335",CA,0,8.25,USJ-871,119.06,tc#5805 0375 6309 5003 8660 6,,,,,,0.00,,,,,,,0.00,,,,,,
Sam's Club #6612 Concord 5/9-19/19(CA),Sam's Club #6612 Concord 5/9-19/19(CA),Michael Wang,117258,5/10/2019 2:17:00 PM,"U.S.  JACLEAN, INC.",CA,90249,Foot Vibe Pro,,New,1,9.07,109.99,119.06,Credit Card,,,"2 years parts, 1 year labor for Small Items","Foot Vibe Pro,",YES,,Delivered,,,,CA,0,8.25,USJ-871,119.06,Tc# 3215 3329 5360 5063 1360 6,,,,,,0.00,,,,,,,0.00,,,,,,
Sam's Club #6612 Concord 5/9-19/19(CA),Sam's Club #6612 Concord 5/9-19/19(CA),Michael Wang,117319,5/13/2019 11:35:04 AM,"U.S.  JACLEAN, INC.",CA,90249,Foot Vibe Pro,,New,3,27.22,329.97,357.19,Credit Card,Credit Card,Credit Card,"2 years parts, 1 year labor for Small Items","Foot Vibe Pro,",YES,,Delivered,,,"3rd order without tc number because customer paid without giving me a receipt and she said she wasn't done shopping when I wanted to check out at the register with her.Smart system shows proof she bought the foot vibe pro.
5/13Maritza- TC# updated.",CA,0,8.25,USJ-871,119.06,Tc# 3115 3319 5330 5063 1960 6,,,,,,119.06,Tc# 4461 3460 2448 2854 8059 5,,,,,,119.06,TC# 2260 4672 9658 4756 1331 3,,,,,
Sam's Club #6612 Concord 5/9-19/19(CA),Sam's Club #6612 Concord 5/9-19/19(CA),Michael Wang,117320,5/13/2019 12:43:17 PM,"U.S.  JACLEAN, INC.",CA,90249,Shogun Neck & Back Massger,New,New,1,16.50,199.98,216.48,Credit Card,,,"2 years parts, 1 year labor for Small Items","Shogun Neck &amp; Back Massger,",YES,,Delivered,,,,CA,0,8.25,USJ-874USJ-874,216.48,Tc# 3354 1115 4182 3241 9188 8,,,,,,0.00,,,,,,,0.00,,,,,,
Sam's Club #6612 Concord 5/9-19/19(CA),Sam's Club #6612 Concord 5/9-19/19(CA),Michael Wang,117326,5/13/2019 2:11:43 PM,"U.S.  JACLEAN, INC.",CA,90249,Shogun Neck & Back Massger,Demo[-20],Demo,1,14.85,179.98,194.83,Credit Card,,,"2 years parts, 1 year labor for Small Items","Shogun Neck &amp; Back Massger,",YES,,Delivered,,,,CA,0,8.25,USJ-874USJ-874-DEMO,194.83,Tc# 8349 9844 5819 6948 5812 1,,,,,,0.00,,,,,,,0.00,,,,,,
Sam's Club #6612 Concord 5/9-19/19(CA),Sam's Club #6612 Concord 5/9-19/19(CA),Michael Wang,117335,5/13/2019 4:09:59 PM,"U.S.  JACLEAN, INC.",CA,90249,Foot Vibe Pro,,New,1,9.07,109.99,119.06,Credit Card,,,"2 years parts, 1 year labor for Small Items","Foot Vibe Pro,",YES,,Delivered,,,,CA,0,8.25,USJ-871,119.06,TC# 5805 0375 6309 5003 8660 6,,,,,,0.00,,,,,,,0.00,,,,,,
Sam's Club #6612 Concord 5/9-19/19(CA),Sam's Club #6612 Concord 5/9-19/19(CA),Michael Wang,117338,5/13/2019 7:48:05 PM,"U.S.  JACLEAN, INC.",CA,90249,Shogun Neck & Back Massger,Demo[-20],Demo,1,14.85,179.98,194.83,Credit Card,,,"2 years parts, 1 year labor for Small Items","Shogun Neck &amp; Back Massger,",YES,,Delivered,,,,CA,0,8.25,USJ-874USJ-874-DEMO,194.83,Tc# 2401 5430 1476 2834 8554 5,,,,,,0.00,,,,,,,0.00,,,,,,
Sam's Club #6612 Concord 5/9-19/19(CA),Sam's Club #6612 Concord 5/9-19/19(CA),Michael Wang,117354,5/14/2019 4:55:43 PM,"U.S.  JACLEAN, INC.",CA,90249,Shogun Neck & Back Massger,Demo[-20],Demo,1,14.85,179.98,194.83,Credit Card,,,"2 years parts, 1 year labor for Small Items","Shogun Neck &amp; Back Massger,",YES,,Delivered,,,,CA,0,8.25,USJ-874USJ-874-DEMO,194.83,Tc# 7667 3908 0905 7399 7727 2,,,,,,0.00,,,,,,,0.00,,,,,,
Sam's Club #6612 Concord 5/9-19/19(CA),Sam's Club #6612 Concord 5/9-19/19(CA),Michael Wang,117360,5/14/2019 6:37:18 PM,"U.S.  JACLEAN, INC.",CA,90249,Foot Vibe Pro,,New,1,9.07,109.99,119.06,Credit Card,,,"2 years parts, 1 year labor for Small Items","Foot Vibe Pro,",YES,,Delivered,,,,CA,0,8.25,USJ-871,119.06,Tc# 0053 0083 9063 1470 2874 7,,,,,,0.00,,,,,,,0.00,,,,,,
Sam's Club #6612 Concord 5/9-19/19(CA),Sam's Club #6612 Concord 5/9-19/19(CA),Michael Wang,117361,5/14/2019 8:15:22 PM,"U.S.  JACLEAN, INC.",CA,90249,Shogun Neck & Back Massger,Demo[-20],Demo,1,14.85,179.98,194.83,Credit Card,,,"2 years parts, 1 year labor for Small Items","Shogun Neck &amp; Back Massger,",YES,,Delivered,,,,CA,0,8.25,USJ-874USJ-874-DEMO,194.83,Tc# 1653 6013 4063 1440 1670 7,,,,,,0.00,,,,,,,0.00,,,,,,
Sam's Club #6612 Concord 5/9-19/19(CA),Sam's Club #6612 Concord 5/9-19/19(CA),Michael Wang,117369,5/15/2019 11:50:57 AM,"U.S.  JACLEAN, INC.",CA,90249,Shogun Neck & Back Massger,Demo[-20],Demo,1,14.85,179.98,194.83,Credit Card,,,"2 years parts, 1 year labor for Small Items","Shogun Neck &amp; Back Massger,",YES,,Delivered,,,,IL,0,8.25,USJ-874USJ-874-DEMO,194.83,Tc# 8509 9864 3857 6948 5112 1,,,,,,0.00,,,,,,,0.00,,,,,,
Sam's Club #6612 Concord 5/9-19/19(CA),Sam's Club #6612 Concord 5/9-19/19(CA),Michael Wang,117372,5/15/2019 12:45:39 PM,"U.S.  JACLEAN, INC.",CA,90249,Shogun Neck & Back Massger,Demo[-20],Demo,1,14.85,179.98,194.83,Credit Card,,,"2 years parts, 1 year labor for Small Items","Shogun Neck &amp; Back Massger,",YES,,Delivered,,,,CA,0,8.25,USJ-874USJ-874-DEMO,194.83,Tc# 3985 0319 3340 5093 2367 6,,,,,,0.00,,,,,,,0.00,,,,,,
Sam's Club #6612 Concord 5/9-19/19(CA),Sam's Club #6612 Concord 5/9-19/19(CA),Michael Wang,117378,5/15/2019 1:45:56 PM,"U.S.  JACLEAN, INC.",CA,90249,Shogun Neck & Back Massger,Demo[-20],Demo,1,14.85,179.98,194.83,Credit Card,,,"2 years parts, 1 year labor for Small Items","Shogun Neck &amp; Back Massger,",YES,,Delivered,,,,CA,0,8.25,USJ-874USJ-874-DEMO,194.83,Tc# 0893 4053 2082 1430 6575 7,,,,,,0.00,,,,,,,0.00,,,,,,
Sam's Club #6612 Concord 5/9-19/19(CA),Sam's Club #6612 Concord 5/9-19/19(CA),Michael Wang,117391,5/15/2019 7:02:15 PM,Tam Nguyen,CA,94583,Legacy for Sam's,Demo(Box) Black[-700],Demo,1,296.92,3599.00,3895.92,Credit Card,,,"5 years parts, 1 year labor (Free)","Legacy for Sam's,",No,,Scheduled,,,"Please bring proof/paperwork chair is 2018 legacy or customer will cancel.Customer wants second floor delivery.Please bring customer 1 refurbished shogun neck and back massager upon delivery.Please make sure it is good condition not a worn out one.Dont forget the car charger.Bring 1 fabric chair pad upon delivery.Customer does not want to wait until June 2019 for delivery if no choice use 3rd party.

5/16Maritza- Copy of invoice received. Printed.
5/21Maritza- Scheduled for 5/23 12-3",CA,0,8.25,DWA-9100DWA-9100BL-Box,3895.92,Tc# 1852 5620 1928 1060 2679 59,,,,,,0.00,,,,,,,0.00,,,,,,
Sam's Club #6612 Concord 5/9-19/19(CA),Sam's Club #6612 Concord 5/9-19/19(CA),Michael Wang,117404,5/16/2019 1:09:34 PM,"U.S.  JACLEAN, INC.",CA,90249,Orbit for Sam's ,Demo Choco(Box)[-300],Demo,1,237.43,2877.98,3115.41,Credit Card,Credit Card,,"3 years parts, 1 year labor (Free)","Orbit for Sam's ,Shogun Neck &amp; Back Massger,",YES,,Cancelled,,,"Please don't deliver customer chair until customer returns her chair to Costco.

@Maritza: Please do ask customer to keep you updated on when she is ready for delivery.Also please inform her I will leave her demo shogun at the members service for her to pickup she cannot make it back this weekend.

5/16Maritza- Michael recreated this order with correct customer information.  #117406 I will now cancel this order out.",Not Dispatched,0,8.25,ORBT-1ORBT-1CH-BOX,2920.59,Tc# 1292 9221 1726 4062 2329 59,,,,,,194.82,Tc# 1292 9221 1726 4062 2329 59,,,,,,0.00,,,,,,
Sam's Club #6612 Concord 5/9-19/19(CA),Sam's Club #6612 Concord 5/9-19/19(CA),Michael Wang,117404,5/16/2019 1:09:34 PM,"U.S.  JACLEAN, INC.",CA,90249,Shogun Neck & Back Massger,Demo[-20],Demo,1,237.43,2877.98,3115.41,Credit Card,Credit Card,,"2 years parts, 1 year labor (Free)","Orbit for Sam's ,Shogun Neck &amp; Back Massger,",YES,,Cancelled,,,"Please don't deliver customer chair until customer returns her chair to Costco.

@Maritza: Please do ask customer to keep you updated on when she is ready for delivery.Also please inform her I will leave her demo shogun at the members service for her to pickup she cannot make it back this weekend.

5/16Maritza- Michael recreated this order with correct customer information.  #117406 I will now cancel this order out.",Not Dispatched,0,8.25,USJ-874USJ-874-DEMO,2920.59,Tc# 1292 9221 1726 4062 2329 59,,,,,,194.82,Tc# 1292 9221 1726 4062 2329 59,,,,,,0.00,,,,,,
Sam's Club #6612 Concord 5/9-19/19(CA),Sam's Club #6612 Concord 5/9-19/19(CA),Michael Wang,117406,5/16/2019 1:53:36 PM,Lisa Vanni,CA,94505,Orbit for Sam's ,Demo Choco(Box)[-300],Demo,1,237.43,2877.98,3115.41,Credit Card,Credit Card,,"3 years parts, 1 year labor (Free)","Orbit for Sam's ,Shogun Neck &amp; Back Massger,",No,,Called,,,"Customer will pick up floor model of shogun at a later date from Sam member service.Please remind her.I will leave for her. (Spoke with Michael, we can drop off with chair delivery)
5/20Maritza- Per Michael's request, will upgrade to new Shogun due to the other shogun being picked up by another customer.

5/16Maritza Received copy of invoice.

Hold chair until customer ready for delivery she needs to return her old massage chair to Costco first.

Give one fabric chair pad upon delivery.",CA,0,8.25,ORBT-1ORBT-1CH-BOX,2920.59,Tc# 1292 9221 1726 4062 2329 59,,,,,,194.82,Tc# 1292 9221 1726 4062 2329 59,,,,,,0.00,,,,,,
Sam's Club #6612 Concord 5/9-19/19(CA),Sam's Club #6612 Concord 5/9-19/19(CA),Michael Wang,117406,5/16/2019 1:53:36 PM,Lisa Vanni,CA,94505,Shogun Neck & Back Massger,Demo[-20],Demo,1,237.43,2877.98,3115.41,Credit Card,Credit Card,,"2 years parts, 1 year labor (Free)","Orbit for Sam's ,Shogun Neck &amp; Back Massger,",No,,Called,,,"Customer will pick up floor model of shogun at a later date from Sam member service.Please remind her.I will leave for her. (Spoke with Michael, we can drop off with chair delivery)
5/20Maritza- Per Michael's request, will upgrade to new Shogun due to the other shogun being picked up by another customer.

5/16Maritza Received copy of invoice.

Hold chair until customer ready for delivery she needs to return her old massage chair to Costco first.

Give one fabric chair pad upon delivery.",CA,0,8.25,USJ-874USJ-874-DEMO,2920.59,Tc# 1292 9221 1726 4062 2329 59,,,,,,194.82,Tc# 1292 9221 1726 4062 2329 59,,,,,,0.00,,,,,,
Sam's Club #6612 Concord 5/9-19/19(CA),Sam's Club #6612 Concord 5/9-19/19(CA),Michael Wang,117422,5/17/2019 1:25:52 PM,"U.S.  JACLEAN, INC.",CA,90249,Foot Vibe Pro,,New,1,56.92,689.96,746.88,Credit Card,Credit Card,Credit Card,"2 years parts, 1 year labor for Small Items","Foot Vibe Pro,Shogun Neck &amp; Back Massger,Vitality Plate for Sam's,",YES,,Delivered,,,,CA,0,8.25,USJ-871,119.06,Tc# 9591 3450 5438 2864 3153 5,,,,,,194.83,Tc# 9591 3450 5438 2864 3153 5,,,,,,432.99,Tc# 9591 3450 5438 2864 3153 5,,,,,
Sam's Club #6612 Concord 5/9-19/19(CA),Sam's Club #6612 Concord 5/9-19/19(CA),Michael Wang,117422,5/17/2019 1:25:52 PM,"U.S.  JACLEAN, INC.",CA,90249,Shogun Neck & Back Massger,Demo[-20],Demo,1,56.92,689.96,746.88,Credit Card,Credit Card,Credit Card,"2 years parts, 1 year labor for Small Items","Foot Vibe Pro,Shogun Neck &amp; Back Massger,Vitality Plate for Sam's,",YES,,Delivered,,,,CA,0,8.25,USJ-874USJ-874-DEMO,119.06,Tc# 9591 3450 5438 2864 3153 5,,,,,,194.83,Tc# 9591 3450 5438 2864 3153 5,,,,,,432.99,Tc# 9591 3450 5438 2864 3153 5,,,,,
Sam's Club #6612 Concord 5/9-19/19(CA),Sam's Club #6612 Concord 5/9-19/19(CA),Michael Wang,117422,5/17/2019 1:25:52 PM,"U.S.  JACLEAN, INC.",CA,90249,Vitality Plate for Sam's,Demo[-60],Demo,1,56.92,689.96,746.88,Credit Card,Credit Card,Credit Card,"2 years parts, 1 year labor for Small Items","Foot Vibe Pro,Shogun Neck &amp; Back Massger,Vitality Plate for Sam's,",YES,,Delivered,,,,CA,0,8.25,USJ-849USJ-849-DEMO,119.06,Tc# 9591 3450 5438 2864 3153 5,,,,,,194.83,Tc# 9591 3450 5438 2864 3153 5,,,,,,432.99,Tc# 9591 3450 5438 2864 3153 5,,,,,
Sam's Club #6612 Concord 5/9-19/19(CA),Sam's Club #6612 Concord 5/9-19/19(CA),Michael Wang,117447,5/18/2019 7:48:12 PM,"U.S.  JACLEAN, INC.",CA,90249,Foot Vibe Pro,,New,1,9.07,109.99,119.06,Credit Card,,,"2 years parts, 1 year labor for Small Items","Foot Vibe Pro,",YES,,Delivered,,,customer pickup,CA,0,8.25,USJ-871,119.06,Tc# 6090 6672 9617 4736 8037 3,,,,,,0.00,,,,,,,0.00,,,,,,
Sam's Club #6612 Concord 5/9-19/19(CA),Sam's Club #6612 Concord 5/9-19/19(CA),Michael Wang,117448,5/18/2019 7:51:27 PM,"U.S.  JACLEAN, INC.",CA,90249,Shogun Neck & Back Massger,Demo[-20],Demo,1,14.85,179.98,194.83,Credit Card,,,"2 years parts, 1 year labor for Small Items","Shogun Neck &amp; Back Massger,",YES,,Delivered,,,Real demo demo shogun not demo new.,CA,0,8.25,USJ-874USJ-874-DEMO,194.83,Tc# 0863 4093 1043 1430 6675 7,,,,,,0.00,,,,,,,0.00,,,,,,
Sam's Club #6612 Concord 5/9-19/19(CA),Sam's Club #6612 Concord 5/9-19/19(CA),Michael Wang,117452,5/18/2019 8:13:04 PM,Renato Maningas,CA,94521,Legacy for Sam's,Demo Choco[-700],Demo,1,296.92,3599.00,3895.92,Sam’s Club Synchrony,,,"3 years parts, 1 year labor (Free)","Legacy for Sam's,",No,,Called,,,"Give customer demo choco legacy with excellent condition.Give customer manual and 1 fabric chair pad.Demo chair should have leather pad already.
5/20Maritza- Received copy of invoice. Per Mario we do have one demo in stock

Sam member number is: 101 42220 563614387",CA,0,8.25,DWA-9100DWA-9100CH-DEMO,3895.92,,,,,,,0.00,,,,,,,0.00,,,,,,
Sam's Club #6612 Concord 5/9-19/19(CA),Sam's Club #6612 Concord 5/9-19/19(CA),Michael Wang,117457,5/18/2019 8:28:05 PM,Elke Valdivia,CA,94565,Orbit for Sam's ,New Choco,New,1,280.34,3398.00,3678.34,Sam’s Club Synchrony,,,"3 years parts, 3 years labor ($400)","Orbit for Sam's ,",No,,Cancelled,,,"Gave customer 2 extra labor on a 3 years parts 1 yr labor warranty.

Give customer 1 fabric chair pad and customer going out of town on 2nd week of June please talk more with customer about when she is leaving out of town.

SAM Member ID:

1014 2100 7522 57014
5/21Maritza- Please disregard this invoice Correction ($117497)",Not Dispatched,0,8.25,ORBT-1ORBT-1CH,3245.34,,,,,,,0.00,,,,,,,0.00,,,,,,
Sam's Club #6612 Concord 5/9-19/19(CA),Sam's Club #6612 Concord 5/9-19/19(CA),Michael Wang,117477,5/19/2019 4:36:57 PM,"U.S.  JACLEAN, INC.",CA,90249,Foot Vibe Pro,,New,1,9.07,109.99,119.06,Credit Card,,,"2 years parts, 1 year labor for Small Items","Foot Vibe Pro,",YES,,Delivered,,,,CA,0,8.25,USJ-871,119.06,Tc# 4781 4410 9418 2854 6658 5,,,,,,0.00,,,,,,,0.00,,,,,,
Sam's Club #6612 Concord 5/9-19/19(CA),Sam's Club #6612 Concord 5/9-19/19(CA),Michael Wang,117497,5/20/2019 3:05:05 PM,Elke Valdivia,CA,94565,Orbit for Sam's ,New Choco,New,1,247.34,2998.00,3245.34,Sam’s Club Synchrony,,,"3 years parts, 3 years labor ($400)","Chair Pad for Legacy,Orbit for Sam's ,",No,,Called,,,"Order placed on 5/18 (#117457)Gave customer 2 extra labor on a 3 years parts 1 yr labor warranty.

Give customer 1 fabric chair pad and customer going out of town on 2nd week of June please talk more with customer about when she is leaving out of town.

SAM Member ID:

1014 2100 7522 57014",CA,0,8.25,ORBT-1ORBT-1CH,3245.34,,,,,,,0.00,,,,,,,0.00,,,,,,
