﻿Date,CustomerName,State,Zipcode,Description,productNo,Color,IsDemo,Net,ShippingFee,GiftPrice,FinancingProcessingFee,Gross,Pre_tax,Tax,Commission,Primary Payment Method,Primary Payment Balance,Primary Authorize Number,Primary Purchase Order Number,Primary Synchrony Account Number,Primary Synchrony Application Key,Primary Synchrony AccountInfo,Primary SynchronyTerm,Secondly Payment Method,Secondly Payment Balance,Secondly Authorize Number,Secondly Purchase Order Number,Secondly Synchrony Account Number,Secondly Synchrony Application Key,Secondly Synchrony AccountInfo,Secondly SynchronyTerm,Thirdly Payment Method,Thirdly Payment Balance,Thirdly Authorize Number,Thirdly Purchase Order Number,Thirdly Synchrony Account Number,Thirdly Synchrony Application Key,Thirdly Synchrony AccountInfo,Thirdly SynchronyTerm,DeliveryDate,Ispickup,Warranty,Status,Event Name,Synchrony Notes,Order Notes,Order number,Private Note,Branch,IsNoTax,ActualTaxRate
1/14/2018 12:48:48 PM,Dorothy Abrams,GA,31705,Legacy for Sam's,DWA-9100DWA-9100BL,Blue,New,,,,,3599.00,3599.00,0.00,Alex Brackelsberg,CreditCard,0.00,76968150593733039350,,,,,,,0.00,,,,,,,,0.00,,,,,,,1/25/2018 12:00:00 AM,No,"3 years parts, 1 year labor (Free)",Delivered,"Sam's Club #8120 Tallahassee, Fl 1/11-1/21",,Blue legacy new,102945,Before Vday,FL,1,7.50
1/15/2018 11:39:10 AM,Deborah Mccaffrey,FL,32327,Vitality Plate for Sam's,USJ-849USJ-849-DEMO,Demo,Demo,,,,,429.99,399.99,30.00,Alex Brackelsberg,CreditCard,0.00,60477929858551373913,,,,,,,0.00,,,,,,,,0.00,,,,,,,,YES,"2 years parts, 1 year labor (Small Items)",Delivered,"Sam's Club #8120 Tallahassee, Fl 1/11-1/21",,Customer picked,102992,,FL,0,7.50
1/17/2018 9:53:21 AM,Terrell Fraiser,FL,32321,Ninja Leg Massager,,,New,,,,,407.43,379.00,28.43,Alex Brackelsberg,CreditCard,0.00,69075989459551876410,,,,,,,0.00,,,,,,,,0.00,,,,,,,,YES,"2 years parts, 1 year labor (Small Items)",Delivered,"Sam's Club #8120 Tallahassee, Fl 1/11-1/21",,Customer pick up,103045,,FL,0,7.50
1/20/2018 12:46:03 PM,Zugui Wang,FL,32312,Legacy for Sam's,DWA-9100DWA-9100CH,Choco,New,,,,,3868.93,3599.00,269.93,Alex Brackelsberg,CreditCard,0.00,29008364498488924709,,,,,,,0.00,,,,,,,,0.00,,,,,,,,No,"3 years parts, 1 year labor (Free)",Called,"Sam's Club #8120 Tallahassee, Fl 1/11-1/21",,Brand new chocolate legacy,103095,(out of stock 9100 KU - customer ok with delivery in 1-2weeks),FL,0,7.50
