﻿Original Event Name,Event Name,Sales Person,Order Number,Order Date,Customer Name,State,Zip,Product Name,Color,Product Status,QTY,Tax,Total Before Tax,Order Total,Primary Payment Method,Second Payment Method,Thirdl Payment Method,Warranty,Order Items,Pick up,Delivered On,Order Status,Chair Type,Order Notes,Private Note,Branch,No Tax,Actual Tax Rate,SKU,Primary Payment Balance,Primary Authorize Number,Primary Purchase Order Number,Primary Synchrony Account Number,Primary Synchrony Application Key,Primary Synchrony Account Info,Primary Synchrony Term,Second Payment Balance,Second Authorize Number,Second Purchase Order Number,Second Synchrony Account Number,Second Synchrony Application Key,Second Synchrony Account Info,Second SynchronyTerm,Third Payment Balance,Third Authorize Number,Third Purchase Order Number,Third Synchrony Account Number,Third Synchrony Application Key,Third Synchrony Account Info,Third Synchrony Term
Sam's Club #6257 Las Vegas 11/1-11/18 (NV),Sam's Club #6257 Las Vegas 11/1-11/18 (NV),Li Chen,110864,11/2/2018 8:11:41 PM,U.S. JACLEAN INC.,CA,90249,Shogun Neck & Back Massger,New,New,1,16.50,199.98,216.48,PurchaseOrder,,,"2 years parts, 1 year labor for Small Items","Shogun Neck &amp; Back Massger,",YES,,Delivered,,,,CA,0,8.25,USJ-874USJ-874,216.48,,TC# 4830 6698 3297 5991 0833 4,,,,,0.00,,,,,,,0.00,,,,,,
Sam's Club #6257 Las Vegas 11/1-11/18 (NV),Sam's Club #6257 Las Vegas 11/1-11/18 (NV),Li Chen,110865,11/2/2018 8:15:27 PM,U.S. JACLEAN INC.,CA,90249,Shogun Neck & Back Massger,New,New,1,16.50,199.98,216.48,PurchaseOrder,,,"2 years parts, 1 year labor for Small Items","Shogun Neck &amp; Back Massger,",YES,,Delivered,,,,CA,0,8.25,USJ-874USJ-874,216.48,,TC# 5065 3371 2931 4228 7766 5,,,,,0.00,,,,,,,0.00,,,,,,
Sam's Club #6257 Las Vegas 11/1-11/18 (NV),Sam's Club #6257 Las Vegas 11/1-11/18 (NV),Li Chen,110922,11/4/2018 5:18:48 PM,U.S. JACLEAN INC.,CA,90249,Shogun Neck & Back Massger,Demo[-20],Demo,1,14.85,179.98,194.83,PurchaseOrder,,,"2 years parts, 1 year labor for Small Items","Shogun Neck &amp; Back Massger,",YES,,Delivered,,,,CA,0,8.25,USJ-874USJ-874-DEMO,194.83,,TC# 0563 4082 3302 8639 6375 1,,,,,0.00,,,,,,,0.00,,,,,,
Sam's Club #6257 Las Vegas 11/1-11/18 (NV),Sam's Club #6257 Las Vegas 11/1-11/18 (NV),Rolly San Jose,112030,11/6/2018 11:27:16 PM,Vicky Fort,NV,89130,Relax 2 Zero 2.0 for Sam's,Demo Beige[-701],Demo,1,0.00,3462.92,3462.92,CreditCard,,,"3 years parts, 1 year labor (Free)","Relax 2 Zero 2.0 for Sam's,",No,11/16/2018 12:00:00 AM,Delivered,Demo,,"Deliver after nov 14,2018 but call first
11/8Maritza Courtesy message sent @ 2:42PM
Delivered by Rex 11/16/18",NV,1,8.25,USJ-9050USJ-9050BE-DEMO,3462.92,3583270505394861941711,,,,,,0.00,,,,,,,0.00,,,,,,
Sam's Club #6257 Las Vegas 11/1-11/18 (NV),Sam's Club #6257 Las Vegas 11/1-11/18 (NV),Rolly San Jose,112031,11/6/2018 11:33:59 PM,Jim Hamman,NV,89149,Shogun Neck & Back Massger,New,New,1,0.00,199.98,199.98,CreditCard,,,"2 years parts, 1 year labor (Free)","Shogun Neck &amp; Back Massger,",YES,,Delivered,,,Pick up,NV,1,8.25,USJ-874USJ-874,216.48,541533932940422877665,,,,,,0.00,,,,,,,0.00,,,,,,
Sam's Club #6257 Las Vegas 11/1-11/18 (NV),Sam's Club #6257 Las Vegas 11/1-11/18 (NV),Rolly San Jose,112054,11/7/2018 9:47:09 PM,Lisa Hewitt,NV,89128,Legacy for Sam's,Demo Gold[-700],Demo,1,0.00,3895.92,3895.92,CreditCard,,,"3 years parts, 1 year labor (Free)","Legacy for Sam's,",No,11/15/2018 12:00:00 AM,Delivered,Demo,,"11/8Maritza Courtesy message sent @ 2:47PM
Delivered by Rex 11/15/18",NV,1,8.25,DWA-9100DWA-9100GD-DEMO,3895.92,4589898180499356097106,,,,,,0.00,,,,,,,0.00,,,,,,
Sam's Club #6257 Las Vegas 11/1-11/18 (NV),Sam's Club #6257 Las Vegas 11/1-11/18 (NV),Rolly San Jose,112063,11/9/2018 12:29:56 AM,Joe Mayousk,NV,89129,Legacy for Sam's,Demo Choco[-700],Demo,1,0.00,3895.92,3895.92,CreditCard,,,"3 years parts, 1 year labor (Free)","Legacy for Sam's,",No,11/15/2018 12:00:00 AM,Delivered,Demo,,"Las Vegas branch to provide $100 cash or check to customer to offset the side scratches on the chair. Deliver after nov 11, 2018//will find out detail of the check 11/9/18 Hitomi
//11/12/18 Kohei informed that the scratched arms is going to be replaced since it was further damaged by a Sam's club worker. A refund check of $100 will not be issued. - Hitomi
11/13Maritza sent out courtesy message @ 9:22
Delivered by Rex 11/15/18",NV,1,8.25,DWA-9100DWA-9100CH-DEMO,3895.92,9265503330980425805685,,,,,,0.00,,,,,,,0.00,,,,,,
Sam's Club #6257 Las Vegas 11/1-11/18 (NV),Sam's Club #6257 Las Vegas 11/1-11/18 (NV),Rolly San Jose,112064,11/9/2018 12:35:26 AM,Sharon Smith,NV,89130,Legacy for Sam's,New Choco,New,1,0.00,4653.67,4653.67,CreditCard,,,"3 years parts, 1 year labor (Free)","Legacy for Sam's,",No,11/15/2018 12:00:00 AM,Delivered,New,,"Deliver within 2 weeks from nov 8, 2018//will confirm TC# - confirmed 11/9/18 Hitomi
11/12Maritza- Courtesy messages sent at 10:59PM

Delivered by Rex 11/15/18",NV,1,8.25,DWA-9100DWA-9100CH,4653.67,TC#7645 5830 3797 1424 8636 95,,,,,,0.00,,,,,,,0.00,,,,,,
Sam's Club #6257 Las Vegas 11/1-11/18 (NV),Sam's Club #6257 Las Vegas 11/1-11/18 (NV),Kohei Uno,112131,11/9/2018 6:13:45 PM,U.S. JACLEAN INC.,CA,90249,Shogun Neck & Back Massger,New,New,1,0.00,199.98,199.98,PurchaseOrder,,,"2 years parts, 1 year labor for Small Items","Shogun Neck &amp; Back Massger,",YES,,Delivered,,,,CA,1,8.25,USJ-874USJ-874,216.48,,TC# 1233 0060 0332 8669 5577 1,,,,,0.00,,,,,,,0.00,,,,,,
Sam's Club #6257 Las Vegas 11/1-11/18 (NV),Sam's Club #6257 Las Vegas 11/1-11/18 (NV),Kohei Uno,112151,11/10/2018 10:37:17 AM,Jennifer Clapp,NV,89129,Legacy for Sam's,Demo(Box) Choco[-700],Demo,1,296.92,3599.00,3895.92,PurchaseOrder,,,"3 years parts, 1 year labor (Free)","Legacy for Sam's,",No,11/15/2018 12:00:00 AM,Delivered,New,,"11/12Maritza Courtesy message and email sent @ 2:28PM
Delivered by Rex 11/15/18",NV,0,8.25,DWA-9100DWA-9100CH-Box,3895.92,,TC# 3623 5404 0232 4861 9427 91,,,,,0.00,,,,,,,0.00,,,,,,
Sam's Club #6257 Las Vegas 11/1-11/18 (NV),Sam's Club #6257 Las Vegas 11/1-11/18 (NV),Kohei Uno,112188,11/11/2018 2:17:36 PM,Chuan Hai Teh,NV,89166,Legacy for Sam's,New Choco,New,1,354.67,4299.00,4653.67,PurchaseOrder,,,"3 years parts, 3 years labor ($400)","Legacy for Sam's,Daiwa Blanket,",No,11/15/2018 12:00:00 AM,Delivered,New,,"11/12Maritza Courtesy email and messages sent @ 3:10PM
Delivered by Rex 11/15/18",NV,0,8.25,DWA-9100DWA-9100CH,4653.67,,TC# 5763 9701 0234 4862 9357 81,,,,,0.00,,,,,,,0.00,,,,,,
