﻿Original Event Name,Event Name,Sales Person,Order Number,Order Date,Customer Name,State,Zip,Product Name,Color,Product Status,QTY,Tax,Total Before Tax,Order Total,Primary Payment Method,Second Payment Method,Thirdl Payment Method,Warranty,Order Items,Pick up,Delivered On,Order Status,Chair Type,Order Notes,Private Note,Branch,No Tax,Actual Tax Rate,SKU,Primary Payment Balance,Primary Authorize Number,Primary Purchase Order Number,Primary Synchrony Account Number,Primary Synchrony Application Key,Primary Synchrony Account Info,Primary Synchrony Term,Second Payment Balance,Second Authorize Number,Second Purchase Order Number,Second Synchrony Account Number,Second Synchrony Application Key,Second Synchrony Account Info,Second SynchronyTerm,Third Payment Balance,Third Authorize Number,Third Purchase Order Number,Third Synchrony Account Number,Third Synchrony Application Key,Third Synchrony Account Info,Third Synchrony Term
Las Vegas SF Market (NV),Las Vegas SF Market (NV),Jovylyn Florea,106122,5/14/2018 4:17:31 PM,Hong Minh Phu,NV,89178,Majesty,New Black,New,1,0.00,2800.00,2800.00,Synchrony,,,"3 years parts, 1 year labor (Free)","Majesty,",No,5/15/2018 12:00:00 AM,Delivered,,,"it seems to be delivered. will confirm . 5/15/18 Hitomi
charged synchrony # 025778 $2800 - stephany 05/25/18",NV,1,8.15,MAJ-1010MAJ-1010-BL,2800.00,,,6034610083272180,88883567,Las Vegas,24 months,0.00,,,,,,,0.00,,,,,,
Las Vegas SF Market (NV),Las Vegas SF Market (NV),Jovylyn Florea,106438,5/26/2018 7:21:00 PM,James Pimentel,NV,89145,Majesty,New Black,New,1,0.00,3000.00,3000.00,Synchrony,,,"3 years parts, 1 year labor (Free)","Majesty,",No,6/1/2018 12:00:00 AM,Delivered,,,"Confirmed synchrony form and the account($3,000)***Please charge before delivery and have sales draft signed.*** 5/30/18 Hitomi
CHARGED $3000 # 021450 06/21/18 STEPHANY",NV,1,8.15,MAJ-1010MAJ-1010-BL,3000.00,,,6034610083295918,89458378,Las Vegas,24 months,0.00,,,,,,,0.00,,,,,,
