﻿Original Event Name,Event Name,Sales Person,Order Number,Order Date,Customer Name,State,Zip,Product Name,Color,Product Status,QTY,Tax,Total Before Tax,Order Total,Primary Payment Method,Second Payment Method,Thirdl Payment Method,Warranty,Order Items,Pick up,Delivered On,Order Status,Chair Type,Order Notes,Private Note,Branch,No Tax,Actual Tax Rate,SKU,Primary Payment Balance,Primary Authorize Number,Primary Purchase Order Number,Primary Synchrony Account Number,Primary Synchrony Application Key,Primary Synchrony Account Info,Primary Synchrony Term,Primary Synchrony Primary ID,Primary Synchrony Issued State,Primary Synchrony Expiretion Date,Second Payment Balance,Second Authorize Number,Second Purchase Order Number,Second Synchrony Account Number,Second Synchrony Application Key,Second Synchrony Account Info,Second SynchronyTerm,Second Synchrony Primary ID,Second Synchrony Issued State,Second Synchrony Expiretion Date,Third Payment Balance,Third Authorize Number,Third Purchase Order Number,Third Synchrony Account Number,Third Synchrony Application Key,Third Synchrony Account Info,Third Synchrony Term,Third Synchrony Primary ID,Third Synchrony Issued State,Third Synchrony Expiretion Date
"Central Florida HM&GD Show 6/8-9/19 Orlando, FL","Central Florida HM&GD Show 6/8-9/19 Orlando, FL",Andres Soto,117927,6/10/2019 12:02:17 PM,STEVE MOWATT,FL,32771,PEGASUS 2 SMART,Demo Choco,Demo,1,0.00,5000.00,5000.00,Synchrony,,,"5 years parts, 1 year labor (Free)","PEGASUS 2 SMART,",No,6/21/2019 12:00:00 AM,Delivered,Demo,-MILITARY DISCOUNT,"Synchrony original received. Credit available $7,000. Remaining balance $5000. Please charge synchrony account upon delivery, and have sales draft signed. Erika 6/10/19 5:23pm
CC, Jasmin Carrizales, 6/17/19, 10:52am, VM

Attached delivery confirmation to invoice, verified delivery and payment, passed documents to Riho - Arisa 6/26/19 5:16pm

Received and confirmed the copy of original document and the delivery confirmation. 6/28/19 Riho",FL,1,6.50,PEGS-2PEGS-2-BR-DEMO,5000.00,,,6501723375184270,76619453,Huston,24 months,,,,0.00,,,,,,,,,,0.00,,,,,,,,,
"Central Florida HM&GD Show 6/8-9/19 Orlando, FL","Central Florida HM&GD Show 6/8-9/19 Orlando, FL",Andres Soto,117928,6/10/2019 12:48:39 PM,TRAY TIEGS,FL,34771,Legacy 3D,Demo Choco,Demo,1,0.00,3800.00,3800.00,Synchrony,,,"5 years parts, 1 year labor (Free)","Legacy 3D,",No,6/18/2019 12:00:00 AM,Delivered,Demo,,"Chair delivered, deliv. team did not get Synch signature or delivery signature, have contacted customer waiting on response - 7/5/19 JD
Synchrony original received. Credit available $7,000. Remaining balance $3800. Please charge synchrony account upon delivery, and have sales draft signed. Erika 6/10/19 5:21pm",FL,1,6.50,DWA-9150USJ-9150CH-DEMO,3800.00,,,6501723375184379,76623672,Huston,36 months,,,,0.00,,,,,,,,,,0.00,,,,,,,,,
"Central Florida HM&GD Show 6/8-9/19 Orlando, FL","Central Florida HM&GD Show 6/8-9/19 Orlando, FL",Andres Soto,117934,6/10/2019 3:29:38 PM,ROBERT SMITH,FL,32832,PEGASUS 2 SMART,Demo Choco,Demo,1,0.00,5500.00,5500.00,Synchrony,,,"5 years parts, 1 year labor (Free)","PEGASUS 2 SMART,",No,6/18/2019 12:00:00 AM,Delivered,Demo,,"Synchrony original received. Credit available 9,000. Remaining balance $5500 Please charge synchrony account upon delivery, and have sales draft signed. Erika 6/10/19 5:15pm
Delivery conf. completed. Synchrony verified and sales draft signed. Erika 7/19/19 3:37pm

Received & confirmed the copy of in voice, Synchrony App. Form, signed sales draft, and the delivery confirmation. 8/7/19 Riho",FL,1,6.50,PEGS-2PEGS-2-BR-DEMO,5500.00,,,6501723375184841,76637095,Huston,48 months,,,,0.00,,,,,,,,,,0.00,,,,,,,,,
"Central Florida HM&GD Show 6/8-9/19 Orlando, FL","Central Florida HM&GD Show 6/8-9/19 Orlando, FL",Andres Soto,117937,6/10/2019 3:41:09 PM,BEVERTH LENSE,FL,32736,Legacy 3D,Demo Choco,Demo,1,0.00,3800.00,3800.00,Synchrony,,,"5 years parts, 1 year labor (Free)","Legacy 3D,",No,6/18/2019 12:00:00 AM,Delivered,Demo,,"Synchrony original received. Credit available $6,500. Remaining balance $3800. Please charge synchrony account upon delivery, and have sales draft signed. Erika 6/10/19 5:19pm

Received delivery confirmation with sales draft, verified delivery and payment, passed documents to Riho - Arisa 6/19/19 8:46am

Received and confirmed the copy of original and the delivery confirmation. Verified the Synchrony transaction. 7/1/19 Riho",FL,1,6.50,DWA-9150USJ-9150CH-DEMO,3800.00,,,6501723375184866,76637891,Huston,36 months,,,,0.00,,,,,,,,,,0.00,,,,,,,,,
"Central Florida HM&GD Show 6/8-9/19 Orlando, FL","Central Florida HM&GD Show 6/8-9/19 Orlando, FL",Andres Soto,117939,6/10/2019 3:52:43 PM,VINCENT RADICE,FL,32812,Legacy 3D,Demo Choco,Demo,1,0.00,3800.00,3800.00,Synchrony,,,"5 years parts, 1 year labor (Free)","Legacy 3D,",No,6/18/2019 12:00:00 AM,Delivered,New,,"Synchrony Credit Card #651723375184874

Customer approved for $9000 credit line
---Original synchrony account verified. Credit available is $9000. Remaining balance $3800. Please charge synchrony account upon delivery and have sales draft sign. Erika 6/10/19 8:47am

Received delivery confirmation with sales draft. Confirmed by Josefina and Jasmine that a new chair was delivered as there was no stock for demo. Verified delivery and payment, and passed documents to Riho - Arisa 6/19/19 9:18am

Received and confirmed the copy of originals and the delivery confirmation. Verified the Synchrony transaction. 7/1/19 Riho",FL,1,6.50,DWA-9150USJ-9150CH-DEMO,3800.00,,,,76635639,Huston,36 months,,,,0.00,,,,,,,,,,0.00,,,,,,,,,
