﻿Original Event Name,Event Name,Sales Person,Order Number,Order Date,Customer Name,State,Zip,Product Name,Color,Product Status,QTY,Tax,Total Before Tax,Order Total,Primary Payment Method,Second Payment Method,Thirdl Payment Method,Warranty,Order Items,Pick up,Delivered On,Order Status,Chair Type,Order Notes,Private Note,Branch,No Tax,Actual Tax Rate,SKU,Primary Payment Balance,Primary Authorize Number,Primary Purchase Order Number,Primary Synchrony Account Number,Primary Synchrony Application Key,Primary Synchrony Account Info,Primary Synchrony Term,Primary Synchrony Primary ID,Primary Synchrony Issued State,Primary Synchrony Expiretion Date,Second Payment Balance,Second Authorize Number,Second Purchase Order Number,Second Synchrony Account Number,Second Synchrony Application Key,Second Synchrony Account Info,Second SynchronyTerm,Second Synchrony Primary ID,Second Synchrony Issued State,Second Synchrony Expiretion Date,Third Payment Balance,Third Authorize Number,Third Purchase Order Number,Third Synchrony Account Number,Third Synchrony Application Key,Third Synchrony Account Info,Third Synchrony Term,Third Synchrony Primary ID,Third Synchrony Issued State,Third Synchrony Expiretion Date
"AWFS 7/16-20/19 LAS VEGAS, NV","AWFS 7/16-20/19 LAS VEGAS, NV",Abagail Stirling,118770,7/18/2019 7:45:37 PM,Dan Haiby,CA,93030,PEGASUS 2 SMART,New Choco,New,1,0.00,5800.00,5800.00,Credit Card,,,"5 years parts, 2 years labor ($200)","PEGASUS 2 SMART,",No,,Scheduled,,,"Original received. SQ amount verified $5800. Paid in full.-- Erika 7/22/19 11:11am
7/22Maritza Printed
scheduled 12:30-3:30 7/29",CA,1,8.25,PEGS-2PEGS-2-BR,5800.00,#b3p0,,,,,,,,/,0.00,,,,,,,,,/,0.00,,,,,,,,,/
"AWFS 7/16-20/19 LAS VEGAS, NV","AWFS 7/16-20/19 LAS VEGAS, NV",Ilene Maynard,118771,7/18/2019 7:52:44 PM,Kathy Main,CA,95323,Relax 2 Zero 3D,Demo Choco,Demo,1,0.00,4200.00,4200.00,Synchrony,,,"5 years parts, 2 years labor ($200)","Relax 2 Zero 3D,",No,,Printed,,,"Please make sure it has update software 2.0
--Synchrony original verified. Credit available $6500.  Remaining balance $4200. Pls charge synchrony account upon delivery, have sales draft sign. Erika 7/22/19 11:16am
7/22Printed",CA,1,8.25,DWA-9060USJ-9060BR-DEMO,4200.00,,,6501723375238373,78359129,San Diego,36 months,Driver’s License,CA,02/2020,0.00,,,,,,,,,/,0.00,,,,,,,,,/
"AWFS 7/16-20/19 LAS VEGAS, NV","AWFS 7/16-20/19 LAS VEGAS, NV",Ruben Cuatrona,118772,7/18/2019 7:59:31 PM,Bryan Thatcher,NV,89115,PEGASUS 2 SMART,Demo Choco,Demo,1,0.00,5500.00,5500.00,Credit Card,COD,,"5 years parts, 2 years labor ($200)","PEGASUS 2 SMART,",No,7/23/2019 12:00:00 AM,Scheduled,Demo,,Original received. SQ. amount verified $500. Remaining balance $5000. Collect COD ($5000) @ delivery. Erika 7/22/19 11:40am,NV,1,8.25,PEGS-2PEGS-2-BR-DEMO,500.00,#OcVy,,,,,,,,/,5000.00,,,,,,,,,/,0.00,,,,,,,,,/
"AWFS 7/16-20/19 LAS VEGAS, NV","AWFS 7/16-20/19 LAS VEGAS, NV",Ilene Maynard,118773,7/18/2019 8:07:56 PM,Kathy Hamlin,WA,98926,Relax 2 Zero 3D,New Choco,New,1,347.07,4956.93,5304.00,Synchrony,,,"5 years parts, 1 year labor (Free)","Relax 2 Zero 3D,",No,,New,,,"Synchrony original verified. Credit available $9000. Remaining balance $5304. Pls charge synchrony account upon delivery, have sales draft sign. Erika 7/22/19 11:44am
Per sales rep rq. Please make sure all R2Z 3D delivery will be updated with software Extension 2.0",WA,0,8.25,DWA-9060USJ-9060BR,5304.00,,,6501723375239082,78394151,San Diego,24 months,Driver’s License,WA,12/2020,0.00,,,,,,,,,/,0.00,,,,,,,,,/
"AWFS 7/16-20/19 LAS VEGAS, NV","AWFS 7/16-20/19 LAS VEGAS, NV",Ruben Cuatrona,118774,7/18/2019 8:21:07 PM,Izik Matatya,CA,91367,Relax 2 Zero 3D,New Choco,New,1,0.00,4000.00,4000.00,Credit Card,,,"5 years parts, 1 year labor (Free)","Relax 2 Zero 3D,",No,,Called,,Special order Beige color,"Original received. SQ. amount verified $4000. Paid in full. Erika 7/22/19 11:26am
7/22Printed
7/24Maritza- Secretary called asking for swatches of the beige color. Chair is estimated to arrive on Friday. You can send pictures to the office email ""theuniversalironwork@yahoo.com""",CA,1,8.25,DWA-9060USJ-9060BR,4000.00,#LTV2,,,,,,,,/,0.00,,,,,,,,,/,0.00,,,,,,,,,/
"AWFS 7/16-20/19 LAS VEGAS, NV","AWFS 7/16-20/19 LAS VEGAS, NV",Ruben Cuatrona,118775,7/18/2019 8:26:41 PM,Rick Pierce,CA,94553,Relax 2 Zero 3D,New Choco,New,1,0.00,4600.00,4600.00,Credit Card,,,"5 years parts, 2 years labor ($200)","Relax 2 Zero 3D,",No,,Scheduled,,Balance of $4500 - C.O.D.,"Original received. SQ amount verified $100. Remaining balance $4500. Collect COD $4500 @ delivery. Erika 7/23/19 1:43pm
7/23Printed
scheduled 7/31 1:30-4::30",CA,1,8.25,DWA-9060USJ-9060BR,100.00,#Qp16,,,,,,,,/,0.00,,,,,,,,,/,0.00,,,,,,,,,/
"AWFS 7/16-20/19 LAS VEGAS, NV","AWFS 7/16-20/19 LAS VEGAS, NV",Rolly San Jose,118776,7/18/2019 8:31:18 PM,Jose Guerra,CA,90241,Relax 2 Zero 3D,Demo Choco,Demo,1,0.00,4100.00,4100.00,Synchrony,,,"5 years parts, 1 year labor (Free)","Relax 2 Zero 3D,",No,7/25/2019 12:00:00 AM,Delivered,Demo,,"Synchrony original verified. Credit available $7200. Remaining balance $4100. Pls charge synchrony account upon delivery, have sales draft sign. Erika 7/22/19 11:33am
7/22Printed
7/25 scheduled 2-4
7/26Maritza- Delivery confirmation received with sales draft",CA,1,8.25,DWA-9060USJ-9060BR-DEMO,4100.00,,,6501723375239330,78402569,San Diego,36 months,Driver’s License,CA,01/2023,0.00,,,,,,,,,/,0.00,,,,,,,,,/
"AWFS 7/16-20/19 LAS VEGAS, NV","AWFS 7/16-20/19 LAS VEGAS, NV",Joseph Chan,118777,7/18/2019 8:37:08 PM,Terri Varnell,UT,84003,PEGASUS 2 SMART,New Choco,New,1,0.00,5800.00,5800.00,Credit Card,,,"5 years parts, 3 years labor ($400)","PEGASUS 2 SMART,",No,,Assigned,,,Original received. SQ amount verified $5800. Paid in full. Erika 7/22/19 11:48am,NV,1,8.25,PEGS-2PEGS-2-BR,5800.00,#mMK8,,,,,,,,/,0.00,,,,,,,,,/,0.00,,,,,,,,,/
"AWFS 7/16-20/19 LAS VEGAS, NV","AWFS 7/16-20/19 LAS VEGAS, NV",Joseph Chan,118778,7/18/2019 8:43:04 PM,Candice Beatty,CA,93551,Relax 2 Zero 3D,Demo Choco,Demo,1,0.00,4200.00,4200.00,Synchrony,,,"5 years parts, 2 years labor ($200)","Relax 2 Zero 3D,",No,,Scheduled,,,"Synchrony original verified. Credit available $9000. Remaining balance $4200. Pls charge synchrony account upon delivery, have sales draft sign. Erika 7/22/19 11:36am
7/22Printed
scheduled 7/29 9-12",CA,1,8.25,DWA-9060USJ-9060BR-DEMO,4200.00,,,6501723375239470,78405475,San Diego,36 months,Driver’s License,CA,09/2020,0.00,,,,,,,,,/,0.00,,,,,,,,,/
"AWFS 7/16-20/19 LAS VEGAS, NV","AWFS 7/16-20/19 LAS VEGAS, NV",Ruben Cuatrona,118779,7/18/2019 8:49:09 PM,Mike Burns,CO,80216,PEGASUS 2 SMART,Demo Black,Demo,1,0.00,5500.00,5500.00,Credit Card,,,"5 years parts, 2 years labor ($200)","PEGASUS 2 SMART,",No,,Printed,,Balance of $5000 - C.O.D. Please call cell $ for delivery,"Original received. SQ amount verified $500. Collect COD (5000) @ delivery. Erika 7/22/19 2;30pm Pls be aware per sales rep RQ deliver to this address. Pls confirm with customer when scheduled. 
9907 Martin Luther King Blvd Denver, CO 80238
courtesy call completed -Erika 7/22/19 3:58pm
Printed - Tina 7/23/2019",TX,1,8.25,PEGS-2PEGS-2-BL-DEMO,500.00,#0cuo,,,,,,,,/,0.00,,,,,,,,,/,0.00,,,,,,,,,/
"AWFS 7/16-20/19 LAS VEGAS, NV","AWFS 7/16-20/19 LAS VEGAS, NV",Joseph Chan,118794,7/20/2019 9:13:54 AM,Customer Ting Hu,NY,11020,Relax 2 Zero 3D,New Choco,New,1,0.00,3500.00,3500.00,Credit Card,,,"5 years parts, 1 year labor (Free)","Relax 2 Zero 3D,",No,,Called,,"May deliver to customer’s office, will decide when call for schedule","Original received. SQ. amount verified $3500. Paid in full. Erika 7/22/19 2:21PM
May deliver to customer’s office, will decide when call for schedule PLS COMFIRM ADDRESS.
7/23-(4:14pm)-CC- Left VM (Karen).
--Per sales rep rq. Please make sure all R2Z 3D delivery will be updated with software Extension 2.0",IL,1,8.25,DWA-9060USJ-9060BR,3500.00,#dflu,,,,,,,,/,0.00,,,,,,,,,/,0.00,,,,,,,,,/
"AWFS 7/16-20/19 LAS VEGAS, NV","AWFS 7/16-20/19 LAS VEGAS, NV",Ruben Cuatrona,118800,7/20/2019 9:59:22 PM,Jocelyn Schmidt,OR,97526,Relax 2 Zero 3D,New Choco,New,1,0.00,4500.00,4500.00,Synchrony,,,"5 years parts, 2 years labor ($200)","Relax 2 Zero 3D,",No,,Hold,,"Please wait for customer to unlock ID before process credit check, please hold","Order will be placed on hold per ruben rq.
From: Jocelyn Schmidt <joceschmi@gmail.com>
Sent: Saturday, July 27, 2019 7:42:30 AM
To: Ruben Cuatrona <rcl@usjaclean.com>
Subject: Massage chair purchase AWSF
 
Hi Ruben, 

I have spent the week sorting out my credit and I do have a synchrony account that will work.   I have also found that I have a medical problem (a mass in my abdomen) that requires surgery.   Is it possible to put a hold on our purchase  for now?   If not we will have to decline this purchase.  

I appreciate your understanding in this matter,
Jocelyn Schmidt 
(541) 441-2652


Ruben Cuatrona
Yesterday, 3:14 PM
Jocelyn Schmidt <joceschmi@gmail.com>;Cristina Rodriguez
Hi Jocelyn,
Yes we will put it on hold so you can lock the deal. Just let me know when you are ready. I pray that your surgery will be alright and successful. Take care and be well.

Ruben Cuatrona Sr.
National Sales Trainer/Marketing Manager | U.S. Jaclean, Inc.
1816 West 135th St. | Gardena, CA 90249",Not Dispatched,1,8.25,DWA-9060USJ-9060BR,0.00,,,,,,,Driver’s License,OR,10/2020,0.00,,,,,,,,,/,0.00,,,,,,,,,/
"AWFS 7/16-20/19 LAS VEGAS, NV","AWFS 7/16-20/19 LAS VEGAS, NV",Ruben Cuatrona,118828,7/21/2019 6:32:50 PM,Patrick Mealy,IA,52761,PEGASUS 2 SMART,Demo Choco,Demo,1,0.00,5000.00,5000.00,Credit Card,,,"5 years parts, 2 years labor ($200)","PEGASUS 2 SMART,",No,,Scheduled,,,"Original received. SQ amount verified $5000. Paid in full Erika 7/22/19 12:26pm
7/22: CC; Left VM- Karen (3:51pm)
7/24- Customer confirmed delivery for 8/9 3:30pm-7:30pm.-Karen",IL,1,8.25,PEGS-2PEGS-2-BR-DEMO,5000.00,#ypdM,,,,,,,,/,0.00,,,,,,,,,/,0.00,,,,,,,,,/
"AWFS 7/16-20/19 LAS VEGAS, NV","AWFS 7/16-20/19 LAS VEGAS, NV",Ruben Cuatrona,118829,7/21/2019 6:38:03 PM,Robert Earl,NV,89118,PEGASUS 2 SMART,Demo Black,Demo,1,0.00,5200.00,5200.00,Credit Card,,,"5 years parts, 2 years labor ($200)","PEGASUS 2 SMART,",No,7/23/2019 12:00:00 AM,Delivered,Demo,Please help customer to move the old chair to next door when delivering the chair,"Please help customer to move the old chair to next door when delivering the chair
Original received. SQ amount verified $5200. Paid in full. Erika 7/22/19 12:21pm",NV,1,8.25,PEGS-2PEGS-2-BL-DEMO,5200.00,#LE29,,,,,,,,/,0.00,,,,,,,,,/,0.00,,,,,,,,,/
"AWFS 7/16-20/19 LAS VEGAS, NV","AWFS 7/16-20/19 LAS VEGAS, NV",Ruben Cuatrona,118830,7/21/2019 6:44:37 PM,Valeria Agviar,GA,30005,Relax 2 Zero 3D,Demo Black,Demo,1,0.00,4200.00,4200.00,Synchrony,,,"5 years parts, 1 year labor (Free)","Relax 2 Zero 3D,",No,,Scheduled,,,"Synchrony original verified. Credit available $5500. Remaining balance $4200. Pls charge synchrony account upon delivery, have sales draft. Erika 7/22/19 12:18pm
CC, Jasmin Carrizales, 7/22/19, 5:04pm, VM
Per sales rep rq. Please make sure all R2Z 3D delivery will be updated with software Extension 2.0",FL,1,8.25,DWA-9060USJ-9060BL-DEMO,4200.00,,,6501723375240387,78444432,San Diego,36 months,Driver’s License,GA,10/2027,0.00,,,,,,,,,/,0.00,,,,,,,,,/
"AWFS 7/16-20/19 LAS VEGAS, NV","AWFS 7/16-20/19 LAS VEGAS, NV",Ruben Cuatrona,118831,7/21/2019 6:51:23 PM,Ted & Patrica Stevens,TX,75650,PEGASUS 2 SMART,New Choco,New,1,0.00,4800.00,4800.00,Credit Card,,,"5 years parts, 3 years labor ($400)","PEGASUS 2 SMART,",No,,Scheduled,,,"Original received. SQ amount verified $4800. Paid in full. Erika 7/22/19 12:23pm
Courtesy call completed-Erika 7/22/19 4:04pm
Printed - Tina 7/23/2019
7/24 - Alysa - Customer confirmed delivery Monday 8/5 between 4-7PM.",TX,1,8.25,PEGS-2PEGS-2-BR,4800.00,#oBYv,,,,,,,,/,0.00,,,,,,,,,/,0.00,,,,,,,,,/
"AWFS 7/16-20/19 LAS VEGAS, NV","AWFS 7/16-20/19 LAS VEGAS, NV",Ruben Cuatrona,118832,7/21/2019 6:54:43 PM,Michael Nutt,TX,75605,PEGASUS 2 SMART,New Choco,New,1,0.00,4800.00,4800.00,Credit Card,,,"5 years parts, 3 years labor ($400)","PEGASUS 2 SMART,",No,,Scheduled,,,"Original received. SQ amount verified $4800. Paid in full. Erika 7/22/19 12:08pm
courtesy call completed. Erika 7/22/19 4:06pm
Printed - Tina 7/23/2019
7/24 - Alysa - Customer confirmed delivery Monday 8/5 between 5-8PM.",TX,1,8.25,PEGS-2PEGS-2-BR,4800.00,#hYHv,,,,,,,,/,0.00,,,,,,,,,/,0.00,,,,,,,,,/
"AWFS 7/16-20/19 LAS VEGAS, NV","AWFS 7/16-20/19 LAS VEGAS, NV",Ruben Cuatrona,118833,7/21/2019 6:59:42 PM,Richard Phelps,MN,56187,PEGASUS 2 SMART,New Choco,New,1,0.00,5000.00,5000.00,Credit Card,COD,,"5 years parts, 2 years labor ($200)","PEGASUS 2 SMART,",No,,Called,,Balance of $3000 - C.O.D.,"Original received. SQ amount verified $2000. Remaining balance $3000. Collect COD (3000) @ delivery. Erika 7/22/19 11:58am
7/24- CC ; Left VM sent courtesy message-Karen
7/25- CC; left VM; Customer called back didn't agree with schedule; will call customer to reschedule a new delivery date and time.-Karen",IL,1,8.25,PEGS-2PEGS-2-BR,2000.00,#g8hh,,,,,,,,/,3000.00,,,,,,,,,/,0.00,,,,,,,,,/
"AWFS 7/16-20/19 LAS VEGAS, NV","AWFS 7/16-20/19 LAS VEGAS, NV",Abagail Stirling,118834,7/21/2019 7:06:57 PM,Dennis Rayon,MO,65712,PEGASUS 2 SMART,New Choco,New,1,0.00,6500.00,6500.00,Synchrony,,,"5 years parts, 1 year labor (Free)","PEGASUS 2 SMART,",No,,Scheduled,,Please hold until return policy clarified,"Please hold until return policy clarified.
-Synchrony original verified. Credit available $9000. Remaining balance $6500. Pls charge synchrony account upon delivery, have sales draft sign. Erika 7/22/19 11:52am
Printed -Tina 7/23/2019
7/24 - Alysa - Customer confirmed delivery Sunday 8/4 at 9AM. Synchrony Authorization Code
025550",TX,1,8.25,PEGS-2PEGS-2-BR,6500.00,,,6501723375241161,78471066,San Diego,36 months,Driver’s License,MO,08/2021,0.00,,,,,,,,,/,0.00,,,,,,,,,/
