﻿Date,CustomerName,State,Zipcode,Description,productNo,Color,IsDemo,Net,ShippingFee,GiftPrice,FinancingProcessingFee,Gross,Pre_tax,Tax,Commission,Primary Payment Method,Primary Payment Balance,Primary Authorize Number,Primary Purchase Order Number,Primary Synchrony Account Number,Primary Synchrony Application Key,Primary Synchrony AccountInfo,Primary SynchronyTerm,Secondly Payment Method,Secondly Payment Balance,Secondly Authorize Number,Secondly Purchase Order Number,Secondly Synchrony Account Number,Secondly Synchrony Application Key,Secondly Synchrony AccountInfo,Secondly SynchronyTerm,Thirdly Payment Method,Thirdly Payment Balance,Thirdly Authorize Number,Thirdly Purchase Order Number,Thirdly Synchrony Account Number,Thirdly Synchrony Application Key,Thirdly Synchrony AccountInfo,Thirdly SynchronyTerm,DeliveryDate,Ispickup,Warranty,Status,Event Name,Synchrony Notes,Order Notes,Order number,Private Note,Branch,IsNoTax,ActualTaxRate
4/8/2018 11:45:52 AM,Tequitia Thomas,GA,31217,Vitality Plate for Sam's,USJ-849USJ-849,New,New,,,,,492.19,459.99,32.20,Christoper Williams,CreditCard,9.00,,,,,,,,0.00,,,,,,,,0.00,,,,,,,,YES,"2 years parts, 1 year labor for Small Items",Delivered,Sam's Club #8225 4/5-15/18 (FL),,"Customer picked up already 
Tc#85061581733360195009
Total sale: 492.19",105088,,FL,0,7.00
4/8/2018 11:52:42 AM,Lalu Patel,GA,31008,Legacy 3D,DWA-9150USJ-9150BL,New Black,New,,,,,3917.20,3710.00,207.20,Christoper Williams,CreditCard,0.00,,,,,,,,0.00,,,,,,,,0.00,,,,,,,,No,"3 years parts, 1 year labor (Free)",Cancelled,Sam's Club #8225 4/5-15/18 (FL),,"This needs to be delivered brand new black TC#7186 0655 1137 3607 9140 39 sold for 3,950.93",105090,NEW ORDER # 105130,FL,0,7.00
4/8/2018 12:28:47 PM,Clint Conley,GA,31088,Legacy for Sam's,DWA-9100DWA-9100CH-DEMO,Demo Choco,Demo,,,,,3850.93,3599.00,251.93,Christoper Williams,CreditCard,0.00,,,,,,,,0.00,,,,,,,,0.00,,,,,,,4/8/2018 12:00:00 AM,YES,"3 years parts, 1 year labor (Free)",Delivered,Sam's Club #8225 4/5-15/18 (FL),,"Customer picked up! 
Tc#9295 2830 0511 1829 5022 15
Serial#0201002170681",105094,,FL,0,7.00
4/9/2018 7:47:26 AM,Lalu Patel,GA,31088,Legacy for Sam's,DWA-9100DWA-9100BL,New Black,New,,,,,3950.37,3741.00,209.37,Christoper Williams,CreditCard,0.00,,,,,,,,0.00,,,,,,,,0.00,,,,,,,,No,"3 years parts, 1 year labor (Free)",Scheduled,Sam's Club #8225 4/5-15/18 (FL),,This chair is a Brand New Black Legacy and needs to be delivered. #Tc 718606551373607914039,105130,CORRECTION FROM ORDER#105090,FL,0,7.00
4/10/2018 9:49:59 AM,Monique Moore,GA,31210,Vitality Plate for Sam's,USJ-849USJ-849,New,New,,,,,492.19,459.99,32.20,Christoper Williams,CreditCard,0.00,,,,,,,,0.00,,,,,,,,0.00,,,,,,,,YES,"2 years parts, 1 year labor for Small Items",Delivered,Sam's Club #8225 4/5-15/18 (FL),,"This item has been picked up. 
Tc# 9444 2122 7041 7041 7423 1143 3",105145,,FL,0,7.00
4/10/2018 9:56:00 AM,Johnny Parker,GA,31088,Shogun Neck & Back Massger,USJ-874USJ-874,New,New,,,,,213.98,199.98,14.00,Christoper Williams,CreditCard,0.00,,,,,,,,0.00,,,,,,,,0.00,,,,,,,,YES,"2 years parts, 1 year labor for Small Items",Delivered,Sam's Club #8225 4/5-15/18 (FL),,"Item has been picked up. 
Tc#9517 3963 9583 4117 3713 7",105146,,FL,0,7.00
4/10/2018 10:04:00 AM,Jeffery Holliman,GA,31020,Foot Vibe Pro,USJ-871,,New,,,,,331.67,309.97,21.70,Christoper Williams,CreditCard,0.00,,,,,,,,0.00,,,,,,,,0.00,,,,,,,,YES,"2 years parts, 1 year labor for Small Items",Delivered,Sam's Club #8225 4/5-15/18 (FL),,"items have been picked up!
TC#8327 8983 1573 4107 2719 7",105147,,FL,0,7.00
4/10/2018 10:04:00 AM,Jeffery Holliman,GA,31020,Shogun Neck & Back Massger,USJ-874USJ-874,New,New,,,,,331.67,309.97,21.70,Christoper Williams,CreditCard,0.00,,,,,,,,0.00,,,,,,,,0.00,,,,,,,,YES,"2 years parts, 1 year labor (Free)",Delivered,Sam's Club #8225 4/5-15/18 (FL),,"items have been picked up!
TC#8327 8983 1573 4107 2719 7",105147,,FL,0,7.00
4/10/2018 10:08:21 AM,Jonny Parker,GA,31088,Foot Vibe Pro,USJ-871,,New,,,,,117.69,109.99,7.70,Christoper Williams,CreditCard,0.00,,,,,,,,0.00,,,,,,,,0.00,,,,,,,,YES,"2 years parts, 1 year labor (Free)",Delivered,Sam's Club #8225 4/5-15/18 (FL),,"Item has been picked up.
Tc# 0873 2034 6214 9641 4164 1",105148,,FL,0,7.00
4/10/2018 10:14:25 AM,Abdelmoneim Younij,GA,31210,Shogun Neck & Back Massger,USJ-874USJ-874,New,New,,,,,331.67,309.97,21.70,Christoper Williams,CreditCard,0.00,,,,,,,,0.00,,,,,,,,0.00,,,,,,,,YES,"2 years parts, 1 year labor (Free)",Delivered,Sam's Club #8225 4/5-15/18 (FL),,"Items has been picked up, 
Tc# 6408 6765 8937 2318 0737 8",105149,,FL,0,7.00
4/10/2018 10:14:25 AM,Abdelmoneim Younij,GA,31210,Foot Vibe Pro,USJ-871,,New,,,,,331.67,309.97,21.70,Christoper Williams,CreditCard,0.00,,,,,,,,0.00,,,,,,,,0.00,,,,,,,,YES,"2 years parts, 1 year labor for Small Items",Delivered,Sam's Club #8225 4/5-15/18 (FL),,"Items has been picked up, 
Tc# 6408 6765 8937 2318 0737 8",105149,,FL,0,7.00
4/10/2018 10:18:58 AM,Dan Boland,GA,31088,Shogun Neck & Back Massger,USJ-874USJ-874,New,New,,,,,213.98,199.98,14.00,Christoper Williams,CreditCard,0.00,,,,,,,,0.00,,,,,,,,0.00,,,,,,,,YES,"2 years parts, 1 year labor (Free)",Delivered,Sam's Club #8225 4/5-15/18 (FL),,"Item has been picked up. 
Tc# 3574 1162 5050 7443 2845 3",105150,,FL,0,7.00
4/10/2018 10:32:14 AM,Roshunda Franklin,CA,31005,Foot Vibe Pro,USJ-871,,New,,,,,609.88,569.98,39.90,Christoper Williams,CreditCard,0.00,,,,,,,,0.00,,,,,,,,0.00,,,,,,,,YES,"2 years parts, 1 year labor (Free)",Delivered,Sam's Club #8225 4/5-15/18 (FL),,"Items has been picked up.
Tc# 8824 0172 4002 7443 41",105153,,CA,0,7.00
4/10/2018 10:32:14 AM,Roshunda Franklin,CA,31005,Vitality Plate for Sam's,USJ-849USJ-849,New,New,,,,,609.88,569.98,39.90,Christoper Williams,CreditCard,0.00,,,,,,,,0.00,,,,,,,,0.00,,,,,,,,YES,"2 years parts, 1 year labor (Free)",Delivered,Sam's Club #8225 4/5-15/18 (FL),,"Items has been picked up.
Tc# 8824 0172 4002 7443 41",105153,,CA,0,7.00
4/10/2018 10:42:44 AM,Chaekry Moeng,GA,31088,Legacy for Sam's,DWA-9100DWA-9100BL-DEMO,Demo Black,Demo,,,,,3598.41,3363.00,235.41,Christoper Williams,CreditCard,0.00,,,,,,,,0.00,,,,,,,,0.00,,,,,,,,YES,"3 years parts, 1 year labor (Free)",New,Sam's Club #8225 4/5-15/18 (FL),,"Going to deliever on Sunday.
TC# 6208 5570 5991 7239 8963 58
Sold for 3600
Tax exempt",105154,,Not Dispatched,0,7.00
4/11/2018 1:31:25 PM,Beatrice Moras,GA,31052,Foot Vibe Pro,USJ-871,,New,,,,,117.69,109.99,7.70,Christoper Williams,CreditCard,0.00,TC#7698 7759 9775 2358 0731 8,,,,,,,0.00,,,,,,,,0.00,,,,,,,,YES,"2 years parts, 1 year labor (Free)",Delivered,Sam's Club #8225 4/5-15/18 (FL),,"Customer picked up. 
Tc#7698 7759 2358",105173,,FL,0,7.00
4/11/2018 1:36:36 PM,Neelima Puppala,GA,31210,Foot Vibe Pro,USJ-871,,New,,,,,331.67,309.97,21.70,Christoper Williams,CreditCard,0.00,,,,,,,,0.00,,,,,,,,0.00,,,,,,,,YES,"2 years parts, 1 year labor (Free)",Delivered,Sam's Club #8225 4/5-15/18 (FL),,"Items have been picked up.
Tc# 7136 7543 5521 6029 4705 9",105174,,FL,0,7.00
4/11/2018 1:36:36 PM,Neelima Puppala,GA,31210,Shogun Neck & Back Massger,USJ-874USJ-874,New,New,,,,,331.67,309.97,21.70,Christoper Williams,CreditCard,0.00,,,,,,,,0.00,,,,,,,,0.00,,,,,,,,YES,"2 years parts, 1 year labor (Free)",Delivered,Sam's Club #8225 4/5-15/18 (FL),,"Items have been picked up.
Tc# 7136 7543 5521 6029 4705 9",105174,,FL,0,7.00
4/11/2018 1:41:23 PM,Louis Collins,GA,31014,Foot Vibe Pro,USJ-871,,New,,,,,117.69,109.99,7.70,Christoper Williams,CreditCard,0.00,,,,,,,,0.00,,,,,,,,0.00,,,,,,,,YES,"3 years parts, 1 year labor (Free)",Delivered,Sam's Club #8225 4/5-15/18 (FL),,"Item has been picked up! 
TC# 0603 0092 3080 9641 7368 1",105175,,FL,0,7.00
4/11/2018 1:52:05 PM,Sidney Hinson,GA,31088,Legacy for Sam's,DWA-9100DWA-9100CH,New Choco,New,,,,,4172.93,3949.00,223.93,Christoper Williams,CreditCard,0.00,,,,,,,,0.00,,,,,,,,0.00,,,,,,,,No,"3 years parts, 1 year labor (Free)",Scheduled,Sam's Club #8225 4/5-15/18 (FL),,"Needs to be delivered brand new legacy Choco Brown
Sold for $4,173
Tc#3202 2721 4327 2584 0418 10",105176,"4/12Maritza- Courtesy call @10:25AM
4/13 maggie c.c. 2:15",FL,0,7.00
4/12/2018 2:48:48 PM,Tony Zelonis,GA,31078,Foot Vibe Pro,USJ-871,,New,,,,,117.69,109.99,7.70,Christoper Williams,CreditCard,0.00,,,,,,,,0.00,,,,,,,,0.00,,,,,,,,YES,"2 years parts, 1 year labor for Small Items",Delivered,Sam's Club #8225 4/5-15/18 (FL),,"Item has been picked up. 
Tc# 9177 9925 8953 4137 2510 7",105197,,FL,0,7.00
4/12/2018 2:56:40 PM,Mile Novocic,GA,31017,Foot Vibe Pro,USJ-871,,New,,,,,117.69,109.99,7.70,Christoper Williams,CreditCard,0.00,,,,,,,,0.00,,,,,,,,0.00,,,,,,,,YES,"2 years parts, 1 year labor (Free)",Delivered,Sam's Club #8225 4/5-15/18 (FL),,"Item has been picked up already
Tc#5596 5553 7551 6019 4502 9",105198,,FL,0,7.00
4/12/2018 3:07:35 PM,Sander Krishna Puppala,NJ,07866,Foot Vibe Pro,USJ-871,,New,,,,,331.67,309.97,21.70,Christoper Williams,CreditCard,0.00,,,,,,,,0.00,,,,,,,,0.00,,,,,,,,YES,"2 years parts, 1 year labor (Free)",Called,Sam's Club #8225 4/5-15/18 (FL),,These Items need to be shipped out to the address provided. Please send out ASAP TC# 1202 1274 6244 5870 9882 0,105199,,TX,0,7.00
4/12/2018 3:07:35 PM,Sander Krishna Puppala,NJ,07866,Shogun Neck & Back Massger,USJ-874USJ-874,New,New,,,,,331.67,309.97,21.70,Christoper Williams,CreditCard,0.00,,,,,,,,0.00,,,,,,,,0.00,,,,,,,,YES,"2 years parts, 1 year labor for Small Items",Called,Sam's Club #8225 4/5-15/18 (FL),,These Items need to be shipped out to the address provided. Please send out ASAP TC# 1202 1274 6244 5870 9882 0,105199,,TX,0,7.00
4/14/2018 12:44:19 PM,Olin Wilson,GA,31005,Vitality Plate for Sam's,USJ-849USJ-849,New,New,,,,,492.19,459.99,32.20,Christoper Williams,CreditCard,0.00,,,,,,,,0.00,,,,,,,,0.00,,,,,,,,YES,"2 years parts, 1 year labor (Free)",Delivered,Sam's Club #8225 4/5-15/18 (FL),,"Customer picked up already 
TC#6867 3965 0953 4137 9517 7",105232,,FL,0,7.00
4/14/2018 1:04:03 PM,Avia Morris,GA,31206,Legacy for Sam's,DWA-9100DWA-9100BL,New Black,New,,,,,3851.93,3649.00,202.93,Christoper Williams,CreditCard,0.00,TC#9225 7831 1132 3829 5092 15,,,,,,,0.00,,,,,,,,0.00,,,,,,,,No,"3 years parts, 1 year labor (Free)",Called,Sam's Club #8225 4/5-15/18 (FL),,"This item needs to be delivered 
Brand New Black legacy 
TC#9225 7831 1132 3829 5092 15",105234,c.c. vm 4/16 11:40a - Maggie,FL,0,7.00
4/15/2018 10:22:58 PM,Lee McCants,GA,31088,Legacy for Sam's,DWA-9100DWA-9100BL,New Black,New,,,,,4172.93,3949.00,223.93,Christoper Williams,CreditCard,0.00,,,,,,,,0.00,,,,,,,,0.00,,,,,,,,No,"3 years parts, 1 year labor (Free)",Scheduled,Sam's Club #8225 4/5-15/18 (FL),,"Brand new legacy needs to be delivered 
TC#5023 9804 2105 4962 1216 31
$4,173",105288,4/16 11:30A C.C. -Maggie,FL,0,7.00
4/15/2018 10:29:31 PM,Jasmine Nguyen,GA,31068,Foot Vibe Pro,USJ-871,,New,,,,,235.38,219.98,15.40,Christoper Williams,CreditCard,0.00,,,,,,,,0.00,,,,,,,,0.00,,,,,,,,YES,"2 years parts, 1 year labor (Free)",New,Sam's Club #8225 4/5-15/18 (FL),,"Items need to be shipped to customer 2-3weeks delivery 
TC#0952 1244 4286 5880 1185 0",105289,,Not Dispatched,0,7.00
4/15/2018 10:39:38 PM,Nick Patel,GA,31220,Foot Vibe Pro,USJ-871,,New,,,,,609.88,569.98,39.90,Christoper Williams,CreditCard,0.00,,,,,,,,0.00,,,,,,,,0.00,,,,,,,,YES,"2 years parts, 1 year labor (Free)",Delivered,Sam's Club #8225 4/5-15/18 (FL),,"All items were picked up.
Tc#4047 2915 4995 4117 3113 7",105290,,FL,0,7.00
4/15/2018 10:39:38 PM,Nick Patel,GA,31220,Vitality Plate for Sam's,USJ-849USJ-849,New,New,,,,,609.88,569.98,39.90,Christoper Williams,CreditCard,0.00,,,,,,,,0.00,,,,,,,,0.00,,,,,,,,YES,"2 years parts, 1 year labor (Free)",Delivered,Sam's Club #8225 4/5-15/18 (FL),,"All items were picked up.
Tc#4047 2915 4995 4117 3113 7",105290,,FL,0,7.00
4/15/2018 10:45:12 PM,Niral Patel,GA,31716,Foot Vibe Pro,USJ-871,,New,,,,,117.69,109.99,7.70,Christoper Williams,CreditCard,0.00,,,,,,,,0.00,,,,,,,,0.00,,,,,,,,YES,"2 years parts, 1 year labor (Free)",Delivered,Sam's Club #8225 4/5-15/18 (FL),,"Item has been picked up. 
TC#3285 1321 8331 8205 0220 5",105291,,FL,0,7.00
4/15/2018 11:01:22 PM,Tuanh Nguyen,GA,31021,Foot Vibe Pro,USJ-871,,New,,,,,4782.81,4518.98,263.83,Christoper Williams,CreditCard,0.00,,,,,,,,0.00,,,,,,,,0.00,,,,,,,,No,"2 years parts, 1 year labor (Free)",New,Sam's Club #8225 4/5-15/18 (FL),,"Customer picked up vitality plate, foot vibe needs to be delivered along with New Legacy Choco brown 
Tc# 2319 0584 7987 9055 6575 66
$4782.88",105293,,Not Dispatched,0,7.00
4/15/2018 11:01:22 PM,Tuanh Nguyen,GA,31021,Vitality Plate for Sam's,USJ-849USJ-849,New,New,,,,,4782.81,4518.98,263.83,Christoper Williams,CreditCard,0.00,,,,,,,,0.00,,,,,,,,0.00,,,,,,,,No,"2 years parts, 1 year labor (Free)",New,Sam's Club #8225 4/5-15/18 (FL),,"Customer picked up vitality plate, foot vibe needs to be delivered along with New Legacy Choco brown 
Tc# 2319 0584 7987 9055 6575 66
$4782.88",105293,,Not Dispatched,0,7.00
4/15/2018 11:01:22 PM,Tuanh Nguyen,GA,31021,Legacy for Sam's,DWA-9100DWA-9100CH,New Choco,New,,,,,4782.81,4518.98,263.83,Christoper Williams,CreditCard,0.00,,,,,,,,0.00,,,,,,,,0.00,,,,,,,,No,"3 years parts, 1 year labor (Free)",New,Sam's Club #8225 4/5-15/18 (FL),,"Customer picked up vitality plate, foot vibe needs to be delivered along with New Legacy Choco brown 
Tc# 2319 0584 7987 9055 6575 66
$4782.88",105293,,Not Dispatched,0,7.00
4/15/2018 11:16:12 PM,Nabor Gutierrez,GA,31028,Foot Vibe Pro,USJ-871,,New,,,,,331.67,309.97,21.70,Christoper Williams,PurchaseOrder,0.00,,TC#4709 4817 9839 0536 1458 6,,,,,,0.00,,,,,,,,0.00,,,,,,,,No,"2 years parts, 1 year labor for Small Items",New,Sam's Club #8225 4/5-15/18 (FL),,"Items need to be delivered 
TC#4709 4817 9839 0536 1458 6",105294,,Not Dispatched,0,7.00
4/15/2018 11:16:12 PM,Nabor Gutierrez,GA,31028,Shogun Neck & Back Massger,USJ-874USJ-874,New,New,,,,,331.67,309.97,21.70,Christoper Williams,PurchaseOrder,0.00,,TC#4709 4817 9839 0536 1458 6,,,,,,0.00,,,,,,,,0.00,,,,,,,,No,"2 years parts, 1 year labor (Free)",New,Sam's Club #8225 4/5-15/18 (FL),,"Items need to be delivered 
TC#4709 4817 9839 0536 1458 6",105294,,Not Dispatched,0,7.00
4/15/2018 11:27:35 PM,Ghanahyam Bhui,GA,30461,Foot Vibe Pro,USJ-871,,New,,,,,117.69,109.99,7.70,Christoper Williams,PurchaseOrder,0.00,TC#8209 7877 8807 0596 9159 6,TC#8209 7877 8807 0596 9159 6,,,,,,0.00,,,,,,,,0.00,,,,,,,,YES,"2 years parts, 1 year labor (Free)",Delivered,Sam's Club #8225 4/5-15/18 (FL),,"Item has been picked up
TC#8209 7877 8807 0596 9159 6",105295,,FL,0,7.00
