﻿Original Event Name,Event Name,Sales Person,Order Number,Order Date,Customer Name,State,Zip,Product Name,Color,Product Status,QTY,Tax,Total Before Tax,Order Total,Primary Payment Method,Second Payment Method,Thirdl Payment Method,Warranty,Order Items,Pick up,Delivered On,Order Status,Chair Type,Order Notes,Private Note,Branch,No Tax,Actual Tax Rate,SKU,Primary Payment Balance,Primary Authorize Number,Primary Purchase Order Number,Primary Synchrony Account Number,Primary Synchrony Application Key,Primary Synchrony Account Info,Primary Synchrony Term,Primary Synchrony Primary ID,Primary Synchrony Issued State,Primary Synchrony Expiretion Date,Second Payment Balance,Second Authorize Number,Second Purchase Order Number,Second Synchrony Account Number,Second Synchrony Application Key,Second Synchrony Account Info,Second SynchronyTerm,Second Synchrony Primary ID,Second Synchrony Issued State,Second Synchrony Expiretion Date,Third Payment Balance,Third Authorize Number,Third Purchase Order Number,Third Synchrony Account Number,Third Synchrony Application Key,Third Synchrony Account Info,Third Synchrony Term,Third Synchrony Primary ID,Third Synchrony Issued State,Third Synchrony Expiretion Date
Las Vegas SF Market (NV),Las Vegas SF Market (NV),Querubin Milanes,114492,1/21/2019 5:01:58 PM,Jamila Bui,UT,84770,SF Market Legacy,New Choco,New,1,0.00,4300.00,4300.00,Synchrony,,,"3 years parts, 1 year labor (Free)","SF Market Legacy,",No,2/6/2019 12:00:00 AM,Delivered,New,,"Synchrony 0% APR/ O Down/ 36 Months Installment, Please deliver a New Legacy (DWA-9100) Choco
//Confirmed SYNC($4,300). need to confirm original-1/22/19 Hitomi
1/23/19-Confirmed original. ***Please charge $4,300 before delivery and sales draft signed.*** -Hitomi
Courtesy call/text completed- Cristina 01/23/19 1:11 pm
Sent customer sales draft by e-mail ---- 2/8/19 Asumi",NV,1,8.15,DWA-9100DWA-9100BU,4300.00,,,6019170813349013,70282479,San Diego,36 months,,,,0.00,,,,,,,,,,0.00,,,,,,,,,
Las Vegas SF Market (NV),Las Vegas SF Market (NV),Jovylyn Florea,115110,2/18/2019 3:27:14 PM,Peter Nguyen,NV,89142,SF Market Legacy 3D,New Choco,New,1,0.00,4500.00,4500.00,Synchrony,,,"3 years parts, 1 year labor (Free)","SF Market Legacy 3D,",No,3/5/2019 12:00:00 AM,Delivered,New,,"Please Deliver it Monday or Tuesday morning. Thank You
Confirmed synchrony approved $6,500.00 and original invoice and application form. Please charge $4,500.00 before delivery and have saels draft signed. --- 2/19/19 Asumi
02/26/19 courtesy call / text completed- cristina",NV,1,8.15,DWA-9150USJ-9150CH,4500.00,,,6501723375020961,71515911,Las Vegas,36 months,,,,0.00,,,,,,,,,,0.00,,,,,,,,,
Las Vegas SF Market (NV),Las Vegas SF Market (NV),Jovylyn Florea,115484,3/4/2019 3:19:35 PM,Julie Basile-farris,NV,89123,Orbit,New Choco,New,1,0.00,3300.00,3300.00,Synchrony,,,"3 years parts, 1 year labor (Free)","Orbit,",No,3/18/2019 12:00:00 AM,Delivered,New,,"If Impossible please Deliver it Monday n Tuesday Morning. Thank You
3/5/19-Confirmed SYNC$8,500 and original. ***Please charge $3,300/sales draft *** Hitomi
3/7Maritza- Courtesy message and email sent @ 3:05PM
CC Haleigh 3/12/19",NV,1,8.15,ORBT-1ORBT-1CH,3300.00,,,6501723375043294,72156331,Las Vegas,36 months,,,,0.00,,,,,,,,,,0.00,,,,,,,,,
Las Vegas SF Market (NV),Las Vegas SF Market (NV),Jovylyn Florea,115489,3/4/2019 5:19:47 PM,Li Liu,NV,89148,Majesty,New Choco,New,1,0.00,2800.00,2800.00,Synchrony,,,"3 years parts, 1 year labor (Free)","Majesty,",No,3/18/2019 12:00:00 AM,Delivered,New,,"Confirmed SYNC$6,000 and original. ***Please charge $2,800/sales draft *** 3/5/19 Hitomi
3/7Maritza- Courtesy Message @ 3:08PM
CC Haleigh 3/12/19 but due to language barrier Jovylyn will be completing a CC",NV,1,8.15,MAJ-1010MAJ-1010-BR,2800.00,,,6501723375043419,72159235,Las Vegas,36 months,,,,0.00,,,,,,,,,,0.00,,,,,,,,,
Las Vegas SF Market (NV),Las Vegas SF Market (NV),Jovylyn Florea,115536,3/7/2019 1:33:21 PM,Manuela Ketchum,NV,89102,Majesty,Demo Choco,Demo,1,0.00,2000.00,2000.00,Synchrony,,,"3 years parts, 1 year labor (Free)","Majesty,",No,,Cancelled,,,,Not Dispatched,1,8.15,MAJ-1010MAJ-1010-BR-DEMO,2000.00,,,6501723375046362,72289794,Las Vegas,24 months,,,,0.00,,,,,,,,,,0.00,,,,,,,,,
Las Vegas SF Market (NV),Las Vegas SF Market (NV),Jovylyn Florea,115560,3/8/2019 10:47:29 AM,Manuela Ketchum,NV,89102,Majesty,Demo Choco,Demo,1,0.00,3200.00,3200.00,Synchrony,Cash,,"3 years parts, 1 year labor (Free)","Majesty,",No,,Cancelled,,,,Not Dispatched,1,8.15,MAJ-1010MAJ-1010-BR-DEMO,2600.00,,,6501723375046362,72289794,Las Vegas,24 months,,,,600.00,,,,,,,,,,0.00,,,,,,,,,
Las Vegas SF Market (NV),Las Vegas SF Market (NV),Jovylyn Florea,115562,3/8/2019 11:18:47 AM,Manuela Ketchum,NV,89102,Majesty,Demo Choco,Demo,1,0.00,2600.00,2600.00,Synchrony,CreditCard,,"3 years parts, 1 year labor (Free)","Majesty,",No,3/18/2019 12:00:00 AM,Delivered,Demo,,"Confirmed SYNC$2,000 and original, $600 in SQ. ***Please charge $2,000/sales draft ***- 3/8/19 Hitomi
CC Haleigh 3/12/19
3/13/19 - *Please issue referral coupon to #115484 Julie Basile-farris*- Hitomi",NV,1,8.15,MAJ-1010MAJ-1010-BR-DEMO,2000.00,,,6501723375046362,72289794,Las Vegas,24 months,,,,600.00,Receipt #IB0z (CASH),,,,,,,,,0.00,,,,,,,,,
Las Vegas SF Market (NV),Las Vegas SF Market (NV),Li Chen,116033,3/23/2019 12:05:44 PM,Qiong Zhang,NV,89118,SF Market Legacy 3D,New Choco,New,1,0.00,3800.00,3800.00,CreditCard,,,"3 years parts, 1 year labor (Free)","SF Market Legacy 3D,",No,3/26/2019 12:00:00 AM,Delivered,,URGENT: Please arrange delivery before 03/28/2019.,"3/25/19-will confirm the payment -Hitomi
Serial #: 0202002181159 (New)",NV,1,8.15,DWA-9150USJ-9150CH,3800.00,Receipt #q2Kp(CASH),,,,,,,,,0.00,,,,,,,,,,0.00,,,,,,,,,
Las Vegas SF Market (NV),Las Vegas SF Market (NV),Joy Anne Torres,116034,3/23/2019 12:18:35 PM,Claudia Alvarez Martinez,NV,89103,Kawasaki Massage Lounger,Black Armrest,New,1,0.00,900.00,900.00,Cash,COD,,"3 years parts, 1 year labor (Free)","Kawasaki Massage Lounger,",No,3/28/2019 12:00:00 AM,Delivered,,URGENT: Please deliver it on Wednesday or Thursday afternoon (03/27 or 28/ 2019).,"3/25/19-will confirm the payment-Hitomi
3/26/19- Confirmed w/Kohei, will deliver on 3/28 (1pm-4pm). Kohei will collect deposit and send confirmation. ***COD $500***- Hitomi",NV,1,8.15,USJ-6000USJ-6000KU,400.00,,,,,,,,,,500.00,,,,,,,,,,0.00,,,,,,,,,
Las Vegas SF Market (NV),Las Vegas SF Market (NV),Jovylyn Florea,116945,4/24/2019 2:58:13 PM,Thai Mai,NV,89103,AGM Kawasaki,,New,1,0.00,750.00,750.00,Cash,,,"3 years parts, 1 year labor (Free)","AGM Kawasaki,",No,,Cancelled,,Kawasaki Demo. Customer paid off full for $650.00 and the remaining balance is 0.,"Kawasaki Demo. Customer paid off full for $650.00 and the remaining balance is 0.
4/25/19-revised to #116950 - Hitomi",Not Dispatched,1,8.15,USJ-6000,650.00,,,,,,,,,,0.00,,,,,,,,,,0.00,,,,,,,,,
Las Vegas SF Market (NV),Las Vegas SF Market (NV),Jovylyn Florea,116950,4/25/2019 11:15:34 AM,Thai Mai,NV,89103,Kawasaki Massage Lounger,Demo,Demo,1,0.00,650.00,650.00,Credit Card,,,"3 years parts, 1 year labor (Free)","Kawasaki Massage Lounger,",No,5/1/2019 12:00:00 AM,Delivered,Demo,Kawasaki Demo. Customer paid off full for $650.00 and the remaining balance is 0.,4/25/19-COnfirmed $650 in SQ. Price confirmed with Kohei - Hitomi,NV,1,8.15,USJ-6000USJ-6000,650.00,Receipt #yA9V(cash),,,,,,,,,0.00,,,,,,,,,,0.00,,,,,,,,,
Las Vegas SF Market (NV),Las Vegas SF Market (NV),Querubin Milanes,117352,5/14/2019 2:56:54 PM,Quoc Ngo,ID,83642,SF Market Legacy 3D,New Black,New,1,0.00,4500.00,4500.00,Synchrony,,,"5 years parts, 1 year labor (Free)","SF Market Legacy 3D,",No,5/25/2019 12:00:00 AM,Delivered,New,,"Legacy 3D Black (9150) Synchrony 0% APR, 36 Months to Pay. Key # 75353059
Bring Foot Massager with delivery of chair per QM's request. - Haleigh
***Please bring REFLEXOLOGY FOOT MASSAGER USJ-862 for customer***",WA,1,8.15,DWA-9150USJ-9150BL,4500.00,,,6501723375144100,75353059,Las Vegas,36 months,,,,0.00,,,,,,,,,,0.00,,,,,,,,,
Las Vegas SF Market (NV),Las Vegas SF Market (NV),Jovylyn Florea,117597,5/26/2019 4:27:03 PM,Peng Tam,NV,89178,Relax 2 Zero 3D,New Black,New,1,0.00,4500.00,4500.00,Cash,,,"5 years parts, 1 year labor (Free)","Relax 2 Zero 3D,",No,6/10/2019 12:00:00 AM,Delivered,New,,"Original Received.  Erika 5/28/19 10:20 am
Delivery conf. completed. Paid in full. Receipt #oxul",NV,1,8.15,DWA-9060USJ-9060BL,4500.00,,,,,,,,,,0.00,,,,,,,,,,0.00,,,,,,,,,
Las Vegas SF Market (NV),Las Vegas SF Market (NV),Jovylyn Florea,117599,5/26/2019 4:54:29 PM,Darwin Vicente,NV,89147,Majesty,New Black,New,1,0.00,3000.00,3000.00,Synchrony,,,"5 years parts, 1 year labor (Free)","Majesty,",No,,Cancelled,,,"Synchrony original Verified. Credit available $4000. Remaining balance $3000. Please charge synchrony account upon delivery and have sales signed. Erika 5/28/19 4:02pm
Please disregard this order#117599
NEW order # 117665 Erika 5/29/19 4:16 pm",NV,1,8.15,MAJ-1010MAJ-1010-BL,3000.00,,,6501723375161989,75948707,Las Vegas,36 months,,,,0.00,,,,,,,,,,0.00,,,,,,,,,
Las Vegas SF Market (NV),Las Vegas SF Market (NV),Jovylyn Florea,117665,5/29/2019 3:32:31 PM,Darwin Vicente,NV,89147,SF Market Relax 2 Zero 2.0,New Brown,New,1,0.00,4000.00,4000.00,Synchrony,,,"5 years parts, 1 year labor (Free)","SF Market Relax 2 Zero 2.0,",No,5/30/2019 12:00:00 AM,Delivered,New,,"Customer change his order to Relax 2. Zero instead of Majesty. Thank you
Synchrony original verified. Credit available of $4000.  Remaining BALANCE $4000. Please charge upon delivery and have sales signed. Erika 5/30/19 8:47 am
delivery Conf. Completed. 5/31/19 10:12am
requested sales draft to be signed to LV 05/31/19 10:30am- Cristina",NV,1,8.15,USJ-9050USJ-9050BR,4000.00,,,6501723375161989,75948707,Las Vegas,36 months,,,,0.00,,,,,,,,,,0.00,,,,,,,,,
Las Vegas SF Market (NV),Las Vegas SF Market (NV),Jovylyn Florea,117812,6/5/2019 8:16:56 PM,Norm Chien,NV,89148,SF Market Legacy 3D,New Choco,New,1,0.00,4000.00,4000.00,Cash,,,"5 years parts, 1 year labor (Free)","SF Market Legacy 3D,",No,6/14/2019 12:00:00 AM,Delivered,New,,"Original received. Erika 6/6/19 8:50am  
Full paid @ register Cash receipt Kqlb.",NV,1,8.15,DWA-9150USJ-9150CH,4000.00,,,,,,,,,,0.00,,,,,,,,,,0.00,,,,,,,,,
Las Vegas SF Market (NV),Las Vegas SF Market (NV),Joy Anne Torres,117972,6/12/2019 1:19:05 PM,Rosanna Ang,NV,89148,Majesty,New Choco,New,1,0.00,2800.00,2800.00,Synchrony,,,"3 years parts, 1 year labor (Free)","Majesty,",No,,Cancelled,,,"Follow up order at SF price approved by Kohei
---Synchrony original received. Credit available $6500. Remaining balance of $2800. Please charge synchrony account upon delivery and have sales draft sign. Erika 6/12/19 2:50pm
---Per sales rep request Joy ann,  Haleigh has informed us that customer canceled the order. Erika 6/18/19",NV,1,8.15,MAJ-1010MAJ-1010-BR,2800.00,,,6501723375183728,76595323,Las Vegas,36 months,,,,0.00,,,,,,,,,,0.00,,,,,,,,,
Las Vegas SF Market (NV),Las Vegas SF Market (NV),Joy Anne Torres,118074,6/16/2019 12:51:03 PM,Thuy Giao Nguyen,NV,89139,Majesty,New Choco,New,2,0.00,5200.00,5200.00,Synchrony,,,"3 years parts, 1 year labor (Free)","Majesty,",No,,Cancelled,,,"The chair for Las Vegas with the above address to be delivered on Friday, June 21, 2019 as per conversation with Rex and preferably in the morning and call Thuy at 612 919 9744 for they are going to Vietnam. However, the other chair will be delivered in 6405 101st Ave. N Brooklyn Park, MN 55445. Please call the husband named Anh for the delivery at 612 221 3291. They are fine thatvthe chair to be delivered towards 2nd week of July for they are going for a trip to Cancun.",Not Dispatched,1,8.15,MAJ-1010MAJ-1010-BR,5200.00,,,6501723375192604,76889403,,36 months,,,,0.00,,,,,,,,,,0.00,,,,,,,,,
Las Vegas SF Market (NV),Las Vegas SF Market (NV),Joy Anne Torres,118123,6/18/2019 11:56:22 AM,Thuy Giao Nguyen,NV,89139,Majesty,New Choco,New,1,0.00,5200.00,5200.00,Synchrony,,,"3 years parts, 1 year labor (Free)","Majesty,",No,6/21/2019 12:00:00 AM,Delivered,New,,"--Synchrony original Verified. Credit available 9,000. Remaining balance $5200. Please charge synchrony account $5200 upon delivery and have sales draft sign. Please note this order is linked to order #118124. Customer bought two chairs, will be paying for both. Erika 6/18/19 12:17pm
Auth code 020997

Autho :020997
Amount: $5,200
Promo: 36 months
Charged by: Cristina 06/20/19 9:49
Linked Orders:#118124-118123
Sales draft collected in Las Vegas   (KAREN)",NV,1,8.15,MAJ-1010MAJ-1010-BR,5200.00,,,6501723375192604,76889403,Las Vegas,36 months,,MN,06/2023,0.00,,,,,,,,,/,0.00,,,,,,,,,/
Las Vegas SF Market (NV),Las Vegas SF Market (NV),Joy Anne Torres,118124,6/18/2019 12:05:11 PM,Thuy Nguyen,MN,55445,Majesty,New Choco,New,1,0.00,5200.00,5200.00,Synchrony,,,"3 years parts, 1 year labor (Free)","Majesty,",No,,Scheduled,,,"Synchrony Original received. This order is linked to order#118123. Customer bought two chairs. Chair will be charge through synchrony account by Haleigh upon delivery in NV . Please DO NOT CHARGE THIS ORDER. Will provide Auth Code once i receive it. Erika 6/18/19 12:20pm

chair will be delivered in 6405 101st Ave. N Brooklyn Park, MN 55445. Please call the husband named Anh for the delivery at 612 221 3291. They are fine that the chair to be delivered towards 2nd week of July for they are going for a trip to Cancun. (per Joy ann Request)--Erika 6/18/19
Auth code 020997

Autho :020997
Amount: $5,200
Promo: 36 months
Charged by: Cristina 06/20/19 9:49
Linked Orders:#118124-118123
Sales draft collected in Las Vegas   (KAREN)

6/26-CC Customer let us know he will be out of town from 6th-13th, will need a later schedule.-Karen
7/2- Customer confirmed delivery for 7/18- 12:30pm-4:30pm-Karen",IL,1,8.15,MAJ-1010MAJ-1010-BR,5200.00,,,6501723375192604,76889403,San Diego,36 months,,,,0.00,,,,,,,,,,0.00,,,,,,,,,
Las Vegas SF Market (NV),Las Vegas SF Market (NV),Jovylyn Florea,118358,6/28/2019 12:54:33 PM,JarinPorn Cummins,AZ,86413,SF Market Legacy,New Sienna Brown,New,1,0.00,3800.00,3800.00,COD,Cash,,"3 years parts, 1 year labor (Free)","SF Market Legacy,",No,7/11/2019 12:00:00 AM,Delivered,New,,"C.O.D $3,300 Deposit $500.00
Original received/. $500 verified Receipt #Q9Ck.  Remaining balance $3300. Pls collect COD(3300) @ delivery. Erika 6/28/19 1:41pm
Delivery conf. completed. $500 verified & COD $3300 verified,received by haleigh. Paid in full. Erika 7/12/19 10:48am",NV,1,8.15,DWA-9100DWA-9100SI,3300.00,,,,,,,,,/,500.00,,,,,,,,,/,0.00,,,,,,,,,/
Las Vegas SF Market (NV),Las Vegas SF Market (NV),Jovylyn Florea,118454,7/2/2019 6:29:10 PM,Xin Yin,NV,89048,SF Market Serenity,New Black,New,1,0.00,2800.00,2800.00,Cash,,,"5 years parts, 1 year labor (Free)","SF Market Serenity,",No,7/5/2019 12:00:00 AM,Delivered,New,,"Original received. Paid in full $2800. Receipt#mUyv. Erika 7/3/19 9:32am

Product delivered was MAJESTY. Attached delivery confirmation to invoice, verified delivery and payment, and passed complete invoice to Riho - Arisa 7/8/19 10:54am",NV,1,8.15,SSRT-1SSRT-1-BL,2800.00,,,,,,,,,/,0.00,,,,,,,,,/,0.00,,,,,,,,,/
Las Vegas SF Market (NV),Las Vegas SF Market (NV),Joy Anne Torres,118503,7/5/2019 12:00:14 AM,Ed Kathryn Burnside,ID,83287,SF Market Legacy 3D,Demo Black,Demo,1,0.00,4136.53,4136.53,Credit Card,,,"3 years parts, 1 year labor (Free)","SF Market Legacy 3D,",No,,Scheduled,,,"Follow up order
Original received. SQ. amount verified $4136.53. Paid in full. Pls collect customers signature on invoice. Erika 7/5/19 1:53pm",NV,1,8.15,DWA-9150USJ-9150BL-DEMO,4136.53,SQz2di,,,,,,,,/,0.00,,,,,,,,,/,0.00,,,,,,,,,/
