﻿Original Event Name,Event Name,Sales Person,Order Number,Order Date,Customer Name,State,Zip,Product Name,Color,Product Status,QTY,Tax,Total Before Tax,Order Total,Primary Payment Method,Second Payment Method,Thirdl Payment Method,Warranty,Order Items,Pick up,Delivered On,Order Status,Chair Type,Order Notes,Private Note,Branch,No Tax,Actual Tax Rate,SKU,Primary Payment Balance,Primary Authorize Number,Primary Purchase Order Number,Primary Synchrony Account Number,Primary Synchrony Application Key,Primary Synchrony Account Info,Primary Synchrony Term,Second Payment Balance,Second Authorize Number,Second Purchase Order Number,Second Synchrony Account Number,Second Synchrony Application Key,Second Synchrony Account Info,Second SynchronyTerm,Third Payment Balance,Third Authorize Number,Third Purchase Order Number,Third Synchrony Account Number,Third Synchrony Application Key,Third Synchrony Account Info,Third Synchrony Term
BETTER HOME SHOW 5/18-19/19 LAS VEGAS (NV),BETTER HOME SHOW 5/18-19/19 LAS VEGAS (NV),Ariel Milanes,117465,5/19/2019 8:20:54 AM,Richard Harris,WA,98108,Relax 2 Zero 3D,New Choco,New,1,284.63,4200.00,4484.63,Cash,Credit Card,,"5 years parts, 2 years labor ($200)","Relax 2 Zero 3D,",No,,Cancelled,,***COD Remaining Balance of $4000. Please confirm delivery address with customer before dispatching.***,"***COD Remaining Balance of $4000. Please confirm delivery address with customer before dispatching.***
Original Received /Cash Received by Kohei $200 Erika 5/20/19 3:07pm

Drop ship only (No Assembly) Please shrink wrap and collect COD before drop off :
5615 W Marginal Way
Seattle, WA 98108

Courtesy call completed VM left 05/20/19 3:43 cristina
Customer will call to provide alt card to process cod- Cristina 05/22 4:56",WA,0,8.25,DWA-9060USJ-9060BR,200.00,,,,,,,4000.00,GEBQ,,,,,,0.00,,,,,,
BETTER HOME SHOW 5/18-19/19 LAS VEGAS (NV),BETTER HOME SHOW 5/18-19/19 LAS VEGAS (NV),Kohei Uno,117466,5/19/2019 8:30:27 AM,Tina Panurov,NV,89149,Relax 2 Zero 3D,Demo Choco,Demo,1,0.00,3750.00,3750.00,Credit Card,COD,,"5 years parts, 2 years labor ($200)","Relax 2 Zero 3D,",No,,Cancelled,,***COD Balance of $3700 remaining.***,"***COD Balance of $3700 remaining.***
tinaotlv@yahoo.com
Verified square amount $50/ Collect COD @ delivery
Erika 5/20/19 3:02pm
Courtesy call / text completed- Cristina 05/20 3:41",NV,1,8.25,DWA-9060USJ-9060BR-DEMO,50.00,Square#N5tY,,,,,,4150.00,,,,,,,0.00,,,,,,
BETTER HOME SHOW 5/18-19/19 LAS VEGAS (NV),BETTER HOME SHOW 5/18-19/19 LAS VEGAS (NV),Laura Vargas,117494,5/20/2019 11:40:43 AM,Amy Falcone Wharton,NV,89044,Relax 2 Zero 3D,Demo Black,Demo,1,0.00,4200.00,4200.00,Synchrony,,,"3 years parts, 1 year labor (Free)","Relax 2 Zero 3D,",No,,Assigned,,***2nd Floor Delivery***,"amymfalcone@gmail.com
Originals  Received by Erika Synchrony credit available $6,500.00; Please charge synchrony bef0re delivery and have sale draft signed - Erika 5/20/19 2:12pm
Courtesy call/ text completed -Cristina 05/20/19 4:04 pm",NV,1,8.25,DWA-9060USJ-9060BL-DEMO,4200.00,,,6501723375150685,75578972,Las Vegas,36 months,0.00,,,,,,,0.00,,,,,,
BETTER HOME SHOW 5/18-19/19 LAS VEGAS (NV),BETTER HOME SHOW 5/18-19/19 LAS VEGAS (NV),Kohei Uno,117499,5/20/2019 4:49:43 PM,Tina Panurov,NV,89149,Relax 2 Zero 3D,Demo Choco,Demo,1,0.00,4200.00,4200.00,Credit Card,COD,,"5 years parts, 2 years labor ($200)","Relax 2 Zero 3D,",No,,Assigned,,***COD Balance of $4150 remaining.***,"***COD Balance of $4150 remaining.***
tinaotlv@yahoo.com
Verified square amount $50/ Collect COD @ delivery
Erika 5/20/19 3:02pm
Courtesy call / text completed- Cristina 05/20 3:41

CC#4366-1898-5540-9844 exp 06/21 cvv 075 zip 89149
5/20Maritza- Update for (#117466)
Spoke to Haleigh about the mistake on the customers sales receipt, we will ask the customer to send her original with the BAL of $3,700- Cristina 05/22/19 12:38
Original receipt sent, $3700 was what was signed for - Haleigh 5/23/2019",NV,1,8.25,DWA-9060USJ-9060BR-DEMO,50.00,#N5tY,,,,,,3700.00,,,,,,,0.00,,,,,,
BETTER HOME SHOW 5/18-19/19 LAS VEGAS (NV),BETTER HOME SHOW 5/18-19/19 LAS VEGAS (NV),Ariel Milanes,117529,5/22/2019 5:37:40 PM,Richard Harris,WA,98108,Relax 2 Zero 3D,New Choco,New,1,0.00,4200.00,4200.00,Cash,Credit Card,,"5 years parts, 2 years labor ($200)","Relax 2 Zero 3D,",No,,Assigned,,,"***COD Remaining Balance of $4000. Please confirm delivery address with customer before dispatching.***
Original Received /Cash Received by Kohei $200 Erika 5/20/19 3:07pm

Drop ship only (No Assembly) Please shrink wrap and collect COD before drop off :
5615 W Marginal Way
Seattle, WA 98108

Courtesy call completed VM left 05/20/19 3:43 cristina
Customer will call to provide alt card to process cod- Cristina 05/22 4:56
Cristina Charged COD 05/22 5:42 Please disregard order # 117465",WA,1,8.25,DWA-9060USJ-9060BR,200.00,,,,,,,4000.00,GEBQ,,,,,,0.00,,,,,,
