﻿Date,CustomerName,State,Zipcode,Description,productNo,Color,IsDemo,Net,ShippingFee,GiftPrice,FinancingProcessingFee,Gross,Pre_tax,Tax,Commission,Primary Payment Method,Primary Payment Balance,Primary Authorize Number,Primary Purchase Order Number,Primary Synchrony Account Number,Primary Synchrony Application Key,Primary Synchrony AccountInfo,Primary SynchronyTerm,Secondly Payment Method,Secondly Payment Balance,Secondly Authorize Number,Secondly Purchase Order Number,Secondly Synchrony Account Number,Secondly Synchrony Application Key,Secondly Synchrony AccountInfo,Secondly SynchronyTerm,Thirdly Payment Method,Thirdly Payment Balance,Thirdly Authorize Number,Thirdly Purchase Order Number,Thirdly Synchrony Account Number,Thirdly Synchrony Application Key,Thirdly Synchrony AccountInfo,Thirdly SynchronyTerm,DeliveryDate,Ispickup,Warranty,Status,Event Name,Synchrony Notes,Order Notes,Order number,Private Note,Branch,IsNoTax,ActualTaxRate
5/5/2018 7:24:12 PM,James Hadnot,CA,93505,Legacy for Sam's,DWA-9100DWA-9100BL-Box,Demo(Box) Black,Demo,,,,,3940.91,3599.00,341.91,Abagail Stirling,CreditCard,0.00,198083,,,,,,PurchaseOrder,0.00,,TC#1692332306242782961347,,,,,,0.00,,,,,,,,No,"3 years parts, 1 year labor (Free)",Scheduled,Sam's Club #4767 5/3-13/18 (CA),,,105815,5/7Printed,CA,0,9.50
5/5/2018 8:17:24 PM,N/A N/A,CA,00000,Vitality Plate for Sam's,USJ-849USJ-849,New,New,,,,,503.69,459.99,43.70,Abagail Stirling,CreditCard,0.00,001510,,,,,,PurchaseOrder,0.00,,608685887515201445872,,,,,,0.00,,,,,,,,YES,"2 years parts, 1 year labor (Free)",New,Sam's Club #4767 5/3-13/18 (CA),,,105818,,Not Dispatched,0,9.50
5/6/2018 10:59:14 PM,Sandra Martinez,CA,93539,Legacy for Sam's,DWA-9100DWA-9100CH-Box,Demo(Box) Choco,Demo,,,,,3940.91,3599.00,341.91,Abagail Stirling,CreditCard,0.00,970169,,,,,,PurchaseOrder,0.00,,4959128068867368193273,,,,,,0.00,,,,,,,,No,"3 years parts, 1 year labor (Free)",Scheduled,Sam's Club #4767 5/3-13/18 (CA),,,105876,"Rush Order
5/7Printed",CA,0,9.50
5/6/2018 11:10:16 PM,Virginia Hernandez,CA,93551,Legacy for Sam's,DWA-9100DWA-9100BL-Box,Demo(Box) Black,Demo,,,,,3940.91,3599.00,341.91,Abagail Stirling,CreditCard,0.00,006579,,,,,,PurchaseOrder,0.00,,1642932605272782960347,,,,,,0.00,,,,,,,,No,"3 years parts, 1 year labor (Free)",Scheduled,Sam's Club #4767 5/3-13/18 (CA),,,105878,"Rush Order
5/Printed",CA,0,9.50
5/6/2018 11:16:32 PM,Carol Cuthbert,CA,93551,Relax 2 Zero 2.0 for Sam's,USJ-9050USJ-9050BL-DEMO (Box),Demo (Box) Black,Demo,,,,,3502.91,3199.00,303.91,Abagail Stirling,CreditCard,0.00,006028,,,,,,PurchaseOrder,0.00,,3963720311000860743518,,,,,,0.00,,,,,,,,No,"3 years parts, 1 year labor (Free)",Scheduled,Sam's Club #4767 5/3-13/18 (CA),,,105879,5/7Printed,CA,0,9.50
