﻿Order Number,Order Date,Event Name,Salesperson,SKU,Product Name,Color,QTY,Warranty,Payment Details,Tax,Order Total,Gross,Primary Payment Method,Primary Payment Balance,Primary Authorize Number,Primary Purchase Order Number,Primary Synchrony Account Number,Primary Synchrony Application Key,Primary Synchrony AccountInfo,Primary SynchronyTerm,Secondly Payment Method,Secondly Payment Balance,Secondly Authorize Number,Secondly Purchase Order Number,Secondly Synchrony Account Number,Secondly Synchrony Application Key,Secondly Synchrony AccountInfo,Secondly SynchronyTerm,Thirdly Payment Method,Thirdly Payment Balance,Thirdly Authorize Number,Thirdly Purchase Order Number,Thirdly Synchrony Account Number,Thirdly Synchrony Application Key,Thirdly Synchrony AccountInfo,Thirdly SynchronyTerm,Actual Shipping Cost,CustomerName,Shipping Address,Delivered On,Serial Number (TO Be),Note,Branch,IsNoTax,ActualTaxRate
106212,5/18/2018 11:57:39 AM,CDA 5/17-19/18 (CA),Rodrigo Malabunga,DWA-9150USJ-9150CH,Legacy 3D,New Choco,2,"3 years parts, 1 year labor (Free)",CUSTOM ,0.00,8200.00,8200.00,CreditCard,8200.00,#q2r0,,,,,,,0.00,,,,,,,,0.00,,,,,,,0.00,John Campbell,9496901557,,,"Second delivery address:
23 Monument Pl
Irvine, Ca 92602",Not Dispatched,1,7.75
106213,5/18/2018 12:07:22 PM,CDA 5/17-19/18 (CA),Rodrigo Malabunga,DWA-9150USJ-9150CH,Legacy 3D,New Choco,1,"3 years parts, 1 year labor (Free)",CUSTOM ,0.00,4100.00,4100.00,CreditCard,4100.00,#q2r0,,,,,,,0.00,,,,,,,,0.00,,,,,,,0.00,John Campbell,9496901557,,,1 out of 2 total chairs for order,CA,1,7.75
106214,5/18/2018 12:15:34 PM,CDA 5/17-19/18 (CA),Rodrigo Malabunga,DWA-9150USJ-9150CH,Legacy 3D,New Choco,1,"3 years parts, 1 year labor (Free)",CUSTOM ,0.00,4100.00,4100.00,CreditCard,4100.00,#q2r0,,,,,,,0.00,,,,,,,,0.00,,,,,,,0.00,John Campbell,9496901557,,,2nd chair of total 2 chairs on order,CA,1,7.75
106216,5/18/2018 2:06:21 PM,CDA 5/17-19/18 (CA),Rodrigo Malabunga,DWA-9150USJ-9150CH,Legacy 3D,New Choco,2,"3 years parts, 1 year labor (Free)",CUSTOM ,0.00,8200.00,8200.00,CreditCard,8200.00,Sq #q2r0,,,,,,,0.00,,,,,,,,0.00,,,,,,,0.00,John Campbell,949 690 1557,,,,CA,1,7.75
106236,5/19/2018 10:22:15 AM,CDA 5/17-19/18 (CA),Ruben Cuatrona,DWA-9150USJ-9150BL,Legacy 3D,New Black,1,"3 years parts, 1 year labor (Free)",CUSTOM ,0.00,4500.00,4500.00,Synchrony,4500.00,,,6034591404180296,,San Diego,48 months,,0.00,,,,,,,,0.00,,,,,,,0.00,Mario Alvarez,213 820 6590,,,,CA,1,7.75
106294,5/20/2018 7:32:18 PM,CDA 5/17-19/18 (CA),Rodrigo Malabunga,DWA-9150USJ-9150CH-DEMO,Legacy 3D,Demo Choco,1,"3 years parts, 1 year labor (Free)",CUSTOM Synchrony,0.00,3999.00,3999.00,Check,999.00,,,,,,,Synchrony,3000.00,,,6034610083275928,89001609,San Diego,24 months,,0.00,,,,,,,0.00,Janice Work,916 425 3836,,,,Not Dispatched,1,7.75
106298,5/20/2018 7:41:44 PM,CDA 5/17-19/18 (CA),Rodrigo Malabunga,DWA-9150USJ-9150BL-DEMO,Legacy 3D,Demo Black,1,"3 years parts, 1 year labor (Free)",CUSTOM ,0.00,3900.00,3900.00,Synchrony,3900.00,,,6034610083282239,89137582,San Diego,36 months,,0.00,,,,,,,,0.00,,,,,,,0.00,michelle Fuentes,760 625 7798,,,,CA,1,7.75
106301,5/20/2018 8:04:30 PM,CDA 5/17-19/18 (CA),Rodrigo Malabunga,DWA-9060USJ-9060BR,Relax2Zero 3D,New Choco,1,"3 years parts, 1 year labor (Free)",CUSTOM ,0.00,3900.00,3900.00,Synchrony,3900.00,,,6034610083278930,89086871,San Diego,24 months,,0.00,,,,,,,,0.00,,,,,,,0.00,Vivian Phan,951 704 6223,,,,CA,1,7.75
106304,5/20/2018 8:13:14 PM,CDA 5/17-19/18 (CA),Ruben Cuatrona,DWA-9060USJ-9060BL,Relax2Zero 3D,New Black,1,"3 years parts, 1 year labor (Free)",CUSTOM COD,0.00,3700.00,3700.00,CreditCard,2000.00,Sq #kgsu,,,,,,COD,1700.00,,,,,,,,0.00,,,,,,,0.00,Pedram Fakher,310 497 7560,,,,CA,1,7.75
106308,5/20/2018 8:30:49 PM,CDA 5/17-19/18 (CA),Ruben Cuatrona,DWA-9150USJ-9150CH-DEMO,Legacy 3D,Demo Choco,1,"3 years parts, 1 year labor (Free)",CUSTOM ,0.00,3800.00,3800.00,CreditCard,3800.00,Sq #ZuVp,,,,,,,0.00,,,,,,,,0.00,,,,,,,0.00,Vatihe Wassilian,559 801 1825,,,,CA,1,7.75
106308,5/20/2018 8:30:49 PM,CDA 5/17-19/18 (CA),Ruben Cuatrona,,Daiwa Blanket,,1,no warranty,CUSTOM ,0.00,3800.00,3800.00,CreditCard,3800.00,Sq #ZuVp,,,,,,,0.00,,,,,,,,0.00,,,,,,,0.00,Vatihe Wassilian,559 801 1825,,,,CA,1,7.75
106309,5/20/2018 9:05:04 PM,CDA 5/17-19/18 (CA),Ruben Cuatrona,DWA-9060USJ-9060BR,Relax2Zero 3D,New Choco,1,"3 years parts, 1 year labor (Free)",CUSTOM ,0.00,4500.00,4500.00,CreditCard,4500.00,Sq #snJE,,,,,,,0.00,,,,,,,,0.00,,,,,,,0.00,Parvin Karimi,949 701 7272,,,,CA,1,7.75
106310,5/20/2018 9:18:18 PM,CDA 5/17-19/18 (CA),Ruben Cuatrona,DWA-9060USJ-9060BR-DEMO,Relax2Zero 3D,Demo Choco,1,"3 years parts, 1 year labor (Free)",CUSTOM COD,0.00,3500.00,3500.00,CreditCard,1500.00,Sq #6Vqc,,,,,,COD,2000.00,,,,,,,,0.00,,,,,,,,Mala Sheth,310 383 1408,,,,Not Dispatched,1,7.75
106311,5/20/2018 9:24:58 PM,CDA 5/17-19/18 (CA),Rodrigo Malabunga,DWA-9060USJ-9060BL,Relax2Zero 3D,New Black,1,"3 years parts, 1 year labor (Free)",CUSTOM ,0.00,3900.00,3900.00,CreditCard,3900.00,Sq #Zee6,,,,,,,0.00,,,,,,,,0.00,,,,,,,0.00,Galen Filbrun,209 499 5441,,,,CA,1,7.75
106312,5/20/2018 9:35:12 PM,CDA 5/17-19/18 (CA),Rodrigo Malabunga,DWA-9060USJ-9060BL,Relax2Zero 3D,New Black,1,"3 years parts, 1 year labor (Free)",CUSTOM CreditCard,0.00,4100.00,4100.00,CreditCard,2000.00,Receipt #IjpV,,,,,,CreditCard,2100.00,Sq #zdbk,,,,,,,0.00,,,,,,,0.00,Nimesh Patel,714 253 2374,,,,CA,1,7.75
106313,5/20/2018 9:42:07 PM,CDA 5/17-19/18 (CA),Ruben Cuatrona,DWA-9150USJ-9150BL-DEMO,Legacy 3D,Demo Black,1,"3 years parts, 1 year labor (Free)",CUSTOM ,0.00,3900.00,3900.00,CreditCard,3900.00,Sq #E1Vn,,,,,,,0.00,,,,,,,,0.00,,,,,,,0.00,Soheil Levi,310 613 4316,,,,CA,1,7.75
106314,5/20/2018 9:47:29 PM,CDA 5/17-19/18 (CA),Ruben Cuatrona,DWA-9060USJ-9060BL-DEMO,Relax2Zero 3D,Demo Black,1,"3 years parts, 1 year labor (Free)",CUSTOM ,0.00,3800.00,3800.00,CreditCard,3800.00,Sq #jcbV,,,,,,,0.00,,,,,,,,0.00,,,,,,,0.00,Dr Sabine Purps,619 977 8778,,,,CA,1,7.75
