﻿Original Event Name,Event Name,Sales Person,Order Number,Order Date,Customer Name,State,Zip,Product Name,Color,Product Status,QTY,Tax,Total Before Tax,Order Total,Primary Payment Method,Second Payment Method,Thirdl Payment Method,Warranty,Order Items,Pick up,Delivered On,Order Status,Chair Type,Order Notes,Private Note,Branch,No Tax,Actual Tax Rate,SKU,Primary Payment Balance,Primary Authorize Number,Primary Purchase Order Number,Primary Synchrony Account Number,Primary Synchrony Application Key,Primary Synchrony Account Info,Primary Synchrony Term,Second Payment Balance,Second Authorize Number,Second Purchase Order Number,Second Synchrony Account Number,Second Synchrony Application Key,Second Synchrony Account Info,Second SynchronyTerm,Third Payment Balance,Third Authorize Number,Third Purchase Order Number,Third Synchrony Account Number,Third Synchrony Application Key,Third Synchrony Account Info,Third Synchrony Term
"Sam's Club #8126 Brownsfield, TX (12/27-12/30/2018)","Sam's Club #8126 Brownsfield, TX (12/27-12/30/2018)",Gregory Hickey,113760,12/28/2018 9:44:35 PM,Roberto Alvarado,TX,78526,Vitality Plate for Sam's,New,New,1,37.95,459.99,497.94,CreditCard,,,"2 years parts, 1 year labor for Small Items","Vitality Plate for Sam's,",YES,,Delivered,,Customer took with,,TX,0,8.25,USJ-849USJ-849,497.94,TC 4078 5760 2695 0348 5231 7,,,,,,0.00,,,,,,,0.00,,,,,,
"Sam's Club #8126 Brownsfield, TX (12/27-12/30/2018)","Sam's Club #8126 Brownsfield, TX (12/27-12/30/2018)",Gregory Hickey,113761,12/28/2018 9:53:34 PM,Eliud Ornola,TX,78526,Vitality Plate for Sam's,New,New,1,37.95,459.99,497.94,CreditCard,,,"2 years parts, 1 year labor for Small Items","Vitality Plate for Sam's,",YES,,Delivered,,Customer took with,,TX,0,8.25,USJ-849USJ-849,497.94,TC 9613 5007 0314 7651 0560 0,,,,,,0.00,,,,,,,0.00,,,,,,
"Sam's Club #8126 Brownsfield, TX (12/27-12/30/2018)","Sam's Club #8126 Brownsfield, TX (12/27-12/30/2018)",Gregory Hickey,113762,12/28/2018 9:58:55 PM,Sennen Schlesser,TX,78520,Vitality Plate for Sam's,Demo[-60],Demo,1,33.00,399.99,432.99,CreditCard,,,"2 years parts, 1 year labor for Small Items","Vitality Plate for Sam's,",YES,,Delivered,,Customer took with.  New unit for the price of Demo,,TX,0,8.25,USJ-849USJ-849-DEMO,432.99,TC 7135 9396 5981 6205 0625 3,,,,,,0.00,,,,,,,0.00,,,,,,
"Sam's Club #8126 Brownsfield, TX (12/27-12/30/2018)","Sam's Club #8126 Brownsfield, TX (12/27-12/30/2018)",Gregory Hickey,113801,12/31/2018 1:48:41 PM,Sofia Saldana,TX,78521,Relax 2 Zero 2.0 for Sam's,Demo (Box) Black[-701],Demo,1,263.92,3199.00,3462.92,CreditCard,,,"3 years parts, 1 year labor (Free)","Relax 2 Zero 2.0 for Sam's,",No,,Called,,,1/2Maritza Courtesy messages sent @ 12:17PM,TX,0,8.25,USJ-9050USJ-9050BL-DEMO (Box),3462.92,TC 4279 0189 1543 7156 6905 68,,,,,,0.00,,,,,,,0.00,,,,,,
"Sam's Club #8126 Brownsfield, TX (12/27-12/30/2018)","Sam's Club #8126 Brownsfield, TX (12/27-12/30/2018)",Gregory Hickey,113802,12/31/2018 2:06:33 PM,Mary Brady,TX,78521,Shogun Neck & Back Massger,New,New,1,16.50,199.98,216.48,CreditCard,,,"2 years parts, 1 year labor for Small Items","Shogun Neck &amp; Back Massger,",YES,,Delivered,,,,TX,0,8.25,USJ-874USJ-874,216.48,TC 8368 5750 1655 0378 5939 7,,,,,,0.00,,,,,,,0.00,,,,,,
"Sam's Club #8126 Brownsfield, TX (12/27-12/30/2018)","Sam's Club #8126 Brownsfield, TX (12/27-12/30/2018)",Gregory Hickey,113803,12/31/2018 2:10:58 PM,Teresa Ibarra,TX,78526,Shogun Neck & Back Massger,Demo[-20],Demo,1,14.85,179.98,194.83,CreditCard,,,"2 years parts, 1 year labor for Small Items","Shogun Neck &amp; Back Massger,",YES,,Delivered,,,,TX,0,8.25,USJ-874USJ-874-DEMO,194.83,TC 0453 4057 5332 7631 6565 0,,,,,,0.00,,,,,,,0.00,,,,,,
