﻿Original Event Name,Event Name,Sales Person,Order Number,Order Date,Customer Name,State,Zip,Product Name,Color,Product Status,QTY,Tax,Total Before Tax,Order Total,Primary Payment Method,Second Payment Method,Thirdl Payment Method,Warranty,Order Items,Pick up,Delivered On,Order Status,Chair Type,Order Notes,Private Note,Branch,No Tax,Actual Tax Rate,SKU,Primary Payment Balance,Primary Authorize Number,Primary Purchase Order Number,Primary Synchrony Account Number,Primary Synchrony Application Key,Primary Synchrony Account Info,Primary Synchrony Term,Second Payment Balance,Second Authorize Number,Second Purchase Order Number,Second Synchrony Account Number,Second Synchrony Application Key,Second Synchrony Account Info,Second SynchronyTerm,Third Payment Balance,Third Authorize Number,Third Purchase Order Number,Third Synchrony Account Number,Third Synchrony Application Key,Third Synchrony Account Info,Third Synchrony Term
"Sam's Club #8166 Duluth, GA 4/11-21/19 (FL)","Sam's Club #8166 Duluth, GA 4/11-21/19 (FL)",Ting Ritchie,116605,4/12/2019 8:06:36 PM,Barinem Zigakol,GA,30046,Legacy for Sam's,Demo(Box) Choco[-700],Demo,1,215.94,3599.00,3814.94,Credit Card,,,"3 years parts, 1 year labor (Free)","Legacy for Sam's,",No,,Assigned,,"Please try our best to deliver on April, 29th. Thank you.","CC, Jasmin Carrizales, 4/15/19, 1:32pm",FL,0,6.00,DWA-9100DWA-9100CH-Box,3814.94,7046 9553 3151 8418 4140 85,,,,,,0.00,,,,,,,0.00,,,,,,
"Sam's Club #8166 Duluth, GA 4/11-21/19 (FL)","Sam's Club #8166 Duluth, GA 4/11-21/19 (FL)",Ting Ritchie,116606,4/12/2019 8:13:05 PM,Hellen Chong,CA,90249,Ninja Leg Massager 2,Demo[-20.00],Demo,1,0.00,279.98,279.98,Credit Card,,,"3 years parts, 1 year labor (Free)","Ninja Leg Massager 2,",YES,,Delivered,,,,CA,1,6.00,USJ-880-Demo,279.98,2721 9446 6496 5875 8478 4,,,,,,0.00,,,,,,,0.00,,,,,,
"Sam's Club #8166 Duluth, GA 4/11-21/19 (FL)","Sam's Club #8166 Duluth, GA 4/11-21/19 (FL)",Ting Ritchie,116639,4/13/2019 8:02:44 PM,Meily Phaiboun,GA,30024,Legacy for Sam's,New Black,New,1,0.00,4299.00,4299.00,Credit Card,,,"3 years parts, 1 year labor (Free)","Legacy for Sam's,",No,,Assigned,,,"CC, Jasmin Carrizales, 4/15/19, 1:27pm/** Call using cell phone #(770)-289-9341 first**",FL,1,6.00,DWA-9100DWA-9100BL,4299.00,1261 0841 6649 6586 5647 84,,,,,,0.00,,,,,,,0.00,,,,,,
"Sam's Club #8166 Duluth, GA 4/11-21/19 (FL)","Sam's Club #8166 Duluth, GA 4/11-21/19 (FL)",Ting Ritchie,116640,4/13/2019 8:11:55 PM,Xuezhen Zheng,GA,30097,Legacy for Sam's,Demo(Box) Choco[-700],Demo,1,0.00,3599.00,3599.00,Credit Card,,,"3 years parts, 1 year labor (Free)","Legacy for Sam's,Shogun Neck &amp; Back Massger,",No,,Assigned,,"Two chairs discount. Please deliver the shogun with the chair, thank you. Please notice this is 2nd Floor set up.","CC, Jasmin Carrizales, 4/15/19, 1:39pm
**Deliver, Wednesdays, Thursdays or Fridays (Tuesdays by 10am)**",FL,1,6.00,DWA-9100DWA-9100CH-Box,3599.00,6298 6571 9672 5059 0903 57,,,,,,0.00,,,,,,,0.00,,,,,,
"Sam's Club #8166 Duluth, GA 4/11-21/19 (FL)","Sam's Club #8166 Duluth, GA 4/11-21/19 (FL)",Ting Ritchie,116640,4/13/2019 8:11:55 PM,Xuezhen Zheng,GA,30097,Shogun Neck & Back Massger,New,New,1,0.00,3599.00,3599.00,Credit Card,,,No Warranty,"Legacy for Sam's,Shogun Neck &amp; Back Massger,",No,,Assigned,,"Two chairs discount. Please deliver the shogun with the chair, thank you. Please notice this is 2nd Floor set up.","CC, Jasmin Carrizales, 4/15/19, 1:39pm
**Deliver, Wednesdays, Thursdays or Fridays (Tuesdays by 10am)**",FL,1,6.00,USJ-874USJ-874,3599.00,6298 6571 9672 5059 0903 57,,,,,,0.00,,,,,,,0.00,,,,,,
"Sam's Club #8166 Duluth, GA 4/11-21/19 (FL)","Sam's Club #8166 Duluth, GA 4/11-21/19 (FL)",Ting Ritchie,116642,4/13/2019 8:21:57 PM,Xuekai Zheng,GA,30024,Legacy for Sam's,Demo(Box) Choco[-700],Demo,1,0.00,3599.00,3599.00,Credit Card,,,"3 years parts, 1 year labor (Free)","Legacy for Sam's,",No,,Assigned,,"Two chairs discount, 2nd Floor set up. Customer will be out of town after May, 1st. Please try our best to deliver before May, 1st. Thank you.","CC, Jasmin Carrizales, 4/15/19, 1:37pm",FL,1,6.00,DWA-9100DWA-9100CH-Box,3599.00,9825 9037 1531 0601 6112 03,,,,,,0.00,,,,,,,0.00,,,,,,
"Sam's Club #8166 Duluth, GA 4/11-21/19 (FL)","Sam's Club #8166 Duluth, GA 4/11-21/19 (FL)",Ting Ritchie,116699,4/14/2019 8:01:38 PM,Dong Sak Kim,GA,30096,Legacy for Sam's,New Choco,New,1,0.00,4299.00,4299.00,Credit Card,,,"3 years parts, 1 year labor (Free)","Legacy for Sam's,Vitality Plate for Sam's,",No,,Cancelled,,Vitality plate is already PICKED UP. Thank you.,"CC, Jasmin Carrizales, 4/15/19, 12:58pm, She's going to cancel already spoke with Ting.",FL,1,6.00,DWA-9100DWA-9100CH,4299.00,7505 7034 1431 9601 6122 03,,,,,,0.00,,,,,,,0.00,,,,,,
"Sam's Club #8166 Duluth, GA 4/11-21/19 (FL)","Sam's Club #8166 Duluth, GA 4/11-21/19 (FL)",Ting Ritchie,116699,4/14/2019 8:01:38 PM,Dong Sak Kim,GA,30096,Vitality Plate for Sam's,New,New,1,0.00,4299.00,4299.00,Credit Card,,,No Warranty,"Legacy for Sam's,Vitality Plate for Sam's,",No,,Cancelled,,Vitality plate is already PICKED UP. Thank you.,"CC, Jasmin Carrizales, 4/15/19, 12:58pm, She's going to cancel already spoke with Ting.",FL,1,6.00,USJ-849USJ-849,4299.00,7505 7034 1431 9601 6122 03,,,,,,0.00,,,,,,,0.00,,,,,,
"Sam's Club #8166 Duluth, GA 4/11-21/19 (FL)","Sam's Club #8166 Duluth, GA 4/11-21/19 (FL)",Ting Ritchie,116702,4/14/2019 8:24:51 PM,Khanh Linh H. Ngo,GA,30044,Vitality Plate for Sam's,New,New,1,0.00,423.99,423.99,Credit Card,,,"2 years parts, 1 year labor for Small Items","Vitality Plate for Sam's,",YES,,Delivered,,,,FL,1,6.00,USJ-849USJ-849,423.99,0300 4608 1608 3773 7092 6,,,,,,0.00,,,,,,,0.00,,,,,,
"Sam's Club #8166 Duluth, GA 4/11-21/19 (FL)","Sam's Club #8166 Duluth, GA 4/11-21/19 (FL)",Ting Ritchie,116743,4/15/2019 7:47:45 PM,Anthony Butts,GA,30087,Vitality Plate for Sam's,New,New,1,0.00,423.99,423.99,Credit Card,,,"2 years parts, 1 year labor for Small Items","Vitality Plate for Sam's,",YES,,Delivered,,,,FL,1,6.00,USJ-849USJ-849,423.99,0400 4658 0658 3773 7492 6,,,,,,0.00,,,,,,,0.00,,,,,,
"Sam's Club #8166 Duluth, GA 4/11-21/19 (FL)","Sam's Club #8166 Duluth, GA 4/11-21/19 (FL)",Ting Ritchie,116765,4/16/2019 8:18:14 PM,Mou Lin,LA,70769,Legacy for Sam's,Demo(Box) Choco[-700],Demo,1,0.00,3599.00,3599.00,Credit Card,,,"3 years parts, 1 year labor (Free)","Legacy for Sam's,Ninja Leg Massager 2,",No,,Called,,"Third chair discount, please deliver the ninja leg massager 2 with the chair. Thank you.","4/18Maritza Courtesy message sent @ 9:03AM
4/20/2019 - Printed and Courtesy message sent - Tina",TX,1,6.00,DWA-9100DWA-9100CH-Box,3599.00,4079 1985 7687 2197 1715 98,,,,,,0.00,,,,,,,0.00,,,,,,
"Sam's Club #8166 Duluth, GA 4/11-21/19 (FL)","Sam's Club #8166 Duluth, GA 4/11-21/19 (FL)",Ting Ritchie,116765,4/16/2019 8:18:14 PM,Mou Lin,LA,70769,Ninja Leg Massager 2,New,New,1,0.00,3599.00,3599.00,Credit Card,,,No Warranty,"Legacy for Sam's,Ninja Leg Massager 2,",No,,Called,,"Third chair discount, please deliver the ninja leg massager 2 with the chair. Thank you.","4/18Maritza Courtesy message sent @ 9:03AM
4/20/2019 - Printed and Courtesy message sent - Tina",TX,1,6.00,USJ-880,3599.00,4079 1985 7687 2197 1715 98,,,,,,0.00,,,,,,,0.00,,,,,,
"Sam's Club #8166 Duluth, GA 4/11-21/19 (FL)","Sam's Club #8166 Duluth, GA 4/11-21/19 (FL)",Ting Ritchie,116785,4/17/2019 7:45:17 PM,Tien Degasser,GA,30024,Vitality Plate for Sam's,Demo[-60],Demo,1,24.00,399.99,423.99,Credit Card,,,"2 years parts, 1 year labor for Small Items","Vitality Plate for Sam's,",YES,,Delivered,,,,FL,0,6.00,USJ-849USJ-849-DEMO,423.99,3372 0254 6281 9669 6981 2,,,,,,0.00,,,,,,,0.00,,,,,,
"Sam's Club #8166 Duluth, GA 4/11-21/19 (FL)","Sam's Club #8166 Duluth, GA 4/11-21/19 (FL)",Ting Ritchie,116808,4/18/2019 7:29:46 PM,Tanya Hoang,GA,30043,Legacy for Sam's,Demo Choco[-700],Demo,1,0.00,3814.94,3814.94,Sam’s Club Synchrony,,,"3 years parts, 3 years labor ($400)","Legacy for Sam's,",No,4/21/2019 12:00:00 AM,Delivered,Demo,0% APR for 24 months.,"Chair serial number: 020 100 218 1200
Chair will be delivered after the show",FL,1,6.00,DWA-9100DWA-9100CH-DEMO,3814.94,0771 7441 6845 6581 5837 14,,,,,,0.00,,,,,,,0.00,,,,,,
"Sam's Club #8166 Duluth, GA 4/11-21/19 (FL)","Sam's Club #8166 Duluth, GA 4/11-21/19 (FL)",Ting Ritchie,116824,4/19/2019 7:58:08 AM,Kamal Chakravarthy,GA,30680,Ninja Leg Massager 2,New,New,1,0.00,299.98,299.98,Credit Card,,,"2 years parts, 1 year labor for Small Items","Ninja Leg Massager 2,",No,,Delivered,,"Please mail to customer, thank you.",,FL,1,6.00,USJ-880,299.98,1862 7294 0234 9609 7188 2,,,,,,0.00,,,,,,,0.00,,,,,,
"Sam's Club #8166 Duluth, GA 4/11-21/19 (FL)","Sam's Club #8166 Duluth, GA 4/11-21/19 (FL)",Ting Ritchie,116828,4/19/2019 11:36:01 AM,Hanh Ho,GA,30093,Ninja Leg Massager 2,New,New,1,18.00,299.98,317.98,Credit Card,,,"2 years parts, 1 year labor for Small Items","Ninja Leg Massager 2,",No,,Delivered,,"Please mail to customer, thank you.",,FL,0,6.00,USJ-880,317.98,6258 7739 7739 0530 5831 7,,,,,,0.00,,,,,,,0.00,,,,,,
"Sam's Club #8166 Duluth, GA 4/11-21/19 (FL)","Sam's Club #8166 Duluth, GA 4/11-21/19 (FL)",Ting Ritchie,116878,4/20/2019 8:11:17 PM,M.D Rafiquzzaman,GA,30092,Relax 2 Zero 2.0 for Sam's,Demo Black[-701],Demo,1,0.00,3598.99,3598.99,Credit Card,,,"3 years parts, 2 years labor ($200)","Relax 2 Zero 2.0 for Sam's,Vitality Plate for Sam's,",No,,Assigned,,"Please delivery the vitality plate with the chair. Please give 2 years parts and labor for the vitality plate, thank you.","Chair serial number: 010 200 1180 503
CC, Jasmin Carrizales, 4/22/19, 12:33pm,",FL,1,6.00,USJ-9050USJ-9050BL-DEMO,3598.99,1532 4620 2027 4966 9628 82,,,,,,0.00,,,,,,,0.00,,,,,,
"Sam's Club #8166 Duluth, GA 4/11-21/19 (FL)","Sam's Club #8166 Duluth, GA 4/11-21/19 (FL)",Ting Ritchie,116878,4/20/2019 8:11:17 PM,M.D Rafiquzzaman,GA,30092,Vitality Plate for Sam's,New,New,1,0.00,3598.99,3598.99,Credit Card,,,"2 years parts, 1 year labor for Small Items","Relax 2 Zero 2.0 for Sam's,Vitality Plate for Sam's,",No,,Assigned,,"Please delivery the vitality plate with the chair. Please give 2 years parts and labor for the vitality plate, thank you.","Chair serial number: 010 200 1180 503
CC, Jasmin Carrizales, 4/22/19, 12:33pm,",FL,1,6.00,USJ-849USJ-849,3598.99,1532 4620 2027 4966 9628 82,,,,,,0.00,,,,,,,0.00,,,,,,
"Sam's Club #8166 Duluth, GA 4/11-21/19 (FL)","Sam's Club #8166 Duluth, GA 4/11-21/19 (FL)",Ting Ritchie,116881,4/20/2019 8:38:04 PM,Atsushi Hayakawa,GA,30022,Legacy for Sam's,New Choco,New,1,0.00,4134.00,4134.00,Credit Card,,,"3 years parts, 1 year labor (Free)","Legacy for Sam's,",No,,Assigned,,"Customer prefer to deliver the chair on Sunday. Please take customer’s old chair, thank you.","CC, Jasmin Carrizales, 4/22/19, 12:35pm/Delivery Only on Sundays",FL,1,6.00,DWA-9100DWA-9100CH,4134.00,4758 5678 9279 4059 0903 47,,,,,,0.00,,,,,,,0.00,,,,,,
"Sam's Club #8166 Duluth, GA 4/11-21/19 (FL)","Sam's Club #8166 Duluth, GA 4/11-21/19 (FL)",Ting Ritchie,116882,4/20/2019 8:45:09 PM,Tea Garden,GA,30517,Vitality Plate for Sam's,New,New,1,0.00,459.99,459.99,Credit Card,,,"2 years parts, 1 year labor for Small Items","Vitality Plate for Sam's,",No,,New,,,4/22/19-will confirm if needs to be shipped out  - Hitomi,Not Dispatched,1,6.00,USJ-849USJ-849,459.99,3942 5212 2274 9669 6286 2,,,,,,0.00,,,,,,,0.00,,,,,,
"Sam's Club #8166 Duluth, GA 4/11-21/19 (FL)","Sam's Club #8166 Duluth, GA 4/11-21/19 (FL)",Ting Ritchie,116883,4/20/2019 8:52:16 PM,Manila Khotsombath-Padtha,GA,30084,Vitality Plate for Sam's,New,New,1,27.60,459.99,487.59,Credit Card,,,"2 years parts, 1 year labor for Small Items","Vitality Plate for Sam's,",No,,New,,,4/22/19-will confirm if needs to be shipped out -Hitomi,Not Dispatched,0,6.00,USJ-849USJ-849,487.59,2058 3749 2749 0590 4638 7,,,,,,0.00,,,,,,,0.00,,,,,,
