﻿Order Number,Order Date,Event Name,Salesperson,SKU,Product Name,Color,QTY,Warranty,Payment Details,Tax,Order Total,Gross,Primary Payment Method,Primary Payment Balance,Primary Authorize Number,Primary Purchase Order Number,Primary Synchrony Account Number,Primary Synchrony Application Key,Primary Synchrony AccountInfo,Primary SynchronyTerm,Secondly Payment Method,Secondly Payment Balance,Secondly Authorize Number,Secondly Purchase Order Number,Secondly Synchrony Account Number,Secondly Synchrony Application Key,Secondly Synchrony AccountInfo,Secondly SynchronyTerm,Thirdly Payment Method,Thirdly Payment Balance,Thirdly Authorize Number,Thirdly Purchase Order Number,Thirdly Synchrony Account Number,Thirdly Synchrony Application Key,Thirdly Synchrony AccountInfo,Thirdly SynchronyTerm,Actual Shipping Cost,CustomerName,Shipping Address,Delivered On,Serial Number (TO Be),Note,Branch,IsNoTax,ActualTaxRate
103771,2/18/2018 8:23:42 AM,Philly Home Show 2/16-18/18 (IL),Winston Melgar,DWA-9060USJ-9060BL,Relax2Zero 3D,Black,1,"3 years parts, 1 year labor (Free)",CUSTOM ,0.00,4200.00,4200.00,Synchrony,4200.00,,,6034610083102890,85046859,Las Vegas,36 months,,0.00,,,,,,,,0.00,,,,,,,0.00,Charles Tretola,267 795 7794,,,,TX,1,8.00
103775,2/18/2018 8:44:58 AM,Philly Home Show 2/16-18/18 (IL),Winston Melgar,DWA-9150USJ-9150CH,Legacy 3D,Choco Brown,1,"3 years parts, 1 year labor (Free)",CUSTOM ,0.00,3900.00,3900.00,CreditCard,3900.00,Sq #DA5b,,,,,,,0.00,,,,,,,,0.00,,,,,,,0.00,Margaret Metherston,267 577 1719,,,,TX,1,8.00
103778,2/18/2018 9:00:52 AM,Philly Home Show 2/16-18/18 (IL),Winston Melgar,DWA-9150USJ-9150BL,Legacy 3D,Black,1,"3 years parts, 3 years labor ($400)",CUSTOM ,0.00,4700.00,4700.00,CreditCard,4700.00,Sq #jtCa,,,,,,,0.00,,,,,,,,0.00,,,,,,,0.00,Craig Cohen,215 760 4347,,,,TX,1,8.00
103778,2/18/2018 9:00:52 AM,Philly Home Show 2/16-18/18 (IL),Winston Melgar,,Tourmaline Pad for Legacy 3D,,1,no warranty,CUSTOM ,0.00,4700.00,4700.00,CreditCard,4700.00,Sq #jtCa,,,,,,,0.00,,,,,,,,0.00,,,,,,,0.00,Craig Cohen,215 760 4347,,,,TX,1,8.00
103779,2/18/2018 9:11:11 AM,Philly Home Show 2/16-18/18 (IL),Winston Melgar,DWA-9060USJ-9060BR,Relax2Zero 3D,Choco Brown,1,"3 years parts, 1 year labor (Free)",CUSTOM ,0.00,4000.00,4000.00,Synchrony,4000.00,,,6034610083104003,85078136,Las Vegas,36 months,,0.00,,,,,,,,0.00,,,,,,,0.00,Nathan Deforest,856 294 9220,,,,TX,1,8.00
103782,2/18/2018 9:20:40 AM,Philly Home Show 2/16-18/18 (IL),Winston Melgar,DWA-9060USJ-9060BR-DEMO,Relax2Zero 3D,Demo Choco Brown,1,"3 years parts, 1 year labor (Free)",CUSTOM ,0.00,4000.00,4000.00,CreditCard,4000.00,Sq #2FL8,,,,,,,0.00,,,,,,,,0.00,,,,,,,0.00,Joe Funk,610 431 2304,2/17/2018 12:00:00 AM,,,TX,1,8.00
103789,2/18/2018 10:06:34 AM,Philly Home Show 2/16-18/18 (IL),Winston Melgar,DWA-9060USJ-9060BL,Relax2Zero 3D,Black,1,"3 years parts, 1 year labor (Free)",CUSTOM ,0.00,3900.00,3900.00,Synchrony,3900.00,,,6034610083106966,85126599,Las Vegas,36 months,,0.00,,,,,,,,0.00,,,,,,,0.00,Anne Fanelli,267 255 4318,,,,TX,1,8.00
103850,2/19/2018 8:34:25 AM,Philly Home Show 2/16-18/18 (IL),Winston Melgar,DWA-9060USJ-9060BR,Relax2Zero 3D,Choco Brown,1,"3 years parts, 2 years labor ($200)",CUSTOM ,0.00,4200.00,4200.00,CreditCard,4200.00,Sq #xlyq,,,,,,,0.00,,,,,,,,0.00,,,,,,,0.00,Terry Musser,610 960 3626,,,,TX,1,8.00
103852,2/19/2018 8:41:10 AM,Philly Home Show 2/16-18/18 (IL),Winston Melgar,DWA-9060USJ-9060BL,Relax2Zero 3D,Black,1,"3 years parts, 1 year labor (Free)",CUSTOM ,0.00,4200.00,4200.00,Synchrony,4200.00,,,6034610083107949,85144054,Las Vegas,36 months,,0.00,,,,,,,,0.00,,,,,,,0.00,Chuck Silvester,484 356 3666,,,,TX,1,8.00
103854,2/19/2018 8:46:39 AM,Philly Home Show 2/16-18/18 (IL),Winston Melgar,DWA-9150USJ-9150CH,Legacy 3D,Choco Brown,1,"3 years parts, 1 year labor (Free)",CUSTOM ,0.00,3900.00,3900.00,CreditCard,3900.00,Sq #QBK4,,,,,,,0.00,,,,,,,,0.00,,,,,,,0.00,Elizabeth Gabel,607 589 7323,,,,TX,1,8.00
103855,2/19/2018 8:52:13 AM,Philly Home Show 2/16-18/18 (IL),Winston Melgar,DWA-9060USJ-9060BL,Relax2Zero 3D,Black,1,"3 years parts, 1 year labor (Free)",CUSTOM ,0.00,4200.00,4200.00,CreditCard,4200.00,Sq #QhVd,,,,,,,0.00,,,,,,,,0.00,,,,,,,0.00,Robert Mc labe,267 255 0344,,,,TX,1,8.00
103857,2/19/2018 9:01:12 AM,Philly Home Show 2/16-18/18 (IL),Winston Melgar,DWA-9150USJ-9150CH,Legacy 3D,Choco Brown,1,"3 years parts, 2 years labor ($200)",CUSTOM ,0.00,4500.00,4500.00,CreditCard,4500.00,Sq #Lvfl,,,,,,,0.00,,,,,,,,0.00,,,,,,,0.00,Randy McCarraher,240 422 6602,,,,TX,1,8.00
