﻿Original Event Name,Event Name,Sales Person,Order Number,Order Date,Customer Name,State,Zip,Product Name,Color,Product Status,QTY,Tax,Total Before Tax,Order Total,Primary Payment Method,Second Payment Method,Thirdl Payment Method,Warranty,Order Items,Pick up,Delivered On,Order Status,Chair Type,Order Notes,Private Note,Branch,No Tax,Actual Tax Rate,SKU,Primary Payment Balance,Primary Authorize Number,Primary Purchase Order Number,Primary Synchrony Account Number,Primary Synchrony Application Key,Primary Synchrony Account Info,Primary Synchrony Term,Primary Synchrony Primary ID,Primary Synchrony Issued State,Primary Synchrony Expiretion Date,Second Payment Balance,Second Authorize Number,Second Purchase Order Number,Second Synchrony Account Number,Second Synchrony Application Key,Second Synchrony Account Info,Second SynchronyTerm,Second Synchrony Primary ID,Second Synchrony Issued State,Second Synchrony Expiretion Date,Third Payment Balance,Third Authorize Number,Third Purchase Order Number,Third Synchrony Account Number,Third Synchrony Application Key,Third Synchrony Account Info,Third Synchrony Term,Third Synchrony Primary ID,Third Synchrony Issued State,Third Synchrony Expiretion Date
Florida RV Super Show 1/15-20/19 Tampa (FL),Florida RV Super Show 1/15-20/19 Tampa (FL),Robert Shih,114332,1/17/2019 6:43:13 AM,Jerry Allen,FL,33710,Legacy 3D,Demo Black,Demo,1,0.00,3600.00,3600.00,Cash,COD,,"5 years parts, 2 years labor ($200)","Legacy 3D,",No,2/12/2019 12:00:00 AM,Delivered,Demo,"CASH DEAL / C.O.D $ 3,500 / Delivery after 1/29.","JD - 1/28/19 4:25pm (tried to schedule, custo would like a call back on 1/31 when he is back in town)
need to confirm who cash have now. --- 1/17/19 Asumi
Received cash confirmation from Andress. --- 1/22/19 Asumi
1/22Maritza Courtesy messages sent @ 3PM",FL,1,8.50,DWA-9150USJ-9150BL-DEMO,100.00,,,,,,,,,,3500.00,,,,,,,,,,0.00,,,,,,,,,
Florida RV Super Show 1/15-20/19 Tampa (FL),Florida RV Super Show 1/15-20/19 Tampa (FL),Robert Shih,114350,1/18/2019 7:59:22 AM,Mike Sullivan,FL,33064,Relax2Zero 3D,New Black,New,1,0.00,4900.00,4900.00,CreditCard,,,"5 years parts, 1 year labor (Free)","Relax2Zero 3D,",No,,Hold,,"The customer will has RV trailer ready for we deliver next week . / C.O.D $4,850","Tried to deliver 5/9 cust will not answer - JD 5/16/19
CC Josefina - 1/25/19 4:20pm (Wants to hold delivery for two more weeks)
Confirmed $50.00 in square. Please charge COD $4,850.00. --- 1/18/19 Asumi",FL,1,8.50,DWA-9060USJ-9060BL,50.00,SQ# iKuo,,,,,,,,,0.00,,,,,,,,,,0.00,,,,,,,,,
Florida RV Super Show 1/15-20/19 Tampa (FL),Florida RV Super Show 1/15-20/19 Tampa (FL),Robert Shih,114351,1/18/2019 8:10:33 AM,John Hooper,FL,33461,Relax2Zero 3D,New Black,New,1,0.00,4500.00,4500.00,Cash,Credit Card,,"5 years parts, 1 year labor (Free)","Relax2Zero 3D,",No,2/13/2019 12:00:00 AM,Delivered,New,"CASH DEAL / C.O.D $4,400","Need to confirm who has cash now. --- 1/18/19 Asumi
Received cash confiramtion from Andress--- 1/22/19 Asumi
1/22Maritza Courtesy message sent @ 3PM
Confirmed credit card transaction for $4,400 on HCP, confirmed the customer's signature on the E-invoice as well. 6/24/19 Riho",FL,1,8.50,DWA-9060USJ-9060BL,100.00,,,,,,,,,/,4400.00,House Call Pro,,,,,,,,/,0.00,,,,,,,,,/
Florida RV Super Show 1/15-20/19 Tampa (FL),Florida RV Super Show 1/15-20/19 Tampa (FL),Robert Shih,114357,1/18/2019 10:33:51 AM,John C. Ricketson,AL,35906,Relax2Zero 3D,New Choco,New,1,0.00,4600.00,4600.00,CreditCard,,,"5 years parts, 1 year labor (Free)","Shogun Neck &amp; Back Massger,Relax2Zero 3D,",No,2/1/2019 12:00:00 AM,Delivered,New,Pls bring the Shogun on delivery .,"Confirmed $4,600.00 in SQUARE. Please deliver Shogun with the chair. --- 1/18/19 Asumi",FL,1,8.50,DWA-9060USJ-9060BR,4600.00,SQ# Atms,,,,,,,,,0.00,,,,,,,,,,0.00,,,,,,,,,
Florida RV Super Show 1/15-20/19 Tampa (FL),Florida RV Super Show 1/15-20/19 Tampa (FL),Robert Shih,114357,1/18/2019 10:33:51 AM,John C. Ricketson,AL,35906,Shogun Neck & Back Massger,New,New,1,0.00,4600.00,4600.00,CreditCard,,,"2 years parts, 1 year labor for Small Items","Shogun Neck &amp; Back Massger,Relax2Zero 3D,",No,2/1/2019 12:00:00 AM,Delivered,New,Pls bring the Shogun on delivery .,"Confirmed $4,600.00 in SQUARE. Please deliver Shogun with the chair. --- 1/18/19 Asumi",FL,1,8.50,USJ-874USJ-874,4600.00,SQ# Atms,,,,,,,,,0.00,,,,,,,,,,0.00,,,,,,,,,
Florida RV Super Show 1/15-20/19 Tampa (FL),Florida RV Super Show 1/15-20/19 Tampa (FL),Robert Shih,114464,1/20/2019 6:13:21 PM,Terry Cater,FL,34219,Solace,Demo Choco,Demo,1,0.00,3000.00,3000.00,Cash,Cash,,"5 years parts, 1 year labor (Free)","Solace,",No,2/6/2019 12:00:00 AM,Delivered,Demo,"CASH DEAL / C.O.D $ 2,900","**Customer received NEW chair due to damage on arm, Robert ok'd**
CC Josefina - 1/25/19
$100 was received by Andres on 1/21/19. **COD $2,900** -- 1/22/19 Hitomi
Received cash confirmation --- 1/22/19 Asumi

Received delivery confirmation and COD cash $2,900 confirmation chair was delivered NEW--- 2/26/19 Asumi",FL,1,8.50,SOL-1SOL-1-CH-DEMO,100.00,,,,,,,,,,2900.00,,,,,,,,,,0.00,,,,,,,,,
Florida RV Super Show 1/15-20/19 Tampa (FL),Florida RV Super Show 1/15-20/19 Tampa (FL),Robert Shih,114465,1/20/2019 6:21:44 PM,Ken Gatschenberger,FL,34203,Symphony,New Choco,New,1,0.00,4900.00,4900.00,CreditCard,,,"5 years parts, 1 year labor (Free)","Symphony,",No,2/6/2019 12:00:00 AM,Delivered,New,,"CC Josefina - 1/28/19 4:22pm VM
Confirmed $4,900.00 in Square. 1/22/19 Hitomi
Received delivery confirmation --- 2/26/19 Asumi",FL,1,8.50,USJ-9300Symphony-BW,4900.00,Receipt #X7Ix,,,,,,,,,0.00,,,,,,,,,,0.00,,,,,,,,,
Florida RV Super Show 1/15-20/19 Tampa (FL),Florida RV Super Show 1/15-20/19 Tampa (FL),Robert Shih,114466,1/20/2019 6:25:17 PM,Randy Thomas,FL,34945,Legacy 3D,New Choco,New,1,0.00,4000.00,4000.00,CreditCard,,,"5 years parts, 1 year labor (Free)","Legacy 3D,",No,2/13/2019 12:00:00 AM,Delivered,New,,"CC Josefina - 1/28/19 1pm
Confirmed $4,000 in Square. 1/22/19 Hitomi
Received delivery confiramtion --- 2/26/19 Asumi",FL,1,8.50,DWA-9150USJ-9150CH,4000.00,SQ# 2K0Y,,,,,,,,,0.00,,,,,,,,,,0.00,,,,,,,,,
Florida RV Super Show 1/15-20/19 Tampa (FL),Florida RV Super Show 1/15-20/19 Tampa (FL),Robert Shih,114467,1/20/2019 6:30:19 PM,Clare Hunckler,NC,27028,Relax2Zero 3D,New Choco,New,1,0.00,4500.00,4500.00,CreditCard,CreditCard,,"5 years parts, 1 year labor (Free)","Relax2Zero 3D,",No,1/31/2019 12:00:00 AM,Delivered,New,"C.O.D $ 2,000","Confirmed $2,500 in Square. ***COD $2,000*** 1/22/19 Hitomi",FL,1,8.50,DWA-9060USJ-9060BR,2500.00,Receipt #LO0L,,,,,,,,,2000.00,House call Pro,,,,,,,,,0.00,,,,,,,,,
Florida RV Super Show 1/15-20/19 Tampa (FL),Florida RV Super Show 1/15-20/19 Tampa (FL),Robert Shih,114468,1/20/2019 6:34:40 PM,Randy Rienas,FL,33458,Legacy 3D,New Choco,New,1,0.00,4500.00,4500.00,Synchrony,,,"5 years parts, 1 year labor (Free)","Legacy 3D,",No,1/31/2019 12:00:00 AM,Delivered,New,Second floor delivery / 36 months 0% APR @ CA,"Sales draft was lost by delivery team
Confirmed Synchrony approved $6,000.00. and original application form and invoiece . Please charge $4,500.00 before delivery and have sales draft signed. ---- 1/24/19 Asumi",FL,1,8.50,DWA-9150USJ-9150CH,4500.00,,,6019170813346696,70218573,San Diego,36 months,,,,0.00,,,,,,,,,,0.00,,,,,,,,,
Florida RV Super Show 1/15-20/19 Tampa (FL),Florida RV Super Show 1/15-20/19 Tampa (FL),Robert Shih,114471,1/20/2019 6:42:22 PM,Diana Moses,FL,33781,Legacy 3D,Demo Black,Demo,1,0.00,4000.00,4000.00,CreditCard,CreditCard,PurchaseOrder,"5 years parts, 1 year labor (Free)","Legacy 3D,",No,2/12/2019 12:00:00 AM,Delivered,Demo,"Please email layaway form to Rn2er@me.com / Layaway $2,000 for 12 months","01/21/19- Cristina verified both Sq transactions  for $1,000 each; need to verify Layaway form- 9:12 am
1/23/19-Confirmed LAYAWAY form that has been sent to Cristina via email.  Please send delivery confirmation to Cristina ASAP after the delivery. --Hitomi
1/25/19-Prepared all the documents for LAYAWAY and submitted to Christina. To FL ; Please send us delivery confirmation as soon as finishing delivery.  To Christina ; Please go ahead with the procedures of LAYAWAY as soon as finishing delivery. ---Asumi
Courtesy call/text completed- Cristina 01/23/19 1:09 pm
Confirmed delivery confirmation will hand to Cristina--- 2/26/19 Asumi",FL,1,8.50,DWA-9150USJ-9150BL-DEMO,1000.00,Sq# UPR0,,,,,,,,,1000.00,SQ# 3Gaa,,,,,,,,,2000.00,,LAYAWAY,,,,,,,
Florida RV Super Show 1/15-20/19 Tampa (FL),Florida RV Super Show 1/15-20/19 Tampa (FL),Robert Shih,115724,3/13/2019 10:21:56 AM,Daniel Gavers,IL,60098,Legend 2,New Black,New,1,0.00,3300.00,3300.00,Synchrony,,,"5 years parts, 1 year labor (Free)","Legend 2,",No,3/25/2019 12:00:00 AM,Delivered,New,Customer already has Synchrony account thru from our company. / Second unit order.,"This is 2nd chair for order#11394. Confirmed SYNC$6,000 available.  Robert informed me IL has only body.-3/13/19 Hitomi
3/13/19 - Whole Legend 2 set will be shipped from FL branch to IL wearhouse. BOL#17259666-Hitomi
Printed - Tina 3/14/2019
3/15Maritza- Courtesy message sent @ 12:38PM
3/21/19-Chair was arrived on 3/19.  confirmed with June that delivery is scheduled on 3/25 2-5PM-Hitomi",TX,1,8.50,DWA-9200DWA-9200-BL,3300.00,,,6019170813327753,,Las Vegas,24 months,,,,0.00,,,,,,,,,,0.00,,,,,,,,,
