﻿Original Event Name,Event Name,Sales Person,Order Number,Order Date,Customer Name,State,Zip,Product Name,Color,Product Status,QTY,Tax,Total Before Tax,Order Total,Primary Payment Method,Second Payment Method,Thirdl Payment Method,Warranty,Order Items,Pick up,Delivered On,Order Status,Chair Type,Order Notes,Private Note,Branch,No Tax,Actual Tax Rate,SKU,Primary Payment Balance,Primary Authorize Number,Primary Purchase Order Number,Primary Synchrony Account Number,Primary Synchrony Application Key,Primary Synchrony Account Info,Primary Synchrony Term,Second Payment Balance,Second Authorize Number,Second Purchase Order Number,Second Synchrony Account Number,Second Synchrony Application Key,Second Synchrony Account Info,Second SynchronyTerm,Third Payment Balance,Third Authorize Number,Third Purchase Order Number,Third Synchrony Account Number,Third Synchrony Application Key,Third Synchrony Account Info,Third Synchrony Term
"Sam's Club #6366 Vestal, NY 8/23-9/2/18 (IL)","Sam's Club #6366 Vestal, NY 8/23-9/2/18 (IL)",Michael Cuatrona,108727,8/24/2018 4:04:07 PM,Armando Mata,NY,13903,Relax 2 Zero 2.0 for Sam's,New Brown,New,1,312.00,3900.00,4212.00,PurchaseOrder,,,"3 years parts, 3 years labor ($400)","Relax 2 Zero 2.0 for Sam's,",No,9/8/2018 12:00:00 AM,Delivered,,"[MC service UPG] - as per Michael, add 2 years of service at no extra cost. In total the warranty should be 3 years parts and 3 years** labor (apppy the appropriate code - call Michael for questions) - free delivery applies","3 years parts, 3 years labor. Add rxtras back pad
8/27Maritza Courtesy email+text @ 9:53AM",TX,0,8.00,USJ-9050USJ-9050BR,4212.00,,8936 6554 7196 8403 4344 97,,,,,0.00,,,,,,,0.00,,,,,,
"Sam's Club #6366 Vestal, NY 8/23-9/2/18 (IL)","Sam's Club #6366 Vestal, NY 8/23-9/2/18 (IL)",Michael Cuatrona,108728,8/24/2018 4:13:07 PM,Varsha Kamodia,NY,13850,Relax 2 Zero 2.0 for Sam's,Demo (Box) Black,Demo,1,255.92,3199.00,3454.92,PurchaseOrder,,,"3 years parts, 1 year labor (Free)","Relax 2 Zero 2.0 for Sam's,",No,,Cancelled,,"[MC UPG] - as per Michael, please fulfill this demo order but instead send a new unit at no extra cost (apply the code necessary) - free delivery will apply for specifics please call Michael for details","Please send a new unit.
8/27Maritza Courtesy email+text @ 9:57AM",TX,0,8.00,USJ-9050USJ-9050BL-DEMO (Box),3454.92,,4219 0081 4563 7156 1961 24,,,,,0.00,,,,,,,0.00,,,,,,
"Sam's Club #6366 Vestal, NY 8/23-9/2/18 (IL)","Sam's Club #6366 Vestal, NY 8/23-9/2/18 (IL)",Michael Cuatrona,108843,8/28/2018 8:02:50 AM,Nancy Mosed,NY,13040,Relax 2 Zero 2.0 for Sam's,New Black,New,1,312.00,3900.00,4212.00,PurchaseOrder,,,"3 years parts, 3 years labor ($400)","Relax 2 Zero 2.0 for Sam's,",No,9/15/2018 12:00:00 AM,Delivered,,"[MC UPG SAMS #6366 Labor Day week special] - as per Michael, apply the apt codd to reflect a total of 3 years on the labor warranty - free delivery applies","3 years parts, 3 years labor
8/29Maritza Courtesy text+email@ 11:50AM",TX,0,8.00,USJ-9050USJ-9050BL,4212.00,,5123 8003 3913 3762 7267 13,,,,,0.00,,,,,,,0.00,,,,,,
"Sam's Club #6366 Vestal, NY 8/23-9/2/18 (IL)","Sam's Club #6366 Vestal, NY 8/23-9/2/18 (IL)",Michael Cuatrona,108922,8/31/2018 9:24:50 AM,Ning (Larry) Ding,NY,13901,Relax 2 Zero 2.0 for Sam's,New Brown,New,1,312.00,3900.00,4212.00,PurchaseOrder,,,"3 years parts, 3 years labor ($400)","Relax 2 Zero 2.0 for Sam's,",No,,Cancelled,,"[MC UPG] - as per Michael, at no extra cost make the labor warranty 3 years instead of the regular 1 year labor (for SAMS #6366 Labor Day week special - apply a code) ; look at notes for delivery schedule","3 years parts, 3 years labor. It has to be delivered by Thursday 09/06 otherwise it'll have to be delivered by the end of November",TX,0,8.00,USJ-9050USJ-9050BR,4212.00,,8956 9558 8794 8403 4344 97,,,,,0.00,,,,,,,0.00,,,,,,
"Sam's Club #6366 Vestal, NY 8/23-9/2/18 (IL)","Sam's Club #6366 Vestal, NY 8/23-9/2/18 (IL)",Michael Cuatrona,108923,8/31/2018 9:30:43 AM,Brian Baldia,NY,13760,Relax 2 Zero 2.0 for Sam's,New Black,New,1,312.00,3900.00,4212.00,PurchaseOrder,,,"3 years parts, 3 years labor ($400)","Relax 2 Zero 2.0 for Sam's,",No,9/15/2018 12:00:00 AM,Delivered,,"[MC UPG ADJ] - as per Michael, upgrade the labor warranty to 3 years total at no extra cost (adjust) - free delivery applies","3 years parts, 3 years labor
9/4Maritza courtesy text @ 12:07PM",TX,0,8.00,USJ-9050USJ-9050BL,4212.00,,0450 4664 0243 0398 3833 42,,,,,0.00,,,,,,,0.00,,,,,,
"Sam's Club #6366 Vestal, NY 8/23-9/2/18 (IL)","Sam's Club #6366 Vestal, NY 8/23-9/2/18 (IL)",Michael Cuatrona,108987,9/2/2018 4:39:05 PM,Anna Cen,NY,13760,Relax 2 Zero 2.0 for Sam's,New Black,New,1,255.92,3199.00,3454.92,PurchaseOrder,,,"3 years parts, 1 year labor (Free)","Relax 2 Zero 2.0 for Sam's,",No,10/13/2018 12:00:00 AM,Delivered,,"[MC SPEC UPG OVRD] - as per Michael at no extra cost, fulfill the demo but instead please make sure to send a new one. For questions about specifics please call Michael. - free delivery applies","3 years parts and 1 year labor
 Courtesy Call made on 9/5/2018 by Mimi",TX,0,8.00,USJ-9050USJ-9050BL,3454.92,,7866 8655 8696 3409 4144 87,,,,,0.00,,,,,,,0.00,,,,,,
"Sam's Club #6366 Vestal, NY 8/23-9/2/18 (IL)","Sam's Club #6366 Vestal, NY 8/23-9/2/18 (IL)",Michael Cuatrona,109006,9/3/2018 5:51:12 AM,Ann Teng,NY,13903,Relax 2 Zero 2.0 for Sam's,New Brown,New,1,312.00,3900.00,4212.00,PurchaseOrder,,,"3 years parts, 3 years labor ($400)","Relax 2 Zero 2.0 for Sam's,",No,9/15/2018 12:00:00 AM,Delivered,,"[MC UPG OVRD] - as per Michael, upgrade the labor warranty for total of 3 years at no extra cost (apply the appropriate code, for questions about specifics please call Michael) - free delivery applies","3 years parts, 3 years labor total
 Courtesy Call made on 9/5/2018 by Mimi",TX,0,8.00,USJ-9050USJ-9050BR,4212.00,,1251 1244 1421 0578 5855 30,,,,,0.00,,,,,,,0.00,,,,,,
"Sam's Club #6366 Vestal, NY 8/23-9/2/18 (IL)","Sam's Club #6366 Vestal, NY 8/23-9/2/18 (IL)",Michael Cuatrona,109101,9/5/2018 4:56:07 PM,Amy Tomminello,NY,13790,Relax 2 Zero 2.0 for Sam's,New Black,New,1,255.92,3199.00,3454.92,PurchaseOrder,,,"3 years parts, 1 year labor (Free)","Relax 2 Zero 2.0 for Sam's,",No,9/15/2018 12:00:00 AM,Delivered,,"[MC MKTNG OVRD] - as per Michael, upgrade the demo order to a new unit at no extra cost (r: delayed shipping consolidation; apply the demo code but fulfill the order with a new unit) - free delivery still applies","3 years parts, 1 year labor",TX,0,8.00,USJ-9050USJ-9050BL,3454.92,,5934 3719 9030 6843 8208 95,,,,,0.00,,,,,,,0.00,,,,,,
