﻿Date,CustomerName,State,Zipcode,Description,productNo,Color,IsDemo,Net,ShippingFee,GiftPrice,FinancingProcessingFee,Gross,Pre_tax,Tax,Commission,Primary Payment Method,Primary Payment Balance,Primary Authorize Number,Primary Purchase Order Number,Primary Synchrony Account Number,Primary Synchrony Application Key,Primary Synchrony AccountInfo,Primary SynchronyTerm,Secondly Payment Method,Secondly Payment Balance,Secondly Authorize Number,Secondly Purchase Order Number,Secondly Synchrony Account Number,Secondly Synchrony Application Key,Secondly Synchrony AccountInfo,Secondly SynchronyTerm,Thirdly Payment Method,Thirdly Payment Balance,Thirdly Authorize Number,Thirdly Purchase Order Number,Thirdly Synchrony Account Number,Thirdly Synchrony Application Key,Thirdly Synchrony AccountInfo,Thirdly SynchronyTerm,DeliveryDate,Ispickup,Warranty,Status,Event Name,Synchrony Notes,Order Notes,Order number,Private Note,Branch,IsNoTax,ActualTaxRate
5/12/2018 4:13:41 AM,Joyce Jones,FL,32257,Relax 2 Zero 2.0 for Sam's,USJ-9050USJ-9050BL-DEMO,Demo Black,Demo,,,,,4173.00,3900.00,273.00,Harmony Daiwa,CreditCard,0.00,,,,,,,,0.00,,,,,,,,0.00,,,,,,,5/13/2018 12:00:00 AM,No,"3 years parts, 1 year labor (Free)",Delivered,Sam's Club #8116 5/3-13/18 (FL),,TC#01814241004065704837 serial#0102001170211,106008,5/14Maritza Courtesy call @ 11:11AM,FL,0,7.00
5/12/2018 4:23:09 AM,Idoleine Paul,FL,32211,Foot Vibe Pro,USJ-871,,New,,,,,117.69,109.99,7.70,Harmony Daiwa,CreditCard,0.00,,,,,,,,0.00,,,,,,,,0.00,,,,,,,,No,"2 years parts, 1 year labor (Free)",New,Sam's Club #8116 5/3-13/18 (FL),,TC#162411088180842184461,106009,need to ship?? 5/14/18 Hitomi,Not Dispatched,0,7.00
5/12/2018 4:26:54 AM,Sonu Iznutor,FL,32246,Foot Vibe Pro,USJ-871,,New,,,,,117.69,109.99,7.70,Harmony Daiwa,CreditCard,0.00,,,,,,,,0.00,,,,,,,,0.00,,,,,,,,YES,"2 years parts, 1 year labor for Small Items",Delivered,Sam's Club #8116 5/3-13/18 (FL),,TC#8099881608571598195338,106010,,FL,0,7.00
5/12/2018 1:09:51 PM,Brandon Penn,FL,32216,Legacy for Sam's,DWA-9100DWA-9100CH-Box,Demo(Box) Choco,Demo,,,,,3850.93,3599.00,251.93,Harmony Daiwa,CreditCard,0.00,,,,,,,,0.00,,,,,,,,0.00,,,,,,,,No,"3 years parts, 1 year labor (Free)",Scheduled,Sam's Club #8116 5/3-13/18 (FL),,TC# 0781234700456570482764,106019,"5/14 Maritza courtesy call @ 11:27AM
5/15 10:20am  vm - Maggie // T.T. 11:45",FL,0,7.00
5/13/2018 2:02:17 PM,Dennis Chan,FL,32256,Relax 2 Zero 2.0 for Sam's,USJ-9050USJ-9050BL-DEMO (Box),Demo (Box) Black,Demo,,,,,3423.99,3199.99,224.00,Harmony Daiwa,CreditCard,0.00,,,,,,,,0.00,,,,,,,,0.00,,,,,,,,No,"3 years parts, 1 year labor (Free)",Called,Sam's Club #8116 5/3-13/18 (FL),,TC#6498087066719036753387,106059,"5/14Maritza Courtesy call @ 3:11PM
5/15 10am cc vm/ txt -Maggie",FL,0,7.00
