﻿Date,Customer Name,State,Zipcode,Description,Product Number,Color,Product Status,Net,Shipping Fee,Gift Price,Financing Processing Fee,Order Total,Total Before Tax,Tax,Commission,Primary Payment Method,Primary Payment Balance,Primary Authorize Number,Primary Purchase Order Number,Primary Synchrony Account Number,Primary Synchrony Application Key,Primary Synchrony Account Info,Primary Synchrony Term,Second Payment Method,Second Payment Balance,Second Authorize Number,Second Purchase Order Number,Second Synchrony Account Number,Second Synchrony Application Key,Second Synchrony Account Info,Second Synchrony Term,Third Payment Method,Third Payment Balance,Third Authorize Number,Third Purchase Order Number,Third Synchrony Account Number,Third Synchrony Application Key,Third Synchrony Account Info,Third Synchrony Term,Delivery Date,Pick up,Warranty,Status,Chair Type,Original Event Name,Event Name,Synchrony Notes,Order Notes,Order Number,Private Note,Branch,No Tax,Actual Tax Rate
12/8/2018 9:38:00 AM,Timothy Edgington,WA,98632,PEGASUS 2 SMART,PEGS-2PEGS-2-BR,New Choco,New,,,,,6000.00,6000.00,0.00,Rolly San Jose,Synchrony,6000.00,,,6019170813285720,98246576,San Diego,48 months,,0.00,,,,,,,,0.00,,,,,,,12/12/2018 12:00:00 AM,No,"5 years parts, 1 year labor (Free)",Delivered,New,Stetson Country Christmas 12/6-16/18 Las Vegas (NV),Stetson Country Christmas 12/6-16/18 Las Vegas (NV),"Authorization Code
010396

Account Number
••••••••••••5720

Tran/Promo Code
448 : 48 MONTH EQUAL PAYMENT NO INTEREST

Program Name
SYNCB SYNCHRONY HOME REVOLVING

Amount
$ 6000.00

Invoice Number
112998

Transaction Type
Purchase

Cardholder Name
TIMOTHY EDGINGTON",,112998,"Confirmed SYNC($7,200) and original.invoice was signed by his wife. ***Please charge $6,000 before delivery and make sure to have sales draft signed from TIMOTHY ***12/10/18 Hitomi
Synchrony processed Dec 10th 2018 Scott",WA,1,8.25
12/8/2018 9:44:28 AM,Amber Bird,TX,76234,Relax2Zero 3D,DWA-9060USJ-9060BL-DEMO,Demo Black,Demo,,,,,4000.00,4000.00,0.00,Ilene Maynard,Synchrony,4000.00,,,6019170813285688,98245615,San Diego,36 months,,0.00,,,,,,,,0.00,,,,,,,,No,"5 years parts, 1 year labor (Free)",Cancelled,,Stetson Country Christmas 12/6-16/18 Las Vegas (NV),Stetson Country Christmas 12/6-16/18 Las Vegas (NV),,,113000,needs synchrony 12/10/18 Hitomi,Not Dispatched,1,8.25
12/8/2018 9:51:00 AM,Jr Thompson,IL,62439,PEGASUS 2 SMART,PEGS-2PEGS-2-BR-DEMO,Demo Choco,Demo,,,,,6000.00,6000.00,0.00,Ruben Cuatrona,CreditCard,500.00,Sq# cRfd,,,,,,COD,5500.00,,,,,,,,0.00,,,,,,,,No,"5 years parts, 1 year labor (Free)",Called,,Stetson Country Christmas 12/6-16/18 Las Vegas (NV),Stetson Country Christmas 12/6-16/18 Las Vegas (NV),,,113003,"Warranty is 5 yrs parts and 2 years labor. Pls change it. Thanks
//Confirmed $500.00 in Square. ***COD  $5,500*** 12/10/18 Hitomi
Printed -Tina 12/12/2018
12/12/18- Courtesy call completed- Cristina- 1:32 pm",TX,1,8.25
12/8/2018 9:56:06 AM,Michael Mccarthy,HI,96706,PEGASUS 2 SMART,PEGS-2PEGS-2-BL,New Black,New,,,,,6900.00,6900.00,0.00,Rodrigo Malabunga,Synchrony,6900.00,,,6019170813285548,98242717,San Diego,36 months,,0.00,,,,,,,,0.00,,,,,,,,No,"5 years parts, 2 years labor ($200)",Scheduled,,Stetson Country Christmas 12/6-16/18 Las Vegas (NV),Stetson Country Christmas 12/6-16/18 Las Vegas (NV),,,113004,"Confirmed SYNC($9,600.00) and original. ***Please charge $6,900 before delivery and sales draft singed.***- 12/10/18 Hitomi",HI,1,8.25
12/8/2018 10:02:23 AM,Julie Munson,MT,59634,Relax2Zero 3D,DWA-9060USJ-9060BR,New Choco,New,,,,,4900.00,4900.00,0.00,Ilene Maynard,CreditCard,4900.00,Sq# tbGT,,,,,,,0.00,,,,,,,,0.00,,,,,,,12/18/2018 12:00:00 AM,No,"5 years parts, 1 year labor (Free)",Delivered,New,Stetson Country Christmas 12/6-16/18 Las Vegas (NV),Stetson Country Christmas 12/6-16/18 Las Vegas (NV),,,113006,"Confirmed $4,900 in Square. will confirmed how we deliver or ship 12/10/18 Hitomi
Shipping from CA - 12/11/18 Hitomi
12/17/18- Cristina will take care of shipment- 4:46 pm",CA,1,8.25
12/8/2018 10:47:42 AM,Raymond Buckner,CA,95139,Relax2Zero 3D,DWA-9060USJ-9060BR,New Choco,New,,,,,4000.00,4000.00,0.00,Rodrigo Malabunga,CreditCard,4000.00,SQ#S8e0,,,,,,,0.00,,,,,,,,0.00,,,,,,,12/19/2018 12:00:00 AM,No,"5 years parts, 2 years labor ($200)",Delivered,New,Stetson Country Christmas 12/6-16/18 Las Vegas (NV),Stetson Country Christmas 12/6-16/18 Las Vegas (NV),,,113012,"Confirmed $4,000.00 in Square. 12/10/18 Hitomi
Confirmed w/Rod that the chair model is correct. (Relax 2 Zero 3D)- 12/10/18 @11:35  Hitomi",CA,1,8.25
12/9/2018 7:56:51 PM,Mr Howard S Namilton,TN,38321,Pegasus,DWA-9400Pegasus-BR-DEMO,Demo Choco,Demo,,,,,4200.00,4200.00,0.00,Bonnie Brooks,CreditCard,4200.00,#Abqi,,,,,,,0.00,,,,,,,,0.00,,,,,,,,No,"5 years parts, 1 year labor (Free)",Cancelled,,Stetson Country Christmas 12/6-16/18 Las Vegas (NV),Stetson Country Christmas 12/6-16/18 Las Vegas (NV),,"Special discount for one time payment
Another phone is 7319873007",113081,"COnfirmed $4,200 in Square. assigning to FL . 12/10/18 Hitomi",FL,1,8.25
12/9/2018 8:29:56 PM,Mr Denise Hawkins,CO,81303,Legacy 3D,DWA-9150USJ-9150CH-DEMO,Demo Choco,Demo,,,,,4500.00,4500.00,0.00,Bonnie Brooks,Synchrony,4500.00,,,6019170813288286,98302126,Las Vegas,36 months,,0.00,,,,,,,,0.00,,,,,,,,No,"5 years parts, 1 year labor (Free)",Cancelled,,Stetson Country Christmas 12/6-16/18 Las Vegas (NV),Stetson Country Christmas 12/6-16/18 Las Vegas (NV),,"Special discount for demo chair , manager approval",113082,needs sync 12/10/18 Hitomi,Not Dispatched,1,8.25
12/9/2018 8:42:21 PM,Mrs Shelly winn,UT,84711,Pegasus,DWA-9400Pegasus-BL-DEMO,Demo Black,Demo,,,,,4500.00,4500.00,0.00,May Kam,CreditCard,4500.00,#7BNM,,,,,,,0.00,,,,,,,,0.00,,,,,,,,YES,"5 years parts, 1 year labor (Free)",Cancelled,,Stetson Country Christmas 12/6-16/18 Las Vegas (NV),Stetson Country Christmas 12/6-16/18 Las Vegas (NV),,"Special discount for pick up on Dec 16,2018; Manager approval",113084,duplicate for #113085,Not Dispatched,1,8.25
12/9/2018 8:50:58 PM,Mrs Shelly winn,UT,84711,Pegasus,DWA-9400Pegasus-BL-DEMO,Demo Black,Demo,,,,,4500.00,4500.00,0.00,May Kam,CreditCard,4500.00,#7BNM,,,,,,,0.00,,,,,,,,0.00,,,,,,,12/16/2018 12:00:00 AM,YES,"5 years parts, 1 year labor (Free)",Delivered,Demo,Stetson Country Christmas 12/6-16/18 Las Vegas (NV),Stetson Country Christmas 12/6-16/18 Las Vegas (NV),,"Special discount for pick up  ( on Dec 16,2018 ) , manager approval.",113085,"will confirm pickup confirmation   12/10/18 Hitomi
12/18/18-Confirmed $4,500.00 in Square. Received pickup confirmation. Hitomi",NV,1,8.25
12/10/2018 12:07:08 AM,Samuel Gross,AR,71909,PEGASUS 2 SMART,PEGS-2PEGS-2-BR,New Choco,New,,,,,6200.00,6200.00,0.00,Ruben Cuatrona,Synchrony,6200.00,,,6019170813287759,98289048,San Diego,36 months,,0.00,,,,,,,,0.00,,,,,,,12/21/2018 12:00:00 AM,No,"5 years parts, 2 years labor ($200)",Delivered,New,Stetson Country Christmas 12/6-16/18 Las Vegas (NV),Stetson Country Christmas 12/6-16/18 Las Vegas (NV),,,113086,"Confirmed SYNC($8,500) and original. ***Please charge $6,200 before delivery and sales draft signed.***12/10/18 Hitomi
Printed -Tina 12/12/2018
12/12Maritza Courtesy message sent @ 5:16PM
12/26/2018  Asumi/received delivery confirmation and sells draft",TX,1,8.25
12/10/2018 12:12:25 AM,Deborah Vert,TX,76035,Relax2Zero 3D,DWA-9060USJ-9060BR,New Choco,New,,,,,4500.00,4500.00,0.00,Rolly San Jose,CreditCard,4500.00,SQ# 4BOL,,,,,,,0.00,,,,,,,,0.00,,,,,,,12/20/2018 12:00:00 AM,No,"5 years parts, 1 year labor (Free)",Delivered,New,Stetson Country Christmas 12/6-16/18 Las Vegas (NV),Stetson Country Christmas 12/6-16/18 Las Vegas (NV),,,113088,"Pls deliver within 2 weeks from dec 10, 2018
//Confirmed $4,500.00 in Square. 12/10/18 Hitomi
Printed -Tina 12/12/2018
12/12Maritza Courtesy message sent @ 5:18PM
12/24Maritza- Delivery confirmation received.",TX,1,8.25
12/10/2018 12:18:59 AM,Mike Duncan,CA,93311,PEGASUS 2 SMART,PEGS-2PEGS-2-BR-DEMO,Demo Choco,Demo,,,,,6200.00,6200.00,0.00,Ruben Cuatrona,CreditCard,6200.00,SQ# 3yJ0,,,,,,,0.00,,,,,,,,0.00,,,,,,,12/17/2018 12:00:00 AM,No,"5 years parts, 2 years labor ($200)",Delivered,Demo,Stetson Country Christmas 12/6-16/18 Las Vegas (NV),Stetson Country Christmas 12/6-16/18 Las Vegas (NV),,,113089,"Pls deliver asap within 10 days from Dec 10, 2018
//Confirmed $6,200 in Square. 12/10/18 Hitomi",CA,1,8.25
12/10/2018 12:23:26 AM,Vanessa Talley,TX,78634,Relax2Zero 3D,DWA-9060USJ-9060BR,New Choco,New,,,,,4500.00,4500.00,0.00,Rolly San Jose,Synchrony,4500.00,,,6019170813288120,98294984,San Diego,36 months,,0.00,,,,,,,,0.00,,,,,,,12/21/2018 12:00:00 AM,No,"5 years parts, 1 year labor (Free)",Delivered,New,Stetson Country Christmas 12/6-16/18 Las Vegas (NV),Stetson Country Christmas 12/6-16/18 Las Vegas (NV),,,113090,"Confirmed SYNC($5,400) and original. ***Please charge $4,500 before delivery and sales draft signed.*** 12/10/18 Hitomi
Printed -Tina 12/12/2018
12/12Maritza Courtesy message sent @ 5:20PM
12/24Maritza- Delivery confirmation received.NEED SALES DRAFT Sales draft received 12/26",TX,1,8.25
12/10/2018 12:31:08 AM,Brian Terry,UT,84725,Relax2Zero 3D,DWA-9060USJ-9060BL,New Black,New,,,,,4900.00,4900.00,0.00,Ilene Maynard,Synchrony,4900.00,,,6019170813288161,98295881,San Diego,36 months,,0.00,,,,,,,,0.00,,,,,,,12/21/2018 12:00:00 AM,No,"5 years parts, 1 year labor (Free)",Delivered,New,Stetson Country Christmas 12/6-16/18 Las Vegas (NV),Stetson Country Christmas 12/6-16/18 Las Vegas (NV),,,113091,"Confirmed SYNC($6,500) and original. *** Please charge $4,900 before delivery and have sales draft signed.*** 12/10/18 Hitomi
12/12/18-Courtesy call/text completed- Cristina 5:29pm
12/21-Synchrony charged by Kohei.
1/3Maritza Delivery confirmation received. plus sales draft",NV,1,8.25
12/10/2018 12:37:19 AM,Meisaidez Chun,HI,96782,Relax2Zero 3D,DWA-9060USJ-9060BL,New Black,New,,,,,5304.00,5304.00,0.00,Ilene Maynard,Synchrony,5304.00,,,6019170813289920,98329149,San Diego,36 months,,0.00,,,,,,,,0.00,,,,,,,,No,"5 years parts, 1 year labor (Free)",Delivered,,Stetson Country Christmas 12/6-16/18 Las Vegas (NV),Stetson Country Christmas 12/6-16/18 Las Vegas (NV),,,113092,"Confirmed SYNC($6,600) and original. ***Please charge $5,304.00 before delivery and sales draft signed.***12/10/18 Hitomi
delivery date is 12/21/2018 @8:30am.",HI,1,8.25
12/10/2018 10:32:07 AM,Bret Burnsioe,WA,99224,Legacy 3D,DWA-9150USJ-9150CH-DEMO,Demo Choco,Demo,,,,,4200.00,4200.00,0.00,May Kam,CreditCard,2000.00,Receipt #uPLv,,,,,,CreditCard,2200.00,L8sW,,,,,,,0.00,,,,,,,12/11/2018 12:00:00 AM,No,"5 years parts, 1 year labor (Free)",Delivered,Demo,Stetson Country Christmas 12/6-16/18 Las Vegas (NV),Stetson Country Christmas 12/6-16/18 Las Vegas (NV),,,113112,"Confirmed $2,000 in Square. ***COD $2,200***12/10/18 Hitomi
Scheduled Dec 11   4pm to 6pm Scott
12/20Maritza Delivery confirmation received (COD $2200 collected square)",WA,1,8.25
12/10/2018 10:32:07 AM,Bret Burnsioe,WA,99224,Tourmaline Pad for Legacy 3D,,,New,,,,,4200.00,4200.00,0.00,May Kam,CreditCard,2000.00,Receipt #uPLv,,,,,,CreditCard,2200.00,L8sW,,,,,,,0.00,,,,,,,12/11/2018 12:00:00 AM,No,no warranty,Delivered,Demo,Stetson Country Christmas 12/6-16/18 Las Vegas (NV),Stetson Country Christmas 12/6-16/18 Las Vegas (NV),,,113112,"Confirmed $2,000 in Square. ***COD $2,200***12/10/18 Hitomi
Scheduled Dec 11   4pm to 6pm Scott
12/20Maritza Delivery confirmation received (COD $2200 collected square)",WA,1,8.25
12/10/2018 10:50:23 AM,Mr Howard S Hamilton,TN,38321,Pegasus,DWA-9400Pegasus-BR-DEMO,Demo Choco,Demo,,,,,4200.00,4200.00,0.00,Bonnie Brooks,CreditCard,4200.00,#Abqi,,,,,,,0.00,,,,,,,,0.00,,,,,,,12/22/2018 12:00:00 AM,No,"5 years parts, 1 year labor (Free)",Delivered,Demo,Stetson Country Christmas 12/6-16/18 Las Vegas (NV),Stetson Country Christmas 12/6-16/18 Las Vegas (NV),,Special discount for one time payment,113113,"CC Josefina - 12/11/18 10:53am TXT
Correction for #113081
Confirmed $4,200 in Square. assigning to FL . 12/10/18 Hitomi
1/2Maritza-Delivery confirmation received.",FL,1,8.25
12/10/2018 11:07:29 AM,Mr Denise Hawkins,CO,81303,Legacy 3D,DWA-9150USJ-9150CH-DEMO,Demo Choco,Demo,,,,,4500.00,4500.00,0.00,Bonnie Brooks,Synchrony,4500.00,,,6019170813288286,98302126,Las Vegas,36 months,,0.00,,,,,,,,0.00,,,,,,,12/21/2018 12:00:00 AM,No,"5 years parts, 1 year labor (Free)",Delivered,New,Stetson Country Christmas 12/6-16/18 Las Vegas (NV),Stetson Country Christmas 12/6-16/18 Las Vegas (NV),,"Special discount for demo chair , manager approval",113114,"Confirmed SYNC($4,500) and original.***Please charge $4,500.00 before delivery and sales draft signed ***12/10/18 Hitomi
Printed -Tina 12/12/2018
12/12Maritza Courtesy message sent @ 5:27PM
12/18Maritza- Per May, please upgrade to new chair (4:30PM)
12/26/2018  Asumi/received delivery confirmation and sells draft",TX,1,8.25
12/10/2018 12:01:41 PM,Amber Bird,TX,76234,Relax2Zero 3D,DWA-9060USJ-9060BL,New Black,New,,,,,4000.00,4000.00,0.00,Ilene Maynard,Synchrony,4000.00,,,6019170813285688,98245615,San Diego,36 months,,0.00,,,,,,,,0.00,,,,,,,12/20/2018 12:00:00 AM,No,"5 years parts, 1 year labor (Free)",Delivered,New,Stetson Country Christmas 12/6-16/18 Las Vegas (NV),Stetson Country Christmas 12/6-16/18 Las Vegas (NV),,,113116,"Confirmed SYNC($5,500) and original. ***Please charge $4,000 before delivery and sales draft signed.*** 12/10/18 Hitomi
Printed - Tina 12/12/2018
12/12Maritza Courtesy messages sent @ 5:31PM
12/24Maritza- Delivery confirmation and received. NEED SALES DRAFT. Received sales draft.",TX,1,8.25
12/10/2018 6:21:56 PM,Mr & Mrs Tom Pribyl,NE,68361,Legacy 3D,DWA-9150USJ-9150CH,New Choco,New,,,,,4200.00,4200.00,0.00,May Kam,CreditCard,2000.00,#mbzX,,,,,,CreditCard,2200.00,eh5S,,,,,,,0.00,,,,,,,12/23/2018 12:00:00 AM,No,"5 years parts, 1 year labor (Free)",Delivered,New,Stetson Country Christmas 12/6-16/18 Las Vegas (NV),Stetson Country Christmas 12/6-16/18 Las Vegas (NV),,"Special discount for one time payment, manager approval; Another phone is 4027594620",113122,"Confirmed $2,000 in Square. ***COD $2,200.*** 12/11/18 Hitomi
Printed -Tina 12/12/2018
12/12Courtesy message sent @ 5:36PM
12/26/2018 Asumi/received delivery confirmation",TX,1,8.25
12/10/2018 6:21:56 PM,Mr & Mrs Tom Pribyl,NE,68361,Tourmaline Pad for Legacy 3D,,,New,,,,,4200.00,4200.00,0.00,May Kam,CreditCard,2000.00,#mbzX,,,,,,CreditCard,2200.00,eh5S,,,,,,,0.00,,,,,,,12/23/2018 12:00:00 AM,No,no warranty,Delivered,New,Stetson Country Christmas 12/6-16/18 Las Vegas (NV),Stetson Country Christmas 12/6-16/18 Las Vegas (NV),,"Special discount for one time payment, manager approval; Another phone is 4027594620",113122,"Confirmed $2,000 in Square. ***COD $2,200.*** 12/11/18 Hitomi
Printed -Tina 12/12/2018
12/12Courtesy message sent @ 5:36PM
12/26/2018 Asumi/received delivery confirmation",TX,1,8.25
12/10/2018 7:11:30 PM,Mr & Mrs Lavieng Vongsoury,OR,97015,Legacy 3D,DWA-9150USJ-9150BL-DEMO,Demo Black,Demo,,,,,3450.00,3450.00,0.00,May Kam,CreditCard,200.00,#jvTd,,,,,,CreditCard,3250.00,Receipt #8vTC,,,,,,,0.00,,,,,,,12/12/2018 12:00:00 AM,No,"3 years parts, 1 year labor (Free)",Delivered,Demo,Stetson Country Christmas 12/6-16/18 Las Vegas (NV),Stetson Country Christmas 12/6-16/18 Las Vegas (NV),,Special discount from Referral # 112861 family .Another phone is 5039299127,113123,"REFERRAL ORDER FROM HONG PHAT 
Confirmed $200.00 in Square. ***COD $3,250*** spoke to Scott, I assigned to WA 12/11/18 Hitomi
Scheduled for Dec 12 8am to10am Scott",WA,1,8.25
12/10/2018 7:11:30 PM,Mr & Mrs Lavieng Vongsoury,OR,97015,Daiwa Blanket,,,New,,,,,3450.00,3450.00,0.00,May Kam,CreditCard,200.00,#jvTd,,,,,,CreditCard,3250.00,Receipt #8vTC,,,,,,,0.00,,,,,,,12/12/2018 12:00:00 AM,No,no warranty,Delivered,Demo,Stetson Country Christmas 12/6-16/18 Las Vegas (NV),Stetson Country Christmas 12/6-16/18 Las Vegas (NV),,Special discount from Referral # 112861 family .Another phone is 5039299127,113123,"REFERRAL ORDER FROM HONG PHAT 
Confirmed $200.00 in Square. ***COD $3,250*** spoke to Scott, I assigned to WA 12/11/18 Hitomi
Scheduled for Dec 12 8am to10am Scott",WA,1,8.25
12/10/2018 7:11:30 PM,Mr & Mrs Lavieng Vongsoury,OR,97015,Tourmaline Pad for Legacy 3D,,,New,,,,,3450.00,3450.00,0.00,May Kam,CreditCard,200.00,#jvTd,,,,,,CreditCard,3250.00,Receipt #8vTC,,,,,,,0.00,,,,,,,12/12/2018 12:00:00 AM,No,no warranty,Delivered,Demo,Stetson Country Christmas 12/6-16/18 Las Vegas (NV),Stetson Country Christmas 12/6-16/18 Las Vegas (NV),,Special discount from Referral # 112861 family .Another phone is 5039299127,113123,"REFERRAL ORDER FROM HONG PHAT 
Confirmed $200.00 in Square. ***COD $3,250*** spoke to Scott, I assigned to WA 12/11/18 Hitomi
Scheduled for Dec 12 8am to10am Scott",WA,1,8.25
12/10/2018 8:14:12 PM,Wayne McCurley,CA,95320,Relax2Zero 3D,DWA-9060USJ-9060BR,New Choco,New,,,,,4900.00,4900.00,0.00,Ilene Maynard,CreditCard,4900.00,SQ# 6mkY,,,,,,,0.00,,,,,,,,0.00,,,,,,,12/19/2018 12:00:00 AM,No,"5 years parts, 1 year labor (Free)",Delivered,New,Stetson Country Christmas 12/6-16/18 Las Vegas (NV),Stetson Country Christmas 12/6-16/18 Las Vegas (NV),,,113125,12/11Maritza Confirmed 4900 on square.,CA,1,8.25
12/10/2018 8:30:59 PM,Gerald Johnson,WA,98619,Relax2Zero 3D,DWA-9060USJ-9060BL,New Black,New,,,,,5650.00,5650.00,0.00,Rolly San Jose,Synchrony,4900.00,,,6019170813290670,98360143,San Diego,48 months,,0.00,,,,,,,,0.00,,,,,,,,No,"5 years parts, 1 year labor (Free)",Cancelled,,Stetson Country Christmas 12/6-16/18 Las Vegas (NV),Stetson Country Christmas 12/6-16/18 Las Vegas (NV),,,113126,,Not Dispatched,1,8.25
12/10/2018 8:42:57 PM,Dan and donna Hoffman,WY,82930,Relax2Zero 3D,DWA-9060USJ-9060BR,New Choco,New,,,,,4500.00,4500.00,0.00,Rolly San Jose,CreditCard,4500.00,SQ# 2wRC,,,,,,,0.00,,,,,,,,0.00,,,,,,,1/2/2019 12:00:00 AM,No,"5 years parts, 1 year labor (Free)",Delivered,New,Stetson Country Christmas 12/6-16/18 Las Vegas (NV),Stetson Country Christmas 12/6-16/18 Las Vegas (NV),,,113127,"COnfirmed $4,500 in Square. Spoke to Kohei , assigning to NV.  12/11/18 Hitomi
12/12/18- Courtesy call/ text completed- Cristina- 5:26pm",NV,1,8.25
12/10/2018 8:48:50 PM,Mark Lundahl,UT,84325,Relax2Zero 3D,DWA-9060USJ-9060BR-DEMO,Demo Choco,Demo,,,,,4200.00,4200.00,0.00,Ruben Cuatrona,Synchrony,4200.00,,,6019170813290993,98369816,San Diego,36 months,,0.00,,,,,,,,0.00,,,,,,,12/28/2018 12:00:00 AM,No,"5 years parts, 2 years labor ($200)",Delivered,Demo,Stetson Country Christmas 12/6-16/18 Las Vegas (NV),Stetson Country Christmas 12/6-16/18 Las Vegas (NV),,,113128,"Confirmed SYNC($8,500) and original.***Please charge $4,200 before delivery and sales draft signed.***12/11/18 Hitomi
12/28 -  Delivered by Rex
1/4/19 Received delivery confirmtaion --- Asumi",NV,1,8.25
12/11/2018 9:20:36 AM,Gerald Johnson,WA,98619,Relax2Zero 3D,DWA-9060USJ-9060BL,New Black,New,,,,,4900.00,4900.00,0.00,Rolly San Jose,Synchrony,4900.00,,,6019170813290670,98360143,San Diego,48 months,,0.00,,,,,,,,0.00,,,,,,,12/21/2018 12:00:00 AM,No,"5 years parts, 1 year labor (Free)",Delivered,New,Stetson Country Christmas 12/6-16/18 Las Vegas (NV),Stetson Country Christmas 12/6-16/18 Las Vegas (NV),"$4900
48 month
Auth #020667
Processed Dec 20th 2018 by Scott",,113136,"Confirmed SYNC($8,500) and original. ***Please charge  $4,900 before delivery and sales draft signed.***12/11/18 Hitomi
He will be back in his home dec 18. Pls call him on this date to set up appointment
Thanks
Rolly
12/12/18-Courtesy call/text completed- Cristina 5:20
12/24Maritza- Delivery confirmation and sales draft received.",WA,1,8.25
12/11/2018 6:28:07 PM,Mr & Mrs Paul Bagwell,AR,72764,Legacy 3D,DWA-9150USJ-9150CH,New Choco,New,,,,,3850.00,3850.00,0.00,May Kam,CreditCard,3850.00,#zqva,,,,,,,0.00,,,,,,,,0.00,,,,,,,12/28/2018 12:00:00 AM,No,"5 years parts, 1 year labor (Free)",Delivered,New,Stetson Country Christmas 12/6-16/18 Las Vegas (NV),Stetson Country Christmas 12/6-16/18 Las Vegas (NV),,"Special discount for one time payment , manager approval",113147,"Confirmed $3,850.00 in Square. 12/12/18 Hitomi
Printed 12/12/2018 -Tina
12/13Maritza Courtesy message sent @ 2:47PM
12/31Delivery confirmation received",TX,1,8.25
12/11/2018 6:28:07 PM,Mr & Mrs Paul Bagwell,AR,72764,Tourmaline Pad for Legacy 3D,,,New,,,,,3850.00,3850.00,0.00,May Kam,CreditCard,3850.00,#zqva,,,,,,,0.00,,,,,,,,0.00,,,,,,,12/28/2018 12:00:00 AM,No,no warranty,Delivered,New,Stetson Country Christmas 12/6-16/18 Las Vegas (NV),Stetson Country Christmas 12/6-16/18 Las Vegas (NV),,"Special discount for one time payment , manager approval",113147,"Confirmed $3,850.00 in Square. 12/12/18 Hitomi
Printed 12/12/2018 -Tina
12/13Maritza Courtesy message sent @ 2:47PM
12/31Delivery confirmation received",TX,1,8.25
12/11/2018 6:39:32 PM,Mr Nathan Plendl,IA,51031,Pegasus,DWA-9400Pegasus-BR,New Choco,New,,,,,5500.00,5500.00,0.00,Bonnie Brooks,Synchrony,5500.00,,,6019170813292742,98420768,Las Vegas,36 months,,0.00,,,,,,,,0.00,,,,,,,,No,"5 years parts, 1 year labor (Free)",Called,,Stetson Country Christmas 12/6-16/18 Las Vegas (NV),Stetson Country Christmas 12/6-16/18 Las Vegas (NV),,"Pls make finance purchase $5500, thanks",113148,"Confirmed SYNC($6,600) and original. ***Please charge $5,500 before delivery and sales draft signed. ***12/12/18 Hitomi
Printed 12/12/2018 -Tina
12/13Maritza Courtesy message sent @ 2:49PM",TX,1,8.25
12/11/2018 7:04:25 PM,Mr &Mrs Bo Springer,OH,44404,Pegasus,DWA-9400Pegasus-BR,New Choco,New,,,,,4600.00,4600.00,0.00,May Kam,CreditCard,2300.00,#dgML,,,,,,COD,2300.00,,,,,,,,0.00,,,,,,,,No,"5 years parts, 1 year labor (Free)",Cancelled,,Stetson Country Christmas 12/6-16/18 Las Vegas (NV),Stetson Country Christmas 12/6-16/18 Las Vegas (NV),,"Special discount for one time payment , manager approval ; balance $ 2300 as COD , thanks",113149,"Confirmed $2,300.00 in Square. ***COD  $ 2300 *** 12/12/18 Hitomi
COLOR CHANGED TO BLACK
Printed 12/12/2018 - Tina",TX,1,8.25
12/11/2018 7:04:25 PM,Mr &Mrs Bo Springer,OH,44404,Tourmaline Pad for Pegasus,,,New,,,,,4600.00,4600.00,0.00,May Kam,CreditCard,2300.00,#dgML,,,,,,COD,2300.00,,,,,,,,0.00,,,,,,,,No,no warranty,Cancelled,,Stetson Country Christmas 12/6-16/18 Las Vegas (NV),Stetson Country Christmas 12/6-16/18 Las Vegas (NV),,"Special discount for one time payment , manager approval ; balance $ 2300 as COD , thanks",113149,"Confirmed $2,300.00 in Square. ***COD  $ 2300 *** 12/12/18 Hitomi
COLOR CHANGED TO BLACK
Printed 12/12/2018 - Tina",TX,1,8.25
12/12/2018 10:43:16 PM,Brenda Neether,WY,82716,PEGASUS 2 SMART,PEGS-2PEGS-2-BR,New Choco,New,,,,,6900.00,6900.00,0.00,Ruben Cuatrona,Synchrony,6900.00,,,6019170813293591,98456477,Las Vegas,24 months,,0.00,,,,,,,,0.00,,,,,,,12/24/2018 12:00:00 AM,No,"5 years parts, 2 years labor ($200)",Delivered,New,Stetson Country Christmas 12/6-16/18 Las Vegas (NV),Stetson Country Christmas 12/6-16/18 Las Vegas (NV),"Authorization Code
023346
Account Number
••••••••••••3591
Tran/Promo Code
424 : 24 MONTH EQUAL PAYMENT NO INTEREST
Program Name
SYNCB SYNCHRONY HOME REVOLVING
Amount
$ 6900.00
Invoice Number
113178
Transaction Type
Purchase
Cardholder Name
BRENDA K NEETHER
///12/26/18- Received delivery confirmation. Confirmed $6,900.00 was charged for 24 months. Confirmed sales draft. -- Hitomi

 ",,113178,"Deliver before christmas
//Confirmed sync($8,800) and original. ***Please charge $6,900 before delivery and sales draft signed.***",WA,1,8.25
12/12/2018 10:50:22 PM,Cari Nelson,OR,97415,PEGASUS 2 SMART,PEGS-2PEGS-2-BL,New Black,New,,,,,6000.00,6000.00,0.00,Ruben Cuatrona,Synchrony,6000.00,,,6019170813293468,98453888,Las Vegas,36 months,,0.00,,,,,,,,0.00,,,,,,,12/22/2018 12:00:00 AM,No,"5 years parts, 2 years labor ($200)",Delivered,New,Stetson Country Christmas 12/6-16/18 Las Vegas (NV),Stetson Country Christmas 12/6-16/18 Las Vegas (NV),"Authorization Code
020883

Account Number
••••••••••••3468

Tran/Promo Code
436 : 36 MONTH EQUAL PAYMENT NO INTEREST

Program Name
SYNCB SYNCHRONY HOME REVOLVING

Amount
$ 6000.00

Invoice Number
113179

Transaction Type
Purchase

Cardholder Name
CARI NELSON",,113179,"Deliver before christmas
//Confirmed SYNC($8,500) and original.***Please charge $6,000 before delivery and sales draft signed.*** 12/13/18 Hitomi
12/14Maritza Courtesy message sent @ 2:17PM
12/14Maritza- Have reached out to Yesa (Possible 3rd Party since Scott is booked) Due to 3rd party being over $1200, Scott will take care of it.
12/24Maritza- Delivery confirmation and sales draft received.",WA,1,8.25
12/12/2018 10:57:34 PM,Brad Pictor,GA,30067,Relax2Zero 3D,DWA-9060USJ-9060BR,New Choco,New,,,,,4300.00,4300.00,0.00,Ilene Maynard,CreditCard,4300.00,SQ# wiS9,,,,,,,0.00,,,,,,,,0.00,,,,,,,12/22/2018 12:00:00 AM,No,"5 years parts, 1 year labor (Free)",Delivered,New,Stetson Country Christmas 12/6-16/18 Las Vegas (NV),Stetson Country Christmas 12/6-16/18 Las Vegas (NV),,,113180,"Deliver before christmas
//Confirmed $4,300.00 in Square. 12/13/18 Hitomi
Received delivery confirmation -- 12/28/2018 Asumi",FL,1,8.25
12/12/2018 11:05:14 PM,Jim Bridges,FL,34236,Relax2Zero 3D,DWA-9060USJ-9060BL,New Black,New,,,,,4300.00,4300.00,0.00,Ilene Maynard,CreditCard,4300.00,Receipt #ZIom,,,,,,,0.00,,,,,,,,0.00,,,,,,,12/19/2018 12:00:00 AM,No,"5 years parts, 1 year labor (Free)",Delivered,New,Stetson Country Christmas 12/6-16/18 Las Vegas (NV),Stetson Country Christmas 12/6-16/18 Las Vegas (NV),,,113181,"CC Josefina - 12/14/18 2:48pm
Deliver before christmas
//Confirmed $4,300.00 in Square. 12/13/18 Hitomi
Received Delivery confirmation --  12/27/2018 Asumi",FL,1,8.25
12/12/2018 11:13:07 PM,Charles Miller,OK,74727,Relax2Zero 3D,DWA-9060USJ-9060BL,New Black,New,,,,,4300.00,4300.00,0.00,Ilene Maynard,Synchrony,4300.00,,,6019170813292148,98408758,Las Vegas,36 months,,0.00,,,,,,,,0.00,,,,,,,,No,"5 years parts, 1 year labor (Free)",Scheduled,,Stetson Country Christmas 12/6-16/18 Las Vegas (NV),Stetson Country Christmas 12/6-16/18 Las Vegas (NV),,,113182,"Deliver before christmas
//Synchrony approval $8,500 (for #113182&#113183).***Please charge $8,500 (for #113182&#113183) and sales draft signed from CHARLES MILLER*** 12/13/18 Hitomi
12/13Courtesy messages sent @ 5:10PM",TX,1,8.25
12/12/2018 11:19:26 PM,Charles Miller,OK,74727,Relax2Zero 3D,DWA-9060USJ-9060BR,New Choco,New,,,,,4300.00,4300.00,0.00,Ilene Maynard,Synchrony,4200.00,,,6019170813292148,98408758,Las Vegas,36 months,CreditCard,100.00,SQ# KB8P,,,,,,,0.00,,,,,,,12/28/2018 12:00:00 AM,No,"5 years parts, 1 year labor (Free)",Delivered,New,Stetson Country Christmas 12/6-16/18 Las Vegas (NV),Stetson Country Christmas 12/6-16/18 Las Vegas (NV),,,113183,"Deliver before christmas.
//Confirmed $100.00 in Square. /Synchrony approval $8,500 (for #113182&#113183).***Please charge $8,500 (for #113182&#113183) and sales draft signed from CHARLES MILLER*** 12/13/18 Hitomi
12/13Courtesy message sent with other order.
1/2Maritza Delivery confirmation received with sales draft",TX,1,8.25
12/12/2018 11:32:01 PM,Cassandra Weaver,NY,12545,Relax2Zero 3D,DWA-9060USJ-9060BR,New Choco,New,,,,,4900.00,4900.00,0.00,Rolly San Jose,Synchrony,4900.00,,,6019170813293963,98468326,Huston,48 months,,0.00,,,,,,,,0.00,,,,,,,,No,"5 years parts, 1 year labor (Free)",Hold,,Stetson Country Christmas 12/6-16/18 Las Vegas (NV),Stetson Country Christmas 12/6-16/18 Las Vegas (NV),,,113184,"Deliver before christmas
//Confirmed sync($5,900) and original. ***Please charge $4,900 before delivery and sales draft signed.***12/13/18 Hitomi
12/13Courtesy message sent @ 5:13PM Customer has said she cancelled the order. Will place on hold until we reach out to sales rep.",TX,1,8.25
12/13/2018 9:51:42 PM,Chana Vasut,TX,78621,Relax2Zero 3D,DWA-9060USJ-9060BR,New Choco,New,,,,,8000.00,8000.00,0.00,Rodrigo Malabunga,Synchrony,8000.00,,,6019170813294342,98489169,Las Vegas,36 months,,0.00,,,,,,,,0.00,,,,,,,12/21/2018 12:00:00 AM,No,"5 years parts, 2 years labor ($200)",Delivered,New,Stetson Country Christmas 12/6-16/18 Las Vegas (NV),Stetson Country Christmas 12/6-16/18 Las Vegas (NV),,,113193,"Deliver before christmas
//Confirmed SYNC($9,600) and original. ***Please charge $8,000 before delivery and sales draft signed.*** 12/14/18 Hitomi
12/24Maritza- Delivery confirmation and sales draft received.",TX,1,8.25
12/13/2018 9:57:10 PM,John Meischeid,PA,18040,Relax2Zero 3D,DWA-9060USJ-9060BR,New Choco,New,,,,,4000.00,4000.00,0.00,Rolly San Jose,CreditCard,4000.00,SQ# kjb7,,,,,,,0.00,,,,,,,,0.00,,,,,,,12/20/2018 12:00:00 AM,No,"5 years parts, 1 year labor (Free)",Delivered,New,Stetson Country Christmas 12/6-16/18 Las Vegas (NV),Stetson Country Christmas 12/6-16/18 Las Vegas (NV),,,113194,"Deliver before christmas//
Confirmed $4,000.00 in Square. 12/14/18 Hitomi
12/26/2018  Asumi/received delivery confirmation",TX,1,8.25
12/13/2018 10:04:44 PM,John and shari Rogers,UT,84078,Relax2Zero 3D,DWA-9060USJ-9060BR,New Choco,New,,,,,4500.00,4500.00,0.00,Rolly San Jose,Synchrony,2000.00,,,6019170813294813,98501355,Las Vegas,24 months,COD,2500.00,,,,,,,,0.00,,,,,,,,No,"5 years parts, 1 year labor (Free)",Cancelled,,Stetson Country Christmas 12/6-16/18 Las Vegas (NV),Stetson Country Christmas 12/6-16/18 Las Vegas (NV),,,113195,"Deliver after January 1, 2019
//Confirmed SYNC($2,000) and original. ***PLease charge $2,000 before delivery and collect COD $2,500. sales draft signed.  *** 12/14/18 Hitomi",Not Dispatched,1,8.25
12/13/2018 10:11:50 PM,Robert Jernigan,CA,93270,PEGASUS 2 SMART,PEGS-2PEGS-2-BR,New Choco,New,,,,,6000.00,6000.00,0.00,Rodrigo Malabunga,Synchrony,6000.00,,,6019170813294938,98503469,Las Vegas,48 months,,0.00,,,,,,,,0.00,,,,,,,12/17/2018 12:00:00 AM,No,"5 years parts, 2 years labor ($200)",Delivered,New,Stetson Country Christmas 12/6-16/18 Las Vegas (NV),Stetson Country Christmas 12/6-16/18 Las Vegas (NV),"Authorization Code
014237
PC:448",,113196,"Deliver before christmas
//Confirmed SYNC($6,000) and original.***Please charge $6,000 before delivery and sales draft signed.***12/14/18 Hitomi
12/18Delivery confirmation received with sales draft",CA,1,8.25
12/14/2018 9:13:26 AM,John and Shari Rogers,UT,84078,Relax2Zero 3D,DWA-9060USJ-9060BR,New Choco,New,,,,,4500.00,4500.00,0.00,Rolly San Jose,Synchrony,2000.00,,,6019170813294813,98501355,Las Vegas,24 months,COD,2500.00,,,,,,,,0.00,,,,,,,1/2/2019 12:00:00 AM,No,"5 years parts, 1 year labor (Free)",Delivered,New,Stetson Country Christmas 12/6-16/18 Las Vegas (NV),Stetson Country Christmas 12/6-16/18 Las Vegas (NV),,,113199,"CORRECTION FOR #113195 
Deliver after January 1, 2019
//Confirmed SYNC($2,000) and original. ***PLease charge $2,000 before delivery and collect COD $2,500. sales draft signed.  *** 12/14/18 Hitomi
12/20Maritza Courtesy message sent @ 9:10AM
CHANGE COLOR TO BLACK
1/1/19 Synchrony charged by Rex",NV,1,8.25
12/15/2018 12:33:31 AM,Marion Jenista,CO,81641,Relax2Zero 3D,DWA-9060USJ-9060BR-DEMO,Demo Choco,Demo,,,,,4200.00,4200.00,0.00,Ilene Maynard,CreditCard,3000.00,SQ# fEsv,,,,,,CreditCard,1200.00,SQ # jyFF,,,,,,,0.00,,,,,,,,No,"5 years parts, 1 year labor (Free)",Cancelled,,Stetson Country Christmas 12/6-16/18 Las Vegas (NV),Stetson Country Christmas 12/6-16/18 Las Vegas (NV),,,113229,"Deliver after Jan 10, 2019
//Confirmed $3,000/$1,200  in Square. **Please confirm the chair color** 12/17/18 Hitomi",TX,1,8.25
12/15/2018 12:43:37 AM,John Meeks,OH,45011,PEGASUS 2 SMART,PEGS-2PEGS-2-BL,New Black,New,,,,,6000.00,6000.00,0.00,Rolly San Jose,CreditCard,6000.00,Receipt #pU2R,,,,,,,0.00,,,,,,,,0.00,,,,,,,,No,"5 years parts, 1 year labor (Free)",Scheduled,,Stetson Country Christmas 12/6-16/18 Las Vegas (NV),Stetson Country Christmas 12/6-16/18 Las Vegas (NV),,,113230,"Process credit card Amex # 371332749085005 exp 10/22 with Cvc # 2436 on Dec 21, 2018
After credit card passed, pls deliver after Jan 1, 2019
//12/21/18-Hitomi charged $6,000 with Receipt #pU2R. Rolly informed if it can be delivered before 1/1/19, it would be better. June will let me know.  - Hitomi
12/21Maritza Courtesy message sent @ 12:48PM",TX,1,8.25
12/15/2018 12:49:14 AM,Leilah Young,AZ,86040,Relax2Zero 3D,DWA-9060USJ-9060BL,New Black,New,,,,,4900.00,4900.00,0.00,Ilene Maynard,CreditCard,4900.00,SQ# tFpN,,,,,,,0.00,,,,,,,,0.00,,,,,,,12/28/2018 12:00:00 AM,No,"5 years parts, 1 year labor (Free)",Delivered,New,Stetson Country Christmas 12/6-16/18 Las Vegas (NV),Stetson Country Christmas 12/6-16/18 Las Vegas (NV),,,113231,"Deliver after Jan 1,2019
//Confirmed $4,900 in Square.***Please confirm the chair color ** 12/17/18 Hitomi
12/20Maritza Courtesy message sent @ 9:20AM(CONFIRMED BLACK R2Z 3D)
12/28- Delivered by Rex.
1/4/19 Received delivery confirmation --- Asumi",NV,1,8.25
12/15/2018 12:57:29 AM,Nanda Sekhon,TX,79932,PEGASUS 2 SMART,PEGS-2PEGS-2-BL,New Black,New,,,,,6500.00,6500.00,0.00,Ruben Cuatrona,CreditCard,6500.00,SQ# msqn,,,,,,,0.00,,,,,,,,0.00,,,,,,,1/5/2019 12:00:00 AM,No,"5 years parts, 2 years labor ($200)",Delivered,New,Stetson Country Christmas 12/6-16/18 Las Vegas (NV),Stetson Country Christmas 12/6-16/18 Las Vegas (NV),,,113232,"Deliver on dec 24 as it is a birthday gift to her husband
//COnfirmed $6,500 in Square. Ruben talked to Mario on 12/17 and Mario stated TX would deliver it. Per.Ruben , before Christmas delivery is just request not promised. 12/17/18 Hitomi
12/20/18- Courtesy call/text completed- Cristina- 10:58 am
12/27Maritza- Customer called for a status. Spoke with June and TX will give courtesy call.
1/17Delivery confirmation received",TX,1,8.25
12/15/2018 8:42:20 AM,Mr Homeo Coleman,AL,36502,Pegasus,DWA-9400Pegasus-BR,New Choco,New,,,,,4700.00,4700.00,0.00,May Kam,Cash,500.00,,,,,,,Check,4200.00,,,,,,,,0.00,,,,,,,12/28/2018 12:00:00 AM,No,"5 years parts, 1 year labor (Free)",Delivered,New,Stetson Country Christmas 12/6-16/18 Las Vegas (NV),Stetson Country Christmas 12/6-16/18 Las Vegas (NV),,"Special discount for one time payment , manager approval",113242,"ANOTHER PHONE# 251-655-0232 
//will confirm $500 cash. ***Please collect COD $4,200 ***Please confirm the chair color**-12/17/18 Hitomi
//Pre.Michael received $500 cash. 12/20/18 Hitomi
Received delivery confirmation --- 1/2/2019 Asumi
//COD$4,200 was paid in personal check(#115) . will confirm if the check is cleared on next week. 1/2/19 @11:40 Hitomi
//1/7/19- Confirmed w/Yumi that check is cleared. - Hitomi",FL,1,8.25
12/15/2018 8:42:20 AM,Mr Homeo Coleman,AL,36502,Tourmaline Pad for Pegasus,,,New,,,,,4700.00,4700.00,0.00,May Kam,Cash,500.00,,,,,,,Check,4200.00,,,,,,,,0.00,,,,,,,12/28/2018 12:00:00 AM,No,no warranty,Delivered,New,Stetson Country Christmas 12/6-16/18 Las Vegas (NV),Stetson Country Christmas 12/6-16/18 Las Vegas (NV),,"Special discount for one time payment , manager approval",113242,"ANOTHER PHONE# 251-655-0232 
//will confirm $500 cash. ***Please collect COD $4,200 ***Please confirm the chair color**-12/17/18 Hitomi
//Pre.Michael received $500 cash. 12/20/18 Hitomi
Received delivery confirmation --- 1/2/2019 Asumi
//COD$4,200 was paid in personal check(#115) . will confirm if the check is cleared on next week. 1/2/19 @11:40 Hitomi
//1/7/19- Confirmed w/Yumi that check is cleared. - Hitomi",FL,1,8.25
12/15/2018 9:46:59 AM,Mrs Allison Mcdorman,CA,92532,Legacy 3D,DWA-9150USJ-9150CH,New Choco,New,,,,,4200.00,4200.00,0.00,Bonnie Brooks,Synchrony,4200.00,,,6019170813296230,98550706,Las Vegas,36 months,,0.00,,,,,,,,0.00,,,,,,,12/31/2018 12:00:00 AM,No,"5 years parts, 1 year labor (Free)",Delivered,New,Stetson Country Christmas 12/6-16/18 Las Vegas (NV),Stetson Country Christmas 12/6-16/18 Las Vegas (NV),"Authorization Code
027350
PC:436","Pls mail Financial form to the customer , need her sign. Thank u so much for help",113245,"SYNC($8,500) approved. May will email synchrony form on 12/18 since it does not have signature . 12/17/18 Hitomi
12/18/18- Talked to May , we will have sign on synchrony upon the delivery. ***please charge $4,200  before delivery and sales draft and synchrony application form signed.***  Hitomi
1/3Delivery confirmation received but missing signature on Synchrony application. Will schedule to collect the signature
1/18Signature collected.",CA,1,8.25
12/15/2018 10:09:22 PM,Marleen Christy,UT,84725,PEGASUS 2 SMART,PEGS-2PEGS-2-BR-DEMO,Demo Choco,Demo,,,,,6000.00,6000.00,0.00,Ruben Cuatrona,Synchrony,6000.00,,,6019170813296693,98566880,Las Vegas,48 months,,0.00,,,,,,,,0.00,,,,,,,12/21/2018 12:00:00 AM,No,"5 years parts, 2 years labor ($200)",Delivered,Demo,Stetson Country Christmas 12/6-16/18 Las Vegas (NV),Stetson Country Christmas 12/6-16/18 Las Vegas (NV),,,113267,"Deliver before Christmas. Address is just 2 hours from Las Vegas branch
//Confirmed SYNC($7,200) and original. **Please charge before delivery and sale draft signed*** will confirm w/NV if it is possible to deliver before Xmas 12/17/18 Hitomi
12/18/18 Kohei infomed this got scheduled for this friday. - Hitomi
12/21-Synchrony charged by Kohei.
1/3Maritza Delivery confirmation received. plus sales draft",NV,1,8.25
12/15/2018 10:17:48 PM,Kent Wilke,NE,68787,PEGASUS 2 SMART,PEGS-2PEGS-2-BR,New Choco,New,,,,,5500.00,5500.00,0.00,Ruben Cuatrona,CreditCard,5500.00,Receipt #7eyJ,,,,,,,0.00,,,,,,,,0.00,,,,,,,1/4/2019 12:00:00 AM,No,"5 years parts, 2 years labor ($200)",Delivered,New,Stetson Country Christmas 12/6-16/18 Las Vegas (NV),Stetson Country Christmas 12/6-16/18 Las Vegas (NV),,,113269,"Pls add one more back pad and one pair of foot pads as the customer is senior
Printed 12/17/2018- Tina
//Confirmed $5,500 in Square.***Please double check the chair color. *** 12/17/18 Hitomi
1/10Maritza- Delivery confirmation received.",TX,1,8.25
12/15/2018 10:23:56 PM,Troy Vick,TX,77871,Relax2Zero 3D,DWA-9060USJ-9060BR-DEMO,Demo Choco,Demo,,,,,4000.00,4000.00,0.00,Ilene Maynard,CreditCard,4000.00,Receipt #JIfi,,,,,,,0.00,,,,,,,,0.00,,,,,,,1/7/2019 12:00:00 AM,No,"5 years parts, 1 year labor (Free)",Delivered,Demo,Stetson Country Christmas 12/6-16/18 Las Vegas (NV),Stetson Country Christmas 12/6-16/18 Las Vegas (NV),,,113271,"COnfirmed $4,000 in Square. **Please double check the chair color** 12/17/18 Hitomi
12/20/18-Courtesy call/ text completed- Cristina 10:59 am",TX,1,8.25
12/15/2018 10:35:24 PM,Mr & Mrs Friederich,IL,62258,Legacy 3D,DWA-9150USJ-9150BL,New Black,New,,,,,3700.00,3700.00,0.00,May Kam,CreditCard,3700.00,#y7nm,,,,,,,0.00,,,,,,,,0.00,,,,,,,12/29/2018 12:00:00 AM,No,"5 years parts, 1 year labor (Free)",Delivered,New,Stetson Country Christmas 12/6-16/18 Las Vegas (NV),Stetson Country Christmas 12/6-16/18 Las Vegas (NV),,"Need ask the customer chair color again , they may change , thanks!",113274,"**Please confirm the chair color**Confirmed $3,700 in Square.  - 12/17/18 Hitomi
12/20/18-Courtesy call/text completed- Cristina 11 am
12/31Maritza- Delivery confirmation received.",TX,1,8.25
12/15/2018 10:35:24 PM,Mr & Mrs Friederich,IL,62258,Tourmaline Pad for Legacy 3D,,,New,,,,,3700.00,3700.00,0.00,May Kam,CreditCard,3700.00,#y7nm,,,,,,,0.00,,,,,,,,0.00,,,,,,,12/29/2018 12:00:00 AM,No,no warranty,Delivered,New,Stetson Country Christmas 12/6-16/18 Las Vegas (NV),Stetson Country Christmas 12/6-16/18 Las Vegas (NV),,"Need ask the customer chair color again , they may change , thanks!",113274,"**Please confirm the chair color**Confirmed $3,700 in Square.  - 12/17/18 Hitomi
12/20/18-Courtesy call/text completed- Cristina 11 am
12/31Maritza- Delivery confirmation received.",TX,1,8.25
12/15/2018 10:37:04 PM,Patty Edler,WY,82007,PEGASUS 2 SMART,PEGS-2PEGS-2-BR,New Choco,New,,,,,6200.00,6200.00,0.00,Rodrigo Malabunga,CreditCard,6200.00,Receipt #PGwz,,,,,,,0.00,,,,,,,,0.00,,,,,,,12/23/2018 12:00:00 AM,No,"5 years parts, 3 years labor ($400)",Delivered,New,Stetson Country Christmas 12/6-16/18 Las Vegas (NV),Stetson Country Christmas 12/6-16/18 Las Vegas (NV),,,113276,"Confirmed $6,200 in Square,  will confirm branch 12/17/18 Hitomi
changed stated under CA. 12/18/18 Hitomi
12/18/18- Cristina Re- dispatched to June; June stated she would add to Sean's schedule for delivery 12/23/18-
12/26/2018  Asumi/received delivery confirmation",TX,1,8.25
12/15/2018 10:41:45 PM,Viki Friedrieh,WA,98582,Relax2Zero 3D,DWA-9060USJ-9060BL,New Black,New,,,,,4200.00,4200.00,0.00,Rolly San Jose,CreditCard,4200.00,SQ# x9Qv,,,,,,,0.00,,,,,,,,0.00,,,,,,,,No,"5 years parts, 1 year labor (Free)",Cancelled,,Stetson Country Christmas 12/6-16/18 Las Vegas (NV),Stetson Country Christmas 12/6-16/18 Las Vegas (NV),,,113277,,Not Dispatched,1,8.25
12/15/2018 10:47:00 PM,Mike Giannini,CA,93263,PEGASUS 2 SMART,PEGS-2PEGS-2-BR,New Choco,New,,,,,6900.00,6900.00,0.00,Ilene Maynard,CreditCard,6900.00,Receipt #R6OJ,,,,,,,0.00,,,,,,,,0.00,,,,,,,12/21/2018 12:00:00 AM,No,"5 years parts, 2 years labor ($200)",Delivered,New,Stetson Country Christmas 12/6-16/18 Las Vegas (NV),Stetson Country Christmas 12/6-16/18 Las Vegas (NV),,,113279,"will confirm SQUARE #/ needs to be signed on invoice since this was phone order 12/17/18 Hitomi
12/17/18 - confirmed $6,900 in Square - Receipt #R6OJ  --@3:23 PM Hitomi",CA,1,8.25
12/15/2018 10:56:10 PM,Anthony Simpson,NM,87401,PEGASUS 2 SMART,PEGS-2PEGS-2-BL,New Black,New,,,,,6900.00,6900.00,0.00,Rodrigo Malabunga,Synchrony,6900.00,,,6019170813298566,98593602,San Diego,48 months,,0.00,,,,,,,,0.00,,,,,,,,No,"5 years parts, 3 years labor ($400)",Scheduled,,Stetson Country Christmas 12/6-16/18 Las Vegas (NV),Stetson Country Christmas 12/6-16/18 Las Vegas (NV),,,113281,"Confirmed SYNC($7,500) and original.***PLease charge $6,900 before delivery and sales draft signed.***Rod requests, please DO NOT use 3rd party 12/17/18 Hitomi",TX,1,8.25
12/15/2018 11:03:16 PM,Richard Aaron,GA,30115,Relax2Zero 3D,DWA-9060USJ-9060BR,New Choco,New,,,,,4900.00,4900.00,0.00,Ilene Maynard,CreditCard,4900.00,SQ# fKts,,,,,,,0.00,,,,,,,,0.00,,,,,,,12/27/2018 12:00:00 AM,No,"5 years parts, 3 years labor ($400)",Delivered,New,Stetson Country Christmas 12/6-16/18 Las Vegas (NV),Stetson Country Christmas 12/6-16/18 Las Vegas (NV),,,113282,"Confirmed $4,900 in Square. **Please confirm the chair color **12/17/18 Hitomi
Received delivery confirmation ---  1/2/2019 Asumi",FL,1,8.25
12/15/2018 11:11:41 PM,William Helmer,NY,13662,Relax2Zero 3D,DWA-9060USJ-9060BL-DEMO,Demo Black,Demo,,,,,4000.00,4000.00,0.00,Ruben Cuatrona,CreditCard,2000.00,SQ# d8L6,,,,,,CreditCard,2000.00,#q2cM,,,,,,,0.00,,,,,,,1/9/2019 12:00:00 AM,No,"5 years parts, 2 years labor ($200)",Delivered,Demo,Stetson Country Christmas 12/6-16/18 Las Vegas (NV),Stetson Country Christmas 12/6-16/18 Las Vegas (NV),,,113283,"Confirmed $2,000 in Square. ***COD $2,000*** Please confirm the chair  color ***12/17/18 hitomi
12/20/18-Courtesy call / text complete- Cristina 11:04am
1/10Maritza Delivery confirmation received. COD 2000 collected square.",TX,1,8.25
12/15/2018 11:23:09 PM,Heather Maddox,WA,98837,PEGASUS 2 SMART,PEGS-2PEGS-2-BR-DEMO,Demo Choco,Demo,,,,,6000.00,6000.00,0.00,Ruben Cuatrona,Synchrony,6000.00,,,6019170813297782,98583708,San Diego,36 months,,0.00,,,,,,,,0.00,,,,,,,12/29/2018 12:00:00 AM,No,"5 years parts, 1 year labor (Free)",Delivered,Demo,Stetson Country Christmas 12/6-16/18 Las Vegas (NV),Stetson Country Christmas 12/6-16/18 Las Vegas (NV),"Authorization Code
026094

Account Number
••••••••••••7782

Tran/Promo Code
436 : 36 MONTH EQUAL PAYMENT NO INTEREST

Program Name
SYNCB SYNCHRONY HOME REVOLVING

Amount
$ 6000.00

Invoice Number
113284

Transaction Type
Purchase

Cardholder Name
HEATHER MADDOX",,113284,"Confirmed 	SYNC($6,600) and original. *** Please charge $6,000 before delivery and sales draft signed.***Please confirm the chair color. 12/17/18 Hitomi
12/20/18- couresty call/ text completed- Cristina 10:22 am
Scheduled Dec 29th free all day.  12pm 4pm
1/8Maritza Delivery confirmation received. Sales draft received as well.",WA,1,8.25
12/16/2018 12:09:04 AM,Marlowe Houllion,PA,16262,Relax2Zero 3D,DWA-9060USJ-9060BL,New Black,New,,,,,4600.00,4600.00,0.00,Rodrigo Malabunga,Synchrony,4600.00,,,6019170813298111,98587853,Huston,36 months,,0.00,,,,,,,,0.00,,,,,,,1/5/2019 12:00:00 AM,No,"5 years parts, 2 years labor ($200)",Delivered,New,Stetson Country Christmas 12/6-16/18 Las Vegas (NV),Stetson Country Christmas 12/6-16/18 Las Vegas (NV),"Authorization Code 
003355   1/3/2019 June",,113285,"Confirmed SYNC($6,500) and original.***Please charge $4,600 before delivery and sales draft signed. since this is phone order, please have invoice and synchrony form signed upon the delivery*** Please confirm the chair color 12/17/18 Hitomi
12/20/18-Courtesy call/ text completed- Cristina 11:06 am
1/18Maritza Delivery confirmation received including sales draft.",TX,1,8.25
12/16/2018 10:21:44 PM,Mrs Michelle Sharples,NV,89019,Legacy 3D,DWA-9150USJ-9150BL-DEMO,Demo Black,Demo,,,,,3700.00,3700.00,0.00,May Kam,CreditCard,50.00,#K39W,,,,,,COD,3650.00,,,,,,,,0.00,,,,,,,,No,"5 years parts, 1 year labor (Free)",Hold,,Stetson Country Christmas 12/6-16/18 Las Vegas (NV),Stetson Country Christmas 12/6-16/18 Las Vegas (NV),,"Pls confirm color before delivery , thanks; hold for three month for parents using",113369,"***Please confirm the chair color ***Confirmed $50.00 in Square. ***COD $3,650*** -Place on hold 12/17/18 Hitomi",NV,1,8.25
12/16/2018 10:21:44 PM,Mrs Michelle Sharples,NV,89019,Tourmaline Pad for Legacy 3D,,,New,,,,,3700.00,3700.00,0.00,May Kam,CreditCard,50.00,#K39W,,,,,,COD,3650.00,,,,,,,,0.00,,,,,,,,No,no warranty,Hold,,Stetson Country Christmas 12/6-16/18 Las Vegas (NV),Stetson Country Christmas 12/6-16/18 Las Vegas (NV),,"Pls confirm color before delivery , thanks; hold for three month for parents using",113369,"***Please confirm the chair color ***Confirmed $50.00 in Square. ***COD $3,650*** -Place on hold 12/17/18 Hitomi",NV,1,8.25
12/17/2018 10:21:54 AM,Viki Friedrieh,WA,98582,Relax2Zero 3D,DWA-9060USJ-9060BL,New Black,New,,,,,4200.00,4200.00,0.00,Rolly San Jose,CreditCard,4200.00,Receipt #x9Qv,,,,,,,0.00,,,,,,,,0.00,,,,,,,1/5/2019 12:00:00 AM,No,"5 years parts, 1 year labor (Free)",Delivered,New,Stetson Country Christmas 12/6-16/18 Las Vegas (NV),Stetson Country Christmas 12/6-16/18 Las Vegas (NV),,,113387,"CORRECTION FOR #113277 
delivery after 01/01/2019
Confirmed $4,200 in Square.**Please confirm the chair color address. *** 12/17/18 Hitomi
12/17/18- Courtesy call completed- Cristina 10:39 am Confirmed Chair color: Black
Scheduled Dec 5th 10am to 12pm
1/8Maritza- Delivery confirmation received.",WA,1,8.25
12/18/2018 3:25:31 PM,Jesse Riedel,CA,95327,Relax2Zero 3D,DWA-9060USJ-9060BR,New Choco,New,,,,,4500.00,4500.00,0.00,Rolly San Jose,Synchrony,4500.00,,,6019170813300164,98625674,Las Vegas,48 months,,0.00,,,,,,,,0.00,,,,,,,1/8/2019 12:00:00 AM,No,"5 years parts, 2 years labor ($200)",Delivered,New,Stetson Country Christmas 12/6-16/18 Las Vegas (NV),Stetson Country Christmas 12/6-16/18 Las Vegas (NV),"Authorization Code
003813
PC:448",,113456,"SYNC approved $5,500. Synchrony application form needs to be signed upon the delivery. ***Please charge $4,500 before delivery and sales draft and synchrony application form signed.***  12/19/18 Hitomi
1/16Maritza Delivery confirmation received with sales draft",CA,1,8.25
12/18/2018 3:53:47 PM,Shawna Morrison,LA,70657,Relax2Zero 3D,DWA-9060USJ-9060BL,New Black,New,,,,,4000.00,4000.00,0.00,Ruben Cuatrona,CreditCard,4000.00,Sq #8cGu,,,,,,,0.00,,,,,,,,0.00,,,,,,,1/4/2019 12:00:00 AM,No,"5 years parts, 2 years labor ($200)",Delivered,New,Stetson Country Christmas 12/6-16/18 Las Vegas (NV),Stetson Country Christmas 12/6-16/18 Las Vegas (NV),,,113458,"Confirmed $4,000 in Square. (#113458 and #113460 together )--12/19/18 Hitomi
12/20/18- Courtesy call/ text completed- 12/20/18 10:34 am
1/8Maritza- Delivery confirmation received for the order number #113460 which is grouped with this order. Serial numbers might be flipped with other order.",TX,1,8.25
12/18/2018 4:03:00 PM,Jim Linkous,OR,97124,Relax2Zero 3D,DWA-9060USJ-9060BL,New Black,New,,,,,4000.00,4000.00,0.00,Ruben Cuatrona,CreditCard,4000.00,Sq #8cGu,,,,,,,0.00,,,,,,,,0.00,,,,,,,1/5/2019 12:00:00 AM,No,"5 years parts, 2 years labor ($200)",Delivered,New,Stetson Country Christmas 12/6-16/18 Las Vegas (NV),Stetson Country Christmas 12/6-16/18 Las Vegas (NV),,,113460,"This is the second chair for 
Sq # 8cGu
//Confirmed $4,000 in Square. (#113458 and #113460 together )--12/19/18 Hitomi
12/20/18- Courtesy call completed- Cristina- 10:20 am
1/9Maritza Delivery confirmation received. Serial number and delivery date is swapped with order #113458 which is linked to this order.",WA,1,8.25
12/18/2018 4:13:44 PM,Robin Rippy scott,TX,78620,PEGASUS 2 SMART,PEGS-2PEGS-2-BR-DEMO,Demo Choco,Demo,,,,,5760.00,5760.00,0.00,Ruben Cuatrona,Synchrony,5760.00,,,6019170813294762,98621134,San Diego,36 months,,0.00,,,,,,,,0.00,,,,,,,12/18/2018 12:00:00 AM,No,"5 years parts, 2 years labor ($200)",Delivered,Demo,Stetson Country Christmas 12/6-16/18 Las Vegas (NV),Stetson Country Christmas 12/6-16/18 Las Vegas (NV),"Authorization Code 
028410   12/28/2018  June",,113463,"Confirmed SYNC($7,200) and original. ***Please charge $5,760 before delivery and sales draft signed.*** 12/19/18 Hitomi
12/20/18- Courtesy call/ text completed-Cristina 10:41 am
Received delivery confirmation --- 1/8/2019 Asumi",TX,1,8.25
