﻿Original Event Name,Event Name,Sales Person,Order Number,Order Date,Customer Name,State,Zip,Product Name,Color,Product Status,QTY,Tax,Total Before Tax,Order Total,Primary Payment Method,Second Payment Method,Thirdl Payment Method,Warranty,Order Items,Pick up,Delivered On,Order Status,Chair Type,Order Notes,Private Note,Branch,No Tax,Actual Tax Rate,SKU,Primary Payment Balance,Primary Authorize Number,Primary Purchase Order Number,Primary Synchrony Account Number,Primary Synchrony Application Key,Primary Synchrony Account Info,Primary Synchrony Term,Second Payment Balance,Second Authorize Number,Second Purchase Order Number,Second Synchrony Account Number,Second Synchrony Application Key,Second Synchrony Account Info,Second SynchronyTerm,Third Payment Balance,Third Authorize Number,Third Purchase Order Number,Third Synchrony Account Number,Third Synchrony Application Key,Third Synchrony Account Info,Third Synchrony Term
"Sam's Club #6439 Odessa, TX (9/6-9/16/18)","Sam's Club #6439 Odessa, TX (9/6-9/16/18)",Chris Tavira,109155,9/8/2018 8:49:57 PM,Wendy Denney,TX,79706,Shogun Neck & Back Massger,New,New,1,16.50,199.98,216.48,CreditCard,,,"2 years parts, 1 year labor for Small Items","Shogun Neck &amp; Back Massger,",YES,,Delivered,,Invoice # 12907,,TX,0,8.25,USJ-874USJ-874,216.48,TC # 6799 9872 9607 9594 4013 2,,,,,,0.00,,,,,,,0.00,,,,,,
"Sam's Club #6439 Odessa, TX (9/6-9/16/18)","Sam's Club #6439 Odessa, TX (9/6-9/16/18)",Chris Tavira,109157,9/8/2018 9:10:39 PM,Belinda Henry,TX,79731,Shogun Neck & Back Massger,New,New,1,16.50,199.98,216.48,CreditCard,,,"2 years parts, 1 year labor for Small Items","Shogun Neck &amp; Back Massger,",YES,,Delivered,,12922,,TX,0,8.25,USJ-874USJ-874,216.48,TC # 0781 6541 0213 8750 6651 1,,,,,,0.00,,,,,,,0.00,,,,,,
"Sam's Club #6439 Odessa, TX (9/6-9/16/18)","Sam's Club #6439 Odessa, TX (9/6-9/16/18)",Chris Tavira,109158,9/8/2018 9:16:40 PM,Joella Smart,TX,79768,Shogun Neck & Back Massger,New,New,1,16.50,199.98,216.48,CreditCard,,,"2 years parts, 1 year labor for Small Items","Shogun Neck &amp; Back Massger,",YES,,Delivered,,Invoice # 12923,,TX,0,8.25,USJ-874USJ-874,216.48,TC # 5643 5075 1124 4643 0972 5,,,,,,0.00,,,,,,,0.00,,,,,,
"Sam's Club #6439 Odessa, TX (9/6-9/16/18)","Sam's Club #6439 Odessa, TX (9/6-9/16/18)",Chris Tavira,109159,9/8/2018 9:21:28 PM,Joella Smart,TX,79768,Foot Vibe Pro,,New,1,9.07,109.99,119.06,CreditCard,,,"2 years parts, 1 year labor for Small Items","Foot Vibe Pro,",YES,,Delivered,,Invoice # 12923,,TX,0,8.25,USJ-871,119.06,TC # 5643 5075 1124 4643 0972 5,,,,,,0.00,,,,,,,0.00,,,,,,
"Sam's Club #6439 Odessa, TX (9/6-9/16/18)","Sam's Club #6439 Odessa, TX (9/6-9/16/18)",Chris Tavira,109160,9/8/2018 9:25:41 PM,Ofelia McGinty,TX,79763,Foot Vibe Pro,,New,1,9.07,109.99,119.06,CreditCard,,,"2 years parts, 1 year labor for Small Items","Foot Vibe Pro,",YES,,Delivered,,Invoice # 12902,,TX,0,8.25,USJ-871,119.06,TC # 2881 3441 5220 8730 0550 1,,,,,,0.00,,,,,,,0.00,,,,,,
"Sam's Club #6439 Odessa, TX (9/6-9/16/18)","Sam's Club #6439 Odessa, TX (9/6-9/16/18)",Chris Tavira,109161,9/8/2018 9:28:35 PM,Francisco Munoz,TX,79761,Foot Vibe Pro,,New,1,9.07,109.99,119.06,CreditCard,,,"2 years parts, 1 year labor for Small Items","Foot Vibe Pro,",YES,,Delivered,,Invoice # 12903,,TX,0,8.25,USJ-871,119.06,TC # 5643 5075 1124 4643 0972 5,,,,,,0.00,,,,,,,0.00,,,,,,
"Sam's Club #6439 Odessa, TX (9/6-9/16/18)","Sam's Club #6439 Odessa, TX (9/6-9/16/18)",Chris Tavira,109162,9/8/2018 9:32:26 PM,Belinda Bowens,TX,79766,Foot Vibe Pro,,New,1,9.07,109.99,119.06,CreditCard,,,"2 years parts, 1 year labor for Small Items","Foot Vibe Pro,",YES,,Delivered,,Invoice # 12904,,TX,0,8.25,USJ-871,119.06,TC # 8999 3862 5617 9554 3815 2,,,,,,0.00,,,,,,,0.00,,,,,,
"Sam's Club #6439 Odessa, TX (9/6-9/16/18)","Sam's Club #6439 Odessa, TX (9/6-9/16/18)",Chris Tavira,109163,9/8/2018 9:39:05 PM,Guadalupe Herrera,TX,79761,Orbit for Sam's ,Demo Black(Box),Demo,1,222.59,2698.00,2920.59,CreditCard,,,"3 years parts, 1 year labor (Free)","Orbit for Sam's ,",No,9/18/2018 12:00:00 AM,Delivered,,Invoice # 12941,9/10Maritza Text @ 3:18PM,TX,0,8.25,ORBT-1DORBT-1BL-BOX,2920.59,TC # 6939 9680 2767 9959 4011 72,,,,,,0.00,,,,,,,0.00,,,,,,
"Sam's Club #6439 Odessa, TX (9/6-9/16/18)","Sam's Club #6439 Odessa, TX (9/6-9/16/18)",Chris Tavira,109164,9/8/2018 9:42:13 PM,Mohamad Hjayd,TX,79765,Foot Vibe Pro,,New,1,9.07,109.99,119.06,CreditCard,,,"2 years parts, 1 year labor for Small Items","Foot Vibe Pro,",YES,,Delivered,,Invoice # 12905,,TX,0,8.25,USJ-871,119.06,TC # 7016 3508 7998 1027 1541 8,,,,,,0.00,,,,,,,0.00,,,,,,
"Sam's Club #6439 Odessa, TX (9/6-9/16/18)","Sam's Club #6439 Odessa, TX (9/6-9/16/18)",Chris Tavira,109165,9/8/2018 9:46:07 PM,Mohamad Hjyad,TX,79765,Shogun Neck & Back Massger,New,New,1,16.50,199.98,216.48,CreditCard,,,"2 years parts, 1 year labor for Small Items","Shogun Neck &amp; Back Massger,",YES,,Delivered,,Invoice # 12924,,TX,0,8.25,USJ-874USJ-874,216.48,TC # 7016 3508 7998 1027 1541 8,,,,,,0.00,,,,,,,0.00,,,,,,
"Sam's Club #6439 Odessa, TX (9/6-9/16/18)","Sam's Club #6439 Odessa, TX (9/6-9/16/18)",Chris Tavira,109166,9/8/2018 9:51:59 PM,Marta Castañon,TX,79706,Shogun Neck & Back Massger,New,New,1,16.50,199.98,216.48,CreditCard,,,"2 years parts, 1 year labor (Free)","Shogun Neck &amp; Back Massger,",YES,,Delivered,,Invoice # 12925,,TX,0,8.25,USJ-874USJ-874,216.48,TC # 4670 6630 6449 7992 0233 0,,,,,,0.00,,,,,,,0.00,,,,,,
"Sam's Club #6439 Odessa, TX (9/6-9/16/18)","Sam's Club #6439 Odessa, TX (9/6-9/16/18)",Chris Tavira,109167,9/8/2018 9:55:22 PM,Eliseo Bello,TX,79761,Foot Vibe Pro,,New,1,9.07,109.99,119.06,CreditCard,,,"2 years parts, 1 year labor for Small Items","Foot Vibe Pro,",YES,,Delivered,,Invoice # 12906,,TX,0,8.25,USJ-871,119.06,TC # 7898 7732 9809 5306 9205 4,,,,,,0.00,,,,,,,0.00,,,,,,
"Sam's Club #6439 Odessa, TX (9/6-9/16/18)","Sam's Club #6439 Odessa, TX (9/6-9/16/18)",Chris Tavira,109169,9/8/2018 10:00:15 PM,Gloria Pena,TX,79762,Shogun Neck & Back Massger,New,New,1,16.50,199.98,216.48,CreditCard,,,"2 years parts, 1 year labor for Small Items","Shogun Neck &amp; Back Massger,",YES,,Delivered,,Invoice # 12926,,TX,0,8.25,USJ-874USJ-874,216.48,TC # 3304 1157 7397 2445 9088 9,,,,,,0.00,,,,,,,0.00,,,,,,
"Sam's Club #6439 Odessa, TX (9/6-9/16/18)","Sam's Club #6439 Odessa, TX (9/6-9/16/18)",Chris Tavira,109170,9/8/2018 10:03:39 PM,Daniel Rodriguez,TX,79772,Foot Vibe Pro,,New,1,9.07,109.99,119.06,CreditCard,,,"2 years parts, 1 year labor (Free)","Foot Vibe Pro,",YES,,Delivered,,Invoice # 12908,,TX,0,8.25,USJ-871,119.06,TC # 8279 8820 1699 9514 7419 2,,,,,,0.00,,,,,,,0.00,,,,,,
"Sam's Club #6439 Odessa, TX (9/6-9/16/18)","Sam's Club #6439 Odessa, TX (9/6-9/16/18)",Chris Tavira,109172,9/8/2018 10:12:46 PM,Maria Lujan,TX,79762,Foot Vibe Pro,,New,1,9.07,109.99,119.06,CreditCard,,,"2 years parts, 1 year labor for Small Items","Foot Vibe Pro,",YES,,Delivered,,Invoice # 12909,,TX,0,8.25,USJ-871,119.06,TC # 8779 2800 2699 9554 5216 2,,,,,,0.00,,,,,,,0.00,,,,,,
"Sam's Club #6439 Odessa, TX (9/6-9/16/18)","Sam's Club #6439 Odessa, TX (9/6-9/16/18)",Chris Tavira,109173,9/8/2018 10:17:33 PM,Sarina Sarina,TX,79762,Shogun Neck & Back Massger,New,New,1,16.50,199.98,216.48,CreditCard,,,"2 years parts, 1 year labor for Small Items","Shogun Neck &amp; Back Massger,",YES,,Delivered,,Invoice # 12927,,TX,0,8.25,USJ-874USJ-874,216.48,TC # 7415 7328 9500 0279 0568 7,,,,,,0.00,,,,,,,0.00,,,,,,
"Sam's Club #6439 Odessa, TX (9/6-9/16/18)","Sam's Club #6439 Odessa, TX (9/6-9/16/18)",Chris Tavira,109174,9/8/2018 10:22:04 PM,Beverly Thomas,TX,79772,Vitality Plate for Sam's,New,New,1,37.95,459.99,497.94,CreditCard,,,"2 years parts, 1 year labor for Small Items","Vitality Plate for Sam's,",YES,,Delivered,,Invoice # 12945,,TX,0,8.25,USJ-849USJ-849,497.94,TC # 6856 7556 8943 1037 2640 8,,,,,,0.00,,,,,,,0.00,,,,,,
"Sam's Club #6439 Odessa, TX (9/6-9/16/18)","Sam's Club #6439 Odessa, TX (9/6-9/16/18)",Chris Tavira,109175,9/8/2018 10:26:39 PM,Sergio Moreno,TX,79764,Shogun Neck & Back Massger,New,New,1,16.50,199.98,216.48,CreditCard,,,"2 years parts, 1 year labor for Small Items","Shogun Neck &amp; Back Massger,",YES,,Delivered,,Invoice # 12928,,TX,0,8.25,USJ-874USJ-874,216.48,TC # 9035 7358 6510 0269 8361 7,,,,,,0.00,,,,,,,0.00,,,,,,
"Sam's Club #6439 Odessa, TX (9/6-9/16/18)","Sam's Club #6439 Odessa, TX (9/6-9/16/18)",Chris Tavira,109176,9/8/2018 10:30:25 PM,Isabel Esparza,TX,79714,Foot Vibe Pro,,New,1,9.07,109.99,119.06,CreditCard,,,"2 years parts, 1 year labor for Small Items","Foot Vibe Pro,",YES,,Delivered,,Invoice # 12911,,TX,0,8.25,USJ-871,119.06,TC # 5135 8348 4559 0219 9662 7,,,,,,0.00,,,,,,,0.00,,,,,,
"Sam's Club #6439 Odessa, TX (9/6-9/16/18)","Sam's Club #6439 Odessa, TX (9/6-9/16/18)",Chris Tavira,109177,9/8/2018 10:34:20 PM,Adrian Carmona,TX,79761,Shogun Neck & Back Massger,New,New,1,16.50,199.98,216.48,CreditCard,,,"2 years parts, 1 year labor for Small Items","Shogun Neck &amp; Back Massger,",YES,,Delivered,,Invoice # 12929,,TX,0,8.25,USJ-874USJ-874,216.48,TC # 90566586 6998 1047 1547 8,,,,,,0.00,,,,,,,0.00,,,,,,
"Sam's Club #6439 Odessa, TX (9/6-9/16/18)","Sam's Club #6439 Odessa, TX (9/6-9/16/18)",Chris Tavira,109178,9/8/2018 10:40:11 PM,Marcela Macias,TX,79761,Foot Vibe Pro,,New,1,9.07,109.99,119.06,CreditCard,,,"2 years parts, 1 year labor for Small Items","Foot Vibe Pro,",YES,,Delivered,,Invoice # 12910,,TX,0,8.25,USJ-871,119.06,TC # 3122 3275 1046 6871 7991 3,,,,,,0.00,,,,,,,0.00,,,,,,
"Sam's Club #6439 Odessa, TX (9/6-9/16/18)","Sam's Club #6439 Odessa, TX (9/6-9/16/18)",Chris Tavira,109179,9/8/2018 10:44:19 PM,Marcela Macias,TX,79761,Shogun Neck & Back Massger,New,New,1,16.50,199.98,216.48,CreditCard,,,"2 years parts, 1 year labor for Small Items","Shogun Neck &amp; Back Massger,",YES,,Delivered,,Invoice # 12930,,TX,0,8.25,USJ-874USJ-874,216.48,TC # 3122 3275 1046 6871 7991 3,,,,,,0.00,,,,,,,0.00,,,,,,
"Sam's Club #6439 Odessa, TX (9/6-9/16/18)","Sam's Club #6439 Odessa, TX (9/6-9/16/18)",Chris Tavira,109180,9/8/2018 10:49:28 PM,Mary Cruz,TX,79762,Orbit for Sam's ,Demo Black,Demo,1,222.59,2698.00,2920.59,CreditCard,,,"3 years parts, 1 year labor (Free)","Orbit for Sam's ,",No,9/16/2018 12:00:00 AM,Delivered,,Invoice # 12942,9/10Maritza Courtesy text + email @ 3:20PM,TX,0,8.25,ORBT-1ORBT-1BL-DEMO,2920.59,TC # 3224 1319 7537 9242 5788 09,,,,,,0.00,,,,,,,0.00,,,,,,
"Sam's Club #6439 Odessa, TX (9/6-9/16/18)","Sam's Club #6439 Odessa, TX (9/6-9/16/18)",Chris Tavira,109258,9/10/2018 5:26:47 PM,John Smith,TX,79763,Foot Vibe Pro,,New,1,9.07,109.99,119.06,CreditCard,,,"2 years parts, 1 year labor for Small Items","Foot Vibe Pro,",YES,,Delivered,,Invoice # 12912,,TX,0,8.25,USJ-871,119.06,TC # 6040 9641 5477 7942 2035 0,,,,,,0.00,,,,,,,0.00,,,,,,
"Sam's Club #6439 Odessa, TX (9/6-9/16/18)","Sam's Club #6439 Odessa, TX (9/6-9/16/18)",Chris Tavira,109259,9/10/2018 5:35:56 PM,Misty Godett,TX,79731,Foot Vibe Pro,,New,1,9.07,109.99,119.06,CreditCard,,,"2 years parts, 1 year labor for Small Items","Foot Vibe Pro,",YES,,Delivered,,Invoice # 12913,,TX,0,8.25,USJ-871,119.06,TC # 7577 8974 1771 3118 6829 6,,,,,,0.00,,,,,,,0.00,,,,,,
"Sam's Club #6439 Odessa, TX (9/6-9/16/18)","Sam's Club #6439 Odessa, TX (9/6-9/16/18)",Chris Tavira,109260,9/10/2018 5:45:40 PM,Ana Camacho,TX,79765,Vitality Plate for Sam's,Demo,Demo,1,33.00,399.99,432.99,CreditCard,,,"2 years parts, 1 year labor for Small Items","Vitality Plate for Sam's,",YES,,Delivered,,Invoice # 12944,,TX,0,8.25,USJ-849USJ-849-DEMO,432.99,TC # 6096 0536 5953 1097 3444 8,,,,,,0.00,,,,,,,0.00,,,,,,
"Sam's Club #6439 Odessa, TX (9/6-9/16/18)","Sam's Club #6439 Odessa, TX (9/6-9/16/18)",Chris Tavira,109261,9/10/2018 6:00:09 PM,Simona Quiñonez,TX,79761,Orbit for Sam's ,New Choco,New,1,247.42,2998.98,3246.40,CreditCard,,,"3 years parts, 1 year labor (Free)","Orbit for Sam's ,",No,9/18/2018 12:00:00 AM,Delivered,,Invoice # 12943,09/11/18- Courtesy call completed- Provided TX #- Cristina 12:06 pm (Spanish Speaker),TX,0,8.25,ORBT-1ORBT-1CH,3246.40,TC # 4659 6586 0260 2951 4611 22,,,,,,0.00,,,,,,,0.00,,,,,,
"Sam's Club #6439 Odessa, TX (9/6-9/16/18)","Sam's Club #6439 Odessa, TX (9/6-9/16/18)",Chris Tavira,109262,9/10/2018 6:03:41 PM,Magali Najera,TX,79764,Shogun Neck & Back Massger,New,New,1,16.50,199.98,216.48,CreditCard,,,"2 years parts, 1 year labor for Small Items","Shogun Neck &amp; Back Massger,",YES,,Delivered,,Invoice # 12931,,TX,0,8.25,USJ-874USJ-874,216.48,TC # 8688 7752 5829 5335 4600 4,,,,,,0.00,,,,,,,0.00,,,,,,
"Sam's Club #6439 Odessa, TX (9/6-9/16/18)","Sam's Club #6439 Odessa, TX (9/6-9/16/18)",Chris Tavira,109263,9/10/2018 6:08:24 PM,Pattie Phillips,TX,79763,Shogun Neck & Back Massger,New,New,1,16.50,199.98,216.48,CreditCard,,,"2 years parts, 1 year labor for Small Items","Shogun Neck &amp; Back Massger,",YES,,Delivered,,Invoice # 12932,,TX,0,8.25,USJ-874USJ-874,216.48,TC # 6288 0762 9809 5316 4607 4,,,,,,0.00,,,,,,,0.00,,,,,,
"Sam's Club #6439 Odessa, TX (9/6-9/16/18)","Sam's Club #6439 Odessa, TX (9/6-9/16/18)",Chris Tavira,109264,9/10/2018 6:11:57 PM,Lewis Marin,TX,79762,Foot Vibe Pro,,New,1,9.07,109.99,119.06,CreditCard,,,"2 years parts, 1 year labor for Small Items","Foot Vibe Pro,",YES,,Delivered,,Invoice # 12914,,TX,0,8.25,USJ-871,119.06,TC # 0613 6019 2172 4653 4377 5,,,,,,0.00,,,,,,,0.00,,,,,,
"Sam's Club #6439 Odessa, TX (9/6-9/16/18)","Sam's Club #6439 Odessa, TX (9/6-9/16/18)",Chris Tavira,109265,9/10/2018 6:16:39 PM,Wissam El Hojj,TX,77407,Shogun Neck & Back Massger,New,New,1,16.50,199.98,216.48,CreditCard,,,"2 years parts, 1 year labor for Small Items","Shogun Neck &amp; Back Massger,",YES,,Delivered,,Invoice # 12933,,TX,0,8.25,USJ-874USJ-874,216.48,TC # 3934 9157 5360 2445 2386 9,,,,,,0.00,,,,,,,0.00,,,,,,
"Sam's Club #6439 Odessa, TX (9/6-9/16/18)","Sam's Club #6439 Odessa, TX (9/6-9/16/18)",Chris Tavira,109266,9/10/2018 6:21:09 PM,Jerry Rodriguez,NM,88240,Foot Vibe Pro,,New,1,9.07,109.99,119.06,CreditCard,,,"2 years parts, 1 year labor for Small Items","Foot Vibe Pro,",YES,,Delivered,,Invoice # 12915,,TX,0,8.25,USJ-871,119.06,TC # 7896 4596 2911 1047 3946 8,,,,,,0.00,,,,,,,0.00,,,,,,
"Sam's Club #6439 Odessa, TX (9/6-9/16/18)","Sam's Club #6439 Odessa, TX (9/6-9/16/18)",Chris Tavira,109267,9/10/2018 6:24:11 PM,Ricardo Romero,CA,93306,Shogun Neck & Back Massger,New,New,1,16.50,199.98,216.48,CreditCard,,,"2 years parts, 1 year labor for Small Items","Shogun Neck &amp; Back Massger,",YES,,Delivered,,Invoice # 12934,,CA,0,8.25,USJ-874USJ-874,216.48,TC # 1421 0413 9268 8770 7352 1,,,,,,0.00,,,,,,,0.00,,,,,,
"Sam's Club #6439 Odessa, TX (9/6-9/16/18)","Sam's Club #6439 Odessa, TX (9/6-9/16/18)",Chris Tavira,109268,9/10/2018 6:27:16 PM,Cecilia Estrada,TX,79763,Foot Vibe Pro,,New,1,9.07,109.99,119.06,CreditCard,,,"2 years parts, 1 year labor for Small Items","Foot Vibe Pro,",YES,,Delivered,,Invoice # 12916,,TX,0,8.25,USJ-871,119.06,TC # 9917 7993 4870 5313 8572 06,,,,,,0.00,,,,,,,0.00,,,,,,
"Sam's Club #6439 Odessa, TX (9/6-9/16/18)","Sam's Club #6439 Odessa, TX (9/6-9/16/18)",Chris Tavira,109269,9/10/2018 6:30:16 PM,Olga Martinez,TX,79763,Foot Vibe Pro,,New,1,9.07,109.99,119.06,CreditCard,,,"2 years parts, 1 year labor for Small Items","Foot Vibe Pro,",YES,,Delivered,,Invoice # 12917,,TX,0,8.25,USJ-871,119.06,TC # 8877 7914 9795 3108 3220 6,,,,,,0.00,,,,,,,0.00,,,,,,
"Sam's Club #6439 Odessa, TX (9/6-9/16/18)","Sam's Club #6439 Odessa, TX (9/6-9/16/18)",Chris Tavira,109274,9/11/2018 8:42:04 AM,Kristi Hamrick,TX,79762,Shogun Neck & Back Massger,Demo,Demo,1,14.85,179.98,194.83,CreditCard,,,"2 years parts, 1 year labor for Small Items","Shogun Neck &amp; Back Massger,",YES,,Delivered,,Invoice # 12935,,TX,0,8.25,USJ-874USJ-874-DEMO,194.83,TC # 3355 0378 0578 0299 2167 7,,,,,,0.00,,,,,,,0.00,,,,,,
"Sam's Club #6439 Odessa, TX (9/6-9/16/18)","Sam's Club #6439 Odessa, TX (9/6-9/16/18)",Chris Tavira,109275,9/11/2018 8:51:36 AM,Orlando Urquidi,TX,79762,Symphony,New Choco,New,1,437.17,5299.00,5736.17,CreditCard,,,"3 years parts, 1 year labor (Free)","Symphony,",No,9/19/2018 12:00:00 AM,Delivered,,Invoice # 12966,"09/11/18  11:42 pm 
Updated customers number after speaking to Chris T.(432) 559- 9340; Courtesy call completed- Cristina",TX,0,8.25,USJ-9300Symphony-BW,5736.17,TC # 4087 8896 4375 3310 8942 26,,,,,,0.00,,,,,,,0.00,,,,,,
"Sam's Club #6439 Odessa, TX (9/6-9/16/18)","Sam's Club #6439 Odessa, TX (9/6-9/16/18)",Chris Tavira,109276,9/11/2018 8:57:02 AM,Linda Miller,TX,79761,Shogun Neck & Back Massger,New,New,1,16.50,199.98,216.48,CreditCard,,,"2 years parts, 1 year labor for Small Items","Shogun Neck &amp; Back Massger,",YES,,Delivered,,Invoice # 12936,,TX,0,8.25,USJ-874USJ-874,216.48,TC # 6595 0378 9561 0219 1962 7,,,,,,0.00,,,,,,,0.00,,,,,,
"Sam's Club #6439 Odessa, TX (9/6-9/16/18)","Sam's Club #6439 Odessa, TX (9/6-9/16/18)",Chris Tavira,109277,9/11/2018 9:01:13 AM,Joe Torres,TX,79765,Foot Vibe Pro,,New,1,9.07,109.99,119.06,CreditCard,,,"2 years parts, 1 year labor for Small Items","Foot Vibe Pro,",YES,,Delivered,,Invoice # 12918,,TX,0,8.25,USJ-871,119.06,TC # 0033 7099 0124 4603 6377 5,,,,,,0.00,,,,,,,0.00,,,,,,
"Sam's Club #6439 Odessa, TX (9/6-9/16/18)","Sam's Club #6439 Odessa, TX (9/6-9/16/18)",Chris Tavira,109299,9/11/2018 8:46:41 PM,Delia Cruz,TX,79744,Foot Vibe Pro,,New,1,9.07,109.99,119.06,CreditCard,,,"2 years parts, 1 year labor for Small Items","Foot Vibe Pro,",YES,,Delivered,,Invoice # 12919,,TX,0,8.25,USJ-871,119.06,TC # 2232 2245 5094 6891 4196 3,,,,,,0.00,,,,,,,0.00,,,,,,
"Sam's Club #6439 Odessa, TX (9/6-9/16/18)","Sam's Club #6439 Odessa, TX (9/6-9/16/18)",Chris Tavira,109300,9/11/2018 8:53:17 PM,Ron Stockton,TX,79761,Orbit for Sam's ,New Black,New,1,247.42,2998.98,3246.40,CreditCard,,,"3 years parts, 1 year labor (Free)","Orbit for Sam's ,",No,9/18/2018 12:00:00 AM,Delivered,,Invoice# 12980,,TX,0,8.25,ORBT-1ORBT-1BL,3246.40,TC # 1082 3322 5705 3683 1199 53,,,,,,0.00,,,,,,,0.00,,,,,,
"Sam's Club #6439 Odessa, TX (9/6-9/16/18)","Sam's Club #6439 Odessa, TX (9/6-9/16/18)",Chris Tavira,109301,9/12/2018 8:18:42 AM,Michael Gomez,TX,79762,Shogun Neck & Back Massger,New,New,1,16.50,199.98,216.48,CreditCard,,,"2 years parts, 1 year labor for Small Items","Shogun Neck &amp; Back Massger,",YES,,Delivered,,Invoice # 12937,,TX,0,8.25,USJ-874USJ-874,216.48,TC # 6595 0378 9561 0219 1962 7,,,,,,0.00,,,,,,,0.00,,,,,,
"Sam's Club #6439 Odessa, TX (9/6-9/16/18)","Sam's Club #6439 Odessa, TX (9/6-9/16/18)",Chris Tavira,109344,9/13/2018 9:12:49 PM,Doreen Nat,TX,79763,Foot Vibe Pro,,New,1,9.07,109.99,119.06,CreditCard,,,"2 years parts, 1 year labor for Small Items","Foot Vibe Pro,",YES,,Delivered,,Invoice # 12920,,TX,0,8.25,USJ-871,119.06,TC # 2752 7235 3046 6841 6195 3,,,,,,0.00,,,,,,,0.00,,,,,,
"Sam's Club #6439 Odessa, TX (9/6-9/16/18)","Sam's Club #6439 Odessa, TX (9/6-9/16/18)",Chris Tavira,109345,9/13/2018 9:17:20 PM,Jason Garduño,TX,79777,Symphony,Demo (Box) Choco,Demo,1,379.42,4599.00,4978.42,CreditCard,,,"3 years parts, 1 year labor (Free)","Symphony,",No,9/18/2018 12:00:00 AM,Delivered,,Invoice # 12982,9/14Maritza Courtesy email + text @ 4:08PM,TX,0,8.25,USJ-9300Symphony-BW-DEMOBX,4978.42,TC # 3401 5843 3429 6873 0935 31,,,,,,0.00,,,,,,,0.00,,,,,,
"Sam's Club #6439 Odessa, TX (9/6-9/16/18)","Sam's Club #6439 Odessa, TX (9/6-9/16/18)",Chris Tavira,109346,9/13/2018 9:22:00 PM,Armando Salgado,TX,79720,Foot Vibe Pro,,New,1,9.07,109.99,119.06,CreditCard,,,"2 years parts, 1 year labor for Small Items","Foot Vibe Pro,",YES,,Delivered,,Invoice # 12921,,TX,0,8.25,USJ-871,119.06,TC # 4231 9403 4296 8740 3354 1,,,,,,0.00,,,,,,,0.00,,,,,,
"Sam's Club #6439 Odessa, TX (9/6-9/16/18)","Sam's Club #6439 Odessa, TX (9/6-9/16/18)",Chris Tavira,109347,9/13/2018 9:26:24 PM,Imelda Niño,TX,79761,Foot Vibe Pro,,New,1,9.07,109.99,119.06,CreditCard,,,"2 years parts, 1 year labor for Small Items","Foot Vibe Pro,",YES,,Delivered,,Invoice #12962,,TX,0,8.25,USJ-871,119.06,TC # 6908 5712 8819 5306 6205 4,,,,,,0.00,,,,,,,0.00,,,,,,
"Sam's Club #6439 Odessa, TX (9/6-9/16/18)","Sam's Club #6439 Odessa, TX (9/6-9/16/18)",Chris Tavira,109348,9/13/2018 9:30:28 PM,Imelda Niño,TX,79761,Shogun Neck & Back Massger,Demo,Demo,1,14.85,179.98,194.83,CreditCard,,,"2 years parts, 1 year labor for Small Items","Shogun Neck &amp; Back Massger,",YES,,Delivered,,Invoice # 12987,,TX,0,8.25,USJ-874USJ-874-DEMO,194.83,TC # 6908 5712 8819 5306 6205 4,,,,,,0.00,,,,,,,0.00,,,,,,
"Sam's Club #6439 Odessa, TX (9/6-9/16/18)","Sam's Club #6439 Odessa, TX (9/6-9/16/18)",Chris Tavira,109394,9/15/2018 6:19:32 PM,Genaro Rocha,TX,79731,Orbit for Sam's ,New Choco,New,1,247.42,2998.98,3246.40,CreditCard,,,"3 years parts, 1 year labor (Free)","Orbit for Sam's ,",No,9/19/2018 12:00:00 AM,Delivered,,Invoice # 12981,9/17Maritza Courtesy call VM @ 4:30PM,TX,0,8.25,ORBT-1ORBT-1CH,3246.40,TC # 0241 9142 3825 6871 0005 31,,,,,,0.00,,,,,,,0.00,,,,,,
"Sam's Club #6439 Odessa, TX (9/6-9/16/18)","Sam's Club #6439 Odessa, TX (9/6-9/16/18)",Chris Tavira,109395,9/15/2018 6:22:47 PM,Elia Rubio,TX,79763,Shogun Neck & Back Massger,New,New,1,16.50,199.98,216.48,CreditCard,,,"2 years parts, 1 year labor for Small Items","Shogun Neck &amp; Back Massger,",YES,,Delivered,,Invoice # 12939,,TX,0,8.25,USJ-874USJ-874,216.48,TC # 3483 2019 5142 4643 5576 5,,,,,,0.00,,,,,,,0.00,,,,,,
"Sam's Club #6439 Odessa, TX (9/6-9/16/18)","Sam's Club #6439 Odessa, TX (9/6-9/16/18)",Chris Tavira,109396,9/15/2018 6:26:36 PM,Maria Alvarez,TX,79761,Shogun Neck & Back Massger,Demo,Demo,1,14.85,179.98,194.83,CreditCard,,,"2 years parts, 1 year labor for Small Items","Shogun Neck &amp; Back Massger,",YES,,Delivered,,Invoice # 12940,,TX,0,8.25,USJ-874USJ-874-DEMO,194.83,TC # 9945 3398 7541 0209 2869 7,,,,,,0.00,,,,,,,0.00,,,,,,
"Sam's Club #6439 Odessa, TX (9/6-9/16/18)","Sam's Club #6439 Odessa, TX (9/6-9/16/18)",Chris Tavira,109397,9/15/2018 6:29:20 PM,Maria Alvarez,TX,79761,Foot Vibe Pro,,New,1,9.07,109.99,119.06,CreditCard,,,"2 years parts, 1 year labor for Small Items","Foot Vibe Pro,",YES,,Delivered,,Invoice # 12963,,TX,0,8.25,USJ-871,119.06,TC # 9945 3398 7541 0209 2869 7,,,,,,0.00,,,,,,,0.00,,,,,,
"Sam's Club #6439 Odessa, TX (9/6-9/16/18)","Sam's Club #6439 Odessa, TX (9/6-9/16/18)",Chris Tavira,109434,9/16/2018 8:35:58 AM,Zenaida Paz,TX,79761,Shogun Neck & Back Massger,New,New,1,16.50,199.98,216.48,CreditCard,,,"2 years parts, 1 year labor for Small Items","Shogun Neck &amp; Back Massger,",YES,,Delivered,,Invoice # 12946,,TX,0,8.25,USJ-874USJ-874,216.48,TC # 7506 1546 1943 1087 0741 8,,,,,,0.00,,,,,,,0.00,,,,,,
"Sam's Club #6439 Odessa, TX (9/6-9/16/18)","Sam's Club #6439 Odessa, TX (9/6-9/16/18)",Chris Tavira,109435,9/16/2018 8:40:00 AM,Ray Mora,TX,79772,Foot Vibe Pro,,New,1,9.07,109.99,119.06,CreditCard,,,"2 years parts, 1 year labor for Small Items","Foot Vibe Pro,",YES,,Delivered,,Invoice # 12964,,TX,0,8.25,USJ-871,119.06,TC # 4771 9443 0226 8720 9558 1,,,,,,0.00,,,,,,,0.00,,,,,,
"Sam's Club #6439 Odessa, TX (9/6-9/16/18)","Sam's Club #6439 Odessa, TX (9/6-9/16/18)",Chris Tavira,109436,9/16/2018 8:44:20 AM,Marcus Bracy,TX,79762,Shogun Neck & Back Massger,Demo,Demo,1,14.85,179.98,194.83,CreditCard,,,"2 years parts, 1 year labor for Small Items","Shogun Neck &amp; Back Massger,",YES,,Delivered,,Invoice # 12947,,TX,0,8.25,USJ-874USJ-874-DEMO,194.83,TC # 1563 0099 5112 4603 3772 5,,,,,,0.00,,,,,,,0.00,,,,,,
"Sam's Club #6439 Odessa, TX (9/6-9/16/18)","Sam's Club #6439 Odessa, TX (9/6-9/16/18)",Chris Tavira,109437,9/16/2018 8:49:40 AM,Karrie Bragg,TX,79756,Symphony,Demo Choco,Demo,1,379.42,4599.00,4978.42,CreditCard,,,"3 years parts, 1 year labor (Free)","Symphony,",No,9/19/2018 12:00:00 AM,Delivered,,Invoice # 12986,"The customer wants to cancel the order, she's gonna call Chris to be confirmed the cancellation.  9/17/18 Riho",TX,0,8.25,USJ-9300Symphony-BW-DEMO,4978.42,TC # 9243 6105 9218 2468 363715,,,,,,0.00,,,,,,,0.00,,,,,,
"Sam's Club #6439 Odessa, TX (9/6-9/16/18)","Sam's Club #6439 Odessa, TX (9/6-9/16/18)",Chris Tavira,109438,9/16/2018 8:54:47 AM,Lisa Escobedo,TX,79760,Shogun Neck & Back Massger,Demo,Demo,1,14.85,179.98,194.83,CreditCard,,,"2 years parts, 1 year labor for Small Items","Shogun Neck &amp; Back Massger,",YES,,Delivered,,Invoice #12965,,TX,0,8.25,USJ-874USJ-874-DEMO,194.83,TC # 4938 5732 4889 5366 6002 4,,,,,,0.00,,,,,,,0.00,,,,,,
"Sam's Club #6439 Odessa, TX (9/6-9/16/18)","Sam's Club #6439 Odessa, TX (9/6-9/16/18)",Chris Tavira,109439,9/16/2018 9:00:34 AM,Lisa Escovedo,TX,79760,Foot Vibe Pro,,New,1,9.07,109.99,119.06,CreditCard,,,"2 years parts, 1 year labor for Small Items","Foot Vibe Pro,",YES,,Delivered,,Invoice # 12965,,TX,0,8.25,USJ-871,119.06,TC # 4938 5732 4889 5366 6002 4,,,,,,0.00,,,,,,,0.00,,,,,,
"Sam's Club #6439 Odessa, TX (9/6-9/16/18)","Sam's Club #6439 Odessa, TX (9/6-9/16/18)",Chris Tavira,109474,9/17/2018 12:22:51 AM,Dora Whitt,TX,79756,Shogun Neck & Back Massger,New,New,1,16.50,199.98,216.48,CreditCard,,,"2 years parts, 1 year labor for Small Items","Shogun Neck &amp; Back Massger,",YES,,Delivered,,Invoice # 12949,,TX,0,8.25,USJ-874USJ-874,216.48,TC # 5824 7167 5312 2485 6880 9,,,,,,0.00,,,,,,,0.00,,,,,,
"Sam's Club #6439 Odessa, TX (9/6-9/16/18)","Sam's Club #6439 Odessa, TX (9/6-9/16/18)",Chris Tavira,109475,9/17/2018 12:26:05 AM,Andy Cardoza,TX,79765,Foot Vibe Pro,,New,1,9.07,109.99,119.06,CreditCard,,,"2 years parts, 1 year labor for Small Items","Foot Vibe Pro,",YES,,Delivered,,Invoice # 12967,,TX,0,8.25,USJ-871,119.06,TC # 7137 6964 6793 3108 4221 6,,,,,,0.00,,,,,,,0.00,,,,,,
"Sam's Club #6439 Odessa, TX (9/6-9/16/18)","Sam's Club #6439 Odessa, TX (9/6-9/16/18)",Chris Tavira,109476,9/17/2018 12:29:56 AM,Francisco Muñoz,TX,79763,Orbit for Sam's ,New Choco,New,1,247.42,2998.98,3246.40,CreditCard,,,"3 years parts, 1 year labor (Free)","Orbit for Sam's ,",No,9/19/2018 12:00:00 AM,Delivered,,Invoice # 12983,9/18Maritza Courtesy text @ 10:11AM,TX,0,8.25,ORBT-1ORBT-1CH,3246.40,TC # 2430 7060 1243 0790 2233 10,,,,,,0.00,,,,,,,0.00,,,,,,
"Sam's Club #6439 Odessa, TX (9/6-9/16/18)","Sam's Club #6439 Odessa, TX (9/6-9/16/18)",Chris Tavira,109477,9/17/2018 12:34:15 AM,Nancy Boles,TX,79761,Vitality Plate for Sam's,Demo,Demo,1,33.00,399.99,432.99,CreditCard,,,"2 years parts, 1 year labor for Small Items","Vitality Plate for Sam's,",YES,,Delivered,,Invoice # 12985,,TX,0,8.25,USJ-849USJ-849-DEMO,432.99,TC # 4858 4762 4875 5396 8305 4,,,,,,0.00,,,,,,,0.00,,,,,,
"Sam's Club #6439 Odessa, TX (9/6-9/16/18)","Sam's Club #6439 Odessa, TX (9/6-9/16/18)",Chris Tavira,109478,9/17/2018 12:38:15 AM,Erick Ramon,TX,79763,Shogun Neck & Back Massger,New,New,1,16.50,199.98,216.48,CreditCard,,,"2 years parts, 1 year labor for Small Items","Shogun Neck &amp; Back Massger,",YES,,Delivered,,Invoice # 12951,,TX,0,8.25,USJ-874USJ-874,216.48,TC # 4470 6651 4437 7992 0133 0,,,,,,0.00,,,,,,,0.00,,,,,,
"Sam's Club #6439 Odessa, TX (9/6-9/16/18)","Sam's Club #6439 Odessa, TX (9/6-9/16/18)",Chris Tavira,109479,9/17/2018 12:42:12 AM,Michael Olude,TX,79764,Shogun Neck & Back Massger,New,New,1,16.50,199.98,216.48,CreditCard,,,"2 years parts, 1 year labor for Small Items","Shogun Neck &amp; Back Massger,",YES,,Delivered,,Invoice # 12952,,TX,0,8.25,USJ-874USJ-874,216.48,TC # 8316 8596 4913 1037 3843 8,,,,,,0.00,,,,,,,0.00,,,,,,
