﻿Order Number,Order Date,Event Name,Salesperson,SKU,Product Name,Color,QTY,Warranty,Payment Details,Tax,Order Total,Gross,Primary Payment Method,Primary Payment Balance,Primary Authorize Number,Primary Purchase Order Number,Primary Synchrony Account Number,Primary Synchrony Application Key,Primary Synchrony AccountInfo,Primary SynchronyTerm,Secondly Payment Method,Secondly Payment Balance,Secondly Authorize Number,Secondly Purchase Order Number,Secondly Synchrony Account Number,Secondly Synchrony Application Key,Secondly Synchrony AccountInfo,Secondly SynchronyTerm,Thirdly Payment Method,Thirdly Payment Balance,Thirdly Authorize Number,Thirdly Purchase Order Number,Thirdly Synchrony Account Number,Thirdly Synchrony Application Key,Thirdly Synchrony AccountInfo,Thirdly SynchronyTerm,Actual Shipping Cost,CustomerName,Shipping Address,Delivered On,Serial Number (TO Be),Note,Branch,IsNoTax,ActualTaxRate
106812,6/14/2018 11:57:34 AM,Sam's Club #6620 Folsom 6/7-17/18 (CA),Michael Wang,USJ-871,Foot Vibe Pro,,1,"2 years parts, 1 year labor for Small Items",CUSTOM ,8.52,118.51,118.51,CreditCard,118.51,3185 7386 2321 1215 7966 6,,,,,,,0.00,,,,,,,,0.00,,,,,,,0.00,"U.S. Jaclean, Inc.",310-538-2298,,,,CA,0,7.75
106819,6/14/2018 7:51:38 PM,Sam's Club #6620 Folsom 6/7-17/18 (CA),Michael Wang,USJ-871,Foot Vibe Pro,,1,"2 years parts, 1 year labor for Small Items",CUSTOM ,8.52,118.51,118.51,CreditCard,118.51,8409 8821 0888 7586 0615 1,,,,,,,0.00,,,,,,,,0.00,,,,,,,0.00,"U.S. Jaclean, Inc.",310-538-2298,,,,CA,0,7.75
106828,6/15/2018 5:11:42 PM,Sam's Club #6620 Folsom 6/7-17/18 (CA),Michael Wang,USJ-871,Foot Vibe Pro,,1,"2 years parts, 1 year labor for Small Items",CUSTOM ,8.52,118.51,118.51,CreditCard,118.51,Tc# 5846 5504 1591 3059 6340 4,,,,,,,0.00,,,,,,,,0.00,,,,,,,0.00,"U.S. Jaclean, Inc.",310-538-2298,,,,CA,0,7.75
106841,6/16/2018 2:40:01 PM,Sam's Club #6620 Folsom 6/7-17/18 (CA),Michael Wang,USJ-874USJ-874,Shogun Neck & Back Massger,New,1,"2 years parts, 1 year labor for Small Items",CUSTOM ,15.50,215.48,215.48,CreditCard,215.48,Tc# 3364 1188 1170 0443 9987 8,,,,,,,0.00,,,,,,,,0.00,,,,,,,0.00,"U.S. Jaclean, Inc.",310-538-2298,,,,CA,0,7.75
106855,6/16/2018 7:22:02 PM,Sam's Club #6620 Folsom 6/7-17/18 (CA),Michael Wang,,Daiwa Blanket,,1,no warranty,CUSTOM ,275.67,3832.67,3832.67,CreditCard,3832.92,Tc# 4559 3380 1885 7756 6951 31,,,,,,,0.00,,,,,,,,0.00,,,,,,,0.00,Bhushan Borole,9167173781,,,"Please give customer new chair.He will also receive 1 leather chair pad, 1 foam black chair pad, and 1 Daiwa blanket.2nd floor delivery included.",CA,0,7.75
106855,6/16/2018 7:22:02 PM,Sam's Club #6620 Folsom 6/7-17/18 (CA),Michael Wang,,Chair Pad for Legacy,,1,no warranty,CUSTOM ,275.67,3832.67,3832.67,CreditCard,3832.92,Tc# 4559 3380 1885 7756 6951 31,,,,,,,0.00,,,,,,,,0.00,,,,,,,0.00,Bhushan Borole,9167173781,,,"Please give customer new chair.He will also receive 1 leather chair pad, 1 foam black chair pad, and 1 Daiwa blanket.2nd floor delivery included.",CA,0,7.75
106855,6/16/2018 7:22:02 PM,Sam's Club #6620 Folsom 6/7-17/18 (CA),Michael Wang,DWA-9100DWA-9100CH,Legacy for Sam's,New Choco,1,"3 years parts, 1 year labor (Free)",CUSTOM ,275.67,3832.67,3832.67,CreditCard,3832.92,Tc# 4559 3380 1885 7756 6951 31,,,,,,,0.00,,,,,,,,0.00,,,,,,,0.00,Bhushan Borole,9167173781,,,"Please give customer new chair.He will also receive 1 leather chair pad, 1 foam black chair pad, and 1 Daiwa blanket.2nd floor delivery included.",CA,0,7.75
106858,6/16/2018 7:44:34 PM,Sam's Club #6620 Folsom 6/7-17/18 (CA),Michael Wang,DWA-9100DWA-9100CH,Legacy for Sam's,New Choco,1,"3 years parts, 1 year labor (Free)",CUSTOM ,275.67,3832.67,3832.67,CreditCard,3832.92,Tc# 6388 1573 0374 7937 8270 40,,,,,,,0.00,,,,,,,,0.00,,,,,,,0.00,Larry Gunn,9168376604,7/2/2018 12:00:00 AM,,"Please provide free setup and delivery to 1st floor for customer.Please give customer 1 free leather chair pad, 1 black foam chair pad, 1 Daiwa blanket.Customer’s balance is paid please ignore the remaining balance.",CA,0,7.75
106858,6/16/2018 7:44:34 PM,Sam's Club #6620 Folsom 6/7-17/18 (CA),Michael Wang,,Daiwa Blanket,,1,no warranty,CUSTOM ,275.67,3832.67,3832.67,CreditCard,3832.92,Tc# 6388 1573 0374 7937 8270 40,,,,,,,0.00,,,,,,,,0.00,,,,,,,0.00,Larry Gunn,9168376604,7/2/2018 12:00:00 AM,,"Please provide free setup and delivery to 1st floor for customer.Please give customer 1 free leather chair pad, 1 black foam chair pad, 1 Daiwa blanket.Customer’s balance is paid please ignore the remaining balance.",CA,0,7.75
106858,6/16/2018 7:44:34 PM,Sam's Club #6620 Folsom 6/7-17/18 (CA),Michael Wang,,Chair Pad for Legacy,,1,no warranty,CUSTOM ,275.67,3832.67,3832.67,CreditCard,3832.92,Tc# 6388 1573 0374 7937 8270 40,,,,,,,0.00,,,,,,,,0.00,,,,,,,0.00,Larry Gunn,9168376604,7/2/2018 12:00:00 AM,,"Please provide free setup and delivery to 1st floor for customer.Please give customer 1 free leather chair pad, 1 black foam chair pad, 1 Daiwa blanket.Customer’s balance is paid please ignore the remaining balance.",CA,0,7.75
106859,6/16/2018 8:04:05 PM,Sam's Club #6620 Folsom 6/7-17/18 (CA),Michael Wang,USJ-874USJ-874,Shogun Neck & Back Massger,New,1,"2 years parts, 1 year labor for Small Items",CUSTOM ,15.50,215.48,215.48,CreditCard,215.48,Tc# 5091 1475 3406 6792 1255 5,,,,,,,0.00,,,,,,,,0.00,,,,,,,0.00,"U.S. Jaclean, Inc.",310-538-2298,,,,CA,0,7.75
106860,6/16/2018 8:12:18 PM,Sam's Club #6620 Folsom 6/7-17/18 (CA),Michael Wang,USJ-849USJ-849,Vitality Plate for Sam's,New,1,"2 years parts, 1 year labor for Small Items",CUSTOM ,31.00,430.99,430.99,CreditCard,430.99,Tc# 5091 1475 3406 6792 1255 5,,,,,,,0.00,,,,,,,,0.00,,,,,,,0.00,"U.S. Jaclean, Inc.",310-538-2298,,,,CA,0,7.75
106861,6/16/2018 8:17:23 PM,Sam's Club #6620 Folsom 6/7-17/18 (CA),Michael Wang,USJ-871,Foot Vibe Pro,,1,"2 years parts, 1 year labor for Small Items",CUSTOM ,8.52,118.51,118.51,CreditCard,118.51,Tc# 2591 1435 6476 6752 9954 5,,,,,,,0.00,,,,,,,,0.00,,,,,,,0.00,"U.S. Jaclean, Inc.",310-538-2298,,,,CA,0,7.75
106911,6/18/2018 8:09:09 AM,Sam's Club #6620 Folsom 6/7-17/18 (CA),Michael Wang,USJ-874USJ-874,Shogun Neck & Back Massger,New,1,"2 years parts, 1 year labor for Small Items",CUSTOM ,15.50,215.48,215.48,CreditCard,215.48,Tc# 6259 6841 6897 7516 0416 1,,,,,,,0.00,,,,,,,,0.00,,,,,,,0.00,"U.S. Jaclean, Inc.",310-538-2298,,,,CA,0,7.75
