﻿Date,Customer Name,State,Zipcode,Description,Product Number,Color,Product Status,Net,Shipping Fee,Gift Price,Financing Processing Fee,Order Total,Total Before Tax,Tax,Commission,Primary Payment Method,Primary Payment Balance,Primary Authorize Number,Primary Purchase Order Number,Primary Synchrony Account Number,Primary Synchrony Application Key,Primary Synchrony Account Info,Primary Synchrony Term,Second Payment Method,Second Payment Balance,Second Authorize Number,Second Purchase Order Number,Second Synchrony Account Number,Second Synchrony Application Key,Second Synchrony Account Info,Second Synchrony Term,Third Payment Method,Third Payment Balance,Third Authorize Number,Third Purchase Order Number,Third Synchrony Account Number,Third Synchrony Application Key,Third Synchrony Account Info,Third Synchrony Term,Delivery Date,Pick up,Warranty,Status,Chair Type,Original Event Name,Event Name,Synchrony Notes,Order Notes,Order Number,Private Note,Branch,No Tax,Actual Tax Rate
8/26/2018 6:04:22 PM,Eugene L Bedlan,NE,68436,Legacy 3D,DWA-9150USJ-9150CH-DEMO,Demo Choco,Demo,,,,,4066.00,4066.00,0.00,Keith Kei,Synchrony,4066.00,,,6019170813100036,93445868,Huston,36 months,,0.00,,,,,,,,0.00,,,,,,,9/17/2018 12:00:00 AM,No,"3 years parts, 1 year labor (Free)",Delivered,,Nebraska State Fair (8/24-9/3/2018) TX,Nebraska State Fair (8/24-9/3/2018) TX,,Order #1,108785,"Confirmed synchrony (8,500) will confirm original 8/27/18 Hitomi///Confirmed original. ***Please charge $4,066 before delivery and have sales draft signed.***8/28/18 Hitomi
8/29Maritza Courtesy text @ 11:38AM
9/24Synchrony sales draft signature doesn't match other signatures.",TX,1,7.00
8/29/2018 10:38:28 AM,Carrie Nelson,IA,50009,Legacy 3D,DWA-9150USJ-9150BL,New Black,New,,,,,3900.00,3900.00,0.00,Keith Kei,Synchrony,3900.00,,,6019170813106231,93600723,Las Vegas,36 months,,0.00,,,,,,,,0.00,,,,,,,9/5/2018 12:00:00 AM,No,"3 years parts, 1 year labor (Free)",Delivered,,Nebraska State Fair (8/24-9/3/2018) TX,Nebraska State Fair (8/24-9/3/2018) TX,Auth#029469 charged by Tina 8/29/2018,,108864,"Confirmed synchrony account ($4,700) and original. ***Please charge $3,900 before delivery and have sales draft signed. *** 8/29/18 Hitomi
Sales told this customer asking delivery before 9/6/2018. Called at 8/29/2018, haven't make schedule yet. June
Customer called CA office regarding cancellation, I contacted the sales rep; Keith to confirm the cancellation. 9/17/18 Riho
9/29 Chair replacement was made. S#0202001170739",TX,1,7.00
8/29/2018 10:42:34 AM,David Fox,NE,68901,Legacy 3D,DWA-9150USJ-9150CH,New Choco,New,,,,,3900.00,3900.00,0.00,Xiongxiaojun Ji,CreditCard,3900.00,n8gh,,,,,,,0.00,,,,,,,,0.00,,,,,,,9/17/2018 12:00:00 AM,No,"3 years parts, 1 year labor (Free)",Delivered,,Nebraska State Fair (8/24-9/3/2018) TX,Nebraska State Fair (8/24-9/3/2018) TX,,,108865,"Confirmed $3,900 in Square. 8/29/18 Hitomi
8/30Maritza Courtesy text to  both numbers",TX,1,7.00
9/2/2018 7:18:36 AM,Shane Roach,NE,68840,Legacy 3D,DWA-9150USJ-9150CH-DEMO,Demo Choco,Demo,,,,,3900.00,3900.00,0.00,Mario Higareda,CreditCard,500.00,csLZ,,,,,,CreditCard,3400.00,#rneN,,,,,,,0.00,,,,,,,9/17/2018 12:00:00 AM,No,"5 years parts, 1 year labor ($300)",Delivered,,Nebraska State Fair (8/24-9/3/2018) TX,Nebraska State Fair (8/24-9/3/2018) TX,,,108971,"COnfirmed $500 in Square. COD $3,400. 9/4/18 Hitomi
 Courtesy Call made on 9/5/2018 by Mimi
9/24Confirmed cod on square",TX,1,7.00
9/2/2018 7:23:30 AM,Brenda Piel,NE,68930,Pegasus,DWA-9400Pegasus-BR,New Choco,New,,,,,4900.00,4900.00,0.00,Mario Higareda,Synchrony,4900.00,,,6019170813114482,93821382,Huston,48 months,,0.00,,,,,,,,0.00,,,,,,,9/17/2018 12:00:00 AM,No,"5 years parts, 1 year labor ($300)",Delivered,,Nebraska State Fair (8/24-9/3/2018) TX,Nebraska State Fair (8/24-9/3/2018) TX,,,108972,"Confirmed synchrony account (5,500) and original. ***PLease charge $4,900 before delivery and have sales draft signed.*** 9/6/18 Hitomi
9/24 Synchrony sales draft has husband signature.",TX,1,7.00
9/2/2018 7:29:06 AM,Stacy Hartgerink,NE,68405,Relax2Zero 3D,DWA-9060USJ-9060BR-DEMO,Demo Choco,Demo,,,,,3500.00,3500.00,0.00,Ana Barrera,CreditCard,350.00,wm4b,,,,,,Cash,3150.00,,,,,,,,0.00,,,,,,,9/18/2018 12:00:00 AM,No,"5 years parts, 1 year labor ($300)",Delivered,,Nebraska State Fair (8/24-9/3/2018) TX,Nebraska State Fair (8/24-9/3/2018) TX,,,108973,"Confirmed $350.00. COD $3,150. 9/4/18 Hitomi
 Courtesy Call made on 9/5/2018 by Mimi
Confirmed COD $3,150 in cash 10/1/18 Masa",TX,1,7.00
9/3/2018 7:16:34 AM,Joe Watson,NE,68516,Relax2Zero 3D,DWA-9060USJ-9060BL,New Black,New,,,,,3500.00,3500.00,0.00,Xiongxiaojun Ji,CreditCard,250.00,ZOVG,,,,,,COD,3250.00,,,,,,,,0.00,,,,,,,,No,"5 years parts, 1 year labor ($300)",Cancelled,,Nebraska State Fair (8/24-9/3/2018) TX,Nebraska State Fair (8/24-9/3/2018) TX,,,109011,"COnfirmed $250 in Square. COD $3,250. 9/4/18 Hitomi
09/04/18- Customer called in looking to cancel, I advised her to call Ji and inform her as well as ask her to refund the deposit , I have texted Ji to ask if she will be able to take care of the refund or not . as of now this is a pending cancellation.- Cristina 10:18 am
Spoke with Ji, this customer already cancelled, and Ji make refund to customer. 9/5/2018 June",TX,1,7.00
9/3/2018 7:21:58 AM,Nathan Onnen,NE,68845,Pegasus,DWA-9400Pegasus-BR,New Choco,New,,,,,3900.00,3900.00,0.00,Mario Higareda,CreditCard,400.00,DWgJ,,,,,,CreditCard,3500.00,#Jtvv,,,,,,,0.00,,,,,,,9/16/2018 12:00:00 AM,No,"5 years parts, 1 year labor ($300)",Delivered,,Nebraska State Fair (8/24-9/3/2018) TX,Nebraska State Fair (8/24-9/3/2018) TX,,,109012,"One dualtaper for free//CONfirmed $400 in Square. ***COD$3,500***.  will confirm CHAIR MODEL because price is low.   9/4/18 Hitomi//Confirmed chair price with Hide . 9/6/18
9/24 confirmed cod on square but missing delivery confirmation signature.",TX,1,7.00
9/3/2018 7:21:58 AM,Nathan Onnen,NE,68845,Chair Pad for Pegasus,,,New,,,,,3900.00,3900.00,0.00,Mario Higareda,CreditCard,400.00,DWgJ,,,,,,CreditCard,3500.00,#Jtvv,,,,,,,0.00,,,,,,,9/16/2018 12:00:00 AM,No,No Warranty,Delivered,,Nebraska State Fair (8/24-9/3/2018) TX,Nebraska State Fair (8/24-9/3/2018) TX,,,109012,"One dualtaper for free//CONfirmed $400 in Square. ***COD$3,500***.  will confirm CHAIR MODEL because price is low.   9/4/18 Hitomi//Confirmed chair price with Hide . 9/6/18
9/24 confirmed cod on square but missing delivery confirmation signature.",TX,1,7.00
9/3/2018 7:27:40 AM,Johnie Kamery,NE,68959,Relax2Zero 3D,DWA-9060USJ-9060BR,New Choco,New,,,,,3900.00,3900.00,0.00,Mario Higareda,CreditCard,400.00,XWCZ,,,,,,CreditCard,3500.00,#BIkO,,,,,,,0.00,,,,,,,9/17/2018 12:00:00 AM,No,"5 years parts, 1 year labor ($300)",Delivered,,Nebraska State Fair (8/24-9/3/2018) TX,Nebraska State Fair (8/24-9/3/2018) TX,,,109014,"Confirmed $400.00 in Square. COD$3,500. 9/4/18  Hitomi
 Courtesy Call made on 9/5/2018 by Mimi
9/24Confirmed cod on square",TX,1,7.00
9/3/2018 7:45:40 PM,mark c Walenz,NE,68147,Pegasus,DWA-9400Pegasus-BR-DEMO,Demo Choco,Demo,,,,,4900.00,4900.00,0.00,Ana Barrera,CreditCard,200.00,nQpR,,,,,,Cash,700.00,,,,,,,CreditCard,4000.00,cGdi,,,,,,9/19/2018 12:00:00 AM,No,"5 years parts, 1 year labor ($300)",Delivered,,Nebraska State Fair (8/24-9/3/2018) TX,Nebraska State Fair (8/24-9/3/2018) TX,,,109030,"free delivery to basement//COnfirmed $200.00 in Square, COD $4,700. 9/4/18 Hitomi
 Courtesy Call made on 9/5/2018 by Mimi
Confirmed COD $700 in cash and $4,000 in Square 10/1/18 Masa",TX,1,7.00
9/3/2018 7:49:56 PM,James P Hahn,NE,68937,Legacy 3D,DWA-9150USJ-9150CH-DEMO,Demo Choco,Demo,,,,,3900.00,3900.00,0.00,Mario Higareda,Synchrony,3900.00,,,6019170813119937,93924696,Huston,48 months,,0.00,,,,,,,,0.00,,,,,,,9/16/2018 12:00:00 AM,No,"5 years parts, 1 year labor ($300)",Delivered,,Nebraska State Fair (8/24-9/3/2018) TX,Nebraska State Fair (8/24-9/3/2018) TX,Auth: 006924,,109031,"Confirmed synchrony account (6,500) and original. ***Please charge $3,900 before delivery and sales draft signed. *** 9/6/18 Hitomi",TX,1,7.00
9/3/2018 7:54:27 PM,Stanley Wielgus,NE,68601,Legacy 3D,DWA-9150USJ-9150CH-DEMO,Demo Choco,Demo,,,,,3900.00,3900.00,0.00,Ana Barrera,CreditCard,3900.00,wuyP,,,,,,,0.00,,,,,,,,0.00,,,,,,,9/18/2018 12:00:00 AM,No,"5 years parts, 1 year labor ($300)",Delivered,,Nebraska State Fair (8/24-9/3/2018) TX,Nebraska State Fair (8/24-9/3/2018) TX,,,109032,"free delivery to basement//COnfirmed $3,900.00 in Square. 9/4/18 Hitomi
 Courtesy Call made on 9/5/2018 by Mimi",TX,1,7.00
9/3/2018 7:57:29 PM,Mari Roseberry,NE,68833,Legacy 3D,DWA-9150USJ-9150CH-DEMO,Demo Choco,Demo,,,,,3900.00,3900.00,0.00,Xiongxiaojun Ji,CreditCard,3900.00,t7Mj,,,,,,,0.00,,,,,,,,0.00,,,,,,,9/16/2018 12:00:00 AM,No,"5 years parts, 1 year labor ($300)",Delivered,,Nebraska State Fair (8/24-9/3/2018) TX,Nebraska State Fair (8/24-9/3/2018) TX,,,109033,"Confirmed $3,900 in Square. 9/4/18 Hitomi
 Courtesy Call made on 9/5/2018 by Mimi",TX,1,7.00
