﻿Original Event Name,Event Name,Sales Person,Order Number,Order Date,Customer Name,State,Zip,Product Name,Color,Product Status,QTY,Tax,Total Before Tax,Order Total,Primary Payment Method,Second Payment Method,Thirdl Payment Method,Warranty,Order Items,Pick up,Delivered On,Order Status,Chair Type,Order Notes,Private Note,Branch,No Tax,Actual Tax Rate,SKU,Primary Payment Balance,Primary Authorize Number,Primary Purchase Order Number,Primary Synchrony Account Number,Primary Synchrony Application Key,Primary Synchrony Account Info,Primary Synchrony Term,Primary Synchrony Primary ID,Primary Synchrony Issued State,Primary Synchrony Expiretion Date,Second Payment Balance,Second Authorize Number,Second Purchase Order Number,Second Synchrony Account Number,Second Synchrony Application Key,Second Synchrony Account Info,Second SynchronyTerm,Second Synchrony Primary ID,Second Synchrony Issued State,Second Synchrony Expiretion Date,Third Payment Balance,Third Authorize Number,Third Purchase Order Number,Third Synchrony Account Number,Third Synchrony Application Key,Third Synchrony Account Info,Third Synchrony Term,Third Synchrony Primary ID,Third Synchrony Issued State,Third Synchrony Expiretion Date
"Sam's Club #8265 Lake Charles, LA","Sam's Club #8265 Lake Charles, LA",Evans Clint,118422,7/1/2019 9:34:04 AM,Charles Williams,LA,70663,Orbit for Sam's ,New Choco,New,1,305.80,2998.00,3303.80,Sam’s Club Synchrony,,,"3 years parts, 1 year labor (Free)","Orbit for Sam's ,",No,7/20/2019 12:00:00 AM,Delivered,New,,"Original received. Erika 7/1/19 2:44pm
courtesy call completed-Erika 7/1/19 3:59pm
print by June 7/5/2019
Scheduled for Sat July 20, 2019 10am to 1pm - Tina 7/16/2019
Delivery conf. completed. Erika 7/25/19 5:00pm

Received & confirmed the copy of original and the delivery confirmation. 8/1/19 Riho",TX,0,10.20,ORBT-1ORBT-1CH,0.00,,,,,,,,,/,0.00,,,,,,,,,/,0.00,,,,,,,,,/
"Sam's Club #8265 Lake Charles, LA","Sam's Club #8265 Lake Charles, LA",Evans Clint,118423,7/1/2019 9:41:18 AM,Veronica Syon,LA,70601,Ninja Leg Massager 2,New,New,1,30.60,299.98,330.58,Credit Card,,,"2 years parts, 1 year labor for Small Items","Ninja Leg Massager 2,",YES,,Delivered,,,,TX,0,10.20,USJ-880,0.00,098104294456387534762,,,,,,,,/,0.00,,,,,,,,,/,0.00,,,,,,,,,/
"Sam's Club #8265 Lake Charles, LA","Sam's Club #8265 Lake Charles, LA",Evans Clint,118424,7/1/2019 9:48:08 AM,Jean Dyer,LA,70665,Legacy for Sam's,Demo Sienna Brown[-700],Demo,1,367.10,3599.00,3966.10,Sam’s Club Synchrony,,,"3 years parts, 1 year labor (Free)","Legacy for Sam's,",No,,Cancelled,,,"Original received. Erika 7/1/19 2:41pm
courtesy call completed. Erika 7/1/19 3:54pm
Per sales rep request, Clint has advised customer canceled and got a refund. Erika 7/2/19 11:59am

Received/confirmed the copy of original. 7/16/19 Riho",TX,0,10.20,DWA-9100DWA-9100SB-DEMO,0.00,,,,,,,,,/,0.00,,,,,,,,,/,0.00,,,,,,,,,/
"Sam's Club #8265 Lake Charles, LA","Sam's Club #8265 Lake Charles, LA",Evans Clint,118425,7/1/2019 9:54:49 AM,Karen Barousse,LA,70607,Legacy for Sam's,New Choco,New,1,438.50,4299.00,4737.50,Sam’s Club Synchrony,Purchase Order,,"3 years parts, 1 year labor (Free)","Legacy for Sam's,",No,7/17/2019 12:00:00 AM,Delivered,New,,"Original received. Erika 7/1/19 2:36pm
courtesy call completed. Erika 7/1/19 3:52pm
print by June 7/5/2019
Schedule for Wed July 17, 2019 11am to 3pm - Tina 7/10/2019
Delivery conf. completed. Erika 7/25/19 4:21pm

Received & confirmed the copy of original and the delivery confirmation. It seems the customer paid $2,692.50 by Synchrony and $2,000 by Debit card. 8/1/19 Riho",TX,0,10.20,DWA-9100DWA-9100CH,4692.50,,,,,,,,,/,45.00,,Discounted for opening account of Synchrony,,,,,,,/,0.00,,,,,,,,,/
"Sam's Club #8265 Lake Charles, LA","Sam's Club #8265 Lake Charles, LA",Evans Clint,118428,7/1/2019 10:27:03 AM,Christopher Busby,LA,70665,PEGASUS 2 SMART - Sam's,Demo Black[-700],Demo,1,560.90,5499.00,6059.90,Sam’s Club Synchrony,,,"3 years parts, 1 year labor (Free)","PEGASUS 2 SMART - Sam's,",No,7/7/2019 12:00:00 AM,Delivered,Demo,,"Per rep sales request on invoice delivery next weekend sunday.-Erika 7/1/19
Original received. Erika 7/1/19 2:23pm
-Courtesy call  completed. Erika 7/1/19 3:49pm
print by June 7/5/2019
Delivery conf. completed. Erika 7/10/19 9:58am

*Purchase Date is 6/28/19 according to the copy of original invoice* 7/16/19 Riho
Received and confirmed the copy of original and the delivery confirmation. 7/16/19 Riho",TX,0,10.20,PEGS-2PEGS-2-BL-DEMO,0.00,,,,,,,,,/,0.00,,,,,,,,,/,0.00,,,,,,,,,/
"Sam's Club #8265 Lake Charles, LA","Sam's Club #8265 Lake Charles, LA",Evans Clint,118429,7/1/2019 10:32:29 AM,Richard Holtz,AZ,85365,Legacy for Sam's,New Choco,New,1,438.50,4299.00,4737.50,Sam’s Club Synchrony,,,"3 years parts, 1 year labor (Free)","Legacy for Sam's,",No,,Assigned,,,Original received. Erika 7/1/19 2:16pm,CA,0,10.20,DWA-9100DWA-9100CH,0.00,,,,,,,,,/,0.00,,,,,,,,,/,0.00,,,,,,,,,/
"Sam's Club #8265 Lake Charles, LA","Sam's Club #8265 Lake Charles, LA",Evans Clint,118449,7/2/2019 11:02:08 AM,Nathan Marcantel,LA,70633,Legacy for Sam's,New Black,New,1,438.50,4299.00,4737.50,Credit Card,,,"3 years parts, 1 year labor (Free)","Legacy for Sam's,",No,7/17/2019 12:00:00 AM,Delivered,New,,"Original received. Erika 7/2/19 11:26am
courtesy call completed. Erika 7/2/19 1:54pm
print by June 7/5/2019
Scheduled for Wed July 17, 2019 8am to 12pm - Tina 7/10/2019
Delivery conf. completed, Erika 7/25/19 4:40pm

Received & confirmed the copy of original and the delivery confirmation. 8/1/19 Riho",TX,0,10.20,DWA-9100DWA-9100BL,4737.50,2389448859807097106536,,,,,,,,/,0.00,,,,,,,,,/,0.00,,,,,,,,,/
"Sam's Club #8265 Lake Charles, LA","Sam's Club #8265 Lake Charles, LA",Evans Clint,118483,7/4/2019 6:49:34 AM,Jennifer Williams,LA,70601,Orbit for Sam's ,Demo Black[-300],Demo,1,275.20,2698.00,2973.20,Sam’s Club Synchrony,,,"3 years parts, 1 year labor (Free)","Orbit for Sam's ,",No,7/7/2019 12:00:00 AM,Delivered,Demo,,"Original received. Erika 7/5/19 12:21pm
courtesy call completed. Erika 7/5/19 3:08pm
7/8/2019 Printed by Tina
Delivery conf. completed. Erika 7/10/19 9:57am

Received and confirmed the copy of original, the customer signed at 2 section for confirming both purchase & delivery. 7/16/19 Riho",TX,0,10.20,ORBT-1ORBT-1BL-DEMO,0.00,,,,,,,,,/,0.00,,,,,,,,,/,0.00,,,,,,,,,/
"Sam's Club #8265 Lake Charles, LA","Sam's Club #8265 Lake Charles, LA",Evans Clint,118490,7/4/2019 1:25:29 PM,Jose Zuniga,LA,70605,Legacy for Sam's,Demo Sienna Brown[-700],Demo,1,367.10,3599.00,3966.10,Credit Card,,,"3 years parts, 1 year labor (Free)","Legacy for Sam's,",No,7/7/2019 12:00:00 AM,Delivered,Demo,,"Original received. Erika 7/5/19 10:39am
7/8/2019 Printed by Tina
courtesy call completed. Erika 7/8/19 5:14pm
Delivery conf. completed. Erika 7/10/19 9:55am

Received and confirmed the copy of original, the customer signed at 2 section for confirming both purchase & delivery. 7/16/19 Riho",TX,0,10.20,DWA-9100DWA-9100SB-DEMO,0.00,9004711249185727884433,,,,,,,,/,0.00,,,,,,,,,/,0.00,,,,,,,,,/
"Sam's Club #8265 Lake Charles, LA","Sam's Club #8265 Lake Charles, LA",Evans Clint,118508,7/5/2019 11:19:40 AM,Thomas Granger,TX,77630,Ninja Leg Massager 2,New,New,1,638.41,6258.97,6897.38,Credit Card,,,"2 years parts, 1 year labor for Small Items","PEGASUS 2 SMART - Sam's,Ninja Leg Massager 2,Vitality Plate for Sam's,",No,7/20/2019 12:00:00 AM,Delivered,New,,"Guest picked up vitality plate and ninja from store.
Original received. Erika 7/5/19 12:18pm
courtesy call completed. Erika 7/5/19 2:42pm
PRINT by June 7/5/2019
Scheduled for Tuesday July 16th, 2019 12-4PM - Tina 7/9/2019
Rescheduled for Erik's Trip, Teodoro was making the delivery and the customer said they actually ordered a CHOCO so it was mixed up with the sales -Tina 7/16/2019
Scheduled for Sat July 20, 2019 1pm to 4pm - Tina 7/17/2019
Delivery conf completed. Erika 7/25/19 4:56pm

Received & confirmed the copy of original and the delivery confirmation. 8/1/19 Riho",TX,0,10.20,USJ-880,0.00,4096415906501610476029,,,,,,,,/,0.00,,,,,,,,,/,0.00,,,,,,,,,/
"Sam's Club #8265 Lake Charles, LA","Sam's Club #8265 Lake Charles, LA",Evans Clint,118508,7/5/2019 11:19:40 AM,Thomas Granger,TX,77630,PEGASUS 2 SMART - Sam's,Demo(Box) Black[-700],Demo,1,638.41,6258.97,6897.38,Credit Card,,,"3 years parts, 1 year labor (Free)","PEGASUS 2 SMART - Sam's,Ninja Leg Massager 2,Vitality Plate for Sam's,",No,7/20/2019 12:00:00 AM,Delivered,New,,"Guest picked up vitality plate and ninja from store.
Original received. Erika 7/5/19 12:18pm
courtesy call completed. Erika 7/5/19 2:42pm
PRINT by June 7/5/2019
Scheduled for Tuesday July 16th, 2019 12-4PM - Tina 7/9/2019
Rescheduled for Erik's Trip, Teodoro was making the delivery and the customer said they actually ordered a CHOCO so it was mixed up with the sales -Tina 7/16/2019
Scheduled for Sat July 20, 2019 1pm to 4pm - Tina 7/17/2019
Delivery conf completed. Erika 7/25/19 4:56pm

Received & confirmed the copy of original and the delivery confirmation. 8/1/19 Riho",TX,0,10.20,PEGS-2PEGS-2-BL-DEMO(Box),0.00,4096415906501610476029,,,,,,,,/,0.00,,,,,,,,,/,0.00,,,,,,,,,/
"Sam's Club #8265 Lake Charles, LA","Sam's Club #8265 Lake Charles, LA",Evans Clint,118508,7/5/2019 11:19:40 AM,Thomas Granger,TX,77630,Vitality Plate for Sam's,New,New,1,638.41,6258.97,6897.38,Credit Card,,,"2 years parts, 1 year labor for Small Items","PEGASUS 2 SMART - Sam's,Ninja Leg Massager 2,Vitality Plate for Sam's,",No,7/20/2019 12:00:00 AM,Delivered,New,,"Guest picked up vitality plate and ninja from store.
Original received. Erika 7/5/19 12:18pm
courtesy call completed. Erika 7/5/19 2:42pm
PRINT by June 7/5/2019
Scheduled for Tuesday July 16th, 2019 12-4PM - Tina 7/9/2019
Rescheduled for Erik's Trip, Teodoro was making the delivery and the customer said they actually ordered a CHOCO so it was mixed up with the sales -Tina 7/16/2019
Scheduled for Sat July 20, 2019 1pm to 4pm - Tina 7/17/2019
Delivery conf completed. Erika 7/25/19 4:56pm

Received & confirmed the copy of original and the delivery confirmation. 8/1/19 Riho",TX,0,10.20,USJ-849USJ-849,0.00,4096415906501610476029,,,,,,,,/,0.00,,,,,,,,,/,0.00,,,,,,,,,/
"Sam's Club #8265 Lake Charles, LA","Sam's Club #8265 Lake Charles, LA",Evans Clint,118509,7/5/2019 11:25:53 AM,Troy Blackmon,LA,70634,PEGASUS 2 SMART - Sam's,Demo(Box) Choco[-700],Demo,1,560.90,5499.00,6059.90,Credit Card,,,"3 years parts, 1 year labor (Free)","PEGASUS 2 SMART - Sam's,",No,7/16/2019 12:00:00 AM,Delivered,New,,"Original received. Erika 7/5/19 2:03pm
courtesy call completed. Erika 7/5/19 2:39pm
Scheduled for July 16th, 2019 Tues between 4pm to 7pm - Tina 7/10/2019
Delivery conf completed. Erika 7/25/19 4:34pm

Received & confirmed the copy of original and the delivery confirmation. 8/1/19 Riho",TX,0,10.20,PEGS-2PEGS-2-BR-DEMO(Box),0.00,3800316491697178371974,,,,,,,,/,0.00,,,,,,,,,/,0.00,,,,,,,,,/
"Sam's Club #8265 Lake Charles, LA","Sam's Club #8265 Lake Charles, LA",Evans Clint,118532,7/6/2019 6:07:04 PM,Marsha Hornsby,LA,70605,Orbit for Sam's ,New Black,New,1,305.80,2998.00,3303.80,Sam’s Club Synchrony,,,"3 years parts, 1 year labor (Free)","Orbit for Sam's ,",No,7/20/2019 12:00:00 AM,Delivered,New,,"Original received. Erika 7/8/19 11:49am
7/8/2019 Printed by Tina
courtesy call completed. Erika 7/8/19 5:22pm
Scheduled for Fri July 19, 2019 5-8pm - Tina 7/16/2019
Delivery conf completed.. Erika 7/25/19 5:16pm

Received & confirmed the copy of original and the delivery confirmation. 8/1/19 Riho",TX,0,10.20,ORBT-1ORBT-1BL,3303.80,,,,,,,,,/,0.00,,,,,,,,,/,0.00,,,,,,,,,/
"Sam's Club #8265 Lake Charles, LA","Sam's Club #8265 Lake Charles, LA",Evans Clint,118533,7/6/2019 6:12:36 PM,Carlos Triana,LA,70607,Orbit for Sam's ,New Choco,New,1,305.80,2998.00,3303.80,Sam’s Club Synchrony,,,"3 years parts, 1 year labor (Free)","Orbit for Sam's ,",No,7/19/2019 12:00:00 AM,Delivered,New,,"Original received. Erika 7/8/19 11:22am
7/8/2019 Printed by Tina
courtesy call completed. Erika 7/8/19 5:17pm
Scheduled for Fri July 19, 2019 - Tina 7/16/2019
Delivery conf. completed. Erika 7/25/19 5:10pm

Received & confirmed the copy of original and the delivery confirmation. 8/1/19 Riho",TX,0,10.20,ORBT-1ORBT-1CH,0.00,,,,,,,,,/,0.00,,,,,,,,,/,0.00,,,,,,,,,/
"Sam's Club #8265 Lake Charles, LA","Sam's Club #8265 Lake Charles, LA",Evans Clint,118534,7/6/2019 6:18:30 PM,Warren Cauthron,LA,70607,Legacy for Sam's,Demo Blue[-700],Demo,1,367.10,3599.00,3966.10,Sam’s Club Synchrony,,,"3 years parts, 1 year labor (Free)","Legacy for Sam's,",No,7/17/2019 12:00:00 AM,Delivered,Demo,,"Original received, Erika 7/8/19 11:27am
7/8/2019 Printed by Tina
courtesy call completed. Erika 7/8/19 5:24pm
Scheduled for Wed July 17, 2019 12pm to 4PM - Tina 7/10/2019
Delivery conf. completed. Erika 7/25/19 4:25pm

Received & confirmed the copy of original and the delivery confirmation. 8/1/19 Riho",TX,0,10.20,DWA-9100DWA-9100BL-DEMO,0.00,,,,,,,,,/,0.00,,,,,,,,,/,0.00,,,,,,,,,/
"Sam's Club #8265 Lake Charles, LA","Sam's Club #8265 Lake Charles, LA",Evans Clint,118535,7/6/2019 6:22:08 PM,Marlon Falcon,LA,70605,Orbit for Sam's ,Demo Black(Box)[-300],Demo,1,275.20,2698.00,2973.20,Credit Card,,,"3 years parts, 1 year labor (Free)","Orbit for Sam's ,",No,7/20/2019 12:00:00 AM,Delivered,New,,"Original received. Erika 7/8/19 11:30am
7/8/2019 Printed by Tina
courtesy call completed. Erika 7/8/19 5:13pm
Scheduled for Sat July 20, 2019 - Tina 7/16/2019
Delivery conf. completed. Erika 7/25/19 4:45pm

Received & confirmed the copy of original and the delivery confirmation. 8/1/19 Riho",TX,0,10.20,ORBT-1DORBT-1BL-BOX,0.00,9156225304551613498079,,,,,,,,/,0.00,,,,,,,,,/,0.00,,,,,,,,,/
"Sam's Club #8265 Lake Charles, LA","Sam's Club #8265 Lake Charles, LA",Chris Tavira,122550,11/18/2019 9:08:02 AM,Christopher Stills,LA,70601,Vitality Plate for Sam's,Demo[-60],Demo,1,40.80,399.99,440.79,Credit Card,,,"2 years parts, 1 year labor for Small Items","Vitality Plate for Sam's,",YES,,Delivered,,Invoice # 0019968,,TX,0,10.20,USJ-849USJ-849-DEMO,440.79,TC # 073877577659256087378,,,,,,,,/,0.00,,,,,,,,,/,0.00,,,,,,,,,/
"Sam's Club #8265 Lake Charles, LA","Sam's Club #8265 Lake Charles, LA",Chris Tavira,122551,11/18/2019 9:16:24 AM,John Gregory,LA,70605,Ninja Leg Massager 2,New,New,1,30.60,299.98,330.58,Credit Card,,,"2 years parts, 1 year labor for Small Items","Ninja Leg Massager 2,",YES,,Delivered,,Invoice # 0019963,,TX,0,10.20,USJ-880,330.58,TC # 255799477831437268187,,,,,,,,/,0.00,,,,,,,,,/,0.00,,,,,,,,,/
"Sam's Club #8265 Lake Charles, LA","Sam's Club #8265 Lake Charles, LA",Chris Tavira,122552,11/18/2019 9:25:13 AM,John Gregory,LA,70605,Shogun Neck & Back Massger,New,New,1,20.40,199.98,220.38,Credit Card,,,"2 years parts, 1 year labor for Small Items","Shogun Neck &amp; Back Massger,",YES,,Delivered,,Invoice # 0019962,,TX,0,10.20,USJ-874USJ-874,220.38,TC # 448046649278179326984,,,,,,,,/,0.00,,,,,,,,,/,0.00,,,,,,,,,/
"Sam's Club #8265 Lake Charles, LA","Sam's Club #8265 Lake Charles, LA",Chris Tavira,122562,11/18/2019 4:09:06 PM,Carlos L Pellicera,PR,00717,Shogun Neck & Back Massger,New,New,1,20.40,199.98,220.38,Credit Card,,,"2 years parts, 1 year labor for Small Items","Shogun Neck &amp; Back Massger,",YES,,Delivered,,Invoice # 0019966,,CA,0,10.20,USJ-874USJ-874,220.38,TC # 970330614354943723661,,,,,,,,/,0.00,,,,,,,,,/,0.00,,,,,,,,,/
"Sam's Club #8265 Lake Charles, LA","Sam's Club #8265 Lake Charles, LA",Chris Tavira,122563,11/18/2019 4:12:47 PM,Billy Leonard Jr,AL,36691,Shogun Neck & Back Massger,New,New,1,20.40,199.98,220.38,Credit Card,,,"2 years parts, 1 year labor for Small Items","Shogun Neck &amp; Back Massger,",YES,,Delivered,,Invoice # 0019980,,FL,0,10.20,USJ-874USJ-874,220.38,TC # 381491931520722855473,,,,,,,,/,0.00,,,,,,,,,/,0.00,,,,,,,,,/
"Sam's Club #8265 Lake Charles, LA","Sam's Club #8265 Lake Charles, LA",Chris Tavira,122564,11/18/2019 4:18:20 PM,Linda Marcantel,LA,70663,Legacy for Sam's,New Black,New,1,448.60,4398.00,4846.60,Credit Card,,,"3 years parts, 1 year labor (Free)","Legacy for Sam's,",No,,Assigned,,Invoice # 0019976,"Original received-Erika 11/18/19 5:00pm
cc/text completed-Erika 11/18",TX,0,10.20,DWA-9100DWA-9100BL,4846.60,TC # 7215573852941801665265,,,,,,,,/,0.00,,,,,,,,,/,0.00,,,,,,,,,/
"Sam's Club #8265 Lake Charles, LA","Sam's Club #8265 Lake Charles, LA",Chris Tavira,122565,11/18/2019 4:24:26 PM,Carlos Pellicera,AA,00717,Shogun Neck & Back Massger,New,New,1,20.40,199.98,220.38,Credit Card,,,"2 years parts, 1 year labor for Small Items","Shogun Neck &amp; Back Massger,",YES,,Delivered,,Invoice # 0019981,,TX,0,10.20,USJ-874USJ-874,220.38,TC # 787779075816431282157,,,,,,,,/,0.00,,,,,,,,,/,0.00,,,,,,,,,/
