﻿Original Event Name,Event Name,Sales Person,Order Number,Order Date,Customer Name,State,Zip,Product Name,Color,Product Status,QTY,Tax,Total Before Tax,Order Total,Primary Payment Method,Second Payment Method,Thirdl Payment Method,Warranty,Order Items,Pick up,Delivered On,Order Status,Chair Type,Order Notes,Private Note,Branch,No Tax,Actual Tax Rate,SKU,Primary Payment Balance,Primary Authorize Number,Primary Purchase Order Number,Primary Synchrony Account Number,Primary Synchrony Application Key,Primary Synchrony Account Info,Primary Synchrony Term,Second Payment Balance,Second Authorize Number,Second Purchase Order Number,Second Synchrony Account Number,Second Synchrony Application Key,Second Synchrony Account Info,Second SynchronyTerm,Third Payment Balance,Third Authorize Number,Third Purchase Order Number,Third Synchrony Account Number,Third Synchrony Application Key,Third Synchrony Account Info,Third Synchrony Term
ORLANDO HOME SHOW 9/15-16/18 ORLANDO (FL),ORLANDO HOME SHOW 9/15-16/18 ORLANDO (FL),Alex Brackelsberg,109429,9/16/2018 6:57:35 AM,Monica Coleman,FL,33896,Symphony,New Black,New,1,0.00,4799.00,4799.00,Synchrony,,,"5 years parts, 1 year labor (Free)","Symphony,",No,,Cancelled,,Best delivery day is Saturday,"COnfirmed synchrony account ($5,500) and original . Hitomi",Not Dispatched,1,6.50,USJ-9300Symphony-BL,4800.00,,,6019160813191832,94465561,Huston,48 months,0.00,,,,,,,0.00,,,,,,
ORLANDO HOME SHOW 9/15-16/18 ORLANDO (FL),ORLANDO HOME SHOW 9/15-16/18 ORLANDO (FL),Alex Brackelsberg,109430,9/16/2018 7:06:16 AM,David Sauer,FL,34711,Relax2Zero 3D,Demo Black,Demo,1,0.00,3800.00,3800.00,Synchrony,,,"5 years parts, 1 year labor (Free)","Relax2Zero 3D,",No,9/15/2018 12:00:00 AM,Delivered,,Delivered Saturday after show. Needs to sign synchrony form.,,FL,1,6.50,DWA-9060USJ-9060BL-DEMO,3800.00,,,6018170813141048,94454743,Huston,36 months,0.00,,,,,,,0.00,,,,,,
ORLANDO HOME SHOW 9/15-16/18 ORLANDO (FL),ORLANDO HOME SHOW 9/15-16/18 ORLANDO (FL),Alex Brackelsberg,109431,9/16/2018 7:10:26 AM,Brian Poloniecki,FL,32736,Relax2Zero 3D,Demo Choco,Demo,1,0.00,3500.00,3500.00,CreditCard,,,"5 years parts, 1 year labor (Free)","Relax2Zero 3D,",No,11/19/2018 12:00:00 AM,Delivered,Demo,Hold until mid November for delivery,"Confirmed $3,500.00 in Square. Place on HOLD 9/19/18 Hitomi
Ready// t.t. 11/12 1pm -MQ
11/21Maritza- Delivery confirmation received (HC)",FL,1,6.50,DWA-9060USJ-9060BR-DEMO,3500.00,Receipt #4ICA,,,,,,0.00,,,,,,,0.00,,,,,,
ORLANDO HOME SHOW 9/15-16/18 ORLANDO (FL),ORLANDO HOME SHOW 9/15-16/18 ORLANDO (FL),Alex Brackelsberg,109432,9/16/2018 7:15:52 AM,Shane Waters,FL,34772,Relax2Zero 3D,Demo Choco,Demo,1,0.00,3300.00,3300.00,CreditCard,,,"5 years parts, 1 year labor (Free)","Relax2Zero 3D,",No,9/16/2018 12:00:00 AM,Delivered,,Broken wheel and cover on back left given discount based on damage of chair for floor model.,"CC Josefina - 9/18/18 11:25am

Confirmed $3,300.00 in Square. 9/17/18 Hitomi",FL,1,6.50,DWA-9060USJ-9060BR-DEMO,3300.00,#bLrX,,,,,,0.00,,,,,,,0.00,,,,,,
ORLANDO HOME SHOW 9/15-16/18 ORLANDO (FL),ORLANDO HOME SHOW 9/15-16/18 ORLANDO (FL),Alex Brackelsberg,109552,9/18/2018 12:25:08 PM,Monica Coleman,FL,33896,Symphony,New Black,New,1,0.00,4800.00,4800.00,Synchrony,,,"5 years parts, 1 year labor (Free)","Symphony,",No,10/2/2018 12:00:00 AM,Delivered,,,"CC Josefina - 9/18/18 3:55pm VM
Best delivery day is Saturday
//Confirmed synchrony account($5,500) and original.***Please charge $4,800 before delivery and have sales draft signed.*** 9/18/18 Hitomi",FL,1,6.50,USJ-9300Symphony-BL,4800.00,,,6019160813191832,94465561,Huston,48 months,0.00,,,,,,,0.00,,,,,,
