﻿Date,CustomerName,State,Zipcode,Description,productNo,Color,IsDemo,Net,ShippingFee,GiftPrice,FinancingProcessingFee,Gross,Pre_tax,Tax,Commission,PaymentMethod,Primary Payment Balance,Secondary Payment Method,DeliveryDate,Ispickup,Warranty,Status,Event Name,Synchrony Account Number,Synchrony Application Key,Synchrony Account info,Synchrony Term,Synchrony Notes,Order Notes
10/1/2017 7:54:45 AM,Howard Pisons,VA,23235,Legacy 3D,DWA-9150USJ-9150CH,Choco Brown,New,,,,,4199.63,4026.00,173.63,Ruben Cuatrona,CreditCard,0.00,,,No,"3 years parts, 1 year labor (Free)",Scheduled,Virginia State Fair 9/29-10/8,,,,,,
10/1/2017 8:05:14 AM,Christopher Hartley,VA,23434,Legacy 3D,DWA-9150USJ-9150BL,Black,New,,,,,4130.13,3960.00,170.13,Rodrigo Malabunga,CreditCard,0.00,,,No,"3 years parts, 1 year labor (Free)",Assigned,Virginia State Fair 9/29-10/8,,,,,,
10/1/2017 8:10:35 AM,Karen Hill,OK,74038,Serenity,SSRT-1SSRT-1-BR-DEMO,Demo Choco Brown,Demo,,,,,3038.48,2800.00,238.48,Phuoc Van,CreditCard,300.00,COD,,YES,"3 years parts, 1 year labor (Free)",Assigned,Tulsa State Fair #4849 9/28-10/8 (TX),,,,,,"Invoice 7
Total $3038.56
Deposit $300
Remaining $2738.56"
10/1/2017 8:15:17 AM,Tabitha Freeman,VA,22701,Legacy 3D,DWA-9150USJ-9150BL-DEMO,Demo Black,Demo,,,,,3898.47,3740.00,158.47,Ruben Cuatrona,Synchrony,0.00,,,No,"3 years parts, 1 year labor (Free)",Scheduled,Virginia State Fair 9/29-10/8,6034610081547385,79134071,,,,
10/1/2017 8:16:56 AM,Jennifer Shackelford,OK,74021,Legacy 3D,DWA-9150USJ-9150CH-DEMO,Demo Choco Brown,Demo,,,,,3600.00,3376.32,223.68,Tom Nguyen,CreditCard,1600.00,COD,,No,"3 years parts, 1 year labor (Free)",Assigned,Tulsa State Fair #486 9/28-10/8 (TX),,,,,,"Invoice 8
Remaining: $2000 on delivery"
10/1/2017 8:22:32 AM,Zeyfoula Beytoula,OK,74011,Legacy 3D,DWA-9150USJ-9150BL,Black,New,,,,,4199.99,3929.22,270.77,Tom Nguyen,Synchrony,4200.00,,,No,"3 years parts, 1 year labor (Free)",Assigned,Tulsa State Fair #486 9/28-10/8 (TX),6034610081546981,79129038,Huston,36 months,,"Invoice 14
Paid In Full
Auth#030219"
10/1/2017 8:24:49 AM,Robbin Rusk,MO,64862,Pegasus,DWA-9400Pegasus-BR,Choco Brown,New,,,,,4400.00,4113.53,286.47,Jennifer Tran,Cash,500.00,CreditCard,,No,"3 years parts, 1 year labor (Free)",Assigned,Tulsa State Fair #486 9/28-10/8 (TX),,,,,,"Invoice 9
Remaining: $3900 will pay Monday 10/2"
10/1/2017 8:26:32 AM,Charles Simpson,VA,23322,Relax2Zero 3D,DWA-9060USJ-9060BR,Choco Brown,New,,,,,4509.21,4320.00,189.21,Ruben Cuatrona,Synchrony,0.00,,,No,"3 years parts, 1 year labor (Free)",Scheduled,Virginia State Fair 9/29-10/8,6034610081547450,79134636,Las Vegas,48 months,,
10/1/2017 8:34:21 AM,Wanda Huntsberger,OK,73742,Serenity,SSRT-1SSRT-1-BR,Choco Brown,New,,,,,3000.00,2823.41,176.59,Kristy Tran,CreditCard,200.00,Cash,,No,"3 years parts, 1 year labor (Free)",Cancelled,Tulsa State Fair #486 9/28-10/8 (TX),,,,,,"Invoice 10
Remaining: $2800 CASH on balance No checks, no money order
**PLEASE send with 3 back paddings**"
10/1/2017 8:34:21 AM,Wanda Huntsberger,OK,73742,Chair Pad for Majesty,,,New,,,,,3000.00,2823.41,176.59,Kristy Tran,CreditCard,200.00,Cash,,No,no warranty,Cancelled,Tulsa State Fair #486 9/28-10/8 (TX),,,,,,"Invoice 10
Remaining: $2800 CASH on balance No checks, no money order
**PLEASE send with 3 back paddings**"
10/1/2017 8:34:55 AM,Manuel Meza,OK,74107,Legacy 3D,DWA-9150USJ-9150CH,Choco Brown,New,,,,,4200.01,3929.23,270.78,Jennifer Tran,Synchrony,4200.00,,,No,"3 years parts, 1 year labor (Free)",Assigned,Tulsa State Fair #486 9/28-10/8 (TX),6034610081547245,79131745,Huston,36 months,,"Invoice 15
Paid In Full
Auth# 030192"
10/1/2017 8:46:39 AM,Rick Oberlender,OK,74133,Legacy 3D,DWA-9150USJ-9150CH,Choco Brown,New,,,,,3600.00,3376.32,223.68,Phuoc Van,Synchrony,3600.00,,,No,"3 years parts, 1 year labor (Free)",Assigned,Tulsa State Fair #486 9/28-10/8 (TX),6034610081547609,79136014,Huston,36 months,,"Invoice 16
Paid In Full
Auth #030334"
10/1/2017 8:55:44 AM,David Reagle,OK,74011,Pegasus,DWA-9400Pegasus-BR-DEMO,Demo Choco Brown,Demo,,,,,4000.00,3686.06,313.94,Phuoc Van,CreditCard,4000.00,,,YES,"3 years parts, 1 year labor (Free)",Assigned,Tulsa State Fair #486 9/28-10/8 (TX),,,,,,"Invoice 17
Paid In Full"
10/1/2017 9:08:21 AM,Charles Martin,OK,74079,Serenity,SSRT-1SSRT-1-BR,Choco Brown,New,,,,,3000.00,2823.41,176.59,Kristy Tran,Synchrony,1200.00,,,No,"3 years parts, 1 year labor (Free)",Assigned,Tulsa State Fair #486 9/28-10/8 (TX),6034610081546056,79117305,Huston,12 months,,"Invoice 11
Total $3000
Synchrony $1200
Auth# 030785
Remaining $1800 (check)
Business check will be sent ASAP"
10/1/2017 9:15:43 AM,Julie Orth,OK,74070,Relax2Zero 1.0,USJ-9000USJ-9000KU,Black,New,,,,,3000.00,2823.41,176.59,Keith Kei,CreditCard,800.00,COD,,No,"3 years parts, 1 year labor (Free)",Cancelled,Tulsa State Fair #4849 9/28-10/8 (TX),,,,,,
10/1/2017 9:19:08 AM,William Mayfield,OK,74020,Pegasus,DWA-9400Pegasus-BR,Choco Brown,New,,,,,4200.01,3929.23,270.78,Jennifer Tran,COD,0.00,CreditCard,,No,"3 years parts, 1 year labor (Free)",Hold,Tulsa State Fair #486 9/28-10/8 (TX),,,,,,"Invoice 12
Customer will call Wed/Thurs to deposit 10/4-5
**HOLD order til Feb/Mar 2018"
10/1/2017 9:19:41 AM,Mike Vanderlind,OK,74136,Legacy 3D,DWA-9150USJ-9150CH,Choco Brown,New,,,,,3600.00,3376.32,223.68,Kristy Tran,CreditCard,3600.00,,,No,"3 years parts, 1 year labor (Free)",Assigned,Tulsa State Fair #486 9/28-10/8 (TX),,,,,,"Invoice 13
Paid In Full"
10/1/2017 9:33:19 AM,Ronnie Miller,OK,74015,Legend 3.0,DWA-9250USJ-9150CH,Choco Brown,New,,,,,4991.78,4658.86,332.92,Keith Kei,CreditCard,300.00,COD,,No,"3 years parts, 1 year labor (Free)",Assigned,Tulsa State Fair #4849 9/28-10/8 (TX),,,,,,
10/1/2017 9:38:01 AM,Mia D Carr,LA,71111,Vitality Plate,USJ-849USJ-849,New,New,,,,,455.39,413.99,41.40,KHOA H,CreditCard,0.00,,,No,"2 years parts, 1 year labor (Small Items)",Assigned,NRPA New Orleans 9/26-9/27 (TX),,,,,,"Sold at Sam's club COVINGTIN, LA #4874."
10/1/2017 10:56:37 AM,Felicia Luke,FL,32206,Legacy,DWA-9100DWA-9100CR-DEMO,Demo Cream,Demo,,,,,3745.00,3500.00,245.00,Mitch Valdes,CreditCard,3745.00,,10/1/2017 12:00:00 AM,No,"3 years parts, 1 year labor (Free)",Delivered,Jacksonville Home and Patio Show,,,,,,
10/1/2017 10:56:37 AM,Felicia Luke,FL,32206,Chair Pad for Legacy,,,New,,,,,3745.00,3500.00,245.00,Mitch Valdes,CreditCard,3745.00,,10/1/2017 12:00:00 AM,No,no warranty,Delivered,Jacksonville Home and Patio Show,,,,,,
10/1/2017 12:20:28 PM,Shawn Drussart,FL,32233,Relax2Zero 2.0,USJ-9050USJ-9050BR,Brown,New,,,,,4173.00,3900.00,273.00,Alex Brackelsberg,Synchrony,4173.00,,10/5/2017 12:00:00 AM,No,"3 years parts, 1 year labor (Free)",Delivered,Jacksonville Home and Patio Show,6034610981548417,79151332,Huston,36 months,,
10/1/2017 12:46:38 PM,Ronald Jolley,FL,32034,Legacy,DWA-9100DWA-9100CR,Cream,New,,,,,3745.00,3500.00,245.00,Mitch Valdes,CreditCard,100.00,,10/5/2017 12:00:00 AM,No,"3 years parts, 1 year labor (Free)",Delivered,Jacksonville Home and Patio Show,,,,,,"Balance of $3,645 to be paid before delivery
Call next week for payment and delivery"
10/1/2017 4:48:41 PM,Cyril Marifosque,TX,75019,Legacy,DWA-9100DWA-9100BU,Blue,New,,,,,3500.63,3291.00,209.63,Linda Qu,Synchrony,0.00,,10/3/2017 12:00:00 AM,No,"3 years parts, 1 year labor (Free)",Delivered,Health and Wellness Carrollton Store 2017 (TX),6034610081549712,79164730,Huston,36 months,,$3500 sale price. No charge for $0.63
10/1/2017 6:24:47 PM,Joseph Lyons,CA,95602,Relax2Zero 1.0,USJ-9000USJ-9000KU,Black,New,,,,,4000.75,3781.00,219.75,Joseph Chan,Cash,200.00,Check,,No,"3 years parts, 1 year labor (Free)",Hold,Aubrun Home Show 9/29-10/1,,,,,,"Actual sales is $4000, customer will call for delivery"
10/1/2017 6:31:28 PM,April Schmitt,CA,95746,Relax2Zero 1.0,USJ-9000USJ-9000KU,Black,New,,,,,4200.00,3966.78,233.22,Joseph Chan,CreditCard,4200.00,,,No,"3 years parts, 1 year labor (Free)",Assigned,Aubrun Home Show 9/29-10/1,,,,,,
10/1/2017 6:41:18 PM,Penny Hicks,CA,94458,Legacy,DWA-9100DWA-9100CH,Choco Brown,New,,,,,3800.00,3593.82,206.18,Joseph Chan,CreditCard,3800.00,,,No,"3 years parts, 1 year labor (Free)",Called,Aubrun Home Show 9/29-10/1,,,,,,
10/1/2017 8:46:07 PM,Joseph Dorsey,OK,74017,Pegasus,DWA-9400Pegasus-BR,Choco Brown,New,,,,,4800.00,4482.13,317.87,Phuoc Van,Synchrony,4800.00,CreditCard,,No,"3 years parts, 1 year labor (Free)",Assigned,Tulsa State Fair #486 9/28-10/8 (TX),6034610081548169,79147569,Huston,36 months,,"Invoice 23
Paid in full
Synchrony Finance $3500 @ 36 months
Auth #001067
Credit Card $1300 Square #l2y7"
10/1/2017 8:51:28 PM,Joe & Lauren Speer,OK,74011,Pegasus,DWA-9400Pegasus-BL,Black,New,,,,,4800.00,4482.13,317.87,Jennifer Tran,CreditCard,4800.00,,,No,"3 years parts, 1 year labor (Free)",Called,Tulsa State Fair #486 9/28-10/8 (TX),,,,,,"Invoice 24
Paid in full"
10/1/2017 8:56:09 PM,Kent Harmon,OK,74055,Pegasus,DWA-9400Pegasus-BR,Choco Brown,New,,,,,4200.01,3929.23,270.78,Tom Nguyen,Synchrony,4200.00,,,No,"3 years parts, 3 years labor ($400)",Assigned,Tulsa State Fair #486 9/28-10/8 (TX),6034610081548755,79154971,Huston,36 months,,"Invoice 25
Paid in full
Auth #001790"
10/1/2017 9:01:58 PM,Jacob Schellenberg,OK,74015,Pegasus,DWA-9400Pegasus-BR-DEMO,Demo Choco Brown,Demo,,,,,7600.00,7003.51,596.49,Kristy Tran,CreditCard,7600.00,,,YES,"3 years parts, 1 year labor (Free)",Assigned,Tulsa State Fair #486 9/28-10/8 (TX),,,,,,"Invoice 26 & 27
Paid in full
1 Choco Brown Demo 
1 Black Demo"
10/1/2017 9:06:00 PM,Carol McIntive,OK,74056,Legacy 3D,DWA-9150USJ-9150CH,Choco Brown,New,,,,,4200.01,3929.23,270.78,Jennifer Tran,CreditCard,4200.00,,,No,"3 years parts, 1 year labor (Free)",Assigned,Tulsa State Fair #486 9/28-10/8 (TX),,,,,,"Invoice 28
Paid in full
**PLEASE Deliver Afternoon around 2pm**"
10/1/2017 9:12:32 PM,Teria Frank,OK,74014,Legacy 3D,DWA-9150USJ-9150CH-DEMO,Demo Choco Brown,Demo,,,,,3600.00,3317.45,282.55,Kristy Tran,Synchrony,3600.00,,,YES,"3 years parts, 1 year labor (Free)",Assigned,Tulsa State Fair #486 9/28-10/8 (TX),6034610081549290,79160352,Huston,36 months,,"Invoice 29
Paid in full
Auth #001500"
10/1/2017 9:21:18 PM,Bruce Mabrey,OK,74447,Legacy 3D,DWA-9150USJ-9150BL-DEMO,Demo Black,Demo,,,,,3600.00,3376.32,223.68,Tom Nguyen,CreditCard,3600.00,,,No,"3 years parts, 1 year labor (Free)",Assigned,Tulsa State Fair #486 9/28-10/8 (TX),,,,,,"Invoice 30
Paid in full"
10/1/2017 9:25:18 PM,Jovelyn Peugh,OK,74053,Legacy 3D,DWA-9150USJ-9150CH,Choco Brown,New,,,,,4199.99,3929.22,270.77,Jennifer Tran,CreditCard,100.00,COD,,No,"3 years parts, 1 year labor (Free)",Cancelled,Tulsa State Fair #486 9/28-10/8 (TX),,,,,,"Invoice 31
**Customer had CANCELLED and has been refunded**"
10/1/2017 9:30:46 PM,Tim & Tonda Wilson,OK,74145,Legacy 3D,DWA-9150USJ-9150CH,Choco Brown,New,,,,,3600.00,3376.32,223.68,Tom Nguyen,CreditCard,200.00,COD,,No,"3 years parts, 1 year labor (Free)",Hold,Tulsa State Fair #486 9/28-10/8 (TX),,,,,,"Invoice 32
Remaining: $3400
**HOLD up to 6 months**"
10/1/2017 9:34:34 PM,Judie & Sean Hartzog,OK,74055,Legacy 3D,DWA-9150USJ-9150BL,Black,New,,,,,3800.00,3560.62,239.38,Jennifer Tran,CreditCard,200.00,COD,,No,"3 years parts, 1 year labor (Free)",Assigned,Tulsa State Fair #486 9/28-10/8 (TX),,,,,,"Invoice 33
Remaining: $3600"
10/1/2017 9:40:51 PM,Maria Caballero,OK,74107,Legacy 3D,DWA-9150USJ-9150CH,Choco Brown,New,,,,,4000.00,3744.92,255.08,Kristy Tran,Synchrony,4000.00,,,No,"3 years parts, 1 year labor (Free)",Assigned,Tulsa State Fair #486 9/28-10/8 (TX),6034610081549811,79165901,Huston,36 months,,"Invoice 34
Paid in full
Auth #001654
**Customer speaks Spanish**"
10/1/2017 10:22:10 PM,Julie Orth,OK,74070,Relax2Zero 1.0,USJ-9000USJ-9000KU,Black,New,,,,,3000.00,2823.41,176.59,Keith Kei,CreditCard,800.00,COD,,No,"3 years parts, 1 year labor (Free)",Assigned,Tulsa State Fair #4849 9/28-10/8 (TX),,,,,,"Please pick up the ""TRADE IN CHAIR"" when delivering.
Deposit Amount: $800
Remaining Balance: $2200
Invoice #: 19"
10/1/2017 10:43:33 PM,Ronnie Miller,OK,74015,Legend 3.0,DWA-9250USJ-9150CH,Choco Brown,New,,,,,4991.78,4658.86,332.92,Keith Kei,CreditCard,300.00,COD,,No,"3 years parts, 1 year labor (Free)",Assigned,Tulsa State Fair #4849 9/28-10/8 (TX),,,,,,"Invoice #: 20 
Deposit: $300
Remaining Balance: $4691.78"
10/1/2017 10:49:59 PM,Ronnie Miller,OK,74015,Legend 3.0,DWA-9250USJ-9150CH,Choco Brown,New,,,,,4991.78,4658.86,332.92,Keith Kei,CreditCard,300.00,COD,,No,"3 years parts, 1 year labor (Free)",Assigned,Tulsa State Fair #4849 9/28-10/8 (TX),,,,,,"Invoice #: 20 
Deposit: $300
Remaining Balance: $4691.78
Delivery 10-12 weeks later, please CALL TO CONFIRM before DELIVERY!"
10/1/2017 11:05:00 PM,Le Roy Millard,OK,74953,Legend 3.0,DWA-9250USJ-9150BL,Black,New,,,,,4000.00,3744.92,255.08,Keith Kei,Cash,100.00,,,No,"3 years parts, 1 year labor (Free)",Assigned,Tulsa State Fair #4849 9/28-10/8 (TX),,,,,,"Invoice #:21 
Customer have TAX EXEMPTION
Exemption #: 842390
Deposit: $100 Cash
Remaining Balance: $3900 CASH ONLY!
COD with CASH CASH only"
10/1/2017 11:21:07 PM,Elliott Futrell,IL,60015,Ninja Leg Massager,,,New,,,,,406.48,379.00,27.48,Michael Wang,CreditCard,0.00,,,YES,"2 years parts, 1 year labor (Small Items)",Delivered,Sam's Club #6228 9/15-9/17 (IL),,,,,,Customer paid Sam's Vernon Hills 6228 and picked up.
10/1/2017 11:33:57 PM,Warren Gresham,IL,60060,Relax2Zero 2.0 for Sam's,USJ-9050USJ-9050BR,Brown,New,,,,,3430.93,3199.00,231.93,Michael Wang,CreditCard,0.00,,,No,"3 years parts, 1 year labor (Free)",Assigned,Sam's Club #6228 9/15-9/17 (IL),,,,,,Deliver Relax2zero 1.0 chair and deliver week of Oct 23 but please make appointment in advance if possible.Open new Relax2zero 1.0 and deliver as a demo.Give 2 total free chairs pads and 1 free blanket.
10/1/2017 11:41:57 PM,Ted Wozny,IL,60060,Relax2Zero 2.0 for Sam's,USJ-9050USJ-9050BR,Brown,New,,,,,3430.93,3199.00,231.93,Michael Wang,CreditCard,0.00,,,No,"3 years parts, 1 year labor (Free)",Assigned,Sam's Club #6228 9/15-9/17 (IL),,,,,,Open new Relax2zero 1.0 and deliver as demo.2 free chairs pads and 1 blanket.Give 1 free flash drive with music.
10/1/2017 11:43:28 PM,William E Allen,OK,74422,Legend 3.0,DWA-9250USJ-9150BL,Black,New,,,,,4000.00,3744.92,255.08,Keith Kei,Synchrony,3000.00,CreditCard,,No,"3 years parts, 1 year labor (Free)",Assigned,Tulsa State Fair #4849 9/28-10/8 (TX),6034610081547591,79135884,Huston,36 months,,"Invoice # : 22 
Deposit : $1000 paid with Master Card
Auth code: 09003Z
Synchrony: $3000 with 36 months
Customer Owe: $0
Paid in full."
10/1/2017 11:50:07 PM,Sui Ling Kong,CA,94403,Legacy for Sam's,DWA-9100DWA-9100CH,Choco,New,,,,,3859.93,3599.00,260.93,Michael Wang,CreditCard,0.00,,,No,"3 years parts, 1 year labor (Free)",Assigned,Sam's Club #6228 9/15-9/17 (IL),,,,,,2 free chairs pads and 1 free blanket.Open new chair and give as a demo.
10/1/2017 11:57:55 PM,Chirag Patel,IL,60047,Legacy for Sam's,DWA-9100DWA-9100CH,Choco,New,,,,,3859.93,3599.00,260.93,Michael Wang,CreditCard,0.00,,,No,"3 years parts, 1 year labor (Free)",Assigned,Sam's Club #6228 9/15-9/17 (IL),,,,,,2 free chairs pads 1 free blanket.Customer wants chair in box for floor model price.He does not trust that open box chair is unused and believes there maybe scratches.
10/2/2017 7:06:26 AM,Thy Tran,TX,73064,Legacy,DWA-9100DWA-9100BU,Blue,New,,,,,3300.37,3106.00,194.37,Linda Qu,CreditCard,0.00,,,No,"3 years parts, 1 year labor (Free)",Assigned,Health and Wellness Carrollton Store 2017 (TX),,,,,,Sale price is $3300.
10/2/2017 7:43:09 AM,Ken Stroud,VA,22485,Relax2Zero 3D,DWA-9060USJ-9060BR-DEMO,Demo Choco Brown,Demo,,,,,3900.58,3742.00,158.58,Rodrigo Malabunga,CreditCard,0.00,,10/2/2017 12:00:00 AM,No,"3 years parts, 1 year labor (Free)",Delivered,Virginia State Fair 9/29-10/8,,,,,,Customer already picked up.
10/2/2017 7:45:59 AM,Gary Seidensticker,CT,06515,Legacy 3D,DWA-9150USJ-9150BL,Black,New,,,,,4000.00,3808.82,191.18,Gary Cyrlin,Synchrony,4000.00,,,No,"3 years parts, 1 year labor (Free)",Assigned,The Big E State Fair 9/15-10/1,6034610081546387,79122133,Las Vegas,36 months,,"Order Date: 09/30/2017
Synchrony Approval#030300"
10/2/2017 7:51:04 AM,Daniel Duff,VA,23177,Legacy 3D,DWA-9150USJ-9150CH,Choco Brown,New,,,,,4203.84,4030.00,173.84,Ruben Cuatrona,CreditCard,500.00,COD,,No,"3 years parts, 1 year labor (Free)",Assigned,Virginia State Fair 9/29-10/8,,,,,,"Total $4200, Deposit $500, the remaining balance $3700 will be paid when delivery."
10/2/2017 7:51:30 AM,Nancy Klingerman,CT,06043,Pegasus,DWA-9400Pegasus-BR,Choco Brown,New,,,,,4900.00,4655.88,244.12,Abigail Stirling,Synchrony,4900.00,,,No,"3 years parts, 1 year labor (Free)",Assigned,The Big E State Fair 9/15-10/1,6034610081545736,79113668,Las Vegas,48 months,,"Order Date: 09/30/2017
Approval#030526

Sales: Abigail, Iileen & Gary"
10/2/2017 7:57:42 AM,Stephen Kokoszka,CT,06451,Relax2Zero 3D,DWA-9060USJ-9060BL,Black,New,,,,,4200.00,3997.06,202.94,Gary Cyrlin,CreditCard,4200.00,,,No,"3 years parts, 1 year labor (Free)",Assigned,The Big E State Fair 9/15-10/1,,,,,,"Order Date: 10/01/2017
Sales: Rolly & Gary"
10/2/2017 8:00:03 AM,Mary Bonner,VA,23860,Legacy 3D,DWA-9150USJ-9150BL,Black,New,,,,,4003.77,3840.00,163.77,Rodrigo Malabunga,Check,2500.00,Cash,,No,"3 years parts, 1 year labor (Free)",Assigned,Virginia State Fair 9/29-10/8,,,,,,"Total $4000, customer paid deposit $2500 with a personal check, balance $1500 will be paid on COD."
10/2/2017 8:02:46 AM,Cheryl Alicia,MA,01518,Legacy 3D,DWA-9150USJ-9150BL,Black,New,,,,,4200.00,3997.06,202.94,Ilene Maynard,CreditCard,4200.00,,,No,"3 years parts, 1 year labor (Free)",Assigned,The Big E State Fair 9/15-10/1,,,,,,Order Date: 09/30/2017
10/2/2017 8:07:59 AM,Doriana Vicedomini,CT,06078,Relax2Zero 3D,DWA-9060USJ-9060BR,Choco Brown,New,,,,,4000.00,3808.82,191.18,Amando Loreno,Synchrony,4000.00,,,No,"3 years parts, 1 year labor (Free)",Assigned,The Big E State Fair 9/15-10/1,6034610081547476,79134881,Las Vegas,36 months,,"Order Date: 09/30/2017
Approval #030705
Sales: Amando & Gary"
10/2/2017 8:12:22 AM,Robert Subqcius,VA,22485,Legacy 3D,DWA-9150USJ-9150CH-DEMO,Demo Choco Brown,Demo,,,,,3900.58,3742.00,158.58,Ruben Cuatrona,Synchrony,0.00,,,No,"3 years parts, 1 year labor (Free)",Called,Virginia State Fair 9/29-10/8,6034610081549928,79166366,Las Vegas,36 months,,
10/2/2017 8:22:11 AM,David Sparkowich,NH,03451,Legacy 3D,DWA-9150USJ-9150CH,Choco Brown,New,,,,,4200.00,3997.06,202.94,Winston Melgar,Synchrony,4200.00,,,No,"3 years parts, 1 year labor (Free)",Assigned,The Big E State Fair 9/15-10/1,6034610081547013,79129306,Las Vegas,36 months,,Order date: 10/01/2017
10/2/2017 8:27:57 AM,Dax Alvarez,VA,23666,Relax2Zero 3D,DWA-9060USJ-9060BL,Black,New,,,,,4200.00,4026.35,173.65,Heather Jones,Synchrony,0.00,,,No,"3 years parts, 1 year labor (Free)",Scheduled,Virginia State Fair 9/29-10/8,6034610081548854,79155531,Las Vegas,36 months,,
10/2/2017 8:34:09 AM,John Mallon,RI,02885,Relax2Zero 3D,DWA-9060USJ-9060BR,Choco Brown,New,,,,,4000.00,3808.82,191.18,Rolly San Jose,CreditCard,4000.00,,,No,"3 years parts, 1 year labor (Free)",Assigned,The Big E State Fair 9/15-10/1,,,,,,Order Date: 09/30/2017
10/2/2017 8:39:06 AM,Christopher Meachen,CT,06513,Legacy 3D,DWA-9150USJ-9150CH,Choco Brown,New,,,,,3800.00,3620.59,179.41,Rolly San Jose,Synchrony,3800.00,,,No,"3 years parts, 1 year labor (Free)",Assigned,The Big E State Fair 9/15-10/1,6034610081546478,79122786,Las Vegas,36 months,,Order Date: 09/30/2017
10/2/2017 9:07:50 AM,Kristin Ingram,CT,06095,Relax2Zero 3D,DWA-9060USJ-9060BL,Black,New,,,,,4200.00,3997.06,202.94,Amando Loreno,CreditCard,4200.00,,,No,"3 years parts, 1 year labor (Free)",Scheduled,The Big E State Fair 9/15-10/1,,,,,,"Order Date: 10/01/2017
Sales: Amando & Winston"
10/2/2017 9:14:18 AM,Robert Menefee,CT,06511,Legacy 3D,DWA-9150USJ-9150BL,Black,New,,,,,4200.00,3997.06,202.94,Amando Loreno,CreditCard,4200.00,,,No,"3 years parts, 1 year labor (Free)",Assigned,The Big E State Fair 9/15-10/1,,,,,,Order Date: 10/01/2017
10/2/2017 9:36:28 AM,Byunjkil Jeon,DE,06516,Legacy 3D,DWA-9150USJ-9150BL,Black,New,,,,,3800.00,3620.59,179.41,Winston Melgar,Synchrony,3800.00,,,No,"3 years parts, 1 year labor (Free)",Assigned,The Big E State Fair 9/15-10/1,6034610081548193,79148109,Las Vegas,36 months,,"Approved #001563
Delivery: Thursday through Sunday, anytime."
10/2/2017 9:42:25 AM,Richard Donavan,CT,06479,Legacy 3D,DWA-9150USJ-9150CH,Choco Brown,New,,,,,4000.00,3808.82,191.18,Abigail Stirling,CreditCard,4000.00,,,No,"3 years parts, 1 year labor (Free)",Assigned,The Big E State Fair 9/15-10/1,,,,,,Order Date 10/01/2017
10/2/2017 9:46:30 AM,Tania Bard,CT,06042,Legacy 3D,DWA-9150USJ-9150BL,Black,New,,,,,4000.00,3808.82,191.18,Amando Loreno,Synchrony,4000.00,,,No,"3 years parts, 1 year labor (Free)",Hold,The Big E State Fair 9/15-10/1,6034610081549233,79159910,Las Vegas,36 months,,"Order Date: 10/01/2017
Approval #001478"
10/2/2017 9:49:43 AM,Heather Rogan,MA,01085,Relax2Zero 3D,DWA-9060USJ-9060BR,Choco Brown,New,,,,,4000.00,3808.82,191.18,Winston Melgar,Synchrony,4000.00,,,No,"3 years parts, 1 year labor (Free)",Scheduled,The Big E State Fair 9/15-10/1,6034610081549282,79160319,Las Vegas,36 months,,Approval#001850
10/2/2017 9:54:40 AM,Corey Godley,CT,06610,Pegasus,DWA-9400Pegasus-BR-DEMO,Demo Choco Brown,Demo,,,,,4700.00,4467.65,232.35,Ilene Maynard,Synchrony,4700.00,,,No,"3 years parts, 1 year labor (Free)",Assigned,The Big E State Fair 9/15-10/1,6034610081548672,79154074,Las Vegas,48 months,,"Order Date: 10/01/2017
Approval #001634"
10/2/2017 10:01:13 AM,Nikki Wilson,NY,13206,Relax2Zero 3D,DWA-9060USJ-9060BL,Black,New,,,,,4300.00,4091.18,208.82,Ilene Maynard,Cash,2000.00,,,No,"3 years parts, 1 year labor (Free)",Assigned,The Big E State Fair 9/15-10/1,,,,,,"Order Date: 10/01/2017
Remaining balance will be Layaway."
10/2/2017 10:09:10 AM,Nancy Fanderson,MA,01040,Legacy 3D,DWA-9150USJ-9150BL,Black,New,,,,,4734.00,4499.65,234.35,Ilene Maynard,CreditCard,0.00,,,No,"3 years parts, 1 year labor (Free)",Assigned,The Big E State Fair 9/15-10/1,,,,,,"Order Date: 09/22/2017
Please call customer to charge full amount before delivery."
10/2/2017 10:23:20 AM,Michael Ragone,CT,06029,Pegasus,DWA-9400Pegasus-BL,Black,New,,,,,5200.01,4938.24,261.77,Rolly San Jose,Synchrony,0.00,,,No,"3 years parts, 1 year labor (Free)",Hold,The Big E State Fair 9/15-10/1,,78564572,Las Vegas,48 months,,"Order Date: 09/24/2017
Actual total amount is $5,200.00-

Per synchrony, customer needs to call synchrony for few questions before they can approve applications."
10/2/2017 10:29:22 AM,Stephen Morneau,MA,01020,Pegasus,DWA-9400Pegasus-BL,Black,New,,,,,5000.00,4750.00,250.00,Abigail Stirling,Synchrony,1200.00,,,No,"3 years parts, 1 year labor (Free)",Assigned,The Big E State Fair 9/15-10/1,6034610081539085,78938939,Las Vegas,36 months,,"Order Date: 09/26/2017
Please call the customer to charge remaining balance of $3,800.00- before delivery."
10/2/2017 10:35:37 AM,Joseph Abate,CT,06514,Legacy 3D,DWA-9150USJ-9150BL,Black,New,,,,,4300.00,4029.45,270.55,Ilene Maynard,Synchrony,4300.00,,,No,"3 years parts, 1 year labor (Free)",Assigned,Texas Home & Garden Show Houston  10/21-10/22 (TX),6034610081545439,79109624,Las Vegas,36 months,,Order Date: 09/30/2017
10/2/2017 10:42:01 AM,Miranda Jacques,MA,01069,Relax2Zero 3D,DWA-9060USJ-9060BR,Choco Brown,New,,,,,4250.00,4044.12,205.88,Abagail Stirling,Synchrony,4250.00,,,No,"3 years parts, 1 year labor (Free)",Cancelled,The Big E State Fair 9/15-10/1,6034610081547559,79135342,Las Vegas,36 months,,Order Date: 09/30/2017
10/2/2017 10:43:36 AM,Wanda & Rodger Huntsberger,OK,73742,Serenity,SSRT-1SSRT-1-BR,Choco Brown,New,,,,,6000.00,5587.95,412.05,Kristy Tran,CreditCard,200.00,Cash,,No,"3 years parts, 1 year labor (Free)",Assigned,Tulsa State Fair #486 9/28-10/8 (TX),,,,,,"Invoice 10 & 35
Remaining: $5800 CASH on balance No checks, no money order
**PLEASE send with 6 back paddings**"
10/2/2017 10:43:36 AM,Wanda & Rodger Huntsberger,OK,73742,Chair Pad for Majesty,,,New,,,,,6000.00,5587.95,412.05,Kristy Tran,CreditCard,200.00,Cash,,No,no warranty,Assigned,Tulsa State Fair #486 9/28-10/8 (TX),,,,,,"Invoice 10 & 35
Remaining: $5800 CASH on balance No checks, no money order
**PLEASE send with 6 back paddings**"
10/2/2017 10:47:41 AM,Marise Dargie,MA,01085,Legacy 3D,DWA-9150USJ-9150BL,Black,New,,,,,4200.00,3997.06,202.94,Amando Loreno,CreditCard,4200.00,,,No,"3 years parts, 1 year labor (Free)",New,The Big E State Fair 9/15-10/1,,,,,,"Order Date: 10/01/2017
Deliver on Nov 6, 2017"
10/2/2017 10:54:34 AM,Philip Hillenbrand,MA,01089,Relax2Zero 3D,DWA-9060USJ-9060BR,Choco Brown,New,,,,,4200.00,3997.06,202.94,Rolly San Jose,CreditCard,4200.00,,,No,"3 years parts, 1 year labor (Free)",Scheduled,The Big E State Fair 9/15-10/1,,,,,,Order Date: 10/01/2017
10/2/2017 10:59:28 AM,Lisa Legato,MA,01510,Legacy 3D,DWA-9150USJ-9150CH,Choco Brown,New,,,,,4500.00,4279.41,220.59,Ilene Maynard,Synchrony,4500.00,,,No,"3 years parts, 1 year labor (Free)",Assigned,The Big E State Fair 9/15-10/1,6034610081549605,79163161,Las Vegas,36 months,,"Order Date: 10/01/2017
Synchrony Approval #001530"
10/2/2017 11:04:59 AM,Silke Lanski,MA,01001,Relax2Zero 3D,DWA-9060USJ-9060BL,Black,New,,,,,4000.00,3808.82,191.18,Amando Loreno,Synchrony,4000.00,,,No,"3 years parts, 1 year labor (Free)",Scheduled,The Big E State Fair 9/15-10/1,6034610081549803,79165852,Las Vegas,36 months,,"Order Date: 10/01/2017
Synchrony Approval #001857"
10/2/2017 11:09:11 AM,Wasana Hannoush,MA,01022,Relax2Zero 3D,DWA-9060USJ-9060BR,Choco Brown,New,,,,,4000.00,3808.82,191.18,Winston Melgar,Synchrony,4000.00,,,No,"3 years parts, 1 year labor (Free)",New,The Big E State Fair 9/15-10/1,6034610081549795,79165726,Las Vegas,36 months,,"Order Date: 10/01/2017
Synchrony Approval #001904"
10/2/2017 3:09:01 PM,Christopher Norwood,VA,23831,Legacy 3D,DWA-9150USJ-9150CH,Choco Brown,New,,,,,4400.75,4217.00,183.75,Ting Ritchie,CreditCard,0.00,,,No,"3 years parts, 1 year labor (Free)",Scheduled,Virginia State Fair 9/29-10/8,,,,,,
10/2/2017 3:21:48 PM,Caroline Brewer,TX,78130,Legacy 3D,DWA-9150USJ-9150CH,Choco Brown,New,,,,,4113.33,3857.00,256.33,Chris Tavira,CreditCard,0.00,,,No,"3 years parts, 1 year labor (Free)",Assigned,San Antonio Home & Garden Show 9/29-10/1 (TX),,,,,,Total price is $4113.5.
10/2/2017 3:40:08 PM,Ivan Valdez,TX,78852,Legacy 3D,DWA-9150USJ-9150CH,Choco Brown,New,,,,,3800.49,3568.00,232.49,Chris Tavira,Cash,3750.00,CreditCard,,No,"3 years parts, 1 year labor (Free)",Assigned,San Antonio Home & Garden Show 9/29-10/1 (TX),,,,,,Paid $50 as deposit. Sales price $3800.
10/2/2017 5:14:50 PM,Esta Hobbs,CA,92561,Legacy for Sam's,DWA-9100DWA-9100CH,Choco,New,,,,,4632.17,4299.00,333.17,Kohei Uno,CreditCard,4632.17,,,No,"3 years parts, 3 years labor ($400)",Assigned,Sam's Club #4882 9/27-10/8 (CA),,,,,,"Please give customer a courtesy call right away since they do not have an email to receive confirmation of order.

Thank you"
10/2/2017 6:35:25 PM,Daiwa Massage,CA,90249,Foot Vibe Pro,USJ-871,,New,,,,,1053.77,977.98,75.79,Kohei Uno,PURCHASEORDER,0.00,,,YES,"2 years parts, 1 year labor (Small Items)",Cancelled,Sam's Club #4882 9/27-10/8 (CA),,,,,,
10/2/2017 6:35:25 PM,Daiwa Massage,CA,90249,Ninja Leg Massager,,,New,,,,,1053.77,977.98,75.79,Kohei Uno,PURCHASEORDER,0.00,,,YES,"2 years parts, 1 year labor (Small Items)",Cancelled,Sam's Club #4882 9/27-10/8 (CA),,,,,,
10/2/2017 10:49:18 PM,Malley's Joe,IL,60423,Legacy 3D,DWA-9150USJ-9150CH,Choco Brown,New,,,,,12000.00,12000.00,0.00,Ruben Cuatrona,PURCHASEORDER,0.00,,,YES,"3 years parts, 1 year labor (Free)",Assigned,IAAPA Orlando Wholesale,,,,,,"Team Sales:Ruben, Melissa
Deposit confirmed with receipt to the U.S Jaclean account.
More detail please ask Melissa."
10/2/2017 10:49:18 PM,Malley's Joe,IL,60423,Relax2Zero 3D,DWA-9060USJ-9060BL,Black,New,,,,,12000.00,12000.00,0.00,Ruben Cuatrona,PURCHASEORDER,0.00,,,YES,"3 years parts, 1 year labor (Free)",Assigned,IAAPA Orlando Wholesale,,,,,,"Team Sales:Ruben, Melissa
Deposit confirmed with receipt to the U.S Jaclean account.
More detail please ask Melissa."
10/2/2017 10:49:18 PM,Malley's Joe,IL,60423,Pegasus,DWA-9400Pegasus-BL,Black,New,,,,,12000.00,12000.00,0.00,Ruben Cuatrona,PURCHASEORDER,0.00,,,YES,"3 years parts, 1 year labor (Free)",Assigned,IAAPA Orlando Wholesale,,,,,,"Team Sales:Ruben, Melissa
Deposit confirmed with receipt to the U.S Jaclean account.
More detail please ask Melissa."
10/3/2017 7:25:10 AM,Gregory Packett,VA,22560,Legacy 3D,DWA-9150USJ-9150BL,Black,New,,,,,4200.68,4027.00,173.68,Rodrigo Malabunga,CreditCard,0.00,,,No,"3 years parts, 1 year labor (Free)",Assigned,Virginia State Fair 9/29-10/8,,,,,,2nd floor
10/3/2017 8:06:03 AM,Stephen Talley,VA,23093,Legacy 3D,DWA-9150USJ-9150CH,Choco Brown,New,,,,,4498.68,4310.00,188.68,Rodrigo Malabunga,Synchrony,0.00,,,No,"3 years parts, 1 year labor (Free)",Scheduled,Virginia State Fair 9/29-10/8,6034610081547773,79141711,Las Vegas,48 months,,"Stephen Talley approved $3500, the balance finance $1000 is under Mr Talley's wife- Gail Talley's name. The Approve number is: 003574, also 48 months."
10/3/2017 11:06:02 AM,Julie Dikeman,OK,74019,Pegasus,DWA-9400Pegasus-BR-DEMO,Demo Choco Brown,Demo,,,,,3800.00,3501.76,298.24,Phuoc Van,CreditCard,200.00,COD,,YES,"3 years parts, 1 year labor (Free)",Assigned,Tulsa State Fair #486 9/28-10/8 (TX),,,,,,"Invoice 36
Remaining: $3600"
10/3/2017 11:14:39 AM,Gail & Dave Jackson,OK,74017,Serenity,SSRT-1SSRT-1-BR-DEMO,Demo Choco Brown,Demo,,,,,2700.00,2546.95,153.05,Jennifer Tran,CreditCard,2700.00,,,No,"3 years parts, 1 year labor (Free)",Assigned,Tulsa State Fair #486 9/28-10/8 (TX),,,,,,"Invoice 37
Paid in full"
10/3/2017 11:22:22 AM,Sharlyn Farbro,OK,74301,Relax2Zero 1.0,USJ-9000USJ-9000BR,Brown,New,,,,,3200.00,3007.71,192.29,Kristy Tran,Synchrony,3000.00,CreditCard,,No,"3 years parts, 1 year labor (Free)",Assigned,Tulsa State Fair #4849 9/28-10/8 (TX),6034610081550843,79195697,Huston,36 months,,"Invoice 38 
Remaining: $200 on Delivery
Auth #002640"
10/3/2017 11:37:55 AM,Darrell Hendrick,OK,74429,Legend 3.0,DWA-9250USJ-9150CH,Choco Brown,New,,,,,4600.00,4297.83,302.17,Kristy Tran,CreditCard,200.00,COD,,No,"3 years parts, 1 year labor (Free)",Assigned,Tulsa State Fair #4849 9/28-10/8 (TX),,,,,,"Invoice 39
Remaining: $4400 on Delivery
Customer is Tax EXEMPT
EXM-10238437-02"
10/3/2017 12:33:33 PM,Yang He,OK,74012,Legacy 3D,DWA-9150USJ-9150CH,Choco Brown,New,,,,,4000.00,3744.92,255.08,Keith Kei,CreditCard,300.00,Cash,,No,"3 years parts, 1 year labor (Free)",Assigned,Tulsa State Fair #486 9/28-10/8 (TX),,,,,,"Invoice # : 40
Cash Cash when delivery :$3700 CASH"
10/3/2017 4:18:53 PM,Janet Hamel,OK,74010,Serenity,SSRT-1SSRT-1-BR,Choco Brown,New,,,,,3000.00,2823.41,176.59,Jennifer Tran,Cash,300.00,CreditCard,,No,"3 years parts, 1 year labor (Free)",Assigned,Tulsa State Fair #486 9/28-10/8 (TX),,,,,,"Invoice #41
Total: $3,000
Deposit: $300
Remaining Balance: $2,700(COD)"
10/3/2017 4:40:15 PM,Donny Williamson83,OK,74047,Pegasus,DWA-9400Pegasus-BR,Choco Brown,New,,,,,4500.00,4205.68,294.32,Phuoc Van,Cash,300.00,CreditCard,,No,"3 years parts, 1 year labor (Free)",Assigned,Tulsa State Fair #486 9/28-10/8 (TX),,,,,,"Invoice #42
Total: $4,500
Deposit: $300
Remaining: $4,200(CASH)"
10/4/2017 10:34:14 AM,Larene Mckenna,CA,95628,Relax2Zero 1.0,USJ-9000USJ-9000BR,Brown,New,,,,,3000.00,2847.90,152.10,Kaz Ohashi,CreditCard,100.00,COD,,No,"3 years parts, 1 year labor (Free)",Assigned,Aubrun Home Show 9/29-10/1,,,,,,
10/4/2017 10:59:06 AM,KHLOE NGUYEN,CA,92071,Relax2Zero 3D,DWA-9060USJ-9060BR,Choco Brown,New,,,,,4644.00,4302.53,341.47,Alan Zeng,Synchrony,0.00,,,No,"3 years parts, 1 year labor (Free)",Assigned,Health&Wellness San Diego,6034610081547534,79135218,San Diego,24 months,,
10/4/2017 10:59:06 AM,KHLOE NGUYEN,CA,92071,Chair Pad for Relax2Zero 3D,,,New,,,,,4644.00,4302.53,341.47,Alan Zeng,Synchrony,0.00,,,No,no warranty,Assigned,Health&Wellness San Diego,6034610081547534,79135218,San Diego,24 months,,
10/4/2017 10:59:06 AM,KHLOE NGUYEN,CA,92071,Foot Pads for Relax2Zero 3D,,,New,,,,,4644.00,4302.53,341.47,Alan Zeng,Synchrony,0.00,,,No,no warranty,Assigned,Health&Wellness San Diego,6034610081547534,79135218,San Diego,24 months,,
10/4/2017 2:59:53 PM,Suzanne Chang,CA,92592,Legacy for Sam's,DWA-9100DWA-9100BL,Black,New,,,,,3877.92,3599.00,278.92,Kohei Uno,CreditCard,3877.92,,,No,"3 years parts, 3 years labor ($400)",Assigned,Sam's Club #4882 9/27-10/8 (CA),,,,,,
10/4/2017 4:22:31 PM,Sarah Sinor,OK,74017,Relax2Zero 1.0,USJ-9000USJ-9000BR,Brown,New,,,,,3000.00,2823.41,176.59,Tom Nguyen,Synchrony,3000.00,,,No,"3 years parts, 1 year labor (Free)",Assigned,Tulsa State Fair #4849 9/28-10/8 (TX),6034610081554597,79290604,Huston,24 months,,"Invoice 43
Paid In Full
Auth# 004406"
10/4/2017 8:52:04 PM,Yi chuang Yang,TX,77064,Relax2Zero 2.0,USJ-9050USJ-9050BR-DEMO,Demo Brown,Demo,,,,,2699.58,2551.00,148.58,Yichuang (Debbie) Yang,CreditCard,2700.00,,,No,"3 years parts, 1 year labor (Free)",New,Health and Wellness Houston Store 2017 (TX),,,,,,
10/4/2017 8:52:04 PM,Yi chuang Yang,TX,77064,Chair Pad for Relax2Zero 2.0,,,New,,,,,2699.58,2551.00,148.58,Yichuang (Debbie) Yang,CreditCard,2700.00,,,No,no warranty,New,Health and Wellness Houston Store 2017 (TX),,,,,,
10/4/2017 8:52:04 PM,Yi chuang Yang,TX,77064,Foot Pads for Relax2Zero 2.0,,,New,,,,,2699.58,2551.00,148.58,Yichuang (Debbie) Yang,CreditCard,2700.00,,,No,no warranty,New,Health and Wellness Houston Store 2017 (TX),,,,,,
10/5/2017 7:22:06 AM,James Wade,FL,32534,Legacy 3D,DWA-9150USJ-9150CH-DEMO,Demo Choco Brown,Demo,,,,,3600.47,3457.00,143.47,Ting Ritchie,CreditCard,0.00,,,No,"3 years parts, 1 year labor (Free)",Assigned,Virginia State Fair 9/29-10/8,,,,,,
10/5/2017 7:29:41 AM,Cindy Rimmer,VA,23009,Legacy 3D,DWA-9150USJ-9150CH-DEMO,Demo Choco Brown,Demo,,,,,3900.58,3742.00,158.58,Ruben Cuatrona,CreditCard,0.00,,,No,"3 years parts, 1 year labor (Free)",Scheduled,Virginia State Fair 9/29-10/8,,,,,,
10/5/2017 9:30:23 AM,Kelly Mai,TX,77433,Legacy for Sam's,DWA-9100DWA-9100BL,Black,New,,,,,3895.92,3599.00,296.92,Gail Kerns,CreditCard,0.00,,,No,"3 years parts, 1 year labor (Free)",Assigned,Sam's Club #4764 Kate 9/21-10/1 (TX),,,,,,I offered a New chair for demo price.
10/5/2017 9:53:43 AM,Janice Cope,TX,77084,Relax2Zero 2.0 for Sam's,USJ-9050USJ-9050BL,Black,New,,,,,4221.75,3900.00,321.75,Gail Kerns,CreditCard,0.00,,,No,"3 years parts, 1 year labor (Free)",Assigned,Sam's Club #4764 Kate 9/21-10/1 (TX),,,,,,"Customer paid with three credit cards, an Amex and two Master Cards. I imputed three Approval #'s with the TC# in payment section"
10/5/2017 10:04:20 AM,Francis Jones,TX,77084,Vitality Plate,USJ-849USJ-849,New,New,,,,,908.21,838.99,69.22,Gail Kerns,CreditCard,0.00,,,No,"2 years parts, 1 year labor (Small Items)",Assigned,Sam's Club #4764 Kate 9/21-10/1 (TX),,,,,,"Customer paid with debit card.
Customer took with after purchase."
10/5/2017 10:04:20 AM,Francis Jones,TX,77084,Ninja Leg Massager,,,New,,,,,908.21,838.99,69.22,Gail Kerns,CreditCard,0.00,,,No,"2 years parts, 1 year labor (Small Items)",Assigned,Sam's Club #4764 Kate 9/21-10/1 (TX),,,,,,"Customer paid with debit card.
Customer took with after purchase."
10/5/2017 10:16:51 AM,Shehzad Nazir,TX,77084,Ninja Leg Massager,,,New,,,,,410.27,379.00,31.27,Gail Kerns,Cash,0.00,,,YES,"2 years parts, 1 year labor (Small Items)",Assigned,Sam's Club #4764 Kate 9/21-10/1 (TX),,,,,,"Customer paid tax exempt.
I entered information in ""Company name field"" as well as below.
Normandy Cig License 15003905 (tax exempt)"
10/5/2017 10:19:57 AM,David Hawkins,OK,74074,Pegasus,DWA-9400Pegasus-BL,Black,New,,,,,4000.00,3744.92,255.08,Tom Nguyen,CreditCard,200.00,COD,,No,"3 years parts, 3 years labor ($400)",Assigned,Tulsa State Fair #486 9/28-10/8 (TX),,,,,,"Invoice #44
Total: $4,000
Deposit: $200
Remaining: $3,800(COD)
**FREE 2 EZ REACH DUO**"
10/5/2017 10:26:28 AM,Alizhon Abdull,TX,77094,Ninja Leg Massager,,,New,,,,,410.27,379.00,31.27,Gail Kerns,CreditCard,0.00,,,YES,"2 years parts, 1 year labor (Small Items)",Assigned,Sam's Club #4764 Kate 9/21-10/1 (TX),,,,,,
10/5/2017 11:18:55 AM,Gary Stopp,OK,74464,Pegasus,DWA-9400Pegasus-BR,Choco Brown,New,,,,,4200.01,3929.23,270.78,Tom Nguyen,CreditCard,200.00,COD,,No,"3 years parts, 3 years labor ($400)",Assigned,Tulsa State Fair #486 9/28-10/8 (TX),,,,,,"Invoice #45
Total: $4,200
Deposit: $200
Remaining: $4,000(COD)
**REMOVE OLD CHAIR**"
10/5/2017 1:00:34 PM,Lois Bauders,OK,74021,Relax2Zero 1.0,USJ-9000USJ-9000KU,Black,New,,,,,3255.60,3058.95,196.65,Kristy Tran,Synchrony,3255.60,,,No,"3 years parts, 1 year labor (Free)",Assigned,Tulsa State Fair #4849 9/28-10/8 (TX),6034610081555420,79316261,Huston,24 months,,"Invoice 46
Paid in full
Auth #005212"
10/5/2017 1:30:39 PM,Gilberto Ramos,CA,92584,Legacy for Sam's,DWA-9100DWA-9100BL,Black,New,,,,,3877.92,3599.00,278.92,Kohei Uno,CreditCard,3877.92,,,No,"3 years parts, 2 years labor ($200)",Assigned,Sam's Club #4882 9/27-10/8 (CA),,,,,,
10/5/2017 2:10:05 PM,John Doe,FL,34711,Legend 2,DWA-9200DWA-9200-BL,Black,New,,,,,4762.50,4500.00,262.50,Robert Shih,CreditCard,0.00,,,No,"3 years parts, 1 year labor (Free)",Cancelled,Georgia National Fair (10/5-10/15/17),,,,,,
10/5/2017 2:52:27 PM,Stephen Coble,OK,74012,Pegasus,DWA-9400Pegasus-BL,Black,New,,,,,4000.00,3744.92,255.08,Phuoc Van,Cash,4000.00,,,No,"3 years parts, 1 year labor (Free)",Assigned,Tulsa State Fair #486 9/28-10/8 (TX),,,,,,"Invoice #47
PAID IN FULL"
10/5/2017 3:25:11 PM,Randy Miser,OK,74019,Legacy 3D,DWA-9150USJ-9150BL-DEMO,Demo Black,Demo,,,,,3600.00,3376.32,223.68,Tom Nguyen,CreditCard,3600.00,,,No,"3 years parts, 1 year labor (Free)",Assigned,Tulsa State Fair #486 9/28-10/8 (TX),,,,,,"Invoice #48
PAID IN FULL"
10/5/2017 3:38:53 PM,Devin Venable,OK,74114,Relax2Zero 1.0,USJ-9000USJ-9000BR,Brown,New,,,,,3038.56,2858.94,179.62,Kristy Tran,CreditCard,238.56,Cash,,No,"3 years parts, 1 year labor (Free)",Assigned,Tulsa State Fair #486 9/28-10/8 (TX),,,,,,"Invoice #49
Total: $3,038.56
Deposit: $238.56
Remaining: $2,800(CASH)"
10/5/2017 3:56:00 PM,Mark Smith,OK,74145,Legacy 3D,DWA-9150USJ-9150BL-DEMO,Demo Black,Demo,,,,,3600.00,3376.32,223.68,Tom Nguyen,Synchrony,3600.00,,,No,"3 years parts, 1 year labor (Free)",Assigned,Tulsa State Fair #486 9/28-10/8 (TX),6034610081556006,79329047,Huston,36 months,,"Invoice #50
PAID IN FULL
Authorization #: 005226"
10/5/2017 4:22:53 PM,Janice Conroy,VA,23116,Legacy 3D,DWA-9150USJ-9150CH,Choco Brown,New,,,,,4200.68,4027.00,173.68,Rodrigo Malabunga,Synchrony,0.00,,,No,"3 years parts, 1 year labor (Free)",Assigned,Virginia State Fair 9/29-10/8,6034610081555784,79329236,Las Vegas,36 months,,Approve number: 005080
10/5/2017 4:34:08 PM,Matthew Wood,VA,23111,Legacy 3D,DWA-9150USJ-9150BL-DEMO,Demo Black,Demo,,,,,3700.51,3552.00,148.51,Ruben Cuatrona,CreditCard,1200.00,Synchrony,,No,"3 years parts, 1 year labor (Free)",Scheduled,Virginia State Fair 9/29-10/8,,,,,,"$3700 total, customer paid $1200 with credit card, the balance $2500 is thru Synchrony, 36 months free finace. Application number: 6034610081555529, Key number: 79318961, Approval number: 005225"
10/5/2017 7:13:38 PM,Robbie Ralston,OK,74041,Legacy 3D,DWA-9150USJ-9150BL-DEMO,Demo Black,Demo,,,,,3600.00,3376.32,223.68,Phuoc Van,Synchrony,3600.00,,,No,"3 years parts, 1 year labor (Free)",Assigned,Tulsa State Fair #486 9/28-10/8 (TX),6034610081556402,79338628,Huston,36 months,,"Invoice #52
PAID IN FULL
Authorization #: 005039"
10/5/2017 7:52:00 PM,Todd Davis,OK,74033,Legend 3.0,DWA-9250USJ-9150CH-DEMO,Demo Choco Brown,Demo,,,,,3800.00,3501.76,298.24,Kristy Tran,Synchrony,3000.00,CreditCard,,YES,"3 years parts, 1 year labor (Free)",Assigned,Tulsa State Fair #486 9/28-10/8 (TX),6034610081556295,79335612,Huston,24 months,,"Invoice 51
Auth #005834
$2000 Synchrony @ 24 months
$1000 Square #wYJd
$800 due on Pick up"
10/6/2017 10:40:23 AM,Brandon Tygret,GA,30121,Legend 2,DWA-9200DWA-9200-BL-DEMO,Demo Black,Demo,,,,,3531.00,3300.00,231.00,Robert Shih,Synchrony,3500.00,CreditCard,,YES,"3 years parts, 1 year labor (Free)",Delivered,Georgia National Fair (10/5-10/15/17),6034610081555974,79328049,Las Vegas,36 months,,"Synchrony 36 months for $3,500

Credit card for $31.00

Do not accept Cancelle , Return , Refund on the floor model.

Customer will picks up the chair the end of the day ."
10/6/2017 2:13:01 PM,Leroy Waldo,OK,74070,Legacy 3D,DWA-9150USJ-9150CH-DEMO,Demo Choco Brown,Demo,,,,,3500.00,3225.30,274.70,Jennifer Tran,Synchrony,3500.00,,,YES,"3 years parts, 1 year labor (Free)",Assigned,Tulsa State Fair #486 9/28-10/8 (TX),6034610081556980,79356502,Huston,36 months,,"Invoice #53
PAID IN FULL
Authorization #: 006782"
10/6/2017 4:16:04 PM,Ray Sullivan,GA,30453,Legacy,DWA-9100DWA-9100CH,Choco Brown,New,,,,,4013.50,3800.00,213.50,Robert Shih,COD,3813.00,,,No,"3 years parts, 1 year labor (Free)",New,Georgia National Fair (10/5-10/15/17),,,,,,"Deposited $200 

C.O.D $3,813.50"
