﻿Date,CustomerName,State,Zipcode,Description,productNo,Color,IsDemo,Net,ShippingFee,GiftPrice,FinancingProcessingFee,Gross,Pre_tax,Tax,Commission,Primary Payment Method,Primary Payment Balance,Primary Authorize Number,Primary Purchase Order Number,Primary Synchrony Account Number,Primary Synchrony Application Key,Primary Synchrony AccountInfo,Primary SynchronyTerm,Secondly Payment Method,Secondly Payment Balance,Secondly Authorize Number,Secondly Purchase Order Number,Secondly Synchrony Account Number,Secondly Synchrony Application Key,Secondly Synchrony AccountInfo,Secondly SynchronyTerm,Thirdly Payment Method,Thirdly Payment Balance,Thirdly Authorize Number,Thirdly Purchase Order Number,Thirdly Synchrony Account Number,Thirdly Synchrony Application Key,Thirdly Synchrony AccountInfo,Thirdly SynchronyTerm,DeliveryDate,Ispickup,Warranty,Status,Original Event Name,Event Name,Synchrony Notes,Order Notes,Order number,Private Note,Branch,IsNoTax,ActualTaxRate
9/3/2018 5:59:31 AM,Tina Pulley,SC,29302,Relax 2 Zero 2.0 for Sam's,USJ-9050USJ-9050BR-DEMO (Box),Demo (Box) Brown,Demo,,,,,3199.00,3199.00,0.00,Michael Rowe,PurchaseOrder,3199.00,,TC#B50C73B4FE0F35F5,,,,,,0.00,,,,,,,,0.00,,,,,,,,No,"3 years parts, 1 year labor (Free)",Assigned,"Sam's Club #8142 Spartanburg, SC 8/30-9/9/18 (FL)","Sam's Club #8142 Spartanburg, SC 8/30-9/9/18 (FL)",,,109007,"CC Josefina - 9/4/18 4:45pm
TC#4249 2680 2269 9654 2975 68",FL,1,6.00
9/3/2018 6:07:10 AM,Brian Howell,SC,29651,Legacy for Sam's,DWA-9100DWA-9100BL-Box,Demo(Box) Black,Demo,,,,,3814.94,3599.00,215.94,Michael Rowe,PurchaseOrder,3599.00,,TC#2D1374EB069464F8,,,,,,0.00,,,,,,,,0.00,,,,,,,,No,"3 years parts, 1 year labor (Free)",Scheduled,"Sam's Club #8142 Spartanburg, SC 8/30-9/9/18 (FL)","Sam's Club #8142 Spartanburg, SC 8/30-9/9/18 (FL)",,,109008,"CC Josefina - 9/4/18 4:45pm
TC# 9074 9016 9039 0347 9334 21",FL,0,6.00
9/3/2018 6:11:25 AM,US Jaclean Inc,CA,90249,Shogun Neck & Back Massger,USJ-874USJ-874,New,New,,,,,599.94,599.94,0.00,Michael Rowe,PurchaseOrder,599.94,,,,,,,,0.00,,,,,,,,0.00,,,,,,,,YES,"2 years parts, 1 year labor (Free)",Delivered,"Sam's Club #8142 Spartanburg, SC 8/30-9/9/18 (FL)","Sam's Club #8142 Spartanburg, SC 8/30-9/9/18 (FL)",,,109009,talked to Mike he didnt have TC# will confirm sales report 9/4/18 Hitomi,CA,1,6.00
9/3/2018 6:13:49 AM,US Jaclean Inc,CA,90249,Foot Vibe Pro,USJ-871,,New,,,,,329.97,329.97,0.00,Michael Rowe,PurchaseOrder,329.97,,,,,,,,0.00,,,,,,,,0.00,,,,,,,,YES,"2 years parts, 1 year labor (Free)",Delivered,"Sam's Club #8142 Spartanburg, SC 8/30-9/9/18 (FL)","Sam's Club #8142 Spartanburg, SC 8/30-9/9/18 (FL)",,,109010,talked to Mike he didnt have TC# will confirm sales report 9/4/18 Hitomi,CA,1,6.00
9/5/2018 7:38:12 AM,Mahesh Patel,SC,29334,Relax 2 Zero 2.0 for Sam's,USJ-9050USJ-9050BL-DEMO (Box),Demo (Box) Black,Demo,,,,,3199.00,3199.00,0.00,Michael Rowe,PurchaseOrder,3199.00,,3AD4642E60695F4C,,,,,,0.00,,,,,,,,0.00,,,,,,,,No,"3 years parts, 1 year labor (Free)",Scheduled,"Sam's Club #8142 Spartanburg, SC 8/30-9/9/18 (FL)","Sam's Club #8142 Spartanburg, SC 8/30-9/9/18 (FL)",,,109079,"CC Josefina - 9/5/18 3:15pm
TC#6498 1874 4787 6835 4533 87",FL,1,6.00
9/6/2018 1:11:39 PM,Donna Bond,SC,29323,Legacy for Sam's,DWA-9100DWA-9100BL-Box,Demo(Box) Black,Demo,,,,,3599.00,3599.00,0.00,Michael Rowe,PurchaseOrder,3599.00,,TC#0841834715296270191734,,,,,,0.00,,,,,,,,0.00,,,,,,,,No,"3 years parts, 1 year labor (Free)",Assigned,"Sam's Club #8142 Spartanburg, SC 8/30-9/9/18 (FL)","Sam's Club #8142 Spartanburg, SC 8/30-9/9/18 (FL)",,,109109,CC Josefina - 9/7/18 11:35am VM,FL,1,6.00
9/6/2018 1:21:28 PM,US Jaclean Inc,CA,90249,Foot Vibe Pro,USJ-871,,New,,,,,549.95,549.95,0.00,Michael Rowe,CreditCard,549.95,,,,,,,,0.00,,,,,,,,0.00,,,,,,,,YES,"2 years parts, 1 year labor (Free)",Delivered,"Sam's Club #8142 Spartanburg, SC 8/30-9/9/18 (FL)","Sam's Club #8142 Spartanburg, SC 8/30-9/9/18 (FL)",,,109110,talked to Mike he didnt have TC# will confirm sales report 9/6/18 Hitomi,CA,1,6.00
9/6/2018 3:05:04 PM,US Jaclean Inc,CA,90249,Shogun Neck & Back Massger,USJ-874USJ-874,New,New,,,,,799.92,799.92,0.00,Michael Rowe,CreditCard,799.92,,,,,,,,0.00,,,,,,,,0.00,,,,,,,,YES,"2 years parts, 1 year labor (Free)",Delivered,"Sam's Club #8142 Spartanburg, SC 8/30-9/9/18 (FL)","Sam's Club #8142 Spartanburg, SC 8/30-9/9/18 (FL)",,,109113,talked to Mike he didnt have TC# will confirm sales report 9/6/18 Hitomi,CA,1,6.00
9/6/2018 3:09:12 PM,US Jaclean Inc,CA,90249,Vitality Plate for Sam's,USJ-849USJ-849,New,New,,,,,459.99,459.99,0.00,Michael Rowe,CreditCard,459.99,,,,,,,,0.00,,,,,,,,0.00,,,,,,,,YES,"2 years parts, 1 year labor (Free)",Delivered,"Sam's Club #8142 Spartanburg, SC 8/30-9/9/18 (FL)","Sam's Club #8142 Spartanburg, SC 8/30-9/9/18 (FL)",,,109114,talked to Mike he didnt have TC# will confirm sales report 9/6/18 Hitomi,CA,1,6.00
9/6/2018 3:12:10 PM,US Jaclean Inc,CA,90249,Vitality Plate for Sam's,USJ-849USJ-849-DEMO,Demo,Demo,,,,,399.99,399.99,0.00,Michael Rowe,CreditCard,399.99,,,,,,,,0.00,,,,,,,,0.00,,,,,,,,YES,"2 years parts, 1 year labor (Free)",Delivered,"Sam's Club #8142 Spartanburg, SC 8/30-9/9/18 (FL)","Sam's Club #8142 Spartanburg, SC 8/30-9/9/18 (FL)",,,109115,talked to Mike he didnt have TC# will confirm sales report 9/6/18 Hitomi,CA,1,6.00
9/8/2018 7:30:35 AM,Naimat Shah,SC,29301,Pegasus for Sam's,DWA-9400Pegasus-BL-BOX,Demo Black(Box),Demo,,,,,4798.00,4798.00,0.00,Michael Rowe,PurchaseOrder,4798.00,,TC#7154051170370348945451,,,,,,0.00,,,,,,,,0.00,,,,,,,,No,"3 years parts, 1 year labor (Free)",Assigned,"Sam's Club #8142 Spartanburg, SC 8/30-9/9/18 (FL)","Sam's Club #8142 Spartanburg, SC 8/30-9/9/18 (FL)",,,109142,CC Josefina - 9/10/18 12:50pm VM,FL,1,6.00
9/8/2018 4:57:29 PM,US Jaclean Inc,CA,90249,Shogun Neck & Back Massger,USJ-874USJ-874,New,New,,,,,199.98,199.98,0.00,Michael Rowe,PurchaseOrder,199.98,,TC#313503585581522705203,,,,,,0.00,,,,,,,,0.00,,,,,,,,YES,"2 years parts, 1 year labor (Free)",Delivered,"Sam's Club #8142 Spartanburg, SC 8/30-9/9/18 (FL)","Sam's Club #8142 Spartanburg, SC 8/30-9/9/18 (FL)",,,109150,,CA,1,6.00
9/9/2018 7:10:55 AM,Mike Packett,NC,28043,Relax 2 Zero 2.0 for Sam's,USJ-9050USJ-9050BL-DEMO (Box),Demo (Box) Black,Demo,,,,,3199.00,3199.00,0.00,Michael Rowe,PurchaseOrder,3199.00,,TC#3533010097103163546610,,,,,,0.00,,,,,,,,0.00,,,,,,,,No,"3 years parts, 1 year labor (Free)",Assigned,"Sam's Club #8142 Spartanburg, SC 8/30-9/9/18 (FL)","Sam's Club #8142 Spartanburg, SC 8/30-9/9/18 (FL)",,,109181,CC Josefina - 9/10/18 1:02pm VM,FL,1,6.00
9/9/2018 4:15:41 PM,ION Darmancef,SC,29385,Pegasus for Sam's,DWA-9400Pegasus-BR-BOX,Demo Choco(Box),Demo,,,,,4798.00,4798.00,0.00,Michael Rowe,PurchaseOrder,4798.00,,TC#5252072956041084359892,,,,,,0.00,,,,,,,,0.00,,,,,,,,No,"3 years parts, 1 year labor (Free)",Assigned,"Sam's Club #8142 Spartanburg, SC 8/30-9/9/18 (FL)","Sam's Club #8142 Spartanburg, SC 8/30-9/9/18 (FL)",,,109196,CC Josefina - 9/10/18 1:05pm,FL,1,6.00
9/9/2018 4:23:32 PM,Neela Limogiannis,SC,29650,Legacy for Sam's,DWA-9100DWA-9100CH-Box,Demo(Box) Choco,Demo,,,,,3814.94,3599.00,215.94,Michael Rowe,PurchaseOrder,3599.00,,TC#5404371079370341925481,,,,,,0.00,,,,,,,,0.00,,,,,,,,No,"3 years parts, 1 year labor (Free)",Assigned,"Sam's Club #8142 Spartanburg, SC 8/30-9/9/18 (FL)","Sam's Club #8142 Spartanburg, SC 8/30-9/9/18 (FL)",,,109197,CC Josefina - 9/10/18 1:05pm,FL,0,6.00
