﻿Original Event Name,Event Name,Sales Person,Order Number,Order Date,Customer Name,State,Zip,Product Name,Color,Product Status,QTY,Tax,Total Before Tax,Order Total,Primary Payment Method,Second Payment Method,Thirdl Payment Method,Warranty,Order Items,Pick up,Delivered On,Order Status,Chair Type,Order Notes,Private Note,Branch,No Tax,Actual Tax Rate,SKU,Primary Payment Balance,Primary Authorize Number,Primary Purchase Order Number,Primary Synchrony Account Number,Primary Synchrony Application Key,Primary Synchrony Account Info,Primary Synchrony Term,Second Payment Balance,Second Authorize Number,Second Purchase Order Number,Second Synchrony Account Number,Second Synchrony Application Key,Second Synchrony Account Info,Second SynchronyTerm,Third Payment Balance,Third Authorize Number,Third Purchase Order Number,Third Synchrony Account Number,Third Synchrony Application Key,Third Synchrony Account Info,Third Synchrony Term
DAYTONA BEACH NEWS SPRING 3/22-24/19 DAYTONA BEACH (FL),DAYTONA BEACH NEWS SPRING 3/22-24/19 DAYTONA BEACH (FL),Rodrigo Malabunga,116038,3/23/2019 1:38:44 PM,Christine Weller,FL,32763,Legacy 3D,Demo Black,Demo,1,0.00,4504.50,4504.50,Synchrony,,,"5 years parts, 2 years labor ($200)","Legacy 3D,",No,,New,,,"3/25/19-Confirmed SYNC$8,500 and original. ***Please charge $4,504.50/ sales draft***-Hitomi",FL,1,6.50,DWA-9150USJ-9150BL-DEMO,4504.50,,,6501723375070222,73023326,Las Vegas,36 months,0.00,,,,,,,0.00,,,,,,
DAYTONA BEACH NEWS SPRING 3/22-24/19 DAYTONA BEACH (FL),DAYTONA BEACH NEWS SPRING 3/22-24/19 DAYTONA BEACH (FL),Ruben Cuatrona,116039,3/23/2019 1:45:09 PM,Don Gus Bok,FL,32119,Relax 2 Zero 3D,Demo Choco,Demo,1,0.00,3900.00,3900.00,Synchrony,,,"5 years parts, 1 year labor (Free)","Relax 2 Zero 3D,",No,,New,,,"3/25/19-Confirmed SYNC$6,600 and original. ***Please charge $3,900/ sales draft***-Hitomi",FL,1,6.50,DWA-9060USJ-9060BR-DEMO,3900.00,,,6501723375068994,72991429,Las Vegas,36 months,0.00,,,,,,,0.00,,,,,,
DAYTONA BEACH NEWS SPRING 3/22-24/19 DAYTONA BEACH (FL),DAYTONA BEACH NEWS SPRING 3/22-24/19 DAYTONA BEACH (FL),Ruben Cuatrona,116040,3/23/2019 1:53:52 PM,Alan Kusseloff,FL,32174,Relax 2 Zero 3D,Demo Black,Demo,1,0.00,4000.00,4000.00,CreditCard,,,"5 years parts, 2 years labor ($200)","Relax 2 Zero 3D,",No,,New,,,"***CORRECT PH# 386-290-4188***
3/25/19-Confirmed $4,000 in SQ. -Hitomi",FL,1,6.50,DWA-9060USJ-9060BL-DEMO,4000.00,Receipt #LDOU,,,,,,0.00,,,,,,,0.00,,,,,,
