﻿Order Number,Order Date,Event Name,Salesperson,SKU,Product Name,Color,QTY,Warranty,Payment Details,Tax,Order Total,Gross,Primary Payment Method,Primary Payment Balance,Primary Authorize Number,Primary Purchase Order Number,Primary Synchrony Account Number,Primary Synchrony Application Key,Primary Synchrony AccountInfo,Primary SynchronyTerm,Secondly Payment Method,Secondly Payment Balance,Secondly Authorize Number,Secondly Purchase Order Number,Secondly Synchrony Account Number,Secondly Synchrony Application Key,Secondly Synchrony AccountInfo,Secondly SynchronyTerm,Thirdly Payment Method,Thirdly Payment Balance,Thirdly Authorize Number,Thirdly Purchase Order Number,Thirdly Synchrony Account Number,Thirdly Synchrony Application Key,Thirdly Synchrony AccountInfo,Thirdly SynchronyTerm,Actual Shipping Cost,CustomerName,Shipping Address,Delivered On,Serial Number (TO Be),Note,Branch,IsNoTax,ActualTaxRate
101915,11/17/2017 9:34:44 AM,IAAPA 11/14-11/17 (FL),Ruben Cuatrona,DWA-9150USJ-9150BL,Legacy 3D,Black,1,"3 years parts, 1 year labor (Free)",CreditCard ,0.00,3900.00,3900.00,,3900.00,04666i,,,,,,,,,,,,,,,,,,,,,,350.00,Johnny Lam,718 710 8383,12/1/2017 12:00:00 AM,,,TX,1,6.50
101916,11/17/2017 10:10:50 AM,IAAPA 11/14-11/17 (FL),Rolly San Jose,DWA-9150USJ-9150CH,Legacy 3D,Choco Brown,1,"3 years parts, 1 year labor (Free)",CreditCard ,0.00,4300.00,4300.00,,4300.00,843562,,,,,,,,,,,,,,,,,,,,,,350.00,Marc Beige,516 333 3474,12/2/2017 12:00:00 AM,,,TX,1,6.50
101917,11/17/2017 10:19:00 AM,IAAPA 11/14-11/17 (FL),Tom Nguyen,DWA-9150USJ-9150BL-DEMO,Legacy 3D,Demo Black,1,"3 years parts, 1 year labor (Free)",CreditCard ,0.00,3900.00,3900.00,CreditCard,3900.00,006424,,,,,,,0.00,,,,,,,,0.00,,,,,,,0.00,Larry Soffell,865 453 5524,11/30/2017 12:00:00 AM,,,FL,1,6.50
101918,11/17/2017 10:31:55 AM,IAAPA 11/14-11/17 (FL),Jonathan Bhowani,DWA-9150USJ-9150CH,Legacy 3D,Choco Brown,1,"3 years parts, 1 year labor (Free)",Cash ,0.00,3700.00,3700.00,,1800.00,,,,,,,,,,,,,,,,,,,,,,,350.00,Edward Dougherty,973 288 1155,12/1/2017 12:00:00 AM,,,TX,1,6.50
101921,11/17/2017 12:49:38 PM,IAAPA 11/14-11/17 (FL),Ruben Cuatrona,DWA-9150USJ-9150BL-DEMO,Legacy 3D,Demo Black,1,"3 years parts, 1 year labor (Free)",CreditCard CreditCard,0.00,3800.00,3800.00,Check,300.00,01064C,,,,,,CreditCard,1800.00,xTe3,,,,,,,0.00,,,,,,,0.00,Nathaniel White,714-404-1820,11/22/2017 12:00:00 AM,,"COD $3,500",FL,1,6.50
101922,11/17/2017 1:04:15 PM,IAAPA 11/14-11/17 (FL),Rolly San Jose,DWA-9150USJ-9150BL-DEMO,Legacy 3D,Demo Black,1,"3 years parts, 1 year labor (Free)",Synchrony ,0.00,3900.00,3900.00,Synchrony,3900.00,,,6034610081637939,81196775,Huston,36 months,,0.00,,,,,,,,0.00,,,,,,,0.00,Sook Molyneaux,352-796-8467,11/22/2017 12:00:00 AM,,,FL,1,6.50
101923,11/17/2017 1:11:50 PM,IAAPA 11/14-11/17 (FL),Tom Nguyen,DWA-9150USJ-9150BL-DEMO,Legacy 3D,Demo Black,1,"3 years parts, 1 year labor (Free)",CreditCard Synchrony,0.00,3900.00,3900.00,CreditCard,1000.00,888017,,,,,,Synchrony,2900.00,,,6034610081637848,81193401,Huston,24 months,,0.00,,,,,,,0.00,Theresa Rodriguez,407-932-0427,11/22/2017 12:00:00 AM,,24 months 0% APR,FL,1,6.50
101924,11/17/2017 1:16:36 PM,IAAPA 11/14-11/17 (FL),Jonathan Bhowani,DWA-9060USJ-9060BL-DEMO,Relax2Zero 3D,Demo Black,1,"3 years parts, 1 year labor (Free)",Synchrony ,0.00,3600.00,3600.00,Synchrony,3600.00,,,6034610081638101,81200325,San Diego,36 months,,0.00,,,,,,,,0.00,,,,,,,0.00,Carrie Fisher,202-390-7738,12/8/2017 12:00:00 AM,,,FL,1,6.50
101954,11/18/2017 10:08:41 PM,IAAPA 11/14-11/17 (FL),Jonathan Bhowani,DWA-9060USJ-9060BR,Relax2Zero 3D,Choco Brown,1,"3 years parts, 1 year labor (Free)",Synchrony ,0.00,4300.00,4300.00,,4300.00,,,6034610081637996,81198011,Huston,36 months,,,,,,,,,,,,,,,,,350.00,Brandon Archer,561 719 1630,12/14/2017 12:00:00 AM,,,TX,1,6.50
101955,11/18/2017 10:16:13 PM,IAAPA 11/14-11/17 (FL),Jonathan Bhowani,DWA-9060USJ-9060BL-DEMO,Relax2Zero 3D,Demo Black,1,"3 years parts, 1 year labor (Free)",CreditCard ,0.00,3500.00,3500.00,,3500.00,132870,,,,,,,,,,,,,,,,,,,,,,350.00,Paul Grube,502 345 3116,12/6/2017 12:00:00 AM,,,TX,1,6.50
101956,11/18/2017 10:25:37 PM,IAAPA 11/14-11/17 (FL),Ruben Cuatrona,DWA-9100DWA-9100CH,Legacy,Choco Brown,1,"3 years parts, 1 year labor (Free)",CreditCard ,0.00,3200.00,3200.00,CreditCard,3200.00,09264E,,,,,,,0.00,,,,,,,,0.00,,,,,,,0.00,Kid Guiles,208 312 1604,12/6/2017 12:00:00 AM,,,NV,1,6.50
101957,11/18/2017 10:34:59 PM,IAAPA 11/14-11/17 (FL),Rodrigo Malabunga,DWA-9150USJ-9150BL,Legacy 3D,Black,1,"3 years parts, 1 year labor (Free)",CreditCard ,0.00,4600.00,4600.00,,4600.00,04168C,,,,,,,,,,,,,,,,,,,,,,0.00,Marc Zachary,310 882 0417,11/29/2017 12:00:00 AM,,,CA,1,6.50
101958,11/18/2017 10:46:57 PM,IAAPA 11/14-11/17 (FL),Ruben Cuatrona,DWA-9150USJ-9150CH,Legacy 3D,Choco Brown,1,"3 years parts, 1 year labor (Free)",Synchrony ,0.00,3900.00,3900.00,Synchrony,3900.00,,,6034610081636816,81166090,San Diego,36 months,,0.00,,,,,,,,0.00,,,,,,,0.00,David Hill,919 344 1313,12/13/2017 12:00:00 AM,,,FL,1,6.50
101959,11/18/2017 10:57:46 PM,IAAPA 11/14-11/17 (FL),Ruben Cuatrona,DWA-9150USJ-9150BL,Legacy 3D,Black,1,"3 years parts, 1 year labor (Free)",CreditCard ,0.00,4300.00,4300.00,,4300.00,48116G,,,,,,,,,,,,,,,,,,,,,,350.00,Elizabeth Spratt,703 266 4391,11/29/2017 12:00:00 AM,,,TX,1,6.50
101960,11/18/2017 11:13:57 PM,IAAPA 11/14-11/17 (FL),Ruben Cuatrona,DWA-9150USJ-9150BL,Legacy 3D,Black,1,"3 years parts, 1 year labor (Free)",CreditCard COD,0.00,3900.00,3900.00,,500.00,12182D,,,,,,COD,,,,,,,,,,,,,,,,,Randy Fullmer,208 871 1395,,,,Not Dispatched,1,6.50
101961,11/18/2017 11:22:04 PM,IAAPA 11/14-11/17 (FL),Rodrigo Malabunga,DWA-9100DWA-9100BL,Legacy,Black,1,"3 years parts, 1 year labor (Free)",CreditCard ,0.00,3500.00,3500.00,,3500.00,015185,,,,,,,,,,,,,,,,,,,,,,350.00,Mike Hojnacki,419 824 0000,11/28/2017 12:00:00 AM,,,TX,1,6.50
101962,11/18/2017 11:36:11 PM,IAAPA 11/14-11/17 (FL),Rodrigo Malabunga,DWA-9150USJ-9150BL,Legacy 3D,Black,1,"3 years parts, 1 year labor (Free)",CreditCard ,0.00,4153.00,4153.00,,4153.00,828188,,,,,,,,,,,,,,,,,,,,,,350.00,Nicky Cvitanovich,228 697 4899,11/28/2017 12:00:00 AM,,,TX,1,6.50
101963,11/19/2017 8:16:36 AM,IAAPA 11/14-11/17 (FL),Tom Nguyen,DWA-9150USJ-9150BL,Legacy 3D,Black,1,"3 years parts, 1 year labor (Free)",Synchrony ,0.00,3900.00,3900.00,,3000.00,,,6034610081633078,81073714,Huston,36 months,,,,,,,,,,,,,,,,,0.00,Francisca Thrailkill,956 454 7503,,,,CA,1,6.50
101964,11/19/2017 8:24:10 AM,IAAPA 11/14-11/17 (FL),Ruben Cuatrona,DWA-9150USJ-9150BL,Legacy 3D,Black,1,"3 years parts, 1 year labor (Free)",Synchrony ,0.00,3900.00,3900.00,Synchrony,3900.00,,,6034610081633136,81076251,San Diego,24 months,,0.00,,,,,,,,0.00,,,,,,,350.00,Ahmad Hamade,313 334 0099,11/27/2017 12:00:00 AM,,,TX,1,6.50
101965,11/19/2017 8:32:14 AM,IAAPA 11/14-11/17 (FL),Rodrigo Malabunga,DWA-9400Pegasus-BR,Pegasus,Choco Brown,1,"3 years parts, 1 year labor (Free)",Synchrony ,0.00,5218.50,5218.50,Synchrony,5218.50,,,6034610081632435,81059362,San Diego,36 months,,0.00,,,,,,,,0.00,,,,,,,0.00,Denise Horton,256 589 5379,12/11/2017 12:00:00 AM,,,FL,1,6.50
101966,11/19/2017 8:39:16 AM,IAAPA 11/14-11/17 (FL),Rodrigo Malabunga,DWA-9060USJ-9060BR,Relax2Zero 3D,Choco Brown,1,"3 years parts, 1 year labor (Free)",CreditCard ,0.00,3500.00,3500.00,,3500.00,32547Z,,,,,,,,,,,,,,,,,,,,,,,Todd Elmer,320 766 2150,,,,Not Dispatched,1,6.50
101967,11/19/2017 8:53:45 AM,IAAPA 11/14-11/17 (FL),Ruben Cuatrona,DWA-9150USJ-9150BL-DEMO,Legacy 3D,Demo Black,1,"3 years parts, 1 year labor (Free)",CreditCard ,0.00,3900.00,3900.00,CreditCard,100.00,561612,,,,,,,0.00,,,,,,,,0.00,,,,,,,0.00,Emily Smith,801 899 5667,1/15/2018 12:00:00 AM,,,FL,1,6.50
101969,11/19/2017 9:04:13 AM,IAAPA 11/14-11/17 (FL),Ruben Cuatrona,DWA-9400Pegasus-BL-DEMO,Pegasus,Demo Black,1,"3 years parts, 1 year labor (Free)",CreditCard ,0.00,4700.00,4700.00,CreditCard,500.00,962409,,,,,,,0.00,,,,,,,,0.00,,,,,,,0.00,Virginia Walden,352 363 9202,,,,FL,1,6.50
101971,11/19/2017 9:18:46 AM,IAAPA 11/14-11/17 (FL),Tom Nguyen,DWA-9060USJ-9060BR-DEMO,Relax2Zero 3D,Demo Choco Brown,1,"3 years parts, 1 year labor (Free)",Synchrony CreditCard,0.00,3900.00,3900.00,Synchrony,3800.00,,,6034610081634316,81106761,Huston,36 months,CreditCard,100.00,33332P,,,,,,,0.00,,,,,,,0.00,Tim Shortino,786 357 7828,12/8/2017 12:00:00 AM,,,FL,1,6.50
101989,11/19/2017 9:59:54 PM,IAAPA 11/14-11/17 (FL),Ruben Cuatrona,DWA-9150USJ-9150BL,Legacy 3D,Black,1,"3 years parts, 1 year labor (Free)",CreditCard ,0.00,3900.00,3900.00,CreditCard,100.00,962185,,,,,,,0.00,,,,,,,,0.00,,,,,,,0.00,Christopher Deck,386 586 2840,,,,FL,1,6.50
101990,11/19/2017 10:08:44 PM,IAAPA 11/14-11/17 (FL),Ruben Cuatrona,DWA-9150USJ-9150CH,Legacy 3D,Choco Brown,1,"3 years parts, 1 year labor (Free)",Synchrony ,0.00,3900.00,3900.00,,3900.00,,,6034610081633102,81075475,San Diego,36 months,,,,,,,,,,,,,,,,,,Ali Sayed,313 942 7095,,,,Not Dispatched,1,6.50
101996,11/20/2017 7:08:12 AM,IAAPA 11/14-11/17 (FL),Rodrigo Malabunga,DWA-9150USJ-9150CH-DEMO,Legacy 3D,Demo Choco Brown,1,"3 years parts, 1 year labor (Free)",Synchrony ,0.00,3900.00,3900.00,Synchrony,3900.00,,,6019170225237921,,San Diego,36 months,,0.00,,,,,,,,0.00,,,,,,,0.00,Toma Stubbs,7274033697,12/7/2017 12:00:00 AM,,,FL,1,6.50
101998,11/20/2017 7:23:35 AM,IAAPA 11/14-11/17 (FL),Jonathan Bhowani,DWA-9150USJ-9150BL,Legacy 3D,Black,1,"3 years parts, 1 year labor (Free)",Synchrony ,0.00,3800.00,3800.00,Synchrony,3800.00,,,6034610081638606,81213363,,36 months,,0.00,,,,,,,,0.00,,,,,,,0.00,Arnold Novak,813-400-9090,12/7/2017 12:00:00 AM,,,FL,1,6.50
101999,11/20/2017 7:30:27 AM,IAAPA 11/14-11/17 (FL),Mitch Valdes,DWA-9060USJ-9060BR-DEMO,Relax2Zero 3D,Demo Choco Brown,1,"3 years parts, 1 year labor (Free)",CreditCard ,0.00,3090.00,3090.00,,3090.00,CNUX,,,,,,,,,,,,,,,,,,,,,,0.00,Ron Daniels,805-712-5609,11/17/2017 12:00:00 AM,,"Customer picked up from booth on 11/17
SN: 0103002170049",CA,1,6.50
102038,11/21/2017 4:22:17 PM,IAAPA 11/14-11/17 (FL),Ruben Cuatrona,DWA-9150USJ-9150BL-DEMO,Legacy 3D,Demo Black,1,"3 years parts, 1 year labor (Free)",CreditCard CreditCard,0.00,3500.00,3500.00,CreditCard,100.00,Square xr5c,,,,,,CreditCard,3400.00,WtfB,,,,,,,0.00,,,,,,,0.00,Steve Pleasants,321 266 6700,12/8/2017 12:00:00 AM,,,FL,1,6.50
