﻿Original Event Name,Event Name,Sales Person,Order Number,Order Date,Customer Name,State,Zip,Product Name,Color,Product Status,QTY,Tax,Total Before Tax,Order Total,Primary Payment Method,Second Payment Method,Thirdl Payment Method,Warranty,Order Items,Pick up,Delivered On,Order Status,Chair Type,Order Notes,Private Note,Branch,No Tax,Actual Tax Rate,SKU,Primary Payment Balance,Primary Authorize Number,Primary Purchase Order Number,Primary Synchrony Account Number,Primary Synchrony Application Key,Primary Synchrony Account Info,Primary Synchrony Term,Second Payment Balance,Second Authorize Number,Second Purchase Order Number,Second Synchrony Account Number,Second Synchrony Application Key,Second Synchrony Account Info,Second SynchronyTerm,Third Payment Balance,Third Authorize Number,Third Purchase Order Number,Third Synchrony Account Number,Third Synchrony Application Key,Third Synchrony Account Info,Third Synchrony Term
ASIAN AMERICAN EXPO 1/19-20/19 POMONA (CA),ASIAN AMERICAN EXPO 1/19-20/19 POMONA (CA),David Wang,114382,1/19/2019 4:28:06 PM,Vai Wong,CA,90248,Relax2Zero 3D,Demo Black,Demo,1,0.00,3600.00,3600.00,Synchrony,,,"5 years parts, 1 year labor (Free)","Relax2Zero 3D,Daiwa Blanket,",No,2/1/2019 12:00:00 AM,Delivered,New,,"COnfirmed 	SYNC ($6,500).  1/21/19-Hitomi
Confirmed  original invoice and application form. Please charge $3600 before delivery and have sales draft signed.--- 1/23/19 Asumi",CA,1,9.50,DWA-9060USJ-9060BL-DEMO,3600.00,,,6019170813344725,70181582,Las Vegas,36 months,0.00,,,,,,,0.00,,,,,,
ASIAN AMERICAN EXPO 1/19-20/19 POMONA (CA),ASIAN AMERICAN EXPO 1/19-20/19 POMONA (CA),Joseph Chan,114383,1/19/2019 4:28:31 PM,Sin Yee Hung,CA,90745,Relax2Zero 3D,New Choco,New,1,0.00,4000.00,4000.00,CreditCard,CreditCard,,"3 years parts, 1 year labor (Free)","Relax2Zero 3D,",No,1/31/2019 12:00:00 AM,Delivered,New,"Please deliver before 1/31/19. Balance of $3500, charge before delivery.","Confirmed $500 in SQ. ***COD $3,500.*** 1/21/19 Hitomi
1/25Maritza- Received text from Joseph saying customer paid COD through square. Confirmed $3500 on square.",CA,1,9.50,DWA-9060USJ-9060BR,500.00,#XA3y,,,,,,3500.00,#CJeH,,,,,,0.00,,,,,,
ASIAN AMERICAN EXPO 1/19-20/19 POMONA (CA),ASIAN AMERICAN EXPO 1/19-20/19 POMONA (CA),David Wang,114384,1/19/2019 4:40:04 PM,Kevin Zhu,CA,91791,Relax2Zero 1.0,New Beige,New,1,0.00,3600.00,3600.00,Synchrony,,,"3 years parts, 1 year labor (Free)","Relax2Zero 1.0,Chair Pad for Relax2Zero 1.0,",No,,Hold,,,"###Please put ""HOLD"" to this customer until he call me back within 2 weeks.  He might change the 3D model.#####",Not Dispatched,1,9.50,USJ-9000USJ-9000CR,3600.00,,,6019170813345599,70196164,Las Vegas,36 months,0.00,,,,,,,0.00,,,,,,
ASIAN AMERICAN EXPO 1/19-20/19 POMONA (CA),ASIAN AMERICAN EXPO 1/19-20/19 POMONA (CA),David Wang,114469,1/20/2019 6:37:54 PM,Hui Lin,CA,91007,Relax2Zero 3D,Demo Choco,Demo,1,0.00,3000.00,3000.00,Cash,Cash,,"3 years parts, 1 year labor (Free)","Relax2Zero 3D,",No,1/20/2019 12:00:00 AM,Delivered,Demo,,"2900 COD CASH!!!!!!!!!! when we deliver the chair.
will confirm who has cash to David --- 1/22/19 Asumi
Confirmed with David  that May has passed to Yumi already. 
Received confirmation and  please chaege $2,900.00 upon delivery --- 1/22/19 Asumi
Received delivery confirmation and COD $2,900.00 cash confirmation from Yumi ---1/29/19 Asumi

delivery date : 1/28/2019
1/29Maritza- Yumi received COD $2900 cash.",CA,1,9.50,DWA-9060USJ-9060BR-DEMO,100.00,,,,,,,2900.00,,,,,,,0.00,,,,,,
ASIAN AMERICAN EXPO 1/19-20/19 POMONA (CA),ASIAN AMERICAN EXPO 1/19-20/19 POMONA (CA),Paul Wang,114476,1/20/2019 9:19:43 PM,Rocky Yang,CA,91770,Legacy 3D,New Choco,New,1,0.00,3500.00,3500.00,CreditCard,COD,,"5 years parts, 1 year labor (Free)","Legacy 3D,",No,,Called,,"Special discount for one time payment , manager approval; COD $3400, another phone is 6263531402",01/21/19- Cristina confirmed  Sq payment $100- 8:50 am,CA,1,9.50,DWA-9150USJ-9150CH,100.00,#g7qk,,,,,,3400.00,,,,,,,0.00,,,,,,
ASIAN AMERICAN EXPO 1/19-20/19 POMONA (CA),ASIAN AMERICAN EXPO 1/19-20/19 POMONA (CA),May Kam,114481,1/21/2019 12:11:34 PM,Mr Johnny Yan,CA,91722,Legacy 3D,Demo Choco,Demo,1,0.00,3200.00,3200.00,Cash,CreditCard,,"5 years parts, 1 year labor (Free)","Legacy 3D,",YES,1/20/2019 12:00:00 AM,Delivered,Demo,"Special discount for Picked up ,","1/21Maritza- Confirmed $3000 on square.
Received pickup confirmation --- 1/22/19 Asumi
Received cash confirmation --- 1/22/19 Asumi",CA,1,9.50,DWA-9150USJ-9150CH-DEMO,200.00,,,,,,,3000.00,#ZWU6,,,,,,0.00,,,,,,
ASIAN AMERICAN EXPO 1/19-20/19 POMONA (CA),ASIAN AMERICAN EXPO 1/19-20/19 POMONA (CA),May Kam,114482,1/21/2019 12:41:10 PM,Mr & Mrs Kenneth Trinh,CA,91775,Legacy 3D,New Choco,New,1,0.00,3400.00,3400.00,Check,Synchrony,,"5 years parts, 1 year labor (Free)","Legacy 3D,Tourmaline Pad for Legacy 3D,",No,2/4/2019 12:00:00 AM,Delivered,New,"Check No #2778,","Will confirm with Mei if she already deposit  --- 1/22/19 Asumi
Shoko deposited  it. Will confirm 1/29/19  --- 1/23/19 Asumi
The customer wants to change the secondary payment method from COD to Synchrony, Vending dept will help us to get the paperwork of Synchrony. (Hide confirmed) 1/25/19 Riho///David will stop by the customer house to get his Synchrony Application Form on 1/30/19 Wed.
Received application form.  ---1/30/19 AM9:35 Asumi
Confirmed synchrony charged $3,200.00 in San Diego account--- 2/1/19 Asumi
Confirmed with Shoko ; Could confirmed $200 deposit in WF. Received sign from Shoko --- 1/29/19 Asumi",CA,1,9.50,DWA-9150USJ-9150CH,200.00,,,,,,,3200.00,,,6019170813359186,70636185,San Diego,24 months,0.00,,,,,,
ASIAN AMERICAN EXPO 1/19-20/19 POMONA (CA),ASIAN AMERICAN EXPO 1/19-20/19 POMONA (CA),May Kam,114484,1/21/2019 12:45:50 PM,Mrs Liping Wu,CA,91770,Legacy 3D,New Black,New,1,0.00,3500.00,3500.00,Cash,Cash,,"5 years parts, 1 year labor (Free)","Legacy 3D,Tourmaline Pad for Legacy 3D,",No,1/31/2019 12:00:00 AM,Delivered,New,,"will confirm $100 cash. **COD$3,400*** 1/22/19 Hitomi
Received cash confirmation --- 1/22/19 Asumi
1/31Natsue signed off for cash COD 3400",CA,1,9.50,DWA-9150USJ-9150BL,100.00,,,,,,,3400.00,,,,,,,0.00,,,,,,
ASIAN AMERICAN EXPO 1/19-20/19 POMONA (CA),ASIAN AMERICAN EXPO 1/19-20/19 POMONA (CA),May Kam,114485,1/21/2019 12:54:00 PM,Mr& Mrs Wahsun Chin,CA,92129,Legacy 3D,New Black,New,1,0.00,3520.00,3520.00,CreditCard,CreditCard,,"5 years parts, 1 year labor (Free)","Legacy 3D,Tourmaline Pad for Legacy 3D,",No,2/1/2019 12:00:00 AM,Delivered,New,"Special discount for one time payment , manager Approval",1/21Maritza- Confirmed $200 on square. COD$3320,CA,1,9.50,DWA-9150USJ-9150BL,200.00,rTfw,,,,,,3320.00,housecall pro,,,,,,0.00,,,,,,
ASIAN AMERICAN EXPO 1/19-20/19 POMONA (CA),ASIAN AMERICAN EXPO 1/19-20/19 POMONA (CA),May Kam,114486,1/21/2019 1:05:12 PM,Mr & Mrs Queenie Ng,CA,90275,Legacy 3D,New Black,New,1,0.00,3700.00,3700.00,CreditCard,CreditCard,,"5 years parts, 1 year labor (Free)","Legacy 3D,Tourmaline Pad for Legacy 3D,",No,2/2/2019 12:00:00 AM,Delivered,New,Special discount for one time payment,1/21Maritza Confirmed $200 COD$3500,CA,1,9.50,DWA-9150USJ-9150BL,200.00,#jOJ6,,,,,,3500.00,housecall pro,,,,,,0.00,,,,,,
ASIAN AMERICAN EXPO 1/19-20/19 POMONA (CA),ASIAN AMERICAN EXPO 1/19-20/19 POMONA (CA),May Kam,114487,1/21/2019 1:16:35 PM,Mr & Mrs Sherry Peter So,CA,91775,Legacy 3D,New Black,New,1,0.00,3400.00,3400.00,Cash,CreditCard,,"5 years parts, 1 year labor (Free)","Legacy 3D,",No,1/28/2019 12:00:00 AM,Delivered,New,,"will confirm $200 cash. ***COD$3,200*** 1/22/19 Hitomi
Received cash confirmation --- 1/22/19 Asumi",CA,1,9.50,DWA-9150USJ-9150BL,200.00,,,,,,,3200.00,housecall pro,,,,,,0.00,,,,,,
ASIAN AMERICAN EXPO 1/19-20/19 POMONA (CA),ASIAN AMERICAN EXPO 1/19-20/19 POMONA (CA),May Kam,114489,1/21/2019 4:00:26 PM,Mr Zheng Han,CA,91789,Legacy 3D,New Choco,New,1,0.00,3638.00,3638.00,Synchrony,,,"5 years parts, 1 year labor (Free)","Legacy 3D,",No,1/28/2019 12:00:00 AM,Delivered,New,"Vendor Special discount , manager approval .","1/22Maritza Confirmed synchrony account under Zheng Han approved for $6,000. Asumi received copy of synchrony application and original invoice. Have sales draft signed by account holder.",CA,1,9.50,DWA-9150USJ-9150CH,3638.00,,,6019170813348932,70281258,Las Vegas,36 months,0.00,,,,,,,0.00,,,,,,
