﻿Original Event Name,Event Name,Sales Person,Order Number,Order Date,Customer Name,State,Zip,Product Name,Color,Product Status,QTY,Tax,Total Before Tax,Order Total,Primary Payment Method,Second Payment Method,Thirdl Payment Method,Warranty,Order Items,Pick up,Delivered On,Order Status,Chair Type,Order Notes,Private Note,Branch,No Tax,Actual Tax Rate,SKU,Primary Payment Balance,Primary Authorize Number,Primary Purchase Order Number,Primary Synchrony Account Number,Primary Synchrony Application Key,Primary Synchrony Account Info,Primary Synchrony Term,Primary Synchrony Primary ID,Primary Synchrony Issued State,Primary Synchrony Expiretion Date,Second Payment Balance,Second Authorize Number,Second Purchase Order Number,Second Synchrony Account Number,Second Synchrony Application Key,Second Synchrony Account Info,Second SynchronyTerm,Second Synchrony Primary ID,Second Synchrony Issued State,Second Synchrony Expiretion Date,Third Payment Balance,Third Authorize Number,Third Purchase Order Number,Third Synchrony Account Number,Third Synchrony Application Key,Third Synchrony Account Info,Third Synchrony Term,Third Synchrony Primary ID,Third Synchrony Issued State,Third Synchrony Expiretion Date
Sun N Fun 4/10-15/18 (FL),Sun N Fun 4/10-15/18 (FL),Robert Shih,105161,4/10/2018 6:43:06 PM,Jim Bangerter,FL,32937,Legacy 3D,Demo Black,Demo,1,227.50,4000.00,4227.50,CreditCard,,,"3 years parts, 1 year labor (Free)","Legacy 3D,",No,4/17/2018 12:00:00 AM,Delivered,,"Dear Mr. Bangerter

Thank you very much for your business with us in SUN N FUN , Lakeland , Fl  / Please delivery ASAP","Please see if we have any demo is functional can be delivery in the warehouse or we can just deliver the brand new one
Confirmed $4,227.50 in Square, Please let me know whether demo or new is delivered. 4/11/18 Hitomi ///I got informed that Demo chair will be delivered. 4/16/18 Hitomi///

4/11 Maritza- Courtesy call @10:36AM
4/13 t.t. 12:50 - maggie",FL,0,7.00,DWA-9150USJ-9150BL-DEMO,4227.50,SQUARE # lRfI,,,,,,,,,0.00,,,,,,,,,,0.00,,,,,,,,,
Sun N Fun 4/10-15/18 (FL),Sun N Fun 4/10-15/18 (FL),Robert Shih,105162,4/10/2018 6:51:06 PM,Kwai Lan Lau,VA,22042,Legacy 3D,New Black,New,1,0.00,4300.00,4300.00,CreditCard,,,"3 years parts, 1 year labor (Free)","Legacy 3D,",No,,Hold,,"Dear Mr. Lau

Thank you very much for your business with us in SUN N FUN , Lakeland , Fl  / Please hold the order , customer is buying the new house.","Customer maybe will use layaway or just pay for it
Confirmed $100 in Square. 4/13/18 Hitomi",Not Dispatched,1,7.00,DWA-9150USJ-9150BL,100.00,SQUARE # OwrU,,,,,,,,,0.00,,,,,,,,,,0.00,,,,,,,,,
Sun N Fun 4/10-15/18 (FL),Sun N Fun 4/10-15/18 (FL),Robert Shih,105163,4/10/2018 7:03:09 PM,Jason S. Fellow,FL,34711,Relax2Zero 3D,Demo Choco,Demo,1,0.00,3600.00,3600.00,Cash,PurchaseOrder,,"3 years parts, 1 year labor (Free)","Relax2Zero 3D,",No,4/17/2018 12:00:00 AM,Delivered,,"Dear Mr. Fellow

Thank you very much for your business with us in SUN N FUN , Lakeland , Fl  / Please delivery ASAP","Maggie will send the cash confirmation after the show. 4/12/18 Hitomi
4/12 Maritza- Courtesy call @10:54AM
4/13 Maggie t.t. 12:50
4/19 Hitomi: Mitch received $100 cash deposit. COD $3,500 was paid in cashier's check.DELIVERED NEW CHAIR.",FL,1,7.00,DWA-9060USJ-9060BR-DEMO,100.00,,,,,,,,,,3500.00,,cashiers check#064456,,,,,,,,0.00,,,,,,,,,
Sun N Fun 4/10-15/18 (FL),Sun N Fun 4/10-15/18 (FL),Robert Shih,105164,4/10/2018 7:09:51 PM,Frank Menefee,FL,32757,Relax2Zero 3D,Demo Choco,Demo,1,0.00,3600.00,3600.00,Cash,PurchaseOrder,,"3 years parts, 1 year labor (Free)","Relax2Zero 3D,",No,4/17/2018 12:00:00 AM,Delivered,,"Thank you very much for your business with us in SUN N FUN , Lakeland , Fl  / Please delivery ASAP","Maggie will send the cash confirmation after the show. 4/12/18 Hitomi
4/12 Maritza- Courtesy call @10:57AM
4/13 Maggie vm 12:50/ t.t. 1:30
4/19 Hitomi: Mitch received $100 cash deposit. COD $3,500 was paid in cashier's check.DELIVERED NEW CHAIR.",FL,1,7.00,DWA-9060USJ-9060BR-DEMO,100.00,,,,,,,,,,3500.00,,cashiers check#064456,,,,,,,,0.00,,,,,,,,,
Sun N Fun 4/10-15/18 (FL),Sun N Fun 4/10-15/18 (FL),Robert Shih,105165,4/10/2018 7:20:47 PM,Kevin McClung,FL,34736,Legacy 3D,Demo Black,Demo,1,220.50,3900.00,4120.50,Synchrony,,,"3 years parts, 1 year labor (Free)","Legacy 3D,",No,4/17/2018 12:00:00 AM,Delivered,,"Thank you very much for your business with us in SUN N FUN , Lakeland , Fl  / Synchrony 48 months 0% APR / Please delivery ASAP","Confirmed synchrony form and the account ($8,500). ***Please charge before the delivery.*** 4/13/18 Hitomi
4/13 c.c. vm 12:50pm - maggie / t.t. 3:30",FL,0,7.00,DWA-9150USJ-9150BL-DEMO,4120.50,,,6034610083210461,87446031,Las Vegas,48 months,,,,0.00,,,,,,,,,,0.00,,,,,,,,,
Sun N Fun 4/10-15/18 (FL),Sun N Fun 4/10-15/18 (FL),Robert Shih,105186,4/11/2018 6:29:49 PM,Kimberly Schmidt,WA,98826,Legacy 3D,New Choco,New,1,220.50,3900.00,4120.50,Synchrony,,,"3 years parts, 1 year labor (Free)","Legacy 3D,",No,4/24/2018 12:00:00 AM,Delivered,,Thank you very much for your business with us in SUN N FUN / Synchrony 48 months 0% APR / Please target delivery on April 21 to 24,"Confirmed synchrony form and the account ($8,500) ***Please charge before delivery.***4/13/18 Hitomi
4/13Maritza- Courtesy call @11:45AM
Scott Scheduled for April 24 2018 10:30am to 12:30pm
# 026184 $4120.50 - stephany 04/26/18",WA,0,7.00,DWA-9150USJ-9150CH,4120.50,,,6034610083212129,87488745,Las Vegas,48 months,,,,0.00,,,,,,,,,,0.00,,,,,,,,,
Sun N Fun 4/10-15/18 (FL),Sun N Fun 4/10-15/18 (FL),Robert Shih,105187,4/11/2018 6:39:44 PM,Nick Russmann,TX,75442,Legacy 3D,New Black,New,1,227.50,4000.00,4227.50,CreditCard,,,"3 years parts, 1 year labor (Free)","Legacy 3D,",No,4/21/2018 12:00:00 AM,Delivered,,Thank you very much for your business with us in SUN N FUN / Please deliver ASAP,"Confirmed $4,227.50 in Square. 4/12/18 Hitomi
4/12 Maritza- Courtesy call @10:28AM",TX,0,7.00,DWA-9150USJ-9150BL,4227.50,SQUARE # knt2,,,,,,,,,0.00,,,,,,,,,,0.00,,,,,,,,,
Sun N Fun 4/10-15/18 (FL),Sun N Fun 4/10-15/18 (FL),Robert Shih,105220,4/13/2018 7:17:21 PM,John H. Hammond,TX,75093,Relax2Zero 3D,New Black,New,1,0.00,4700.00,4700.00,Synchrony,,,"3 years parts, 1 year labor (Free)","Relax2Zero 3D,",No,4/30/2018 12:00:00 AM,Delivered,,"Thank you very much for your business with us in SUN N FUN , Lakeland , Fl / Synchrony 48 months 0% APR / Please hold the order , customer will take his wife to our Plano office to see the chair again before we delivery the chair.","Robert run synchrony with his wife's info and confirmed account under his wife *MARGIE HAMMOND*/$6,500.**Please charge before delivery.**NEED TO HAVE WIFE'S SIGNATURE ON SYNCHRONY FORM***4/17/18 Hitomi
4/19Maritza- Courtesy Call @9:30AM",TX,1,7.00,DWA-9060USJ-9060BL,4700.00,,S0008116,6034610083222664,87726755,Las Vegas,48 months,,,,0.00,,,,,,,,,,0.00,,,,,,,,,
Sun N Fun 4/10-15/18 (FL),Sun N Fun 4/10-15/18 (FL),Robert Shih,105221,4/13/2018 7:23:05 PM,Larry E. Sandell,TX,75093,Relax2Zero 3D,New Choco,New,1,0.00,4700.00,4700.00,PurchaseOrder,,,"3 years parts, 1 year labor (Free)","Relax2Zero 3D,",No,,Hold,,"Thank you very much for your business with us in SUN N FUN , Lakeland , Fl / Synchrony 48 months 0% APR / Please hold the order , customer will take his wife to our Plano office to see the chair again before we delivery the chair",,Not Dispatched,1,7.00,DWA-9060USJ-9060BR,4700.00,,S0008115,,,,,,,,0.00,,,,,,,,,,0.00,,,,,,,,,
Sun N Fun 4/10-15/18 (FL),Sun N Fun 4/10-15/18 (FL),Robert Shih,105222,4/13/2018 7:41:12 PM,Jacob J. Hoots,NC,28651,Legacy 3D,New Black,New,1,0.00,4300.00,4300.00,CreditCard,Cash,,"3 years parts, 1 year labor (Free)","Legacy 3D,",No,4/18/2018 12:00:00 AM,Delivered,,"Thank you very much for your business with us in SUN N FUN , Lakeland , Fl / COD $ 4,000 / Please deliver ASAP","COD $4,000 was paid in cash, Mitch received it on 4/20/18. 5/4/18 Riho",FL,1,7.00,DWA-9150USJ-9150BL,300.00,SQUARE # xGeO,,,,,,,,,4000.00,,,,,,,,,,0.00,,,,,,,,,
Sun N Fun 4/10-15/18 (FL),Sun N Fun 4/10-15/18 (FL),Robert Shih,105223,4/13/2018 7:50:02 PM,Gary M. Kennedy,AK,99686,Legacy 3D,New Choco,New,1,0.00,5000.00,5000.00,CreditCard,,,"3 years parts, 1 year labor (Free)","Legacy 3D,",No,4/27/2018 12:00:00 AM,Delivered,,"Thank you very much for your business with us in SUN N FUN , Lakeland , Fl / Please deliver after April 20th / DROP SHIP ONLY","Confirmed $5,000 in Square. 4/16/18 Hitomi
*NO LABOR WARRANTY - for Alaska orders (Per Robert)",CA,1,7.00,DWA-9150USJ-9150CH,5000.00,SQUARE # ik0l,,,,,,,,,0.00,,,,,,,,,,0.00,,,,,,,,,
Sun N Fun 4/10-15/18 (FL),Sun N Fun 4/10-15/18 (FL),Robert Shih,105240,4/14/2018 5:38:21 PM,Frank E. Albright,IN,46705,Legacy 3D,New Black,New,1,283.50,4800.00,5083.50,Synchrony,,,"3 years parts, 1 year labor (Free)","Legacy 3D,",No,5/8/2018 12:00:00 AM,Delivered,,Thank you very much for your business with us in SUN N FUN / Synchrony 48 months 0% APR / Please deliver ASAP,"Confirmed synchrony form and the account($6,600).***Please charge before delivery ***4/16/18 Hitomi
4/16 Maritza- Courtesy call 3:38PM
NO SERIAL # 
$5083.15 AUTH #001655 - STEPHANY 06/06/18",TX,0,7.00,DWA-9150USJ-9150BL,5083.50,,,6034610083218217,87617335,Las Vegas,48 months,,,,0.00,,,,,,,,,,0.00,,,,,,,,,
Sun N Fun 4/10-15/18 (FL),Sun N Fun 4/10-15/18 (FL),Robert Shih,105241,4/14/2018 7:02:15 PM,Kevin Davis,NJ,08824,Relax2Zero 3D,New Black,New,1,0.00,4800.00,4800.00,CreditCard,,,"3 years parts, 1 year labor (Free)","Relax2Zero 3D,",No,,Cancelled,,Thank you very much for your business with us in SUN N FUN / Please hold the order and follow up with customer on April 23rd,"Customer may use layaway ( COD $1900 ) or just paid in full on delivery .
///Confirmed $100 in Square.placed HOLD.4/16/18 Hitomi
PER MARIO H CANCELLED 07/09/18 HE SPOKE TO ROBERT SHIH ALREADY - 07/09/18 STEPHANY",TX,1,7.00,DWA-9060USJ-9060BL,100.00,SQUARE # aFbF,,,,,,,,,0.00,,,,,,,,,,0.00,,,,,,,,,
Sun N Fun 4/10-15/18 (FL),Sun N Fun 4/10-15/18 (FL),Robert Shih,105252,4/15/2018 8:33:30 AM,Johathan ( Dr. J ) Caudill,MD,20785,Legacy 3D,New Black,New,1,248.50,4300.00,4548.50,Synchrony,,,"3 years parts, 1 year labor (Free)","Legacy 3D,",No,5/2/2018 12:00:00 AM,Delivered,,Thank you very much for your business with us in SUN N FUN / Synchrony 48 months 0% APR Program : Vaule City Furniture / Please deliver ASAP,"Confirmed the account ($5,169.)***Please charge before delivery.-***4/16/18 Hitomi
4/16Maritza- Courtesy Call @3:42PM",TX,0,7.00,DWA-9150USJ-9150BL,4548.50,,,6019193811241719,,,48 months,,,,0.00,,,,,,,,,,0.00,,,,,,,,,
Sun N Fun 4/10-15/18 (FL),Sun N Fun 4/10-15/18 (FL),Robert Shih,105268,4/15/2018 12:06:42 PM,Pastor Ric Swaningson,NC,27529,Relax2Zero 3D,Demo Choco,Demo,1,0.00,3500.00,3500.00,CreditCard,,,"3 years parts, 1 year labor (Free)","Relax2Zero 3D,",YES,4/15/2018 12:00:00 AM,Delivered,,Thank you very much for your business with us in SUN N FUN.,"Please do not ship again.  The chair has been picked up already
///Confirmed $3,500 in Square,.received delivery confirmation 4/16/18 Hitomi",FL,1,7.00,DWA-9060USJ-9060BR-DEMO,3500.00,SQUARE # XOyb,,,,,,,,,0.00,,,,,,,,,,0.00,,,,,,,,,
Sun N Fun 4/10-15/18 (FL),Sun N Fun 4/10-15/18 (FL),Robert Shih,105270,4/15/2018 12:23:18 PM,William (Bill) Green,FL,32086,Legacy 3D,New Choco,New,1,0.00,3900.00,3900.00,Synchrony,,,"3 years parts, 1 year labor (Free)","Legacy 3D,",No,4/23/2018 12:00:00 AM,Delivered,,Thank you very much for your business with us in SUN N FUN / Synchrony 36 months 0% APR / Please deliver ASAP,"Confirmed synchrony form and the account ($5,400) ***Please charge before delivery*** 4/16/18
4/16 Maritza- Courtesy call @ 4:21PM
Customer will call soon with updated delivery address. Will contact sales rep to see when they will deliver.",FL,1,7.00,DWA-9150USJ-9150CH,3900.00,,,6034610083218803,87631257,Las Vegas,36 months,,,,0.00,,,,,,,,,,0.00,,,,,,,,,
Sun N Fun 4/10-15/18 (FL),Sun N Fun 4/10-15/18 (FL),Robert Shih,105309,4/16/2018 9:03:01 AM,Lawrence E. Martin Jr.,GA,31705,Relax2Zero 3D,New Choco,New,1,0.00,3900.00,3900.00,Synchrony,,,"3 years parts, 1 year labor (Free)","Relax2Zero 3D,",No,,Hold,,"Thank you very much for your business with us in SUN N FUN / Synchrony 24 months 0% APR approved fpr $2,000 / COD $1,900 / please hold the order","Confirmed synchrony form and the account ($2,000) placed on hold. 4/16/18 Hitomi",FL,1,7.00,DWA-9060USJ-9060BR,2000.00,,,6034610083218464,87620104,Las Vegas,24 months,,,,0.00,,,,,,,,,,0.00,,,,,,,,,
