﻿Date,CustomerName,State,Zipcode,Description,productNo,Color,IsDemo,Net,ShippingFee,GiftPrice,FinancingProcessingFee,Gross,Pre_tax,Tax,Commission,Primary Payment Method,Primary Payment Balance,Primary Authorize Number,Primary Purchase Order Number,Primary Synchrony Account Number,Primary Synchrony Application Key,Primary Synchrony AccountInfo,Primary SynchronyTerm,Secondly Payment Method,Secondly Payment Balance,Secondly Authorize Number,Secondly Purchase Order Number,Secondly Synchrony Account Number,Secondly Synchrony Application Key,Secondly Synchrony AccountInfo,Secondly SynchronyTerm,Thirdly Payment Method,Thirdly Payment Balance,Thirdly Authorize Number,Thirdly Purchase Order Number,Thirdly Synchrony Account Number,Thirdly Synchrony Application Key,Thirdly Synchrony AccountInfo,Thirdly SynchronyTerm,DeliveryDate,Ispickup,Warranty,Status,Event Name,Synchrony Notes,Order Notes,Order number,Private Note,Branch,IsNoTax,ActualTaxRate
12/13/2017 1:25:59 PM,Alphonse Kubwinmana,IL,60502,Legacy for Sam's,DWA-9100DWA-9100BL,Black,New,,,,,3868.93,3599.00,269.93,Mario Higareda,CreditCard,3868.93,,,,,,,,0.00,,,,,,,,0.00,,,,,,,12/14/2017 12:00:00 AM,No,"3 years parts, 1 year labor (Free)",Delivered,Sam's Club Naperville #8143 12/7-17/17 (IL),,,102449,,TX,0,7.50
12/21/2017 4:05:49 PM,Amy hagerman,IL,60564,Ninja Leg Massager,,,New,,,,,407.43,379.00,28.43,Miku Yamaguchi,CreditCard,0.00,,,,,,,,0.00,,,,,,,,0.00,,,,,,,,YES,"2 years parts, 1 year labor (Small Items)",Delivered,Sam's Club Naperville #8143 12/7-17/17 (IL),,,102620,,TX,0,7.50
12/21/2017 4:13:50 PM,Amgad Elgowainy,IL,60532,Ninja Leg Massager,,,New,,,,,407.43,379.00,28.43,Miku Yamaguchi,CreditCard,0.00,,,,,,,,0.00,,,,,,,,0.00,,,,,,,,YES,"2 years parts, 1 year labor (Small Items)",Delivered,Sam's Club Naperville #8143 12/7-17/17 (IL),,,102621,,TX,0,7.50
12/21/2017 4:18:42 PM,Guadalny heymy,IL,60505,Ninja Leg Massager,,,New,,,,,407.43,379.00,28.43,Miku Yamaguchi,CreditCard,0.00,,,,,,,,0.00,,,,,,,,0.00,,,,,,,,YES,"2 years parts, 1 year labor (Small Items)",Delivered,Sam's Club Naperville #8143 12/7-17/17 (IL),,,102622,,TX,0,7.50
