﻿Original Event Name,Event Name,Sales Person,Order Number,Order Date,Customer Name,State,Zip,Product Name,Color,Product Status,QTY,Tax,Total Before Tax,Order Total,Primary Payment Method,Second Payment Method,Thirdl Payment Method,Warranty,Order Items,Pick up,Delivered On,Order Status,Chair Type,Order Notes,Private Note,Branch,No Tax,Actual Tax Rate,SKU,Primary Payment Balance,Primary Authorize Number,Primary Purchase Order Number,Primary Synchrony Account Number,Primary Synchrony Application Key,Primary Synchrony Account Info,Primary Synchrony Term,Second Payment Balance,Second Authorize Number,Second Purchase Order Number,Second Synchrony Account Number,Second Synchrony Application Key,Second Synchrony Account Info,Second SynchronyTerm,Third Payment Balance,Third Authorize Number,Third Purchase Order Number,Third Synchrony Account Number,Third Synchrony Application Key,Third Synchrony Account Info,Third Synchrony Term
"Sam's Club #4930 Cookeville, TN 4/25-5/5/19 (FL)","Sam's Club #4930 Cookeville, TN 4/25-5/5/19 (FL)",Hector Bernardino,116975,4/26/2019 10:10:15 AM,Mona lisa Owens,TN,38506,Symphony  - Sam's Club,Demo Black[-700],Demo,1,448.40,4599.00,5047.40,Sam’s Club Synchrony,,,"3 years parts, 1 year labor (Free)","Symphony  - Sam's Club,",No,,Scheduled,,,"One vitality plate @no cost
CC, Jasmin Carrizales, 4/26/19, 3:48pm-
Getting delivered by Hector after show May 5th from 6:30pm-7:00pm",FL,0,9.75,USJ-9300Symphony-BL-DEMO,0.00,,,,,,,0.00,,,,,,,0.00,,,,,,
"Sam's Club #4930 Cookeville, TN 4/25-5/5/19 (FL)","Sam's Club #4930 Cookeville, TN 4/25-5/5/19 (FL)",Hector Bernardino,116984,4/26/2019 6:56:27 PM,Maria Rodriguez,TN,38506,Relax 2 Zero 2.0 for Sam's,New Black,New,1,380.25,3900.00,4280.25,Sam’s Club Synchrony,,,"3 years parts, 1 year labor (Free)","Relax 2 Zero 2.0 for Sam's,",No,,Scheduled,,,"CC, Jasmin Carrizales, 4/29/19, 12:26pm, VM",FL,0,9.75,USJ-9050USJ-9050BL,0.00,,,,,,,0.00,,,,,,,0.00,,,,,,
"Sam's Club #4930 Cookeville, TN 4/25-5/5/19 (FL)","Sam's Club #4930 Cookeville, TN 4/25-5/5/19 (FL)",Hector Bernardino,117009,4/28/2019 8:35:08 AM,Joseph Zunino,TN,38574,Symphony  - Sam's Club,Demo Black[-700],Demo,1,448.40,4599.00,5047.40,Sam’s Club Synchrony,,,"3 years parts, 1 year labor (Free)","Symphony  - Sam's Club,",No,,Cancelled,,,"Demo @werehouse Andre approve
CC, Jasmin Carrizales, 4/29/19, 12:31pm, VM
4/29Maritza- Sam's Club rep (Godwin) called saying that customer has cancelled their order. Will inform FL branch.",FL,0,9.75,USJ-9300Symphony-BL-DEMO,0.00,,,,,,,0.00,,,,,,,0.00,,,,,,
"Sam's Club #4930 Cookeville, TN 4/25-5/5/19 (FL)","Sam's Club #4930 Cookeville, TN 4/25-5/5/19 (FL)",Hector Bernardino,117068,4/30/2019 11:03:27 AM,Ronald Cox,TN,38501,Vitality Plate for Sam's,New,New,1,44.85,459.99,504.84,Purchase Order,,,"2 years parts, 1 year labor for Small Items","Vitality Plate for Sam's,",YES,,Delivered,,,,FL,0,9.75,USJ-849USJ-849,0.00,,504242000276463180336,,,,,0.00,,,,,,,0.00,,,,,,
"Sam's Club #4930 Cookeville, TN 4/25-5/5/19 (FL)","Sam's Club #4930 Cookeville, TN 4/25-5/5/19 (FL)",Hector Bernardino,117088,5/2/2019 9:57:09 AM,Bill Hyden,TN,38583,Relax 2 Zero 2.0 for Sam's,New Black,New,1,380.25,3900.00,4280.25,Sam’s Club Synchrony,,,"3 years parts, 1 year labor (Free)","Relax 2 Zero 2.0 for Sam's,",No,,Scheduled,,,"CC, Jamsin Carrizales, 5/3/19, 10:42am, Vm-Not set up",FL,0,9.75,USJ-9050USJ-9050BL,0.00,,,,,,,0.00,,,,,,,0.00,,,,,,
