﻿Date,CustomerName,State,Zipcode,Description,productNo,Color,IsDemo,Net,ShippingFee,GiftPrice,FinancingProcessingFee,Gross,Pre_tax,Tax,Commission,Primary Payment Method,Primary Payment Balance,Primary Authorize Number,Primary Purchase Order Number,Primary Synchrony Account Number,Primary Synchrony Application Key,Primary Synchrony AccountInfo,Primary SynchronyTerm,Secondly Payment Method,Secondly Payment Balance,Secondly Authorize Number,Secondly Purchase Order Number,Secondly Synchrony Account Number,Secondly Synchrony Application Key,Secondly Synchrony AccountInfo,Secondly SynchronyTerm,Thirdly Payment Method,Thirdly Payment Balance,Thirdly Authorize Number,Thirdly Purchase Order Number,Thirdly Synchrony Account Number,Thirdly Synchrony Application Key,Thirdly Synchrony AccountInfo,Thirdly SynchronyTerm,DeliveryDate,Ispickup,Warranty,Status,Event Name,Synchrony Notes,Order Notes,Order number,Private Note,Branch,IsNoTax,ActualTaxRate
11/8/2017 9:59:42 AM,Don Tam,TX,75007,Legacy,DWA-9100DWA-9100CH,Choco Brown,New,,,,,3900.08,3660.00,240.08,Mijung Song,,0.00,TkKu,,,,,,,,,,,,,,,,,,,,,,,No,"3 years parts, 1 year labor (Free)",Delivered,Health and Wellness Carrollton Store 2017 (TX),,,101762,"Paid In Full.
SQUARE CLEARED BY ALICIA 11.8.17",TX,,
11/10/2017 10:31:44 AM,Qing Lin,TX,75035,Legacy 3D,DWA-9150USJ-9150BL,Black,New,,,,,3500.00,3305.66,194.34,Molly Zhao,Synchrony,3500.00,,,6034610081622733,80860974,Huston,36 months,,0.00,,,,,,,,0.00,,,,,,,11/21/2017 12:00:00 AM,No,"3 years parts, 1 year labor (Free)",Delivered,Health and Wellness Carrollton Store 2017 (TX),,,101781,"Need to process the payment, CHARGE BEFORE DELIVERY -ALICIA 11.10.17
Charged $3500 through Synchrony, Auth#007965. 12/7/17 Riho",TX,,
11/10/2017 10:31:44 AM,Qing Lin,TX,75035,Daiwa Blanket,,,New,,,,,3500.00,3305.66,194.34,Molly Zhao,Synchrony,3500.00,,,6034610081622733,80860974,Huston,36 months,,0.00,,,,,,,,0.00,,,,,,,11/21/2017 12:00:00 AM,No,no warranty,Delivered,Health and Wellness Carrollton Store 2017 (TX),,,101781,"Need to process the payment, CHARGE BEFORE DELIVERY -ALICIA 11.10.17
Charged $3500 through Synchrony, Auth#007965. 12/7/17 Riho",TX,,
11/21/2017 11:38:31 AM,Robert Cypress,TX,76548,Relax2Zero 2.0,USJ-9050USJ-9050BR,Brown,New,,,,,4221.58,3957.00,264.58,Mario Higareda,,4221.75,#90714D,,,,,,,,,,,,,,,,,,,,,,11/30/2017 12:00:00 AM,No,"3 years parts, 1 year labor (Free)",Delivered,Health and Wellness Carrollton Store 2017 (TX),,,102029,"Couldn't find the transaction, asking Mario. 11/21/17 Riho",TX,0,8.25
11/25/2017 7:44:48 AM,Ly Huynh,LA,70363,Legacy,DWA-9100DWA-9100GD,Gold,New,,,,,3599.00,3599.00,0.00,Kristy Tran,,3599.00,#a2NG,,,,,,,,,,,,,,,,,,,,,,11/27/2017 12:00:00 AM,No,"3 years parts, 1 year labor (Free)",Delivered,Health and Wellness Carrollton Store 2017 (TX),,Customer is Tax Exempt,102090,PAYMENT CLEARED BY ALICIA 11.27.17,TX,1,8.25
11/28/2017 2:15:47 PM,Eun Sung Park,TX,75065,Relax2Zero 3D,DWA-9060USJ-9060BR,Choco Brown,New,,,,,4000.00,4000.00,0.00,Mijung Song,,200.00,g8Mk,,,,,,COD,,,,,,,,,,,,,,,,,No,"3 years parts, 1 year labor (Free)",Hold,Health and Wellness Carrollton Store 2017 (TX),,,102175,hold customer not ready,TX,1,8.25
12/5/2017 9:32:19 AM,Tsiu Chiu Chan,TX,75006,Serenity,SSRT-1SSRT-1-BR,Choco Brown,New,,,,,3200.00,3200.00,0.00,Yuhan Liu,Check,3200.00,,,,,,,,0.00,,,,,,,,0.00,,,,,,,,No,"3 years parts, 1 year labor (Free)",New,Health and Wellness Carrollton Store 2017 (TX),,,102280,"The check $3200 was deposit on 12/5/17, it will be confirmed on 12/12/17.  12/6/17 Riho",TX,1,8.25
