﻿Date,CustomerName,State,Zipcode,Description,productNo,Color,IsDemo,Net,ShippingFee,GiftPrice,FinancingProcessingFee,Gross,Pre_tax,Tax,Commission,Primary Payment Method,Primary Payment Balance,Primary Authorize Number,Primary Purchase Order Number,Primary Synchrony Account Number,Primary Synchrony Application Key,Primary Synchrony AccountInfo,Primary SynchronyTerm,Secondly Payment Method,Secondly Payment Balance,Secondly Authorize Number,Secondly Purchase Order Number,Secondly Synchrony Account Number,Secondly Synchrony Application Key,Secondly Synchrony AccountInfo,Secondly SynchronyTerm,Thirdly Payment Method,Thirdly Payment Balance,Thirdly Authorize Number,Thirdly Purchase Order Number,Thirdly Synchrony Account Number,Thirdly Synchrony Application Key,Thirdly Synchrony AccountInfo,Thirdly SynchronyTerm,DeliveryDate,Ispickup,Warranty,Status,Event Name,Synchrony Notes,Order Notes,Order number,Private Note,Branch,IsNoTax,ActualTaxRate
7/30/2018 9:18:31 AM,Talib Jaber,FL,33458,Relax2Zero 2.0,USJ-9050USJ-9050BR,New Brown,New,,,,,4113.00,4113.00,0.00,Rolly San Jose,CreditCard,4113.00,00946G,,,,,,,0.00,,,,,,,,0.00,,,,,,,,No,"3 years parts, 1 year labor (Free)",Assigned,ASD 7/29-8/1/18 LAS VEGAS (NV),,,107976,"CC Josefina - 7/31/18 3:05pm

Deliver within 2 weeks from Aug 1, 2018///transaction has not shown up 7/30/18 Hitomi///Confirmed 4,113 in Wells Fargo.  7/31/18 Hitomi",FL,1,8.25
7/30/2018 9:42:54 AM,Azucena Pogue,MO,63051,Legacy 3D,DWA-9150USJ-9150CH-DEMO,Demo Choco,Demo,,,,,4900.00,4900.00,0.00,Kohei Uno,Synchrony,4900.00,,,6019170813057020,92271836,Las Vegas,24 months,,0.00,,,,,,,,0.00,,,,,,,,No,"3 years parts, 1 year labor (Free)",Scheduled,ASD 7/29-8/1/18 LAS VEGAS (NV),,,107980,"Confirmed 	synchrony account ($6,500) . ORIGINAL NEEDS TO BE CONFIRMED 7/30/18 Hitomi///original is confirmed. ***Please charge before delivery and have sales draft signed. *** 8/1/18 Hitomi
8/1Maritza Courtesy call @ 11:46AM",TX,1,8.25
7/30/2018 9:56:24 AM,Emy Marzuca,FL,33142,Legacy 3D,DWA-9150USJ-9150BL,New Black,New,,,,,4200.00,4200.00,0.00,Kohei Uno,CreditCard,4200.00,Square# uQGm,,,,,,,0.00,,,,,,,,0.00,,,,,,,8/3/2018 12:00:00 AM,No,3 Years Parts (International),Delivered,ASD 7/29-8/1/18 LAS VEGAS (NV),,Please add 1 additional year of parts warranty to make a total of 4 years parts international warranty.,107983,"CC Josefina - 7/31/18 9:45am
Address and phone number on file is customer's carrier info. Customer's phone number is +011 (504) 9991-6621
Emy Marzuca///COnfirmed $4,200 in Square. 7/30/18 Hitomi",FL,1,8.25
7/31/2018 7:00:03 AM,John Pohlmeyer,FL,33980,Relax2Zero 2.0,USJ-9050USJ-9050BR,New Brown,New,,,,,4113.00,4113.00,0.00,Rolly San Jose,CreditCard,4113.00,827215,,,,,,,0.00,,,,,,,,0.00,,,,,,,,No,"3 years parts, 1 year labor (Free)",Assigned,ASD 7/29-8/1/18 LAS VEGAS (NV),,,107992,"CC Josefina - 8/1/18 1pm

Deliver within 2 weeks//transaction has not shown up yet. 7/31/18 Hitomi///CONfirmed $4,113.00 in WF. 8/1/18 Hitomi",FL,1,8.25
7/31/2018 8:43:47 AM,Griselda Gomez,WA,99337,Legacy 3D,DWA-9150USJ-9150CH,New Choco,New,,,,,4200.00,4200.00,0.00,Rodrigo Malabunga,CreditCard,2200.00,Square#luUw,,,,,,Synchrony,2000.00,,,6019170813058432,92312153,Las Vegas,48 months,,0.00,,,,,,,,No,"3 years parts, 1 year labor (Free)",Scheduled,ASD 7/29-8/1/18 LAS VEGAS (NV),,Please send customer Tourmaline pad,107995,"Confirmed $2,200 in Square . Synchrony account approved ($2,000) ORIGINAL NEEDS TO BE CONFIRMED. 7/31/18 Hitomi 
07/31/18- Cristina- confirmed Synchrony funds and Synchrony application- Please charge before delivery and have Sales draft signed
CHARGED SYNCHRONY #006021 $2000 - STEPHANY 08/06/18",WA,1,8.25
7/31/2018 8:49:47 AM,Valetie Anthony,NV,89141,Legacy 3D,DWA-9150USJ-9150CH,New Choco,New,,,,,4800.00,4800.00,0.00,Rodrigo Malabunga,CreditCard,4800.00,Square# QSsQ,,,,,,,0.00,,,,,,,,0.00,,,,,,,8/3/2018 12:00:00 AM,No,"3 years parts, 3 years labor ($400)",Delivered,ASD 7/29-8/1/18 LAS VEGAS (NV),,,107996,"Confirmed $4,800 in Square. 7/31/18 Hitomi
8/2Maritza Courtesy call @ 9:19AM
Delivered by Li & Kohei on 8/3/2018",NV,1,8.25
7/31/2018 9:02:58 AM,Thabit Khuder,IL,60143,Legacy 3D,DWA-9150USJ-9150BL,New Black,New,,,,,3800.00,3800.00,0.00,Elijah Banania,CreditCard,3800.00,Square# HLXA,,,,,,,0.00,,,,,,,,0.00,,,,,,,,No,"3 years parts, 1 year labor (Free)",Scheduled,ASD 7/29-8/1/18 LAS VEGAS (NV),,3rd Floor Delivery,107997,"Confirmed $3,800 in Square. 7/31/18 Hitomi
8/1Maritza Courtesy call @ 8:50AM",TX,1,8.25
7/31/2018 9:26:43 AM,Kenneth Gallegos,CO,80239,Relax2Zero 2.0,USJ-9050USJ-9050BL,New Black,New,,,,,4113.00,4113.00,0.00,Rolly San Jose,CreditCard,200.00,231291,,,,,,CreditCard,3913.00,071372,,,,,,,0.00,,,,,,,,No,"3 years parts, 1 year labor (Free)",Assigned,ASD 7/29-8/1/18 LAS VEGAS (NV),,,107998,"Deliver on sept 10, 2018.  Call first 2 days before delivery///Confirmed $200 in Wells Fargo. Not 3913.00 yet 7/31/18 Hitomi///Confirmed $3,913.00  in WF 8/1/18 Hitomi
8/1Maritza Courtesy call @ 11:50AM",TX,1,8.25
7/31/2018 10:16:53 AM,Kathleen Keaveny,AZ,85351,Relax2Zero 3D,DWA-9060USJ-9060BL,New Black,New,,,,,11700.00,11700.00,0.00,Mario Higareda,CreditCard,1170.00,Receipt #lGsb,,,,,,COD,10530.00,,,,,,,,0.00,,,,,,,,No,"3 years parts, 1 year labor (Free)",Assigned,ASD 7/29-8/1/18 LAS VEGAS (NV),,"***Please bring 5 pieces of EZ Duos for customers upon delivery***

C.O.D balance remaining $10,530.00 upon delivery. Mrs. Chong will be paying the remaining balance so please set up delivery for her first. (480)223-8927",107999,"All 3 chairs will be going to 3 different addresses. Please call (623)873-4961 to confirm address for each delivery.///Confirmed $1,170 in Square. COD $10,530. 7/31/18 Hitomi",NV,1,8.25
7/31/2018 10:22:35 AM,Doug Cleaver,TN,37862,Relax2Zero 3D,DWA-9060USJ-9060BL,New Black,New,,,,,4700.00,4700.00,0.00,Kohei Uno,Cash,1500.00,,,,,,,CreditCard,3200.00,Square# 0FCg,,,,,,,0.00,,,,,,,,No,"3 years parts, 1 year labor (Free)",Scheduled,ASD 7/29-8/1/18 LAS VEGAS (NV),,,108000,"$1500 cash collected by Kohei Uno.///Confirmed $3,200 in Square. will confirm cash and delivery area. 7/31/18 Hitomi///received confirmation that Kohei received cash. 8/1/18 Hitomi",FL,1,8.25
7/31/2018 10:29:05 AM,Deborah Zapata,CA,92324,Relax2Zero 3D,DWA-9060USJ-9060BR,New Choco,New,,,,,4600.00,4600.00,0.00,Kohei Uno,CreditCard,100.00,Square# n4HY,,,,,,COD,4500.00,,,,,,,,0.00,,,,,,,,No,"3 years parts, 1 year labor (Free)",Called,ASD 7/29-8/1/18 LAS VEGAS (NV),,"Deposit of $100 received.
C.O.D balance of $4500 remaining to be collected upon delivery.
***Please schedule delivery for August 29th***",108001,"Confirmed $100 in Square, COD$4,500. 7/31/18 Hitomi",CA,1,8.25
7/31/2018 12:16:17 PM,Andres Ohlsen,NV,89113,Pegasus,DWA-9400Pegasus-BR-DEMO,Demo Choco,Demo,,,,,5200.00,5200.00,0.00,Ruben Cuatrona,CreditCard,5200.00,2O6u,,,,,,,0.00,,,,,,,,0.00,,,,,,,8/1/2018 12:00:00 AM,No,"3 years parts, 1 year labor (Free)",Delivered,ASD 7/29-8/1/18 LAS VEGAS (NV),,,108004,"Give 1 Tourmaline Pad to Customer.
Demo Pegasus Choco
Please Deliver on July 1, 2018 after the ASD Show.",NV,1,8.25
7/31/2018 9:23:41 PM,Joyce Ko,TX,77498,Relax2Zero 2.0,USJ-9050USJ-9050BL,New Black,New,,,,,3000.00,3000.00,0.00,Keith Kei,CreditCard,3000.00,SQ# OHTw,,,,,,,0.00,,,,,,,,0.00,,,,,,,,No,"3 years parts, 1 year labor (Free)",Called,ASD 7/29-8/1/18 LAS VEGAS (NV),,,108010,"Deliver within 2 weeks///Groups sales with 108011, 108012. COnfirmed $3,000 in Square.8/1/18 Hitomi
8/1Maritza Courtesy call 11:51AM",TX,1,8.25
7/31/2018 9:34:06 PM,Usman Ghafoor,TX,77469,Relax2Zero 2.0,USJ-9050USJ-9050BL,New Black,New,,,,,3000.00,3000.00,0.00,Rolly San Jose,CreditCard,3000.00,05481G,,,,,,,0.00,,,,,,,,0.00,,,,,,,,No,"3 years parts, 1 year labor (Free)",Called,ASD 7/29-8/1/18 LAS VEGAS (NV),,,108011,"This is s group sale of 6 individuals who have gotten the same wholesale price of $3000 each. Pls deliver within 2 weeks.//transaction has not shown up. confirmed $3000 with sales receipt.  8/1/18 Hitomi
8/2Maritza Courtesy call @ 8:40AM",TX,1,8.25
7/31/2018 9:42:38 PM,Rafiq Merchant,TX,77498,Relax2Zero 2.0,USJ-9050USJ-9050BL,New Black,New,,,,,3000.00,3000.00,0.00,Rolly San Jose,CreditCard,3000.00,05481G,,,,,,,0.00,,,,,,,,0.00,,,,,,,,No,"3 years parts, 1 year labor (Free)",Called,ASD 7/29-8/1/18 LAS VEGAS (NV),,,108012,"Pls give 1 free foot vibes to rafiq and also 1 free foot vibe to usman ghafoor of # 108011.
Pls deliver within 2 weeks.///transaction has not shown up yet . confirmed $3000 with sales receipt.   8/1/18 Hitomi
8/2Maritza Courtesy call @ 8:42AM",TX,1,8.25
7/31/2018 10:31:25 PM,Nancy Rogers,SC,29512,Relax2Zero 2.0,USJ-9050USJ-9050BL,New Black,New,,,,,4113.00,4113.00,0.00,Rolly San Jose,CreditCard,4113.00,08011Z,,,,,,,0.00,,,,,,,,0.00,,,,,,,,No,"3 years parts, 1 year labor (Free)",Scheduled,ASD 7/29-8/1/18 LAS VEGAS (NV),,,108013,"Deliver within 2 weeks///transaction has not shown up yet 8/1/18 Hitomi///COnfirmed $4,113.0in WF. 8/2/18 Hitomi
8/2Maritza Courtesy call @ 8:44AM",FL,1,8.25
8/1/2018 9:12:06 AM,Eung Lee,IL,60061,Legacy 3D,DWA-9150USJ-9150CH-DEMO,Demo Choco,Demo,,,,,4000.00,4000.00,0.00,Rodrigo Malabunga,CreditCard,4000.00,Square # yD4q,,,,,,,0.00,,,,,,,,0.00,,,,,,,,No,"3 years parts, 1 year labor (Free)",Scheduled,ASD 7/29-8/1/18 LAS VEGAS (NV),,,108022,"COnfirmed $4,000.00 in SQuare. 8/1/18 Hitomi
8/1Maritza Courtesy call @ 12:10PM",TX,1,8.25
8/1/2018 9:50:19 AM,Jim and Shelby Doty,KS,67601,Pegasus,DWA-9400Pegasus-BL-DEMO,Demo Black,Demo,,,,,8600.00,8600.00,0.00,Querubin Milanes,Synchrony,8600.00,,,6019170813059729,92354814,San Diego,36 months,,0.00,,,,,,,,0.00,,,,,,,,No,"3 years parts, 2 years labor ($200)",Called,ASD 7/29-8/1/18 LAS VEGAS (NV),,,108024,"2 Pegasus Demo Chairs in different address. Send 2 TOURMALINE Pads
Demo Brown @ 1716 Henry St. Hays, Kansas 67601
Demo Black @ 693 210th Ave. Hays, Kansas 67601
///COnfirmed synchrony account ($12,000) and original under JAMES DOTY. ***Please charge before delivery and have sales draft signed. *** 8/1/18 Hitomi
8/2Maritza Courtesy call @ 8:46AM",TX,1,8.25
8/1/2018 9:50:19 AM,Jim and Shelby Doty,KS,67601,Pegasus,DWA-9400Pegasus-BR-DEMO,Demo Choco,Demo,,,,,8600.00,8600.00,0.00,Querubin Milanes,Synchrony,8600.00,,,6019170813059729,92354814,San Diego,36 months,,0.00,,,,,,,,0.00,,,,,,,,No,"3 years parts, 2 years labor ($200)",Called,ASD 7/29-8/1/18 LAS VEGAS (NV),,,108024,"2 Pegasus Demo Chairs in different address. Send 2 TOURMALINE Pads
Demo Brown @ 1716 Henry St. Hays, Kansas 67601
Demo Black @ 693 210th Ave. Hays, Kansas 67601
///COnfirmed synchrony account ($12,000) and original under JAMES DOTY. ***Please charge before delivery and have sales draft signed. *** 8/1/18 Hitomi
8/2Maritza Courtesy call @ 8:46AM",TX,1,8.25
8/1/2018 10:02:00 AM,Monica Costeira,OK,74012,Legacy,DWA-9100DWA-9100BL-DEMO,Demo Black,Demo,,,,,3600.00,3600.00,0.00,Ruben Cuatrona,CreditCard,3600.00,Receipt #a7CQ,,,,,,,0.00,,,,,,,,0.00,,,,,,,,No,"3 years parts, 1 year labor (Free)",Scheduled,ASD 7/29-8/1/18 LAS VEGAS (NV),,,108026,"Demo Black Legacy DWA 9100///Confirmed $3,600.00 in Square. 8/1/18 Hitomi
8/1Maritza Courtesy call @ 12:12PM",TX,1,8.25
8/1/2018 10:17:44 AM,Yung Ran Chung,NV,89148,Legacy,DWA-9100DWA-9100BU-DEMO,Demo Choco,Demo,,,,,3600.00,3600.00,0.00,Li Chen,CreditCard,3600.00,ZPmm,,,,,,,0.00,,,,,,,,0.00,,,,,,,8/3/2018 12:00:00 AM,No,"3 years parts, 1 year labor (Free)",Delivered,ASD 7/29-8/1/18 LAS VEGAS (NV),,,108028,"Confirmed $3,600.00 in Square. 8/1/18 Hitomi
8/2Maritza Courtesy call @ 9:26AM

Delivered by Li & Kohei on 8/3/2018",NV,1,8.25
8/1/2018 7:08:35 PM,Kamran Malcnojia,TX,77469,Relax2Zero 2.0,USJ-9050USJ-9050BL,New Black,New,,,,,3000.00,3000.00,0.00,Rolly San Jose,Check,3000.00,,,,,,,,0.00,,,,,,,,0.00,,,,,,,,No,"3 years parts, 1 year labor (Free)",Hold,ASD 7/29-8/1/18 LAS VEGAS (NV),,,108032,"Deliver within 2 weeks. Check transaction# 0760098 with Wells Fargo. Check has $9000
Value deposited in USJ Wells Fargo account.//will confirm check will be cleared -8/2/18 Hitomi///Yumi informed that check was bounced. asked Rolly how they will pay and returned item fee $12.00 . 8/3/18 Hitomi",Not Dispatched,1,8.25
8/1/2018 7:19:10 PM,Mohammad Lalani,TX,77498,Relax2Zero 2.0,USJ-9050USJ-9050BL,New Black,New,,,,,3000.00,3000.00,0.00,Rolly San Jose,Check,3000.00,,,,,,,,0.00,,,,,,,,0.00,,,,,,,,No,"3 years parts, 1 year labor (Free)",Hold,ASD 7/29-8/1/18 LAS VEGAS (NV),,,108033,Deliver within 2 weeks. Payment of $3000 was taken from check paid by kamran malcnojia///will confirm check will be cleared -8/2/18 Hitomi/Yumi informed that check was bounced. asked Rolly how they will pay and returned item fee $12.00 . 8/3/18 Hitomi,Not Dispatched,1,8.25
8/1/2018 7:27:59 PM,Sajid Hooda,TX,77498,Relax2Zero 2.0,USJ-9050USJ-9050BL,New Black,New,,,,,3000.00,3000.00,0.00,Rolly San Jose,Check,3000.00,,,,,,,,0.00,,,,,,,,0.00,,,,,,,,No,"3 years parts, 1 year labor (Free)",Hold,ASD 7/29-8/1/18 LAS VEGAS (NV),,,108035,Deliver within 2 weeks. Payments $3000 was paid thru check of kamran which was deposited today thru USJ Wells Fargo bank account.///will confirm check will be cleared -8/2/18 Hitomi///Yumi informed that check was bounced. asked Rolly how they will pay and returned item fee $12.00 . 8/3/18 Hitomi,Not Dispatched,1,8.25
8/3/2018 8:48:43 AM,Vivek Pahariya,NV,89012,Pegasus,DWA-9400Pegasus-BR-DEMO,Demo Choco,Demo,,,,,4000.00,4000.00,0.00,Ruben Cuatrona,Cash,200.00,,,,,,,CreditCard,3800.00,Square# pEvH,,,,,,,0.00,,,,,,,8/3/2018 12:00:00 AM,No,"3 years parts, 1 year labor (Free)",Delivered,ASD 7/29-8/1/18 LAS VEGAS (NV),,$200 cash deposit collected by Ruben Cuatrona. C.O.D balance of $3800 remaining to be collected upon delivery.,108067,"will confirm cash. COD $3,800. 8/3/18 Hitomi
please bring cc machine 
08/03/18- Cristina- Dispatched; Sent kohei a Text last night advising of COD: $3,800.00 Chair is to be delivered today 08/3/18

Delivered by Li & Kohei on 8/3/2018. COD payment collected by Kohei via credit card.",NV,1,8.25
8/3/2018 9:14:36 AM,Jason Dupont,NM,88007,Pegasus,DWA-9400Pegasus-BR-DEMO,Demo Choco,Demo,,,,,4500.00,4500.00,0.00,Ruben Cuatrona,Synchrony,4500.00,,,6019170813059232,92337029,Huston,48 months,,0.00,,,,,,,,0.00,,,,,,,,No,"3 years parts, 1 year labor (Free)",Assigned,ASD 7/29-8/1/18 LAS VEGAS (NV),,,108070,"Demo/military discount. Please ship a new chair from texas///Confirmed synchrony account ($6,500) ORIGINAL NEEDS TO BE CONFIRMED 8/3/18 HITOMI///Confirmed original. 8/6/18 Hitomi
8/6Maritza Courtesy call @ 11:32AM",TX,1,8.25
8/3/2018 4:20:27 PM,Kristy-Ann Dunlap-Smith,IN,47119,Pegasus,DWA-9400Pegasus-BR-DEMO,Demo Choco,Demo,,,,,5200.00,5200.00,0.00,Ruben Cuatrona,Synchrony,5200.00,,,6019170813059265,92337564,Huston,36 months,,0.00,,,,,,,,0.00,,,,,,,,No,"3 years parts, 1 year labor (Free)",Called,ASD 7/29-8/1/18 LAS VEGAS (NV),,,108090,"08/03/18- Cristina- (DELIVER AFTER AUGUST 9TH)
Checked synchrony funds on TX log in for $8,500; Please charge synchrony before delivery and have sales draft signed. 4:27 PM",TX,1,8.25
8/3/2018 4:47:04 PM,Jason Dupont,NM,88007,Pegasus,DWA-9400Pegasus-BR,New Choco,New,,,,,4500.00,4500.00,0.00,Ruben Cuatrona,Synchrony,0.00,,,6019170813059232,92337029,Huston,48 months,,0.00,,,,,,,,0.00,,,,,,,,No,"3 years parts, 1 year labor (Free)",Assigned,ASD 7/29-8/1/18 LAS VEGAS (NV),,,108091,"08/03/18-Cristina- Verif. Synchrony under Tx Branch for $6,500.00; Please charge Synchrony before delivery and have sales draft signed.",TX,1,8.25
8/3/2018 5:21:55 PM,Phong Nguyen,TX,77377,Legacy 3D,DWA-9150USJ-9150BL,New Black,New,,,,,3900.00,3900.00,0.00,Ruben Cuatrona,CreditCard,0.00,9der,,,,,,,0.00,,,,,,,,0.00,,,,,,,,No,"3 years parts, 1 year labor (Free)",Assigned,ASD 7/29-8/1/18 LAS VEGAS (NV),,,108093,"08/03/18- Cristina- Cleared SQ. payment for $7,800.00 (1-2)",TX,1,8.25
8/3/2018 5:21:55 PM,Phong Nguyen,TX,77377,Daiwa Blanket,,,New,,,,,3900.00,3900.00,0.00,Ruben Cuatrona,CreditCard,0.00,9der,,,,,,,0.00,,,,,,,,0.00,,,,,,,,No,no warranty,Assigned,ASD 7/29-8/1/18 LAS VEGAS (NV),,,108093,"08/03/18- Cristina- Cleared SQ. payment for $7,800.00 (1-2)",TX,1,8.25
8/3/2018 5:27:01 PM,Rev. Joseph Nguyen,FL,32211,Legacy 3D,DWA-9150USJ-9150BL,New Black,New,,,,,3900.00,3900.00,0.00,Ruben Cuatrona,CreditCard,0.00,9der,,,,,,,0.00,,,,,,,,0.00,,,,,,,,No,"3 years parts, 1 year labor (Free)",Assigned,ASD 7/29-8/1/18 LAS VEGAS (NV),,,108095,"08/03/18-Cristina- Cleared Sq. payment for $7,800 for two orders. (Linked to order 108093)",FL,1,8.25
8/3/2018 5:27:01 PM,Rev. Joseph Nguyen,FL,32211,Daiwa Blanket,,,New,,,,,3900.00,3900.00,0.00,Ruben Cuatrona,CreditCard,0.00,9der,,,,,,,0.00,,,,,,,,0.00,,,,,,,,No,no warranty,Assigned,ASD 7/29-8/1/18 LAS VEGAS (NV),,,108095,"08/03/18-Cristina- Cleared Sq. payment for $7,800 for two orders. (Linked to order 108093)",FL,1,8.25
