﻿Original Event Name,Event Name,Sales Person,Order Number,Order Date,Customer Name,State,Zip,Product Name,Color,Product Status,QTY,Tax,Total Before Tax,Order Total,Primary Payment Method,Second Payment Method,Thirdl Payment Method,Warranty,Order Items,Pick up,Delivered On,Order Status,Chair Type,Order Notes,Private Note,Branch,No Tax,Actual Tax Rate,SKU,Primary Payment Balance,Primary Authorize Number,Primary Purchase Order Number,Primary Synchrony Account Number,Primary Synchrony Application Key,Primary Synchrony Account Info,Primary Synchrony Term,Primary Synchrony Primary ID,Primary Synchrony Issued State,Primary Synchrony Expiretion Date,Second Payment Balance,Second Authorize Number,Second Purchase Order Number,Second Synchrony Account Number,Second Synchrony Application Key,Second Synchrony Account Info,Second SynchronyTerm,Second Synchrony Primary ID,Second Synchrony Issued State,Second Synchrony Expiretion Date,Third Payment Balance,Third Authorize Number,Third Purchase Order Number,Third Synchrony Account Number,Third Synchrony Application Key,Third Synchrony Account Info,Third Synchrony Term,Third Synchrony Primary ID,Third Synchrony Issued State,Third Synchrony Expiretion Date
Primm Valley Resort 12/28 - 1/2/18 (LV),Primm Valley Resort 12/28 - 1/2/18 (LV),May Kam,102696,12/29/2017 6:59:42 AM,Sergio Flores,CA,91710,Relax2Zero 2.0,Black,New,1,0.00,3500.00,3500.00,Synchrony,,,"3 years parts, 1 year labor (Free)","Relax2Zero 2.0,",No,1/15/2018 12:00:00 AM,Delivered,,"Special discount, Manager approval, pls make finance purchase $3500 , Thanks","*1 Extra Foot Pads* 12/29/17 Riho
01/02/18- Cristina- printed",CA,1,8.25,USJ-9050USJ-9050BL,3500.00,,,6034610083022155,83055012,Las Vegas,24 months,,,,0.00,,,,,,,,,,0.00,,,,,,,,,
Primm Valley Resort 12/28 - 1/2/18 (LV),Primm Valley Resort 12/28 - 1/2/18 (LV),May Kam,102697,12/29/2017 7:16:05 AM,Jumel Morallo,NV,89031,Relax2Zero 2.0,Black,New,1,0.00,3550.00,3550.00,Cash,Cash,CreditCard,"3 years parts, 1 year labor (Free)","Relax2Zero 2.0,Daiwa Blanket,Chair Pad for Relax2Zero 2.0,",No,12/29/2017 12:00:00 AM,Delivered,,"Payment plan form will be sent office , balance $1550 for Five Month. Pls arrange to deliver before Jan 2,2018, Since they will go back Canada , Thanks","COD $1900 was Collected by Rex, the remaining balance will be paid through Layaway. 3/2/18 Riho",NV,1,8.25,USJ-9050USJ-9050BL,100.00,,,,,,,,,,1900.00,COD,,,,,,,,,1550.00,Payment plan for five month,,,,,,,,
Primm Valley Resort 12/28 - 1/2/18 (LV),Primm Valley Resort 12/28 - 1/2/18 (LV),May Kam,102701,12/29/2017 9:08:46 PM,Pinkney Reginald,NV,89169,Relax2Zero 2.0,Brown,New,1,0.00,3500.00,3500.00,Cash,COD,,"3 years parts, 1 year labor (Free)","Relax2Zero 2.0,Daiwa Blanket,",No,,Cancelled,,"One family bought two chairs, another one is DWA 9050 Beige color, pls arrange delivery together , request delivery on Thursday or Friday, Thanks",$3300 COD,NV,1,8.25,USJ-9050USJ-9050BR,200.00,,,,,,,,,,3300.00,,,,,,,,,,0.00,,,,,,,,,
Primm Valley Resort 12/28 - 1/2/18 (LV),Primm Valley Resort 12/28 - 1/2/18 (LV),May Kam,102702,12/29/2017 9:18:44 PM,Pinkney Reginald,NV,89169,Relax2Zero 2.0,Beige,New,1,0.00,3500.00,3500.00,Cash,CreditCard,,"3 years parts, 1 year labor (Free)","Relax2Zero 2.0,Daiwa Blanket,",No,,Cancelled,,"With order 102701 together, same address , another phone no is 702 7888426","$3300 COD, $200 deposit cleared, held by May--Alicia 1.2.18",NV,1,8.25,USJ-9050USJ-9050BE,200.00,,,,,,,,,,3300.00,COD,,,,,,,,,0.00,,,,,,,,,
Primm Valley Resort 12/28 - 1/2/18 (LV),Primm Valley Resort 12/28 - 1/2/18 (LV),May Kam,102704,12/30/2017 7:00:29 AM,James Beckley,NV,89131,Legacy,Blue,New,1,0.00,3400.00,3400.00,CreditCard,CreditCard,CreditCard,"3 years parts, 1 year labor (Free)","Legacy,Daiwa Blanket,",No,1/5/2018 12:00:00 AM,Delivered,,"Monthly $140 , total Ten month, amount $1400, will send payment plan form to office , Thanks","$200 DEPOSIT CLEARED ON WF BY ALICIA 1.2.18
$1800 COD, $1400 LAYAWAY-NEED TO VERIFY LAYAWAY FORM WITH SALES REP
COD COLLECTED 1800 AUTH #005011 - STEPHANY 01/09/18
Layaway: Paid off on 11/5/18.  -Riho",NV,1,8.25,DWA-9100DWA-9100BU,200.00,029452,,,,,,,,,1800.00,005011,,,,,,,,,1400.00,Layaway,,,,,,,,
Primm Valley Resort 12/28 - 1/2/18 (LV),Primm Valley Resort 12/28 - 1/2/18 (LV),May Kam,102711,1/2/2018 5:34:59 AM,Richard Mcfetridge,NV,89123,Relax2Zero 2.0,Black,New,1,0.00,3960.00,3960.00,Synchrony,,,"3 years parts, 1 year labor (Free)","Relax2Zero 2.0,",No,1/2/2018 12:00:00 AM,Delivered,,"Pls make purchasing finance $3960, Thanks","PLEASE CHARGE SYNCHRONY BEFORE DELIVERY 01/02/17 STEPHANY
SYNCHRONY CHARGE AUTH # 002043 3960 - STEPHANY 01/02/17",NV,1,8.25,USJ-9050USJ-9050BL,3960.00,,,6034610083028053,83199075,Las Vegas,36 months,,,,0.00,,,,,,,,,,0.00,,,,,,,,,
Primm Valley Resort 12/28 - 1/2/18 (LV),Primm Valley Resort 12/28 - 1/2/18 (LV),May Kam,102712,1/2/2018 5:43:31 AM,Anibal Jaime,CA,92345,Relax2Zero 2.0,Demo Beige,Demo,1,0.00,3960.00,3960.00,Synchrony,,,"3 years parts, 1 year labor (Free)","Relax2Zero 2.0,Daiwa Blanket,",No,,Cancelled,,"Pls make finance purchasing $3960, thanks","01/02/18- Cristina- (Printed)  Charge Synchrony before delivery
01/09/18-Cristina- Charged $3,960.00 Authorization # 009680",CA,1,8.25,USJ-9050USJ-9050BE-DEMO,3960.00,,,6034610083028061,83199672,Las Vegas,36 months,,,,0.00,,,,,,,,,,0.00,,,,,,,,,
Primm Valley Resort 12/28 - 1/2/18 (LV),Primm Valley Resort 12/28 - 1/2/18 (LV),May Kam,102713,1/2/2018 5:50:57 AM,Morgan Ulferts,CA,94134,Relax2Zero 2.0,Demo Black,Demo,1,0.00,3960.00,3960.00,Synchrony,,,"3 years parts, 1 year labor (Free)","Relax2Zero 2.0,Daiwa Blanket,",No,1/9/2018 12:00:00 AM,Delivered,,"Pls make finance purchase $3960, Thanks","01/02/18-Cristina( Printed) Charge Synchrony before delivery
01/05/18-Cristina-Authorization # 005265 charged Sycnhrony $3960.00",CA,1,8.25,USJ-9050USJ-9050BL-DEMO,3960.00,,,6034610083028087,83199790,Las Vegas,36 months,,,,0.00,,,,,,,,,,0.00,,,,,,,,,
Primm Valley Resort 12/28 - 1/2/18 (LV),Primm Valley Resort 12/28 - 1/2/18 (LV),May Kam,102714,1/2/2018 5:57:55 AM,Sandip Thanki,NV,89012,Relax2Zero 2.0,Brown,New,1,0.00,3500.00,3500.00,CreditCard,CreditCard,,"3 years parts, 1 year labor (Free)","Relax2Zero 2.0,Daiwa Blanket,",No,1/3/2018 12:00:00 AM,Delivered,,"One family bought two chairs, special discount approved by President. COD $3300","Confirmed $400 in WF, the deposit was paid with the order #102715. ($200 each) 1/2/18 Riho
Confirmed C.C. transaction for $3300 in WF. 3/2/18 Riho",NV,1,8.25,USJ-9050USJ-9050BR,200.00,00199B,,,,,,,,,3300.00,00331B,,,,,,,,,0.00,,,,,,,,,
Primm Valley Resort 12/28 - 1/2/18 (LV),Primm Valley Resort 12/28 - 1/2/18 (LV),May Kam,102715,1/2/2018 6:04:56 AM,Ketan Thanki,GA,30043,Relax2Zero 2.0,Brown,New,1,0.00,3500.00,3500.00,CreditCard,CreditCard,,"3 years parts, 1 year labor (Free)","Relax2Zero 2.0,Daiwa Blanket,",No,1/13/2018 12:00:00 AM,Delivered,,"With Order No 102714 together, special discount for one family bought two chairs","*COD $3,300* Confirmed $400 in WF, the deposit was paid with the order #102714 ($200 each). 1/2/18 Riho
COD $3,300 was collected through SQ #OCRM, confirmed on 4/13/18. Riho",FL,1,8.25,USJ-9050USJ-9050BR,200.00,00199B,,,,,,,,,3300.00,OCRM,,,,,,,,,0.00,,,,,,,,,
Primm Valley Resort 12/28 - 1/2/18 (LV),Primm Valley Resort 12/28 - 1/2/18 (LV),May Kam,102716,1/2/2018 6:13:09 AM,Tina Campos,CA,92345,Relax2Zero 2.0,Demo Beige,Demo,1,0.00,3000.00,3000.00,CreditCard,CreditCard,,"3 years parts, 1 year labor (Free)","Relax2Zero 2.0,Daiwa Blanket,",No,1/15/2018 12:00:00 AM,Delivered,,"Pls change new leg for the Customer, Thanks",Confirmed COD $2800/Auth#408400 in Wells Fargo. 4/9/18 Riho,CA,1,8.25,USJ-9050USJ-9050BE-DEMO,200.00,571596,,,,,,,,,2800.00,408400,,,,,,,,,0.00,,,,,,,,,
Primm Valley Resort 12/28 - 1/2/18 (LV),Primm Valley Resort 12/28 - 1/2/18 (LV),May Kam,102717,1/2/2018 6:23:46 AM,Theresa Vargas,CA,93535,Legacy,Black,New,1,0.00,3700.00,3700.00,Synchrony,CreditCard,CreditCard,"3 years parts, 1 year labor (Free)","Legacy,Daiwa Blanket,",No,1/16/2018 12:00:00 AM,Delivered,,"COD $350, special discount , The President approval, thanks","01/02/17-Cristina- (Printed) Charge synchrony before delivery {COD 3350}
Square Receipt #a0s7
Authorization # 009027 (charged on 4/9/18 Riho)",CA,1,8.25,DWA-9100DWA-9100BL,3000.00,,,6034610083027238,83171226,Las Vegas,24 months,,,,350.00,03941B,,,,,,,,,350.00,a0s7,,,,,,,,
Primm Valley Resort 12/28 - 1/2/18 (LV),Primm Valley Resort 12/28 - 1/2/18 (LV),May Kam,102718,1/2/2018 6:31:43 AM,Noemi Barajas,CA,90660,Relax2Zero 2.0,Brown,New,1,0.00,3924.00,3924.00,Synchrony,,,"3 years parts, 1 year labor (Free)","Relax2Zero 2.0,",No,,Hold,,"Pls make finance purchase $3924, Thanks","01/02/18- Cristina- printed ( Please charge Synchrony before delivery )
Order on Hold until they decide if they will want the chair or not.",CA,1,8.25,USJ-9050USJ-9050BR,3924.00,,,6034610083027220,83171187,Las Vegas,36 months,,,,0.00,,,,,,,,,,0.00,,,,,,,,,
Primm Valley Resort 12/28 - 1/2/18 (LV),Primm Valley Resort 12/28 - 1/2/18 (LV),May Kam,102719,1/2/2018 6:40:19 AM,Edith Cortez,CA,90042,Relax2Zero 2.0,Brown,New,1,0.00,3400.00,3400.00,Synchrony,CreditCard,,"3 years parts, 1 year labor (Free)","Relax2Zero 2.0,Daiwa Blanket,",No,1/12/2018 12:00:00 AM,Delivered,,"Pls make finance purchase $3000, thanks","PLS CHARGE SYNCHRONY BEFORE DELIVERY - 01/02/18 STEPHANY
01/02/17- Cristina printed",CA,1,8.25,USJ-9050USJ-9050BR,3000.00,,,6034610083026685,83145493,Las Vegas,24 months,,,,400.00,570497,,,,,,,,,0.00,,,,,,,,,
Primm Valley Resort 12/28 - 1/2/18 (LV),Primm Valley Resort 12/28 - 1/2/18 (LV),May Kam,102720,1/2/2018 6:48:07 AM,James Hudson,NV,89052,Relax2Zero 2.0,Brown,New,1,0.00,3800.00,3800.00,Synchrony,,,"3 years parts, 1 year labor (Free)","Relax2Zero 2.0,Daiwa Blanket,Chair Pad for Relax2Zero 2.0,",No,1/5/2018 12:00:00 AM,Delivered,,"Pls make finance purchase $3800, thanks","PLEASE CHARGE SYNCHRONY BEFORE DELIVERY - 01/02/18 STEPHANY
SYNCHRONY CHARGED 3800  005469 - STEPHANY 01/05/17",NV,1,8.25,USJ-9050USJ-9050BR,3800.00,,,6034610083026347,83145541,Las Vegas,36 months,,,,0.00,,,,,,,,,,0.00,,,,,,,,,
Primm Valley Resort 12/28 - 1/2/18 (LV),Primm Valley Resort 12/28 - 1/2/18 (LV),May Kam,102721,1/2/2018 6:55:49 AM,Troy Kim,NV,89012,Relax2Zero 2.0,Demo Beige,Demo,1,0.00,3000.00,3000.00,Synchrony,,,"3 years parts, 1 year labor (Free)","Relax2Zero 2.0,Daiwa Blanket,",No,1/3/2018 12:00:00 AM,Delivered,,"Pls make finance purchase $3000, thanks, S/N no is 95161248 A, vender special discount ,","PLS CHARGE SYNCHRONY, BEFORE DELIVERY. - 01/02/2018 - STEPHANY
CHARGE SYN $3000 # 004568 - 1/4/17 STEPHANY",NV,1,8.25,USJ-9050USJ-9050BE-DEMO,3000.00,,,6034610083026354,83145658,Las Vegas,24 months,,,,0.00,,,,,,,,,,0.00,,,,,,,,,
Primm Valley Resort 12/28 - 1/2/18 (LV),Primm Valley Resort 12/28 - 1/2/18 (LV),May Kam,102725,1/2/2018 12:00:11 PM,Tonatooh Solis,CA,93103,Relax2Zero 2.0,Brown,New,1,0.00,3500.00,3500.00,CreditCard,CreditCard,,"3 years parts, 1 year labor (Free)","Relax2Zero 2.0,Daiwa Blanket,",No,,Hold,,"Hold about five month for new place, thanks",,Not Dispatched,1,8.25,USJ-9050USJ-9050BR,50.00,460329,,,,,,,,,3450.00,COD,,,,,,,,,0.00,,,,,,,,,
Primm Valley Resort 12/28 - 1/2/18 (LV),Primm Valley Resort 12/28 - 1/2/18 (LV),May Kam,102727,1/2/2018 11:12:09 PM,Rey Villahermosa,NV,89137,Relax2Zero 2.0,Brown,New,1,0.00,3600.00,3600.00,Synchrony,,,"3 years parts, 1 year labor (Free)","Relax2Zero 2.0,Daiwa Blanket,",No,1/8/2018 12:00:00 AM,Delivered,,"Pls make finance purchase $3600, Thanks","confirmed the account in Synchrony ($6,500). *Please charge before delivery.* 1/3/18 Hitomi
CHARGED SYNCHRONY 3600  008418 - 01/08/18 STEPHANY",NV,1,8.25,USJ-9050USJ-9050BR,3600.00,,,6034610083029689,83241777,Las Vegas,36 months,,,,0.00,,,,,,,,,,0.00,,,,,,,,,
Primm Valley Resort 12/28 - 1/2/18 (LV),Primm Valley Resort 12/28 - 1/2/18 (LV),May Kam,102728,1/3/2018 5:04:30 AM,Fernando Rivera,CA,91402,Legacy,Choco Brown,New,1,0.00,3800.00,3800.00,Synchrony,,,"3 years parts, 1 year labor (Free)","Legacy,Daiwa Blanket,",No,,Cancelled,,"Pls make finance purchase $3800, Thanks","confirmed the account ($8,500) in the Synchrony. ( including order# 102729 $3,800 ).  *Please charge before delivery.* 1/3/18 Hitomi",CA,1,8.25,DWA-9100DWA-9100CH,3800.00,,,6034610083029671,83241722,Las Vegas,36 months,,,,0.00,,,,,,,,,,0.00,,,,,,,,,
Primm Valley Resort 12/28 - 1/2/18 (LV),Primm Valley Resort 12/28 - 1/2/18 (LV),May Kam,102729,1/3/2018 5:12:15 AM,Fernando Rivera,CA,91402,Legacy,Choco Brown,New,1,0.00,3800.00,3800.00,Synchrony,,,"3 years parts, 1 year labor (Free)","Legacy,Daiwa Blanket,",No,1/8/2018 12:00:00 AM,Delivered,,"Pls make finance purchase $3800, Thanks, Pls deliver to His son Mr . Justin place , Address is 9514 Ashiee Ridge Ave, Las Vegas, NV 89178, call at 7023399316 Or 7254006555for delivery schedule:","confirmed the account ($8,500) in the Synchrony. ( including order# 102728 $3,800 ).  *Please charge before delivery.* 1/3/18 Hitomi
CHARGED SYNCHRONY 3800 # 008888 - STEPHANY 01/08/18",NV,1,8.25,DWA-9100DWA-9100CH,3800.00,,,6034610083029671,83241722,Las Vegas,36 months,,,,0.00,,,,,,,,,,0.00,,,,,,,,,
Primm Valley Resort 12/28 - 1/2/18 (LV),Primm Valley Resort 12/28 - 1/2/18 (LV),May Kam,102745,1/6/2018 12:53:38 AM,Armando Zapiain,CA,91762,Relax2Zero 2.0,Black,New,1,0.00,3000.00,3000.00,CreditCard,CreditCard,,"3 years parts, 1 year labor (Free)","Relax2Zero 2.0,Daiwa Blanket,",No,1/15/2018 12:00:00 AM,Delivered,,Special discount for Neighborhood,confirmed $200 in Wells Fargo. 1/8/18 Hitomi,CA,1,8.25,USJ-9050USJ-9050BL,200.00,040246,,,,,,,,,2800.00,042524,,,,,,,,,0.00,,,,,,,,,
