﻿Original Event Name,Event Name,Sales Person,Order Number,Order Date,Customer Name,State,Zip,Product Name,Color,Product Status,QTY,Tax,Total Before Tax,Order Total,Primary Payment Method,Second Payment Method,Thirdl Payment Method,Warranty,Order Items,Pick up,Delivered On,Order Status,Chair Type,Order Notes,Private Note,Branch,No Tax,Actual Tax Rate,SKU,Primary Payment Balance,Primary Authorize Number,Primary Purchase Order Number,Primary Synchrony Account Number,Primary Synchrony Application Key,Primary Synchrony Account Info,Primary Synchrony Term,Primary Synchrony Primary ID,Primary Synchrony Issued State,Primary Synchrony Expiretion Date,Second Payment Balance,Second Authorize Number,Second Purchase Order Number,Second Synchrony Account Number,Second Synchrony Application Key,Second Synchrony Account Info,Second SynchronyTerm,Second Synchrony Primary ID,Second Synchrony Issued State,Second Synchrony Expiretion Date,Third Payment Balance,Third Authorize Number,Third Purchase Order Number,Third Synchrony Account Number,Third Synchrony Application Key,Third Synchrony Account Info,Third Synchrony Term,Third Synchrony Primary ID,Third Synchrony Issued State,Third Synchrony Expiretion Date
NBAA 10/16-18/18 ORLANDO (FL),NBAA 10/16-18/18 ORLANDO (FL),Kristy Tran,110409,10/18/2018 12:18:58 PM,Kenneth Mott,FL,32904,Relax2Zero 3D,New Black,New,1,0.00,4500.00,4500.00,Synchrony,,,"5 years parts, 2 years labor ($200)","Relax2Zero 3D,",No,11/1/2018 12:00:00 AM,Delivered,New,Please charge Synchrony,"CC Josefina - 10/22/18 4:00pm VM

Synchrony under KENNETH NORMAN. will confirm the name. 10/18/18 Hitomi
//10/19/18 Per.Kristy, Norman is his middle name and she will have him to call synchrony to fix it. - Hitomi//10/22/18 customer contacted to SYnchrony and corrected last name. *confirmed sync($8,500) under KENNETH MOTT.***Please charge $4,500 before delivery and sales draft signed.***10/22/18 Hitomi",FL,1,6.50,DWA-9060USJ-9060BL,4500.00,,,6019170813192934,95755039,Huston,48 months,,,,0.00,,,,,,,,,,0.00,,,,,,,,,
NBAA 10/16-18/18 ORLANDO (FL),NBAA 10/16-18/18 ORLANDO (FL),Tom Nguyen,110410,10/18/2018 12:25:13 PM,SSA Tech,NJ,08857,Relax2Zero 3D,New Black,New,1,0.00,4200.00,4200.00,CreditCard,,,"5 years parts, 1 year labor (Free)","Relax2Zero 3D,",No,11/8/2018 12:00:00 AM,Delivered,New,,"Confirmed $4,200 in Square.($8,400 Square #XQqb,combine w/#110412) 10/18/18 Hitomi
10/19Maritza Courtesy email + message sent @ 3:25PM",TX,1,6.50,DWA-9060USJ-9060BL,4200.00,Square #XQqb,,,,,,,,,0.00,,,,,,,,,,0.00,,,,,,,,,
NBAA 10/16-18/18 ORLANDO (FL),NBAA 10/16-18/18 ORLANDO (FL),Tom Nguyen,110411,10/18/2018 12:28:30 PM,Joseph Cammarata,NJ,07726,Relax2Zero 3D,New Choco,New,1,0.00,4200.00,4200.00,CreditCard,,,"5 years parts, 1 year labor (Free)","Relax2Zero 3D,",No,11/18/2018 12:00:00 AM,Delivered,New,,"COnfirmed $4,200 in Square. 10/18/18 Hitomi
10/19Maritza Courtesy email + message sent @ 3:34PM
Received delivery confirmation --2/1/19 Asumi",TX,1,6.50,DWA-9060USJ-9060BR,4200.00,Square #S1ug,,,,,,,,,0.00,,,,,,,,,,0.00,,,,,,,,,
NBAA 10/16-18/18 ORLANDO (FL),NBAA 10/16-18/18 ORLANDO (FL),Tom Nguyen,110412,10/18/2018 12:32:12 PM,Erik Cohen,NJ,07726,Relax2Zero 3D,New Black,New,1,0.00,4200.00,4200.00,CreditCard,,,"5 years parts, 1 year labor (Free)","Relax2Zero 3D,",No,11/8/2018 12:00:00 AM,Delivered,New,,"Credit card was charged $8400 for this order and Order #110410//Confirmed $4,200 in Square.($8,400 Square #XQqb,combine w/#110410) 10/18/18 Hitomi",TX,1,6.50,DWA-9060USJ-9060BL,4200.00,Square #XQqb,,,,,,,,,0.00,,,,,,,,,,0.00,,,,,,,,,
NBAA 10/16-18/18 ORLANDO (FL),NBAA 10/16-18/18 ORLANDO (FL),Kristy Tran,110413,10/18/2018 12:36:32 PM,Eric Dickhausen,MT,59802,Legacy 3D,New Choco,New,1,0.00,4000.00,4000.00,CreditCard,CreditCard,,"5 years parts, 1 year labor (Free)","Legacy 3D,",No,10/31/2018 12:00:00 AM,Delivered,New,Charge remaining balance right before delivery.,"Confirmed $500 in Square. **Please charge COD$3,500 right before the delivery.**dispatched CA  10/18/18 Hitomi
10/30Maritza Charged remaining COD $3500 will send BOL with MIke (BTX)",CA,1,6.50,DWA-9150USJ-9150CH,500.00,Square #bFQt,,,,,,,,,3500.00,#QRx2,,,,,,,,,0.00,,,,,,,,,
NBAA 10/16-18/18 ORLANDO (FL),NBAA 10/16-18/18 ORLANDO (FL),Tom Nguyen,110414,10/18/2018 12:39:36 PM,Gary Clark,FL,32931,Relax2Zero 3D,New Black,New,1,0.00,4000.00,4000.00,CreditCard,,,"5 years parts, 1 year labor (Free)","Relax2Zero 3D,",No,11/1/2018 12:00:00 AM,Delivered,New,,"CC Josefina - 10/22/18 4:10pm VM 

Confirmed $4,000 in Square. 10/18/18 Hitomi
11/2Delivery confirmation received.",FL,1,6.50,DWA-9060USJ-9060BL,4000.00,Square #LTTR,,,,,,,,,0.00,,,,,,,,,,0.00,,,,,,,,,
NBAA 10/16-18/18 ORLANDO (FL),NBAA 10/16-18/18 ORLANDO (FL),Tom Nguyen,110415,10/18/2018 12:45:26 PM,Jim Young,WA,98146,Relax2Zero 3D,New Black,New,1,0.00,4000.00,4000.00,CreditCard,,,"5 years parts, 1 year labor (Free)","Relax2Zero 3D,",No,10/29/2018 12:00:00 AM,Delivered,,,"Confirmed $4,000 in Square. 10/18/18 Hitomi",WA,1,6.50,DWA-9060USJ-9060BL,4000.00,Square #M9Zh,,,,,,,,,0.00,,,,,,,,,,0.00,,,,,,,,,
NBAA 10/16-18/18 ORLANDO (FL),NBAA 10/16-18/18 ORLANDO (FL),Kristy Tran,110416,10/18/2018 12:49:26 PM,Mary Ford,FL,33703,Legacy 3D,Demo Choco,Demo,1,0.00,4000.00,4000.00,Synchrony,,,"5 years parts, 1 year labor (Free)","Legacy 3D,",No,10/31/2018 12:00:00 AM,Delivered,,Please charge Synchrony,"CC Josefina - 10/22/18 4:12pm ( Leaving town Nov. 5)
COnfirmed SYNC($8,500) and original. ***Please charge $4,000 before delivery and sales draft signed.***10/19/18 Hitomi
11/1Maritza delivery confirmation received. Waiting on sales draft. 11/2received",FL,1,6.50,DWA-9150USJ-9150CH-DEMO,4000.00,,,6019170813194641,95815834,Huston,18 months,,,,0.00,,,,,,,,,,0.00,,,,,,,,,
NBAA 10/16-18/18 ORLANDO (FL),NBAA 10/16-18/18 ORLANDO (FL),Jennifer Tran,110417,10/18/2018 12:53:53 PM,"Monterey Jet Center
Center",CA,93940,Relax2Zero 3D,New Black,New,1,0.00,4500.00,4500.00,CreditCard,,,"5 years parts, 1 year labor (Free)","Relax2Zero 3D,",No,10/24/2018 12:00:00 AM,Delivered,,,10/18Maritza Confirmed 4500 on square.,CA,1,6.50,DWA-9060USJ-9060BL,4500.00,Square #Qtuk,,,,,,,,,0.00,,,,,,,,,,0.00,,,,,,,,,
NBAA 10/16-18/18 ORLANDO (FL),NBAA 10/16-18/18 ORLANDO (FL),Tom Nguyen,110418,10/18/2018 12:57:47 PM,Adam Richter,NJ,07304,Relax2Zero 3D,Demo Black,Demo,1,0.00,4000.00,4000.00,Cash,CreditCard,CreditCard,"5 years parts, 1 year labor (Free)","Relax2Zero 3D,",No,11/30/2018 12:00:00 AM,Delivered,Demo,Pay when delivery,"Tom is holding cash. will bring into CA office on 10/24 or 10/25.   10/19/18 Hitomi///Received $500 cash and passed to Yumi. Yumi confirmed cash. ---->Pre.Michael received.***COD $3,500.***10/29/18 Hitomi
10/29/18 COURTESY CALL DONE CUSTOMER LEAVES 10/31-11/3 COMES BACK FOR TWO DAYS, THEN LEAVES 11/7-12 PLEASE CALL HIM - STEPHANY
 Your tracking number: 773836811669  Gift - Easy Duo 11/29/2018 June
12/6Maritza- Delivery confirmation received. COD 3500 paid through square (2 transactions)",TX,1,6.50,DWA-9060USJ-9060BL-DEMO,500.00,,,,,,,,,,2750.00,#EEfu,,,,,,,,,750.00,#auuK,,,,,,,,
NBAA 10/16-18/18 ORLANDO (FL),NBAA 10/16-18/18 ORLANDO (FL),Tom Nguyen,110419,10/18/2018 1:01:43 PM,Marcie Ward & May Lidschutz,FL,34786,PEGASUS 2 SMART,New Black,New,1,0.00,5500.00,5500.00,CreditCard,,,"5 years parts, 1 year labor (Free)","PEGASUS 2 SMART,",No,,Hold,,HOLD for customer until 2019,,Not Dispatched,1,6.50,PEGS-2PEGS-2-BL,0.00,,,,,,,,,,0.00,,,,,,,,,,0.00,,,,,,,,,
