﻿Date,CustomerName,State,Zipcode,Description,productNo,Color,IsDemo,Net,ShippingFee,GiftPrice,FinancingProcessingFee,Gross,Pre_tax,Tax,Commission,Primary Payment Method,Primary Payment Balance,Primary Authorize Number,Primary Purchase Order Number,Primary Synchrony Account Number,Primary Synchrony Application Key,Primary Synchrony AccountInfo,Primary SynchronyTerm,Secondly Payment Method,Secondly Payment Balance,Secondly Authorize Number,Secondly Purchase Order Number,Secondly Synchrony Account Number,Secondly Synchrony Application Key,Secondly Synchrony AccountInfo,Secondly SynchronyTerm,Thirdly Payment Method,Thirdly Payment Balance,Thirdly Authorize Number,Thirdly Purchase Order Number,Thirdly Synchrony Account Number,Thirdly Synchrony Application Key,Thirdly Synchrony AccountInfo,Thirdly SynchronyTerm,DeliveryDate,Ispickup,Warranty,Status,Event Name,Synchrony Notes,Order Notes,Order number,Private Note,Branch,IsNoTax,ActualTaxRate
12/14/2017 12:04:55 PM,Daiwa Massage,CA,90249,Foot Vibe Pro,USJ-871,,New,,,,,118.51,109.99,8.52,Michael Wang,CreditCard,118.51,Tc# 6490 6630 7217 7567 1409 5,,,,,,,0.00,,,,,,,,0.00,,,,,,,,YES,"2 years parts, 1 year labor (Small Items)",Delivered,Sam's Club #4799 12/14-24 (CA),,,102463,,CA,0,7.75
12/15/2017 3:37:07 PM,Daiwa Massage,CA,90249,Foot Vibe Pro,USJ-871,,New,,,,,118.51,109.99,8.52,Michael Wang,CreditCard,118.51,Tc# 95A4BE5539D5D6E8,,,,,,,0.00,,,,,,,,0.00,,,,,,,,YES,"2 years parts, 1 year labor (Small Items)",Delivered,Sam's Club #4799 12/14-24 (CA),,,102483,,CA,0,7.75
12/16/2017 2:17:07 PM,Les Campbell,CA,95946,Relax2Zero 2.0 for Sam's,USJ-9050USJ-9050BR,Brown,New,,,,,3446.92,3199.00,247.92,Michael Wang,CreditCard,3446.92,Tc# 2090 8066 1623 8754 7700 35,,,,,,,0.00,,,,,,,,0.00,,,,,,,12/20/2017 12:00:00 AM,No,"3 years parts, 1 year labor (Free)",Delivered,Sam's Club #4799 12/14-24 (CA),,"Give customer new chair.Give customer 2 free chair pads, 1 free blanket, 1 usb flash drive.",102490,Please include in Nor Cal delivery schedule for week of December 18.Customer only available after 5pm for deliveries but flexible on delivery date.,CA,0,7.75
12/16/2017 7:47:12 PM,Harjinder Singh,CA,95843,Relax2Zero 2.0 for Sam's,USJ-9050USJ-9050BR,Brown,New,,,,,3446.92,3199.00,247.92,Michael Wang,CreditCard,3446.92,Tc# 3543 2507 9537 4481 4415 78,,,,,,,0.00,,,,,,,,0.00,,,,,,,12/24/2017 12:00:00 AM,No,"3 years parts, 1 year labor (Free)",Delivered,Sam's Club #4799 12/14-24 (CA),,"Give customer new chair.Customer requests delivery for Wed, Dec 20 or Thursday, Dec 21.Customer only available after 4pm for delivery.

2nd floor delivery included.Give customer 2 free chair pads, 1 free Daiwa blanket, 1 usb flash drive.",102513,12/18/17-Cristina- Printed,CA,0,7.75
12/17/2017 3:33:59 PM,Daiwa Massage,CA,90249,Foot Vibe Pro,USJ-871,,New,,,,,118.51,109.99,8.52,Michael Wang,CreditCard,118.51,Tc# 0203 0099 1354 4804 9356 8,,,,,,,0.00,,,,,,,,0.00,,,,,,,,YES,"2 years parts, 1 year labor (Small Items)",Delivered,Sam's Club #4799 12/14-24 (CA),,,102547,,CA,0,7.75
12/17/2017 6:33:13 PM,Daiwa Massage,CA,90249,Foot Vibe Pro,USJ-871,,New,,,,,118.51,109.99,8.52,Michael Wang,CreditCard,118.51,Tc# 7378 7752 9617 5175 2943 1,,,,,,,0.00,,,,,,,,0.00,,,,,,,,YES,"2 years parts, 1 year labor (Small Items)",Delivered,Sam's Club #4799 12/14-24 (CA),,,102559,,CA,0,7.75
12/20/2017 5:39:07 PM,Daiwa Massage,CA,90249,Foot Vibe Pro,USJ-871,,New,,,,,118.51,109.99,8.52,Michael Wang,CreditCard,118.51,Tc# 3175 3308 1911 0430 8872 4,,,,,,,0.00,,,,,,,,0.00,,,,,,,,YES,"2 years parts, 1 year labor (Small Items)",Delivered,Sam's Club #4799 12/14-24 (CA),,,102606,,CA,0,7.75
12/21/2017 4:36:46 PM,Daiwa Massage,CA,90249,Foot Vibe Pro,USJ-871,,New,,,,,118.51,109.99,8.52,Michael Wang,CreditCard,118.51,Tc# 4831 4483 6038 8948 3017 9,,,,,,,0.00,,,,,,,,0.00,,,,,,,,YES,"2 years parts, 1 year labor (Small Items)",Delivered,Sam's Club #4799 12/14-24 (CA),,,102624,,CA,0,7.75
12/21/2017 5:00:21 PM,Daiwa Massage,CA,90249,Foot Vibe Pro,USJ-871,,New,,,,,118.51,109.99,8.52,Michael Wang,CreditCard,118.51,Tc# 1174 1127 5562 2612 7394 6,,,,,,,0.00,,,,,,,,0.00,,,,,,,,YES,"2 years parts, 1 year labor (Small Items)",Delivered,Sam's Club #4799 12/14-24 (CA),,,102625,,CA,0,7.75
12/22/2017 1:16:00 PM,Daiwa Massage,CA,90249,Foot Vibe Pro,USJ-871,,New,,,,,118.51,109.99,8.52,Michael Wang,CreditCard,118.51,Tc# 2792 2275 2174 6726 5338 7,,,,,,,0.00,,,,,,,,0.00,,,,,,,,YES,"2 years parts, 1 year labor (Small Items)",Delivered,Sam's Club #4799 12/14-24 (CA),,,102630,,CA,0,7.75
12/22/2017 4:35:34 PM,Daiwa Massage,CA,90249,Foot Vibe Pro,USJ-871,,New,,,,,118.51,109.99,8.52,Michael Wang,CreditCard,118.51,Tc# 9527 9984 2803 3093 4761 0,,,,,,,0.00,,,,,,,,0.00,,,,,,,,YES,"2 years parts, 1 year labor (Small Items)",Delivered,Sam's Club #4799 12/14-24 (CA),,,102633,,CA,0,7.75
12/23/2017 1:35:12 PM,Daiwa Massage,CA,90249,Foot Vibe Pro,USJ-871,,New,,,,,237.03,219.98,17.05,Michael Wang,CreditCard,237.03,Tc# 3864 5197 3500 2652 0696 6,,,,,,,0.00,,,,,,,,0.00,,,,,,,,YES,"2 years parts, 1 year labor (Small Items)",Delivered,Sam's Club #4799 12/14-24 (CA),,,102638,10th And 11th Foot vibe sold at Citrus Heights Sam’s.,CA,0,7.75
12/23/2017 3:14:40 PM,Daiwa Massage,CA,90249,Foot Vibe Pro,USJ-871,,New,,,,,118.51,109.99,8.52,Michael Wang,CreditCard,118.51,Tc# 9507 9984 6805 3093 4661 0,,,,,,,0.00,,,,,,,,0.00,,,,,,,,YES,"2 years parts, 1 year labor (Small Items)",Delivered,Sam's Club #4799 12/14-24 (CA),,,102641,12th foot vibe sold at Sam’s club Citrus Heights.,CA,0,7.75
12/23/2017 5:05:49 PM,Daiwa Massage,CA,90249,Foot Vibe Pro,USJ-871,,New,,,,,118.51,109.99,8.52,Michael Wang,CreditCard,118.51,Tc# 7118 7702 0699 5175 2243 1,,,,,,,0.00,,,,,,,,0.00,,,,,,,,YES,"2 years parts, 1 year labor (Small Items)",Delivered,Sam's Club #4799 12/14-24 (CA),,,102642,13th foot vibe sold at Sam’s 4799.,CA,0,7.75
12/24/2017 2:12:58 PM,Daiwa Massage,CA,90249,Foot Vibe Pro,USJ-871,,New,,,,,355.54,329.97,25.57,Michael Wang,CreditCard,355.54,,,,,,,,0.00,,,,,,,,0.00,,,,,,,,YES,"2 years parts, 1 year labor (Small Items)",Delivered,Sam's Club #4799 12/14-24 (CA),,,102659,"14th,15th,16th Foot vibe sold at Sam’s 4799.

One customer picked up and bought one foot vibe before I got to Sam’s no tc number.

Tc number 560615166723124158882

Tc number 0263 1009 0342 4834 2456 8

need to confirm TC# with sales rep. 12/26/17 Hitomi",CA,0,7.75
12/24/2017 5:34:20 PM,Daiwa Massage,CA,90249,Foot Vibe Pro,USJ-871,,New,,,,,118.51,109.99,8.52,Michael Wang,CreditCard,118.51,,,,,,,,0.00,,,,,,,,0.00,,,,,,,,YES,"2 years parts, 1 year labor (Small Items)",Delivered,Sam's Club #4799 12/14-24 (CA),,,102661,"Customer picked up and bought when I was at lunch.No tc number just proof of payment.
need to confirm TC# with sales rep. 12/26/17 Hitomi
Michael got Weekly report from the Sam's Club, as a proof of the payment. 12/28/17 Riho",CA,0,7.75
