﻿Date,CustomerName,State,Zipcode,Description,productNo,Color,IsDemo,Net,ShippingFee,GiftPrice,FinancingProcessingFee,Gross,Pre_tax,Tax,Commission,Primary Payment Method,Primary Payment Balance,Primary Authorize Number,Primary Purchase Order Number,Primary Synchrony Account Number,Primary Synchrony Application Key,Primary Synchrony AccountInfo,Primary SynchronyTerm,Secondly Payment Method,Secondly Payment Balance,Secondly Authorize Number,Secondly Purchase Order Number,Secondly Synchrony Account Number,Secondly Synchrony Application Key,Secondly Synchrony AccountInfo,Secondly SynchronyTerm,Thirdly Payment Method,Thirdly Payment Balance,Thirdly Authorize Number,Thirdly Purchase Order Number,Thirdly Synchrony Account Number,Thirdly Synchrony Application Key,Thirdly Synchrony AccountInfo,Thirdly SynchronyTerm,DeliveryDate,Ispickup,Warranty,Status,Event Name,Synchrony Notes,Order Notes,Order number,Private Note,Branch,IsNoTax,ActualTaxRate
4/19/2018 6:58:53 PM,Bailey Phelps,CO,80831,Vitality Plate for Sam's,USJ-849USJ-849,New,New,,,,,432.99,399.99,33.00,Gail Kerns,CreditCard,432.99,3862 1214 3264 6862 6090 0,,,,,,,0.00,,,,,,,,0.00,,,,,,,,YES,"2 years parts, 1 year labor for Small Items",Delivered,Sam's Club #6219 Colorado Spring 4/19-29/18 (TX),,,105377,Picked up by customer at time of purchase,TX,0,8.25
4/20/2018 3:30:55 PM,Tim Dodson,CO,80814,Shogun Neck & Back Massger,USJ-874USJ-874,New,New,,,,,216.48,199.98,16.50,Gail Kerns,CreditCard,216.48,2961 4464 9466 8774 1055 2,,,,,,,0.00,,,,,,,,0.00,,,,,,,,YES,"2 years parts, 1 year labor for Small Items",Delivered,Sam's Club #6219 Colorado Spring 4/19-29/18 (TX),,,105387,Picked up by customer at time of purchase,TX,0,8.25
4/21/2018 1:14:37 PM,Brandon Daines,CO,80921,Vitality Plate for Sam's,USJ-849USJ-849,New,New,,,,,497.94,459.99,37.95,Gail Kerns,CreditCard,497.94,5203 4080 2064 4650 4178 1,,,,,,,0.00,,,,,,,,0.00,,,,,,,,YES,"2 years parts, 1 year labor for Small Items",Delivered,Sam's Club #6219 Colorado Spring 4/19-29/18 (TX),,,105408,Picked up by customer at time of purchase,TX,0,8.25
4/21/2018 1:44:18 PM,Mrs A Anonymous,CO,80901,Foot Vibe Pro,USJ-871,,New,,,,,119.06,109.99,9.07,Gail Kerns,CreditCard,119.06,7678 7707 3799 5307 9605 8,,,,,,,0.00,,,,,,,,0.00,,,,,,,,YES,"2 years parts, 1 year labor for Small Items",Delivered,Sam's Club #6219 Colorado Spring 4/19-29/18 (TX),,,105409,Picked up by customer at time of purchase,TX,0,8.25
4/21/2018 7:08:06 PM,Hueiping (Kate) Emery,CO,80924,Relax 2 Zero 2.0 for Sam's,USJ-9050USJ-9050BL,New Black,New,,,,,3462.92,3199.00,263.92,Gail Kerns,CreditCard,3462.92,2010 6960 6167 8799 6643 54,,,,,,,0.00,,,,,,,,0.00,,,,,,,,No,"3 years parts, 1 year labor (Free)",Called,Sam's Club #6219 Colorado Spring 4/19-29/18 (TX),,,105417,4/23Maritza Courtesy call @ 3PM Customer asked about getting an upgrade from R2Z 2.0 to R2Z 3D Hide knows about this. Regional manager will contact customer,TX,0,8.25
4/21/2018 7:08:06 PM,Hueiping (Kate) Emery,CO,80924,Daiwa Blanket,,,New,,,,,3462.92,3199.00,263.92,Gail Kerns,CreditCard,3462.92,2010 6960 6167 8799 6643 54,,,,,,,0.00,,,,,,,,0.00,,,,,,,,No,no warranty,Called,Sam's Club #6219 Colorado Spring 4/19-29/18 (TX),,,105417,4/23Maritza Courtesy call @ 3PM Customer asked about getting an upgrade from R2Z 2.0 to R2Z 3D Hide knows about this. Regional manager will contact customer,TX,0,8.25
4/21/2018 7:08:06 PM,Hueiping (Kate) Emery,CO,80924,Chair Pad for Relax2Zero 2.0,,,New,,,,,3462.92,3199.00,263.92,Gail Kerns,CreditCard,3462.92,2010 6960 6167 8799 6643 54,,,,,,,0.00,,,,,,,,0.00,,,,,,,,No,no warranty,Called,Sam's Club #6219 Colorado Spring 4/19-29/18 (TX),,,105417,4/23Maritza Courtesy call @ 3PM Customer asked about getting an upgrade from R2Z 2.0 to R2Z 3D Hide knows about this. Regional manager will contact customer,TX,0,8.25
4/21/2018 7:14:30 PM,Kelly Coyle,MN,56621,Vitality Plate for Sam's,USJ-849USJ-849,New,New,,,,,497.94,459.99,37.95,Gail Kerns,CreditCard,497.94,9614 2121 7120 2491 2386 3,,,,,,,0.00,,,,,,,,0.00,,,,,,,,YES,"2 years parts, 1 year labor for Small Items",Delivered,Sam's Club #6219 Colorado Spring 4/19-29/18 (TX),,,105419,Picked up by customer at time of purchase,TX,0,8.25
4/21/2018 7:19:19 PM,Molly McCollum,CO,80921,Foot Vibe Pro,USJ-871,,New,,,,,119.06,109.99,9.07,Gail Kerns,CreditCard,119.06,6289 8858 1879 9598 5815 6,,,,,,,0.00,,,,,,,,0.00,,,,,,,,YES,"2 years parts, 1 year labor for Small Items",Delivered,Sam's Club #6219 Colorado Spring 4/19-29/18 (TX),,,105420,Picked up by customer at time of purchase,TX,0,8.25
4/22/2018 12:49:10 PM,Tessa Ottrock,CO,80921,Vitality Plate for Sam's,USJ-849USJ-849,New,New,,,,,497.94,459.99,37.95,Gail Kerns,CreditCard,497.94,2977 5979 8915 3149 9022 7,,,,,,,0.00,,,,,,,,0.00,,,,,,,,YES,"2 years parts, 1 year labor for Small Items",Delivered,Sam's Club #6219 Colorado Spring 4/19-29/18 (TX),,,105437,Picked up by customer at time of purchase,TX,0,8.25
4/22/2018 2:59:04 PM,Daniel Hong,CO,80924,Foot Vibe Pro,USJ-871,,New,,,,,119.06,109.99,9.07,Gail Kerns,CreditCard,119.06,3355 0333 1331 0263 8964 5,,,,,,,0.00,,,,,,,,0.00,,,,,,,,YES,"2 years parts, 1 year labor for Small Items",Delivered,Sam's Club #6219 Colorado Spring 4/19-29/18 (TX),,,105447,Picked up by customer at time of purchase,TX,0,8.25
4/22/2018 4:53:13 PM,Davina Baxter,CO,80951,Vitality Plate for Sam's,USJ-849USJ-849,New,New,,,,,497.94,459.99,37.95,Gail Kerns,CreditCard,497.94,6913 8030 9062 4660 7976 1,,,,,,,0.00,,,,,,,,0.00,,,,,,,,YES,"2 years parts, 1 year labor for Small Items",Delivered,Sam's Club #6219 Colorado Spring 4/19-29/18 (TX),,,105448,Picked up by customer at time of purchase,TX,0,8.25
4/24/2018 7:32:21 PM,Dave Lange,CO,80921,Legacy for Sam's,DWA-9100DWA-9100CH,New Choco,New,,,,,3895.92,3599.00,296.92,Gail Kerns,CreditCard,3895.92,4599 2981 8286 7956 8911 06,,,,,,,0.00,,,,,,,,0.00,,,,,,,4/30/2018 12:00:00 AM,No,"3 years parts, 1 year labor (Free)",Delivered,Sam's Club #6219 Colorado Spring 4/19-29/18 (TX),,,105502,4/26Maritza Courtesy Call @ 11:23AM,TX,0,8.25
4/25/2018 2:08:45 PM,Frank Duran,CO,80924,Relax 2 Zero 2.0 for Sam's,USJ-9050USJ-9050BE,New Beige,New,,,,,4221.75,3900.00,321.75,Gail Kerns,CreditCard,4221.75,6777 4792 9691 5314 9002 97,,,,,,,0.00,,,,,,,,0.00,,,,,,,4/30/2018 12:00:00 AM,No,"3 years parts, 1 year labor (Free)",Delivered,Sam's Club #6219 Colorado Spring 4/19-29/18 (TX),,,105507,4/26Maritza Courtesy call @ 11:30AM,TX,0,8.25
4/25/2018 2:08:45 PM,Frank Duran,CO,80924,Daiwa Blanket,,,New,,,,,4221.75,3900.00,321.75,Gail Kerns,CreditCard,4221.75,6777 4792 9691 5314 9002 97,,,,,,,0.00,,,,,,,,0.00,,,,,,,4/30/2018 12:00:00 AM,No,no warranty,Delivered,Sam's Club #6219 Colorado Spring 4/19-29/18 (TX),,,105507,4/26Maritza Courtesy call @ 11:30AM,TX,0,8.25
4/25/2018 2:57:16 PM,Norma Moody,CO,80916,Foot Vibe Pro,USJ-871,,New,,,,,119.06,109.99,9.07,Gail Kerns,CreditCard,119.06,2252 2232 8284 6892 4596 0,,,,,,,0.00,,,,,,,,0.00,,,,,,,,YES,"2 years parts, 1 year labor for Small Items",Delivered,Sam's Club #6219 Colorado Spring 4/19-29/18 (TX),,,105508,Picked up by customer at time of purchase,TX,0,8.25
4/26/2018 5:19:03 PM,Sally Staschler,CO,80924,Foot Vibe Pro,USJ-871,,New,,,,,119.06,109.99,9.07,Gail Kerns,CreditCard,119.06,7208 2747 7789 5327 6500 8,,,,,,,0.00,,,,,,,,0.00,,,,,,,,YES,"2 years parts, 1 year labor for Small Items",Delivered,Sam's Club #6219 Colorado Spring 4/19-29/18 (TX),,,105526,Picked up by customer at time of purchase,TX,0,8.25
4/27/2018 11:08:44 AM,Debbie Langley,UT,84058,Vitality Plate for Sam's,USJ-849USJ-849,New,New,,,,,464.94,459.99,4.95,Gail Kerns,CreditCard,497.94,7045 0393 7331 0273 0964 5,,,,,,,0.00,,,,,,,,0.00,,,,,,,,No,"2 years parts, 1 year labor for Small Items",Delivered,Sam's Club #6219 Colorado Spring 4/19-29/18 (TX),,,105544,Please ship to customer,NV,0,8.25
4/27/2018 2:53:45 PM,Judd Carper,CO,80908,Symphony,USJ-9300Symphony-BL,New Black,New,,,,,5736.17,5299.00,437.17,Gail Kerns,CreditCard,5736.17,9843 8502 0900 2468 0337 61,,,,,,,0.00,,,,,,,,0.00,,,,,,,,No,"3 years parts, 1 year labor (Free)",Called,Sam's Club #6219 Colorado Spring 4/19-29/18 (TX),,,105548,04/27/18- Courtesy call completed 10:45 am,TX,0,8.25
4/27/2018 2:53:45 PM,Judd Carper,CO,80908,Daiwa Blanket,,,New,,,,,5736.17,5299.00,437.17,Gail Kerns,CreditCard,5736.17,9843 8502 0900 2468 0337 61,,,,,,,0.00,,,,,,,,0.00,,,,,,,,No,no warranty,Called,Sam's Club #6219 Colorado Spring 4/19-29/18 (TX),,,105548,04/27/18- Courtesy call completed 10:45 am,TX,0,8.25
4/27/2018 4:22:46 PM,Darren C. Love,CO,80920,Legacy for Sam's,DWA-9100DWA-9100BL,New Black,New,,,,,4653.67,4299.00,354.67,Gail Kerns,CreditCard,4653.67,0300 5162 6762 8795 6303 24,,,,,,,0.00,,,,,,,,0.00,,,,,,,,No,"3 years parts, 1 year labor (Free)",Scheduled,Sam's Club #6219 Colorado Spring 4/19-29/18 (TX),,,105549,04/30/18-2:57 pm - Courtesy Call Completed -Cristina,TX,0,8.25
4/27/2018 4:22:46 PM,Darren C. Love,CO,80920,Daiwa Blanket,,,New,,,,,4653.67,4299.00,354.67,Gail Kerns,CreditCard,4653.67,0300 5162 6762 8795 6303 24,,,,,,,0.00,,,,,,,,0.00,,,,,,,,No,no warranty,Scheduled,Sam's Club #6219 Colorado Spring 4/19-29/18 (TX),,,105549,04/30/18-2:57 pm - Courtesy Call Completed -Cristina,TX,0,8.25
4/28/2018 10:35:20 AM,Shelley Kooser,CO,80924,Foot Vibe Pro,USJ-871,,New,,,,,119.06,109.99,9.07,Gail Kerns,CreditCard,119.06,0363 0010 0042 4670 2974 1,,,,,,,0.00,,,,,,,,0.00,,,,,,,,YES,"2 years parts, 1 year labor for Small Items",Delivered,Sam's Club #6219 Colorado Spring 4/19-29/18 (TX),,,105566,Picked up by customer at time of purchase,TX,0,8.25
4/28/2018 1:16:16 PM,Sid White,CO,80921,Legacy for Sam's,DWA-9100DWA-9100BL,New Black,New,,,,,4653.67,4299.00,354.67,Gail Kerns,CreditCard,4653.67,3952 8527 2422 6687 2919 10,,,,,,,0.00,,,,,,,,0.00,,,,,,,,No,"3 years parts, 1 year labor (Free)",Scheduled,Sam's Club #6219 Colorado Spring 4/19-29/18 (TX),,,105569,Please include blanket and extra back pad,TX,0,8.25
4/28/2018 1:16:16 PM,Sid White,CO,80921,Daiwa Blanket,,,New,,,,,4653.67,4299.00,354.67,Gail Kerns,CreditCard,4653.67,3952 8527 2422 6687 2919 10,,,,,,,0.00,,,,,,,,0.00,,,,,,,,No,no warranty,Scheduled,Sam's Club #6219 Colorado Spring 4/19-29/18 (TX),,,105569,Please include blanket and extra back pad,TX,0,8.25
4/28/2018 1:16:16 PM,Sid White,CO,80921,Chair Pad for Legacy,,,New,,,,,4653.67,4299.00,354.67,Gail Kerns,CreditCard,4653.67,3952 8527 2422 6687 2919 10,,,,,,,0.00,,,,,,,,0.00,,,,,,,,No,no warranty,Scheduled,Sam's Club #6219 Colorado Spring 4/19-29/18 (TX),,,105569,Please include blanket and extra back pad,TX,0,8.25
4/29/2018 11:47:05 AM,Glenda Cruse,CO,80918,Vitality Plate for Sam's,USJ-849USJ-849,New,New,,,,,464.94,459.99,4.95,Gail Kerns,CreditCard,497.94,5043 4080 7002 4650 4378 1,,,,,,,0.00,,,,,,,,0.00,,,,,,,,No,"2 years parts, 1 year labor for Small Items",Delivered,Sam's Club #6219 Colorado Spring 4/19-29/18 (TX),,,105592,"Please ship to customer
Tax calculation is incorrect due to free shipping. Customer paid in full
tracking number: 7721 3349 8194",TX,0,8.25
4/29/2018 12:08:01 PM,Robert Don Hamilton,CO,80920,Legacy for Sam's,DWA-9100DWA-9100SB,New Sienna Brown,New,,,,,4653.67,4299.00,354.67,Gail Kerns,CreditCard,4653.67,8256 1450 5357 3105 5944 89,,,,,,,0.00,,,,,,,,0.00,,,,,,,,No,"3 years parts, 1 year labor (Free)",Scheduled,Sam's Club #6219 Colorado Spring 4/19-29/18 (TX),,,105594,"GIFT FOR WIFE
Please deliver before May 9th or after May 20th. They will be out of town.
PLEASE DO NOT EMAIL PRIOR TO DELIVERY. Do not want to spoil surprise.",TX,0,8.25
4/29/2018 12:08:01 PM,Robert Don Hamilton,CO,80920,Daiwa Blanket,,,New,,,,,4653.67,4299.00,354.67,Gail Kerns,CreditCard,4653.67,8256 1450 5357 3105 5944 89,,,,,,,0.00,,,,,,,,0.00,,,,,,,,No,no warranty,Scheduled,Sam's Club #6219 Colorado Spring 4/19-29/18 (TX),,,105594,"GIFT FOR WIFE
Please deliver before May 9th or after May 20th. They will be out of town.
PLEASE DO NOT EMAIL PRIOR TO DELIVERY. Do not want to spoil surprise.",TX,0,8.25
4/29/2018 2:20:29 PM,Evelyn Schmitz,CO,80918,Foot Vibe Pro,USJ-871,,New,,,,,119.06,109.99,9.07,Gail Kerns,CreditCard,119.06,4481 4484 6466 8754 6258 2,,,,,,,0.00,,,,,,,,0.00,,,,,,,,YES,"2 years parts, 1 year labor for Small Items",Delivered,Sam's Club #6219 Colorado Spring 4/19-29/18 (TX),,,105598,Picked up by customer at time of purchase,TX,0,8.25
4/29/2018 2:37:02 PM,Robin Foe,CO,80923,Vitality Plate for Sam's,USJ-849USJ-849,New,New,,,,,400.00,400.00,0.00,Gail Kerns,CreditCard,432.99,5043 3010 0052 4640 4571 1,,,,,,,0.00,,,,,,,,0.00,,,,,,,,No,"2 years parts, 1 year labor for Small Items",Delivered,Sam's Club #6219 Colorado Spring 4/19-29/18 (TX),,,105599,"Please ship to customer. Tax not calculated correctly due to free shipping
tracking nmber: 7721 3352 6030",TX,0,8.25
4/29/2018 3:15:44 PM,Corlea Keeney,CO,80918,Vitality Plate for Sam's,USJ-849USJ-849,New,New,,,,,464.94,459.99,4.95,Gail Kerns,CreditCard,497.94,9424 2131 1100 2491 2386 3,,,,,,,0.00,,,,,,,,0.00,,,,,,,,No,"2 years parts, 1 year labor for Small Items",Delivered,Sam's Club #6219 Colorado Spring 4/19-29/18 (TX),,,105600,"Please ship to customer
Tax calculation is wrong due to free shipping
tracking number: 7721 3370 0208",TX,0,8.25
4/29/2018 5:29:30 PM,Correy Harris,TX,79928,Symphony,USJ-9300Symphony-BW,New Choco,New,,,,,4978.42,4599.00,379.42,Gail Kerns,CreditCard,4978.42,6327 3090 9998 5317 9622 17,,,,,,,0.00,,,,,,,,0.00,,,,,,,,No,"3 years parts, 1 year labor (Free)",Called,Sam's Club #6219 Colorado Spring 4/19-29/18 (TX),,,105605,"Please send 1 blanket & 1 extra back pad
Please check on delivery time? Not sure when they will be in El Paso as they are military and presently in Colorado Springs. Will be home until 5/6. Will be back until 5/25.",TX,0,8.25
4/29/2018 5:29:30 PM,Correy Harris,TX,79928,Daiwa Blanket,,,New,,,,,4978.42,4599.00,379.42,Gail Kerns,CreditCard,4978.42,6327 3090 9998 5317 9622 17,,,,,,,0.00,,,,,,,,0.00,,,,,,,,No,no warranty,Called,Sam's Club #6219 Colorado Spring 4/19-29/18 (TX),,,105605,"Please send 1 blanket & 1 extra back pad
Please check on delivery time? Not sure when they will be in El Paso as they are military and presently in Colorado Springs. Will be home until 5/6. Will be back until 5/25.",TX,0,8.25
4/29/2018 5:29:30 PM,Correy Harris,TX,79928,Chair Pad for Symphony,,,New,,,,,4978.42,4599.00,379.42,Gail Kerns,CreditCard,4978.42,6327 3090 9998 5317 9622 17,,,,,,,0.00,,,,,,,,0.00,,,,,,,,No,no warranty,Called,Sam's Club #6219 Colorado Spring 4/19-29/18 (TX),,,105605,"Please send 1 blanket & 1 extra back pad
Please check on delivery time? Not sure when they will be in El Paso as they are military and presently in Colorado Springs. Will be home until 5/6. Will be back until 5/25.",TX,0,8.25
