﻿Date,Customer Name,State,Zipcode,Description,Product Number,Color,Product Status,Net,Shipping Fee,Gift Price,Financing Processing Fee,Order Total,Total Before Tax,Tax,Commission,Primary Payment Method,Primary Payment Balance,Primary Authorize Number,Primary Purchase Order Number,Primary Synchrony Account Number,Primary Synchrony Application Key,Primary Synchrony Account Info,Primary Synchrony Term,Primary Synchrony Primary ID,Primary Synchrony Issued State,Primary Synchrony Expiretion Date,Second Payment Method,Second Payment Balance,Second Authorize Number,Second Purchase Order Number,Second Synchrony Account Number,Second Synchrony Application Key,Second Synchrony Account Info,Second Synchrony Term,Second Synchrony Primary ID,Second Synchrony Issued State,Second Synchrony Expiretion Date,Third Payment Method,Third Payment Balance,Third Authorize Number,Third Purchase Order Number,Third Synchrony Account Number,Third Synchrony Application Key,Third Synchrony Account Info,Third Synchrony Term,Third Synchrony Primary ID,Third Synchrony Issued State,Third Synchrony Expiretion Date,Delivery Date,Pick up,Warranty,Status,Chair Type,Original Event Name,Event Name,Synchrony Notes,Order Notes,Order Number,Private Note,Branch,No Tax,Actual Tax Rate
8/30/2019 9:22:06 PM,Gina & Terry Williams,WA,98055,PEGASUS 2 SMART,PEGS-2PEGS-2-BR,New Choco,New,,,,,10000.00,10000.00,0.00,Robert Shih,Synchrony,10000.00,,,6501723375299524,80417479,Huston,36 months,Driver’s License,WA,03/2022,,0.00,,,,,,,,,/,,0.00,,,,,,,,,/,,No,"5 years parts, 1 year labor (Free)",Called,,Washington State Fair 8/30-9/22/19,Washington State Fair 8/30-9/22/19,,Synchrony 36 months / Second floor delivery,120558,"#7 + #8
Originals verified; available credit $12,100; Please charge $10,000 and have synchrony sales draft signed- Cristina 09/03/19 11:49 am

9/3/19 1:22PM - Courtesy call. Left VM -Noemi",WA,1,9.90
8/30/2019 9:22:06 PM,Gina & Terry Williams,WA,98055,Relax 2 Zero 3D,DWA-9060USJ-9060BR,New Choco,New,,,,,10000.00,10000.00,0.00,Robert Shih,Synchrony,10000.00,,,6501723375299524,80417479,Huston,36 months,Driver’s License,WA,03/2022,,0.00,,,,,,,,,/,,0.00,,,,,,,,,/,,No,"5 years parts, 1 year labor (Free)",Called,,Washington State Fair 8/30-9/22/19,Washington State Fair 8/30-9/22/19,,Synchrony 36 months / Second floor delivery,120558,"#7 + #8
Originals verified; available credit $12,100; Please charge $10,000 and have synchrony sales draft signed- Cristina 09/03/19 11:49 am

9/3/19 1:22PM - Courtesy call. Left VM -Noemi",WA,1,9.90
8/30/2019 9:28:30 PM,Robert E. Elis,WA,98225,Relax 2 Zero 3D,DWA-9060USJ-9060BR-DEMO,Demo Choco,Demo,,,,,4200.00,4200.00,0.00,Robert Shih,Synchrony,4200.00,,,6501723375300702,80453562,Huston,36 months,Driver’s License,WA,01/2024,,0.00,,,,,,,,,/,,0.00,,,,,,,,,/,,No,"5 years parts, 1 year labor (Free)",Scheduled,,Washington State Fair 8/30-9/22/19,Washington State Fair 8/30-9/22/19,,Synchrony 36 months 0% APR,120561,"#6
originals have been confirmed; Available credit  $6,800; Please charge synchrony account $4,200 and have the sales draft signed-Cristina 09/03/19 10:52 am
9/3/19 1:25pm - Courtesy call. Spoke with Mr. Elis -Noemi
Delivery scheduled 9/5 Th 3p-6p.  
Synchrony Authorization: 004634 - Yoko 9/4/19
9/11/19 Customer called concerned about disconnected air tubes on right side. Need to schedule repair. Also pointed out last name was input incorrectly, ""Elis"" should be ""Eis"" - Donald",WA,1,9.90
8/31/2019 9:07:45 PM,The Thi Nguyen,WA,98178,Legacy 4,LGCY-4LGCY-4CH,New Choco,New,,,,,4200.00,4200.00,0.00,Jennifer Tran,Cash,500.00,,,,,,,,,/,Cash,3700.00,,,,,,,,,/,,0.00,,,,,,,,,/,9/3/2019 12:00:00 AM,No,"5 years parts, 1 year labor (Free)",Delivered,New,Washington State Fair 8/30-9/22/19,Washington State Fair 8/30-9/22/19,,Cash discount / Scott collected the $500 deposited already. / Scheduled for Tuesday 8-10am by Scott.,120578,"$500 Cash verified by Scott;CASH DEAL Collect $3,700 COD-Cristina 09/03/19 1:26 pm
Received the delivery confirmation, will ask Scott/Yoko to confirm the cash $3,700. 9/4/19 Riho
Received the document that Scott signed off as a cash confirmation for $3,700, updated the payment detail. 9/6/19 Riho",WA,1,9.90
8/31/2019 9:14:24 PM,Teresa & Krystal Iguin,WA,98503,Legacy 4,LGCY-4LGCY-4BL-DEMO,Demo Black,Demo,,,,,4000.00,4000.00,0.00,Robert Shih,Synchrony,4000.00,,,6501723375302328,80487524,Huston,36 months,Driver’s License,WA,04/2023,,0.00,,,,,,,,,/,,0.00,,,,,,,,,/,,No,"5 years parts, 1 year labor (Free)",Scheduled,,Washington State Fair 8/30-9/22/19,Washington State Fair 8/30-9/22/19,,Synchrony 36 months 0% APR .,120581,"#21
Originals verified; available credit $6,800;Please charge $4000 and have the synchrony sales draft signed -Cristina 09/03/19 4:27 pm
9/4/19 8:47 AM Courtesy call. Spoke with customer -Noemi
Delivery schedule  9/6 12:00-2:00pm. Emailed Synchrony receipt to sign ahead.   - Yoko 9/5/19
Synchrony Authorization: 005815",WA,1,9.90
8/31/2019 9:19:21 PM,Renee Claybon,WA,98503,Legacy 4,LGCY-4LGCY-4CH-DEMO,Demo Choco,Demo,,,,,4615.80,4200.00,415.80,Robert Shih,Synchrony,4615.80,,,6501723375301973,80481630,Huston,36 months,Driver’s License,WA,11/2022,,0.00,,,,,,,,,/,,0.00,,,,,,,,,/,,No,"5 years parts, 1 year labor (Free)",Scheduled,,Washington State Fair 8/30-9/22/19,Washington State Fair 8/30-9/22/19,,Synchrony 36 months 0% APR. / Second floor delivery,120583,"#15
Originals verified; Available credit  $9,000 please charge $4,615.80 and have the synchrony sales draft signed -Cristina 09/03/19 1:22 pm
9/3/19 1:28pm Courtesy call. Left VM -Noemi
Delivery scheduled 9/6 1pm-4pm - Yoko 9/5/19
Synchrony Authorization #: 005785",WA,0,9.90
8/31/2019 9:23:46 PM,Bryan James,WA,98584,Legacy 4,LGCY-4LGCY-4BL-DEMO,Demo Black,Demo,,,,,4200.00,4200.00,0.00,Anderson Carvalho,Credit Card,1000.00,SQ# 8xe0,,,,,,,,/,Synchrony,3200.00,,,6501723375302245,80486173,Huston,36 months,Driver’s License,WA,07/2021,,0.00,,,,,,,,,/,,No,"5 years parts, 1 year labor (Free)",Printed,,Washington State Fair 8/30-9/22/19,Washington State Fair 8/30-9/22/19,,"Synchrony 36 months 0% APR @ $3,200",120585,"#19
Pls get customer to sign original synchrony form. Scott
Originals verified; available credit $3,200 ; please charge synchrony full amount and have the sales draft signed; Square deposit has been verified for $1k -Cristina 09/03/19 3:58 pm
9/4/19 9:53 am Courtesy call. Left VM -Noemi",WA,1,9.90
9/1/2019 9:44:35 PM,Marc Thompson,WA,98020,PEGASUS 2 SMART,PEGS-2PEGS-2-BR-DEMO,Demo Choco,Demo,,,,,5800.00,5800.00,0.00,Robert Shih,Credit Card,5800.00,SQ# P9Q2,,,,,,,,/,,0.00,,,,,,,,,/,,0.00,,,,,,,,,/,,No,"5 years parts, 1 year labor (Free)",Scheduled,,Washington State Fair 8/30-9/22/19,Washington State Fair 8/30-9/22/19,,,120619,"#22
Original and Sq. payment verified for $5,800-Cristina 09/03/19 4:31 pm
9/4/19 9:55 am Courtesy call. Left VM -Noemi
9/4/19 Received call from customer. Prefers Thursdays, will follow up. - Yoko",WA,1,9.90
9/1/2019 9:49:45 PM,Kari Dupuis,WA,98513,Relax 2 Zero 3D,DWA-9060USJ-9060BR,New Choco,New,,,,,4600.00,4600.00,0.00,Jennifer Tran,Synchrony,4600.00,,,6501723375303912,80524823,Huston,36 months,Driver’s License,WA,11/2024,,0.00,,,,,,,,,/,,0.00,,,,,,,,,/,,No,"5 years parts, 1 year labor (Free)",Scheduled,,Washington State Fair 8/30-9/22/19,Washington State Fair 8/30-9/22/19,,Remove old chair ./ Synchrony 36 months 0% APR.,120622,"#25
Originals verified; available credit $4600; Please charge $4,600 and have the synchrony sales draft signed- Cristina 09/03/19 4:57 pm
9/4/19 9:58 am Courtesy call. Left VM -Noemi
9/9/2019 Delivery scheduled for 9/12 @ 10AM-12 - Yoko
Synchrony authorization 009046",WA,1,9.90
9/1/2019 9:54:16 PM,Samuel K. Mulvihill,WA,98198,Hubble,HUBL-1HUBL-1CH-DEMO,Demo Choco,Demo,,,,,5000.00,5000.00,0.00,Robert Shih,Synchrony,5000.00,,,6501723375304225,80529509,Huston,36 months,Driver’s License,WA,03/2024,,0.00,,,,,,,,,/,,0.00,,,,,,,,,/,,No,"5 years parts, 1 year labor (Free)",Scheduled,,Washington State Fair 8/30-9/22/19,Washington State Fair 8/30-9/22/19,,Synchrony 36 months 0% APR .,120624,"#28
Originals verified; available credit $7,200; Charge $5,000 and have sales draft signed- Cristina 09/03/19 5:05 pm
9/4/19 10:15 am Courtesy call. Left VM -Noemi
Scheduled for 9/10 9am-12p - Yoko 9/719
Authorization Code
007343",WA,1,9.90
9/1/2019 10:03:41 PM,Annie McMurtrey,WA,98391,Hubble,HUBL-1HUBL-1BL-DEMO,Demo Black,Demo,,,,,6044.50,5500.00,544.50,Robert Shih,Synchrony,6044.50,,,6501723375304407,80531842,Huston,36 months,Driver’s License,WA,07/2022,,0.00,,,,,,,,,/,,0.00,,,,,,,,,/,,No,"5 years parts, 1 year labor (Free)",Scheduled,,Washington State Fair 8/30-9/22/19,Washington State Fair 8/30-9/22/19,,Synchrony 36 months 0% APR,120626,"#31
originals verified;  available credit $7,800 ; charge $6,044.50 and have synchrony sales draft signed- cristina 09/03/19 9:12 pm
9/4/19 11:06 am Cupurtesy call. Left VM -Noemi
9/9/19 17:50 Delivery schedule confirmed - Hideo",WA,0,9.90
9/1/2019 10:04:46 PM,Natasha A Walters,WA,98327,PEGASUS 2 SMART,PEGS-2PEGS-2-BL,New Black,New,,,,,6400.00,6400.00,0.00,Rolly San Jose,Synchrony,6400.00,,,6501723375304274,80530341,Huston,48 months,Driver’s License,GA,01/2025,,0.00,,,,,,,,,/,,0.00,,,,,,,,,/,,No,"5 years parts, 1 year labor (Free)",Scheduled,,Washington State Fair 8/30-9/22/19,Washington State Fair 8/30-9/22/19,,,120629,"#29
Originals verified; available credit $6,500; Please charge $6,400 and have the synchrony sales draft signed - Cristina 09/03/19 5:08pm
9/4/19 11:21 am Courtesy call. Spoke with customer -Noemi
9/9/19 2:30 PM Spoke with customer, confirmed delivery date 9/12 Thu. - Hideo",WA,1,9.90
9/1/2019 10:05:34 PM,Pamela Hagen,WA,98387,Hubble,HUBL-1HUBL-1BL-DEMO,Demo Black,Demo,,,,,6044.50,5500.00,544.50,Robert Shih,Credit Card,6044.50,G65i,,,,,,,,/,,0.00,,,,,,,,,/,,0.00,,,,,,,,,/,,No,"5 years parts, 1 year labor (Free)",Scheduled,,Washington State Fair 8/30-9/22/19,Washington State Fair 8/30-9/22/19,,,120630,"#26
Delivery Scheduled on 9/5 12pm- 2pm - Yoko 9/1/2019
Square amount verified $6,044.50 -Cristina 09/03/19 5pm",WA,0,9.90
9/1/2019 10:10:23 PM,Karl Schaefer,WA,98532,Hubble,HUBL-1HUBL-1CH-DEMO,Demo Choco,Demo,,,,,5210.00,5210.00,0.00,Scott Ishikawa,Synchrony,5210.00,,,6501723375304720,80537769,Huston,36 months,Driver’s License,WA,04/2023,,0.00,,,,,,,,,/,,0.00,,,,,,,,,/,,No,"5 years parts, 1 year labor (Free)",Cancelled,,Washington State Fair 8/30-9/22/19,Washington State Fair 8/30-9/22/19,,Synchrony 36 months 0% APR,120632,"Originals Verified; available credit; please charge $5,220 and have the synchrony sales draft signed- cristina 09/03/19
9/4/19 11:28 am Courtesy call. Left VM -Noemi",Not Dispatched,1,9.90
9/1/2019 10:14:36 PM,Liway Hsi,WA,98065,Legacy 4,LGCY-4LGCY-4CH,New Choco,New,,,,,4000.00,4000.00,0.00,Neneth Finley,Credit Card,4000.00,fcvF,,,,,,,,/,,0.00,,,,,,,,,/,,0.00,,,,,,,,,/,,No,"5 years parts, 1 year labor (Free)",Scheduled,,Washington State Fair 8/30-9/22/19,Washington State Fair 8/30-9/22/19,,,120635,"#32
Square payment verified $4,000 - cristina 09/03/19 9:14 pm
9/4/19 11:31 am Courtesy call. Left VM -Noemi
9/9/19 16:02 Left VM for scheduling - Hideo
9/9/19 16:38 Confirmed delivery date & time - Hideo",WA,1,9.90
9/1/2019 10:15:25 PM,Phillip Enera,WA,98002,Legacy 4,LGCY-4LGCY-4CH,New Choco,New,,,,,4900.00,4900.00,0.00,Rolly San Jose,Synchrony,4900.00,,,6501723375304894,80539460,Huston,48 months,Driver’s License,WA,10/2022,,0.00,,,,,,,,,/,,0.00,,,,,,,,,/,,No,"5 years parts, 1 year labor (Free)",Scheduled,,Washington State Fair 8/30-9/22/19,Washington State Fair 8/30-9/22/19,,Synchrony 48 months 0% APR.,120636,"#39
Originals verified;  available credit $ 6,800; Please charge $4,900 and have the synchrony sales draft signed-cristina 09/04/19 9:23 am
9/4/19 11:33 am Courtesy call. Left VM -Noemi
Delivery scheduled for 9/11/19 2p-5p - Yoko 9/6/19
Synchrony Authorization Code 006704",WA,1,9.90
9/1/2019 10:19:10 PM,Kathi Keith,WA,98589,PEGASUS 2 SMART,PEGS-2PEGS-2-BL,New Black,New,,,,,5700.00,5700.00,0.00,Ruben Cuatrona,Credit Card,5700.00,SQ# X5iq,,,,,,,,/,,0.00,,,,,,,,,/,,0.00,,,,,,,,,/,,No,"5 years parts, 2 years labor ($200)",Cancelled,,Washington State Fair 8/30-9/22/19,Washington State Fair 8/30-9/22/19,,Only Monday & Friday available for delivery .,120638,,WA,1,9.90
9/1/2019 10:19:39 PM,Shaun Neil,WA,99205,Legacy 4,LGCY-4LGCY-4CH,New Choco,New,,,,,4900.00,4458.60,441.40,Robert Shih,Synchrony,4900.00,,,6501723375304795,80538234,Huston,48 months,Driver’s License,WA,01/2025,,0.00,,,,,,,,,/,,0.00,,,,,,,,,/,,No,"5 years parts, 1 year labor (Free)",Cancelled,,Washington State Fair 8/30-9/22/19,Washington State Fair 8/30-9/22/19,,,120639,"Need to verify what chair was sold ; Paper work states 3D Relax  vs Legacy 4
Available credit $7k; please charge $4,900 and have the synchrony sales draft signed- cristina",WA,0,9.90
9/1/2019 10:24:04 PM,Todd & Shawn Hansen,WA,98589,PEGASUS 2 SMART,PEGS-2PEGS-2-BR,New Choco,New,,,,,5700.00,5700.00,0.00,Robert Shih,Credit Card,300.00,#AILv,,,,,,,,/,Credit Card,5400.00,#tl6U,,,,,,,,/,,0.00,,,,,,,,,/,,No,"5 years parts, 2 years labor ($200)",Scheduled,,Washington State Fair 8/30-9/22/19,Washington State Fair 8/30-9/22/19,,,120640,"#40
Verified Sq deposit $300; Please collect $5,400 COD  - Cristina 09/03/19 9:53 pm
9/4/19 11:37 am Courtesy call. Spoke with customer. Correct email address hansent90@yahoo.com -Noemi
Delivery scheduled 9/6/19 9:30am-12pm- Yoko 9/5/19",WA,1,9.90
9/1/2019 10:30:24 PM,Leon Bronley,WA,98520,Hubble,HUBL-1HUBL-1BL-DEMO,Demo Black,Demo,,,,,5232.00,4760.69,471.31,Ruben Cuatrona,Synchrony,5232.00,,,6501723375304829,80538581,Huston,48 months,Driver’s License,WA,07/2024,,0.00,,,,,,,,,/,,0.00,,,,,,,,,/,,No,"5 years parts, 1 year labor (Free)",Cancelled,,Washington State Fair 8/30-9/22/19,Washington State Fair 8/30-9/22/19,,,120641,"Originals verified; available credit $7,800; Please charge $5,232 and have the synchrony sales draft signed- Cristina 09/04/19 9:12 am
9/4/19 11:43 am Courtesy call. Phone# 2064843856 does not belong to customer. Left VM on phone# 2063100141 -Noemi",WA,0,9.90
9/2/2019 10:19:47 AM,Josh McMeel,WA,98503,PEGASUS 2 SMART,PEGS-2PEGS-2-BL-DEMO,Demo Black,Demo,,,,,6000.00,6000.00,0.00,Rolly San Jose,Synchrony,6000.00,,,6501723375299326,80410673,Huston,48 months,Driver’s License,WA,08/2021,,0.00,,,,,,,,,/,,0.00,,,,,,,,,/,,No,"5 years parts, 1 year labor (Free)",Scheduled,,Washington State Fair 8/30-9/22/19,Washington State Fair 8/30-9/22/19,,Deliver next week,120652,"#2
Synchrony processed Authorization Code: 002724  -Yoko 9/2/19 1:37pm
Delivery Scheduled for 9/4 afternoon - Yoko 9/2/19
Cristina Verified Original -09/03/19 10:33 am",WA,1,9.90
9/2/2019 10:22:58 AM,Doug Extine,WA,98371,Legacy 4,LGCY-4LGCY-4CH,New Choco,New,,,,,4500.00,4500.00,0.00,Kristy Tran,Credit Card,4500.00,,,,,,,,,/,,0.00,,,,,,,,,/,,0.00,,,,,,,,,/,,No,"5 years parts, 1 year labor (Free)",Cancelled,,Washington State Fair 8/30-9/22/19,Washington State Fair 8/30-9/22/19,,,120653,,WA,1,9.90
9/2/2019 10:25:27 AM,David Boyer,WA,98387,PEGASUS 2 SMART,PEGS-2PEGS-2-BR-DEMO,Demo Choco,Demo,,,,,6519.75,6000.00,519.75,Ruben Cuatrona,Credit Card,1000.00,#THe6,,,,,,,,/,COD,0.00,,,,,,,,,/,,0.00,,,,,,,,,/,,No,"5 years parts, 2 years labor ($200)",Cancelled,,Washington State Fair 8/30-9/22/19,Washington State Fair 8/30-9/22/19,,Deliver ASAP,120655,,WA,0,9.90
9/2/2019 10:31:16 AM,Lisa Carter,WA,98108,PEGASUS 2 SMART,PEGS-2PEGS-2-BL-DEMO(Box),Demo(Box) Black,Demo,,,,,5500.00,5500.00,0.00,Anderson Carvalho,Credit Card,5500.00,TbYE,,,,,,,,/,,0.00,,,,,,,,,/,,0.00,,,,,,,,,/,,No,"5 years parts, 1 year labor (Free)",Cancelled,,Washington State Fair 8/30-9/22/19,Washington State Fair 8/30-9/22/19,,,120656,"#27
Sq amount verified $5,500 - Cristina  09/03/19 5:02 pm
9/4/19 11:48 AM Courtesy call. Spoke with customer -Noemi",WA,1,9.90
9/2/2019 10:31:38 AM,George V Lingle,WA,98604,Relax 2 Zero 3D,DWA-9060USJ-9060BL-DEMO,Demo Black,Demo,,,,,4200.00,4200.00,0.00,Tom Nguyen,Synchrony,4200.00,,,6501723375299383,80412940,Huston,36 months,Driver’s License,WA,10/2022,,0.00,,,,,,,,,/,,0.00,,,,,,,,,/,,No,"5 years parts, 1 year labor (Free)",Scheduled,,Washington State Fair 8/30-9/22/19,Washington State Fair 8/30-9/22/19,,,120657,"#3
Originals have been verified; Available credit $7,000 ; Please charge Synchrony account for $4,200  and have sales draft signed- Cristina 09/03/19 10:41 am
9/3/19 1:34pm Courtesy call. Left VM -Noemi
Delivery scheduled on 9/6/19 10am - Yoko 9/4/19",WA,1,9.90
9/2/2019 10:39:14 AM,Gary Cowden,WA,98188,Relax 2 Zero 3D,DWA-9060USJ-9060BR-DEMO,Demo Choco,Demo,,,,,4000.00,4000.00,0.00,Kristy Tran,Credit Card,4000.00,,,,,,,,,/,,0.00,,,,,,,,,/,,0.00,,,,,,,,,/,,No,"5 years parts, 1 year labor (Free)",Cancelled,,Washington State Fair 8/30-9/22/19,Washington State Fair 8/30-9/22/19,,,120659,,WA,1,9.90
9/2/2019 10:44:28 AM,Charles David Sandoval,WA,98354,PEGASUS 2 SMART,PEGS-2PEGS-2-BL,New Black,New,,,,,12600.00,12600.00,0.00,Jennifer Tran,Synchrony,12600.00,,,6501723375299425,80413384,Huston,36 months,Driver’s License,WA,01/2020,,0.00,,,,,,,,,/,,0.00,,,,,,,,,/,,No,"5 years parts, 2 years labor ($200)",Printed,,Washington State Fair 8/30-9/22/19,Washington State Fair 8/30-9/22/19,,,120660,"#4 + #5
3rd Floor Delivery
Originals Verified; Available credit $15,600; Please charge Synchrony account $12,600 and have  the sales draft signed- Cristina 09/03/19 10:45 am
9/3/19 1:37pm Courtesy call. Left VM -Noemi",WA,1,9.90
9/2/2019 10:46:34 AM,Michael Perry,WA,98338,PEGASUS 2 SMART,PEGS-2PEGS-2-BL-DEMO,Demo Black,Demo,,,,,5000.00,5000.00,0.00,Anderson Carvalho,Credit Card,5000.00,#NDC6,,,,,,,,/,,0.00,,,,,,,,,/,,0.00,,,,,,,,,/,,No,"5 years parts, 1 year labor (Free)",Printed,,Washington State Fair 8/30-9/22/19,Washington State Fair 8/30-9/22/19,,,120661,"#42
Sq payment verified $5,000- Cristina 09/03/19 9:48 pm
9/4/19 11:56 am  Courtesy call. Spoke with customer -Noemi",WA,1,9.90
9/2/2019 10:53:00 AM,Stacey Nagy,WA,98391,PEGASUS 2 SMART,PEGS-2PEGS-2-BR,New Choco,New,,,,,5000.00,5000.00,0.00,Kristy Tran,Credit Card,1000.00,#QoLZ,,,,,,,,/,COD,4000.00,,,,,,,,,/,,0.00,,,,,,,,,/,,No,"5 years parts, 1 year labor (Free)",Scheduled,,Washington State Fair 8/30-9/22/19,Washington State Fair 8/30-9/22/19,,CASH ON DELIVERY,120662,"#10 
2nd Floor Delivery; CASH DEAL
Verified Sq Deposit for $1,000 ; COD $4,000- Cristina 09/03/19 12:05 pm
9/3/19 1:39pm Courtesy call. Left VM -Noemi
9/10/19 Confirmed delivery schedule. -Hideo",WA,1,9.90
9/2/2019 10:55:06 AM,Sally Mcdaniel,WA,98001,PEGASUS 2 SMART,PEGS-2PEGS-2-BL,New Black,New,,,,,6900.00,6900.00,0.00,Anderson Carvalho,Credit Card,300.00,#2cwU,,,,,,,,/,,0.00,,,,,,,,,/,,0.00,,,,,,,,,/,,No,"5 years parts, 1 year labor (Free)",Hold,,Washington State Fair 8/30-9/22/19,Washington State Fair 8/30-9/22/19,,,120663,"#30
Customer is moving around 2nd wk of November. She put $300 down and we will run synchrony then. Financing is for 48 mts
Sq deposit verified; Customer would like to apply for synchrony credit line; Original form has been filled out but not processed (Process app in November) Yoko please place this order hold - Cristina 09/04/19 10:22 am",WA,1,9.90
9/2/2019 10:58:11 AM,John Zilke,WA,98366,PEGASUS 2 SMART,PEGS-2PEGS-2-BR-DEMO,Demo Choco,Demo,,,,,4800.00,4800.00,0.00,Ruben Cuatrona,Credit Card,2400.00,#F68X,,,,,,,,/,Credit Card,2400.00,yrxa,,,,,,,,/,,0.00,,,,,,,,,/,,No,"5 years parts, 2 years labor ($200)",Scheduled,,Washington State Fair 8/30-9/22/19,Washington State Fair 8/30-9/22/19,,Deliver ASAP,120665,"#11
Cristina verified both Sq amounts for $2,400 each total of $4,800- Cristina 09/03/19 12:55 pm
9/3/19 1:45pm Courtesy call. Spoke with customer -Noemi
Delivery scheduled for 9/10/19 after 4:30pm - Yoko 9/4/19",WA,1,9.90
9/2/2019 11:02:09 AM,Yoko Ochiai,WA,98006,Legacy 4,LGCY-4LGCY-4BL,New Black,New,,,,,4600.00,4600.00,0.00,Kristy Tran,Synchrony,4600.00,,,6501723375304605,80535597,Huston,24 months,Driver’s License,WA,08/2023,,0.00,,,,,,,,,/,,0.00,,,,,,,,,/,,No,"5 years parts, 1 year labor (Free)",Scheduled,,Washington State Fair 8/30-9/22/19,Washington State Fair 8/30-9/22/19,,,120666,"#33
Originals verified ; available credit  $9k  ; please charge $4,600 and have the synchrony sales draft signed - Cristina 09/03/19  10 pm
9/4/19 12:03 pm Courtesy call. Left VM -Noemi",WA,1,9.90
9/2/2019 11:04:32 AM,John Sager,WA,98501,PEGASUS 2 SMART,PEGS-2PEGS-2-BR,New Choco,New,,,,,5500.00,5500.00,0.00,Ruben Cuatrona,Synchrony,5500.00,#031393,,6501723375301148,80462480,Huston,48 months,Driver’s License,WA,01/2028,,0.00,,,,,,,,,/,,0.00,,,,,,,,,/,,No,"5 years parts, 2 years labor ($200)",Scheduled,,Washington State Fair 8/30-9/22/19,Washington State Fair 8/30-9/22/19,,Remove Old Chair,120667,"#12
Synchrony Processed Authorization Number: #031393
Delivery scheduled for 9/4/2019 2:30-4:30 - Yoko 9/2/2019
Cristina verified originals -09/03/19 12:59 pm",WA,1,9.90
9/2/2019 11:09:01 AM,Robert Park,WA,98338,PEGASUS 2 SMART,PEGS-2PEGS-2-BR-DEMO,Demo Choco,Demo,,,,,6000.00,6000.00,0.00,Tom Nguyen,Synchrony,6000.00,,,6501723375304621,80535899,Huston,48 months,Driver’s License,WA,08/2020,,0.00,,,,,,,,,/,,0.00,,,,,,,,,/,,No,"5 years parts, 1 year labor (Free)",Printed,,Washington State Fair 8/30-9/22/19,Washington State Fair 8/30-9/22/19,,,120668,"#34
Originals verified; available credit $9,000 ; please charge $6,000 and have the synchrony sales draft signed - cristina 09/03/19 10:04 pm
9/4/19 12:05 pm Courtesy call. Left VM -Noemi",WA,1,9.90
9/2/2019 11:09:40 AM,Jodi Markhart,WA,98198,Relax 2 Zero 3D,DWA-9060USJ-9060BR,New Choco,New,,,,,4500.00,4500.00,0.00,Neneth Finley,Synchrony,4500.00,,,6501723375301619,80470463,Huston,36 months,Driver’s License,WA,05/2022,,0.00,,,,,,,,,/,,0.00,,,,,,,,,/,,No,"5 years parts, 1 year labor (Free)",Printed,,Washington State Fair 8/30-9/22/19,Washington State Fair 8/30-9/22/19,,,120669,"#13
Originals verified; Available credit $6,500; Please charge $4,500 and have the sales draft signed- Cristina 09/03/19 1:01 pm
9/3/19 1:48pm Courtesy call. 206-387-7111 does not belong to customer. Called 206-478-7111 & left VM -Noemi",WA,1,9.90
9/2/2019 11:15:00 AM,Mark Sigurdson,WA,98042,PEGASUS 2 SMART,PEGS-2PEGS-2-BR,New Choco,New,,,,,6000.00,6000.00,0.00,Tom Nguyen,Synchrony,6000.00,,,6501722425198496,,Huston,24 months,Driver’s License,WA,01/2025,,0.00,,,,,,,,,/,,0.00,,,,,,,,,/,,No,"5 years parts, 1 year labor (Free)",Scheduled,,Washington State Fair 8/30-9/22/19,Washington State Fair 8/30-9/22/19,,,120670,"#14
Customer already has existing Synchrony Account
Verified originals credit line open thru mattress firm;  available credit $ 6k  please charge full amount and have sales draft signed / courtesy call completed #7137- Cristina 09/04/19 1:25 pm
Scheduled 9/10/19 11am-2pm
Synchrony Authorization Code 008275 - Yoko 9/8/19",WA,1,9.90
9/2/2019 11:15:51 AM,April Pooler,WA,98584,Relax 2 Zero 3D,DWA-9060USJ-9060BL,New Black,New,,,,,4200.00,4200.00,0.00,Jennifer Tran,Synchrony,4200.00,,,6034611606468735,,,36 months,Driver’s License,WA,03/2020,,0.00,,,,,,,,,/,,0.00,,,,,,,,,/,,No,"5 years parts, 1 year labor (Free)",Printed,,Washington State Fair 8/30-9/22/19,Washington State Fair 8/30-9/22/19,,,120671,"#23
Customer already has synchrony act
HOLD 2 weeks  
Call before processing
Originals verified; Synchrony available credit $4,500; please charge $4,200 and have the sales draft signed- Cristina 09/03/19 4:39 pm
9/4/19 12:10 pm Courtesy call. Left VM -Noemi",WA,1,9.90
9/2/2019 11:19:30 AM,Richard Farr,UT,84738,PEGASUS 2 SMART,PEGS-2PEGS-2-BR-DEMO,Demo Choco,Demo,,,,,5700.00,5700.00,0.00,Ruben Cuatrona,Synchrony,5700.00,,,6019193611008169,,Huston,36 months,Driver’s License,WA,01/2025,,0.00,,,,,,,,,/,,0.00,,,,,,,,,/,,No,"5 years parts, 1 year labor (Free)",Assigned,,Washington State Fair 8/30-9/22/19,Washington State Fair 8/30-9/22/19,,,120672,"#17
Customer has existing Ashley Furniture Synchrony Account
Corrected customers acc#; available credit $7,400 please charge $5,700 and have the synchrony sales  draft signed - Cristina 09/03/19 3:19
9/4/19 12:15 pm Courtesy call. Spoke with Mrs. Farr -Noemi",NV,1,9.90
9/2/2019 11:24:46 AM,Kevin Silvas,WA,98055,PEGASUS 2 SMART,PEGS-2PEGS-2-BR-DEMO,Demo Choco,Demo,,,,,6000.00,6000.00,0.00,Kristy Tran,Synchrony,6000.00,,,6501723375303714,80521396,Huston,48 months,Driver’s License,WA,08/2022,,0.00,,,,,,,,,/,,0.00,,,,,,,,,/,,No,"5 years parts, 1 year labor (Free)",Scheduled,,Washington State Fair 8/30-9/22/19,Washington State Fair 8/30-9/22/19,,,120673,"#24
originals confirmed; available credit $8,300 ; Please charge $6,000 and have the synchrony sales draft signed
9/4/19 12:17 pm Courtesy call. Left VM -Noemi
Scheduled 9/10/19 2pm-4pm - Yoko 9/8/19 
Synchrony Authorization Code  008893 - Yoko 9/8/19",WA,1,9.90
9/2/2019 11:25:58 AM,Constance Kittelman,WA,98374,PEGASUS 2 SMART,PEGS-2PEGS-2-BL,New Black,New,,,,,6400.00,6400.00,0.00,Ruben Cuatrona,Synchrony,6400.00,,,6501723375302179,80485131,Huston,36 months,Driver’s License,WA,11/2021,,0.00,,,,,,,,,/,,0.00,,,,,,,,,/,9/3/2019 12:00:00 AM,No,"5 years parts, 2 years labor ($200)",Delivered,New,Washington State Fair 8/30-9/22/19,Washington State Fair 8/30-9/22/19,"Confirmed Synchrony: Houston/$6,400/36 months/Auth#031395",Deliver Tuesday September 3rd for Birthday Gift,120674,"Auth: 031395
DELIVERY SCHEDULED ON 9/3- yoko 9/2/19
Originals verified - Cristina 09/03/19 3:26 pm

Received the delivery confirmation and signed sales draft. 9/4/19 Riho",WA,1,9.90
9/2/2019 11:34:55 AM,James Jr,WA,00000,Legacy 4,LGCY-4LGCY-4CH,New Choco,New,,,,,4500.00,4500.00,0.00,Rolly San Jose,Credit Card,500.00,,,,,,,,,/,,0.00,,,,,,,,,/,,0.00,,,,,,,,,/,,No,"5 years parts, 1 year labor (Free)",Cancelled,,Washington State Fair 8/30-9/22/19,Washington State Fair 8/30-9/22/19,,,120677,Customer will provide address and make payment via phone call,WA,1,9.90
9/2/2019 11:52:45 AM,James Fisher,CA,92846,Relax 2 Zero 3D,DWA-9060USJ-9060BR,New Choco,New,,,,,3800.00,3800.00,0.00,Kristy Tran,Credit Card,300.00,#CoC9,,,,,,,,/,,0.00,,,,,,,,,/,,0.00,,,,,,,,,/,,No,"5 years parts, 1 year labor (Free)",Cancelled,,Washington State Fair 8/30-9/22/19,Washington State Fair 8/30-9/22/19,,Deposit is Refundable,120680,"#44
9/3Printed.
Kristy emailed to advise that customer had to cancel his chair due to his wife becoming upset; Kristy issued refund- Cristina 09/03/19 3:23 pm",CA,1,9.90
9/2/2019 11:56:55 AM,Kathi Keith,WA,98589,PEGASUS 2 SMART,PEGS-2PEGS-2-BR,New Choco,New,,,,,5700.00,5700.00,0.00,Ruben Cuatrona,Credit Card,5700.00,#X5iq,,,,,,,,/,,0.00,,,,,,,,,/,,0.00,,,,,,,,,/,,No,"5 years parts, 2 years labor ($200)",Scheduled,,Washington State Fair 8/30-9/22/19,Washington State Fair 8/30-9/22/19,,,120681,"#41
Call First to Deliver
Only Available Mondays and 
Sq payment verified $5,700 - cristina 09/03/19 9:50 pm
9/4/19 12:19 pm Courtesy call. Left VM -Noemi
Delivery scheduled for 9/6/19 10:30am-1pm. Yoko 9/5/19",WA,1,9.90
9/2/2019 12:04:18 PM,Tammy Taylor,WA,98407,Relax 2 Zero 3D,DWA-9060USJ-9060BL,New Black,New,,,,,3800.00,3800.00,0.00,Kristy Tran,Synchrony,0.00,,,6501723375305818,80564387,Huston,36 months,Driver’s License,WA,11/2019,,0.00,,,,,,,,,/,,0.00,,,,,,,,,/,,No,"5 years parts, 1 year labor (Free)",Cancelled,,Washington State Fair 8/30-9/22/19,Washington State Fair 8/30-9/22/19,,,120682,"#43
Kristy sent an email advising that the customer checked her finances and she will not be able to move forward with the chair. -Cristina 09/03/19 3:21 pm",WA,1,9.90
9/2/2019 12:38:38 PM,Doug Extine,WA,98371,Legacy 4,LGCY-4LGCY-4BL,New Black,New,,,,,4500.00,4500.00,0.00,Kristy Tran,Credit Card,4500.00,#MtSe,,,,,,,,/,,0.00,,,,,,,,,/,,0.00,,,,,,,,,/,,No,"5 years parts, 1 year labor (Free)",Cancelled,,Washington State Fair 8/30-9/22/19,Washington State Fair 8/30-9/22/19,,,120684,"#20
Out of town sept 17-21
Sq. Deposit confirmed $4500; Please sched before 09/17 or after 09/21-Cristina 09/03/19 4:16 pm
CANCELLED AND RE-ENTERED.  CHAIR NEEDS TO BE CHOCO COLOR.  
NEW ORDER #120790
-Yoko 9/6/19 8:58 pm",WA,1,9.90
9/2/2019 12:41:29 PM,Gary K Cowden,WA,98188,Relax 2 Zero 3D,DWA-9060USJ-9060BR-DEMO,Demo Choco,Demo,,,,,4000.00,4000.00,0.00,Kristy Tran,Credit Card,4000.00,Square #S4Ok,,,,,,,,/,,0.00,,,,,,,,,/,,0.00,,,,,,,,,/,,No,"5 years parts, 1 year labor (Free)",Scheduled,,Washington State Fair 8/30-9/22/19,Washington State Fair 8/30-9/22/19,,,120685,"#35
Verified sq payment $4,000- Cristina 09/03/19 10 am
9/3/19 1:54pm Courtesy call. Left VM -Noemi
9/9/19 Delivery scheduled for 9/12 2pm -4pm - Yoko",WA,1,9.90
9/2/2019 2:10:50 PM,David Boyer,WA,98387,PEGASUS 2 SMART,PEGS-2PEGS-2-BR-DEMO,Demo Choco,Demo,,,,,6000.00,6000.00,0.00,Ruben Cuatrona,Credit Card,1000.00,#THe6,,,,,,,,/,COD,5000.00,,,,,,,,,/,,0.00,,,,,,,,,/,,No,"5 years parts, 2 years labor ($200)",Scheduled,,Washington State Fair 8/30-9/22/19,Washington State Fair 8/30-9/22/19,,,120687,"#1
Invoice was re-entered the 3rd time due to error in balance and show info.   (120655) - Yoko 9/2/2019
Delivery scheduled on 9/5/19 1pm -Yoko 9/2
Cristina verified $1k Deposit: Please collect $5,000 COD- 09/03/19 10:35 am",WA,1,9.90
9/2/2019 2:52:57 PM,James M. Way Jr.,WA,98374,Legacy 4,LGCY-4LGCY-4CH,New Choco,New,,,,,4500.00,4500.00,0.00,Rolly San Jose,Credit Card,500.00,#6tsv,,,,,,,,/,Credit Card,4000.00,#oGpX,,,,,,,,/,,0.00,,,,,,,,,/,9/3/2019 12:00:00 AM,No,"5 years parts, 1 year labor (Free)",Delivered,New,Washington State Fair 8/30-9/22/19,Washington State Fair 8/30-9/22/19,,,120688,"Re-entered info with address on new order.
Chair paid in full by Alice Way Square #oGpX - Yoko 9/2/19 7:38pm
Scheduled for 9/3 after 3pm - Yoko 9/2/2019
cristina verified 09/03/19

Received and confirmed the delivery confirmation. 9/4/19 Riho",WA,1,9.90
9/2/2019 8:49:26 PM,Emigdio Abarquez,WA,98366,Legacy 4,LGCY-4LGCY-4BL,New Black,New,,,,,4500.00,4500.00,0.00,Neneth Finley,Synchrony,4500.00,,,6501723375306741,80580429,Huston,48 months,Driver’s License,WA,12/2021,,0.00,,,,,,,,,/,,0.00,,,,,,,,,/,,No,"5 years parts, 1 year labor (Free)",Scheduled,,Washington State Fair 8/30-9/22/19,Washington State Fair 8/30-9/22/19,,,120695,"#45
Originals verified ; available credit $9k ; Please charge $4,500 and have the synchrony sales draft signed- Cristina 09/04/19 9:25 am
9/4/19 12:22 pm Courtesy call. Left VM -Noemi
Synchrony Authorization: 005224
Delivery scheduled 9/7/19- Yoko",WA,1,9.90
9/2/2019 8:52:33 PM,Herminiano Vallejo,WA,98366,Legacy 4,LGCY-4LGCY-4CH,New Choco,New,,,,,4500.00,4500.00,0.00,Neneth Finley,Synchrony,4500.00,,,6501723375306808,80581327,Huston,48 months,Driver’s License,WA,09/2022,,0.00,,,,,,,,,/,,0.00,,,,,,,,,/,,No,"5 years parts, 1 year labor (Free)",Scheduled,,Washington State Fair 8/30-9/22/19,Washington State Fair 8/30-9/22/19,,,120696,"#46
Originals verified; available credit $ 6,800; please charge $4,500 and have the sales draft signed - Cristina 09/04/19 9:49 am
9/4/19 12:29 pm Courtesy call. Left VM -Noemi
Scheduled 9/7/19 10am-12pm- Yoko
Synchrony Authorization: 005224",WA,1,9.90
9/2/2019 8:55:21 PM,Zheng Du,WA,98040,Legacy 4,LGCY-4LGCY-4CH-DEMO,Demo Choco,Demo,,,,,4200.00,4200.00,0.00,Robert Shih,Credit Card,4200.00,1Ro5,,,,,,,,/,,0.00,,,,,,,,,/,,0.00,,,,,,,,,/,,No,"5 years parts, 1 year labor (Free)",Scheduled,,Washington State Fair 8/30-9/22/19,Washington State Fair 8/30-9/22/19,,,120697,"#47
Verified Sq payment $4,200 - Cristina 09/03/19 9:45 pm
9/4/19 12:32 pm Courtesy call. Spoke with customer -Noemi
Delivery Scheduled 9/14/19 1pm-3pm - Yoko 9/7/19",WA,1,9.90
9/2/2019 8:57:46 PM,Mel Ceccanti,WA,98375,PEGASUS 2 SMART,PEGS-2PEGS-2-BR-DEMO,Demo Choco,Demo,,,,,5700.00,5700.00,0.00,Ruben Cuatrona,Credit Card,5700.00,#HAL4,,,,,,,,/,,0.00,,,,,,,,,/,,0.00,,,,,,,,,/,,No,"5 years parts, 2 years labor ($200)",Scheduled,,Washington State Fair 8/30-9/22/19,Washington State Fair 8/30-9/22/19,,,120698,"#48
PAID IN FULL
Square payment verified $5,700 - Cristina 09/03/19 9:42 pm
9/4/19 12:34 pm Courtesy call. Left VM -Noemi
Delivery scheduled for 9/9 10am-12pm - Yoko 9/7/19",WA,1,9.90
9/2/2019 9:03:49 PM,Lorena Snider,WA,98370,Legacy 4,LGCY-4LGCY-4CH,New Choco,New,,,,,4500.00,4500.00,0.00,Neneth Finley,Synchrony,4500.00,,,6501723375307715,80599168,Huston,48 months,Driver’s License,WA,05/2022,,0.00,,,,,,,,,/,,0.00,,,,,,,,,/,,No,"5 years parts, 1 year labor (Free)",Scheduled,,Washington State Fair 8/30-9/22/19,Washington State Fair 8/30-9/22/19,,,120699,"#50
Originals verified; available credit $9k; please charge $4,500 an have the synchrony sales draft signed-Cristina 09/04/19 10 am
9/4/19 12:37 pm Courtesy call. Left VM -Noemi
Scheduled 9/10 2pm to 4pm - Yoko 9/7/19
Synchrony Authorization Code 008227 - Yoko 9/8/19",WA,1,9.90
9/2/2019 9:13:18 PM,Jeff Brony,CA,92307,Legacy 4,LGCY-4LGCY-4CH-DEMO,Demo Choco,Demo,,,,,4200.00,4200.00,0.00,Tom Nguyen,Credit Card,700.00,#Wjb1,,,,,,,,/,,0.00,,,,,,,,,/,,0.00,,,,,,,,,/,,No,"5 years parts, 1 year labor (Free)",Scheduled,,Washington State Fair 8/30-9/22/19,Washington State Fair 8/30-9/22/19,,,120701,"Cash on Delivery
Original received. SQ amount verified $700. Remaining balance $3500. Collect COD (cash) @ delivery-Erika 9/3/19 3:33pm
9/3Printed.
scheduled 9/11 10:30-12:30",CA,1,9.90
9/2/2019 9:16:13 PM,Winnie Liang,WA,98371,Relax 2 Zero 3D,DWA-9060USJ-9060BL-DEMO,Demo Black,Demo,,,,,3800.00,3800.00,0.00,Tom Nguyen,Cash,200.00,,,,,,,,,/,COD,3600.00,,,,,,,,,/,,0.00,,,,,,,,,/,,No,"5 years parts, 1 year labor (Free)",Scheduled,,Washington State Fair 8/30-9/22/19,Washington State Fair 8/30-9/22/19,,,120702,"#57
Pick up old chair
$200 cash was collected by Scott; Please collect $3600 COD- Cristina 09/03/19 9:37 pm
9/4/19 12:48 pm Courtesy call. Left VM -Noemi
Scheduled 9/9/19 10am-1pm - Yoko 9/8/19",WA,1,9.90
9/2/2019 9:16:35 PM,Polley F Fields,WA,98391,Legacy 4,LGCY-4LGCY-4CH,New Choco,New,,,,,4900.00,4900.00,0.00,Anderson Carvalho,Synchrony,0.00,,,6501723375308234,80607349,,48 months,Driver’s License,WA,08/2022,,0.00,,,,,,,,,/,,0.00,,,,,,,,,/,,No,"5 years parts, 1 year labor (Free)",Cancelled,,Washington State Fair 8/30-9/22/19,Washington State Fair 8/30-9/22/19,,,120703,"Correct Name: Polly
Originals verified; available credit $9K; please charge $4,900 and have the sales draft signed- cristina- 09/04/19

Not dispatched need to check  what chair was sold.",WA,1,9.90
9/2/2019 9:17:43 PM,Wilhelmina O. Amlag,WA,98311,Legacy 4,LGCY-4LGCY-4CH,New Choco,New,,,,,4500.00,4500.00,0.00,Scott Ishikawa,Synchrony,4500.00,,,6501723375308408,80610489,Huston,36 months,Driver’s License,WA,06/2020,,0.00,,,,,,,,,/,,0.00,,,,,,,,,/,,No,"5 years parts, 1 year labor (Free)",Scheduled,,Washington State Fair 8/30-9/22/19,Washington State Fair 8/30-9/22/19,,Synchrony 36 months 0% APR.,120704,"#54
Originals verified; available  credit $9k ; please charge $4,500 and have sales draft signed / courtesy call completed #0055- Cristina 09/04/19 1:272 pm
9/11/19 Confirmed delivery schedule - Hideo",WA,1,9.90
9/2/2019 9:18:16 PM,David Cooper   (III),WA,98002,Relax 2 Zero 3D,DWA-9060USJ-9060BL,New Black,New,,,,,5385.10,4900.00,485.10,Anderson Carvalho,Synchrony,4900.00,,,6501723375307947,80602961,Huston,48 months,Driver’s License,WA,09/2020,,0.00,,,,,,,,,/,,0.00,,,,,,,,,/,,No,"5 years parts, 1 year labor (Free)",Cancelled,,Washington State Fair 8/30-9/22/19,Washington State Fair 8/30-9/22/19,,,120705,"Full name (David Julian cooper ||| )
Originals verified;  available credit $6,500 please charge $4,900 and have the sales draft signed- Cristina 09/04/19 10:06 am
Courtesy call completed #5090- Cristina 09/04/19 1:21pm",WA,0,9.90
9/2/2019 9:21:05 PM,Mark Chua,WA,98092,Relax 2 Zero 3D,DWA-9060USJ-9060BR,New Choco,New,,,,,4500.00,4500.00,0.00,Scott Ishikawa,Synchrony,4500.00,,,6501723375308606,80616634,Huston,36 months,Driver’s License,WA,08/2023,,0.00,,,,,,,,,/,,0.00,,,,,,,,,/,,No,"5 years parts, 1 year labor (Free)",Scheduled,,Washington State Fair 8/30-9/22/19,Washington State Fair 8/30-9/22/19,,,120706,"#58
Originals verified; available credit $7k; please charge $4,500 and have the sales draft signed- Cristina 09/04/19 1:05 pm
cc completed-erika 9/5/19 11:20am
Scheduled 9/11 1pm-3pm - Yoko 9/6/19
Synchrony Authorization Code 006421",WA,1,9.90
9/2/2019 9:24:01 PM,Douglas Palmer,WA,98524,Relax 2 Zero 3D,DWA-9060USJ-9060BR,New Choco,New,,,,,5385.10,4900.00,485.10,Anderson Carvalho,Synchrony,4900.00,,,6501723375308390,80610286,Huston,48 months,Driver’s License,WA,12/2021,Purchase Order,485.10,,TAX WAIVED SCOTT APPROVED,,,,,,,/,,0.00,,,,,,,,,/,,No,"5 years parts, 1 year labor (Free)",Scheduled,,Washington State Fair 8/30-9/22/19,Washington State Fair 8/30-9/22/19,,,120707,"#55
Originals verified; available credit $9k ; Please charge $4,900 please have synchrony sales draft signed- Cristina 09/04/19 12:29 pm
9/4/19 12:52 pm Courtesy call. Left VM -Noemi
9/11/19 Confirmed delivery schedule. - Donald",WA,0,9.90
9/2/2019 9:30:30 PM,Larry strong,WA,98022,Relax 2 Zero 3D,DWA-9060USJ-9060BR,New Choco,New,,,,,4500.00,4500.00,0.00,Neneth Finley,Credit Card,4500.00,X5ak,,,,,,,,/,,0.00,,,,,,,,,/,,0.00,,,,,,,,,/,,No,"5 years parts, 1 year labor (Free)",Scheduled,,Washington State Fair 8/30-9/22/19,Washington State Fair 8/30-9/22/19,,,120708,"#59
Square payment verified $4,500 - Cristina 09/03/19 9:30 pm
9/4/19 12:54 pm Courtesy call. Spoke with Mrs. Strong -Noemi
Scheduled for 9/10/19 10am- 12pm.   - Yoko 9/7/19
Larry's phone number: 206-795-0797 
Kathy (wife): Home phone number listed.",WA,1,9.90
9/5/2019 9:05:19 AM,Shaun Neil,WA,99205,Relax 2 Zero 3D,DWA-9060USJ-9060BR,New Choco,New,,,,,4900.00,4900.00,0.00,Anderson Carvalho,Synchrony,4900.00,,,6501723375304795,80538234,Huston,48 months,Driver’s License,WA,01/2025,,0.00,,,,,,,,,/,,0.00,,,,,,,,,/,,No,"5 years parts, 1 year labor (Free)",Printed,,Washington State Fair 8/30-9/22/19,Washington State Fair 8/30-9/22/19,,,120758,"#37
Originals Verified; available credit  $7K ; Please charge $4,900 and have the synchrony form signed ;
Courtesy call completed #2756 - Cristina 09/05/19 9:17am",WA,1,9.90
9/5/2019 9:15:12 AM,Polly Fields,WA,98391,Relax 2 Zero 3D,DWA-9060USJ-9060BR,New Choco,New,,,,,4900.00,4900.00,0.00,Anderson Carvalho,Synchrony,4900.00,,,6501723375308234,80607249,Huston,48 months,Driver’s License,WA,08/2022,,0.00,,,,,,,,,/,,0.00,,,,,,,,,/,,No,"5 years parts, 1 year labor (Free)",Scheduled,,Washington State Fair 8/30-9/22/19,Washington State Fair 8/30-9/22/19,,,120760,"#53
Originals verified; available credit $9K ; please charge $4,900 and have the synchrony sales draft signed- Cristina 09/05/19 9:19 am
cc completed-Erika 9/5/19 11:26am
Scheduled on 9/13 1:00-3:00pm - Yoko
Synchrony Authorization #009272 - Hideo",WA,1,9.90
9/5/2019 11:04:32 AM,Karl Schaefer,WA,98532,Hubble,HUBL-1HUBL-1CH-DEMO,Demo Choco,Demo,,,,,5220.00,5220.00,0.00,Scott Ishikawa,Synchrony,5220.00,,,6501723375304720,80537769,Huston,36 months,Driver’s License,WA,04/2023,,0.00,,,,,,,,,/,,0.00,,,,,,,,,/,,No,"5 years parts, 1 year labor (Free)",Printed,,Washington State Fair 8/30-9/22/19,Washington State Fair 8/30-9/22/19,,,120763,"#36
originals Verified; available credit; please charge $5,220 and have the synchrony sales draft signed; order re-entered to correct amount due- cristina 09/03/19
9/4/19 11:28 am Courtesy call. Left VM -Noemi",WA,1,9.90
9/5/2019 11:25:30 AM,Leon Bromley,WA,98520,Hubble,HUBL-1HUBL-1BL-DEMO,Demo Black,Demo,,,,,5232.00,5232.00,0.00,Ruben Cuatrona,Synchrony,5232.00,,,6501723375304829,80538581,Huston,48 months,Driver’s License,WA,07/2024,,0.00,,,,,,,,,/,,0.00,,,,,,,,,/,,No,"5 years parts, 1 year labor (Free)",Scheduled,,Washington State Fair 8/30-9/22/19,Washington State Fair 8/30-9/22/19,,,120764,"#38
Originals verified; available credit $7,800; Please charge $5,232 and have the synchrony sales draft signed- Cristina 09/04/19 9:12 am
9/4/19 11:43 am Courtesy call. Left VM on phone# 2063100141 -Noemi
9/10/19 Delivery scheduled for 9/12 (Thurs.) Call GF upon delivery - Hideo",WA,1,9.90
9/5/2019 12:44:21 PM,David J. Cooper III,CA,98002,Relax 2 Zero 3D,DWA-9060USJ-9060BL,New Black,New,,,,,4900.00,4900.00,0.00,Anderson Carvalho,Synchrony,4900.00,,,6501723375307949,80602961,Huston,48 months,Driver’s License,WA,09/2020,,0.00,,,,,,,,,/,,0.00,,,,,,,,,/,,No,"5 years parts, 1 year labor (Free)",Printed,,Washington State Fair 8/30-9/22/19,Washington State Fair 8/30-9/22/19,,,120766,"#52
Full name (David Julian cooper ||| )
Originals verified;  available credit $6,500 please charge $4,900 and have the sales draft signed- Cristina 09/04/19 10:06 am
Courtesy call completed #5090- Cristina 09/04/19 1:21pm",WA,1,9.90
9/5/2019 3:29:12 PM,Janet Roslie,WA,98373,Relax 2 Zero 3D,DWA-9060USJ-9060BR-DEMO,Demo Choco,Demo,,,,,3900.00,3900.00,0.00,Neneth Finley,Synchrony,3900.00,,,6501723375311907,80744686,Huston,48 months,Driver’s License,WA,02/2023,,0.00,,,,,,,,,/,,0.00,,,,,,,,,/,,No,"5 years parts, 1 year labor (Free)",Scheduled,,Washington State Fair 8/30-9/22/19,Washington State Fair 8/30-9/22/19,,,120769,"#60
Relax 3D Chocolate demo
Originals Verified ; available credit $9k ; Please charge $3,900 hand have the sales draft signed
(Courtesy call completed #8421 - Cristina 09/06/19 10:46 am
Delivery scheduled 9/9 1pm-3pm - Yoko 9/7/19
Synchrony Authorization Code 008862 - yoko 9/8/17",WA,1,9.90
9/5/2019 3:36:04 PM,Robert Carney,WA,98391,Legacy 4,LGCY-4LGCY-4CH,New Choco,New,,,,,4900.00,4900.00,0.00,Joy Anne Torres,Synchrony,4900.00,,,6501723375311949,80746022,Huston,48 months,Driver’s License,WA,10/2022,,0.00,,,,,,,,,/,,0.00,,,,,,,,,/,,No,"5 years parts, 1 year labor (Free)",Printed,,Washington State Fair 8/30-9/22/19,Washington State Fair 8/30-9/22/19,,,120770,"#61
Legacy 4 new choco
Originals verified; available credit $7,200; Please charge $4,900 and have the synchrony sales draft signed (Courtesy call completed #3072)- Cristina 09/06/19 10:48 am
9/9/19 17:21 Left VM for scheduling - Hideo",WA,1,9.90
9/5/2019 4:22:19 PM,Mike Burgess,WA,98520,Legacy 4,LGCY-4LGCY-4CH,New Choco,New,,,,,3850.00,3850.00,0.00,Rolly San Jose,Credit Card,3850.00,sQ#WUSn,,,,,,,,/,,0.00,,,,,,,,,/,,0.00,,,,,,,,,/,,No,"5 years parts, 1 year labor (Free)",Scheduled,,Washington State Fair 8/30-9/22/19,Washington State Fair 8/30-9/22/19,,,120771,"#62
Legacy 4 choco new. Please deliver on or before September 30 for couple is leaving on October 2.
Sq Total amount verified $3,850 
(Courtesy call attempted # 0189; Background noise only, No VM) -Cristina 09/06/19 10:51 am
Delivery scheduled on 9/12 11am-2pm - Yoko 9/9/19",WA,1,9.90
9/5/2019 6:11:17 PM,Michael Davin,WA,98023,Legacy 4,LGCY-4LGCY-4CH,New Choco,New,,,,,4200.00,4200.00,0.00,Rodrigo Malabunga,Credit Card,4200.00,SQ#NT2C,,,,,,,,/,,0.00,,,,,,,,,/,,0.00,,,,,,,,,/,,No,"5 years parts, 1 year labor (Free)",Scheduled,,Washington State Fair 8/30-9/22/19,Washington State Fair 8/30-9/22/19,,,120775,"#63
Legacy 4 new choco
Sq amount Verified $4,200
(Courtesy call completed #4835) - Cristina 09/06/19 10:53 am
Scheduled for 9/10 10am to 12pm - Yoko 9/8/19",WA,1,9.90
9/5/2019 7:31:58 PM,Lisa Carter,WA,98108,PEGASUS 2 SMART,PEGS-2PEGS-2-BL-DEMO,Demo Black,Demo,,,,,5500.00,5500.00,0.00,Anderson Carvalho,Credit Card,5500.00,Square #TbYE,,,,,,,,/,,0.00,,,,,,,,,/,,0.00,,,,,,,,,/,,No,"5 years parts, 1 year labor (Free)",Scheduled,,Washington State Fair 8/30-9/22/19,Washington State Fair 8/30-9/22/19,,,120776,"#27
Sq payment verified  $5,500
9/10/19 Confirmed delivery schedule - Donald",WA,1,9.90
9/6/2019 9:36:14 AM,Kerry Wallingford,WA,98166,Legacy 4,LGCY-4LGCY-4BL,New Black,New,,,,,4615.80,4615.80,0.00,Robert Shih,Synchrony,4615.80,,,6501723375307152,80589988,Huston,36 months,Driver’s License,WA,12/2025,,0.00,,,,,,,,,/,,0.00,,,,,,,,,/,,No,"5 years parts, 1 year labor (Free)",Printed,,Washington State Fair 8/30-9/22/19,Washington State Fair 8/30-9/22/19,,,120777,"#49
Originals verified; available credit  $9k ; please charge $4,615.80 and have the synchrony sales draft signed-Cristina 09/04/19 9:57 am
9/4/19 12:40 pm Courtesy call. Left VM -Noemi
Order re entered previous order # 120700",WA,1,9.90
9/6/2019 3:23:14 PM,James Jr Henry,WA,98392,Legacy 4,LGCY-4LGCY-4CH,New Choco,New,,,,,4200.00,4200.00,0.00,Robert Shih,Credit Card,300.00,SQ#A8yJ,,,,,,,,/,COD,3900.00,,,,,,,,,/,,0.00,,,,,,,,,/,,No,"5 years parts, 1 year labor (Free)",Scheduled,,Washington State Fair 8/30-9/22/19,Washington State Fair 8/30-9/22/19,,,120782,"Legacy 4 new choco. COD balance of 3900
#65 Original received. SQ amount verified $300. Remaining balance $3900. Collect COD @ delivery-Erika 9/9/19 10:45am.  A courtesy call is done by Scott 3:15pm 9/9/2019.
9/11/19 Delivery schedule confirmed. Will be paying remaining balance in full with chashier's check. - Donald",WA,1,9.90
9/6/2019 3:35:03 PM,Karen Arlt,WA,98022,PEGASUS 2 SMART,PEGS-2PEGS-2-BR,New Choco,New,,,,,6000.00,6000.00,0.00,Winston Melgar,Credit Card,6000.00,SQ#G9Uq,,,,,,,,/,,0.00,,,,,,,,,/,,0.00,,,,,,,,,/,,No,"5 years parts, 1 year labor (Free)",Scheduled,,Washington State Fair 8/30-9/22/19,Washington State Fair 8/30-9/22/19,,,120783,"#66 Original received. SQ amount verified $6000. Paid in full-Erika 9/9/19 10:48am
Pegasus Smart 2 new brown to be delivered on Tuesday September 10,2019
Delivery Scheduled on 9/10/19 10am-12pm - Yoko 9/7/19",WA,1,9.90
9/6/2019 4:30:15 PM,Clarence Ching,HI,96816,PEGASUS 2 SMART,PEGS-2PEGS-2-BR,New Choco,New,,,,,6200.00,6200.00,0.00,Rodrigo Malabunga,Credit Card,6200.00,SQ#4Czj,,,,,,,,/,,0.00,,,,,,,,,/,,0.00,,,,,,,,,/,,No,"5 years parts, 3 years labor ($400)",Cancelled,,Washington State Fair 8/30-9/22/19,Washington State Fair 8/30-9/22/19,,,120784,"Pegasus smart 2.0 new choco. Returning customer and purchased this 2nd chair. To be delivered on November 2,2019.",Not Dispatched,1,9.90
9/6/2019 4:56:51 PM,Katherine Mangrubang,WA,98008,Legacy 4,LGCY-4LGCY-4BL,New Black,New,,,,,4200.00,4200.00,0.00,Rolly San Jose,Synchrony,4200.00,,,6501723375313200,80797292,San Diego,36 months,Driver’s License,WA,06/2023,,0.00,,,,,,,,,/,,0.00,,,,,,,,,/,,No,"5 years parts, 1 year labor (Free)",Printed,,Washington State Fair 8/30-9/22/19,Washington State Fair 8/30-9/22/19,,,120785,"Legacy 4 New black synchrony 36 mos. purchased chair 5 yrs ago and this is the 2nd chair. To be delivered on the week of October 21,2019
#68 Synchrony original verified. Credit available $7000. Remaining balance $4200. Charge synchrony account upon delivery, have sales draft signed-Per sales rep rq deliver week of Oct 21, 2019 Erika 9/9/19 10:52am.  Courtesy by Scott 9/9/19 3:30pm.  Will call in if she wants it earlier than the 21st of Oct.",WA,1,9.90
9/6/2019 5:03:34 PM,Keith Herion,WA,98092,Relax 2 Zero 3D,DWA-9060USJ-9060BL-DEMO,Demo Black,Demo,,,,,4200.00,4200.00,0.00,Anderson Carvalho,Synchrony,4200.00,,,6501723375313317,80799156,San Diego,48 months,Driver’s License,WA,10/2020,,0.00,,,,,,,,,/,,0.00,,,,,,,,,/,,No,"5 years parts, 1 year labor (Free)",Scheduled,,Washington State Fair 8/30-9/22/19,Washington State Fair 8/30-9/22/19,,,120786,"#69 Synchrony account verified. Credit available $6800. Remaining balance $4200. Charge synchrony account upon delivery, have sales draft signed-Erika 9/9/19 10:57am
9/9/2019 Left VM for scheduling @ 3:49 PM - Hideo
9/10/19 Confirmed Delivery Schedule. -Hideo",WA,1,9.90
9/6/2019 8:51:32 PM,Doug Extine,WA,98371,Legacy,DWA-9100DWA-9100BU,New Choco,New,,,,,4500.00,4500.00,0.00,Kristy Tran,Credit Card,4500.00,#MtSe,,,,,,,,/,,0.00,,,,,,,,,/,,0.00,,,,,,,,,/,,No,"5 years parts, 1 year labor (Free)",Scheduled,,Washington State Fair 8/30-9/22/19,Washington State Fair 8/30-9/22/19,,,120790,"PREVIOUS ORDER 120684 INPUT ERROR.  
Delivered Black chair but customer wanted Chocolate.  
Re-entered information. 
Sq. Deposit confirmed $4500; Please sched before 09/17 or after 09/21-Cristina 09/03/19 4:16 pm
Redelivery scheduled on 9/9/19 9am-12pm - Yoko 9/6/19",WA,1,9.90
9/6/2019 8:51:32 PM,Doug Extine,WA,98371,Tourmaline Pad for Legacy,,,New,,,,,4500.00,4500.00,0.00,Kristy Tran,Credit Card,4500.00,#MtSe,,,,,,,,/,,0.00,,,,,,,,,/,,0.00,,,,,,,,,/,,No,No Warranty,Scheduled,,Washington State Fair 8/30-9/22/19,Washington State Fair 8/30-9/22/19,,,120790,"PREVIOUS ORDER 120684 INPUT ERROR.  
Delivered Black chair but customer wanted Chocolate.  
Re-entered information. 
Sq. Deposit confirmed $4500; Please sched before 09/17 or after 09/21-Cristina 09/03/19 4:16 pm
Redelivery scheduled on 9/9/19 9am-12pm - Yoko 9/6/19",WA,1,9.90
9/6/2019 9:21:37 PM,Robert Johnson,WA,98338,PEGASUS 2 SMART,PEGS-2PEGS-2-BR,New Choco,New,,,,,5000.00,5000.00,0.00,Ruben Cuatrona,Synchrony,5000.00,,,6501723375313531,80805707,San Diego,36 months,Driver’s License,WA,01/2022,,0.00,,,,,,,,,/,,0.00,,,,,,,,,/,,No,"5 years parts, 1 year labor (Free)",Printed,,Washington State Fair 8/30-9/22/19,Washington State Fair 8/30-9/22/19,,,120791,"#71 Synchrony original verified. Credit available $6800. Remaining balance $5000. Charge synchrony account upon delivery, have sales draft signed-Erika 9/9/19 11:00am",WA,1,9.90
9/7/2019 1:33:07 PM,Clarence Ching,HI,96816,PEGASUS 2 SMART,PEGS-2PEGS-2-BL,New Black,New,,,,,6200.00,6200.00,0.00,Rodrigo Malabunga,Credit Card,6200.00,SQ#4Czj,,,,,,,,/,,0.00,,,,,,,,,/,,0.00,,,,,,,,,/,,No,"5 years parts, 3 years labor ($400)",Assigned,,Washington State Fair 8/30-9/22/19,Washington State Fair 8/30-9/22/19,,,120794,"#67
Pegasus Smart 2 New black. To be delivered on November 2,2019 (2nd chair purchased)
Original received. SQ amount verified $6200. Paid in full-Erika 9/9/19 2:10pm",HI,1,9.90
9/7/2019 1:43:53 PM,Karin Grady,WA,98372,Relax 2 Zero 3D,DWA-9060USJ-9060BR-DEMO,Demo Choco,Demo,,,,,4396.00,4396.00,0.00,Robert Shih,Synchrony,4396.00,,,6501723375314273,80828289,San Diego,36 months,Driver’s License,WA,11/2021,,0.00,,,,,,,,,/,,0.00,,,,,,,,,/,,No,"5 years parts, 1 year labor (Free)",Printed,,Washington State Fair 8/30-9/22/19,Washington State Fair 8/30-9/22/19,,,120795,"Relax 2.0 3D demo choco. Synchrony 36 mos. second floor delivery
#72 Synchrony original verified. Credit available $6500. Remaining balance $4396. Charge synchrony account upon delivery, have sales draft signed-Erika 9/9/19 11:03am
9/9/2019 3:33 Left VM for scheduling - Hideo",WA,1,9.90
9/7/2019 5:55:13 PM,Dan Winters,WA,98188,Legacy 4,LGCY-4LGCY-4CH,New Choco,New,,,,,4500.00,4500.00,0.00,Querubin Milanes,Synchrony,4500.00,,,6501723375314513,80831585,San Diego,36 months,Driver’s License,WA,12/2022,,0.00,,,,,,,,,/,,0.00,,,,,,,,,/,,No,"5 years parts, 1 year labor (Free)",Scheduled,,Washington State Fair 8/30-9/22/19,Washington State Fair 8/30-9/22/19,,,120796,"Legacy 4 new choco synchrony 36 mos
#73 Synchrony original verified. Credit available $9000. Remaining balance $4500. Charge synchrony account upon delivery, have sales draft signed-Erika 9/9/19 11;05am
9/10/19 Delivery schedule confirmed - hideo",WA,1,9.90
9/7/2019 6:07:18 PM,Aileen Anslay,WA,98520,PEGASUS 2 SMART,PEGS-2PEGS-2-BR-DEMO,Demo Choco,Demo,,,,,6000.00,6000.00,0.00,Ruben Cuatrona,Synchrony,6000.00,,,6501723375314661,80835097,San Diego,36 months,Driver’s License,WA,09/2021,,0.00,,,,,,,,,/,,0.00,,,,,,,,,/,,No,"5 years parts, 1 year labor (Free)",Printed,,Washington State Fair 8/30-9/22/19,Washington State Fair 8/30-9/22/19,,,120797,"Pegasus smart 2.0 choco demo 36 mossynchrony
#74 Synchrony account verified. Credit available $8300. Remaining balance $6000. Charge synchrony account upon delivery have sales draft signed-Erika 9/9/19 11:08am
Zip code correction 98503",WA,1,9.90
9/7/2019 7:27:34 PM,Sherry Rivera,WA,98375,Relax 2 Zero 3D,DWA-9060USJ-9060BR,New Choco,New,,,,,4500.00,4500.00,0.00,Neneth Finley,Synchrony,4500.00,,,6501723375314711,80836148,San Diego,48 months,Driver’s License,WA,12/2024,,0.00,,,,,,,,,/,,0.00,,,,,,,,,/,,No,"5 years parts, 1 year labor (Free)",Printed,,Washington State Fair 8/30-9/22/19,Washington State Fair 8/30-9/22/19,,,120799,"Relax 3D choco new synchrony 48 mos
#75 Synchrony original verified. Credit available $6500. Remaining balance $4500. Charge synchrony account upon delivery, have sales draft signed-Erika 9/9/19",WA,1,9.90
9/7/2019 7:42:09 PM,Brooklee Jensen,WA,98541,Relax 2 Zero 3D,DWA-9060USJ-9060BL-DEMO,Demo Black,Demo,,,,,4396.00,4396.00,0.00,Robert Shih,Synchrony,4396.00,,,6501723375314976,80840795,San Diego,36 months,Driver’s License,WA,10/2023,,0.00,,,,,,,,,/,,0.00,,,,,,,,,/,,No,"5 years parts, 1 year labor (Free)",Scheduled,,Washington State Fair 8/30-9/22/19,Washington State Fair 8/30-9/22/19,,,120800,"Relax 3D black demo synchrony 36 mos. prefers Friday delivery 
#76 Synchrony original verified. Credit available $7000. Remaining balance $4396. Charge synchrony account upon delivery, have sales draft signed-Erika 9/9/19 11:15am
Scheduled 9/14/19 9am-11am -yoko 9/10/19
Authorization Code 010784 - Yoko 9/10/19",WA,1,9.90
9/7/2019 7:55:36 PM,Robin Suther,FL,98375,Legacy 4,LGCY-4LGCY-4CH,New Choco,New,,,,,4500.00,4500.00,0.00,Robert Shih,Synchrony,4500.00,,,6501723375315536,80851142,San Diego,36 months,Driver’s License,WA,04/2024,,0.00,,,,,,,,,/,,0.00,,,,,,,,,/,,No,"5 years parts, 1 year labor (Free)",Scheduled,,Washington State Fair 8/30-9/22/19,Washington State Fair 8/30-9/22/19,,,120801,"#81
16411 87th ave e
Puyallup, WA 98375
Synchrony original verified. Credit available $9000. Remaining balance $4500. Charge synchrony account upon delivery, have sales draft signed-Erika 9/9/19 11:32am
9/10/19 Confirmed delivery schedule - Hideo",WA,1,9.90
9/7/2019 8:03:37 PM,Cean Martin,WA,98058,Legacy 4,LGCY-4LGCY-4BL,New Black,New,,,,,4900.00,4900.00,0.00,Scott Ishikawa,Credit Card,100.00,SQ#G0j4,,,,,,,,/,Synchrony,2400.00,,,6501723375315072,80841591,San Diego,36 months,Driver’s License,WA,09/2028,COD,2400.00,,,,,,,,,/,,No,"5 years parts, 1 year labor (Free)",Printed,,Washington State Fair 8/30-9/22/19,Washington State Fair 8/30-9/22/19,,,120802,"#17
Hold for now and wait for the customer’s call. 

Original received, $100 deposit verified. Remaining balance $2400. Collect COD (2400) @ delivery. Synchrony original verified. Credit available $2400. . Charge synchrony (2400) account upon delivery, have sales draft signed. Per sales rep rq, pls place it on hold.-Erika 9/9/19",WA,1,9.90
9/7/2019 8:19:22 PM,Tameka Probst,WA,98433,Relax 2 Zero 3D,DWA-9060USJ-9060BL-DEMO,Demo Black,Demo,,,,,3800.00,3800.00,0.00,Neneth Finley,Synchrony,2400.00,,,6501723375315080,80842244,San Diego,36 months,Driver’s License,TX,09/2022,Synchrony,1400.00,,,6501723375315247,80843242,San Diego,36 months,Military ID,WA,04/2022,,0.00,,,,,,,,,/,,No,"5 years parts, 1 year labor (Free)",Printed,,Washington State Fair 8/30-9/22/19,Washington State Fair 8/30-9/22/19,,,120803,"Relax 3D black demo synchrony 36 mos. 1st synchrony approved for 2400 and second for 1400 total of 3800
#78 Synchrony original verified. Credit available $2400 for account #5080. Charge synchrony account  (2400) upon delivery, have sales draft signed. Credit available $2200 for account #5247. Charge synchrony account (1400) upon delivery, have sales draft signed-Erika 9/9/19 11:24am",WA,1,9.90
9/7/2019 8:32:05 PM,Christopher Rubin,WA,98597,Legacy 4,LGCY-4LGCY-4CH,New Choco,New,,,,,4000.00,4000.00,0.00,Joy Anne Torres,Credit Card,4000.00,SQ#4axy,,,,,,,,/,,0.00,,,,,,,,,/,,0.00,,,,,,,,,/,,No,"5 years parts, 1 year labor (Free)",Printed,,Washington State Fair 8/30-9/22/19,Washington State Fair 8/30-9/22/19,,,120804,"Legacy 4 New choco
#79 Original received. SQ amount verified $4000. Paid in full-Erika 9/9/19 11:30am",WA,1,9.90
9/8/2019 9:36:08 AM,Renato Jr Santonil,WA,98003,Legacy 4,LGCY-4LGCY-4BL,New Black,New,,,,,4600.00,4600.00,0.00,Querubin Milanes,Synchrony,4600.00,,,6501723375315585,80851404,San Diego,48 months,Driver’s License,WA,08/2020,,0.00,,,,,,,,,/,,0.00,,,,,,,,,/,,No,"5 years parts, 2 years labor ($200)",Scheduled,,Washington State Fair 8/30-9/22/19,Washington State Fair 8/30-9/22/19,,,120817,"#82
Synchrony original verified. Credit available $6500. Remaining balance $4600. Charge synchrony account upon delivery, have sales draft signed-Erika 9/9/19 11:38am
9/10/19 Confirmed delivery schedule. - Hideo",WA,1,9.90
9/8/2019 9:44:38 AM,Serawn Archer,WA,98374,Hubble,HUBL-1HUBL-1BL,New Black,New,,,,,5500.00,5500.00,0.00,Querubin Milanes,Credit Card,5500.00,SQ#lPJD,,,,,,,,/,,0.00,,,,,,,,,/,,0.00,,,,,,,,,/,,No,"5 years parts, 1 year labor (Free)",Scheduled,,Washington State Fair 8/30-9/22/19,Washington State Fair 8/30-9/22/19,,,120818,"#84 Original received. SQ amount verified $5500. Paid in full-Erika 9/9/19 11:42am
9/10/19 delivery schedule confirmed - Hideo",WA,1,9.90
9/8/2019 9:57:17 AM,Lanelle Bentz,WA,98036,Legacy 4,LGCY-4LGCY-4BL-DEMO,Demo Black,Demo,,,,,4000.00,4000.00,0.00,Robert Shih,Synchrony,0.00,,,6501723375315726,80856009,San Diego,36 months,Driver’s License,WA,05/2021,COD,4000.00,,,,,,,,,/,,0.00,,,,,,,,,/,,No,"5 years parts, 1 year labor (Free)",Scheduled,,Washington State Fair 8/30-9/22/19,Washington State Fair 8/30-9/22/19,,,120820,"#85 Legacy 4 black demo second floor delivery
 Synchrony account verified.Credit available $10,800. Remaining balance $4000. Charge synchrony account upon delivery, have sales draft signed-Erika 9/9/19 11:45am
9/10/19 5:00 PM - Wants to pay in full with credit card for order # (120820), synchrony for order # (120822). Confirmed delivery schedule - Hideo
Confirmed a Purchase (Auth#010020) and a Refund transaction on Synchrony-Houston account, checked the customer's credit limit however the amount hasn't been recovered yet: available credit is still $2,800. -Riho 9/11/19",WA,1,9.90
9/8/2019 10:15:37 AM,Larry Lichty,WA,98030,Legacy 4,LGCY-4LGCY-4BL-DEMO,Demo Black,Demo,,,,,4000.00,4000.00,0.00,Robert Shih,Synchrony,4000.00,,,6501723375315726,80856009,San Diego,36 months,Driver’s License,WA,05/2021,,0.00,,,,,,,,,/,,0.00,,,,,,,,,/,,No,"5 years parts, 1 year labor (Free)",Scheduled,,Washington State Fair 8/30-9/22/19,Washington State Fair 8/30-9/22/19,,,120822,"Legacy 4 black demo delivery on the second floor
#86 Synchrony original verified. Credit available $10,800. Remaining balance $4000. Charge synchrony account upon delivery, have sales draft signed-Erika 9/9/19 11:50am
9/10/19 Confirmed delivery schedule. - Hideo
Confirmed a Purchase (Auth#010284) and a Refund transaction on Synchrony-San Diego, checked the customer's credit limit however the amount hasn't been recovered yet: available credit is still $2,800. -Riho 9/11/19",WA,1,9.90
9/8/2019 10:23:28 AM,Susan Mitchell Matson,WA,98443,Legacy 4,LGCY-4LGCY-4CH,New Choco,New,,,,,4700.00,4700.00,0.00,Anderson Carvalho,Check,4700.00,,,,,,,,,/,,0.00,,,,,,,,,/,,0.00,,,,,,,,,/,,No,"5 years parts, 1 year labor (Free)",New,,Washington State Fair 8/30-9/22/19,Washington State Fair 8/30-9/22/19,,,120823,"#80
Check no.1086 Bank of America in the amount of $4700.
 1 extra cloth chair pad
Original received. Check will be deposit tomorrow 9/10/19 by Sales rep Ruben C. will be waiting for paycheck to deposit and be cleared-Erika 9/9/19 before dispatching.",Not Dispatched,1,9.90
9/8/2019 6:36:03 PM,Thomas Clifton,WA,98374,Legacy 4,LGCY-4LGCY-4BL-DEMO,Demo Black,Demo,,,,,4000.00,4000.00,0.00,Winston Melgar,Synchrony,4000.00,,,6501723375317102,80887188,San Diego,36 months,Driver’s License,WA,05/2022,,0.00,,,,,,,,,/,,0.00,,,,,,,,,/,,No,"5 years parts, 1 year labor (Free)",Scheduled,,Washington State Fair 8/30-9/22/19,Washington State Fair 8/30-9/22/19,,,120832,"#88 Synchrony original verified. Credit available $4000. remaining balance $4000. Charge synchrony account upon delivery, have sales draft signed-erika 9/9/19 11:51am
9/10/19 Confirmed delivery schedule. - Hideo",WA,1,9.90
9/8/2019 6:42:56 PM,Sarah Daggett,WA,98387,Legacy 4,LGCY-4LGCY-4CH-DEMO,Demo Choco,Demo,,,,,3800.00,3800.00,0.00,Neneth Finley,Synchrony,3800.00,,,6501723375317318,80890596,San Diego,48 months,Driver’s License,WA,05/2024,,0.00,,,,,,,,,/,,0.00,,,,,,,,,/,,No,"5 years parts, 1 year labor (Free)",Printed,,Washington State Fair 8/30-9/22/19,Washington State Fair 8/30-9/22/19,,,120833,"#89
Synchrony account verified. Credit available $7000. Remaining balance $3800. Charge synchrony account upon delivery, have sales draft signed-Erika 9/9/19 11:53am",WA,1,9.90
9/8/2019 6:48:14 PM,Judy Laudon,WA,98178,PEGASUS 2 SMART,PEGS-2PEGS-2-BR-DEMO,Demo Choco,Demo,,,,,5400.00,5400.00,0.00,Rolly San Jose,Synchrony,5400.00,,,6501723375317359,80891367,San Diego,48 months,Driver’s License,WA,04/2021,,0.00,,,,,,,,,/,,0.00,,,,,,,,,/,,No,"5 years parts, 1 year labor (Free)",Printed,,Washington State Fair 8/30-9/22/19,Washington State Fair 8/30-9/22/19,,,120834,"#90
Synchrony account verified. Credit available $9000. Remaining balance $5400. Charge synchrony account upon delivery, have sales draft signed-Erika 9/9/19 11:55am",WA,1,9.90
9/8/2019 6:59:45 PM,Patti Acero,WA,98284,Legacy 4,LGCY-4LGCY-4BL,New Black,New,,,,,3800.00,3800.00,0.00,Scott Ishikawa,Cash,20.00,,,,,,,,,/,COD,3780.00,,,,,,,,,/,,0.00,,,,,,,,,/,,No,"5 years parts, 1 year labor (Free)",Printed,,Washington State Fair 8/30-9/22/19,Washington State Fair 8/30-9/22/19,,,120837,"#83
Hold order. Customer will ask the brother to come to the office to try and if it will be ok with him then they will pay the remaining balance. Original received. $20 deposit verified & signed by Scott. Remaining balance $3780. Collect COD @ delivery, per sales rep rq place on hold. Customer will inform us.-Erika 9/9/19 11:40am",WA,1,9.90
9/9/2019 11:13:36 AM,Krissy Ortega,WA,98366,Relax 2 Zero 3D,DWA-9060USJ-9060BR-DEMO,Demo Choco,Demo,,,,,3700.00,3700.00,0.00,Neneth Finley,Credit Card,3700.00,#n4K4,,,,,,,,/,,0.00,,,,,,,,,/,,0.00,,,,,,,,,/,,No,"5 years parts, 1 year labor (Free)",Printed,,Washington State Fair 8/30-9/22/19,Washington State Fair 8/30-9/22/19,,,120869,"#70
Sq amount verified $3,700-Cristina 09/09/19 11:15 am",WA,1,9.90
9/9/2019 2:50:51 PM,Liz Young,WA,98367,PEGASUS 2 SMART,PEGS-2PEGS-2-BR,New Choco,New,,,,,6200.00,6200.00,0.00,Querubin Milanes,Synchrony,6200.00,,,6501172337538092,80924326,San Diego,48 months,Driver’s License,WA,02/2024,,0.00,,,,,,,,,/,,0.00,,,,,,,,,/,,No,"5 years parts, 1 year labor (Free)",Scheduled,,Washington State Fair 8/30-9/22/19,Washington State Fair 8/30-9/22/19,,,120879,"Pegasus smart 2.0 new choco. Please deliver with vitality plate.
#91 Synchrony original verified(app key). Credit available $6900. Remaining balance $6200. Charge synchrony account upon delivery, have sales draft signed-Erika 9/10/19 8:50am
CC completed-Erika 9/10/19 11:06am
9/11/19 Confirmed delivery schedule. - Donald",WA,1,9.90
9/9/2019 4:19:15 PM,Gary Allen,WA,98327,Hubble,HUBL-1HUBL-1BL-DEMO,Demo Black,Demo,,,,,5400.00,5400.00,0.00,Querubin Milanes,Synchrony,5400.00,,,6501723375318423,80934740,San Diego,48 months,Driver’s License,WA,06/2020,,0.00,,,,,,,,,/,,0.00,,,,,,,,,/,,No,"5 years parts, 1 year labor (Free)",Printed,,Washington State Fair 8/30-9/22/19,Washington State Fair 8/30-9/22/19,,,120885,"Hubble demo black . Free second floor delivery
#92 Synchrony account verified. Credit available $6500. Remaining balance $5400. Charge synchrony account upon delivery, have sales draft signed-Erika 9/10/19 8:50am
courtesy call completed-Erika 9/10/19 11:30am",WA,1,9.90
9/9/2019 7:56:28 PM,Terry Mc Lean,WA,98391,Relax 2 Zero 3D,DWA-9060USJ-9060BR-DEMO,Demo Choco,Demo,,,,,4200.00,4200.00,0.00,Neneth Finley,Synchrony,4200.00,,,,80942671,San Diego,36 months,Driver’s License,WA,08/2021,,0.00,,,,,,,,,/,,0.00,,,,,,,,,/,,No,"5 years parts, 1 year labor (Free)",New,,Washington State Fair 8/30-9/22/19,Washington State Fair 8/30-9/22/19,,,120889,"Relax 3D brown demo. Account number to be called by the customer when the card arrives.
Couldn't find the customer's application/account on Synchrony business center. 9/11/19 Riho",Not Dispatched,1,9.90
