﻿Original Event Name,Event Name,Sales Person,Order Number,Order Date,Customer Name,State,Zip,Product Name,Color,Product Status,QTY,Tax,Total Before Tax,Order Total,Primary Payment Method,Second Payment Method,Thirdl Payment Method,Warranty,Order Items,Pick up,Delivered On,Order Status,Chair Type,Order Notes,Private Note,Branch,No Tax,Actual Tax Rate,SKU,Primary Payment Balance,Primary Authorize Number,Primary Purchase Order Number,Primary Synchrony Account Number,Primary Synchrony Application Key,Primary Synchrony Account Info,Primary Synchrony Term,Primary Synchrony Primary ID,Primary Synchrony Issued State,Primary Synchrony Expiretion Date,Second Payment Balance,Second Authorize Number,Second Purchase Order Number,Second Synchrony Account Number,Second Synchrony Application Key,Second Synchrony Account Info,Second SynchronyTerm,Second Synchrony Primary ID,Second Synchrony Issued State,Second Synchrony Expiretion Date,Third Payment Balance,Third Authorize Number,Third Purchase Order Number,Third Synchrony Account Number,Third Synchrony Application Key,Third Synchrony Account Info,Third Synchrony Term,Third Synchrony Primary ID,Third Synchrony Issued State,Third Synchrony Expiretion Date,First Name,Last Name,Email,Shipping Company,Shipping Address1,Shipping Address2,Shipping Suite,Shipping City,Shipping State,Shipping Zip,Shipping Country,Shipping Phone
"Sam's Club #6461 Grand Island, NE","Sam's Club #6461 Grand Island, NE",Scott Tatum,118289,6/24/2019 5:07:23 PM,Paul & Connie Johnson,NE,68855,Legacy for Sam's,Demo Choco[-700],Demo,1,251.93,3599.00,3850.93,Purchase Order,,,"3 years parts, 1 year labor (Free)","Legacy for Sam's,",No,,Cancelled,,,"Pls disregard this order. Resubmitted, new order # is 118297",Not Dispatched,0,7.00,DWA-9100DWA-9100CH-DEMO,0.00,,2729018339857893138122,,,,,,,/,0.00,,,,,,,,,/,0.00,,,,,,,,,/,Paul & Connie,Johnson,pcbtsj@gmail.com,,45169 Cumro Rd,,,Mason City,NE,68855,United States,308-732-3357
"Sam's Club #6461 Grand Island, NE","Sam's Club #6461 Grand Island, NE",Scott Tatum,118297,6/25/2019 9:16:02 AM,Paul & Connie Johnson,NE,68855,Legacy for Sam's,Demo(Box) Choco[-700],Demo,1,0.00,3599.00,3599.00,Purchase Order,,,"3 years parts, 1 year labor (Free)","Legacy for Sam's,",No,,Scheduled,,,"Original received, Erika 6/25/19 9:16am
Courtesy call completed. Erika 6/25/19 12:31pm
Per Junes request will dispatch to TX.--Erika 6/26/19 2:22pm
Printed-Tina 6/27/2019
7/1/2019 - Alysa - Customer confirmed delivery Fri. 7/5 between 5-8PM.",TX,1,7.00,DWA-9100DWA-9100CH-Box,0.00,,TC#2729018339857893138122,,,,,,,/,0.00,,,,,,,,,/,0.00,,,,,,,,,/,Paul & Connie,Johnson,pcbtsj@gmail.com,,45169 Cumro Rd.,,,Mason City,NE,68855,United States,308-732-3357
"Sam's Club #6461 Grand Island, NE","Sam's Club #6461 Grand Island, NE",Scott Tatum,118303,6/25/2019 4:10:37 PM,Alan Witte,NE,68901,Ninja Leg Massager 2,New,New,1,21.00,299.98,320.98,Purchase Order,,,"2 years parts, 1 year labor for Small Items","Ninja Leg Massager 2,",YES,,Delivered,,,,CA,0,7.00,USJ-880,0.00,,145184091436483552591,,,,,,,/,0.00,,,,,,,,,/,0.00,,,,,,,,,/,Alan,Witte,defaultmail@daiwamassage.com,,1719 W 2nd Street,,,Hastings,NE,68901,United States,402-463-0057
"Sam's Club #6461 Grand Island, NE","Sam's Club #6461 Grand Island, NE",Scott Tatum,118318,6/26/2019 5:02:16 PM,James Kusek,NE,68871,Legacy for Sam's,Demo(Box) Choco[-700],Demo,1,251.93,3599.00,3850.93,Purchase Order,,,"3 years parts, 1 year labor (Free)","Legacy for Sam's,",No,,New,,,"Original received. Erika 6/27/19 9:22am
Printed - Tina 6/27/2019
Courtesy message sent 6/27/2019 - Tina
7/1/2019 - Alysa - Customer confirmed delivery Fri. 7/5 between 3-6PM.",TX,0,7.00,DWA-9100DWA-9100CH-Box,0.00,,6278157815775759096054,,,,,,,/,0.00,,,,,,,,,/,0.00,,,,,,,,,/,James,Kusek,sherri.kusek@yahoo.com,,78276 Rockville Ave,,,Rockville,NE,68871,United States,308-440-0653
"Sam's Club #6461 Grand Island, NE","Sam's Club #6461 Grand Island, NE",Scott Tatum,118380,6/29/2019 6:14:22 PM,Ludwin Xicora,NE,68801,Ninja Leg Massager 2,Demo[-20.00],Demo,1,19.60,279.98,299.58,Purchase Order,,,"2 years parts, 1 year labor for Small Items","Ninja Leg Massager 2,",YES,,Delivered,,,,IL,0,7.00,USJ-880-Demo,0.00,,793685108523510478408,,,,,,,/,0.00,,,,,,,,,/,0.00,,,,,,,,,/,Ludwin,Xicora,solucionesgt10@gmail.com,,1005 St. Paul Rd,,,Grand Island,NE,68801,United States,308-850-5517
"Sam's Club #6461 Grand Island, NE","Sam's Club #6461 Grand Island, NE",Scott Tatum,118382,6/29/2019 6:24:44 PM,Andrew Allvin,NE,68847,Orbit for Sam's ,New Choco,New,1,209.86,2998.00,3207.86,Sam’s Club Synchrony,,,"3 years parts, 1 year labor (Free)","Orbit for Sam's ,",No,,New,,,"Original received. Erika 7/1/19 11:57am
7/1/2019 - Alysa - Customer confirmed delivery Fri. 7/5 between 12-4PM.",TX,0,7.00,ORBT-1ORBT-1CH,0.00,,,,,,,,,/,0.00,,,,,,,,,/,0.00,,,,,,,,,/,Andrew,Allvin,andrewallvin05@gmail.com,,1911 8th Ave,,,Kearney,NE,68847,United States,308-224-6831
