﻿Original Event Name,Event Name,Sales Person,Order Number,Order Date,Customer Name,State,Zip,Product Name,Color,Product Status,QTY,Tax,Total Before Tax,Order Total,Primary Payment Method,Second Payment Method,Thirdl Payment Method,Warranty,Order Items,Pick up,Delivered On,Order Status,Chair Type,Order Notes,Private Note,Branch,No Tax,Actual Tax Rate,SKU,Primary Payment Balance,Primary Authorize Number,Primary Purchase Order Number,Primary Synchrony Account Number,Primary Synchrony Application Key,Primary Synchrony Account Info,Primary Synchrony Term,Second Payment Balance,Second Authorize Number,Second Purchase Order Number,Second Synchrony Account Number,Second Synchrony Application Key,Second Synchrony Account Info,Second SynchronyTerm,Third Payment Balance,Third Authorize Number,Third Purchase Order Number,Third Synchrony Account Number,Third Synchrony Application Key,Third Synchrony Account Info,Third Synchrony Term
"Sam's Club #8257 Hendersonville, TN 9/20-30/18 (FL)","Sam's Club #8257 Hendersonville, TN 9/20-30/18 (FL)",Hunt Zhang,109735,9/23/2018 6:43:46 PM,Dana Evons,TN,37075,Foot Vibe Pro,,New,1,10.17,109.99,120.16,CreditCard,,,"2 years parts, 1 year labor (Free)","Foot Vibe Pro,",YES,,Delivered,,,,FL,0,9.25,USJ-871,120.16,239202991044789525840,,,,,,0.00,,,,,,,0.00,,,,,,
"Sam's Club #8257 Hendersonville, TN 9/20-30/18 (FL)","Sam's Club #8257 Hendersonville, TN 9/20-30/18 (FL)",Hunt Zhang,109736,9/23/2018 6:48:59 PM,Nina Ridley,TN,37075,Shogun Neck & Back Massger,New,New,1,18.50,199.98,218.48,CreditCard,,,"2 years parts, 1 year labor (Free)","Shogun Neck &amp; Back Massger,",YES,,Delivered,,,,FL,0,9.25,USJ-874USJ-874,218.48,413066435487599101994,,,,,,0.00,,,,,,,0.00,,,,,,
"Sam's Club #8257 Hendersonville, TN 9/20-30/18 (FL)","Sam's Club #8257 Hendersonville, TN 9/20-30/18 (FL)",Hunt Zhang,109737,9/23/2018 7:08:12 PM,Chun Min Chen,TN,37075,Relax 2 Zero 2.0 for Sam's,Demo (Box) Black[-701],Demo,1,295.91,3199.00,3494.91,CreditCard,,,"3 years parts, 1 year labor (Free)","Relax 2 Zero 2.0 for Sam's,",No,,Cancelled,,,assigned to FL 9/24/18 Hitomi,FL,0,9.25,USJ-9050USJ-9050BL-DEMO (Box),3494.91,2070376231407596176904,,,,,,0.00,,,,,,,0.00,,,,,,
"Sam's Club #8257 Hendersonville, TN 9/20-30/18 (FL)","Sam's Club #8257 Hendersonville, TN 9/20-30/18 (FL)",Hunt Zhang,109738,9/23/2018 7:13:40 PM,Stephen Klauswon,TN,37073,Foot Vibe Pro,,New,1,10.17,109.99,120.16,CreditCard,,,"2 years parts, 1 year labor (Free)","Foot Vibe Pro,",YES,,Delivered,,,,FL,0,9.25,USJ-871,120.16,159431981320648711403,,,,,,0.00,,,,,,,0.00,,,,,,
"Sam's Club #8257 Hendersonville, TN 9/20-30/18 (FL)","Sam's Club #8257 Hendersonville, TN 9/20-30/18 (FL)",Hunt Zhang,109739,9/23/2018 7:22:19 PM,Nancy Stinson,TN,37188,Orbit for Sam's ,Demo Choco(Box)[-300],Demo,1,249.57,2698.00,2947.57,CreditCard,,,"3 years parts, 1 year labor (Free)","Orbit for Sam's ,",No,,Cancelled,,Thank you Nancy. It's our pleasure to have you as our distinguished customer. Please take good care of the chair and yourself.,"CC Josefina - 9/25/18 12:23pm
assigned to FL 9/24/18 Hitomi",FL,0,9.25,ORBT-1ORBT-1CH-BOX,2947.57,3224991189320646773463,,,,,,0.00,,,,,,,0.00,,,,,,
"Sam's Club #8257 Hendersonville, TN 9/20-30/18 (FL)","Sam's Club #8257 Hendersonville, TN 9/20-30/18 (FL)",Hunt Zhang,109886,9/26/2018 10:32:57 PM,Kiren Patel,TN,37138,Relax 2 Zero 2.0 for Sam's,New Brown,New,1,360.75,3900.00,4260.75,CreditCard,,,"3 years parts, 1 year labor (Free)","Relax 2 Zero 2.0 for Sam's,",No,,Cancelled,,,"Cancelled 
CC Josefina - 9/27/18 3:25pm
I gave them Vitality Plate, shogun and foot vibe for free. That's right all of them. I can't believe it either//assigned to FL-  9/27/18 Hitomi",FL,0,9.25,USJ-9050USJ-9050BR,4260.75,4848507603899132212398,,,,,,0.00,,,,,,,0.00,,,,,,
"Sam's Club #8257 Hendersonville, TN 9/20-30/18 (FL)","Sam's Club #8257 Hendersonville, TN 9/20-30/18 (FL)",Hunt Zhang,109887,9/26/2018 10:39:47 PM,Zhuo Yen Xie,TN,37075,Relax 2 Zero 2.0 for Sam's,Demo (Box) Black[-701],Demo,1,0.00,3199.00,3199.00,CreditCard,,,"3 years parts, 1 year labor (Free)","Relax 2 Zero 2.0 for Sam's,",No,10/27/2018 12:00:00 AM,Delivered,,,"Customer will leave town Oct. 15
assigned to FL-  9/27/18 Hitomi",FL,1,9.25,USJ-9050USJ-9050BL-DEMO (Box),3199.00,2680776239488598181974,,,,,,0.00,,,,,,,0.00,,,,,,
"Sam's Club #8257 Hendersonville, TN 9/20-30/18 (FL)","Sam's Club #8257 Hendersonville, TN 9/20-30/18 (FL)",Hunt Zhang,109905,9/27/2018 8:10:28 PM,Ken Cross,TN,37073,Foot Vibe Pro,,New,1,0.00,109.99,109.99,CreditCard,,,"2 years parts, 1 year labor (Free)","Foot Vibe Pro,",YES,,Delivered,,,,FL,1,9.25,USJ-871,120.16,503695827903204658039,,,,,,0.00,,,,,,,0.00,,,,,,
"Sam's Club #8257 Hendersonville, TN 9/20-30/18 (FL)","Sam's Club #8257 Hendersonville, TN 9/20-30/18 (FL)",Hunt Zhang,109906,9/27/2018 8:13:58 PM,Ken Cross,TN,37073,Foot Vibe Pro,,New,1,10.17,109.99,120.16,CreditCard,,,"2 years parts, 1 year labor (Free)","Foot Vibe Pro,",YES,,Delivered,,,,FL,0,9.25,USJ-871,120.16,503695827903204658039,,,,,,0.00,,,,,,,0.00,,,,,,
"Sam's Club #8257 Hendersonville, TN 9/20-30/18 (FL)","Sam's Club #8257 Hendersonville, TN 9/20-30/18 (FL)",Hunt Zhang,109907,9/27/2018 8:20:18 PM,Lisa Walls,TN,37049,Relax 2 Zero 2.0 for Sam's,New Black,New,1,360.75,3900.00,4260.75,CreditCard,,,"3 years parts, 1 year labor (Free)","Relax 2 Zero 2.0 for Sam's,",No,10/11/2018 12:00:00 AM,Delivered,,,"CC Josefina - 9/28/18 1:40pm

assign to FL. 9/28/18 Hitomi",FL,0,9.25,USJ-9050USJ-9050BL,4260.75,3062492578074785571840,,,,,,0.00,,,,,,,0.00,,,,,,
"Sam's Club #8257 Hendersonville, TN 9/20-30/18 (FL)","Sam's Club #8257 Hendersonville, TN 9/20-30/18 (FL)",Hunt Zhang,109960,9/30/2018 5:55:38 PM,Bridie Sellers,TN,37075,Foot Vibe Pro,,New,1,28.67,309.97,338.64,CreditCard,,,"2 years parts, 1 year labor (Free)","Foot Vibe Pro,Shogun Neck &amp; Back Massger,",YES,,Delivered,,,,FL,0,9.25,USJ-871,338.64,404948735689352010556,,,,,,0.00,,,,,,,0.00,,,,,,
"Sam's Club #8257 Hendersonville, TN 9/20-30/18 (FL)","Sam's Club #8257 Hendersonville, TN 9/20-30/18 (FL)",Hunt Zhang,109960,9/30/2018 5:55:38 PM,Bridie Sellers,TN,37075,Shogun Neck & Back Massger,New,New,1,28.67,309.97,338.64,CreditCard,,,"2 years parts, 1 year labor (Free)","Foot Vibe Pro,Shogun Neck &amp; Back Massger,",YES,,Delivered,,,,FL,0,9.25,USJ-874USJ-874,338.64,404948735689352010556,,,,,,0.00,,,,,,,0.00,,,,,,
"Sam's Club #8257 Hendersonville, TN 9/20-30/18 (FL)","Sam's Club #8257 Hendersonville, TN 9/20-30/18 (FL)",Hunt Zhang,109961,9/30/2018 6:01:29 PM,Vincent Reymann Jr.,TN,37022,Legacy for Sam's,Demo(Box) Choco[-700],Demo,1,332.91,3599.00,3931.91,CreditCard,,,"3 years parts, 1 year labor (Free)","Legacy for Sam's,Daiwa Blanket,",No,10/11/2018 12:00:00 AM,Delivered,,,"CC Josefina - 10/2/18 4:38pm

assign to FL branch 10/1/18 Hitomi",FL,0,9.25,DWA-9100DWA-9100CH-Box,3931.91,2740226259488596174964,,,,,,0.00,,,,,,,0.00,,,,,,
"Sam's Club #8257 Hendersonville, TN 9/20-30/18 (FL)","Sam's Club #8257 Hendersonville, TN 9/20-30/18 (FL)",Hunt Zhang,109962,9/30/2018 6:07:35 PM,Dennis Lundy,DE,19805,Foot Vibe Pro,,New,1,306.08,3308.99,3615.07,CreditCard,,,"2 years parts, 1 year labor (Free)","Foot Vibe Pro,Relax 2 Zero 2.0 for Sam's,Daiwa Blanket,",No,10/21/2018 12:00:00 AM,Delivered,,,"Confirmed with Hunt that Foot Vibe Pro was gift and Foot Vibe Pro needs to be delivered. 10/1/18 Hitomi
10/4Maritza Courtesy message sent @ 9:18AM
773548001661  Fedex tracking number",TX,0,9.25,USJ-871,3494.91,0141284097276974381712,,,,,,0.00,,,,,,,0.00,,,,,,
"Sam's Club #8257 Hendersonville, TN 9/20-30/18 (FL)","Sam's Club #8257 Hendersonville, TN 9/20-30/18 (FL)",Hunt Zhang,109962,9/30/2018 6:07:35 PM,Dennis Lundy,DE,19805,Relax 2 Zero 2.0 for Sam's,Demo (Box) Black[-701],Demo,1,306.08,3308.99,3615.07,CreditCard,,,"3 years parts, 1 year labor (Free)","Foot Vibe Pro,Relax 2 Zero 2.0 for Sam's,Daiwa Blanket,",No,10/21/2018 12:00:00 AM,Delivered,,,"Confirmed with Hunt that Foot Vibe Pro was gift and Foot Vibe Pro needs to be delivered. 10/1/18 Hitomi
10/4Maritza Courtesy message sent @ 9:18AM
773548001661  Fedex tracking number",TX,0,9.25,USJ-9050USJ-9050BL-DEMO (Box),3494.91,0141284097276974381712,,,,,,0.00,,,,,,,0.00,,,,,,
"Sam's Club #8257 Hendersonville, TN 9/20-30/18 (FL)","Sam's Club #8257 Hendersonville, TN 9/20-30/18 (FL)",Hunt Zhang,109963,9/30/2018 6:14:29 PM,Young Lee,TN,37072,Shogun Neck & Back Massger,New,New,1,351.41,3798.98,4150.39,CreditCard,,,"2 years parts, 1 year labor (Free)","Shogun Neck &amp; Back Massger,Legacy for Sam's,",No,10/23/2018 12:00:00 AM,Delivered,,,"CC Josefina - 10/2/18 4:30pm TXT

People gave out free things cuz they are desperate for sales. Like me//assign to FL branch . Confirmed with Hunt that Shogun was gift and needs to be delivered. 10/1/18 Hitomi
10/31Maritza Received delivery confirm.",FL,0,9.25,USJ-874USJ-874,3931.91,8327889803715019436197,,,,,,0.00,,,,,,,0.00,,,,,,
"Sam's Club #8257 Hendersonville, TN 9/20-30/18 (FL)","Sam's Club #8257 Hendersonville, TN 9/20-30/18 (FL)",Hunt Zhang,109963,9/30/2018 6:14:29 PM,Young Lee,TN,37072,Legacy for Sam's,Demo(Box) Choco[-700],Demo,1,351.41,3798.98,4150.39,CreditCard,,,"3 years parts, 1 year labor (Free)","Shogun Neck &amp; Back Massger,Legacy for Sam's,",No,10/23/2018 12:00:00 AM,Delivered,,,"CC Josefina - 10/2/18 4:30pm TXT

People gave out free things cuz they are desperate for sales. Like me//assign to FL branch . Confirmed with Hunt that Shogun was gift and needs to be delivered. 10/1/18 Hitomi
10/31Maritza Received delivery confirm.",FL,0,9.25,DWA-9100DWA-9100CH-Box,3931.91,8327889803715019436197,,,,,,0.00,,,,,,,0.00,,,,,,
