﻿Date,CustomerName,State,Zipcode,Description,productNo,Color,IsDemo,Net,ShippingFee,GiftPrice,FinancingProcessingFee,Gross,Pre_tax,Tax,Commission,Primary Payment Method,Primary Payment Balance,Primary Authorize Number,Primary Purchase Order Number,Primary Synchrony Account Number,Primary Synchrony Application Key,Primary Synchrony AccountInfo,Primary SynchronyTerm,Secondly Payment Method,Secondly Payment Balance,Secondly Authorize Number,Secondly Purchase Order Number,Secondly Synchrony Account Number,Secondly Synchrony Application Key,Secondly Synchrony AccountInfo,Secondly SynchronyTerm,Thirdly Payment Method,Thirdly Payment Balance,Thirdly Authorize Number,Thirdly Purchase Order Number,Thirdly Synchrony Account Number,Thirdly Synchrony Application Key,Thirdly Synchrony AccountInfo,Thirdly SynchronyTerm,DeliveryDate,Ispickup,Warranty,Status,Event Name,Synchrony Notes,Order Notes,Order number,Private Note,Branch,IsNoTax,ActualTaxRate
4/30/2018 9:08:50 AM,Fung Lee,TX,75081,Solace,SOL-1,,New,,,,,4159.88,3900.00,259.88,Robert Shih,Synchrony,4159.88,,,6034610083243553,88212723,Las Vegas,36 months,,0.00,,,,,,,,0.00,,,,,,,,No,"3 years parts, 1 year labor (Free)",Scheduled,MITSUWA RACK SA 4/27-5/6/18 (TX),,Thank you very much for your business with us in Mitsuwa Plano TX / Synchrony 36 months 0% APR / Please deliver ASAP,105649,"Please ship Black color//Confirmed synchrony form and the account ($5,500.00 )***Please charge before delivery.***4/30/18 Hitomi
Customer called sales, customer wants to exchange chair to legacy 3D black. 5/7/2.18 June",TX,0,8.25
4/30/2018 9:16:30 AM,Han Lee,TX,75033,Legacy 3D,DWA-9150USJ-9150BL-DEMO,Demo Black,Demo,,,,,3600.00,3600.00,0.00,Robert Shih,Synchrony,3600.00,,,6034610083244924,88234721,Las Vegas,36 months,,0.00,,,,,,,,0.00,,,,,,,,No,"3 years parts, 1 year labor (Free)",Scheduled,MITSUWA RACK SA 4/27-5/6/18 (TX),,Thank you very much for your business with us in Mitsuwa Plano TX / Synchrony 36 months 0% APR / Please deliver ASAP / Second floor delivery,105651,"Confirmed synchrony form and the account ($4,800.00)***Please charge before delivery.***4/30/18 Hitomi",TX,1,8.25
