﻿Date,CustomerName,State,Zipcode,Description,productNo,Color,IsDemo,Net,ShippingFee,GiftPrice,FinancingProcessingFee,Gross,Pre_tax,Tax,Commission,Primary Payment Method,Primary Payment Balance,Primary Authorize Number,Primary Purchase Order Number,Primary Synchrony Account Number,Primary Synchrony Application Key,Primary Synchrony AccountInfo,Primary SynchronyTerm,Secondly Payment Method,Secondly Payment Balance,Secondly Authorize Number,Secondly Purchase Order Number,Secondly Synchrony Account Number,Secondly Synchrony Application Key,Secondly Synchrony AccountInfo,Secondly SynchronyTerm,Thirdly Payment Method,Thirdly Payment Balance,Thirdly Authorize Number,Thirdly Purchase Order Number,Thirdly Synchrony Account Number,Thirdly Synchrony Application Key,Thirdly Synchrony AccountInfo,Thirdly SynchronyTerm,DeliveryDate,Ispickup,Warranty,Status,Event Name,Synchrony Notes,Order Notes,Order number,Private Note,Branch,IsNoTax,ActualTaxRate
2/3/2018 7:41:08 PM,Lylan Nguyen,AL,35645,AGM Legacy,DWA-9100DWA-9100BL,Black,New,,,,,3999.00,3999.00,0.00,Jessica Phung,CreditCard,3999.00,08317Y,,,,,,,0.00,,,,,,,,0.00,,,,,,,,No,"3 years parts, 1 year labor (Free)",Cancelled,Health&Wellness Factory AGM (CA),,,103445,,Not Dispatched,1,8.75
2/3/2018 7:41:08 PM,Lylan Nguyen,AL,35645,Daiwa Blanket,,,New,,,,,3999.00,3999.00,0.00,Jessica Phung,CreditCard,3999.00,08317Y,,,,,,,0.00,,,,,,,,0.00,,,,,,,,No,no warranty,Cancelled,Health&Wellness Factory AGM (CA),,,103445,,Not Dispatched,1,8.75
2/3/2018 7:41:08 PM,Lylan Nguyen,AL,35645,Chair Pad for Legacy,,,New,,,,,3999.00,3999.00,0.00,Jessica Phung,CreditCard,3999.00,08317Y,,,,,,,0.00,,,,,,,,0.00,,,,,,,,No,no warranty,Cancelled,Health&Wellness Factory AGM (CA),,,103445,,Not Dispatched,1,8.75
2/3/2018 7:41:08 PM,Lylan Nguyen,AL,35645,Foot Pads for Legacy,,,New,,,,,3999.00,3999.00,0.00,Jessica Phung,CreditCard,3999.00,08317Y,,,,,,,0.00,,,,,,,,0.00,,,,,,,,No,no warranty,Cancelled,Health&Wellness Factory AGM (CA),,,103445,,Not Dispatched,1,8.75
2/3/2018 8:39:19 PM,Lylan Nguyen Schofield,AL,35645,AGM Legacy,DWA-9100DWA-9100BL,Black,New,,,,,3999.00,3999.00,0.00,Jessica Phung,CreditCard,3999.00,w0IQ,,,,,,,0.00,,,,,,,,0.00,,,,,,,,No,"3 years parts, 1 year labor (Free)",Assigned,Health&Wellness Factory AGM (CA),,,103446,"-Please disregard order 103445 because customer changed address. 
-Please wait for customer to call when they move to new house (in a month or two)
- Please still confirm order when you got it with customer
-Call salerep if you have any question.

confirmed $3,999 in Square. 2/6/18 Hitomi",FL,1,8.75
2/3/2018 8:39:19 PM,Lylan Nguyen Schofield,AL,35645,Daiwa Blanket,,,New,,,,,3999.00,3999.00,0.00,Jessica Phung,CreditCard,3999.00,w0IQ,,,,,,,0.00,,,,,,,,0.00,,,,,,,,No,no warranty,Assigned,Health&Wellness Factory AGM (CA),,,103446,"-Please disregard order 103445 because customer changed address. 
-Please wait for customer to call when they move to new house (in a month or two)
- Please still confirm order when you got it with customer
-Call salerep if you have any question.

confirmed $3,999 in Square. 2/6/18 Hitomi",FL,1,8.75
2/3/2018 8:39:19 PM,Lylan Nguyen Schofield,AL,35645,Chair Pad for Legacy,,,New,,,,,3999.00,3999.00,0.00,Jessica Phung,CreditCard,3999.00,w0IQ,,,,,,,0.00,,,,,,,,0.00,,,,,,,,No,no warranty,Assigned,Health&Wellness Factory AGM (CA),,,103446,"-Please disregard order 103445 because customer changed address. 
-Please wait for customer to call when they move to new house (in a month or two)
- Please still confirm order when you got it with customer
-Call salerep if you have any question.

confirmed $3,999 in Square. 2/6/18 Hitomi",FL,1,8.75
2/3/2018 8:39:19 PM,Lylan Nguyen Schofield,AL,35645,Foot Pads for Legacy,,,New,,,,,3999.00,3999.00,0.00,Jessica Phung,CreditCard,3999.00,w0IQ,,,,,,,0.00,,,,,,,,0.00,,,,,,,,No,no warranty,Assigned,Health&Wellness Factory AGM (CA),,,103446,"-Please disregard order 103445 because customer changed address. 
-Please wait for customer to call when they move to new house (in a month or two)
- Please still confirm order when you got it with customer
-Call salerep if you have any question.

confirmed $3,999 in Square. 2/6/18 Hitomi",FL,1,8.75
2/11/2018 4:51:25 PM,Bobby Tran,FL,33028,AGM Relax2Zero 1.0,USJ-9000USJ-9000CR,Cream,New,,,,,2499.00,2499.00,0.00,Jessica Phung,CreditCard,2500.00,02419D square#f0iv,,,,,,,0.00,,,,,,,,0.00,,,,,,,,No,"3 years parts, 1 year labor (Free)",Assigned,Health&Wellness Factory AGM (CA),,"Please wait until the customer contact us to deliver the chair, they are out of town for a few more weeks.",103617,"confirmed $2,500 in Square. ( correct Auth#f0iv) 2/13/18 Hitomi
02/28/18-Cristina- customer is ready for delivery",FL,1,8.75
2/11/2018 4:51:25 PM,Bobby Tran,FL,33028,Daiwa Blanket,,,New,,,,,2499.00,2499.00,0.00,Jessica Phung,CreditCard,2500.00,02419D square#f0iv,,,,,,,0.00,,,,,,,,0.00,,,,,,,,No,no warranty,Assigned,Health&Wellness Factory AGM (CA),,"Please wait until the customer contact us to deliver the chair, they are out of town for a few more weeks.",103617,"confirmed $2,500 in Square. ( correct Auth#f0iv) 2/13/18 Hitomi
02/28/18-Cristina- customer is ready for delivery",FL,1,8.75
2/11/2018 4:51:25 PM,Bobby Tran,FL,33028,Chair Pad for Relax2Zero 1.0,,,New,,,,,2499.00,2499.00,0.00,Jessica Phung,CreditCard,2500.00,02419D square#f0iv,,,,,,,0.00,,,,,,,,0.00,,,,,,,,No,no warranty,Assigned,Health&Wellness Factory AGM (CA),,"Please wait until the customer contact us to deliver the chair, they are out of town for a few more weeks.",103617,"confirmed $2,500 in Square. ( correct Auth#f0iv) 2/13/18 Hitomi
02/28/18-Cristina- customer is ready for delivery",FL,1,8.75
2/11/2018 4:51:25 PM,Bobby Tran,FL,33028,Foot Pads for Relax2Zero 1.0,,,New,,,,,2499.00,2499.00,0.00,Jessica Phung,CreditCard,2500.00,02419D square#f0iv,,,,,,,0.00,,,,,,,,0.00,,,,,,,,No,no warranty,Assigned,Health&Wellness Factory AGM (CA),,"Please wait until the customer contact us to deliver the chair, they are out of town for a few more weeks.",103617,"confirmed $2,500 in Square. ( correct Auth#f0iv) 2/13/18 Hitomi
02/28/18-Cristina- customer is ready for delivery",FL,1,8.75
2/13/2018 12:48:06 PM,Phan Vu Dang,OR,97266, AGM Legacy 3D,DWA-9150USJ-9150BL,Black,New,,,,,4499.00,4499.00,0.00,Jessica Phung,CreditCard,2000.00,1lw9,,,,,,CreditCard,2500.00,McYU,,,,,,,0.00,,,,,,,,No,"3 years parts, 1 year labor (Free)",Scheduled,Health&Wellness Factory AGM (CA),,,103704,"Deliver upstairs
confirmed $4,500 in Square. 2/13/18 Hitomi
Schedule Feb 14 2018 5:30pm-6pm",WA,1,8.75
2/13/2018 12:48:06 PM,Phan Vu Dang,OR,97266,Chair Pad for Legacy 3D,,,New,,,,,4499.00,4499.00,0.00,Jessica Phung,CreditCard,2000.00,1lw9,,,,,,CreditCard,2500.00,McYU,,,,,,,0.00,,,,,,,,No,no warranty,Scheduled,Health&Wellness Factory AGM (CA),,,103704,"Deliver upstairs
confirmed $4,500 in Square. 2/13/18 Hitomi
Schedule Feb 14 2018 5:30pm-6pm",WA,1,8.75
2/13/2018 12:48:06 PM,Phan Vu Dang,OR,97266,Foot Pads for Legacy 3D,,,New,,,,,4499.00,4499.00,0.00,Jessica Phung,CreditCard,2000.00,1lw9,,,,,,CreditCard,2500.00,McYU,,,,,,,0.00,,,,,,,,No,no warranty,Scheduled,Health&Wellness Factory AGM (CA),,,103704,"Deliver upstairs
confirmed $4,500 in Square. 2/13/18 Hitomi
Schedule Feb 14 2018 5:30pm-6pm",WA,1,8.75
