﻿Date,CustomerName,State,Zipcode,Description,productNo,Color,IsDemo,Net,ShippingFee,GiftPrice,FinancingProcessingFee,Gross,Pre_tax,Tax,Commission,Primary Payment Method,Primary Payment Balance,Primary Authorize Number,Primary Purchase Order Number,Primary Synchrony Account Number,Primary Synchrony Application Key,Primary Synchrony AccountInfo,Primary SynchronyTerm,Secondly Payment Method,Secondly Payment Balance,Secondly Authorize Number,Secondly Purchase Order Number,Secondly Synchrony Account Number,Secondly Synchrony Application Key,Secondly Synchrony AccountInfo,Secondly SynchronyTerm,Thirdly Payment Method,Thirdly Payment Balance,Thirdly Authorize Number,Thirdly Purchase Order Number,Thirdly Synchrony Account Number,Thirdly Synchrony Application Key,Thirdly Synchrony AccountInfo,Thirdly SynchronyTerm,DeliveryDate,Ispickup,Warranty,Status,Event Name,Synchrony Notes,Order Notes,Order number,Private Note,Branch,IsNoTax,ActualTaxRate
4/11/2018 2:25:28 PM,Beverly Kennedy,CA,92586,Vitality Plate for Sam's,USJ-849USJ-849,New,New,,,,,495.64,459.99,35.65,Harmony Daiwa,CreditCard,0.00,,,,,,,,0.00,,,,,,,,0.00,,,,,,,,YES,"3 years parts, 1 year labor (Free)",Delivered,Sam's Club #4709 4/5-15/18 (CA),,,105178,TC# 316262764424683499357,CA,0,7.75
4/11/2018 2:32:18 PM,Cindy Thebeau,CA,92881,Foot Vibe Pro,USJ-871,,New,,,,,118.51,109.99,8.52,Harmony Daiwa,CreditCard,118.51,,,,,,,,0.00,,,,,,,,0.00,,,,,,,,YES,"3 years parts, 1 year labor (Free)",Delivered,Sam's Club #4709 4/5-15/18 (CA),,,105179,TC# 106411223032241071946,CA,0,7.75
4/11/2018 2:37:04 PM,James Staab,CA,92503,Shogun Neck & Back Massger,USJ-874USJ-874,New,New,,,,,215.48,199.98,15.50,Harmony Daiwa,CreditCard,215.48,,,,,,,,0.00,,,,,,,,0.00,,,,,,,,YES,"3 years parts, 1 year labor (Free)",Delivered,Sam's Club #4709 4/5-15/18 (CA),,,105180,TC# 029222969482688430357,CA,0,7.75
4/11/2018 2:44:13 PM,Jonathan Machado,CA,92882,Shogun Neck & Back Massger,USJ-874USJ-874,New,New,,,,,215.48,199.98,15.50,Harmony Daiwa,CreditCard,215.48,,,,,,,,0.00,,,,,,,,0.00,,,,,,,,YES,"3 years parts, 1 year labor (Free)",Delivered,Sam's Club #4709 4/5-15/18 (CA),,,105181,TC# 9326 5511 7391 1003 8586 2,CA,0,7.75
4/11/2018 2:48:16 PM,Carla Luna,CA,92881,Shogun Neck & Back Massger,USJ-874USJ-874,New,New,,,,,215.48,199.98,15.50,Harmony Daiwa,CreditCard,0.00,,,,,,,,0.00,,,,,,,,0.00,,,,,,,,YES,"3 years parts, 1 year labor (Free)",Delivered,Sam's Club #4709 4/5-15/18 (CA),,,105182,TC# 8838 7755 4979 5339 4142 1,CA,0,7.75
4/11/2018 2:55:48 PM,Luis Garcia,CA,92879,Shogun Neck & Back Massger,USJ-874USJ-874,New,New,,,,,215.48,199.98,15.50,Harmony Daiwa,CreditCard,215.48,,,,,,,,0.00,,,,,,,,0.00,,,,,,,,YES,"3 years parts, 1 year labor (Free)",Delivered,Sam's Club #4709 4/5-15/18 (CA),,,105183,TC# 0842 2254 1281 6884 3835 7,CA,0,7.75
4/12/2018 6:58:30 PM,Maria Mendivil,CA,92880,Foot Vibe Pro,USJ-871,,New,,,,,118.51,109.99,8.52,Harmony Daiwa,CreditCard,0.00,,,,,,,,0.00,,,,,,,,0.00,,,,,,,,YES,"3 years parts, 1 year labor (Free)",Delivered,Sam's Club #4709 4/5-15/18 (CA),,,105202,TC# 768877394797537928431,CA,0,7.75
4/12/2018 7:02:04 PM,Elizabeth Ojeda Cruz,CA,92882,Shogun Neck & Back Massger,USJ-874USJ-874-DEMO,Demo,Demo,,,,,193.93,179.98,13.95,Harmony Daiwa,CreditCard,0.00,,,,,,,,0.00,,,,,,,,0.00,,,,,,,,YES,"3 years parts, 1 year labor (Free)",Delivered,Sam's Club #4709 4/5-15/18 (CA),,,105203,TC# 131421102160245022956,CA,0,7.75
4/15/2018 4:27:59 PM,Anabeth Lopez,CA,91752,Shogun Neck & Back Massger,USJ-874USJ-874-DEMO,Demo,Demo,,,,,312.44,289.97,22.47,Harmony Daiwa,CreditCard,0.00,,,,,,,,0.00,,,,,,,,0.00,,,,,,,,No,"3 years parts, 1 year labor (Free)",Cancelled,Sam's Club #4709 4/5-15/18 (CA),,,105279,TC# 681076189608792871025. Must be shipped,Not Dispatched,0,7.75
4/15/2018 4:27:59 PM,Anabeth Lopez,CA,91752,Foot Vibe Pro,USJ-871,,New,,,,,312.44,289.97,22.47,Harmony Daiwa,CreditCard,0.00,,,,,,,,0.00,,,,,,,,0.00,,,,,,,,No,"3 years parts, 1 year labor (Free)",Cancelled,Sam's Club #4709 4/5-15/18 (CA),,,105279,TC# 681076189608792871025. Must be shipped,Not Dispatched,0,7.75
4/15/2018 4:36:17 PM,Chanravadan Parel,CA,92822,Foot Vibe Pro,USJ-871,,New,,,,,312.44,289.97,22.47,Harmony Daiwa,CreditCard,312.44,,,,,,,,0.00,,,,,,,,0.00,,,,,,,4/21/2018 12:00:00 AM,No,"3 years parts, 1 year labor (Free)",Delivered,Sam's Club #4709 4/5-15/18 (CA),,,105280,"Tc# 796615539573103357812. Must deliver
//passed to LEX for shipment. 4/17/18 Hitomi
FEDEX TRACKING #7309 7700 9830--DELIVERED Sat 4/21/2018 2:42 pm, 7309 7700 9840--DELIVERED Sat 4/21/2018 2:42 pm",CA,0,7.75
4/15/2018 4:36:17 PM,Chanravadan Parel,CA,92822,Shogun Neck & Back Massger,USJ-874USJ-874-DEMO,Demo,Demo,,,,,312.44,289.97,22.47,Harmony Daiwa,CreditCard,312.44,,,,,,,,0.00,,,,,,,,0.00,,,,,,,4/21/2018 12:00:00 AM,No,"3 years parts, 1 year labor (Free)",Delivered,Sam's Club #4709 4/5-15/18 (CA),,,105280,"Tc# 796615539573103357812. Must deliver
//passed to LEX for shipment. 4/17/18 Hitomi
FEDEX TRACKING #7309 7700 9830--DELIVERED Sat 4/21/2018 2:42 pm, 7309 7700 9840--DELIVERED Sat 4/21/2018 2:42 pm",CA,0,7.75
4/15/2018 9:10:03 PM,Manuel Cortes,CA,92508,Foot Vibe Pro,USJ-871,,New,,,,,118.51,109.99,8.52,David Wang,CreditCard,118.51,232938277847954734213,,,,,,,0.00,,,,,,,,0.00,,,,,,,,YES,"2 years parts, 1 year labor for Small Items",Delivered,Sam's Club #4709 4/5-15/18 (CA),,,105284,,CA,0,7.75
4/15/2018 9:17:10 PM,Manuel Cortes,CA,92508,Shogun Neck & Back Massger,USJ-874USJ-874,New,New,,,,,215.48,199.98,15.50,David Wang,CreditCard,215.48,232938277847954734213,,,,,,,0.00,,,,,,,,0.00,,,,,,,4/21/2018 12:00:00 AM,No,"2 years parts, 1 year labor for Small Items",Delivered,Sam's Club #4709 4/5-15/18 (CA),,,105285,"Please ship to the customer!!! No more in stock when I doing Sams club store!!!
//passed to LEX for shipment. 4/17/18 Hitomi
FEDEX TRACKING# 7309 7700 9715---DELIVERED Sat 4/21/2018 10:09 am",CA,0,7.75
4/17/2018 11:04:54 AM,Blanca Love,CA,92882,Foot Vibe Pro,USJ-871,,New,,,,,118.51,109.99,8.52,Harmony Daiwa,PurchaseOrder,118.51,,8709 8887 1849 9587 0625 3,,,,,,0.00,,,,,,,,0.00,,,,,,,,YES,"2 years parts, 1 year labor for Small Items",Delivered,Sam's Club #4709 4/5-15/18 (CA),,,105353,,CA,0,7.75
4/17/2018 11:16:55 AM,Anabeth Lopez,CA,91752,Shogun Neck & Back Massger,USJ-874USJ-874-DEMO,Demo,Demo,,,,,193.93,179.98,13.95,Harmony Daiwa,PurchaseOrder,193.93,,6810 7618 9608 7928 7102 5,,,,,,0.00,,,,,,,,0.00,,,,,,,4/21/2018 12:00:00 AM,No,"2 years parts, 1 year labor for Small Items",Delivered,Sam's Club #4709 4/5-15/18 (CA),,,105354,"need to be shipped
//passed to LEX for shipment. 4/17/18 Hitomi
FEDEX TRACKING #7309 7700 9726---DELIVERED Sat 4/21/2018 1:04 pm",CA,0,7.75
