﻿Date,CustomerName,State,Zipcode,Description,productNo,Color,IsDemo,Net,ShippingFee,GiftPrice,FinancingProcessingFee,Gross,Pre_tax,Tax,Commission,Primary Payment Method,Primary Payment Balance,Primary Authorize Number,Primary Purchase Order Number,Primary Synchrony Account Number,Primary Synchrony Application Key,Primary Synchrony AccountInfo,Primary SynchronyTerm,Secondly Payment Method,Secondly Payment Balance,Secondly Authorize Number,Secondly Purchase Order Number,Secondly Synchrony Account Number,Secondly Synchrony Application Key,Secondly Synchrony AccountInfo,Secondly SynchronyTerm,Thirdly Payment Method,Thirdly Payment Balance,Thirdly Authorize Number,Thirdly Purchase Order Number,Thirdly Synchrony Account Number,Thirdly Synchrony Application Key,Thirdly Synchrony AccountInfo,Thirdly SynchronyTerm,DeliveryDate,Ispickup,Warranty,Status,Event Name,Synchrony Notes,Order Notes,Order number,Private Note,Branch,IsNoTax,ActualTaxRate
11/2/2017 12:17:21 PM,Larry McKinney,AA,92708,Foot Vibe Pro,USJ-871,,New,,,,,118.51,109.99,8.52,Joseph Chan,,118.51,,,,,,,,,,,,,,,,,,,,,,,,YES,"2 years parts, 1 year labor (Small Items)",Delivered,Sam's Club Fullerton #6616  11/2-11/12 (CA),,,101659,,CA,,
11/6/2017 10:17:46 AM,Bassel Balouk,CA,92831,Foot Vibe Pro,USJ-871,,New,,,,,118.51,109.99,8.52,Joseph Chan,,118.51,,,,,,,,,,,,,,,,,,,,,,,,YES,"2 years parts, 1 year labor (Small Items)",Delivered,Sam's Club Fullerton #6616  11/2-11/12 (CA),,,101731,,CA,,
11/10/2017 2:51:36 PM,A J Johnson,CA,90723,Ninja Leg Massager,,,New,,,,,408.37,379.00,29.37,Joseph Chan,,408.37,332508,,,,,,,,,,,,,,,,,,,,,,,YES,"2 years parts, 1 year labor (Small Items)",Delivered,Sam's Club Fullerton #6616  11/2-11/12 (CA),,,101786,,CA,,
11/12/2017 10:43:53 AM,Arik Ratzon,CA,92805,Foot Vibe Pro,USJ-871,,New,,,,,118.51,109.99,8.52,Joseph Chan,,118.51,,,,,,,,,,,,,,,,,,,,,,,,YES,"2 years parts, 1 year labor (Small Items)",Delivered,Sam's Club Fullerton #6616  11/2-11/12 (CA),,,101810,,CA,,
12/27/2017 3:39:20 PM,Armando Rosado,CA,92835,Relax2Zero 2.0 for Sam's,USJ-9050USJ-9050BR-DEMO,Demo Brown,Demo,,,,,3462.92,3267.79,195.13,Joseph Chan,PurchaseOrder,3462.92,,TC# 9755 3630 6890 9845 9027 54,,,,,,0.00,,,,,,,,0.00,,,,,,,12/29/2017 12:00:00 AM,No,"3 years parts, 1 year labor (Free)",Delivered,Sam's Club Fullerton #6616  11/2-11/12 (CA),,,102675,"Please ship a New Chair.
12/28/17-Cristina- Printed",CA,0,7.75
