﻿Original Event Name,Event Name,Sales Person,Order Number,Order Date,Customer Name,State,Zip,Product Name,Color,Product Status,QTY,Tax,Total Before Tax,Order Total,Primary Payment Method,Second Payment Method,Thirdl Payment Method,Warranty,Order Items,Pick up,Delivered On,Order Status,Chair Type,Order Notes,Private Note,Branch,No Tax,Actual Tax Rate,SKU,Primary Payment Balance,Primary Authorize Number,Primary Purchase Order Number,Primary Synchrony Account Number,Primary Synchrony Application Key,Primary Synchrony Account Info,Primary Synchrony Term,Second Payment Balance,Second Authorize Number,Second Purchase Order Number,Second Synchrony Account Number,Second Synchrony Application Key,Second Synchrony Account Info,Second SynchronyTerm,Third Payment Balance,Third Authorize Number,Third Purchase Order Number,Third Synchrony Account Number,Third Synchrony Application Key,Third Synchrony Account Info,Third Synchrony Term
Sam's Club #6614 El Monte 4/18-28/19 (CA),Sam's Club #6614 El Monte 4/18-28/19 (CA),Hiroko Hudson,116829,4/19/2019 12:26:44 PM,Dianna Carrillo,CA,91733,Vitality Plate for Sam's,New,New,1,40.00,399.99,439.99,Purchase Order,,,"2 years parts, 1 year labor for Small Items","Vitality Plate for Sam's,",YES,,Delivered,,,,CA,0,10.00,USJ-849USJ-849,0.00,,673789356975633934232,,,,,0.00,,,,,,,0.00,,,,,,
Sam's Club #6614 El Monte 4/18-28/19 (CA),Sam's Club #6614 El Monte 4/18-28/19 (CA),Hiroko Hudson,116930,4/23/2019 11:31:43 AM,Guadalope A Cruz,CA,91776,Vitality Plate for Sam's,New,New,1,40.00,399.99,439.99,Purchase Order,,,"2 years parts, 1 year labor for Small Items","Vitality Plate for Sam's,",YES,,Delivered,,,,CA,0,10.00,USJ-849USJ-849,0.00,,074026665617077671373,,,,,0.00,,,,,,,0.00,,,,,,
Sam's Club #6614 El Monte 4/18-28/19 (CA),Sam's Club #6614 El Monte 4/18-28/19 (CA),Hiroko Hudson,116939,4/23/2019 5:53:33 PM,Bo Pang,CA,91731,Legacy 3D - Sam's Club,Demo(Box) Black[-700],Demo,1,399.90,3999.00,4398.90,Purchase Order,,,"3 years parts, 3 years labor ($400)","Legacy 3D - Sam's Club,",No,4/29/2019 12:00:00 AM,Delivered,New,,"2nd Floor
4/24Maritza Printed scheduled for 4/29 11-2
4/29Maritza- Delivery confirmation received",CA,0,10.00,DWA-9150DWA-9150BL-Box,0.00,,4658657478729459754030,,,,,0.00,,,,,,,0.00,,,,,,
Sam's Club #6614 El Monte 4/18-28/19 (CA),Sam's Club #6614 El Monte 4/18-28/19 (CA),Hiroko Hudson,116940,4/23/2019 6:01:37 PM,Dinald Phung,CA,91776,Legacy for Sam's,Demo(Box) Sienna Brown[-700],Demo,1,359.90,3599.00,3958.90,Purchase Order,,,"3 years parts, 2 years labor ($200)","Legacy for Sam's,",No,4/29/2019 12:00:00 AM,Delivered,New,,"4/24Maritza Printed scheduled for 12-3 4/29
4/29Maritza- Delivery confirmation received.",CA,0,10.00,DWA-9100DWA-9100SB-Box,0.00,,2730216761662078679393,,,,,0.00,,,,,,,0.00,,,,,,
