﻿Date,CustomerName,State,Zipcode,Description,productNo,Color,IsDemo,Net,ShippingFee,GiftPrice,FinancingProcessingFee,Gross,Pre_tax,Tax,Commission,Primary Payment Method,Primary Payment Balance,Primary Authorize Number,Primary Purchase Order Number,Primary Synchrony Account Number,Primary Synchrony Application Key,Primary Synchrony AccountInfo,Primary SynchronyTerm,Secondly Payment Method,Secondly Payment Balance,Secondly Authorize Number,Secondly Purchase Order Number,Secondly Synchrony Account Number,Secondly Synchrony Application Key,Secondly Synchrony AccountInfo,Secondly SynchronyTerm,Thirdly Payment Method,Thirdly Payment Balance,Thirdly Authorize Number,Thirdly Purchase Order Number,Thirdly Synchrony Account Number,Thirdly Synchrony Application Key,Thirdly Synchrony AccountInfo,Thirdly SynchronyTerm,DeliveryDate,Ispickup,Warranty,Status,Event Name,Synchrony Notes,Order Notes,Order number,Private Note,Branch,IsNoTax,ActualTaxRate
10/16/2017 3:14:03 PM,THOMAS J SNYDER,WA,98001,Legacy for Sam's,DWA-9100DWA-9100BL,Black,New,,,,,4729.23,4384.00,345.23,Hayoyu(Ethan) Jiang,,4728.90,449388,,,,,,,,,,,,,,,,,,,,,,10/19/2017 12:00:00 AM,No,"3 years parts, 1 year labor (Free)",Delivered,Sam's Club #6688 10/12-10/22 (WA),,"INVOICE 1
PAID IN FULL",101380,"TOURMALINE PAD
DUAL TAPPER",WA,,
10/17/2017 4:07:03 PM,DENNIS DENNIS,WA,98002,Legacy for Sam's,DWA-9100DWA-9100BL,Black,New,,,,,3959.45,3681.00,278.45,Jason Liu,,3958.90,524946,,,,,,,,,,,,,,,,,,,,,,10/19/2017 12:00:00 AM,No,"3 years parts, 1 year labor (Free)",Delivered,Sam's Club #6688 10/12-10/22 (WA),,"INVOICE 1
PAID IN FULL",101410,,WA,,
10/17/2017 5:35:30 PM,JANNET CAMNEHO,WA,98031,Ninja Leg Massager,,,New,,,,,415.01,379.00,36.01,Ethan Hayoyu Jiang,,417.22,03269B,,,,,,,,,,,,,,,,,,,,,,,YES,"3 years parts, 1 year labor (Free)",Delivered,Sam's Club #6688 10/12-10/22 (WA),,PAID IN FULL,101411,,WA,,
10/19/2017 4:59:08 PM,FRANK G JERRY JR,WA,98002,Ninja Leg Massager,,,New,,,,,830.01,758.00,72.01,Jason Liu,,833.80,,,,,,,,,,,,,,,,,,,,,,,,YES,"2 years parts, 1 year labor (Small Items)",Delivered,Sam's Club #6688 10/12-10/22 (WA),,PAID IN FULL,101440,,WA,,
10/19/2017 5:42:25 PM,DIANE DSIMMANS,WA,98409,Hands Free Bike,USJ-849USJ-849,New,New,,,,,492.75,450.00,42.75,Jason Liu,,505.99,001560,,,,,,,,,,,,,,,,,,,,,,,No,"2 years parts, 1 year labor (Small Items)",Delivered,Sam's Club #6688 10/12-10/22 (WA),,PAID IN FULL,101445,,WA,,
10/23/2017 2:20:39 PM,SANG RIM HWANG,WA,98001,Legacy for Sam's,DWA-9100DWA-9100SB,Sienna Brown,New,,,,,4729.23,4384.00,345.23,Jason Liu,,4728.90,212254,,,,,,,,,,,,,,,,,,,,,,10/30/2017 12:00:00 AM,No,"3 years parts, 1 year labor (Free)",Delivered,Sam's Club #6688 10/12-10/22 (WA),,"INVOICE 1
PAID IN FULL",101531,customer wants chocolate color instead of  sienna,WA,,
10/23/2017 2:26:53 PM,SEUNG HAN YI,WA,98023,Legacy for Sam's,DWA-9100DWA-9100BL,Black,New,,,,,3959.45,3681.00,278.45,Jason Liu,,3958.90,01910D,,,,,,,,,,,,,,,,,,,,,,11/2/2017 12:00:00 AM,No,"3 years parts, 1 year labor (Free)",Delivered,Sam's Club #6688 10/12-10/22 (WA),,"INVOICE 2
PAID IN FULL",101532,,WA,,
10/23/2017 2:34:54 PM,DHONG TRAN,WA,98001,Ninja Leg Massager,,,New,,,,,415.01,379.00,36.01,Jason Liu,,416.90,SC010908,,,,,,,,,,,,,,,,,,,,,,,YES,"2 years parts, 1 year labor (Small Items)",Delivered,Sam's Club #6688 10/12-10/22 (WA),,"INVOICE 3
PAID IN FULL",101533,,WA,,
10/23/2017 3:10:30 PM,PARTK KOSYUGA,WA,92087,Vitality Plate for Sam's,USJ-849USJ-849,New,New,,,,,503.69,459.99,43.70,Jason Liu,,505.99,820217,,,,,,,,,,,,,,,,,,,,,,,YES,"2 years parts, 1 year labor (Small Items)",Delivered,Sam's Club #6688 10/12-10/22 (WA),,"INVOICE 6
PAID IN FULL",101535,,WA,,
10/23/2017 3:16:59 PM,ODARBIL ASERON MYRENE BUBAN,WA,98391,Relax2Zero 2.0 for Sam's,USJ-9050USJ-9050BL,Black,New,,,,,3519.26,3279.00,240.26,Jason Liu,,3518.90,000833,,,,,,,,,,,,,,,,,,,,,,10/30/2017 12:00:00 AM,No,"3 years parts, 1 year labor (Free)",Delivered,Sam's Club #6688 10/12-10/22 (WA),,"INVOICE 7
PAID IN FULL",101536,,WA,,
10/23/2017 3:40:22 PM,KO KENNETH KYONGHO,WA,98001,Legacy for Sam's,DWA-9100DWA-9100GD,Gold,New,,,,,4729.23,4384.00,345.23,Jason Liu,,4728.90,001024,,,,,,,,,,,,,,,,,,,,,,10/30/2017 12:00:00 AM,No,"3 years parts, 1 year labor (Free)",Delivered,Sam's Club #6688 10/12-10/22 (WA),,"INVOICE 8
PAID IN FULL",101537,,WA,,
10/23/2017 3:40:22 PM,KO KENNETH KYONGHO,WA,98001,Chair Pad for Legacy,,,New,,,,,4729.23,4384.00,345.23,Jason Liu,,4728.90,001024,,,,,,,,,,,,,,,,,,,,,,10/30/2017 12:00:00 AM,No,no warranty,Delivered,Sam's Club #6688 10/12-10/22 (WA),,"INVOICE 8
PAID IN FULL",101537,,WA,,
