﻿Original Event Name,Event Name,Sales Person,Order Number,Order Date,Customer Name,State,Zip,Product Name,Color,Product Status,QTY,Tax,Total Before Tax,Order Total,Primary Payment Method,Second Payment Method,Thirdl Payment Method,Warranty,Order Items,Pick up,Delivered On,Order Status,Chair Type,Order Notes,Private Note,Branch,No Tax,Actual Tax Rate,SKU,Primary Payment Balance,Primary Authorize Number,Primary Purchase Order Number,Primary Synchrony Account Number,Primary Synchrony Application Key,Primary Synchrony Account Info,Primary Synchrony Term,Primary Synchrony Primary ID,Primary Synchrony Issued State,Primary Synchrony Expiretion Date,Second Payment Balance,Second Authorize Number,Second Purchase Order Number,Second Synchrony Account Number,Second Synchrony Application Key,Second Synchrony Account Info,Second SynchronyTerm,Second Synchrony Primary ID,Second Synchrony Issued State,Second Synchrony Expiretion Date,Third Payment Balance,Third Authorize Number,Third Purchase Order Number,Third Synchrony Account Number,Third Synchrony Application Key,Third Synchrony Account Info,Third Synchrony Term,Third Synchrony Primary ID,Third Synchrony Issued State,Third Synchrony Expiretion Date
Health & Wellness Factory 99 Ranch Carrollton (TX),Health & Wellness Factory 99 Ranch Carrollton (TX),Mijung Song,122519,11/17/2019 5:10:58 PM,Christina Nguyen,OK,73165,Legacy,New Black,New,1,0.00,3500.00,3500.00,Synchrony,,,"3 years parts, 1 year labor (Free)","Legacy,",No,,Scheduled,,,"Printed - Tina 11/18/2019
Synchrony original verified. Credit avail $7500. Remaining bal $3500. Charge sync acct, have sales draft signed-Erika 11/18/19 10:44am
cc/text completed-Erika 11/18
11/21 - Alysa - Customer confirmed delivery Thurs. 11/21/2019 Synchrony Authorization Code
019356",TX,1,8.25,DWA-9100DWA-9100BL,3500.00,,,6501723375416094,84088100,Huston,36 months,Driver’s License,OK,05/2021,0.00,,,,,,,,,/,0.00,,,,,,,,,/
Health & Wellness Factory 99 Ranch Carrollton (TX),Health & Wellness Factory 99 Ranch Carrollton (TX),Mijung Song,122520,11/17/2019 5:24:37 PM,Su Kim,TX,75287,Relax 2 Zero 3D,New Choco,New,1,0.00,3800.00,3800.00,Synchrony,,,"5 years parts, 1 year labor (Free)","Relax 2 Zero 3D,",No,,Scheduled,,,"Delivery request before thanksgiving
Printed - Tina 11/18/2019
Synchrony original verified. Credit avail $6500. Remaining bal $3800. Charge sync acct, have sales draft signed-Erika 11/18/19 9:36am
-Notified customer that we are currently out of stock for the chair color and container might arrive by next week - Tina 11/18/2019

Charged Synchrony $3,800 for 36 months. Confirmed schedule for Wednesday, 11/27/2019 5-7pm - Arisa 12/26/19",TX,1,8.25,DWA-9060USJ-9060BR,0.00,,,6501723375416250,84090838,Huston,36 months,Driver’s License,TX,08/2020,0.00,,,,,,,,,/,0.00,,,,,,,,,/
Health & Wellness Factory 99 Ranch Carrollton (TX),Health & Wellness Factory 99 Ranch Carrollton (TX),Mijung Song,122693,11/24/2019 3:25:16 PM,Anamika Rahman,TX,75038,Cocoon,New Choco,New,1,0.00,1200.00,1200.00,Credit Card,Synchrony,,"2 years parts, 1 year labor (Free)","Cocoon,",No,,Scheduled,,,"Original received. $200 verified on SQ. Sync acct verified. Credit avail $1000. Remaining bal $1000. Charge sync acct, have sales draft signed-Erika 11/25/19 12:07pm
cc/text completed-Erika 11/26
Printed - Arisa 11/26/19
Charged Synchrony $1,000 for 12 months. Confirmed schedule for Wednesday, 11/27/2019 4-6pm - Arisa 11/26/19",TX,1,8.25,DWA-COCNDWA-COCN-1CHC,200.00,wRFK,,,,,,,,/,1000.00,,,6501723375427505,84459911,Huston,12 months,Driver’s License,NY,06/2022,0.00,,,,,,,,,/
Health & Wellness Factory 99 Ranch Carrollton (TX),Health & Wellness Factory 99 Ranch Carrollton (TX),Mijung Song,122780,11/30/2019 2:58:11 PM,Phuong Tao,TX,79118,Hubble,New Choco,New,1,0.00,6500.00,6500.00,Synchrony,,,"5 years parts, 1 year labor (Free)","Hubble,",No,,New,,,,Not Dispatched,1,8.25,HUBL-1HUBL-1CH,0.00,,,6501723375439138,84837864,Huston,36 months,Driver’s License,TX,11/2023,0.00,,,,,,,,,/,0.00,,,,,,,,,/
