﻿Date,CustomerName,State,Zipcode,Description,productNo,Color,IsDemo,Net,ShippingFee,GiftPrice,FinancingProcessingFee,Gross,Pre_tax,Tax,Commission,Primary Payment Method,Primary Payment Balance,Primary Authorize Number,Primary Purchase Order Number,Primary Synchrony Account Number,Primary Synchrony Application Key,Primary Synchrony AccountInfo,Primary SynchronyTerm,Secondly Payment Method,Secondly Payment Balance,Secondly Authorize Number,Secondly Purchase Order Number,Secondly Synchrony Account Number,Secondly Synchrony Application Key,Secondly Synchrony AccountInfo,Secondly SynchronyTerm,Thirdly Payment Method,Thirdly Payment Balance,Thirdly Authorize Number,Thirdly Purchase Order Number,Thirdly Synchrony Account Number,Thirdly Synchrony Application Key,Thirdly Synchrony AccountInfo,Thirdly SynchronyTerm,DeliveryDate,Ispickup,Warranty,Status,Event Name,Synchrony Notes,Order Notes,Order number,Private Note,Branch,IsNoTax,ActualTaxRate
1/25/2018 2:43:40 PM,Daiwa Massage,CA,90249,Ninja Leg Massager,,,New,,,,,409.32,379.00,30.32,Michael Wang,CreditCard,409.32,Tc# 6847 2927 2525 8169 3810 7,,,,,,,0.00,,,,,,,,0.00,,,,,,,,YES,"2 years parts, 1 year labor (Small Items)",Delivered,"Sam's Club #8213 Columbus, GA 1/25/18-2/4/18 (FL)",,,103241,Order 1 for ninja Leg massager.,CA,0,8.00
1/26/2018 6:43:17 AM,Suk Choe,GA,31820,Legacy for Sam's,DWA-9100DWA-9100BG,Beige,New,,,,,3886.92,3599.00,287.92,Michael Wang,CreditCard,3886.92,Tc# 7106 6555 9234 3706 5870 49,,,,,,,0.00,,,,,,,,0.00,,,,,,,2/3/2018 12:00:00 AM,No,"3 years parts, 1 year labor (Free)",Delivered,"Sam's Club #8213 Columbus, GA 1/25/18-2/4/18 (FL)",,Give customer new chair.Also Give Customer 2 free chair pads 1 free Daiwa blanket.Customer requests delivery by Feb 10th.,103255,Please deliver by February 10th or customer will cancel.Customer would like a courtesy call to check on availability for delivery.Customer leaving the country for 1 month starting Feb 11th.Please reserve 1 beige legacy (new) for customer since we have limited quantities.,FL,0,8.00
1/26/2018 8:52:15 AM,Daiwa Massage,CA,90249,Ninja Leg Massager,,,New,,,,,379.00,379.00,0.00,Michael Wang,CreditCard,379.00,Tc# 8374 3163 2039 5451 6244 3,,,,,,,0.00,,,,,,,,0.00,,,,,,,,YES,"2 years parts, 1 year labor (Small Items)",Delivered,"Sam's Club #8213 Columbus, GA 1/25/18-2/4/18 (FL)",,,103260,Customer tax exempt since he is using Sam’s business cc to pay for the ninja Leg massager.Tax actually is not included in the sell price.,CA,1,8.00
1/26/2018 8:56:25 AM,Daiwa Massage,CA,90249,Ninja Leg Massager,,,New,,,,,379.00,379.00,0.00,Michael Wang,CreditCard,379.00,Tc# 9897 4090 7357 6816 9931 67,,,,,,,0.00,,,,,,,,0.00,,,,,,,,YES,"2 years parts, 1 year labor (Small Items)",Delivered,"Sam's Club #8213 Columbus, GA 1/25/18-2/4/18 (FL)",,,103261,Customer used Sam’s business cc to pay so tax exempt.Tax not included in price.,CA,1,8.00
1/26/2018 9:02:11 AM,Daiwa Massage,CA,90249,Vitality Plate for Sam's,USJ-849USJ-849,New,New,,,,,399.99,399.99,0.00,Michael Wang,CreditCard,399.00,Tc# 9897 4090 7357 6816 9931 67,,,,,,,0.00,,,,,,,,0.00,,,,,,,,YES,"2 years parts, 1 year labor (Small Items)",Delivered,"Sam's Club #8213 Columbus, GA 1/25/18-2/4/18 (FL)",,,103262,Gave customer new vitality plate for floor model price.Customer Tax exempt due to using Sam’s business cc.,CA,1,8.00
1/26/2018 2:11:26 PM,Daiwa Massage,CA,90249,Vitality Plate for Sam's,USJ-849USJ-849,New,New,,,,,431.99,399.99,32.00,Michael Wang,CreditCard,431.99,Tc# 7665 9335 2160 9203 0923 5,,,,,,,0.00,,,,,,,,0.00,,,,,,,,YES,"2 years parts, 1 year labor (Small Items)",Delivered,"Sam's Club #8213 Columbus, GA 1/25/18-2/4/18 (FL)",,,103266,Gave customer new vitality plate for floor model price.,CA,0,8.00
1/27/2018 8:53:41 PM,Johnny Koon,GA,37805,Legacy for Sam's,DWA-9100DWA-9100BL-DEMO,Demo Black,Demo,,,,,3886.92,3599.00,287.92,Michael Wang,CreditCard,3886.92,Tc# 4909 3880 6873 9457 8245 16,,,,,,,0.00,,,,,,,,0.00,,,,,,,2/4/2018 12:00:00 AM,YES,"3 years parts, 1 year labor (Free)",Delivered,"Sam's Club #8213 Columbus, GA 1/25/18-2/4/18 (FL)",,"Customer to pick up black Daiwa legacy floor model chair at Sam’s Club Columbus around 4:45pm on Sunday, Feb 4.Customer gets 1 leather chair pad along with another black non leather chair pad with the chair free of charge.",103312,"Black legacy floor model serial number:
0201001170221
Received the P/U confirmation. 2/5/18 Riho",FL,0,8.00
1/27/2018 8:56:21 PM,Daiwa Massage,CA,90249,Ninja Leg Massager,,,New,,,,,409.32,379.00,30.32,Michael Wang,CreditCard,409.32,Tc# 5683 2011 4244 3610 3264 1,,,,,,,0.00,,,,,,,,0.00,,,,,,,,YES,"2 years parts, 1 year labor (Small Items)",Delivered,"Sam's Club #8213 Columbus, GA 1/25/18-2/4/18 (FL)",,,103314,,CA,0,8.00
1/27/2018 8:59:42 PM,Daiwa Massage,CA,90249,Vitality Plate for Sam's,USJ-849USJ-849,New,New,,,,,431.99,399.99,32.00,Michael Wang,CreditCard,431.99,Tc# 1391 0462 6628 0784 8574 2,,,,,,,0.00,,,,,,,,0.00,,,,,,,,YES,"2 years parts, 1 year labor (Small Items)",Delivered,"Sam's Club #8213 Columbus, GA 1/25/18-2/4/18 (FL)",,,103316,Gave customer new vitality plate for floor model price.,CA,0,8.00
1/28/2018 5:43:33 PM,Daiwa Massage,CA,90249,Vitality Plate for Sam's,USJ-849USJ-849,New,New,,,,,431.99,399.99,32.00,Michael Wang,CreditCard,431.99,Tc# 9544 4916 3906 0544 1654 83,,,,,,,0.00,,,,,,,,0.00,,,,,,,,YES,"2 years parts, 1 year labor (Small Items)",Delivered,"Sam's Club #8213 Columbus, GA 1/25/18-2/4/18 (FL)",,,103341,Gave customer new one for floor model price.,CA,0,8.00
1/28/2018 5:51:09 PM,Dennis Hudson,AL,36870,Legacy for Sam's,DWA-9100DWA-9100SB,Sienna Brown,New,,,,,3886.92,3599.00,287.92,Michael Wang,CreditCard,3886.92,Tc# 9235 2236 5714 1925 3092 65,,,,,,,0.00,,,,,,,,0.00,,,,,,,2/3/2018 12:00:00 AM,No,"3 years parts, 1 year labor (Free)",Delivered,"Sam's Club #8213 Columbus, GA 1/25/18-2/4/18 (FL)",,,103342,Give customer new chair.Give Customer 2 free chair pads 1 free Daiwa blanket.,FL,0,8.00
1/28/2018 5:58:23 PM,Chun Hwa Morales,GA,31903,Legacy for Sam's,DWA-9100DWA-9100CH,Choco,New,,,,,3886.92,3599.00,287.92,Michael Wang,CreditCard,3886.92,Tc# 9544 4916 3906 0544 1654 83,,,,,,,0.00,,,,,,,,0.00,,,,,,,2/1/2018 12:00:00 AM,No,"3 years parts, 1 year labor (Free)",Delivered,"Sam's Club #8213 Columbus, GA 1/25/18-2/4/18 (FL)",,Give customer new chair.Give 2 free chair pads 1 free Daiwa blanket to customer.,103343,,FL,0,8.00
1/29/2018 11:08:16 AM,Danny Jones,GA,31820,Legacy for Sam's,DWA-9100DWA-9100SB,Sienna Brown,New,,,,,3886.92,3599.00,287.92,Michael Wang,CreditCard,3886.92,Tc# 9255 0237 5319 1925 3032 65,,,,,,,0.00,,,,,,,,0.00,,,,,,,2/3/2018 12:00:00 AM,No,"3 years parts, 1 year labor (Free)",Delivered,"Sam's Club #8213 Columbus, GA 1/25/18-2/4/18 (FL)",,,103369,Give customer new chair.Give Customer 2 free chairs pads 1 free Daiwa blanket.Customer wants delivery by Feb 10th if possible.,FL,0,8.00
1/30/2018 10:28:53 AM,Douglass Gash,GA,31909,Legacy for Sam's,DWA-9100DWA-9100CH,Choco,New,,,,,3886.92,3599.00,287.92,Michael Wang,CreditCard,3886.92,Tc# 2960 8965 2087 7294 6749 34,,,,,,,0.00,,,,,,,,0.00,,,,,,,2/3/2018 12:00:00 AM,No,"3 years parts, 1 year labor (Free)",Delivered,"Sam's Club #8213 Columbus, GA 1/25/18-2/4/18 (FL)",,Give customer new chair.Give 2 free chair pads 1 free Daiwa blanket to customer.,103388,,FL,0,8.00
1/31/2018 1:40:40 PM,Tyrone Sledge,GA,31822,Legacy for Sam's,DWA-9100DWA-9100CH,Choco,New,,,,,3886.92,3599.00,287.92,Michael Wang,CreditCard,3886.92,Tc# 8147 9193 8252 5817 9321 27,,,,,,,0.00,,,,,,,,0.00,,,,,,,,No,"3 years parts, 1 year labor (Free)",Called,"Sam's Club #8213 Columbus, GA 1/25/18-2/4/18 (FL)",,,103405,Give customer new chair.Do not need to give the leather chair pad.Just give the black foam chair pad.,FL,0,8.00
1/31/2018 1:40:40 PM,Tyrone Sledge,GA,31822,Daiwa Blanket,,,New,,,,,3886.92,3599.00,287.92,Michael Wang,CreditCard,3886.92,Tc# 8147 9193 8252 5817 9321 27,,,,,,,0.00,,,,,,,,0.00,,,,,,,,No,no warranty,Called,"Sam's Club #8213 Columbus, GA 1/25/18-2/4/18 (FL)",,,103405,Give customer new chair.Do not need to give the leather chair pad.Just give the black foam chair pad.,FL,0,8.00
1/31/2018 1:40:40 PM,Tyrone Sledge,GA,31822,Chair Pad for Legacy,,,New,,,,,3886.92,3599.00,287.92,Michael Wang,CreditCard,3886.92,Tc# 8147 9193 8252 5817 9321 27,,,,,,,0.00,,,,,,,,0.00,,,,,,,,No,no warranty,Called,"Sam's Club #8213 Columbus, GA 1/25/18-2/4/18 (FL)",,,103405,Give customer new chair.Do not need to give the leather chair pad.Just give the black foam chair pad.,FL,0,8.00
1/31/2018 4:52:59 PM,Suki Yi Ae,GA,31907,Legacy for Sam's,DWA-9100DWA-9100CH,Choco,New,,,,,3599.00,3599.00,0.00,Michael Wang,CreditCard,3599.00,Tc# 7666 5152 7234 3703 5340 19,,,,,,,0.00,,,,,,,,0.00,,,,,,,2/13/2018 12:00:00 AM,No,"3 years parts, 1 year labor (Free)",Delivered,"Sam's Club #8213 Columbus, GA 1/25/18-2/4/18 (FL)",,Give customer new chair.Customer tax exempt.,103408,Customer tax exempt used Sam’s business cc to be tax exempt.,FL,1,8.00
1/31/2018 4:52:59 PM,Suki Yi Ae,GA,31907,Daiwa Blanket,,,New,,,,,3599.00,3599.00,0.00,Michael Wang,CreditCard,3599.00,Tc# 7666 5152 7234 3703 5340 19,,,,,,,0.00,,,,,,,,0.00,,,,,,,2/13/2018 12:00:00 AM,No,no warranty,Delivered,"Sam's Club #8213 Columbus, GA 1/25/18-2/4/18 (FL)",,Give customer new chair.Customer tax exempt.,103408,Customer tax exempt used Sam’s business cc to be tax exempt.,FL,1,8.00
1/31/2018 4:52:59 PM,Suki Yi Ae,GA,31907,Chair Pad for Legacy,,,New,,,,,3599.00,3599.00,0.00,Michael Wang,CreditCard,3599.00,Tc# 7666 5152 7234 3703 5340 19,,,,,,,0.00,,,,,,,,0.00,,,,,,,2/13/2018 12:00:00 AM,No,no warranty,Delivered,"Sam's Club #8213 Columbus, GA 1/25/18-2/4/18 (FL)",,Give customer new chair.Customer tax exempt.,103408,Customer tax exempt used Sam’s business cc to be tax exempt.,FL,1,8.00
2/1/2018 11:42:23 AM,Chin Brumbaek,GA,31909,Legacy for Sam's,DWA-9100DWA-9100CH,Choco,New,,,,,3886.92,3599.00,287.92,Michael Wang,CreditCard,3886.92,Tc# 9215 5237 9014 0925 3092 65,,,,,,,0.00,,,,,,,,0.00,,,,,,,,No,"3 years parts, 1 year labor (Free)",Assigned,"Sam's Club #8213 Columbus, GA 1/25/18-2/4/18 (FL)",,Give customer new chair.,103412,I told customer 2 to 3 business weeks delivery but if possible customer would like the chair delivered earlier.,FL,0,8.00
2/1/2018 11:42:23 AM,Chin Brumbaek,GA,31909,Daiwa Blanket,,,New,,,,,3886.92,3599.00,287.92,Michael Wang,CreditCard,3886.92,Tc# 9215 5237 9014 0925 3092 65,,,,,,,0.00,,,,,,,,0.00,,,,,,,,No,no warranty,Assigned,"Sam's Club #8213 Columbus, GA 1/25/18-2/4/18 (FL)",,Give customer new chair.,103412,I told customer 2 to 3 business weeks delivery but if possible customer would like the chair delivered earlier.,FL,0,8.00
2/1/2018 11:42:23 AM,Chin Brumbaek,GA,31909,Chair Pad for Legacy,,,New,,,,,3886.92,3599.00,287.92,Michael Wang,CreditCard,3886.92,Tc# 9215 5237 9014 0925 3092 65,,,,,,,0.00,,,,,,,,0.00,,,,,,,,No,no warranty,Assigned,"Sam's Club #8213 Columbus, GA 1/25/18-2/4/18 (FL)",,Give customer new chair.,103412,I told customer 2 to 3 business weeks delivery but if possible customer would like the chair delivered earlier.,FL,0,8.00
2/2/2018 5:36:00 AM,Pok Sun Barker,GA,31907,Legacy for Sam's,DWA-9100DWA-9100CH,Choco,New,,,,,3886.92,3599.00,287.92,Michael Wang,CreditCard,3886.92,Tc# 8127 7199 8451 5817 9381 27,,,,,,,0.00,,,,,,,,0.00,,,,,,,2/13/2018 12:00:00 AM,No,"3 years parts, 1 year labor (Free)",Delivered,"Sam's Club #8213 Columbus, GA 1/25/18-2/4/18 (FL)",,,103418,"Give customer new chair.
Please pickup and take away customer’s old Massage chair otherwise customer has no room for the new chair.",FL,0,8.00
2/2/2018 5:36:00 AM,Pok Sun Barker,GA,31907,Daiwa Blanket,,,New,,,,,3886.92,3599.00,287.92,Michael Wang,CreditCard,3886.92,Tc# 8127 7199 8451 5817 9381 27,,,,,,,0.00,,,,,,,,0.00,,,,,,,2/13/2018 12:00:00 AM,No,no warranty,Delivered,"Sam's Club #8213 Columbus, GA 1/25/18-2/4/18 (FL)",,,103418,"Give customer new chair.
Please pickup and take away customer’s old Massage chair otherwise customer has no room for the new chair.",FL,0,8.00
2/2/2018 5:36:00 AM,Pok Sun Barker,GA,31907,Chair Pad for Legacy,,,New,,,,,3886.92,3599.00,287.92,Michael Wang,CreditCard,3886.92,Tc# 8127 7199 8451 5817 9381 27,,,,,,,0.00,,,,,,,,0.00,,,,,,,2/13/2018 12:00:00 AM,No,no warranty,Delivered,"Sam's Club #8213 Columbus, GA 1/25/18-2/4/18 (FL)",,,103418,"Give customer new chair.
Please pickup and take away customer’s old Massage chair otherwise customer has no room for the new chair.",FL,0,8.00
2/2/2018 9:44:27 AM,Steven Randall,GA,31909,Ninja Leg Massager,,,New,,,,,409.32,379.00,30.32,Michael Wang,CreditCard,409.32,Tc# 0220 8672 3887 2946 2897 4,,,,,,,0.00,,,,,,,,0.00,,,,,,,2/13/2018 12:00:00 AM,YES,"2 years parts, 1 year labor (Small Items)",Delivered,"Sam's Club #8213 Columbus, GA 1/25/18-2/4/18 (FL)",,,103419,I sold out of my ninja Leg massagers.Hide approved to ship to customer’s house.I told customer 7 to 10 business days to receive the ninja Leg.Please determine if we ship from LA or Orlando office.Please call customer to let him know when we ship out.,FL,0,8.00
2/4/2018 7:48:42 AM,Gary Watkins Sr.,GA,31058,Legacy for Sam's,DWA-9100DWA-9100SB-DEMO,Demo Sienna Brown,Demo,,,,,3886.92,3599.00,287.92,Michael Wang,CreditCard,3886.92,Tc# 0781 1743 0863 0072 4857 52,,,,,,,0.00,,,,,,,,0.00,,,,,,,2/4/2018 12:00:00 AM,YES,"3 years parts, 1 year labor (Free)",Delivered,"Sam's Club #8213 Columbus, GA 1/25/18-2/4/18 (FL)",,,103447,"Customer will pick up at end of day Feb, 4, 2018.Giving Customer 1 extra black foam chair pad which customer will pickup at end of my show.
Serial number: 91167698, Please disregard the DLV information, the customer picked it Up. 2/6/18 Riho",FL,0,8.00
2/4/2018 7:48:42 AM,Gary Watkins Sr.,GA,31058,Chair Pad for Legacy,,,New,,,,,3886.92,3599.00,287.92,Michael Wang,CreditCard,3886.92,Tc# 0781 1743 0863 0072 4857 52,,,,,,,0.00,,,,,,,,0.00,,,,,,,2/4/2018 12:00:00 AM,YES,no warranty,Delivered,"Sam's Club #8213 Columbus, GA 1/25/18-2/4/18 (FL)",,,103447,"Customer will pick up at end of day Feb, 4, 2018.Giving Customer 1 extra black foam chair pad which customer will pickup at end of my show.
Serial number: 91167698, Please disregard the DLV information, the customer picked it Up. 2/6/18 Riho",FL,0,8.00
2/4/2018 8:01:07 AM,Liza Ryans,GA,30340,Legacy for Sam's,DWA-9100DWA-9100CH,Choco,New,,,,,3886.92,3599.00,287.92,Michael Wang,CreditCard,3886.92,Tc# 2960 0967 2589 0294 6739 34,,,,,,,0.00,,,,,,,,0.00,,,,,,,,No,"3 years parts, 1 year labor (Free)",Assigned,"Sam's Club #8213 Columbus, GA 1/25/18-2/4/18 (FL)",,,103449,"Give customer new chair.Customer needs delivery by Feb 27 or she might cancel.Customer will be away from home for 6 weeks starting Feb 28.

Although this is 1st floor Delivery, there are 4 to 5 steps up to the front door.",FL,0,8.00
2/4/2018 8:01:07 AM,Liza Ryans,GA,30340,Daiwa Blanket,,,New,,,,,3886.92,3599.00,287.92,Michael Wang,CreditCard,3886.92,Tc# 2960 0967 2589 0294 6739 34,,,,,,,0.00,,,,,,,,0.00,,,,,,,,No,no warranty,Assigned,"Sam's Club #8213 Columbus, GA 1/25/18-2/4/18 (FL)",,,103449,"Give customer new chair.Customer needs delivery by Feb 27 or she might cancel.Customer will be away from home for 6 weeks starting Feb 28.

Although this is 1st floor Delivery, there are 4 to 5 steps up to the front door.",FL,0,8.00
2/4/2018 8:01:07 AM,Liza Ryans,GA,30340,Chair Pad for Legacy,,,New,,,,,3886.92,3599.00,287.92,Michael Wang,CreditCard,3886.92,Tc# 2960 0967 2589 0294 6739 34,,,,,,,0.00,,,,,,,,0.00,,,,,,,,No,no warranty,Assigned,"Sam's Club #8213 Columbus, GA 1/25/18-2/4/18 (FL)",,,103449,"Give customer new chair.Customer needs delivery by Feb 27 or she might cancel.Customer will be away from home for 6 weeks starting Feb 28.

Although this is 1st floor Delivery, there are 4 to 5 steps up to the front door.",FL,0,8.00
2/4/2018 8:07:32 AM,Hyon Cary,GA,31909,Vitality Plate for Sam's,USJ-849USJ-849,New,New,,,,,431.99,399.99,32.00,Michael Wang,CreditCard,431.99,Tc# 7475 9329 5110 9203 0523 5,,,,,,,0.00,,,,,,,,0.00,,,,,,,,YES,"3 years parts, 1 year labor (Free)",Delivered,"Sam's Club #8213 Columbus, GA 1/25/18-2/4/18 (FL)",,,103450,Gave New one for floor model price.,FL,0,8.00
2/4/2018 8:04:40 PM,Daiwa Massage,CA,90249,Vitality Plate for Sam's,USJ-849USJ-849,New,New,,,,,431.99,399.99,32.00,Michael Wang,CreditCard,431.99,Tc# 3132 5226 1447 4182 2638 80,,,,,,,0.00,,,,,,,,0.00,,,,,,,,YES,"2 years parts, 1 year labor (Small Items)",Delivered,"Sam's Club #8213 Columbus, GA 1/25/18-2/4/18 (FL)",,,103472,Gave customer floor model price for new vitality plate.,CA,0,8.00
2/4/2018 8:28:11 PM,Ana Sardinas,GA,31904,Legacy for Sam's,DWA-9100DWA-9100CH,Choco,New,,,,,3886.92,3599.00,287.92,Michael Wang,CreditCard,3886.92,Tc# 3132 5226 1447 4182 2638 80,,,,,,,0.00,,,,,,,,0.00,,,,,,,,No,"3 years parts, 1 year labor (Free)",Assigned,"Sam's Club #8213 Columbus, GA 1/25/18-2/4/18 (FL)",,,103473,Give customer new chair.,FL,0,8.00
2/4/2018 8:28:11 PM,Ana Sardinas,GA,31904,Daiwa Blanket,,,New,,,,,3886.92,3599.00,287.92,Michael Wang,CreditCard,3886.92,Tc# 3132 5226 1447 4182 2638 80,,,,,,,0.00,,,,,,,,0.00,,,,,,,,No,no warranty,Assigned,"Sam's Club #8213 Columbus, GA 1/25/18-2/4/18 (FL)",,,103473,Give customer new chair.,FL,0,8.00
2/4/2018 8:28:11 PM,Ana Sardinas,GA,31904,Chair Pad for Legacy,,,New,,,,,3886.92,3599.00,287.92,Michael Wang,CreditCard,3886.92,Tc# 3132 5226 1447 4182 2638 80,,,,,,,0.00,,,,,,,,0.00,,,,,,,,No,no warranty,Assigned,"Sam's Club #8213 Columbus, GA 1/25/18-2/4/18 (FL)",,,103473,Give customer new chair.,FL,0,8.00
2/4/2018 8:39:11 PM,Daniel Holley,GA,31907,Legacy for Sam's,DWA-9100DWA-9100CH,Choco,New,,,,,3886.92,3599.00,287.92,Michael Wang,CreditCard,3886.92,Tc# 3603 9607 3826 4361 0436 71,,,,,,,0.00,,,,,,,,0.00,,,,,,,2/13/2018 12:00:00 AM,No,"3 years parts, 1 year labor (Free)",Delivered,"Sam's Club #8213 Columbus, GA 1/25/18-2/4/18 (FL)",,Please give customer a new chair.,103474,,FL,0,8.00
2/4/2018 8:39:11 PM,Daniel Holley,GA,31907,Daiwa Blanket,,,New,,,,,3886.92,3599.00,287.92,Michael Wang,CreditCard,3886.92,Tc# 3603 9607 3826 4361 0436 71,,,,,,,0.00,,,,,,,,0.00,,,,,,,2/13/2018 12:00:00 AM,No,no warranty,Delivered,"Sam's Club #8213 Columbus, GA 1/25/18-2/4/18 (FL)",,Please give customer a new chair.,103474,,FL,0,8.00
2/4/2018 8:39:11 PM,Daniel Holley,GA,31907,Chair Pad for Legacy,,,New,,,,,3886.92,3599.00,287.92,Michael Wang,CreditCard,3886.92,Tc# 3603 9607 3826 4361 0436 71,,,,,,,0.00,,,,,,,,0.00,,,,,,,2/13/2018 12:00:00 AM,No,no warranty,Delivered,"Sam's Club #8213 Columbus, GA 1/25/18-2/4/18 (FL)",,Please give customer a new chair.,103474,,FL,0,8.00
2/4/2018 8:47:59 PM,Randy Valenzuela,AL,36877,Legacy for Sam's,DWA-9100DWA-9100BL,Black,New,,,,,3886.92,3599.00,287.92,Michael Wang,CreditCard,3886.92,Tc# 5474 7411 5301 2543 1204 83,,,,,,,0.00,,,,,,,,0.00,,,,,,,2/13/2018 12:00:00 AM,No,"3 years parts, 1 year labor (Free)",Delivered,"Sam's Club #8213 Columbus, GA 1/25/18-2/4/18 (FL)",,,103475,Please give customer a new chair.,FL,0,8.00
2/4/2018 8:47:59 PM,Randy Valenzuela,AL,36877,Daiwa Blanket,,,New,,,,,3886.92,3599.00,287.92,Michael Wang,CreditCard,3886.92,Tc# 5474 7411 5301 2543 1204 83,,,,,,,0.00,,,,,,,,0.00,,,,,,,2/13/2018 12:00:00 AM,No,no warranty,Delivered,"Sam's Club #8213 Columbus, GA 1/25/18-2/4/18 (FL)",,,103475,Please give customer a new chair.,FL,0,8.00
2/4/2018 8:47:59 PM,Randy Valenzuela,AL,36877,Chair Pad for Legacy,,,New,,,,,3886.92,3599.00,287.92,Michael Wang,CreditCard,3886.92,Tc# 5474 7411 5301 2543 1204 83,,,,,,,0.00,,,,,,,,0.00,,,,,,,2/13/2018 12:00:00 AM,No,no warranty,Delivered,"Sam's Club #8213 Columbus, GA 1/25/18-2/4/18 (FL)",,,103475,Please give customer a new chair.,FL,0,8.00
