﻿Order Number,Order Date,Event Name,Salesperson,SKU,Product Name,Color,QTY,Warranty,Payment Details,Tax,Order Total,Gross,Primary Payment Method,Primary Payment Balance,Primary Authorize Number,Primary Purchase Order Number,Primary Synchrony Account Number,Primary Synchrony Application Key,Primary Synchrony AccountInfo,Primary SynchronyTerm,Secondly Payment Method,Secondly Payment Balance,Secondly Authorize Number,Secondly Purchase Order Number,Secondly Synchrony Account Number,Secondly Synchrony Application Key,Secondly Synchrony AccountInfo,Secondly SynchronyTerm,Thirdly Payment Method,Thirdly Payment Balance,Thirdly Authorize Number,Thirdly Purchase Order Number,Thirdly Synchrony Account Number,Thirdly Synchrony Application Key,Thirdly Synchrony AccountInfo,Thirdly SynchronyTerm,Actual Shipping Cost,CustomerName,Shipping Address,Delivered On,Serial Number (TO Be),Note,Branch,IsNoTax,ActualTaxRate
104537,3/15/2018 7:08:18 PM,Sam's Club #6692 3/15-25/18 (CA),Daisuke Ito,USJ-871,Foot Vibe Pro,,1,"2 years parts, 1 year labor for Small Items",CUSTOM ,9.57,119.56,119.56,PurchaseOrder,0.00,,,,,,,,0.00,,,,,,,,0.00,,,,,,,0.00,Daiwa Massage,800-241-2221,,,,CA,0,8.70
104630,3/19/2018 5:59:00 PM,Sam's Club #6692 3/15-25/18 (CA),Daisuke Ito,USJ-874USJ-874,Shogun Neck & Back Massger,New,1,"2 years parts, 1 year labor for Small Items",CUSTOM ,26.97,336.94,336.94,PurchaseOrder,0.00,,,,,,,,0.00,,,,,,,,0.00,,,,,,,,Daiwa Massage,800-241-2221,,,,Not Dispatched,0,8.70
104630,3/19/2018 5:59:00 PM,Sam's Club #6692 3/15-25/18 (CA),Daisuke Ito,USJ-871,Foot Vibe Pro,,1,"2 years parts, 1 year labor for Small Items",CUSTOM ,26.97,336.94,336.94,PurchaseOrder,0.00,,,,,,,,0.00,,,,,,,,0.00,,,,,,,,Daiwa Massage,800-241-2221,,,,Not Dispatched,0,8.70
104631,3/19/2018 6:06:50 PM,Sam's Club #6692 3/15-25/18 (CA),Daisuke Ito,USJ-871,Foot Vibe Pro,,3,"2 years parts, 1 year labor for Small Items",CUSTOM ,46.11,576.06,576.06,PurchaseOrder,0.00,,,,,,,,0.00,,,,,,,,0.00,,,,,,,,Daiwa Massage,800-241-2221,,,,Not Dispatched,0,8.70
104631,3/19/2018 6:06:50 PM,Sam's Club #6692 3/15-25/18 (CA),Daisuke Ito,USJ-874USJ-874,Shogun Neck & Back Massger,New,1,"2 years parts, 1 year labor for Small Items",CUSTOM ,46.11,576.06,576.06,PurchaseOrder,0.00,,,,,,,,0.00,,,,,,,,0.00,,,,,,,,Daiwa Massage,800-241-2221,,,,Not Dispatched,0,8.70
104643,3/20/2018 1:12:58 PM,Sam's Club #6692 3/15-25/18 (CA),Daisuke Ito,DWA-9100DWA-9100SB,Legacy for Sam's,New Sienna Brown,1,"3 years parts, 1 year labor (Free)",CUSTOM ,0.00,3599.00,3599.00,CreditCard,3599.00,,,,,,,,0.00,,,,,,,,0.00,,,,,,,0.00,Ly Soung,5208616325,,,Mr. Soung has Tax Exampt status,CA,1,8.70
104652,3/21/2018 5:27:30 PM,Sam's Club #6692 3/15-25/18 (CA),Daisuke Ito,DWA-9100DWA-9100SB,Legacy for Sam's,New Sienna Brown,1,"3 years parts, 1 year labor (Free)",CUSTOM ,313.11,3912.11,3912.11,CreditCard,3912.11,,,,,,,,0.00,,,,,,,,0.00,,,,,,,0.00,Jaime Reyes,5203314448,,,,CA,0,8.70
104702,3/23/2018 5:43:45 PM,Sam's Club #6692 3/15-25/18 (CA),Daisuke Ito,DWA-9100DWA-9100CH,Legacy for Sam's,New Choco,1,"3 years parts, 1 year labor (Free)",CUSTOM ,313.11,3912.11,3912.11,CreditCard,3912.11,,,,,,,,0.00,,,,,,,,0.00,,,,,,,0.00,Joe DeCarlo,5205291357,,,,CA,0,8.70
104703,3/23/2018 5:57:01 PM,Sam's Club #6692 3/15-25/18 (CA),Daisuke Ito,USJ-874USJ-874,Shogun Neck & Back Massger,New,1,"2 years parts, 1 year labor for Small Items",CUSTOM ,17.40,217.38,217.38,PurchaseOrder,0.00,,,,,,,,0.00,,,,,,,,0.00,,,,,,,0.00,Daiwa Massage,800-241-2221,,,,Not Dispatched,0,8.70
104704,3/23/2018 6:01:10 PM,Sam's Club #6692 3/15-25/18 (CA),Daisuke Ito,USJ-871,Foot Vibe Pro,,1,"2 years parts, 1 year labor for Small Items",CUSTOM ,9.57,119.56,119.56,PurchaseOrder,0.00,,,,,,,,0.00,,,,,,,,0.00,,,,,,,0.00,Daiwa Massage,800-241-2221,,,,Not Dispatched,0,8.70
104705,3/23/2018 6:03:53 PM,Sam's Club #6692 3/15-25/18 (CA),Daisuke Ito,USJ-871,Foot Vibe Pro,,2,"2 years parts, 1 year labor for Small Items",CUSTOM ,19.14,239.12,239.12,PurchaseOrder,0.00,,,,,,,,0.00,,,,,,,,0.00,,,,,,,0.00,Daiwa Massage,800-241-2221,,,,Not Dispatched,0,8.70
104715,3/24/2018 4:54:08 PM,Sam's Club #6692 3/15-25/18 (CA),Daisuke Ito,USJ-9050USJ-9050BR,Relax2Zero 2.0 for Sam's,New Brown,1,"3 years parts, 1 year labor (Free)",CUSTOM ,339.30,4239.30,4239.30,CreditCard,4239.30,,,,,,,,0.00,,,,,,,,0.00,,,,,,,0.00,Perla Dow,5202828074,,,,CA,0,8.70
104752,3/25/2018 5:46:22 PM,Sam's Club #6692 3/15-25/18 (CA),Daisuke Ito,DWA-9100DWA-9100CH,Legacy for Sam's,New Choco,1,"3 years parts, 1 year labor (Free)",CUSTOM ,313.11,3912.11,3912.11,CreditCard,3912.11,,,,,,,,0.00,,,,,,,,0.00,,,,,,,0.00,Narmada Patel,5207427082,,,,CA,0,8.70
104766,3/25/2018 8:58:58 PM,Sam's Club #6692 3/15-25/18 (CA),Daisuke Ito,USJ-849USJ-849,Vitality Plate for Sam's,New,1,"2 years parts, 1 year labor for Small Items",CUSTOM ,34.80,434.79,434.79,CreditCard,434.79,,,,,,,,0.00,,,,,,,,0.00,,,,,,,0.00,Daiwa Massage,800-241-2221,,,,CA,0,8.70
104767,3/25/2018 9:06:13 PM,Sam's Club #6692 3/15-25/18 (CA),Daisuke Ito,USJ-871,Foot Vibe Pro,,1,"2 years parts, 1 year labor for Small Items",CUSTOM ,9.57,119.56,119.56,CreditCard,119.56,,,,,,,,0.00,,,,,,,,0.00,,,,,,,0.00,Daiwa Massage,800-241-2221,,,,CA,0,8.70
104768,3/25/2018 9:13:27 PM,Sam's Club #6692 3/15-25/18 (CA),Daisuke Ito,USJ-871,Foot Vibe Pro,,1,"2 years parts, 1 year labor for Small Items",CUSTOM ,9.57,119.56,119.56,CreditCard,119.56,,,,,,,,0.00,,,,,,,,0.00,,,,,,,0.00,Daiwa Massage,800-241-2221,,,,CA,0,8.70
104769,3/25/2018 9:16:36 PM,Sam's Club #6692 3/15-25/18 (CA),Daisuke Ito,USJ-871,Foot Vibe Pro,,1,"2 years parts, 1 year labor for Small Items",CUSTOM ,9.57,119.56,119.56,PurchaseOrder,119.56,,,,,,,,0.00,,,,,,,,0.00,,,,,,,0.00,Daiwa Massage,800-241-2221,,,,Not Dispatched,0,8.70
104770,3/25/2018 9:19:07 PM,Sam's Club #6692 3/15-25/18 (CA),Daisuke Ito,USJ-871,Foot Vibe Pro,,1,"2 years parts, 1 year labor for Small Items",CUSTOM ,9.57,119.56,119.56,PurchaseOrder,119.56,,,,,,,,0.00,,,,,,,,0.00,,,,,,,0.00,Daiwa Massage,800-241-2221,,,,Not Dispatched,0,8.70
