﻿Original Event Name,Event Name,Sales Person,Order Number,Order Date,Customer Name,State,Zip,Product Name,Color,Product Status,QTY,Tax,Total Before Tax,Order Total,Primary Payment Method,Second Payment Method,Thirdl Payment Method,Warranty,Order Items,Pick up,Delivered On,Order Status,Chair Type,Order Notes,Private Note,Branch,No Tax,Actual Tax Rate,SKU,Primary Payment Balance,Primary Authorize Number,Primary Purchase Order Number,Primary Synchrony Account Number,Primary Synchrony Application Key,Primary Synchrony Account Info,Primary Synchrony Term,Primary Synchrony Primary ID,Primary Synchrony Issued State,Primary Synchrony Expiretion Date,Second Payment Balance,Second Authorize Number,Second Purchase Order Number,Second Synchrony Account Number,Second Synchrony Application Key,Second Synchrony Account Info,Second SynchronyTerm,Second Synchrony Primary ID,Second Synchrony Issued State,Second Synchrony Expiretion Date,Third Payment Balance,Third Authorize Number,Third Purchase Order Number,Third Synchrony Account Number,Third Synchrony Application Key,Third Synchrony Account Info,Third Synchrony Term,Third Synchrony Primary ID,Third Synchrony Issued State,Third Synchrony Expiretion Date
"Sam's Club #8296 Springfield, MO","Sam's Club #8296 Springfield, MO",Keith Kei,118170,6/21/2019 12:19:30 AM,Dominik Stevens,MO,65803,PEGASUS 2 SMART - Sam's,New Black,New,1,539.38,6658.99,7198.37,Purchase Order,,,"3 years parts, 1 year labor (Free)","PEGASUS 2 SMART - Sam's,Vitality Plate for Sam's,",No,,Printed,,"Please assign delivery asap, only the massage chair needs to be delivered. the vitality plate had picked up by the customer in store already.","--Original received. Erika 6/21/19 9:05am
6/24(12:47pm) Customer confirmed Delivery for 7/16 3:30pm-7:30pm.-Karen
Karen had made a schedule to customer when i had already dispatched to Texas after speaking to Mario and Billy. June will reschedule customers order Erika 6/24/19 3:37pm
Called and left voice message with customer about reschedule the delivery appointment. 5:48pm 6/24/2019 June
Printed - Tina 6/25/2019",TX,0,8.10,PEGS-2PEGS-2-BL,7198.37,,TC# 5640676854688375723994,,,,,,,/,0.00,,,,,,,,,/,0.00,,,,,,,,,/
"Sam's Club #8296 Springfield, MO","Sam's Club #8296 Springfield, MO",Keith Kei,118170,6/21/2019 12:19:30 AM,Dominik Stevens,MO,65803,Vitality Plate for Sam's,New,New,1,539.38,6658.99,7198.37,Purchase Order,,,"2 years parts, 1 year labor for Small Items","PEGASUS 2 SMART - Sam's,Vitality Plate for Sam's,",No,,Printed,,"Please assign delivery asap, only the massage chair needs to be delivered. the vitality plate had picked up by the customer in store already.","--Original received. Erika 6/21/19 9:05am
6/24(12:47pm) Customer confirmed Delivery for 7/16 3:30pm-7:30pm.-Karen
Karen had made a schedule to customer when i had already dispatched to Texas after speaking to Mario and Billy. June will reschedule customers order Erika 6/24/19 3:37pm
Called and left voice message with customer about reschedule the delivery appointment. 5:48pm 6/24/2019 June
Printed - Tina 6/25/2019",TX,0,8.10,USJ-849USJ-849,7198.37,,TC# 5640676854688375723994,,,,,,,/,0.00,,,,,,,,,/,0.00,,,,,,,,,/
"Sam's Club #8296 Springfield, MO","Sam's Club #8296 Springfield, MO",Keith Kei,118262,6/24/2019 10:11:52 AM,Ray Valenzuela,MO,65648,PEGASUS 2 SMART - Sam's,Demo(Box) Choco[-700],Demo,1,445.42,5499.00,5944.42,Purchase Order,,,"3 years parts, 1 year labor (Free)","PEGASUS 2 SMART - Sam's,",No,,Called,,"2nd floor delivery
Give new chair","Main contact# 4173508301 for Theresa
Original received. Erika 6/24/19 11:41am
Printed-6/25/2019
courtesy text completed. Erika 6/25/19 2:40pm
Courtesy message sent - 6/27 - Alysa",TX,0,8.10,PEGS-2PEGS-2-BR-DEMO(Box),5944.42,,TC# 5602032370224960635830,,,,,,,/,0.00,,,,,,,,,/,0.00,,,,,,,,,/
"Sam's Club #8296 Springfield, MO","Sam's Club #8296 Springfield, MO",Keith Kei,118263,6/24/2019 10:26:14 AM,Yaroslav P. Kataranchuk,MO,65803,PEGASUS 2 SMART - Sam's,New Choco,New,1,502.12,6199.00,6701.12,Sam’s Club Synchrony,,,"3 years parts, 1 year labor (Free)","PEGASUS 2 SMART - Sam's,Daiwa Blanket,",No,,Called,,"24 months zero% APR financing
Give 2 Daiwa blanket
1st floor","Original received. Erika 6/24/19 11:40am
Printed-6/25/2019 Tina
courtesy call completed. Erika 6/25/19 2:36pm
Courtesy message sent 6/27/2019 - Tina",TX,0,8.10,PEGS-2PEGS-2-BR,6701.12,,,,,,,,,/,0.00,,,,,,,,,/,0.00,,,,,,,,,/
"Sam's Club #8296 Springfield, MO","Sam's Club #8296 Springfield, MO",Keith Kei,118265,6/24/2019 10:37:46 AM,Snappy Member# 10113562266106,MO,00000,Ninja Leg Massager 2,New,New,1,24.30,299.98,324.28,Purchase Order,,,"2 years parts, 1 year labor for Small Items","Ninja Leg Massager 2,",YES,,Delivered,,Item picked up by the customer already,,IL,0,8.10,USJ-880,324.28,,TC# 464968939877195961526,,,,,,,/,0.00,,,,,,,,,/,0.00,,,,,,,,,/
"Sam's Club #8296 Springfield, MO","Sam's Club #8296 Springfield, MO",Keith Kei,118266,6/24/2019 10:43:01 AM,Richard or K.C. Munoz,MO,65669,PEGASUS 2 SMART - Sam's,New Choco,New,1,502.12,6199.00,6701.12,Purchase Order,,,"3 years parts, 1 year labor (Free)","PEGASUS 2 SMART - Sam's,",No,,Called,,Please assign delivery asap,"Original received. Erika 6/24/19 11:37am
Printed-6/25/2019 Tina
courtesy call completed, Erika 6/25/19 2:33pm
Courtesy message sent 6/27/2019 - Tina",TX,0,8.10,PEGS-2PEGS-2-BR,6701.12,,TC# 0158297919739058574378,,,,,,,/,0.00,,,,,,,,,/,0.00,,,,,,,,,/
"Sam's Club #8296 Springfield, MO","Sam's Club #8296 Springfield, MO",Keith Kei,118311,6/26/2019 11:47:12 AM,Scott Phillips,MO,65804,PEGASUS 2 SMART - Sam's,Demo Choco[-700],Demo,1,445.42,5499.00,5944.42,Purchase Order,,,"3 years parts, 1 year labor (Free)","PEGASUS 2 SMART - Sam's,Daiwa Blanket,",No,,Called,,Give a Daiwa blanket,"Customer have vision loss issue (blind), please give extra care when delivery.
Original received. Erika 6/26/19 12:03pm
courtesy call completed. Erika 6/26/19 1:44pm
Printed - Tina 6/27/2019
Courtesy message sent 6/27/2019 - Tina",TX,0,8.10,PEGS-2PEGS-2-BR-DEMO,5944.42,,TC# 0959128136867196920526,,,,,,,/,0.00,,,,,,,,,/,0.00,,,,,,,,,/
"Sam's Club #8296 Springfield, MO","Sam's Club #8296 Springfield, MO",Keith Kei,118377,6/29/2019 1:42:14 PM,Paul / Gayle Waldrep,MO,65770,PEGASUS 2 SMART - Sam's,New Choco,New,1,502.12,6199.00,6701.12,Sam’s Club Synchrony,,,"3 years parts, 1 year labor (Free)","PEGASUS 2 SMART - Sam's,",No,,New,,24 months zero% APR financing,"Original received, Erika 7/1/19 11:40am",TX,0,8.10,PEGS-2PEGS-2-BR,6701.12,,,,,,,,,/,0.00,,,,,,,,,/,0.00,,,,,,,,,/
"Sam's Club #8296 Springfield, MO","Sam's Club #8296 Springfield, MO",Keith Kei,118378,6/29/2019 1:48:31 PM,Tim W Johnson,MO,65803,PEGASUS 2 SMART - Sam's,New Choco,New,1,502.12,6199.00,6701.12,Purchase Order,,,"3 years parts, 1 year labor (Free)","PEGASUS 2 SMART - Sam's,",No,,New,,,"Please assign delivery asap
Original received. Erika 7/1/19 11:36am",TX,0,8.10,PEGS-2PEGS-2-BR,6701.12,,TC# 6415013249391605038235,,,,,,,/,0.00,,,,,,,,,/,0.00,,,,,,,,,/
