﻿Original Event Name,Event Name,Sales Person,Order Number,Order Date,Customer Name,State,Zip,Product Name,Color,Product Status,QTY,Tax,Total Before Tax,Order Total,Primary Payment Method,Second Payment Method,Thirdl Payment Method,Warranty,Order Items,Pick up,Delivered On,Order Status,Chair Type,Order Notes,Private Note,Branch,No Tax,Actual Tax Rate,SKU,Primary Payment Balance,Primary Authorize Number,Primary Purchase Order Number,Primary Synchrony Account Number,Primary Synchrony Application Key,Primary Synchrony Account Info,Primary Synchrony Term,Primary Synchrony Primary ID,Primary Synchrony Issued State,Primary Synchrony Expiretion Date,Second Payment Balance,Second Authorize Number,Second Purchase Order Number,Second Synchrony Account Number,Second Synchrony Application Key,Second Synchrony Account Info,Second SynchronyTerm,Second Synchrony Primary ID,Second Synchrony Issued State,Second Synchrony Expiretion Date,Third Payment Balance,Third Authorize Number,Third Purchase Order Number,Third Synchrony Account Number,Third Synchrony Application Key,Third Synchrony Account Info,Third Synchrony Term,Third Synchrony Primary ID,Third Synchrony Issued State,Third Synchrony Expiretion Date
"Sam's Club #6345 Idaho Falls, ID","Sam's Club #6345 Idaho Falls, ID",Michael Rowe,118450,7/2/2019 3:30:55 PM,Kerry Lamb 2534,WY,83001,Orbit for Sam's ,Demo Black[-300],Demo,1,0.00,2698.00,2698.00,Purchase Order,,,"3 years parts, 1 year labor (Free)","Orbit for Sam's ,",No,7/18/2019 12:00:00 AM,Delivered,Demo,Kerry bought the demo orbit off the floor.,"She is expecting to see 1101001180023 she even took pictures of the chair for damage.
Original received. collect customers signature on invoice @delivery. Customer wants to purchase demo that is displayed @ sams. serial #1101001180023 Erika 7/5/19 1:48pm",NV,1,6.00,ORBT-1ORBT-1BL-DEMO,2698.00,,TC#4710296894647172085342,,,,,,,/,0.00,,,,,,,,,/,0.00,,,,,,,,,/
"Sam's Club #6345 Idaho Falls, ID","Sam's Club #6345 Idaho Falls, ID",Michael Rowe,118452,7/2/2019 4:53:47 PM,Kent Williams,ID,83442,Orbit for Sam's ,Demo Choco(Box)[-300],Demo,1,0.00,2698.00,2698.00,Purchase Order,,,"3 years parts, 1 year labor (Free)","Orbit for Sam's ,",No,7/18/2019 12:00:00 AM,Delivered,New,,"Original received. PLS collect customers signature on invoice @delivery, Erika 7/5/19 1:50pm",NV,1,6.00,ORBT-1ORBT-1CH-BOX,2698.00,,TC#47602165916371700823,,,,,,,/,0.00,,,,,,,,,/,0.00,,,,,,,,,/
"Sam's Club #6345 Idaho Falls, ID","Sam's Club #6345 Idaho Falls, ID",Michael Rowe,118489,7/4/2019 11:19:32 AM,Marco Alvarado,ID,83442,Relax 2 Zero 2.0 for Sam's,New Black,New,1,0.00,3900.00,3900.00,Sam’s Club Synchrony,,,"5 years parts, 1 year labor (Free)","Relax 2 Zero 2.0 for Sam's,Chair Pad for Relax2Zero 2.0,",No,7/18/2019 12:00:00 AM,Delivered,New,,"Original received. Erika 7/5/19 12:32pm
Customer is receiving a brown not black. - HH",NV,1,6.00,USJ-9050USJ-9050BL,3900.00,,,,,,,,,/,0.00,,,,,,,,,/,0.00,,,,,,,,,/
"Sam's Club #6345 Idaho Falls, ID","Sam's Club #6345 Idaho Falls, ID",Michael Rowe,118526,7/6/2019 3:18:13 PM,Jerry Gregerbeu,ID,83222,Orbit for Sam's ,Demo Choco(Box)[-300],Demo,1,0.00,2698.00,2698.00,Purchase Order,,,"3 years parts, 1 year labor (Free)","Orbit for Sam's ,",No,7/17/2019 12:00:00 AM,Delivered,New,,Original received. Erika 7/8/19 11:58am,NV,1,6.00,ORBT-1ORBT-1CH-BOX,2698.00,,TC#8308007438735253430046,,,,,,,/,0.00,,,,,,,,,/,0.00,,,,,,,,,/
"Sam's Club #6345 Idaho Falls, ID","Sam's Club #6345 Idaho Falls, ID",Michael Rowe,118528,7/6/2019 4:03:55 PM,Chris Sasser,ID,83401,Relax 2 Zero 2.0 for Sam's,Demo Brown[-701],Demo,1,0.00,3199.00,3199.00,Sam’s Club Synchrony,,,"3 years parts, 1 year labor (Free)","Relax 2 Zero 2.0 for Sam's,Chair Pad for Relax2Zero 2.0,",No,7/18/2019 12:00:00 AM,Delivered,Demo,,"*Serial # 0102002180508 Demo Brown relax 2 zero 2.0- Free cushion per sales rep sq. Erika 7/8/19
Original received. Erika 7/8/19 11:52am",NV,1,6.00,USJ-9050USJ-9050BR-DEMO,3199.00,,,,,,,,,/,0.00,,,,,,,,,/,0.00,,,,,,,,,/
"Sam's Club #6345 Idaho Falls, ID","Sam's Club #6345 Idaho Falls, ID",Michael Rowe,118531,7/6/2019 5:42:01 PM,Wes Parkinson,ID,83440,Relax 2 Zero 2.0 for Sam's,Demo (Box) Brown[-701],Demo,1,0.00,3199.00,3199.00,Purchase Order,,,"3 years parts, 1 year labor (Free)","Relax 2 Zero 2.0 for Sam's,",No,7/18/2019 12:00:00 AM,Delivered,New,,Original received. Erika 7/8/19 11:50am,NV,1,6.00,USJ-9050USJ-9050BR-DEMO (Box),3199.00,,TC#5584621343126729924805,,,,,,,/,0.00,,,,,,,,,/,0.00,,,,,,,,,/
