﻿Original Event Name,Event Name,Sales Person,Order Number,Order Date,Customer Name,State,Zip,Product Name,Color,Product Status,QTY,Tax,Total Before Tax,Order Total,Primary Payment Method,Second Payment Method,Thirdl Payment Method,Warranty,Order Items,Pick up,Delivered On,Order Status,Chair Type,Order Notes,Private Note,Branch,No Tax,Actual Tax Rate,SKU,Primary Payment Balance,Primary Authorize Number,Primary Purchase Order Number,Primary Synchrony Account Number,Primary Synchrony Application Key,Primary Synchrony Account Info,Primary Synchrony Term,Primary Synchrony Primary ID,Primary Synchrony Issued State,Primary Synchrony Expiretion Date,Second Payment Balance,Second Authorize Number,Second Purchase Order Number,Second Synchrony Account Number,Second Synchrony Application Key,Second Synchrony Account Info,Second SynchronyTerm,Second Synchrony Primary ID,Second Synchrony Issued State,Second Synchrony Expiretion Date,Third Payment Balance,Third Authorize Number,Third Purchase Order Number,Third Synchrony Account Number,Third Synchrony Application Key,Third Synchrony Account Info,Third Synchrony Term,Third Synchrony Primary ID,Third Synchrony Issued State,Third Synchrony Expiretion Date
"Baton Rouge Jewelry Show (Baton Rouge, LA) 12/7-12/9/2018","Baton Rouge Jewelry Show (Baton Rouge, LA) 12/7-12/9/2018",Mario Higareda,113161,12/12/2018 11:48:22 AM,Bridget Stevens,LA,70570,Relax2Zero 3D,Demo Black,Demo,1,0.00,3800.00,3800.00,CreditCard,CreditCard,,"5 years parts, 1 year labor (Free)","Relax2Zero 3D,",No,12/13/2018 12:00:00 AM,Delivered,Demo,"Please COD $3,500 (Cashier's Check/Credit Card/Cash)","Confirmed $300 in Square. **COD $3,500** 12/12/18 Hitomi
12/13Maritza Courtesy message sent @ 2:53PM
12/13/2018 Tina - Added to delivery for 12/13/2018
12/20Maritza- Delivery confirmation received. COD on square 3500",TX,1,9.45,DWA-9060USJ-9060BL-DEMO,300.00,Square #yqd8,,,,,,,,,3500.00,#T3Kb,,,,,,,,,0.00,,,,,,,,,
