﻿Original Event Name,Event Name,Sales Person,Order Number,Order Date,Customer Name,State,Zip,Product Name,Color,Product Status,QTY,Tax,Total Before Tax,Order Total,Primary Payment Method,Second Payment Method,Thirdl Payment Method,Warranty,Order Items,Pick up,Delivered On,Order Status,Chair Type,Order Notes,Private Note,Branch,No Tax,Actual Tax Rate,SKU,Primary Payment Balance,Primary Authorize Number,Primary Purchase Order Number,Primary Synchrony Account Number,Primary Synchrony Application Key,Primary Synchrony Account Info,Primary Synchrony Term,Primary Synchrony Primary ID,Primary Synchrony Issued State,Primary Synchrony Expiretion Date,Second Payment Balance,Second Authorize Number,Second Purchase Order Number,Second Synchrony Account Number,Second Synchrony Application Key,Second Synchrony Account Info,Second SynchronyTerm,Second Synchrony Primary ID,Second Synchrony Issued State,Second Synchrony Expiretion Date,Third Payment Balance,Third Authorize Number,Third Purchase Order Number,Third Synchrony Account Number,Third Synchrony Application Key,Third Synchrony Account Info,Third Synchrony Term,Third Synchrony Primary ID,Third Synchrony Issued State,Third Synchrony Expiretion Date
SEATTLE HM SHOW 2/23-3/3/19 SEATTLE (WA),SEATTLE HM SHOW 2/23-3/3/19 SEATTLE (WA),Rodrigo Malabunga,115333,2/25/2019 1:27:50 PM,Ricky Rehder,WA,98251,PEGASUS 2 SMART,New Choco,New,1,0.00,6200.00,6200.00,Synchrony,,,"5 years parts, 1 year labor (Free)","PEGASUS 2 SMART,",No,3/5/2019 12:00:00 AM,Delivered,New,,"Confirmed SYNC$8,500/original. ***Please charge $6,200 before delivery and sales draft signed**. 
Confirmed w/Rod , chair model is Pegasus SMART  - 2/25/19 Hitomi
02/26/19 courtesy call / text completed- cristina
Scheduled(March 5th 2019 after 11:15am) and synchrony processed Feb 28 2019 (auth#028836) done by Scott",WA,1,10.10,PEGS-2PEGS-2-BR,6200.00,,,6501723375028774,71750405,Las Vegas,36 months,,,,0.00,,,,,,,,,,0.00,,,,,,,,,
SEATTLE HM SHOW 2/23-3/3/19 SEATTLE (WA),SEATTLE HM SHOW 2/23-3/3/19 SEATTLE (WA),Rodrigo Malabunga,115334,2/25/2019 1:47:33 PM,Dan Mio,WA,98040,PEGASUS 2 SMART,New Black,New,1,0.00,6200.00,6200.00,Check,COD,,"5 years parts, 1 year labor (Free)","PEGASUS 2 SMART,",No,,Hold,,,"will confirm check 2/25/19 Hitomi
2/26/19-Scott informed that the customer will come into the office to test the chair. He will finalize the payment at that time. So he said to hold this until then. - Hitomi",Not Dispatched,1,10.10,PEGS-2PEGS-2-BL,100.00,,,,,,,,,,6100.00,,,,,,,,,,0.00,,,,,,,,,
SEATTLE HM SHOW 2/23-3/3/19 SEATTLE (WA),SEATTLE HM SHOW 2/23-3/3/19 SEATTLE (WA),Rodrigo Malabunga,115347,2/26/2019 2:53:18 PM,Barbara Farrell,WA,98092,Legacy 3D,New Choco,New,1,0.00,4500.00,4500.00,Credit Card,Credit Card,,"5 years parts, 2 years labor ($200)","Legacy 3D,",No,4/23/2019 12:00:00 AM,Delivered,New,,"$200.00 down
$4300.00 balanced COD
$4500.00 total priced
HOLD for now the house not ready yet
2/26/19-Confirmed $200 in SQ. ***COD $4,300*** . hold till they are ready - Hitomi
Scheduled 4/23/19 8:30am
5/7Maritza- Delivery confirmation received. Confirmed COD 4300 on square.",WA,1,10.10,DWA-9150USJ-9150CH,200.00,aLk7,,,,,,,,,4300.00,#eyFz,,,,,,,,,0.00,,,,,,,,,
SEATTLE HM SHOW 2/23-3/3/19 SEATTLE (WA),SEATTLE HM SHOW 2/23-3/3/19 SEATTLE (WA),Rodrigo Malabunga,115394,3/2/2019 10:16:58 AM,Sandra Lewis,WA,98038,Legacy 3D,Demo Black,Demo,1,0.00,4615.00,4615.00,Synchrony,,,"5 years parts, 2 years labor ($200)","Legacy 3D,",No,3/4/2019 12:00:00 AM,Delivered,Demo,,"Chair model is confirmed w/Rod, Legacy 3D (original says 9060) . Confirmed SYNC$6,500 and original. ***Please charge $4,615.00 / sales draft ** - 3/4/19 Hitomi
synchrony processed March 4 2019 by Scott
Scheduled March 4th after 1pm",WA,1,10.10,DWA-9150USJ-9150BL-DEMO,4615.00,,,6501723375036249,71994973,Las Vegas,24 months,,,,0.00,,,,,,,,,,0.00,,,,,,,,,
SEATTLE HM SHOW 2/23-3/3/19 SEATTLE (WA),SEATTLE HM SHOW 2/23-3/3/19 SEATTLE (WA),Rodrigo Malabunga,115395,3/2/2019 10:27:51 AM,James Hopkins,WA,98284,Relax 2 Zero 3D,New Black,New,1,0.00,4200.00,4200.00,CreditCard,,,"5 years parts, 2 years labor ($200)","Relax 2 Zero 3D,",No,3/12/2019 12:00:00 AM,Delivered,New,,"COnfirmed $4,200 in SQ. -3/4/19 Hitomi
3/5Maritza- Courtesy message sent @ 8:46AM
Scheduled March 12  2019 10:30am to 12:30am",WA,1,10.10,DWA-9060USJ-9060BL,4200.00,Sq #vf69,,,,,,,,,0.00,,,,,,,,,,0.00,,,,,,,,,
SEATTLE HM SHOW 2/23-3/3/19 SEATTLE (WA),SEATTLE HM SHOW 2/23-3/3/19 SEATTLE (WA),Rodrigo Malabunga,115396,3/2/2019 10:36:05 AM,Jerry White,CO,80919,Relax 2 Zero 3D,New Choco,New,1,0.00,3900.00,3900.00,CreditCard,,,"5 years parts, 2 years labor ($200)","Relax 2 Zero 3D,",No,3/31/2019 12:00:00 AM,Delivered,New,,"This is 2 order 1 mile apart each other.
The other order name 
Dave Bennett (#115398)
3/4/19 Confirmed $3,900.00 in SQ. Hitomi
3/4Maritza- Courtesy message sent @ 9:15AM He confirmed the color.
4/12Maritza- Delivery confirmation received with signature on original invoice",TX,1,10.10,DWA-9060USJ-9060BR,3900.00,Sq #WGpl,,,,,,,,,0.00,,,,,,,,,,0.00,,,,,,,,,
SEATTLE HM SHOW 2/23-3/3/19 SEATTLE (WA),SEATTLE HM SHOW 2/23-3/3/19 SEATTLE (WA),Rodrigo Malabunga,115398,3/2/2019 10:41:37 AM,Dave Bennett,CO,80920,Relax 2 Zero 3D,New Choco,New,1,0.00,3700.00,3700.00,CreditCard,,,"5 years parts, 2 years labor ($200)","Relax 2 Zero 3D,",No,3/31/2019 12:00:00 AM,Delivered,New,,"Dave Bennett and Jerry White(#115396)
Are 1 order they 1 mile away from each other
3/4/19-Confirmed $3,700.00 inSQ. Hitomi
3/4Maritza- Courtesy message sent @ 9:15AM
4/12Maritza- Delivery confirmation received with signature on original invoice.",TX,1,10.10,DWA-9060USJ-9060BR,3700.00,Sq #p1ix,,,,,,,,,0.00,,,,,,,,,,0.00,,,,,,,,,
SEATTLE HM SHOW 2/23-3/3/19 SEATTLE (WA),SEATTLE HM SHOW 2/23-3/3/19 SEATTLE (WA),Rodrigo Malabunga,115399,3/2/2019 10:49:26 AM,Karen Anderson,WA,98249,Legacy 3D,Demo Black,Demo,1,0.00,4200.00,4200.00,CreditCard,,,"5 years parts, 3 years labor ($400)","Legacy 3D,",No,3/2/2019 12:00:00 AM,Delivered,Demo,,"3/4/19-Confirmed $4,200.00 in SQ. - Hitomi
3/5Maritza- Courtesy message sent @ 8:47AM
Scheduled March 12 2019 After 1pm",WA,1,10.10,DWA-9150USJ-9150BL-DEMO,4200.00,Sq #Rbhw,,,,,,,,,0.00,,,,,,,,,,0.00,,,,,,,,,
SEATTLE HM SHOW 2/23-3/3/19 SEATTLE (WA),SEATTLE HM SHOW 2/23-3/3/19 SEATTLE (WA),Rodrigo Malabunga,115419,3/2/2019 8:45:40 PM,Fox’s Upholstory,WA,98240,Relax 2 Zero 3D,New Choco,New,1,0.00,4400.00,4400.00,CreditCard,,,"5 years parts, 2 years labor ($200)","Relax 2 Zero 3D,",No,3/8/2019 12:00:00 AM,Delivered,New,,"Confirmed $4,400 in SQ. -3/4/19 Hitomi
3/5Maritza- Courtesy message sent @ 8:50AM
Scheduled March 8th 2019 12:30pm to 2:30pm",WA,1,10.10,DWA-9060USJ-9060BR,4400.00,Sq #0ArY,,,,,,,,,0.00,,,,,,,,,,0.00,,,,,,,,,
SEATTLE HM SHOW 2/23-3/3/19 SEATTLE (WA),SEATTLE HM SHOW 2/23-3/3/19 SEATTLE (WA),Rodrigo Malabunga,115420,3/2/2019 8:52:17 PM,Jay Mauchley,ID,83843,Legacy 3D,New Choco,New,1,0.00,5150.00,5150.00,CreditCard,CreditCard,,"5 years parts, 2 years labor ($200)","Legacy 3D,",No,3/13/2019 12:00:00 AM,Delivered,New,,"PLease double check the address 
Confirmed $500.00 in SQ. close to WA. **COD $4,650.00**-3/4/19 Hitomi
3/5Maritza- Courtesy message sent @ 8:55AM
Scheduled March 13, 2019 1pm to 3pm",WA,1,10.10,DWA-9150USJ-9150CH,500.00,Sq #0hAB,,,,,,,,,4650.00,iYpd,,,,,,,,,0.00,,,,,,,,,
SEATTLE HM SHOW 2/23-3/3/19 SEATTLE (WA),SEATTLE HM SHOW 2/23-3/3/19 SEATTLE (WA),Rodrigo Malabunga,115423,3/2/2019 8:59:40 PM,Leland Holmquest,WA,98012,PEGASUS 2 SMART,New Choco,New,1,0.00,6807.00,6807.00,Synchrony,,,"5 years parts, 2 years labor ($200)","PEGASUS 2 SMART,",No,3/12/2019 12:00:00 AM,Delivered,New,,"COnfirmed SYNC$8,000 and original.***Please charge $6,807/sales draft *** -3/4/19 Hitomi
3/5Maritza- Courtesy message sent and email @ 8:57AM
Scheduled for March 8 2018 9:30am to 10:30am
Synchrony Processed on March 8 2019",WA,1,10.10,PEGS-2PEGS-2-BR,6807.00,,,6501723375039979,72080470,Las Vegas,36 months,,,,0.00,,,,,,,,,,0.00,,,,,,,,,
