﻿Product Name,Variant Name,OrderNumber,Quantity,Order Date
Foot Vides Pro,,100243,1,8/17/2017 11:29:35 PM
Foot Vibe Pro,,100251,1,8/19/2017 4:57:25 PM
Foot Vibe Pro,,100256,1,8/19/2017 5:56:38 PM
Foot Vibe Pro,,100259,1,8/19/2017 8:12:51 PM
Foot Vibe Pro,,100261,1,8/19/2017 11:15:47 PM
Foot Vibe Pro,,100268,1,8/20/2017 6:14:47 PM
Foot Vibe Pro,,100277,1,8/21/2017 9:00:02 PM
Foot Vibe Pro,,100280,1,8/22/2017 5:48:25 PM
Foot Vibe Pro,,100283,1,8/23/2017 6:53:20 PM
Foot Vibe Pro,,100293,1,8/26/2017 11:16:52 PM
Foot Vibe Pro,,100303,1,8/27/2017 2:39:42 PM
Foot Vibe Pro,,100317,1,8/29/2017 7:09:58 PM
Vitality Plate,,100235,1,8/14/2017 7:04:18 PM
Vitality Plate,,100262,1,8/19/2017 11:26:41 PM
Vitality Plate,,100291,1,8/25/2017 12:14:52 AM
Legacy for Sam's,,100202,1,8/9/2017 7:53:55 PM
Legacy for Sam's,,100203,1,8/9/2017 8:39:46 PM
Legacy for Sam's,,100204,1,8/9/2017 9:13:21 PM
Legacy for Sam's,,100205,1,8/9/2017 9:28:46 PM
Legacy for Sam's,,100206,1,8/9/2017 9:33:07 PM
Legacy for Sam's,,100207,1,8/9/2017 9:42:15 PM
Legacy for Sam's,,100209,1,8/10/2017 12:28:40 AM
Legacy for Sam's,,100210,1,8/10/2017 12:38:36 AM
Legacy for Sam's,,100211,1,8/10/2017 12:55:19 AM
Legacy for Sam's,,100212,1,8/10/2017 1:12:27 AM
Legacy for Sam's,,100213,1,8/10/2017 1:18:38 AM
Legacy for Sam's,,100214,1,8/10/2017 1:37:45 AM
Legacy for Sam's,,100215,1,8/10/2017 1:42:16 AM
Legacy for Sam's,,100216,1,8/10/2017 1:53:21 AM
Legacy for Sam's,,100220,1,8/10/2017 5:26:18 PM
Legacy for Sam's,,100221,1,8/11/2017 1:12:42 AM
Legacy for Sam's,,100222,1,8/11/2017 8:30:29 PM
Legacy for Sam's,,100223,1,8/12/2017 7:14:18 PM
Legacy for Sam's,,100233,1,8/14/2017 6:24:39 PM
Legacy for Sam's,,100237,1,8/15/2017 2:12:05 AM
Legacy for Sam's,,100238,1,8/16/2017 6:26:33 PM
Legacy for Sam's,,100239,1,8/16/2017 6:34:09 PM
Legacy for Sam's,,100240,1,8/16/2017 7:03:07 PM
Legacy for Sam's,,100242,1,8/17/2017 9:42:37 PM
Legacy for Sam's,,100246,1,8/18/2017 8:58:27 PM
Legacy for Sam's,,100247,1,8/18/2017 11:59:09 PM
Legacy for Sam's,,100248,1,8/19/2017 2:17:46 AM
Legacy for Sam's,,100249,1,8/19/2017 4:40:52 PM
Legacy for Sam's,,100250,1,8/19/2017 4:42:52 PM
Legacy for Sam's,,100252,1,8/19/2017 4:58:02 PM
Legacy for Sam's,,100254,2,8/19/2017 5:23:17 PM
Legacy for Sam's,,100255,1,8/19/2017 5:51:07 PM
Legacy for Sam's,,100257,1,8/19/2017 7:19:36 PM
Legacy for Sam's,,100260,1,8/19/2017 11:05:17 PM
Legacy for Sam's,,100262,1,8/19/2017 11:26:41 PM
Legacy for Sam's,,100264,1,8/20/2017 1:08:08 AM
Legacy for Sam's,,100266,1,8/20/2017 5:24:54 PM
Legacy for Sam's,,100267,1,8/20/2017 5:57:44 PM
Legacy for Sam's,,100270,1,8/20/2017 7:29:42 PM
Legacy for Sam's,,100272,1,8/21/2017 3:26:10 PM
Legacy for Sam's,,100273,1,8/21/2017 3:54:03 PM
Legacy for Sam's,,100278,1,8/22/2017 3:58:22 PM
Legacy for Sam's,,100279,1,8/22/2017 4:24:20 PM
Legacy for Sam's,,100281,1,8/22/2017 6:08:42 PM
Legacy for Sam's,,100284,1,8/23/2017 7:57:25 PM
Legacy for Sam's,,100288,1,8/24/2017 12:22:52 AM
Legacy for Sam's,,100291,1,8/25/2017 12:14:52 AM
Legacy for Sam's,,100292,1,8/26/2017 8:06:06 PM
Legacy for Sam's,,100294,1,8/27/2017 1:24:38 AM
Legacy for Sam's,,100295,1,8/27/2017 1:44:33 AM
Legacy for Sam's,,100296,1,8/27/2017 1:59:32 AM
Legacy for Sam's,,100297,1,8/27/2017 2:10:49 AM
Legacy for Sam's,,100299,1,8/27/2017 5:02:02 AM
Legacy for Sam's,,100300,1,8/27/2017 5:26:37 AM
Legacy for Sam's,,100301,1,8/27/2017 5:37:14 AM
Legacy for Sam's,,100302,1,8/27/2017 5:50:27 AM
Legacy for Sam's,,100305,1,8/27/2017 5:20:30 PM
Legacy for Sam's,,100308,1,8/28/2017 7:35:30 PM
Legacy for Sam's,,100309,1,8/28/2017 7:45:27 PM
Legacy for Sam's,,100311,1,8/28/2017 9:55:05 PM
Legacy for Sam's,,100312,1,8/28/2017 10:01:33 PM
Legacy for Sam's,,100323,1,8/30/2017 9:41:35 PM
Legacy for Sam's,,100333,1,9/1/2017 5:15:48 PM
Relax2Zero 2.0 for Sam's,,100208,1,8/9/2017 11:25:42 PM
Relax2Zero 2.0 for Sam's,,100217,1,8/10/2017 4:38:31 PM
Relax2Zero 2.0 for Sam's,,100218,1,8/10/2017 4:47:55 PM
Relax2Zero 2.0 for Sam's,,100219,1,8/10/2017 4:57:27 PM
Relax2Zero 2.0 for Sam's,,100234,1,8/14/2017 6:42:44 PM
Relax2Zero 2.0 for Sam's,,100241,1,8/17/2017 7:14:31 PM
Relax2Zero 2.0 for Sam's,,100258,1,8/19/2017 8:06:47 PM
Relax2Zero 2.0 for Sam's,,100274,1,8/21/2017 4:38:59 PM
Relax2Zero 2.0 for Sam's,,100275,1,8/21/2017 4:58:25 PM
Relax2Zero 2.0 for Sam's,,100276,1,8/21/2017 5:26:55 PM
Relax2Zero 2.0 for Sam's,,100313,1,8/28/2017 10:10:48 PM
Relax2Zero 2.0 for Sam's,,100314,1,8/28/2017 10:19:44 PM
Relax2Zero 2.0 for Sam's,,100330,1,8/31/2017 10:58:17 PM
Relax2Zero 2.0 for Sam's,,100359,1,9/3/2017 6:37:02 PM
Ninja Leg Massager,,100244,1,8/18/2017 6:41:36 PM
Ninja Leg Massager,,100245,1,8/18/2017 7:47:16 PM
Ninja Leg Massager,,100253,1,8/19/2017 4:58:59 PM
Ninja Leg Massager,,100271,1,8/20/2017 7:59:14 PM
Ninja Leg Massager,,100290,1,8/24/2017 9:15:02 PM
