﻿Original Event Name,Event Name,Sales Person,Order Number,Order Date,Customer Name,State,Zip,Product Name,Color,Product Status,QTY,Tax,Total Before Tax,Order Total,Primary Payment Method,Second Payment Method,Thirdl Payment Method,Warranty,Order Items,Pick up,Delivered On,Order Status,Chair Type,Order Notes,Private Note,Branch,No Tax,Actual Tax Rate,SKU,Primary Payment Balance,Primary Authorize Number,Primary Purchase Order Number,Primary Synchrony Account Number,Primary Synchrony Application Key,Primary Synchrony Account Info,Primary Synchrony Term,Primary Synchrony Primary ID,Primary Synchrony Issued State,Primary Synchrony Expiretion Date,Second Payment Balance,Second Authorize Number,Second Purchase Order Number,Second Synchrony Account Number,Second Synchrony Application Key,Second Synchrony Account Info,Second SynchronyTerm,Second Synchrony Primary ID,Second Synchrony Issued State,Second Synchrony Expiretion Date,Third Payment Balance,Third Authorize Number,Third Purchase Order Number,Third Synchrony Account Number,Third Synchrony Application Key,Third Synchrony Account Info,Third Synchrony Term,Third Synchrony Primary ID,Third Synchrony Issued State,Third Synchrony Expiretion Date
"Sam's Club #8293 Independence, MO","Sam's Club #8293 Independence, MO",Winston Melgar,118176,6/21/2019 9:08:26 AM,Steven Lam,MO,64064,Legacy 3D - Sam's Club,Demo(Box) Choco[-700],Demo,1,317.22,4041.00,4358.22,Credit Card,,,"3 years parts, 2 years labor ($200)","Legacy 3D - Sam's Club,",No,,New,,,-Original received. Erika 6/21/19 11:38am,TX,0,7.85,DWA-9150DWA-9150CH-Box,4358.00,7975283168311903007245,,,,,,,,/,0.00,,,,,,,,,/,0.00,,,,,,,,,/
"Sam's Club #8293 Independence, MO","Sam's Club #8293 Independence, MO",Winston Melgar,118177,6/21/2019 9:18:53 AM,Merry Tamatero,MO,64128,Legacy 3D - Sam's Club,Demo(Box) Choco[-700],Demo,1,313.92,3999.00,4312.92,Credit Card,,,"3 years parts, 1 year labor (Free)","Legacy 3D - Sam's Club,",No,,New,,,"Hello the price 4.357.91 Disregard remaining balance
---Original received. Erika 6/21/19 11:35am",TX,0,7.85,DWA-9150DWA-9150CH-Box,4358.00,5343690474065340447681,,,,,,,,/,0.00,,,,,,,,,/,0.00,,,,,,,,,/
"Sam's Club #8293 Independence, MO","Sam's Club #8293 Independence, MO",Winston Melgar,118178,6/21/2019 9:26:50 AM,Patrick Babalola,MO,64138,Shogun Neck & Back Massger,New,New,1,15.70,199.98,215.68,Credit Card,,,"2 years parts, 1 year labor (Free)","Shogun Neck &amp; Back Massger,",YES,,Delivered,,,,IL,0,7.85,USJ-874USJ-874,215.00,233184550466080880782,,,,,,,,/,0.00,,,,,,,,,/,0.00,,,,,,,,,/
"Sam's Club #8293 Independence, MO","Sam's Club #8293 Independence, MO",Winston Melgar,118179,6/21/2019 9:33:03 AM,David Danahue,MO,64130,Foot Vibe Pro,,New,1,8.40,106.99,115.39,Credit Card,,,"2 years parts, 1 year labor (Free)","Foot Vibe Pro,",YES,,Delivered,,,,IL,0,7.85,USJ-871,116.00,189471182152522225413,,,,,,,,/,0.00,,,,,,,,,/,0.00,,,,,,,,,/
"Sam's Club #8293 Independence, MO","Sam's Club #8293 Independence, MO",Winston Melgar,118180,6/21/2019 9:38:39 AM,Edna Tahe,MO,64057,Foot Vibe Pro,,New,1,8.40,106.99,115.39,Credit Card,,,"2 years parts, 1 year labor for Small Items","Foot Vibe Pro,",YES,,Delivered,,,,IL,0,7.85,USJ-871,116.00,880908619869494901566,,,,,,,,/,0.00,,,,,,,,,/,0.00,,,,,,,,,/
"Sam's Club #8293 Independence, MO","Sam's Club #8293 Independence, MO",Winston Melgar,118181,6/21/2019 9:48:01 AM,Lori Shears,MO,64124,Foot Vibe Pro,,New,1,8.63,109.99,118.62,Credit Card,,,"2 years parts, 1 year labor for Small Items","Foot Vibe Pro,",YES,,Delivered,,,,IL,0,7.85,USJ-871,115.00,2694129412994256163607860,,,,,,,,/,0.00,,,,,,,,,/,0.00,,,,,,,,,/
"Sam's Club #8293 Independence, MO","Sam's Club #8293 Independence, MO",Winston Melgar,118182,6/21/2019 9:52:42 AM,Sally Carillo,MO,64124,Foot Vibe Pro,,New,1,8.63,109.99,118.62,Credit Card,,,"2 years parts, 1 year labor for Small Items","Foot Vibe Pro,",YES,,Delivered,,,,IL,0,7.85,USJ-871,115.00,377563965351906096215,,,,,,,,/,0.00,,,,,,,,,/,0.00,,,,,,,,,/
"Sam's Club #8293 Independence, MO","Sam's Club #8293 Independence, MO",Winston Melgar,118216,6/22/2019 2:12:41 PM,Fidencio Navarro,MO,64063,Foot Vibe Pro,,New,1,8.63,109.99,118.62,Credit Card,,,"2 years parts, 1 year labor for Small Items","Foot Vibe Pro,",YES,,New,,,,Not Dispatched,0,7.85,USJ-871,115.00,866877413799655566378,,,,,,,,/,0.00,,,,,,,,,/,0.00,,,,,,,,,/
"Sam's Club #8293 Independence, MO","Sam's Club #8293 Independence, MO",Winston Melgar,118217,6/22/2019 2:16:58 PM,Romy Zabaleta,MO,64124,Foot Vibe Pro,,New,1,8.63,109.99,118.62,Credit Card,,,"2 years parts, 1 year labor for Small Items","Foot Vibe Pro,",YES,,New,,,,Not Dispatched,0,7.85,USJ-871,115.00,529675725503710196059,,,,,,,,/,0.00,,,,,,,,,/,0.00,,,,,,,,,/
"Sam's Club #8293 Independence, MO","Sam's Club #8293 Independence, MO",Winston Melgar,118218,6/22/2019 2:27:26 PM,Karla Freeman,MO,64154,Foot Vibe Pro,,New,1,8.63,109.99,118.62,Credit Card,,,"2 years parts, 1 year labor for Small Items","Foot Vibe Pro,",YES,,New,,,No phone number I'm sorry that's my training sale thanks,Not Dispatched,0,7.85,USJ-871,115.00,343655527561744107019,,,,,,,,/,0.00,,,,,,,,,/,0.00,,,,,,,,,/
