﻿Order Number,Order Date,Original Event Name,Event Name,Salesperson,SKU,Product Name,Color,QTY,Warranty,Payment Details,Tax,Order Total,Gross,Primary Payment Method,Primary Payment Balance,Primary Authorize Number,Primary Purchase Order Number,Primary Synchrony Account Number,Primary Synchrony Application Key,Primary Synchrony AccountInfo,Primary SynchronyTerm,Secondly Payment Method,Secondly Payment Balance,Secondly Authorize Number,Secondly Purchase Order Number,Secondly Synchrony Account Number,Secondly Synchrony Application Key,Secondly Synchrony AccountInfo,Secondly SynchronyTerm,Thirdly Payment Method,Thirdly Payment Balance,Thirdly Authorize Number,Thirdly Purchase Order Number,Thirdly Synchrony Account Number,Thirdly Synchrony Application Key,Thirdly Synchrony AccountInfo,Thirdly SynchronyTerm,Actual Shipping Cost,CustomerName,Shipping Address,Delivered On,Serial Number (TO Be),Note,Branch,IsNoTax,ActualTaxRate
108271,8/9/2018 9:10:02 PM,"IOWA STATE FAIR 8/9-19/18 DES MOINES, IA (IL)","IOWA STATE FAIR 8/9-19/18 DES MOINES, IA (IL)",Rolly San Jose,DWA-9060USJ-9060BR-DEMO,Relax2Zero 3D,Demo Choco,1,"3 years parts, 1 year labor (Free)",CUSTOM ,0.00,4200.00,4200.00,Synchrony,4200.00,,,6019170813074207,92759839,Huston,36 months,,0.00,,,,,,,,0.00,,,,,,,0.00,Deanne Ellis,5152502374,,,,TX,1,6.00
108272,8/9/2018 9:16:39 PM,"IOWA STATE FAIR 8/9-19/18 DES MOINES, IA (IL)","IOWA STATE FAIR 8/9-19/18 DES MOINES, IA (IL)",Rolly San Jose,DWA-9060USJ-9060BR,Relax2Zero 3D,New Choco,1,"3 years parts, 1 year labor (Free)",CUSTOM ,0.00,4900.00,4900.00,Synchrony,4900.00,,,6019170813074215,92759975,Huston,48 months,,0.00,,,,,,,,0.00,,,,,,,0.00,Jeneffer/clint Smith,4065394055,,,,WA,1,6.00
108273,8/9/2018 9:21:22 PM,"IOWA STATE FAIR 8/9-19/18 DES MOINES, IA (IL)","IOWA STATE FAIR 8/9-19/18 DES MOINES, IA (IL)",Ilene Maynard,DWA-9150USJ-9150BL-DEMO,Legacy 3D,Demo Black,1,"3 years parts, 1 year labor (Free)",CUSTOM ,0.00,4200.00,4200.00,CreditCard,4200.00,009242,,,,,,,0.00,,,,,,,,0.00,,,,,,,0.00,Gary Snyder,5158682640,,,,TX,1,6.00
108274,8/9/2018 9:30:26 PM,"IOWA STATE FAIR 8/9-19/18 DES MOINES, IA (IL)","IOWA STATE FAIR 8/9-19/18 DES MOINES, IA (IL)",Keith Kei,DWA-9150USJ-9150BL-DEMO,Legacy 3D,Demo Black,1,"3 years parts, 1 year labor (Free)",CUSTOM ,0.00,4452.00,4452.00,CreditCard,4452.00,SQ # dXRQ,,,,,,,0.00,,,,,,,,0.00,,,,,,,0.00,Tom Ahart,5159539498,,,,TX,1,6.00
108275,8/9/2018 9:36:08 PM,"IOWA STATE FAIR 8/9-19/18 DES MOINES, IA (IL)","IOWA STATE FAIR 8/9-19/18 DES MOINES, IA (IL)",Rolly San Jose,DWA-9060USJ-9060BL,Relax2Zero 3D,New Black,1,"3 years parts, 1 year labor (Free)",CUSTOM ,0.00,4900.00,4900.00,CreditCard,4900.00,06873D,,,,,,,0.00,,,,,,,,0.00,,,,,,,0.00,Julie Oswalt,5152624319,,,,TX,1,6.00
108276,8/9/2018 9:42:10 PM,"IOWA STATE FAIR 8/9-19/18 DES MOINES, IA (IL)","IOWA STATE FAIR 8/9-19/18 DES MOINES, IA (IL)",Keith Kei,DWA-9150USJ-9150CH-DEMO,Legacy 3D,Demo Choco,1,"3 years parts, 1 year labor (Free)",CUSTOM ,0.00,4452.00,4452.00,CreditCard,4452.00,SQ # agFX,,,,,,,0.00,,,,,,,,0.00,,,,,,,0.00,Jeff Forward,7012100332,,,,TX,1,6.00
108277,8/9/2018 9:47:24 PM,"IOWA STATE FAIR 8/9-19/18 DES MOINES, IA (IL)","IOWA STATE FAIR 8/9-19/18 DES MOINES, IA (IL)",Ruben Cuatrona,DWA-9400Pegasus-BR-DEMO,Pegasus,Demo Choco,1,"3 years parts, 1 year labor (Free)",CUSTOM ,0.00,5200.00,5200.00,Synchrony,5200.00,SQ # QTBe,,6019170813075865,92806852,San Diego,36 months,,0.00,,,,,,,,0.00,,,,,,,0.00,Mike Lucas,3197219888,,,,TX,1,6.00
108279,8/9/2018 9:54:56 PM,"IOWA STATE FAIR 8/9-19/18 DES MOINES, IA (IL)","IOWA STATE FAIR 8/9-19/18 DES MOINES, IA (IL)",Xiongxiaojun Ji,DWA-9400Pegasus-BL,Pegasus,New Black,1,"3 years parts, 1 year labor (Free)",CUSTOM ,0.00,5400.00,5400.00,Check,5400.00,,,,,,,,0.00,,,,,,,,0.00,,,,,,,0.00,Jeff Hall,6418914536,,,,Not Dispatched,1,6.00
108319,8/11/2018 6:35:22 AM,"IOWA STATE FAIR 8/9-19/18 DES MOINES, IA (IL)","IOWA STATE FAIR 8/9-19/18 DES MOINES, IA (IL)",Rolly San Jose,DWA-9060USJ-9060BR-DEMO,Relax2Zero 3D,Demo Choco,1,"3 years parts, 1 year labor (Free)",CUSTOM ,0.00,3500.00,3500.00,CreditCard,3500.00,462346,,,,,,,0.00,,,,,,,,0.00,,,,,,,0.00,Billie Sieperda,5157782914,,,,TX,1,6.00
108320,8/11/2018 6:43:14 AM,"IOWA STATE FAIR 8/9-19/18 DES MOINES, IA (IL)","IOWA STATE FAIR 8/9-19/18 DES MOINES, IA (IL)",Rolly San Jose,DWA-9060USJ-9060BR,Relax2Zero 3D,New Choco,1,"3 years parts, 1 year labor (Free)",CUSTOM ,0.00,4500.00,4500.00,Synchrony,4500.00,,,6019170813074306,92759622,Huston,36 months,,0.00,,,,,,,,0.00,,,,,,,0.00,James Widmann,5152053131,,,,TX,1,6.00
108321,8/11/2018 6:45:09 AM,"IOWA STATE FAIR 8/9-19/18 DES MOINES, IA (IL)","IOWA STATE FAIR 8/9-19/18 DES MOINES, IA (IL)",Noni Ignacio,DWA-9060USJ-9060BR,Relax2Zero 3D,New Choco,1,"3 years parts, 1 year labor (Free)",CUSTOM ,0.00,4200.00,4200.00,Synchrony,4200.00,,,6019170813075899,92807115,Huston,36 months,,0.00,,,,,,,,0.00,,,,,,,0.00,tara van brederode,5154419322,,,,TX,1,6.00
108323,8/11/2018 6:51:26 AM,"IOWA STATE FAIR 8/9-19/18 DES MOINES, IA (IL)","IOWA STATE FAIR 8/9-19/18 DES MOINES, IA (IL)",Rolly San Jose,DWA-9060USJ-9060BL-DEMO,Relax2Zero 3D,Demo Black,1,"3 years parts, 1 year labor (Free)",CUSTOM ,0.00,4200.00,4200.00,Synchrony,4200.00,,,6019170813075881,92807104,Huston,36 months,,0.00,,,,,,,,0.00,,,,,,,0.00,Cindy Hughes,7126217004,,,,TX,1,6.00
108325,8/11/2018 7:00:55 AM,"IOWA STATE FAIR 8/9-19/18 DES MOINES, IA (IL)","IOWA STATE FAIR 8/9-19/18 DES MOINES, IA (IL)",Ilene Maynard,DWA-9060USJ-9060BR,Relax2Zero 3D,New Choco,1,"3 years parts, 1 year labor (Free)",CUSTOM ,0.00,4500.00,4500.00,Synchrony,4500.00,,,6019170813075907,92807571,Huston,36 months,,0.00,,,,,,,,0.00,,,,,,,0.00,marlo mesenbrink,5152336209,,,,TX,1,6.00
108326,8/11/2018 7:04:55 AM,"IOWA STATE FAIR 8/9-19/18 DES MOINES, IA (IL)","IOWA STATE FAIR 8/9-19/18 DES MOINES, IA (IL)",Noni Ignacio,DWA-9060USJ-9060BR,Relax2Zero 3D,New Choco,1,"3 years parts, 1 year labor (Free)",CUSTOM ,0.00,4500.00,4500.00,Synchrony,4500.00,,,6019170813074355,92759572,Huston,36 months,,0.00,,,,,,,,0.00,,,,,,,0.00,Randy Reinertson,2106698434,,,,TX,1,6.00
108327,8/11/2018 7:06:26 AM,"IOWA STATE FAIR 8/9-19/18 DES MOINES, IA (IL)","IOWA STATE FAIR 8/9-19/18 DES MOINES, IA (IL)",Keith Kei,DWA-9150USJ-9150CH-DEMO,Legacy 3D,Demo Choco,1,"3 years parts, 1 year labor (Free)",CUSTOM ,209.55,4452.00,4452.00,CreditCard,4452.00,ixHn,,,,,,,0.00,,,,,,,,0.00,,,,,,,0.00,Eric Schlutc,5632994408,,,,TX,0,6.00
108328,8/11/2018 7:10:22 AM,"IOWA STATE FAIR 8/9-19/18 DES MOINES, IA (IL)","IOWA STATE FAIR 8/9-19/18 DES MOINES, IA (IL)",Rolly San Jose,DWA-9060USJ-9060BL,Relax2Zero 3D,New Black,1,"3 years parts, 1 year labor (Free)",CUSTOM ,0.00,4900.00,4900.00,CreditCard,4900.00,840058,,,,,,,0.00,,,,,,,,0.00,,,,,,,0.00,diann lee,5155568076,,,,TX,1,6.00
108329,8/11/2018 7:14:46 AM,"IOWA STATE FAIR 8/9-19/18 DES MOINES, IA (IL)","IOWA STATE FAIR 8/9-19/18 DES MOINES, IA (IL)",Rolly San Jose,DWA-9060USJ-9060BR,Relax2Zero 3D,New Choco,1,"3 years parts, 1 year labor (Free)",CUSTOM ,0.00,4900.00,4900.00,CreditCard,4900.00,07053G,,,,,,,0.00,,,,,,,,0.00,,,,,,,0.00,george whitney,5012319996,,,,TX,1,6.00
108330,8/11/2018 7:18:18 AM,"IOWA STATE FAIR 8/9-19/18 DES MOINES, IA (IL)","IOWA STATE FAIR 8/9-19/18 DES MOINES, IA (IL)",Keith Kei,DWA-9150USJ-9150BL-DEMO,Legacy 3D,Demo Black,1,"3 years parts, 1 year labor (Free)",CUSTOM ,0.00,4452.00,4452.00,CreditCard,4452.00,mKpl,,,,,,,0.00,,,,,,,,0.00,,,,,,,0.00,liam anvivat,5154215227,,,,TX,1,6.00
108331,8/11/2018 7:21:50 AM,"IOWA STATE FAIR 8/9-19/18 DES MOINES, IA (IL)","IOWA STATE FAIR 8/9-19/18 DES MOINES, IA (IL)",Paul Wnag,DWA-9060USJ-9060BR,Relax2Zero 3D,New Choco,1,"3 years parts, 1 year labor (Free)",CUSTOM ,0.00,4200.00,4200.00,CreditCard,4200.00,aZE1,,,,,,,0.00,,,,,,,,0.00,,,,,,,0.00,brian welch,5159552022,,,,TX,1,6.00
108332,8/11/2018 7:26:18 AM,"IOWA STATE FAIR 8/9-19/18 DES MOINES, IA (IL)","IOWA STATE FAIR 8/9-19/18 DES MOINES, IA (IL)",Xiongxiaojun Ji,DWA-9150USJ-9150CH,Legacy 3D,New Choco,1,"3 years parts, 1 year labor (Free)",CUSTOM ,0.00,4900.00,4900.00,Synchrony,4900.00,,,6019170813075014,92788214,Huston,36 months,,0.00,,,,,,,,0.00,,,,,,,0.00,Rebecca Ehwegen,6125186579,,,,TX,1,6.00
108333,8/11/2018 7:30:18 AM,"IOWA STATE FAIR 8/9-19/18 DES MOINES, IA (IL)","IOWA STATE FAIR 8/9-19/18 DES MOINES, IA (IL)",Xiongxiaojun Ji,DWA-9150USJ-9150CH,Legacy 3D,New Choco,1,"3 years parts, 1 year labor (Free)",CUSTOM ,0.00,4900.00,4900.00,Synchrony,4900.00,,,6019170813075683,92798383,Huston,36 months,,0.00,,,,,,,,0.00,,,,,,,0.00,elaine kanter,3199884404,,,,TX,1,6.00
108369,8/12/2018 6:36:41 AM,"IOWA STATE FAIR 8/9-19/18 DES MOINES, IA (IL)","IOWA STATE FAIR 8/9-19/18 DES MOINES, IA (IL)",Rolly San Jose,DWA-9060USJ-9060BL-DEMO,Relax2Zero 3D,Demo Black,1,"3 years parts, 1 year labor (Free)",CUSTOM ,0.00,4000.00,4000.00,CreditCard,4000.00,69011p,,,,,,,0.00,,,,,,,,0.00,,,,,,,0.00,grant wolf,6417779888,,,,TX,1,6.00
108370,8/12/2018 6:42:44 AM,"IOWA STATE FAIR 8/9-19/18 DES MOINES, IA (IL)","IOWA STATE FAIR 8/9-19/18 DES MOINES, IA (IL)",Ruben Cuatrona,DWA-9150USJ-9150CH-DEMO,Legacy 3D,Demo Choco,1,"3 years parts, 1 year labor (Free)",CUSTOM ,0.00,4200.00,4200.00,Synchrony,4200.00,,,6019170813076079,92813405,San Diego,36 months,,0.00,,,,,,,,0.00,,,,,,,0.00,mike murdeek,3193309628,,,,TX,1,6.00
108371,8/12/2018 6:56:08 AM,"IOWA STATE FAIR 8/9-19/18 DES MOINES, IA (IL)","IOWA STATE FAIR 8/9-19/18 DES MOINES, IA (IL)",Ilene Maynard,DWA-9060USJ-9060BR-DEMO,Relax2Zero 3D,Demo Choco,1,"3 years parts, 1 year labor (Free)",CUSTOM Synchrony,0.00,4452.00,4452.00,CreditCard,2452.00,01169P,,,,,,Synchrony,2000.00,,,6019170813075873,92806973,Huston,36 months,,0.00,,,,,,,0.00,Sheila Schmitz,3038774466,,,Invoice # 16,TX,1,6.00
108372,8/12/2018 7:04:49 AM,"IOWA STATE FAIR 8/9-19/18 DES MOINES, IA (IL)","IOWA STATE FAIR 8/9-19/18 DES MOINES, IA (IL)",Ruben Cuatrona,DWA-9150USJ-9150BL,Legacy 3D,New Black,1,"3 years parts, 1 year labor (Free)",CUSTOM ,0.00,4500.00,4500.00,CreditCard,4500.00,011408,,,,,,,0.00,,,,,,,,0.00,,,,,,,0.00,Jim/teri Nelson,5152080305,,,,TX,1,6.00
108373,8/12/2018 7:05:36 AM,"IOWA STATE FAIR 8/9-19/18 DES MOINES, IA (IL)","IOWA STATE FAIR 8/9-19/18 DES MOINES, IA (IL)",Rolly San Jose,DWA-9060USJ-9060BL-DEMO,Relax2Zero 3D,Demo Black,1,"3 years parts, 1 year labor (Free)",CUSTOM ,0.00,4200.00,4200.00,Synchrony,4200.00,,,6019170813076285,92818475,Las Vegas,36 months,,0.00,,,,,,,,0.00,,,,,,,0.00,cynthia rayman,5152262352,,,,TX,1,6.00
108374,8/12/2018 7:09:54 AM,"IOWA STATE FAIR 8/9-19/18 DES MOINES, IA (IL)","IOWA STATE FAIR 8/9-19/18 DES MOINES, IA (IL)",Ilene Maynard,DWA-9060USJ-9060BR,Relax2Zero 3D,New Choco,1,"3 years parts, 1 year labor (Free)",CUSTOM ,0.00,4900.00,4900.00,Synchrony,4900.00,,,6019170813078315,92852751,Las Vegas,36 months,,0.00,,,,,,,,0.00,,,,,,,0.00,tommy newton,6913420649,,,,TX,1,6.00
108375,8/12/2018 7:11:57 AM,"IOWA STATE FAIR 8/9-19/18 DES MOINES, IA (IL)","IOWA STATE FAIR 8/9-19/18 DES MOINES, IA (IL)",Ruben Cuatrona,DWA-9400Pegasus-BR-DEMO,Pegasus,Demo Choco,1,"3 years parts, 1 year labor (Free)",CUSTOM COD,0.00,5000.00,5000.00,CreditCard,500.00,981996,,,,,,COD,4500.00,,,,,,,,0.00,,,,,,,0.00,Juniece Walsh,6419902527,,,,TX,1,6.00
108376,8/12/2018 7:12:13 AM,"IOWA STATE FAIR 8/9-19/18 DES MOINES, IA (IL)","IOWA STATE FAIR 8/9-19/18 DES MOINES, IA (IL)",Rolly San Jose,DWA-9060USJ-9060BL,Relax2Zero 3D,New Black,1,"3 years parts, 1 year labor (Free)",CUSTOM ,0.00,4700.00,4700.00,Synchrony,4700.00,,,6019193606456419,,Las Vegas,36 months,,0.00,,,,,,,,0.00,,,,,,,0.00,Timothy Hargis,3195501812,,,Order #29,TX,1,6.00
108377,8/12/2018 7:15:08 AM,"IOWA STATE FAIR 8/9-19/18 DES MOINES, IA (IL)","IOWA STATE FAIR 8/9-19/18 DES MOINES, IA (IL)",Noni Ignacio,DWA-9060USJ-9060BL-DEMO,Relax2Zero 3D,Demo Black,1,"3 years parts, 1 year labor (Free)",CUSTOM ,0.00,4000.00,4000.00,Synchrony,4000.00,,,6019170813078323,92852915,Huston,36 months,,0.00,,,,,,,,0.00,,,,,,,0.00,aileen foss,5155564748,,,,TX,1,6.00
108429,8/13/2018 6:31:50 AM,"IOWA STATE FAIR 8/9-19/18 DES MOINES, IA (IL)","IOWA STATE FAIR 8/9-19/18 DES MOINES, IA (IL)",Keith Kei,DWA-9400Pegasus-BR,Pegasus,New Choco,1,"3 years parts, 1 year labor (Free)",CUSTOM COD,297.85,6012.00,6012.00,CreditCard,500.00,Square # oRbz,,,,,,COD,5512.00,,,,,,,,0.00,,,,,,,0.00,Nathan Bartels,6414301718,,,"Order # 33
Call or text customer for delivery",TX,0,6.00
108430,8/13/2018 6:31:53 AM,"IOWA STATE FAIR 8/9-19/18 DES MOINES, IA (IL)","IOWA STATE FAIR 8/9-19/18 DES MOINES, IA (IL)",Ilene Maynard,DWA-9060USJ-9060BR,Relax2Zero 3D,New Choco,1,"3 years parts, 1 year labor (Free)",CUSTOM Synchrony,0.00,4900.00,4900.00,CreditCard,2500.00,01287B,,,,,,Synchrony,2400.00,,,6019170813080162,92886525,Huston,36 months,,0.00,,,,,,,0.00,terry galvin,3193606384,,,,TX,1,6.00
108432,8/13/2018 6:36:42 AM,"IOWA STATE FAIR 8/9-19/18 DES MOINES, IA (IL)","IOWA STATE FAIR 8/9-19/18 DES MOINES, IA (IL)",Xiongxiaojun Ji,DWA-9150USJ-9150BL,Legacy 3D,New Black,1,"3 years parts, 1 year labor (Free)",CUSTOM ,0.00,5194.00,5194.00,Synchrony,5194.00,,,6019170813080139,92881280,Huston,36 months,,0.00,,,,,,,,0.00,,,,,,,0.00,lisa noble,5156355650,,,,TX,1,6.00
108433,8/13/2018 6:40:18 AM,"IOWA STATE FAIR 8/9-19/18 DES MOINES, IA (IL)","IOWA STATE FAIR 8/9-19/18 DES MOINES, IA (IL)",Ruben Cuatrona,DWA-9400Pegasus-BR,Pegasus,New Choco,1,"3 years parts, 1 year labor (Free)",CUSTOM ,0.00,5900.00,5900.00,Synchrony,5900.00,,,6019170813079297,92868682,San Diego,48 months,,0.00,,,,,,,,0.00,,,,,,,0.00,victoria ream,6415231055,,,,TX,1,6.00
108435,8/13/2018 6:41:29 AM,"IOWA STATE FAIR 8/9-19/18 DES MOINES, IA (IL)","IOWA STATE FAIR 8/9-19/18 DES MOINES, IA (IL)",Keith Kei,DWA-9150USJ-9150CH,Legacy 3D,New Choco,1,"3 years parts, 1 year labor (Free)",CUSTOM ,251.55,5194.00,5194.00,Synchrony,5194.00,,,6019170813080048,92878969,Huston,36 months,,0.00,,,,,,,,0.00,,,,,,,0.00,Kevin D Nguyen,5154221428,,,Order # 36,TX,0,6.00
108436,8/13/2018 6:46:06 AM,"IOWA STATE FAIR 8/9-19/18 DES MOINES, IA (IL)","IOWA STATE FAIR 8/9-19/18 DES MOINES, IA (IL)",Rolly San Jose,DWA-9060USJ-9060BR-DEMO,Relax2Zero 3D,Demo Choco,1,"3 years parts, 1 year labor (Free)",CUSTOM ,0.00,4200.00,4200.00,Synchrony,4200.00,,,6019170813078406,92855037,San Diego,36 months,,0.00,,,,,,,,0.00,,,,,,,0.00,gerry stoll,5152314724,,,,TX,1,6.00
108437,8/13/2018 6:49:13 AM,"IOWA STATE FAIR 8/9-19/18 DES MOINES, IA (IL)","IOWA STATE FAIR 8/9-19/18 DES MOINES, IA (IL)",Noni Ignacio,DWA-9060USJ-9060BR,Relax2Zero 3D,New Choco,1,"3 years parts, 1 year labor (Free)",CUSTOM ,0.00,4900.00,4900.00,CreditCard,4900.00,08190D,,,,,,,0.00,,,,,,,,0.00,,,,,,,0.00,lynsey yokum,3037485615,,,,TX,1,6.00
108467,8/14/2018 6:20:44 AM,"IOWA STATE FAIR 8/9-19/18 DES MOINES, IA (IL)","IOWA STATE FAIR 8/9-19/18 DES MOINES, IA (IL)",Paul Wnag,DWA-9150USJ-9150BL,Legacy 3D,New Black,1,"3 years parts, 1 year labor (Free)",CUSTOM ,0.00,4600.00,4600.00,CreditCard,4600.00,P7nM,,,,,,,0.00,,,,,,,,0.00,,,,,,,0.00,lenland vertlelst,6417804256,,,,TX,1,6.00
108468,8/14/2018 6:25:20 AM,"IOWA STATE FAIR 8/9-19/18 DES MOINES, IA (IL)","IOWA STATE FAIR 8/9-19/18 DES MOINES, IA (IL)",Rolly San Jose,DWA-9060USJ-9060BL,Relax2Zero 3D,New Black,1,"3 years parts, 1 year labor (Free)",CUSTOM COD,0.00,4500.00,4500.00,CreditCard,200.00,479989,,,,,,COD,4300.00,,,,,,,,0.00,,,,,,,0.00,Rlryano bice,3193770129,,,,TX,1,6.00
108469,8/14/2018 6:25:21 AM,"IOWA STATE FAIR 8/9-19/18 DES MOINES, IA (IL)","IOWA STATE FAIR 8/9-19/18 DES MOINES, IA (IL)",Keith Kei,DWA-9150USJ-9150BL,Legacy 3D,New Black,1,"3 years parts, 1 year labor (Free)",CUSTOM ,0.00,5194.00,5194.00,Synchrony,5194.00,,,6019170813081483,92919731,Huston,36 months,,0.00,,,,,,,,0.00,,,,,,,0.00,David john Schuchmann,3193296548,,,,TX,1,6.00
108470,8/14/2018 6:29:55 AM,"IOWA STATE FAIR 8/9-19/18 DES MOINES, IA (IL)","IOWA STATE FAIR 8/9-19/18 DES MOINES, IA (IL)",Keith Kei,DWA-9060USJ-9060BR,Relax2Zero 3D,New Choco,1,"3 years parts, 1 year labor (Free)",CUSTOM ,0.00,5194.00,5194.00,CreditCard,5194.00,DwH7,,,,,,,0.00,,,,,,,,0.00,,,,,,,0.00,ricky jennings,4053291360,,,,TX,1,6.00
108471,8/14/2018 6:35:41 AM,"IOWA STATE FAIR 8/9-19/18 DES MOINES, IA (IL)","IOWA STATE FAIR 8/9-19/18 DES MOINES, IA (IL)",Rodrigo Malabunga,DWA-9400Pegasus-BL-DEMO,Pegasus,Demo Black,1,"3 years parts, 1 year labor (Free)",CUSTOM ,0.00,5200.00,5200.00,Synchrony,5200.00,,,6019170813080998,92910659,San Diego,48 months,,0.00,,,,,,,,0.00,,,,,,,0.00,jeffrey rupe,3196262103,,,,TX,1,6.00
108472,8/14/2018 6:42:59 AM,"IOWA STATE FAIR 8/9-19/18 DES MOINES, IA (IL)","IOWA STATE FAIR 8/9-19/18 DES MOINES, IA (IL)",Rolly San Jose,DWA-9060USJ-9060BR,Relax2Zero 3D,New Choco,1,"3 years parts, 1 year labor (Free)",CUSTOM ,0.00,4900.00,4900.00,CreditCard,4900.00,P4B4,,,,,,,0.00,,,,,,,,0.00,,,,,,,0.00,jann mike goodylc,6416263005,,,,TX,1,6.00
108473,8/14/2018 6:47:36 AM,"IOWA STATE FAIR 8/9-19/18 DES MOINES, IA (IL)","IOWA STATE FAIR 8/9-19/18 DES MOINES, IA (IL)",Ilene Maynard,DWA-9060USJ-9060BR,Relax2Zero 3D,New Choco,1,"3 years parts, 1 year labor (Free)",CUSTOM ,0.00,4700.00,4700.00,Synchrony,4700.00,,,6019170813081632,92923300,San Diego,36 months,,0.00,,,,,,,,0.00,,,,,,,0.00,james keiter,5157101769,,,,TX,1,6.00
108474,8/14/2018 6:52:09 AM,"IOWA STATE FAIR 8/9-19/18 DES MOINES, IA (IL)","IOWA STATE FAIR 8/9-19/18 DES MOINES, IA (IL)",Ilene Maynard,DWA-9060USJ-9060BL,Relax2Zero 3D,New Black,1,"3 years parts, 1 year labor (Free)",CUSTOM ,0.00,4900.00,4900.00,Synchrony,4900.00,,,6019170813081657,92923634,San Diego,36 months,,0.00,,,,,,,,0.00,,,,,,,0.00,nicholas wilkinson,5152100309,,,,TX,1,6.00
108475,8/14/2018 6:54:48 AM,"IOWA STATE FAIR 8/9-19/18 DES MOINES, IA (IL)","IOWA STATE FAIR 8/9-19/18 DES MOINES, IA (IL)",Keith Kei,DWA-9150USJ-9150BL,Legacy 3D,New Black,1,"3 years parts, 1 year labor (Free)",CUSTOM ,251.55,5194.00,5194.00,Synchrony,5194.00,,,6019170813081772,92925521,Huston,36 months,,0.00,,,,,,,,0.00,,,,,,,0.00,Mark Anthony Kuhns,5157839696,,,Order # 50,TX,0,6.00
108476,8/14/2018 6:57:43 AM,"IOWA STATE FAIR 8/9-19/18 DES MOINES, IA (IL)","IOWA STATE FAIR 8/9-19/18 DES MOINES, IA (IL)",Ruben Cuatrona,DWA-9400Pegasus-BL-DEMO,Pegasus,Demo Black,1,"3 years parts, 1 year labor (Free)",CUSTOM ,0.00,5200.00,5200.00,Synchrony,5200.00,,,6019170813081582,92922315,San Diego,48 months,,0.00,,,,,,,,0.00,,,,,,,0.00,Donald Lester,5154329621,,,,Not Dispatched,1,6.00
108477,8/14/2018 6:57:54 AM,"IOWA STATE FAIR 8/9-19/18 DES MOINES, IA (IL)","IOWA STATE FAIR 8/9-19/18 DES MOINES, IA (IL)",Rodrigo Malabunga,DWA-9150USJ-9150CH,Legacy 3D,New Choco,1,"3 years parts, 1 year labor (Free)",CUSTOM ,0.00,4900.00,4900.00,Synchrony,4900.00,,,6019170813080915,92908929,San Diego,48 months,,0.00,,,,,,,,0.00,,,,,,,0.00,dennis behrens,6413962339,,,,TX,1,6.00
108479,8/14/2018 7:06:42 AM,"IOWA STATE FAIR 8/9-19/18 DES MOINES, IA (IL)","IOWA STATE FAIR 8/9-19/18 DES MOINES, IA (IL)",Ruben Cuatrona,DWA-9400Pegasus-BL-DEMO,Pegasus,Demo Black,1,"3 years parts, 1 year labor (Free)",CUSTOM ,0.00,5200.00,5200.00,Synchrony,5200.00,,,6019170813081582,92922315,San Diego,48 months,,0.00,,,,,,,,0.00,,,,,,,0.00,Donald Lester,5154329621,,,,TX,1,6.00
108481,8/14/2018 7:12:58 AM,"IOWA STATE FAIR 8/9-19/18 DES MOINES, IA (IL)","IOWA STATE FAIR 8/9-19/18 DES MOINES, IA (IL)",Rolly San Jose,DWA-9060USJ-9060BL,Relax2Zero 3D,New Black,1,"3 years parts, 1 year labor (Free)",CUSTOM ,0.00,4700.00,4700.00,Synchrony,4700.00,,,6019170813081616,92923148,San Diego,48 months,,0.00,,,,,,,,0.00,,,,,,,0.00,Tomas lee Willis,515 326 5225,,,,TX,1,6.00
108495,8/14/2018 4:47:31 PM,"IOWA STATE FAIR 8/9-19/18 DES MOINES, IA (IL)","IOWA STATE FAIR 8/9-19/18 DES MOINES, IA (IL)",Keith Kei,DWA-9400Pegasus-BR,Pegasus,New Choco,1,"3 years parts, 1 year labor (Free)",CUSTOM COD,0.00,5512.00,5512.00,CreditCard,500.00,Square # oRbz,,,,,,COD,5012.00,,,,,,,,0.00,,,,,,,0.00,Nathan Bartels,6414301718,,,Order # 33,TX,1,6.00
108496,8/14/2018 6:04:24 PM,"IOWA STATE FAIR 8/9-19/18 DES MOINES, IA (IL)","IOWA STATE FAIR 8/9-19/18 DES MOINES, IA (IL)",Ruben Cuatrona,DWA-9400Pegasus-BR,Pegasus,New Choco,1,"3 years parts, 1 year labor (Free)",CUSTOM ,0.00,5900.00,5900.00,Synchrony,5900.00,,,6019170813082507,92957130,San Diego,48 months,,0.00,,,,,,,,0.00,,,,,,,0.00,anne manning,6414178155,,,,TX,1,6.00
108497,8/14/2018 6:16:19 PM,"IOWA STATE FAIR 8/9-19/18 DES MOINES, IA (IL)","IOWA STATE FAIR 8/9-19/18 DES MOINES, IA (IL)",Rolly San Jose,DWA-9060USJ-9060BL,Relax2Zero 3D,New Black,1,"3 years parts, 1 year labor (Free)",CUSTOM ,0.00,4900.00,4900.00,Synchrony,4900.00,,,6019170813082754,92963098,Huston,48 months,,0.00,,,,,,,,0.00,,,,,,,0.00,Rebecca Burkland,6418951791,,,,TX,1,6.00
108498,8/14/2018 6:21:02 PM,"IOWA STATE FAIR 8/9-19/18 DES MOINES, IA (IL)","IOWA STATE FAIR 8/9-19/18 DES MOINES, IA (IL)",Xiongxiaojun Ji,DWA-9150USJ-9150BL,Legacy 3D,New Black,1,"3 years parts, 1 year labor (Free)",CUSTOM ,0.00,4200.00,4200.00,CreditCard,4200.00,0fSm,,,,,,,0.00,,,,,,,,0.00,,,,,,,0.00,Tina Ecklin,6413447160,,,,TX,1,6.00
108511,8/15/2018 6:00:38 PM,"IOWA STATE FAIR 8/9-19/18 DES MOINES, IA (IL)","IOWA STATE FAIR 8/9-19/18 DES MOINES, IA (IL)",Ruben Cuatrona,DWA-9400Pegasus-BL,Pegasus,New Black,1,"3 years parts, 1 year labor (Free)",CUSTOM Synchrony,0.00,5600.00,5600.00,CreditCard,200.00,kV9v,,,,,,Synchrony,5400.00,,,6019170813082713,92961865,Huston,48 months,,0.00,,,,,,,0.00,antonio ruiz,7069135590,,,,TX,1,6.00
108512,8/15/2018 6:08:03 PM,"IOWA STATE FAIR 8/9-19/18 DES MOINES, IA (IL)","IOWA STATE FAIR 8/9-19/18 DES MOINES, IA (IL)",Ilene Maynard,DWA-9060USJ-9060BL,Relax2Zero 3D,New Black,1,"3 years parts, 1 year labor (Free)",CUSTOM ,0.00,4900.00,4900.00,Synchrony,4900.00,,,6019170813083323,92985272,San Diego,36 months,,0.00,,,,,,,,0.00,,,,,,,0.00,keri oetker,5156894192,,,,TX,1,6.00
108513,8/15/2018 6:11:27 PM,"IOWA STATE FAIR 8/9-19/18 DES MOINES, IA (IL)","IOWA STATE FAIR 8/9-19/18 DES MOINES, IA (IL)",Ruben Cuatrona,DWA-9400Pegasus-BR-DEMO,Pegasus,Demo Choco,1,"3 years parts, 1 year labor (Free)",CUSTOM ,0.00,4800.00,4800.00,CreditCard,4800.00,07068P,,,,,,,0.00,,,,,,,,0.00,,,,,,,0.00,cindy reiser,5153218565,,,,TX,1,6.00
108514,8/15/2018 6:17:25 PM,"IOWA STATE FAIR 8/9-19/18 DES MOINES, IA (IL)","IOWA STATE FAIR 8/9-19/18 DES MOINES, IA (IL)",Rolly San Jose,DWA-9060USJ-9060BL,Relax2Zero 3D,New Black,1,"3 years parts, 1 year labor (Free)",CUSTOM ,0.00,9000.00,9000.00,CreditCard,9000.00,571118,,,,,,,0.00,,,,,,,,0.00,,,,,,,0.00,jim redmann,3199314022,,,,TX,1,6.00
108514,8/15/2018 6:17:25 PM,"IOWA STATE FAIR 8/9-19/18 DES MOINES, IA (IL)","IOWA STATE FAIR 8/9-19/18 DES MOINES, IA (IL)",Rolly San Jose,DWA-9060USJ-9060BR,Relax2Zero 3D,New Choco,1,"3 years parts, 1 year labor (Free)",CUSTOM ,0.00,9000.00,9000.00,CreditCard,9000.00,571118,,,,,,,0.00,,,,,,,,0.00,,,,,,,0.00,jim redmann,3199314022,,,,TX,1,6.00
108515,8/15/2018 6:24:26 PM,"IOWA STATE FAIR 8/9-19/18 DES MOINES, IA (IL)","IOWA STATE FAIR 8/9-19/18 DES MOINES, IA (IL)",Xiongxiaojun Ji,DWA-9150USJ-9150CH-DEMO,Legacy 3D,Demo Choco,1,"3 years parts, 1 year labor (Free)",CUSTOM ,0.00,4240.00,4240.00,CreditCard,4240.00,Receipt #JwVd,,,,,,,0.00,,,,,,,,0.00,,,,,,,0.00,rick kendall,3083453378,,,,TX,1,6.00
108516,8/15/2018 6:29:47 PM,"IOWA STATE FAIR 8/9-19/18 DES MOINES, IA (IL)","IOWA STATE FAIR 8/9-19/18 DES MOINES, IA (IL)",Ruben Cuatrona,DWA-9400Pegasus-BL,Pegasus,New Black,1,"3 years parts, 1 year labor (Free)",CUSTOM COD,0.00,5900.00,5900.00,CreditCard,100.00,86059B,,,,,,COD,5800.00,,,,,,,,0.00,,,,,,,0.00,steve ames,6417511252,,,,TX,1,6.00
108517,8/15/2018 6:33:29 PM,"IOWA STATE FAIR 8/9-19/18 DES MOINES, IA (IL)","IOWA STATE FAIR 8/9-19/18 DES MOINES, IA (IL)",Rolly San Jose,DWA-9060USJ-9060BR,Relax2Zero 3D,New Choco,1,"3 years parts, 1 year labor (Free)",CUSTOM ,0.00,4900.00,4900.00,Synchrony,4900.00,,,6019170813083893,93007645,Huston,48 months,,0.00,,,,,,,,0.00,,,,,,,0.00,clarence clements,6415217060,,,,TX,1,6.00
108518,8/15/2018 6:37:39 PM,"IOWA STATE FAIR 8/9-19/18 DES MOINES, IA (IL)","IOWA STATE FAIR 8/9-19/18 DES MOINES, IA (IL)",Keith Kei,DWA-9150USJ-9150CH,Legacy 3D,New Choco,1,"3 years parts, 1 year labor (Free)",CUSTOM ,0.00,4770.00,4770.00,CreditCard,4770.00,H529,,,,,,,0.00,,,,,,,,0.00,,,,,,,0.00,darwin vogt,3199819218,,,,TX,1,6.00
108519,8/15/2018 6:47:14 PM,"IOWA STATE FAIR 8/9-19/18 DES MOINES, IA (IL)","IOWA STATE FAIR 8/9-19/18 DES MOINES, IA (IL)",Rodrigo Malabunga,DWA-9400Pegasus-BL-DEMO,Pegasus,Demo Black,1,"3 years parts, 2 years labor ($200)",CUSTOM Synchrony,0.00,4800.00,4800.00,Cash,200.00,,,,,,,Synchrony,4600.00,,,6019170813084263,93015614,San Diego,24 months,,0.00,,,,,,,0.00,lee wahlerl,5159888264,,,,TX,1,6.00
108520,8/15/2018 6:50:10 PM,"IOWA STATE FAIR 8/9-19/18 DES MOINES, IA (IL)","IOWA STATE FAIR 8/9-19/18 DES MOINES, IA (IL)",Keith Kei,DWA-9150USJ-9150CH,Legacy 3D,New Choco,1,"3 years parts, 1 year labor (Free)",CUSTOM ,0.00,4900.00,4900.00,Synchrony,4900.00,,,6019170813084198,93013643,Huston,36 months,,0.00,,,,,,,,0.00,,,,,,,0.00,Richard Bill Needham,5154907316,,,"Order # 64
Please rush order",Not Dispatched,1,6.00
108525,8/16/2018 9:24:22 AM,"IOWA STATE FAIR 8/9-19/18 DES MOINES, IA (IL)","IOWA STATE FAIR 8/9-19/18 DES MOINES, IA (IL)",Ilene Maynard,DWA-9060USJ-9060BL,Relax2Zero 3D,New Black,1,"3 years parts, 1 year labor (Free)",CUSTOM Synchrony,0.00,4500.00,4500.00,CreditCard,500.00,Sq #IdWb,,,,,,Synchrony,2000.00,,,6019170813081665,92923871,San Diego,36 months,Synchrony,2000.00,,,6019170813082184,92934351,San Diego,36 months,0.00,Krista & John Dingerman,515 897 8873,,,,TX,1,6.00
108527,8/16/2018 6:03:09 PM,"IOWA STATE FAIR 8/9-19/18 DES MOINES, IA (IL)","IOWA STATE FAIR 8/9-19/18 DES MOINES, IA (IL)",Ilene Maynard,DWA-9060USJ-9060BR,Relax2Zero 3D,New Choco,1,"3 years parts, 1 year labor (Free)",CUSTOM ,0.00,5194.00,5194.00,CreditCard,5194.00,04676J,,,,,,,0.00,,,,,,,,0.00,,,,,,,0.00,gary wallace,6417879911,,,,TX,1,6.00
108528,8/16/2018 6:08:20 PM,"IOWA STATE FAIR 8/9-19/18 DES MOINES, IA (IL)","IOWA STATE FAIR 8/9-19/18 DES MOINES, IA (IL)",Rolly San Jose,DWA-9060USJ-9060BL,Relax2Zero 3D,New Black,1,"3 years parts, 1 year labor (Free)",CUSTOM ,0.00,4900.00,4900.00,Synchrony,4900.00,,,6019170813085062,93048254,Huston,48 months,,0.00,,,,,,,,0.00,,,,,,,0.00,cynthia eribal,5152806706,,,,TX,1,6.00
108529,8/16/2018 6:14:24 PM,"IOWA STATE FAIR 8/9-19/18 DES MOINES, IA (IL)","IOWA STATE FAIR 8/9-19/18 DES MOINES, IA (IL)",Rodrigo Malabunga,DWA-9060USJ-9060BL,Relax2Zero 3D,New Black,1,"3 years parts, 2 years labor ($200)",CUSTOM ,0.00,4900.00,4900.00,Synchrony,4900.00,,,6019170813084990,93046026,San Diego,48 months,,0.00,,,,,,,,0.00,,,,,,,0.00,davvyl thieien,5155777331,,,,TX,1,6.00
108530,8/16/2018 6:19:19 PM,"IOWA STATE FAIR 8/9-19/18 DES MOINES, IA (IL)","IOWA STATE FAIR 8/9-19/18 DES MOINES, IA (IL)",Ruben Cuatrona,DWA-9400Pegasus-BR,Pegasus,New Choco,1,"3 years parts, 1 year labor (Free)",CUSTOM ,0.00,5900.00,5900.00,Synchrony,5900.00,,,6019170813085617,93059083,San Diego,48 months,,0.00,,,,,,,,0.00,,,,,,,0.00,chris redman,5153465927,,,,TX,1,6.00
108531,8/16/2018 6:23:42 PM,"IOWA STATE FAIR 8/9-19/18 DES MOINES, IA (IL)","IOWA STATE FAIR 8/9-19/18 DES MOINES, IA (IL)",Ruben Cuatrona,DWA-9400Pegasus-BR,Pegasus,New Choco,1,"3 years parts, 1 year labor (Free)",CUSTOM ,0.00,5400.00,5400.00,Synchrony,5400.00,,,6019170813085328,93053234,San Diego,48 months,,0.00,,,,,,,,0.00,,,,,,,0.00,larry utsler,5024680985,,,,Not Dispatched,1,6.00
108532,8/16/2018 6:27:50 PM,"IOWA STATE FAIR 8/9-19/18 DES MOINES, IA (IL)","IOWA STATE FAIR 8/9-19/18 DES MOINES, IA (IL)",Rodrigo Malabunga,DWA-9150USJ-9150BL,Legacy 3D,New Black,1,"3 years parts, 2 years labor ($200)",CUSTOM ,0.00,4900.00,4900.00,Synchrony,4900.00,,,6019170813084784,93040646,San Diego,48 months,,0.00,,,,,,,,0.00,,,,,,,0.00,cynthia meiers,5156647845,,,,Not Dispatched,1,6.00
108533,8/16/2018 6:33:11 PM,"IOWA STATE FAIR 8/9-19/18 DES MOINES, IA (IL)","IOWA STATE FAIR 8/9-19/18 DES MOINES, IA (IL)",Keith Kei,DWA-9150USJ-9150BL-DEMO,Legacy 3D,Demo Black,1,"3 years parts, 1 year labor (Free)",CUSTOM ,0.00,3650.00,3650.00,Synchrony,3650.00,,,6019170813085641,93059536,Huston,36 months,,0.00,,,,,,,,0.00,,,,,,,0.00,jasen gatteft,5155548122,,,,Not Dispatched,1,6.00
108534,8/16/2018 6:44:00 PM,"IOWA STATE FAIR 8/9-19/18 DES MOINES, IA (IL)","IOWA STATE FAIR 8/9-19/18 DES MOINES, IA (IL)",Rolly San Jose,DWA-9060USJ-9060BR,Relax2Zero 3D,New Choco,1,"3 years parts, 1 year labor (Free)",CUSTOM ,0.00,4900.00,4900.00,CreditCard,4900.00,07672D,,,,,,,0.00,,,,,,,,0.00,,,,,,,0.00,David Mercer,3193717421,,,Order # 75,TX,1,6.00
108534,8/16/2018 6:44:00 PM,"IOWA STATE FAIR 8/9-19/18 DES MOINES, IA (IL)","IOWA STATE FAIR 8/9-19/18 DES MOINES, IA (IL)",Rolly San Jose,,Foot Pads for Relax2Zero 3D,,1,No Warranty,CUSTOM ,0.00,4900.00,4900.00,CreditCard,4900.00,07672D,,,,,,,0.00,,,,,,,,0.00,,,,,,,0.00,David Mercer,3193717421,,,Order # 75,TX,1,6.00
108539,8/16/2018 8:17:38 PM,"IOWA STATE FAIR 8/9-19/18 DES MOINES, IA (IL)","IOWA STATE FAIR 8/9-19/18 DES MOINES, IA (IL)",Rolly San Jose,DWA-9060USJ-9060BR,Relax2Zero 3D,New Choco,1,"3 years parts, 1 year labor (Free)",CUSTOM ,0.00,4500.00,4500.00,CreditCard,4500.00,01602P,,,,,,,0.00,,,,,,,,0.00,,,,,,,0.00,Dan Ebelsheiser,6419496603,,,,TX,1,6.00
108546,8/17/2018 6:41:32 AM,"IOWA STATE FAIR 8/9-19/18 DES MOINES, IA (IL)","IOWA STATE FAIR 8/9-19/18 DES MOINES, IA (IL)",Xiongxiaojun Ji,DWA-9150USJ-9150CH,Legacy 3D,New Choco,1,"3 years parts, 1 year labor (Free)",CUSTOM ,0.00,5194.00,5194.00,CreditCard,5194.00,Receipt #SO2N,,,,,,,0.00,,,,,,,,0.00,,,,,,,0.00,Susan Voegtlin,5152102287,,,,TX,1,6.00
108547,8/17/2018 6:48:57 AM,"IOWA STATE FAIR 8/9-19/18 DES MOINES, IA (IL)","IOWA STATE FAIR 8/9-19/18 DES MOINES, IA (IL)",Ilene Maynard,DWA-9060USJ-9060BL,Relax2Zero 3D,New Black,1,"3 years parts, 1 year labor (Free)",CUSTOM Synchrony,0.00,4900.00,4900.00,CreditCard,700.00,Sq #7je5,,,,,,Synchrony,4200.00,,,6019170813084529,93031772,San Diego,48 months,,0.00,,,,,,,0.00,Eric kelly Scheffert,319 238 1020,,,,TX,1,6.00
108548,8/17/2018 6:55:45 AM,"IOWA STATE FAIR 8/9-19/18 DES MOINES, IA (IL)","IOWA STATE FAIR 8/9-19/18 DES MOINES, IA (IL)",Rodrigo Malabunga,DWA-9060USJ-9060BL,Relax2Zero 3D,New Black,1,"3 years parts, 2 years labor ($200)",CUSTOM ,0.00,3900.00,3900.00,Check,3900.00,,,,,,,,0.00,,,,,,,,0.00,,,,,,,0.00,Jack Middlekoop,319 695 3023,,,,Not Dispatched,1,6.00
108553,8/17/2018 6:08:40 PM,"IOWA STATE FAIR 8/9-19/18 DES MOINES, IA (IL)","IOWA STATE FAIR 8/9-19/18 DES MOINES, IA (IL)",Ilene Maynard,DWA-9060USJ-9060BR,Relax2Zero 3D,New Choco,1,"3 years parts, 1 year labor (Free)",CUSTOM ,0.00,4900.00,4900.00,Synchrony,4900.00,,,6019170813085823,93068492,San Diego,36 months,,0.00,,,,,,,,0.00,,,,,,,,janet sass,6414257506,,,,Not Dispatched,1,6.00
108554,8/17/2018 6:14:56 PM,"IOWA STATE FAIR 8/9-19/18 DES MOINES, IA (IL)","IOWA STATE FAIR 8/9-19/18 DES MOINES, IA (IL)",Ruben Cuatrona,DWA-9400Pegasus-BR,Pegasus,New Choco,1,"3 years parts, 2 years labor ($200)",CUSTOM ,0.00,5700.00,5700.00,Synchrony,5700.00,,,6019170813085922,93073455,Huston,48 months,,0.00,,,,,,,,0.00,,,,,,,,rodey osland,7125790474,,,,Not Dispatched,1,6.00
108555,8/17/2018 6:19:57 PM,"IOWA STATE FAIR 8/9-19/18 DES MOINES, IA (IL)","IOWA STATE FAIR 8/9-19/18 DES MOINES, IA (IL)",Rolly San Jose,DWA-9060USJ-9060BR-DEMO,Relax2Zero 3D,Demo Choco,1,"3 years parts, 1 year labor (Free)",CUSTOM ,0.00,4200.00,4200.00,CreditCard,4200.00,nElp,,,,,,,0.00,,,,,,,,0.00,,,,,,,,connie petersen,7127994276,,,,Not Dispatched,1,6.00
108556,8/17/2018 6:28:24 PM,"IOWA STATE FAIR 8/9-19/18 DES MOINES, IA (IL)","IOWA STATE FAIR 8/9-19/18 DES MOINES, IA (IL)",Xiongxiaojun Ji,DWA-9150USJ-9150CH,Legacy 3D,New Choco,1,"3 years parts, 1 year labor (Free)",CUSTOM ,0.00,4161.30,4161.30,CreditCard,4161.30,661585,,,,,,,0.00,,,,,,,,0.00,,,,,,,,corey larson,3194044475,,,,Not Dispatched,1,6.00
108557,8/17/2018 6:31:58 PM,"IOWA STATE FAIR 8/9-19/18 DES MOINES, IA (IL)","IOWA STATE FAIR 8/9-19/18 DES MOINES, IA (IL)",Rolly San Jose,DWA-9060USJ-9060BL,Relax2Zero 3D,New Black,1,"3 years parts, 1 year labor (Free)",CUSTOM ,0.00,4900.00,4900.00,CreditCard,4900.00,841447,,,,,,,0.00,,,,,,,,0.00,,,,,,,,josh denhant,5157799519,,,,Not Dispatched,1,6.00
108558,8/17/2018 6:36:24 PM,"IOWA STATE FAIR 8/9-19/18 DES MOINES, IA (IL)","IOWA STATE FAIR 8/9-19/18 DES MOINES, IA (IL)",Rolly San Jose,DWA-9150USJ-9150BL,Legacy 3D,New Black,1,"3 years parts, 1 year labor (Free)",CUSTOM ,0.00,4900.00,4900.00,Synchrony,4900.00,,,6019170813086946,93101473,Huston,48 months,,0.00,,,,,,,,0.00,,,,,,,,sltaron olson,5152100155,,,,Not Dispatched,1,6.00
108559,8/17/2018 6:43:57 PM,"IOWA STATE FAIR 8/9-19/18 DES MOINES, IA (IL)","IOWA STATE FAIR 8/9-19/18 DES MOINES, IA (IL)",Rodrigo Malabunga,DWA-9150USJ-9150BL,Legacy 3D,New Black,1,"3 years parts, 2 years labor ($200)",CUSTOM ,0.00,4500.00,4500.00,CreditCard,4500.00,8A2F,,,,,,,0.00,,,,,,,,0.00,,,,,,,,bruce roe,5159910037,,,,Not Dispatched,1,6.00
108560,8/17/2018 6:47:10 PM,"IOWA STATE FAIR 8/9-19/18 DES MOINES, IA (IL)","IOWA STATE FAIR 8/9-19/18 DES MOINES, IA (IL)",Keith Kei,DWA-9150USJ-9150BL,Legacy 3D,New Black,1,"3 years parts, 1 year labor (Free)",CUSTOM ,0.00,4770.00,4770.00,CreditCard,4770.00,04260G,,,,,,,0.00,,,,,,,,0.00,,,,,,,,TOM grogan,5152505880,,,,Not Dispatched,1,6.00
108561,8/17/2018 6:51:47 PM,"IOWA STATE FAIR 8/9-19/18 DES MOINES, IA (IL)","IOWA STATE FAIR 8/9-19/18 DES MOINES, IA (IL)",Ruben Cuatrona,DWA-9400Pegasus-BR,Pegasus,New Choco,1,"3 years parts, 2 years labor ($200)",CUSTOM ,0.00,5600.00,5600.00,CreditCard,5600.00,07756c,,,,,,,0.00,,,,,,,,0.00,,,,,,,,karl ostrem,5152904024,,,,Not Dispatched,1,6.00
108581,8/18/2018 6:28:06 PM,"IOWA STATE FAIR 8/9-19/18 DES MOINES, IA (IL)","IOWA STATE FAIR 8/9-19/18 DES MOINES, IA (IL)",Paul Wnag,DWA-9150USJ-9150BL,Legacy 3D,New Black,1,"3 years parts, 2 years labor ($200)",CUSTOM ,0.00,4500.00,4500.00,Synchrony,4500.00,,,6019170813087472,93118551,Huston,48 months,,0.00,,,,,,,,0.00,,,,,,,,brent ira nery,5154222772,,,,Not Dispatched,1,6.00
108582,8/18/2018 6:31:44 PM,"IOWA STATE FAIR 8/9-19/18 DES MOINES, IA (IL)","IOWA STATE FAIR 8/9-19/18 DES MOINES, IA (IL)",Xiongxiaojun Ji,DWA-9150USJ-9150CH,Legacy 3D,New Choco,1,"3 years parts, 1 year labor (Free)",CUSTOM ,0.00,4900.00,4900.00,Synchrony,4900.00,,,6019170813087696,93121158,Huston,48 months,,0.00,,,,,,,,0.00,,,,,,,,deborah goben,3095823150,,,,Not Dispatched,1,6.00
108583,8/18/2018 6:35:43 PM,"IOWA STATE FAIR 8/9-19/18 DES MOINES, IA (IL)","IOWA STATE FAIR 8/9-19/18 DES MOINES, IA (IL)",Keith Kei,DWA-9150USJ-9150CH,Legacy 3D,New Choco,1,"3 years parts, 1 year labor (Free)",CUSTOM ,0.00,4876.00,4876.00,CreditCard,4876.00,Square Receipt URqa,,,,,,,0.00,,,,,,,,0.00,,,,,,,,Daniel Pettit,5152508767,,,Order # 89,Not Dispatched,1,6.00
108584,8/18/2018 6:36:57 PM,"IOWA STATE FAIR 8/9-19/18 DES MOINES, IA (IL)","IOWA STATE FAIR 8/9-19/18 DES MOINES, IA (IL)",Paul Wnag,DWA-9150USJ-9150CH,Legacy 3D,New Choco,1,"3 years parts, 2 years labor ($200)",CUSTOM COD,0.00,4500.00,4500.00,CreditCard,200.00,so2F,,,,,,COD,4300.00,,,,,,,,0.00,,,,,,,,h franklin teel,3192357816,,,,Not Dispatched,1,6.00
108585,8/18/2018 6:40:52 PM,"IOWA STATE FAIR 8/9-19/18 DES MOINES, IA (IL)","IOWA STATE FAIR 8/9-19/18 DES MOINES, IA (IL)",Ruben Cuatrona,DWA-9150USJ-9150BL,Legacy 3D,New Black,1,"3 years parts, 1 year labor (Free)",CUSTOM COD,0.00,4500.00,4500.00,CreditCard,500.00,640376,,,,,,COD,4000.00,,,,,,,,0.00,,,,,,,,kathy myer,5155707672,,,,Not Dispatched,1,6.00
108587,8/18/2018 6:46:01 PM,"IOWA STATE FAIR 8/9-19/18 DES MOINES, IA (IL)","IOWA STATE FAIR 8/9-19/18 DES MOINES, IA (IL)",Rodrigo Malabunga,DWA-9150USJ-9150CH,Legacy 3D,New Choco,1,"3 years parts, 2 years labor ($200)",CUSTOM ,0.00,4900.00,4900.00,Synchrony,4900.00,,,6019170813089536,93150417,Huston,48 months,,0.00,,,,,,,,0.00,,,,,,,,david bailey,3199376310,,,,Not Dispatched,1,6.00
108588,8/18/2018 6:47:21 PM,"IOWA STATE FAIR 8/9-19/18 DES MOINES, IA (IL)","IOWA STATE FAIR 8/9-19/18 DES MOINES, IA (IL)",Keith Kei,DWA-9150USJ-9150CH,Legacy 3D,New Choco,1,"3 years parts, 1 year labor (Free)",CUSTOM ,0.00,4770.00,4770.00,CreditCard,4770.00,Square # vwdb,,,,,,,0.00,,,,,,,,0.00,,,,,,,,James Muhs,6415215193,,,Order # 87,Not Dispatched,1,6.00
108590,8/18/2018 6:53:23 PM,"IOWA STATE FAIR 8/9-19/18 DES MOINES, IA (IL)","IOWA STATE FAIR 8/9-19/18 DES MOINES, IA (IL)",Ruben Cuatrona,DWA-9150USJ-9150BL,Legacy 3D,New Black,1,"3 years parts, 2 years labor ($200)",CUSTOM COD,0.00,4800.00,4800.00,Synchrony,3500.00,,,6019170813089577,93151129,Huston,48 months,COD,1300.00,,,,,,,,0.00,,,,,,,,dennis atkinson,6414252898,,,,Not Dispatched,1,6.00
