﻿Date,Customer Name,State,Zipcode,Description,Product Number,Color,Product Status,Net,Shipping Fee,Gift Price,Financing Processing Fee,Order Total,Total Before Tax,Tax,Commission,Primary Payment Method,Primary Payment Balance,Primary Authorize Number,Primary Purchase Order Number,Primary Synchrony Account Number,Primary Synchrony Application Key,Primary Synchrony Account Info,Primary Synchrony Term,Second Payment Method,Second Payment Balance,Second Authorize Number,Second Purchase Order Number,Second Synchrony Account Number,Second Synchrony Application Key,Second Synchrony Account Info,Second Synchrony Term,Third Payment Method,Third Payment Balance,Third Authorize Number,Third Purchase Order Number,Third Synchrony Account Number,Third Synchrony Application Key,Third Synchrony Account Info,Third Synchrony Term,Delivery Date,Pick up,Warranty,Status,Chair Type,Original Event Name,Event Name,Synchrony Notes,Order Notes,Order Number,Private Note,Branch,No Tax,Actual Tax Rate
3/29/2018 3:29:38 PM,ART MICHAELS,IL,60137,Pegasus,DWA-9400Pegasus-BL,New Black,New,,,,,5000.00,5000.00,0.00,Rodrigo Malabunga,CreditCard,5000.00,rz2G,,,,,,,0.00,,,,,,,,0.00,,,,,,,4/3/2018 12:00:00 AM,No,"3 years parts, 2 years labor ($200)",Delivered,,Nightclub and Bar Show 3/27-28/18 (NV),Nightclub and Bar Show 3/27-28/18 (NV),,,104869,"Please deliver asap.
Confirmed transaction for $5000 in Square. 4/13/18 Riho",TX,1,8.25
3/29/2018 4:10:30 PM,Mailei Maloa,CA,94080,Relax2Zero 3D,DWA-9060USJ-9060BL-DEMO,Demo Black,Demo,,,,,3500.00,3500.00,0.00,Ruben Cuatrona,CreditCard,3500.00,Sq #A0p7,,,,,,,0.00,,,,,,,,0.00,,,,,,,4/23/2018 12:00:00 AM,No,"3 years parts, 1 year labor (Free)",Delivered,,Nightclub and Bar Show 3/27-28/18 (NV),Nightclub and Bar Show 3/27-28/18 (NV),,,104871,"Floor model but make sure in good condition
Confirmed $3,500 in Square . 3/30/18 Hitomi
3/30Maritza- Sent first courtesy call @9:20am (left a voicemail).",CA,1,8.25
3/29/2018 4:17:38 PM,Zach Mc Grath,CA,90068,Relax2Zero 3D,DWA-9060USJ-9060BR,New Choco,New,,,,,3900.00,3900.00,0.00,Ruben Cuatrona,CreditCard,100.00,Sq #2Shs,,,,,,COD,3800.00,,,,,,,,0.00,,,,,,,,No,"3 years parts, 1 year labor (Free)",Hold,,Nightclub and Bar Show 3/27-28/18 (NV),Nightclub and Bar Show 3/27-28/18 (NV),,,104872,HOLD this order customer will pay on April or May,Not Dispatched,1,8.25
3/29/2018 4:25:59 PM,Elliot Baum,MI,48034,Relax2Zero 3D,DWA-9060USJ-9060BL,New Black,New,,,,,3900.00,3900.00,0.00,Ruben Cuatrona,CreditCard,3900.00,Sq #1ryY,,,,,,,0.00,,,,,,,,0.00,,,,,,,5/9/2018 12:00:00 AM,No,"3 years parts, 1 year labor (Free)",Delivered,,Nightclub and Bar Show 3/27-28/18 (NV),Nightclub and Bar Show 3/27-28/18 (NV),,,104873,"Confirmed $3,900 in square. 3/30/18 Hitomi
3/30 Maritza- first courtesy call made @9:30 (voicemail full)",TX,1,8.25
3/29/2018 8:15:28 PM,Sandra Meuer,WI,53703,Legacy 3D,DWA-9150USJ-9150BL,New Black,New,,,,,4400.00,4400.00,0.00,Rolly San Jose,CreditCard,4400.00,Sq #GeWy,,,,,,,0.00,,,,,,,,0.00,,,,,,,4/6/2018 12:00:00 AM,No,"3 years parts, 1 year labor (Free)",Delivered,,Nightclub and Bar Show 3/27-28/18 (NV),Nightclub and Bar Show 3/27-28/18 (NV),,,104874,"11 floor with elevator
Confirmed $4,400 in square. 3/30/18 Hitomi
3/30 Maritza- first courtesy call made @9:25am",TX,1,8.25
3/29/2018 9:09:56 PM,Louie Keen,MO,65536,Pegasus,DWA-9400Pegasus-BR,New Choco,New,,,,,5083.00,5083.00,0.00,Rolly San Jose,CreditCard,1000.00,Sq #luUx,,,,,,COD,4083.00,,,,,,,,0.00,,,,,,,,No,"3 years parts, 1 year labor (Free)",Cancelled,,Nightclub and Bar Show 3/27-28/18 (NV),Nightclub and Bar Show 3/27-28/18 (NV),,,104875,"HOLD customer will advise for delivery
Cancelled, Cristina issued refund through SQ. 5/10/18 Riho",Not Dispatched,1,8.25
