﻿Date,CustomerName,State,Zipcode,Description,productNo,Color,IsDemo,Net,ShippingFee,GiftPrice,FinancingProcessingFee,Gross,Pre_tax,Tax,Commission,PaymentMethod,Primary Payment Balance,Secondary Payment Method,DeliveryDate,Ispickup,Warranty,Status,Event Name,Synchrony Account Number,Synchrony Application Key,Synchrony Account info,Synchrony Term,Synchrony Notes,Order Notes,Order number,Private Note
9/30/2017 8:21:17 AM,Loc Mai,OK,74134,Legacy 3D,DWA-9150USJ-9150BL-DEMO,Demo Black,Demo,,,,,3600.59,3318.00,282.59,Tom Nguyen,Synchrony,3600.00,,10/17/2017 12:00:00 AM,YES,"3 years parts, 1 year labor (Free)",Delivered,Tulsa State Fair #486 9/28-10/8 (TX),6034610081543400,79065474,Huston,36 months,,"Invoice 1
Auth #029459
Paid in full",100977,SYCNHRONY CLEARED BY ALICIA 10/2/17
9/30/2017 8:31:42 AM,Owen Campbell,OK,74115,Legacy 3D,DWA-9150USJ-9150CH-DEMO,Demo Choco Brown,Demo,,,,,3599.66,3376.00,223.66,Tom Nguyen,Synchrony,3600.00,,10/21/2017 12:00:00 AM,No,"3 years parts, 1 year labor (Free)",Delivered,Tulsa State Fair #486 9/28-10/8 (TX),6034610081543962,79079199,Huston,36 months,,"Invoice 2
Auth #030004
Paid in full",100978,SYNCHRONY CLEARED BY ALICIA 10/2/17
9/30/2017 8:36:36 AM,Edward Bock,OK,73759,Legacy 3D,DWA-9150USJ-9150CH,Choco Brown,New,,,,,3799.33,3560.00,239.33,Jennifer Tran,CreditCard,3800.00,,10/14/2017 12:00:00 AM,No,"3 years parts, 1 year labor (Free)",Delivered,Tulsa State Fair #486 9/28-10/8 (TX),,,,,,"Invoice 3
Paid in full",100979,SQUARE PAYEMNT CLEARED BY ALICIA 10/2/17
9/30/2017 8:36:36 AM,Edward Bock,OK,73759,Chair Pad for Legacy 3D,,,New,,,,,3799.33,3560.00,239.33,Jennifer Tran,CreditCard,3800.00,,10/14/2017 12:00:00 AM,No,no warranty,Delivered,Tulsa State Fair #486 9/28-10/8 (TX),,,,,,"Invoice 3
Paid in full",100979,SQUARE PAYEMNT CLEARED BY ALICIA 10/2/17
9/30/2017 8:36:36 AM,Edward Bock,OK,73759,Foot Pads for Legacy 3D,,,New,,,,,3799.33,3560.00,239.33,Jennifer Tran,CreditCard,3800.00,,10/14/2017 12:00:00 AM,No,no warranty,Delivered,Tulsa State Fair #486 9/28-10/8 (TX),,,,,,"Invoice 3
Paid in full",100979,SQUARE PAYEMNT CLEARED BY ALICIA 10/2/17
9/30/2017 8:41:33 AM,Dr. Chris Pancratz,OK,74133-1124,Legacy 3D,DWA-9150USJ-9150CH,Choco Brown,New,,,,,3599.66,3376.00,223.66,Tom Nguyen,CreditCard,100.00,COD,10/24/2017 12:00:00 AM,No,"3 years parts, 1 year labor (Free)",Delivered,Tulsa State Fair #486 9/28-10/8 (TX),,,,,,"Invoice 4
Remaining: $3500",100980,"SQUARE PAYMENT CLEARED BY ALICIA 10/2/17
SQUARE RECEIPT # xIOo"
9/30/2017 8:47:24 AM,Patrick Lester,OK,74011,Relax2Zero 1.0,USJ-9000USJ-9000KU,Black,New,,,,,3255.66,3059.00,196.66,Xiongxiaojun Ji,CreditCard,3255.60,,10/20/2017 12:00:00 AM,No,"3 years parts, 1 year labor (Free)",Delivered,Tulsa State Fair #4849 9/28-10/8 (TX),,,,,,"Invoice 5
Paid in full",100981,WELLS FARGO PAYMENT CLEARED BY ALICIA 10/2/17
9/30/2017 8:52:32 AM,Wendy Keener,OK,74036,Legend 3.0,DWA-9250USJ-9150CH,Choco Brown,New,,,,,4000.08,3745.00,255.08,Keith Kei,CreditCard,4000.00,,10/20/2017 12:00:00 AM,No,"3 years parts, 1 year labor (Free)",Delivered,Tulsa State Fair #4849 9/28-10/8 (TX),,,,,,"Invoice 6
Paid in full",100982,WELLS FARGO PAYMENT CLEARED BY ALICIA 10/2/17
9/30/2017 9:57:59 AM,Chunxi Qiao,TX,77396,Legacy,DWA-9100DWA-9100CH,Choco Brown,New,,,,,3799.40,3567.00,232.40,Yichuang (Debbie) Yang,CreditCard,3800.00,,,No,"3 years parts, 1 year labor (Free)",Scheduled,Health and Wellness Houston Store 2017 (TX),,,,,,This order is recovery for order #100949 customer id71330 by payment type mistake ( credit card instead of cash),100983,
9/30/2017 9:57:59 AM,Chunxi Qiao,TX,77396,Chair Pad for Legacy,,,New,,,,,3799.40,3567.00,232.40,Yichuang (Debbie) Yang,CreditCard,3800.00,,,No,no warranty,Scheduled,Health and Wellness Houston Store 2017 (TX),,,,,,This order is recovery for order #100949 customer id71330 by payment type mistake ( credit card instead of cash),100983,
9/30/2017 9:57:59 AM,Chunxi Qiao,TX,77396,Foot Pads for Legacy,,,New,,,,,3799.40,3567.00,232.40,Yichuang (Debbie) Yang,CreditCard,3800.00,,,No,no warranty,Scheduled,Health and Wellness Houston Store 2017 (TX),,,,,,This order is recovery for order #100949 customer id71330 by payment type mistake ( credit card instead of cash),100983,
9/30/2017 11:09:21 AM,Dan Lutter,IL,60061,Foot Vibe Pro,USJ-871,,New,,,,,117.96,109.99,7.97,Michael Wang,CreditCard,0.00,,,YES,"2 years parts, 1 year labor (Small Items)",Delivered,Sam's Club #6228 9/15-9/17 (IL),,,,,,Customer paid Sam's Vernon Hills and picked up 1 foot vibe pro.,100984,
9/30/2017 11:25:47 AM,Shixing He,IL,60061,Ninja Leg Massager,,,New,,,,,406.48,379.00,27.48,Michael Wang,CreditCard,0.00,,9/30/2017 12:00:00 AM,YES,"2 years parts, 1 year labor (Small Items)",Delivered,Sam's Club #6228 9/15-9/17 (IL),,,,,,Customer paid by cc and picked up 1 ninja leg massager from Sam's Vernon Hills 6228.,100985,
9/30/2017 11:32:09 AM,Nick Katsaunakis,MA,01077,Relax2Zero 3D,DWA-9060USJ-9060BL,Black,New,,,,,3900.31,3715.00,185.31,Winston Melgar,CreditCard,3900.00,,10/12/2017 12:00:00 AM,No,"3 years parts, 1 year labor (Free)",Delivered,The Big E State Fair 9/15-10/1,,,,,,"Order Date:  09/29/2017
Actual total amount is $3,900-
Please ignore the remaining balance of $0.31.
There is no remaining balance.",100986,WELLS FARGO PAYMENT CLEARED BY ALICIA 10/2/17
9/30/2017 11:36:24 AM,Homer Goldie,SC,29526,Pegasus,DWA-9400Pegasus-BL,Black,New,,,,,4400.75,4186.00,214.75,Amando Loreno,Synchrony,4400.00,,10/11/2017 12:00:00 AM,No,"3 years parts, 1 year labor (Free)",Delivered,The Big E State Fair 9/15-10/1,6034610081543665,79072529,Las Vegas,36 months,,"Order Date 09/29/2017
Actual total balance is $4,400.
Please ignore the remaining balance of $0.75.
There is no remaining balance.",100987,SYNCHRONY CLEARED BY ALICIA 10/2/17
9/30/2017 11:41:49 AM,Kathy Deptula,CT,06489,Legacy 3D,DWA-9150USJ-9150BL-DEMO,Demo Black,Demo,,,,,3500.81,3339.00,161.81,Rolly San Jose,Synchrony,3500.00,,,No,"3 years parts, 1 year labor (Free)",Hold,The Big E State Fair 9/15-10/1,6034610081544523,79089831,Las Vegas,36 months,,"Order Date: 09/29/2017
Approval#029013
Actual total balance is $3,500.
Please ignore the remaining balance of $0.81.
There is no remaining balance.

Delivery after show.",100988,SYNCHRONY CLEARED BYA LICIA 10/2/17
9/30/2017 11:46:23 AM,Rebecca LeMay,CT,06029,Pegasus,DWA-9400Pegasus-BR,Choco Brown,New,,,,,4700.38,4468.00,232.38,Ilene Maynard,Synchrony,4700.00,,10/16/2017 12:00:00 AM,No,"3 years parts, 1 year labor (Free)",Delivered,The Big E State Fair 9/15-10/1,6034610081544531,79090189,Las Vegas,36 months,,"Approval#029961
Actual total balance is $4,700.
Please ignore the remaining balance of $0.38.
There is no remaining balance.",100989,SYNCHRONY CLEARED BY ALICIA 10/2/17
9/30/2017 11:51:51 AM,David Breor,MA,01020,Legacy 3D,DWA-9150USJ-9150BL,Black,New,,,,,4500.63,4280.00,220.63,Abigail Stirling,Synchrony,4500.00,,,No,"3 years parts, 1 year labor (Free)",Cancelled,The Big E State Fair 9/15-10/1,6034610081544119,79082087,Las Vegas,36 months,,"Approval#029826
Actual total balance is $4,500.
Please ignore the remaining balance of $0.63.
There is no remaining balance.

Sales Rep : Ilene & Abagail",100990,"SYNCHRONY CLEARED BY ALICIA 10/2/17
CANCELLED AND REFUNDED 10/09/17 STEPHANY"
9/30/2017 12:14:44 PM,Gregory Aldridge,CA,95648,Relax2Zero 1.0,USJ-9000USJ-9000BR,Brown,New,,,,,4450.13,4200.00,250.13,Joseph Chan,Synchrony,4450.13,,11/2/2017 12:00:00 AM,No,"3 years parts, 1 year labor (Free)",Delivered,Aubrun Home Show 9/29-10/1,6034610081545694,79113338,San Diego,36 months,,,100991,"SYNCHRONY CLEARD BY ALICIA 10/2/17
10/02/17 cristina printed"
9/30/2017 5:36:34 PM,Arturo Cordova,CA,92530,Relax2Zero 2.0 for Sam's,USJ-9050USJ-9050BR,Brown,New,,,,,3446.92,3199.00,247.92,Kohei Uno,CreditCard,3446.92,,10/20/2017 12:00:00 AM,No,"3 years parts, 1 year labor (Free)",Delivered,Sam's Club #4882 9/27-10/8 (CA),,,,,,,100992,10/02/17 cristina printed
9/30/2017 5:50:39 PM,James Thrower,CA,92592,Legacy for Sam's,DWA-9100DWA-9100BL,Black,New,,,,,4632.17,4299.00,333.17,Kohei Uno,CreditCard,4632.17,,10/23/2017 12:00:00 AM,No,"3 years parts, 1 year labor (Free)",Delivered,Sam's Club #4882 9/27-10/8 (CA),,,,,,,100993,10/02/17 printed
9/30/2017 7:48:48 PM,Feby Cabullo,CA,95210,Legacy,DWA-9100DWA-9100SI,Sienna Brown,New,,,,,3299.33,3127.00,172.33,Joseph Chan,COD,200.00,Check,11/1/2017 12:00:00 AM,No,"3 years parts, 1 year labor (Free)",Delivered,Aubrun Home Show 9/29-10/1,,,,,,Actual sales is $3300 as customer is buying 3 chairs,100995,"ONE WELLS FARGO PAYMENT FOR DEPOSIT $200 EACH (FOR 3 ORDERS). ORDER #100995, #100996 AND #100997.
AUTH # 730607, FOR $600 -Confirmed the transaction at WF. the remaining balance $3,099.33 is *COD* 10/3/17 Riho"
9/30/2017 7:53:37 PM,Feby Cabullo,CA,95210,Legacy,DWA-9100DWA-9100BL,Black,New,,,,,3299.33,3127.00,172.33,Joseph Chan,CreditCard,200.00,COD,11/1/2017 12:00:00 AM,No,"3 years parts, 1 year labor (Free)",Delivered,Aubrun Home Show 9/29-10/1,,,,,,,100996,"ONE WELLS FARGO PAYMENT FOR DEPOSIT $200 EACH (FOR 3 ORDERS). ORDER #100995, #100996 AND #100997.
AUTH # 730607, FOR $600-- ALICIA"
9/30/2017 7:57:53 PM,Feby Cabullo,CA,95212,Legacy,DWA-9100DWA-9100CH,Choco Brown,New,,,,,3299.33,3127.00,172.33,Joseph Chan,CreditCard,200.00,COD,11/1/2017 12:00:00 AM,No,"3 years parts, 1 year labor (Free)",Delivered,Aubrun Home Show 9/29-10/1,,,,,,,100997,"ONE WELLS FARGO PAYMENT FOR DEPOSIT $200 EACH (FOR 3 ORDERS). ORDER #100995, #100996 AND #100997.
AUTH # 730607, FOR $600-- ALICIA"
10/1/2017 7:54:45 AM,Howard Pisons,VA,23235,Legacy 3D,DWA-9150USJ-9150CH,Choco Brown,New,,,,,4199.63,4026.00,173.63,Ruben Cuatrona,CreditCard,0.00,,10/9/2017 12:00:00 AM,No,"3 years parts, 1 year labor (Free)",Delivered,Virginia State Fair 9/29-10/8,,,,,,,100998,WELLS FARGO PAYMENT CLEARED BY ALICIA 10/3/17
10/1/2017 8:05:14 AM,Christopher Hartley,VA,23434,Legacy 3D,DWA-9150USJ-9150BL,Black,New,,,,,4130.13,3960.00,170.13,Rodrigo Malabunga,CreditCard,0.00,,10/18/2017 12:00:00 AM,No,"3 years parts, 1 year labor (Free)",Delivered,Virginia State Fair 9/29-10/8,,,,,,,100999,WELLS FARGO PAYMENT CLEARED BY ALICIA 10/2/17
10/1/2017 8:10:35 AM,Karen Hill,OK,74038,Serenity,SSRT-1SSRT-1-BR-DEMO,Demo Choco Brown,Demo,,,,,3038.48,2800.00,238.48,Phuoc Van,CreditCard,300.00,COD,10/8/2017 12:00:00 AM,YES,"3 years parts, 1 year labor (Free)",Delivered,Tulsa State Fair #4849 9/28-10/8 (TX),,,,,,"Invoice 7
Total $3038.56
Deposit $300
Remaining $2738.56",101000,"SQUARE DEPOSIT CLEARED BY ALICIA 10/2/17
COD $2738.56"
10/1/2017 8:15:17 AM,Tabitha Freeman,VA,22701,Legacy 3D,DWA-9150USJ-9150BL-DEMO,Demo Black,Demo,,,,,3898.47,3740.00,158.47,Ruben Cuatrona,Synchrony,0.00,,10/9/2017 12:00:00 AM,No,"3 years parts, 1 year labor (Free)",Delivered,Virginia State Fair 9/29-10/8,6034610081547385,79134071,,,,,101001,"SYNCHRONY CLEARED BY ALICIA 10/2/17
SYNCHRONY ACCOUNT UNDER LAS VEGAS"
10/1/2017 8:16:56 AM,Jennifer Shackelford,OK,74021,Legacy 3D,DWA-9150USJ-9150CH-DEMO,Demo Choco Brown,Demo,,,,,3600.00,3376.32,223.68,Tom Nguyen,CreditCard,1600.00,COD,10/23/2017 12:00:00 AM,No,"3 years parts, 1 year labor (Free)",Delivered,Tulsa State Fair #486 9/28-10/8 (TX),,,,,,"Invoice 8
Remaining: $2000 on delivery",101002,"SQUARE PAYMENT CLEARED $1600, $2000 COD"
10/1/2017 8:22:32 AM,Zeyfoula Beytoula,OK,74011,Legacy 3D,DWA-9150USJ-9150BL,Black,New,,,,,4199.99,3929.22,270.77,Tom Nguyen,Synchrony,4200.00,,10/15/2017 12:00:00 AM,No,"3 years parts, 1 year labor (Free)",Delivered,Tulsa State Fair #486 9/28-10/8 (TX),6034610081546981,79129038,Huston,36 months,,"Invoice 14
Paid In Full
Auth#030219",101003,SYNCHRONY PAYMENT CLEARED BY ALICIA 10/2/17
10/1/2017 8:24:49 AM,Robbin Rusk,MO,64862,Pegasus,DWA-9400Pegasus-BR,Choco Brown,New,,,,,4400.00,4113.53,286.47,Jennifer Tran,Cash,500.00,CreditCard,10/13/2017 12:00:00 AM,No,"3 years parts, 1 year labor (Free)",Delivered,Tulsa State Fair #486 9/28-10/8 (TX),,,,,,"Invoice 9
Remaining: $3900 will pay Monday 10/2",101004,"$3900 COD, PLS ASK CUSTOMER"
10/1/2017 8:26:32 AM,Charles Simpson,VA,23322,Relax2Zero 3D,DWA-9060USJ-9060BR,Choco Brown,New,,,,,4509.21,4320.00,189.21,Ruben Cuatrona,Synchrony,0.00,,10/7/2017 12:00:00 AM,No,"3 years parts, 1 year labor (Free)",Delivered,Virginia State Fair 9/29-10/8,6034610081547450,79134636,Las Vegas,48 months,,,101005,"SYNCHRONY CLEARED BY ALICIA 10/2/17, $4500"
10/1/2017 8:34:21 AM,Wanda Huntsberger,OK,73742,Serenity,SSRT-1SSRT-1-BR,Choco Brown,New,,,,,3000.00,2823.41,176.59,Kristy Tran,CreditCard,200.00,Cash,,No,"3 years parts, 1 year labor (Free)",Cancelled,Tulsa State Fair #486 9/28-10/8 (TX),,,,,,"Invoice 10
Remaining: $2800 CASH on balance No checks, no money order
**PLEASE send with 3 back paddings**",101006,"Per Kristy, this order was revised to #101071. 10/2/17 Riho"
10/1/2017 8:34:21 AM,Wanda Huntsberger,OK,73742,Chair Pad for Majesty,,,New,,,,,3000.00,2823.41,176.59,Kristy Tran,CreditCard,200.00,Cash,,No,no warranty,Cancelled,Tulsa State Fair #486 9/28-10/8 (TX),,,,,,"Invoice 10
Remaining: $2800 CASH on balance No checks, no money order
**PLEASE send with 3 back paddings**",101006,"Per Kristy, this order was revised to #101071. 10/2/17 Riho"
10/1/2017 8:34:55 AM,Manuel Meza,OK,74107,Legacy 3D,DWA-9150USJ-9150CH,Choco Brown,New,,,,,4200.01,3929.23,270.78,Jennifer Tran,Synchrony,4200.00,,10/27/2017 12:00:00 AM,No,"3 years parts, 1 year labor (Free)",Delivered,Tulsa State Fair #486 9/28-10/8 (TX),6034610081547245,79131745,Huston,36 months,,"Invoice 15
Paid In Full
Auth# 030192",101007,SYNCHRONY CLEARED BY ALICIA 10/2/17
10/1/2017 8:46:39 AM,Rick Oberlender,OK,74133,Legacy 3D,DWA-9150USJ-9150CH,Choco Brown,New,,,,,3600.00,3376.32,223.68,Phuoc Van,Synchrony,3600.00,,10/28/2017 12:00:00 AM,No,"3 years parts, 1 year labor (Free)",Delivered,Tulsa State Fair #486 9/28-10/8 (TX),6034610081547609,79136014,Huston,36 months,,"Invoice 16
Paid In Full
Auth #030334",101008,SYNCHRONY CLEARED BY ALICIA 10/2/17
10/1/2017 8:55:44 AM,David Reagle,OK,74011,Pegasus,DWA-9400Pegasus-BR-DEMO,Demo Choco Brown,Demo,,,,,4000.00,3686.06,313.94,Phuoc Van,CreditCard,4000.00,,10/8/2017 12:00:00 AM,YES,"3 years parts, 1 year labor (Free)",Delivered,Tulsa State Fair #486 9/28-10/8 (TX),,,,,,"Invoice 17
Paid In Full",101009,SQUARE PAYMENT CLEARED BY ALICIA 10/2/17
10/1/2017 9:08:21 AM,Charles Martin,OK,74079,Serenity,SSRT-1SSRT-1-BR,Choco Brown,New,,,,,3000.00,2823.41,176.59,Kristy Tran,Synchrony,1200.00,,10/31/2017 12:00:00 AM,No,"3 years parts, 1 year labor (Free)",Delivered,Tulsa State Fair #486 9/28-10/8 (TX),6034610081546056,79117305,Huston,12 months,,"Invoice 11
Total $3000
Synchrony $1200
Auth# 030785
Remaining $1800 (check)
Business check will be sent ASAP",101010,"SYNCHRONY $1200 CLEARED, CHECK NEEDS TO CLEAR FOR $1800"
10/1/2017 9:15:43 AM,Julie Orth,OK,74070,Relax2Zero 1.0,USJ-9000USJ-9000KU,Black,New,,,,,3000.00,2823.41,176.59,Keith Kei,CreditCard,800.00,COD,,No,"3 years parts, 1 year labor (Free)",Cancelled,Tulsa State Fair #4849 9/28-10/8 (TX),,,,,,,101011,
10/1/2017 9:19:08 AM,William Mayfield,OK,74020,Pegasus,DWA-9400Pegasus-BR,Choco Brown,New,,,,,4200.01,3929.23,270.78,Jennifer Tran,COD,0.00,CreditCard,,No,"3 years parts, 1 year labor (Free)",Hold,Tulsa State Fair #486 9/28-10/8 (TX),,,,,,"Invoice 12
Customer will call Wed/Thurs to deposit 10/4-5
**HOLD order til Feb/Mar 2018",101012,
10/1/2017 9:19:41 AM,Mike Vanderlind,OK,74136,Legacy 3D,DWA-9150USJ-9150CH,Choco Brown,New,,,,,3600.00,3376.32,223.68,Kristy Tran,CreditCard,3600.00,,10/27/2017 12:00:00 AM,No,"3 years parts, 1 year labor (Free)",Delivered,Tulsa State Fair #486 9/28-10/8 (TX),,,,,,"Invoice 13
Paid In Full",101013,SQUARE PAYMENT CLEARED BY ALICIA 10/2/17
10/1/2017 9:33:19 AM,Ronnie Miller,OK,74015,Legend 3.0,DWA-9250USJ-9150CH,Choco Brown,New,,,,,4991.78,4658.86,332.92,Keith Kei,CreditCard,300.00,COD,,No,"3 years parts, 1 year labor (Free)",Called,Tulsa State Fair #4849 9/28-10/8 (TX),,,,,,,101014,
10/1/2017 9:38:01 AM,Mia D Carr,LA,71111,Vitality Plate,USJ-849USJ-849,New,New,,,,,455.39,413.99,41.40,KHOA H,CreditCard,0.00,,,No,"2 years parts, 1 year labor (Small Items)",Delivered,NRPA New Orleans 9/26-9/27 (TX),,,,,,"Sold at Sam's club COVINGTIN, LA #4874.",101015,
10/1/2017 10:56:37 AM,Felicia Luke,FL,32206,Legacy,DWA-9100DWA-9100CR-DEMO,Demo Cream,Demo,,,,,3745.00,3500.00,245.00,Mitch Valdes,CreditCard,3745.00,,10/1/2017 12:00:00 AM,No,"3 years parts, 1 year labor (Free)",Delivered,Jacksonville Home and Patio Show,,,,,,,101016,SQUARE PAYMENT CLEARED BY ALICIA 10/2/17
10/1/2017 10:56:37 AM,Felicia Luke,FL,32206,Chair Pad for Legacy,,,New,,,,,3745.00,3500.00,245.00,Mitch Valdes,CreditCard,3745.00,,10/1/2017 12:00:00 AM,No,no warranty,Delivered,Jacksonville Home and Patio Show,,,,,,,101016,SQUARE PAYMENT CLEARED BY ALICIA 10/2/17
10/1/2017 12:20:28 PM,Shawn Drussart,FL,32233,Relax2Zero 2.0,USJ-9050USJ-9050BR,Brown,New,,,,,4173.00,3900.00,273.00,Alex Brackelsberg,Synchrony,4173.00,,10/5/2017 12:00:00 AM,No,"3 years parts, 1 year labor (Free)",Delivered,Jacksonville Home and Patio Show,6034610981548417,79151332,Huston,36 months,,,101017,SYNCHRONY CLAERED BY ALICIA 10/2/17
10/1/2017 12:46:38 PM,Ronald Jolley,FL,32034,Legacy,DWA-9100DWA-9100CR,Cream,New,,,,,3745.00,3500.00,245.00,Mitch Valdes,CreditCard,100.00,,10/5/2017 12:00:00 AM,No,"3 years parts, 1 year labor (Free)",Delivered,Jacksonville Home and Patio Show,,,,,,"Balance of $3,645 to be paid before delivery
Call next week for payment and delivery",101018,"Customer changed color to BLACK.
Balance paid on Square Receipt #dtel ($3645.00)
Confirmed the payment $100 and $3645 at Square. 10/3/17 Riho"
10/1/2017 4:48:41 PM,Cyril Marifosque,TX,75019,Legacy,DWA-9100DWA-9100BU,Blue,New,,,,,3500.63,3291.00,209.63,Linda Qu,Synchrony,0.00,,10/3/2017 12:00:00 AM,No,"3 years parts, 1 year labor (Free)",Delivered,Health and Wellness Carrollton Store 2017 (TX),6034610081549712,79164730,Huston,36 months,,$3500 sale price. No charge for $0.63,101019,
10/1/2017 6:24:47 PM,Joseph Lyons,CA,95602,Relax2Zero 1.0,USJ-9000USJ-9000KU,Black,New,,,,,4000.75,3781.00,219.75,Joseph Chan,Cash,200.00,Check,,No,"3 years parts, 1 year labor (Free)",Hold,Aubrun Home Show 9/29-10/1,,,,,,"Actual sales is $4000, customer will call for delivery",101020,$200 CASH GIVEN TO PRES. MICHAEL 10.3.17 BY ALICIA
10/1/2017 6:31:28 PM,April Schmitt,CA,95746,Relax2Zero 1.0,USJ-9000USJ-9000KU,Black,New,,,,,4200.00,3966.78,233.22,Joseph Chan,CreditCard,4200.00,,11/2/2017 12:00:00 AM,No,"3 years parts, 1 year labor (Free)",Delivered,Aubrun Home Show 9/29-10/1,,,,,,,101021,"WELLS FARGO PAYMENT CLEARED BY ALICIA 10.4.17
APPROVAL CODE: 003793"
10/1/2017 6:41:18 PM,Penny Hicks,CA,94458,Legacy,DWA-9100DWA-9100CH,Choco Brown,New,,,,,3800.00,3593.82,206.18,Joseph Chan,CreditCard,3800.00,,11/3/2017 12:00:00 AM,No,"3 years parts, 1 year labor (Free)",Delivered,Aubrun Home Show 9/29-10/1,,,,,,,101022,"WELLS FARGO CLEARED BY ALICIA 10.3.17
10/03/17 cristina printed"
10/1/2017 8:46:07 PM,Joseph Dorsey,OK,74017,Pegasus,DWA-9400Pegasus-BR,Choco Brown,New,,,,,4800.00,4482.13,317.87,Phuoc Van,Synchrony,4800.00,CreditCard,10/5/2017 12:00:00 AM,No,"3 years parts, 1 year labor (Free)",Delivered,Tulsa State Fair #486 9/28-10/8 (TX),6034610081548169,79147569,Huston,36 months,,"Invoice 23
Paid in full
Synchrony Finance $3500 @ 36 months
Auth #001067
Credit Card $1300 Square #l2y7",101023,SYNCHRONY CLEARED BY ALICIA 10/2/17
10/1/2017 8:51:28 PM,Joe & Lauren Speer,OK,74011,Pegasus,DWA-9400Pegasus-BL,Black,New,,,,,4800.00,4482.13,317.87,Jennifer Tran,CreditCard,4800.00,,,No,"3 years parts, 1 year labor (Free)",Called,Tulsa State Fair #486 9/28-10/8 (TX),,,,,,"Invoice 24
Paid in full",101024,SQUARE PAYMENT CLEARED BY ALICIA 10/2/17
10/1/2017 8:56:09 PM,Kent Harmon,OK,74055,Pegasus,DWA-9400Pegasus-BR,Choco Brown,New,,,,,4200.01,3929.23,270.78,Tom Nguyen,Synchrony,4200.00,,10/20/2017 12:00:00 AM,No,"3 years parts, 3 years labor ($400)",Delivered,Tulsa State Fair #486 9/28-10/8 (TX),6034610081548755,79154971,Huston,36 months,,"Invoice 25
Paid in full
Auth #001790",101025,SYCNRHONY CLEARED BY ALICIA 10/2/17
10/1/2017 9:01:58 PM,Jacob Schellenberg,OK,74015,Pegasus,DWA-9400Pegasus-BR-DEMO,Demo Choco Brown,Demo,,,,,7600.00,7003.51,596.49,Kristy Tran,CreditCard,7600.00,,10/8/2017 12:00:00 AM,YES,"3 years parts, 1 year labor (Free)",Delivered,Tulsa State Fair #486 9/28-10/8 (TX),,,,,,"Invoice 26 & 27
Paid in full
1 Choco Brown Demo 
1 Black Demo",101026,SQUARE CLEARED BY ALICIA 10/2/17
10/1/2017 9:06:00 PM,Carol McIntive,OK,74056,Legacy 3D,DWA-9150USJ-9150CH,Choco Brown,New,,,,,4200.01,3929.23,270.78,Jennifer Tran,CreditCard,4200.00,,10/28/2017 12:00:00 AM,No,"3 years parts, 1 year labor (Free)",Delivered,Tulsa State Fair #486 9/28-10/8 (TX),,,,,,"Invoice 28
Paid in full
**PLEASE Deliver Afternoon around 2pm**",101027,SQUARE CLEARED BY ALICIA 10/2/17
10/1/2017 9:12:32 PM,Teria Frank,OK,74014,Legacy 3D,DWA-9150USJ-9150CH-DEMO,Demo Choco Brown,Demo,,,,,3600.00,3317.45,282.55,Kristy Tran,Synchrony,3600.00,,10/8/2017 12:00:00 AM,YES,"3 years parts, 1 year labor (Free)",Delivered,Tulsa State Fair #486 9/28-10/8 (TX),6034610081549290,79160352,Huston,36 months,,"Invoice 29
Paid in full
Auth #001500",101028,SYNCHRONY CLEARED BY ALICIA 10/2/17
10/1/2017 9:21:18 PM,Bruce Mabrey,OK,74447,Legacy 3D,DWA-9150USJ-9150BL-DEMO,Demo Black,Demo,,,,,3600.00,3376.32,223.68,Tom Nguyen,CreditCard,3600.00,,10/21/2017 12:00:00 AM,No,"3 years parts, 1 year labor (Free)",Delivered,Tulsa State Fair #486 9/28-10/8 (TX),,,,,,"Invoice 30
Paid in full",101029,SQUARE PAYMENT CLEARED BY ALICIIA 10/2/17
10/1/2017 9:25:18 PM,Jovelyn Peugh,OK,74053,Legacy 3D,DWA-9150USJ-9150CH,Choco Brown,New,,,,,4199.99,3929.22,270.77,Jennifer Tran,CreditCard,100.00,COD,,No,"3 years parts, 1 year labor (Free)",Cancelled,Tulsa State Fair #486 9/28-10/8 (TX),,,,,,"Invoice 31
**Customer had CANCELLED and has been refunded**",101030,
10/1/2017 9:30:46 PM,Tim & Tonda Wilson,OK,74145,Legacy 3D,DWA-9150USJ-9150CH,Choco Brown,New,,,,,3600.00,3376.32,223.68,Tom Nguyen,CreditCard,200.00,COD,,No,"3 years parts, 1 year labor (Free)",Hold,Tulsa State Fair #486 9/28-10/8 (TX),,,,,,"Invoice 32
Remaining: $3400
**HOLD up to 6 months**",101031,
10/1/2017 9:34:34 PM,Judie & Sean Hartzog,OK,74055,Legacy 3D,DWA-9150USJ-9150BL,Black,New,,,,,3800.00,3560.62,239.38,Jennifer Tran,CreditCard,200.00,COD,10/28/2017 12:00:00 AM,No,"3 years parts, 1 year labor (Free)",Delivered,Tulsa State Fair #486 9/28-10/8 (TX),,,,,,"Invoice 33
Remaining: $3600",101032,"SQUARE CLEARED BY ALICIA $200,M 10/2/17
SQUARE RECEIPT #EAb2"
10/1/2017 9:40:51 PM,Maria Caballero,OK,74107,Legacy 3D,DWA-9150USJ-9150CH,Choco Brown,New,,,,,4000.00,3744.92,255.08,Kristy Tran,Synchrony,4000.00,,10/27/2017 12:00:00 AM,No,"3 years parts, 1 year labor (Free)",Delivered,Tulsa State Fair #486 9/28-10/8 (TX),6034610081549811,79165901,Huston,36 months,,"Invoice 34
Paid in full
Auth #001654
**Customer speaks Spanish**",101033,SYNCHRONY CLEARED BY ALICIA 10/2/17
10/1/2017 10:22:10 PM,Julie Orth,OK,74070,Relax2Zero 1.0,USJ-9000USJ-9000KU,Black,New,,,,,3000.00,2823.41,176.59,Keith Kei,CreditCard,800.00,COD,10/13/2017 12:00:00 AM,No,"3 years parts, 1 year labor (Free)",Delivered,Tulsa State Fair #4849 9/28-10/8 (TX),,,,,,"Please pick up the ""TRADE IN CHAIR"" when delivering.
Deposit Amount: $800
Remaining Balance: $2200
Invoice #: 19",101034,"The deposit $800 was paid through Square.(#8vTL) 10/5/17 Riho
**COD $2,200**"
10/1/2017 10:43:33 PM,Ronnie Miller,OK,74015,Legend 3.0,DWA-9250USJ-9150CH,Choco Brown,New,,,,,4991.78,4658.86,332.92,Keith Kei,CreditCard,300.00,COD,,No,"3 years parts, 1 year labor (Free)",Called,Tulsa State Fair #4849 9/28-10/8 (TX),,,,,,"Invoice #: 20 
Deposit: $300
Remaining Balance: $4691.78",101035,"WELLS FARGO PAYMENT CLEARED $300 DEPOSIT, $4691.78 COD"
10/1/2017 10:49:59 PM,Ronnie Miller,OK,74015,Legend 3.0,DWA-9250USJ-9150CH,Choco Brown,New,,,,,4991.78,4658.86,332.92,Keith Kei,CreditCard,300.00,COD,,No,"3 years parts, 1 year labor (Free)",Called,Tulsa State Fair #4849 9/28-10/8 (TX),,,,,,"Invoice #: 20 
Deposit: $300
Remaining Balance: $4691.78
Delivery 10-12 weeks later, please CALL TO CONFIRM before DELIVERY!",101036,
10/1/2017 11:05:00 PM,Le Roy Millard,OK,74953,Legend 3.0,DWA-9250USJ-9150BL,Black,New,,,,,4000.00,3744.92,255.08,Keith Kei,Cash,100.00,,10/15/2017 12:00:00 AM,No,"3 years parts, 1 year labor (Free)",Delivered,Tulsa State Fair #4849 9/28-10/8 (TX),,,,,,"Invoice #:21 
Customer have TAX EXEMPTION
Exemption #: 842390
Deposit: $100 Cash
Remaining Balance: $3900 CASH ONLY!
COD with CASH CASH only",101037,"$3900 COD, CASH"
10/1/2017 11:21:07 PM,Elliott Futrell,IL,60015,Ninja Leg Massager,,,New,,,,,406.48,379.00,27.48,Michael Wang,CreditCard,0.00,,,YES,"2 years parts, 1 year labor (Small Items)",Delivered,Sam's Club #6228 9/15-9/17 (IL),,,,,,Customer paid Sam's Vernon Hills 6228 and picked up.,101038,
10/1/2017 11:33:57 PM,Warren Gresham,IL,60060,Relax2Zero 2.0 for Sam's,USJ-9050USJ-9050BR,Brown,New,,,,,3430.93,3199.00,231.93,Michael Wang,CreditCard,0.00,,10/23/2017 12:00:00 AM,No,"3 years parts, 1 year labor (Free)",Delivered,Sam's Club #6228 9/15-9/17 (IL),,,,,,Deliver Relax2zero 1.0 chair and deliver week of Oct 23 but please make appointment in advance if possible.Open new Relax2zero 1.0 and deliver as a demo.Give 2 total free chairs pads and 1 free blanket.,101039,
10/1/2017 11:41:57 PM,Ted Wozny,IL,60060,Relax2Zero 2.0 for Sam's,USJ-9050USJ-9050BR,Brown,New,,,,,3430.93,3199.00,231.93,Michael Wang,CreditCard,0.00,,,No,"3 years parts, 1 year labor (Free)",Scheduled,Sam's Club #6228 9/15-9/17 (IL),,,,,,Open new Relax2zero 1.0 and deliver as demo.2 free chairs pads and 1 blanket.Give 1 free flash drive with music.,101040,
10/1/2017 11:43:28 PM,William E Allen,OK,74422,Legend 3.0,DWA-9250USJ-9150BL,Black,New,,,,,4000.00,3744.92,255.08,Keith Kei,Synchrony,3000.00,CreditCard,10/21/2017 12:00:00 AM,No,"3 years parts, 1 year labor (Free)",Delivered,Tulsa State Fair #4849 9/28-10/8 (TX),6034610081547591,79135884,Huston,36 months,,"Invoice # : 22 
Deposit : $1000 paid with Master Card
Auth code: 09003Z
Synchrony: $3000 with 36 months
Customer Owe: $0
Paid in full.",101041,SYNCHRONY CLEARED BY ALICIA 10/2/17
10/1/2017 11:50:07 PM,Sui Ling Kong,CA,94403,Legacy for Sam's,DWA-9100DWA-9100CH,Choco,New,,,,,3859.93,3599.00,260.93,Michael Wang,CreditCard,0.00,,11/3/2017 12:00:00 AM,No,"3 years parts, 1 year labor (Free)",Scheduled,Sam's Club #6228 9/15-9/17 (IL),,,,,,2 free chairs pads and 1 free blanket.Open new chair and give as a demo.,101042,10/12/17  Lm info customer we will be holding off on deliveries due to fire
10/1/2017 11:57:55 PM,Chirag Patel,IL,60047,Legacy for Sam's,DWA-9100DWA-9100CH,Choco,New,,,,,3859.93,3599.00,260.93,Michael Wang,CreditCard,0.00,,10/18/2017 12:00:00 AM,No,"3 years parts, 1 year labor (Free)",Delivered,Sam's Club #6228 9/15-9/17 (IL),,,,,,2 free chairs pads 1 free blanket.Customer wants chair in box for floor model price.He does not trust that open box chair is unused and believes there maybe scratches.,101043,
10/2/2017 7:06:26 AM,Thy Tran,TX,73064,Legacy,DWA-9100DWA-9100BU,Blue,New,,,,,3300.37,3106.00,194.37,Linda Qu,CreditCard,0.00,,10/9/2017 12:00:00 AM,No,"3 years parts, 1 year labor (Free)",Delivered,Health and Wellness Carrollton Store 2017 (TX),,,,,,Sale price is $3300.,101044,WELLS FARGO PAYMENT CLEARED BY ALICIA 10.3.17
10/2/2017 7:43:09 AM,Ken Stroud,VA,22485,Relax2Zero 3D,DWA-9060USJ-9060BR-DEMO,Demo Choco Brown,Demo,,,,,3900.58,3742.00,158.58,Rodrigo Malabunga,CreditCard,0.00,,10/2/2017 12:00:00 AM,No,"3 years parts, 1 year labor (Free)",Delivered,Virginia State Fair 9/29-10/8,,,,,,Customer already picked up.,101045,"WELLS FARGO CLEARED 10.3.17, ALICIA"
10/2/2017 7:45:59 AM,Gary Seidensticker,CT,06515,Legacy 3D,DWA-9150USJ-9150BL,Black,New,,,,,4000.00,3808.82,191.18,Gary Cyrlin,Synchrony,4000.00,,10/12/2017 12:00:00 AM,No,"3 years parts, 1 year labor (Free)",Delivered,The Big E State Fair 9/15-10/1,6034610081546387,79122133,Las Vegas,36 months,,"Order Date: 09/30/2017
Synchrony Approval#030300",101046,SYNCHRONY CLEARED BY ALICIA 10.3.17
10/2/2017 7:51:04 AM,Daniel Duff,VA,23177,Legacy 3D,DWA-9150USJ-9150CH,Choco Brown,New,,,,,4203.84,4030.00,173.84,Ruben Cuatrona,CreditCard,500.00,COD,10/19/2017 12:00:00 AM,No,"3 years parts, 1 year labor (Free)",Delivered,Virginia State Fair 9/29-10/8,,,,,,"Total $4200, Deposit $500, the remaining balance $3700 will be paid when delivery.",101047,"WELLS FARGO DEPOSIT CLEARED BY ALICIA 10.3.17
$3700 COD / cod collected by Stephany 10/19"
10/2/2017 7:51:30 AM,Nancy Klingerman,CT,06043,Pegasus,DWA-9400Pegasus-BR,Choco Brown,New,,,,,4900.00,4655.88,244.12,Abigail Stirling,Synchrony,4900.00,,10/16/2017 12:00:00 AM,No,"3 years parts, 1 year labor (Free)",Delivered,The Big E State Fair 9/15-10/1,6034610081545736,79113668,Las Vegas,48 months,,"Order Date: 09/30/2017
Approval#030526

Sales: Abigail, Iileen & Gary",101048,SYNCHRONY CLEARED BY ALICIA 10.3.17
10/2/2017 7:57:42 AM,Stephen Kokoszka,CT,06451,Relax2Zero 3D,DWA-9060USJ-9060BL,Black,New,,,,,4200.00,3997.06,202.94,Gary Cyrlin,CreditCard,4200.00,,10/13/2017 12:00:00 AM,No,"3 years parts, 1 year labor (Free)",Delivered,The Big E State Fair 9/15-10/1,,,,,,"Order Date: 10/01/2017
Sales: Rolly & Gary",101049,WELLS FARGO PAYMENT CLEARED BY ALICIA 10.3.17
10/2/2017 8:00:03 AM,Mary Bonner,VA,23860,Legacy 3D,DWA-9150USJ-9150BL,Black,New,,,,,4003.77,3840.00,163.77,Rodrigo Malabunga,Check,2500.00,Cash,10/22/2017 12:00:00 AM,No,"3 years parts, 1 year labor (Free)",Delivered,Virginia State Fair 9/29-10/8,,,,,,"Total $4000, customer paid deposit $2500 with a personal check, balance $1500 will be paid on COD.",101050,"The check was invalidated, so the customer paid $500 for deposit. **COD $3500** 10/5/17 Riho (According to the original invoice, Customer name is Bishop)"
10/2/2017 8:02:46 AM,Cheryl Alicia,MA,01518,Legacy 3D,DWA-9150USJ-9150BL,Black,New,,,,,4200.00,3997.06,202.94,Ilene Maynard,CreditCard,4200.00,,10/13/2017 12:00:00 AM,No,"3 years parts, 1 year labor (Free)",Delivered,The Big E State Fair 9/15-10/1,,,,,,Order Date: 09/30/2017,101051,WELLS FARGO PAYEMNT CLEAED BY ALICIA 10.3.17
10/2/2017 8:07:59 AM,Doriana Vicedomini,CT,06078,Relax2Zero 3D,DWA-9060USJ-9060BR,Choco Brown,New,,,,,4000.00,3808.82,191.18,Amando Loreno,Synchrony,4000.00,,,No,"3 years parts, 1 year labor (Free)",Hold,The Big E State Fair 9/15-10/1,6034610081547476,79134881,Las Vegas,36 months,,"Order Date: 09/30/2017
Approval #030705
Sales: Amando & Gary",101052,SYNCHRONY CLEARED BY ALICIA 10.3.17
10/2/2017 8:12:22 AM,Robert Subqcius,VA,22485,Legacy 3D,DWA-9150USJ-9150CH-DEMO,Demo Choco Brown,Demo,,,,,3900.58,3742.00,158.58,Ruben Cuatrona,Synchrony,0.00,,10/9/2017 12:00:00 AM,No,"3 years parts, 1 year labor (Free)",Delivered,Virginia State Fair 9/29-10/8,6034610081549928,79166366,Las Vegas,36 months,,,101053,SYNCHRONY CLEARED BY ALICIA 10.3.17
10/2/2017 8:22:11 AM,David Sparkowich,NH,03451,Legacy 3D,DWA-9150USJ-9150CH,Choco Brown,New,,,,,4200.00,3997.06,202.94,Winston Melgar,Synchrony,4200.00,,10/13/2017 12:00:00 AM,No,"3 years parts, 1 year labor (Free)",Delivered,The Big E State Fair 9/15-10/1,6034610081547013,79129306,Las Vegas,36 months,,Order date: 10/01/2017,101054,SYNCHRONY CLEARED BY ALICIA 10.3.17
10/2/2017 8:27:57 AM,Dax Alvarez,VA,23666,Relax2Zero 3D,DWA-9060USJ-9060BL,Black,New,,,,,4200.00,4026.35,173.65,Heather Jones,Synchrony,0.00,,10/7/2017 12:00:00 AM,No,"3 years parts, 1 year labor (Free)",Delivered,Virginia State Fair 9/29-10/8,6034610081548854,79155531,Las Vegas,36 months,,,101055,SYNCHRONY CLEARED BY ALICIA 10.3.17
10/2/2017 8:34:09 AM,John Mallon,RI,02885,Relax2Zero 3D,DWA-9060USJ-9060BR,Choco Brown,New,,,,,4000.00,3808.82,191.18,Rolly San Jose,CreditCard,4000.00,,,No,"3 years parts, 1 year labor (Free)",Cancelled,The Big E State Fair 9/15-10/1,,,,,,Order Date: 09/30/2017,101056,"SYNCHRONY CLEARED BY ALICIA 10.3.17 -CANCELLED AND THE PAYMENT HAD BEEN CHARGEBACK.
Customer wants to cancel this, but Rolly is trying to save it for now. 10/11/17 Riho"
10/2/2017 8:39:06 AM,Christopher Meachen,CT,06513,Legacy 3D,DWA-9150USJ-9150CH,Choco Brown,New,,,,,3800.00,3620.59,179.41,Rolly San Jose,Synchrony,3800.00,,10/12/2017 12:00:00 AM,No,"3 years parts, 1 year labor (Free)",Delivered,The Big E State Fair 9/15-10/1,6034610081546478,79122786,Las Vegas,36 months,,Order Date: 09/30/2017,101057,SYNCHRONY CLEARED BY ALICIA 10.3.17
10/2/2017 9:07:50 AM,Kristin Ingram,CT,06095,Relax2Zero 3D,DWA-9060USJ-9060BL,Black,New,,,,,4200.00,3997.06,202.94,Amando Loreno,CreditCard,4200.00,,10/12/2017 12:00:00 AM,No,"3 years parts, 1 year labor (Free)",Delivered,The Big E State Fair 9/15-10/1,,,,,,"Order Date: 10/01/2017
Sales: Amando & Winston",101058,WELLS FARGO PAYMENT CLEARED BY ALICIA 10.3.17
10/2/2017 9:14:18 AM,Robert Menefee,CT,06511,Legacy 3D,DWA-9150USJ-9150BL,Black,New,,,,,4200.00,3997.06,202.94,Amando Loreno,CreditCard,4200.00,,10/14/2017 12:00:00 AM,No,"3 years parts, 1 year labor (Free)",Delivered,The Big E State Fair 9/15-10/1,,,,,,Order Date: 10/01/2017,101059,WELLS FARGO PAYMENT CLEARED BY ALICIA 10.3.17
10/2/2017 9:36:28 AM,Byunjkil Jeon,DE,06516,Legacy 3D,DWA-9150USJ-9150BL,Black,New,,,,,3800.00,3620.59,179.41,Winston Melgar,Synchrony,3800.00,,10/15/2017 12:00:00 AM,No,"3 years parts, 1 year labor (Free)",Delivered,The Big E State Fair 9/15-10/1,6034610081548193,79148109,Las Vegas,36 months,,"Approved #001563
Delivery: Thursday through Sunday, anytime.",101060,SYNCHRONY CLEARED BY ALICIA 10.3.17
10/2/2017 9:42:25 AM,Richard Donavan,CT,06479,Legacy 3D,DWA-9150USJ-9150CH,Choco Brown,New,,,,,4000.00,3808.82,191.18,Abigail Stirling,CreditCard,4000.00,,10/16/2017 12:00:00 AM,No,"3 years parts, 1 year labor (Free)",Delivered,The Big E State Fair 9/15-10/1,,,,,,Order Date 10/01/2017,101061,WELLS FARGO PAYMENT CLEARED BY ALICIA 10.3.17
10/2/2017 9:46:30 AM,Tania Bard,CT,06042,Legacy 3D,DWA-9150USJ-9150BL,Black,New,,,,,4000.00,3808.82,191.18,Amando Loreno,Synchrony,4000.00,,,No,"3 years parts, 1 year labor (Free)",Hold,The Big E State Fair 9/15-10/1,6034610081549233,79159910,Las Vegas,36 months,,"Order Date: 10/01/2017
Approval #001478",101062,"REFUNDED $4,000 ON 10.6.17 AND TO BE RE-CHARGED $3,800 BEFORE DELIVERY. ON HOLD FOR ABOUT 3 MONTHS."
10/2/2017 9:49:43 AM,Heather Rogan,MA,01085,Relax2Zero 3D,DWA-9060USJ-9060BR,Choco Brown,New,,,,,4000.00,3808.82,191.18,Winston Melgar,Synchrony,4000.00,,10/11/2017 12:00:00 AM,No,"3 years parts, 1 year labor (Free)",Delivered,The Big E State Fair 9/15-10/1,6034610081549282,79160319,Las Vegas,36 months,,Approval#001850,101063,SYNCHRONY CLEARED BY ALICIA 10.3.17
10/2/2017 9:54:40 AM,Corey Godley,CT,06610,Pegasus,DWA-9400Pegasus-BR-DEMO,Demo Choco Brown,Demo,,,,,4700.00,4467.65,232.35,Ilene Maynard,Synchrony,4700.00,,10/15/2017 12:00:00 AM,No,"3 years parts, 1 year labor (Free)",Delivered,The Big E State Fair 9/15-10/1,6034610081548672,79154074,Las Vegas,48 months,,"Order Date: 10/01/2017
Approval #001634",101064,SYNCHRONY CLEARED 10.3.17
10/2/2017 10:01:13 AM,Nikki Wilson,NY,13206,Relax2Zero 3D,DWA-9060USJ-9060BL,Black,New,,,,,4300.00,4091.18,208.82,Ilene Maynard,Cash,2000.00,,10/14/2017 12:00:00 AM,No,"3 years parts, 1 year labor (Free)",Delivered,The Big E State Fair 9/15-10/1,,,,,,"Order Date: 10/01/2017
Remaining balance will be Layaway.",101065,"$2,000 Cash was received by Winston-IL branch.
The balance $2300 is Layaway, so please inform Main office when the chair have been delivered. 10/5/17 Riho"
10/2/2017 10:09:10 AM,Nancy Fanderson,MA,01040,Legacy 3D,DWA-9150USJ-9150BL,Black,New,,,,,4734.00,4499.65,234.35,Ilene Maynard,CreditCard,0.00,,,No,"3 years parts, 1 year labor (Free)",Hold,The Big E State Fair 9/15-10/1,,,,,,"Order Date: 09/22/2017
Please call customer to charge full amount before delivery.",101066,CHARGE FULL AMOUNT BEFORE DELIVERY
10/2/2017 10:23:20 AM,Michael Ragone,CT,06029,Pegasus,DWA-9400Pegasus-BL,Black,New,,,,,5200.01,4938.24,261.77,Rolly San Jose,Synchrony,0.00,,,No,"3 years parts, 1 year labor (Free)",Hold,The Big E State Fair 9/15-10/1,,78564572,Las Vegas,48 months,,"Order Date: 09/24/2017
Actual total amount is $5,200.00-

Per synchrony, customer needs to call synchrony for few questions before they can approve applications.",101067,CUSTOMER NEEDS TO CLEAR SYNCHRONY
10/2/2017 10:29:22 AM,Stephen Morneau,MA,01020,Pegasus,DWA-9400Pegasus-BL,Black,New,,,,,5000.00,4750.00,250.00,Abigail Stirling,Synchrony,1200.00,,,No,"3 years parts, 1 year labor (Free)",Hold,The Big E State Fair 9/15-10/1,6034610081539085,78938939,Las Vegas,36 months,,"Order Date: 09/26/2017
Please call the customer to charge remaining balance of $3,800.00- before delivery.",101068,CHARGE $3800 ON SYNCHRONY BEFORE DELIVERY
10/2/2017 10:35:37 AM,Joseph Abate,CT,06514,Legacy 3D,DWA-9150USJ-9150BL,Black,New,,,,,4300.00,4029.45,270.55,Ilene Maynard,Synchrony,4300.00,,,No,"3 years parts, 1 year labor (Free)",Called,Texas Home & Garden Show Houston  10/21-10/22 (TX),6034610081545439,79109624,Las Vegas,36 months,,Order Date: 09/30/2017,101069,"SYNCHRONY CHARGED BY ALICIA 10.4.17
Authorization # 004669"
10/2/2017 10:42:01 AM,Miranda Jacques,MA,01069,Relax2Zero 3D,DWA-9060USJ-9060BR,Choco Brown,New,,,,,4250.00,4044.12,205.88,Abagail Stirling,Synchrony,4250.00,,,No,"3 years parts, 1 year labor (Free)",Cancelled,The Big E State Fair 9/15-10/1,6034610081547559,79135342,Las Vegas,36 months,,Order Date: 09/30/2017,101070,"SYNCHRONY CLEARED BY ALICIA 10.4.17
Refunded $4,250.00 through synchrony 10/5/17 Riho"
10/2/2017 10:43:36 AM,Wanda & Rodger Huntsberger,OK,73742,Serenity,SSRT-1SSRT-1-BR,Choco Brown,New,,,,,6000.00,5587.95,412.05,Kristy Tran,CreditCard,200.00,Cash,10/14/2017 12:00:00 AM,No,"3 years parts, 1 year labor (Free)",Delivered,Tulsa State Fair #486 9/28-10/8 (TX),,,,,,"Invoice 10 & 35
Remaining: $5800 CASH on balance No checks, no money order
**PLEASE send with 6 back paddings**",101071,"$200 DEPOSIT CLEARED ON SQUARE BY ALICIA 10.4.17
$5800 COD, 6 CHAIR PADS"
10/2/2017 10:43:36 AM,Wanda & Rodger Huntsberger,OK,73742,Chair Pad for Majesty,,,New,,,,,6000.00,5587.95,412.05,Kristy Tran,CreditCard,200.00,Cash,10/14/2017 12:00:00 AM,No,no warranty,Delivered,Tulsa State Fair #486 9/28-10/8 (TX),,,,,,"Invoice 10 & 35
Remaining: $5800 CASH on balance No checks, no money order
**PLEASE send with 6 back paddings**",101071,"$200 DEPOSIT CLEARED ON SQUARE BY ALICIA 10.4.17
$5800 COD, 6 CHAIR PADS"
10/2/2017 10:47:41 AM,Marise Dargie,MA,01085,Legacy 3D,DWA-9150USJ-9150BL,Black,New,,,,,4200.00,3997.06,202.94,Amando Loreno,CreditCard,4200.00,,10/14/2017 12:00:00 AM,No,"3 years parts, 1 year labor (Free)",Delivered,The Big E State Fair 9/15-10/1,,,,,,"Order Date: 10/01/2017
Deliver on Nov 6, 2017",101072,"WELLS FARGO PAYMENT CLEARED BY ALICIA 10.4.17
NEEDS TO BE SHIPPED"
10/2/2017 10:54:34 AM,Philip Hillenbrand,MA,01089,Relax2Zero 3D,DWA-9060USJ-9060BR,Choco Brown,New,,,,,4200.00,3997.06,202.94,Rolly San Jose,CreditCard,4200.00,,10/6/2017 12:00:00 AM,No,"3 years parts, 1 year labor (Free)",Delivered,The Big E State Fair 9/15-10/1,,,,,,Order Date: 10/01/2017,101073,WELLS FARGO PAYMENT CLEARED BY ALICIA 10.4.17
10/2/2017 10:59:28 AM,Lisa Legato,MA,01510,Legacy 3D,DWA-9150USJ-9150CH,Choco Brown,New,,,,,4500.00,4279.41,220.59,Ilene Maynard,Synchrony,4500.00,,10/13/2017 12:00:00 AM,No,"3 years parts, 1 year labor (Free)",Delivered,The Big E State Fair 9/15-10/1,6034610081549605,79163161,Las Vegas,36 months,,"Order Date: 10/01/2017
Synchrony Approval #001530",101074,SYNCHRONY CLEARED BY ALICIA 10.4.17
10/2/2017 11:04:59 AM,Silke Lanski,MA,01001,Relax2Zero 3D,DWA-9060USJ-9060BL,Black,New,,,,,4000.00,3808.82,191.18,Amando Loreno,Synchrony,4000.00,,,No,"3 years parts, 1 year labor (Free)",Hold,The Big E State Fair 9/15-10/1,6034610081549803,79165852,Las Vegas,36 months,,"Order Date: 10/01/2017
Synchrony Approval #001857",101075,SYNCHRONY CLEARED BY ALICIA 10.4.17
10/2/2017 11:09:11 AM,Wasana Hannoush,MA,01022,Relax2Zero 3D,DWA-9060USJ-9060BR,Choco Brown,New,,,,,4000.00,3808.82,191.18,Winston Melgar,Synchrony,4000.00,,,No,"3 years parts, 1 year labor (Free)",Cancelled,The Big E State Fair 9/15-10/1,6034610081549795,79165726,Las Vegas,36 months,,"Order Date: 10/01/2017
Synchrony Approval #001904",101076,"WAS CHARGED ONLY $3,000. ALREADY SPOKE WITH ROLLY/WINSTON. ASK CUSTOMER IF THEY WOULD LIKE TO PAY COD $1,000 OR SEND CHECK. 10.4.17, ALICIA REFUNDED AND CANCELLED 10/11/17 STEPHANY"
10/2/2017 3:09:01 PM,Christopher Norwood,VA,23831,Legacy 3D,DWA-9150USJ-9150CH,Choco Brown,New,,,,,4400.75,4217.00,183.75,Ting Ritchie,CreditCard,0.00,,10/8/2017 12:00:00 AM,No,"3 years parts, 1 year labor (Free)",Delivered,Virginia State Fair 9/29-10/8,,,,,,,101077,WELLS FARGO PAYMENT CLEARED BY ALICIA 10.4.17
10/2/2017 3:21:48 PM,Caroline Brewer,TX,78130,Legacy 3D,DWA-9150USJ-9150CH,Choco Brown,New,,,,,4113.33,3857.00,256.33,Chris Tavira,CreditCard,0.00,,10/5/2017 12:00:00 AM,No,"3 years parts, 1 year labor (Free)",Delivered,San Antonio Home & Garden Show 9/29-10/1 (TX),,,,,,Total price is $4113.5.,101078,"SQUARE CLEARED BY ALICIA 10.4.17
Receipt #OWjN"
10/2/2017 3:40:08 PM,Ivan Valdez,TX,78852,Legacy 3D,DWA-9150USJ-9150CH,Choco Brown,New,,,,,3800.49,3568.00,232.49,Chris Tavira,Cash,3750.00,CreditCard,,No,"3 years parts, 1 year labor (Free)",Called,San Antonio Home & Garden Show 9/29-10/1 (TX),,,,,,Paid $50 as deposit. Sales price $3800.,101079,$3750 COD
10/2/2017 5:14:50 PM,Esta Hobbs,CA,92561,Legacy for Sam's,DWA-9100DWA-9100CH,Choco,New,,,,,4632.17,4299.00,333.17,Kohei Uno,CreditCard,4632.17,,10/12/2017 12:00:00 AM,No,"3 years parts, 3 years labor ($400)",Delivered,Sam's Club #4882 9/27-10/8 (CA),,,,,,"Please give customer a courtesy call right away since they do not have an email to receive confirmation of order.

Thank you",101080,10/05/17 cristina printed
10/2/2017 6:35:25 PM,Daiwa Massage,CA,90249,Foot Vibe Pro,USJ-871,,New,,,,,1053.77,977.98,75.79,Kohei Uno,PURCHASEORDER,0.00,,,YES,"2 years parts, 1 year labor (Small Items)",Cancelled,Sam's Club #4882 9/27-10/8 (CA),,,,,,,101081,
10/2/2017 6:35:25 PM,Daiwa Massage,CA,90249,Ninja Leg Massager,,,New,,,,,1053.77,977.98,75.79,Kohei Uno,PURCHASEORDER,0.00,,,YES,"2 years parts, 1 year labor (Small Items)",Cancelled,Sam's Club #4882 9/27-10/8 (CA),,,,,,,101081,
10/2/2017 10:49:18 PM,Malley's Joe,IL,60423,Legacy 3D,DWA-9150USJ-9150CH,Choco Brown,New,,,,,12000.00,12000.00,0.00,Ruben Cuatrona,PURCHASEORDER,0.00,,10/20/2017 12:00:00 AM,YES,"3 years parts, 1 year labor (Free)",Delivered,IAAPA Orlando Wholesale,,,,,,"Team Sales:Ruben, Melissa
Deposit confirmed with receipt to the U.S Jaclean account.
More detail please ask Melissa.",101082,"The customer will pick these up, and Melissa will follow up. 10/3/17 Riho"
10/2/2017 10:49:18 PM,Malley's Joe,IL,60423,Relax2Zero 3D,DWA-9060USJ-9060BL,Black,New,,,,,12000.00,12000.00,0.00,Ruben Cuatrona,PURCHASEORDER,0.00,,10/20/2017 12:00:00 AM,YES,"3 years parts, 1 year labor (Free)",Delivered,IAAPA Orlando Wholesale,,,,,,"Team Sales:Ruben, Melissa
Deposit confirmed with receipt to the U.S Jaclean account.
More detail please ask Melissa.",101082,"The customer will pick these up, and Melissa will follow up. 10/3/17 Riho"
10/2/2017 10:49:18 PM,Malley's Joe,IL,60423,Pegasus,DWA-9400Pegasus-BL,Black,New,,,,,12000.00,12000.00,0.00,Ruben Cuatrona,PURCHASEORDER,0.00,,10/20/2017 12:00:00 AM,YES,"3 years parts, 1 year labor (Free)",Delivered,IAAPA Orlando Wholesale,,,,,,"Team Sales:Ruben, Melissa
Deposit confirmed with receipt to the U.S Jaclean account.
More detail please ask Melissa.",101082,"The customer will pick these up, and Melissa will follow up. 10/3/17 Riho"
10/3/2017 7:25:10 AM,Gregory Packett,VA,22560,Legacy 3D,DWA-9150USJ-9150BL,Black,New,,,,,4200.68,4027.00,173.68,Rodrigo Malabunga,CreditCard,0.00,,10/19/2017 12:00:00 AM,No,"3 years parts, 1 year labor (Free)",Delivered,Virginia State Fair 9/29-10/8,,,,,,2nd floor,101083,WESLLS FARGO PAYMENT CLEARED BY ALICIA 10.4.17
10/3/2017 8:06:03 AM,Stephen Talley,VA,23093,Legacy 3D,DWA-9150USJ-9150CH,Choco Brown,New,,,,,4498.68,4310.00,188.68,Rodrigo Malabunga,Synchrony,0.00,,10/7/2017 12:00:00 AM,No,"3 years parts, 1 year labor (Free)",Delivered,Virginia State Fair 9/29-10/8,6034610081547773,79141711,Las Vegas,48 months,,"Stephen Talley approved $3500, the balance finance $1000 is under Mr Talley's wife- Gail Talley's name. The Approve number is: 003574, also 48 months.",101084,SYNCHRONY CLEARED BY ALICIA 10.4.17
10/3/2017 11:06:02 AM,Julie Dikeman,OK,74019,Pegasus,DWA-9400Pegasus-BR-DEMO,Demo Choco Brown,Demo,,,,,3800.00,3501.76,298.24,Phuoc Van,CreditCard,200.00,COD,10/8/2017 12:00:00 AM,YES,"3 years parts, 1 year labor (Free)",Delivered,Tulsa State Fair #486 9/28-10/8 (TX),,,,,,"Invoice 36
Remaining: $3600",101085,"$200 DEPOSIT CLEARED ON SQUARE , $3600 COD"
10/3/2017 11:14:39 AM,Gail & Dave Jackson,OK,74017,Serenity,SSRT-1SSRT-1-BR-DEMO,Demo Choco Brown,Demo,,,,,2700.00,2546.95,153.05,Jennifer Tran,CreditCard,2700.00,,10/24/2017 12:00:00 AM,No,"3 years parts, 1 year labor (Free)",Delivered,Tulsa State Fair #486 9/28-10/8 (TX),,,,,,"Invoice 37
Paid in full",101086,SQUARE PAYMENT CLEARED BY ALICIA 10.4.17
10/3/2017 11:22:22 AM,Sharlyn Farbro,OK,74301,Relax2Zero 1.0,USJ-9000USJ-9000BR,Brown,New,,,,,3200.00,3007.71,192.29,Kristy Tran,Synchrony,3000.00,CreditCard,,No,"3 years parts, 1 year labor (Free)",Called,Tulsa State Fair #4849 9/28-10/8 (TX),6034610081550843,79195697,Huston,36 months,,"Invoice 38 
Remaining: $200 on Delivery
Auth #002640",101087,"SYNCHRONY CLEARED BY ALICIA 10.4.17 FOR $3,000
$200 COD"
10/3/2017 11:37:55 AM,Darrell Hendrick,OK,74429,Legend 3.0,DWA-9250USJ-9150CH,Choco Brown,New,,,,,4600.00,4297.83,302.17,Kristy Tran,CreditCard,200.00,COD,10/23/2017 12:00:00 AM,No,"3 years parts, 1 year labor (Free)",Delivered,Tulsa State Fair #4849 9/28-10/8 (TX),,,,,,"Invoice 39
Remaining: $4400 on Delivery
Customer is Tax EXEMPT
EXM-10238437-02",101088,"SQUARE $200 CLEARED BY ALICIA 10.4.17
Receipt #kcNU"
10/3/2017 12:33:33 PM,Yang He,OK,74012,Legacy 3D,DWA-9150USJ-9150CH,Choco Brown,New,,,,,4000.00,3744.92,255.08,Keith Kei,CreditCard,300.00,Cash,10/15/2017 12:00:00 AM,No,"3 years parts, 1 year labor (Free)",Delivered,Tulsa State Fair #486 9/28-10/8 (TX),,,,,,"Invoice # : 40
Cash Cash when delivery :$3700 CASH",101089,"SQUARE DEPOSIT $300 CLEARED BY ALICIA 10.4.17
*$3700 COD* Please deliver *BLACK* chair, it has been changed on 10/5/17 Riho"
10/3/2017 4:18:53 PM,Janet Hamel,OK,74010,Serenity,SSRT-1SSRT-1-BR,Choco Brown,New,,,,,3000.00,2823.41,176.59,Jennifer Tran,Cash,300.00,CreditCard,10/21/2017 12:00:00 AM,No,"3 years parts, 1 year labor (Free)",Delivered,Tulsa State Fair #486 9/28-10/8 (TX),,,,,,"Invoice #41
Total: $3,000
Deposit: $300
Remaining Balance: $2,700(COD)",101090,$2700 COD
10/3/2017 4:40:15 PM,Donny Williamson83,OK,74047,Pegasus,DWA-9400Pegasus-BR,Choco Brown,New,,,,,4500.00,4205.68,294.32,Phuoc Van,Cash,300.00,CreditCard,,No,"3 years parts, 1 year labor (Free)",Called,Tulsa State Fair #486 9/28-10/8 (TX),,,,,,"Invoice #42
Total: $4,500
Deposit: $300
Remaining: $4,200(CASH)",101091,$4200 COD
10/4/2017 10:34:14 AM,Larene Mckenna,CA,95628,Relax2Zero 1.0,USJ-9000USJ-9000BR,Brown,New,,,,,3000.00,2847.90,152.10,Kaz Ohashi,CreditCard,100.00,COD,11/2/2017 12:00:00 AM,No,"3 years parts, 1 year labor (Free)",Delivered,Aubrun Home Show 9/29-10/1,,,,,,,101092,"*COD $2900* Square payment #vFVm was refunded. Kaz charged $100-#pNjD. 10/5/17 Riho
10/05/17 cristina"
10/4/2017 10:59:06 AM,KHLOE NGUYEN,CA,92071,Relax2Zero 3D,DWA-9060USJ-9060BR,Choco Brown,New,,,,,4644.00,4302.53,341.47,Alan Zeng,Synchrony,0.00,,10/12/2017 12:00:00 AM,No,"3 years parts, 1 year labor (Free)",Delivered,Health&Wellness San Diego,6034610081547534,79135218,San Diego,24 months,,,101093,"SYNCHRONY CHARGED AT THE OFFICE BY ALICIA 10.4.17
Authorization # 004887
10/05/17 cristina printed"
10/4/2017 10:59:06 AM,KHLOE NGUYEN,CA,92071,Chair Pad for Relax2Zero 3D,,,New,,,,,4644.00,4302.53,341.47,Alan Zeng,Synchrony,0.00,,10/12/2017 12:00:00 AM,No,no warranty,Delivered,Health&Wellness San Diego,6034610081547534,79135218,San Diego,24 months,,,101093,"SYNCHRONY CHARGED AT THE OFFICE BY ALICIA 10.4.17
Authorization # 004887
10/05/17 cristina printed"
10/4/2017 10:59:06 AM,KHLOE NGUYEN,CA,92071,Foot Pads for Relax2Zero 3D,,,New,,,,,4644.00,4302.53,341.47,Alan Zeng,Synchrony,0.00,,10/12/2017 12:00:00 AM,No,no warranty,Delivered,Health&Wellness San Diego,6034610081547534,79135218,San Diego,24 months,,,101093,"SYNCHRONY CHARGED AT THE OFFICE BY ALICIA 10.4.17
Authorization # 004887
10/05/17 cristina printed"
10/4/2017 2:59:53 PM,Suzanne Chang,CA,92592,Legacy for Sam's,DWA-9100DWA-9100BL,Black,New,,,,,3877.92,3599.00,278.92,Kohei Uno,CreditCard,3877.92,,10/20/2017 12:00:00 AM,No,"3 years parts, 3 years labor ($400)",Delivered,Sam's Club #4882 9/27-10/8 (CA),,,,,,,101094,10/05/17 cristina printed
10/4/2017 4:22:31 PM,Sarah Sinor,OK,74017,Relax2Zero 1.0,USJ-9000USJ-9000BR,Brown,New,,,,,3000.00,2823.41,176.59,Tom Nguyen,Synchrony,3000.00,,10/21/2017 12:00:00 AM,No,"3 years parts, 1 year labor (Free)",Delivered,Tulsa State Fair #4849 9/28-10/8 (TX),6034610081554597,79290604,Huston,24 months,,"Invoice 43
Paid In Full
Auth# 004406",101095,Confirmed the Synchrony transaction. 10/5/17 Riho
10/4/2017 8:52:04 PM,Yi chuang Yang,TX,77064,Relax2Zero 2.0,USJ-9050USJ-9050BR-DEMO,Demo Brown,Demo,,,,,2699.58,2551.00,148.58,Yichuang (Debbie) Yang,CreditCard,2700.00,,10/11/2017 12:00:00 AM,No,"3 years parts, 1 year labor (Free)",Delivered,Health and Wellness Houston Store 2017 (TX),,,,,,,101096,"I couldn't find the transaction. 10/5/17 Riho
LINDA OR JUNE, PLS FIND OUT ABOUT PAYMENT AND UPDATE SYSTEM--ALICIA"
10/4/2017 8:52:04 PM,Yi chuang Yang,TX,77064,Chair Pad for Relax2Zero 2.0,,,New,,,,,2699.58,2551.00,148.58,Yichuang (Debbie) Yang,CreditCard,2700.00,,10/11/2017 12:00:00 AM,No,no warranty,Delivered,Health and Wellness Houston Store 2017 (TX),,,,,,,101096,"I couldn't find the transaction. 10/5/17 Riho
LINDA OR JUNE, PLS FIND OUT ABOUT PAYMENT AND UPDATE SYSTEM--ALICIA"
10/4/2017 8:52:04 PM,Yi chuang Yang,TX,77064,Foot Pads for Relax2Zero 2.0,,,New,,,,,2699.58,2551.00,148.58,Yichuang (Debbie) Yang,CreditCard,2700.00,,10/11/2017 12:00:00 AM,No,no warranty,Delivered,Health and Wellness Houston Store 2017 (TX),,,,,,,101096,"I couldn't find the transaction. 10/5/17 Riho
LINDA OR JUNE, PLS FIND OUT ABOUT PAYMENT AND UPDATE SYSTEM--ALICIA"
10/5/2017 7:22:06 AM,James Wade,FL,32534,Legacy 3D,DWA-9150USJ-9150CH-DEMO,Demo Choco Brown,Demo,,,,,3600.47,3457.00,143.47,Ting Ritchie,CreditCard,0.00,,,No,"3 years parts, 1 year labor (Free)",Called,Virginia State Fair 9/29-10/8,,,,,,,101097,"Per Ting: Please delivery on Oct. 25th or later. 10/5/17 Riho
WELLS FARGO PAYMENT CLEARED BY ALICIA 10.6.17"
10/5/2017 7:29:41 AM,Cindy Rimmer,VA,23009,Legacy 3D,DWA-9150USJ-9150CH-DEMO,Demo Choco Brown,Demo,,,,,3900.58,3742.00,158.58,Ruben Cuatrona,CreditCard,0.00,,10/9/2017 12:00:00 AM,No,"3 years parts, 1 year labor (Free)",Delivered,Virginia State Fair 9/29-10/8,,,,,,,101098,WELLS FARGO PAYMENT CLEARED BY ALICIA 10.6.17
10/5/2017 9:30:23 AM,Kelly Mai,TX,77433,Legacy for Sam's,DWA-9100DWA-9100BL,Black,New,,,,,3895.92,3599.00,296.92,Gail Kerns,CreditCard,0.00,,10/21/2017 12:00:00 AM,No,"3 years parts, 1 year labor (Free)",Delivered,Sam's Club #4764 Kate 9/21-10/1 (TX),,,,,,I offered a New chair for demo price.,101099,
10/5/2017 9:53:43 AM,Janice Cope,TX,77084,Relax2Zero 2.0 for Sam's,USJ-9050USJ-9050BL,Black,New,,,,,4221.75,3900.00,321.75,Gail Kerns,CreditCard,0.00,,10/26/2017 12:00:00 AM,No,"3 years parts, 1 year labor (Free)",Delivered,Sam's Club #4764 Kate 9/21-10/1 (TX),,,,,,"Customer paid with three credit cards, an Amex and two Master Cards. I imputed three Approval #'s with the TC# in payment section",101100,
10/5/2017 10:04:20 AM,Francis Jones,TX,77084,Vitality Plate,USJ-849USJ-849,New,New,,,,,908.21,838.99,69.22,Gail Kerns,CreditCard,0.00,,10/5/2017 12:00:00 AM,No,"2 years parts, 1 year labor (Small Items)",Delivered,Sam's Club #4764 Kate 9/21-10/1 (TX),,,,,,"Customer paid with debit card.
Customer took with after purchase.",101101,
10/5/2017 10:04:20 AM,Francis Jones,TX,77084,Ninja Leg Massager,,,New,,,,,908.21,838.99,69.22,Gail Kerns,CreditCard,0.00,,10/5/2017 12:00:00 AM,No,"2 years parts, 1 year labor (Small Items)",Delivered,Sam's Club #4764 Kate 9/21-10/1 (TX),,,,,,"Customer paid with debit card.
Customer took with after purchase.",101101,
10/5/2017 10:16:51 AM,Shehzad Nazir,TX,77084,Ninja Leg Massager,,,New,,,,,410.27,379.00,31.27,Gail Kerns,Cash,0.00,,10/5/2017 12:00:00 AM,YES,"2 years parts, 1 year labor (Small Items)",Delivered,Sam's Club #4764 Kate 9/21-10/1 (TX),,,,,,"Customer paid tax exempt.
I entered information in ""Company name field"" as well as below.
Normandy Cig License 15003905 (tax exempt)",101102,
10/5/2017 10:19:57 AM,David Hawkins,OK,74074,Pegasus,DWA-9400Pegasus-BL,Black,New,,,,,4000.00,3744.92,255.08,Tom Nguyen,CreditCard,200.00,COD,10/24/2017 12:00:00 AM,No,"3 years parts, 3 years labor ($400)",Delivered,Tulsa State Fair #486 9/28-10/8 (TX),,,,,,"Invoice #44
Total: $4,000
Deposit: $200
Remaining: $3,800(COD)
**FREE 2 EZ REACH DUO**",101103,"Confirmed $200 at Square *please collect the balance $3800 as COD*
**FREE 2 EZ REACH DUO**"
10/5/2017 10:26:28 AM,Alizhon Abdull,TX,77094,Ninja Leg Massager,,,New,,,,,410.27,379.00,31.27,Gail Kerns,CreditCard,0.00,,10/5/2017 12:00:00 AM,YES,"2 years parts, 1 year labor (Small Items)",Delivered,Sam's Club #4764 Kate 9/21-10/1 (TX),,,,,,,101104,
10/5/2017 11:18:55 AM,Gary Stopp,OK,74464,Pegasus,DWA-9400Pegasus-BR,Choco Brown,New,,,,,4200.01,3929.23,270.78,Tom Nguyen,CreditCard,200.00,COD,10/16/2017 12:00:00 AM,No,"3 years parts, 3 years labor ($400)",Delivered,Tulsa State Fair #486 9/28-10/8 (TX),,,,,,"Invoice #45
Total: $4,200
Deposit: $200
Remaining: $4,000(COD)
**REMOVE OLD CHAIR**",101105,"Confirmed $200 at Square, please collect the balance $4000 as COD. 10/5/17 Riho"
10/5/2017 1:00:34 PM,Lois Bauders,OK,74021,Relax2Zero 1.0,USJ-9000USJ-9000KU,Black,New,,,,,3255.60,3058.95,196.65,Kristy Tran,Synchrony,3255.60,,10/28/2017 12:00:00 AM,No,"3 years parts, 1 year labor (Free)",Delivered,Tulsa State Fair #4849 9/28-10/8 (TX),6034610081555420,79316261,Huston,24 months,,"Invoice 46
Paid in full
Auth #005212",101106,Confirmed the transaction. 10/5/17 Riho
10/5/2017 1:30:39 PM,Gilberto Ramos,CA,92584,Legacy for Sam's,DWA-9100DWA-9100BL,Black,New,,,,,3877.92,3599.00,278.92,Kohei Uno,CreditCard,3877.92,,,No,"3 years parts, 2 years labor ($200)",Hold,Sam's Club #4882 9/27-10/8 (CA),,,,,,,101107,"per customer wants chiar delivered by thanksgiving or December 8th, 2017"
10/5/2017 2:10:05 PM,John Doe,FL,34711,Legend 2,DWA-9200DWA-9200-BL,Black,New,,,,,4762.50,4500.00,262.50,Robert Shih,CreditCard,0.00,,,No,"3 years parts, 1 year labor (Free)",Cancelled,Georgia National Fair (10/5-10/15/17),,,,,,,101108,Test order
10/5/2017 2:52:27 PM,Stephen Coble,OK,74012,Pegasus,DWA-9400Pegasus-BL,Black,New,,,,,4000.00,3744.92,255.08,Phuoc Van,Cash,4000.00,,10/24/2017 12:00:00 AM,No,"3 years parts, 1 year labor (Free)",Delivered,Tulsa State Fair #486 9/28-10/8 (TX),,,,,,"Invoice #47
PAID IN FULL",101109,Need to be confirmed the cash deal by Mario. 10/5/17 Riho
10/5/2017 3:25:11 PM,Randy Miser,OK,74019,Legacy 3D,DWA-9150USJ-9150BL-DEMO,Demo Black,Demo,,,,,3600.00,3376.32,223.68,Tom Nguyen,CreditCard,3600.00,,10/26/2017 12:00:00 AM,No,"3 years parts, 1 year labor (Free)",Delivered,Tulsa State Fair #486 9/28-10/8 (TX),,,,,,"Invoice #48
PAID IN FULL",101110,Confirmed $3600 square payment. 10/5/17 Riho
10/5/2017 3:38:53 PM,Devin Venable,OK,74114,Relax2Zero 1.0,USJ-9000USJ-9000BR,Brown,New,,,,,3038.56,2858.94,179.62,Kristy Tran,CreditCard,238.56,Cash,,No,"3 years parts, 1 year labor (Free)",Called,Tulsa State Fair #486 9/28-10/8 (TX),,,,,,"Invoice #49
Total: $3,038.56
Deposit: $238.56
Remaining: $2,800(CASH)",101111,Confirmed $238.56 **COD $2800** 10/5/17 Riho
10/5/2017 3:56:00 PM,Mark Smith,OK,74145,Legacy 3D,DWA-9150USJ-9150BL-DEMO,Demo Black,Demo,,,,,3600.00,3376.32,223.68,Tom Nguyen,Synchrony,3600.00,,10/8/2017 12:00:00 AM,No,"3 years parts, 1 year labor (Free)",Delivered,Tulsa State Fair #486 9/28-10/8 (TX),6034610081556006,79329047,Huston,36 months,,"Invoice #50
PAID IN FULL
Authorization #: 005226",101112,SYNCHRONY CLEARED BY ALICIA 10.6.17
10/5/2017 4:22:53 PM,Janice Conroy,VA,23116,Legacy 3D,DWA-9150USJ-9150CH,Choco Brown,New,,,,,4200.68,4027.00,173.68,Rodrigo Malabunga,Synchrony,0.00,,,No,"3 years parts, 1 year labor (Free)",Cancelled,Virginia State Fair 9/29-10/8,6034610081555784,79329236,Las Vegas,36 months,,Approve number: 005080,101113,"ORDER CANCELLED PER CUSTOMER AND ROD 10.10.17
REFUNDED $4200"
10/5/2017 4:34:08 PM,Matthew Wood,VA,23111,Legacy 3D,DWA-9150USJ-9150BL-DEMO,Demo Black,Demo,,,,,3700.51,3552.00,148.51,Ruben Cuatrona,CreditCard,1200.00,Synchrony,10/9/2017 12:00:00 AM,No,"3 years parts, 1 year labor (Free)",Delivered,Virginia State Fair 9/29-10/8,,,,,,"$3700 total, customer paid $1200 with credit card, the balance $2500 is thru Synchrony, 36 months free finace. Application number: 6034610081555529, Key number: 79318961, Approval number: 005225",101114,SYNCHRONY AND WELLS FARGO PAYMENT CLEARED BY ALICIA 10.6.17
10/5/2017 7:13:38 PM,Robbie Ralston,OK,74041,Legacy 3D,DWA-9150USJ-9150BL-DEMO,Demo Black,Demo,,,,,3600.00,3376.32,223.68,Phuoc Van,Synchrony,3600.00,,10/23/2017 12:00:00 AM,No,"3 years parts, 1 year labor (Free)",Delivered,Tulsa State Fair #486 9/28-10/8 (TX),6034610081556402,79338628,Huston,36 months,,"Invoice #52
PAID IN FULL
Authorization #: 005039",101115,SYNCHRONY CLEARED BY ALICIA 10.6.17
10/5/2017 7:52:00 PM,Todd Davis,OK,74033,Legend 3.0,DWA-9250USJ-9150CH-DEMO,Demo Choco Brown,Demo,,,,,3800.00,3501.76,298.24,Kristy Tran,Synchrony,3000.00,CreditCard,10/8/2017 12:00:00 AM,YES,"3 years parts, 1 year labor (Free)",Delivered,Tulsa State Fair #486 9/28-10/8 (TX),6034610081556295,79335612,Huston,24 months,,"Invoice 51
Auth #005834
$2000 Synchrony @ 24 months
$1000 Square #wYJd
$800 due on Pick up",101116,"SYNCHRONY CLEARED B Y ALICIA 10.6.17, $2000
SQUARE CLEARED, $1000
$800 COD"
10/6/2017 10:40:23 AM,Brandon Tygret,GA,30121,Legend 2,DWA-9200DWA-9200-BL-DEMO,Demo Black,Demo,,,,,3531.00,3300.00,231.00,Robert Shih,Synchrony,3500.00,CreditCard,,YES,"3 years parts, 1 year labor (Free)",Cancelled,Georgia National Fair (10/5-10/15/17),6034610081555974,79328049,Las Vegas,36 months,,"Synchrony 36 months for $3,500

Credit card for $31.00

Do not accept Cancelle , Return , Refund on the floor model.

Customer will picks up the chair the end of the day .",101117,"SYNCHRONY PAID IN FULL--ALICIA
Per Robert, it's cancelled. Will be refunded $3500 through Sync. 10/25/17 Riho"
10/6/2017 2:13:01 PM,Leroy Waldo,OK,74070,Legacy 3D,DWA-9150USJ-9150CH-DEMO,Demo Choco Brown,Demo,,,,,3500.00,3225.30,274.70,Jennifer Tran,Synchrony,3500.00,,10/8/2017 12:00:00 AM,YES,"3 years parts, 1 year labor (Free)",Delivered,Tulsa State Fair #486 9/28-10/8 (TX),6034610081556980,79356502,Huston,36 months,,"Invoice #53
PAID IN FULL
Authorization #: 006782",101118,SYNCHRONY CLEARED BY ALICIA 10/6/17
10/6/2017 4:16:04 PM,Ray Sullivan,GA,30453,Legacy,DWA-9100DWA-9100CH,Choco Brown,New,,,,,4013.50,3800.00,213.50,Robert Shih,COD,3813.00,,,No,"3 years parts, 1 year labor (Free)",Scheduled,Georgia National Fair (10/5-10/15/17),,,,,,"Deposited $200 

C.O.D $3,813.50",101119,"C.O.D $3,813.50"
10/7/2017 7:30:26 AM,Douglas Sherwood,NC,28461,Pegasus,DWA-9400Pegasus-BR-DEMO,Demo Choco Brown,Demo,,,,,4800.89,4597.00,203.89,Ruben Cuatrona,Synchrony,1000.00,CreditCard,10/11/2017 12:00:00 AM,No,"3 years parts, 1 year labor (Free)",Delivered,Virginia State Fair 9/29-10/8,6034610081557343,79366234,Las Vegas,48 months,,"Total price $4800, customer already paid $1000 with credit card, Approval code: 661012. The balance $3800 will be paid thru Synchrony. 48 months. Approve number: 006381",101121,SYNCHRONY CLEARED BY ALICIA 10/9/17
10/7/2017 7:35:07 AM,Edwin Moren,VA,23106,Legacy 3D,DWA-9150USJ-9150BL,Black,New,,,,,4200.68,4027.00,173.68,Ruben Cuatrona,CreditCard,1000.00,COD,10/20/2017 12:00:00 AM,No,"3 years parts, 1 year labor (Free)",Delivered,Virginia State Fair 9/29-10/8,,,,,,"Total priced $4,200
Deposit $1,000
Balanced COD for $3,200",101122,"WELLS FARGO $1,000 CLEARED BY AICIA 10.9.17
COD 3200 CLEARED 07361B WELLS FARGO - STEPHANY 10/20/17"
10/7/2017 7:42:25 AM,Steven Brown,VA,22405,Pegasus,DWA-9400Pegasus-BR,Choco Brown,New,,,,,5000.96,4787.00,213.96,Ting Ritchie,Synchrony,0.00,,10/19/2017 12:00:00 AM,No,"3 years parts, 1 year labor (Free)",Delivered,Virginia State Fair 9/29-10/8,6034610081558119,79380392,Las Vegas,48 months,,Approve Number: 006800. Total price $5000,101123,SYNCHRONY CLEARED 10.9.17 BY ALICIA
10/7/2017 7:50:30 AM,Willie Taylor,VA,22485,Pegasus,DWA-9400Pegasus-BR,Choco Brown,New,,,,,5000.96,4787.00,213.96,Ting Ritchie,Synchrony,0.00,,10/25/2017 12:00:00 AM,No,"3 years parts, 1 year labor (Free)",Delivered,Virginia State Fair 9/29-10/8,6034610081558093,79380614,Las Vegas,48 months,,"Total price $5000, 48 months finance, approve number: 006667. Please 2nd floor white glove delivery.",101124,"SYNCHRONY CLEARED BY ALICIA 10.9.17 Synchrony charged for $5000.
shipped out from california - sti BR649000 - Stephany 11/07/17"
10/7/2017 8:35:50 AM,Kathryn White,OK,74135,Serenity,SSRT-1SSRT-1-BL,Black,New,,,,,3600.00,3376.32,223.68,Phuoc Van,CreditCard,3600.00,,10/27/2017 12:00:00 AM,No,"3 years parts, 1 year labor (Free)",Delivered,Tulsa State Fair #486 9/28-10/8 (TX),,,,,,"Invoice #55
PAID IN FULL",101125,SQUARE PAYMENT CLEARED BY ALICIA 10.9.17
10/7/2017 9:02:36 AM,Richard Wiggs,OK,73734,Legend 3.0,DWA-9250USJ-9150CH-DEMO,Demo Choco Brown,Demo,,,,,4000.00,3744.92,255.08,Kristy Tran,CreditCard,4000.00,,10/26/2017 12:00:00 AM,No,"3 years parts, 1 year labor (Free)",Delivered,Tulsa State Fair #486 9/28-10/8 (TX),,,,,,"Invoice #54
PAID IN FULL",101126,SQUARE PAYMENT CLEARED BY ALICIA 10.9.17
10/7/2017 11:47:35 AM,Daiwa Massage,CA,90249,Foot Vibe Pro,USJ-871,,New,,,,,732.67,679.97,52.70,Kohei Uno,PURCHASEORDER,0.00,,,YES,"2 years parts, 1 year labor (Small Items)",Cancelled,Sam's Club #4882 9/27-10/8 (CA),,,,,,,101127,
10/7/2017 11:47:35 AM,Daiwa Massage,CA,90249,Vitality Plate,USJ-849USJ-849,New,New,,,,,732.67,679.97,52.70,Kohei Uno,PURCHASEORDER,0.00,,,YES,"2 years parts, 1 year labor (Small Items)",Cancelled,Sam's Club #4882 9/27-10/8 (CA),,,,,,,101127,
10/7/2017 12:10:46 PM,MIchael Stay,OK,74055,Pegasus,DWA-9400Pegasus-BL,Black,New,,,,,4800.00,4482.13,317.87,Phuoc Van,CreditCard,4800.00,,10/22/2017 12:00:00 AM,No,"3 years parts, 1 year labor (Free)",Delivered,Tulsa State Fair #486 9/28-10/8 (TX),,,,,,"Invoice #57
PAID IN FULL",101128,SQUARE PAYMENT CLEARED BY ALIAI 10.9.17
10/7/2017 12:21:17 PM,Hubert Garren,MO,64850,Legacy 3D,DWA-9150USJ-9150CH-DEMO,Demo Choco Brown,Demo,,,,,3500.00,3225.30,274.70,Phuoc Van,Synchrony,3500.00,,10/8/2017 12:00:00 AM,YES,"3 years parts, 1 year labor (Free)",Delivered,Tulsa State Fair #486 9/28-10/8 (TX),6034610081558887,79400665,Huston,36 months,,"Invoice #58
PAID IN FULL
Authorization #: 007131",101129,SYNCHRONY CLEARED BY ALICAI 10.9.17
10/7/2017 1:06:28 PM,Jeff Manley,CA,92596,Legacy for Sam's,DWA-9100DWA-9100BG-DEMO,Demo Beige,Demo,,,,,3877.92,3599.00,278.92,Kohei Uno,CreditCard,3877.92,,10/12/2017 12:00:00 AM,No,"3 years parts, 1 year labor (Free)",Delivered,Sam's Club #4882 9/27-10/8 (CA),,,,,,"Serial# 91167260

Warehouse Notes: 
- Please replace dirty leg rest. Also roller motors need regressing. Makes squeaking noises.",101130,
10/7/2017 5:24:25 PM,Jeffery Wilson,GA,30014,Legacy,DWA-9100DWA-9100SI-DEMO,Demo Sienna Brown,Demo,,,,,4010.20,3810.00,200.20,Robert Shih,Synchrony,0.00,CreditCard,,No,"3 years parts, 1 year labor (Free)",Scheduled,Georgia National Fair (10/5-10/15/17),6034610081561097,79426766,,36 months,,"No Canceled , Returned , Refunded for floor model purchased. 

Synchrony 36 months 0APR $3500

C.O.D $510.20",101131,"SYNCHRONY $3500 CLEARED BY ALICIA 10.9.17
$510.20 COD"
10/7/2017 5:35:01 PM,Delbert & Catherine Bryant,OK,74014,Legacy 3D,DWA-9150USJ-9150BL,Black,New,,,,,4123.76,3858.97,264.79,Phuoc Van,CreditCard,300.00,COD,10/14/2017 12:00:00 AM,No,"3 years parts, 1 year labor (Free)",Delivered,Tulsa State Fair #486 9/28-10/8 (TX),,,,,,"Invoice #60
Total: $4,123.76
Deposit: $300
Remaining: $3,823.76(COD)
**REMOVE OLD CHAIR**",101132,"SQUARE CLEAREDD BY ALICIA $300, 10.9.17
Receipt #tkdH , $3,823.76(COD)"
10/7/2017 5:35:01 PM,Delbert & Catherine Bryant,OK,74014,Chair Pad for Legacy 3D,,,New,,,,,4123.76,3858.97,264.79,Phuoc Van,CreditCard,300.00,COD,10/14/2017 12:00:00 AM,No,no warranty,Delivered,Tulsa State Fair #486 9/28-10/8 (TX),,,,,,"Invoice #60
Total: $4,123.76
Deposit: $300
Remaining: $3,823.76(COD)
**REMOVE OLD CHAIR**",101132,"SQUARE CLEAREDD BY ALICIA $300, 10.9.17
Receipt #tkdH , $3,823.76(COD)"
10/7/2017 5:44:07 PM,ERIC EDQUIBAN,CA,91910,Legacy 3D,DWA-9150USJ-9150BL,Black,New,,,,,4800.00,4445.98,354.02,Alan Zeng,Synchrony,0.00,,10/20/2017 12:00:00 AM,No,"3 years parts, 1 year labor (Free)",Delivered,Health&Wellness San Diego,,,San Diego,36 months,,,101133,SYNCHRONY CLEARED BY ALICIA 10.9.17
10/7/2017 5:44:07 PM,ERIC EDQUIBAN,CA,91910,Chair Pad for Legacy 3D,,,New,,,,,4800.00,4445.98,354.02,Alan Zeng,Synchrony,0.00,,10/20/2017 12:00:00 AM,No,no warranty,Delivered,Health&Wellness San Diego,,,San Diego,36 months,,,101133,SYNCHRONY CLEARED BY ALICIA 10.9.17
10/7/2017 5:44:07 PM,ERIC EDQUIBAN,CA,91910,Foot Pads for Legacy 3D,,,New,,,,,4800.00,4445.98,354.02,Alan Zeng,Synchrony,0.00,,10/20/2017 12:00:00 AM,No,no warranty,Delivered,Health&Wellness San Diego,,,San Diego,36 months,,,101133,SYNCHRONY CLEARED BY ALICIA 10.9.17
10/7/2017 7:11:50 PM,Mark Bickerstaff,OK,74021,Legacy 3D,DWA-9150USJ-9150CH,Choco Brown,New,,,,,3800.00,3560.62,239.38,Joseph Chan,Synchrony,3800.00,,10/27/2017 12:00:00 AM,No,"3 years parts, 1 year labor (Free)",Delivered,Tulsa State Fair #486 9/28-10/8 (TX),6034610081559562,79410159,Huston,36 months,,"Invoice #61
PAID IN FULL",101134,WELLS FARGO CLEARED BY ALICIA 10.9.17
10/7/2017 7:22:23 PM,Tim Leger,OK,74011,Legacy 3D,DWA-9150USJ-9150BL,Black,New,,,,,4200.01,3929.23,270.78,Joseph Chan,CreditCard,4200.00,,10/24/2017 12:00:00 AM,No,"3 years parts, 1 year labor (Free)",Delivered,Tulsa State Fair #486 9/28-10/8 (TX),,,,,,"Invoice #64
PAID IN FULL
Total: $4,200",101135,SQUARE CLEARED BY ALICIA  10.9.17
10/7/2017 7:42:43 PM,Rosalie Valdez,CO,80640,Pegasus,DWA-9400Pegasus-BL,Black,New,,,,,4900.75,4618.00,282.75,May Kam,CreditCard,500.00,COD,10/22/2017 12:00:00 AM,No,"3 years parts, 1 year labor (Free)",Delivered,New Mexico Balloon Fiesta 10/6-10-15 (TX),,,,,,"Before shipping at next week, will pay balance $4400",101136,"$500 CLEARED ON WELLS FARGO 10.9.17, ALICIA
$440O PAID OFF, WELLS FARGO--ALICIA 10.12.17"
10/7/2017 7:45:30 PM,Bobby Newman,OK,74047,Legacy 3D,DWA-9150USJ-9150CH,Choco Brown,New,,,,,4493.95,4200.10,293.85,Joseph Chan,Synchrony,4493.94,,,No,"3 years parts, 1 year labor (Free)",Cancelled,Tulsa State Fair #486 9/28-10/8 (TX),6034610081560461,79418598,Huston,36 months,,"Invoice #65
Total: $4,493.94
PAID IN FULL
Authorization #: 007678",101137,SYNCHRONY CLEARED BY ALICIA 10.9.17
10/7/2017 8:47:48 PM,James Welch,WA,99301,Legacy 3D,DWA-9150USJ-9150BL,Black,New,,,,,4200.00,3897.81,302.19,Joseph Chan,CreditCard,4200.00,,10/16/2017 12:00:00 AM,No,"3 years parts, 1 year labor (Free)",Delivered,Seattle Gift Show (WA),,,,,,,101138,SQUARE PAYMENT CLEARED BY ALICIA 10.9.17
10/8/2017 7:43:33 AM,Lee&Sheila Ivey,VA,23231,Legacy 3D,DWA-9150USJ-9150BL,Black,New,,,,,4500.79,4312.00,188.79,Ting Ritchie,Synchrony,0.00,,10/19/2017 12:00:00 AM,No,"3 years parts, 1 year labor (Free)",Delivered,Virginia State Fair 9/29-10/8,6034610081561394,79432078,San Diego,24 months,,"Total $4500. Approve number: 007765, please delivery on weekend.",101139,SYNCHRONY CLEARED BY ALICIA 10.9.17
10/8/2017 7:53:18 AM,Sheila Hintze,VA,23188,Pegasus,DWA-9400Pegasus-BL,Black,New,,,,,5000.96,4787.00,213.96,Ruben Cuatrona,Synchrony,0.00,,10/18/2017 12:00:00 AM,No,"3 years parts, 1 year labor (Free)",Delivered,Virginia State Fair 9/29-10/8,6034610081561402,79432156,San Diego,48 months,,"Total $5000, 48 months free finance. Approve number: 007364.    2nd floor.",101140,SYNCHRONY CLEARED BY ALICIA 10.9.17
10/8/2017 8:01:55 AM,Katherine Cisneros,VA,23227,Pegasus,DWA-9400Pegasus-BR,Choco Brown,New,,,,,4900.93,4692.00,208.93,Ruben Cuatrona,CreditCard,2500.00,COD,10/20/2017 12:00:00 AM,No,"3 years parts, 1 year labor (Free)",Delivered,Virginia State Fair 9/29-10/8,,,,,,"Total $4900, customer already paid $2500 deposit with credit card, the balance $2400 will be paid on C.O.D",101141,"WELLS FARGO PAYMENT CLEARED BY ALICIA 10.9.17, $2500
$2400 COD  /   COD Square # IoNA $2,400"
10/8/2017 8:09:56 AM,Rodney Bolt,VA,23161,Relax2Zero 3D,DWA-9060USJ-9060BL-DEMO,Demo Black,Demo,,,,,3600.21,3419.00,181.21,Ruben Cuatrona,CreditCard,0.00,,,YES,"3 years parts, 1 year labor (Free)",Delivered,Virginia State Fair 9/29-10/8,,,,,,Customer pick it up after the fair.,101142,WELLS FARGO CLEARED BY ALICIA 10.9.17
10/8/2017 8:17:55 AM,Daniel Carlson,VA,22482,Relax2Zero 3D,DWA-9060USJ-9060BR,Choco Brown,New,,,,,4000.61,3837.00,163.61,Rodrigo Malabunga,CreditCard,0.00,,10/19/2017 12:00:00 AM,No,"3 years parts, 1 year labor (Free)",Delivered,Virginia State Fair 9/29-10/8,,,,,,,101143,WELLS FARGO PAYMENT CLEARED BY ALICIA 10.9.17
10/8/2017 8:17:55 AM,Daniel Carlson,VA,22482,Chair Pad for Relax2Zero 3D,,,New,,,,,4000.61,3837.00,163.61,Rodrigo Malabunga,CreditCard,0.00,,10/19/2017 12:00:00 AM,No,no warranty,Delivered,Virginia State Fair 9/29-10/8,,,,,,,101143,WELLS FARGO PAYMENT CLEARED BY ALICIA 10.9.17
10/8/2017 8:29:57 AM,Glenn Barnes,VA,23669,Legacy 3D,DWA-9150USJ-9150BL,Black,New,,,,,4500.79,4312.00,188.79,Rodrigo Malabunga,Synchrony,500.00,Check,10/20/2017 12:00:00 AM,No,"3 years parts, 1 year labor (Free)",Delivered,Virginia State Fair 9/29-10/8,6034610081558440,79391938,San Diego,36 months,,"Total $4000, $3500 thru Synchrony, approve number : 007446,  the balance $500 will be paid with C.O.D",101144,"SYNCHRONY CLEARED BY ALICIA 10.9.17 $3500
$500 COD"
10/8/2017 8:36:59 AM,David Calvert,VA,22701,Relax2Zero 3D,DWA-9060USJ-9060BR,Choco Brown,New,,,,,4200.68,4027.00,173.68,Rodrigo Malabunga,CreditCard,0.00,,10/20/2017 12:00:00 AM,No,"3 years parts, 1 year labor (Free)",Delivered,Virginia State Fair 9/29-10/8,,,,,,,101145,WELLS FARGO CLEARED BY ALICIA 10.9.17
10/8/2017 8:54:50 AM,Cammy Drebes,OK,74857,Legacy 3D,DWA-9150USJ-9150CH,Choco Brown,New,,,,,3600.00,3376.32,223.68,Phuoc Van,CreditCard,300.00,COD,10/14/2017 12:00:00 AM,No,"3 years parts, 1 year labor (Free)",Delivered,Tulsa State Fair #486 9/28-10/8 (TX),,,,,,"Invoice #66
Total: $3,600
Deposit: $300
Remaining: $3,300(COD)",101146,"$3,300(COD)
SQUARE $300 CLEARED BY ALICIA 10.9.17"
10/8/2017 9:07:14 AM,Ken Silver,OK,74469,Legacy 3D,DWA-9150USJ-9150BL-DEMO,Demo Black,Demo,,,,,3500.01,3284.17,215.84,Phuoc Van,Synchrony,3500.00,,10/25/2017 12:00:00 AM,No,"3 years parts, 1 year labor (Free)",Delivered,Tulsa State Fair #486 9/28-10/8 (TX),6034610081561287,79429802,Huston,36 months,,"Invoice #67
Total: $3,500
PAID IN FULL
Authorization #: 007624",101147,SYNCHRONY $3500 CLEARED BY ALICIA 10.9.17
10/8/2017 9:13:29 AM,Donald Calvert,OK,74008,Legacy 3D,DWA-9150USJ-9150BL-DEMO,Demo Black,Demo,,,,,3500.00,3225.30,274.70,Tom Nguyen,CreditCard,3500.00,,10/8/2017 12:00:00 AM,YES,"3 years parts, 1 year labor (Free)",Delivered,Tulsa State Fair #486 9/28-10/8 (TX),,,,,,"Invoice #68
PAID IN FULL",101148,SQUARE CLEARED BY ALICIA 10.9.17
10/8/2017 10:25:52 AM,Sandy Honeycutt,OK,74047,Relax2Zero 1.0,USJ-9000USJ-9000KU,Black,New,,,,,2000.00,1843.03,156.97,Xiongxiaojun Ji,Synchrony,2000.00,CreditCard,10/8/2017 12:00:00 AM,YES,"3 years parts, 1 year labor (Free)",Delivered,Tulsa State Fair #486 9/28-10/8 (TX),6034610081545553,79111543,Huston,24 months,,"Invoice #18
**BLACK DEMO**
PAID IN FULL
Total: $3,000
Synchrony $2,000
Authorization #: 030309
Credit Card: $1,000
Square #noKX",101149,SYNCHRONY AND WELLS FARGO CLEARED 10.9.17 BY ALICIA
10/8/2017 10:35:12 AM,Thomas Regan,OK,74119,Relax2Zero 1.0,USJ-9000USJ-9000BR,Brown,New,,,,,2500.00,2303.79,196.21,Kristy Tran,Cash,2500.00,,10/8/2017 12:00:00 AM,YES,"3 years parts, 1 year labor (Free)",Delivered,Tulsa State Fair #486 9/28-10/8 (TX),,,,,,"Invoice #56
**BROWN DEMO**
PAID IN FULL",101150,"LINDA, PLS DOUBLE CHECK WHO HAS CASH AND CONFIRM PAID IN FULL--ALICIA"
10/8/2017 10:57:31 AM,Stepheani Smith,OK,74119,Legend 3.0,DWA-9250USJ-9150CH-DEMO,Demo Choco Brown,Demo,,,,,3340.80,3078.60,262.20,Kristy Tran,Synchrony,3340.80,CreditCard,10/8/2017 12:00:00 AM,YES,"3 years parts, 1 year labor (Free)",Delivered,Tulsa State Fair #486 9/28-10/8 (TX),6034610081559232,79405932,Huston,36 months,,"Invoice #59
PAID IN FULL
Total: $4,340.80
Synchrony: $3,340.80
Authorization #: 007214
Credit Card: $1,000
Square #bJ0N",101151,SYNCHRONY AND SQUARE CLEARED BY ALICIA 10.9.17
10/8/2017 11:10:38 AM,David Price,AZ,72936,Pegasus,DWA-9400Pegasus-BR,Choco Brown,New,,,,,8400.00,7799.59,600.41,Kristy Tran,Cash,3000.00,,10/8/2017 12:00:00 AM,No,"3 years parts, 1 year labor (Free)",Delivered,Tulsa State Fair #486 9/28-10/8 (TX),,,,,,"Invoice # 62 & 63
Total: $8,400
Deposit: $3,000(CASH)
Remaining: $5,400(CASH)
**NO CHECKS/CARDS**",101152,"PLS DOUBLE CHECK WHO HAS $3,000 CASH
$5400 COD
THIS CUSTOMER LIVES IN ARKANSAS"
10/8/2017 12:30:45 PM,VIET VO,LA,70535,Relax2Zero 2.0 for Sam's,USJ-9050USJ-9050BR-DEMO,Demo Brown,Demo,,,,,3200.50,2982.80,217.70,KHOA H,CreditCard,0.00,,10/17/2017 12:00:00 AM,No,"3 years parts, 1 year labor (Free)",Delivered,Sam's Club #4874 Covington  9/28-10/8 (TX),,,,,,"1 blanket & 1 usb
Chair from NEW.",101153,
10/8/2017 12:30:45 PM,VIET VO,LA,70535,Daiwa Blanket,,,New,,,,,3200.50,2982.80,217.70,KHOA H,CreditCard,0.00,,10/17/2017 12:00:00 AM,No,no warranty,Delivered,Sam's Club #4874 Covington  9/28-10/8 (TX),,,,,,"1 blanket & 1 usb
Chair from NEW.",101153,
10/8/2017 2:24:35 PM,Eric Frid,FL,33160,Legacy,DWA-9100DWA-9100BL,Black,New,,,,,3983.00,3800.00,183.00,Mitch Valdes,CreditCard,4000.00,,10/24/2017 12:00:00 AM,No,"3 years parts, 1 year labor (Free)",Delivered,JIS Fort Lauderdale,,,,,,"Customer paid in full $4,000 (including delivery and tax). NO BALANCE.",101154,SQUARE PAYMENT CLEARED BY ALICIA 10.9.17
10/8/2017 3:00:08 PM,Ashley Pira,CA,92596,Legacy for Sam's,DWA-9100DWA-9100BL,Blue,New,,,,,3877.92,3599.00,278.92,Kohei Uno,CreditCard,3877.92,,10/12/2017 12:00:00 AM,No,"3 years parts, 1 year labor (Free)",Delivered,Sam's Club #4882 9/27-10/8 (CA),,,,,,"Please try to rush delivery for this customer.

Thank you",101155,
10/8/2017 3:24:52 PM,Renee McKnight,OK,74012,Legacy 3D,DWA-9150USJ-9150CH,Choco Brown,New,,,,,3600.00,3376.32,223.68,Tom Nguyen,CreditCard,100.00,Synchrony,,No,"3 years parts, 1 year labor (Free)",Hold,Tulsa State Fair #486 9/28-10/8 (TX),,,,,,"Invoice #69
Total: $3,600
Deposit: $100(CARD)
Square #nEDa
Remaining: $3,500(SYNCHRONY)(HOUSTON)
Account #: 6034610081562236
Key #: 79447026
36 Months No Interest
**HOLD THE FINANCING PROCESSING UNTIL 3 MONTHS**",101156,
10/8/2017 3:24:52 PM,Renee McKnight,OK,74012,Chair Pad for Legacy 3D,,,New,,,,,3600.00,3376.32,223.68,Tom Nguyen,CreditCard,100.00,Synchrony,,No,no warranty,Hold,Tulsa State Fair #486 9/28-10/8 (TX),,,,,,"Invoice #69
Total: $3,600
Deposit: $100(CARD)
Square #nEDa
Remaining: $3,500(SYNCHRONY)(HOUSTON)
Account #: 6034610081562236
Key #: 79447026
36 Months No Interest
**HOLD THE FINANCING PROCESSING UNTIL 3 MONTHS**",101156,
10/8/2017 3:57:26 PM,Breanne Janssen,CA,92596,Legacy for Sam's,DWA-9100DWA-9100BL,Black,New,,,,,4632.17,4299.00,333.17,Kohei Uno,CreditCard,4632.17,,10/20/2017 12:00:00 AM,No,"3 years parts, 3 years labor ($400)",Delivered,Sam's Club #4882 9/27-10/8 (CA),,,,,,,101157,10/11/17 PRINTED
10/8/2017 4:47:27 PM,Jesus Ortiz,OK,74012,Serenity,SSRT-1SSRT-1-BL-DEMO,Demo Black,Demo,,,,,2500.00,2303.79,196.21,Tom Nguyen,CreditCard,1000.00,,,YES,"3 years parts, 1 year labor (Free)",Called,Tulsa State Fair #486 9/28-10/8 (TX),,,,,,"Invoice #70
Total: $2,500
Deposit: $1,000
Remaining: 1,500(Card)",101158,"Confirmed $1000.00 at Square, please collect the remaining balance **$1500.00** 10/9/17 Riho"
10/8/2017 5:20:47 PM,Karl Griffith,VA,23430,Legacy 3D,DWA-9150USJ-9150BL,Black,New,,,,,4200.68,4027.00,173.68,Ruben Cuatrona,CreditCard,0.00,,10/18/2017 12:00:00 AM,No,"3 years parts, 1 year labor (Free)",Delivered,Virginia State Fair 9/29-10/8,,,,,,,101159,
10/8/2017 5:30:43 PM,Alexis Mcneeley,VA,23832,Legacy 3D,DWA-9150USJ-9150CH,Choco Brown,New,,,,,4000.61,3837.00,163.61,Ting Ritchie,Synchrony,0.00,,10/20/2017 12:00:00 AM,No,"3 years parts, 1 year labor (Free)",Delivered,Virginia State Fair 9/29-10/8,6034610081562541,79449781,San Diego,36 months,,"Total $4000, two approve number, 1: 008942, under Alexis & Chris. 2: 008080, under Alexis Corin. Each one approved $2000.",101160,SYNCHRONY CLEARED BY ALICIA 10.9.17
10/8/2017 5:39:27 PM,Jeshauna Mccoy,VA,23320,Legacy 3D,DWA-9150USJ-9150BL,Black,New,,,,,4200.68,4027.00,173.68,Ting Ritchie,Synchrony,0.00,,10/18/2017 12:00:00 AM,No,"3 years parts, 1 year labor (Free)",Delivered,Virginia State Fair 9/29-10/8,6034610081563457,79459874,San Diego,48 months,,"Total $4200, 48 months finance please.",101161,Confirmed $4200.00 at Synchrony SD. 10/9/17 Riho
10/8/2017 5:44:35 PM,Jessica Gonzalez,OK,74116,Legend 3.0,DWA-9250USJ-9150BL,Black,New,,,,,4600.00,4297.83,302.17,Kristy Tran,Synchrony,3500.00,CreditCard,,No,"3 years parts, 1 year labor (Free)",Called,Tulsa State Fair #486 9/28-10/8 (TX),6034610081562939,79454662,Huston,36 months,,"Invoice #71
Total: $4,600
Deposit: $3,500(SYNCHRONY)
Authorization #: 008172
Remaining: $1,100(COD)
**HOLD DELIVERY UNTIL THANKSGIVING**",101162,"Confirmed $3500.00 at Synchrony TX. 10/9/17 Riho
**COD $1100/Hold until Thanksgiving**"
10/8/2017 5:44:41 PM,Daiwa Massage,CA,90249,Foot Vibe Pro,USJ-871,,New,,,,,711.09,659.94,51.15,Kohei Uno,PURCHASEORDER,0.00,,,YES,"2 years parts, 1 year labor (Small Items)",Delivered,Sam's Club #4882 9/27-10/8 (CA),,,,,,,101163,
10/8/2017 5:46:38 PM,Shaun Franck,VA,23005,Legacy 3D,DWA-9150USJ-9150CH,Choco Brown,New,,,,,4000.61,3837.00,163.61,Ruben Cuatrona,Check,4000.00,,,No,"3 years parts, 1 year labor (Free)",Hold,Virginia State Fair 9/29-10/8,,,,,,"Please don't delivery, customer will pay in full the first week on November.",101164,
10/8/2017 5:52:25 PM,Jessica Lanterman,OK,74012,Legacy 3D,DWA-9150USJ-9150BL-DEMO,Demo Black,Demo,,,,,3600.00,3376.32,223.68,June Zhang,CreditCard,3600.00,,10/23/2017 12:00:00 AM,No,"3 years parts, 1 year labor (Free)",Delivered,Tulsa State Fair #486 9/28-10/8 (TX),,,,,,"Invoice #72
PAID IN FULL",101165,SQUARE PAYMENT CLEARED BY ALICIA 10.9.17
10/8/2017 5:59:41 PM,Marco Hernandez,OK,74019,Serenity,SSRT-1SSRT-1-BL,Black,New,,,,,2750.00,2593.03,156.97,Tom Nguyen,Synchrony,2750.00,,10/20/2017 12:00:00 AM,No,"3 years parts, 1 year labor (Free)",Delivered,Tulsa State Fair #486 9/28-10/8 (TX),6034610081563515,79460739,Huston,24 months,,"Invoice #73
PAID IN FULL
Authorization #: 008573",101166,"His transaction is $5500.00, texted Tom ""did he purchase 2 chairs?"" 10/9/17 Riho"
10/8/2017 8:48:05 PM,Dan Newhouse,NM,87547,Relax2Zero 3D,DWA-9060USJ-9060BR-DEMO,Demo Choco Brown,Demo,,,,,4000.52,3728.00,272.52,May Kam,CreditCard,200.00,COD,10/21/2017 12:00:00 AM,YES,"3 years parts, 1 year labor (Free)",Delivered,New Mexico Balloon Fiesta 10/6-10-15 (TX),,,,,,"Special discount for Vendors, balance $3800 will be paid on Oct 15,2017 , when pick up the chair",101167,"Confirmed $200 at WF, the remaining balance will be paid when they pick it up from the show site. 10/9/17  Riho"
10/8/2017 9:21:21 PM,Greg Gowen,NM,87107,Relax2Zero 3D,DWA-9060USJ-9060BL-DEMO,Demo Black,Demo,,,,,4000.52,3728.00,272.52,May Kam,CreditCard,200.00,COD,,YES,"3 years parts, 1 year labor (Free)",Delivered,New Mexico Balloon Fiesta 10/6-10-15 (TX),,,,,,"Vendor Special discount , balance $3800 will be paid on Oct 16,2017
At pick up",101168,"Confirmed $200 at WF, the remaining balance will be paid on 10/16/17 when they pick it up. 10/9/17 Riho
$3800 PAID ON WELLS FARGO, ORIGINAL INVOICE IN SHOWSALES"
10/8/2017 9:39:31 PM,Maria Batac,CA,91762,Relax2Zero 3D,DWA-9060USJ-9060BL,Black,New,,,,,4000.42,3779.00,221.42,Keith Kei,CreditCard,4000.00,,10/30/2017 12:00:00 AM,No,"3 years parts, 1 year labor (Free)",Delivered,New Mexico Balloon Fiesta 10/6-10-15 (TX),,,,,,,101169,"Confirmed $4000.00, it was paid by Debit Card. 10/9/17 Riho
10/23/17 cristina- printed"
10/8/2017 11:08:08 PM,Dwight Neeley,CA,92708,Legacy for Sam's,DWA-9100DWA-9100BL,Blue,New,,,,,3895.92,3599.00,296.92,Kamille Gines,CreditCard,3913.91,,10/20/2017 12:00:00 AM,No,"3 years parts, 1 year labor (Free)",Delivered,Sam's Club #6615 9/28-10/8/17 (CA),,,,,,"Invoice #1
2nd Floor up
Extra pad
The Tax rate in daiwa space is incorrect. its supposed to be 8.75% not 8.25%,that is why the remaining balance is negative.",101170,10/10/17 cristina printed
10/8/2017 11:21:09 PM,Hanh Truong,CA,92683,Legacy for Sam's,DWA-9100DWA-9100CH,Choco,New,,,,,3895.92,3599.00,296.92,Kamille Gines,CreditCard,3913.91,,10/20/2017 12:00:00 AM,No,"3 years parts, 1 year labor (Free)",Delivered,Sam's Club #6615 9/28-10/8/17 (CA),,,,,,"Invoice #2
Ship a new chair
extra pad
The Tax rte in daiwa space is incorrect. its supposed to be 8.75% not 8.25% that is why the remaining balance is negative",101171,10/10/10 cristina printed
