﻿Original Event Name,Event Name,Sales Person,Order Number,Order Date,Customer Name,State,Zip,Product Name,Color,Product Status,QTY,Tax,Total Before Tax,Order Total,Primary Payment Method,Second Payment Method,Thirdl Payment Method,Warranty,Order Items,Pick up,Delivered On,Order Status,Chair Type,Order Notes,Private Note,Branch,No Tax,Actual Tax Rate,SKU,Primary Payment Balance,Primary Authorize Number,Primary Purchase Order Number,Primary Synchrony Account Number,Primary Synchrony Application Key,Primary Synchrony Account Info,Primary Synchrony Term,Second Payment Balance,Second Authorize Number,Second Purchase Order Number,Second Synchrony Account Number,Second Synchrony Application Key,Second Synchrony Account Info,Second SynchronyTerm,Third Payment Balance,Third Authorize Number,Third Purchase Order Number,Third Synchrony Account Number,Third Synchrony Application Key,Third Synchrony Account Info,Third Synchrony Term
Health & Wellness Factory 99 Ranch Carrollton (TX),Health & Wellness Factory 99 Ranch Carrollton (TX),Kristy Tran,108287,8/10/2018 11:46:16 AM,Wendy Whiteman,TX,75115,Pegasus,Demo Choco,Demo,1,0.00,4300.00,4300.00,CreditCard,CreditCard,Cash,"3 years parts, 1 year labor (Free)","Pegasus,",No,8/15/2018 12:00:00 AM,Delivered,,"CASH $1500 on Delivery
No cards or checks
Deliver asap.
Customer is TAX EXEMPT 
Taxpayer Number: 3-20068-4592-2","Confirmed $2,800 in Square. Please collect COD $1,500. 8/10/18 Hitomi
8/10Maritza Courtesy call @ 3:13PM
delivered new chair. 8/16/2018 June
8/22 Maritza Cash received by Humberto 1500",TX,1,8.25,DWA-9400Pegasus-BR-DEMO,1400.00,Square # IVun,,,,,,1400.00,Square # 4ZeD,,,,,,1500.00,,,,,,
Health & Wellness Factory 99 Ranch Carrollton (TX),Health & Wellness Factory 99 Ranch Carrollton (TX),Mijung Song,108485,8/14/2018 8:50:15 AM,James Pettit,CA,92118,Legacy 3D,New Choco,New,1,0.00,4500.00,4500.00,CreditCard,,,"3 years parts, 1 year labor (Free)","Legacy 3D,",No,8/23/2018 12:00:00 AM,Delivered,,,"COnfirmed $4,500.00 in Square. 8/14/18 Hitomi
8/14Maritza Printed",CA,1,8.25,DWA-9150USJ-9150CH,4500.00,2uC3,,,,,,0.00,,,,,,,0.00,,,,,,
Health & Wellness Factory 99 Ranch Carrollton (TX),Health & Wellness Factory 99 Ranch Carrollton (TX),Kristy Tran,108720,8/24/2018 1:37:50 PM,Gary Knott,TX,76013,Pegasus,New Black,New,1,0.00,4400.00,4400.00,CreditCard,Cash,,"3 years parts, 1 year labor (Free)","Pegasus,",No,,Called,,"CASH on Delivery
No cards or checks","I couldn't find the transaction on Square. Emailed Kristy to get the original paper work. 8/24/18 Riho//Confirmed $100 (#lwaP) in SQ shoe sales account .  COD$4,300. 8/27/18 Hitomi
8/27Maritza- Courtesy text+email @ 3:54PM
8/28Maritza- Received email regarding a hold for 6-8 weeks from today. Give him another call mid October to deliver chair. He wants it delivered third week of October.",TX,1,8.25,DWA-9400Pegasus-BL,100.00,Square #lwaP,,,,,,4300.00,,,,,,,0.00,,,,,,
Health & Wellness Factory 99 Ranch Carrollton (TX),Health & Wellness Factory 99 Ranch Carrollton (TX),Kristy Tran,109063,9/4/2018 11:23:40 AM,Caroline Broussard,TX,76228,Relax2Zero 2.0,New Brown,New,1,264.59,3957.16,4221.75,Check,,,"3 years parts, 1 year labor (Free)","Relax2Zero 2.0,",No,9/22/2018 12:00:00 AM,Delivered,,Customer will mail expedited check to TX branch.,"PLease let us know once you received & deposit the check  9/6/18- Hitomi
9/11/18 Hitomi confirmed $4,221.75 check was deposited by June today.
9/19/18 Confirmed with Yumi that check was cleared. - Hitomi",TX,0,8.25,USJ-9050USJ-9050BR,0.00,,,,,,,0.00,,,,,,,0.00,,,,,,
Health & Wellness Factory 99 Ranch Carrollton (TX),Health & Wellness Factory 99 Ranch Carrollton (TX),Tina Tran,109070,9/4/2018 4:46:52 PM,Kathy Green,TX,76049,Legacy,New Sienna,New,1,0.00,3800.00,3800.00,CreditCard,CreditCard,,"3 years parts, 1 year labor (Free)","Legacy,",No,9/19/2018 12:00:00 AM,Delivered,,,"Refer from friend, his friend purchased from Linda who is not long working for us. And we did price same as his friend as $3800. Also, this order was made through phone. We need customer purchased signature upon delivery.  9/4/2018 June
Confirmed $570.00 in Square. COD $3,230. 9/5/18 Hitomi
Courtesy Call made on 9/5/2018 by Mimi
9/25Maritza Confirmed COD on square.",TX,1,8.25,DWA-9100DWA-9100SI,570.00,#bBXy,,,,,,3230.00,#hRdB,,,,,,0.00,,,,,,
Health & Wellness Factory 99 Ranch Carrollton (TX),Health & Wellness Factory 99 Ranch Carrollton (TX),Mijung Song,109080,9/5/2018 7:57:16 AM,Mark Gosney,TX,78610,Legacy 3D,Demo Black,Demo,1,0.00,3200.00,3200.00,CreditCard,,,"3 years parts, 1 year labor (Free)","Legacy 3D,",No,9/11/2018 12:00:00 AM,Delivered,,,"Confirmed $3,200 in Square. 9/5/18 Hitomi
Courtesy Called. 9/5/2018 Mimi.",TX,1,8.25,DWA-9150USJ-9150BL-DEMO,3200.00,1Hsd,,,,,,0.00,,,,,,,0.00,,,,,,
Health & Wellness Factory 99 Ranch Carrollton (TX),Health & Wellness Factory 99 Ranch Carrollton (TX),Mijung Song,109081,9/5/2018 9:59:22 AM,"Hung, Won Kim",TX,75006,Majesty,New Choco,New,1,0.00,2500.00,2500.00,CreditCard,Cash,,"3 years parts, 1 year labor (Free)","Majesty,",No,9/10/2018 12:00:00 AM,Delivered,,"$2,300 COD (cash on delivery)","Confirmed $200.00 in Square. COD $2,300. 9/5/18 Hitomi
 Courtesy Call made on 9/5/2018 by Mimi
9/17 Maritza Delivery confirmation cod cash received by Mario (2300)",TX,1,8.25,MAJ-1010MAJ-1010-BR,200.00,#TspD,,,,,,2300.00,,,,,,,0.00,,,,,,
Health & Wellness Factory 99 Ranch Carrollton (TX),Health & Wellness Factory 99 Ranch Carrollton (TX),Yuhan Liu,109194,9/9/2018 2:58:59 PM,Meiying Chen,TX,76020,Relax2Zero 3D,New Choco,New,1,0.00,3800.00,3800.00,Synchrony,Cash,,"3 years parts, 1 year labor (Free)","Relax2Zero 3D,Chair Pad for Relax2Zero 3D,Foot Pads for Relax2Zero 3D,",No,9/22/2018 12:00:00 AM,Delivered,,,"COnfirmed synchrony account (3,500) and original.***Please charge $3,500 before delivery and have sales draft signed.COD $300 *** 9/10/18 Hitomi
9/10Maritza Courtesy Text @ 4:17PM
Confirmed COD$300 in cash 10/1/18 Masa",TX,1,8.25,DWA-9060USJ-9060BR,3500.00,,,6019170813132468,94210518,Huston,36 months,300.00,,,,,,,0.00,,,,,,
Health & Wellness Factory 99 Ranch Carrollton (TX),Health & Wellness Factory 99 Ranch Carrollton (TX),Yuhan Liu,109375,9/15/2018 10:36:01 AM,Rangson Yang Sattayatham,TX,75287,Relax2Zero 3D,New Black,New,1,0.00,3800.00,3800.00,Synchrony,,,"3 years parts, 1 year labor (Free)","Relax2Zero 3D,Chair Pad for Relax2Zero 3D,Foot Pads for Relax2Zero 3D,",No,9/18/2018 12:00:00 AM,Delivered,,,"Confirmed synchrony account ($6,500) and original.***Please charge $3,800 before delivery and have sales draft signed. *** 9/18/18 Hitomi
9/18Maritza Courtesy text sent to both numbers @ 8:45AM",TX,1,8.25,DWA-9060USJ-9060BL,3800.00,,,6019170813140750,94449565,Huston,36 months,0.00,,,,,,,0.00,,,,,,
Health & Wellness Factory 99 Ranch Carrollton (TX),Health & Wellness Factory 99 Ranch Carrollton (TX),Yuhan Liu,109461,9/16/2018 3:00:47 PM,Alicia Luong,OK,73173,Legacy 3D,New Black,New,1,0.00,3800.00,3800.00,Synchrony,,,"3 years parts, 1 year labor (Free)","Legacy 3D,Chair Pad for Legacy 3D,Foot Pads for Legacy 3D,",No,9/25/2018 12:00:00 AM,Delivered,,,"Confirmed synchrony account ($3,800) and original. ***Please charge $3,800 before delivery and have sales draft signed.*** 9/13/18 Hitomi
9/18Maritza Courtesy text @ 9:36AM",TX,1,8.25,DWA-9150USJ-9150BL,3800.00,,,6019170813144208,94503007,Huston,36 months,0.00,,,,,,,0.00,,,,,,
Health & Wellness Factory 99 Ranch Carrollton (TX),Health & Wellness Factory 99 Ranch Carrollton (TX),Mijung Song,109629,9/21/2018 2:52:35 PM,Qingsong Li,TX,75093,Legacy 3D,New Choco,New,1,0.00,4300.00,4300.00,Cash,Cash,,"3 years parts, 1 year labor (Free)","Legacy 3D,",No,9/22/2018 12:00:00 AM,Delivered,,,"COD$4100, cash only
//will confirme cash 9/21/18 Hitomi
Confirmed COD$4,100 in cash 10/1/18 Masa
10/2Confirmed $200 deposit with Mario.",TX,1,8.25,DWA-9150USJ-9150CH,200.00,,,,,,,4100.00,,,,,,,0.00,,,,,,
Health & Wellness Factory 99 Ranch Carrollton (TX),Health & Wellness Factory 99 Ranch Carrollton (TX),Yuhan Liu,109649,9/22/2018 10:21:28 AM,Jong Prakaydow S,TX,75025,Relax2Zero 3D,New Black,New,1,0.00,3800.00,3800.00,Synchrony,,,"3 years parts, 1 year labor (Free)","Relax2Zero 3D,Chair Pad for Relax2Zero 3D,Foot Pads for Relax2Zero 3D,",No,10/2/2018 12:00:00 AM,Delivered,,,"Confirmed synchrony account ($5,500) and original.  ***Please charge $3,800 before delivery and have sales draft signed. ** 9/24/18 Hitomi
09/24/18- Cristina spoke to customer. concerning order.",TX,1,8.25,DWA-9060USJ-9060BL,3800.00,,,6019170813152250,94740416,Huston,36 months,0.00,,,,,,,0.00,,,,,,
Health & Wellness Factory 99 Ranch Carrollton (TX),Health & Wellness Factory 99 Ranch Carrollton (TX),Mijung Song,109811,9/24/2018 12:36:42 PM,Keith Dial,TX,75063,Legacy 3D,Demo Black,Demo,1,0.00,3500.00,3500.00,CreditCard,CreditCard,,"3 years parts, 1 year labor (Free)","Legacy 3D,",No,9/30/2018 12:00:00 AM,Delivered,,,"Confirmed $100 in Square. COD $3,400. 9/24/18 Hitomi",TX,1,8.25,DWA-9150USJ-9150BL-DEMO,100.00,Receipt #cgK8,,,,,,3400.00,#Vd9l,,,,,,0.00,,,,,,
Health & Wellness Factory 99 Ranch Carrollton (TX),Health & Wellness Factory 99 Ranch Carrollton (TX),Mijung Song,109866,9/26/2018 11:11:58 AM,Nguyet Do,TX,76063,Legacy 3D,New Choco,New,1,0.00,4000.00,4000.00,Cash,Synchrony,,"3 years parts, 1 year labor (Free)","Legacy 3D,",No,10/2/2018 12:00:00 AM,Delivered,,,"$100 cash was received by Mijung. Confirmed SYNC acct ($6,500) and original. ***Please charge $3,900 before delivery and sales draft signed. ***PLease send me cash confirmation once Mario receives.
10/2Maritza- Mario received cash deposit of $100",TX,1,8.25,DWA-9150USJ-9150CH,100.00,,,,,,,3900.00,,,6019170813156897,94831183,Huston,36 months,0.00,,,,,,
Health & Wellness Factory 99 Ranch Carrollton (TX),Health & Wellness Factory 99 Ranch Carrollton (TX),Yuhan Liu,109957,9/30/2018 12:52:33 PM,Xiaodong Gao,TX,75070,Legacy 3D,New Choco,New,1,0.00,3800.00,3800.00,Synchrony,,,"3 years parts, 1 year labor (Free)","Legacy 3D,Chair Pad for Legacy 3D,Foot Pads for Legacy 3D,",No,10/5/2018 12:00:00 AM,Delivered,,,"COnfirmed SYNC ($8,500.) and original. ***PLease charge $3,800 before delivery and have sales draft signed.*** 10/1/18 Hitomi",TX,1,8.25,DWA-9150USJ-9150CH,3800.00,,,6019170813166292,95077748,Huston,36 months,0.00,,,,,,,0.00,,,,,,
Health & Wellness Factory 99 Ranch Carrollton (TX),Health & Wellness Factory 99 Ranch Carrollton (TX),Yuhan Liu,110155,10/7/2018 4:10:36 PM,Dieu Thu-Thi Tran,TX,75007,Legacy 3D,New Black,New,1,0.00,3700.00,3700.00,Check,,,"3 years parts, 1 year labor (Free)","Legacy 3D,Chair Pad for Legacy 3D,Foot Pads for Legacy 3D,",No,10/17/2018 12:00:00 AM,Delivered,,,"CHECK#1435. Deposit was made on 10/10/18 - 10/10/18 Hitomi//Confirmed with Yumi that $3,700 was cleared.10/17/18 Hitomi",TX,1,8.25,DWA-9150USJ-9150BL,3700.00,,,,,,,0.00,,,,,,,0.00,,,,,,
Health & Wellness Factory 99 Ranch Carrollton (TX),Health & Wellness Factory 99 Ranch Carrollton (TX),Mijung Song,110573,10/22/2018 8:47:06 AM,Steven Puk,TX,78640,Legacy,New Choco,New,1,0.00,3600.00,3600.00,Cash,COD,,"3 years parts, 1 year labor (Free)","Legacy,",No,,Cancelled,,,"Mijun is holding $100 deposit cash, Please send me cash confirmation once Mario receives cash. **COD $3,500** 10/22/18 Hitomi
Reverse order to 110745. Customer upgrade the chair from Legacy 9100 to Legacy 3D. 10/29/2018 June
//10/29/18 confirmed with June that $100cash was transferred to #110745.- Hitomi",TX,1,8.25,DWA-9100DWA-9100BU,100.00,,,,,,,3500.00,,,,,,,0.00,,,,,,
Health & Wellness Factory 99 Ranch Carrollton (TX),Health & Wellness Factory 99 Ranch Carrollton (TX),Mijung Song,110745,10/29/2018 8:38:57 AM,Steven Pak,TX,78640,Legacy 3D,New Choco,New,1,0.00,3900.00,3900.00,Cash,,,"3 years parts, 1 year labor (Free)","Legacy 3D,",No,,Scheduled,,,"Reverse Order 110573.
Customer upgrade the chair to Legacy 3D. Total $3900 cash paid to sales person Mijung Song. Need Mario confirm the cash received. 10/29/2018 June
//10/29/18 Mario received $3,900 cash. -Hitomi",TX,1,8.25,DWA-9150USJ-9150CH,3900.00,,,,,,,0.00,,,,,,,0.00,,,,,,
Health & Wellness Factory 99 Ranch Carrollton (TX),Health & Wellness Factory 99 Ranch Carrollton (TX),Kristy Tran,110774,10/30/2018 8:56:03 AM,Thomas & Marie Hillman,TX,78642,Legacy,New Choco,New,1,297.51,4356.16,4653.67,CreditCard,,,"3 years parts, 1 year labor (Free)","Legacy,",No,,Scheduled,,,"Customer wants delivery done before Thanksgiving. Contacted Tina from TX Branch to confirm time with customer already for Sunday, November 11th. 12PM-4PM. 
Charged with Kristy Tran's square NOT Health & Wellness square.
Confirmed by Tina (no courtesy call needed, thank you)- 10/30/2018 11:00AM
//Confirmed $4,653.67 in SQuare. 10/30/18 Hitomi",TX,0,8.25,DWA-9100DWA-9100BU,4653.67,Square #Pchz,,,,,,0.00,,,,,,,0.00,,,,,,
Health & Wellness Factory 99 Ranch Carrollton (TX),Health & Wellness Factory 99 Ranch Carrollton (TX),Mijung Song,110969,11/5/2018 9:36:50 AM,Yong Ki Park,TX,75243,Legacy,New Choco,New,1,0.00,3900.00,3900.00,Synchrony,,,"3 years parts, 1 year labor (Free)","Legacy,",No,,Assigned,,,"Confirmed SYNC($6,500) and original. ***Please charge $3900 before delivery and sales draft signed. *** - STEPHANY 11/05/18
NAME MISSPELLED IN SYNCHRONY YONG KI PAEK",TX,1,8.25,DWA-9100DWA-9100BU,3900.00,,,6019170813222350,96563016,Huston,36 months,0.00,,,,,,,0.00,,,,,,
Health & Wellness Factory 99 Ranch Carrollton (TX),Health & Wellness Factory 99 Ranch Carrollton (TX),Mijung Song,110970,11/5/2018 9:43:35 AM,Van Nguyen,OK,74011,Legacy 3D,New Choco,New,1,0.00,4000.00,4000.00,CreditCard,,,"3 years parts, 1 year labor (Free)","Legacy 3D,",No,,Assigned,,,"Square cleared for $4000 #LSRd - Stephany 11/05/2018
11/05/18- courtesy call completed- 1:25 pm -Cristina",TX,1,8.25,DWA-9150USJ-9150CH,4000.00,LSRd,,,,,,0.00,,,,,,,0.00,,,,,,
