﻿Date,CustomerName,State,Description,productNo,Color,IsDemo,Net,ShippingFee,GiftPrice,FinancingProcessingFee,Gross,Pre_tax,Tax,Commission,PaymentMethod,Primary Payment Balance,Secondary Payment Method,DeliveryDate,Ispickup,Warranty,Status
8/7/2017 11:58:39 PM,SEONGSIK KIM,NY,Legacy,DWA-9100DWA-9100BL,Black,New,,,,,3809.00,3550.00,259.00,Kaz Ohashi,CreditCard,,,,No,"3 years parts, 1 year labor (Free)",Delivered
8/9/2017 7:53:55 PM,Cynthia Susser,CO,Legacy for Sam's,DWA-9100DWA-9100BL-DEMO,Demo Black,Demo,,,,,3824.07,3599.00,225.07,Tom Nguyen,CreditCard,,,8/13/2017 12:00:00 AM,No,"3 years parts, 1 year labor (Free)",Delivered
8/9/2017 8:39:46 PM,Atulkymar Amin,CO,Legacy for Sam's,DWA-9100DWA-9100CH-DEMO,Demo Choco,Demo,,,,,3824.07,3599.00,225.07,Tom Nguyen,CreditCard,,,8/14/2017 12:00:00 AM,No,"3 years parts, 1 year labor (Free)",Delivered
8/9/2017 9:13:21 PM,Kelly Lyons,FL,Legacy for Sam's,DWA-9100DWA-9100SB-DEMO,Demo Sienna Brown,Demo,,,,,3784.19,3599.00,185.19,Michael Cuatrona,CreditCard,,,8/18/2017 12:00:00 AM,No,"3 years parts, 1 year labor (Free)",Delivered
8/9/2017 9:28:46 PM,Dharmen Patel,FL,Legacy for Sam's,DWA-9100DWA-9100BL,Black,New,,,,,4529.69,4299.00,230.69,Tom Nguyen,CreditCard,,,8/10/2017 12:00:00 AM,No,"3 years parts, 2 years labor ($200)",Delivered
8/9/2017 9:33:07 PM,Scott Akins Kim,FL,Legacy for Sam's,DWA-9100DWA-9100CH,Choco,New,,,,,4529.69,4299.00,230.69,Michael Cuatrona,CreditCard,,,8/10/2017 12:00:00 AM,No,"3 years parts, 1 year labor (Free)",Delivered
8/9/2017 9:42:15 PM,Timothy D Lamonda,CO,Legacy for Sam's,DWA-9100DWA-9100CH-DEMO,Demo Choco,Demo,,,,,3824.07,3599.00,225.07,Tom Nguyen,CreditCard,,,8/13/2017 12:00:00 AM,No,"3 years parts, 1 year labor (Free)",Delivered
8/9/2017 11:25:42 PM,Marc Zayas,TX,Relax2Zero 2.0 for Sam's,USJ-9050USJ-9050BL-DEMO,Demo Black,Demo,,,,,3401.04,3199.00,202.04,Michael Wang,CreditCard,,,8/16/2017 12:00:00 AM,No,"3 years parts, 1 year labor (Free)",Delivered
8/9/2017 11:25:42 PM,Marc Zayas,TX,Chair Pad for Relax2Zero 2.0,,,New,,,,,3401.04,3199.00,202.04,Michael Wang,CreditCard,,,8/16/2017 12:00:00 AM,No,no warranty,Delivered
8/9/2017 11:25:42 PM,Marc Zayas,TX,Daiwa Blanket,,,New,,,,,3401.04,3199.00,202.04,Michael Wang,CreditCard,,,8/16/2017 12:00:00 AM,No,no warranty,Delivered
8/10/2017 12:28:40 AM,Theodore Kazmer,CO,Legacy for Sam's,DWA-9100DWA-9100CH-DEMO,Demo Choco,Demo,,,,,3892.32,3599.00,293.32,Keith Kei,CreditCard,,,,No,"3 years parts, 1 year labor (Free)",Cancelled
8/10/2017 12:38:36 AM,Fred Linneman,CO,Legacy for Sam's,DWA-9100DWA-9100BL-DEMO,Demo Blue,Demo,,,,,3892.32,3599.00,293.32,Keith Kei,CreditCard,,,9/2/2017 12:00:00 AM,No,"3 years parts, 1 year labor (Free)",Delivered
8/10/2017 12:55:19 AM,Todd Collman,TX,Legacy for Sam's,DWA-9100DWA-9100BG-DEMO,Demo Beige,Demo,,,,,3895.92,3599.00,296.92,Gary Cyrlin,CreditCard,,,8/16/2017 12:00:00 AM,No,"3 years parts, 1 year labor (Free)",Delivered
8/10/2017 12:55:19 AM,Todd Collman,TX,Chair Pad for Lagacy,,,New,,,,,3895.92,3599.00,296.92,Gary Cyrlin,CreditCard,,,8/16/2017 12:00:00 AM,No,no warranty,Delivered
8/10/2017 12:55:19 AM,Todd Collman,TX,Daiwa Blanket,,,New,,,,,3895.92,3599.00,296.92,Gary Cyrlin,CreditCard,,,8/16/2017 12:00:00 AM,No,no warranty,Delivered
8/10/2017 1:12:27 AM,Evelyn Crump,TN,Legacy for Sam's,DWA-9100DWA-9100CH,Choco,New,,,,,4718.15,4299.00,419.15,phuoc Van,CreditCard,,,8/13/2017 12:00:00 AM,No,"3 years parts, 1 year labor (Free)",Delivered
8/10/2017 1:12:27 AM,Evelyn Crump,TN,Chair Pad for Lagacy,,,New,,,,,4718.15,4299.00,419.15,phuoc Van,CreditCard,,,8/13/2017 12:00:00 AM,No,no warranty,Delivered
8/10/2017 1:18:38 AM,Rex Bobbitt,TN,Legacy for Sam's,DWA-9100DWA-9100SB,Sienna Brown,New,,,,,4718.15,4299.00,419.15,phuoc Van,CreditCard,,,8/13/2017 12:00:00 AM,No,"3 years parts, 1 year labor (Free)",Delivered
8/10/2017 1:18:38 AM,Rex Bobbitt,TN,Chair Pad for Lagacy,,,New,,,,,4718.15,4299.00,419.15,phuoc Van,CreditCard,,,8/13/2017 12:00:00 AM,No,no warranty,Delivered
8/10/2017 1:37:45 AM,Kamal Mohammed,FL,Legacy for Sam's,DWA-9100DWA-9100CH-DEMO,Demo Choco,Demo,,,,,3832.94,3599.00,233.94,Michael Cuatrona,CreditCard,,,,No,"3 years parts, 1 year labor (Free)",Cancelled
8/10/2017 1:42:16 AM,Kelly Powess,FL,Legacy for Sam's,DWA-9100DWA-9100BG-DEMO,Demo Beige,Demo,,,,,3832.94,3599.00,233.94,Michael Cuatrona,CreditCard,,,8/18/2017 12:00:00 AM,No,"3 years parts, 1 year labor (Free)",Delivered
8/10/2017 1:53:21 AM,Joseph Brizzi,FL,Legacy for Sam's,DWA-9100DWA-9100CH,Choco,New,,,,,3832.94,3599.00,233.94,Michael Cuatrona,CreditCard,,,8/18/2017 12:00:00 AM,No,"3 years parts, 1 year labor (Free)",Delivered
8/10/2017 4:38:31 PM,Thany Yu,FL,Relax2Zero 2.0 for Sam's,USJ-9050USJ-9050BL-DEMO,Demo Black,Demo,,,,,3422.93,3199.00,223.93,Christopher Spina,CreditCard,,,8/10/2017 12:00:00 AM,No,"3 years parts, 1 year labor (Free)",Delivered
8/10/2017 4:47:55 PM,Corey Coberly,TN,Relax2Zero 2.0 for Sam's,USJ-9050USJ-9050BL,Black,New,,,,,4280.25,3900.00,380.25,Phuoc Van,CreditCard,,,8/13/2017 12:00:00 AM,No,"3 years parts, 1 year labor (Free)",Delivered
8/10/2017 4:57:27 PM,Gloria W Cox,AA,Relax2Zero 2.0 for Sam's,USJ-9050USJ-9050BR,Brown,New,,,,,4280.25,3900.00,380.25,Phuoc Van,CreditCard,,,8/14/2017 12:00:00 AM,No,"3 years parts, 1 year labor (Free)",Delivered
8/10/2017 5:26:18 PM,Terri Holt,CO,Legacy for Sam's,DWA-9100DWA-9100BL,Blue,New,,,,,3892.32,3599.00,293.32,Keith Kei,CreditCard,,,8/13/2017 12:00:00 AM,No,"3 years parts, 1 year labor (Free)",Delivered
8/11/2017 1:12:42 AM,Micheal Man,CA,Legacy for Sam's,DWA-9100DWA-9100CH-DEMO,Demo Choco,Demo,,,,,3877.92,3599.00,278.92,Kamille Krizzia,CreditCard,,,8/22/2017 12:00:00 AM,No,"3 years parts, 1 year labor (Free)",Delivered
8/11/2017 1:12:42 AM,Micheal Man,CA,Chair Pad for Lagacy,,,New,,,,,3877.92,3599.00,278.92,Kamille Krizzia,CreditCard,,,8/22/2017 12:00:00 AM,No,no warranty,Delivered
8/11/2017 8:30:29 PM,Smita Gandhi,FL,Legacy for Sam's,DWA-9100DWA-9100BG-DEMO,Demo Beige,Demo,,,,,3832.94,3599.00,233.94,Michael Cuatrona,CreditCard,,,8/18/2017 12:00:00 AM,No,"3 years parts, 1 year labor (Free)",Delivered
8/12/2017 7:14:18 PM,Joey Escalante,CA,Legacy for Sam's,DWA-9100DWA-9100SB-DEMO,Demo Sienna Brown,Demo,,,,,3819.80,3599.00,220.80,Kohei Uno,CreditCard,,,8/31/2017 12:00:00 AM,No,"3 years parts, 1 year labor (Free)",Delivered
8/12/2017 7:14:18 PM,Joey Escalante,CA,Chair Pad for Lagacy,,,New,,,,,3819.80,3599.00,220.80,Kohei Uno,CreditCard,,,8/31/2017 12:00:00 AM,No,no warranty,Delivered
8/12/2017 7:14:18 PM,Joey Escalante,CA,Daiwa Blanket,,,New,,,,,3819.80,3599.00,220.80,Kohei Uno,CreditCard,,,8/31/2017 12:00:00 AM,No,no warranty,Delivered
8/12/2017 7:14:18 PM,Joey Escalante,CA,Foot Pads for Lagacy,,,New,,,,,3819.80,3599.00,220.80,Kohei Uno,CreditCard,,,8/31/2017 12:00:00 AM,No,no warranty,Delivered
8/14/2017 6:24:39 PM,Thomas Ekelly,CA,Legacy for Sam's,DWA-9100DWA-9100BL-DEMO,Demo Black,Demo,,,,,3877.92,3599.00,278.92,Kamille Gines,CreditCard,0.00,,8/13/2017 12:00:00 AM,No,"3 years parts, 1 year labor (Free)",Delivered
8/14/2017 6:42:44 PM,Jose Venegas,CA,Relax2Zero 2.0 for Sam's,USJ-9050USJ-9050BR,Brown,New,,,,,3446.92,3199.00,247.92,Kamille Gines,CreditCard,0.00,,8/22/2017 12:00:00 AM,No,"3 years parts, 1 year labor (Free)",Delivered
8/14/2017 7:04:18 PM,Charles Richardson,TN,Vitality Plate,USJ-849USJ-849,New,New,,,,,504.84,459.99,44.85,Phuoc Van,CreditCard,0.00,,,No,"2 years parts, 1 year labor (Small Items)",Assigned
8/15/2017 2:12:05 AM,Tracy Beaver,TN,Legacy for Sam's,DWA-9100DWA-9100BL,Black,New,,,,,4718.15,4299.00,419.15,Phuoc Van,CreditCard,0.00,,8/29/2017 12:00:00 AM,No,"3 years parts, 1 year labor (Free)",Delivered
8/16/2017 6:26:33 PM,Tammy Coleman,FL,Legacy for Sam's,DWA-9100DWA-9100SB-DEMO,Demo Sienna Brown,Demo,,,,,3832.94,3599.00,233.94,Michael Cuatrona,CreditCard,0.00,,,YES,"3 years parts, 1 year labor (Free)",Cancelled
8/16/2017 6:34:09 PM,Kimberly Dobbs,FL,Legacy for Sam's,DWA-9100DWA-9100SB,Sienna Brown,New,,,,,3832.94,3599.00,233.94,Michael Cuatrona,CreditCard,0.00,,,No,"3 years parts, 1 year labor (Free)",Cancelled
8/16/2017 7:03:07 PM,Kimberly Dobbs,FL,Legacy for Sam's,DWA-9100DWA-9100SB,Sienna Brown,New,,,,,3832.94,3599.00,233.94,Michael Cuatrona,CreditCard,0.00,,8/13/2017 12:00:00 AM,No,"3 years parts, 1 year labor (Free)",Delivered
8/17/2017 7:14:31 PM,Test Order,FL,Relax2Zero 2.0 for Sam's,USJ-9050USJ-9050BL,Black,New,,,,,4173.00,3900.00,273.00,Jonathan Bhowani,CreditCard,0.00,,,No,"3 years parts, 1 year labor (Free)",Cancelled
8/17/2017 9:42:37 PM,Kristen Yorton,FL,Legacy for Sam's,DWA-9100DWA-9100CH,Choco,New,,,,,4599.93,4299.00,300.93,Jonathan Bhowani,CreditCard,0.00,,9/1/2017 12:00:00 AM,No,"3 years parts, 1 year labor (Free)",Delivered
8/17/2017 9:42:37 PM,Kristen Yorton,FL,Chair Pad for Lagacy,,,New,,,,,4599.93,4299.00,300.93,Jonathan Bhowani,CreditCard,0.00,,9/1/2017 12:00:00 AM,No,no warranty,Delivered
8/17/2017 11:29:35 PM,Richard Heitmeyer,FL,Foot Vides Pro,USJ-871,,New,,,,,117.69,109.99,7.70,Robert Shih,Cash,117.69,,8/17/2017 12:00:00 AM,No,"2 years parts, 1 year labor (Small Items)",Delivered
8/18/2017 6:41:36 PM,Don Fril,FL,Ninja Leg Massager,,,New,,,,,405.53,379.00,26.53,Jonathan Bhowani,CreditCard,0.00,,8/18/2017 12:00:00 AM,YES,"2 years parts, 1 year labor (Small Items)",Delivered
8/18/2017 7:47:16 PM,Margaret Taylor,FL,Ninja Leg Massager,,,New,,,,,405.53,379.00,26.53,Jonathan Bhowani,CreditCard,0.00,,,YES,"2 years parts, 1 year labor (Small Items)",Delivered
8/18/2017 8:58:27 PM,Bob Hatcher,FL,Legacy for Sam's,DWA-9100DWA-9100BL,Black,New,,,,,4599.93,4299.00,300.93,Robert Shih,CreditCard,4599.93,,9/1/2017 12:00:00 AM,No,"3 years parts, 1 year labor (Free)",Delivered
8/18/2017 11:59:09 PM,Zhou Zhu,FL,Legacy for Sam's,DWA-9100DWA-9100BL,Black,New,,,,,3850.93,3599.00,251.93,Robert Shih,CreditCard,0.00,,9/1/2017 12:00:00 AM,No,"2 years parts, 1 year labor (Small Items)",Delivered
8/19/2017 2:17:46 AM,Marcia Wilcox,CO,Legacy for Sam's,DWA-9100DWA-9100CH-DEMO,Demo Choco,Demo,,,,,3904.92,3599.00,305.92,Kristy Tran,CreditCard,0.00,,,No,"3 years parts, 1 year labor (Free)",Cancelled
8/19/2017 2:17:46 AM,Marcia Wilcox,CO,Chair Pad for Lagacy,,,New,,,,,3904.92,3599.00,305.92,Kristy Tran,CreditCard,0.00,,,No,no warranty,Cancelled
8/19/2017 4:40:52 PM,Stephen Curry,FL,Legacy for Sam's,DWA-9100DWA-9100CH,Choco,New,,,,,3850.93,3599.00,251.93,Robert Shih,CreditCard,0.00,,9/1/2017 12:00:00 AM,No,"2 years parts, 1 year labor (Small Items)",Delivered
8/19/2017 4:42:52 PM,Marcia Wilcox,CO,Legacy for Sam's,DWA-9100DWA-9100CH,Choco,New,,,,,3904.92,3599.00,305.92,Kristy Tran,CreditCard,0.00,,,No,"3 years parts, 1 year labor (Free)",Assigned
8/19/2017 4:57:25 PM,Evalee Winkler,CO,Foot Vibe Pro,USJ-871,,New,,,,,119.34,109.99,9.35,Kristy Tran,CreditCard,0.00,,,YES,"2 years parts, 1 year labor (Small Items)",Assigned
8/19/2017 4:58:02 PM,David Verhegge,FL,Legacy for Sam's,DWA-9100DWA-9100SB,Sienna Brown,New,,,,,4599.93,4299.00,300.93,Jonathan Bhowani,CreditCard,0.00,,8/31/2017 12:00:00 AM,No,"3 years parts, 1 year labor (Free)",Delivered
8/19/2017 4:58:59 PM,Richard Heitmeyer,FL,Ninja Leg Massager,,,New,,,,,405.53,379.00,26.53,Robert Shih,Cash,0.00,,8/19/2017 12:00:00 AM,YES,"2 years parts, 1 year labor (Small Items)",Delivered
8/19/2017 5:23:17 PM,Mario Higareda,TX,Legacy for Sam's,DWA-9100DWA-9100BL,Blue,New,,,,,17760.00,16400.00,1360.00,Mario Higareda,CreditCard,0.00,,,No,"3 years parts, 1 year labor (Free)",Cancelled
8/19/2017 5:51:07 PM,Raymond Leyba,CA,Legacy for Sam's,DWA-9100DWA-9100CH,Choco,New,,,,,4632.17,4299.00,333.17,Kohei Uno,CreditCard,0.00,,,No,"3 years parts, 3 years labor ($400)",Assigned
8/19/2017 5:51:07 PM,Raymond Leyba,CA,Chair Pad for Lagacy,,,New,,,,,4632.17,4299.00,333.17,Kohei Uno,CreditCard,0.00,,,No,no warranty,Assigned
8/19/2017 5:51:07 PM,Raymond Leyba,CA,Daiwa Blanket,,,New,,,,,4632.17,4299.00,333.17,Kohei Uno,CreditCard,0.00,,,No,no warranty,Assigned
8/19/2017 5:56:38 PM,Patrick Dios,FL,Foot Vibe Pro,USJ-871,,New,,,,,117.69,109.99,7.70,Robert Shih,CreditCard,0.00,,8/19/2017 12:00:00 AM,YES,"2 years parts, 1 year labor (Small Items)",Delivered
8/19/2017 7:19:36 PM,Dianne Doane-Bustetter,FL,Legacy for Sam's,DWA-9100DWA-9100SB,Sienna Brown,New,,,,,4599.93,4299.00,300.93,Robert Shih,CreditCard,0.00,,9/1/2017 12:00:00 AM,No,"3 years parts, 1 year labor (Free)",Delivered
8/19/2017 8:06:47 PM,Oscar Rivera,FL,Relax2Zero 2.0 for Sam's,USJ-9050USJ-9050BR,Brown,New,,,,,4173.00,3900.00,273.00,Robert Shih,CreditCard,0.00,,,No,"3 years parts, 1 year labor (Free)",Cancelled
8/19/2017 8:12:51 PM,Alice Dexter,FL,Foot Vibe Pro,USJ-871,,New,,,,,117.69,109.99,7.70,Robert Shih,CreditCard,0.00,,8/19/2017 12:00:00 AM,YES,"2 years parts, 1 year labor (Small Items)",Delivered
8/19/2017 11:05:17 PM,Chan Ju Christy Lee,CO,Legacy for Sam's,DWA-9100DWA-9100CH,Choco,New,,,,,4664.42,4299.00,365.42,Kristy Tran,CreditCard,0.00,,,No,"3 years parts, 1 year labor (Free)",Assigned
8/19/2017 11:15:47 PM,Jane Stephens,CO,Foot Vibe Pro,USJ-871,,New,,,,,119.34,109.99,9.35,Kristy Tran,CreditCard,0.00,,,YES,"2 years parts, 1 year labor (Small Items)",Assigned
8/19/2017 11:26:41 PM,Barbara Vallejos,CO,Legacy for Sam's,DWA-9100DWA-9100CH,Choco,New,,,,,4404.00,4058.99,345.01,Kristy Tran,CreditCard,0.00,,,No,"3 years parts, 1 year labor (Free)",Assigned
8/19/2017 11:26:41 PM,Barbara Vallejos,CO,Vitality Plate,USJ-849USJ-849,New,New,,,,,4404.00,4058.99,345.01,Kristy Tran,CreditCard,0.00,,,No,"2 years parts, 1 year labor (Small Items)",Assigned
8/20/2017 1:08:08 AM,Barbara Vallejos,CO,Legacy for Sam's,DWA-9100DWA-9100CH-DEMO,Demo Choco,Demo,,,,,3904.92,3599.00,305.92,Kristy Tran,CreditCard,0.00,,,No,"3 years parts, 1 year labor (Free)",Cancelled
8/20/2017 5:24:54 PM,Anthony Nguyen,CA,Legacy for Sam's,DWA-9100DWA-9100SB-DEMO,Demo Sienna Brown,Demo,,,,,3877.92,3599.00,278.92,Kohei Uno,CreditCard,0.00,,8/31/2017 12:00:00 AM,No,"3 years parts, 3 years labor ($400)",Delivered
8/20/2017 5:24:54 PM,Anthony Nguyen,CA,Chair Pad for Lagacy,,,New,,,,,3877.92,3599.00,278.92,Kohei Uno,CreditCard,0.00,,8/31/2017 12:00:00 AM,No,no warranty,Delivered
8/20/2017 5:57:44 PM,Anthony Nguyen,CA,Legacy for Sam's,DWA-9100DWA-9100SB-DEMO,Demo Sienna Brown,Demo,,,,,3877.92,3599.00,278.92,Kohei Uno,CreditCard,0.00,,8/31/2017 12:00:00 AM,No,"3 years parts, 3 years labor ($400)",Delivered
8/20/2017 5:57:44 PM,Anthony Nguyen,CA,Chair Pad for Lagacy,,,New,,,,,3877.92,3599.00,278.92,Kohei Uno,CreditCard,0.00,,8/31/2017 12:00:00 AM,No,no warranty,Delivered
8/20/2017 6:14:47 PM,Nina Geltz,FL,Foot Vibe Pro,USJ-871,,New,,,,,117.69,109.99,7.70,Jonathan Bhowani,CreditCard,0.00,,8/20/2017 12:00:00 AM,YES,"2 years parts, 1 year labor (Small Items)",Delivered
8/20/2017 7:28:13 PM,Mohammad Imran,CA,Relax2Zero 3D,DWA-9060USJ-9060BL,Black,New,,,,,3484.88,3300.00,184.88,Kaz Ohashi,Cash,100.00,,,No,"3 years parts, 1 year labor (Free)",Scheduled
8/20/2017 7:29:42 PM,Richard Kalback,FL,Legacy for Sam's,DWA-9100DWA-9100SB,Sienna Brown,New,,,,,3850.93,3599.00,251.93,Robert Shih,CreditCard,0.00,,9/5/2017 12:00:00 AM,No,"2 years parts, 1 year labor (Small Items)",Delivered
8/20/2017 7:59:14 PM,Ted Robson,FL,Ninja Leg Massager,,,New,,,,,405.53,379.00,26.53,Jonathan Bhowani,CreditCard,0.00,,,YES,"2 years parts, 1 year labor (Small Items)",Delivered
8/21/2017 3:26:10 PM,Maria & Jhon Terela,CO,Legacy for Sam's,DWA-9100DWA-9100CH-DEMO,Demo Choco,Demo,,,,,3896.28,3599.00,297.28,Tom Nguyen,CreditCard,0.00,,,No,"3 years parts, 1 year labor (Free)",Assigned
8/21/2017 3:54:03 PM,Cargle McManas,CO,Legacy for Sam's,DWA-9100DWA-9100CH-DEMO,Demo Choco,Demo,,,,,3896.28,3599.00,297.28,Tom Nguyen,CreditCard,0.00,,,No,"3 years parts, 1 year labor (Free)",Assigned
8/21/2017 4:38:59 PM,Oscar Rivera,FL,Relax2Zero 2.0 for Sam's,USJ-9050USJ-9050BR,Brown,New,,,,,4173.00,3900.00,273.00,Robert Shih,CreditCard,0.00,,9/1/2017 12:00:00 AM,No,"3 years parts, 1 year labor (Free)",Delivered
8/21/2017 4:58:25 PM,Vivi Serena,FL,Relax2Zero 2.0 for Sam's,USJ-9050USJ-9050BR,Brown,New,,,,,4173.00,3900.00,273.00,Robert Shih,CreditCard,0.00,,9/21/2017 12:00:00 AM,No,"3 years parts, 1 year labor (Free)",Delivered
8/21/2017 5:26:55 PM,Sandra Lara,CA,Relax2Zero 2.0 for Sam's,USJ-9050USJ-9050BR,Brown,New,,,,,4202.25,3900.00,302.25,Kohei Uno,CreditCard,0.00,,8/31/2017 12:00:00 AM,No,"3 years parts, 3 years labor ($400)",Delivered
8/21/2017 5:26:55 PM,Sandra Lara,CA,Chair Pad for Relax2Zero 2.0,,,New,,,,,4202.25,3900.00,302.25,Kohei Uno,CreditCard,0.00,,8/31/2017 12:00:00 AM,No,no warranty,Delivered
8/21/2017 5:26:55 PM,Sandra Lara,CA,Daiwa Blanket,,,New,,,,,4202.25,3900.00,302.25,Kohei Uno,CreditCard,0.00,,8/31/2017 12:00:00 AM,No,no warranty,Delivered
8/21/2017 9:00:02 PM,James Massey,FL,Foot Vibe Pro,USJ-871,,New,,,,,117.69,109.99,7.70,Robert Shih,CreditCard,0.00,,8/21/2017 12:00:00 AM,YES,"2 years parts, 1 year labor (Small Items)",Delivered
8/22/2017 3:58:22 PM,Keum S Chen,CO,Legacy for Sam's,DWA-9100DWA-9100BL,Black,New,,,,,3904.92,3599.00,305.92,Kristy Tran,CreditCard,0.00,,,No,"3 years parts, 1 year labor (Free)",Assigned
8/22/2017 4:24:20 PM,Charles Singuefield,TX,Legacy for Sam's,DWA-9100DWA-9100CH,Choco,New,,,,,4653.67,4299.00,354.67,Ana Barrera,CreditCard,0.00,,8/31/2017 12:00:00 AM,No,"3 years parts, 1 year labor (Free)",Delivered
8/22/2017 5:48:25 PM,Wayne Wilcox,FL,Foot Vibe Pro,USJ-871,,New,,,,,117.69,109.99,7.70,Jonathan Bhowani,CreditCard,0.00,,,YES,"2 years parts, 1 year labor (Small Items)",Delivered
8/22/2017 6:08:42 PM,Molly Quillin,FL,Legacy for Sam's,DWA-9100DWA-9100CH,Choco,New,,,,,4599.93,4299.00,300.93,Jonathan Bhowani,CreditCard,0.00,,9/1/2017 12:00:00 AM,No,"3 years parts, 1 year labor (Free)",Delivered
8/22/2017 6:08:42 PM,Molly Quillin,FL,Daiwa Blanket,,,New,,,,,4599.93,4299.00,300.93,Jonathan Bhowani,CreditCard,0.00,,9/1/2017 12:00:00 AM,No,no warranty,Delivered
8/23/2017 5:29:15 PM,John Sith,CA,Pegasus,DWA-9400Pegasus-BL,Black,New,,,,,4786.80,4470.00,316.80,Joseph Chan,CreditCard,200.00,Cash,,No,"3 years parts, 1 year labor (Free)",Hold
8/23/2017 6:53:20 PM,Delio Rodriguez,FL,Foot Vibe Pro,USJ-871,,New,,,,,117.69,109.99,7.70,Jonathan Bhowani,CreditCard,0.00,,,YES,"2 years parts, 1 year labor (Small Items)",Delivered
8/23/2017 7:57:25 PM,Stacey Johlman,FL,Legacy for Sam's,DWA-9100DWA-9100CH,Choco,New,,,,,4599.93,4299.00,300.93,Robert Shih,CreditCard,0.00,,,No,"3 years parts, 1 year labor (Free)",Hold
8/24/2017 12:22:52 AM,Ramanbhai Patel,FL,Legacy for Sam's,DWA-9100DWA-9100CH,Choco,New,,,,,3850.93,3599.00,251.93,Robert Shih,CreditCard,0.00,,9/1/2017 12:00:00 AM,No,"2 years parts, 1 year labor (Small Items)",Delivered
8/24/2017 9:15:02 PM,Rajesh Gupta,FL,Ninja Leg Massager,,,New,,,,,405.53,379.00,26.53,Jonathan Bhowani,CreditCard,0.00,,,YES,"2 years parts, 1 year labor (Small Items)",Delivered
8/25/2017 12:14:52 AM,Barbara Vallejos,CO,Legacy for Sam's,DWA-9100DWA-9100CH,Choco,New,,,,,4404.00,4058.99,345.01,Kristy Tran,CreditCard,0.00,,8/28/2017 12:00:00 AM,No,"3 years parts, 1 year labor (Free)",Delivered
8/25/2017 12:14:52 AM,Barbara Vallejos,CO,Vitality Plate,USJ-849USJ-849,New,New,,,,,4404.00,4058.99,345.01,Kristy Tran,CreditCard,0.00,,8/28/2017 12:00:00 AM,No,"2 years parts, 1 year labor (Small Items)",Delivered
8/26/2017 8:06:06 PM,Tom Malinak,FL,Legacy for Sam's,DWA-9100DWA-9100SB-DEMO,Demo Sienna Brown,Demo,,,,,3850.93,3599.00,251.93,Jonathan Bhowani,CreditCard,0.00,,9/1/2017 12:00:00 AM,No,"3 years parts, 1 year labor (Free)",Delivered
8/26/2017 11:16:52 PM,Timothy Staub,FL,Foot Vibe Pro,USJ-871,,New,,,,,117.69,109.99,7.70,Robert Shih,CreditCard,0.00,,,YES,"2 years parts, 1 year labor (Small Items)",Delivered
8/27/2017 1:24:38 AM,Naser Saghafi,TX,Legacy for Sam's,DWA-9100DWA-9100CH-DEMO,Demo Choco,Demo,,,,,3895.92,3599.00,296.92,Chris Tavira,CreditCard,0.00,,8/31/2017 12:00:00 AM,No,"3 years parts, 1 year labor (Free)",Delivered
8/27/2017 1:44:33 AM,Theresa Erol,IL,Legacy for Sam's,DWA-9100DWA-9100BL-DEMO,Demo Black,Demo,,,,,3886.92,3599.00,287.92,Emily Dow,CreditCard,0.00,,,No,"3 years parts, 1 year labor (Free)",Delivered
8/27/2017 1:59:32 AM,Leorard Adams,TX,Legacy for Sam's,DWA-9100DWA-9100GD-DEMO,Demo Gold,Demo,,,,,3895.92,3599.00,296.92,Chris Tavira,CreditCard,0.00,,8/31/2017 12:00:00 AM,No,"3 years parts, 1 year labor (Free)",Delivered
8/27/2017 2:10:49 AM,Andy Hieckman,TX,Legacy for Sam's,DWA-9100DWA-9100SB-DEMO,Demo Sienna Brown,Demo,,,,,3895.92,3599.00,296.92,Chris Tavira,CreditCard,0.00,,8/31/2017 12:00:00 AM,No,"3 years parts, 1 year labor (Free)",Delivered
8/27/2017 2:17:40 AM,Tameria Patzer,WA,Legacy,DWA-9100DWA-9100BL-DEMO,Demo Black,Demo,,,,,3931.20,3600.00,331.20,Joseph Chan,Synchrony,431.20,CreditCard,,YES,"3 years parts, 3 years labor ($400)",Assigned
8/27/2017 5:02:02 AM,Robert Clarke,TX,Legacy for Sam's,DWA-9100DWA-9100CH,Choco,New,,,,,4653.67,4299.00,354.67,Chris Tavira,CreditCard,0.00,,8/31/2017 12:00:00 AM,No,"3 years parts, 1 year labor (Free)",Delivered
8/27/2017 5:26:37 AM,Nancy Cersonsky,OK,Legacy for Sam's,DWA-9100DWA-9100BG,Beige,New,,,,,3900.42,3599.00,301.42,Gary Cyrlin,CreditCard,0.00,,9/1/2017 12:00:00 AM,No,"3 years parts, 1 year labor (Free)",Delivered
8/27/2017 5:26:37 AM,Nancy Cersonsky,OK,Chair Pad for Lagacy,,,New,,,,,3900.42,3599.00,301.42,Gary Cyrlin,CreditCard,0.00,,9/1/2017 12:00:00 AM,No,no warranty,Delivered
8/27/2017 5:26:37 AM,Nancy Cersonsky,OK,Daiwa Blanket,,,New,,,,,3900.42,3599.00,301.42,Gary Cyrlin,CreditCard,0.00,,9/1/2017 12:00:00 AM,No,no warranty,Delivered
8/27/2017 5:37:14 AM,Nan P. Ferguson,TX,Legacy for Sam's,DWA-9100DWA-9100BL,Black,New,,,,,4653.67,4299.00,354.67,Chris Tavira,CreditCard,0.00,,,No,"3 years parts, 1 year labor (Free)",Cancelled
8/27/2017 5:50:27 AM,Kevin Rutland,OK,Legacy for Sam's,DWA-9100DWA-9100CH,Choco,New,,,,,4659.04,4299.00,360.04,Gary Cyrlin,CreditCard,0.00,,9/1/2017 12:00:00 AM,No,"3 years parts, 1 year labor (Free)",Delivered
8/27/2017 5:50:27 AM,Kevin Rutland,OK,Chair Pad for Lagacy,,,New,,,,,4659.04,4299.00,360.04,Gary Cyrlin,CreditCard,0.00,,9/1/2017 12:00:00 AM,No,no warranty,Delivered
8/27/2017 5:50:27 AM,Kevin Rutland,OK,Daiwa Blanket,,,New,,,,,4659.04,4299.00,360.04,Gary Cyrlin,CreditCard,0.00,,9/1/2017 12:00:00 AM,No,no warranty,Delivered
8/27/2017 2:39:42 PM,Joe Janette,FL,Foot Vibe Pro,USJ-871,,New,,,,,117.69,109.99,7.70,Jonathan Bhowani,CreditCard,0.00,,,YES,"2 years parts, 1 year labor (Small Items)",Delivered
8/27/2017 4:53:50 PM,James Haynes,FL,Relax2Zero 3D,DWA-9060USJ-9060BL-DEMO,Demo Black,Demo,,,,,3943.38,3700.00,243.38,Ting Ritchie,Synchrony,0.00,,8/28/2017 12:00:00 AM,No,"3 years parts, 1 year labor (Free)",Delivered
8/27/2017 5:20:30 PM,Kyle Roddy,TX,Legacy for Sam's,DWA-9100DWA-9100CH,Choco,New,,,,,4653.67,4299.00,354.67,Chris Tavira,CreditCard,0.00,,8/31/2017 12:00:00 AM,No,"3 years parts, 1 year labor (Free)",Delivered
8/28/2017 6:15:50 AM,Michael Tipping,WA,Pegasus,DWA-9400Pegasus-BR-DEMO,Demo Choco Brown,Demo,,,,,5172.60,4800.00,372.60,Joseph Chan,CreditCard,5241.60,,8/31/2017 12:00:00 AM,No,"3 years parts, 3 years labor ($400)",Delivered
8/28/2017 6:23:08 AM,David Peccalaio,WA,Relax2Zero 3D,DWA-9060USJ-9060BL,Black,New,,,,,5205.36,4830.00,375.36,Joseph Chan,Synchrony,4560.00,,8/31/2017 12:00:00 AM,No,"3 years parts, 3 years labor ($400)",Delivered
8/28/2017 7:35:30 PM,Manoner Gandham,IL,Legacy for Sam's,DWA-9100DWA-9100CH-DEMO,Demo Choco,Demo,,,,,3886.92,3599.00,287.92,Emily Dow,CreditCard,3886.92,,,No,"3 years parts, 1 year labor (Free)",Delivered
8/28/2017 7:45:27 PM,Maria Raminez,IL,Legacy for Sam's,DWA-9100DWA-9100BL,Black,New,,,,,4642.92,4299.00,343.92,Emily Dow,CreditCard,4642.92,,,No,"3 years parts, 3 years labor ($400)",Cancelled
8/28/2017 9:55:05 PM,James Exendine,CO,Legacy for Sam's,DWA-9100DWA-9100BL,Black,New,,,,,3896.28,3599.00,297.28,Tom Nguyen,CreditCard,3896.28,,9/3/2017 12:00:00 AM,No,"3 years parts, 1 year labor (Free)",Delivered
8/28/2017 10:01:33 PM,Sharon Whitmore,CO,Legacy for Sam's,DWA-9100DWA-9100CH-DEMO,Demo Choco,Demo,,,,,3896.28,3599.00,297.28,Tom Nguyen,CreditCard,3896.28,,9/2/2017 12:00:00 AM,No,"3 years parts, 1 year labor (Free)",Delivered
8/28/2017 10:10:48 PM,Dorene Tadehara,CO,Relax2Zero 2.0 for Sam's,USJ-9050USJ-9050BR,Brown,New,,,,,4231.50,3900.00,331.50,Kristy Tran,CreditCard,4231.60,,9/2/2017 12:00:00 AM,No,"3 years parts, 1 year labor (Free)",Delivered
8/28/2017 10:19:44 PM,Mile High Pallet,AA,Relax2Zero 2.0 for Sam's,USJ-9050USJ-9050BL-DEMO,Demo Black,Demo,,,,,3470.92,3199.00,271.92,Kristy Tran,CreditCard,3470.92,,,No,"3 years parts, 1 year labor (Free)",Assigned
8/29/2017 7:09:58 PM,Henry Helton,FL,Foot Vibe Pro,USJ-871,,New,,,,,117.69,109.99,7.70,Alex Brackelsberg,CreditCard,0.00,,,YES,"2 years parts, 1 year labor (Small Items)",Delivered
8/29/2017 9:39:17 PM,Aaron Barnhardt,CA,Relax2Zero 3D,DWA-9060USJ-9060BL,Black,New,,,,,3590.50,3350.00,240.50,Kaz Ohashi,CreditCard,3590.50,,9/20/2017 12:00:00 AM,No,"3 years parts, 3 years labor ($400)",Delivered
8/29/2017 9:39:17 PM,Aaron Barnhardt,CA,Daiwa Blanket,,,New,,,,,3590.50,3350.00,240.50,Kaz Ohashi,CreditCard,3590.50,,9/20/2017 12:00:00 AM,No,no warranty,Delivered
8/29/2017 9:46:18 PM,Ibe Chan Leung,CA,Relax2Zero 3D,DWA-9060USJ-9060BL,Black,New,,,,,3590.50,3350.00,240.50,Kaz Ohashi,CreditCard,3590.50,,9/1/2017 12:00:00 AM,No,"3 years parts, 3 years labor ($400)",Delivered
8/29/2017 9:46:18 PM,Ibe Chan Leung,CA,Daiwa Blanket,,,New,,,,,3590.50,3350.00,240.50,Kaz Ohashi,CreditCard,3590.50,,9/1/2017 12:00:00 AM,No,no warranty,Delivered
8/29/2017 10:40:07 PM,Tina Dang,CA,Relax2Zero 3D,DWA-9060USJ-9060BL,Black,New,,,,,3590.50,3350.00,240.50,Kaz Ohashi,CreditCard,3590.50,,9/1/2017 12:00:00 AM,No,"3 years parts, 3 years labor ($400)",Delivered
8/29/2017 10:40:07 PM,Tina Dang,CA,Chair Pad for Relax2Zero 3D,,,New,,,,,3590.50,3350.00,240.50,Kaz Ohashi,CreditCard,3590.50,,9/1/2017 12:00:00 AM,No,no warranty,Delivered
8/29/2017 10:59:15 PM,Liching Ulrey,CA,Relax2Zero 3D,DWA-9060USJ-9060BL,Black,New,,,,,3590.50,3350.00,240.50,Kaz Ohashi,CreditCard,3590.50,,9/1/2017 12:00:00 AM,No,"3 years parts, 3 years labor ($400)",Delivered
8/30/2017 9:41:35 PM,Carol Deegan,TX,Legacy for Sam's,DWA-9100DWA-9100CH,Choco,New,,,,,4664.42,4299.00,365.42,Kristy Tran,PURCHASEORDER,0.00,,9/6/2017 12:00:00 AM,No,"3 years parts, 1 year labor (Free)",Delivered
8/31/2017 6:43:56 PM,Jessica Phung,CA,Legacy 3D,DWA-9150USJ-9150BL,Black,New,,,,,4719.38,4400.00,319.38,Jessica Phung,PURCHASEORDER,0.00,,,No,"3 years parts, 1 year labor (Free)",Cancelled
8/31/2017 6:43:56 PM,Jessica Phung,CA,Chair Pad for Lagacy 3D,,,New,,,,,4719.38,4400.00,319.38,Jessica Phung,PURCHASEORDER,0.00,,,No,no warranty,Cancelled
8/31/2017 6:43:56 PM,Jessica Phung,CA,Daiwa Blanket,,,New,,,,,4719.38,4400.00,319.38,Jessica Phung,PURCHASEORDER,0.00,,,No,no warranty,Cancelled
8/31/2017 6:43:56 PM,Jessica Phung,CA,Foot Pads for Lagacy 3D,,,New,,,,,4719.38,4400.00,319.38,Jessica Phung,PURCHASEORDER,0.00,,,No,no warranty,Cancelled
8/31/2017 10:58:17 PM,Troy Coffman,FL,Relax2Zero 2.0 for Sam's,USJ-9050USJ-9050BL-DEMO,Demo Black,Demo,,,,,3422.93,3199.00,223.93,Jonathan Bhowani,CreditCard,3422.93,,9/20/2017 12:00:00 AM,No,"3 years parts, 1 year labor (Free)",Delivered
