﻿Date,CustomerName,State,Zipcode,Description,productNo,Color,IsDemo,Net,ShippingFee,GiftPrice,FinancingProcessingFee,Gross,Pre_tax,Tax,Commission,Primary Payment Method,Primary Payment Balance,Primary Authorize Number,Primary Purchase Order Number,Primary Synchrony Account Number,Primary Synchrony Application Key,Primary Synchrony AccountInfo,Primary SynchronyTerm,Secondly Payment Method,Secondly Payment Balance,Secondly Authorize Number,Secondly Purchase Order Number,Secondly Synchrony Account Number,Secondly Synchrony Application Key,Secondly Synchrony AccountInfo,Secondly SynchronyTerm,Thirdly Payment Method,Thirdly Payment Balance,Thirdly Authorize Number,Thirdly Purchase Order Number,Thirdly Synchrony Account Number,Thirdly Synchrony Application Key,Thirdly Synchrony AccountInfo,Thirdly SynchronyTerm,DeliveryDate,Ispickup,Warranty,Status,Event Name,Synchrony Notes,Order Notes,Order number,Private Note,Branch,IsNoTax,ActualTaxRate
3/1/2018 9:42:37 PM,Charlotte Rudd,MS,39211,Vitality Plate for Sam's,USJ-849USJ-849,New,New,,,,,492.19,459.99,32.20,Gary Cyrlin,CreditCard,492.19,593086713898690564984,,,,,,,0.00,,,,,,,,0.00,,,,,,,,YES,"2 years parts, 1 year labor (Small Items)",Delivered,"Sam's Club #8271 MADISON, MS (TX)",,,104069,,TX,0,7.00
3/1/2018 9:46:24 PM,Walter Herbert,LA,70582,Vitality Plate for Sam's,USJ-849USJ-849,New,New,,,,,492.19,459.99,32.20,Gary Cyrlin,CreditCard,492.19,996421278022142617433,,,,,,,0.00,,,,,,,,0.00,,,,,,,,YES,"2 years parts, 1 year labor (Small Items)",Delivered,"Sam's Club #8271 MADISON, MS (TX)",,,104070,,TX,0,7.00
3/1/2018 9:49:40 PM,Richard Harrison,MS,39074,Vitality Plate for Sam's,USJ-849USJ-849,New,New,,,,,492.19,459.99,32.20,Gary Cyrlin,CreditCard,492.19,556340490242064801611,,,,,,,0.00,,,,,,,,0.00,,,,,,,,YES,"2 years parts, 1 year labor (Small Items)",Delivered,"Sam's Club #8271 MADISON, MS (TX)",,,104071,,TX,0,7.00
3/1/2018 9:52:57 PM,Lina Lynn,MS,39211,Vitality Plate for Sam's,USJ-849USJ-849,New,New,,,,,492.19,459.99,32.20,Gary Cyrlin,CreditCard,492.19,283827627929732106328,,,,,,,0.00,,,,,,,,0.00,,,,,,,,YES,"2 years parts, 1 year labor (Small Items)",Delivered,"Sam's Club #8271 MADISON, MS (TX)",,,104072,,TX,0,7.00
3/1/2018 9:56:42 PM,Quintina Brown,MS,39272,Foot Vibe Pro,USJ-871,,New,,,,,117.69,109.99,7.70,Gary Cyrlin,CreditCard,117.69,378573787121322465225,,,,,,,0.00,,,,,,,,0.00,,,,,,,,YES,"2 years parts, 1 year labor (Small Items)",Delivered,"Sam's Club #8271 MADISON, MS (TX)",,,104073,,TX,0,7.00
3/1/2018 9:59:36 PM,Amrit Arora,MS,39110,Foot Vibe Pro,USJ-871,,New,,,,,117.69,109.99,7.70,Gary Cyrlin,CreditCard,117.69,526533489190328451245,,,,,,,0.00,,,,,,,,0.00,,,,,,,,YES,"2 years parts, 1 year labor (Small Items)",Delivered,"Sam's Club #8271 MADISON, MS (TX)",,,104074,,TX,0,7.00
3/1/2018 10:02:42 PM,Buddy Bartling,MS,39110,Foot Vibe Pro,USJ-871,,New,,,,,117.69,109.99,7.70,Gary Cyrlin,CreditCard,117.69,217114734636474990732,,,,,,,0.00,,,,,,,,0.00,,,,,,,,YES,"2 years parts, 1 year labor (Small Items)",Delivered,"Sam's Club #8271 MADISON, MS (TX)",,,104075,,TX,0,7.00
3/1/2018 10:06:10 PM,Julia Williams,MS,39157,Foot Vibe Pro,USJ-871,,New,,,,,117.69,109.99,7.70,Gary Cyrlin,CreditCard,117.69,590655860353501246029,,,,,,,0.00,,,,,,,,0.00,,,,,,,,YES,"2 years parts, 1 year labor (Small Items)",Delivered,"Sam's Club #8271 MADISON, MS (TX)",,,104076,,TX,0,7.00
3/3/2018 7:35:53 PM,Jeffrey Powell,MS,39216,Legacy for Sam's,DWA-9100DWA-9100BL,New Black,New,,,,,4599.93,4299.00,300.93,Gary Cyrlin,CreditCard,4599.93,5923140871222063841641,,,,,,,0.00,,,,,,,,0.00,,,,,,,3/24/2018 12:00:00 AM,No,"3 years parts, 1 year labor (Free)",Delivered,"Sam's Club #8271 MADISON, MS (TX)",,,104097,,TX,0,7.00
3/3/2018 7:39:31 PM,Robert Tierce,MS,39157,Foot Vibe Pro,USJ-871,,New,,,,,117.69,109.99,7.70,Gary Cyrlin,CreditCard,117.69,705573463161329489255,,,,,,,0.00,,,,,,,,0.00,,,,,,,,No,"2 years parts, 1 year labor (Free)",Delivered,"Sam's Club #8271 MADISON, MS (TX)",,,104098,customer pick up items when he bought. 3/5/2018 June,TX,0,7.00
3/3/2018 7:44:03 PM,Claudine Erwin,MS,39056,Vitality Plate for Sam's,USJ-849USJ-849,New,New,,,,,492.19,459.99,32.20,Gary Cyrlin,CreditCard,492.19,829615540333501258099,,,,,,,0.00,,,,,,,,0.00,,,,,,,,YES,"2 years parts, 1 year labor (Free)",Delivered,"Sam's Club #8271 MADISON, MS (TX)",,,104099,,TX,0,7.00
3/3/2018 7:50:38 PM,Jennifer Carter,MS,39110,Foot Vibe Pro,USJ-871,,New,,,,,117.69,109.99,7.70,Gary Cyrlin,CreditCard,117.69,797769528555911027187,,,,,,,0.00,,,,,,,,0.00,,,,,,,,YES,"2 years parts, 1 year labor (Free)",Delivered,"Sam's Club #8271 MADISON, MS (TX)",,,104101,,TX,0,7.00
3/4/2018 5:51:28 PM,Jamie Harris,MS,39169,Foot Vibe Pro,USJ-871,,New,,,,,117.69,109.99,7.70,Gary Cyrlin,CreditCard,117.69,123300774202068860641,,,,,,,0.00,,,,,,,,0.00,,,,,,,,YES,"2 years parts, 1 year labor (Free)",Delivered,"Sam's Club #8271 MADISON, MS (TX)",,,104142,,TX,0,7.00
3/4/2018 5:59:28 PM,Christopher Lemelle,MS,39157,Foot Vibe Pro,USJ-871,,New,,,,,117.69,109.99,7.70,Gary Cyrlin,CreditCard,117.69,432046138868692573924,,,,,,,0.00,,,,,,,,0.00,,,,,,,,YES,"2 years parts, 1 year labor (Free)",Delivered,"Sam's Club #8271 MADISON, MS (TX)",,,104143,,TX,0,7.00
