﻿Original Event Name,Event Name,Sales Person,Order Number,Order Date,Customer Name,State,Zip,Product Name,Color,Product Status,QTY,Tax,Total Before Tax,Order Total,Primary Payment Method,Second Payment Method,Thirdl Payment Method,Warranty,Order Items,Pick up,Delivered On,Order Status,Chair Type,Order Notes,Private Note,Branch,No Tax,Actual Tax Rate,SKU,Primary Payment Balance,Primary Authorize Number,Primary Purchase Order Number,Primary Synchrony Account Number,Primary Synchrony Application Key,Primary Synchrony Account Info,Primary Synchrony Term,Primary Synchrony Primary ID,Primary Synchrony Issued State,Primary Synchrony Expiretion Date,Second Payment Balance,Second Authorize Number,Second Purchase Order Number,Second Synchrony Account Number,Second Synchrony Application Key,Second Synchrony Account Info,Second SynchronyTerm,Second Synchrony Primary ID,Second Synchrony Issued State,Second Synchrony Expiretion Date,Third Payment Balance,Third Authorize Number,Third Purchase Order Number,Third Synchrony Account Number,Third Synchrony Application Key,Third Synchrony Account Info,Third Synchrony Term,Third Synchrony Primary ID,Third Synchrony Issued State,Third Synchrony Expiretion Date
"KITSAP COUNTY FAIR 8/21-25/19 BREMERTON, WA","KITSAP COUNTY FAIR 8/21-25/19 BREMERTON, WA",May Kam,120413,8/21/2019 10:04:20 PM,Maria Olivas,WA,98311,Legacy,Demo Choco,Demo,1,0.00,3761.00,3761.00,Synchrony,,,"5 years parts, 1 year labor (Free)","Legacy,",No,,Cancelled,,"Pls make finance purchase $3760.50, thanks","Synchrony original verified. Credit available $6500. Remaining balance $3760.50. Charge synchrony account (3760.50) upon delivery, have sales draft signed-Erika 8/22/19 8:58am

Created new order # 120525; removed pending bal of $0.50 

CC (Voicemail) completed - Arisa 8/27/19 9:41am",WA,1,9.00,DWA-9100DWA-9100BU-DEMO,3760.50,,,6501723375286042,79966472,Las Vegas,36 months,Driver’s License,WA,09/2024,0.00,,,,,,,,,/,0.00,,,,,,,,,/
"KITSAP COUNTY FAIR 8/21-25/19 BREMERTON, WA","KITSAP COUNTY FAIR 8/21-25/19 BREMERTON, WA",May Kam,120414,8/21/2019 11:40:30 PM,Mr & Mrs Kishor,WA,98310,Relax 2 Zero 3D,Demo Black,Demo,1,0.00,3000.00,3000.00,Cash,COD,,"5 years parts, 1 year labor (Free)","Relax 2 Zero 3D,",No,,Scheduled,,"Special discount for one time pay. Pls change to new remote, request delivery : Tuesday and Wednesday","Original received. $200 cash deposit. May will turn in the office. Remaining balance $2800. Collect COD (2800) @ delivery.-Erika 8/22/19 9:02am
Voicemail not set up - Arisa 8/27/19 9:43am
CC completed, talked to Mr Kishor - Arisa 8/27/19 10:44am
Scheduled delivery for 8/31/19 - Yoko 8/28",WA,1,9.00,DWA-9060USJ-9060BL-DEMO,200.00,,,,,,,,,/,2800.00,,,,,,,,,/,0.00,,,,,,,,,/
"KITSAP COUNTY FAIR 8/21-25/19 BREMERTON, WA","KITSAP COUNTY FAIR 8/21-25/19 BREMERTON, WA",May Kam,120424,8/22/2019 11:32:08 PM,Mr & Mrs Sherry Petersen,WA,98366,Legacy 3D,Demo Choco,Demo,1,0.00,3888.00,3888.00,Synchrony,,,"5 years parts, 1 year labor (Free)","Legacy 3D,",No,8/30/2019 12:00:00 AM,Delivered,Demo,"Pls make finance $3888 purchase, thanks","Synchrony original verified. Credit available $9000. Remaining balance $3888. Charge synchrony account (3888) upon delivery, have sales draft signed-Erika 8/23/19 9:20am

CC completed - Arisa 8/27/19 9:47am
Delivery Scheduled for 8/30 3pm & Finance Charged - Yoko 8/28/19 10:54a
Confirmed signed sales draft and verified delivery confirmation - Arisa 9/18/19 11:35am",WA,1,9.00,DWA-9150USJ-9150CH-DEMO,3888.00,,,6501723375287156,80014833,Las Vegas,36 months,Driver’s License,WA,08/2024,0.00,,,,,,,,,/,0.00,,,,,,,,,/
"KITSAP COUNTY FAIR 8/21-25/19 BREMERTON, WA","KITSAP COUNTY FAIR 8/21-25/19 BREMERTON, WA",May Kam,120425,8/22/2019 11:39:17 PM,Mr & Mrs Scott Bolon,WA,98311,Legacy,New Choco,New,1,0.00,3800.00,3800.00,Credit Card,Credit Card,,"5 years parts, 1 year labor (Free)","Legacy,Tourmaline Pad for Legacy,",No,8/31/2019 12:00:00 AM,Delivered,New,"Special discount for one time pay, manager approval; COD $3600","Original received. Sq amount verified $200. Remaining balance $3600. Collect COD (3600) @ delivery-Erika 8/23/19 9:56am

CC(Voicemail) completed - Arisa 8/27/19 9:55am
Delivery scheduled on 8/31 11am to 2pm - Yoko 8/29/19
Customer names: Scott & Janice Bolon
email: sjbolon@yahoo.com

Received the delivery confirmation and confirmed the COD payment. 9/4/19 Riho",WA,1,9.00,DWA-9100DWA-9100BU,200.00,eDnq,,,,,,,,/,3600.00,DDdi,,,,,,,,/,0.00,,,,,,,,,/
"KITSAP COUNTY FAIR 8/21-25/19 BREMERTON, WA","KITSAP COUNTY FAIR 8/21-25/19 BREMERTON, WA",May Kam,120426,8/22/2019 11:47:26 PM,Mr & Mrs Theodore Kunges,WA,98383,Pegasus,New Choco,New,1,0.00,4500.00,4500.00,Synchrony,,,"5 years parts, 1 year labor (Free)","Pegasus,",No,8/30/2019 12:00:00 AM,Delivered,New,"Pls make finance $4500 purchase, thanks","Synchrony original verified. Credit available $9000, remaining balance $4500. Charge synchrony account upon delivery, have sales draft signed-Erika 8/23/19 10:07am

CC(Voicemail) completed - Arisa 8/27/19 10:00am
Delivery scheduled 8/30 10am. Finance charged- Yoko 8/28/19 10:20am

Confirmed signed sales draft and verified delivery confirmation - Arisa 9/18/19 11:28am",WA,1,9.00,DWA-9400Pegasus-BR,4500.00,,,6501723375287149,80014802,Las Vegas,36 months,Driver’s License,WA,06/2020,0.00,,,,,,,,,/,0.00,,,,,,,,,/
"KITSAP COUNTY FAIR 8/21-25/19 BREMERTON, WA","KITSAP COUNTY FAIR 8/21-25/19 BREMERTON, WA",May Kam,120449,8/25/2019 7:08:45 AM,Jason Warren,WA,98383,Relax 2 Zero 3D,New Black,New,1,0.00,4500.00,4500.00,Cash,COD,,"5 years parts, 1 year labor (Free)","Relax 2 Zero 3D,",No,,Delivered,,Cash received by Manager Scott,"Correction: Sales person is Scott Ishikawa (Informed by May -8/26/19 Riho)
Original received. Cash deposit $100 was received by Scott. Remaining balance $4400. Collect COD (4400) @ delivery (CASH DEAL)-Erika 8/26/19 4:26pm
CC(Voicemail) completed - Arisa 8/27/19 10:22am
Delivery Scheduled 8/30- yoko 8/28
Cash received COD $4400 by Scott 
Delivered.",WA,1,9.00,DWA-9060USJ-9060BL,100.00,,,,,,,,,/,4400.00,,,,,,,,,/,0.00,,,,,,,,,/
"KITSAP COUNTY FAIR 8/21-25/19 BREMERTON, WA","KITSAP COUNTY FAIR 8/21-25/19 BREMERTON, WA",Scott Ishikawa,120450,8/25/2019 7:23:02 AM,Susan Frank Clark,WA,98312,Relax 2 Zero 3D,Demo Choco,Demo,1,0.00,3300.00,3300.00,Cash,COD,,"5 years parts, 1 year labor (Free)","Relax 2 Zero 3D,",No,8/30/2019 12:00:00 AM,Delivered,,Cash received by Manager Scott,"Original received. $100 cash deposit verified & signed by Scott. Remaining balance $3200. Collect COD (3200) @ delivery. Cash deal.-Erika 8/26/19 10:53am

Courtesy text/email completed. The gentleman who took the call mentioned that there is no Susan Frank Clark there, so he may tell you the same. I sent an email to re-confirm the contact number. Will share if Susan gets back to me - Arisa 8/27/19 10:22am
Scheduled delivery for 8/31 - Yoko 8/28",WA,1,9.00,DWA-9060USJ-9060BR-DEMO,100.00,,,,,,,,,/,3200.00,,,,,,,,,/,0.00,,,,,,,,,/
"KITSAP COUNTY FAIR 8/21-25/19 BREMERTON, WA","KITSAP COUNTY FAIR 8/21-25/19 BREMERTON, WA",May Kam,120451,8/25/2019 7:40:25 AM,Mr & Mrs Cynthia Reddin,WA,98337,Pegasus,New Choco,New,1,0.00,4200.00,4200.00,Synchrony,,,"5 years parts, 1 year labor (Free)","Pegasus,",No,,Cancelled,,"Pls make finance $4200 purchase, thanks",pls disregard info was inputted wrong. NEW ORDER#120499-Erika 8/26/19 3:02pm,Not Dispatched,1,9.00,DWA-9400Pegasus-BR,4200.00,,,6501723375290549,80118122,Las Vegas,36 months,Driver’s License,WA,04/2022,0.00,,,,,,,,,/,0.00,,,,,,,,,/
"KITSAP COUNTY FAIR 8/21-25/19 BREMERTON, WA","KITSAP COUNTY FAIR 8/21-25/19 BREMERTON, WA",May Kam,120481,8/26/2019 1:22:45 AM,Karrie Bauer,WA,98340,Pegasus,Demo Choco,Demo,1,0.00,3350.00,3350.00,Cash,Credit Card,,"5 years parts, 1 year labor (Free)","Pegasus,",No,8/26/2019 12:00:00 AM,Delivered,,"Will deliver on Aug 26th, 2019
S/N 94160135D","Original received. Cash deposit $100 was verified and signed by May. She turned it in the office after the show ended. SQ amount verified $3250. Paid in full-Erika 8/26/19 11:42am
Delivered on 8/26/2019 Scott (input by Yoko)
Serial #94160135 Demo
Delivery confirmation completed. Verified payments, fully paid.-Erika 8/28/19 2:53pm",WA,1,9.00,DWA-9400Pegasus-BR-DEMO,100.00,,,,,,,,,/,3250.00,lF51,,,,,,,,/,0.00,,,,,,,,,/
"KITSAP COUNTY FAIR 8/21-25/19 BREMERTON, WA","KITSAP COUNTY FAIR 8/21-25/19 BREMERTON, WA",May Kam,120482,8/26/2019 1:47:11 AM,Dusty Vangelder,WA,98312,Pegasus,Demo Black,Demo,1,0.00,4032.00,4032.00,Synchrony,,,"5 years parts, 1 year labor (Free)","Pegasus,",No,8/26/2019 12:00:00 AM,Delivered,,"Pla make finance $4032 purchase, thanks","Delivered on 8/26/2019
Synchrony sales drafts processed on 8/26/2019 Scott
Synchrony original received. Per notes Scott has delivered and charged the customer. Waiting on  sales draft and delivery confirmation -Erika 8/26/19 11:54am
Serial #0501001170045 Demo Chair was delivered, sales draft signed-Erika 8/27/19 9:30am",WA,1,9.00,DWA-9400Pegasus-BL-DEMO,4032.00,,,6501723375290564,80118243,Las Vegas,48 months,Driver’s License,WA,06/2025,0.00,,,,,,,,,/,0.00,,,,,,,,,/
"KITSAP COUNTY FAIR 8/21-25/19 BREMERTON, WA","KITSAP COUNTY FAIR 8/21-25/19 BREMERTON, WA",May Kam,120499,8/26/2019 2:54:49 PM,Cynthia Reddin,WA,98337,Pegasus,New Choco,New,1,0.00,4200.00,4200.00,Synchrony,,,"5 years parts, 1 year labor (Free)","Pegasus,",No,,Printed,,,"Synchrony original verified. Credit available $6500. Remaining balance $4200. Charge synchrony account, upon delivery have sales draft signed-Erika 8/26/19 3:04pm
courtesy call completed-Erika",WA,1,9.00,DWA-9400Pegasus-BR,4200.00,,,6501723375290549,80118122,Las Vegas,36 months,Driver’s License,WA,04/2022,0.00,,,,,,,,,/,0.00,,,,,,,,,/
"KITSAP COUNTY FAIR 8/21-25/19 BREMERTON, WA","KITSAP COUNTY FAIR 8/21-25/19 BREMERTON, WA",May Kam,120506,8/26/2019 5:51:01 PM,mr & mrs THOMAS lee hawks,WA,99328,Pegasus,Demo Choco,Demo,1,0.00,3850.00,3850.00,Credit Card,COD,,"5 years parts, 1 year labor (Free)","Pegasus,",No,,Delivered,,,"Original received. SQ amount verified $200. Remaining balance $3650. Collect (3650) COD @ delivery-Erika 8/27/19 10:24am
CC completed - Arisa 8/27/19 2:01pm
Delivery Scheduled on 8/18/19 
Delivered on 8/18/19 
COD Credit Card Square #ZHF2",WA,1,9.00,DWA-9400Pegasus-BR-DEMO,200.00,jyPE,,,,,,,,/,3650.00,,,,,,,,,/,0.00,,,,,,,,,/
"KITSAP COUNTY FAIR 8/21-25/19 BREMERTON, WA","KITSAP COUNTY FAIR 8/21-25/19 BREMERTON, WA",May Kam,120507,8/26/2019 6:08:09 PM,MRS MAUREEN WHEETER,WA,98366,Legacy 3D,Demo Choco,Demo,1,0.00,3000.00,3000.00,Credit Card,COD,,"5 years parts, 1 year labor (Free)","Legacy 3D,",No,,Hold,,PLS HOLD TWO WEEKS FOR DELIVERY,"Original received. SQ amount verified $200. Remaining balance $2800. Collect COD (2800) @ delivery.-Erika 8/27/19 10:36am

PLEASE PUT ON HOLD. 
Customer wants this order on hold until she calls back due to financial situation, please follow up if she doesn't call in 2 months.  - Arisa 8/27/19 3:49pm",WA,1,9.00,DWA-9150USJ-9150CH-DEMO,200.00,vJOT,,,,,,,,/,2800.00,,,,,,,,,/,0.00,,,,,,,,,/
"KITSAP COUNTY FAIR 8/21-25/19 BREMERTON, WA","KITSAP COUNTY FAIR 8/21-25/19 BREMERTON, WA",Scott Ishikawa,120509,8/26/2019 7:06:31 PM,DEANDRIA SIMONS,WA,98367,Legacy 3D,New Black,New,1,0.00,3500.00,3500.00,Credit Card,,,"5 years parts, 1 year labor (Free)","Legacy 3D,",No,9/7/2019 12:00:00 AM,Delivered,New,,"Original received. SQ amount verified $3500. Paid in full.-Erika 8/27/19 10:40am
courtesy call completed-Erika 8/27/19 2:52pm
Delivery scheduled on 9/7 9:00am -Yoko 8/28/19
Billing Address is PO Box 1341, Bremerton 98337
Delivery conf completed-Erika 9/12/19 3:30pm",WA,1,9.00,DWA-9150USJ-9150BL,3500.00,JTK8,,,,,,,,/,0.00,,,,,,,,,/,0.00,,,,,,,,,/
"KITSAP COUNTY FAIR 8/21-25/19 BREMERTON, WA","KITSAP COUNTY FAIR 8/21-25/19 BREMERTON, WA",Scott Ishikawa,120510,8/26/2019 7:21:43 PM,ROBERTA FAY NELSON,WA,98367,Tech Touch,Demo Choco,Demo,1,0.00,3000.00,3000.00,Credit Card,,,"5 years parts, 1 year labor (Free)","Tech Touch,",No,8/26/2019 12:00:00 AM,Delivered,Demo,,Original received. SQ amount verified $3000. Paid in full. Chair was delivered.-Erika 8/27/19 9:08am,WA,1,9.00,DWA-9200USJ-9250CH-DEMO,3000.00,mXBO,,,,,,,,/,0.00,,,,,,,,,/,0.00,,,,,,,,,/
"KITSAP COUNTY FAIR 8/21-25/19 BREMERTON, WA","KITSAP COUNTY FAIR 8/21-25/19 BREMERTON, WA",Scott Ishikawa,120511,8/26/2019 7:29:42 PM,ASRAE WESSELER LOONEY,WA,98310,Legacy 3D,New Black,New,1,0.00,4000.00,4000.00,Cash,Credit Card,,"5 years parts, 1 year labor (Free)","Legacy 3D,",No,8/31/2019 12:00:00 AM,Delivered,New,,"Original received. $20 cash deposit verified & signed by Scott. Remaining balance $3980. Collect COD (3980)@ delivery-Erika 8/27/19 10:16am
courtesy call completed-Erika 8/27/19 2:56pm
Scheduled Delivery for 8/31 10am - Yoko 8/29/19

Received the delivery confirmation and confirmed the COD payment. 9/4/19 Riho",WA,1,9.00,DWA-9150USJ-9150BL,20.00,,,,,,,,,/,3980.00,cR6A,,,,,,,,/,0.00,,,,,,,,,/
"KITSAP COUNTY FAIR 8/21-25/19 BREMERTON, WA","KITSAP COUNTY FAIR 8/21-25/19 BREMERTON, WA",May Kam,120512,8/26/2019 8:25:25 PM,GREGORY ABEL,WA,98311,Legacy 3D,New Black,New,1,0.00,3720.00,3720.00,Synchrony,,,"5 years parts, 1 year labor (Free)","Legacy 3D,",No,9/4/2019 12:00:00 AM,Delivered,New,PLS MAKE FINANCE  CHARGE $3720,"-Give free Tourmaline pad on delivery with chair
Synchrony original verified. Credit available $7000. Remaining balance $3720. Charge synchrony account upon delivery, have sales draft signed-Erika 8/27/19 10:20am
courtesy call completed-Erika 8/27/19 3:00pm
Delivery scheduled on 8/31 12:00pm & Synchrony processed - Yoko 8/29

Received the delivery confirmation and sales draft signed. 9/4/19 Riho",WA,1,9.00,DWA-9150USJ-9150BL,3720.00,,,6501723375293683,80207827,Las Vegas,24 months,Driver’s License,WA,02/2020,0.00,,,,,,,,,/,0.00,,,,,,,,,/
"KITSAP COUNTY FAIR 8/21-25/19 BREMERTON, WA","KITSAP COUNTY FAIR 8/21-25/19 BREMERTON, WA",May Kam,120513,8/26/2019 8:45:41 PM,LYLE WARMBO,WA,98366,Legacy 3D,Demo Choco,Demo,1,0.00,4033.00,4033.00,Synchrony,,,"5 years parts, 1 year labor (Free)","Legacy 3D,",No,9/4/2019 12:00:00 AM,Delivered,Demo,"PLS MAKE FINANCE CHARGE $4033, THANKS;","Synchrony original verified. Credit available $6500. Remaining balance $4033. Charge synchrony account (4033) upon delivery, have sales draft signed.-Erika 8/27/19 10:06am
Pls confirm Delivery Address: 3779 Ne Rova Rd poulsbo Wa 98370
courtesy call completed-Erika 8/27/19 3:01pm

Delivery scheduled 9/4 12p & Synchrony processed - Yoko 8/29/19
Delivery conf completed,sales draft signed. Auth#030075-Erika 9/11/19 3:30pm",WA,1,9.00,DWA-9150USJ-9150CH-DEMO,4033.00,,,6501723375293691,80208285,Las Vegas,48 months,Driver’s License,WA,07/2020,0.00,,,,,,,,,/,0.00,,,,,,,,,/
"KITSAP COUNTY FAIR 8/21-25/19 BREMERTON, WA","KITSAP COUNTY FAIR 8/21-25/19 BREMERTON, WA",May Kam,120516,8/27/2019 7:03:48 AM,james makinson,WA,98346,Pegasus,Demo Black,Demo,1,0.00,3800.00,3800.00,Synchrony,,,"5 years parts, 1 year labor (Free)","Pegasus,",No,9/4/2019 12:00:00 AM,Delivered,Demo,pls make finance $3800 purchase,"Synchrony original verified. Credit available $3800. Charge synchrony account (3800) upon delivery, have sales draft signed-Erika 8/27/19 10:02am
courtesy call completed-Erika 8/27/19 3:12pm
Customer called back. Erica tried to call back and explain what the call was for but no VM was able to be left.
Delivery scheduled for 9/4 9am & Synchrony processed - Yoko 8/29
Delivery conf completed, sales draft signed. auth#029147-Erika 9/11/19 3:27pm",WA,1,9.00,DWA-9400Pegasus-BL-DEMO,3800.00,,,6501723375293766,80212928,Las Vegas,24 months,Driver’s License,WA,01/2022,0.00,,,,,,,,,/,0.00,,,,,,,,,/
"KITSAP COUNTY FAIR 8/21-25/19 BREMERTON, WA","KITSAP COUNTY FAIR 8/21-25/19 BREMERTON, WA",May Kam,120517,8/27/2019 7:16:26 AM,sierra herbertwest,WA,98346,Pegasus,Demo Black,Demo,1,0.00,4033.00,4033.00,Synchrony,,,"5 years parts, 1 year labor (Free)","Pegasus,",No,9/4/2019 12:00:00 AM,Delivered,Demo,"pls make finance $4033 purchase, thanks","Synchrony original verified. Credit available $6800. Remaining balance $4033. Charge synchrony account (4033)  upon delivery, have sales draft signed.-Erika 8/27/19 9:51am pls deliver cover sheet with chair
courtesy call completed-Erika 8/27/19 3:15pm
delivery scheduled on 9/4 11am & Synchrony processed - Yoko 8/29
Delivery  conf completed,sales draft signed-Erika 9/11/19 3:22pm",WA,1,9.00,DWA-9400Pegasus-BL-DEMO,4033.00,,,6501723375290556,80118194,Las Vegas,48 months,Driver’s License,WA,03/2020,0.00,,,,,,,,,/,0.00,,,,,,,,,/
"KITSAP COUNTY FAIR 8/21-25/19 BREMERTON, WA","KITSAP COUNTY FAIR 8/21-25/19 BREMERTON, WA",May Kam,120518,8/27/2019 7:24:33 AM,loara newquist,WA,98311,Pegasus,New Black,New,1,0.00,4500.00,4500.00,Synchrony,,,"5 years parts, 1 year labor (Free)","Pegasus,",No,8/31/2019 12:00:00 AM,Delivered,New,"pls make finance $4500 purchase, thanks","Synchrony original received. Credit available $5000. Remaining balance $4500. Charge synchrony account upon delivery, have sales draft signed-Erika 8/27/19 9:57am
courtesy call completed-Erika 8/27/19 3:17pm
delivery scheduled 8/31 1pm & Synchrony processed - Yoko 8/29

Received the delivery confirmation and sales draft signed. 9/4/19 Riho",WA,1,9.00,DWA-9400Pegasus-BL,4500.00,,,6501723375293741,80212690,Las Vegas,48 months,Driver’s License,WA,10/2020,0.00,,,,,,,,,/,0.00,,,,,,,,,/
"KITSAP COUNTY FAIR 8/21-25/19 BREMERTON, WA","KITSAP COUNTY FAIR 8/21-25/19 BREMERTON, WA",May Kam,120519,8/27/2019 7:40:17 AM,BURNAZE BETANCOURT,WA,98546,Pegasus,New Choco,New,1,0.00,4800.00,4800.00,Synchrony,,,"5 years parts, 1 year labor (Free)","Pegasus,",No,9/7/2019 12:00:00 AM,Delivered,New,"PLS MAKE FINANCE $4800 PURCHASE, THANKS","Synchrony original verified. Credit available $6500. Remaining balance $4800. Charge synchrony account (4800) upon delivery, have sales draft signed-Erika 8/27/19 9:45am
courtesy call completed-Erika 8/27/19 3:20pm
Delivery scheduled on 9/7 /19 11am & Synchrony processed - Yoko 8/29
SYNCHRONY Authorization Code: 029666
CELL #: 360-440-0861
Delivery conf completed,missing sales draft, will request from WA branch -Erika 9/12/19 3:20pm",WA,1,9.00,DWA-9400Pegasus-BR,4800.00,,,6501723375293774,80213449,Las Vegas,36 months,Driver’s License,WA,09/2020,0.00,,,,,,,,,/,0.00,,,,,,,,,/
"KITSAP COUNTY FAIR 8/21-25/19 BREMERTON, WA","KITSAP COUNTY FAIR 8/21-25/19 BREMERTON, WA",May Kam,120525,8/28/2019 11:50:13 AM,Maria Olivas,WA,98311,Legacy,Demo Choco,Demo,1,0.00,3760.50,3760.50,Synchrony,,,"5 years parts, 1 year labor (Free)","Legacy,",No,8/31/2019 12:00:00 AM,Delivered,Demo,,"(Copied Notes): Synchrony original verified. Credit available $6500. Remaining balance $3760.50. Charge synchrony account (3760.50) upon delivery, have sales draft signed-Erika 8/22/19 8:58am

Cristina re created order to remove remaining balance of .50 cents- Previous order # 120413 Previous order has now been marked as cancelled.- Cristina 08/28/19 11:53 am
Delivery scheduled for 8/31/19 9am  - Yoko 8/28
Synchrony charged -Yoko 8/29 9:49am

Received and confirmed the delivery confirmation and the signed sales draft. 9/4/19 Riho",WA,1,9.00,DWA-9100DWA-9100BU-DEMO,3760.50,,,6501723375286042,79966472,Las Vegas,36 months,Driver’s License,WA,09/2024,0.00,,,,,,,,,/,0.00,,,,,,,,,/
