﻿Original Event Name,Event Name,Sales Person,Order Number,Order Date,Customer Name,State,Zip,Product Name,Color,Product Status,QTY,Tax,Total Before Tax,Order Total,Primary Payment Method,Second Payment Method,Thirdl Payment Method,Warranty,Order Items,Pick up,Delivered On,Order Status,Chair Type,Order Notes,Private Note,Branch,No Tax,Actual Tax Rate,SKU,Primary Payment Balance,Primary Authorize Number,Primary Purchase Order Number,Primary Synchrony Account Number,Primary Synchrony Application Key,Primary Synchrony Account Info,Primary Synchrony Term,Primary Synchrony Primary ID,Primary Synchrony Issued State,Primary Synchrony Expiretion Date,Second Payment Balance,Second Authorize Number,Second Purchase Order Number,Second Synchrony Account Number,Second Synchrony Application Key,Second Synchrony Account Info,Second SynchronyTerm,Second Synchrony Primary ID,Second Synchrony Issued State,Second Synchrony Expiretion Date,Third Payment Balance,Third Authorize Number,Third Purchase Order Number,Third Synchrony Account Number,Third Synchrony Application Key,Third Synchrony Account Info,Third Synchrony Term,Third Synchrony Primary ID,Third Synchrony Issued State,Third Synchrony Expiretion Date
"Texas Home & Garden Show (10/26-10/28/2018) San Antonio, TX","Texas Home & Garden Show (10/26-10/28/2018) San Antonio, TX",Keith Kei,110753,10/29/2018 3:12:33 PM,Misty Dawn Blocker,TX,78070,Legacy 3D,New Choco,New,1,0.00,4221.75,4221.75,CreditCard,,,"5 years parts, 1 year labor (Free)","Legacy 3D,",No,11/13/2018 12:00:00 AM,Delivered,New,,"Confirmed $4,221.75 in Square. 10/29/18 Hitomi",TX,1,8.25,DWA-9150USJ-9150CH,4221.75,4kS5,,,,,,,,,0.00,,,,,,,,,,0.00,,,,,,,,,
"Texas Home & Garden Show (10/26-10/28/2018) San Antonio, TX","Texas Home & Garden Show (10/26-10/28/2018) San Antonio, TX",Keith Kei,110754,10/29/2018 3:17:27 PM,Antonio A Gonzalez,TX,78542,Relax2Zero 3D,Demo Choco,Demo,1,0.00,4330.00,4330.00,Synchrony,CreditCard,,"5 years parts, 1 year labor (Free)","Relax2Zero 3D,",No,11/14/2018 12:00:00 AM,Delivered,New,,"Confirmed $1,330.00 in Square. SYNC $3,000 under MARY GONZALEZ. Original needs to be confirmed. 10/30/18 Hitomi//Confirmed original.***Please charge $3,000 before delivery and have MARY to sign sales draft. *** 10/31/18 Hitomi
11/1Maritza Courtesy message sent at 1PM",CA,1,8.25,DWA-9060USJ-9060BR-DEMO,3000.00,,,6019170813211494,96276742,Huston,24 months,,,,1330.00,NdiH,,,,,,,,,0.00,,,,,,,,,
