﻿Date,CustomerName,State,Zipcode,Description,productNo,Color,IsDemo,Net,ShippingFee,GiftPrice,FinancingProcessingFee,Gross,Pre_tax,Tax,Commission,Primary Payment Method,Primary Payment Balance,Primary Authorize Number,Primary Purchase Order Number,Primary Synchrony Account Number,Primary Synchrony Application Key,Primary Synchrony AccountInfo,Primary SynchronyTerm,Secondly Payment Method,Secondly Payment Balance,Secondly Authorize Number,Secondly Purchase Order Number,Secondly Synchrony Account Number,Secondly Synchrony Application Key,Secondly Synchrony AccountInfo,Secondly SynchronyTerm,Thirdly Payment Method,Thirdly Payment Balance,Thirdly Authorize Number,Thirdly Purchase Order Number,Thirdly Synchrony Account Number,Thirdly Synchrony Application Key,Thirdly Synchrony AccountInfo,Thirdly SynchronyTerm,DeliveryDate,Ispickup,Warranty,Status,Event Name,Synchrony Notes,Order Notes,Order number,Private Note,Branch,IsNoTax,ActualTaxRate
1/23/2018 2:37:02 PM,Mustafa Osman,CA,92029,Legacy for Sam's,DWA-9100DWA-9100BL,Black,New,,,,,3958.90,3599.00,359.90,Kamille Gines,CreditCard,3958.90,TC# 9025383753144721301626,,,,,,,0.00,,,,,,,,0.00,,,,,,,2/13/2018 12:00:00 AM,No,"3 years parts, 1 year labor (Free)",Delivered,Sam's Club #6614 El Monte (CA) 1/18-1/28/18,,,103211,"Deliver new Chair
01/26/18- printed",CA,0,10.00
1/25/2018 11:41:05 PM,Arturo Romero,CA,91732,Vitality Plate for Sam's,USJ-849USJ-849,New,New,,,,,505.99,459.99,46.00,Kamille Gines,CreditCard,505.99,tc# 875232902412382222979,,,,,,,0.00,,,,,,,,0.00,,,,,,,,YES,"2 years parts, 1 year labor (Small Items)",Delivered,Sam's Club #6614 El Monte (CA) 1/18-1/28/18,,,103248,,CA,0,10.00
1/25/2018 11:48:53 PM,Ling Ling Huang,CA,91007,Vitality Plate for Sam's,USJ-849USJ-849,New,New,,,,,505.99,459.99,46.00,Kamille Gines,CreditCard,505.99,TC# 646635197373801511464,,,,,,,0.00,,,,,,,,0.00,,,,,,,,YES,"2 years parts, 1 year labor (Small Items)",Delivered,Sam's Club #6614 El Monte (CA) 1/18-1/28/18,,,103249,,CA,0,10.00
1/25/2018 11:56:05 PM,Hugo Zacarias,CA,90033,Vitality Plate for Sam's,USJ-849USJ-849,New,New,,,,,505.99,459.99,46.00,Kamille Gines,CreditCard,505.99,TC# 789401035030942124878,,,,,,,0.00,,,,,,,,0.00,,,,,,,,YES,"2 years parts, 1 year labor (Small Items)",Delivered,Sam's Club #6614 El Monte (CA) 1/18-1/28/18,,,103250,,CA,0,10.00
1/26/2018 12:01:48 AM,Josephine Zuniga,CA,91733,Vitality Plate for Sam's,USJ-849USJ-849,New,New,,,,,505.99,459.99,46.00,Kamille Gines,CreditCard,505.99,TC# 141086244855097678313,,,,,,,0.00,,,,,,,,0.00,,,,,,,,YES,"2 years parts, 1 year labor (Small Items)",Delivered,Sam's Club #6614 El Monte (CA) 1/18-1/28/18,,,103251,,CA,0,10.00
1/26/2018 12:13:15 AM,Natalia Chandra,CA,91750,Foot Vibe Pro,USJ-871,,New,,,,,241.98,219.98,22.00,Kamille Gines,CreditCard,241.98,,,,,,,,0.00,,,,,,,,0.00,,,,,,,,YES,"2 years parts, 1 year labor (Small Items)",Delivered,Sam's Club #6614 El Monte (CA) 1/18-1/28/18,,,103252,No TC#. confirmed the sales report of Sam's club El Monte (CA) .2/5/18 Hitomi,CA,0,10.00
1/26/2018 12:22:14 AM,Hong T Lim,CA,91732,Foot Vibe Pro,USJ-871,,New,,,,,120.99,109.99,11.00,Kamille Gines,Cash,109.99,,,,,,,,0.00,,,,,,,,0.00,,,,,,,,YES,"2 years parts, 1 year labor (Small Items)",Delivered,Sam's Club #6614 El Monte (CA) 1/18-1/28/18,,,103253,No TC#. confirmed the sales report of Sam's club El Monte (CA) .2/5/18 Hitomi,CA,0,10.00
1/26/2018 12:28:26 AM,Lu Xia Tsang,CA,91780,Foot Vibe Pro,USJ-871,,New,,,,,120.99,109.99,11.00,Kamille Gines,CreditCard,120.99,TC# 430124423665178483565,,,,,,,0.00,,,,,,,,0.00,,,,,,,,YES,"2 years parts, 1 year labor (Small Items)",Delivered,Sam's Club #6614 El Monte (CA) 1/18-1/28/18,,,103254,,CA,0,10.00
1/27/2018 8:46:19 PM,roberto carranza,CA,91731,Foot Vibe Pro,USJ-871,,New,,,,,241.98,219.98,22.00,Kamille Gines,CreditCard,241.98,TC# 704655391393809510474,,,,,,,0.00,,,,,,,,0.00,,,,,,,,YES,"2 years parts, 1 year labor (Small Items)",Delivered,Sam's Club #6614 El Monte (CA) 1/18-1/28/18,,,103309,,CA,0,10.00
1/27/2018 8:50:16 PM,Benjamin Chan,CA,91007,Vitality Plate for Sam's,USJ-849USJ-849-DEMO,Demo,Demo,,,,,439.99,399.99,40.00,Kamille Gines,CreditCard,439.99,TC# 610789272552613934232,,,,,,,0.00,,,,,,,,0.00,,,,,,,,YES,"2 years parts, 1 year labor (Small Items)",Delivered,Sam's Club #6614 El Monte (CA) 1/18-1/28/18,,,103311,,CA,0,10.00
1/27/2018 8:54:04 PM,Patricia chen,CA,91776,Vitality Plate for Sam's,USJ-849USJ-849-DEMO,Demo,Demo,,,,,439.99,399.99,40.00,Kamille Gines,CreditCard,439.99,TC# 600789578500613935232,,,,,,,0.00,,,,,,,,0.00,,,,,,,,YES,"2 years parts, 1 year labor (Small Items)",Delivered,Sam's Club #6614 El Monte (CA) 1/18-1/28/18,,,103313,,CA,0,10.00
1/27/2018 8:58:32 PM,Helen Chung,CA,91776,Legacy for Sam's,DWA-9100DWA-9100BL,Black,New,,,,,3958.90,3599.00,359.90,Kamille Gines,CreditCard,3958.90,TC# 0891934722699176486575,,,,,,,0.00,,,,,,,,0.00,,,,,,,2/7/2018 12:00:00 AM,No,"3 years parts, 1 year labor (Free)",Delivered,Sam's Club #6614 El Monte (CA) 1/18-1/28/18,,,103315,"Please deliver new chair
01/30/18-cristina printed",CA,0,10.00
1/28/2018 9:05:57 PM,Wayne Tang,CA,91780,Legacy for Sam's,DWA-9100DWA-9100CH,Choco,New,,,,,3958.90,3599.00,359.90,Kamille Gines,CreditCard,3958.90,TC# 2730916142855098678393,,,,,,,0.00,,,,,,,,0.00,,,,,,,2/7/2018 12:00:00 AM,No,"3 years parts, 1 year labor (Free)",Delivered,Sam's Club #6614 El Monte (CA) 1/18-1/28/18,,,103349,"Please deliver new chair
01/30/18-cristina printed",CA,0,10.00
2/5/2018 12:20:47 PM,Daiwa Massage,CA,90249,Foot Vibe Pro,USJ-871,,New,,,,,241.98,219.98,22.00,Kamille Gines,PurchaseOrder,241.98,,,,,,,,0.00,,,,,,,,0.00,,,,,,,,YES,"2 years parts, 1 year labor (Small Items)",Delivered,Sam's Club #6614 El Monte (CA) 1/18-1/28/18,,,103489,No TC#. confirmed the sales report of Sam's club El Monte (CA) .2/5/18 Hitomi,CA,0,10.00
