﻿Original Event Name,Event Name,Sales Person,Order Number,Order Date,Customer Name,State,Zip,Product Name,Color,Product Status,QTY,Tax,Total Before Tax,Order Total,Primary Payment Method,Second Payment Method,Thirdl Payment Method,Warranty,Order Items,Pick up,Delivered On,Order Status,Chair Type,Order Notes,Private Note,Branch,No Tax,Actual Tax Rate,SKU,Primary Payment Balance,Primary Authorize Number,Primary Purchase Order Number,Primary Synchrony Account Number,Primary Synchrony Application Key,Primary Synchrony Account Info,Primary Synchrony Term,Primary Synchrony Primary ID,Primary Synchrony Issued State,Primary Synchrony Expiretion Date,Second Payment Balance,Second Authorize Number,Second Purchase Order Number,Second Synchrony Account Number,Second Synchrony Application Key,Second Synchrony Account Info,Second SynchronyTerm,Second Synchrony Primary ID,Second Synchrony Issued State,Second Synchrony Expiretion Date,Third Payment Balance,Third Authorize Number,Third Purchase Order Number,Third Synchrony Account Number,Third Synchrony Application Key,Third Synchrony Account Info,Third Synchrony Term,Third Synchrony Primary ID,Third Synchrony Issued State,Third Synchrony Expiretion Date
"Lotte Plaza Market, Orlando 11/29 - 12/01, 2019 (FL)","Lotte Plaza Market, Orlando 11/29 - 12/01, 2019 (FL)",May Kam,122798,12/2/2019 12:33:33 PM,Samuel Moon,FL,34711,Legacy,Demo Black,Demo,1,137.32,2862.68,3000.00,Credit Card,Cash,,"5 years parts, 1 year labor (Free)","Legacy,Tourmaline Pad for Legacy,Daiwa Blanket,",No,12/3/2019 12:00:00 AM,Delivered,Demo,cash discount (COD cash 2900) Deliver 12/3/19 S#91155396,"Daiwa Blanket & Tourmaline Pad & Remote pocket (Free Gifts)
S#91155396
original received. $100 verified on SQ. remaining bal $2900. Collect COD (cash) @ delivery-Erika 12/2/19 2:23pm
12/1Maritza- Shipping out tourmaline pad remote pocket and blanket
Delivery conf completed, COD was paid in cash verified by Maggie Q-Erika 12/27/19 11:22am",FL,0,6.50,DWA-9100DWA-9100BL-DEMO,100.00,sq#yqc4,,,,,,,,/,2900.00,,,,,,,,,/,0.00,,,,,,,,,/
"Lotte Plaza Market, Orlando 11/29 - 12/01, 2019 (FL)","Lotte Plaza Market, Orlando 11/29 - 12/01, 2019 (FL)",May Kam,122806,12/2/2019 6:58:46 PM,Mr & Mrs Samuel Moon,FL,34711,Legacy,Demo Black,Demo,1,0.00,3000.00,3000.00,Credit Card,COD,,"5 years parts, 1 year labor (Free)","Legacy,Tourmaline Pad for Legacy,Daiwa Blanket,",No,,Cancelled,,"Arms both sides with Scratches, special discount ; please add one remote holder, requested delivery on Dec 3,2019 , will pay $2900 in cash .",,FL,1,6.50,DWA-9100DWA-9100BL-DEMO,100.00,YqC4,,,,,,,,/,0.00,,,,,,,,,/,0.00,,,,,,,,,/
"Lotte Plaza Market, Orlando 11/29 - 12/01, 2019 (FL)","Lotte Plaza Market, Orlando 11/29 - 12/01, 2019 (FL)",May Kam,122807,12/2/2019 7:19:01 PM,Mr Jun Kim,FL,32765,Legacy,New Sienna,New,1,0.00,4000.00,4000.00,Synchrony,,,"5 years parts, 1 year labor (Free)","Legacy,",No,12/12/2019 12:00:00 AM,Delivered,New,"Special discount for one year payment .Pls make finance $4000 purchase, thanks","Synchrony original verified. Credit avail $9000. Remaining bal $4000. Charge sync acct, have sales draft signed-Erika 12/3/19 9:54am
Delivery conf completed, sales draft signed-Erika 12/27/19 9:25am",FL,1,6.50,DWA-9100DWA-9100SI,4000.00,,,6501723375443403,84983137,Las Vegas,12 months,Driver’s License,FL,01/2026,0.00,,,,,,,,,/,0.00,,,,,,,,,/
"Lotte Plaza Market, Orlando 11/29 - 12/01, 2019 (FL)","Lotte Plaza Market, Orlando 11/29 - 12/01, 2019 (FL)",May Kam,122808,12/2/2019 7:25:38 PM,Mr & Mrs Soo Park,FL,32707,Legacy,Demo Choco,Demo,1,0.00,3800.00,3800.00,Synchrony,,,"5 years parts, 1 year labor (Free)","Legacy,",No,12/12/2019 12:00:00 AM,Delivered,Demo,"Please make finance $3800 purchase,thanks","Synchrony original verified. Credit avail $7000. Remaining bal $3800. Charge synchrony acct, have sales draft signed-Erika 12/3/19 10:27am
Delivery conf completed, sales draft signed-Erika 12/27/19 9:27am",FL,1,6.50,DWA-9100DWA-9100BU-DEMO,3800.00,,,6501723375436514,84769349,Las Vegas,48 months,Driver’s License,FL,09/2026,0.00,,,,,,,,,/,0.00,,,,,,,,,/
"Lotte Plaza Market, Orlando 11/29 - 12/01, 2019 (FL)","Lotte Plaza Market, Orlando 11/29 - 12/01, 2019 (FL)",May Kam,122811,12/2/2019 7:43:03 PM,Hieu Pham,FL,32808,Legacy,New Sienna,New,1,0.00,3400.00,3400.00,Credit Card,Credit Card,,"5 years parts, 1 year labor (Free)","Legacy,Tourmaline Pad for Legacy,Daiwa Blanket,",No,12/12/2019 12:00:00 AM,Delivered,New,With #45218 together,"COD Paid: $3,000 in HouseCall Pro + $200 Cash (Maggie Received) - 12/13/19 JD
Original received. $200 verified on SQ. Remaining bal $3200. Collect COD @ delivery-Erika 12/3/19 10:06am
Delivery conf completed COD verified on housecall-Erika 12/27/19 9:23am",FL,1,6.50,DWA-9100DWA-9100SI,200.00,jrfQ,,,,,,,,/,3200.00,House call Pro,,,,,,,,/,0.00,,,,,,,,,/
"Lotte Plaza Market, Orlando 11/29 - 12/01, 2019 (FL)","Lotte Plaza Market, Orlando 11/29 - 12/01, 2019 (FL)",May Kam,122812,12/2/2019 7:54:02 PM,Tram Le,FL,32828,Legacy,New Sienna,New,1,0.00,3400.00,3400.00,Credit Card,COD,,"5 years parts, 1 year labor (Free)","Legacy,Tourmaline Pad for Legacy,Daiwa Blanket,",No,12/12/2019 12:00:00 AM,Scheduled,New,"Special discount for One family bought two chairs, President Approval .
Balance $3200 as COD , thanks 
With order 122811 together","Original received, $200 verified on SQ. Remaining balance $3200. Collect COD @ delivery-Erika 12/3/19 10:04am",FL,1,6.50,DWA-9100DWA-9100SI,200.00,GGny,,,,,,,,/,0.00,,,,,,,,,/,0.00,,,,,,,,,/
"Lotte Plaza Market, Orlando 11/29 - 12/01, 2019 (FL)","Lotte Plaza Market, Orlando 11/29 - 12/01, 2019 (FL)",May Kam,122817,12/3/2019 4:16:28 AM,Mrs Kelly Dekat,FL,33762,Relax 2 Zero 3D,Demo Choco,Demo,1,0.00,3400.00,3400.00,Cash,Cash,,"5 years parts, 1 year labor (Free)","Relax 2 Zero 3D,Daiwa Blanket,Tourmaline Pad for Relax2Zero 3D,",No,12/6/2019 12:00:00 AM,Delivered,,"Special discount for cash price, COD $3200 in cash","Original received. $200 cash verified by May. Remaining bal $3200. collect COD @ delivery-Erika 12/3/19 10:32am

12/6Maritza- Shipping out Tourmaline Pad 777173182284",FL,1,6.50,DWA-9060USJ-9060BR-DEMO,200.00,,,,,,,,,/,3200.00,,,,,,,,,/,0.00,,,,,,,,,/
"Lotte Plaza Market, Orlando 11/29 - 12/01, 2019 (FL)","Lotte Plaza Market, Orlando 11/29 - 12/01, 2019 (FL)",May Kam,122818,12/3/2019 4:23:41 AM,Mrs Dellapia Yong,FL,33772,Legacy,New Sienna,New,1,0.00,3600.00,3600.00,Credit Card,Credit Card,,"5 years parts, 1 year labor (Free)","Legacy,",No,12/9/2019 12:00:00 AM,Delivered,,"Special discount for one time payment, manager approval, thanks","Original received. $200 verified on SQ. Remaining bal $3400. Collect COD @ delivery-Erika 12/3/19 10:36am
delivery conf completed by FL, they didn't mark the chair type. Chair type is NEW COD verified on housecall-Erika 12/27",FL,1,6.50,DWA-9100DWA-9100SI,200.00,0dSn,,,,,,,,/,3400.00,House call Pro,,,,,,,,/,0.00,,,,,,,,,/
"Lotte Plaza Market, Orlando 11/29 - 12/01, 2019 (FL)","Lotte Plaza Market, Orlando 11/29 - 12/01, 2019 (FL)",May Kam,122820,12/3/2019 5:16:55 AM,Mr & Mrs Phatcharee Kes,FL,33025,Relax 2 Zero 3D,New Choco,New,1,0.00,3550.00,3550.00,Credit Card,Credit Card,,"5 years parts, 1 year labor (Free)","Relax 2 Zero 3D,Daiwa Blanket,",No,12/17/2019 12:00:00 AM,Delivered,New,"Special discount for one time payment, manager approval, thanks","Original received. $200 verified on SQ. remaining bal $3350. Collect COD @ delivery-Erika 12/3/19 10:40am
Want to schedule 12/17/19 10am-12pm, VM-JC
Scheduled 12/17/19 between 10am-12pm JC
Delivery conf completed. COD was verified on housecall-Erika 12/26/19 5:03pm",FL,1,6.50,DWA-9060USJ-9060BR,200.00,BHnO,,,,,,,,/,3350.00,House call Pro,,,,,,,,/,0.00,,,,,,,,,/
"Lotte Plaza Market, Orlando 11/29 - 12/01, 2019 (FL)","Lotte Plaza Market, Orlando 11/29 - 12/01, 2019 (FL)",Hector Bernardino,122821,12/3/2019 6:00:57 AM,Warren Chan,FL,33193,Relax 2 Zero 3D,New Choco,New,1,318.50,4900.00,5218.50,Synchrony,,,"5 years parts, 1 year labor (Free)","Relax 2 Zero 3D,",No,12/10/2019 12:00:00 AM,Delivered,New,,"Total price = $4500 Disregard remaining balance
Synchrony original verified. Credit avail $9000. Remaining bal $4500. Charge sync acct, have sales draft signed-Erika 12/3/19 4:34pm
Scheduled 12/10/19 between 11am-2pm JC
Delivery conf completed, sales draft signed-Erika 12/27/19 9:30am",FL,0,6.50,DWA-9060USJ-9060BR,4500.00,,,6501723375442199,84947697,Huston,36 months,Driver’s License,FL,04/2020,0.00,,,,,,,,,/,0.00,,,,,,,,,/
"Lotte Plaza Market, Orlando 11/29 - 12/01, 2019 (FL)","Lotte Plaza Market, Orlando 11/29 - 12/01, 2019 (FL)",May Kam,122835,12/3/2019 7:02:41 PM,Mr Hoon Jung,VA,20120,Relax 2 Zero 3D,New Black,New,1,0.00,3000.00,3000.00,Credit Card,Credit Card,,"5 years parts, 1 year labor (Free)","Relax 2 Zero 3D,",No,12/19/2019 12:00:00 AM,Delivered,New,"Special discount with one year payment plan for Lotte Market Manager , President approval , thanks","Original received. $1000 verified on SQ. Remaining bal of $2000 will be paid on Layaway program with Cristina.
Please go ahead and schedule this customer (approved by Cristina).-Erika 12/4/19 11:31am
CC, Jasmin Carrizales, 12/5/19, 5:18pm
12/23Maritza- Delivery confirmation received. Will hand paperwork to Cristina to proceed with Layaway",FL,1,6.50,DWA-9060USJ-9060BL,1000.00,r1Qu,,,,,,,,/,2000.00,Layaway,,,,,,,,/,0.00,,,,,,,,,/
"Lotte Plaza Market, Orlando 11/29 - 12/01, 2019 (FL)","Lotte Plaza Market, Orlando 11/29 - 12/01, 2019 (FL)",May Kam,122836,12/3/2019 7:42:25 PM,Mr & Mrs Sheina Lyn Robertson Gayahan,FL,32807,Relax 2 Zero 3D,New Choco,New,1,0.00,2800.00,2800.00,Synchrony,Synchrony,Credit Card,"5 years parts, 1 year labor (Free)","Relax 2 Zero 3D,Daiwa Blanket,",No,,Cancelled,,"Special discount , manager approval ; will charge balance $1000 as COD, Thanks","12/4Maritza- Customer called to get status. Order was made on 12/1 and was told he would get a call Monday in regards to delivery. All information was validated and confirmed. Telephone number is a cell phone. 
Total amount is**** $3800!*****
---Synchrony original verified. Credit avail ending in (1407) is $1000. Charge acct, have sales draft signed. Credit avail ending in (1449) is $1200. Charge sync acct, have sales draft signed. $600 verified on SQ. Remaining balance $1000. Collect COD of $1000 @ delivery -Erika 12/4/19 9:28am
Canceled. Wrong amount total. New order#122837-Erika 12/4/19 10:31am",Not Dispatched,1,6.50,DWA-9060USJ-9060BR,1000.00,,,6501723375441407,84905727,Las Vegas,24 months,Driver’s License,FL,11/2025,1200.00,,,6501723375441449,84906261,Las Vegas,24 months,Driver’s License,FL,12/2022,600.00,Zn5N,,,,,,,,/
"Lotte Plaza Market, Orlando 11/29 - 12/01, 2019 (FL)","Lotte Plaza Market, Orlando 11/29 - 12/01, 2019 (FL)",May Kam,122837,12/4/2019 10:26:08 AM,Mr & Mrs Sheina Lyn Robertson Gayahan,FL,32807,Relax 2 Zero 3D,New Choco,New,1,0.00,3800.00,3800.00,Synchrony,Synchrony,Credit Card,"5 years parts, 1 year labor (Free)","Relax 2 Zero 3D,",No,12/12/2019 12:00:00 AM,Delivered,New,"Special discount , manager approval ; will charge balance $1000 as COD, Thanks","12/4Maritza- Customer called to get status. Order was made on 12/1 and was told he would get a call Monday in regards to delivery. All information was validated and confirmed. Telephone number is a cell phone. (407)212-1711
---Synchrony original verified. Credit avail ending in (1407) is $1000. Charge acct, have sales draft signed. Credit avail ending in (1449) is $1200. Charge sync acct, have sales draft signed. $600 verified on SQ. Remaining balance $1000. Collect COD of $1000 @ delivery -Erika 12/4/19 9:28am *Pls gift a blanket with chair*
scheduled 12/12/19 between 2:30pm-5:30pm JC
1/8Maritza- Husband called to confirm total amount for the chair. He has received only one billing statement. I gave him the number for customer service.
1/8Maritza- Delivery confirmation received today but missing sales drafts. Jasmin will follow up once customer responds. COD was paid through HC and confirmed for $1000",FL,1,6.50,DWA-9060USJ-9060BR,1000.00,,,6501723375441407,84905727,Las Vegas,24 months,Driver’s License,FL,11/2025,1200.00,,,6501723375441449,84906261,Las Vegas,24 months,Driver’s License,FL,12/2022,600.00,Zn5N,,,,,,,,/
"Lotte Plaza Market, Orlando 11/29 - 12/01, 2019 (FL)","Lotte Plaza Market, Orlando 11/29 - 12/01, 2019 (FL)",May Kam,122915,12/9/2019 5:18:08 AM,Tek Y Lee,MD,21704,Relax 2 Zero 3D,New Black,New,1,125.12,2674.88,2800.00,Credit Card,Credit Card,,"5 years parts, 1 year labor (Free)","Relax 2 Zero 3D,",No,12/19/2019 12:00:00 AM,Delivered,New,,"*Layaway approved by President Michael ($150 x 12 months) [with order Eun Sook Bae]
Original received. $1000 verified on SQ. Remaining bal of $1800 will be paid off on Layaway by Cristina.-Erika 12/9/19 4:08pm
ok to process order
12/23Maritza- Delivery confirmation received. Will hand to Cristina to proceed with Layaway.",FL,0,6.50,DWA-9060USJ-9060BL,1000.00,sq# NGR4,,,,,,,,/,1800.00,Layaway,,,,,,,,/,0.00,,,,,,,,,/
"Lotte Plaza Market, Orlando 11/29 - 12/01, 2019 (FL)","Lotte Plaza Market, Orlando 11/29 - 12/01, 2019 (FL)",May Kam,122916,12/9/2019 5:29:38 AM,Eun Sook Bae,FL,32712,Relax 2 Zero 3D,New Black,New,1,137.32,2862.68,3000.00,Cash,,,"5 years parts, 1 year labor (Free)","Relax 2 Zero 3D,",No,12/19/2019 12:00:00 AM,Delivered,New,,"Will pay cash [with order#122915, Tek Y Lee]
Original received. $3000 cash has been paid off & received by Andres Soto. Waiting for a signed copy-Erika 12/9/19 4:10pm
Scheduled 12/19/19 between 10am-12pm JC 12/11/19
12/20Maritza- Delivery confirmation received",FL,0,6.50,DWA-9060USJ-9060BL,3000.00,,,,,,,,,/,0.00,,,,,,,,,/,0.00,,,,,,,,,/
"Lotte Plaza Market, Orlando 11/29 - 12/01, 2019 (FL)","Lotte Plaza Market, Orlando 11/29 - 12/01, 2019 (FL)",May Kam,122924,12/9/2019 10:31:55 AM,Phattarapong Thanoosorn,FL,33139,Relax 2 Zero 3D,New Choco,New,1,0.00,3550.00,3550.00,Credit Card,Credit Card,,"5 years parts, 1 year labor (Free)","Relax 2 Zero 3D,Daiwa Blanket,",No,12/19/2019 12:00:00 AM,Delivered,New,"Specail diecount From Referral order of Mrs kes, (#122820). Manager approval","Attached receipt customer from referral 
Of order #122820 which chair will be delivered in Dec 17,2019.Now she introduced her friend one more chair , requested at same day delivery .
----Original received. $200 verified on SQ. Remaining balance $3350. Collect COD @ delivery-Erika 12/9/19 10:48am
Scheduled 12/16/19 between 10am-12pm, JC 12/11/19
12/23Maritza- Delivery confirmation received COD confirmed on HC",FL,1,6.50,DWA-9060USJ-9060BR,200.00,8Sd6,,,,,,,,/,3350.00,housecall pro,,,,,,,,/,0.00,,,,,,,,,/
