﻿Original Event Name,Event Name,Sales Person,Order Number,Order Date,Customer Name,State,Zip,Product Name,Color,Product Status,QTY,Tax,Total Before Tax,Order Total,Primary Payment Method,Second Payment Method,Thirdl Payment Method,Warranty,Order Items,Pick up,Delivered On,Order Status,Chair Type,Order Notes,Private Note,Branch,No Tax,Actual Tax Rate,SKU,Primary Payment Balance,Primary Authorize Number,Primary Purchase Order Number,Primary Synchrony Account Number,Primary Synchrony Application Key,Primary Synchrony Account Info,Primary Synchrony Term,Second Payment Balance,Second Authorize Number,Second Purchase Order Number,Second Synchrony Account Number,Second Synchrony Application Key,Second Synchrony Account Info,Second SynchronyTerm,Third Payment Balance,Third Authorize Number,Third Purchase Order Number,Third Synchrony Account Number,Third Synchrony Application Key,Third Synchrony Account Info,Third Synchrony Term
"Sam's Club #4749 Conway, AR (5/16-5/26/2019) TX","Sam's Club #4749 Conway, AR (5/16-5/26/2019) TX",Keith Kei,117416,5/17/2019 2:22:39 AM,Jack Lindsey,AR,72543,PEGASUS 2 SMART - Sam's,New Choco,New,1,565.66,6199.00,6764.66,Purchase Order,,,"4 years parts, 1 years labor ($150)","PEGASUS 2 SMART - Sam's,",No,5/19/2019 12:00:00 AM,Delivered,New,"4 years parts warranty.
delivery scheduled on Sunday 5/19/19 2pm-6pm","confirmed the delivery with texas office
5/17Maritza- Copy of invoice received.
Courtest call / text completed- Cristina 05/20/19 3:12 pm 
Printed - Tina 5/17/2019
Delivery Conf. Erika 5/24/19 10:04am",TX,0,9.13,PEGS-2PEGS-2-BR,6764.66,,TC# 6435663890351006769774,,,,,0.00,,,,,,,0.00,,,,,,
"Sam's Club #4749 Conway, AR (5/16-5/26/2019) TX","Sam's Club #4749 Conway, AR (5/16-5/26/2019) TX",Keith Kei,117417,5/17/2019 2:25:39 AM,Akbar Pabani,AR,72223,Vitality Plate for Sam's,New,New,1,41.97,459.99,501.96,Purchase Order,,,"2 years parts, 1 year labor for Small Items","Vitality Plate for Sam's,",No,5/17/2019 12:00:00 AM,Delivered,,Item requires free shipping.,"5/17Maritza. Need to ship please provide customer tracking number when available.
5/17Maritza- Text message sent with tracking info @ 11:08",CA,0,9.13,USJ-849USJ-849,501.96,,TC# 846513395360006706734,,,,,0.00,,,,,,,0.00,,,,,,
"Sam's Club #4749 Conway, AR (5/16-5/26/2019) TX","Sam's Club #4749 Conway, AR (5/16-5/26/2019) TX",Keith Kei,117461,5/19/2019 3:08:25 AM,Michael SR Long,AR,72058,Legacy 3D - Sam's Club,New Choco,New,1,428.78,4699.00,5127.78,Sam’s Club Synchrony,Purchase Order,,"3 years parts, 1 year labor (Free)","Legacy 3D - Sam's Club,",No,,Printed,,,"Original received Erika 5/20/19 1:39pm
Printed - Tina 5/21/2019
5/21/2019: Courtesy call-Left voicemail -Noemi",TX,0,9.13,DWA-9150DWA-9150CH,5000.00,,,,,,,127.78,,TC# 8305253897391002749744,,,,,0.00,,,,,,
"Sam's Club #4749 Conway, AR (5/16-5/26/2019) TX","Sam's Club #4749 Conway, AR (5/16-5/26/2019) TX",Keith Kei,117462,5/19/2019 3:12:06 AM,Chad Sherwood,AR,72143,PEGASUS 2 SMART - Sam's,Demo Black,Demo,1,501.78,5499.00,6000.78,Purchase Order,,,"3 years parts, 1 year labor (Free)","PEGASUS 2 SMART - Sam's,",No,,Printed,,,"Originals received.
Courtesy call/Text completed - Cristina 05/20/19 3:16pm
Printed -Tina 5/22/2019",TX,0,9.13,PEGS-2PEGS-2-BL-DEMO,6000.78,,TC# 6195213399391002745714,,,,,0.00,,,,,,,0.00,,,,,,
"Sam's Club #4749 Conway, AR (5/16-5/26/2019) TX","Sam's Club #4749 Conway, AR (5/16-5/26/2019) TX",Keith Kei,117506,5/21/2019 8:56:07 AM,David Faught,AR,72802,PEGASUS 2 SMART - Sam's,New Choco,New,1,565.66,6199.00,6764.66,Purchase Order,,,"3 years parts, 1 year labor (Free)","PEGASUS 2 SMART - Sam's,",No,,Printed,,,"This customer bought more than one unit of massage chair with his family, please arrange delivery around the same time. The other order will be under the customer name Wayne Faught.
05/21/19 originals received: Cristina 05/21/19 3:59 am  Primary 8400 number-Cristina
Courtesy call completed VM left- Cristina 05/21/19 4:01 pm
Printed - Tina 5/22/2019",TX,0,9.13,PEGS-2PEGS-2-BR,6764.66,,TC# 8664281157159228988996,,,,,0.00,,,,,,,0.00,,,,,,
"Sam's Club #4749 Conway, AR (5/16-5/26/2019) TX","Sam's Club #4749 Conway, AR (5/16-5/26/2019) TX",Keith Kei,117507,5/21/2019 9:47:32 AM,Pamela Feenstra,AR,72058,PEGASUS 2 SMART - Sam's,New Black,New,1,565.66,6199.00,6764.66,Purchase Order,,,"3 years parts, 1 year labor (Free)","PEGASUS 2 SMART - Sam's,",No,,Printed,,This customer needed to do financing 24 months zero % APR with Sam's Credit Card. Please confirm with new payment method before processing delivery.,"The customer was approved for $10,000 with the Sam's credit card, we also called in to confirm the temporary limit had been removed. However, Sam's Club still weren't able to process the sales order. Therefore, they suggested customer will have to wait for the actual credit card before she can make purchase at such amount. This issue had already been discussed with Hide San, he suggested is ok to reverse the transaction later on, as long as we don't deliver the chair before the customer finish with the transaction .
05/21/19- Let Lex know about customer; of form of payment change- Cristina 05/21/19 4:08pm
Noted, printed - Tina 5/29/2019",TX,0,9.13,PEGS-2PEGS-2-BL,6764.66,,TC# 4236145476567114840882,,,,,0.00,,,,,,,0.00,,,,,,
"Sam's Club #4749 Conway, AR (5/16-5/26/2019) TX","Sam's Club #4749 Conway, AR (5/16-5/26/2019) TX",Keith Kei,117508,5/21/2019 10:07:17 AM,Wayne Faught,AR,72823,PEGASUS 2 SMART - Sam's,Demo(Box) Choco[-700],Demo,1,501.78,5499.00,6000.78,Purchase Order,,,"3 years parts, 1 year labor (Free)","PEGASUS 2 SMART - Sam's,",No,,Printed,,,"This customer bought more than 1 unit with family, that's why this order is demo price but giving new chair. David Faught is the other sales order, order # 117506
5/21Maritza- Customer will be received Demo(BOX) because of family deal.
5/21/2019: Courtesy call. Spoke with customer -Noemi
Printed - Tina 5/22/2019",TX,0,9.13,PEGS-2PEGS-2-BR-DEMO(Box),6000.78,,TC# 3840886903628779054085,,,,,0.00,,,,,,,0.00,,,,,,
"Sam's Club #4749 Conway, AR (5/16-5/26/2019) TX","Sam's Club #4749 Conway, AR (5/16-5/26/2019) TX",Keith Kei,117510,5/21/2019 11:11:32 AM,Kevin T Bemrich,AR,72106,PEGASUS 2 SMART - Sam's,New Black,New,1,565.66,6199.00,6764.66,Purchase Order,,,"3 years parts, 1 year labor (Free)","PEGASUS 2 SMART - Sam's,",No,,Printed,,Must be delivered before June 28th 2019.,"Per sales rep's email.
Please deliver ASAP.
Original Received.

Erika 5/21/19 12:36pm
5/21/2019: Courtesy call. Left voicemail-Noemi
Printed -Tina 5/22/2019",TX,0,9.13,PEGS-2PEGS-2-BL,6764.66,,TC# 0148707243769550408441,,,,,0.00,,,,,,,0.00,,,,,,
"Sam's Club #4749 Conway, AR (5/16-5/26/2019) TX","Sam's Club #4749 Conway, AR (5/16-5/26/2019) TX",Keith Kei,117544,5/24/2019 9:36:20 AM,Chinh Thi Tran,AR,72032,Ninja Leg Massager 2,New,New,1,27.37,299.98,327.35,Purchase Order,,,"2 years parts, 1 year labor for Small Items","Ninja Leg Massager 2,",No,,Delivered,,,"Item require shipping
Original Received Erika 5/24/19 11:10am",TX,0,9.13,USJ-880,327.35,,TC# 667887749749552468411,,,,,0.00,,,,,,,0.00,,,,,,
"Sam's Club #4749 Conway, AR (5/16-5/26/2019) TX","Sam's Club #4749 Conway, AR (5/16-5/26/2019) TX",Keith Kei,117545,5/24/2019 9:51:53 AM,Matilda Lukanovic,AR,72013,PEGASUS 2 SMART - Sam's,New Choco,New,1,565.66,6199.00,6764.66,Purchase Order,,,"3 years parts, 1 year labor (Free)","PEGASUS 2 SMART - Sam's,",No,,Printed,,,"Original Received Erika 5/24/19 11:12am
05/28/19- Courtesy call completed- Cristina 05/28/19 12:06 pm
Printed - Tina 5/28/2019",TX,0,9.13,PEGS-2PEGS-2-BR,6764.66,,TC# 8664581693190228985996,,,,,0.00,,,,,,,0.00,,,,,,
"Sam's Club #4749 Conway, AR (5/16-5/26/2019) TX","Sam's Club #4749 Conway, AR (5/16-5/26/2019) TX",Keith Kei,117649,5/28/2019 10:35:01 PM,Jason Thomas,AR,72758,PEGASUS 2 SMART - Sam's,New Black,New,1,565.66,6199.00,6764.66,Purchase Order,,,"3 years parts, 1 year labor (Free)","PEGASUS 2 SMART - Sam's,",No,,New,,,"Please help assign delivery asap
-Original received Erika 5/29/19 10:00am",TX,0,9.13,PEGS-2PEGS-2-BL,6764.66,,TC# 6475863772300006761774,,,,,0.00,,,,,,,0.00,,,,,,
"Sam's Club #4749 Conway, AR (5/16-5/26/2019) TX","Sam's Club #4749 Conway, AR (5/16-5/26/2019) TX",Keith Kei,117650,5/28/2019 10:40:34 PM,Dennis Campbell,AR,72113,PEGASUS 2 SMART - Sam's,New Choco,New,1,565.66,6199.00,6764.66,Purchase Order,,,"3 years parts, 1 year labor (Free)","PEGASUS 2 SMART - Sam's,",No,,New,,,"Please help assign delivery asap
-Original Received. Erika 5/29/19 10:02am",TX,0,9.13,PEGS-2PEGS-2-BR,6764.66,,TC# 3510336407608773032005,,,,,0.00,,,,,,,0.00,,,,,,
