﻿Original Event Name,Event Name,Sales Person,Order Number,Order Date,Customer Name,State,Zip,Product Name,Color,Product Status,QTY,Tax,Total Before Tax,Order Total,Primary Payment Method,Second Payment Method,Thirdl Payment Method,Warranty,Order Items,Pick up,Delivered On,Order Status,Chair Type,Order Notes,Private Note,Branch,No Tax,Actual Tax Rate,SKU,Primary Payment Balance,Primary Authorize Number,Primary Purchase Order Number,Primary Synchrony Account Number,Primary Synchrony Application Key,Primary Synchrony Account Info,Primary Synchrony Term,Second Payment Balance,Second Authorize Number,Second Purchase Order Number,Second Synchrony Account Number,Second Synchrony Application Key,Second Synchrony Account Info,Second SynchronyTerm,Third Payment Balance,Third Authorize Number,Third Purchase Order Number,Third Synchrony Account Number,Third Synchrony Application Key,Third Synchrony Account Info,Third Synchrony Term
WASHINGTON ST FAIR 4/11-14/19 PUYALLUP (WA),WASHINGTON ST FAIR 4/11-14/19 PUYALLUP (WA),Scott Ishikawa,116597,4/12/2019 10:57:12 AM,Berjaie Henderson,WA,98108,Relax 2 Zero 1.0,Demo Black,Demo,1,0.00,1800.00,1800.00,Credit Card,COD,,"5 years parts, 1 year labor (Free)","Relax 2 Zero 1.0,",No,4/16/2019 12:00:00 AM,Delivered,Demo,,"4/16/19-Confirmed $1,000.00 in SQ. Per.Scott, it was refurbished and already delivered. Told Hide about the situation.will confirm delivery confirmation  -Hitomi",WA,1,9.90,USJ-9000USJ-9000KU-DEMO,1000.00,Receipt #vBE2,,,,,,800.00,,,,,,,0.00,,,,,,
WASHINGTON ST FAIR 4/11-14/19 PUYALLUP (WA),WASHINGTON ST FAIR 4/11-14/19 PUYALLUP (WA),Rodrigo Malabunga,116652,4/14/2019 10:31:42 AM,Edward/celeste Fuoss,WA,98444,PEGASUS 2 SMART,Demo Choco,Demo,1,0.00,5900.00,5900.00,Synchrony,Synchrony,COD,"5 years parts, 2 years labor ($200)","PEGASUS 2 SMART,",No,,Scheduled,,,"The second acct from synchrony bank,customer needs to received the card and activate before we charge.and the remaining balanced of $3500.00 COD make sure the driver needs to collect the remaining balanced.

4/15/19-will confirm sync -Hitomi
4/16/19- Confirmed $1,200/$1,200 under EDWARD FUOSS in Synchrony. [EDWARD FUOSS DL: SD 11/14/19 , MILITARY 02/22/20 , CELESTE ASHWORTH DL: WA 08/2019 , NAVY FED VISA 03/21]***Please charge  $1,200/$1,200 and sales draft signed by EDWARD FUOSS******COD $3,500***

4/17Maritza- Courtesy message sent @ 4:33PM",WA,1,9.90,PEGS-2PEGS-2-BR-DEMO,1200.00,,,6501723375102884,73991589,Las Vegas,36 months,1200.00,,,6501723375103148,73995736,Las Vegas,36 months,3500.00,,,,,,
WASHINGTON ST FAIR 4/11-14/19 PUYALLUP (WA),WASHINGTON ST FAIR 4/11-14/19 PUYALLUP (WA),Rodrigo Malabunga,116712,4/15/2019 9:01:13 AM,Tammy Ainardi,WA,98371,Legacy 3D,New Choco,New,1,0.00,4200.00,4200.00,Credit Card,,,"5 years parts, 2 years labor ($200)","Legacy 3D,",No,4/18/2019 12:00:00 AM,Delivered,New,,"4/15/19-Confirmed $4,200.00 in SQ. - Hitomi
4/17Maritza- Courtesy message sent @ 4:44PM",WA,1,9.90,DWA-9150USJ-9150CH,4200.00,Square ##FIXY,,,,,,0.00,,,,,,,0.00,,,,,,
WASHINGTON ST FAIR 4/11-14/19 PUYALLUP (WA),WASHINGTON ST FAIR 4/11-14/19 PUYALLUP (WA),Rodrigo Malabunga,116713,4/15/2019 9:08:04 AM,Katie Castro,WA,98312,Relax 2 Zero 3D,Demo Choco,Demo,1,0.00,3500.00,3500.00,Credit Card,Cash,,"5 years parts, 2 years labor ($200)","Relax 2 Zero 3D,",No,4/17/2019 12:00:00 AM,Delivered,Demo,,"COD Balance Due $3300
4/15/19-Confirmed $200.00 in SQ. ****COD $3,300***-Hitomi
4/17Maritza- Courtesy message sent @ 4:46PM",WA,1,9.90,DWA-9060USJ-9060BR-DEMO,200.00,Square #00oA,,,,,,3300.00,,,,,,,0.00,,,,,,
WASHINGTON ST FAIR 4/11-14/19 PUYALLUP (WA),WASHINGTON ST FAIR 4/11-14/19 PUYALLUP (WA),Scott Ishikawa,116714,4/15/2019 9:15:42 AM,MARK BARBER,WA,98422,Pegasus,Demo Black,Demo,1,0.00,4200.00,4200.00,Synchrony,,,"5 years parts, 1 year labor (Free)","Pegasus,",No,4/15/2019 12:00:00 AM,Delivered,Demo,,"WILL COME TO OFFICE ON 4/18/2019 TO DECIDE WHICH DEMO HE WANTS
4/15/19 will confirm sync  Hitomi
SCHEDULED DELIVERY 4/16/2019 BETWEEN 8AM TO 10AM
PROCESSED SYNCHRONY 4/15/2019
4/16/19-Confirmed SYNC$9,000 anr original. $4,200 was charged for 36 months in Synchrony. **Please make sure to have sign on sales draft***- Hitomi",WA,1,9.90,DWA-9400Pegasus-BL-DEMO,4200.00,,,6501723375104773,74029574,Las Vegas,36 months,0.00,,,,,,,0.00,,,,,,
WASHINGTON ST FAIR 4/11-14/19 PUYALLUP (WA),WASHINGTON ST FAIR 4/11-14/19 PUYALLUP (WA),Ruben Cuatrona,116715,4/15/2019 9:25:46 AM,JANINE DORSEY,WA,98388,Legacy 3D,New Black,New,1,0.00,4200.00,4200.00,Synchrony,,,"5 years parts, 1 year labor (Free)","Legacy 3D,",No,,Cancelled,,,"4/15/19-will confirm sync- Hitomi
SCHEDULED 4/16/2019 12PM -1PM
SYNCHRONY PROCESSED  4/15/2019 SCOTT
4/16/19 Confirmed SYNC$6,000 and original. 4,200 was charged for 36 months in Synchrony.***Please make sure to have sign on sales draft ***-Hitomi",WA,1,9.90,DWA-9150USJ-9150BL,4200.00,,,6501723375105036,74033943,Las Vegas,36 months,0.00,,,,,,,0.00,,,,,,
WASHINGTON ST FAIR 4/11-14/19 PUYALLUP (WA),WASHINGTON ST FAIR 4/11-14/19 PUYALLUP (WA),Ruben Cuatrona,116725,4/15/2019 11:50:31 AM,KATHRYN CRUZ,WA,98360,Legacy 3D,Demo Choco,Demo,1,0.00,4000.00,4000.00,Credit Card,COD,,"5 years parts, 1 year labor (Free)","Legacy 3D,",No,4/16/2019 12:00:00 AM,Delivered,Demo,,"4/16/19-Confirmed $1,000.00 in SQ, ***COD $3,000***- Hitomi
4/17Maritza- Courtesy message sent @ 4:47PM",WA,1,9.90,DWA-9150USJ-9150CH-DEMO,1000.00,Square #wFhk,,,,,,3000.00,,,,,,,0.00,,,,,,
WASHINGTON ST FAIR 4/11-14/19 PUYALLUP (WA),WASHINGTON ST FAIR 4/11-14/19 PUYALLUP (WA),Ruben Cuatrona,116726,4/15/2019 11:57:27 AM,TAMMY WALKER,WA,98387,PEGASUS 2 SMART,Demo Black,Demo,1,0.00,6000.00,6000.00,Synchrony,,,"5 years parts, 2 years labor ($200)","PEGASUS 2 SMART,",No,4/17/2019 12:00:00 AM,Delivered,Demo,,"SCHEDULED 4/17/2019 9:30AM-11:30AM
PROCESSED SYNCHRONY  4/15/2019
4/16/19-Confirmed SYNC$7,200 and original . $6,000 is already charged in Synchrony.***Please make sure to have sign on sales draft *** - Hitomi",WA,1,9.90,PEGS-2PEGS-2-BL-DEMO,6000.00,,,6501723375101274,73955856,Las Vegas,36 months,0.00,,,,,,,0.00,,,,,,
WASHINGTON ST FAIR 4/11-14/19 PUYALLUP (WA),WASHINGTON ST FAIR 4/11-14/19 PUYALLUP (WA),Rodrigo Malabunga,116727,4/15/2019 12:08:29 PM,CONNIE PALSTIAN MILLER,WA,98445,PEGASUS 2 SMART,Demo Choco,Demo,1,0.00,6200.00,6200.00,Credit Card,Credit Card,,"5 years parts, 2 years labor ($200)","PEGASUS 2 SMART,",No,4/18/2019 12:00:00 AM,Delivered,Demo,,"4/16/19-Confirmed $500.00 in SQ. ***COD$5,700***-Hitomi
4/17Maritza- Courtesy message sent @ 4:48PM",WA,1,9.90,PEGS-2PEGS-2-BR-DEMO,500.00,Square #YkxH,,,,,,5700.00,kOlp,,,,,,0.00,,,,,,
