﻿Order Number,Order Date,Event Name,Salesperson,SKU,Product Name,Color,QTY,Warranty,Payment Details,Tax,Order Total,Gross,Primary Payment Method,Primary Payment Balance,Primary Authorize Number,Primary Purchase Order Number,Primary Synchrony Account Number,Primary Synchrony Application Key,Primary Synchrony AccountInfo,Primary SynchronyTerm,Secondly Payment Method,Secondly Payment Balance,Secondly Authorize Number,Secondly Purchase Order Number,Secondly Synchrony Account Number,Secondly Synchrony Application Key,Secondly Synchrony AccountInfo,Secondly SynchronyTerm,Thirdly Payment Method,Thirdly Payment Balance,Thirdly Authorize Number,Thirdly Purchase Order Number,Thirdly Synchrony Account Number,Thirdly Synchrony Application Key,Thirdly Synchrony AccountInfo,Thirdly SynchronyTerm,Actual Shipping Cost,CustomerName,Shipping Address,Delivered On,Serial Number (TO Be),Note,Branch,IsNoTax,ActualTaxRate
103569,2/10/2018 9:20:26 AM,KANSAS REMODEL	2/9 -2/11/2018,Chris Tavira,DWA-8000DWA-8000-BR-DEMO,Majesty,Demo Choco Brown,1,"3 years parts, 1 year labor (Free)",CUSTOM ,177.94,2877.94,2877.94,Synchrony,2946.51,,,6034610083089949,84737444,Huston,24 months,,0.00,,,,,,,,0.00,,,,,,,0.00,James Gerber,913-378-3406,2/15/2018 12:00:00 AM,,Paid in full,TX,0,9.13
103570,2/10/2018 9:23:56 AM,KANSAS REMODEL	2/9 -2/11/2018,Tom Nguyen,DWA-8000DWA-8000-BL,Majesty,Black,1,"3 years parts, 1 year labor (Free)",CUSTOM COD,0.00,2500.00,2500.00,CreditCard,100.00,Square # OCxP,,,,,,COD,2400.00,,,,,,,,0.00,,,,,,,0.00,Joseph Simmons,913-748-7609,,,,TX,1,9.13
103597,2/11/2018 8:48:39 AM,KANSAS REMODEL	2/9 -2/11/2018,Tom Nguyen,DWA-8000DWA-8000-BR,Majesty,Choco Brown,1,"3 years parts, 1 year labor (Free)",CUSTOM ,177.94,2877.94,2877.94,Synchrony,2946.51,,,6034610083092505,84781263,Huston,24 months,,0.00,,,,,,,,0.00,,,,,,,0.00,Jeffrey W Gilbert,816-506-0270,,,"Paid in full
Trade in Old Chair",TX,0,9.13
103599,2/11/2018 8:56:34 AM,KANSAS REMODEL	2/9 -2/11/2018,David Wallace,DWA-9400Pegasus-BL,Pegasus,Black,1,"3 years parts, 1 year labor (Free)",CUSTOM ,0.00,4800.00,4800.00,Synchrony,4800.00,,,6034610083092752,84784295,Huston,36 months,,0.00,,,,,,,,0.00,,,,,,,0.00,David Loo,913-626-7787,2/15/2018 12:00:00 AM,,,TX,1,9.13
103601,2/11/2018 9:04:32 AM,KANSAS REMODEL	2/9 -2/11/2018,Chris Tavira,DWA-9060USJ-9060BR,Relax2Zero 3D,Choco Brown,1,"3 years parts, 1 year labor (Free)",CUSTOM CreditCard,301.87,4360.00,4360.00,CreditCard,200.00,Square #QXOP,,,,,,CreditCard,0.00,,,,,,,,0.00,,,,,,,,Michael Van Brunt,816-594-4884,,,"Remaining Balance: $4160
Schedule delivery around June*",Not Dispatched,0,9.13
103602,2/11/2018 9:08:59 AM,KANSAS REMODEL	2/9 -2/11/2018,Kristy Tran,DWA-9060USJ-9060BL,Relax2Zero 3D,Black,1,"3 years parts, 1 year labor (Free)",CUSTOM Cash,0.00,4200.00,4200.00,CreditCard,200.00,Square #HxM0,,,,,,Cash,0.00,,,,,,,,0.00,,,,,,,0.00,Justin Shaffer,218-779-7323,,,"Customer is currently in the process of building a house. Delivery in AUGUST
Customer will let us know the address upon delivery.
CASH remaining on delivery. 
No cards or checks.",TX,1,9.13
103604,2/11/2018 9:15:59 AM,KANSAS REMODEL	2/9 -2/11/2018,Mario Higareda,DWA-9400Pegasus-BR,Pegasus,Choco Brown,1,"5 years parts, 1 year labor ($300)",CUSTOM Synchrony,0.00,4300.00,4300.00,CreditCard,100.00,Square #ssVt,,,,,,Synchrony,4200.00,,,6034610083093354,84791367,Huston,48 months,,0.00,,,,,,,,Darrell Grooms,816-537-7185,,,"Deposit $100 refundable.
Hold order and synchrony process ($4200) until November 2018",Not Dispatched,1,9.13
103604,2/11/2018 9:15:59 AM,KANSAS REMODEL	2/9 -2/11/2018,Mario Higareda,,Foot Pads for Pegasus,,1,no warranty,CUSTOM Synchrony,0.00,4300.00,4300.00,CreditCard,100.00,Square #ssVt,,,,,,Synchrony,4200.00,,,6034610083093354,84791367,Huston,48 months,,0.00,,,,,,,,Darrell Grooms,816-537-7185,,,"Deposit $100 refundable.
Hold order and synchrony process ($4200) until November 2018",Not Dispatched,1,9.13
103605,2/11/2018 9:30:28 AM,KANSAS REMODEL	2/9 -2/11/2018,Chris Tavira,DWA-8000DWA-8000-BR,Majesty,Choco Brown,1,"3 years parts, 1 year labor (Free)",CUSTOM ,177.94,2877.94,2877.94,Synchrony,2946.51,,,6034610083091127,84763213,Huston,24 months,,0.00,,,,,,,,0.00,,,,,,,0.00,Michelle Sumstad,816-536-9186,2/15/2018 12:00:00 AM,,Paid in full,TX,0,9.13
103612,2/11/2018 2:27:29 PM,KANSAS REMODEL	2/9 -2/11/2018,Tom Nguyen,DWA-8000DWA-8000-BL-DEMO,Majesty,Demo Black,1,"3 years parts, 1 year labor (Free)",CUSTOM Check,0.00,2500.00,2500.00,CreditCard,200.00,Square #4NAS,,,,,,Check,2300.00,,,,,,,,0.00,,,,,,,0.00,Amy Cangelosi,816-536-5454,2/15/2018 12:00:00 AM,,SN # 0901001170026,TX,1,9.13
103613,2/11/2018 2:34:06 PM,KANSAS REMODEL	2/9 -2/11/2018,Kristy Tran,DWA-8000DWA-8000-BL,Majesty,Black,1,"3 years parts, 1 year labor (Free)",CUSTOM ,229.30,3492.16,3492.16,Synchrony,3492.16,,,6034610083095060,84818675,Huston,36 months,,0.00,,,,,,,,0.00,,,,,,,0.00,Peter Fortune,860-986-2191,2/15/2018 12:00:00 AM,,,TX,0,9.13
