﻿Original Event Name,Event Name,Sales Person,Order Number,Order Date,Customer Name,State,Zip,Product Name,Color,Product Status,QTY,Tax,Total Before Tax,Order Total,Primary Payment Method,Second Payment Method,Thirdl Payment Method,Warranty,Order Items,Pick up,Delivered On,Order Status,Chair Type,Order Notes,Private Note,Branch,No Tax,Actual Tax Rate,SKU,Primary Payment Balance,Primary Authorize Number,Primary Purchase Order Number,Primary Synchrony Account Number,Primary Synchrony Application Key,Primary Synchrony Account Info,Primary Synchrony Term,Second Payment Balance,Second Authorize Number,Second Purchase Order Number,Second Synchrony Account Number,Second Synchrony Application Key,Second Synchrony Account Info,Second SynchronyTerm,Third Payment Balance,Third Authorize Number,Third Purchase Order Number,Third Synchrony Account Number,Third Synchrony Application Key,Third Synchrony Account Info,Third Synchrony Term
Sam's Club #8173 Miramar 9/13-23/18 (FL),Sam's Club #8173 Miramar 9/13-23/18 (FL),Hunt Zhang,109341,9/13/2018 7:35:32 PM,Genera Beckford Smith,FL,33025,Foot Vibe Pro,,New,1,6.60,109.99,116.59,CreditCard,,,"2 years parts, 1 year labor (Free)","Foot Vibe Pro,",YES,,Delivered,,,,FL,0,6.00,USJ-871,116.59,942799045799813045129,,,,,,0.00,,,,,,,0.00,,,,,,
Sam's Club #8173 Miramar 9/13-23/18 (FL),Sam's Club #8173 Miramar 9/13-23/18 (FL),Hunt Zhang,109402,9/15/2018 7:14:29 PM,Yan-Mei Deng,FL,33027,Shogun Neck & Back Massger,Demo,Demo,1,0.00,599.97,599.97,CreditCard,,,"2 years parts, 1 year labor (Free)","Shogun Neck &amp; Back Massger,Vitality Plate for Sam's,",YES,,Delivered,,,,FL,1,6.00,USJ-874USJ-874-DEMO,579.97,724461874321546629421,,,,,,0.00,,,,,,,0.00,,,,,,
Sam's Club #8173 Miramar 9/13-23/18 (FL),Sam's Club #8173 Miramar 9/13-23/18 (FL),Hunt Zhang,109402,9/15/2018 7:14:29 PM,Yan-Mei Deng,FL,33027,Vitality Plate for Sam's,Demo,Demo,1,0.00,599.97,599.97,CreditCard,,,"2 years parts, 1 year labor (Free)","Shogun Neck &amp; Back Massger,Vitality Plate for Sam's,",YES,,Delivered,,,,FL,1,6.00,USJ-849USJ-849-DEMO,579.97,724461874321546629421,,,,,,0.00,,,,,,,0.00,,,,,,
Sam's Club #8173 Miramar 9/13-23/18 (FL),Sam's Club #8173 Miramar 9/13-23/18 (FL),Norimasa Sato,109425,9/16/2018 6:14:34 AM,Datsie Francis,FL,33025,Foot Vibe Pro,,New,1,0.00,109.99,109.99,CreditCard,,,"2 years parts, 1 year labor (Free)","Foot Vibe Pro,",YES,,Delivered,,,,FL,1,6.00,USJ-871,0.00,961759846755813036139,,,,,,0.00,,,,,,,0.00,,,,,,
Sam's Club #8173 Miramar 9/13-23/18 (FL),Sam's Club #8173 Miramar 9/13-23/18 (FL),Norimasa Sato,109426,9/16/2018 6:26:22 AM,Adewuyi Majaro,FL,33141,Foot Vibe Pro,,New,1,6.60,109.99,116.59,CreditCard,,,"2 years parts, 1 year labor (Free)","Foot Vibe Pro,",YES,,Delivered,,,,FL,0,6.00,USJ-871,116.59,TC#6050 6681 3428 2975 1293 6,,,,,,0.00,,,,,,,0.00,,,,,,
Sam's Club #8173 Miramar 9/13-23/18 (FL),Sam's Club #8173 Miramar 9/13-23/18 (FL),Norimasa Sato,109555,9/18/2018 1:01:45 PM,Sheryl Jordan,FL,33056,Foot Vibe Pro,,New,1,17.40,289.97,307.37,PurchaseOrder,,,"2 years parts, 1 year labor for Small Items","Foot Vibe Pro,Shogun Neck &amp; Back Massger,",YES,,Delivered,,,$20 off on Shogun. (Demo),FL,0,6.00,USJ-871,289.97,,TC#488988713687450345548,,,,,0.00,,,,,,,0.00,,,,,,
Sam's Club #8173 Miramar 9/13-23/18 (FL),Sam's Club #8173 Miramar 9/13-23/18 (FL),Norimasa Sato,109555,9/18/2018 1:01:45 PM,Sheryl Jordan,FL,33056,Shogun Neck & Back Massger,Demo[-20],Demo,1,17.40,289.97,307.37,PurchaseOrder,,,"2 years parts, 1 year labor for Small Items","Foot Vibe Pro,Shogun Neck &amp; Back Massger,",YES,,Delivered,,,$20 off on Shogun. (Demo),FL,0,6.00,USJ-874USJ-874-DEMO,289.97,,TC#488988713687450345548,,,,,0.00,,,,,,,0.00,,,,,,
Sam's Club #8173 Miramar 9/13-23/18 (FL),Sam's Club #8173 Miramar 9/13-23/18 (FL),Norimasa Sato,109559,9/18/2018 4:58:55 PM,Myrva Joseph,FL,33024,Foot Vibe Pro,,New,1,6.60,109.99,116.59,CreditCard,,,"2 years parts, 1 year labor for Small Items","Foot Vibe Pro,",YES,,Delivered,,,,FL,0,6.00,USJ-871,0.00,TC#: 252222791024186753892,,,,,,0.00,,,,,,,0.00,,,,,,
Sam's Club #8173 Miramar 9/13-23/18 (FL),Sam's Club #8173 Miramar 9/13-23/18 (FL),Hunt Zhang,109560,9/18/2018 6:25:35 PM,Laura Culbreath,FL,33055,Foot Vibe Pro,,New,1,6.60,109.99,116.59,CreditCard,,,"2 years parts, 1 year labor (Free)","Foot Vibe Pro,",YES,,Delivered,,,,FL,0,6.00,USJ-871,116.59,024300897122364895670,,,,,,0.00,,,,,,,0.00,,,,,,
Sam's Club #8173 Miramar 9/13-23/18 (FL),Sam's Club #8173 Miramar 9/13-23/18 (FL),Norimasa Sato,109571,9/19/2018 4:13:58 PM,Marie Maravise Tondreau,FL,33025,Shogun Neck & Back Massger,Demo[-20],Demo,1,17.40,289.97,307.37,CreditCard,,,"2 years parts, 1 year labor for Small Items","Shogun Neck &amp; Back Massger,Foot Vibe Pro,",YES,,Delivered,,,,FL,0,6.00,USJ-874USJ-874-DEMO,0.00,TC: 789635646943702274025,,,,,,0.00,,,,,,,0.00,,,,,,
Sam's Club #8173 Miramar 9/13-23/18 (FL),Sam's Club #8173 Miramar 9/13-23/18 (FL),Norimasa Sato,109571,9/19/2018 4:13:58 PM,Marie Maravise Tondreau,FL,33025,Foot Vibe Pro,,New,1,17.40,289.97,307.37,CreditCard,,,"2 years parts, 1 year labor for Small Items","Shogun Neck &amp; Back Massger,Foot Vibe Pro,",YES,,Delivered,,,,FL,0,6.00,USJ-871,0.00,TC: 789635646943702274025,,,,,,0.00,,,,,,,0.00,,,,,,
Sam's Club #8173 Miramar 9/13-23/18 (FL),Sam's Club #8173 Miramar 9/13-23/18 (FL),Norimasa Sato,109588,9/20/2018 3:21:57 PM,Linh Vuona,FL,33025,Foot Vibe Pro,,New,1,6.60,109.99,116.59,CreditCard,,,"2 years parts, 1 year labor (Free)","Foot Vibe Pro,",YES,,Delivered,,,,FL,0,6.00,USJ-871,0.00,TC706877103809635120307,,,,,,0.00,,,,,,,0.00,,,,,,
Sam's Club #8173 Miramar 9/13-23/18 (FL),Sam's Club #8173 Miramar 9/13-23/18 (FL),Norimasa Sato,109591,9/20/2018 3:58:10 PM,Jeffrey Cobb,FL,33023,Shogun Neck & Back Massger,New,New,1,12.00,199.98,211.98,CreditCard,,,"2 years parts, 1 year labor (Free)","Shogun Neck &amp; Back Massger,",YES,,Delivered,,,,FL,0,6.00,USJ-874USJ-874,0.00,TC ; 4720 2673 9468 2935 8492 6,,,,,,0.00,,,,,,,0.00,,,,,,
Sam's Club #8173 Miramar 9/13-23/18 (FL),Sam's Club #8173 Miramar 9/13-23/18 (FL),Miku Yamaguchi,109620,9/21/2018 8:05:41 AM,Kajal Akjer,FL,33317,Shogun Neck & Back Massger,New,New,1,12.00,199.98,211.98,CreditCard,,,"2 years parts, 1 year labor (Free)","Shogun Neck &amp; Back Massger,",YES,,Cancelled,,,"Confirmed this was not Miku's sales , correct sales rep is Norimasa Sato. He will reenter .
cancel this one - Hitomi",Not Dispatched,0,6.00,USJ-874USJ-874,0.00,TC: 2432 6219 6024 1887 6086 2,,,,,,0.00,,,,,,,0.00,,,,,,
Sam's Club #8173 Miramar 9/13-23/18 (FL),Sam's Club #8173 Miramar 9/13-23/18 (FL),Norimasa Sato,109621,9/21/2018 9:46:40 AM,Kajal Akjer,FL,33317,Shogun Neck & Back Massger,New,New,1,12.00,199.98,211.98,CreditCard,,,"2 years parts, 1 year labor (Free)","Shogun Neck &amp; Back Massger,",YES,,Delivered,,,,FL,0,6.00,USJ-874USJ-874,0.00,TC: 2432 6219 6024 1887 6086 2,,,,,,0.00,,,,,,,0.00,,,,,,
Sam's Club #8173 Miramar 9/13-23/18 (FL),Sam's Club #8173 Miramar 9/13-23/18 (FL),Norimasa Sato,109625,9/21/2018 12:55:48 PM,Henry Isaac,FL,33150,Foot Vibe Pro,,New,1,6.60,109.99,116.59,CreditCard,,,"2 years parts, 1 year labor (Free)","Foot Vibe Pro,",YES,,Delivered,,,,FL,0,6.00,USJ-871,0.00,TC 9667 9942 9775 8130 4612 9,,,,,,0.00,,,,,,,0.00,,,,,,
Sam's Club #8173 Miramar 9/13-23/18 (FL),Sam's Club #8173 Miramar 9/13-23/18 (FL),Norimasa Sato,109667,9/22/2018 8:40:34 PM,Dafne Perez,FL,33024,Foot Vibe Pro,,New,3,31.80,529.95,561.75,CreditCard,,,"2 years parts, 1 year labor (Free)","Foot Vibe Pro,Shogun Neck &amp; Back Massger,",YES,,Delivered,,,,FL,0,6.00,USJ-871,561.75,TC 062877106886637130397,,,,,,0.00,,,,,,,0.00,,,,,,
Sam's Club #8173 Miramar 9/13-23/18 (FL),Sam's Club #8173 Miramar 9/13-23/18 (FL),Norimasa Sato,109667,9/22/2018 8:40:34 PM,Dafne Perez,FL,33024,Shogun Neck & Back Massger,New,New,1,31.80,529.95,561.75,CreditCard,,,"2 years parts, 1 year labor (Free)","Foot Vibe Pro,Shogun Neck &amp; Back Massger,",YES,,Delivered,,,,FL,0,6.00,USJ-874USJ-874,561.75,TC 062877106886637130397,,,,,,0.00,,,,,,,0.00,,,,,,
Sam's Club #8173 Miramar 9/13-23/18 (FL),Sam's Club #8173 Miramar 9/13-23/18 (FL),Norimasa Sato,109680,9/23/2018 8:51:08 AM,Kendra Hodson,FL,33023,Shogun Neck & Back Massger,New,New,1,12.00,199.98,211.98,CreditCard,,,"2 years parts, 1 year labor for Small Items","Shogun Neck &amp; Back Massger,",YES,,Delivered,,,,FL,0,6.00,USJ-874USJ-874,0.00,TC 7727 9962 2705 0110 3219 9,,,,,,0.00,,,,,,,0.00,,,,,,
Sam's Club #8173 Miramar 9/13-23/18 (FL),Sam's Club #8173 Miramar 9/13-23/18 (FL),Norimasa Sato,109744,9/23/2018 7:57:36 PM,Yakov Zlajkin,FL,33019,Legacy for Sam's,Demo Black[-700],Demo,1,215.94,3599.00,3814.94,CreditCard,,,"3 years parts, 1 year labor (Free)","Legacy for Sam's,Chair Pad for Legacy,",No,9/23/2018 12:00:00 AM,Delivered,,,Chair was delivered totjecustomer after the road show on 9/23,FL,0,6.00,DWA-9100DWA-9100BL-DEMO,0.00,TC 2900 1660 3244 2390 5739 06,,,,,,0.00,,,,,,,0.00,,,,,,
Sam's Club #8173 Miramar 9/13-23/18 (FL),Sam's Club #8173 Miramar 9/13-23/18 (FL),Norimasa Sato,109750,9/23/2018 8:20:46 PM,Kohana Mejia,FL,33023,Shogun Neck & Back Massger,Demo[-20],Demo,1,10.80,179.98,190.78,CreditCard,,,"2 years parts, 1 year labor for Small Items","Shogun Neck &amp; Back Massger,",YES,,Delivered,,,Honored new one,FL,0,6.00,USJ-874USJ-874-DEMO,0.00,TC 2992 6279 3002 1887 8484 2,,,,,,0.00,,,,,,,0.00,,,,,,
Sam's Club #8173 Miramar 9/13-23/18 (FL),Sam's Club #8173 Miramar 9/13-23/18 (FL),Norimasa Sato,109754,9/23/2018 8:31:35 PM,Elena Montana- Gilley,FL,33321,Vitality Plate for Sam's,Demo[-60],Demo,1,24.00,399.99,423.99,CreditCard,,,"2 years parts, 1 year labor (Free)","Vitality Plate for Sam's,",YES,,Delivered,,,Honored now one. Store manager doscount,FL,0,6.00,USJ-849USJ-849-DEMO,0.00,4208 8760 5829 6351 5636 7,,,,,,0.00,,,,,,,0.00,,,,,,
Sam's Club #8173 Miramar 9/13-23/18 (FL),Sam's Club #8173 Miramar 9/13-23/18 (FL),Norimasa Sato,109756,9/23/2018 8:39:18 PM,Adewuyi Majaro,FL,33141,Foot Vibe Pro,,New,1,6.60,109.99,116.59,CreditCard,,,"2 years parts, 1 year labor (Free)","Foot Vibe Pro,",YES,,Delivered,,,,FL,0,6.00,USJ-871,0.00,6050 6681 3428 2975 1293 6,,,,,,0.00,,,,,,,0.00,,,,,,
Sam's Club #8173 Miramar 9/13-23/18 (FL),Sam's Club #8173 Miramar 9/13-23/18 (FL),Norimasa Sato,109758,9/23/2018 8:46:34 PM,Bethsy Ann Bernerena,FL,33024,Foot Vibe Pro,,New,1,6.60,109.99,116.59,CreditCard,,,"2 years parts, 1 year labor (Free)","Foot Vibe Pro,",YES,,Delivered,,,Free shipping//will confirm TC# 9/24/18 HItomi,FL,0,6.00,USJ-871,0.00,91469504292370828403 5,,,,,,0.00,,,,,,,0.00,,,,,,
Sam's Club #8173 Miramar 9/13-23/18 (FL),Sam's Club #8173 Miramar 9/13-23/18 (FL),Norimasa Sato,109759,9/23/2018 8:50:43 PM,RAFAEL REY,FL,33023,Relax 2 Zero 2.0 for Sam's,New Brown,New,1,0.00,3900.00,3900.00,CreditCard,,,"3 years parts, 1 year labor (Free)","Relax 2 Zero 2.0 for Sam's,",No,,Hold,,PLEASE HOLD!!,CUSTOMER FILLED OUT SALES RECEIPT. CUSTOMER WILL PURCHASE IN THE NEXT FEW MONTHS. AS SOON AS HE CLOSES HE'S NEW HOUSE DEAL.,Not Dispatched,1,6.00,USJ-9050USJ-9050BR,0.00,,,,,,,0.00,,,,,,,0.00,,,,,,
Sam's Club #8173 Miramar 9/13-23/18 (FL),Sam's Club #8173 Miramar 9/13-23/18 (FL),Norimasa Sato,109761,9/23/2018 8:56:02 PM,MYRVA JOSEPH,FL,33024,Vitality Plate for Sam's,Demo[-60],Demo,1,0.00,579.97,579.97,CreditCard,,,"2 years parts, 1 year labor for Small Items","Vitality Plate for Sam's,Shogun Neck &amp; Back Massger,",YES,,Delivered,,,FLORIDA BRANCH WILL SHIP THESE 2 ITEMS.,FL,1,6.00,USJ-849USJ-849-DEMO,579.97,10198861960745334528,,,,,,0.00,,,,,,,0.00,,,,,,
Sam's Club #8173 Miramar 9/13-23/18 (FL),Sam's Club #8173 Miramar 9/13-23/18 (FL),Norimasa Sato,109761,9/23/2018 8:56:02 PM,MYRVA JOSEPH,FL,33024,Shogun Neck & Back Massger,Demo[-20],Demo,1,0.00,579.97,579.97,CreditCard,,,"2 years parts, 1 year labor for Small Items","Vitality Plate for Sam's,Shogun Neck &amp; Back Massger,",YES,,Delivered,,,FLORIDA BRANCH WILL SHIP THESE 2 ITEMS.,FL,1,6.00,USJ-874USJ-874-DEMO,579.97,10198861960745334528,,,,,,0.00,,,,,,,0.00,,,,,,
Sam's Club #8173 Miramar 9/13-23/18 (FL),Sam's Club #8173 Miramar 9/13-23/18 (FL),Norimasa Sato,109762,9/23/2018 8:56:59 PM,Manita Laguerre,FL,33169,Foot Vibe Pro,,New,1,18.60,309.97,328.57,CreditCard,,,"2 years parts, 1 year labor (Free)","Foot Vibe Pro,Shogun Neck &amp; Back Massger,",YES,,Delivered,,,Free shipping. Florida takes care of it.,FL,0,6.00,USJ-871,0.00,8227 7962 3775 8100 4711 9,,,,,,0.00,,,,,,,0.00,,,,,,
Sam's Club #8173 Miramar 9/13-23/18 (FL),Sam's Club #8173 Miramar 9/13-23/18 (FL),Norimasa Sato,109762,9/23/2018 8:56:59 PM,Manita Laguerre,FL,33169,Shogun Neck & Back Massger,New,New,1,18.60,309.97,328.57,CreditCard,,,"2 years parts, 1 year labor (Free)","Foot Vibe Pro,Shogun Neck &amp; Back Massger,",YES,,Delivered,,,Free shipping. Florida takes care of it.,FL,0,6.00,USJ-874USJ-874,0.00,8227 7962 3775 8100 4711 9,,,,,,0.00,,,,,,,0.00,,,,,,
Sam's Club #8173 Miramar 9/13-23/18 (FL),Sam's Club #8173 Miramar 9/13-23/18 (FL),Norimasa Sato,109765,9/23/2018 9:02:06 PM,GERMAIN SIMON,FL,33023,Foot Vibe Pro,,New,1,6.60,109.99,116.59,CreditCard,,,"2 years parts, 1 year labor for Small Items","Foot Vibe Pro,",YES,,Delivered,,,"FL BRANCH WILL SHIP 

THANKS",FL,0,6.00,USJ-871,116.59,891988513637459301518,,,,,,0.00,,,,,,,0.00,,,,,,
Sam's Club #8173 Miramar 9/13-23/18 (FL),Sam's Club #8173 Miramar 9/13-23/18 (FL),Norimasa Sato,109766,9/23/2018 9:04:11 PM,Adewuyi Majaro,FL,33141,Shogun Neck & Back Massger,New,New,1,12.00,199.98,211.98,CreditCard,,,"2 years parts, 1 year labor (Free)","Shogun Neck &amp; Back Massger,",YES,,Delivered,,,will confirm TC# 9/24/18 Hitomi,FL,0,6.00,USJ-874USJ-874,0.00,18526229900418776084 2,,,,,,0.00,,,,,,,0.00,,,,,,
Sam's Club #8173 Miramar 9/13-23/18 (FL),Sam's Club #8173 Miramar 9/13-23/18 (FL),Norimasa Sato,109769,9/23/2018 9:11:03 PM,MARIA ESCOBAR,FL,33023,Foot Vibe Pro,,New,1,6.60,109.99,116.59,CreditCard,,,"2 years parts, 1 year labor for Small Items","Foot Vibe Pro,",YES,,Delivered,,,PICKED UP,FL,0,6.00,USJ-871,116.59,812817402819631170377,,,,,,0.00,,,,,,,0.00,,,,,,
Sam's Club #8173 Miramar 9/13-23/18 (FL),Sam's Club #8173 Miramar 9/13-23/18 (FL),Norimasa Sato,109771,9/23/2018 9:13:17 PM,Angella Mctier,FL,33169,Vitality Plate for Sam's,New,New,1,27.60,459.99,487.59,CreditCard,,,"2 years parts, 1 year labor (Free)","Vitality Plate for Sam's,",YES,,Delivered,,,will confirm TC# 9/24/18 Hitomi,FL,0,6.00,USJ-849USJ-849,0.00,89660574499370126902 5,,,,,,0.00,,,,,,,0.00,,,,,,
Sam's Club #8173 Miramar 9/13-23/18 (FL),Sam's Club #8173 Miramar 9/13-23/18 (FL),Norimasa Sato,109773,9/23/2018 9:14:30 PM,DAISIE FRANCIS,FL,33025,Foot Vibe Pro,,New,1,6.60,109.99,116.59,CreditCard,,,"2 years parts, 1 year labor for Small Items","Foot Vibe Pro,",YES,,Delivered,,,PICKED UP,FL,0,6.00,USJ-871,116.59,9617598467558130336139,,,,,,0.00,,,,,,,0.00,,,,,,
