﻿Date,CustomerName,State,Zipcode,Description,productNo,Color,IsDemo,Net,ShippingFee,GiftPrice,FinancingProcessingFee,Gross,Pre_tax,Tax,Commission,Primary Payment Method,Primary Payment Balance,Primary Authorize Number,Primary Purchase Order Number,Primary Synchrony Account Number,Primary Synchrony Application Key,Primary Synchrony AccountInfo,Primary SynchronyTerm,Secondly Payment Method,Secondly Payment Balance,Secondly Authorize Number,Secondly Purchase Order Number,Secondly Synchrony Account Number,Secondly Synchrony Application Key,Secondly Synchrony AccountInfo,Secondly SynchronyTerm,Thirdly Payment Method,Thirdly Payment Balance,Thirdly Authorize Number,Thirdly Purchase Order Number,Thirdly Synchrony Account Number,Thirdly Synchrony Application Key,Thirdly Synchrony AccountInfo,Thirdly SynchronyTerm,DeliveryDate,Ispickup,Warranty,Status,Event Name,Synchrony Notes,Order Notes,Order number,Private Note,Branch,IsNoTax,ActualTaxRate
12/5/2017 9:33:35 AM,Daiwa Massage,CA,90249,Ninja Leg Massager,,,New,,,,,405.53,379.00,26.53,Michael Wang,CreditCard,379.00,,,,,,,CreditCard,26.53,,,,,,,,0.00,,,,,,,,YES,"2 years parts, 1 year labor (Small Items)",Cancelled,Sam's Club #8253 11/30-12/10 (FL),,,102281,Will reenter with correct sams club #,CA,0,7.00
12/5/2017 5:43:13 PM,Joseph Davis,FL,32218,Relax2Zero 2.0 for Sam's,USJ-9050USJ-9050BR,Brown,New,,,,,3422.93,3199.00,223.93,Michael Wang,CreditCard,3199.00,,,,,,,CreditCard,223.93,,,,,,,,0.00,,,,,,,12/15/2017 12:00:00 AM,No,"3 years parts, 1 year labor (Free)",Delivered,Sam's Club #8253 11/30-12/10 (FL),,Give customer new chair.Give 2 total free chair pads 1 free blanket.Give 1 usb flash drive with music.,102289,,FL,0,7.00
12/6/2017 12:24:05 PM,Laura O’Shea,FL,32226,Relax2Zero 2.0 for Sam's,USJ-9050USJ-9050BR-DEMO,Demo Brown,Demo,,,,,3422.93,3199.00,223.93,Michael Wang,CreditCard,3199.00,TC# 2010 8464 0229 2252 1799 44,,,,,,CreditCard,223.93,,,,,,,,0.00,,,,,,,12/10/2017 12:00:00 AM,YES,"3 years parts, 1 year labor (Free)",Delivered,Sam's Club #8253 11/30-12/10 (FL),,Customer will receive 2 free chair pads 1 Daiwa blanket.1 usb flash drive with music will be provided for the customer as well.,102296,"Chair serial number 0102002170199. Will have customer sign off when chair is picked up.Customer will pick up brown Relax2zero 2.0 floor model at Sam’s Club Jacksonville 8253 on Sunday, Dec 10 at 6pm.",FL,0,7.00
12/9/2017 10:18:03 AM,Russell Swartzel,NE,68944,Relax2Zero 2.0 for Sam's,USJ-9050USJ-9050BR,Brown,New,,,,,3422.93,3199.00,223.93,Michael Wang,CreditCard,3422.93,TC# 4269 4689 2943 7434 0955 66,,,,,,,0.00,,,,,,,,0.00,,,,,,,,No,"3 years parts, 1 year labor (Free)",Called,Sam's Club #8253 11/30-12/10 (FL),,2 free chair pads 1 free blanket.Give Customer a new chair.,102338,"Delivery after Jan 2nd, 2018.If possible combine with other Nebraska deliveries that Chicago office does.But if no other deliveries to Nebraska ship from Gardena office.",TX,0,7.00
12/9/2017 10:48:24 AM,Kay Lee,FL,32218,Legacy for Sam's,DWA-9100DWA-9100SB,Sienna Brown,New,,,,,3850.93,3599.00,251.93,Michael Wang,CreditCard,3850.93,Tc# 3673 3909 5835 3383 9476 21,,,,,,,0.00,,,,,,,,0.00,,,,,,,12/20/2017 12:00:00 AM,No,"3 years parts, 1 year labor (Free)",Delivered,Sam's Club #8253 11/30-12/10 (FL),,Give customer new chair.2 free chair pads one free blanket.,102340,"Can we include in Friday, Dec 15 Jacksonville delivery schedule?",FL,0,7.00
12/9/2017 1:39:59 PM,Gary Ross,FL,32224,Legacy for Sam's,DWA-9100DWA-9100BL,Blue,New,,,,,3850.93,3599.00,251.93,Michael Wang,CreditCard,3850.93,TC# 5484 5718 9659 5565 7284 03,,,,,,,0.00,,,,,,,,0.00,,,,,,,12/20/2017 12:00:00 AM,No,"3 years parts, 1 year labor (Free)",Delivered,Sam's Club #8253 11/30-12/10 (FL),,2 free chair pads 1 free Daiwa blanket for customer.Please Give Customer new chair.,102344,If possible please delivery before Christmas Eve.,FL,0,7.00
12/10/2017 10:30:15 AM,Emily Carter,FL,32218,Relax2Zero 2.0 for Sam's,USJ-9050USJ-9050BR,Brown,New,,,,,3422.93,3199.00,223.93,Michael Wang,CreditCard,3422.93,Tc# 8647 6793 6683 5808 4321 77,,,,,,,0.00,,,,,,,,0.00,,,,,,,,No,"3 years parts, 1 year labor (Free)",Called,Sam's Club #8253 11/30-12/10 (FL),,Give customer new chair.2 free chair pads 1 free Daiwa blanket.Give flash drive with music.,102368,Customer wants delivery after Christmas.,FL,0,7.00
12/11/2017 6:46:35 AM,Ruth Angela Carnes,FL,32246,Legacy for Sam's,DWA-9100DWA-9100CH-DEMO,Demo Choco,Demo,,,,,3850.93,3599.00,251.93,Michael Wang,CreditCard,3850.93,Tc# 3603 5903 5131 5383 9476 21,,,,,,,0.00,,,,,,,,0.00,,,,,,,12/29/2017 12:00:00 AM,No,"3 years parts, 1 year labor (Free)",Delivered,Sam's Club #8253 11/30-12/10 (FL),,,102392,,FL,0,7.00
12/11/2017 12:44:01 PM,Daiwa Massage,CA,90249,Ninja Leg Massager,,,New,,,,,405.53,379.00,26.53,Michael Wang,CreditCard,405.53,Tc 4208 9716 4657 6162 2732 8,,,,,,,0.00,,,,,,,,0.00,,,,,,,,YES,"2 years parts, 1 year labor (Small Items)",Delivered,Sam's Club #8253 11/30-12/10 (FL),,,102406,,CA,0,7.00
12/11/2017 12:46:29 PM,Daiwa Massage,CA,90249,Ninja Leg Massager,,,New,,,,,405.53,379.00,26.53,Michael Wang,CreditCard,405.53,Tc 9824 0195 8551 5657 7847 3,,,,,,,0.00,,,,,,,,0.00,,,,,,,,YES,"2 years parts, 1 year labor (Small Items)",Delivered,Sam's Club #8253 11/30-12/10 (FL),,,102407,,CA,0,7.00
12/11/2017 12:54:39 PM,Daiwa Massage,CA,90249,Vitality Plate for Sam's,USJ-849USJ-849,New,New,,,,,427.99,399.99,28.00,Michael Wang,CreditCard,427.99,Tc 9094 3125 2541 5627 2146 3,,,,,,,0.00,,,,,,,,0.00,,,,,,,,YES,"2 years parts, 1 year labor (Small Items)",Delivered,Sam's Club #8253 11/30-12/10 (FL),,,102408,Customer customer new vitality plate for demo price.,CA,0,7.00
