﻿Original Event Name,Event Name,Sales Person,Order Number,Order Date,Customer Name,State,Zip,Product Name,Color,Product Status,QTY,Tax,Total Before Tax,Order Total,Primary Payment Method,Second Payment Method,Thirdl Payment Method,Warranty,Order Items,Pick up,Delivered On,Order Status,Chair Type,Order Notes,Private Note,Branch,No Tax,Actual Tax Rate,SKU,Primary Payment Balance,Primary Authorize Number,Primary Purchase Order Number,Primary Synchrony Account Number,Primary Synchrony Application Key,Primary Synchrony Account Info,Primary Synchrony Term,Primary Synchrony Primary ID,Primary Synchrony Issued State,Primary Synchrony Expiretion Date,Second Payment Balance,Second Authorize Number,Second Purchase Order Number,Second Synchrony Account Number,Second Synchrony Application Key,Second Synchrony Account Info,Second SynchronyTerm,Second Synchrony Primary ID,Second Synchrony Issued State,Second Synchrony Expiretion Date,Third Payment Balance,Third Authorize Number,Third Purchase Order Number,Third Synchrony Account Number,Third Synchrony Application Key,Third Synchrony Account Info,Third Synchrony Term,Third Synchrony Primary ID,Third Synchrony Issued State,Third Synchrony Expiretion Date
"Texas HM & GD (Dallas) 9/6-8/19 Dallas, TX","Texas HM & GD (Dallas) 9/6-8/19 Dallas, TX",Jennifer Tran,120824,9/8/2019 12:58:42 PM,Alfredo Salinas,TX,76016,PEGASUS 2 SMART,New Choco,New,1,0.00,5557.16,5557.16,Credit Card,Synchrony,,"5 years parts, 2 years labor ($200)","PEGASUS 2 SMART,",No,,Cancelled,,Preferable Fridays afternoon or Saturday any time for the delivery.,,Not Dispatched,1,8.25,PEGS-2PEGS-2-BR,1000.00,Square #OEhW,,,,,,,,/,0.00,,,6501723375316187,80870322,Huston,36 months,Driver’s License,TX,03/2023,0.00,,,,,,,,,/
"Texas HM & GD (Dallas) 9/6-8/19 Dallas, TX","Texas HM & GD (Dallas) 9/6-8/19 Dallas, TX",Jennifer Tran,120825,9/8/2019 1:06:22 PM,Alfredo Salinas,TX,76016,PEGASUS 2 SMART,New Choco,New,1,396.59,5557.16,5953.75,Credit Card,Synchrony,,"5 years parts, 2 years labor ($200)","PEGASUS 2 SMART,",No,9/13/2019 12:00:00 AM,Delivered,New,Delivery is preferable Friday’s afternoon and Saturday anytime.,"SQ amount verified $1000. Synchrony original verified. Credit available $7200. Remaining balance $4953.75. Charge synchrony account upon delivery, have sales draft signed.
Printed -Tina 9/9/2019
Scheduled for Friday 2-5PM 9/13/2019 - Tina 9/11/2019

Confirmed signed sales draft and verified delivery confirmation - Arisa 9/18/19 11:59am",TX,0,8.25,PEGS-2PEGS-2-BR,1000.00,Square #OEhW,,,,,,,,/,4953.75,,,6501723375316187,80870322,Huston,36 months,Driver’s License,TX,03/2023,0.00,,,,,,,,,/
