﻿Original Event Name,Event Name,Sales Person,Order Number,Order Date,Customer Name,State,Zip,Product Name,Color,Product Status,QTY,Tax,Total Before Tax,Order Total,Primary Payment Method,Second Payment Method,Thirdl Payment Method,Warranty,Order Items,Pick up,Delivered On,Order Status,Chair Type,Order Notes,Private Note,Branch,No Tax,Actual Tax Rate,SKU,Primary Payment Balance,Primary Authorize Number,Primary Purchase Order Number,Primary Synchrony Account Number,Primary Synchrony Application Key,Primary Synchrony Account Info,Primary Synchrony Term,Primary Synchrony Primary ID,Primary Synchrony Issued State,Primary Synchrony Expiretion Date,Second Payment Balance,Second Authorize Number,Second Purchase Order Number,Second Synchrony Account Number,Second Synchrony Application Key,Second Synchrony Account Info,Second SynchronyTerm,Second Synchrony Primary ID,Second Synchrony Issued State,Second Synchrony Expiretion Date,Third Payment Balance,Third Authorize Number,Third Purchase Order Number,Third Synchrony Account Number,Third Synchrony Application Key,Third Synchrony Account Info,Third Synchrony Term,Third Synchrony Primary ID,Third Synchrony Issued State,Third Synchrony Expiretion Date
"Sams Club #4930 Cookville, TN","Sams Club #4930 Cookville, TN",Salliana Bernardino,120921,9/12/2019 4:34:05 PM,Larry Williams,TN,38573,Relax 2 Zero 3D for Sam's,Demo (Box) Brown[-500],Demo,1,0.00,4497.98,4497.98,Sam’s Club Synchrony,,,"2 years parts, 1 year labor (Free)","Relax 2 Zero 3D for Sam's,Shogun Neck &amp; Back Massger,",No,9/26/2019 12:00:00 AM,Delivered,New,,"Deliver Shogun Neck and Back massager upon delivery at no cost
Original received.-Erika 9/13/19 11:16am
Warranty 3 year parts, 1 year labor
CC, Jasmin Carrizales, 9/16/19, 5:28pm, VM",FL,1,9.75,DWA-9060DWA-9060BR-DEMO (Box),0.00,,3712522552013469149376,,,,,,,/,0.00,,,,,,,,,/,0.00,,,,,,,,,/
"Sams Club #4930 Cookville, TN","Sams Club #4930 Cookville, TN",Salliana Bernardino,120921,9/12/2019 4:34:05 PM,Larry Williams,TN,38573,Shogun Neck & Back Massger,New,New,1,0.00,4497.98,4497.98,Sam’s Club Synchrony,,,"2 years parts, 1 year labor (Free)","Relax 2 Zero 3D for Sam's,Shogun Neck &amp; Back Massger,",No,9/26/2019 12:00:00 AM,Delivered,New,,"Deliver Shogun Neck and Back massager upon delivery at no cost
Original received.-Erika 9/13/19 11:16am
Warranty 3 year parts, 1 year labor
CC, Jasmin Carrizales, 9/16/19, 5:28pm, VM",FL,1,9.75,USJ-874USJ-874,0.00,,3712522552013469149376,,,,,,,/,0.00,,,,,,,,,/,0.00,,,,,,,,,/
"Sams Club #4930 Cookville, TN","Sams Club #4930 Cookville, TN",Salliana Bernardino,120958,9/14/2019 3:16:41 PM,Letitia Short,TN,38501,Legacy for Sam's,New Choco,New,1,0.00,4398.00,4398.00,Purchase Order,,,"3 years parts, 1 year labor (Free)","Legacy for Sam's,",No,,Delivered,,,"Original received.-Erika 9/16/19 5:00pm
CC, Jasmin Carrizales, 9/17/19, 2:32pm, VM",FL,1,9.75,DWA-9100DWA-9100CH,0.00,,4368187629846957631405,,,,,,,/,0.00,,,,,,,,,/,0.00,,,,,,,,,/
"Sams Club #4930 Cookville, TN","Sams Club #4930 Cookville, TN",Salliana Bernardino,120960,9/14/2019 5:07:38 PM,Rita Anderson,TN,38544,Vitality Plate for Sam's,New,New,1,0.00,459.99,459.99,Purchase Order,,,"2 years parts, 1 year labor (Free)","Vitality Plate for Sam's,",YES,,Delivered,,,Picked up at store no delivery,FL,1,9.75,USJ-849USJ-849,0.00,,003978308644792455229,,,,,,,/,0.00,,,,,,,,,/,0.00,,,,,,,,,/
