﻿Original Event Name,Event Name,Sales Person,Order Number,Order Date,Customer Name,State,Zip,Product Name,Color,Product Status,QTY,Tax,Total Before Tax,Order Total,Primary Payment Method,Second Payment Method,Thirdl Payment Method,Warranty,Order Items,Pick up,Delivered On,Order Status,Chair Type,Order Notes,Private Note,Branch,No Tax,Actual Tax Rate,SKU,Primary Payment Balance,Primary Authorize Number,Primary Purchase Order Number,Primary Synchrony Account Number,Primary Synchrony Application Key,Primary Synchrony Account Info,Primary Synchrony Term,Primary Synchrony Primary ID,Primary Synchrony Issued State,Primary Synchrony Expiretion Date,Second Payment Balance,Second Authorize Number,Second Purchase Order Number,Second Synchrony Account Number,Second Synchrony Application Key,Second Synchrony Account Info,Second SynchronyTerm,Second Synchrony Primary ID,Second Synchrony Issued State,Second Synchrony Expiretion Date,Third Payment Balance,Third Authorize Number,Third Purchase Order Number,Third Synchrony Account Number,Third Synchrony Application Key,Third Synchrony Account Info,Third Synchrony Term,Third Synchrony Primary ID,Third Synchrony Issued State,Third Synchrony Expiretion Date
"Sam's Club #4998 Lady Lake, FL (FL)","Sam's Club #4998 Lady Lake, FL (FL)",Hector Bernardino,122857,12/5/2019 12:04:49 PM,Wayne Wilcox,FL,32163,PEGASUS 2 SMART - Sam's,New Choco,New,1,468.86,6698.00,7166.86,Sam’s Club Synchrony,,,"3 years parts, 1 year labor (Free)","PEGASUS 2 SMART - Sam's,",No,,Scheduled,,,"Original received-Erika 12/5/19 3:20pm
Customer called in wanting status of his order, emailed FL branch to follow up-Erika 12/10/19
Scheduled 12/18/19, between 4pm-7pm, JC 12/11/19",FL,0,7.00,PEGS-2PEGS-2-BR,0.00,,,,,,,,,/,0.00,,,,,,,,,/,0.00,,,,,,,,,/
"Sam's Club #4998 Lady Lake, FL (FL)","Sam's Club #4998 Lady Lake, FL (FL)",Hector Bernardino,122864,12/5/2019 3:26:02 PM,Denise Tthbe,FL,32159,Relax 2 Zero 3D for Sam's,Demo Black[-500],Demo,1,300.86,4298.00,4598.86,Sam’s Club Synchrony,,,"3 years parts, 1 year labor (Free)","Relax 2 Zero 3D for Sam's,",No,,Scheduled,,,"FREE SHOGUN AS GIFT - 12/6/19 MQ
Original received-Erika 12/6/19 2:38pm
Per sales rep pls deliver NEW chair. demo(box)
CC, Jasmin Carrizales, 12/10/19, #Not working sent an email
12/12Maritza- Customer called and gave me correct number. Gave her FL branch office number.
Scheduled 12/23/19 between 3pm-5pm",FL,0,7.00,DWA-9060DWA-9060BL-DEMO,0.00,,,,,,,,,/,0.00,,,,,,,,,/,0.00,,,,,,,,,/
"Sam's Club #4998 Lady Lake, FL (FL)","Sam's Club #4998 Lady Lake, FL (FL)",Hector Bernardino,122900,12/8/2019 11:05:21 AM,Roger Pascarrella,FL,32159,Vitality Plate for Sam's,New,New,1,32.20,459.99,492.19,Purchase Order,,,"2 years parts, 1 year labor (Free)","Vitality Plate for Sam's,",YES,,Delivered,,,,FL,0,7.00,USJ-849USJ-849,0.00,,256998421407599988269,,,,,,,/,0.00,,,,,,,,,/,0.00,,,,,,,,,/
"Sam's Club #4998 Lady Lake, FL (FL)","Sam's Club #4998 Lady Lake, FL (FL)",Hector Bernardino,122901,12/8/2019 11:14:08 AM,Chris Williams,FL,34471,Relax 2 Zero 3D for Sam's,New Black,New,1,335.86,4798.00,5133.86,Sam’s Club Synchrony,,,"3 years parts, 1 year labor (Free)","Relax 2 Zero 3D for Sam's,",No,,Scheduled,,,"Original received-Erika 12/9/19 12:04pm
Scheduled 12/18/19 between 11am-12pm, JC 12/11/19
Mr. williams called in wanting to reschedule, emailed FL branch-Erika 12/16/19",FL,0,7.00,DWA-9060DWA-9060BL,0.00,,,,,,,,,/,0.00,,,,,,,,,/,0.00,,,,,,,,,/
"Sam's Club #4998 Lady Lake, FL (FL)","Sam's Club #4998 Lady Lake, FL (FL)",Hector Bernardino,122902,12/8/2019 11:22:34 AM,Daysy Pabon,FL,32162,PEGASUS 2 SMART - Sam's,New Black,New,1,468.86,6698.00,7166.86,Sam’s Club Synchrony,,,"3 years parts, 1 year labor (Free)","PEGASUS 2 SMART - Sam's,",No,,Scheduled,,,"Add a vitality plate at no cost
Original received-Erika 12/9/19 11:51am
Scheduled 12/18/19 between 3pm-6pm, JC 12/11/19",FL,0,7.00,PEGS-2PEGS-2-BL,0.00,,,,,,,,,/,0.00,,,,,,,,,/,0.00,,,,,,,,,/
"Sam's Club #4998 Lady Lake, FL (FL)","Sam's Club #4998 Lady Lake, FL (FL)",Hector Bernardino,122941,12/10/2019 11:35:07 AM,Kenneth Fiks,FL,32162,Vitality Plate for Sam's,New,New,1,32.20,459.99,492.19,Purchase Order,,,"2 years parts, 1 year labor (Free)","Vitality Plate for Sam's,",YES,,Delivered,,,,FL,0,7.00,USJ-849USJ-849,0.00,,543222536134868655396,,,,,,,/,0.00,,,,,,,,,/,0.00,,,,,,,,,/
"Sam's Club #4998 Lady Lake, FL (FL)","Sam's Club #4998 Lady Lake, FL (FL)",Hector Bernardino,123029,12/14/2019 8:10:31 AM,Harnarine Poorun,FL,32159,Orbit for Sam's ,New Choco,New,1,230.86,3298.00,3528.86,Sam’s Club Synchrony,,,"3 years parts, 1 year labor (Free)","Orbit for Sam's ,",No,,Scheduled,,,"Original received-Erika 12/16/19 4:54pm
scheduled 12/23/19, between 4pm-7pm, JC 12/17/19",FL,0,7.00,ORBT-1ORBT-1CH,0.00,,,,,,,,,/,0.00,,,,,,,,,/,0.00,,,,,,,,,/
"Sam's Club #4998 Lady Lake, FL (FL)","Sam's Club #4998 Lady Lake, FL (FL)",Hector Bernardino,123038,12/14/2019 7:07:58 PM,Tyler Cupperman,FL,32159,Ninja Leg Massager 2,New,New,1,21.00,299.98,320.98,Purchase Order,,,"2 years parts, 1 year labor (Free)","Ninja Leg Massager 2,",YES,,Delivered,,,,FL,0,7.00,USJ-880,0.00,,796665580753019184801,,,,,,,/,0.00,,,,,,,,,/,0.00,,,,,,,,,/
"Sam's Club #4998 Lady Lake, FL (FL)","Sam's Club #4998 Lady Lake, FL (FL)",Hector Bernardino,123071,12/15/2019 1:31:13 PM,Anthony Quintero,FL,33597,Relax 2 Zero 3D for Sam's,Demo (Box) Black[-500],Demo,1,300.86,4298.00,4598.86,Sam’s Club Synchrony,,,"3 years parts, 1 year labor (Free)","Relax 2 Zero 3D for Sam's,",No,,Scheduled,,,"Please add a ninja leg Massager 2
Original received-Erika 12/16/19 5:00pm PLS CONFIRM CHAIR COLOR
Scheduled 12/23/19 between 2pm-5pm, color confirmed-Black JC 12/17/19",FL,0,7.00,DWA-9060DWA-9060BL-DEMO (Box),0.00,,,,,,,,,/,0.00,,,,,,,,,/,0.00,,,,,,,,,/
