﻿Original Event Name,Event Name,Sales Person,Order Number,Order Date,Customer Name,State,Zip,Product Name,Color,Product Status,QTY,Tax,Total Before Tax,Order Total,Primary Payment Method,Second Payment Method,Thirdl Payment Method,Warranty,Order Items,Pick up,Delivered On,Order Status,Chair Type,Order Notes,Private Note,Branch,No Tax,Actual Tax Rate,SKU,Primary Payment Balance,Primary Authorize Number,Primary Purchase Order Number,Primary Synchrony Account Number,Primary Synchrony Application Key,Primary Synchrony Account Info,Primary Synchrony Term,Primary Synchrony Primary ID,Primary Synchrony Issued State,Primary Synchrony Expiretion Date,Second Payment Balance,Second Authorize Number,Second Purchase Order Number,Second Synchrony Account Number,Second Synchrony Application Key,Second Synchrony Account Info,Second SynchronyTerm,Second Synchrony Primary ID,Second Synchrony Issued State,Second Synchrony Expiretion Date,Third Payment Balance,Third Authorize Number,Third Purchase Order Number,Third Synchrony Account Number,Third Synchrony Application Key,Third Synchrony Account Info,Third Synchrony Term,Third Synchrony Primary ID,Third Synchrony Issued State,Third Synchrony Expiretion Date
"Sams Club #4857 Cape Coral, FL","Sams Club #4857 Cape Coral, FL",Scott Black,118987,7/28/2019 8:16:19 AM,Kerry Abernethy,AA,33914,Legacy for Sam's,New Choco,New,1,285.87,4398.00,4683.87,Sam’s Club Synchrony,,,"3 years parts, 1 year labor (Free)","Legacy for Sam's,",No,,New,,,STATE: FL,Not Dispatched,0,6.50,DWA-9100DWA-9100CH,0.00,,,,,,,,,/,0.00,,,,,,,,,/,0.00,,,,,,,,,/
"Sams Club #4857 Cape Coral, FL","Sams Club #4857 Cape Coral, FL",Scott Black,118988,7/28/2019 8:23:04 AM,Linares Yunio,FL,33914,Legacy for Sam's,Demo Choco[-500],Demo,1,253.37,3898.00,4151.37,Credit Card,,,"3 years parts, 1 year labor (Free)","Legacy for Sam's,",YES,,New,,,,Not Dispatched,0,6.50,DWA-9100DWA-9100CH-DEMO,0.00,8546065234973212679850,,,,,,,,/,0.00,,,,,,,,,/,0.00,,,,,,,,,/
"Sams Club #4857 Cape Coral, FL","Sams Club #4857 Cape Coral, FL",Scott Black,118989,7/28/2019 8:29:27 AM,Richard Newvilla,FL,33903,Vitality Plate for Sam's,New,New,1,29.90,459.99,489.89,Credit Card,,,"3 years parts, 1 year labor (Free)","Vitality Plate for Sam's,",YES,,New,,,,Not Dispatched,0,6.50,USJ-849USJ-849,0.00,291958173604399055295,,,,,,,,/,0.00,,,,,,,,,/,0.00,,,,,,,,,/
