﻿Original Event Name,Event Name,Sales Person,Order Number,Order Date,Customer Name,State,Zip,Product Name,Color,Product Status,QTY,Tax,Total Before Tax,Order Total,Primary Payment Method,Second Payment Method,Thirdl Payment Method,Warranty,Order Items,Pick up,Delivered On,Order Status,Chair Type,Order Notes,Private Note,Branch,No Tax,Actual Tax Rate,SKU,Primary Payment Balance,Primary Authorize Number,Primary Purchase Order Number,Primary Synchrony Account Number,Primary Synchrony Application Key,Primary Synchrony Account Info,Primary Synchrony Term,Second Payment Balance,Second Authorize Number,Second Purchase Order Number,Second Synchrony Account Number,Second Synchrony Application Key,Second Synchrony Account Info,Second SynchronyTerm,Third Payment Balance,Third Authorize Number,Third Purchase Order Number,Third Synchrony Account Number,Third Synchrony Application Key,Third Synchrony Account Info,Third Synchrony Term
"Sam's Club #7189 Oklahoma City, OK (2/21-3/3/2019) TX","Sam's Club #7189 Oklahoma City, OK (2/21-3/3/2019) TX",Gary Cyrlin,115538,3/7/2019 7:15:46 PM,Juanita Jones,OK,73111,Shogun Neck & Back Massger,New,New,1,17.25,199.98,217.23,CreditCard,,,"2 years parts, 1 year labor for Small Items","Shogun Neck &amp; Back Massger,",YES,,Delivered,,,,TX,0,8.63,USJ-874USJ-874,217.23,424026315802776943596,,,,,,0.00,,,,,,,0.00,,,,,,
"Sam's Club #7189 Oklahoma City, OK (2/21-3/3/2019) TX","Sam's Club #7189 Oklahoma City, OK (2/21-3/3/2019) TX",Gary Cyrlin,115539,3/7/2019 7:18:46 PM,Daniel Cortez,OK,73118,Shogun Neck & Back Massger,New,New,1,17.25,199.98,217.23,CreditCard,,,"2 years parts, 1 year labor for Small Items","Shogun Neck &amp; Back Massger,",YES,,Delivered,,,,TX,0,8.63,USJ-874USJ-874,217.23,260144334608880720994,,,,,,0.00,,,,,,,0.00,,,,,,
"Sam's Club #7189 Oklahoma City, OK (2/21-3/3/2019) TX","Sam's Club #7189 Oklahoma City, OK (2/21-3/3/2019) TX",Gary Cyrlin,115540,3/7/2019 7:21:42 PM,Thongsamouth Sounautha,OK,73107,Shogun Neck & Back Massger,New,New,1,17.25,199.98,217.23,CreditCard,,,"2 years parts, 1 year labor (Free)","Shogun Neck &amp; Back Massger,",YES,,Delivered,,,,TX,0,8.63,USJ-874USJ-874,217.23,786769542553334194079,,,,,,0.00,,,,,,,0.00,,,,,,
