﻿Date,CustomerName,State,Zipcode,Description,productNo,Color,IsDemo,Net,ShippingFee,GiftPrice,FinancingProcessingFee,Gross,Pre_tax,Tax,Commission,Primary Payment Method,Primary Payment Balance,Primary Authorize Number,Primary Purchase Order Number,Primary Synchrony Account Number,Primary Synchrony Application Key,Primary Synchrony AccountInfo,Primary SynchronyTerm,Secondly Payment Method,Secondly Payment Balance,Secondly Authorize Number,Secondly Purchase Order Number,Secondly Synchrony Account Number,Secondly Synchrony Application Key,Secondly Synchrony AccountInfo,Secondly SynchronyTerm,Thirdly Payment Method,Thirdly Payment Balance,Thirdly Authorize Number,Thirdly Purchase Order Number,Thirdly Synchrony Account Number,Thirdly Synchrony Application Key,Thirdly Synchrony AccountInfo,Thirdly SynchronyTerm,DeliveryDate,Ispickup,Warranty,Status,Event Name,Synchrony Notes,Order Notes,Order number,Private Note,Branch,IsNoTax,ActualTaxRate
6/1/2018 7:46:41 PM,Denise Walker,NV,89146,Relax2Zero 3D,DWA-9060USJ-9060BL-DEMO,Demo Black,Demo,,,,,3700.00,3700.00,0.00,Kohei Uno,CreditCard,1700.00,849014,,,,,,CreditCard,2000.00,895232,,,,,,,0.00,,,,,,,6/12/2018 12:00:00 AM,No,"3 years parts, 1 year labor (Free)",Delivered,SAN DIEGO COUNTY FAIR 6/1-7/4/18 DEL MAR(CA),,,106529,"Confirmed $3,700 in Wells Fargo. 6/4/18 Hitomi
6/6Maritza Courtesy call @ 1:14PM",NV,1,7.75
6/3/2018 10:52:32 AM,Troy Green,CA,92082,Legacy 3D,DWA-9150USJ-9150CH-DEMO,Demo Choco,Demo,,,,,3800.00,3800.00,0.00,Rodrigo Malabunga,CreditCard,3800.00,Approval #862422,,,,,,,0.00,,,,,,,,0.00,,,,,,,6/8/2018 12:00:00 AM,No,"3 years parts, 1 year labor (Free)",Delivered,SAN DIEGO COUNTY FAIR 6/1-7/4/18 DEL MAR(CA),,,106543,"Pls call this tel. # 760 533 0197
His son name is Bannon//Confirmed $3,800 in Wells Fargo. 6/4/18 Hitomi",CA,1,7.75
6/3/2018 11:02:44 AM,John Brockmeyer,MO,63119,Legacy 3D,DWA-9150USJ-9150CH-DEMO,Demo Choco,Demo,,,,,3900.00,3900.00,0.00,Rodrigo Malabunga,CreditCard,3900.00,Sq #nvVr,,,,,,,0.00,,,,,,,,0.00,,,,,,,6/12/2018 12:00:00 AM,No,"3 years parts, 1 year labor (Free)",Delivered,SAN DIEGO COUNTY FAIR 6/1-7/4/18 DEL MAR(CA),,,106544,"Basement delivery//Confirmed $3,900 in Square. 6/4/18 Hitomi
6/6Maritza Courtesy call @ 1:25PM",TX,1,7.75
6/3/2018 11:10:02 AM,Maria Nieto,CA,91915,Legacy 3D,DWA-9150USJ-9150BL-DEMO,Demo Black,Demo,,,,,3900.00,3900.00,0.00,Rolly San Jose,CreditCard,4202.00,Approval #22046B,,,,,,,0.00,,,,,,,,0.00,,,,,,,,No,"3 years parts, 1 year labor (Free)",Cancelled,SAN DIEGO COUNTY FAIR 6/1-7/4/18 DEL MAR(CA),,,106545,"CORRECT TOTAL AMOUNT IS $4,202.00. Revised to #106782
6/8Printed-Maritza",CA,1,7.75
6/3/2018 5:46:58 PM,William Kim,CA,92620,Pegasus,DWA-9400Pegasus-BR-DEMO,Demo Choco,Demo,,,,,4500.00,4500.00,0.00,Rodrigo Malabunga,CreditCard,500.00,Sq #00De,,,,,,CreditCard,4000.00,housecall pro,,,,,,,0.00,,,,,,,6/6/2018 12:00:00 AM,No,"3 years parts, 1 year labor (Free)",Delivered,SAN DIEGO COUNTY FAIR 6/1-7/4/18 DEL MAR(CA),,,106549,"Total priced 4,500.00
Down payment 500.00
Balanced COD 4000.00///Confirmed $500 in Square. COD$4,000.6/4/18 Hitomi",CA,1,7.75
6/3/2018 9:44:42 PM,Ruben Ramos,CA,92114,Relax2Zero 3D,DWA-9060USJ-9060BR-DEMO,Demo Choco,Demo,,,,,3700.00,3700.00,0.00,Querubin Milanes,Synchrony,3700.00,,,6034610083311632,89781641,San Diego,36 months,,0.00,,,,,,,,0.00,,,,,,,6/6/2018 12:00:00 AM,No,"3 years parts, 1 year labor (Free)",Delivered,SAN DIEGO COUNTY FAIR 6/1-7/4/18 DEL MAR(CA),"Authorization # 005280
Confirmed $3,700/36 months on Synchrony SD. 6/7/18 Riho",,106556,"Confirmed the account($5,000) Original form needs to be confirmed 6/4/18 Hitomi
06/04/18- (Printed) Synchrony Verified",CA,1,7.75
6/4/2018 11:19:09 AM,Dana Olson,CA,92019,Relax2Zero 3D,DWA-9060USJ-9060BR-DEMO,Demo Choco,Demo,,,,,3900.00,3900.00,0.00,Ruben Cuatrona,Synchrony,3900.00,,,6034610083312242,89788309,San Diego,36 months,,0.00,,,,,,,,0.00,,,,,,,6/8/2018 12:00:00 AM,No,"3 years parts, 1 year labor (Free)",Delivered,SAN DIEGO COUNTY FAIR 6/1-7/4/18 DEL MAR(CA),"Authorization # 006911
Confirmed $3,900/36 months on Synchrony SD. 6/22/18 Riho",,106567,"Please set up delivery for Friday, June 8th (4~5pm)
06/04/18- credit $8,500.00 charge before delivery (Printed)",CA,1,7.75
6/4/2018 11:30:32 AM,Jacqueline Coronel,CA,91911,Relax2Zero 3D,DWA-9060USJ-9060BR,New Choco,New,,,,,3900.00,3900.00,0.00,Ruben Cuatrona,Synchrony,3900.00,,,6034610083314461,89823531,San Diego,36 months,,0.00,,,,,,,,0.00,,,,,,,6/16/2018 12:00:00 AM,No,"3 years parts, 1 year labor (Free)",Delivered,SAN DIEGO COUNTY FAIR 6/1-7/4/18 DEL MAR(CA),"Confirmed $3,900/36 months/Auth#013476 on Synchrony SD. 6/22/18 Riho",,106568,"Customer was given discount for purchasing 2 chairs. Please refer to other order under ""Sylvia Gonzalez""///Confirmed the account ($6,000) and synchrony form . ***please charge before delivery and have sales draft signed.*** 6/4/18 Hitomi",CA,1,7.75
6/4/2018 11:30:43 AM,Kenneth Smith,CA,92027,Legacy 3D,DWA-9150USJ-9150CH,New Choco,New,,,,,4500.00,4500.00,0.00,Rolly San Jose,Synchrony,4500.00,,,6034610083314354,89822409,San Diego,36 months,,0.00,,,,,,,,0.00,,,,,,,6/16/2018 12:00:00 AM,No,"3 years parts, 1 year labor (Free)",Delivered,SAN DIEGO COUNTY FAIR 6/1-7/4/18 DEL MAR(CA),"Authorization # 005116
Confirmed $4500/36 months on Synchrony SD. 6/25/18 Riho",,106569,"Confirmed the account ($7,200) and synchrony form . please have Kenneth's sign on invoice. ***charge before delivery and have sales draft signed. ***6/4/18 Hitomi",CA,1,7.75
6/4/2018 11:43:26 AM,Sylvia Gonzalez,CA,92108,Relax2Zero 3D,DWA-9060USJ-9060BR,New Choco,New,,,,,3900.00,3900.00,0.00,Ruben Cuatrona,Synchrony,3900.00,,,6034610083314479,89823538,San Diego,36 months,,0.00,,,,,,,,0.00,,,,,,,6/16/2018 12:00:00 AM,No,"3 years parts, 1 year labor (Free)",Delivered,SAN DIEGO COUNTY FAIR 6/1-7/4/18 DEL MAR(CA),,Please include chair cover to the order.,106570,"Customer was given additional discount for purchasing 2 chairs. Please refer to order under ""Jacqueline Coronel""///Confirmed the account ($8,500) and synchrony form.***please charge before delivery and have sales draft signed.***6/4/18 Hitomi",CA,1,7.75
6/4/2018 11:54:15 AM,Chad Graybill,CA,92021,Legacy 3D,DWA-9150USJ-9150CH-DEMO,Demo Choco,Demo,,,,,3500.00,3500.00,0.00,Kohei Uno,Synchrony,3500.00,,,6034610083312259,89788364,San Diego,36 months,,0.00,,,,,,,,0.00,,,,,,,,No,"3 years parts, 1 year labor (Free)",Cancelled,SAN DIEGO COUNTY FAIR 6/1-7/4/18 DEL MAR(CA),,,106571,"Additional discount added as Military Discount. ($400)//Confirmed synchrony form and the account ($3,500)**Please charge before delivery and have sales draft signed. *** 6/4/18 Hitomi
CANCEL PER KOHEI",CA,1,7.75
6/6/2018 6:10:54 PM,Rena Marrocco,CA,92084,Relax2Zero 3D,DWA-9060USJ-9060BR-DEMO,Demo Choco,Demo,,,,,4212.00,3955.56,256.44,Kohei Uno,CreditCard,312.00,zeBl,,,,,,Synchrony,3900.00,,,6034610083318959,89954940,San Diego,36 months,,0.00,,,,,,,6/18/2018 12:00:00 AM,No,"3 years parts, 1 year labor (Free)",Delivered,SAN DIEGO COUNTY FAIR 6/1-7/4/18 DEL MAR(CA),"Authorization # 013565
Confirmed $3,900/36 months on Synchrony SD. 6/22/18 Riho",Please remove old massage inside customer's home.,106597,"Confirmed $312.00 in Square,synchrony ($8,500.) synchrony original was confirmed . 6/7/18 Hitomi",CA,0,8.00
6/6/2018 9:44:45 PM,Melissa Stottlemyer,CA,92841,Relax2Zero 3D,DWA-9060USJ-9060BL-DEMO,Demo Black,Demo,,,,,3900.00,3900.00,0.00,Ruben Cuatrona,CreditCard,3900.00,a2mj,,,,,,,0.00,,,,,,,,0.00,,,,,,,6/13/2018 12:00:00 AM,No,"3 years parts, 1 year labor (Free)",Delivered,SAN DIEGO COUNTY FAIR 6/1-7/4/18 DEL MAR(CA),,,106599,"Please schedule delivery for next (wed~fri) (6/13~6/15)///Confirmed $3,900.00 in Square. 6/7/18 Hitomi
Maritza Printed 6/7",CA,1,8.00
6/7/2018 7:36:16 PM,Nicholas Tudor,CA,92563,Legacy 3D,DWA-9150USJ-9150BL-DEMO,Demo Black,Demo,,,,,3900.00,3900.00,0.00,Rolly San Jose,Synchrony,3900.00,,,6034610083319122,89958374,San Diego,36 months,,0.00,,,,,,,,0.00,,,,,,,6/18/2018 12:00:00 AM,No,"3 years parts, 1 year labor (Free)",Delivered,SAN DIEGO COUNTY FAIR 6/1-7/4/18 DEL MAR(CA),"Authorization # 013300
Confirmed $3,900/36 months on Synchrony SD. 6/22/18 Riho",,106604,"Confirmed the account ($7,200.) original form was confirmed.***PLease charge before delivery and have sales draft signed*** 6/8/18 Hitomi
6/8Maritza Printed. CC @ 4:54PM",CA,1,8.00
6/7/2018 7:46:05 PM,Tammy Marlette,DE,19958,Pegasus,DWA-9400Pegasus-BR,New Choco,New,,,,,4800.00,4800.00,0.00,Rodrigo Malabunga,Synchrony,4800.00,,,6034610083320526,89999207,San Diego,36 months,,0.00,,,,,,,,0.00,,,,,,,6/23/2018 12:00:00 AM,No,"3 years parts, 3 years labor ($400)",Delivered,SAN DIEGO COUNTY FAIR 6/1-7/4/18 DEL MAR(CA),"Confirmed $4,800/36 months/Auth#014488 on Synchrony SD. 7/2/18 Riho",,106605,"Confirmed the account ($8,500). original form was confirmed. ***PLease charge before delivery and have sales draft signed***6/8/18 Hitomi
6/8 Maritza Courtesy call @5:33PM Customer prefers delivery in 2 weeks when she gets back home. She is is CA for vacations.",TX,1,8.00
6/7/2018 7:55:28 PM,Nancy Schuman,CA,92399,Legacy 3D,DWA-9150USJ-9150CH,New Choco,New,,,,,4500.00,4500.00,0.00,Rolly San Jose,CreditCard,4500.00,Sq #ncQ9,,,,,,,0.00,,,,,,,,0.00,,,,,,,6/18/2018 12:00:00 AM,No,"3 years parts, 1 year labor (Free)",Delivered,SAN DIEGO COUNTY FAIR 6/1-7/4/18 DEL MAR(CA),,,106606,"6/8Maritza Confirmed full amount 4500 on square.Printed.
Courtesy call @ 9:35AM will be available 14-15th or will call for week of the 18th
6/8PRINTED",CA,1,8.00
6/7/2018 8:04:50 PM,Jamie Morales,CA,92591,Legacy 3D,DWA-9150USJ-9150BL-DEMO,Demo Black,Demo,,,,,3900.00,3900.00,0.00,Rolly San Jose,Synchrony,2400.00,,,6034610083319007,89956477,Las Vegas,36 months,COD,1500.00,,,,,,,,0.00,,,,,,,,No,"3 years parts, 1 year labor (Free)",Hold,SAN DIEGO COUNTY FAIR 6/1-7/4/18 DEL MAR(CA),,,106607,"HOLD for now//Confirmed original synchrony form and the account($2,400).  6/8/18 Hitomi",Not Dispatched,1,8.00
6/10/2018 10:26:14 AM,Flora danquel Cara lawler,CA,92131,Legacy 3D,DWA-9150USJ-9150CH,New Choco,New,,,,,4600.00,4600.00,0.00,Rolly San Jose,CreditCard,3400.00,Sq #1sGn,,,,,,CreditCard,1100.00,Sq #pS4o,,,,,,,0.00,,,,,,,6/14/2018 12:00:00 AM,No,"3 years parts, 1 year labor (Free)",Delivered,SAN DIEGO COUNTY FAIR 6/1-7/4/18 DEL MAR(CA),,,106655,"2 payments by credit card
3400 Sq #1sGn
1100 sq #pS4o///correct total amount $4,500. Confirmed $1,100/$3,400. correct total amount is $4,500. 6/11/18 Hitomi PRINTED",CA,1,8.00
6/10/2018 10:27:49 AM,Andrew Arriola,CA,92592,Relax2Zero 3D,DWA-9060USJ-9060BR,New Choco,New,,,,,4200.00,4200.00,0.00,Ruben Cuatrona,CreditCard,2100.00,KtQY,,,,,,CreditCard,2100.00,Nfia,,,,,,,0.00,,,,,,,6/20/2018 12:00:00 AM,No,"3 years parts, 1 year labor (Free)",Delivered,SAN DIEGO COUNTY FAIR 6/1-7/4/18 DEL MAR(CA),,,106656,"Confirmed $4,200 in Square. 6/11/18 Hitomi PRINTED",CA,1,8.00
6/10/2018 10:38:05 AM,Michael Gorin,CA,92127,Relax2Zero 3D,DWA-9060USJ-9060BR,New Choco,New,,,,,4500.00,4500.00,0.00,Ruben Cuatrona,Synchrony,4500.00,,,6034610083324973,90088019,Las Vegas,36 months,,0.00,,,,,,,,0.00,,,,,,,6/18/2018 12:00:00 AM,No,"3 years parts, 1 year labor (Free)",Delivered,SAN DIEGO COUNTY FAIR 6/1-7/4/18 DEL MAR(CA),"Authorization # 013695
Confirmed $4,500/36 months on Synchrony LV. 6/22/18 Riho",,106657,"COnfirmed the account ($8,500.) original  confirmed.  ***Please charge before delivery and have sales draft signed. ***6/11/18 HitomiPRINTED",CA,1,8.00
6/10/2018 10:38:23 AM,Doug Humphrey,CA,92592,Relax2Zero 3D,DWA-9060USJ-9060BL,New Black,New,,,,,4212.00,3900.00,312.00,Robert Shih,CreditCard,100.00,SQUARE# s4D3,,,,,,COD,4112.00,,,,,,,,0.00,,,,,,,,No,"3 years parts, 1 year labor (Free)",Cancelled,SAN DIEGO COUNTY FAIR 6/1-7/4/18 DEL MAR(CA),,"Thank you very much for your business with us in San Diego county fair / COD $ 4,112 / Please deliver ASAP / Please assistance  customer to move his old chair to the upstairs",106658,"Confirmed $100 in Square.COD $4,112. 6/11/18 Hitomi PRINTED
06/12/18- Per Robert S. okay to cancel Refunded customer $100 deposit threw Sq.-Cristina",CA,0,8.00
6/10/2018 10:44:36 AM,David Fernandez,CA,92029,Pegasus,DWA-9400Pegasus-BR-DEMO,Demo Choco,Demo,,,,,4500.00,4500.00,0.00,Rolly San Jose,Synchrony,4500.00,,,6034610083323082,90065069,San Diego,48 months,,0.00,,,,,,,,0.00,,,,,,,6/14/2018 12:00:00 AM,No,"3 years parts, 1 year labor (Free)",Delivered,SAN DIEGO COUNTY FAIR 6/1-7/4/18 DEL MAR(CA),"Authorization # 012372
Confirmed $4,500/48 months on Synchrony SD. 6/19/18 Riho",,106659,"COnfirmed synchrony account ($4,500) and original form.**please charge before delivery and have sale draft signed. ***6/11/18 HITOMIPRINTED",CA,1,8.00
6/10/2018 10:45:11 AM,Vincent R Torres,CA,91911,Relax2Zero 3D,DWA-9060USJ-9060BR,New Choco,New,,,,,4212.00,3900.00,312.00,Robert Shih,CreditCard,4212.00,Square# USKc,,,,,,,0.00,,,,,,,,0.00,,,,,,,6/14/2018 12:00:00 AM,No,"3 years parts, 1 year labor (Free)",Delivered,SAN DIEGO COUNTY FAIR 6/1-7/4/18 DEL MAR(CA),,Thank you very much for your business with us in San Diego county fair / Please deliver ASAP / Sencond floor delivery,106660,"CONfirmed $4,212.00 in Square, 6/11/18 HitomiPRINTED",CA,0,8.00
6/10/2018 10:55:57 AM,William Dozier,CA,91977,Legacy 3D,DWA-9150USJ-9150CH,New Choco,New,,,,,4500.00,4500.00,0.00,Rodrigo Malabunga,CreditCard,4500.00,40539C,,,,San Diego,,,0.00,,,,,,,,0.00,,,,,,,,No,"3 years parts, 1 year labor (Free)",Called,SAN DIEGO COUNTY FAIR 6/1-7/4/18 DEL MAR(CA),,,106661,"1 extra leather pad//COnfirmed $4,500 in Wells Fargo. 6/11/18 HitomiPRINTED
6/12 Maritza Called to schedule but they requested delivery until week of 6/25",CA,1,8.00
6/10/2018 10:55:57 AM,William Dozier,CA,91977,Chair Pad for Legacy 3D,,,New,,,,,4500.00,4500.00,0.00,Rodrigo Malabunga,CreditCard,4500.00,40539C,,,,San Diego,,,0.00,,,,,,,,0.00,,,,,,,,No,no warranty,Called,SAN DIEGO COUNTY FAIR 6/1-7/4/18 DEL MAR(CA),,,106661,"1 extra leather pad//COnfirmed $4,500 in Wells Fargo. 6/11/18 HitomiPRINTED
6/12 Maritza Called to schedule but they requested delivery until week of 6/25",CA,1,8.00
6/10/2018 11:04:41 AM,Joshua Compbell,CA,92110,Pegasus,DWA-9400Pegasus-BL-DEMO,Demo Black,Demo,,,,,4800.00,4800.00,0.00,Rolly San Jose,Synchrony,4800.00,,,6034610083321797,90035808,San Diego,48 months,,0.00,,,,,,,,0.00,,,,,,,6/15/2018 12:00:00 AM,No,"3 years parts, 3 years labor ($400)",Delivered,SAN DIEGO COUNTY FAIR 6/1-7/4/18 DEL MAR(CA),Confirmed $4800/48 months/Auth#013648 on Synchrony SD. 6/22/18 Riho,,106662,"Confirmed synchrony account ($8,300) and original form. ***Please charge before delivery and have sales draft signed. ***6/11/18 Hitomi PRINTED  (Customer's last name is CAMPBELL)",CA,1,8.00
6/10/2018 11:18:41 AM,Maria isabel Cuevas,CA,91950,Legacy 3D,DWA-9150USJ-9150BL,New Black,New,,,,,4000.00,4000.00,0.00,Rodrigo Malabunga,Synchrony,4000.00,,,6034610083323629,90069783,San Diego,24 months,,0.00,,,,,,,,0.00,,,,,,,6/14/2018 12:00:00 AM,No,"3 years parts, 3 years labor ($400)",Delivered,SAN DIEGO COUNTY FAIR 6/1-7/4/18 DEL MAR(CA),"Authorization # 012594
Confirmed $4000/24 months on Synchrony SD. 6/19/18 Riho",,106663,"COnfirmed synchrony account ($7,200) and original form . ***Please charge before delivery and have sales draft signed. *** 6/11/18 Hitomi PRINTED",CA,1,8.00
6/10/2018 8:49:16 PM,Jennifer Su,CA,92126,Relax2Zero 3D,DWA-9060USJ-9060BL-DEMO,Demo Black,Demo,,,,,3400.00,3400.00,0.00,Kohei Uno,CreditCard,3400.00,Square # rAsY,,,,,,,0.00,,,,,,,,0.00,,,,,,,6/15/2018 12:00:00 AM,No,"3 years parts, 1 year labor (Free)",Delivered,SAN DIEGO COUNTY FAIR 6/1-7/4/18 DEL MAR(CA),,,106702,"Confirmed $3,400 in Square. 6/11/18 Hitomi PRINTED",CA,1,8.00
6/10/2018 8:55:19 PM,Michael Abelgas,CA,92612,Pegasus,DWA-9400Pegasus-BL,New Black,New,,,,,5000.00,5000.00,0.00,Ruben Cuatrona,Synchrony,5000.00,,,6034610083326846,90117109,Las Vegas,48 months,,0.00,,,,,,,,0.00,,,,,,,6/20/2018 12:00:00 AM,No,"3 years parts, 3 years labor ($400)",Delivered,SAN DIEGO COUNTY FAIR 6/1-7/4/18 DEL MAR(CA),"Authorization # 019130
Confirmed $5,000/48 months on Synchrony  LV. 6/25/18 Riho",,106703,"***Monday delivery Only***///Confirmed synchrony account ($8,500) original confirmed.***Please charge before delivery and have sales draft signed, *** 6/11/18 Hitomi Printed",CA,1,8.00
6/10/2018 9:04:52 PM,James Strachan,CA,92029,Relax2Zero 3D,DWA-9060USJ-9060BR-DEMO,Demo Choco,Demo,,,,,3900.00,3900.00,0.00,Ruben Cuatrona,Synchrony,3900.00,,,6034610083326804,90116661,Las Vegas,36 months,,0.00,,,,,,,,0.00,,,,,,,6/14/2018 12:00:00 AM,No,"3 years parts, 1 year labor (Free)",Delivered,SAN DIEGO COUNTY FAIR 6/1-7/4/18 DEL MAR(CA),"Authorization # 012720
Confirmed $3,900/36 months on Synchrony LV. 6/19/18 Riho",Gate Code: #3171,106705,"Synchrony approved for $4800, please charge before delivery -  Stephany 06/11/18 Need to confirm original Synchrony form//confirmed original Synchrony form.***please charge before delivery and have sales draft signed. ***6/11/18 Hitomi PRINTED",CA,1,8.00
6/10/2018 9:11:49 PM,Richard Lowenthal,CA,92127,Relax2Zero 3D,DWA-9060USJ-9060BL,New Black,New,,,,,4500.00,4500.00,0.00,Kohei Uno,CreditCard,4500.00,Square# 7iCc,,,,,,,0.00,,,,,,,,0.00,,,,,,,,No,"3 years parts, 1 year labor (Free)",Hold,SAN DIEGO COUNTY FAIR 6/1-7/4/18 DEL MAR(CA),,***Please schedule delivery date for after August 2nd***,106707,"***Please schedule delivery date for after August 2nd***
PAYMENT CLEARED $4500 7iCc -  STEPHANY 06/11/18",CA,1,8.00
6/10/2018 9:29:22 PM,Bruce Wafer,CA,92127,Pegasus,DWA-9400Pegasus-BR-DEMO,Demo Choco,Demo,,,,,4600.00,4600.00,0.00,Ruben Cuatrona,Synchrony,4600.00,,,6034610083326861,90118528,San Diego,36 months,,0.00,,,,,,,,0.00,,,,,,,6/18/2018 12:00:00 AM,No,"3 years parts, 1 year labor (Free)",Delivered,SAN DIEGO COUNTY FAIR 6/1-7/4/18 DEL MAR(CA),"Authorization # 013439
Confirmed $4,600/36 months on Synchrony SD. 6/13/18 Riho",,106709,"COnfirmed synchrony account ($6,000) original confirmed.***PLease charge before delivery and have sales draft signed. ***  6/11/18 Hitomi PRINTED",CA,1,8.00
6/11/2018 11:28:09 AM,Anastasia Schmoll,CA,92008,Pegasus,DWA-9400Pegasus-BR,New Choco,New,,,,,5000.00,5000.00,0.00,Rolly San Jose,Synchrony,5000.00,,,6034610083325931,90104466,San Diego,48 months,,0.00,,,,,,,,0.00,,,,,,,6/15/2018 12:00:00 AM,No,"3 years parts, 3 years labor ($400)",Delivered,SAN DIEGO COUNTY FAIR 6/1-7/4/18 DEL MAR(CA),"Confirmed $5,000 /48 months/Auth#013298 on Synchrony SD. 6/22/18 Riho",,106728,"Synchrony approved for $8500, please charge before delivery. Need to confirm original - 06/11/18 Stephany//confirmed original synchrony form 6/11/18 HitomiPRINTED",CA,1,8.00
6/11/2018 11:35:30 AM,Ishmael Castillo,CA,92129,Relax2Zero 3D,DWA-9060USJ-9060BL-DEMO,Demo Black,Demo,,,,,3700.00,3700.00,0.00,Ruben Cuatrona,Synchrony,3700.00,,,6034610083326986,90117861,San Diego,36 months,,0.00,,,,,,,,0.00,,,,,,,6/14/2018 12:00:00 AM,No,"3 years parts, 1 year labor (Free)",Delivered,SAN DIEGO COUNTY FAIR 6/1-7/4/18 DEL MAR(CA),"Authorization # 012350
Confirmed $3,700/36 months on Synchrony SD. 6/19/18 Riho",Thank you very much for your business with us in San Diego county fair / Synchrony 36 months 0% APR / Please deliver ASAP / Must delivery by Thursday 6/15,106730,"Confirmed the account ($6,000) and original form. ***Please charge before delivery and have sales draft signed, ***6/11/18 Hitomi -Printed & passed it to Christina",CA,1,8.00
6/11/2018 11:39:41 AM,Wanda Belenzon,CA,92071,Relax2Zero 3D,DWA-9060USJ-9060BR-DEMO,Demo Choco,Demo,,,,,3900.00,3900.00,0.00,Robert Shih,Synchrony,3900.00,,,6034610083326838,90117004,Las Vegas,48 months,,0.00,,,,,,,,0.00,,,,,,,6/15/2018 12:00:00 AM,No,"3 years parts, 1 year labor (Free)",Delivered,SAN DIEGO COUNTY FAIR 6/1-7/4/18 DEL MAR(CA),"Confirmed $3,900/48 months/Auth#013930 on Synchrony LV. 6/22/18 Riho",Thank you very much for your business with San Diego county fair / Synchrony 48 months 0% APR / Please deliver ASAP,106732,"Confirmed synchrony account ($8,500) and original form. ***Please charge before delivery and have sales draft signed. *** 6/11/18 Hitomi PRINTED",CA,1,8.00
6/11/2018 11:54:33 AM,Naseer Shahib,CA,92129,Legacy 3D,DWA-9150USJ-9150CH-DEMO,Demo Choco,Demo,,,,,3800.00,3800.00,0.00,Rolly San Jose,CreditCard,200.00,890272,,,,,,COD,3600.00,,,,,,,,0.00,,,,,,,,No,"3 years parts, 1 year labor (Free)",Hold,SAN DIEGO COUNTY FAIR 6/1-7/4/18 DEL MAR(CA),,,106738,"Pls choco brown is not the final 
Hold for his order///Confirmed $200 deposit. They will contact us when they are ready to pay the rest amount . PLEASE CONFIRM CHAIR COLOR . 6/11/18 hitomi",CA,1,8.00
6/11/2018 12:07:25 PM,Jason & Erica Sell,CA,92071,Relax2Zero 3D,DWA-9060USJ-9060BR,New Choco,New,,,,,4212.00,3900.00,312.00,Robert Shih,Synchrony,4212.00,,,6034610083326887,90118721,Las Vegas,48 months,,0.00,,,,,,,,0.00,,,,,,,6/15/2018 12:00:00 AM,No,"3 years parts, 1 year labor (Free)",Delivered,SAN DIEGO COUNTY FAIR 6/1-7/4/18 DEL MAR(CA),"Authorization # 012380
Confirmed $4,212/48 months on Synchrony LV. 6/22/18 Riho",Thank you very much for your business with us in San Diego county fair / Synchrony 48 months 0% APR / Please deliver ASAP / Second floor deliver,106743,"06/11/18- Available credit $6,500//synchrony account is under JASON M SELL. ***Please charge before delivery and have sales draft signed.***6/11/18 Hitomi PRINTED",CA,0,8.00
6/13/2018 10:18:04 AM,Maria Nieto,CA,91915,Legacy 3D,DWA-9150USJ-9150BL-DEMO,Demo Black,Demo,,,,,4202.00,4202.00,0.00,Rolly San Jose,CreditCard,4202.00,Approval #22046B,,,,,,,0.00,,,,,,,,0.00,,,,,,,6/15/2018 12:00:00 AM,No,"3 years parts, 1 year labor (Free)",Delivered,SAN DIEGO COUNTY FAIR 6/1-7/4/18 DEL MAR(CA),,,106782,"Original Order Date : 06/03/18
Linked with order # 106545
Payment Cleared :",CA,1,8.00
6/13/2018 8:02:05 PM,Addy Ojeda,CA,91978,Relax2Zero 3D,DWA-9060USJ-9060BL-DEMO,Demo Black,Demo,,,,,3900.00,3900.00,0.00,Robert Shih,Synchrony,3900.00,,,6034610083331325,90254181,Las Vegas,36 months,,0.00,,,,,,,,0.00,,,,,,,6/21/2018 12:00:00 AM,No,"3 years parts, 1 year labor (Free)",Delivered,SAN DIEGO COUNTY FAIR 6/1-7/4/18 DEL MAR(CA),"Authorization # 020010
Confirmed $3900/36 months on Synchrony LV. 6/27/18 Riho",Thank you very much for your business with us in San Diego county fair / Synchrony 36 months 0% APR / Please deliver ASAP,106796,"Synchrony account is cleared($6,500) and original. ***PLease charge before the delivery and have sales draft signed. ***6/14/18 Hitomi
6/18PRINTED",CA,1,8.00
6/13/2018 9:45:58 PM,Maria A. Baviera,CA,92065,Pegasus,DWA-9400Pegasus-BR,New Choco,New,,,,,5800.00,5800.00,0.00,Robert Shih,CreditCard,5800.00,SQUARE # RGUb,,,,,,,0.00,,,,,,,,0.00,,,,,,,6/20/2018 12:00:00 AM,No,"3 years parts, 1 year labor (Free)",Delivered,SAN DIEGO COUNTY FAIR 6/1-7/4/18 DEL MAR(CA),,Thank you very much for your business with us in San Diego county fair / Please deliver ASAP,106804,"Confirmed $5,800 in Square. 6/14/18 Hitomi",CA,1,8.00
6/14/2018 12:56:49 PM,Hal Renfro,CA,92037,Pegasus,DWA-9400Pegasus-BL-DEMO,Demo Black,Demo,,,,,4500.00,4500.00,0.00,Rodrigo Malabunga,CreditCard,4500.00,Sq #5vO6,,,,,,,0.00,,,,,,,,0.00,,,,,,,6/21/2018 12:00:00 AM,No,"3 years parts, 1 year labor (Free)",Delivered,SAN DIEGO COUNTY FAIR 6/1-7/4/18 DEL MAR(CA),,,106814,"This demo is take from Ruben booth Pegasus black//Confirmed $4,500 in Square. 6/14/18 Hitomi
6/18PRINTED",CA,1,8.00
6/14/2018 1:01:40 PM,Megan Brickett,CA,92154,Legacy 3D,DWA-9150USJ-9150CH,New Choco,New,,,,,4500.00,4500.00,0.00,Rodrigo Malabunga,Synchrony,4500.00,,,6034610083331044,90248356,San Diego,36 months,,0.00,,,,,,,,0.00,,,,,,,6/21/2018 12:00:00 AM,No,"3 years parts, 1 year labor (Free)",Delivered,SAN DIEGO COUNTY FAIR 6/1-7/4/18 DEL MAR(CA),"Authorization # 020288
Confirmed $4,500/36 months on Synchrony SD. 7/3/18 Riho
",,106815,"Confirmed synchrony the account($7,200) and original form. ***Please charge before delivery and have sales draft signed. *** 6/14/18 Hitomi
6/18PRINTED",CA,1,8.00
6/14/2018 1:15:31 PM,George Mazzetti,CA,92082,Pegasus,DWA-9400Pegasus-BR-DEMO,Demo Choco,Demo,,,,,4500.00,4500.00,0.00,Rodrigo Malabunga,Cash,100.00,,,,,,,COD,4400.00,,,,,,,,0.00,,,,,,,,No,"3 years parts, 1 year labor (Free)",Cancelled,SAN DIEGO COUNTY FAIR 6/1-7/4/18 DEL MAR(CA),,,106816,"Free 1 tens unit bring with the delivery personnel pls.
4500.00 total priced
  100.00 down payment
4400.00 balanced COD (cash)
Tel.# 760 691 6582 (ally) grand daugther and the address is for son they are neighbor the actual address is can’t find thru GPS
The chair is from Ruben Booth///Will confirm cash. 6/14/18 Hitomi
6/18PRINTED
6/18 Customer called to cancel. She spoke with Rod deposit will be returned. She will meet him at the fair for 100 deposit back.",CA,1,8.00
6/14/2018 8:21:15 PM,Jacque Murrell,CA,92119,Pegasus,DWA-9400Pegasus-BL,New Black,New,,,,,5800.00,5800.00,0.00,Kohei Uno,CreditCard,5800.00,Square# s1QP,,,,,,,0.00,,,,,,,,0.00,,,,,,,,No,"3 years parts, 1 year labor (Free)",Scheduled,SAN DIEGO COUNTY FAIR 6/1-7/4/18 DEL MAR(CA),,,106820,"Confirmed $5,800 in Square. 6/15/18 Hitomi
6/18PRINTED",CA,1,8.00
6/16/2018 11:16:31 AM,Matthew Carroll,CA,92037,Legacy 3D,DWA-9150USJ-9150CH-DEMO,Demo Choco,Demo,,,,,3900.00,3900.00,0.00,Rodrigo Malabunga,CreditCard,3900.00,Sq #0WqP,,,,,,,0.00,,,,,,,,0.00,,,,,,,6/21/2018 12:00:00 AM,No,"3 years parts, 1 year labor (Free)",Delivered,SAN DIEGO COUNTY FAIR 6/1-7/4/18 DEL MAR(CA),,,106834,"COnfirmed $3,900 in Square. 6/18/18 Hitomi PRINTED",CA,1,8.00
6/16/2018 11:25:34 AM,George Aguila,CA,92064,Legacy 3D,DWA-9150USJ-9150CH,New Choco,New,,,,,3900.00,3900.00,0.00,Rolly San Jose,Synchrony,3900.00,,,6034610083333826,90328937,San Diego,36 months,,0.00,,,,,,,,0.00,,,,,,,,No,"3 years parts, 1 year labor (Free)",Cancelled,SAN DIEGO COUNTY FAIR 6/1-7/4/18 DEL MAR(CA),,,106835,Different last name on Synchrony (GEORGE AGIUS). Available credit 8500 on synchrony. Please check original invoice.//total amount is $4500.//reversed #106933,CA,1,8.00
6/17/2018 9:09:47 PM,Valli Cox,CA,91901,Relax2Zero 3D,DWA-9060USJ-9060BR-DEMO,Demo Choco,Demo,,,,,3900.00,3900.00,0.00,Kohei Uno,CreditCard,3900.00,Square# Y5m8,,,,,,,0.00,,,,,,,,0.00,,,,,,,,No,"3 years parts, 1 year labor (Free)",Cancelled,SAN DIEGO COUNTY FAIR 6/1-7/4/18 DEL MAR(CA),,,106896,"6/18 Maritza- Customer called to cancel. Customer will call Kohei and he will give a call back to answer.
6/18Maritza- Kohei gave us the okay to cancel. (Money was refunded and sent a email of receipt)",Not Dispatched,1,8.00
6/17/2018 9:14:15 PM,Jane Baguis,CA,94531,Relax2Zero 3D,DWA-9060USJ-9060BL-DEMO,Demo Black,Demo,,,,,3700.00,3700.00,0.00,Ruben Cuatrona,CreditCard,3700.00,Square# Vtxk,,,,,,,0.00,,,,,,,,0.00,,,,,,,,No,"3 years parts, 1 year labor (Free)",Scheduled,SAN DIEGO COUNTY FAIR 6/1-7/4/18 DEL MAR(CA),,,106897,6/18Maritza Confirmed 3700 on square. PRINTED,CA,1,8.00
6/17/2018 9:17:33 PM,Jason Salmons,CA,92585,Relax2Zero 3D,DWA-9060USJ-9060BR-DEMO,Demo Choco,Demo,,,,,3900.00,3900.00,0.00,Ruben Cuatrona,Synchrony,3900.00,,,6034610083334303,90341196,San Diego,36 months,,0.00,,,,,,,,0.00,,,,,,,6/21/2018 12:00:00 AM,No,"3 years parts, 1 year labor (Free)",Delivered,SAN DIEGO COUNTY FAIR 6/1-7/4/18 DEL MAR(CA),Authorization # 019535,,106898,6/18Maritza- Confirmed 6000 credit on synchrony. Please check original invoice.*Charge before delivery*//confirmed original form . 6/18/18 Hitomi,CA,1,8.00
6/17/2018 9:20:45 PM,Michael Bill,CA,92071,Relax2Zero 3D,DWA-9060USJ-9060BL-DEMO,Demo Black,Demo,,,,,3700.00,3700.00,0.00,Ruben Cuatrona,CreditCard,3700.00,Square# TOqb,,,,,,,0.00,,,,,,,,0.00,,,,,,,6/20/2018 12:00:00 AM,No,"3 years parts, 1 year labor (Free)",Delivered,SAN DIEGO COUNTY FAIR 6/1-7/4/18 DEL MAR(CA),,,106900,6/18Maritza- Confirmed 3700 on square. PRINTED,CA,1,8.00
6/17/2018 9:24:36 PM,Michelle Owens,CA,92119,Relax2Zero 3D,DWA-9060USJ-9060BR-DEMO,Demo Choco,Demo,,,,,3800.00,3800.00,0.00,Querubin Milanes,Synchrony,3800.00,,,6034610083335847,90371364,San Diego,36 months,,0.00,,,,,,,,0.00,,,,,,,6/21/2018 12:00:00 AM,No,"3 years parts, 1 year labor (Free)",Delivered,SAN DIEGO COUNTY FAIR 6/1-7/4/18 DEL MAR(CA),"Authorization # 019332
Confirmed $3,800/36 months on Synchrony SD. 6/27/18 Riho",,106902,6/18Maritza- 6500 available in synchrony. Please check original invoice.//confirmed original form 6/18/18 Hitomi,CA,1,8.00
6/17/2018 9:24:54 PM,David Warren,CA,92592,Pegasus,DWA-9400Pegasus-BR-DEMO,Demo Choco,Demo,,,,,4900.00,4900.00,0.00,Kohei Uno,Synchrony,4900.00,,,6034610083336308,90379849,San Diego,36 months,,0.00,,,,,,,,0.00,,,,,,,6/21/2018 12:00:00 AM,No,"3 years parts, 1 year labor (Free)",Delivered,SAN DIEGO COUNTY FAIR 6/1-7/4/18 DEL MAR(CA),"Authorization # 019015
Confirmed $4,900/36 months on Synchrony SD. 6/27/18 Riho",2nd Floor Delivery,106903,"2nd Floor Delivery
6/18Maritza- Confirmed credit of 8500 on synchrony. Please check original invoice.//confirmed original form 6/18/18 Hitomi",CA,1,8.00
6/17/2018 9:32:46 PM,Buddy Simmons,CA,92115,Pegasus,DWA-9400Pegasus-BR-DEMO,Demo Choco,Demo,,,,,4400.00,4400.00,0.00,Kohei Uno,CreditCard,400.00,Square#39qd,,,,,,Synchrony,2000.00,,,6034610083337942,90408359,San Diego,36 months,Synchrony,2000.00,,,6034610083337926,90408131,San Diego,36 months,6/21/2018 12:00:00 AM,No,"3 years parts, 1 year labor (Free)",Delivered,SAN DIEGO COUNTY FAIR 6/1-7/4/18 DEL MAR(CA),"-SIMMONS BUDDY ($2,000) : 6034610083337926     Authorization # 019999
Confirmed the transaction for 36 months on Synchrony SD.
-WHITE MARIA($2,000) : 6034610083337942     Authorization # 019453
Confirmed the transaction for 36 months on Synchrony SD.
7/3/18 Riho
",2nd Floor Delivery with elevator.,106904,"2nd Floor Delivery with elevator.
6/18Maritza- Synchrony account is under Maria White.Please check original invoice.(Credit 2000) Confirmed 400 deposit on square./synchrony is under husband:SIMMONS BUDDY ($2,000), wife:WHITE MARIA($2,000).",CA,1,8.00
6/18/2018 2:15:50 PM,Terri Borough,CA,90631,Legacy 3D,DWA-9150USJ-9150BL-DEMO,Demo Black,Demo,,,,,3900.00,3900.00,0.00,Rodrigo Malabunga,CreditCard,3900.00,05328B,,,,,,,0.00,,,,,,,,0.00,,,,,,,6/25/2018 12:00:00 AM,No,"3 years parts, 1 year labor (Free)",Delivered,SAN DIEGO COUNTY FAIR 6/1-7/4/18 DEL MAR(CA),,,106930,"COnfirmed $3,900 in Wells Fargo. 6/18/18 Hitomi
6/19PRINTED",CA,1,8.00
6/18/2018 2:26:16 PM,James Grimes,CA,92026,Legacy 3D,DWA-9150USJ-9150CH-DEMO,Demo Choco,Demo,,,,,3900.00,3900.00,0.00,Rodrigo Malabunga,CreditCard,200.00,Sq #heDH,,,,,,CreditCard,3700.00,Sq #2lZE,,,,,,,0.00,,,,,,,,No,"3 years parts, 2 years labor ($200)",Scheduled,SAN DIEGO COUNTY FAIR 6/1-7/4/18 DEL MAR(CA),,,106931,"Confirmed $200/$3,700 in Square. 6/18/18 Hitomi printed//Per.Rod please deliver NEW chair. 6/20/18 Hitomi",CA,1,8.00
6/18/2018 2:34:04 PM,Nelson Vinas,CA,92126,Legacy 3D,DWA-9150USJ-9150CH-DEMO,Demo Choco,Demo,,,,,3900.00,3900.00,0.00,Rolly San Jose,Synchrony,3900.00,,,6034610083337025,90395489,San Diego,36 months,,0.00,,,,,,,,0.00,,,,,,,6/21/2018 12:00:00 AM,No,"3 years parts, 1 year labor (Free)",Delivered,SAN DIEGO COUNTY FAIR 6/1-7/4/18 DEL MAR(CA),Authorization # 019841,,106932,"confirmed the account ($7,200) and original form.***Please charge before delivery and have sales draft signed. ***6/18/18 Hitomi printed",CA,1,8.00
6/18/2018 4:17:51 PM,George Agius,CA,92064,Legacy 3D,DWA-9150USJ-9150CH,New Choco,New,,,,,4500.00,4500.00,0.00,Rolly San Jose,Synchrony,4500.00,,,6034610083333826,90328937,San Diego,36 months,,0.00,,,,,,,,0.00,,,,,,,6/21/2018 12:00:00 AM,No,"3 years parts, 1 year labor (Free)",Delivered,SAN DIEGO COUNTY FAIR 6/1-7/4/18 DEL MAR(CA),"Authorization # 020727
Confirmed $4,500/36 months on Synchrony SD. 6/27/18 Riho",,106933,Available credit 8500 on synchrony. original form was confirmed. 6/18/18 Hitomi./correction for 106835,CA,1,8.00
6/20/2018 12:51:57 PM,Sang Pham,CA,91932,Legacy 3D,DWA-9150USJ-9150CH-DEMO,Demo Choco,Demo,,,,,3300.00,3300.00,0.00,Rolly San Jose,CreditCard,300.00,01065D,,,,,,CreditCard,3000.00,housecall pro,,,,,,,0.00,,,,,,,6/29/2018 12:00:00 AM,No,"3 years parts, 1 year labor (Free)",Delivered,SAN DIEGO COUNTY FAIR 6/1-7/4/18 DEL MAR(CA),,,106943,"Total priced $3300
Down payment 300.00
Balanced 3000.00 (COD)
Make sure ship demo chair pls//$300 deposit  is cleared. Rod advised to make sure to deliver ONLY DEMO CHAIR. 6/20/18 Hitomi--PRINTED
COD $3,000 was paid through Housecall Pro. 7/3/18 Riho",CA,1,8.00
6/20/2018 6:39:24 PM,Jennie Guillory,CA,92021,Relax2Zero 3D,DWA-9060USJ-9060BR,New Choco,New,,,,,3600.00,3600.00,0.00,Ruben Cuatrona,CreditCard,3600.00,XZ2a,,,,,,,0.00,,,,,,,,0.00,,,,,,,,No,"3 years parts, 3 years labor ($400)",Cancelled,SAN DIEGO COUNTY FAIR 6/1-7/4/18 DEL MAR(CA),,Please deliver as soon as possible.,106946,"Confirmed $3,600 in Square. 6/21/18 Hitomi
6/25Printed//per Ruben , cancel",CA,1,8.00
6/20/2018 6:49:14 PM,Carrie Jackson,CA,92386,Relax2Zero 3D,DWA-9060USJ-9060BR-DEMO,Demo Choco,Demo,,,,,4212.00,3955.56,256.44,Kamille Gines,Synchrony,4212.00,,,6034610083342272,90546953,San Diego,48 months,,0.00,,,,,,,,0.00,,,,,,,,No,"3 years parts, 1 year labor (Free)",Scheduled,SAN DIEGO COUNTY FAIR 6/1-7/4/18 DEL MAR(CA),Authorization # 028086,,106947,"They will sign the Synchrony application upon the delivery. Please bring the sales receipt along with synchrony application.///confirmed synchrony account $8,500. original needs to be confirmed and situation that why they didn't get signature/Per.Kamile,forgot to have them sign and already told customer to sign when it is on delivery . Ruben will bring original on Monday 6/25/18--  6/21/18 Hitomi//**synchrony account ($8,500) charge before delivery and have sales draft and synchrony original signed.***6/26/18 Hitomi--PRINTED",CA,0,8.00
6/20/2018 7:03:57 PM,Ilyana Smith,CA,91914,Relax2Zero 3D,DWA-9060USJ-9060BR,New Choco,New,,,,,3600.00,3600.00,0.00,Ruben Cuatrona,CreditCard,3600.00,R3D8,,,,,,,0.00,,,,,,,,0.00,,,,,,,,No,"3 years parts, 3 years labor ($400)",Scheduled,SAN DIEGO COUNTY FAIR 6/1-7/4/18 DEL MAR(CA),,Please give customer one extra pad for back and foot. Please deliver as soon as possible. Thanks,106948,"confirmed $3,600.00 in Square.  6/21/18 Hitomi
6/25PRINTED",CA,1,8.00
6/21/2018 12:06:50 PM,Josefina Pelayo,CA,91950,Legacy 3D,DWA-9150USJ-9150CH-DEMO,Demo Choco,Demo,,,,,3500.00,3500.00,0.00,Rolly San Jose,Synchrony,3500.00,,,6034610083342371,90550219,San Diego,36 months,,0.00,,,,,,,,0.00,,,,,,,,No,"3 years parts, 1 year labor (Free)",Called,SAN DIEGO COUNTY FAIR 6/1-7/4/18 DEL MAR(CA),,,106952,"This is 2 orders but separate address//Confirmed synchrony account ($7,200) and original. ***Please charge before delivery and have sale draft signed. ***6/21/18 Hitomi
6/25PRINTED",CA,1,8.00
6/21/2018 12:12:26 PM,Tania Pelayo,IL,60465,Legacy 3D,DWA-9150USJ-9150CH-DEMO,Demo Choco,Demo,,,,,3500.00,3500.00,0.00,Rolly San Jose,Synchrony,3500.00,,,6034610083342389,90550275,San Diego,36 months,,0.00,,,,,,,,0.00,,,,,,,,No,"3 years parts, 1 year labor (Free)",Assigned,SAN DIEGO COUNTY FAIR 6/1-7/4/18 DEL MAR(CA),,,106953,"Confirmed synchrony account ($8,500) and original. ***Please charge before delivery and have sales draft signed. *** 6/21/18 Hitomi",CA,1,8.00
6/21/2018 12:18:45 PM,Maxine Price,CA,92009,Legacy 3D,DWA-9150USJ-9150CH-DEMO,Demo Choco,Demo,,,,,3600.00,3600.00,0.00,Rodrigo Malabunga,Synchrony,3600.00,,,6034610083342363,90550071,San Diego,36 months,,0.00,,,,,,,,0.00,,,,,,,6/29/2018 12:00:00 AM,No,"3 years parts, 1 year labor (Free)",Delivered,SAN DIEGO COUNTY FAIR 6/1-7/4/18 DEL MAR(CA),"Authorization # 028708
**Waiting for signed sales draft**",,106954,"2nd floor. Confirmed synchrony account ($5,000) and original. ***Please charge before delivery and have sales draft signed.***6/22/18 Hitomi
6/25PRINTED",CA,1,8.00
6/22/2018 2:11:11 PM,Marie Tomlinson,CA,92054,Pegasus,DWA-9400Pegasus-BL-DEMO,Demo Black,Demo,,,,,4200.00,4200.00,0.00,Rolly San Jose,CreditCard,200.00,Sq #IKKQ,,,,,,CreditCard,4000.00,Sq #yDer,,,,,,,0.00,,,,,,,,No,"3 years parts, 1 year labor (Free)",Scheduled,SAN DIEGO COUNTY FAIR 6/1-7/4/18 DEL MAR(CA),,,106962,"Floor model Pegasus
Add 1 more pair of foot pads
Total of (2 foot pads)//Confirmed $200/$4,000 in Square. 6/22/18 Hitomi
6/25PRINTED",CA,1,8.00
6/22/2018 2:18:37 PM,Don Horn,CA,92071,Legacy 3D,DWA-9150USJ-9150CH-DEMO,Demo Choco,Demo,,,,,3900.00,3900.00,0.00,Rodrigo Malabunga,Synchrony,3900.00,,,6034610083343684,90592188,San Diego,36 months,,0.00,,,,,,,,0.00,,,,,,,,No,"3 years parts, 1 year labor (Free)",Scheduled,SAN DIEGO COUNTY FAIR 6/1-7/4/18 DEL MAR(CA),Authorization # 027015,,106963,"Confirmed synchrony account ($8,500) and original form. ***PLease charge before delivery and have sales draft signed. *** 6/22/18 Hitomi
6/25PRINTED",CA,1,8.00
6/24/2018 10:25:01 AM,Don Davis,CA,91913,Pegasus,DWA-9400Pegasus-BR-DEMO,Demo Choco,Demo,,,,,4600.00,4329.63,270.37,Ruben Cuatrona,CreditCard,4600.00,Sq# EoJf,,,,,,,0.00,,,,,,,,0.00,,,,,,,6/28/2018 12:00:00 AM,No,"3 years parts, 1 year labor (Free)",Delivered,SAN DIEGO COUNTY FAIR 6/1-7/4/18 DEL MAR(CA),,Free 2nd Floor,106995,"Please deliver ASAP//Confirmed $4,600 in Square. 6/25/18 Hitomi
6/25PRINTED",CA,0,8.00
6/24/2018 10:33:45 AM,Angelito Tiongco,CA,91910,Relax2Zero 3D,DWA-9060USJ-9060BL,New Black,New,,,,,3960.00,3722.22,237.78,Kamille Gines,Synchrony,3960.00,,,6034610083345358,90636564,San Diego,36 months,,0.00,,,,,,,,0.00,,,,,,,,No,"3 years parts, 1 year labor (Free)",Scheduled,SAN DIEGO COUNTY FAIR 6/1-7/4/18 DEL MAR(CA),Authorization # 027022,,106996,"Confirmed synchrony account ($6,000) original needs to be confirmed. 6/25/18 Hitomi//confirmed original***please charge and sign sales draft.***6/26/18 HitomiPRINTED",CA,0,8.00
6/24/2018 10:34:06 AM,Susan Edwards,CA,91911,Legacy 3D,DWA-9150USJ-9150BL-DEMO,Demo Black,Demo,,,,,3900.00,3900.00,0.00,Rodrigo Malabunga,Synchrony,3900.00,,,6034610083347826,90681475,San Diego,48 months,,0.00,,,,,,,,0.00,,,,,,,6/29/2018 12:00:00 AM,No,"3 years parts, 1 year labor (Free)",Delivered,SAN DIEGO COUNTY FAIR 6/1-7/4/18 DEL MAR(CA),"Authorization # 028307
Confirmed $3,900/48 months on Synchrony SD. 7/3/18 Riho",,106997,"COnfirmed synchrony account ($6,000) original is confirmed. ***PLease charge before delivery and have sales draft signed.*** 6/25/18 Hitomi PRINTED",CA,1,8.00
6/24/2018 10:40:42 AM,Su-Yen Kuhn,CA,92122,Relax2Zero 3D,DWA-9060USJ-9060BL-DEMO,Demo Black,Demo,,,,,3700.00,3481.48,218.52,Kamille Gines,CreditCard,3700.00,Sq# SJSF,,,,,,,0.00,,,,,,,,0.00,,,,,,,6/28/2018 12:00:00 AM,No,"3 years parts, 1 year labor (Free)",Delivered,SAN DIEGO COUNTY FAIR 6/1-7/4/18 DEL MAR(CA),,Add extra foot pads,106998,"Please deliver it next week asap//COnfirmed $3,700 in Square. 6/25/18 Hitomi
6/25PRINTED",CA,0,8.00
6/24/2018 11:15:48 AM,Elisa Signorelli,CA,92019,Legacy 3D,DWA-9150USJ-9150CH-DEMO,Demo Choco,Demo,,,,,3600.00,3600.00,0.00,Rolly San Jose,CreditCard,500.00,Sq #K94e,,,,,,COD,3100.00,,,,,,,,0.00,,,,,,,,No,"3 years parts, 1 year labor (Free)",Hold,SAN DIEGO COUNTY FAIR 6/1-7/4/18 DEL MAR(CA),,,106999,"(HOLD) target delivery date is end of August
COD $3100.00",CA,1,8.00
6/24/2018 11:32:16 AM,Freddy Armijo,CA,92584,Legacy 3D,DWA-9150USJ-9150BL-DEMO,Demo Black,Demo,,,,,3900.00,3900.00,0.00,Rodrigo Malabunga,Synchrony,3900.00,,,6034610083346661,90664377,San Diego,36 months,,0.00,,,,,,,,0.00,,,,,,,,No,"3 years parts, 1 year labor (Free)",Scheduled,SAN DIEGO COUNTY FAIR 6/1-7/4/18 DEL MAR(CA),Authorization # 027741,,107000,"COnfirmed synchrony account ($8,500) original is confirmed. ***Please charge before delivery and have sales draft signed. ***6/25/18 Hitomi PRINTED",CA,1,8.00
6/24/2018 11:38:08 AM,Rob Nelson,CA,92115,Pegasus,DWA-9400Pegasus-BR,New Choco,New,,,,,4900.00,4900.00,0.00,Rodrigo Malabunga,CreditCard,4900.00,Sq #9XJH,,,,,,,0.00,,,,,,,,0.00,,,,,,,,No,"3 years parts, 1 year labor (Free)",Scheduled,SAN DIEGO COUNTY FAIR 6/1-7/4/18 DEL MAR(CA),,,107001,"COnfirmed $4,900 in Square.  6/25/18 Hitomi
6/25PRINTED",CA,1,8.00
6/24/2018 11:46:08 AM,Josefa / Romy Maraya,CA,92114,Legacy 3D,DWA-9150USJ-9150CH-DEMO,Demo Choco,Demo,,,,,3900.00,3900.00,0.00,Rodrigo Malabunga,Synchrony,3900.00,,,6034610083347610,90677428,San Diego,48 months,,0.00,,,,,,,,0.00,,,,,,,,No,"3 years parts, 1 year labor (Free)",Scheduled,SAN DIEGO COUNTY FAIR 6/1-7/4/18 DEL MAR(CA),Authorization # 028709,,107002,"Confirmed synchrony account ($3,900) original is confirmed. ***Please charge before delivery and have sales draft signed. ***6/25/18 Hitomi PRINTED
6/28Maritza Synchrony account is under both Josefa and Romy. I will charge the card under Josefa Maraya.",CA,1,8.00
6/24/2018 10:00:56 PM,John Cadwell,CA,91901,Relax2Zero 3D,DWA-9060USJ-9060BR-DEMO,Demo Choco,Demo,,,,,3600.00,3388.89,211.11,Ting Ritchie,Cash,200.00,,,,,,,COD,3400.00,,,,,,,,0.00,,,,,,,,No,"3 years parts, 1 year labor (Free)",Scheduled,SAN DIEGO COUNTY FAIR 6/1-7/4/18 DEL MAR(CA),,,107023,Balance COD in cash $3400//will confirm cash 6/25/18 Hitomi//Pre.Michael received $200 cash. 6/26/18 Hitomi PRINTED,CA,0,8.00
6/25/2018 11:53:36 AM,Marco Navarro,CA,91935,Relax2Zero 3D,DWA-9060USJ-9060BR,New Choco,New,,,,,4300.00,4037.04,262.96,Ting Ritchie,Synchrony,4300.00,,,6034610083349707,90734981,San Diego,36 months,,0.00,,,,,,,,0.00,,,,,,,6/28/2018 12:00:00 AM,No,"3 years parts, 1 year labor (Free)",Delivered,SAN DIEGO COUNTY FAIR 6/1-7/4/18 DEL MAR(CA),"Authorization # 027027
Confirmed $4,300/36 months on Synchrony SD. 7/3/18 Riho",,107048,"Confirmed synchrony account ($6,000) original needs to be confirmed. 6/25/18 Hitomi//original is confirmed.**Please charge and sales draft signed. ***6/26/18 HitomiPRINTED",CA,0,8.00
6/25/2018 12:04:03 PM,Shaoyang Yeh,CA,92131,Legacy 3D,DWA-9150USJ-9150BL,New Black,New,,,,,4700.00,4407.41,292.59,Kamille Gines,Synchrony,4700.00,,,6034610083349715,90735297,San Diego,48 months,,0.00,,,,,,,,0.00,,,,,,,6/28/2018 12:00:00 AM,No,"3 years parts, 1 year labor (Free)",Delivered,SAN DIEGO COUNTY FAIR 6/1-7/4/18 DEL MAR(CA),"Authorization # 027137
Confirmed $4,700/48 months on Synchrony SD. 7/3/18 Riho",,107049,"COnfirmed synchrony account ($6,500) original needs to be confirmed. 6/25/18 Hitomi//original is confirmed.**please charge and have sales draft signed.*** 6/26/18 HitomiPRINTED",CA,0,8.00
6/25/2018 12:08:43 PM,Tony Tait,CA,92064,Relax2Zero 3D,DWA-9060USJ-9060BR-DEMO,Demo Choco,Demo,,,,,3600.00,3388.89,211.11,Ruben Cuatrona,CreditCard,3600.00,Sq# zdv7,,,,,,,0.00,,,,,,,,0.00,,,,,,,6/28/2018 12:00:00 AM,No,"3 years parts, 1 year labor (Free)",Delivered,SAN DIEGO COUNTY FAIR 6/1-7/4/18 DEL MAR(CA),,,107050,"COnfirmed $3,600 in Square. 6/25/18 Hitomi
6/25PRINTED",CA,0,8.00
6/25/2018 12:24:36 PM,Irene Kyung,CA,92128,Pegasus,DWA-9400Pegasus-BR-DEMO,Demo Choco,Demo,,,,,4800.00,4500.00,300.00,Ting Ritchie,Synchrony,4800.00,,,6034610083349293,90715200,San Diego,48 months,,0.00,,,,,,,,0.00,,,,,,,,No,"3 years parts, 1 year labor (Free)",Scheduled,SAN DIEGO COUNTY FAIR 6/1-7/4/18 DEL MAR(CA),Authorization # 028080,,107051,"Confirmed synchrony account ($5,800) and original. ***Please charge before delivery and have sales draft signed.*** 6/26/18 HitomiPRINTED",CA,0,8.00
6/25/2018 12:30:53 PM,Matthew Villamor,CA,92054,Relax2Zero 3D,DWA-9060USJ-9060BL,New Black,New,,,,,4800.00,4500.00,300.00,Ruben Cuatrona,Synchrony,2000.00,,,6034610083349756,90735730,San Diego,48 months,COD,2800.00,,,,,,,,0.00,,,,,,,,No,"3 years parts, 1 year labor (Free)",Called,SAN DIEGO COUNTY FAIR 6/1-7/4/18 DEL MAR(CA),,,107052,"Please hold the order. They approved $2000 only. he will pay the rest in credit card.///Confirmed synchrony account ($2,000) and original.***Please charge before delivery and have sales draft signed.*** 6/26/18 HitomiPRINTED",CA,0,8.00
6/25/2018 12:37:36 PM,Michelle Tanglao,CA,91913,Legacy 3D,DWA-9150USJ-9150BL,New Black,New,,,,,3900.00,3900.00,0.00,Rodrigo Malabunga,Synchrony,3900.00,,,6034610083349269,90713032,San Diego,36 months,,0.00,,,,,,,,0.00,,,,,,,,No,"3 years parts, 1 year labor (Free)",Scheduled,SAN DIEGO COUNTY FAIR 6/1-7/4/18 DEL MAR(CA),Authorization # 028643,,107053,"Confirmed synchrony account ($3,900) and original.***Please charge before delivery and have sales draft signed. *** 6/25/18 Hitomi PRINTED",CA,1,8.00
6/25/2018 12:49:34 PM,Naa anorkor Okai,CA,92113,Pegasus,DWA-9400Pegasus-BR-DEMO,Demo Choco,Demo,,,,,4700.00,4700.00,0.00,Ruben Cuatrona,CreditCard,200.00,Sq #GObX,,,,,,COD,1800.00,,Lay away,,,,,PurchaseOrder,2900.00,,Law away,,,,,,No,"3 years parts, 1 year labor (Free)",Cancelled,SAN DIEGO COUNTY FAIR 6/1-7/4/18 DEL MAR(CA),,,107054,"HOLD do not ship until he pay the $1800.00 
LAY AWAY CUSTOMER",Not Dispatched,1,8.00
6/25/2018 4:09:50 PM,Naa anorkor Okai,CA,92113,Pegasus,DWA-9400Pegasus-BR-DEMO,Demo Choco,Demo,,,,,4900.00,4900.00,0.00,Ruben Cuatrona,CreditCard,200.00,Sq #GObX,,,,,,COD,1800.00,,,,,,,PurchaseOrder,2900.00,,LAYAWAY,,,,,,No,"3 years parts, 1 year labor (Free)",Cancelled,SAN DIEGO COUNTY FAIR 6/1-7/4/18 DEL MAR(CA),,,107056,"HOLD do not ship until he pay the $1800.00 they will call when they are ready 
LAYAWAY CUSTOMER//COnfirmed $200 in Square. LAYAWAY form is passed to Stephany. 6/25/18 Hitomi",CA,1,8.00
6/28/2018 11:19:12 AM,Frank Rose,CA,92672,Relax2Zero 3D,DWA-9060USJ-9060BR-DEMO,Demo Choco,Demo,,,,,3700.00,3481.48,218.52,Ting Ritchie,CreditCard,3700.00,SQ# 4Jvm,,,,,,,0.00,,,,,,,,0.00,,,,,,,,No,"3 years parts, 1 year labor (Free)",Called,SAN DIEGO COUNTY FAIR 6/1-7/4/18 DEL MAR(CA),,Please take customers old chair,107119,"Please try to deliver it Saturdays//Confirmed $3,700 in Square. 6/28/18 Hitomi
6/29Maritza Courtesy call will deliver 7/6. PRINTED",CA,0,8.00
6/28/2018 11:58:56 AM,Roger Easley,CA,92117,Legacy 3D,DWA-9150USJ-9150BL,New Black,New,,,,,4800.00,4800.00,0.00,Elijah Banania,Synchrony,4800.00,,,6019170813002125,90835776,San Diego,48 months,,0.00,,,,,,,,0.00,,,,,,,,No,"3 years parts, 1 year labor (Free)",Hold,SAN DIEGO COUNTY FAIR 6/1-7/4/18 DEL MAR(CA),,,107120,(HOLD) customer will advice us when we can deliver the chair he’s moving from different house,Not Dispatched,1,8.00
6/28/2018 8:54:18 PM,Clifton Thomas,CA,91913,Relax2Zero 3D,DWA-9060USJ-9060BR-DEMO,Demo Choco,Demo,,,,,4202.25,3946.53,255.72,Ruben Cuatrona,Synchrony,4202.25,,,6019170813004113,90903711,San Diego,36 months,,0.00,,,,,,,,0.00,,,,,,,,No,"3 years parts, 1 year labor (Free)",Called,SAN DIEGO COUNTY FAIR 6/1-7/4/18 DEL MAR(CA),,,107131,"Confirmed synchrony account ($5,100) original needs to be confirmed 6/29/18 Hitomi//Confirmed original. ***Please charge before delivery and have sales draft signed. *** 7/2/18 Hitomi PRINTED",CA,0,8.00
6/28/2018 9:01:15 PM,April Geronimo,CA,92596,Relax2Zero 3D,DWA-9060USJ-9060BR,New Choco,New,,,,,4032.00,3788.89,243.11,Ruben Cuatrona,Synchrony,4032.00,,,6019170813003842,90899015,San Diego,36 months,,0.00,,,,,,,,0.00,,,,,,,,No,"3 years parts, 1 year labor (Free)",Called,SAN DIEGO COUNTY FAIR 6/1-7/4/18 DEL MAR(CA),,,107132,"Confirmed synchrony account ($6,000) original needs to be confirmed. 6/29/18 Hitomi//Confirmed original. ***Please charge before delivery and have sales draft signed. *** 7/2/18 Hitomi PRINTED",CA,0,8.00
6/29/2018 9:39:50 PM,Kenneth Williams,CA,91911,Relax2Zero 3D,DWA-9060USJ-9060BR,New Choco,New,,,,,4800.00,4800.00,0.00,Kamille Gines,Synchrony,4800.00,,,6019170813005862,90955025,San Diego,36 months,,0.00,,,,,,,,0.00,,,,,,,,No,"3 years parts, 1 year labor (Free)",Called,SAN DIEGO COUNTY FAIR 6/1-7/4/18 DEL MAR(CA),,,107155,"Confirmed synchrony account ($6,000) and original. ***Please charge before delivery and have sales draft signed. *** 7/2/18 Hitomi PRINTED",CA,1,8.00
6/29/2018 9:44:42 PM,Mark Pressnall,CA,92119,Relax2Zero 3D,DWA-9060USJ-9060BL-DEMO,Demo Black,Demo,,,,,3900.00,3900.00,0.00,Kamille Gines,Synchrony,3900.00,,,6019170813005854,90954967,San Diego,24 months,,0.00,,,,,,,,0.00,,,,,,,,No,"3 years parts, 1 year labor (Free)",Called,SAN DIEGO COUNTY FAIR 6/1-7/4/18 DEL MAR(CA),,,107157,"DELIVERY BEFORE JULY 12./// COnfirmed synchrony account ($6,500) and original.***Please charge before delivery and have sales draft signed.*** 7/2/18 Hitomi PRINTED",CA,1,8.00
6/29/2018 9:50:46 PM,Michael Tomaino,CA,92008,Pegasus,DWA-9400Pegasus-BR,New Choco,New,,,,,4700.00,4700.00,0.00,Ruben Cuatrona,Synchrony,4700.00,,,6019170813005847,90954907,San Diego,48 months,,0.00,,,,,,,,0.00,,,,,,,,No,"3 years parts, 1 year labor (Free)",Called,SAN DIEGO COUNTY FAIR 6/1-7/4/18 DEL MAR(CA),,,107158,"COnfirmed synchrony account ($5,000) and original. ***Please charge before delivery and have sales draft signed.*** 7/2/18 Hitomi PRINTED",CA,1,8.00
6/29/2018 10:58:40 PM,Enrique Kaack,CA,92126,Relax2Zero 3D,DWA-9060USJ-9060BL-DEMO,Demo Black,Demo,,,,,3900.00,3900.00,0.00,Kamille Gines,Synchrony,3900.00,,,6019170813005870,90955588,San Diego,36 months,,0.00,,,,,,,,0.00,,,,,,,,No,"3 years parts, 1 year labor (Free)",Called,SAN DIEGO COUNTY FAIR 6/1-7/4/18 DEL MAR(CA),,,107161,"COnfirmed synchrony account ($8,500) and original.***Please charge before delivery and have sales draft signed. *** 7/2/18 Hitomi PRINTED",CA,1,8.00
6/30/2018 10:32:17 AM,Bo Chase,CA,92078,Legacy 3D,DWA-9150USJ-9150BL-DEMO,Demo Black,Demo,,,,,3900.00,3900.00,0.00,Rodrigo Malabunga,CreditCard,500.00,Sq #ySYj,,,,,,COD,3400.00,,,,,,,,0.00,,,,,,,,No,"3 years parts, 1 year labor (Free)",Called,SAN DIEGO COUNTY FAIR 6/1-7/4/18 DEL MAR(CA),,,107167,"$3,900 total priced
$.  500 down payment
$3,400 balanced (COD)///Confirmed $500 in Square. COD$3,400. 7/2/18 Hitomi PRINTED",CA,1,8.00
6/30/2018 10:51:29 AM,Linda Su chocki,CA,92009,Pegasus,DWA-9400Pegasus-BR-DEMO,Demo Choco,Demo,,,,,4800.00,4800.00,0.00,Rolly San Jose,Synchrony,4800.00,,,6034610609164689,,,48 months,,0.00,,,,,,,,0.00,,,,,,,,No,"3 years parts, 1 year labor (Free)",Called,SAN DIEGO COUNTY FAIR 6/1-7/4/18 DEL MAR(CA),,,107168,"She have is own account at synchrony bank//Confirmed synchrony existing account ($10,000). **PLease charge before delivery** 7/2/18 Hitomi PRINTED",CA,1,8.00
6/30/2018 11:38:08 AM,Michael Aguirre,CA,92010,Legacy 3D,DWA-9150USJ-9150CH-DEMO,Demo Choco,Demo,,,,,3800.00,3800.00,0.00,Rolly San Jose,Synchrony,3800.00,,,6019170813005771,90951123,San Diego,36 months,,0.00,,,,,,,,0.00,,,,,,,,No,"3 years parts, 1 year labor (Free)",Called,SAN DIEGO COUNTY FAIR 6/1-7/4/18 DEL MAR(CA),,,107169,"COnfirmed synchrony account ($8,500) and original.***Please charge before delivery and have sales draft signed. *** 7/2/18 Hitomi PRINTED",CA,1,8.00
6/30/2018 11:43:36 AM,Pio Rogacion,CA,92114,Legacy 3D,DWA-9150USJ-9150BL,New Black,New,,,,,4000.00,4000.00,0.00,Rolly San Jose,Synchrony,4000.00,,,6019170813006449,90070504,San Diego,36 months,,0.00,,,,,,,,0.00,,,,,,,,No,"3 years parts, 1 year labor (Free)",Called,SAN DIEGO COUNTY FAIR 6/1-7/4/18 DEL MAR(CA),,,107170,"COnfirmed synchrony account ($8,500) and original. ***Please charge before delivery and have sales draft signed. ***  7/2/18 Hitomi PRINTED",CA,1,8.00
6/30/2018 10:03:15 PM,Louella Adiova,CA,92126,Relax2Zero 3D,DWA-9060USJ-9060BR,New Choco,New,,,,,4300.00,4300.00,0.00,Kamille Gines,CreditCard,4300.00,SQ# zPHI,,,,,,,0.00,,,,,,,,0.00,,,,,,,,No,"3 years parts, 1 year labor (Free)",Called,SAN DIEGO COUNTY FAIR 6/1-7/4/18 DEL MAR(CA),,,107181,"Confirmed $4,300 in Square. 7/2/18 HitomiPRINTED",CA,1,8.00
6/30/2018 10:11:05 PM,Rosa Estrada,CA,91911,Pegasus,DWA-9400Pegasus-BL-DEMO,Demo Black,Demo,,,,,4900.00,4900.00,0.00,Kamille Gines,Synchrony,4900.00,,,6019193310357131,,San Diego,48 months,,0.00,,,,,,,,0.00,,,,,,,,No,"3 years parts, 1 year labor (Free)",Called,SAN DIEGO COUNTY FAIR 6/1-7/4/18 DEL MAR(CA),,,107182,"With Synchrony account//Confirmed synchrony existing account ($6,000) ***Please charge before delivery***7/2/18 Hitomi PRINTED",CA,1,8.00
7/1/2018 11:00:25 AM,Mary Summers,CA,91945,Legacy 3D,DWA-9150USJ-9150BL,New Black,New,,,,,4000.00,4000.00,0.00,Elijah Banania,Synchrony,4000.00,,,6019170813008387,91009583,San Diego,48 months,,0.00,,,,,,,,0.00,,,,,,,,No,"3 years parts, 1 year labor (Free)",Called,SAN DIEGO COUNTY FAIR 6/1-7/4/18 DEL MAR(CA),,,107185,"COnfirmed synchrony account ($7,200) and original.***Please charge before delivery and have sales draft signed. ***7/2/18 Hitomi PRINTED",CA,1,8.00
7/1/2018 11:06:46 AM,Emily Rebis,CA,91910,Pegasus,DWA-9400Pegasus-BR-DEMO,Demo Choco,Demo,,,,,4800.00,4800.00,0.00,Rolly San Jose,CreditCard,200.00,Sq #sp5a,,,,,,Synchrony,4600.00,,,6019193316324630,,San Diego,48 months,,0.00,,,,,,,,No,"3 years parts, 1 year labor (Free)",Called,SAN DIEGO COUNTY FAIR 6/1-7/4/18 DEL MAR(CA),"Rod already charged. Confirmed $4600 was charged for 48 months.
Authorization Number:	002628--- 7/2/18 Hitomi
",,107186,The chair Pegasus its already at the WH Gardena//Confirmed $200 in Square. Sales rep already charged . *** Please have signed on sales draft upon the delivery. ***7/2/18 Hitomi--PRINTED,CA,1,8.00
7/1/2018 11:13:26 AM,Pablo pimentel,CA,92154,Legacy 3D,DWA-9150USJ-9150BL-DEMO,Demo Black,Demo,,,,,3900.00,3900.00,0.00,Elijah Banania,Synchrony,3900.00,,,6019170813007991,91001619,San Diego,48 months,,0.00,,,,,,,,0.00,,,,,,,,No,"3 years parts, 1 year labor (Free)",Called,SAN DIEGO COUNTY FAIR 6/1-7/4/18 DEL MAR(CA),,,107187,"COnfirmed synchrony account ($4,500) and original. ***Please charge before delivery and have sales draft signed. *** 7/2/18 Hitomi PRINTED",CA,1,8.00
7/1/2018 11:19:30 AM,Paul Viehmann,CA,91942,Legacy 3D,DWA-9150USJ-9150BL-DEMO,Demo Black,Demo,,,,,3800.00,3800.00,0.00,Rolly San Jose,Synchrony,3800.00,,,6019170813007959,91000860,San Diego,48 months,,0.00,,,,,,,,0.00,,,,,,,,No,"3 years parts, 1 year labor (Free)",Called,SAN DIEGO COUNTY FAIR 6/1-7/4/18 DEL MAR(CA),,,107188,"Confirmed synchrony account ($8,500) and original. ***Please charge before delivery and have sales draft signed. ***7/2/18 HitomiPRINTED",CA,1,8.00
7/2/2018 12:58:12 PM,Tonya Howard taylor,CA,90712,Pegasus,DWA-9400Pegasus-BL-DEMO,Demo Black,Demo,,,,,4800.00,4800.00,0.00,Rodrigo Malabunga,Synchrony,4800.00,,,6019193018291210,,,48 months,,0.00,,,,,,,,0.00,,,,,,,,No,"3 years parts, 1 year labor (Free)",Called,SAN DIEGO COUNTY FAIR 6/1-7/4/18 DEL MAR(CA),,,107214,"CORRECTION FOR 107189///Confirmed the existing account ($5,500). ***Please charge before delivery and have sales draft signed. ***7/2/18 HitomiPRINTED",CA,1,8.00
