﻿Order Number,Order Date,Event Name,Salesperson,SKU,Product Name,Color,QTY,Warranty,Payment Details,Tax,Order Total,Gross,Actual Shipping Cost,CustomerName,Shipping Address,Delivered On,Serial Number (TO Be),Note
100332,9/1/2017 2:09:27 PM,Referral (Main Office),Mitch Valdes,DWA-9100DWA-9100BL,Legacy,Black,1,"3 years parts, 1 year labor (Free)",CreditCard ,294.15,4224.15,4224.15,0.00,Tae Lee,770-633-0993,9/6/2017 12:00:00 AM,,"ASSI Plaza Referral
$3,700 - cash price
$222 - (6% tax)
$300 - delivery"
100333,9/1/2017 5:15:48 PM,Sam's Club #6363 8/24-9/2 (FL),Jonathan Bhowani,DWA-9100DWA-9100CH-DEMO,Legacy for Sam's,Demo Choco,1,"3 years parts, 1 year labor (Free)",CreditCard ,251.93,3850.93,3850.93,0.00,Clarence Fox,9047102134,,,
100333,9/1/2017 5:15:48 PM,Sam's Club #6363 8/24-9/2 (FL),Jonathan Bhowani,,Daiwa Blanket,,1,No Warranty,CreditCard ,251.93,3850.93,3850.93,0.00,Clarence Fox,9047102134,,,
100335,9/1/2017 11:26:27 PM,LA County Fair 9/1-24 (CA),David Wang,DWA-9100DWA-9100CH-DEMO,Legacy,Demo Choco Brown,1,"3 years parts, 1 year labor (Free)",CreditCard ,198.88,3098.88,3098.88,0.00,Randy Costales,909-772-2957,,,Ship as soon as possible
100336,9/2/2017 1:17:43 AM,LA County Fair 9/1-24 (CA),Mei Kang,DWA-9100DWA-9100CH-DEMO,Legacy,Demo Choco Brown,1,"3 years parts, 1 year labor (Free)",Synchrony ,208.13,3208.13,3208.13,0.00,NADINE ZARRINKOUH,951-333-7986,,,Second Floor Delivery
100337,9/2/2017 4:23:39 PM,Washington State Fair 9/1-24 (WA),Kristy Tran,DWA-9150USJ-9150CH-DEMO,Legacy 3D,Demo Choco Brown,1,"5 years parts, 3 years labor ($700)",COD CreditCard,267.90,3867.90,3867.90,0.00,Geri Cooper,206-242-0206,,,"Showplex Invoice 1
$500 Square #8CLv
We charged 9.9% Tax 
Total: $3956.40
Deposit: $500
Remaining: $3456.40"
100338,9/2/2017 4:34:08 PM,Washington State Fair 9/1-24 (WA),Tom Nguyen,DWA-9150USJ-9150CH-DEMO,Legacy 3D,Demo Choco Brown,1,"5 years parts, 3 years labor ($700)",Synchrony ,305.50,4305.50,4305.50,0.00,Lucinda Bryant,253-326-9391,9/7/2017 12:00:00 AM,,"Showplex Invoice 2 
PLEASE Deliver BEFORE September 10th 
Waived Tax
Synchrony $4000 @ 24 months
#001044"
100339,9/2/2017 4:41:31 PM,Washington State Fair 9/1-24 (WA),Ruben Cuatrona,DWA-9150USJ-9150BL-DEMO,Legacy 3D,Demo Black,1,"5 years parts, 3 years labor ($700)",COD CreditCard,305.50,4305.50,4305.50,0.00,Tom Weber,425-888-4851,9/7/2017 12:00:00 AM,,"Showplex Invoice 3
PLEASE Deliver NEXT WEEK 
Prefer Weekday Delivery - Call first 
Waived Tax
Total: $4000
Deposit: $1000
Remaining: $3000"
100340,9/2/2017 4:52:20 PM,Washington State Fair 9/1-24 (WA),Christoper Richard Williams,DWA-9150USJ-9150BL,Legacy 3D,Black,1,"5 years parts, 3 years labor ($700)",CreditCard ,361.90,4961.90,4961.90,0.00,Jane Schultz,724-630-4011,,,"Invoice 4
PLEASE Deliver Tourmaline Pad with Chair 
Total: $5055.40
Remaining: 0"
100340,9/2/2017 4:52:20 PM,Washington State Fair 9/1-24 (WA),Christoper Richard Williams,,Tourmaline Pad for Lagacy 3D,,1,no warranty,CreditCard ,361.90,4961.90,4961.90,0.00,Jane Schultz,724-630-4011,,,"Invoice 4
PLEASE Deliver Tourmaline Pad with Chair 
Total: $5055.40
Remaining: 0"
100341,9/2/2017 4:58:44 PM,Evergreen State Fair 8/24-9/4 (WA),Joseph Chan,DWA-9100DWA-9100CH-DEMO,Legacy,Demo Choco Brown,1,"3 years parts, 3 years labor ($400)",CreditCard ,262.20,3862.20,3862.20,0.00,Barb Sankey,425-330-8440,9/10/2017 12:00:00 AM,,
100342,9/2/2017 5:04:04 PM,Washington State Fair 9/1-24 (WA),Phuoc Van,DWA-9150USJ-9150BL,Legacy 3D,Black,1,"5 years parts, 3 years labor ($700)",COD CreditCard,361.90,4961.90,4961.90,0.00,Brian Nokes,425-366-7697,,,"Invoice 5 
Total: $5055.40 
Deposit: $300 Square #eyPk 
Remaining: $4755.40"
100343,9/2/2017 5:21:20 PM,Washington State Fair 9/1-24 (WA),Laser Howell,DWA-9060USJ-9060BR-DEMO,Relax2Zero 3D,Demo Choco Brown,1,"5 years parts, 3 years labor ($700)",Synchrony ,305.50,4305.50,4305.50,0.00,Sam Hankins,253-770-4245,9/12/2017 12:00:00 AM,,"Invoice 6 
Waived Tax
Total: $4000
Synchrony $4000 @ 36 months #001320"
100344,9/2/2017 5:36:23 PM,LA County Fair 9/1-24 (CA),Mei Kang,DWA-9100DWA-9100CH,Legacy,Choco Brown,1,"3 years parts, 1 year labor (Free)",CreditCard COD,263.63,3863.63,3863.63,0.00,Test Test,3101231234,,,Ship a chair after 9/22
100344,9/2/2017 5:36:23 PM,LA County Fair 9/1-24 (CA),Mei Kang,,Tourmaline Pad for Lagacy,,1,no warranty,CreditCard COD,263.63,3863.63,3863.63,0.00,Test Test,3101231234,,,Ship a chair after 9/22
100345,9/2/2017 5:50:06 PM,Washington State Fair 9/1-24 (WA),Tom Nguyen,DWA-9060USJ-9060BR-DEMO,Relax2Zero 3D,Demo Choco Brown,1,"5 years parts, 3 years labor ($700)",Synchrony CreditCard,286.70,4086.70,4086.70,0.00,Richard Callaham,505-385-8411,,,"Invoice 7 
Waived Tax 
Total: $3800 
Synchrony $3500 @ 36 months 
Remaining: $300 C.O.D."
100346,9/2/2017 7:18:40 PM,Health&Wellness Factory AGM (CA),Jessica Phung,DWA-9150USJ-9150BL,Legacy 3D,Black,1,"3 years parts, 1 year labor (Free)",Synchrony ,319.38,4719.38,4719.38,0.00,Cuc Nguyen,5617039806,,,
100346,9/2/2017 7:18:40 PM,Health&Wellness Factory AGM (CA),Jessica Phung,,Chair Pad for Lagacy 3D,,1,no warranty,Synchrony ,319.38,4719.38,4719.38,0.00,Cuc Nguyen,5617039806,,,
100346,9/2/2017 7:18:40 PM,Health&Wellness Factory AGM (CA),Jessica Phung,,Daiwa Blanket,,1,no warranty,Synchrony ,319.38,4719.38,4719.38,0.00,Cuc Nguyen,5617039806,,,
100346,9/2/2017 7:18:40 PM,Health&Wellness Factory AGM (CA),Jessica Phung,,Foot Pads for Lagacy 3D,,1,no warranty,Synchrony ,319.38,4719.38,4719.38,0.00,Cuc Nguyen,5617039806,,,
100347,9/2/2017 8:21:04 PM,Health&Wellness Factory AGM (CA),Jessica Phung,DWA-9150USJ-9150CH,Legacy 3D,Choco Brown,1,"3 years parts, 1 year labor (Free)",Synchrony ,319.38,4719.38,4719.38,0.00,Sau Coc Thong,8583978905,,,
100347,9/2/2017 8:21:04 PM,Health&Wellness Factory AGM (CA),Jessica Phung,,Chair Pad for Lagacy 3D,,1,no warranty,Synchrony ,319.38,4719.38,4719.38,0.00,Sau Coc Thong,8583978905,,,
100347,9/2/2017 8:21:04 PM,Health&Wellness Factory AGM (CA),Jessica Phung,,Foot Pads for Lagacy 3D,,1,no warranty,Synchrony ,319.38,4719.38,4719.38,0.00,Sau Coc Thong,8583978905,,,
100348,9/2/2017 9:13:25 PM,LA County Fair 9/1-24 (CA),Kaz Ohashi,DWA-9100DWA-9100CH-DEMO,Legacy,Demo Choco Brown,1,"3 years parts, 1 year labor (Free)",CreditCard ,207.20,3197.20,3197.20,0.00,Jimmy Retana,9094555765,,,
100349,9/2/2017 9:17:46 PM,Evergreen State Fair 8/24-9/4 (WA),Joseph Chan,DWA-9060USJ-9060BL-DEMO,Relax2Zero 3D,Demo Black,1,"3 years parts, 3 years labor ($400)",CreditCard ,267.72,3927.72,3927.72,0.00,Claudia Dodel,206-992-9533,9/5/2017 12:00:00 AM,,Total charge is $4000.00
100350,9/2/2017 10:23:32 PM,Health&Wellness Factory AGM (CA),Jessica Phung,DWA-9150USJ-9150CH,Legacy 3D,Choco Brown,1,"3 years parts, 1 year labor (Free)",COD ,319.38,4719.38,4719.38,0.00,John Smith,1111111111,,,
100350,9/2/2017 10:23:32 PM,Health&Wellness Factory AGM (CA),Jessica Phung,,Chair Pad for Lagacy 3D,,1,no warranty,COD ,319.38,4719.38,4719.38,0.00,John Smith,1111111111,,,
100351,9/3/2017 4:11:55 PM,Washington State Fair 9/1-24 (WA),Ruben Cuatrona,DWA-9150USJ-9150CH-DEMO,Legacy 3D,Demo Choco Brown,1,"5 years parts, 3 years labor ($700)",Synchrony ,305.50,4305.50,4305.50,0.00,Mary Miller,360-832-8930,,,"Invoice 9 
PLEASE Deliver Tuesday or Wednesday IF Thursday or Friday then AFTER 3pm
Waived Tax
Synchrony $4000 @ 36 months #002621"
100352,9/3/2017 4:19:47 PM,Washington State Fair 9/1-24 (WA),Tom Nguyen,DWA-9150USJ-9150CH,Legacy 3D,Choco Brown,1,"5 years parts, 3 years labor ($700)",CreditCard COD,324.30,4524.30,4524.30,0.00,Terri Vaughn,253-377-8619,,,"Invoice 10 
Waived Tax 
Remaining: $3700"
100353,9/3/2017 4:34:06 PM,Washington State Fair 9/1-24 (WA),Kristy Tran,DWA-9150USJ-9150BL,Legacy 3D,Black,1,"5 years parts, 3 years labor ($700)",Synchrony ,333.70,4633.70,4633.70,0.00,Ronald & Pamela Greene,425-268-9709,,,"Invoice 11 
Waived Tax
Synchrony $4300 @ 36 months #002934"
100354,9/3/2017 4:41:22 PM,Washington State Fair 9/1-24 (WA),Ruben Cuatrona,DWA-9150USJ-9150BL,Legacy 3D,Black,1,"5 years parts, 3 years labor ($700)",CreditCard ,305.50,4305.50,4305.50,0.00,Robert Breynaert,425-442-1143,9/7/2017 12:00:00 AM,,"Invoice 12 
PLEASE Deliver on Friday, September 8 (Birthday) @ 3pm or later 
Waived Tax"
100355,9/3/2017 4:47:51 PM,Washington State Fair 9/1-24 (WA),Larhonda Ingram,DWA-9060USJ-9060BR,Relax2Zero 3D,Choco Brown,1,"5 years parts, 3 years labor ($700)",CreditCard COD,305.50,4305.50,4305.50,0.00,Tara Kleca,253-719-7897,9/7/2017 12:00:00 AM,,"Invoice 13 
Waived Tax 
Remaining: $3500 (CASH on Delivery)"
100356,9/3/2017 5:03:48 PM,Washington State Fair 9/1-24 (WA),Scott Ishikawa,DWA-9060USJ-9060BL,Relax2Zero 3D,Black,1,"5 years parts, 3 years labor ($700)",CreditCard COD,361.90,4961.90,4961.90,0.00,James Young,925-383-3626,,,"Invoice 14 
Tax: 9.4% $432.40
Total: $5032.40
Deposit: $100
Remaining: $4932.40"
100357,9/3/2017 5:12:52 PM,Washington State Fair 9/1-24 (WA),Laser Howell,DWA-9060USJ-9060BR,Relax2Zero 3D,Choco Brown,1,"5 years parts, 3 years labor ($700)",CreditCard COD,305.50,4305.50,4305.50,0.00,Susan Dones,253-677-5293,,,"Invoice 15 
PLEASE Deliver September 12
Waived Tax
Remaining: $3600"
100358,9/3/2017 5:21:39 PM,LA County Fair 9/1-24 (CA),Kohei Uno,USJ-9000USJ-9000KU,Relax2Zero 1.0,Black,1,"3 years parts, 1 year labor (Free)",Synchrony ,254.38,3754.38,3754.38,0.00,George Hernandez,562-612-8112,,,
100358,9/3/2017 5:21:39 PM,LA County Fair 9/1-24 (CA),Kohei Uno,,Daiwa Blanket,,1,no warranty,Synchrony ,254.38,3754.38,3754.38,0.00,George Hernandez,562-612-8112,,,
100358,9/3/2017 5:21:39 PM,LA County Fair 9/1-24 (CA),Kohei Uno,,Chair Pad for Relax2Zero 1.0,,1,no warranty,Synchrony ,254.38,3754.38,3754.38,0.00,George Hernandez,562-612-8112,,,
100358,9/3/2017 5:21:39 PM,LA County Fair 9/1-24 (CA),Kohei Uno,,Foot Pads for Relax2Zero 1.0,,1,no warranty,Synchrony ,254.38,3754.38,3754.38,0.00,George Hernandez,562-612-8112,,,
100359,9/3/2017 6:37:02 PM,Sam's Club #4998 8/17-27 (FL),Fnu Pierce Wusilong,USJ-9050USJ-9050BR,Relax2Zero 2.0 for Sam's,Brown,1,"3 years parts, 1 year labor (Free)",CreditCard ,223.93,3422.93,3422.93,0.00,Joe Cruz,9046515468,,,"Shipping new one to customer as the final day sale discount. Demo price, but shipping new one. Pierce covering Mitch in Jacksonville Sam's Club"
100360,9/3/2017 9:02:11 PM,LA County Fair 9/1-24 (CA),Ting Ritchie,DWA-9100DWA-9100CR-DEMO,Legacy,Demo Cream,1,"3 years parts, 1 year labor (Free)",CreditCard ,223.85,3393.85,3393.85,0.00,Juam Rodriguez,909-212-1529,9/11/2017 12:00:00 AM,,Please delivery ASAP
100361,9/3/2017 9:06:53 PM,LA County Fair 9/1-24 (CA),David Wang,DWA-9400Pegasus-BR-DEMO,Pegasus,Demo Choco Brown,1,"3 years parts, 1 year labor (Free)",Synchrony ,304.33,4344.33,4344.33,0.00,Laurie Werk,9516379172,,,
100362,9/3/2017 9:43:30 PM,Health&Wellness Factory AGM (CA),Jessica Phung,,Chair Pad for Relax2Zero 1.0,,1,no warranty,Cash ,166.25,2816.25,2816.25,0.00,Hoa Huynh,858-484-8415,,,The balance will be COD ($1500)
100362,9/3/2017 9:43:30 PM,Health&Wellness Factory AGM (CA),Jessica Phung,,Foot Pads for Relax2Zero 1.0,,1,no warranty,Cash ,166.25,2816.25,2816.25,0.00,Hoa Huynh,858-484-8415,,,The balance will be COD ($1500)
100362,9/3/2017 9:43:30 PM,Health&Wellness Factory AGM (CA),Jessica Phung,USJ-9000USJ-9000CR,Relax2Zero 1.0,Cream,1,"3 years parts, 1 year labor (Free)",Cash ,166.25,2816.25,2816.25,0.00,Hoa Huynh,858-484-8415,,,The balance will be COD ($1500)
100363,9/4/2017 2:06:06 AM,LA County Fair 9/1-24 (CA),David Wang,DWA-9100DWA-9100CH-DEMO,Legacy,Demo Choco Brown,1,"3 years parts, 1 year labor (Free)",Synchrony ,223.85,3393.85,3393.85,0.00,Cathy Yoel,8185716666,,,
100363,9/4/2017 2:06:06 AM,LA County Fair 9/1-24 (CA),David Wang,,Foot Pads for Lagacy,,1,no warranty,Synchrony ,223.85,3393.85,3393.85,0.00,Cathy Yoel,8185716666,,,
100364,9/4/2017 3:31:28 AM,LA County Fair 9/1-24 (CA),Mei Kang,DWA-9100DWA-9100CH-DEMO,Legacy,Demo Choco Brown,1,"3 years parts, 1 year labor (Free)",Synchrony ,208.13,3208.13,3208.13,0.00,Giselle Zarrinkouh,9513337986,,,Not process yet
100365,9/4/2017 3:42:36 AM,LA County Fair 9/1-24 (CA),Mei Kang,DWA-9100DWA-9100BL,Legacy,Black,1,"3 years parts, 1 year labor (Free)",Synchrony ,218.30,3328.30,3328.30,0.00,Lucas Blankenship,7608873575,,,#003242
100366,9/4/2017 4:18:34 AM,LA County Fair 9/1-24 (CA),Ting Ritchie,DWA-9150USJ-9150BL,Legacy 3D,Black,1,"3 years parts, 1 year labor (Free)",Synchrony ,263.63,3863.63,3863.63,0.00,Amy Gray,7608854182,,,
100367,9/4/2017 4:49:31 PM,Washington State Fair 9/1-24 (WA),Kristy Tran,DWA-9150USJ-9150CH,Legacy 3D,Choco Brown,1,"5 years parts, 3 years labor ($700)",CreditCard ,361.90,4961.90,4961.90,0.00,Ken Hebert,253-631-5424,9/11/2017 12:00:00 AM,,
100368,9/4/2017 4:58:18 PM,Washington State Fair 9/1-24 (WA),Kristy Tran,DWA-9150USJ-9150CH,Legacy 3D,Choco Brown,1,"5 years parts, 3 years labor ($700)",Synchrony ,361.90,4961.90,4961.90,0.00,Nathalie Watsek,360-798-8082,9/9/2017 12:00:00 AM,,Invoice 17
100369,9/4/2017 5:12:18 PM,Washington State Fair 9/1-24 (WA),Kamille Gines,DWA-9150USJ-9150BL,Legacy 3D,Black,1,"5 years parts, 3 years labor ($700)",Synchrony ,305.50,4305.50,4305.50,0.00,Charlie Megia,408-591-8386,9/6/2017 12:00:00 AM,,"Invoice 18 
Auth#: 003793 
Waived Tax
PLEASE Deliver Tourmaline Pad"
100369,9/4/2017 5:12:18 PM,Washington State Fair 9/1-24 (WA),Kamille Gines,,Tourmaline Pad for Lagacy 3D,,1,no warranty,Synchrony ,305.50,4305.50,4305.50,0.00,Charlie Megia,408-591-8386,9/6/2017 12:00:00 AM,,"Invoice 18 
Auth#: 003793 
Waived Tax
PLEASE Deliver Tourmaline Pad"
100370,9/4/2017 5:20:14 PM,Washington State Fair 9/1-24 (WA),Kamille Gines,DWA-9150USJ-9150BL,Legacy 3D,Black,1,"5 years parts, 3 years labor ($700)",Synchrony ,305.50,4305.50,4305.50,0.00,Marnie Gonzales,206-396-4805,9/6/2017 12:00:00 AM,,"Invoice 19 
Auth#: 003556 
Waived Tax
PLEASE Deliver Tourmaline Pad"
100370,9/4/2017 5:20:14 PM,Washington State Fair 9/1-24 (WA),Kamille Gines,,Tourmaline Pad for Lagacy 3D,,1,no warranty,Synchrony ,305.50,4305.50,4305.50,0.00,Marnie Gonzales,206-396-4805,9/6/2017 12:00:00 AM,,"Invoice 19 
Auth#: 003556 
Waived Tax
PLEASE Deliver Tourmaline Pad"
100371,9/4/2017 5:25:26 PM,Washington State Fair 9/1-24 (WA),Tom Nguyen,DWA-9100DWA-9100BL-DEMO,Legacy,Demo Black,1,"5 years parts, 3 years labor ($700)",CreditCard ,211.50,3211.50,3211.50,0.00,Brian Baltierra,916-225-0564,9/3/2017 12:00:00 AM,,"Invoice 20 
Waived Tax"
100372,9/4/2017 5:39:21 PM,Washington State Fair 9/1-24 (WA),Alex Brackelsberg,DWA-9150USJ-9150BL,Legacy 3D,Black,1,"5 years parts, 3 years labor ($700)",Synchrony CreditCard,361.90,4961.90,4961.90,,Meredith Blache,206-271-1600,,,"Invoice 21 
HOLD Order Until Beginning of OCTOBER 
We have NOT gone through to process the Synchrony 
They were approved for $3500 for 36 months. 
They will pay remaining with Credit Card. 
Please follow up.
Total: $4961.90
Synchrony: $3500 (OWE)
CC: $1461.90 (OWE)"
100373,9/4/2017 5:50:10 PM,Washington State Fair 9/1-24 (WA),Jennifer Tran,DWA-9150USJ-9150CH-DEMO,Legacy 3D,Demo Choco Brown,1,"5 years parts, 3 years labor ($700)",Synchrony ,305.50,4305.50,4305.50,0.00,Connie Ryerson,206-200-3180,9/6/2017 12:00:00 AM,,"Invoice 22 
Auth#: 003016 
Remaining: 0"
100374,9/4/2017 5:56:13 PM,Washington State Fair 9/1-24 (WA),Christoper Richard Williams,DWA-9150USJ-9150BL,Legacy 3D,Black,1,"5 years parts, 3 years labor ($700)",CreditCard ,385.40,5235.40,5235.40,0.00,Daniel Kirby,253-507-7600,,,"Invoice 23 
Waived Tax"
100375,9/4/2017 6:02:25 PM,Washington State Fair 9/1-24 (WA),Kristy Tran,DWA-9150USJ-9150CH,Legacy 3D,Choco Brown,1,"5 years parts, 3 years labor ($700)",CreditCard COD,324.30,4524.30,4524.30,0.00,Bernard Tagalan,206-295-2769,,,"Invoice 24 
Waived Tax
Remaining: $3700"
100376,9/4/2017 6:13:31 PM,Washington State Fair 9/1-24 (WA),Jennifer Tran,DWA-9150USJ-9150BL,Legacy 3D,Black,2,"5 years parts, 3 years labor ($700)",CreditCard ,531.10,6931.10,6931.10,0.00,Desert Green Farms Inc. Mianecki,509-989-0404,9/9/2017 12:00:00 AM,,"Invoice 25 & 26 (Invoice 27 is together as one purchase)
Waived Tax"
100377,9/4/2017 6:16:53 PM,LA County Fair 9/1-24 (CA),Kohei Uno,USJ-9000USJ-9000KU,Relax2Zero 1.0,Black,1,"3 years parts, 1 year labor (Free)",Synchrony ,254.38,3754.38,3754.38,0.00,Natalie Dick,951-467-9666,,,
100378,9/4/2017 6:22:04 PM,Washington State Fair 9/1-24 (WA),Jennifer Tran,DWA-9150USJ-9150BL,Legacy 3D,Black,1,"5 years parts, 3 years labor ($700)",CreditCard ,230.30,3430.30,3430.30,0.00,Dennis Fischer,509-899-3652,9/9/2017 12:00:00 AM,,"Invoice 27 (Invoice 25 & 26 is together) 
Waived Tax"
100379,9/4/2017 6:33:17 PM,Washington State Fair 9/1-24 (WA),Ruben Cuatrona,DWA-9150USJ-9150BL,Legacy 3D,Black,1,"5 years parts, 3 years labor ($700)",Synchrony ,333.70,4633.70,4633.70,0.00,Brian Klein,206-280-7025,,,"Invoice 28 
Auth# 003269
PLEASE Deliver FRIDAYs only
Waived Tax"
100380,9/4/2017 6:40:12 PM,Washington State Fair 9/1-24 (WA),Christoper Richard Williams,DWA-9150USJ-9150CH,Legacy 3D,Choco Brown,1,"5 years parts, 3 years labor ($700)",CreditCard COD,361.90,4961.90,4961.90,,James Bliss,360-791-5709,,,"Invoice 29
New Address:
5680 W Cloquallum Rd. Shelton, WA 98584
Waived Tax
Deposit $500 is Refundable by October 15, 2017
They are in the process of closing on the new house and will pay remaining balance when complete.
Remaining: $4100
Please Follow up"
100381,9/4/2017 6:46:22 PM,Washington State Fair 9/1-24 (WA),Kristy Tran,DWA-9150USJ-9150CH-DEMO,Legacy 3D,Demo Choco Brown,1,"5 years parts, 3 years labor ($700)",Synchrony ,258.50,3758.50,3758.50,0.00,Adam Pegum,253-225-3945,,,"Invoice 30
Auth# 003938
PLEASE Delivery 1-2 weeks from Today (Latest is Sept. 17)
Waived Tax"
100382,9/4/2017 6:56:32 PM,Washington State Fair 9/1-24 (WA),Kamille Gines,DWA-9400Pegasus-BL,Pegasus,Black,1,"5 years parts, 3 years labor ($700)",Synchrony CreditCard,390.10,5290.10,5290.10,,John Lucier III,701-425-8404,,,"Invoice 31
HOLD Order Until next week 
We have NOT processed the Synchrony, it was approved for $1500 for 12 months
Waived Tax
COD: $3400
Remaining: $4900
Please follow up"
100383,9/4/2017 7:01:25 PM,Washington State Fair 9/1-24 (WA),Kamille Gines,DWA-9150USJ-9150CH,Legacy 3D,Choco Brown,1,"5 years parts, 3 years labor ($700)",Synchrony ,333.70,4633.70,4633.70,0.00,Roman Gonzales,916-765-2685,,,"Invoice 32 
Waived Tax"
100384,9/4/2017 7:10:29 PM,Washington State Fair 9/1-24 (WA),Kristy Tran,DWA-9150USJ-9150BL,Legacy 3D,Black,1,"5 years parts, 3 years labor ($700)",CreditCard ,338.40,4338.40,4338.40,0.00,Vitaily Topal,253-486-2978,,,"Invoice 33
Drop Shipping
Customer is planning on surprising his dad for Birthday
We will drop ship the chair in the box at this address and he will bring it to his father's place (different address) on his own to set up.
Waived Tax"
100385,9/4/2017 7:23:47 PM,Washington State Fair 9/1-24 (WA),Jennifer Tran,DWA-9100DWA-9100BL,Legacy,Black,1,"5 years parts, 3 years labor ($700)",CreditCard ,230.30,3430.30,3430.30,0.00,Robert Mina,425-345-9547,9/10/2017 12:00:00 AM,,"Invoice 34
Waived Tax"
100386,9/4/2017 7:29:14 PM,Washington State Fair 9/1-24 (WA),Kamille Gines,DWA-9400Pegasus-BL,Pegasus,Black,1,"5 years parts, 3 years labor ($700)",Synchrony ,380.70,5180.70,5180.70,0.00,Aleta Gehrke,206-349-4751,9/12/2017 12:00:00 AM,,"Invoice 35
Auth# 004764
PLEASE Deliver with Black Chair Cover
Waived Tax"
100387,9/4/2017 7:42:11 PM,Washington State Fair 9/1-24 (WA),Rodrigo Malabunga,DWA-9060USJ-9060BL,Relax2Zero 3D,Black,1,"3 years parts, 2 years labor ($200)",CreditCard ,371.30,5071.30,5071.30,0.00,Christeli Brunder,860-806-1056,,,"Invoice 36
PLEASE Update the Program System Chair 
**PLEASE Send or Email this Order to Chicago Branch ASAP!!**
Remaining: 0"
100388,9/4/2017 7:49:10 PM,Washington State Fair 9/1-24 (WA),Rodrigo Malabunga,USJ-9050USJ-9050BL,Relax2Zero 2.0,Black,1,"5 years parts, 3 years labor ($700)",CreditCard COD,211.50,3211.50,3211.50,0.00,Jeff Mucha,253-255-8239,,,"Invoice 37 
Waived Tax
Remaining: $2500 COD"
100389,9/4/2017 7:59:50 PM,Washington State Fair 9/1-24 (WA),Scott Ishikawa,DWA-9060USJ-9060BL,Relax2Zero 3D,Black,1,"5 years parts, 3 years labor ($700)",Cash CreditCard,361.90,4961.90,4961.90,0.00,Sam Canfield,360-324-8061,,,"Invoice 38
PLEASE Call in 2 weeks
Waived Tax
Please follow up
Remaining: $4580"
100390,9/4/2017 8:07:28 PM,Washington State Fair 9/1-24 (WA),Larhonda Ingram,DWA-9150USJ-9150CH,Legacy 3D,Choco Brown,1,"5 years parts, 3 years labor ($700)",Synchrony ,333.70,4633.70,4633.70,0.00,Cathy Bennett,360-275-0328,9/7/2017 12:00:00 AM,,"Invoice 39
**PLEASE Deliver in 2 weeks**
Waived Tax"
100391,9/4/2017 8:12:13 PM,Washington State Fair 9/1-24 (WA),Kamille Gines,DWA-9060USJ-9060BR-DEMO,Relax2Zero 3D,Demo Choco Brown,1,"5 years parts, 3 years labor ($700)",Synchrony ,305.50,4305.50,4305.50,0.00,Clifford Cox,360-763-3121,9/12/2017 12:00:00 AM,,"Invoice 40
Waived Tax"
100392,9/4/2017 8:17:56 PM,Washington State Fair 9/1-24 (WA),Jennifer Tran,DWA-9150USJ-9150BL-DEMO,Legacy 3D,Demo Black,1,"5 years parts, 3 years labor ($700)",CreditCard ,267.90,3867.90,3867.90,0.00,Jan Miller,360-479-2658,,,"Invoice 41
Waived Tax"
100393,9/4/2017 8:23:13 PM,Washington State Fair 9/1-24 (WA),Jennifer Tran,DWA-9150USJ-9150BL-DEMO,Legacy 3D,Demo Black,1,"5 years parts, 3 years labor ($700)",Synchrony ,277.30,3977.30,3977.30,0.00,Debbie Tateishi,808-398-5130,,,"Invoice 42
Auth #004329
Waived Tax"
100394,9/4/2017 8:27:53 PM,Washington State Fair 9/1-24 (WA),Kamille Gines,DWA-9150USJ-9150CH,Legacy 3D,Choco Brown,1,"5 years parts, 3 years labor ($700)",CreditCard ,343.10,4743.10,4743.10,0.00,Richard and Charlene Spring,253-588-5207,,,"Invoice 43
Waived Tax"
100395,9/4/2017 11:57:21 PM,Health&Wellness Factory AGM (CA),Jessica Phung,DWA-9150USJ-9150CH,Legacy 3D,Choco Brown,1,"3 years parts, 1 year labor (Free)",PURCHASEORDER ,301.88,4501.88,4501.88,0.00,Tuyen Thanh Phan,6194105542,,,
100395,9/4/2017 11:57:21 PM,Health&Wellness Factory AGM (CA),Jessica Phung,,Chair Pad for Lagacy 3D,,1,no warranty,PURCHASEORDER ,301.88,4501.88,4501.88,0.00,Tuyen Thanh Phan,6194105542,,,
100395,9/4/2017 11:57:21 PM,Health&Wellness Factory AGM (CA),Jessica Phung,,Foot Pads for Lagacy 3D,,1,no warranty,PURCHASEORDER ,301.88,4501.88,4501.88,0.00,Tuyen Thanh Phan,6194105542,,,
100396,9/5/2017 12:33:01 AM,Health&Wellness Factory AGM (CA),Jessica Phung,DWA-9150USJ-9150CH,Legacy 3D,Choco Brown,1,"3 years parts, 1 year labor (Free)",CreditCard ,301.88,4501.88,4501.88,0.00,Luong Thi,9095519084,,,
100396,9/5/2017 12:33:01 AM,Health&Wellness Factory AGM (CA),Jessica Phung,,Chair Pad for Lagacy 3D,,1,no warranty,CreditCard ,301.88,4501.88,4501.88,0.00,Luong Thi,9095519084,,,
100396,9/5/2017 12:33:01 AM,Health&Wellness Factory AGM (CA),Jessica Phung,,Foot Pads for Lagacy 3D,,1,no warranty,CreditCard ,301.88,4501.88,4501.88,0.00,Luong Thi,9095519084,,,
100397,9/5/2017 3:09:35 AM,LA County Fair 9/1-24 (CA),Ting Ritchie,DWA-9100DWA-9100CH-DEMO,Legacy,Demo Choco Brown,1,"3 years parts, 1 year labor (Free)",CreditCard ,207.20,3197.20,3197.20,0.00,Carl Levinger,3103673212,,,"Charged customer $3200
Trade in discount, please make sure to get the customer's old one when delivery."
100398,9/5/2017 3:18:17 AM,Washington State Fair 9/1-24 (WA),Christoper Richard Williams,DWA-9150USJ-9150CH,Legacy 3D,Choco Brown,1,"5 years parts, 3 years labor ($700)",Synchrony ,361.90,4961.90,4961.90,0.00,George Close,360-689-1453,,,"Invoice 44
Auth #004156
Waived Tax"
100399,9/5/2017 3:23:44 AM,Washington State Fair 9/1-24 (WA),Tom Nguyen,DWA-9100DWA-9100BL,Legacy,Black,1,"5 years parts, 3 years labor ($700)",Synchrony ,267.90,3867.90,3867.90,0.00,Jose Martinez,206-859-7549,9/12/2017 12:00:00 AM,,"Invoice 45
Auth #004043
Waived Tax"
100400,9/5/2017 3:30:05 AM,Washington State Fair 9/1-24 (WA),Kristy Tran,DWA-9400Pegasus-BL-DEMO,Pegasus,Demo Black,1,"5 years parts, 3 years labor ($700)",Synchrony ,380.70,5180.70,5180.70,0.00,Eric Daniels,253-348-9110,9/11/2017 12:00:00 AM,,"Invoice 46
Auth #004271
Waived Tax"
100401,9/5/2017 3:34:59 AM,Washington State Fair 9/1-24 (WA),Kristy Tran,DWA-9150USJ-9150CH,Legacy 3D,Choco Brown,1,"5 years parts, 1 year labor ($300)",CreditCard ,305.50,4305.50,4305.50,0.00,Bryce VanDevender,253-219-1779,,,"Invoice 47
Waived Tax"
100402,9/5/2017 3:40:52 AM,Washington State Fair 9/1-24 (WA),Tom Nguyen,DWA-9150USJ-9150CH,Legacy 3D,Choco Brown,1,"5 years parts, 3 years labor ($700)",Synchrony CreditCard,305.50,4305.50,4305.50,0.00,Dale Anderson,602-386-8795,,,"Invoice 48
Waived Tax
Remaining: $500 on Delivery"
100403,9/5/2017 3:44:37 AM,Washington State Fair 9/1-24 (WA),Phuoc Van,DWA-9150USJ-9150BL-DEMO,Legacy 3D,Demo Black,1,"5 years parts, 3 years labor ($700)",CreditCard ,305.50,4305.50,4305.50,0.00,Jennifer Dean,206-445-5672,,,"Invoice 49
Waived Tax"
100404,9/5/2017 3:50:21 AM,Washington State Fair 9/1-24 (WA),Kamille Gines,DWA-9150USJ-9150CH,Legacy 3D,Choco Brown,1,"5 years parts, 3 years labor ($700)",CreditCard ,343.10,4743.10,4743.10,0.00,Jerry Thatcher,253-459-2944,,,"Invoice 50
Waived Tax"
100405,9/5/2017 3:57:55 AM,Washington State Fair 9/1-24 (WA),Ruben Cuatrona,DWA-9400Pegasus-BR,Pegasus,Choco Brown,1,"5 years parts, 3 years labor ($700)",Synchrony ,399.50,5399.50,5399.50,0.00,Elsa Kilburn,253-732-4004,,,"Invoice 51 
Waived Tax
Auth #004426"
100406,9/5/2017 4:02:17 AM,Washington State Fair 9/1-24 (WA),Phuoc Van,DWA-9150USJ-9150BL,Legacy 3D,Black,1,"5 years parts, 3 years labor ($700)",Synchrony ,333.70,4633.70,4633.70,0.00,Janet Bernert,425-306-3412,9/6/2017 12:00:00 AM,,"Invoice 52 
Waived Tax
Auth #004819"
100407,9/5/2017 4:06:36 AM,Washington State Fair 9/1-24 (WA),Ruben Cuatrona,DWA-9150USJ-9150CH,Legacy 3D,Choco Brown,1,"5 years parts, 3 years labor ($700)",Synchrony ,333.70,4633.70,4633.70,0.00,Jay Hall,360-450-1065,,,"Invoice 53
Waived Tax
Auth #004762"
100408,9/5/2017 4:24:38 AM,Washington State Fair 9/1-24 (WA),Rodrigo Malabunga,DWA-9060USJ-9060BR,Relax2Zero 3D,Choco Brown,1,"5 years parts, 3 years labor ($700)",Synchrony ,324.30,4524.30,4524.30,0.00,Robert and Yeonsun Park,253-292-7907,9/11/2017 12:00:00 AM,,"Invoice 54
Waived Tax
Auth #004935"
100409,9/5/2017 4:34:30 AM,Washington State Fair 9/1-24 (WA),Scott Ishikawa,DWA-9060USJ-9060BL,Relax2Zero 3D,Black,2,"5 years parts, 3 years labor ($700)",Synchrony ,582.80,7532.80,7532.80,0.00,Aung Aung,253-370-1517,9/11/2017 12:00:00 AM,,"Invoice 55 & 56
Waived Tax
Auth #004481
PLEASE Deliver one chair to 2nd Address: Nan Moe Moe Aye 
4019 189th Pl SW 
Lynnwood, WA 98036
WARRANTY Correction: 3yrs parts and labor"
100410,9/5/2017 4:11:19 PM,LA County Fair 9/1-24 (CA),Kohei Uno,USJ-9000USJ-9000KU,Relax2Zero 1.0,Black,1,"3 years parts, 1 year labor (Free)",Synchrony ,208.13,3208.13,3208.13,0.00,Agustin Caudillo,951-323-7690,9/11/2017 12:00:00 AM,,
100411,9/5/2017 4:23:53 PM,LA County Fair 9/1-24 (CA),Kohei Uno,USJ-9000USJ-9000KU,Relax2Zero 1.0,Black,1,"3 years parts, 1 year labor (Free)",Synchrony ,190.55,3000.55,3000.55,0.00,Javier Romero,818-578-3503,,,Customer purchased chair for $3000 out the door. Please discount the extra $0.55 from the bill.
100411,9/5/2017 4:23:53 PM,LA County Fair 9/1-24 (CA),Kohei Uno,,Daiwa Blanket,,1,no warranty,Synchrony ,190.55,3000.55,3000.55,0.00,Javier Romero,818-578-3503,,,Customer purchased chair for $3000 out the door. Please discount the extra $0.55 from the bill.
100412,9/5/2017 4:32:24 PM,LA County Fair 9/1-24 (CA),Kohei Uno,USJ-9000USJ-9000BR,Relax2Zero 1.0,Brown,1,"3 years parts, 3 years labor ($400)",CreditCard ,254.38,3754.38,3754.38,0.00,Stuart Sam,310-738-3861,,,
100413,9/5/2017 6:44:56 PM,LA County Fair 9/1-24 (CA),Mei Kang,DWA-9100DWA-9100BL-DEMO,Legacy,Demo Black,1,"3 years parts, 1 year labor (Free)",Synchrony ,208.13,3408.13,3408.13,0.00,Jeanne Tso,3108083452,,,
100414,9/5/2017 7:04:44 PM,Health and Wellness Carrollton Store 2017 (TX),Mario Higareda,DWA-9100DWA-9100BU,Legacy,Blue,1,"3 years parts, 1 year labor (Free)",CreditCard ,209.55,3499.55,3499.55,350.00,Lee Luong,2145173457,9/5/2017 12:00:00 AM,,
100415,9/5/2017 7:14:44 PM,LA County Fair 9/1-24 (CA),Mei Kang,DWA-9100DWA-9100BL,Legacy,Black,1,"3 years parts, 1 year labor (Free)",Synchrony CreditCard,277.50,4227.50,4227.50,0.00,Victor Ontiveros,6264825307,9/13/2017 12:00:00 AM,,"Synchrony approved $3500, Pls Charge COD $ $351, the customer confirmed already"
100416,9/5/2017 7:37:49 PM,LA County Fair 9/1-24 (CA),Ting Ritchie,DWA-9100DWA-9100CH-DEMO,Legacy,Demo Choco Brown,1,"3 years parts, 1 year labor (Free)",CreditCard ,231.25,3481.25,3481.25,0.00,Carl Levinger,3103673212,,,
100417,9/5/2017 1:21:05 PM,Health and Wellness Plano Store 2017 (TX),Tangyu Jin,DWA-9060USJ-9060BR,Relax2Zero 3D,Choco Brown,1,"3 years parts, 1 year labor (Free)",Synchrony ,396.00,5946.00,5946.00,350.00,Willi Xiang,2145972043,9/6/2017 12:00:00 AM,,
100418,9/5/2017 2:30:51 PM,Health and Wellness Carrollton Store 2017 (TX),Molly Zhao,DWA-9060USJ-9060BR,Relax2Zero 3D,Choco Brown,1,"3 years parts, 1 year labor (Free)",CreditCard ,243.38,3943.38,3943.38,350.00,NGOc Trinh,4692315638,,,
100419,9/5/2017 2:41:58 PM,LA County Fair 9/1-24 (CA),Mei Kang,DWA-9400Pegasus-BL-DEMO,Pegasus,Demo Black,1,"3 years parts, 1 year labor (Free)",CreditCard COD,304.33,4344.33,4344.33,0.00,Wayne Luster,702-286-8932,,,
100419,9/5/2017 2:41:58 PM,LA County Fair 9/1-24 (CA),Mei Kang,,Daiwa Blanket,,1,no warranty,CreditCard COD,304.33,4344.33,4344.33,0.00,Wayne Luster,702-286-8932,,,
100420,9/5/2017 5:24:00 PM,Health&Wellness Factory AGM (CA),Jessica Phung,DWA-9150USJ-9150CH,Legacy 3D,Choco Brown,1,"3 years parts, 1 year labor (Free)",Synchrony ,319.38,4719.38,4719.38,0.00,Sau Coc Thong,8583978905,,,"Order Date: 09/02/2017
Syncrony processed for $4,720.00"
100420,9/5/2017 5:24:00 PM,Health&Wellness Factory AGM (CA),Jessica Phung,,Chair Pad for Lagacy 3D,,1,no warranty,Synchrony ,319.38,4719.38,4719.38,0.00,Sau Coc Thong,8583978905,,,"Order Date: 09/02/2017
Syncrony processed for $4,720.00"
100420,9/5/2017 5:24:00 PM,Health&Wellness Factory AGM (CA),Jessica Phung,,Foot Pads for Lagacy 3D,,1,no warranty,Synchrony ,319.38,4719.38,4719.38,0.00,Sau Coc Thong,8583978905,,,"Order Date: 09/02/2017
Syncrony processed for $4,720.00"
100421,9/6/2017 10:35:10 AM,Evergreen State Fair 8/24-9/4 (WA),Joseph Chan,DWA-9060USJ-9060BR,Relax2Zero 3D,Choco Brown,1,"3 years parts, 3 years labor ($400)",COD ,350.52,4910.52,4910.52,0.00,Candance Robles,253-318-7817,,,Customer will call for deposit
100422,9/6/2017 10:42:01 AM,Evergreen State Fair 8/24-9/4 (WA),Joseph Chan,DWA-9060USJ-9060BL,Relax2Zero 3D,Black,1,"3 years parts, 3 years labor ($400)",CreditCard Synchrony,350.52,4910.52,4910.52,0.00,David & Cheryl Travis,360-319-5038,,,"Customer needs 2 weeks before running Synchrony, total sales is $4914"
100423,9/6/2017 10:47:40 AM,Evergreen State Fair 8/24-9/4 (WA),Joseph Chan,DWA-9060USJ-9060BR-DEMO,Relax2Zero 3D,Demo Choco Brown,1,"3 years parts, 3 years labor ($400)",Synchrony ,286.12,4146.12,4146.12,0.00,Sandy Koch,425-344-7769,9/5/2017 12:00:00 AM,,
100424,9/6/2017 10:54:03 AM,Evergreen State Fair 8/24-9/4 (WA),Joseph Chan,DWA-9100DWA-9100CH,Legacy,Choco Brown,1,"3 years parts, 3 years labor ($400)",CreditCard COD,256.68,3796.68,3796.68,0.00,Kirk Fisher,425-387-5420,,,"Deposit of $100 refundable if customer change mind within 90 days, total sales is $3800.00"
100425,9/6/2017 6:02:06 PM,LA County Fair 9/1-24 (CA),Kohei Uno,SSRT-1SSRT-1-BR,Serenity,Choco Brown,1,"3 years parts, 3 years labor ($400)",CreditCard ,226.63,3426.63,3426.63,0.00,Robert Gursslin,909-518-8334,,,
100426,9/6/2017 6:06:02 PM,LA County Fair 9/1-24 (CA),Kohei Uno,SSRT-1SSRT-1-BL,Serenity,Black,1,"3 years parts, 3 years labor ($400)",CreditCard ,254.38,3754.38,3754.38,0.00,Sharee Moore,661-977-1459,,,
100426,9/6/2017 6:06:02 PM,LA County Fair 9/1-24 (CA),Kohei Uno,,Daiwa Blanket,,1,no warranty,CreditCard ,254.38,3754.38,3754.38,0.00,Sharee Moore,661-977-1459,,,
100427,9/6/2017 9:03:14 PM,LA County Fair 9/1-24 (CA),Ting Ritchie,DWA-9100DWA-9100CH,Legacy,Choco Brown,1,"3 years parts, 3 years labor ($400)",Synchrony ,266.40,3896.40,3896.40,0.00,Troy Abbott,3106222711,,,
100428,9/7/2017 8:07:09 AM,LA County Fair 9/1-24 (CA),Mei Kang,DWA-9400Pegasus-BL,Pegasus,Black,1,"3 years parts, 3 years labor ($400)",CreditCard ,407.00,5557.00,5557.00,0.00,Dennis Smith,6264855551,,,"Requested to fix our Sanyo chair , they bought from us before, leg problem"
100428,9/7/2017 8:07:09 AM,LA County Fair 9/1-24 (CA),Mei Kang,,Tourmaline Pad for Pegasus,,1,no warranty,CreditCard ,407.00,5557.00,5557.00,0.00,Dennis Smith,6264855551,,,"Requested to fix our Sanyo chair , they bought from us before, leg problem"
100429,9/7/2017 11:07:28 AM,LA County Fair 9/1-24 (CA),Ting Ritchie,DWA-9100DWA-9100CH,Legacy,Choco Brown,1,"3 years parts, 3 years labor ($400)",Synchrony Cash,268.25,3918.25,3918.25,0.00,Troy Abbott,3106222711,,,Approved aut #006679
100430,9/7/2017 12:26:40 PM,LA County Fair 9/1-24 (CA),Mei Kang,DWA-9100DWA-9100CH-DEMO,Legacy,Demo Choco Brown,1,"3 years parts, 3 years labor ($400)",COD CreditCard,215.53,3295.53,3295.53,0.00,Titoanits Rodriguo,3232659589,,,
100430,9/7/2017 12:26:40 PM,LA County Fair 9/1-24 (CA),Mei Kang,,Tourmaline Pad for Lagacy,,1,no warranty,COD CreditCard,215.53,3295.53,3295.53,0.00,Titoanits Rodriguo,3232659589,,,
100431,9/7/2017 5:35:59 PM,New Mexico State Fair 9/7-9/16 (TX),Xiongxiaojun Ji,SSRT-1SSRT-1-BL-DEMO,Serenity,Demo Black,1,"3 years parts, 1 year labor (Free)",CreditCard ,187.88,3442.88,3442.88,0.00,"Pauline, A Chavez",5059302687,,,"The actual value we charged the customer is $3440.00
But this is the closest value we can get through the new system
So the customer owe nothing."
100432,9/7/2017 8:09:10 PM,LA County Fair 9/1-24 (CA),David Wang,DWA-9100DWA-9100BL-DEMO,Legacy,Demo Black,1,"3 years parts, 1 year labor (Free)",Synchrony ,206.28,3186.28,3186.28,0.00,Marilyn Williams,3106398737,,,Auth# 007683
100433,9/7/2017 8:35:37 PM,Washington State Fair 9/1-24 (WA),Jennifer Tran,DWA-9150USJ-9150CH,Legacy 3D,Choco Brown,1,"5 years parts, 3 years labor ($700)",CreditCard ,340.28,4710.28,4710.28,0.00,Darlene Johnson,253-709-6416,,,"Invoice 57 
Tax included
Remaining: 0"
100434,9/7/2017 8:53:58 PM,Washington State Fair 9/1-24 (WA),Larhonda Ingram,DWA-9100DWA-9100BL-DEMO,Legacy,Demo Black,1,"5 years parts, 3 years labor ($700)",Synchrony ,211.50,3211.50,3211.50,0.00,Tony Xie,206-747-9122,,,"Invoice 58
Remaining: 0"
100435,9/7/2017 9:01:55 PM,Washington State Fair 9/1-24 (WA),Robert Shih,DWA-9060USJ-9060BR,Relax2Zero 3D,Choco Brown,1,"5 years parts, 3 years labor ($700)",Synchrony ,361.90,4961.90,4961.90,0.00,Becky Bond,253-848-4299,,,"Invoice 59
Tax included
Total: $4600
Remaining: 0
Auth# 007055"
100436,9/7/2017 9:13:17 PM,Washington State Fair 9/1-24 (WA),Robert Shih,DWA-9060USJ-9060BR,Relax2Zero 3D,Choco Brown,1,"5 years parts, 3 years labor ($700)",Synchrony ,361.90,4961.90,4961.90,0.00,Donald and Debbie Noble,360-354-0615,,,"Invoice 60
We have NOT proceeding with this purchase transaction. Once we deliver, please proceed with the sale on Synchrony. 
Total: $5000
Remaining: $5000"
100437,9/7/2017 9:35:12 PM,LA County Fair 9/1-24 (CA),Mikito Nakanishi,DWA-9100DWA-9100BL,Legacy,Black,1,"3 years parts, 1 year labor (Free)",Synchrony ,231.25,3481.25,3481.25,0.00,Angela Riccio,3109458173,,,
100438,9/7/2017 11:44:28 PM,LA County Fair 9/1-24 (CA),Mikito Nakanishi,DWA-9100DWA-9100CH,Legacy,Choco Brown,1,"3 years parts, 1 year labor (Free)",CreditCard ,224.78,3404.78,3404.78,0.00,Kuey Wong,2134222671,,,Total $3400 paid off
100439,9/8/2017 5:55:53 AM,LA County Fair 9/1-24 (CA),Mikito Nakanishi,DWA-9100DWA-9100CH,Legacy,Choco Brown,1,"3 years parts, 1 year labor (Free)",CreditCard ,259.00,3809.00,3809.00,0.00,Allen Cayir,7148838677,,,Paid off
100440,9/8/2017 7:03:39 AM,LA County Fair 9/1-24 (CA),David Wang,DWA-9100DWA-9100CH-DEMO,Legacy,Demo Choco Brown,1,"3 years parts, 1 year labor (Free)",Synchrony CreditCard,208.13,3208.13,3208.13,0.00,Fredy Galindo,8182311136,,,
100441,9/8/2017 8:20:43 AM,Health and Wellness Carrollton Store 2017 (TX),Linda Qu,DWA-9100DWA-9100BU,Legacy,Blue,1,"3 years parts, 1 year labor (Free)",CreditCard ,209.55,3499.55,3499.55,350.00,Lee Luong,9727981857,9/6/2017 12:00:00 AM,,
100442,9/8/2017 9:06:01 AM,LA County Fair 9/1-24 (CA),Mei Kang,DWA-9150USJ-9150CH-DEMO,Legacy 3D,Demo Choco Brown,1,"3 years parts, 3 years labor ($400)",Synchrony ,233.10,3503.10,3503.10,0.00,Teri Muse,6266441774,,,Approved aut #008359 $3500
100442,9/8/2017 9:06:01 AM,LA County Fair 9/1-24 (CA),Mei Kang,,Daiwa Blanket,,1,no warranty,Synchrony ,233.10,3503.10,3503.10,0.00,Teri Muse,6266441774,,,Approved aut #008359 $3500
100443,9/8/2017 9:46:53 AM,LA County Fair 9/1-24 (CA),Kohei Uno,SSRT-1SSRT-1-BL-DEMO,Serenity,Demo Black,1,"3 years parts, 1 year labor (Free)",CreditCard ,152.63,2552.63,2552.63,0.00,Joy Fisher,951-746-5689,,,Please deliver as soon as possible.
100444,9/8/2017 9:55:28 AM,LA County Fair 9/1-24 (CA),Kohei Uno,USJ-9000USJ-9000BR,Relax2Zero 1.0,Brown,1,"3 years parts, 3 years labor ($400)",Synchrony ,226.63,3426.63,3426.63,0.00,Joy Sotto,818-322-8708,,,"Auth# 007692

3rd floor delivery, however, there is an elevator to transport the chair up to the 3rd floor."
100445,9/8/2017 9:58:50 AM,LA County Fair 9/1-24 (CA),Kohei Uno,USJ-9000USJ-9000BR,Relax2Zero 1.0,Brown,1,"3 years parts, 3 years labor ($400)",CreditCard ,198.88,3098.88,3098.88,0.00,Daniel Manzano,760-220-5980,,,
100446,9/8/2017 10:20:03 AM,Sam's Club #6345 (WA),Kaz Ohashi,DWA-9100DWA-9100CH-DEMO,Legacy for Sam's,Demo Choco,1,"3 years parts, 1 year labor (Free)",CreditCard ,215.94,3814.94,3814.94,0.00,Valeen Terry,208-529-5678,,,"I offer a brand new chair.
Please deliver a brand new chair."
100447,9/8/2017 10:43:45 AM,Sam's Club #4745 8/17-27 (TX),Kristy Tran,DWA-9100DWA-9100CH,Legacy,Choco Brown,1,"3 years parts, 1 year labor (Free)",CreditCard ,286.45,4406.45,4406.45,0.00,Brian Gutierrez,3039685870,,,
100448,9/8/2017 12:20:59 PM,Sam's Club #4987 8/17-27 (TX),Kaz Ohashi,USJ-849USJ-849-DEMO,Vitality Plate,Demo,1,"2 years parts, 1 year labor (Small Items)",PURCHASEORDER ,322.63,4228.54,4228.54,0.00,Daiwa Massage,800-241-2221,,,End of Day Small Items Report
100448,9/8/2017 12:20:59 PM,Sam's Club #4987 8/17-27 (TX),Kaz Ohashi,USJ-871,Foot Vibe Pro,,5,No Warranty,PURCHASEORDER ,322.63,4228.54,4228.54,0.00,Daiwa Massage,800-241-2221,,,End of Day Small Items Report
100448,9/8/2017 12:20:59 PM,Sam's Club #4987 8/17-27 (TX),Kaz Ohashi,USJ-849USJ-849,Vitality Plate,New,3,No Warranty,PURCHASEORDER ,322.63,4228.54,4228.54,0.00,Daiwa Massage,800-241-2221,,,End of Day Small Items Report
100448,9/8/2017 12:20:59 PM,Sam's Club #4987 8/17-27 (TX),Kaz Ohashi,,Ninja Leg Massager,,4,No Warranty,PURCHASEORDER ,322.63,4228.54,4228.54,0.00,Daiwa Massage,800-241-2221,,,End of Day Small Items Report
100449,9/8/2017 5:49:23 PM,LA County Fair 9/1-24 (CA),Kohei Uno,USJ-9000USJ-9000BR,Relax2Zero 1.0,Brown,1,"3 years parts, 1 year labor (Free)",Synchrony ,254.38,3754.38,3754.38,0.00,Thomas Briggs,626-831-3370,,,
100450,9/8/2017 6:16:13 PM,LA County Fair 9/1-24 (CA),Ting Ritchie,DWA-9100DWA-9100SI,Legacy,Sienna Brown,1,"3 years parts, 3 years labor ($400)",CreditCard ,267.33,3907.33,3907.33,0.00,Sandra Dixon,8586027575,,,Offer $3900.
100451,9/8/2017 9:37:29 PM,Washington State Fair 9/1-24 (WA),Laser Howell,DWA-9100DWA-9100CH,Legacy,Choco Brown,1,"5 years parts, 3 years labor ($700)",CreditCard ,219.02,3299.02,3299.02,0.00,Pat Switzer,253-227-8870,,,"Invoice 61
Total: $3300
Tax included
Remaining: 0"
100452,9/8/2017 9:57:28 PM,Washington State Fair 9/1-24 (WA),Tom Nguyen,DWA-9100DWA-9100CH-DEMO,Legacy,Demo Choco Brown,1,"5 years parts, 3 years labor ($700)",CreditCard COD,217.61,3282.61,3282.61,0.00,Helena Carlsen,206-244-3563,,,"Invoice 62
Total: $3282
Deposit: $500
Remaining: $2782"
100453,9/8/2017 10:07:43 PM,Washington State Fair 9/1-24 (WA),Jennifer Tran,DWA-9150USJ-9150BL,Legacy 3D,Black,1,"5 years parts, 3 years labor ($700)",Synchrony CreditCard,330.88,4600.88,4600.88,,Robert Stephens,253-306-4018,,,"Invoice 63
Synchrony approved $2000. Customer will move to TX in 6 months and find a job, if everything works out, they will proceed with order.
PLEASE hold until March 2018
Total: $4600"
100454,9/8/2017 10:16:05 PM,Washington State Fair 9/1-24 (WA),Ruben Cuatrona,DWA-9150USJ-9150BL,Legacy 3D,Black,1,"5 years parts, 3 years labor ($700)",CreditCard ,279.65,4004.65,4004.65,0.00,Terry Luke,206-234-5817,,,"Invoice 64
Total: $4000
Tax included
PLEASE Deliver ASAP - September 27, 28, 29"
100455,9/8/2017 10:30:11 PM,LA County Fair 9/1-24 (CA),Kaz Ohashi,DWA-9100DWA-9100CH,Legacy,Choco Brown,1,"3 years parts, 3 years labor ($400)",Synchrony ,258.08,3798.08,3798.08,0.00,Jolynn Barnes,9512054251,,,
100455,9/8/2017 10:30:11 PM,LA County Fair 9/1-24 (CA),Kaz Ohashi,,Chair Pad for Lagacy,,1,no warranty,Synchrony ,258.08,3798.08,3798.08,0.00,Jolynn Barnes,9512054251,,,
100456,9/9/2017 10:10:18 AM,LA County Fair 9/1-24 (CA),Mei Kang,DWA-9150USJ-9150BL,Legacy 3D,Black,1,"3 years parts, 3 years labor ($400)",CreditCard COD,259.00,3809.00,3809.00,0.00,Yolanda Fardnazari,9512046991,,,"Pls hold a few month , waiting for the customer call"
100457,9/9/2017 11:57:09 AM,LA County Fair 9/1-24 (CA),Mikito Nakanishi,DWA-9100DWA-9100CR-DEMO,Legacy,Demo Cream,1,"3 years parts, 1 year labor (Free)",Synchrony ,259.93,3819.93,3819.93,0.00,Robert Lane,323-947-8662,,,"Not cream, please deliver the Gold color"
100458,9/9/2017 12:53:50 PM,Health and Wellness Plano Store 2017 (TX),Yuhan Liu,DWA-9100DWA-9100CH,Legacy,Choco Brown,1,"3 years parts, 1 year labor (Free)",Synchrony ,236.36,3851.36,3851.36,350.00,Shu Yan,4699963389,9/4/2017 12:00:00 AM,,O
100459,9/9/2017 1:08:00 PM,Health and Wellness Carrollton Store 2017 (TX),Linda Qu,USJ-9000USJ-9000KU,Relax2Zero 1.0,Black,1,"3 years parts, 1 year labor (Free)",Synchrony ,171.60,3001.60,3001.60,350.00,Noemi Peji,214-440-2049,9/12/2017 12:00:00 AM,,
100460,9/9/2017 5:43:48 PM,New Mexico State Fair 9/7-9/16 (TX),Keith Kei,DWA-9150USJ-9150CH,Legacy 3D,Choco Brown,1,"3 years parts, 1 year labor (Free)",CreditCard Cash,226.88,4001.88,4001.88,0.00,Lisa Jones,5059474877,,,The deal for the customer is $4000 even. They placed a $800 deposit already. So the COD is $3200 cash or money order/banker check. Please ignore the extra $1.88. The total remaining balance will be $3200 even. Only accept cash or money order/banker check.
100461,9/9/2017 10:58:24 PM,LA County Fair 9/1-24 (CA),Joseph Chan,DWA-9060USJ-9060BR,Relax2Zero 3D,Choco Brown,1,"3 years parts, 3 years labor ($400)",Synchrony CreditCard,346.88,4846.88,4846.88,0.00,Linda Koblick,626-964-6397,,,"$2000 down payment.
Square # WuLA

Synchrony Auth # 010021"
100462,9/10/2017 10:00:59 AM,LA County Fair 9/1-24 (CA),Ting Ritchie,DWA-9100DWA-9100BL,Legacy,Black,1,"3 years parts, 3 years labor ($400)",Synchrony ,266.40,3896.40,3896.40,0.00,Jennifer Dasteel,3109912758,,,
100463,9/10/2017 10:08:33 AM,Washington State Fair 9/1-24 (WA),Tom Nguyen,DWA-9150USJ-9150CH,Legacy 3D,Choco Brown,1,"5 years parts, 3 years labor ($700)",CreditCard ,311.61,4376.61,4376.61,0.00,Mary McBride,4258021508,,,"Invoice # 12632
Tax included 
Remaining $0"
100464,9/10/2017 10:10:38 AM,LA County Fair 9/1-24 (CA),Ting Ritchie,DWA-9100DWA-9100BL,Legacy,Black,1,"3 years parts, 1 year labor (Free)",CreditCard ,266.40,3896.40,3896.40,0.00,Tian Ling Xu,6262156399,,,
100465,9/10/2017 10:12:06 AM,Washington State Fair 9/1-24 (WA),Jennifer Tran,DWA-9150USJ-9150CH,Legacy 3D,Choco Brown,1,"5 years parts, 3 years labor ($700)",Synchrony ,333.70,4633.70,4633.70,0.00,Paul Fisher,253-988-3899,,,"Invoice #67
Authorization #: 009372
Tax Included
Remaining Balance $0"
100466,9/10/2017 10:13:21 AM,Washington State Fair 9/1-24 (WA),Kristy Tran,DWA-9150USJ-9150CH-DEMO,Legacy 3D,Demo Choco Brown,1,"5 years parts, 3 years labor ($700)",Synchrony ,324.30,4524.30,4524.30,0.00,Ellen Attebery,206-355-2513,,,"Invoice 69
Auth# 009583
Tax included
Remaining: $0"
100467,9/10/2017 10:13:52 AM,Washington State Fair 9/1-24 (WA),Larhonda Ingram,DWA-9150USJ-9150BL,Legacy 3D,Black,1,"5 years parts, 3 years labor ($700)",CreditCard ,279.18,3999.18,3999.18,0.00,Micheal Kramer,2065953943,,,"Invoice #13322
Tax included
Remaining balance $0"
100468,9/10/2017 10:22:53 AM,Washington State Fair 9/1-24 (WA),Tom Nguyen,DWA-9150USJ-9150CH,Legacy 3D,Choco Brown,1,"5 years parts, 3 years labor ($700)",Synchrony ,296.10,4196.10,4196.10,0.00,Richard Carlson,360-324-8844,,,"Invoice 71
Auth# 009441
Remaining: 0"
100469,9/10/2017 10:23:55 AM,LA County Fair 9/1-24 (CA),Ting Ritchie,DWA-9100DWA-9100CH-DEMO,Legacy,Demo Choco Brown,1,"3 years parts, 3 years labor ($400)",CreditCard ,223.85,3393.85,3393.85,0.00,John Cheung,6268210769,,,
100470,9/10/2017 10:26:37 AM,LA County Fair 9/1-24 (CA),Kaz Ohashi,DWA-9100DWA-9100BL,Legacy,Black,1,"3 years parts, 3 years labor ($400)",Synchrony ,240.50,3590.50,3590.50,0.00,Kristie Song,626-423-8619,,,"24 or 36 months not decided yet.
Kaz will follow up"
100470,9/10/2017 10:26:37 AM,LA County Fair 9/1-24 (CA),Kaz Ohashi,,Tourmaline Pad for Legacy,,1,no warranty,Synchrony ,240.50,3590.50,3590.50,0.00,Kristie Song,626-423-8619,,,"24 or 36 months not decided yet.
Kaz will follow up"
100471,9/10/2017 10:31:09 AM,Washington State Fair 9/1-24 (WA),Phuoc Van,DWA-9150USJ-9150BL,Legacy 3D,Black,1,"5 years parts, 3 years labor ($700)",Synchrony CreditCard,297.04,4207.04,4207.04,0.00,Joseph Sander,2532231347,,,"Invoice 72
Tax Included
Authorization #009799
Total $4200
Remaining $700 On Delivery"
100472,9/10/2017 10:33:02 AM,Washington State Fair 9/1-24 (WA),Tom Nguyen,DWA-9100DWA-9100CH,Legacy,Choco Brown,1,"5 years parts, 3 years labor ($700)",Synchrony ,236.41,3501.41,3501.41,0.00,Lawrence Coppola,360-731-2222,,,"Invoice 73
Auth# 009341
Remaining: 0"
100473,9/10/2017 10:33:16 AM,LA County Fair 9/1-24 (CA),Kohei Uno,USJ-9000USJ-9000BR,Relax2Zero 1.0,Brown,1,"3 years parts, 1 year labor (Free)",Synchrony ,254.38,3754.38,3754.38,0.00,Pascual Bizarro,323-266-8997,,,Synchrony Auth# 009688
100474,9/10/2017 10:37:10 AM,LA County Fair 9/1-24 (CA),May Kam,DWA-9150USJ-9150CH-DEMO,Legacy 3D,Demo Choco Brown,1,"3 years parts, 3 years labor ($400)",Synchrony ,225.70,3415.70,3415.70,0.00,Lean Nealon,626-831-1588,,,
100475,9/10/2017 10:45:07 AM,Washington State Fair 9/1-24 (WA),Laser Howell,DWA-9150USJ-9150CH,Legacy 3D,Choco Brown,1,"5 years parts, 3 years labor ($700)",CreditCard COD,279.18,3999.18,3999.18,0.00,Salvador Sanchez,714-365-3632,,,"Invoice 75
Tax included
Total: $4000
Remaining: $3600
**PLEASE Deliver ASAP**"
100476,9/10/2017 10:45:33 AM,Washington State Fair 9/1-24 (WA),Phuoc Van,DWA-9150USJ-9150CH,Legacy 3D,Choco Brown,1,"5 years parts, 3 years labor ($700)",Synchrony ,361.90,4961.90,4961.90,0.00,Kerry Harwilk,425-766-7809,,,
100477,9/10/2017 10:46:37 AM,LA County Fair 9/1-24 (CA),Kohei Uno,DWA-9060USJ-9060BR,Relax2Zero 3D,Choco Brown,1,"3 years parts, 3 years labor ($400)",Synchrony ,317.28,4497.28,4497.28,0.00,Sonjia McKinley,210-386-7807,,,"Paid $300 down payment.
Square# JDnP.
Financing balance of $4197.28.
Synchrony Auth# 009807"
100478,9/10/2017 10:48:42 AM,LA County Fair 9/1-24 (CA),May Kam,DWA-9100DWA-9100CH-DEMO,Legacy,Demo Choco Brown,1,"3 years parts, 3 years labor ($400)",Synchrony ,217.38,3317.38,3317.38,0.00,Janette Herrera,909-614-9000,,,"Offer $3300 included Tax.
Auth# 010283"
100479,9/10/2017 10:53:23 AM,Washington State Fair 9/1-24 (WA),Ruben Cuatrona,DWA-9150USJ-9150BL,Legacy 3D,Black,1,"5 years parts, 3 years labor ($700)",CreditCard COD,296.10,4196.10,4196.10,0.00,Jacqueline Lista,360-400-0211,,,"Invoice 76
Total: $4200
Remaining: $3700
**PLEASE Deliver on September 21 (Birthday)**"
100480,9/10/2017 10:55:21 AM,LA County Fair 9/1-24 (CA),Kohei Uno,USJ-9000USJ-9000KU,Relax2Zero 1.0,Black,1,"3 years parts, 3 years labor ($400)",CreditCard ,282.13,4082.13,4082.13,0.00,Michelle Wendlandt,714-794-7033,,,
100481,9/10/2017 10:57:06 AM,LA County Fair 9/1-24 (CA),Kaz Ohashi,DWA-9100DWA-9100BL,Legacy,Black,1,"3 years parts, 3 years labor ($400)",CreditCard COD,266.40,3896.40,3896.40,,Barbara Seeget,626-222-4557,,,Hold this order up to 12 months.
100482,9/10/2017 10:57:08 AM,LA County Fair 9/1-24 (CA),David Wang,DWA-9100DWA-9100BL-DEMO,Legacy,Demo Black,1,"3 years parts, 3 years labor ($400)",CreditCard ,178.06,2853.06,2853.06,0.00,binh chau,5623059897,,,
100483,9/10/2017 11:02:56 AM,Washington State Fair 9/1-24 (WA),Robert Shih,DWA-9060USJ-9060BR,Relax2Zero 3D,Choco Brown,1,"5 years parts, 3 years labor ($700)",Synchrony ,330.88,4600.88,4600.88,0.00,Berry Family Chiropractic PS,253-875-9464,,,"Invoice 79
Tax Included
Authorization #009850
Delivery Request:
9 AM - 6 PM Tue, Wed, Fri
9 AM - 12 PM Thru, Sat
Paid In Full"
100484,9/10/2017 11:06:14 AM,Washington State Fair 9/1-24 (WA),Robert Shih,DWA-9060USJ-9060BL,Relax2Zero 3D,Black,1,"5 years parts, 3 years labor ($700)",CreditCard ,322.42,4502.42,4502.42,0.00,Jared Peterson,970-261-2006,,,"Invoice 80
Paid in full"
100485,9/10/2017 11:09:32 AM,LA County Fair 9/1-24 (CA),Joseph Chan,DWA-9060USJ-9060BR,Relax2Zero 3D,Choco Brown,1,"3 years parts, 3 years labor ($400)",Synchrony ,317.28,4497.28,4497.28,0.00,Frank Phillips,310-890-5649,,,Synchrony Auth# 010485
100486,9/10/2017 11:10:19 AM,LA County Fair 9/1-24 (CA),May Kam,DWA-9100DWA-9100CH,Legacy,Choco Brown,1,"3 years parts, 3 years labor ($400)",Cash CreditCard,215.99,3300.99,3300.99,0.00,Rashid Manzoor,626-964-8060,,,"Cash Deal $3300 included Tax.
C.O.D CASH. Remaining $3200"
100487,9/10/2017 11:14:38 AM,Washington State Fair 9/1-24 (WA),Robert Shih,DWA-9060USJ-9060BL,Relax2Zero 3D,Black,1,"5 years parts, 3 years labor ($700)",Synchrony ,330.88,4600.88,4600.88,0.00,Jerry Fujita,206-484-8795,,,"Invoice 83
Paid in full"
100488,9/10/2017 11:14:55 AM,LA County Fair 9/1-24 (CA),Kaz Ohashi,DWA-9100DWA-9100BL,Legacy,Black,1,"3 years parts, 3 years labor ($400)",Cash CreditCard,190.55,3000.55,3000.55,0.00,Krish Singh,951-231-7677,,,"Cash Deal $3000 included Tax.
Remaining Balance $2900
C.O.D CASH"
100489,9/10/2017 11:18:37 AM,LA County Fair 9/1-24 (CA),David Wang,DWA-9400Pegasus-BR,Pegasus,Choco Brown,1,"3 years parts, 3 years labor ($400)",CreditCard ,342.25,4992.25,4992.25,0.00,jamal brown,7606688998,,,customer paid 500 deposit. cod 4492.25 when we deliver the chair. second floor delivery. pls give the customer 1 free tourmaline pad.
100489,9/10/2017 11:18:37 AM,LA County Fair 9/1-24 (CA),David Wang,,Tourmaline Pad for Pegasus,,1,no warranty,CreditCard ,342.25,4992.25,4992.25,0.00,jamal brown,7606688998,,,customer paid 500 deposit. cod 4492.25 when we deliver the chair. second floor delivery. pls give the customer 1 free tourmaline pad.
100490,9/10/2017 11:19:09 AM,Washington State Fair 9/1-24 (WA),Larhonda Ingram,DWA-9150USJ-9150BL,Legacy 3D,Black,1,"5 years parts, 3 years labor ($700)",CreditCard ,280.12,4010.12,4010.12,0.00,Elaine Aoki,2062187423,,,"Invoice #0012639
Tax included
Remaining balance $0"
100491,9/10/2017 11:19:35 AM,Washington State Fair 9/1-24 (WA),Rodrigo Malabunga,DWA-9060USJ-9060BL-DEMO,Relax2Zero 3D,Demo Black,1,"5 years parts, 3 years labor ($700)",Synchrony ,279.18,3999.18,3999.18,0.00,Donald Fung,646-932-0148,,,"Invoice 82
Tax Included
Authorization # 009903
Deliver in 3-4 Weeks"
100492,9/10/2017 11:19:55 AM,LA County Fair 9/1-24 (CA),Joseph Chan,DWA-9060USJ-9060BL,Relax2Zero 3D,Black,1,"3 years parts, 3 years labor ($400)",COD Check,291.38,4191.38,4191.38,0.00,Jeffery Phelps,951-966-7073,,,Customer will pay cash on delivery.
100493,9/10/2017 11:25:27 AM,Washington State Fair 9/1-24 (WA),Robert Shih,DWA-9060USJ-9060BR,Relax2Zero 3D,Choco Brown,1,"5 years parts, 3 years labor ($700)",Synchrony ,330.88,4600.88,4600.88,0.00,Melba Arthurs,425-948-3403,,,"Invoice 81
Auth# 009536
Paid in full"
100494,9/10/2017 11:30:50 AM,LA County Fair 9/1-24 (CA),Ting Ritchie,DWA-9150USJ-9150BL,Legacy 3D,Black,1,"3 years parts, 1 year labor (Free)",Synchrony ,300.16,4295.16,4295.16,0.00,Sandy Melendez,9096292990,,,
100495,9/10/2017 12:08:29 PM,Washington State Fair 9/1-24 (WA),Kristy Tran,DWA-9100DWA-9100BL-DEMO,Legacy,Demo Black,1,"5 years parts, 3 years labor ($700)",Synchrony CreditCard,210.56,3200.56,3200.56,0.00,Christian Castillo,206-355-2513,,,"Invoice 66
Total: $3200
Tax included: 
Remaining: $1700"
100496,9/10/2017 5:44:43 PM,New Mexico State Fair 9/7-9/16 (TX),Xiongxiaojun Ji,DWA-9150USJ-9150BL,Legacy 3D,Black,1,"3 years parts, 1 year labor (Free)",Synchrony ,289.50,4899.50,4899.50,0.00,Yolanda Vigil,5056600907,,,Actual amount charged $4900
100497,9/10/2017 5:57:48 PM,New Mexico State Fair 9/7-9/16 (TX),Xiongxiaojun Ji,DWA-9060USJ-9060BL,Relax2Zero 3D,Black,1,"3 years parts, 1 year labor (Free)",CreditCard ,277.50,4727.50,4727.50,0.00,Sara Ray,505903882,,,Actual charged amount $4730
100498,9/10/2017 7:46:13 PM,LA County Fair 9/1-24 (CA),Ting Ritchie,DWA-9100DWA-9100CH,Legacy,Choco Brown,1,"3 years parts, 3 years labor ($400)",CreditCard ,275.65,4005.65,4005.65,0.00,Chris Lacy,9512358306,,,
100499,9/10/2017 7:56:17 PM,LA County Fair 9/1-24 (CA),Ting Ritchie,DWA-9100DWA-9100CH,Legacy,Choco Brown,1,"3 years parts, 3 years labor ($400)",CreditCard ,224.78,3404.78,3404.78,0.00,Ben Raygoza,9512172478,,,"$200 deposit paid with credit card, the balance $3400 will be paid in check when delivery."
100500,9/10/2017 8:24:20 PM,LA County Fair 9/1-24 (CA),Joseph Chan,DWA-9060USJ-9060BR,Relax2Zero 3D,Choco Brown,1,"3 years parts, 3 years labor ($400)",Synchrony ,346.88,4846.88,4846.88,0.00,Jay Dillera,818-893-2143,,,Synchrony Auth# 010166
100501,9/10/2017 8:33:49 PM,LA County Fair 9/1-24 (CA),Joseph Chan,USJ-9000USJ-9000KU,Relax2Zero 1.0,Black,1,"3 years parts, 3 years labor ($400)",Synchrony CreditCard,240.50,3590.50,3590.50,0.00,Anthony Guzman,562-457-9131,,,"$200 Deposit paid.
Square# ysdx

Synchrony Auth# 010166"
100502,9/10/2017 8:51:34 PM,Washington State Fair 9/1-24 (WA),Christoper Richard Williams,DWA-9150USJ-9150CH,Legacy 3D,Choco Brown,1,"5 years parts, 3 years labor ($700)",Synchrony ,330.88,4600.88,4600.88,0.00,Paul Wehr,206-460-5038,,,"Invoice 85
Auth# 010884
Paid in full"
100503,9/10/2017 8:57:30 PM,Washington State Fair 9/1-24 (WA),Phuoc Van,DWA-9150USJ-9150CH,Legacy 3D,Choco Brown,1,"5 years parts, 3 years labor ($700)",Synchrony ,330.88,4600.88,4600.88,0.00,Irina Anderson,425-220-4107,,,"Invoice 86
Auth# 010797
Paid in full"
100504,9/10/2017 9:02:17 PM,Washington State Fair 9/1-24 (WA),Ruben Cuatrona,DWA-9150USJ-9150BL-DEMO,Legacy 3D,Demo Black,1,"5 years parts, 3 years labor ($700)",CreditCard ,236.41,3501.41,3501.41,0.00,Flora Hall,253-394-3123,,,"Invoice 87
Paid in full"
100505,9/10/2017 9:07:48 PM,Washington State Fair 9/1-24 (WA),Jennifer Tran,DWA-9400Pegasus-BL,Pegasus,Black,1,"5 years parts, 3 years labor ($700)",CreditCard ,347.80,4797.80,4797.80,0.00,James Skay,206-595-6553,,,"Invoice 89
Paid in full"
100506,9/10/2017 9:12:20 PM,Washington State Fair 9/1-24 (WA),Jennifer Tran,DWA-9150USJ-9150CH,Legacy 3D,Choco Brown,1,"5 years parts, 3 years labor ($700)",CreditCard ,330.88,4600.88,4600.88,0.00,Kurt Rahrig,206-696-3236,,,"Invoice 90
Paid in full
**PLEASE Deliver ASAP**"
100507,9/10/2017 9:15:51 PM,Washington State Fair 9/1-24 (WA),Tom Nguyen,DWA-9150USJ-9150BL,Legacy 3D,Black,1,"5 years parts, 3 years labor ($700)",CreditCard ,305.03,4300.03,4300.03,0.00,David Hill,206-458-4715,,,"Invoice 91
Paid in full"
100508,9/11/2017 11:06:48 AM,Health and Wellness Houston Store 2017 (TX),Yisha Yu,DWA-9100DWA-9100BL,Legacy,Black,1,"3 years parts, 1 year labor (Free)",Synchrony CreditCard,272.25,4322.25,4322.25,350.00,Mark Chu,8326413419,9/13/2017 12:00:00 AM,,Sale with Lisa Zhou
100508,9/11/2017 11:06:48 AM,Health and Wellness Houston Store 2017 (TX),Yisha Yu,,Chair Pad for Legacy,,1,no warranty,Synchrony CreditCard,272.25,4322.25,4322.25,350.00,Mark Chu,8326413419,9/13/2017 12:00:00 AM,,Sale with Lisa Zhou
100508,9/11/2017 11:06:48 AM,Health and Wellness Houston Store 2017 (TX),Yisha Yu,,Foot Pads for Legacy,,1,no warranty,Synchrony CreditCard,272.25,4322.25,4322.25,350.00,Mark Chu,8326413419,9/13/2017 12:00:00 AM,,Sale with Lisa Zhou
100509,9/11/2017 11:19:45 AM,Texas Home & Garden Show  Dallas 9/8-9/10 (TX),Mario Higareda,DWA-9400Pegasus-BL,Pegasus,Black,1,"3 years parts, 3 years labor ($400)",Synchrony ,324.23,5004.23,5004.23,350.00,Scott Brown,8178791241,9/12/2017 12:00:00 AM,,This order is sold by Mario and Mijung.
100510,9/11/2017 12:51:05 PM,Texas Home & Garden Show  Dallas 9/8-9/10 (TX),Mario Higareda,DWA-9400Pegasus-BR-DEMO,Pegasus,Demo Choco Brown,1,"3 years parts, 1 year labor (Free)",Synchrony ,270.60,4300.60,4300.60,0.00,Austin Klarich,817-980-2328,,,This order is sold by Mario and Mijung.
100511,9/11/2017 1:52:13 PM,Pontchartrain Home Show (Kenner LA) 10/8-10/10/2017 (TX),Michael Cuatrona,DWA-9150USJ-9150BL,Legacy 3D,Black,1,"3 years parts, 1 year labor (Free)",CreditCard ,333.45,4503.45,4503.45,0.00,Austin Klarich,817-980-2328,,,This order is sold by Michael C and Chris T.
100512,9/11/2017 2:01:37 PM,Pontchartrain Home Show (Kenner LA) 10/8-10/10/2017 (TX),Michael Cuatrona,DWA-9150USJ-9150CH,Legacy 3D,Choco Brown,1,"3 years parts, 1 year labor (Free)",CreditCard ,366.60,4876.60,4876.60,0.00,Al Chiles,504-495-3194 (1),,,Sold by Michael C and Chris T
100513,9/11/2017 2:19:23 PM,Health and Wellness Plano Store 2017 (TX),Tianlong Jia,DWA-9060USJ-9060BR,Relax2Zero 3D,Choco Brown,1,"3 years parts, 1 year labor (Free)",PURCHASEORDER ,285.86,4500.86,4500.86,350.00,Robert Petersen,9726240209,9/12/2017 12:00:00 AM,,
100514,9/11/2017 9:11:25 PM,Washington State Fair 9/1-24 (WA),Phuoc Van,DWA-9150USJ-9150CH,Legacy 3D,Choco Brown,1,"5 years parts, 3 years labor ($700)",CreditCard ,313.96,4403.96,4403.96,0.00,Carma Helzer,253-271-1345,,,"Invoice 74
Paid in full"
100515,9/11/2017 9:20:30 PM,Washington State Fair 9/1-24 (WA),Tom Nguyen,DWA-9150USJ-9150BL,Legacy 3D,Black,1,"5 years parts, 3 years labor ($700)",CreditCard COD,279.65,4004.65,4004.65,0.00,Lynn Yantzer,253-221-5501,,,"Invoice # 100
Total 4000
Balance 3000 COD"
100516,9/11/2017 9:24:15 PM,Washington State Fair 9/1-24 (WA),Laser Howell,DWA-9060USJ-9060BR-DEMO,Relax2Zero 3D,Demo Choco Brown,1,"5 years parts, 3 years labor ($700)",Synchrony CreditCard,262.26,3802.26,3802.26,0.00,Carrie Davis,253-222-3208,,,"Invoice 97
Auth# 010232
Total: $3800
Remaining: $800"
100517,9/11/2017 9:29:29 PM,Washington State Fair 9/1-24 (WA),Christoper Richard Williams,DWA-9150USJ-9150CH,Legacy 3D,Choco Brown,1,"5 years parts, 3 years labor ($700)",CreditCard ,300.80,4250.80,4250.80,0.00,Douglas Creager,206-570-3390,,,"Invoice 98
Pay in full"
100518,9/11/2017 9:40:26 PM,Washington State Fair 9/1-24 (WA),Ruben Cuatrona,DWA-9150USJ-9150CH,Legacy 3D,Choco Brown,1,"5 years parts, 3 years labor ($700)",Synchrony CreditCard,288.11,4303.11,4303.11,0.00,Jenee Gehler,360-620-4193,,,"Invoice 99
Paid In full
Auth # 011782
Financing $3300
Credit Card 431244
CC $1000
Remaining $0"
100519,9/11/2017 11:22:18 PM,Washington State Fair 9/1-24 (WA),Kamille Gines,DWA-9150USJ-9150CH,Legacy 3D,Choco Brown,1,"5 years parts, 3 years labor ($700)",Synchrony ,330.88,4600.88,4600.88,0.00,Peter Kaye,661-236-7523,,,"Invoice 101
Auth# 011731
Paid in full"
100520,9/11/2017 11:33:06 PM,Washington State Fair 9/1-24 (WA),Ruben Cuatrona,DWA-9150USJ-9150BL-DEMO,Legacy 3D,Demo Black,1,"5 years parts, 3 years labor ($700)",CreditCard COD,262.26,4002.26,4002.26,0.00,Troy Brown,253-468-5623,,,"Invoice 102
Tax included
Total: $4000
Deposit: $400
COD: $1600 on Delivery
Remaining: $2000 will be layaway (12 months no interest) - CC 4337720000727262 Exp 10/20 CCV 541 - Please check attached Layaway form"
100521,9/11/2017 11:39:44 PM,Washington State Fair 9/1-24 (WA),Jennifer Tran,DWA-9400Pegasus-BR-DEMO,Pegasus,Demo Choco Brown,1,"5 years parts, 3 years labor ($700)",CreditCard COD,322.42,4502.42,4502.42,0.00,Debra Stotts,253-632-6160,,,"Invoice 103
Tax included
Remaining: $4000 on Delivery"
100522,9/11/2017 11:44:38 PM,Washington State Fair 9/1-24 (WA),Ruben Cuatrona,DWA-9150USJ-9150CH,Legacy 3D,Choco Brown,1,"5 years parts, 3 years labor ($700)",CreditCard COD,305.03,4300.03,4300.03,,Ben Mahabir,650-520-4402,,,"Invoice 104
**Customer is moving right now. They will call when to deliver**
Remaining: $4200 before delivery
Tax included"
100523,9/11/2017 11:51:57 PM,Washington State Fair 9/1-24 (WA),Tom Nguyen,DWA-9400Pegasus-BR,Pegasus,Choco Brown,1,"5 years parts, 3 years labor ($700)",Synchrony CreditCard,348.27,4803.27,4803.27,,Peg Braxton & Willie Williamson,253-632-5304,,,"Invoice 105
HOLD Synchrony for 1 month (October 11) - $2000 for 24 months
Will pay $2800 COD
Total: $4800"
100524,9/12/2017 12:08:54 AM,Washington State Fair 9/1-24 (WA),Robert Shih,DWA-9060USJ-9060BL,Relax2Zero 3D,Black,1,"5 years parts, 3 years labor ($700)",Synchrony CreditCard,253.80,3703.80,3703.80,0.00,Margo A Forbes & Williams Cady,253-686-8145,,,"Invoice 106
Total: $3700
Synchrony $2000 (6034610081511787) Key: 78345766 
Auth# 011941
Synchrony $1200 (6034610081511895) Key: 78346700
Auth# 011719
Customer will pay $500 in 1 month on delivery (October 11)"
100525,9/12/2017 12:14:24 AM,Washington State Fair 9/1-24 (WA),Laser Howell,DWA-9060USJ-9060BR,Relax2Zero 3D,Choco Brown,1,"5 years parts, 3 years labor ($700)",CreditCard COD,279.18,3999.18,3999.18,0.00,Todd Linse,425-336-9093,,,"Invoice 107
Total: $4000
Remaining: $3600"
100526,9/12/2017 12:19:40 AM,Washington State Fair 9/1-24 (WA),Alex Brackelsberg,DWA-9060USJ-9060BL-DEMO,Relax2Zero 3D,Demo Black,1,"5 years parts, 3 years labor ($700)",CreditCard ,253.80,3703.80,3703.80,0.00,Jeffrey O'Leary,253-582-2187,,,"Invoice 108
Paid in full
Please deliver with 2 extra back pads"
100526,9/12/2017 12:19:40 AM,Washington State Fair 9/1-24 (WA),Alex Brackelsberg,,Chair Pad for Relax2Zero 3D,,1,no warranty,CreditCard ,253.80,3703.80,3703.80,0.00,Jeffrey O'Leary,253-582-2187,,,"Invoice 108
Paid in full
Please deliver with 2 extra back pads"
100527,9/12/2017 12:30:54 AM,Washington State Fair 9/1-24 (WA),Larhonda Ingram,DWA-9100DWA-9100BL,Legacy,Black,1,"5 years parts, 3 years labor ($700)",CreditCard ,210.56,3200.56,3200.56,0.00,Daniel Penn,425-301-5367,,,"Invoice 92
Paid in full
$1500 on Square
$1700 on Terminal 584356"
100528,9/13/2017 10:39:44 AM,Washington State Fair 9/1-24 (WA),Ruben Cuatrona,DWA-9400Pegasus-BR,Pegasus,Choco Brown,1,"5 years parts, 3 years labor ($700)",CreditCard ,339.34,4699.34,4699.34,0.00,Javier Herman,206-861-4613,,,"Invoice 84
Paid in full
**PLEASE Deliver by Sept. 17**"
100528,9/13/2017 10:39:44 AM,Washington State Fair 9/1-24 (WA),Ruben Cuatrona,,Foot Pads for Pegasus,,1,no warranty,CreditCard ,339.34,4699.34,4699.34,0.00,Javier Herman,206-861-4613,,,"Invoice 84
Paid in full
**PLEASE Deliver by Sept. 17**"
100529,9/13/2017 11:11:26 AM,Washington State Fair 9/1-24 (WA),Tom Nguyen,DWA-9150USJ-9150CH,Legacy 3D,Choco Brown,1,"5 years parts, 3 years labor ($700)",Cash CreditCard,193.17,2998.17,2998.17,0.00,Shin JaForward,253-847-3409,,,"Invoice 65
Tax included
BULK Discount Order
Total: $3000
Remaining: $2900"
100529,9/13/2017 11:11:26 AM,Washington State Fair 9/1-24 (WA),Tom Nguyen,,Chair Pad for Legacy 3D,,1,no warranty,Cash CreditCard,193.17,2998.17,2998.17,0.00,Shin JaForward,253-847-3409,,,"Invoice 65
Tax included
BULK Discount Order
Total: $3000
Remaining: $2900"
100530,9/13/2017 2:56:33 PM,Texas Home & Garden Show  Dallas 9/8-9/10 (TX),Mijung Song,DWA-9400Pegasus-BR-DEMO,Pegasus,Demo Choco Brown,1,"3 years parts, 1 year labor (Free)",Synchrony ,270.60,4300.60,4300.60,350.00,Austin Klarich,817-980-2328,9/12/2017 12:00:00 AM,,This order is sold by Mario and Mijung
100531,9/13/2017 4:42:09 PM,LA County Fair 9/1-24 (CA),Ting Ritchie,DWA-9100DWA-9100CH-DEMO,Legacy,Demo Choco Brown,1,"3 years parts, 3 years labor ($400)",CreditCard ,223.85,3393.85,3393.85,0.00,John Cheung,6268210769,,,
100532,9/13/2017 6:10:21 PM,Washington State Fair 9/1-24 (WA),Kamille Gines,DWA-9150USJ-9150CH,Legacy 3D,Choco Brown,2,"5 years parts, 3 years labor ($700)",Synchrony ,623.22,8003.22,8003.22,0.00,Patricia Table,360-887-1531,,,"Invoice 109 & 110
Auth #013574
Paid in full"
100532,9/13/2017 6:10:21 PM,Washington State Fair 9/1-24 (WA),Kamille Gines,,Chair Pad for Legacy 3D,,2,no warranty,Synchrony ,623.22,8003.22,8003.22,0.00,Patricia Table,360-887-1531,,,"Invoice 109 & 110
Auth #013574
Paid in full"
100533,9/13/2017 6:17:14 PM,Washington State Fair 9/1-24 (WA),Kamille Gines,DWA-9150USJ-9150BL,Legacy 3D,Black,1,"5 years parts, 3 years labor ($700)",CreditCard ,287.64,4097.64,4097.64,0.00,Micha Kinney,206-696-1294,,,"Invoice 111
Paid in full"
100534,9/13/2017 6:23:16 PM,Washington State Fair 9/1-24 (WA),Ruben Cuatrona,DWA-9150USJ-9150CH,Legacy 3D,Choco Brown,1,"5 years parts, 3 years labor ($700)",Synchrony ,305.03,4300.03,4300.03,0.00,Damien Glitch,206-718-9645,,,"Invoice 112
Auth #013240
Paid in full"
100535,9/13/2017 6:51:34 PM,Washington State Fair 9/1-24 (WA),Kamille Gines,DWA-9150USJ-9150BL,Legacy 3D,Black,1,"5 years parts, 3 years labor ($700)",CreditCard ,279.18,3999.18,3999.18,0.00,Liem Nguyen,253-302-6102,,,"Invoice 113
Paid in full"
100536,9/13/2017 6:57:02 PM,Washington State Fair 9/1-24 (WA),Tom Nguyen,DWA-9150USJ-9150CH,Legacy 3D,Choco Brown,1,"5 years parts, 3 years labor ($700)",CreditCard ,279.18,3999.18,3999.18,0.00,Kenneth Merrill,360-340-1845,,,"Invoice 114
Paid in full"
100537,9/13/2017 7:02:37 PM,Washington State Fair 9/1-24 (WA),Jennifer Tran,DWA-9150USJ-9150BL,Legacy 3D,Black,1,"5 years parts, 3 years labor ($700)",CreditCard ,279.18,3999.18,3999.18,0.00,Brian Merrill,253-820-1256,,,"Invoice 115
Paid in full"
100538,9/13/2017 9:50:09 PM,LA County Fair 9/1-24 (CA),David Wang,DWA-9100DWA-9100BL-DEMO,Legacy,Demo Black,1,"3 years parts, 2 years labor ($200)",CreditCard ,211.83,3251.83,3251.83,0.00,michael nelson,9514430979,,,the customer paid off the balance with the credit card already.
100539,9/13/2017 9:50:28 PM,Champlain Valley Fair,Kaz Ohashi,DWA-9150USJ-9150CH,Legacy 3D,Choco Brown,1,"3 years parts, 1 year labor (Free)",Cash ,234.00,4884.00,4884.00,0.00,Test Test,+818030893713,,,
100539,9/13/2017 9:50:28 PM,Champlain Valley Fair,Kaz Ohashi,,Tourmaline Pad for Legacy 3D,,1,no warranty,Cash ,234.00,4884.00,4884.00,0.00,Test Test,+818030893713,,,
100540,9/13/2017 10:57:22 PM,Health&Wellness Factory AGM (CA),Joseph Chan,DWA-9100DWA-9100BL,Legacy,Black,1,"3 years parts, 1 year labor (Free)",CreditCard ,328.13,4828.13,4828.13,0.00,Alma Roundy,801-971-5044,,,"Sales was made in Las Vegas Solar Show, actual charge is $4893.75"
100541,9/14/2017 9:59:51 AM,New Mexico State Fair 9/7-9/16 (TX),Xiongxiaojun Ji,DWA-9150USJ-9150CH,Legacy 3D,Choco Brown,1,"3 years parts, 1 year labor (Free)",CreditCard ,270.00,4620.00,4620.00,0.00,Nix Marchand,5059776335,,,Actual charged amount $4622.5
100542,9/14/2017 10:12:43 AM,LA County Fair 9/1-24 (CA),Mikito Nakanishi,DWA-9100DWA-9100BL,Legacy,Black,1,"3 years parts, 1 year labor (Free)",COD CreditCard,259.00,3809.00,3809.00,0.00,Reiko Sakata,6263596388,,,
100542,9/14/2017 10:12:43 AM,LA County Fair 9/1-24 (CA),Mikito Nakanishi,,Chair Pad for Legacy,,1,no warranty,COD CreditCard,259.00,3809.00,3809.00,0.00,Reiko Sakata,6263596388,,,
100542,9/14/2017 10:12:43 AM,LA County Fair 9/1-24 (CA),Mikito Nakanishi,,Daiwa Blanket,,1,no warranty,COD CreditCard,259.00,3809.00,3809.00,0.00,Reiko Sakata,6263596388,,,
100542,9/14/2017 10:12:43 AM,LA County Fair 9/1-24 (CA),Mikito Nakanishi,,Foot Pads for Legacy,,1,no warranty,COD CreditCard,259.00,3809.00,3809.00,0.00,Reiko Sakata,6263596388,,,
100543,9/14/2017 10:43:15 AM,Washington State Fair 9/1-24 (WA),Robert Shih,DWA-9060USJ-9060BL,Relax2Zero 3D,Black,1,"5 years parts, 3 years labor ($700)",CreditCard COD,296.10,4196.10,4196.10,0.00,Lory Soike,253-631-0201,,,"Invoice 116
Remaining: 4100"
100544,9/14/2017 6:48:15 PM,LA County Fair 9/1-24 (CA),Kohei Uno,DWA-9060USJ-9060BR,Relax2Zero 3D,Choco Brown,1,"3 years parts, 3 years labor ($400)",Synchrony CreditCard,346.88,4846.88,4846.88,0.00,Mack Moore,909-301-2839,,,"Deposit paid $646.88
Square# uimr

Synchrony Auth# 014145"
100545,9/14/2017 8:34:19 PM,LA County Fair 9/1-24 (CA),Kohei Uno,DWA-9060USJ-9060BR,Relax2Zero 3D,Choco Brown,1,"3 years parts, 3 years labor ($400)",CreditCard ,319.13,4519.13,4519.13,0.00,Mariano Castillejo,213-399-0665,,,
100546,9/15/2017 7:53:24 AM,LA County Fair 9/1-24 (CA),May Kam,DWA-9100DWA-9100SI-DEMO,Legacy,Demo Sienna Brown,1,"3 years parts, 3 years labor ($400)",Synchrony ,224.31,3399.31,3399.31,0.00,Willy Phillips,3102615552,,,"Pls pay attention on delivery address , different with billing address"
100547,9/15/2017 8:07:29 AM,LA County Fair 9/1-24 (CA),May Kam,DWA-9400Pegasus-BL,Pegasus,Black,1,"3 years parts, 3 years labor ($400)",Synchrony ,346.88,4846.88,4846.88,0.00,Richard Brown,4175980226,,,"4 years parts, 3 years labor"
100548,9/15/2017 8:17:02 AM,LA County Fair 9/1-24 (CA),May Kam,DWA-9150USJ-9150BL,Legacy 3D,Black,1,"3 years parts, 3 years labor ($400)",CreditCard ,233.10,3503.10,3503.10,0.00,Tony Chu,9517360946,,,Paid off
100549,9/15/2017 10:09:11 AM,Washington State Fair 9/1-24 (WA),Kristy Tran,DWA-9100DWA-9100CH-DEMO,Legacy,Demo Choco Brown,1,"5 years parts, 3 years labor ($700)",Synchrony ,230.30,3430.30,3430.30,,Nancy Pearson,425-333-4085,,,
100550,9/15/2017 10:22:56 AM,Washington State Fair 9/1-24 (WA),Phuoc Van,DWA-9150USJ-9150CH,Legacy 3D,Choco Brown,1,"5 years parts, 3 years labor ($700)",CreditCard ,330.88,4600.88,4600.88,0.00,Michael Meier,253-507-5499,,,"Phuoc offered $4600.00 (Paid in full by Square), Invoice 118"
100551,9/15/2017 10:37:16 AM,Washington State Fair 9/1-24 (WA),Robert Shih,DWA-9100DWA-9100BL,Legacy,Black,1,"5 years parts, 3 years labor ($700)",Synchrony ,279.18,3999.18,3999.18,,Brandy Campbell,253-820-9852,,,"Robert offered $4000.00 (Paid in full), Synchrony Authorization# 014382, Invoice 119"
100552,9/15/2017 10:55:24 AM,Washington State Fair 9/1-24 (WA),Tom Nguyen,DWA-9150USJ-9150BL,Legacy 3D,Black,1,"5 years parts, 3 years labor ($700)",CreditCard ,279.18,3999.18,3999.18,0.00,Barbara Leonard,253-565-1630,,,"Tom offered $4000.00 (Paid in Full), Invoice 120"
100553,9/15/2017 11:14:16 AM,ISSA Las Vegas 9/12-14,Rolly San Jose,USJ-9050USJ-9050BR,Relax2Zero 2.0,Brown,1,"3 years parts, 1 year labor (Free)",CreditCard ,237.17,3897.17,3897.17,0.00,Peter Klich,8478924250,,,
100554,9/15/2017 11:26:25 AM,ISSA Las Vegas 9/12-14,Lori Daringer,DWA-9100DWA-9100BL,Legacy,Black,1,"3 years parts, 1 year labor (Free)",CreditCard ,222.50,3702.50,3702.50,0.00,Steve Beneduce,4014195149,,,Lori offered $3700.00 (Paid in full)
100555,9/15/2017 11:34:20 AM,ISSA Las Vegas 9/12-14,Rolly San Jose,USJ-9050USJ-9050BL,Relax2Zero 2.0,Black,1,"3 years parts, 1 year labor (Free)",Synchrony ,222.50,3702.50,3702.50,0.00,Uebari Godwin,4028023836,,,
100556,9/15/2017 11:51:32 AM,ISSA Las Vegas 9/12-14,Rolly San Jose,USJ-9050USJ-9050BL,Relax2Zero 2.0,Black,1,"3 years parts, 1 year labor (Free)",CreditCard ,169.52,2999.52,2999.52,0.00,Jeff Quan,8324667180,,,
100557,9/15/2017 12:04:52 PM,ISSA Las Vegas 9/12-14,Lori Daringer,DWA-9100DWA-9100BL,Legacy,Black,1,"3 years parts, 1 year labor (Free)",CreditCard ,169.52,2999.52,2999.52,0.00,Melody Quan,7027507759,,,Lori offered $3000.00 (Paid in full)
100558,9/15/2017 12:12:45 PM,LA County Fair 9/1-24 (CA),May Kam,DWA-9100DWA-9100CH,Legacy,Choco Brown,1,"3 years parts, 1 year labor (Free)",Synchrony ,258.08,3798.08,3798.08,0.00,Susie Gonzales,626-961-1274,,,
100559,9/15/2017 12:21:30 PM,LA County Fair 9/1-24 (CA),Mikito Nakanishi,DWA-9100DWA-9100CH,Legacy,Choco Brown,1,"3 years parts, 1 year labor (Free)",Synchrony ,258.08,3798.08,3798.08,0.00,Jesus Rubio,626-915-6916,,,Please ask Mr.Nakanishi about How many months for financing.
100560,9/15/2017 12:22:07 PM,ISSA Las Vegas 9/12-14,Rolly San Jose,USJ-9050USJ-9050BR,Relax2Zero 2.0,Brown,1,"3 years parts, 1 year labor (Free)",CreditCard ,169.52,2999.52,2999.52,0.00,Kyu Lee,3104135522,,,"Please deliver next week before Sept 22. Originally it's Demo chair, but I couldn't chose Demo because of Low Stock."
100561,9/15/2017 12:29:28 PM,LA County Fair 9/1-24 (CA),May Kam,DWA-9100DWA-9100CH,Legacy,Choco Brown,1,"3 years parts, 1 year labor (Free)",CreditCard COD,207.20,3197.20,3197.20,0.00,Jason Eckerson,9099960199,,,customer paid 200 debit card already. cod 3000.
100562,9/15/2017 12:47:52 PM,ISSA Las Vegas 9/12-14,Rolly San Jose,USJ-9050USJ-9050BR,Relax2Zero 2.0,Brown,1,"3 years parts, 1 year labor (Free)",CreditCard ,263.73,3499.73,3499.73,0.00,Jian Huang,9493021278,,,"Rolly offered $3500.00 in total, customer paid deposit $300 by C.C.
Need to charge the balance $3200.00 before the customer pick up at Gardena. (Kenzo will be office to pick it up) And please make sure to give 1 extra Foam Pad.
Final destination is Canada, so Warranty  agreement is only 3 yrs Parts."
100563,9/15/2017 1:04:49 PM,ISSA Las Vegas 9/12-14,Rolly San Jose,USJ-9050USJ-9050BL,Relax2Zero 2.0,Black,1,"3 years parts, 1 year labor (Free)",CreditCard ,237.57,3902.57,3902.57,0.00,David Svoboba,9526887120,,,"Rolly offered $3900.00, paid deposit $100.
Customer will call to pay balance $3800.00 in3-4 Weeks from Sept 14."
100564,9/15/2017 2:41:38 PM,LA County Fair 9/1-24 (CA),May Kam,DWA-9100DWA-9100CH,Legacy,Choco Brown,1,"3 years parts, 3 years labor ($400)",Synchrony ,262.42,3849.42,3849.42,0.00,John Solis,5623555124,,,
100565,9/15/2017 4:53:39 PM,Las Vegas SF Market (NV),Meiyan Yu,DWA-9100DWA-9100CH,SF Market Legacy,Choco Brown,1,"3 years parts, 1 year labor (Free)",CreditCard ,192.18,3500.18,3500.18,0.00,Luis Ching,916-524-4561,,,
100565,9/15/2017 4:53:39 PM,Las Vegas SF Market (NV),Meiyan Yu,,Chair Pad for Legacy,,1,no warranty,CreditCard ,192.18,3500.18,3500.18,0.00,Luis Ching,916-524-4561,,,
100565,9/15/2017 4:53:39 PM,Las Vegas SF Market (NV),Meiyan Yu,,Foot Pads for Legacy,,1,no warranty,CreditCard ,192.18,3500.18,3500.18,0.00,Luis Ching,916-524-4561,,,
100566,9/15/2017 5:05:57 PM,Las Vegas SF Market (NV),Meiyan Yu,DWA-9150USJ-9150CH,SF Market Legacy 3D,Choco Brown,1,"3 years parts, 1 year labor (Free)",CreditCard ,267.56,4500.56,4500.56,0.00,Luis M. Ching,916-524-4560,,,
100566,9/15/2017 5:05:57 PM,Las Vegas SF Market (NV),Meiyan Yu,,Foot Pads for Legacy 3D,,1,no warranty,CreditCard ,267.56,4500.56,4500.56,0.00,Luis M. Ching,916-524-4560,,,
100566,9/15/2017 5:05:57 PM,Las Vegas SF Market (NV),Meiyan Yu,,Chair Pad for Legacy 3D,,1,no warranty,CreditCard ,267.56,4500.56,4500.56,0.00,Luis M. Ching,916-524-4560,,,
100567,9/15/2017 5:28:42 PM,Raleigh Home Show Fall 17,Heather Jones,DWA-9060USJ-9060BR-DEMO,Relax2Zero 3D,Demo Choco Brown,1,"3 years parts, 1 year labor (Free)",CreditCard ,203.00,3753.00,3753.00,0.00,Beth Holak,9723332408,9/17/2017 12:00:00 AM,,
100567,9/15/2017 5:28:42 PM,Raleigh Home Show Fall 17,Heather Jones,,Daiwa Blanket,,1,no warranty,CreditCard ,203.00,3753.00,3753.00,0.00,Beth Holak,9723332408,9/17/2017 12:00:00 AM,,
100568,9/16/2017 7:16:00 AM,LA County Fair 9/1-24 (CA),May Kam,DWA-9100DWA-9100GD,Legacy,Gold,1,"3 years parts, 3 years labor ($400)",CreditCard COD,228.66,3450.66,3450.66,,George Chardy,9098417490,,,
100569,9/16/2017 7:16:01 AM,Raleigh Home Show Fall 17,Heather Jones,DWA-9150USJ-9150CH,Legacy 3D,Choco Brown,1,"3 years parts, 1 year labor (Free)",CreditCard ,326.25,4826.25,4826.25,0.00,Heather Jones,9192646637,,,
100570,9/16/2017 7:28:39 AM,Raleigh Home Show Fall 17,Heather Jones,DWA-9150USJ-9150CH,Legacy 3D,Choco Brown,1,"3 years parts, 1 year labor (Free)",CreditCard ,326.25,4826.25,4826.25,0.00,Heather Jones,9192646637,,,"-Raleigh Home Show 
-Free White Glove Delivery"
100571,9/16/2017 10:22:09 AM,"Sam's Club #4109 Bossier City, LA  9/14-9/24 (TX)",Mario Higareda,USJ-871,Foot Vibe Pro,,1,"2 years parts, 1 year labor (Small Items)",CreditCard ,0.00,0.00,0.00,,HITER PATEL,8587053452,,,
100572,9/16/2017 10:41:03 AM,LA County Fair 9/1-24 (CA),David Wang,DWA-9150USJ-9150CH,Legacy 3D,Choco Brown,1,"3 years parts, 3 years labor ($400)",CreditCard ,237.17,3551.17,3551.17,,Mark Sikula,9516525730,,,"Please schedule a delivery on Sep28th(Customer's Birthday).
Offer $3550 included Tax."
100573,9/16/2017 10:48:46 AM,LA County Fair 9/1-24 (CA),Kaz Ohashi,DWA-9100DWA-9100CH-DEMO,Legacy,Demo Choco Brown,1,"3 years parts, 3 years labor ($400)",CreditCard ,223.85,3393.85,3393.85,,John Chevng,626-821-0769,,,"Re-enter Order.
Original Order: 100469
by Kaz"
100574,9/16/2017 1:11:12 PM,LA County Fair 9/1-24 (CA),Kaz Ohashi,DWA-9150USJ-9150BL,Legacy 3D,Black,1,"3 years parts, 1 year labor (Free)",Cash ,30.53,1310.53,1310.53,0.00,Test Test,3105382298,,,Test
100574,9/16/2017 1:11:12 PM,LA County Fair 9/1-24 (CA),Kaz Ohashi,,Chair Pad for Legacy,,1,no warranty,Cash ,30.53,1310.53,1310.53,0.00,Test Test,3105382298,,,Test
100574,9/16/2017 1:11:12 PM,LA County Fair 9/1-24 (CA),Kaz Ohashi,,Foot Pads for Legacy,,1,no warranty,Cash ,30.53,1310.53,1310.53,0.00,Test Test,3105382298,,,Test
100575,9/16/2017 2:16:07 PM,Raleigh Home Show Fall 17,Jonathan Bhowani,DWA-9150USJ-9150CH-DEMO,Legacy 3D,Demo Choco Brown,1,"3 years parts, 1 year labor (Free)",CreditCard ,290.00,4290.00,4290.00,0.00,Kristi Janssen,9193027841,9/17/2017 12:00:00 AM,,
100575,9/16/2017 2:16:07 PM,Raleigh Home Show Fall 17,Jonathan Bhowani,,Daiwa Blanket,,1,no warranty,CreditCard ,290.00,4290.00,4290.00,0.00,Kristi Janssen,9193027841,9/17/2017 12:00:00 AM,,
100576,9/16/2017 3:42:10 PM,Raleigh Home Show Fall 17,Ting Ritchie,DWA-9150USJ-9150CH-DEMO,Legacy 3D,Demo Choco Brown,1,"3 years parts, 1 year labor (Free)",CreditCard ,199.38,3699.38,3699.38,0.00,Laurie Barrett,9144902854,9/17/2017 12:00:00 AM,,"Please deliver a demo black color, Serial Number: 911600962D"
100577,9/16/2017 3:47:49 PM,LA County Fair 9/1-24 (CA),Charles Ishida,DWA-9400Pegasus-BR-DEMO,Pegasus,Demo Choco Brown,1,"3 years parts, 1 year labor (Free)",CreditCard Synchrony,258.08,3798.08,3798.08,0.00,Leinberg Wilson,626-253-0876,,,"#6034610081521299
#78559415
Not processed yet.
$50 deposit
When we deliver the chair pls refund $50 and process the synchrony."
100578,9/16/2017 3:59:16 PM,LA County Fair 9/1-24 (CA),Charles Ishida,DWA-9400Pegasus-BR-DEMO,Pegasus,Demo Choco Brown,1,"3 years parts, 1 year labor (Free)",Synchrony ,258.17,3799.17,3799.17,0.00,Leinberg Wilson,626-253-0876,,,We took $50 deposit by square which is #s3lk receipt number. Please give the customer back the deposit. Customer is going to be paid off by Synchlony.
100579,9/16/2017 4:30:59 PM,LA County Fair 9/1-24 (CA),David Wang,DWA-9100DWA-9100CH,Legacy,Choco Brown,1,"3 years parts, 3 years labor ($400)",Synchrony ,266.68,3899.68,3899.68,0.00,Cecilia Javel,8186131232,,,
100580,9/16/2017 4:51:29 PM,LA County Fair 9/1-24 (CA),Charles Ishida,DWA-9400Pegasus-BR-DEMO,Pegasus,Demo Choco Brown,1,"3 years parts, 1 year labor (Free)",Synchrony ,258.17,3799.17,3799.17,0.00,Leinberg Wilson,626-253-0876,,,
100581,9/16/2017 6:08:54 PM,LA County Fair 9/1-24 (CA),Kaz Ohashi,DWA-9100DWA-9100GD,Legacy,Gold,1,"3 years parts, 1 year labor (Free)",CreditCard ,266.68,3899.68,3899.68,,Wallace Iwata,3105583875,,,$100 deposit. Rest amount will be C.O.D
100582,9/16/2017 6:20:37 PM,LA County Fair 9/1-24 (CA),Kaz Ohashi,DWA-9100DWA-9100BU,Legacy,Blue,1,"3 years parts, 1 year labor (Free)",Synchrony ,266.68,3899.68,3899.68,0.00,Shanna Rojas,9092579145,,,
100583,9/16/2017 7:45:54 PM,LA County Fair 9/1-24 (CA),May Kam,DWA-9100DWA-9100CH,Legacy,Choco Brown,1,"3 years parts, 2 years labor ($200)",CreditCard ,253.91,3748.91,3748.91,0.00,Lori Vanzant,5596412554,,,Remaining balance will be C.O.D.
100584,9/16/2017 8:00:22 PM,LA County Fair 9/1-24 (CA),May Kam,DWA-9100DWA-9100CH,Legacy,Choco Brown,1,"3 years parts, 1 year labor (Free)",CreditCard ,253.91,3748.91,3748.91,,Malcolm Penton,5596835124,,,$200 deposit. Rest amount will be C.O.D.
100585,9/16/2017 8:19:37 PM,LA County Fair 9/1-24 (CA),Charles Ishida,DWA-9100DWA-9100CH-DEMO,Legacy,Demo Choco Brown,1,"3 years parts, 1 year labor (Free)",Synchrony CreditCard,203.13,3149.13,3149.13,,Cathy Sean Bolton,3238070187,,,"Deposit by square #ecvJ $50.
We adjusted remaining balance. Remaining will be paid by C.O.D $649.13-"
100586,9/16/2017 8:34:08 PM,New Mexico State Fair 9/7-9/16 (TX),Xiongxiaojun Ji,DWA-9060USJ-9060BL,Relax2Zero 3D,Black,1,"3 years parts, 1 year labor (Free)",Synchrony ,303.75,5103.75,5103.75,,Patricia Hemphill,9709855193,,,
100587,9/16/2017 8:40:27 PM,LA County Fair 9/1-24 (CA),May Kam,DWA-9100DWA-9100CH,Legacy,Choco Brown,1,"3 years parts, 1 year labor (Free)",CreditCard COD,253.91,3748.91,3748.91,0.00,Lori Vanzant,5596412554,,,Square Receipt#IUVZ charged 400. It is deposit for 2 orders. $200 is deposit of this order.
100588,9/16/2017 8:42:43 PM,New Mexico State Fair 9/7-9/16 (TX),Keith Kei,DWA-9150USJ-9150BL,Legacy 3D,Black,1,"3 years parts, 1 year labor (Free)",Synchrony ,303.75,5103.75,5103.75,,David Montoya,5053102148,,,
100588,9/16/2017 8:42:43 PM,New Mexico State Fair 9/7-9/16 (TX),Keith Kei,,Chair Pad for Legacy 3D,,2,no warranty,Synchrony ,303.75,5103.75,5103.75,,David Montoya,5053102148,,,
100589,9/16/2017 8:53:33 PM,LA County Fair 9/1-24 (CA),Charles Ishida,,Tourmaline Pad for Pegasus,,1,no warranty,Synchrony ,342.90,4799.90,4799.90,0.00,Leinberg Wilson,626-253-0876,,,
100589,9/16/2017 8:53:33 PM,LA County Fair 9/1-24 (CA),Charles Ishida,DWA-9400Pegasus-BR,Pegasus,Choco Brown,1,"3 years parts, 1 year labor (Free)",Synchrony ,342.90,4799.90,4799.90,0.00,Leinberg Wilson,626-253-0876,,,
100590,9/16/2017 10:36:31 PM,LA County Fair 9/1-24 (CA),Kohei Uno,USJ-9000USJ-9000BR,Relax2Zero 1.0,Brown,1,"3 years parts, 3 years labor ($400)",Synchrony CreditCard,254.38,3754.38,3754.38,0.00,Donna Nolls,702-234-5748,,,"Deposit Paid $254.38
Square# RSMz

Synchrony Auth# 016010"
100591,9/16/2017 10:42:53 PM,LA County Fair 9/1-24 (CA),Joseph Chan,DWA-9060USJ-9060BR,Relax2Zero 3D,Choco Brown,1,"3 years parts, 3 years labor ($400)",Synchrony ,346.88,4846.88,4846.88,0.00,Eric Stumpf,909-854-7334,,,Synchrony Auth# 016979
100592,9/17/2017 7:56:31 AM,LA County Fair 9/1-24 (CA),May Kam,DWA-9100DWA-9100CH,Legacy,Choco Brown,1,"3 years parts, 3 years labor ($400)",CreditCard ,194.81,3050.81,3050.81,,Candy Sanchez,3239299363,,,Paid off
100593,9/17/2017 10:06:37 AM,Raleigh Home Show Fall 17,Heather Jones,DWA-9150USJ-9150CH,Legacy 3D,Choco Brown,1,"3 years parts, 1 year labor (Free)",CreditCard ,253.75,3753.75,3753.75,0.00,Teresa Leonard,3366483582,,,Serial# 91160789D
100594,9/17/2017 1:08:43 PM,LA County Fair 9/1-24 (CA),Kaz Ohashi,DWA-9100DWA-9100CH,Legacy,Choco Brown,1,"3 years parts, 1 year labor (Free)",CreditCard COD,275.10,3999.10,3999.10,,Jorge Lopez,626-482-1720,,,
100595,9/17/2017 1:16:37 PM,Raleigh Home Show Fall 17,Mitch Valdes,DWA-9150USJ-9150BL,Legacy 3D,Black,1,"3 years parts, 1 year labor (Free)",CreditCard ,235.41,3482.41,3482.41,0.00,Patricia Hall,9108189367,,,
100596,9/17/2017 2:16:12 PM,LA County Fair 9/1-24 (CA),Kaz Ohashi,DWA-9100DWA-9100CH,Legacy,Choco Brown,1,"3 years parts, 1 year labor (Free)",CreditCard ,266.77,3900.77,3900.77,,Leonardo Legaspi,818-321-8960,,,Offer $3900 included Tax
100597,9/17/2017 7:39:17 PM,LA County Fair 9/1-24 (CA),Kohei Uno,USJ-9000USJ-9000BR,Relax2Zero 1.0,Brown,1,"3 years parts, 3 years labor ($400)",Synchrony ,245.13,3645.13,3645.13,0.00,Jose Zamudio,909-628-7542,,,Synchrony Auth#017922
100598,9/17/2017 7:45:55 PM,LA County Fair 9/1-24 (CA),Joseph Chan,DWA-9060USJ-9060BR,Relax2Zero 3D,Choco Brown,1,"3 years parts, 3 years labor ($400)",Synchrony ,346.88,4846.88,4846.88,0.00,Bill Markloff,760-948-1216,,,Synchrony Auth# 017730
100599,9/17/2017 8:14:43 PM,LA County Fair 9/1-24 (CA),Kohei Uno,DWA-9060USJ-9060BR,Relax2Zero 3D,Choco Brown,1,"3 years parts, 3 years labor ($400)",Cash CreditCard,317.46,4499.46,4499.46,,Russell Tanaka,310-990-2100,,,"Offer deal is $4500 out the door including tax.

Balance paid $4450.00
Square# lcPc

The closest amount I was able to get the balance on daiwa space with the promotional codes was $4449.46"
100600,9/17/2017 8:22:08 PM,LA County Fair 9/1-24 (CA),Kohei Uno,DWA-9060USJ-9060BR,Relax2Zero 3D,Choco Brown,1,"3 years parts, 3 years labor ($400)",Synchrony ,319.13,4519.13,4519.13,0.00,Armando Sepulveda,562-500-6895,,,Synchrony Auth# 017957
100601,9/18/2017 10:29:50 AM,LA County Fair 9/1-24 (CA),May Kam,DWA-9150USJ-9150BL,Legacy 3D,Black,1,"3 years parts, 3 years labor ($400)",Cash CreditCard,266.77,3900.77,3900.77,,Steven Collins,7138855838,,,"COD $3700, requested delivery Oct 2nd,2017 or after , thanks"
100602,9/18/2017 10:53:47 AM,LA County Fair 9/1-24 (CA),May Kam,DWA-9100DWA-9100CH-DEMO,Legacy,Demo Choco Brown,1,"3 years parts, 3 years labor ($400)",Synchrony ,237.08,3550.08,3550.08,0.00,Rey Rodriguez,5629651987,,,Total $3550
100603,9/18/2017 11:55:38 AM,LA County Fair 9/1-24 (CA),Charles Ishida,DWA-9100DWA-9100CH,Legacy,Choco Brown,1,"3 years parts, 1 year labor (Free)",Synchrony ,266.77,3900.77,3900.77,,Carmen Acevedo,9514423574,9/18/2017 12:00:00 AM,,Total $3900
100604,9/18/2017 3:47:54 PM,The Big E State Fair 9/15-10/1,Ruben Cuatrona,DWA-9150USJ-9150BL,Legacy 3D,Black,1,"3 years parts, 1 year labor (Free)",Synchrony CreditCard,185.31,3900.31,3900.31,,Trish Carpenter,4135376555,,,"Second payment method is credit card. Charged $900 by Wellsfargo terminal. Authorization #06679z.

Balance is paid off. No charge for $0.31."
100605,9/18/2017 4:08:13 PM,LA County Fair 9/1-24 (CA),Mikito Nakanishi,DWA-9100DWA-9100BL,Legacy,Black,1,"3 years parts, 1 year labor (Free)",CreditCard ,195.45,3058.45,3058.45,,Reiko Sakata,6263596388,,,
100605,9/18/2017 4:08:13 PM,LA County Fair 9/1-24 (CA),Mikito Nakanishi,,Daiwa Blanket,,1,no warranty,CreditCard ,195.45,3058.45,3058.45,,Reiko Sakata,6263596388,,,
100605,9/18/2017 4:08:13 PM,LA County Fair 9/1-24 (CA),Mikito Nakanishi,,Chair Pad for Legacy,,1,no warranty,CreditCard ,195.45,3058.45,3058.45,,Reiko Sakata,6263596388,,,
100605,9/18/2017 4:08:13 PM,LA County Fair 9/1-24 (CA),Mikito Nakanishi,,Foot Pads for Legacy,,1,no warranty,CreditCard ,195.45,3058.45,3058.45,,Reiko Sakata,6263596388,,,
100606,9/18/2017 4:10:20 PM,The Big E State Fair 9/15-10/1,Winston Melgar,DWA-9150USJ-9150BL,Legacy 3D,Black,1,"3 years parts, 1 year labor (Free)",Synchrony CreditCard,191.19,4000.19,4000.19,,Leigh Paz,4133881446,,,"Order Date: 09/15/2017
Second Payment is credit card for &500.
Wellsfargo Authorization number is #02342z.

Balance is paid off. No charge for $0.19."
100607,9/18/2017 4:32:35 PM,Grace Fest,Abigail Stirling,DWA-9100DWA-9100SI,Legacy,Sienna Brown,1,"3 years parts, 1 year labor (Free)",Synchrony Cash,241.33,3600.33,3600.33,,Carl Connally,760 382 1594,,,"$100 cash deposit
No charge 33 cents so total is $3,600"
100608,9/18/2017 5:20:47 PM,Grace Fest,Abigail Stirling,DWA-9100DWA-9100CH,Legacy,Choco Brown,1,"3 years parts, 1 year labor (Free)",Synchrony ,258.26,3800.26,3800.26,0.00,Janet Schultz,7602554730,,,No charge .26 cents
100609,9/18/2017 5:26:25 PM,The Big E State Fair 9/15-10/1,Gary Cyrlin,DWA-9150USJ-9150CH,Legacy 3D,Choco Brown,1,"3 years parts, 1 year labor (Free)",CreditCard ,203.00,4201.00,4201.00,0.00,Anthony Bannish,4133305591,,,
100610,9/18/2017 5:43:43 PM,Grace Fest,Abigail Stirling,DWA-9100DWA-9100BU,Legacy,Blue,1,"3 years parts, 1 year labor (Free)",CreditCard ,249.75,3699.75,3699.75,,Ruben Flores,6618609977,,,Place on hold for layaway
100611,9/18/2017 6:42:09 PM,The Big E State Fair 9/15-10/1,Ruben Cuatrona,DWA-9150USJ-9150BL,Legacy 3D,Black,1,"3 years parts, 1 year labor (Free)",Synchrony ,191.19,4000.19,4000.19,,Shiela Crocker,8608491787,,,"Order Date: 09/15/2017
$3,500 Synchrony
$500 Charge before delivery

Total amount $4,000"
100612,9/18/2017 7:02:20 PM,Evergreen State Fair 8/24-9/4 (WA),Joseph Chan,DWA-9060USJ-9060BL,Relax2Zero 3D,Black,1,"3 years parts, 3 years labor ($400)",CreditCard Synchrony,350.52,4910.52,4910.52,,David & Cheryl Travis,3603195038,,,Actual deal is $4914.00
100613,9/18/2017 7:31:38 PM,The Big E State Fair 9/15-10/1,Ruben Cuatrona,DWA-9400Pegasus-BL,Pegasus,Black,1,"3 years parts, 1 year labor (Free)",Synchrony ,250.00,5000.00,5000.00,,Scott Thomas,(562) 2128748,,,Order Date: 09/15/2017
100614,9/18/2017 7:40:59 PM,The Big E State Fair 9/15-10/1,Winston Melgar,DWA-9150USJ-9150CH-DEMO,Legacy 3D,Demo Choco Brown,1,"3 years parts, 1 year labor (Free)",CreditCard ,229.44,3900.44,3900.44,,Marilyn Miller,8606663318,,,"Order Date: 09/15/2017
Amount is paid off. No charge for $0.44.
Charged by Wellsfargo terminal."
100615,9/18/2017 7:51:33 PM,The Big E State Fair 9/15-10/1,Gary Cyrlin,DWA-9150USJ-9150CH-DEMO,Legacy 3D,Demo Choco Brown,1,"3 years parts, 1 year labor (Free)",CreditCard ,196.94,4097.94,4097.94,,Bruce & Deb Singer,4135273568,,,"Order Date: 09/16/2017
Amount is paid off by Wells Fargo terminal.
No charge for $0.94.

Delivery after show."
100616,9/18/2017 8:01:23 PM,The Big E State Fair 9/15-10/1,Winston Melgar,DWA-9150USJ-9150CH,Legacy 3D,Choco Brown,1,"3 years parts, 1 year labor (Free)",Synchrony ,205.88,4249.88,4249.88,,Robert Botelho,2034703434,,,"Sales mentioned about Hold for this order. However, there were no reason for hold order. Synchrony info was not enough. No Account number."
100617,9/18/2017 8:09:56 PM,The Big E State Fair 9/15-10/1,Amando Loreno,DWA-9060USJ-9060BL,Relax2Zero 3D,Black,1,"3 years parts, 1 year labor (Free)",CreditCard ,203.13,4203.13,4203.13,,Anthony Carlino,2039157543,,,"Order Date: 09/15/2017
Amount is paid off by Fells Fargo terminal. No carge for $0.13"
100618,9/18/2017 8:19:20 PM,The Big E State Fair 9/15-10/1,Rolly San Jose,DWA-9150USJ-9150CH,Legacy 3D,Choco Brown,1,"3 years parts, 1 year labor (Free)",Synchrony ,203.00,4201.00,4201.00,,William Taurianen,8608846046,,,"Order Date: 09/16/2017
Amount is paid off. No charge for $1.00- No information for Synchrony account."
100619,9/18/2017 8:27:01 PM,The Big E State Fair 9/15-10/1,Rolly San Jose,DWA-9400Pegasus-BL-DEMO,Pegasus,Demo Black,1,"3 years parts, 1 year labor (Free)",Synchrony ,232.38,4700.38,4700.38,0.00,Lewis Wendolowski,4132976888,,,"Order Date: 09/16/2017
Total amount is $4,700- 
No charge for $0.38"
100620,9/18/2017 8:37:58 PM,The Big E State Fair 9/15-10/1,Amando Loreno,DWA-9150USJ-9150CH,Legacy 3D,Choco Brown,1,"3 years parts, 1 year labor (Free)",CreditCard ,176.50,3750.50,3750.50,,Phong Nguyen,8609662267,,,"Order Date: 09/16/2017
One of 2 chairs order.
Charged $7,500- for 2 chairs.
Total amount is $3,700- No charge for $0.50-"
100621,9/18/2017 8:38:39 PM,Washington State Fair 9/1-24 (WA),Kristy Tran,DWA-9150USJ-9150BL,Legacy 3D,Black,1,"5 years parts, 3 years labor ($700)",CreditCard ,305.03,4300.03,4300.03,,Chieko McKenzie,360-544-5750,,,Paid in Full
100622,9/18/2017 8:47:51 PM,The Big E State Fair 9/15-10/1,Amando Loreno,DWA-9150USJ-9150CH,Legacy 3D,Choco Brown,1,"3 years parts, 1 year labor (Free)",CreditCard ,176.50,3750.50,3750.50,,Bon Duong,8609662267,,,"Order Date: 09/16/2017
One of 2 chairs order.
Charged $7,500- for 2 chairs.
Total amount is $3,700- No charge for $0.50-"
100623,9/18/2017 9:32:23 PM,Washington State Fair 9/1-24 (WA),Jennifer Tran,DWA-9150USJ-9150BL,Legacy 3D,Black,1,"5 years parts, 3 years labor ($700)",Synchrony ,262.26,3802.26,3802.26,,Richard Dryke,360-808-8577,,,"Invoice 170
Auth # 018808
Paid In Full"
100624,9/19/2017 8:26:33 AM,The Big E State Fair 9/15-10/1,Winston Melgar,DWA-9060USJ-9060BR,Relax2Zero 3D,Choco Brown,1,"3 years parts, 1 year labor (Free)",CreditCard ,191.19,4000.19,4000.19,,Marc Diwinsky,8609785222,,,"Order Date: 09/16/2017
Total amount is $4,000-
No charge for $0.19-"
100624,9/19/2017 8:26:33 AM,The Big E State Fair 9/15-10/1,Winston Melgar,,Foot Pads for Relax2Zero 3D,,1,no warranty,CreditCard ,191.19,4000.19,4000.19,,Marc Diwinsky,8609785222,,,"Order Date: 09/16/2017
Total amount is $4,000-
No charge for $0.19-"
100625,9/19/2017 8:50:47 AM,The Big E State Fair 9/15-10/1,Ruben Cuatrona,DWA-9150USJ-9150BL,Legacy 3D,Black,1,"3 years parts, 1 year labor (Free)",Synchrony ,220.63,4500.63,4500.63,,Ivelisse Medina,8607965522,,,"Order Date: 09/16/2017
Total amount is $4,500-
No charge for $0.63-"
100626,9/19/2017 9:07:48 AM,The Big E State Fair 9/15-10/1,Rolly San Jose,DWA-9150USJ-9150BL,Legacy 3D,Black,1,"3 years parts, 1 year labor (Free)",CreditCard ,173.56,3900.56,3900.56,0.00,Abigail Fine,7816035937,,,"Order Date: 09/17/2017
Total amount $3,900- is paid off.
Charged by Wells Fargo Terminal.
No charge for $0.56-"
100627,9/19/2017 9:22:25 AM,The Big E State Fair 9/15-10/1,Ruben Cuatrona,DWA-9150USJ-9150CH,Legacy 3D,Choco Brown,1,"3 years parts, 1 year labor (Free)",Synchrony ,203.00,4201.00,4201.00,,April Fisher,2033809525,,,"Order Date: 09/17/2017
Total amount is $4,500- 
No charge for $1.00-"
100628,9/19/2017 9:43:54 AM,The Big E State Fair 9/15-10/1,Ruben Cuatrona,DWA-9150USJ-9150CH-DEMO,Legacy 3D,Demo Choco Brown,1,"3 years parts, 1 year labor (Free)",Synchrony ,185.31,3900.31,3900.31,,Kristen Benedette,4014651948,,,"Order Date: 09/17/2017
Please call before delivery."
100629,9/19/2017 10:11:16 AM,The Big E State Fair 9/15-10/1,Ilene Maynard,DWA-9060USJ-9060BR,Relax2Zero 3D,Choco Brown,1,"3 years parts, 1 year labor (Free)",Synchrony ,234.38,4734.38,4734.38,,Deborah Burrell,8606534926,,,"Order Date: 09/17/2017
Total amount is $4,734-
No charge for $0.38-"
