﻿Original Event Name,Event Name,Sales Person,Order Number,Order Date,Customer Name,State,Zip,Product Name,Color,Product Status,QTY,Tax,Total Before Tax,Order Total,Primary Payment Method,Second Payment Method,Thirdl Payment Method,Warranty,Order Items,Pick up,Delivered On,Order Status,Chair Type,Order Notes,Private Note,Branch,No Tax,Actual Tax Rate,SKU,Primary Payment Balance,Primary Authorize Number,Primary Purchase Order Number,Primary Synchrony Account Number,Primary Synchrony Application Key,Primary Synchrony Account Info,Primary Synchrony Term,Primary Synchrony Primary ID,Primary Synchrony Issued State,Primary Synchrony Expiretion Date,Second Payment Balance,Second Authorize Number,Second Purchase Order Number,Second Synchrony Account Number,Second Synchrony Application Key,Second Synchrony Account Info,Second SynchronyTerm,Second Synchrony Primary ID,Second Synchrony Issued State,Second Synchrony Expiretion Date,Third Payment Balance,Third Authorize Number,Third Purchase Order Number,Third Synchrony Account Number,Third Synchrony Application Key,Third Synchrony Account Info,Third Synchrony Term,Third Synchrony Primary ID,Third Synchrony Issued State,Third Synchrony Expiretion Date
"CHAMPLAIN VALLEY FAIR 8/24-9/2/18 VERMONT, VT (IL)","CHAMPLAIN VALLEY FAIR 8/24-9/2/18 VERMONT, VT (IL)",Rolly San Jose,108743,8/25/2018 6:22:39 PM,Dylan Morgan,VT,05468,Legacy 3D,Demo Choco,Demo,1,0.00,4452.00,4452.00,Synchrony,,,"3 years parts, 1 year labor (Free)","Legacy 3D,",YES,9/16/2018 12:00:00 AM,Delivered,,,"Demo chair for pick up on sept 2 right after the fair//COnfirmed synchrony account (5,500) and original. It will be picked up at 9/2.  8 /27/18 Hitomi///Rolly informed that due to The demo chair is defective, please deliver the new chair.****Please charge $4452 before delivery and have sales draft signed. *** 8/29/18 Hitomi
8/30Maritza Courtesy text @ 10:04AM",TX,1,6.00,DWA-9150USJ-9150CH-DEMO,4452.00,,,6019170813098420,93404461,San Diego,36 months,,,,0.00,,,,,,,,,,0.00,,,,,,,,,
"CHAMPLAIN VALLEY FAIR 8/24-9/2/18 VERMONT, VT (IL)","CHAMPLAIN VALLEY FAIR 8/24-9/2/18 VERMONT, VT (IL)",Ilene Maynard,108744,8/25/2018 6:29:28 PM,Russell and laurie Sabens,VT,05468,Legacy 3D,New Black,New,1,0.00,4900.00,4900.00,Synchrony,,,"3 years parts, 1 year labor (Free)","Legacy 3D,",No,9/16/2018 12:00:00 AM,Delivered,,,"Pls deliver within 2 weeks from sept 2//COnfirmed synchrony account (8,500) and original. ***Please charge $4,900 before delivery and have sales draft signed.*** 8/27/18 Hitomi
8/28Maritza Courtesy text @ 10:24AM",TX,1,6.00,DWA-9150USJ-9150BL,4900.00,,,6019170813099147,93428481,San Diego,36 months,,,,0.00,,,,,,,,,,0.00,,,,,,,,,
"CHAMPLAIN VALLEY FAIR 8/24-9/2/18 VERMONT, VT (IL)","CHAMPLAIN VALLEY FAIR 8/24-9/2/18 VERMONT, VT (IL)",Ilene Maynard,108745,8/25/2018 6:53:35 PM,Terry St dennis,NY,12992,Legacy 3D,New Black,New,1,0.00,4900.00,4900.00,Synchrony,,,"3 years parts, 1 year labor (Free)","Legacy 3D,",No,,Cancelled,,,"Deliver within 2 weeks from sept 2//Confirmed synchrony account (6,500)  and original. ***Please charge before delivery and have sales draft signed. *** 8/27/18 Hitomi
8/28Maritza Courtesy text @ 10:45AM
Customer called office to cancel the order, confirmed by Ilene via Text. 9/10/18 Riho",TX,1,6.00,DWA-9150USJ-9150BL,4900.00,,,6019170813100267,93451508,San Diego,36 months,,,,0.00,,,,,,,,,,0.00,,,,,,,,,
"CHAMPLAIN VALLEY FAIR 8/24-9/2/18 VERMONT, VT (IL)","CHAMPLAIN VALLEY FAIR 8/24-9/2/18 VERMONT, VT (IL)",Abagail Stirling,108768,8/26/2018 9:07:25 AM,Sara Terry,VT,05403,Legacy 3D,Demo Choco,Demo,1,0.00,4000.00,4000.00,Synchrony,CreditCard,,"3 years parts, 1 year labor (Free)","Legacy 3D,",No,9/16/2018 12:00:00 AM,Delivered,,,"Balance $500 to be paid in full via debit card within next week//COnfirmed synchrony account (3,500) and original. ***Please charge $3,500 before delivery and have sales draft signed. Please collect remaining $500.***    8/27/18 Hitomi
8/28Maritza Courtesy call (VM) @ 11AM
9/5/2018 called to schedule but no answer - Tina
9/7/18 Received $500 payment info",TX,1,6.00,DWA-9150USJ-9150CH-DEMO,3500.00,,,6019170813099931,93444733,San Diego,36 months,,,,500.00,187866,,,,,,,,,0.00,,,,,,,,,
"CHAMPLAIN VALLEY FAIR 8/24-9/2/18 VERMONT, VT (IL)","CHAMPLAIN VALLEY FAIR 8/24-9/2/18 VERMONT, VT (IL)",Abagail Stirling,108781,8/26/2018 5:20:06 PM,Kathy Longworth,VT,05664,Legacy 3D,Demo Black,Demo,1,0.00,4000.00,4000.00,CreditCard,CreditCard,,"3 years parts, 1 year labor (Free)","Legacy 3D,",No,9/17/2018 12:00:00 AM,Delivered,,,"Deliver the week after sept 2//$2,000(#632850) is cleared. hasn't shown up another $2,000(#023610)  8/27/18 Hitomi//Confirmed another $2,000(#023610)  in WF, total $4,000 was cleared. 8/28/18 Hitomi
8/29Maritza Courtesy text @ 10:48AM",TX,1,6.00,DWA-9150USJ-9150BL-DEMO,2000.00,632850,,,,,,,,,2000.00,023610,,,,,,,,,0.00,,,,,,,,,
"CHAMPLAIN VALLEY FAIR 8/24-9/2/18 VERMONT, VT (IL)","CHAMPLAIN VALLEY FAIR 8/24-9/2/18 VERMONT, VT (IL)",Ilene Maynard,108784,8/26/2018 5:29:28 PM,Lisa ann Bowdish,VT,05769,Legacy 3D,New Black,New,1,0.00,4900.00,4900.00,Synchrony,Synchrony,,"3 years parts, 1 year labor (Free)","Legacy 3D,",No,,Cancelled,,,"Deliver within 2 weeks from sept 2//COnfirmed BOWDISH, LISA (3,500)/BOWDISH, MICHAEL(1,500). original is confirmed.***Please charge before delivery and have sales draft signed. ***  8/27/18 Hitomi
8/28Maritza Courtesy call @ 10:51AM Customer said she doesn't want to go through with her order because of her mom needing care. Will text her Ilene's number and wait for Ilene to confirm cancellation.
8/28 Maritza- @ 12PM Ilene texted to verify cancellation.",TX,1,6.00,DWA-9150USJ-9150BL,3500.00,,,6019170813101737,93482700,Las Vegas,36 months,,,,1400.00,,,6019170813101794,93483920,Las Vegas,36 months,,,,0.00,,,,,,,,,
"CHAMPLAIN VALLEY FAIR 8/24-9/2/18 VERMONT, VT (IL)","CHAMPLAIN VALLEY FAIR 8/24-9/2/18 VERMONT, VT (IL)",Abagail Stirling,108844,8/28/2018 9:04:24 AM,Lisa Chandler,VT,05446,Legacy 3D,Demo Black,Demo,1,0.00,4200.00,4200.00,CreditCard,PurchaseOrder,,"3 years parts, 1 year labor (Free)","Legacy 3D,",No,8/27/2018 12:00:00 AM,Delivered,,,"Winston and Rolly delivered the demo chair already August 27, 2018 after the show. This sale has layaway plan for $2700. Will attach a copy of the layaway form signed
///WF $1,500 is cleared by sales receipt. The chair is already delivered and I received delivery confirmation.Confirmed Layaway form. Please process Layaway payment. Hide approved amount of deposit.(passed layaway form to Stephany) 8/28/18 Hitomi",TX,1,6.00,DWA-9150USJ-9150BL-DEMO,1500.00,044372,,,,,,,,,2700.00,,Layaway plan,,,,,,,,0.00,,,,,,,,,
"CHAMPLAIN VALLEY FAIR 8/24-9/2/18 VERMONT, VT (IL)","CHAMPLAIN VALLEY FAIR 8/24-9/2/18 VERMONT, VT (IL)",Rolly San Jose,108845,8/28/2018 9:11:02 AM,Diana Wardell,NY,12901,Relax2Zero 3D,Demo Black,Demo,1,0.00,4900.00,4900.00,CreditCard,,,"3 years parts, 1 year labor (Free)","Relax2Zero 3D,",YES,,Cancelled,,,"DEMO CHAIR TO BE PICKED UP BY CUSTOMER SEPT 2,2018///REVISED TO 108847 (correct total amount )",Not Dispatched,1,6.00,DWA-9060USJ-9060BL-DEMO,4452.00,04408D,,,,,,,,,0.00,,,,,,,,,,0.00,,,,,,,,,
"CHAMPLAIN VALLEY FAIR 8/24-9/2/18 VERMONT, VT (IL)","CHAMPLAIN VALLEY FAIR 8/24-9/2/18 VERMONT, VT (IL)",Rolly San Jose,108847,8/28/2018 10:07:24 AM,Diana Wardell,NY,12901,Relax2Zero 3D,Demo Black,Demo,1,0.00,4452.00,4452.00,CreditCard,,,"3 years parts, 1 year labor (Free)","Relax2Zero 3D,",YES,9/2/2018 12:00:00 AM,Delivered,,,"DEMO CHAIR TO BE PICKED UP BY CUSTOMER SEPT 2,2018//$4452 was cleared by sales receipt. will wait for pickup confirmation 8/28/18 Hitomi//Cleared $4,452 in WF.",TX,1,6.00,DWA-9060USJ-9060BL-DEMO,4452.00,04408D,,,,,,,,,0.00,,,,,,,,,,0.00,,,,,,,,,
"CHAMPLAIN VALLEY FAIR 8/24-9/2/18 VERMONT, VT (IL)","CHAMPLAIN VALLEY FAIR 8/24-9/2/18 VERMONT, VT (IL)",Winston Melgar,108851,8/28/2018 1:33:32 PM,Steve Groleau,VT,05403,Relax2Zero 3D,Demo Black,Demo,1,0.00,4200.00,4200.00,Synchrony,,,"3 years parts, 1 year labor (Free)","Relax2Zero 3D,",YES,8/31/2018 12:00:00 AM,Delivered,,,"Confirmed synchrony account ($6,500) and original. will confirm pick up and NEEDS TO BE CHARGED. 8/29/18 HITOMI//Per.Rolly, he will charge synchrony and have sales draft signed. 8/31/18 Hitomi",TX,1,6.00,DWA-9060USJ-9060BL-DEMO,4200.00,,,6019170813105530,93580535,Las Vegas,36 months,,,,0.00,,,,,,,,,,0.00,,,,,,,,,
"CHAMPLAIN VALLEY FAIR 8/24-9/2/18 VERMONT, VT (IL)","CHAMPLAIN VALLEY FAIR 8/24-9/2/18 VERMONT, VT (IL)",Abagail Stirling,108868,8/29/2018 2:11:20 PM,Robert E Foss,FL,33542,Legacy 3D,Demo Black,Demo,1,0.00,4200.00,4200.00,CreditCard,,,"3 years parts, 1 year labor (Free)","Legacy 3D,",No,9/6/2018 12:00:00 AM,Delivered,,,"CC Josefina - 8/30/18 10:50am VM

Cleared $4,200 in WF by receipt. & login 8/29/18 Hitomi",FL,1,6.00,DWA-9150USJ-9150BL-DEMO,4200.00,01803C,,,,,,,,,0.00,,,,,,,,,,0.00,,,,,,,,,
"CHAMPLAIN VALLEY FAIR 8/24-9/2/18 VERMONT, VT (IL)","CHAMPLAIN VALLEY FAIR 8/24-9/2/18 VERMONT, VT (IL)",Rolly San Jose,108889,8/30/2018 9:04:24 AM,Murry Thompson,VT,05446,Relax2Zero 3D,Demo Black,Demo,1,0.00,4200.00,4200.00,Check,,,"3 years parts, 1 year labor (Free)","Relax2Zero 3D,",No,9/18/2018 12:00:00 AM,Delivered,,,"will confirm check #3018 - 8/30/18 Hitomi//Per Rolly , he will make deposit on 9/3 - 8/31/18 Hitomi//Rolly deposit $4,200 check. 9/4/18 Hitomi//Talked to June, they will plan to deliver after 9/15. go ahead to contact to customer , once check is cleared on 9/12 , I will let you know. 9/6/18 Hitomi
9/12/18 Hitomi confirmed with Yumi that check was cleared.",TX,1,6.00,DWA-9060USJ-9060BL-DEMO,4200.00,,,,,,,,,,0.00,,,,,,,,,,0.00,,,,,,,,,
"CHAMPLAIN VALLEY FAIR 8/24-9/2/18 VERMONT, VT (IL)","CHAMPLAIN VALLEY FAIR 8/24-9/2/18 VERMONT, VT (IL)",Winston Melgar,108896,8/30/2018 12:05:49 PM,Joy Dubuque,VT,05494,Legacy 3D,Demo Black,Demo,1,0.00,4000.00,4000.00,Synchrony,,,"3 years parts, 1 year labor (Free)","Legacy 3D,",No,8/31/2018 12:00:00 AM,Delivered,,,"Deliver on 8/31 Friday night by Winston and Rolly//Confirmed original. will confirm the account 8/30/18 Hitomi//Confirmed synchrony account (8,500) Rolly said he will charge synchrony and have sales draft signed.-  8/31/18 Hitomi
4/10 - Alysa - We went to repair chair 4/4/19 and the chair is still not working properly, Scheduled customer for body replacement Friday 4/19 between 2-6PM",TX,1,6.00,DWA-9150USJ-9150BL-DEMO,4000.00,,,6019170813108369,93676704,San Diego,36 months,,,,0.00,,,,,,,,,,0.00,,,,,,,,,
"CHAMPLAIN VALLEY FAIR 8/24-9/2/18 VERMONT, VT (IL)","CHAMPLAIN VALLEY FAIR 8/24-9/2/18 VERMONT, VT (IL)",Winston Melgar,108900,8/30/2018 12:36:50 PM,Cheryl Williams,VT,05446,Legacy 3D,Demo Black,Demo,1,0.00,4000.00,4000.00,Synchrony,,,"3 years parts, 1 year labor (Free)","Legacy 3D,",No,9/1/2018 12:00:00 AM,Delivered,,,"Deliver demo chair on sept 1, sat night//confirmed original. will confirm the account 8/30/18 Hitomi//Confirmed synchrony account (8,500) *Rolly said he will charge synchrony and have sales draft signed.  8/31/18 Hitomi",TX,1,6.00,DWA-9150USJ-9150BL-DEMO,4000.00,,,6019170813108393,93677243,San Diego,36 months,,,,0.00,,,,,,,,,,0.00,,,,,,,,,
"CHAMPLAIN VALLEY FAIR 8/24-9/2/18 VERMONT, VT (IL)","CHAMPLAIN VALLEY FAIR 8/24-9/2/18 VERMONT, VT (IL)",Abagail Stirling,108924,8/31/2018 12:02:29 PM,Melinda White,VT,05478,Relax2Zero 3D,Demo Black,Demo,1,0.00,4000.00,4000.00,Synchrony,CreditCard,COD,"3 years parts, 1 year labor (Free)","Relax2Zero 3D,",No,,Delivered,,Chicago must have another demo to d,"Chicago must have another demo chair to deliver to this customer. Balance of $1500 will be paid as COD///Confirmed synchrony account (1,500) and original. $1,000 is cleared in WF. ***Please charge $1,500 before delivery and collect COD $1,500. have sales draft signed *** 9/6/18 Hitomi
SYNCHRONY $1500 #013390 - STEPHANY 10/24/18
WF $1500 CLEARED AUTH# 663278 - STEPHANY 10/25/18",TX,1,6.00,DWA-9060USJ-9060BL-DEMO,1500.00,,,6019170813109813,93719791,San Diego,12 months,,,,1000.00,582068,,,,,,,,,1500.00,,,,,,,,,
"CHAMPLAIN VALLEY FAIR 8/24-9/2/18 VERMONT, VT (IL)","CHAMPLAIN VALLEY FAIR 8/24-9/2/18 VERMONT, VT (IL)",Ilene Maynard,108926,8/31/2018 3:10:49 PM,Martha Gardner,NY,12926,Legacy 3D,New Choco,New,1,0.00,4900.00,4900.00,Synchrony,,,"3 years parts, 1 year labor (Free)","Legacy 3D,",No,9/28/2018 12:00:00 AM,Delivered,,,"Confirmed synchrony account (8,500) and original. ***Please charge $4,900 before delivery and have sales draft signed.*** 9/6/18 Hitomi
SYNCHRONY $ 4900 #013785 - STEPHANY 10/24/18",TX,1,6.00,DWA-9150USJ-9150CH,4900.00,,,6019170813110894,93747320,San Diego,36 months,,,,0.00,,,,,,,,,,0.00,,,,,,,,,
"CHAMPLAIN VALLEY FAIR 8/24-9/2/18 VERMONT, VT (IL)","CHAMPLAIN VALLEY FAIR 8/24-9/2/18 VERMONT, VT (IL)",Ilene Maynard,108940,9/1/2018 7:18:24 AM,Brian Blow,VT,05495,Relax2Zero 3D,New Black,New,1,0.00,4900.00,4900.00,Synchrony,,,"3 years parts, 1 year labor (Free)","Relax2Zero 3D,",No,9/28/2018 12:00:00 AM,Delivered,,,"Deliver within 2 weeks from sept 2///COnfirmed synchrony account (8,500) and original. ***PLease charge $4,900 before delivery and have sales draft signed. ***9/6/18 Hitomi
SYNCHRONY $4900 #013490 - CONFIRMED STEPHANY 10/24/18",TX,1,6.00,DWA-9060USJ-9060BL,4900.00,,,6019170813111413,93757893,San Diego,36 months,,,,0.00,,,,,,,,,,0.00,,,,,,,,,
"CHAMPLAIN VALLEY FAIR 8/24-9/2/18 VERMONT, VT (IL)","CHAMPLAIN VALLEY FAIR 8/24-9/2/18 VERMONT, VT (IL)",Ilene Maynard,108941,9/1/2018 8:30:11 AM,Christine Boera,VT,05465,Legacy 3D,New Black,New,1,0.00,4900.00,4900.00,CreditCard,,,"3 years parts, 1 year labor (Free)","Legacy 3D,",No,9/18/2018 12:00:00 AM,Delivered,,,"Deliver within 2 weeks from sept 2///COnfirmed $4,900.00 in WF. 9/4/18 Hitomi
9/4Courtesy text @ 12:09PM
10/5Maritza- Customer called requesting a copy of their original invoice.",TX,1,6.00,DWA-9150USJ-9150BL,4900.00,50965P,,,,,,,,,0.00,,,,,,,,,,0.00,,,,,,,,,
"CHAMPLAIN VALLEY FAIR 8/24-9/2/18 VERMONT, VT (IL)","CHAMPLAIN VALLEY FAIR 8/24-9/2/18 VERMONT, VT (IL)",Rolly San Jose,108942,9/1/2018 8:36:24 AM,RAYMOND BATHALON,VT,05868,Relax2Zero 3D,New Black,New,1,0.00,4900.00,4900.00,Synchrony,,,"3 years parts, 1 year labor (Free)","Relax2Zero 3D,",No,9/17/2018 12:00:00 AM,Delivered,,,"DELIVER WITHIN 2 WEEKS FROM SEPT 2//Confirmed synchrony account (5,900) and original. ***Please charge $4,900 before delivery and have sales draft signed. *** 9/4/18 Hitomi
9/4Maritza Courtesy text @ 3:09PM
9/13 Rolly informed that he got contacted by customer requesting cancellation however they agreed too late to cancel.  - Hitomi",TX,1,6.00,DWA-9060USJ-9060BL,4900.00,,,6019170813111728,93771074,San Diego,36 months,,,,0.00,,,,,,,,,,0.00,,,,,,,,,
"CHAMPLAIN VALLEY FAIR 8/24-9/2/18 VERMONT, VT (IL)","CHAMPLAIN VALLEY FAIR 8/24-9/2/18 VERMONT, VT (IL)",Rolly San Jose,108950,9/1/2018 2:50:50 PM,Anita Licata,VT,05401,Relax2Zero 3D,New Choco,New,1,0.00,4900.00,4900.00,CreditCard,,,"3 years parts, 1 year labor (Free)","Relax2Zero 3D,",No,9/16/2018 12:00:00 AM,Delivered,,,"DELIVER WITHIN 2 WEEKS FROM SEPT 2///Confirmed $4,900.00 in WF.  9/4/18 Hitomi
9/4Maritza Courtesy text @ 3:13pm",TX,1,6.00,DWA-9060USJ-9060BR,4900.00,09134G,,,,,,,,,0.00,,,,,,,,,,0.00,,,,,,,,,
"CHAMPLAIN VALLEY FAIR 8/24-9/2/18 VERMONT, VT (IL)","CHAMPLAIN VALLEY FAIR 8/24-9/2/18 VERMONT, VT (IL)",Abagail Stirling,108956,9/1/2018 4:14:42 PM,Michael Lamontagne,VT,05446,Pegasus,Demo Choco,Demo,1,0.00,4900.00,4900.00,Synchrony,,,"3 years parts, 1 year labor (Free)","Pegasus,",No,,Delivered,,,"Deliver by Winston and Rolly night of sept 1,2018///COnfirmed synchrony account and original. will confirm delivery confirmation and synchrony charged. 9/4/18 Hitomi",TX,1,6.00,DWA-9400Pegasus-BR-DEMO,4900.00,,,6019170813114565,93822335,San Diego,48 months,,,,0.00,,,,,,,,,,0.00,,,,,,,,,
"CHAMPLAIN VALLEY FAIR 8/24-9/2/18 VERMONT, VT (IL)","CHAMPLAIN VALLEY FAIR 8/24-9/2/18 VERMONT, VT (IL)",Ilene Maynard,108957,9/1/2018 4:20:32 PM,Randall Raner,VT,05452,Relax2Zero 3D,New Choco,New,1,0.00,4500.00,4500.00,Synchrony,,,"3 years parts, 1 year labor (Free)","Relax2Zero 3D,",No,9/16/2018 12:00:00 AM,Delivered,,,"Deliver within 2 weeks from sept 2, 2018.///COnfirmed synchrony account (10,500) and original.( combined #108958)***Please charge $4,500 before delivery and have sales draft signed.*** 9/4/18 Hitomi
9/4Maritza Courtesy text @ 3:15PM",TX,1,6.00,DWA-9060USJ-9060BR,4500.00,,,6019170813114508,93821805,San Diego,36 months,,,,0.00,,,,,,,,,,0.00,,,,,,,,,
"CHAMPLAIN VALLEY FAIR 8/24-9/2/18 VERMONT, VT (IL)","CHAMPLAIN VALLEY FAIR 8/24-9/2/18 VERMONT, VT (IL)",Ilene Maynard,108958,9/1/2018 4:28:04 PM,Randall Raner,FL,34688,Relax2Zero 3D,New Choco,New,1,0.00,4500.00,4500.00,Synchrony,,,"3 years parts, 1 year labor (Free)","Relax2Zero 3D,",No,9/10/2018 12:00:00 AM,Delivered,,,"CC Josefina - 9/4/18 4:50pm

Deliver within 2 weeks from sept 2, 2018///COnfirmed synchrony account (10,500) and original.(combined #108957)***Please charge $4,500 before delivery and have sales draft signed.*** 9/4/18 Hitomi",FL,1,6.00,DWA-9060USJ-9060BR,4500.00,,,6019170813114508,93821805,San Diego,36 months,,,,0.00,,,,,,,,,,0.00,,,,,,,,,
"CHAMPLAIN VALLEY FAIR 8/24-9/2/18 VERMONT, VT (IL)","CHAMPLAIN VALLEY FAIR 8/24-9/2/18 VERMONT, VT (IL)",Ilene Maynard,108978,9/2/2018 12:56:34 PM,Christina Churchill,VT,05450,Legacy 3D,Demo Choco,Demo,1,0.00,4000.00,4000.00,Synchrony,,,"3 years parts, 1 year labor (Free)","Legacy 3D,",YES,9/2/2018 12:00:00 AM,Delivered,,,"Customer picked up today sept 2, 2018//Confirmed synchrony account (6,000) and original. will confirm charging and  sales draft 9/4/18 Hitomi",TX,1,6.00,DWA-9150USJ-9150CH-DEMO,4000.00,,,6019170813115570,93846569,San Diego,36 months,,,,0.00,,,,,,,,,,0.00,,,,,,,,,
"CHAMPLAIN VALLEY FAIR 8/24-9/2/18 VERMONT, VT (IL)","CHAMPLAIN VALLEY FAIR 8/24-9/2/18 VERMONT, VT (IL)",Rolly San Jose,108986,9/2/2018 2:42:36 PM,Melissa Boomhower,VT,05478,Relax2Zero 3D,New Choco,New,1,0.00,4900.00,4900.00,Synchrony,,,"3 years parts, 1 year labor (Free)","Relax2Zero 3D,",No,9/17/2018 12:00:00 AM,Delivered,,,"Deliver within 2 weeks from sept 2, 2018//Confirmed synchrony account (5,900) and original. ***Please charge $4,900 before delivery and have sales draft signed. *** 9/4/18 Hitomi
 Courtesy Call made on 9/5/2018 by Mimi",TX,1,6.00,DWA-9060USJ-9060BR,4900.00,,,6019170813117220,93871290,San Diego,48 months,,,,0.00,,,,,,,,,,0.00,,,,,,,,,
"CHAMPLAIN VALLEY FAIR 8/24-9/2/18 VERMONT, VT (IL)","CHAMPLAIN VALLEY FAIR 8/24-9/2/18 VERMONT, VT (IL)",Rolly San Jose,108990,9/2/2018 6:29:53 PM,Serina Phuong,VT,05446,Legacy 3D,New Black,New,1,0.00,4600.00,4600.00,Synchrony,,,"3 years parts, 1 year labor (Free)","Legacy 3D,",No,9/16/2018 12:00:00 AM,Delivered,,,"Deliver within 2 weeks from sept 2, 2018//COnfirmed synchrony account (5,600) and original. ***Please charge $4,600 before delivery and have sales draft signed. *** 9/4/18 Hitomi
 Courtesy Call made on 9/5/2018 by Mimi",TX,1,6.00,DWA-9150USJ-9150BL,4600.00,,,6019170813117980,93884279,San Diego,36 months,,,,0.00,,,,,,,,,,0.00,,,,,,,,,
"CHAMPLAIN VALLEY FAIR 8/24-9/2/18 VERMONT, VT (IL)","CHAMPLAIN VALLEY FAIR 8/24-9/2/18 VERMONT, VT (IL)",Rolly San Jose,108993,9/2/2018 9:01:51 PM,Carrie Cook,CA,93446,Relax2Zero 3D,New Choco,New,1,0.00,4900.00,4900.00,CreditCard,COD,,"3 years parts, 1 year labor (Free)","Relax2Zero 3D,",No,,Hold,,,"New address to be given by Carrie. Pls hold for the meantime. Balance $4700 to paid as COD//COnfirmed 200.00 in WF. COD $4,700. 9/4/18 Hitomi
9/4printed Courtesy text sent. Will be waiting for an update.
12/6Maritza- Have not received any update from customer. Will place on hold.
2/15Maritza- Customer has not yet called will place in sales reps folder.",CA,1,6.00,DWA-9060USJ-9060BR,200.00,371945,,,,,,,,,4700.00,,,,,,,,,,0.00,,,,,,,,,
"CHAMPLAIN VALLEY FAIR 8/24-9/2/18 VERMONT, VT (IL)","CHAMPLAIN VALLEY FAIR 8/24-9/2/18 VERMONT, VT (IL)",Abagail Stirling,109002,9/3/2018 1:44:36 AM,James Cochran,VT,05653,Legacy 3D,Demo Black,Demo,1,0.00,4200.00,4200.00,COD,,,"3 years parts, 1 year labor (Free)","Legacy 3D,",No,,Cancelled,,,"Per Rolly, whole amount is COD. ***PLease try to charge $4,200 before delivery. *** Please let CA office  know if customer didn't want to pay before delivery. 9/6/18 Hitomi
//Cancellation was confirmed with Abigail. 9/13/18 Hitomi",TX,1,6.00,DWA-9150USJ-9150BL-DEMO,4200.00,,,,,,,,,,0.00,,,,,,,,,,0.00,,,,,,,,,
"CHAMPLAIN VALLEY FAIR 8/24-9/2/18 VERMONT, VT (IL)","CHAMPLAIN VALLEY FAIR 8/24-9/2/18 VERMONT, VT (IL)",Ilene Maynard,109003,9/3/2018 1:51:02 AM,Shawn Miller,VT,05656,Legacy 3D,New Black,New,1,0.00,4900.00,4900.00,Synchrony,COD,,"3 years parts, 1 year labor (Free)","Legacy 3D,",No,,Cancelled,,,"Balance payment $1400 COD - charge before delivery//#8_Confirmed synchrony account (3500) and original.***Please charge $3,500 before delivery and have sales draft signed. COD$1,400.*** 9/4/18 Hitomi
Spoke with customer, he does not sure he purchased chair, he will contact sales person to either keep the chair or cancel the order. 9/5/2018. Mimi
9/13/18 - Cancellation that sales rep, Ilene approved was informed by June. - Hitomi",TX,1,6.00,DWA-9150USJ-9150BL,3500.00,,,6019170813102255,93489901,Las Vegas,36 months,,,,1400.00,,,,,,,,,,0.00,,,,,,,,,
"CHAMPLAIN VALLEY FAIR 8/24-9/2/18 VERMONT, VT (IL)","CHAMPLAIN VALLEY FAIR 8/24-9/2/18 VERMONT, VT (IL)",Rolly San Jose,109004,9/3/2018 1:59:38 AM,Nadihusska Marin,VT,05655,Relax2Zero 3D,New Black,New,1,0.00,4900.00,4900.00,CreditCard,Synchrony,,"3 years parts, 1 year labor (Free)","Relax2Zero 3D,",No,,Cancelled,,,"Balance $4700 to be processed in synchrony financing after closing of her house loan which is this week. She will call rolly to give go signal to process synchrony week of sept 10
//COnfirmed $200.00 in WF. placed on hold until Rolly processed synchrony  9/4/18 Hitomi",TX,1,6.00,DWA-9060USJ-9060BL,200.00,00130Z,,,,,,,,,4700.00,,,,,,,,,,0.00,,,,,,,,,
