﻿Original Event Name,Event Name,Sales Person,Order Number,Order Date,Customer Name,State,Zip,Product Name,Color,Product Status,QTY,Tax,Total Before Tax,Order Total,Primary Payment Method,Second Payment Method,Thirdl Payment Method,Warranty,Order Items,Pick up,Delivered On,Order Status,Chair Type,Order Notes,Private Note,Branch,No Tax,Actual Tax Rate,SKU,Primary Payment Balance,Primary Authorize Number,Primary Purchase Order Number,Primary Synchrony Account Number,Primary Synchrony Application Key,Primary Synchrony Account Info,Primary Synchrony Term,Second Payment Balance,Second Authorize Number,Second Purchase Order Number,Second Synchrony Account Number,Second Synchrony Application Key,Second Synchrony Account Info,Second SynchronyTerm,Third Payment Balance,Third Authorize Number,Third Purchase Order Number,Third Synchrony Account Number,Third Synchrony Application Key,Third Synchrony Account Info,Third Synchrony Term
EVERETT FALL HOME SHOW 9/28-30/18 EVERETT (WA),EVERETT FALL HOME SHOW 9/28-30/18 EVERETT (WA),Jason Liu,110007,10/1/2018 3:06:58 PM,Brandy Elliot,WA,98168,Legacy 3D,Demo Black,Demo,1,0.00,4000.00,4000.00,CreditCard,PurchaseOrder,,"3 years parts, 1 year labor (Free)","Legacy 3D,",No,,Cancelled,,,"Confirmed $100-#o9AK on Square.
-Clarifying the payment detail with Scott. 10/1/18 Riho
CUSTOMER EMAILED SCOTT REGARDING CANCELLATION CANNOT AFFORD MASSAGE CHAIR. REFUNDED $100 - STEPHANY 10/11/18",WA,1,9.70,DWA-9150USJ-9150BL-DEMO,100.00,Square #o9AK,,,,,,3900.00,,In House Finance Layaway,,,,,0.00,,,,,,
EVERETT FALL HOME SHOW 9/28-30/18 EVERETT (WA),EVERETT FALL HOME SHOW 9/28-30/18 EVERETT (WA),Jason Liu,110009,10/1/2018 3:36:44 PM,Rhonda O'neill,WA,98033,Pegasus 2.0,New Choco,New,1,596.55,6900.00,7496.55,CreditCard,COD,,"5 years parts, 1 year labor (Free)","Pegasus 2.0,",No,,Hold,,,Customer will call when they want to schedule a delivery.  Moving.,Not Dispatched,0,9.70,DWA-9400Pegasus2.0-BR,100.00,Square #ZNN9,,,,,,7400.00,,,,,,,0.00,,,,,,
EVERETT FALL HOME SHOW 9/28-30/18 EVERETT (WA),EVERETT FALL HOME SHOW 9/28-30/18 EVERETT (WA),Jason Liu,110010,10/1/2018 3:47:37 PM,Edward and Deborah Hayman,WA,98272,Relax2Zero 3D,Demo Black,Demo,1,318.32,4031.68,4350.00,CreditCard,CreditCard,,"3 years parts, 1 year labor (Free)","Relax2Zero 3D,",No,10/9/2018 12:00:00 AM,Delivered,,,"Customer is moving.  will call when ready for the chair
Customer called and is ready for the chair!!
Scott 10/6/2018
CLEARED COD $4250 ##Z7J2  11/02/18 STEPHANY",WA,0,9.70,DWA-9060USJ-9060BL-DEMO,100.00,Square #sMCX,,,,,,4250.00,Square #Z7J2,,,,,,0.00,,,,,,
