﻿Original Event Name,Event Name,Sales Person,Order Number,Order Date,Customer Name,State,Zip,Product Name,Color,Product Status,QTY,Tax,Total Before Tax,Order Total,Primary Payment Method,Second Payment Method,Thirdl Payment Method,Warranty,Order Items,Pick up,Delivered On,Order Status,Chair Type,Order Notes,Private Note,Branch,No Tax,Actual Tax Rate,SKU,Primary Payment Balance,Primary Authorize Number,Primary Purchase Order Number,Primary Synchrony Account Number,Primary Synchrony Application Key,Primary Synchrony Account Info,Primary Synchrony Term,Second Payment Balance,Second Authorize Number,Second Purchase Order Number,Second Synchrony Account Number,Second Synchrony Application Key,Second Synchrony Account Info,Second SynchronyTerm,Third Payment Balance,Third Authorize Number,Third Purchase Order Number,Third Synchrony Account Number,Third Synchrony Application Key,Third Synchrony Account Info,Third Synchrony Term
CES 1/9-12/18 (NV),CES 1/9-12/18 (NV),Rodrigo Malabunga,102835,1/10/2018 7:48:14 PM,Simon Siu,NV,89139,Tech Touch 3D,Choco Brown,New,1,0.00,4500.00,4500.00,Synchrony,,,"3 years parts, 1 year labor (Free)","Tech Touch 3D,Tourmaline Pad for Legacy 3D,",No,1/10/2018 12:00:00 AM,Delivered,,,"Sales Team will deliver this chair on same day. By Kaz
confirmed the account in Synchrony ($6,000). confirmed it charged $4,500.(Auth#010411) 1/11/18 Hitomi",NV,1,8.25,DWA-9250USJ-9250CH,4500.00,,,6034610083041312,83553856,Las Vegas,36 months,0.00,,,,,,,0.00,,,,,,
CES 1/9-12/18 (NV),CES 1/9-12/18 (NV),Rolly San Jose,102837,1/10/2018 7:58:19 PM,Kerry Jocobs,FL,33156,Pegasus,Choco Brown,New,1,0.00,4200.00,4200.00,CreditCard,COD,,"3 years parts, 1 year labor (Free)","Pegasus,",No,,Cancelled,,,"confirmed $300 in Wells Fargo. 1/11/18 Hitomi
CANCELLED AND REFUNDED $300 ON 1.18.18 BY ALICIA, ROLLY APPROVED",FL,1,8.25,DWA-9400Pegasus-BR,300.00,07433D,,,,,,3900.00,,,,,,,0.00,,,,,,
CES 1/9-12/18 (NV),CES 1/9-12/18 (NV),Kaz Ohashi,102839,1/10/2018 8:03:26 PM,Jan Bednar,FL,33441,Tech Touch 3D,Demo Black,Demo,1,0.00,4000.00,4000.00,CreditCard,,,"3 years parts, 1 year labor (Free)","Tech Touch 3D,",No,1/29/2018 12:00:00 AM,Delivered,,Free one ASUS Tablet,"CES Special
Free one ASUS Tablet
confirmed $4,000 in Wells Fargo. 1/11/18 Hitomi",FL,1,8.25,DWA-9250USJ-9250BL-DEMO,4000.00,820078,,,,,,0.00,,,,,,,0.00,,,,,,
CES 1/9-12/18 (NV),CES 1/9-12/18 (NV),Rodrigo Malabunga,102842,1/10/2018 8:15:24 PM,Julie Daum,NY,10028,Majesty,Black,New,1,0.00,3200.00,3200.00,CreditCard,,,"3 years parts, 1 year labor (Free)","Majesty,",No,2/20/2018 12:00:00 AM,Delivered,,,"confirmed $3,200 in Wells Fargo. 1/11/18 Hitomi",TX,1,8.25,DWA-8000DWA-8000-BL,3200.00,024207,,,,,,0.00,,,,,,,0.00,,,,,,
CES 1/9-12/18 (NV),CES 1/9-12/18 (NV),Rodrigo Malabunga,102844,1/10/2018 8:26:03 PM,Kristina Moore,CA,90814,Relax2Zero 3D,Choco Brown,New,1,0.00,3500.00,3500.00,CreditCard,,,"3 years parts, 1 year labor (Free)","Relax2Zero 3D,",No,1/22/2018 12:00:00 AM,Delivered,,,"Can't read customer's Hand writing.
3634 E Fook St or Cook St?
confirmed $3,500 in Wells Fargo. 1/11/18 Hitomi",CA,1,8.25,DWA-9060USJ-9060BR,3500.00,05735D,,,,,,0.00,,,,,,,0.00,,,,,,
CES 1/9-12/18 (NV),CES 1/9-12/18 (NV),Rodrigo Malabunga,102846,1/10/2018 8:29:28 PM,Anthony Han,HI,96813,Majesty,Choco Brown,New,1,0.00,4000.00,4000.00,CreditCard,,,"3 years parts, 1 year labor (Free)","Majesty,Tourmaline Pad for Serenity,",No,1/31/2018 12:00:00 AM,Delivered,,,"confirmed $4,000 in Wells Fargo. 1/11/18 Hitomi
Delivery date is not correct, but customer's signature is on the confirmation. 1/8/18 Riho",HI,1,8.25,DWA-8000DWA-8000-BR,4000.00,610105,,,,,,0.00,,,,,,,0.00,,,,,,
CES 1/9-12/18 (NV),CES 1/9-12/18 (NV),Rodrigo Malabunga,102848,1/10/2018 9:03:15 PM,Kai Freitas,NV,89178,Pegasus,Demo Choco Brown,Demo,1,0.00,3800.00,3800.00,Cash,CreditCard,Cash,"3 years parts, 1 year labor (Free)","Tourmaline Pad for Pegasus,Pegasus,",YES,1/15/2018 12:00:00 AM,Delivered,,Pick up at Warehouse,"Please collect the remaining balance $3700 when they pick up. 1/11/18 Riho
President Michael received $100 deposit cash. 1/15/18 Hitomi
confirmed $3205 COD in Wells Fargo. 1/19/18 Hitomi
COD $495 cash is stored in the safe by Kohei.2/1/18 Hitomi",NV,1,8.25,DWA-9400Pegasus-BR-DEMO,100.00,,,,,,,3205.00,410098/04272B/015280,,,,,,495.00,,,,,,
CES 1/9-12/18 (NV),CES 1/9-12/18 (NV),REX QUIRIMIT,102862,1/11/2018 1:25:52 PM,BRIAN ANZALONE,NV,89118,Legacy,Choco Brown,New,1,0.00,3500.00,3500.00,CreditCard,Cash,,"3 years parts, 1 year labor (Free)","Legacy,",No,1/11/2018 12:00:00 AM,Delivered,,,"99 RANCH LAS VEGAS, NOT CES - HIDE APPROVED FOR REX TO SELL CHAIR - 1/11/18 STEPHANY
3000 COD AUTH 01176Z CLEARED - 1/16/18 STEPHANY 
500 CASH RECEIVED BY REX - 1/16/18 STEPHANY",NV,1,8.25,DWA-9100DWA-9100CH,3000.00,01176Z,,,,,,500.00,,,,,,,0.00,,,,,,
CES 1/9-12/18 (NV),CES 1/9-12/18 (NV),Rodrigo Malabunga,102883,1/11/2018 9:02:07 PM,David Chapman,CA,92831,Tech Touch 3D,Demo Black,Demo,1,0.00,4000.00,4000.00,CreditCard,,,"3 years parts, 1 year labor (Free)","Tech Touch 3D,",No,2/2/2018 12:00:00 AM,Delivered,,Free Asus Tablet,Confirmed $4000 in Wells Fargo. 1/12/18 Riho,CA,1,8.25,DWA-9250USJ-9250BL-DEMO,4000.00,00084D,,,,,,0.00,,,,,,,0.00,,,,,,
CES 1/9-12/18 (NV),CES 1/9-12/18 (NV),Hidemitsu Yoshida,102884,1/11/2018 9:40:10 PM,Steven Kim,CA,94303,Tech Touch 3D,Demo Choco Brown,Demo,1,0.00,3800.00,3800.00,CreditCard,CreditCard,Synchrony,"3 years parts, 1 year labor (Free)","Tech Touch 3D,Tourmaline Pad for Legacy 3D,",No,2/7/2018 12:00:00 AM,Delivered,,,"Confirmed $1000 and $1300 in Wells Fargo.
*Please charge $1500 from the synchrony account before delivery* 1/12/18 Riho
Authorization # 026224",CA,1,8.25,DWA-9250USJ-9250CH-DEMO,1300.00,144821,,,,,,1000.00,111115,,,,,,1500.00,,,6034610083041403,83556554,San Diego,24 months
CES 1/9-12/18 (NV),CES 1/9-12/18 (NV),Rodrigo Malabunga,102885,1/11/2018 9:44:23 PM,An Nguyen,GA,30084,Majesty,Black,New,1,0.00,3200.00,3200.00,Cash,CreditCard,,"3 years parts, 1 year labor (Free)","Majesty,",No,1/23/2018 12:00:00 AM,Delivered,,,"*COD $2700* -- SQUARE# zzix
Kaz keep $500 cash -Need to be confirmed by Accounting Dep. after the show. 1/12/18 Riho
President Michael received $500 deposit cash. 1/15/18 Hitomi",FL,1,8.25,DWA-8000DWA-8000-BL,500.00,,,,,,,2700.00,zzix,,,,,,0.00,,,,,,
CES 1/9-12/18 (NV),CES 1/9-12/18 (NV),Kaz Ohashi,102886,1/11/2018 9:51:02 PM,Joel Sloane,PA,19444,Tech Touch 3D,Black,New,1,0.00,4000.00,4000.00,CreditCard,CreditCard,,"3 years parts, 1 year labor (Free)","Tech Touch 3D,",No,2/18/2018 12:00:00 AM,Delivered,,Free Asus Tablet,"*COD $3900*
Confirmed $100 in Wells Fargo. 1/12/18 Riho
CONFIRMED COD 3900 Tb5Z - STEPHANY 03/08/18",TX,1,8.25,DWA-9250USJ-9250BL,100.00,861110,,,,,,3900.00,Tb5Z,,,,,,0.00,,,,,,
CES 1/9-12/18 (NV),CES 1/9-12/18 (NV),Kaz Ohashi,102887,1/11/2018 9:58:03 PM,Elliot Sloane,FL,34229,Tech Touch 3D,Black,New,1,0.00,4000.00,4000.00,CreditCard,CreditCard,,"3 years parts, 1 year labor (Free)","Tech Touch 3D,",No,1/26/2018 12:00:00 AM,Delivered,,Free ASUS tablet,"*COD $3900*  -- SQUARE # ILfg
Confirmed $100 in Wells Fargo. 1/12/18 Riho
COD confirmed $3900 in Square. 1/30/18 Hitomi",FL,1,8.25,DWA-9250USJ-9250BL,100.00,865184,,,,,,3900.00,ILfg,,,,,,0.00,,,,,,
CES 1/9-12/18 (NV),CES 1/9-12/18 (NV),Kohei Uno,102888,1/11/2018 10:10:40 PM,Andrey Kunov Svic,CA,94404,Tech Touch 3D,Black,New,1,0.00,4000.00,4000.00,CreditCard,,,"3 years parts, 1 year labor (Free)","Tech Touch 3D,",No,2/7/2018 12:00:00 AM,Delivered,,Free ASUS Tablet,Confirmed $4000 in Wells Fargo. 1/12/18 Riho,CA,1,8.25,DWA-9250USJ-9250BL,4000.00,05638G,,,,,,0.00,,,,,,,0.00,,,,,,
CES 1/9-12/18 (NV),CES 1/9-12/18 (NV),Rolly San Jose,102889,1/11/2018 10:26:13 PM,Derek Cahill,CA,92673,Pegasus,Black,New,1,0.00,4546.00,4546.00,CreditCard,,,"3 years parts, 1 year labor (Free)","Pegasus,",No,,Cancelled,,,Wife will come to check a chair at Gardena,Not Dispatched,1,8.25,DWA-9400Pegasus-BL,300.00,01138D,,,,,,0.00,,,,,,,0.00,,,,,,
CES 1/9-12/18 (NV),CES 1/9-12/18 (NV),Rolly San Jose,102890,1/11/2018 10:43:05 PM,Josh Engel,NJ,07726,Pegasus,Black,New,1,0.00,4546.00,4546.00,Synchrony,,,"3 years parts, 1 year labor (Free)","Pegasus,",No,2/4/2018 12:00:00 AM,Delivered,,,"Confirmed the application, PLEASE CHARGE $4546 before delivery. 1/12/18 Riho
Customer asked to change a color black to BROWN. 1/15/18 Kaz",TX,1,8.25,DWA-9400Pegasus-BL,4546.00,,,6034610083042898,83596476,San Diego,36 months,0.00,,,,,,,0.00,,,,,,
CES 1/9-12/18 (NV),CES 1/9-12/18 (NV),Mario Higareda,102891,1/11/2018 11:38:30 PM,HOWARD OSMAN,VA,20120,Relax2Zero 3D,Choco Brown,New,1,0.00,3500.00,3500.00,Synchrony,,,"3 years parts, 1 year labor (Free)","Relax2Zero 3D,",No,2/2/2018 12:00:00 AM,Delivered,,,"Confirmed the Synchrony account. 1/12/18 Riho
*Please charge $3500 before delivery*",TX,1,8.25,DWA-9060USJ-9060BR,3500.00,,,6034610083042914,83596746,San Diego,36 months,0.00,,,,,,,0.00,,,,,,
CES 1/9-12/18 (NV),CES 1/9-12/18 (NV),Kohei Uno,102906,1/12/2018 5:34:24 PM,Gilbert Le,CA,91764,Tech Touch 3D,Black,New,1,0.00,3800.00,3800.00,CreditCard,,,"3 years parts, 1 year labor (Free)","Tech Touch 3D,",YES,1/15/2018 12:00:00 AM,Delivered,,Pick up from Gardena Office,"confirmed $3,800 in Wells Fargo. customer will call when it ready. 1/15/18 Hitomi",CA,1,8.25,DWA-9250USJ-9250BL,3800.00,01323C,,,,,,0.00,,,,,,,0.00,,,,,,
CES 1/9-12/18 (NV),CES 1/9-12/18 (NV),Rodrigo Malabunga,102907,1/12/2018 5:38:40 PM,Alex Truong,WA,98030,Tech Touch 3D,Choco Brown,New,1,0.00,4196.00,4196.00,Synchrony,,,"3 years parts, 1 year labor (Free)","Tech Touch 3D,",No,1/27/2018 12:00:00 AM,Delivered,,Free ASUS Tablet,"CHARGE SYNCHRONY BEFORE DELIVERY - 1/15/18 STEPHANY
WE CANNOT GET TECH TOUCH 3D CHOCO YET DUE TO FINANCIAL ISSUES WITH WAREHOUSE D, ROD CALLED CUSTOMER AND INFORMED HIM HIS DELIVERY WILL TAKE 2-3 WEEKS DUE TO THIS DELAY. I WILL FOLLOW UP WITH THIS IN A WEEK - 1/15/18 STEPHANY",WA,1,8.25,DWA-9250USJ-9250CH,4196.00,,,6034610083043904,83596440,San Diego,36 months,0.00,,,,,,,0.00,,,,,,
CES 1/9-12/18 (NV),CES 1/9-12/18 (NV),Hidemitsu Yoshida,102908,1/12/2018 5:46:06 PM,Jean Hee Pak,NV,89144,Pegasus,Choco Brown,New,1,0.00,4500.00,4500.00,Synchrony,,,"3 years parts, 1 year labor (Free)","Chair Pad for Pegasus,Pegasus,",No,1/18/2018 12:00:00 AM,Delivered,,"Two Chair Pads
Deliver any Friday. Preferred 1/26","confirmed the account ($8,500) in Synchrony. *Please charge before delivery* 1/15/18 Hitomi
CHARGED SYNCHRONY  AUTH # 017495 $4500 - STEPHANY 01/17/18",NV,1,8.25,DWA-9400Pegasus-BR,4500.00,,,6034610083044290,83629132,San Diego,48 months,0.00,,,,,,,0.00,,,,,,
CES 1/9-12/18 (NV),CES 1/9-12/18 (NV),Kohei Uno,102909,1/12/2018 5:49:16 PM,Julian Joseph,GA,30310,Majesty,Black,New,1,0.00,3100.00,3100.00,CreditCard,,,"3 years parts, 1 year labor (Free)","Majesty,",No,1/23/2018 12:00:00 AM,Delivered,,,confirmed $3100 in Square. 1/15/18 Hitomi,FL,1,8.25,DWA-8000DWA-8000-BL,3100.00,KL11,,,,,,0.00,,,,,,,0.00,,,,,,
CES 1/9-12/18 (NV),CES 1/9-12/18 (NV),Rodrigo Malabunga,102910,1/12/2018 5:57:53 PM,Maxxon Company,CA,91748,Pegasus,Choco Brown,New,1,0.00,4289.00,4289.00,CreditCard,,,"3 years parts, 1 year labor (Free)","Pegasus,",No,1/24/2018 12:00:00 AM,Delivered,,,"Call for Delivery Address
Customer use Company Credit",CA,1,8.25,DWA-9400Pegasus-BR,4289.00,Vg5R,,,,,,0.00,,,,,,,0.00,,,,,,
CES 1/9-12/18 (NV),CES 1/9-12/18 (NV),Rolly San Jose,102911,1/12/2018 6:18:13 PM,Curt Thompson,NV,89128,Pegasus,Choco Brown,New,1,0.00,5500.00,5500.00,CreditCard,,,"3 years parts, 1 year labor (Free)","Pegasus,",No,1/22/2018 12:00:00 AM,Delivered,,If customer order second chair please give them $300 royalty discount,"confirmed $4,870 in Square. 1/15/18 Hitomi",NV,1,8.25,DWA-9400Pegasus-BR,4870.00,1Irw,,,,,,0.00,,,,,,,0.00,,,,,,
CES 1/9-12/18 (NV),CES 1/9-12/18 (NV),Rodrigo Malabunga,102912,1/12/2018 6:23:10 PM,Earl Geertgens,NJ,08075,Tech Touch 3D,Black,New,1,0.00,4500.00,4500.00,CreditCard,,,"3 years parts, 1 year labor (Free)","Tech Touch 3D,",No,,Cancelled,,Free ASUS Tablet,"confirmed $4,500 in Square. 1/15/18 Hitomi
TX asked me to cancel this order, but the sales rep (Rod) haven't confirmed the cancellation, so I informed Rod its detail and waiting for his update. 2/13/18 Riho

CANCELLED",TX,1,8.25,DWA-9250USJ-9250BL,4500.00,vmAX,,,,,,0.00,,,,,,,0.00,,,,,,
CES 1/9-12/18 (NV),CES 1/9-12/18 (NV),Rodrigo Malabunga,102913,1/12/2018 6:28:17 PM,Joel Ting,NV,89052,Tech Touch 3D,Choco Brown,New,1,0.00,4000.00,4000.00,CreditCard,CreditCard,,"3 years parts, 1 year labor (Free)","Tech Touch 3D,",No,1/29/2018 12:00:00 AM,Delivered,,Free ASUS tablet,"Square receipt # was corrected 1/15/18-Alicia
Confirmed C.C. transaction for $3900. 3/2/18 Riho",NV,1,8.25,DWA-9250USJ-9250CH,100.00,KIev,,,,,,3900.00,10516D,,,,,,0.00,,,,,,
CES 1/9-12/18 (NV),CES 1/9-12/18 (NV),Kaz Ohashi,102914,1/12/2018 6:32:49 PM,Lee Kenny,CA,91776,Pegasus,Black,New,1,0.00,3800.00,3800.00,CreditCard,,,"3 years parts, 1 year labor (Free)","Pegasus,",No,1/25/2018 12:00:00 AM,Delivered,,,,CA,1,8.25,DWA-9400Pegasus-BL,3800.00,KmB1,,,,,,0.00,,,,,,,0.00,,,,,,
CES 1/9-12/18 (NV),CES 1/9-12/18 (NV),Kaz Ohashi,102915,1/12/2018 6:37:46 PM,Thomas R Pipes,MO,65109,Pegasus,Choco Brown,New,1,0.00,3500.00,3500.00,CreditCard,,,"3 years parts, 1 year labor (Free)","Pegasus,",No,1/25/2018 12:00:00 AM,Delivered,,One Time Manager Discount,"confirmed $3,500 in Square. 1/15/18 Hitomi",TX,1,8.25,DWA-9400Pegasus-BR,3500.00,VM2r,,,,,,0.00,,,,,,,0.00,,,,,,
CES 1/9-12/18 (NV),CES 1/9-12/18 (NV),Mario Higareda,102916,1/12/2018 6:45:11 PM,Jeremy Greene,CA,90260,Tech Touch 3D,Black,New,1,0.00,3500.00,3500.00,Synchrony,,,"3 years parts, 1 year labor (Free)","Tech Touch 3D,",No,1/22/2018 12:00:00 AM,Delivered,,,"Customer Cancel the Infinity Chair. Infinity already processed Synchrony Finance and got approved by 24m.
I don't have a application key but here is the Approval Key.
Delivered replacement S#92160007D on 1/31/18",CA,1,8.25,DWA-9250USJ-9250BL,3500.00,,,6034610083043698,00000000,Huston,24 months,0.00,,,,,,,0.00,,,,,,
CES 1/9-12/18 (NV),CES 1/9-12/18 (NV),Mario Higareda,102917,1/12/2018 6:56:18 PM,Robert Burrows,WA,98671,Pegasus,Choco Brown,New,1,0.00,3900.00,3900.00,CreditCard,COD,,"3 years parts, 1 year labor (Free)","Pegasus,",No,,Cancelled,,,"SQUARE CLEARED $390 -1/15/18 STEPHANY
COLLECT COD $3510
ORDER CANCELLED & REFUNDED DEPOSIT - STEPHANY 1/18/18",WA,1,8.25,DWA-9400Pegasus-BR,390.00,LMdZ,,,,,,0.00,,,,,,,0.00,,,,,,
CES 1/9-12/18 (NV),CES 1/9-12/18 (NV),Kohei Uno,103015,1/15/2018 6:47:55 PM,Steven Lee,CA,94539,Tech Touch 3D,Black,New,1,0.00,4500.00,4500.00,CreditCard,,,"3 years parts, 1 year labor (Free)","Tech Touch 3D,",No,2/20/2018 12:00:00 AM,Delivered,,,"Please schedule delivery for customer after 2/4/18. He will be out of town until then.
confirmed $4,500 in Square. 1/16/18 Hitomi",CA,1,8.25,DWA-9250USJ-9250BL,4500.00,jRaQ,,,,,,0.00,,,,,,,0.00,,,,,,
CES 1/9-12/18 (NV),CES 1/9-12/18 (NV),Hidemitsu Yoshida,103041,1/16/2018 7:49:47 PM,Kui Han,NV,89135,Pegasus,Black,New,1,0.00,4500.00,4500.00,Synchrony,,,"3 years parts, 1 year labor (Free)","Pegasus,",No,1/22/2018 12:00:00 AM,Delivered,,,"Please schedule delivery for Monday, Wednesday, or Thursday from 2pm~5pm
confirmed the account in Synchrony.($5,400) *Please charge before delivery.* 1/17/18 Hitomi",NV,1,8.25,DWA-9400Pegasus-BL,4500.00,,,6034610083052657,83793716,Las Vegas,24 months,0.00,,,,,,,0.00,,,,,,
CES 1/9-12/18 (NV),CES 1/9-12/18 (NV),Kohei Uno,103042,1/16/2018 7:52:54 PM,Youn Yu,NV,89148,Pegasus,Black,New,1,0.00,4500.00,4500.00,Synchrony,,,"3 years parts, 1 year labor (Free)","Pegasus,",No,1/23/2018 12:00:00 AM,Delivered,,,"Please schedule delivery for Tuesday's from 8am~11am
confirmed the account in Synchrony.($5,400) *Please charge before delivery.* 1/17/18 Hitomi

Authorization # 027989",NV,1,8.25,DWA-9400Pegasus-BL,4500.00,,,6034610083052681,83794000,Las Vegas,24 months,0.00,,,,,,,0.00,,,,,,
CES 1/9-12/18 (NV),CES 1/9-12/18 (NV),Mario Higareda,103044,1/17/2018 9:13:31 AM,Hendra Wijaya,TX,76005,Tech Touch 3D,Black,New,1,0.00,4000.00,4000.00,Synchrony,CreditCard,,"3 years parts, 1 year labor (Free)","Tech Touch 3D,",No,1/19/2018 12:00:00 AM,Delivered,,,"confirmed the account in Synchrony. ($2000) *Please charge before delivery.*  1/17/18 Hitomi
synchrony cleared $2000 018204 - stephany 06/13/18",TX,1,8.25,DWA-9250USJ-9250BL,2000.00,,,6034610083042906,83596712,San Diego,36 months,2000.00,Housecall Pro,,,,,,0.00,,,,,,
CES 1/9-12/18 (NV),CES 1/9-12/18 (NV),Rodrigo Malabunga,103070,1/18/2018 5:02:59 PM,Ryan Thimmig,CA,92614,Tech Touch 3D,Black,New,1,0.00,4300.00,4300.00,Synchrony,,,"3 years parts, 1 year labor (Free)","Tech Touch 3D,",No,1/22/2018 12:00:00 AM,Delivered,,No tablet.,"Synchrony approved ($4800). 1/18/18 Riho
01/19/18-Cristina: Authorization # 019267",CA,1,8.25,DWA-9250USJ-9250BL,4300.00,,,6034610083042922,83596783,San Diego,24 months,0.00,,,,,,,0.00,,,,,,
CES 1/9-12/18 (NV),CES 1/9-12/18 (NV),Mario Higareda,103190,1/22/2018 12:08:15 PM,Joseph Arrambidez,TX,76013,Tech Touch 3D,Black,New,1,0.00,3800.00,3800.00,Synchrony,CreditCard,,"3 years parts, 1 year labor (Free)","Tech Touch 3D,",No,1/29/2018 12:00:00 AM,Delivered,,,"the confirmed the account in Synchrony($2000) *Please charge before delivery.* 1/22/18 Hitomi
TX branch charged $2,000 by Synchrony.Auth#025096.
$1,800 COD paid by WF. Auth#081864",TX,1,8.25,DWA-9250USJ-9250BL,2000.00,,,6034610083052368,83596569,San Diego,24 months,1800.00,081864,,,,,,0.00,,,,,,
