﻿Order Number,Order Date,Original Event Name,Event Name,Salesperson,SKU,Product Name,Color,QTY,Warranty,Payment Details,Tax,Order Total,Gross,Primary Payment Method,Primary Payment Balance,Primary Authorize Number,Primary Purchase Order Number,Primary Synchrony Account Number,Primary Synchrony Application Key,Primary Synchrony AccountInfo,Primary SynchronyTerm,Secondly Payment Method,Secondly Payment Balance,Secondly Authorize Number,Secondly Purchase Order Number,Secondly Synchrony Account Number,Secondly Synchrony Application Key,Secondly Synchrony AccountInfo,Secondly SynchronyTerm,Thirdly Payment Method,Thirdly Payment Balance,Thirdly Authorize Number,Thirdly Purchase Order Number,Thirdly Synchrony Account Number,Thirdly Synchrony Application Key,Thirdly Synchrony AccountInfo,Thirdly SynchronyTerm,Actual Shipping Cost,CustomerName,Shipping Address,Delivered On,Serial Number (TO Be),Note,Branch,IsNoTax,ActualTaxRate
109370,9/15/2018 10:18:31 AM,"THE BIG E STATE FAIR 9/14-30/18 West Springfield, MA (IL)","THE BIG E STATE FAIR 9/14-30/18 West Springfield, MA (IL)",Rolly San Jose,DWA-9400Pegasus-BR,Pegasus,New Choco,1,"3 years parts, 1 year labor (Free)",CUSTOM ,0.00,5900.00,5900.00,CreditCard,5900.00,04139G,,,,,,,0.00,,,,,,,,0.00,,,,,,,0.00,Michael Urso,8605632727,,,,TX,1,6.25
109388,9/15/2018 3:24:49 PM,"THE BIG E STATE FAIR 9/14-30/18 West Springfield, MA (IL)","THE BIG E STATE FAIR 9/14-30/18 West Springfield, MA (IL)",Rolly San Jose,DWA-9150USJ-9150BL,Legacy 3D,New Black,1,"3 years parts, 1 year labor (Free)",CUSTOM CreditCard,0.00,4500.00,4500.00,CreditCard,2000.00,164175,,6019170813142319,94472640,Huston,36 months,CreditCard,2500.00,167633,,,,,,,0.00,,,,,,,0.00,Maksud Shaikh,8607966818,,,,TX,1,6.25
109405,9/15/2018 8:48:56 PM,"THE BIG E STATE FAIR 9/14-30/18 West Springfield, MA (IL)","THE BIG E STATE FAIR 9/14-30/18 West Springfield, MA (IL)",Billy Shea,DWA-9150USJ-9150BL,Legacy 3D,New Black,1,"3 years parts, 1 year labor (Free)",CUSTOM ,0.00,4900.00,4900.00,Synchrony,4900.00,,,6019170813139059,94410448,Las Vegas,36 months,,0.00,,,,,,,,0.00,,,,,,,0.00,Edwin Larrivee,2039274366,,,,TX,1,6.25
109406,9/15/2018 8:57:17 PM,"THE BIG E STATE FAIR 9/14-30/18 West Springfield, MA (IL)","THE BIG E STATE FAIR 9/14-30/18 West Springfield, MA (IL)",Rolly San Jose,DWA-9150USJ-9150BL,Legacy 3D,New Black,2,"3 years parts, 1 year labor (Free)",CUSTOM CreditCard,0.00,9000.00,9000.00,Cash,200.00,,,,,,,CreditCard,8800.00,06418D,,,,,,,0.00,,,,,,,0.00,Dominick Cortese,4135309209,,,,TX,1,6.25
109415,9/15/2018 9:33:02 PM,"THE BIG E STATE FAIR 9/14-30/18 West Springfield, MA (IL)","THE BIG E STATE FAIR 9/14-30/18 West Springfield, MA (IL)",Winston Melgar,DWA-9060USJ-9060BL,Relax2Zero 3D,New Black,1,"3 years parts, 1 year labor (Free)",CUSTOM Cash,0.00,4200.00,4200.00,Cash,500.00,,,,,,,Cash,3700.00,,,,,,,,0.00,,,,,,,0.00,Keith Lambert,4013237197,,,,TX,1,6.25
109416,9/15/2018 9:41:19 PM,"THE BIG E STATE FAIR 9/14-30/18 West Springfield, MA (IL)","THE BIG E STATE FAIR 9/14-30/18 West Springfield, MA (IL)",Keith Kei,DWA-9150USJ-9150CH,Legacy 3D,New Choco,1,"3 years parts, 1 year labor (Free)",CUSTOM ,0.00,4500.00,4500.00,Synchrony,4500.00,,,6019193316391910,,,36 months,,0.00,,,,,,,,0.00,,,,,,,0.00,Kandy Roy,9784078046,,,,TX,1,6.25
109417,9/15/2018 9:47:50 PM,"THE BIG E STATE FAIR 9/14-30/18 West Springfield, MA (IL)","THE BIG E STATE FAIR 9/14-30/18 West Springfield, MA (IL)",Rolly San Jose,DWA-9060USJ-9060BL,Relax2Zero 3D,New Black,1,"3 years parts, 1 year labor (Free)",CUSTOM ,0.00,5650.00,5650.00,Synchrony,4900.00,,,6019170813140198,94435229,Huston,48 months,,0.00,,,,,,,,0.00,,,,,,,0.00,David Youngstrom,5084808563,,,,Not Dispatched,1,6.25
109418,9/15/2018 9:55:44 PM,"THE BIG E STATE FAIR 9/14-30/18 West Springfield, MA (IL)","THE BIG E STATE FAIR 9/14-30/18 West Springfield, MA (IL)",Billy Shea,DWA-9150USJ-9150BL-DEMO,Legacy 3D,Demo Black,1,"3 years parts, 1 year labor (Free)",CUSTOM ,0.00,4200.00,4200.00,Synchrony,4200.00,,,6019170813140255,94435862,Las Vegas,36 months,,0.00,,,,,,,,0.00,,,,,,,0.00,Dianna Denne,2035431337,,,,TX,1,6.25
109419,9/15/2018 10:17:50 PM,"THE BIG E STATE FAIR 9/14-30/18 West Springfield, MA (IL)","THE BIG E STATE FAIR 9/14-30/18 West Springfield, MA (IL)",Noni Ignacio,DWA-9060USJ-9060BL-DEMO,Relax2Zero 3D,Demo Black,1,"2 years parts, 1 year labor (Free)",CUSTOM ,0.00,4200.00,4200.00,Synchrony,4200.00,,,6019170813141493,94460574,Huston,36 months,,0.00,,,,,,,,0.00,,,,,,,0.00,Elsa Reyes,8606564922,,,,TX,1,6.25
109420,9/15/2018 10:30:15 PM,"THE BIG E STATE FAIR 9/14-30/18 West Springfield, MA (IL)","THE BIG E STATE FAIR 9/14-30/18 West Springfield, MA (IL)",Keith Kei,DWA-9150USJ-9150CH,Legacy 3D,New Choco,1,"3 years parts, 1 year labor (Free)",CUSTOM ,0.00,5206.00,5206.00,Synchrony,5206.25,,,6019170813142210,94471423,Huston,36 months,,0.00,,,,,,,,0.00,,,,,,,0.00,John Magowan,8602218774,,,,Not Dispatched,1,6.25
109421,9/15/2018 10:40:27 PM,"THE BIG E STATE FAIR 9/14-30/18 West Springfield, MA (IL)","THE BIG E STATE FAIR 9/14-30/18 West Springfield, MA (IL)",Noni Ignacio,DWA-9150USJ-9150BL-DEMO,Legacy 3D,Demo Black,1,"3 years parts, 1 year labor (Free)",CUSTOM ,0.00,4000.00,4000.00,CreditCard,4000.00,805146,,,,,,,0.00,,,,,,,,0.00,,,,,,,0.00,Robert Simpkiss,9788336386,,,,TX,1,6.25
109422,9/15/2018 10:50:43 PM,"THE BIG E STATE FAIR 9/14-30/18 West Springfield, MA (IL)","THE BIG E STATE FAIR 9/14-30/18 West Springfield, MA (IL)",Winston Melgar,DWA-9060USJ-9060BL,Relax2Zero 3D,New Black,1,"3 years parts, 1 year labor (Free)",CUSTOM ,0.00,4500.00,4500.00,CreditCard,4500.00,06252G,,,,,,,0.00,,,,,,,,0.00,,,,,,,0.00,David Clayman,6172336975,,,,TX,1,6.25
109423,9/15/2018 11:46:00 PM,"THE BIG E STATE FAIR 9/14-30/18 West Springfield, MA (IL)","THE BIG E STATE FAIR 9/14-30/18 West Springfield, MA (IL)",Noni Ignacio,DWA-9150USJ-9150BL-DEMO,Legacy 3D,Demo Black,1,"3 years parts, 1 year labor (Free)",CUSTOM ,0.00,4200.00,4200.00,CreditCard,4200.00,05395Z,,,,,,,0.00,,,,,,,,0.00,,,,,,,0.00,Jennifer Dowling,8026941380,,,,TX,1,6.25
109424,9/15/2018 11:53:23 PM,"THE BIG E STATE FAIR 9/14-30/18 West Springfield, MA (IL)","THE BIG E STATE FAIR 9/14-30/18 West Springfield, MA (IL)",Keith Kei,DWA-9060USJ-9060BR,Relax2Zero 3D,New Choco,1,"3 years parts, 1 year labor (Free)",CUSTOM ,0.00,4200.00,4200.00,Synchrony,4200.00,,,6019170813142814,94478753,Huston,48 months,,0.00,,,,,,,,0.00,,,,,,,0.00,Vijay Subramaniam,8608995348,,,,TX,1,6.25
109463,9/16/2018 5:03:19 PM,"THE BIG E STATE FAIR 9/14-30/18 West Springfield, MA (IL)","THE BIG E STATE FAIR 9/14-30/18 West Springfield, MA (IL)",Noni Ignacio,DWA-9150USJ-9150CH,Legacy 3D,New Choco,1,"5 years parts, 1 year labor (Free)",CUSTOM ,0.00,4900.00,4900.00,Synchrony,4900.00,,,6019170813143457,94492209,Las Vegas,36 months,,0.00,,,,,,,,0.00,,,,,,,0.00,Catherine Twiss,4137432503,,,,TX,1,6.25
109464,9/16/2018 5:12:41 PM,"THE BIG E STATE FAIR 9/14-30/18 West Springfield, MA (IL)","THE BIG E STATE FAIR 9/14-30/18 West Springfield, MA (IL)",Keith Kei,DWA-9150USJ-9150CH,Legacy 3D,New Choco,1,"5 years parts, 1 year labor (Free)",CUSTOM ,0.00,4250.00,4250.00,Synchrony,4250.00,,,6019170813143556,94494720,Huston,24 months,,0.00,,,,,,,,0.00,,,,,,,0.00,Santos Vega,8602041563,,,,TX,1,6.25
109465,9/16/2018 5:20:28 PM,"THE BIG E STATE FAIR 9/14-30/18 West Springfield, MA (IL)","THE BIG E STATE FAIR 9/14-30/18 West Springfield, MA (IL)",Rolly San Jose,DWA-9150USJ-9150CH-DEMO,Legacy 3D,Demo Choco,1,"5 years parts, 1 year labor (Free)",CUSTOM Synchrony,0.00,4200.00,4200.00,CreditCard,1000.00,04223D,,,,,,Synchrony,3200.00,,,6019170813144620,94507796,Huston,36 months,,0.00,,,,,,,0.00,Kimberly Lavallee,5087687392,,,,TX,1,6.25
109466,9/16/2018 5:28:43 PM,"THE BIG E STATE FAIR 9/14-30/18 West Springfield, MA (IL)","THE BIG E STATE FAIR 9/14-30/18 West Springfield, MA (IL)",Rolly San Jose,DWA-9060USJ-9060BL,Relax2Zero 3D,New Black,1,"3 years parts, 1 year labor (Free)",CUSTOM ,0.00,4500.00,4500.00,CreditCard,4500.00,02415C,,,,,,,0.00,,,,,,,,0.00,,,,,,,0.00,Scott Nims,5088649816,,,,TX,1,6.25
109502,9/17/2018 11:28:31 AM,"THE BIG E STATE FAIR 9/14-30/18 West Springfield, MA (IL)","THE BIG E STATE FAIR 9/14-30/18 West Springfield, MA (IL)",Rolly San Jose,DWA-9060USJ-9060BL,Relax2Zero 3D,New Black,1,"3 years parts, 1 year labor (Free)",CUSTOM ,0.00,4900.00,4900.00,Synchrony,4900.00,,,6019170813140198,94435229,Huston,48 months,,0.00,,,,,,,,0.00,,,,,,,0.00,David Youngstrom,5084808563,,,,TX,1,6.25
109518,9/17/2018 1:19:44 PM,"THE BIG E STATE FAIR 9/14-30/18 West Springfield, MA (IL)","THE BIG E STATE FAIR 9/14-30/18 West Springfield, MA (IL)",Billy Shea,DWA-9150USJ-9150CH,Legacy 3D,New Choco,1,"5 years parts, 1 year labor (Free)",CUSTOM ,0.00,4900.00,4900.00,Synchrony,4900.00,,,6019170813145031,94523499,Huston,36 months,,0.00,,,,,,,,0.00,,,,,,,0.00,Stephen Saulvier,4013744855,,,,TX,1,6.25
109520,9/17/2018 1:29:54 PM,"THE BIG E STATE FAIR 9/14-30/18 West Springfield, MA (IL)","THE BIG E STATE FAIR 9/14-30/18 West Springfield, MA (IL)",Winston Melgar,DWA-9060USJ-9060BL-DEMO,Relax2Zero 3D,Demo Black,1,"3 years parts, 1 year labor (Free)",CUSTOM ,215.63,4415.63,4415.63,Synchrony,0.00,,,6019170813145163,94528348,Huston,36 months,,0.00,,,,,,,,0.00,,,,,,,0.00,Cory Larose,8604649109,,,,Not Dispatched,0,6.25
109526,9/17/2018 8:16:58 PM,"THE BIG E STATE FAIR 9/14-30/18 West Springfield, MA (IL)","THE BIG E STATE FAIR 9/14-30/18 West Springfield, MA (IL)",Keith Kei,DWA-9150USJ-9150CH-DEMO,Legacy 3D,Demo Choco,1,"5 years parts, 1 year labor (Free)",CUSTOM ,0.00,4200.00,4200.00,Synchrony,4200.00,,,6019170813145874,94546344,Huston,36 months,,0.00,,,,,,,,0.00,,,,,,,0.00,Richard Fish,8608237141,,,,TX,1,6.25
109527,9/17/2018 8:26:43 PM,"THE BIG E STATE FAIR 9/14-30/18 West Springfield, MA (IL)","THE BIG E STATE FAIR 9/14-30/18 West Springfield, MA (IL)",Rolly San Jose,DWA-9060USJ-9060BR,Relax2Zero 3D,New Choco,1,"3 years parts, 1 year labor (Free)",CUSTOM ,0.00,4462.00,4462.00,CreditCard,4462.00,013568,,,,,,,0.00,,,,,,,,0.00,,,,,,,0.00,Cory Liptak,4135683740 x 103,,,,TX,1,6.25
109548,9/18/2018 10:11:24 AM,"THE BIG E STATE FAIR 9/14-30/18 West Springfield, MA (IL)","THE BIG E STATE FAIR 9/14-30/18 West Springfield, MA (IL)",Keith Kei,DWA-9150USJ-9150CH,Legacy 3D,New Choco,1,"3 years parts, 1 year labor (Free)",CUSTOM ,0.00,5206.25,5206.25,Synchrony,5206.25,,,6019170813142210,94471423,Huston,36 months,,0.00,,,,,,,,0.00,,,,,,,0.00,John Magowan,8602218774,,,,TX,1,6.25
109551,9/18/2018 11:47:53 AM,"THE BIG E STATE FAIR 9/14-30/18 West Springfield, MA (IL)","THE BIG E STATE FAIR 9/14-30/18 West Springfield, MA (IL)",Winston Melgar,DWA-9060USJ-9060BL-DEMO,Relax2Zero 3D,Demo Black,1,"3 years parts, 1 year labor (Free)",CUSTOM ,0.00,4462.00,4462.00,Synchrony,4462.00,,,6019170813145163,94528348,Huston,36 months,,0.00,,,,,,,,0.00,,,,,,,0.00,Cory Larose,8604649109,,,,TX,1,6.25
109575,9/19/2018 8:39:58 PM,"THE BIG E STATE FAIR 9/14-30/18 West Springfield, MA (IL)","THE BIG E STATE FAIR 9/14-30/18 West Springfield, MA (IL)",Billy Shea,DWA-9060USJ-9060BL-DEMO,Relax2Zero 3D,Demo Black,1,"5 years parts, 1 year labor (Free)",CUSTOM ,0.00,4200.00,4200.00,CreditCard,4200.00,07060C,,,,,,,0.00,,,,,,,,0.00,,,,,,,0.00,Brian Barrett,2032318469,,,,TX,1,6.25
109612,9/20/2018 9:18:45 PM,"THE BIG E STATE FAIR 9/14-30/18 West Springfield, MA (IL)","THE BIG E STATE FAIR 9/14-30/18 West Springfield, MA (IL)",Winston Melgar,DWA-9060USJ-9060BR-DEMO,Relax2Zero 3D,Demo Choco,1,"3 years parts, 1 year labor (Free)",CUSTOM ,0.00,4200.00,4200.00,CreditCard,4200.00,281619,,,,,,,0.00,,,,,,,,0.00,,,,,,,0.00,Paul Lemieux,4132317408,9/21/2018 12:00:00 AM,,,TX,1,6.25
109613,9/20/2018 9:34:21 PM,"THE BIG E STATE FAIR 9/14-30/18 West Springfield, MA (IL)","THE BIG E STATE FAIR 9/14-30/18 West Springfield, MA (IL)",Rolly San Jose,DWA-9060USJ-9060BL,Relax2Zero 3D,New Black,1,"3 years parts, 1 year labor (Free)",CUSTOM Synchrony,0.00,4900.00,4900.00,Cash,1000.00,,,,,,,Synchrony,3900.00,,,6019170813149828,94674937,Huston,36 months,,0.00,,,,,,,0.00,Kelly Baldasaro,4136558532,,,,TX,1,6.25
109614,9/20/2018 9:40:28 PM,"THE BIG E STATE FAIR 9/14-30/18 West Springfield, MA (IL)","THE BIG E STATE FAIR 9/14-30/18 West Springfield, MA (IL)",Winston Melgar,DWA-9060USJ-9060BL,Relax2Zero 3D,New Black,1,"3 years parts, 1 year labor (Free)",CUSTOM ,0.00,4900.00,4900.00,CreditCard,4900.00,871820,,,,,,,0.00,,,,,,,,0.00,,,,,,,0.00,Linda Lee,8608105147,,,,TX,1,6.25
109615,9/20/2018 9:50:43 PM,"THE BIG E STATE FAIR 9/14-30/18 West Springfield, MA (IL)","THE BIG E STATE FAIR 9/14-30/18 West Springfield, MA (IL)",Keith Kei,DWA-9150USJ-9150BL,Legacy 3D,New Black,1,"3 years parts, 1 year labor (Free)",CUSTOM ,0.00,4781.25,4781.25,CreditCard,4781.25,Receipt #BaQl,,,,,,,0.00,,,,,,,,0.00,,,,,,,0.00,Scott Colby,4132971364,,,,TX,1,6.25
109632,9/21/2018 3:34:57 PM,"THE BIG E STATE FAIR 9/14-30/18 West Springfield, MA (IL)","THE BIG E STATE FAIR 9/14-30/18 West Springfield, MA (IL)",Winston Melgar,DWA-9060USJ-9060BL,Relax2Zero 3D,New Black,1,"3 years parts, 1 year labor (Free)",CUSTOM ,0.00,4500.00,4500.00,Synchrony,4500.00,,,6019170813150882,94708017,Huston,36 months,,0.00,,,,,,,,0.00,,,,,,,0.00,Joseph La cascio,5082439747,,,,TX,1,6.25
109633,9/21/2018 3:53:54 PM,"THE BIG E STATE FAIR 9/14-30/18 West Springfield, MA (IL)","THE BIG E STATE FAIR 9/14-30/18 West Springfield, MA (IL)",Keith Kei,DWA-9150USJ-9150CH-DEMO,Legacy 3D,Demo Choco,1,"5 years parts, 1 year labor (Free)",CUSTOM ,0.00,4462.50,4462.50,Synchrony,4462.50,,,6019193316399848,94637561,San Diego,48 months,,0.00,,,,,,,,0.00,,,,,,,0.00,John Egan,4135899873,,,,TX,1,6.25
109634,9/21/2018 4:06:32 PM,"THE BIG E STATE FAIR 9/14-30/18 West Springfield, MA (IL)","THE BIG E STATE FAIR 9/14-30/18 West Springfield, MA (IL)",Keith Kei,DWA-9150USJ-9150BL,Legacy 3D,New Black,1,"5 years parts, 1 year labor (Free)",CUSTOM ,0.00,4781.25,4781.25,CreditCard,4781.25,SQ# UEOT,,,,,,,0.00,,,,,,,,0.00,,,,,,,0.00,Frank Santo,2034053976,,,,TX,1,6.25
109635,9/21/2018 4:14:50 PM,"THE BIG E STATE FAIR 9/14-30/18 West Springfield, MA (IL)","THE BIG E STATE FAIR 9/14-30/18 West Springfield, MA (IL)",Billy Shea,DWA-9150USJ-9150BL,Legacy 3D,New Black,1,"5 years parts, 1 year labor (Free)",CUSTOM ,0.00,4500.00,4500.00,CreditCard,4500.00,021286,,,,,,,0.00,,,,,,,,0.00,,,,,,,0.00,Suzanne Morrissey,8605012332,,,,TX,1,6.25
109636,9/21/2018 4:23:29 PM,"THE BIG E STATE FAIR 9/14-30/18 West Springfield, MA (IL)","THE BIG E STATE FAIR 9/14-30/18 West Springfield, MA (IL)",Billy Shea,DWA-9150USJ-9150CH,Legacy 3D,New Choco,1,"5 years parts, 1 year labor (Free)",CUSTOM ,0.00,4500.00,4500.00,Synchrony,4500.00,,,6019170813150890,94709278,Huston,36 months,,0.00,,,,,,,,0.00,,,,,,,0.00,Merry Pridham,8607054125,,,,TX,1,6.25
109639,9/21/2018 8:59:57 PM,"THE BIG E STATE FAIR 9/14-30/18 West Springfield, MA (IL)","THE BIG E STATE FAIR 9/14-30/18 West Springfield, MA (IL)",Rolly San Jose,DWA-9060USJ-9060BL,Relax2Zero 3D,New Black,1,"3 years parts, 1 year labor (Free)",CUSTOM ,0.00,4700.00,4700.00,Synchrony,4700.00,,,6019170813150965,94710685,Huston,36 months,,0.00,,,,,,,,0.00,,,,,,,0.00,William Martin,4132309388,,,,TX,1,6.25
109640,9/21/2018 9:30:55 PM,"THE BIG E STATE FAIR 9/14-30/18 West Springfield, MA (IL)","THE BIG E STATE FAIR 9/14-30/18 West Springfield, MA (IL)",Noni Ignacio,DWA-9400Pegasus-BL,Pegasus,New Black,1,"5 years parts, 1 year labor (Free)",CUSTOM ,0.00,5500.00,5500.00,Synchrony,5500.00,,,6019170813151047,94712548,Huston,48 months,,0.00,,,,,,,,0.00,,,,,,,0.00,Paul Scoville,4132371164,,,,TX,1,6.25
109641,9/21/2018 9:42:32 PM,"THE BIG E STATE FAIR 9/14-30/18 West Springfield, MA (IL)","THE BIG E STATE FAIR 9/14-30/18 West Springfield, MA (IL)",Noni Ignacio,DWA-9150USJ-9150BL,Legacy 3D,New Black,1,"5 years parts, 1 year labor (Free)",CUSTOM ,0.00,4900.00,4900.00,Synchrony,4900.00,,,6019170813151187,94715251,Huston,36 months,,0.00,,,,,,,,0.00,,,,,,,0.00,Robert Flade,8603248055,,,,TX,1,6.25
109642,9/21/2018 9:49:08 PM,"THE BIG E STATE FAIR 9/14-30/18 West Springfield, MA (IL)","THE BIG E STATE FAIR 9/14-30/18 West Springfield, MA (IL)",Rolly San Jose,DWA-9150USJ-9150BL,Legacy 3D,New Black,1,"3 years parts, 1 year labor (Free)",CUSTOM ,0.00,4900.00,4900.00,Synchrony,4900.00,,,6019170813151229,94715827,Huston,36 months,,0.00,,,,,,,,0.00,,,,,,,0.00,Brenda Kantor,4135723800,,,,TX,1,6.25
109643,9/21/2018 9:56:29 PM,"THE BIG E STATE FAIR 9/14-30/18 West Springfield, MA (IL)","THE BIG E STATE FAIR 9/14-30/18 West Springfield, MA (IL)",Billy Shea,DWA-9150USJ-9150CH,Legacy 3D,New Choco,1,"3 years parts, 1 year labor (Free)",CUSTOM ,0.00,4900.00,4900.00,Synchrony,4900.00,,,6019170813151740,94724133,Huston,36 months,,0.00,,,,,,,,0.00,,,,,,,0.00,Elisabeth Nicoletti,8608667587,,,,TX,1,6.25
109644,9/21/2018 10:02:52 PM,"THE BIG E STATE FAIR 9/14-30/18 West Springfield, MA (IL)","THE BIG E STATE FAIR 9/14-30/18 West Springfield, MA (IL)",Noni Ignacio,DWA-9060USJ-9060BR,Relax2Zero 3D,New Choco,1,"3 years parts, 1 year labor (Free)",CUSTOM ,0.00,4900.00,4900.00,Synchrony,4900.00,,,6019170813151867,94725425,Huston,36 months,,0.00,,,,,,,,0.00,,,,,,,0.00,Andrea Grant,8606904983,,,,TX,1,6.25
109645,9/21/2018 10:10:16 PM,"THE BIG E STATE FAIR 9/14-30/18 West Springfield, MA (IL)","THE BIG E STATE FAIR 9/14-30/18 West Springfield, MA (IL)",Keith Kei,DWA-9150USJ-9150BL,Legacy 3D,New Black,1,"3 years parts, 1 year labor (Free)",CUSTOM ,0.00,5206.25,5206.25,Synchrony,5206.25,,,6019170813151856,94728727,Huston,24 months,,0.00,,,,,,,,0.00,,,,,,,0.00,John Njoroge,6902231443,,,,Not Dispatched,1,6.25
109646,9/22/2018 6:54:37 AM,"THE BIG E STATE FAIR 9/14-30/18 West Springfield, MA (IL)","THE BIG E STATE FAIR 9/14-30/18 West Springfield, MA (IL)",Winston Melgar,DWA-9150USJ-9150BL,Legacy 3D,New Black,1,"3 years parts, 1 year labor (Free)",CUSTOM ,0.00,4500.00,4500.00,Synchrony,4500.00,,,6019170813150981,94711229,Huston,36 months,,0.00,,,,,,,,0.00,,,,,,,0.00,Karhy Batrna,8602682401,,,,TX,1,6.25
109658,9/22/2018 5:10:22 PM,"THE BIG E STATE FAIR 9/14-30/18 West Springfield, MA (IL)","THE BIG E STATE FAIR 9/14-30/18 West Springfield, MA (IL)",Keith Kei,DWA-9150USJ-9150BL,Legacy 3D,New Black,1,"5 years parts, 1 year labor (Free)",CUSTOM ,0.00,5206.25,5206.25,CreditCard,5206.25,Receipt #r8s9,,,,,,,0.00,,,,,,,,0.00,,,,,,,0.00,Matthew Strand,2037685746,,,,TX,1,6.25
109659,9/22/2018 5:17:17 PM,"THE BIG E STATE FAIR 9/14-30/18 West Springfield, MA (IL)","THE BIG E STATE FAIR 9/14-30/18 West Springfield, MA (IL)",Keith Kei,DWA-9150USJ-9150CH,Legacy 3D,New Choco,1,"5 years parts, 1 year labor (Free)",CUSTOM ,0.00,4900.00,4900.00,Synchrony,4900.00,,,6019170813153530,94762879,Huston,36 months,,0.00,,,,,,,,0.00,,,,,,,0.00,James Graham,4133353425,,,,TX,1,6.25
109675,9/23/2018 6:47:55 AM,"THE BIG E STATE FAIR 9/14-30/18 West Springfield, MA (IL)","THE BIG E STATE FAIR 9/14-30/18 West Springfield, MA (IL)",Billy Shea,DWA-9150USJ-9150BL,Legacy 3D,New Black,1,"5 years parts, 1 year labor (Free)",CUSTOM ,0.00,4900.00,4900.00,Synchrony,4900.00,,,6019170813153282,94759231,Huston,36 months,,0.00,,,,,,,,0.00,,,,,,,0.00,Deborah Mitchell,2039326501,,,,TX,1,6.25
109676,9/23/2018 6:54:47 AM,"THE BIG E STATE FAIR 9/14-30/18 West Springfield, MA (IL)","THE BIG E STATE FAIR 9/14-30/18 West Springfield, MA (IL)",Winston Melgar,DWA-9060USJ-9060BR-DEMO,Relax2Zero 3D,Demo Choco,1,"3 years parts, 1 year labor (Free)",CUSTOM PurchaseOrder,0.00,4200.00,4200.00,Synchrony,2000.00,,,6019170813152987,94754650,Huston,24 months,PurchaseOrder,2200.00,,Layaway,,,,,,0.00,,,,,,,0.00,Cynthia Paterson,4137171389,,,,TX,1,6.25
109677,9/23/2018 7:00:30 AM,"THE BIG E STATE FAIR 9/14-30/18 West Springfield, MA (IL)","THE BIG E STATE FAIR 9/14-30/18 West Springfield, MA (IL)",Winston Melgar,DWA-9060USJ-9060BR,Relax2Zero 3D,New Choco,1,"3 years parts, 1 year labor (Free)",CUSTOM ,0.00,4400.00,4400.00,Synchrony,4400.00,,,6019171813152516,94746218,Huston,36 months,,0.00,,,,,,,,0.00,,,,,,,0.00,Rick Wisler,6032863791,,,,TX,1,6.25
109678,9/23/2018 7:05:28 AM,"THE BIG E STATE FAIR 9/14-30/18 West Springfield, MA (IL)","THE BIG E STATE FAIR 9/14-30/18 West Springfield, MA (IL)",Billy Shea,DWA-9150USJ-9150CH,Legacy 3D,New Choco,1,"3 years parts, 1 year labor (Free)",CUSTOM ,0.00,4900.00,4900.00,Synchrony,4900.00,,,6019170813152003,94733111,Huston,36 months,,0.00,,,,,,,,0.00,,,,,,,0.00,Gary Clavette,2032321068,,,,TX,1,6.25
109679,9/23/2018 7:10:48 AM,"THE BIG E STATE FAIR 9/14-30/18 West Springfield, MA (IL)","THE BIG E STATE FAIR 9/14-30/18 West Springfield, MA (IL)",Billy Shea,DWA-9060USJ-9060BR,Relax2Zero 3D,New Choco,1,"5 years parts, 1 year labor (Free)",CUSTOM ,0.00,5206.00,5206.00,Synchrony,5206.00,,,6019170813151336,94717102,Huston,36 months,,0.00,,,,,,,,0.00,,,,,,,0.00,James Bradbury,2035305452,,,,FL,1,6.25
109723,9/23/2018 4:15:25 PM,"THE BIG E STATE FAIR 9/14-30/18 West Springfield, MA (IL)","THE BIG E STATE FAIR 9/14-30/18 West Springfield, MA (IL)",Rolly San Jose,DWA-9060USJ-9060BL,Relax2Zero 3D,New Black,1,"3 years parts, 1 year labor (Free)",CUSTOM ,0.00,4600.00,4600.00,Synchrony,4600.00,,,6019170813154462,94777660,Huston,36 months,,0.00,,,,,,,,0.00,,,,,,,0.00,Lynne Carlotto,4136722312,,,,TX,1,6.25
109725,9/23/2018 4:31:00 PM,"THE BIG E STATE FAIR 9/14-30/18 West Springfield, MA (IL)","THE BIG E STATE FAIR 9/14-30/18 West Springfield, MA (IL)",Keith Kei,DWA-9150USJ-9150CH,Legacy 3D,New Choco,2,"5 years parts, 1 year labor (Free)",CUSTOM ,518.38,9562.38,9562.38,CreditCard,9562.50,Receipt #91Wb,,,,,,,0.00,,,,,,,,0.00,,,,,,,0.00,Bart Cole,2039472830,,,,Not Dispatched,0,6.25
109726,9/23/2018 4:36:13 PM,"THE BIG E STATE FAIR 9/14-30/18 West Springfield, MA (IL)","THE BIG E STATE FAIR 9/14-30/18 West Springfield, MA (IL)",Noni Ignacio,DWA-9400Pegasus-BR,Pegasus,New Choco,1,"5 years parts, 1 year labor (Free)",CUSTOM ,0.00,5500.00,5500.00,Synchrony,5500.00,,,6019170813154506,94778318,Huston,36 months,,0.00,,,,,,,,0.00,,,,,,,0.00,Bonita Lusignan,5088928564,,,,TX,1,6.25
109727,9/23/2018 4:40:11 PM,"THE BIG E STATE FAIR 9/14-30/18 West Springfield, MA (IL)","THE BIG E STATE FAIR 9/14-30/18 West Springfield, MA (IL)",Keith Kei,DWA-9150USJ-9150BL,Legacy 3D,New Black,1,"3 years parts, 1 year labor (Free)",CUSTOM ,0.00,4900.00,4900.00,CreditCard,4900.00,wd8t,,,,,,,0.00,,,,,,,,0.00,,,,,,,0.00,Steve Downs,4138219394,,,,TX,1,6.25
109728,9/23/2018 4:48:55 PM,"THE BIG E STATE FAIR 9/14-30/18 West Springfield, MA (IL)","THE BIG E STATE FAIR 9/14-30/18 West Springfield, MA (IL)",Rolly San Jose,DWA-9060USJ-9060BL,Relax2Zero 3D,New Black,1,"3 years parts, 1 year labor (Free)",CUSTOM ,0.00,4600.00,4600.00,Synchrony,4600.00,,,6019170813155261,94791325,Huston,36 months,,0.00,,,,,,,,0.00,,,,,,,0.00,Pravin Iniyabothan,9089306868,,,,TX,1,6.25
109729,9/23/2018 4:52:54 PM,"THE BIG E STATE FAIR 9/14-30/18 West Springfield, MA (IL)","THE BIG E STATE FAIR 9/14-30/18 West Springfield, MA (IL)",Billy Shea,DWA-9150USJ-9150CH,Legacy 3D,New Choco,1,"5 years parts, 1 year labor (Free)",CUSTOM ,0.00,4900.00,4900.00,Synchrony,4900.00,,,6019170813155493,94792895,Huston,36 months,,0.00,,,,,,,,0.00,,,,,,,0.00,Robert Levesque,8604896024,,,,TX,1,6.25
109730,9/23/2018 4:59:58 PM,"THE BIG E STATE FAIR 9/14-30/18 West Springfield, MA (IL)","THE BIG E STATE FAIR 9/14-30/18 West Springfield, MA (IL)",Rolly San Jose,DWA-9060USJ-9060BL,Relax2Zero 3D,New Black,1,"3 years parts, 1 year labor (Free)",CUSTOM ,0.00,4900.00,4900.00,Synchrony,4900.00,,,6019170813155691,94796987,Huston,36 months,,0.00,,,,,,,,0.00,,,,,,,0.00,Joseph Weems,5704361099,,,,TX,1,6.25
109764,9/23/2018 8:59:04 PM,"THE BIG E STATE FAIR 9/14-30/18 West Springfield, MA (IL)","THE BIG E STATE FAIR 9/14-30/18 West Springfield, MA (IL)",Keith Kei,DWA-9150USJ-9150BL,Legacy 3D,New Black,1,"3 years parts, 1 year labor (Free)",CUSTOM COD,0.00,4500.00,4500.00,Cash,500.00,,,,,,,COD,4000.00,,,,,,,,0.00,,,,,,,0.00,Mariah Saez,8602168507,,,,TX,1,6.25
109813,9/24/2018 12:54:24 PM,"THE BIG E STATE FAIR 9/14-30/18 West Springfield, MA (IL)","THE BIG E STATE FAIR 9/14-30/18 West Springfield, MA (IL)",Keith Kei,DWA-9150USJ-9150CH,Legacy 3D,New Choco,2,"5 years parts, 1 year labor (Free)",CUSTOM ,0.00,9562.50,9562.50,CreditCard,9562.50,Receipt #91Wb,,,,,,,0.00,,,,,,,,0.00,,,,,,,0.00,Bart Cole,2039472830,,,,TX,1,6.25
109823,9/24/2018 3:06:20 PM,"THE BIG E STATE FAIR 9/14-30/18 West Springfield, MA (IL)","THE BIG E STATE FAIR 9/14-30/18 West Springfield, MA (IL)",Billy Shea,DWA-9150USJ-9150CH,Legacy 3D,New Choco,1,"5 years parts, 1 year labor (Free)",CUSTOM ,0.00,4900.00,4900.00,Synchrony,4900.00,,,6019170813156319,94815652,Huston,36 months,,0.00,,,,,,,,0.00,,,,,,,0.00,Karen Kingsley,8609178163,,,,TX,1,6.25
109825,9/24/2018 3:14:50 PM,"THE BIG E STATE FAIR 9/14-30/18 West Springfield, MA (IL)","THE BIG E STATE FAIR 9/14-30/18 West Springfield, MA (IL)",Keith Kei,DWA-9150USJ-9150CH,Legacy 3D,New Choco,1,"5 years parts, 1 year labor (Free)",CUSTOM ,262.13,5206.13,5206.13,CreditCard,5206.25,Receipt #1ODu,,,,,,,0.00,,,,,,,,0.00,,,,,,,0.00,Terrance Payton,2032151308,,,,TX,0,6.25
109827,9/24/2018 3:20:57 PM,"THE BIG E STATE FAIR 9/14-30/18 West Springfield, MA (IL)","THE BIG E STATE FAIR 9/14-30/18 West Springfield, MA (IL)",Winston Melgar,DWA-9060USJ-9060BR-DEMO,Relax2Zero 3D,Demo Choco,1,"3 years parts, 1 year labor (Free)",CUSTOM ,0.00,4200.00,4200.00,CreditCard,4200.00,83666P,,,,,,,0.00,,,,,,,,0.00,,,,,,,0.00,Luigi Fusco,2034151233,,,,TX,1,6.25
109829,9/24/2018 3:27:00 PM,"THE BIG E STATE FAIR 9/14-30/18 West Springfield, MA (IL)","THE BIG E STATE FAIR 9/14-30/18 West Springfield, MA (IL)",Keith Kei,DWA-9150USJ-9150CH,Legacy 3D,New Choco,1,"5 years parts, 1 year labor (Free)",CUSTOM ,262.19,5207.19,5207.19,CreditCard,5206.25,FgoY,,,,,,,0.00,,,,,,,,0.00,,,,,,,0.00,John Minukas,8604621047,,,,TX,0,6.25
109839,9/25/2018 6:59:13 AM,"THE BIG E STATE FAIR 9/14-30/18 West Springfield, MA (IL)","THE BIG E STATE FAIR 9/14-30/18 West Springfield, MA (IL)",Keith Kei,DWA-9060USJ-9060BL,Relax2Zero 3D,New Black,1,"5 years parts, 1 year labor (Free)",CUSTOM COD,0.00,5206.00,5206.00,CreditCard,200.00,SQ# FRJ1,,,,,,COD,5006.00,,,,,,,,0.00,,,,,,,0.00,Elias Baron,8603349127,,,,TX,1,6.25
109842,9/25/2018 9:01:33 AM,"THE BIG E STATE FAIR 9/14-30/18 West Springfield, MA (IL)","THE BIG E STATE FAIR 9/14-30/18 West Springfield, MA (IL)",Keith Kei,DWA-9150USJ-9150BL,Legacy 3D,New Black,1,"5 years parts, 1 year labor (Free)",CUSTOM ,0.00,5206.25,5206.25,CreditCard,5206.25,#r8s9,,,,,,,0.00,,,,,,,,0.00,,,,,,,0.00,Matthew Strano,(203)768-5746,,,,TX,1,6.25
109853,9/25/2018 2:35:54 PM,"THE BIG E STATE FAIR 9/14-30/18 West Springfield, MA (IL)","THE BIG E STATE FAIR 9/14-30/18 West Springfield, MA (IL)",Winston Melgar,DWA-9060USJ-9060BR,Relax2Zero 3D,New Choco,1,"3 years parts, 1 year labor (Free)",CUSTOM ,0.00,4600.00,4600.00,Synchrony,4600.00,,,6019170813157937,94861490,Huston,36 months,,0.00,,,,,,,,0.00,,,,,,,0.00,Bradford Reynolds,4133487565,,,,TX,1,6.25
109855,9/25/2018 2:40:29 PM,"THE BIG E STATE FAIR 9/14-30/18 West Springfield, MA (IL)","THE BIG E STATE FAIR 9/14-30/18 West Springfield, MA (IL)",Winston Melgar,DWA-9060USJ-9060BL,Relax2Zero 3D,New Black,1,"3 years parts, 1 year labor (Free)",CUSTOM ,0.00,4600.00,4600.00,Synchrony,4600.00,,,6019170813157994,94864310,Huston,36 months,,0.00,,,,,,,,0.00,,,,,,,0.00,Drew Smith,8603929862,,,,TX,1,6.25
109856,9/25/2018 2:44:12 PM,"THE BIG E STATE FAIR 9/14-30/18 West Springfield, MA (IL)","THE BIG E STATE FAIR 9/14-30/18 West Springfield, MA (IL)",Rolly San Jose,DWA-9060USJ-9060BR,Relax2Zero 3D,New Choco,1,"3 years parts, 1 year labor (Free)",CUSTOM ,0.00,4600.00,4600.00,Synchrony,4600.00,,,6019170813158281,94874392,Huston,36 months,,0.00,,,,,,,,0.00,,,,,,,0.00,Steve Hall,8608832766,,,,TX,1,6.25
109859,9/25/2018 4:16:49 PM,"THE BIG E STATE FAIR 9/14-30/18 West Springfield, MA (IL)","THE BIG E STATE FAIR 9/14-30/18 West Springfield, MA (IL)",Keith Kei,DWA-9150USJ-9150CH,Legacy 3D,New Choco,1,"5 years parts, 1 year labor (Free)",CUSTOM ,0.00,5206.25,5206.25,CreditCard,5206.25,Receipt #1ODu,,,,,,,0.00,,,,,,,,0.00,,,,,,,0.00,Terrance Payton,2032151308,,,,TX,1,6.25
109860,9/25/2018 4:24:42 PM,"THE BIG E STATE FAIR 9/14-30/18 West Springfield, MA (IL)","THE BIG E STATE FAIR 9/14-30/18 West Springfield, MA (IL)",Keith Kei,DWA-9150USJ-9150CH,Legacy 3D,New Choco,1,"5 years parts, 1 year labor (Free)",CUSTOM ,0.00,5206.25,5206.25,CreditCard,5206.25,FgoY,,,,,,,0.00,,,,,,,,0.00,,,,,,,0.00,John Minukas,8604621047,,,,TX,1,6.25
109864,9/25/2018 5:14:18 PM,"THE BIG E STATE FAIR 9/14-30/18 West Springfield, MA (IL)","THE BIG E STATE FAIR 9/14-30/18 West Springfield, MA (IL)",Keith Kei,DWA-9150USJ-9150CH,Legacy 3D,New Choco,1,"5 years parts, 1 year labor (Free)",CUSTOM ,205.88,4250.00,4250.00,CreditCard,4250.00,Square# Rzci,,,,,,,0.00,,,,,,,,0.00,,,,,,,0.00,Kevin Nguyen,4132043091,,,This is a bundle order,TX,0,6.25
109865,9/25/2018 5:23:32 PM,"THE BIG E STATE FAIR 9/14-30/18 West Springfield, MA (IL)","THE BIG E STATE FAIR 9/14-30/18 West Springfield, MA (IL)",Keith Kei,DWA-9150USJ-9150CH,Legacy 3D,New Choco,1,"5 years parts, 1 year labor (Free)",CUSTOM ,205.88,4250.00,4250.00,CreditCard,4250.00,Square # so4N,,,,,,,0.00,,,,,,,,0.00,,,,,,,0.00,Kevin Nguyen,4132043091,,,This is part of bundle order,TX,0,6.25
109881,9/26/2018 8:34:50 PM,"THE BIG E STATE FAIR 9/14-30/18 West Springfield, MA (IL)","THE BIG E STATE FAIR 9/14-30/18 West Springfield, MA (IL)",Rolly San Jose,DWA-9060USJ-9060BL,Relax2Zero 3D,New Black,1,"3 years parts, 1 year labor (Free)",CUSTOM ,0.00,4900.00,4900.00,Synchrony,4900.00,,,6019170813160089,94930697,Huston,36 months,,0.00,,,,,,,,0.00,,,,,,,0.00,Shahid Iqbal,9173610087,,,,TX,1,6.25
109882,9/26/2018 8:41:00 PM,"THE BIG E STATE FAIR 9/14-30/18 West Springfield, MA (IL)","THE BIG E STATE FAIR 9/14-30/18 West Springfield, MA (IL)",Keith Kei,DWA-9150USJ-9150BL,Legacy 3D,New Black,1,"5 years parts, 1 year labor (Free)",CUSTOM ,0.00,4900.00,4900.00,Synchrony,4900.00,,,6019170813159966,94928250,Huston,48 months,,0.00,,,,,,,,0.00,,,,,,,0.00,Joe Albano,4136266019,,,,TX,1,6.25
109883,9/26/2018 8:47:00 PM,"THE BIG E STATE FAIR 9/14-30/18 West Springfield, MA (IL)","THE BIG E STATE FAIR 9/14-30/18 West Springfield, MA (IL)",Billy Shea,DWA-9060USJ-9060BR,Relax2Zero 3D,New Choco,1,"5 years parts, 1 year labor (Free)",CUSTOM ,0.00,4900.00,4900.00,Synchrony,4900.00,,,6019170813159313,94913723,Huston,36 months,,0.00,,,,,,,,0.00,,,,,,,,Christine Ford,8607164549,,,,Not Dispatched,1,6.25
109884,9/26/2018 8:52:18 PM,"THE BIG E STATE FAIR 9/14-30/18 West Springfield, MA (IL)","THE BIG E STATE FAIR 9/14-30/18 West Springfield, MA (IL)",Winston Melgar,DWA-9150USJ-9150BL,Legacy 3D,New Black,1,"3 years parts, 1 year labor (Free)",CUSTOM COD,0.00,4500.00,4500.00,Cash,200.00,,,,,,,COD,4300.00,,,,,,,,0.00,,,,,,,0.00,Abdul Majidy,8602557530,,,,TX,1,6.25
109885,9/26/2018 9:28:33 PM,"THE BIG E STATE FAIR 9/14-30/18 West Springfield, MA (IL)","THE BIG E STATE FAIR 9/14-30/18 West Springfield, MA (IL)",Billy Shea,DWA-9150USJ-9150BL,Legacy 3D,New Black,1,"5 years parts, 1 year labor (Free)",CUSTOM Synchrony,0.00,4900.00,4900.00,CreditCard,1300.00,531616,,,,,,Synchrony,1200.00,,,6019170813154090,94769613,Huston,36 months,Cash,2400.00,,,,,,,0.00,Robert Tronsky,8607268710,,,,Not Dispatched,1,6.25
