﻿Date,CustomerName,State,Zipcode,Description,productNo,Color,IsDemo,Net,ShippingFee,GiftPrice,FinancingProcessingFee,Gross,Pre_tax,Tax,Commission,Primary Payment Method,Primary Payment Balance,Primary Authorize Number,Primary Purchase Order Number,Primary Synchrony Account Number,Primary Synchrony Application Key,Primary Synchrony AccountInfo,Primary SynchronyTerm,Secondly Payment Method,Secondly Payment Balance,Secondly Authorize Number,Secondly Purchase Order Number,Secondly Synchrony Account Number,Secondly Synchrony Application Key,Secondly Synchrony AccountInfo,Secondly SynchronyTerm,Thirdly Payment Method,Thirdly Payment Balance,Thirdly Authorize Number,Thirdly Purchase Order Number,Thirdly Synchrony Account Number,Thirdly Synchrony Application Key,Thirdly Synchrony AccountInfo,Thirdly SynchronyTerm,DeliveryDate,Ispickup,Warranty,Status,Original Event Name,Event Name,Synchrony Notes,Order Notes,Order number,Private Note,Branch,IsNoTax,ActualTaxRate
8/9/2018 9:10:02 PM,Deanne Ellis,IA,50324,Relax2Zero 3D,DWA-9060USJ-9060BR-DEMO,Demo Choco,Demo,,,,,4200.00,4200.00,0.00,Rolly San Jose,Synchrony,4200.00,,,6019170813074207,92759839,Huston,36 months,,0.00,,,,,,,,0.00,,,,,,,,No,"3 years parts, 1 year labor (Free)",Called,"IOWA STATE FAIR 8/9-19/18 DES MOINES, IA (IL)","IOWA STATE FAIR 8/9-19/18 DES MOINES, IA (IL)",,,108271,"Deliver on sept 1 or after bec of out of town vacation. Call 2 days prior sept 1 to confirm appt on sept 1 or after.//Confirmed synchrony account ($8,500) ORIGINAL NEEDS TO BE CONFIRMED 8/10/18 Hitomi///original confirmed 8/13/18 Hitomi",TX,1,6.00
8/9/2018 9:16:39 PM,Jeneffer/clint Smith,MT,59714,Relax2Zero 3D,DWA-9060USJ-9060BR,New Choco,New,,,,,4900.00,4900.00,0.00,Rolly San Jose,Synchrony,4900.00,,,6019170813074215,92759975,Huston,48 months,,0.00,,,,,,,,0.00,,,,,,,,No,"3 years parts, 1 year labor (Free)",Hold,"IOWA STATE FAIR 8/9-19/18 DES MOINES, IA (IL)","IOWA STATE FAIR 8/9-19/18 DES MOINES, IA (IL)",,,108272,"Confirmed synchrony account ($8,500)ORIGINAL NEEDS TO BE CONFIRMED 8/10/18 Hitomi///original is confirmed 8/13/18 Hitomi
8/13Maritza Customer called and said she needs to cancel order since husband lost his job. I instructed customer to call Rolly.",WA,1,6.00
8/9/2018 9:21:22 PM,Gary Snyder,IA,50169,Legacy 3D,DWA-9150USJ-9150BL-DEMO,Demo Black,Demo,,,,,4200.00,4200.00,0.00,Ilene Maynard,CreditCard,4200.00,009242,,,,,,,0.00,,,,,,,,0.00,,,,,,,,No,"3 years parts, 1 year labor (Free)",Scheduled,"IOWA STATE FAIR 8/9-19/18 DES MOINES, IA (IL)","IOWA STATE FAIR 8/9-19/18 DES MOINES, IA (IL)",,,108273,"will confirm transaction 8/10/18 Hitomi
sent customer new chair///COnfirmed $4,200.00 in WF 8/13/18 Hitomi

-call and schedule 8/10/2018  JUNE",TX,1,6.00
8/9/2018 9:30:26 PM,Tom Ahart,IA,50312,Legacy 3D,DWA-9150USJ-9150BL-DEMO,Demo Black,Demo,,,,,4452.00,4452.00,0.00,Keith Kei,CreditCard,4452.00,SQ # dXRQ,,,,,,,0.00,,,,,,,,0.00,,,,,,,,No,"3 years parts, 1 year labor (Free)",Scheduled,"IOWA STATE FAIR 8/9-19/18 DES MOINES, IA (IL)","IOWA STATE FAIR 8/9-19/18 DES MOINES, IA (IL)",,,108274,"All demo chairs are to be delivered by Chicago branch the first days after last day aug 19. They need to call customers Monday, aug 20 to set up apps.///Confirmed $4,452.00 in Square. 8/10/18 Hitomi
8/10Maritza Courtesy call @ 10:53AM

Sent customer new chair",TX,1,6.00
8/9/2018 9:36:08 PM,Julie Oswalt,IA,50317,Relax2Zero 3D,DWA-9060USJ-9060BL,New Black,New,,,,,4900.00,4900.00,0.00,Rolly San Jose,CreditCard,4900.00,06873D,,,,,,,0.00,,,,,,,,0.00,,,,,,,,No,"3 years parts, 1 year labor (Free)",Scheduled,"IOWA STATE FAIR 8/9-19/18 DES MOINES, IA (IL)","IOWA STATE FAIR 8/9-19/18 DES MOINES, IA (IL)",,,108275,"will confirm transaction 8/10/18 Hitomi///COnfirmed $4,900.00 in Wells Fargo. 8/13/18 Hitomi
call and schedule by June 8/10/2018",TX,1,6.00
8/9/2018 9:42:10 PM,Jeff Forward,ND,58474,Legacy 3D,DWA-9150USJ-9150CH-DEMO,Demo Choco,Demo,,,,,4452.00,4452.00,0.00,Keith Kei,CreditCard,4452.00,SQ # agFX,,,,,,,0.00,,,,,,,,0.00,,,,,,,,No,"3 years parts, 1 year labor (Free)",Scheduled,"IOWA STATE FAIR 8/9-19/18 DES MOINES, IA (IL)","IOWA STATE FAIR 8/9-19/18 DES MOINES, IA (IL)",,,108276,"Confirmed $4,452.00 in Square. 8/10/18 Hitomi
8/10Maritza Courtesy call @ 10:56AM",TX,1,6.00
8/9/2018 9:47:24 PM,Mike Lucas,IA,52214,Pegasus,DWA-9400Pegasus-BR-DEMO,Demo Choco,Demo,,,,,5200.00,5200.00,0.00,Ruben Cuatrona,CreditCard,5200.00,SQ # QTBe,,,,,,,0.00,,,,,,,,0.00,,,,,,,,No,"3 years parts, 1 year labor (Free)",Scheduled,"IOWA STATE FAIR 8/9-19/18 DES MOINES, IA (IL)","IOWA STATE FAIR 8/9-19/18 DES MOINES, IA (IL)",,,108277,"Give 1 free foot vibe///Confirmed $5,200.00 in Square. 8/10/18 Hitomi
8/10Maritza Courtesy call @ 10:58AM
sent customer a new chair",TX,1,6.00
8/9/2018 9:54:56 PM,Jeff Hall,IA,52347,Pegasus,DWA-9400Pegasus-BL,New Black,New,,,,,5400.00,5400.00,0.00,Xiongxiaojun Ji,Check,5400.00,,,,,,,,0.00,,,,,,,,0.00,,,,,,,,No,"3 years parts, 1 year labor (Free)",New,"IOWA STATE FAIR 8/9-19/18 DES MOINES, IA (IL)","IOWA STATE FAIR 8/9-19/18 DES MOINES, IA (IL)",,,108279,"Check will be deposited by nonie , aug 10. Will provide a copy of the bank receipt after///check was deposited on 8/11/18. will confirm transaction on 8/20/18 Monday. 8/13/18 Hitomi",Not Dispatched,1,6.00
8/11/2018 6:35:22 AM,Billie Sieperda,IA,50266,Relax2Zero 3D,DWA-9060USJ-9060BR-DEMO,Demo Choco,Demo,,,,,3500.00,3500.00,0.00,Rolly San Jose,CreditCard,3500.00,462346,,,,,,,0.00,,,,,,,,0.00,,,,,,,,No,"3 years parts, 1 year labor (Free)",Scheduled,"IOWA STATE FAIR 8/9-19/18 DES MOINES, IA (IL)","IOWA STATE FAIR 8/9-19/18 DES MOINES, IA (IL)",,,108319,"This is Andy besco, a 2017 customer whose friend.bought this chair.  I gave him the loyalty discount plus being very honest. He almost got a 2nd chair delivery by mistake.
//Confirmed 3,500.00 in WF. 8/13/18 Hitomi
called and scheduled 8/13/2018 June",TX,1,6.00
8/11/2018 6:43:14 AM,James Widmann,IA,50320,Relax2Zero 3D,DWA-9060USJ-9060BR,New Choco,New,,,,,4500.00,4500.00,0.00,Rolly San Jose,Synchrony,4500.00,,,6019170813074306,92759622,Huston,36 months,,0.00,,,,,,,,0.00,,,,,,,,No,"3 years parts, 1 year labor (Free)",Scheduled,"IOWA STATE FAIR 8/9-19/18 DES MOINES, IA (IL)","IOWA STATE FAIR 8/9-19/18 DES MOINES, IA (IL)",Authorization # 013179 charged by Tina 8/13/2018,,108320,"Will be out of town aug 20 to24, 2018. Will provide new address to ship to. PLS WAIT.../Confirmed synchrony account ($6000) and original . 8/13/18 Hitomi",TX,1,6.00
8/11/2018 6:45:09 AM,tara van brederode,IA,50309,Relax2Zero 3D,DWA-9060USJ-9060BR,New Choco,New,,,,,4200.00,4200.00,0.00,Noni Ignacio,Synchrony,4200.00,,,6019170813075899,92807115,Huston,36 months,,0.00,,,,,,,,0.00,,,,,,,,No,"3 years parts, 1 year labor (Free)",Scheduled,"IOWA STATE FAIR 8/9-19/18 DES MOINES, IA (IL)","IOWA STATE FAIR 8/9-19/18 DES MOINES, IA (IL)",Authorization # 013437  charged by Tina 8/13/2018,,108321,"Confirmed synchrony account ($8,500) and original. ***Please charge before delivery and have sales draft signed *** 8/13/18 Hitomi",TX,1,6.00
8/11/2018 6:51:26 AM,Cindy Hughes,IA,51566,Relax2Zero 3D,DWA-9060USJ-9060BL-DEMO,Demo Black,Demo,,,,,4200.00,4200.00,0.00,Rolly San Jose,Synchrony,4200.00,,,6019170813075881,92807104,Huston,36 months,,0.00,,,,,,,,0.00,,,,,,,,No,"3 years parts, 1 year labor (Free)",Scheduled,"IOWA STATE FAIR 8/9-19/18 DES MOINES, IA (IL)","IOWA STATE FAIR 8/9-19/18 DES MOINES, IA (IL)",Authorization # 013446 charged by Tina 8/18/2018,,108323,"Confirmed synchrony account ($8,500) and original. ***Please charge before delivery and have sales draft signed.*** 8/13/18 Hitomi",TX,1,6.00
8/11/2018 7:00:55 AM,marlo mesenbrink,IA,50105,Relax2Zero 3D,DWA-9060USJ-9060BR,New Choco,New,,,,,4500.00,4500.00,0.00,Ilene Maynard,Synchrony,4500.00,,,6019170813075907,92807571,Huston,36 months,,0.00,,,,,,,,0.00,,,,,,,,No,"3 years parts, 1 year labor (Free)",Scheduled,"IOWA STATE FAIR 8/9-19/18 DES MOINES, IA (IL)","IOWA STATE FAIR 8/9-19/18 DES MOINES, IA (IL)",Authorization # 013800 charged by Tina 8/13/2018,,108325,"Confirmed synchron account ($8,500) and original. ***please charge before delivery and have sales draft signed. *** 8/13/18 Hitomi",TX,1,6.00
8/11/2018 7:04:55 AM,Randy Reinertson,TX,78070,Relax2Zero 3D,DWA-9060USJ-9060BR,New Choco,New,,,,,4500.00,4500.00,0.00,Noni Ignacio,Synchrony,4500.00,,,6019170813074355,92759572,Huston,36 months,,0.00,,,,,,,,0.00,,,,,,,,No,"3 years parts, 1 year labor (Free)",Called,"IOWA STATE FAIR 8/9-19/18 DES MOINES, IA (IL)","IOWA STATE FAIR 8/9-19/18 DES MOINES, IA (IL)",,,108326,Confirmed synchrony account ($8500) and original. ***Please charge before delivery and have sales draft signed. *** 8/13/18 Hitomi,TX,1,6.00
8/11/2018 7:06:26 AM,Eric Schlutc,IA,52754,Legacy 3D,DWA-9150USJ-9150CH-DEMO,Demo Choco,Demo,,,,,4452.00,4242.45,209.55,Keith Kei,CreditCard,4452.00,ixHn,,,,,,,0.00,,,,,,,,0.00,,,,,,,,No,"3 years parts, 1 year labor (Free)",Called,"IOWA STATE FAIR 8/9-19/18 DES MOINES, IA (IL)","IOWA STATE FAIR 8/9-19/18 DES MOINES, IA (IL)",,,108327,8/13Maritza Confirmed $4452 on square.,TX,0,6.00
8/11/2018 7:10:22 AM,diann lee,IA,50131,Relax2Zero 3D,DWA-9060USJ-9060BL,New Black,New,,,,,4900.00,4900.00,0.00,Rolly San Jose,CreditCard,4900.00,840058,,,,,,,0.00,,,,,,,,0.00,,,,,,,,No,"3 years parts, 1 year labor (Free)",Called,"IOWA STATE FAIR 8/9-19/18 DES MOINES, IA (IL)","IOWA STATE FAIR 8/9-19/18 DES MOINES, IA (IL)",,,108328,8/13Maritza Confirmed 4900 processed on Wells Fargo. Charge went through on 8/11.,TX,1,6.00
8/11/2018 7:14:46 AM,george whitney,AR,72023,Relax2Zero 3D,DWA-9060USJ-9060BR,New Choco,New,,,,,4900.00,4900.00,0.00,Rolly San Jose,CreditCard,4900.00,07053G,,,,,,,0.00,,,,,,,,0.00,,,,,,,,No,"3 years parts, 1 year labor (Free)",Called,"IOWA STATE FAIR 8/9-19/18 DES MOINES, IA (IL)","IOWA STATE FAIR 8/9-19/18 DES MOINES, IA (IL)",,,108329,8/13 Maritza Confirmed $4900 on Wells Fargo. Funded on 8/11.,TX,1,6.00
8/11/2018 7:18:18 AM,liam anvivat,IA,50325,Legacy 3D,DWA-9150USJ-9150BL-DEMO,Demo Black,Demo,,,,,4452.00,4452.00,0.00,Keith Kei,CreditCard,4452.00,mKpl,,,,,,,0.00,,,,,,,,0.00,,,,,,,,No,"3 years parts, 1 year labor (Free)",Scheduled,"IOWA STATE FAIR 8/9-19/18 DES MOINES, IA (IL)","IOWA STATE FAIR 8/9-19/18 DES MOINES, IA (IL)",,,108330,8/13Maritza Confirmed $4452 on Square.,TX,1,6.00
8/11/2018 7:21:50 AM,brian welch,IA,50501,Relax2Zero 3D,DWA-9060USJ-9060BR,New Choco,New,,,,,4200.00,4200.00,0.00,Paul Wnag,CreditCard,4200.00,aZE1,,,,,,,0.00,,,,,,,,0.00,,,,,,,,No,"3 years parts, 1 year labor (Free)",Scheduled,"IOWA STATE FAIR 8/9-19/18 DES MOINES, IA (IL)","IOWA STATE FAIR 8/9-19/18 DES MOINES, IA (IL)",,,108331,8/13Maritza Confirmed $4200 on Square.,TX,1,6.00
8/11/2018 7:26:18 AM,Rebecca Ehwegen,IA,50313,Legacy 3D,DWA-9150USJ-9150CH,New Choco,New,,,,,4900.00,4900.00,0.00,Xiongxiaojun Ji,Synchrony,4900.00,,,6019170813075014,92788214,Huston,36 months,,0.00,,,,,,,,0.00,,,,,,,,No,"3 years parts, 1 year labor (Free)",Scheduled,"IOWA STATE FAIR 8/9-19/18 DES MOINES, IA (IL)","IOWA STATE FAIR 8/9-19/18 DES MOINES, IA (IL)",Authorization # 013970 charged by Tina 8/13/2018,,108332,"free delivery to basement//Confirmed synchrony account ($6,500) and original.***Please charge before delivery and have sales draft signed. *** 8/13/18 Hitomi",TX,1,6.00
8/11/2018 7:30:18 AM,elaine kanter,IA,50643,Legacy 3D,DWA-9150USJ-9150CH,New Choco,New,,,,,4900.00,4900.00,0.00,Xiongxiaojun Ji,Synchrony,4900.00,,,6019170813075683,92798383,Huston,36 months,,0.00,,,,,,,,0.00,,,,,,,,No,"3 years parts, 1 year labor (Free)",Cancelled,"IOWA STATE FAIR 8/9-19/18 DES MOINES, IA (IL)","IOWA STATE FAIR 8/9-19/18 DES MOINES, IA (IL)",,,108333,"free delivery to basement///Confirmed /synchrony ($8,500)  and original. ***Please charge before delivery and have sales draft signed *** 8/13/18 Hitomi",TX,1,6.00
8/12/2018 6:36:41 AM,grant wolf,IA,52501,Relax2Zero 3D,DWA-9060USJ-9060BL-DEMO,Demo Black,Demo,,,,,4000.00,4000.00,0.00,Rolly San Jose,CreditCard,4000.00,69011p,,,,,,,0.00,,,,,,,,0.00,,,,,,,,No,"3 years parts, 1 year labor (Free)",Scheduled,"IOWA STATE FAIR 8/9-19/18 DES MOINES, IA (IL)","IOWA STATE FAIR 8/9-19/18 DES MOINES, IA (IL)",,,108369,08/13/18 - Cristina Dispatched and Cleared Wells Fargo payment,TX,1,6.00
8/12/2018 6:42:44 AM,mike murdeek,IA,52405,Legacy 3D,DWA-9150USJ-9150CH-DEMO,Demo Choco,Demo,,,,,4200.00,4200.00,0.00,Ruben Cuatrona,Synchrony,4200.00,,,6019170813076079,92813405,San Diego,36 months,,0.00,,,,,,,,0.00,,,,,,,,No,"3 years parts, 1 year labor (Free)",Scheduled,"IOWA STATE FAIR 8/9-19/18 DES MOINES, IA (IL)","IOWA STATE FAIR 8/9-19/18 DES MOINES, IA (IL)",Authorization # 013307 charged by Tina 8/13/2018,,108370,"08/13/18-Cristina- Verified synchrony account of $6,000.00; Please charge synchrony before delivery and have sales drafts signed",TX,1,6.00
8/12/2018 6:56:08 AM,Sheila Schmitz,CO,80104,Relax2Zero 3D,DWA-9060USJ-9060BR-DEMO,Demo Choco,Demo,,,,,4452.00,4452.00,0.00,Ilene Maynard,CreditCard,2452.00,01169P,,,,,,Synchrony,2000.00,,,6019170813075873,92806973,Huston,36 months,,0.00,,,,,,,,No,"3 years parts, 1 year labor (Free)",Scheduled,"IOWA STATE FAIR 8/9-19/18 DES MOINES, IA (IL)","IOWA STATE FAIR 8/9-19/18 DES MOINES, IA (IL)",,Invoice # 16,108371,"Confirmed $2,452.00 in WF. COnfirmed synchrony account ($2,000) and original. ***please charge $2,000 and sales draft signed. *** 8/13/18 Hitomi",TX,1,6.00
8/12/2018 7:04:49 AM,Jim/teri Nelson,IA,50001,Legacy 3D,DWA-9150USJ-9150BL,New Black,New,,,,,4500.00,4500.00,0.00,Ruben Cuatrona,CreditCard,4500.00,011408,,,,,,,0.00,,,,,,,,0.00,,,,,,,,No,"3 years parts, 1 year labor (Free)",Scheduled,"IOWA STATE FAIR 8/9-19/18 DES MOINES, IA (IL)","IOWA STATE FAIR 8/9-19/18 DES MOINES, IA (IL)",,,108372,"confirmed $4,500 was charged by WF. 8/13/18 Hitomi",TX,1,6.00
8/12/2018 7:05:36 AM,cynthia rayman,IA,50317,Relax2Zero 3D,DWA-9060USJ-9060BL-DEMO,Demo Black,Demo,,,,,4200.00,4200.00,0.00,Rolly San Jose,Synchrony,4200.00,,,6019170813076285,92818475,Las Vegas,36 months,,0.00,,,,,,,,0.00,,,,,,,,No,"3 years parts, 1 year labor (Free)",Scheduled,"IOWA STATE FAIR 8/9-19/18 DES MOINES, IA (IL)","IOWA STATE FAIR 8/9-19/18 DES MOINES, IA (IL)","Authorization # 013825 charged by Tina 8/13/2018
",,108373,"08/13/18-Cristina- verfi. Synchrony avali. credit of $6,000.00; Please charge before delivery and have sales draft signed.",TX,1,6.00
8/12/2018 7:09:54 AM,tommy newton,IA,50264,Relax2Zero 3D,DWA-9060USJ-9060BR,New Choco,New,,,,,4900.00,4900.00,0.00,Ilene Maynard,Synchrony,4900.00,,,6019170813078315,92852751,Las Vegas,36 months,,0.00,,,,,,,,0.00,,,,,,,,No,"3 years parts, 1 year labor (Free)",Called,"IOWA STATE FAIR 8/9-19/18 DES MOINES, IA (IL)","IOWA STATE FAIR 8/9-19/18 DES MOINES, IA (IL)",,,108374,"COnfirmed synchrony account($6500) under TOMMY EWTON. original needs to be confirmed 8/13/18 Hitomi///original is confirmed 8/14/18Hitomi
8/14Maritza Tried to call but couldn't be completed as dialed. I sent them an email to verify phone number. Will update once he reaches out to me.",TX,1,6.00
8/12/2018 7:11:57 AM,Juniece Walsh,IA,50242,Pegasus,DWA-9400Pegasus-BR-DEMO,Demo Choco,Demo,,,,,5000.00,5000.00,0.00,Ruben Cuatrona,CreditCard,500.00,981996,,,,,,COD,4500.00,,,,,,,,0.00,,,,,,,,No,"3 years parts, 1 year labor (Free)",Scheduled,"IOWA STATE FAIR 8/9-19/18 DES MOINES, IA (IL)","IOWA STATE FAIR 8/9-19/18 DES MOINES, IA (IL)",,,108375,"Bal payment COD - $ 4500. Call to get payment ver the phone before delivery///COnfirmed 500.00 in WF. Please collect COD $4,500. 8/13/18 Hitomi
print",TX,1,6.00
8/12/2018 7:12:13 AM,Timothy Hargis,IA,52403,Relax2Zero 3D,DWA-9060USJ-9060BL,New Black,New,,,,,4700.00,4700.00,0.00,Rolly San Jose,Synchrony,4700.00,,,6019193606456419,,Las Vegas,36 months,,0.00,,,,,,,,0.00,,,,,,,,No,"3 years parts, 1 year labor (Free)",Scheduled,"IOWA STATE FAIR 8/9-19/18 DES MOINES, IA (IL)","IOWA STATE FAIR 8/9-19/18 DES MOINES, IA (IL)",,Order #29,108376,08/13/18- Cristina- Unable to verify credit amount.,TX,1,6.00
8/12/2018 7:15:08 AM,aileen foss,IA,50327,Relax2Zero 3D,DWA-9060USJ-9060BL-DEMO,Demo Black,Demo,,,,,4000.00,4000.00,0.00,Noni Ignacio,Synchrony,4000.00,,,6019170813078323,92852915,Huston,36 months,,0.00,,,,,,,,0.00,,,,,,,,No,"3 years parts, 1 year labor (Free)",Called,"IOWA STATE FAIR 8/9-19/18 DES MOINES, IA (IL)","IOWA STATE FAIR 8/9-19/18 DES MOINES, IA (IL)",,,108377,"Confirmed synchrony account ($8500) under DAVID DANIEL FOSS(husband). ORIGINAL NEEDS TO BE CONFIRMED 8/13/18 Hitomi///original is confirmed 8/14/18 Hitomi
8/14Maritza Courtesy call @ 11:32AM",TX,1,6.00
8/13/2018 6:31:50 AM,Nathan Bartels,IA,50428,Pegasus,DWA-9400Pegasus-BR,New Choco,New,,,,,6012.00,5714.15,297.85,Keith Kei,CreditCard,500.00,Square # oRbz,,,,,,COD,5512.00,,,,,,,,0.00,,,,,,,,No,"3 years parts, 1 year labor (Free)",Cancelled,"IOWA STATE FAIR 8/9-19/18 DES MOINES, IA (IL)","IOWA STATE FAIR 8/9-19/18 DES MOINES, IA (IL)",,"Order # 33
Call or text customer for delivery",108429,"CONFIRMED $500  #oRbz - COD $5512 - STEPHANY 08/13/18///correct total amount is $5,512.00. will correct it. REVISED 108495",TX,0,6.00
8/13/2018 6:31:53 AM,terry galvin,IA,52324,Relax2Zero 3D,DWA-9060USJ-9060BR,New Choco,New,,,,,4900.00,4900.00,0.00,Ilene Maynard,CreditCard,2500.00,01287B,,,,,,Synchrony,2400.00,,,6019170813080162,92886525,Huston,36 months,,0.00,,,,,,,,No,"3 years parts, 1 year labor (Free)",New,"IOWA STATE FAIR 8/9-19/18 DES MOINES, IA (IL)","IOWA STATE FAIR 8/9-19/18 DES MOINES, IA (IL)",,,108430,"Confirmed $2,500.00 in WF. synchrony account (6000) ORIGINAL NEEDS TO BE CONFIRMED 8/14/18 Hitomi//synchrony original form confirmed (Terry signed synchrony and his wife signed sales receipt. )***Please charge $2400.00 before delivery and have sales draft signed. ***8/15/18 Hitomi
called and scheduled. 8/15/2018 June",TX,1,6.00
8/13/2018 6:36:42 AM,lisa noble,IA,50313,Legacy 3D,DWA-9150USJ-9150BL,New Black,New,,,,,5194.00,5194.00,0.00,Xiongxiaojun Ji,Synchrony,5194.00,,,6019170813080139,92881280,Huston,36 months,,0.00,,,,,,,,0.00,,,,,,,,No,"3 years parts, 1 year labor (Free)",New,"IOWA STATE FAIR 8/9-19/18 DES MOINES, IA (IL)","IOWA STATE FAIR 8/9-19/18 DES MOINES, IA (IL)",,,108432,"COnfirmed synchrony account ($5,500). ORIGINAL NEEDS TO BE CONFIRMED  8/13/18 Hitomi",Not Dispatched,1,6.00
8/13/2018 6:40:18 AM,victoria ream,IA,50060,Pegasus,DWA-9400Pegasus-BR,New Choco,New,,,,,5900.00,5900.00,0.00,Ruben Cuatrona,Synchrony,5900.00,,,6019170813079297,92868682,San Diego,48 months,,0.00,,,,,,,,0.00,,,,,,,,No,"3 years parts, 1 year labor (Free)",Called,"IOWA STATE FAIR 8/9-19/18 DES MOINES, IA (IL)","IOWA STATE FAIR 8/9-19/18 DES MOINES, IA (IL)",,,108433,"Confirmed synchrony account ($8,500) ORIGINAL NEEDS TO BE CONFIRMED 8/13/18 Hitomi///Confirmed original. ***Please charge $5,900 and have saled draft signed. *** 8/14/18 Hitomi
8/15Maritza Courtesy call @ 8:40AM",TX,1,6.00
8/13/2018 6:41:29 AM,Kevin D Nguyen,IA,50320,Legacy 3D,DWA-9150USJ-9150CH,New Choco,New,,,,,5194.00,4942.45,251.55,Keith Kei,Synchrony,5194.00,,,6019170813080048,92878969,Huston,36 months,,0.00,,,,,,,,0.00,,,,,,,,No,"3 years parts, 1 year labor (Free)",New,"IOWA STATE FAIR 8/9-19/18 DES MOINES, IA (IL)","IOWA STATE FAIR 8/9-19/18 DES MOINES, IA (IL)",Authorization # 013278 charged by Tina 8/13/2018,Order # 36,108435,Confirmed synchrony account ($6300) ORIGINAL NEEDS TO BE CONFIRMED 8/13/18 Hitomi,Not Dispatched,0,6.00
8/13/2018 6:46:06 AM,gerry stoll,IA,50124,Relax2Zero 3D,DWA-9060USJ-9060BR-DEMO,Demo Choco,Demo,,,,,4200.00,4200.00,0.00,Rolly San Jose,Synchrony,4200.00,,,6019170813078406,92855037,San Diego,36 months,,0.00,,,,,,,,0.00,,,,,,,,No,"3 years parts, 1 year labor (Free)",Scheduled,"IOWA STATE FAIR 8/9-19/18 DES MOINES, IA (IL)","IOWA STATE FAIR 8/9-19/18 DES MOINES, IA (IL)",,,108436,"COnfirmed synchrony account ($8500)  ORIGINAL NEEDS TO BE CONFIRMED 8/13/18 Hitomi//Confirmed original. ***Please charge $4,200 before delivery and have sales draft signed. *** 8/14/18 Hitomi
8/15Maritza Courtesy call @ 8:42AM",TX,1,6.00
8/13/2018 6:49:13 AM,lynsey yokum,IA,52317,Relax2Zero 3D,DWA-9060USJ-9060BR,New Choco,New,,,,,4900.00,4900.00,0.00,Noni Ignacio,CreditCard,4900.00,08190D,,,,,,,0.00,,,,,,,,0.00,,,,,,,,No,"3 years parts, 1 year labor (Free)",Scheduled,"IOWA STATE FAIR 8/9-19/18 DES MOINES, IA (IL)","IOWA STATE FAIR 8/9-19/18 DES MOINES, IA (IL)",,,108437,"WF NOT CONFIRMED YET - 08/13/18 STEPHANY///CONfirmed $4,900.00 in WF. 8/14/18 Hitomi
8/14Maritza Courtesy all @ 11:53AM",TX,1,6.00
8/14/2018 6:20:44 AM,lenland vertlelst,IA,50219,Legacy 3D,DWA-9150USJ-9150BL,New Black,New,,,,,4600.00,4600.00,0.00,Paul Wnag,CreditCard,4600.00,P7nM,,,,,,,0.00,,,,,,,,0.00,,,,,,,,No,"3 years parts, 1 year labor (Free)",Called,"IOWA STATE FAIR 8/9-19/18 DES MOINES, IA (IL)","IOWA STATE FAIR 8/9-19/18 DES MOINES, IA (IL)",,,108467,"COnfirmed $4,600.00 in Square. 8/14/18 Hitomi
8/14Maritza Courtesy call @ 12:03PM",TX,1,6.00
8/14/2018 6:25:20 AM,Rlryano bice,IA,52302,Relax2Zero 3D,DWA-9060USJ-9060BL,New Black,New,,,,,4500.00,4500.00,0.00,Rolly San Jose,CreditCard,4500.00,479989,,,,,,,0.00,,,,,,,,0.00,,,,,,,,No,"3 years parts, 1 year labor (Free)",New,"IOWA STATE FAIR 8/9-19/18 DES MOINES, IA (IL)","IOWA STATE FAIR 8/9-19/18 DES MOINES, IA (IL)",,,108468,transaction hasn't shown up 8/14/18 Hitomi,Not Dispatched,1,6.00
8/14/2018 6:25:21 AM,David john Schuchmann,IA,52341,Legacy 3D,DWA-9150USJ-9150BL,New Black,New,,,,,5194.00,5194.00,0.00,Keith Kei,Synchrony,5194.00,,,6019170813081483,92919731,Huston,36 months,,0.00,,,,,,,,0.00,,,,,,,,No,"3 years parts, 1 year labor (Free)",New,"IOWA STATE FAIR 8/9-19/18 DES MOINES, IA (IL)","IOWA STATE FAIR 8/9-19/18 DES MOINES, IA (IL)",,,108469,Confirmed synchrony account (8500) ORIGINAL NEEDS TO BE CONFIRMED 8/14/18 Hitomi,Not Dispatched,1,6.00
8/14/2018 6:29:55 AM,ricky jennings,OK,73072,Relax2Zero 3D,DWA-9060USJ-9060BR,New Choco,New,,,,,5194.00,5194.00,0.00,Keith Kei,CreditCard,5194.00,DwH7,,,,,,,0.00,,,,,,,,0.00,,,,,,,,No,"3 years parts, 1 year labor (Free)",Called,"IOWA STATE FAIR 8/9-19/18 DES MOINES, IA (IL)","IOWA STATE FAIR 8/9-19/18 DES MOINES, IA (IL)",,,108470,"Confirmed $5,194.00 in Square. 8/14/18 Hitomi
8/14Maritza Courtesy text @ 12:09PM",TX,1,6.00
8/14/2018 6:35:41 AM,jeffrey rupe,IA,52317,Pegasus,DWA-9400Pegasus-BL-DEMO,Demo Black,Demo,,,,,5200.00,5200.00,0.00,Rodrigo Malabunga,Synchrony,5200.00,,,6019170813080998,92910659,San Diego,48 months,,0.00,,,,,,,,0.00,,,,,,,,No,"3 years parts, 1 year labor (Free)",New,"IOWA STATE FAIR 8/9-19/18 DES MOINES, IA (IL)","IOWA STATE FAIR 8/9-19/18 DES MOINES, IA (IL)",,,108471,CONfirmed synchrony account (7200) ORIGINAL NEEDS TO BE CONFIRMED 8/14/18 Hitomi,Not Dispatched,1,6.00
8/14/2018 6:42:59 AM,jann mike goodylc,IA,50219,Relax2Zero 3D,DWA-9060USJ-9060BR,New Choco,New,,,,,4900.00,4900.00,0.00,Rolly San Jose,CreditCard,4900.00,P4B4,,,,,,,0.00,,,,,,,,0.00,,,,,,,,No,"3 years parts, 1 year labor (Free)",Called,"IOWA STATE FAIR 8/9-19/18 DES MOINES, IA (IL)","IOWA STATE FAIR 8/9-19/18 DES MOINES, IA (IL)",,,108472,"Confirmed $4,900.00 in Square. 8/14/18 Hitomi
COURTESY CALL LEFT VM - 08/14/18 STEPHANY 11:53",TX,1,6.00
8/14/2018 6:47:36 AM,james keiter,IA,50310,Relax2Zero 3D,DWA-9060USJ-9060BR,New Choco,New,,,,,4700.00,4700.00,0.00,Ilene Maynard,Synchrony,4700.00,,,6019170813081632,92923300,San Diego,36 months,,0.00,,,,,,,,0.00,,,,,,,,No,"3 years parts, 1 year labor (Free)",Called,"IOWA STATE FAIR 8/9-19/18 DES MOINES, IA (IL)","IOWA STATE FAIR 8/9-19/18 DES MOINES, IA (IL)",,,108473,"Confirmed synchrony account (8500) and original.****Please charge $4,700 before delivery and have sales draft signed.***  8/14/18 Hitomi
8/15Maritza Courtesy call @ 8:44AM",TX,1,6.00
8/14/2018 6:52:09 AM,nicholas wilkinson,IA,50047,Relax2Zero 3D,DWA-9060USJ-9060BL,New Black,New,,,,,4900.00,4900.00,0.00,Ilene Maynard,Synchrony,4900.00,,,6019170813081657,92923634,San Diego,36 months,,0.00,,,,,,,,0.00,,,,,,,,No,"3 years parts, 1 year labor (Free)",Scheduled,"IOWA STATE FAIR 8/9-19/18 DES MOINES, IA (IL)","IOWA STATE FAIR 8/9-19/18 DES MOINES, IA (IL)",,,108474,"Confirmed synchrony account (6000) under NICHOLAS WILLIAMSON. and original. ***Please charge $4,900 before delivery and have sales draft signed. *** 8/14/18 Hitomi
8/15Maritza Courtesy call @ 9AM",TX,1,6.00
8/14/2018 6:54:48 AM,Mark Anthony Kuhns,IA,50313,Legacy 3D,DWA-9150USJ-9150BL,New Black,New,,,,,5194.00,4942.45,251.55,Keith Kei,Synchrony,5194.00,,,6019170813081772,92925521,Huston,36 months,,0.00,,,,,,,,0.00,,,,,,,,No,"3 years parts, 1 year labor (Free)",Called,"IOWA STATE FAIR 8/9-19/18 DES MOINES, IA (IL)","IOWA STATE FAIR 8/9-19/18 DES MOINES, IA (IL)",,Order # 50,108475,"Confirmed synchrony account ($5900) and original. ***Please charge $5,194 before delivery and have sales draft signed. *** 8/14/18 Hitomi
8/15Maritza Courtesy call @ 9:02AM",TX,0,6.00
8/14/2018 6:57:43 AM,Donald Lester,IA,50036,Pegasus,DWA-9400Pegasus-BL-DEMO,Demo Black,Demo,,,,,5200.00,5200.00,0.00,Ruben Cuatrona,Synchrony,5200.00,,,6019170813081582,92922315,San Diego,48 months,,0.00,,,,,,,,0.00,,,,,,,,No,"3 years parts, 1 year labor (Free)",New,"IOWA STATE FAIR 8/9-19/18 DES MOINES, IA (IL)","IOWA STATE FAIR 8/9-19/18 DES MOINES, IA (IL)",,,108476,Confirmed synchrony account (8500) ORIGINAL NEEDS TO BE CONFIRMED 8/14/18 Hitomi,Not Dispatched,1,6.00
8/14/2018 6:57:54 AM,dennis behrens,IA,50435,Legacy 3D,DWA-9150USJ-9150CH,New Choco,New,,,,,4900.00,4900.00,0.00,Rodrigo Malabunga,Synchrony,4900.00,,,6019170813080915,92908929,San Diego,48 months,,0.00,,,,,,,,0.00,,,,,,,,No,"3 years parts, 1 year labor (Free)",New,"IOWA STATE FAIR 8/9-19/18 DES MOINES, IA (IL)","IOWA STATE FAIR 8/9-19/18 DES MOINES, IA (IL)",,,108477,Confirmed synchrony account (7200) ORIGINAL NEEDS TO BE CONFIRMED 8/14/18 Hitomi,Not Dispatched,1,6.00
8/14/2018 7:06:42 AM,Donald Lester,IA,50036,Pegasus,DWA-9400Pegasus-BL-DEMO,Demo Black,Demo,,,,,5200.00,5200.00,0.00,Ruben Cuatrona,Synchrony,5200.00,,,6019170813081582,92922315,San Diego,48 months,,0.00,,,,,,,,0.00,,,,,,,,No,"3 years parts, 1 year labor (Free)",New,"IOWA STATE FAIR 8/9-19/18 DES MOINES, IA (IL)","IOWA STATE FAIR 8/9-19/18 DES MOINES, IA (IL)",,,108479,Confirmed synchrony account (8500) ORIGINAL NEEDS TO BE CONFIRMED 8/14/18 HITOMI,Not Dispatched,1,6.00
8/14/2018 7:12:58 AM,Tomas lee Willis,IA,50109,Relax2Zero 3D,DWA-9060USJ-9060BL,New Black,New,,,,,4700.00,4700.00,0.00,Rolly San Jose,Synchrony,4700.00,,,6019170813081616,92923148,San Diego,48 months,,0.00,,,,,,,,0.00,,,,,,,,No,"3 years parts, 1 year labor (Free)",Called,"IOWA STATE FAIR 8/9-19/18 DES MOINES, IA (IL)","IOWA STATE FAIR 8/9-19/18 DES MOINES, IA (IL)",,,108481,"Confirmed synchrony account (8500) and original. ***Please charge $4,700 before delivery and have sales draft signed.*** 8/14/18 Hitomi
8/15Maritza Courtesy email sent at 9:13AM",TX,1,6.00
8/14/2018 4:47:31 PM,Nathan Bartels,IA,50428,Pegasus,DWA-9400Pegasus-BR,New Choco,New,,,,,5512.00,5512.00,0.00,Keith Kei,CreditCard,500.00,Square # oRbz,,,,,,COD,5012.00,,,,,,,,0.00,,,,,,,,No,"3 years parts, 1 year labor (Free)",Scheduled,"IOWA STATE FAIR 8/9-19/18 DES MOINES, IA (IL)","IOWA STATE FAIR 8/9-19/18 DES MOINES, IA (IL)",,Order # 33,108495,CONFIRMED $500  #oRbz - COD $5012 - STEPHANY 08/13/18,TX,1,6.00
8/14/2018 6:04:24 PM,anne manning,IA,50208,Pegasus,DWA-9400Pegasus-BR,New Choco,New,,,,,5900.00,5900.00,0.00,Ruben Cuatrona,Synchrony,5900.00,,,6019170813082507,92957130,San Diego,48 months,,0.00,,,,,,,,0.00,,,,,,,,No,"3 years parts, 1 year labor (Free)",New,"IOWA STATE FAIR 8/9-19/18 DES MOINES, IA (IL)","IOWA STATE FAIR 8/9-19/18 DES MOINES, IA (IL)",,,108496,Confirmed synchrony account ($8400) ORIGINAL NEEDS TO BE CONFIRMED 8/15/18 Hitomi,Not Dispatched,1,6.00
8/14/2018 6:16:19 PM,Rebecca Burkland,IA,52544,Relax2Zero 3D,DWA-9060USJ-9060BL,New Black,New,,,,,4900.00,4900.00,0.00,Rolly San Jose,Synchrony,4900.00,,,6019170813082754,92963098,Huston,48 months,,0.00,,,,,,,,0.00,,,,,,,,No,"3 years parts, 1 year labor (Free)",New,"IOWA STATE FAIR 8/9-19/18 DES MOINES, IA (IL)","IOWA STATE FAIR 8/9-19/18 DES MOINES, IA (IL)",,,108497,COnfirmed synchrony account ($8500) ORIGINAL NEEDS TO BE CONFIRMED 8/15/18 Hitomi,Not Dispatched,1,6.00
8/14/2018 6:21:02 PM,Tina Ecklin,IA,50845,Legacy 3D,DWA-9150USJ-9150BL,New Black,New,,,,,4200.00,4200.00,0.00,Xiongxiaojun Ji,CreditCard,4200.00,0fSm,,,,,,,0.00,,,,,,,,0.00,,,,,,,,No,"3 years parts, 1 year labor (Free)",Called,"IOWA STATE FAIR 8/9-19/18 DES MOINES, IA (IL)","IOWA STATE FAIR 8/9-19/18 DES MOINES, IA (IL)",,,108498,"Need to call customer to get the instruction. GPS will lead to wrong location.///Confirmed $4,200.00 in Square. 8/15/18 Hitomi
COURTESY CALL DONE 08/15/18 STEPHANY LEFT VM 10:25",TX,1,6.00
8/15/2018 6:00:38 PM,antonio ruiz,IA,50323,Pegasus,DWA-9400Pegasus-BL,New Black,New,,,,,5600.00,5600.00,0.00,Ruben Cuatrona,CreditCard,200.00,kV9v,,,,,,Synchrony,5400.00,,,6019170813082713,92961865,Huston,48 months,,0.00,,,,,,,,No,"3 years parts, 1 year labor (Free)",New,"IOWA STATE FAIR 8/9-19/18 DES MOINES, IA (IL)","IOWA STATE FAIR 8/9-19/18 DES MOINES, IA (IL)",,,108511,,Not Dispatched,1,6.00
8/15/2018 6:08:03 PM,keri oetker,IA,50158,Relax2Zero 3D,DWA-9060USJ-9060BL,New Black,New,,,,,4900.00,4900.00,0.00,Ilene Maynard,Synchrony,4900.00,,,6019170813083323,92985272,San Diego,36 months,,0.00,,,,,,,,0.00,,,,,,,,No,"3 years parts, 1 year labor (Free)",New,"IOWA STATE FAIR 8/9-19/18 DES MOINES, IA (IL)","IOWA STATE FAIR 8/9-19/18 DES MOINES, IA (IL)",,,108512,,Not Dispatched,1,6.00
8/15/2018 6:11:27 PM,cindy reiser,IA,50111,Pegasus,DWA-9400Pegasus-BR-DEMO,Demo Choco,Demo,,,,,4800.00,4800.00,0.00,Ruben Cuatrona,CreditCard,4800.00,07068p,,,,,,,0.00,,,,,,,,0.00,,,,,,,,No,"3 years parts, 1 year labor (Free)",New,"IOWA STATE FAIR 8/9-19/18 DES MOINES, IA (IL)","IOWA STATE FAIR 8/9-19/18 DES MOINES, IA (IL)",,,108513,,Not Dispatched,1,6.00
8/15/2018 6:17:25 PM,jim redmann,IA,52635,Relax2Zero 3D,DWA-9060USJ-9060BL,New Black,New,,,,,9000.00,9000.00,0.00,Rolly San Jose,CreditCard,9000.00,571118,,,,,,,0.00,,,,,,,,0.00,,,,,,,,No,"3 years parts, 1 year labor (Free)",New,"IOWA STATE FAIR 8/9-19/18 DES MOINES, IA (IL)","IOWA STATE FAIR 8/9-19/18 DES MOINES, IA (IL)",,,108514,rolly sold one ans ilene sold one,Not Dispatched,1,6.00
8/15/2018 6:17:25 PM,jim redmann,IA,52635,Relax2Zero 3D,DWA-9060USJ-9060BR,New Choco,New,,,,,9000.00,9000.00,0.00,Rolly San Jose,CreditCard,9000.00,571118,,,,,,,0.00,,,,,,,,0.00,,,,,,,,No,"3 years parts, 1 year labor (Free)",New,"IOWA STATE FAIR 8/9-19/18 DES MOINES, IA (IL)","IOWA STATE FAIR 8/9-19/18 DES MOINES, IA (IL)",,,108514,rolly sold one ans ilene sold one,Not Dispatched,1,6.00
8/15/2018 6:24:26 PM,rick kendall,NE,69001,Legacy 3D,DWA-9150USJ-9150CH-DEMO,Demo Choco,Demo,,,,,4240.00,4240.00,0.00,Xiongxiaojun Ji,CreditCard,4240.00,,,,,,,,0.00,,,,,,,,0.00,,,,,,,,No,"3 years parts, 1 year labor (Free)",New,"IOWA STATE FAIR 8/9-19/18 DES MOINES, IA (IL)","IOWA STATE FAIR 8/9-19/18 DES MOINES, IA (IL)",,,108515,,Not Dispatched,1,6.00
8/15/2018 6:29:47 PM,steve ames,IA,50158,Pegasus,DWA-9400Pegasus-BL,New Black,New,,,,,5900.00,5900.00,0.00,Ruben Cuatrona,CreditCard,100.00,86059b,,,,,,COD,5800.00,,,,,,,,0.00,,,,,,,,No,"3 years parts, 1 year labor (Free)",New,"IOWA STATE FAIR 8/9-19/18 DES MOINES, IA (IL)","IOWA STATE FAIR 8/9-19/18 DES MOINES, IA (IL)",,,108516,"one free foot vibe 
follow up end of sept
cod $5800",Not Dispatched,1,6.00
8/15/2018 6:33:29 PM,clarence clements,IA,50208,Relax2Zero 3D,DWA-9060USJ-9060BR,New Choco,New,,,,,4900.00,4900.00,0.00,Rolly San Jose,Synchrony,4900.00,,,6019170813083893,93007645,Huston,48 months,,0.00,,,,,,,,0.00,,,,,,,,No,"3 years parts, 1 year labor (Free)",New,"IOWA STATE FAIR 8/9-19/18 DES MOINES, IA (IL)","IOWA STATE FAIR 8/9-19/18 DES MOINES, IA (IL)",,,108517,,Not Dispatched,1,6.00
8/15/2018 6:37:39 PM,darwin vogt,IA,52301,Legacy 3D,DWA-9150USJ-9150CH,New Choco,New,,,,,4770.00,4770.00,0.00,Keith Kei,CreditCard,4770.00,H529,,,,,,,0.00,,,,,,,,0.00,,,,,,,,No,"3 years parts, 1 year labor (Free)",New,"IOWA STATE FAIR 8/9-19/18 DES MOINES, IA (IL)","IOWA STATE FAIR 8/9-19/18 DES MOINES, IA (IL)",,,108518,,Not Dispatched,1,6.00
8/15/2018 6:47:14 PM,lee wahlerl,IA,50003,Pegasus,DWA-9400Pegasus-BL-DEMO,Demo Black,Demo,,,,,4800.00,4800.00,0.00,Rodrigo Malabunga,Cash,200.00,,,,,,,Synchrony,4600.00,,,6019170813084263,93015614,San Diego,24 months,,0.00,,,,,,,,No,"3 years parts, 2 years labor ($200)",New,"IOWA STATE FAIR 8/9-19/18 DES MOINES, IA (IL)","IOWA STATE FAIR 8/9-19/18 DES MOINES, IA (IL)",,,108519,,Not Dispatched,1,6.00
8/15/2018 6:50:10 PM,Richard Bill Needham,IA,50310,Legacy 3D,DWA-9150USJ-9150CH,New Choco,New,,,,,4900.00,4900.00,0.00,Keith Kei,Synchrony,4900.00,,,6019170813084198,93013643,Huston,36 months,,0.00,,,,,,,,0.00,,,,,,,,No,"3 years parts, 1 year labor (Free)",New,"IOWA STATE FAIR 8/9-19/18 DES MOINES, IA (IL)","IOWA STATE FAIR 8/9-19/18 DES MOINES, IA (IL)",,"Order # 64
Please rush order",108520,,Not Dispatched,1,6.00
