﻿Date,CustomerName,State,Zipcode,Description,productNo,Color,IsDemo,Net,ShippingFee,GiftPrice,FinancingProcessingFee,Gross,Pre_tax,Tax,Commission,Primary Payment Method,Primary Payment Balance,Primary Authorize Number,Primary Purchase Order Number,Primary Synchrony Account Number,Primary Synchrony Application Key,Primary Synchrony AccountInfo,Primary SynchronyTerm,Secondly Payment Method,Secondly Payment Balance,Secondly Authorize Number,Secondly Purchase Order Number,Secondly Synchrony Account Number,Secondly Synchrony Application Key,Secondly Synchrony AccountInfo,Secondly SynchronyTerm,Thirdly Payment Method,Thirdly Payment Balance,Thirdly Authorize Number,Thirdly Purchase Order Number,Thirdly Synchrony Account Number,Thirdly Synchrony Application Key,Thirdly Synchrony AccountInfo,Thirdly SynchronyTerm,DeliveryDate,Ispickup,Warranty,Status,Event Name,Synchrony Notes,Order Notes,Order number,Private Note,Branch,IsNoTax,ActualTaxRate
2/2/2018 5:30:11 PM,Emily Chen Chen,CO,80012,Relax2Zero 3D,DWA-9060USJ-9060BR,Choco Brown,New,,,,,4500.00,4500.00,0.00,Mario Higareda,Synchrony,4500.00,,,6034610083078058,84438811,Huston,36 months,,0.00,,,,,,,,0.00,,,,,,,2/10/2018 12:00:00 AM,No,"3 years parts, 1 year labor (Free)",Delivered,"H-Mart Aurora, CO 2/2-5/18 (TX)","confirmed $4,500 was charged for 36 months. 2/15/18 Hitomi ",,103424,"confirmed the account in Synchrony. ($8,500) *Please charge before delivery.* 2/5/18 Hitomi
Auth#007563, 2/7/2018 June",TX,1,8.00
2/7/2018 9:40:20 AM,Young Hee Im,CO,80231,Legacy,DWA-9100DWA-9100BU,Blue,New,,,,,3500.00,3500.00,0.00,Mijung Song,Cash,3500.00,,,,,,,,0.00,,,,,,,,0.00,,,,,,,2/11/2018 12:00:00 AM,No,"3 years parts, 1 year labor (Free)",Delivered,"H-Mart Aurora, CO 2/2-5/18 (TX)",,,103506,"Mario received $3,500 cash. 2/7/18 Hitomi",TX,1,8.00
2/7/2018 11:38:35 AM,Chong Bird,CO,80011,Legacy,DWA-9100DWA-9100BU-DEMO,Demo Blue,Demo,,,,,3000.00,3000.00,0.00,Mijung Song,Cash,100.00,,,,,,,Cash,2900.00,,,,,,,,0.00,,,,,,,2/11/2018 12:00:00 AM,No,"3 years parts, 1 year labor (Free)",Delivered,"H-Mart Aurora, CO 2/2-5/18 (TX)",,,103507,"Demo/ Cash Deal Discount
COD $2900 2/7/2018 June
Mario received $100 cash deposit. 2/7/18 Hitomi
$2,900 COD (cash) received by Mario. Per TX 2/15/18 Hitomi",TX,1,8.00
2/7/2018 11:44:16 AM,Keum J. Lim,CO,80134,Relax2Zero 3D,DWA-9060USJ-9060BL,Black,New,,,,,3800.00,3800.00,0.00,Mijung Song,Check,100.00,,,,,,,Cash,3700.00,,,,,,,,0.00,,,,,,,2/11/2018 12:00:00 AM,No,"3 years parts, 1 year labor (Free)",Delivered,"H-Mart Aurora, CO 2/2-5/18 (TX)",,,103508,"Cash Deal Discount
Mario receive $100 cash. 2/7/18 Hitomi
$3,700 COD (cash) received by Mario.PerTX. 2/15/18 Hitomi",TX,1,8.00
2/13/2018 11:04:00 AM,Mirmohsen Pojouha,CO,80231,Legacy,DWA-9100DWA-9100BL,Black,New,,,,,4200.00,3944.44,255.56,Mijung Song,Synchrony,4200.00,,,6034610083085004,84584122,,36 months,,0.00,,,,,,,,0.00,,,,,,,,No,"3 years parts, 1 year labor (Free)",Hold,"H-Mart Aurora, CO 2/2-5/18 (TX)",,,103698,"customer asking for hold, will contact the sales for delivery when they ready.",Not Dispatched,0,8.00
