﻿Original Event Name,Event Name,Sales Person,Order Number,Order Date,Customer Name,State,Zip,Product Name,Color,Product Status,QTY,Tax,Total Before Tax,Order Total,Primary Payment Method,Second Payment Method,Thirdl Payment Method,Warranty,Order Items,Pick up,Delivered On,Order Status,Chair Type,Order Notes,Private Note,Branch,No Tax,Actual Tax Rate,SKU,Primary Payment Balance,Primary Authorize Number,Primary Purchase Order Number,Primary Synchrony Account Number,Primary Synchrony Application Key,Primary Synchrony Account Info,Primary Synchrony Term,Second Payment Balance,Second Authorize Number,Second Purchase Order Number,Second Synchrony Account Number,Second Synchrony Application Key,Second Synchrony Account Info,Second SynchronyTerm,Third Payment Balance,Third Authorize Number,Third Purchase Order Number,Third Synchrony Account Number,Third Synchrony Application Key,Third Synchrony Account Info,Third Synchrony Term
Sam's Club #6441 Lakeland 1/17-27/19 (FL),Sam's Club #6441 Lakeland 1/17-27/19 (FL),Lessa Benz,115291,2/24/2019 4:06:12 PM,Mai Tran,FL,33809,Orbit for Sam's ,Demo Choco[-300],Demo,1,188.86,3448.00,3636.86,CreditCard,,,"3 years parts, 1 year labor (Free)","Orbit for Sam's ,",No,,Cancelled,,,"Customer picked up at store
2/25/19-will confirm pick up conf and if this is after sales. -Hitomi
2/27/19-Confirmed w/Maggie, this is under #6441 Lakeland but for dates 2/21-3/3/19. Sales rep,Lessa will re-enter the order. Cancelled this one - Hitomi",Not Dispatched,0,7.00,ORBT-1ORBT-1CH-DEMO,0.00,4960196319888673092330,,,,,,0.00,,,,,,,0.00,,,,,,
