﻿Original Event Name,Event Name,Sales Person,Order Number,Order Date,Customer Name,State,Zip,Product Name,Color,Product Status,QTY,Tax,Total Before Tax,Order Total,Primary Payment Method,Second Payment Method,Thirdl Payment Method,Warranty,Order Items,Pick up,Delivered On,Order Status,Chair Type,Order Notes,Private Note,Branch,No Tax,Actual Tax Rate,SKU,Primary Payment Balance,Primary Authorize Number,Primary Purchase Order Number,Primary Synchrony Account Number,Primary Synchrony Application Key,Primary Synchrony Account Info,Primary Synchrony Term,Primary Synchrony Primary ID,Primary Synchrony Issued State,Primary Synchrony Expiretion Date,Second Payment Balance,Second Authorize Number,Second Purchase Order Number,Second Synchrony Account Number,Second Synchrony Application Key,Second Synchrony Account Info,Second SynchronyTerm,Second Synchrony Primary ID,Second Synchrony Issued State,Second Synchrony Expiretion Date,Third Payment Balance,Third Authorize Number,Third Purchase Order Number,Third Synchrony Account Number,Third Synchrony Application Key,Third Synchrony Account Info,Third Synchrony Term,Third Synchrony Primary ID,Third Synchrony Issued State,Third Synchrony Expiretion Date
"Sam's Club #4873 Lincoln, NE","Sam's Club #4873 Lincoln, NE",Scott Tatum,118554,7/7/2019 3:56:34 PM,Madeline Schmitz,NE,68526,Legacy 3D - Sam's Club,Demo(Box) Black[-700],Demo,1,289.93,3999.00,4288.93,Purchase Order,,,"3 years parts, 1 year labor (Free)","Legacy 3D - Sam's Club,",No,,Scheduled,,,"Original received. Erika 7/8/19 11:46am-Pls collect a sig. on invoice.
7/8/2019 Printed by Tina
courtesy call completed. Erika 7/8/19 5:27pm
7/18 - Alysa - Customer confirmed delivery Wed. 7/24 between 3-6PM.",TX,0,7.25,DWA-9150DWA-9150BL-Box,0.00,,6817179410925832087681,,,,,,,/,0.00,,,,,,,,,/,0.00,,,,,,,,,/
"Sam's Club #4873 Lincoln, NE","Sam's Club #4873 Lincoln, NE",Scott Tatum,118578,7/8/2019 8:24:18 AM,Jessica Anderson,NE,68516,Ninja Leg Massager 2,New,New,1,21.75,299.98,321.73,Purchase Order,,,"2 years parts, 1 year labor for Small Items","Ninja Leg Massager 2,",YES,,Delivered,,,,TX,0,7.25,USJ-880,0.00,,601739813905834022691,,,,,,,/,0.00,,,,,,,,,/,0.00,,,,,,,,,/
"Sam's Club #4873 Lincoln, NE","Sam's Club #4873 Lincoln, NE",Scott Tatum,118601,7/11/2019 8:21:30 AM,Sylvia Hoesche,NE,68465,Vitality Plate for Sam's,New,New,1,33.35,459.99,493.34,Purchase Order,,,"2 years parts, 1 year labor for Small Items","Vitality Plate for Sam's,",YES,,Delivered,,,,TX,0,7.25,USJ-849USJ-849,0.00,,177847053779653167483,,,,,,,/,0.00,,,,,,,,,/,0.00,,,,,,,,,/
"Sam's Club #4873 Lincoln, NE","Sam's Club #4873 Lincoln, NE",Scott Tatum,118637,7/13/2019 4:58:08 AM,Madhu Midathada,NE,68520,PEGASUS 2 SMART - Sam's,Demo(Box) Choco[-700],Demo,1,398.68,5499.00,5897.68,Purchase Order,,,"3 years parts, 1 year labor (Free)","PEGASUS 2 SMART - Sam's,",No,,Scheduled,,,"Original received. Erika 7/15/19 11:26am
7/15- Alysa - Printed
-Courtesy call completed. Erika 7/15/19 4:35pm
7/18 - Alysa - Customer confirmed delivery Wed. 7/24 between 2-5PM.",TX,0,7.25,PEGS-2PEGS-2-BR-DEMO(Box),0.00,,4387899433915839072641,,,,,,,/,0.00,,,,,,,,,/,0.00,,,,,,,,,/
"Sam's Club #4873 Lincoln, NE","Sam's Club #4873 Lincoln, NE",Scott Tatum,118650,7/14/2019 5:43:14 AM,Souhel Askar,NE,68506,Legacy 3D - Sam's Club,New Choco,New,1,340.68,4699.00,5039.68,Sam’s Club Synchrony,,,"3 years parts, 1 year labor (Free)","Legacy 3D - Sam's Club,",No,,Scheduled,,Please gift 1 Ninja Foot and 1 Shogun with delivery.,"Please gift 1 Ninja Foot and 1 Shogun with delivery.
Original received. Erika 7/15/19 11:07am
7/15 - Alysa - Printed
courtesy call completed. Erika 7/15/19 4:38pm
7/18 - Alysa - Customer confirmed delivery Wed. 7/24 between 1-4PM.",TX,0,7.25,DWA-9150DWA-9150CH,0.00,,,,,,,,,/,0.00,,,,,,,,,/,0.00,,,,,,,,,/
"Sam's Club #4873 Lincoln, NE","Sam's Club #4873 Lincoln, NE",Scott Tatum,118651,7/14/2019 5:50:38 AM,Ming Li,NE,68526,Legacy 3D - Sam's Club,Demo(Box) Choco[-700],Demo,1,289.93,3999.00,4288.93,Purchase Order,,,"3 years parts, 1 year labor (Free)","Legacy 3D - Sam's Club,",No,,Scheduled,,Please call daughter Amanda 402-326-7884 for delivery. Ming will be out of town.,"Please call daughter Amanda 402-326-7884 for delivery. Ming will be out of town.
Original received. Erika 7/15/19 10:57am
7/15 - Alysa - Printed
courtesy call completed. erika 7/15/19 4:41pm
7/18 - Alysa - Customer confirmed delivery Wed. 7/24 between 4-7Pm",TX,0,7.25,DWA-9150DWA-9150CH-Box,0.00,,1241194481408080980177,,,,,,,/,0.00,,,,,,,,,/,0.00,,,,,,,,,/
"Sam's Club #4873 Lincoln, NE","Sam's Club #4873 Lincoln, NE",Scott Tatum,118654,7/14/2019 5:58:34 AM,Met & Liang Chendu,NE,68526,Legacy for Sam's,Demo(Box) Choco[-700],Demo,1,260.93,3599.00,3859.93,Purchase Order,,,"3 years parts, 1 year labor (Free)","Legacy for Sam's,",No,,Cancelled,,,"Order was canceled. customer upgraded to legacy 3d demo box.
New order#118697. Erika 7/15/19 12:31pm",Not Dispatched,0,7.25,DWA-9100DWA-9100CH-Box,0.00,,0761134181456088982177,,,,,,,/,0.00,,,,,,,,,/,0.00,,,,,,,,,/
"Sam's Club #4873 Lincoln, NE","Sam's Club #4873 Lincoln, NE",Scott Tatum,118697,7/14/2019 8:36:50 PM,Met & Liang Chendu,NE,68526,Legacy 3D - Sam's Club,Demo(Box) Choco[-700],Demo,1,289.93,3999.00,4288.93,Purchase Order,,,"3 years parts, 1 year labor (Free)","Legacy 3D - Sam's Club,",No,,Scheduled,,Legacy demo box was returned and Legacy 3D demo box was purchased.,"Legacy demo box was returned and Legacy 3D demo box was purchased.
Please see emails and receipts. Pls note customers name is MEI & Liang Chendu
Original received. Erika 7/15/19 12:32pm
7/15 - Alysa - Printed
7/18 - Alysa - Customer confirmed delivery Wed. 7/24 between 5-6:30.",TX,0,7.25,DWA-9150DWA-9150CH-Box,0.00,,4969098795822497371295,,,,,,,/,0.00,,,,,,,,,/,0.00,,,,,,,,,/
"Sam's Club #4873 Lincoln, NE","Sam's Club #4873 Lincoln, NE",Scott Tatum,118698,7/14/2019 8:43:09 PM,Sink Sinkule,NE,68526,Legacy 3D - Sam's Club,Demo(Box) Black[-700],Demo,1,289.93,3999.00,4288.93,Purchase Order,,,"3 years parts, 1 year labor (Free)","Legacy 3D - Sam's Club,",No,,Scheduled,,Please gift 1 Ninja Foot with delivery of chair.,"Please gift 1 Ninja Foot new with delivery of chair.
Original received. Erika 7/15/19 10:51am
7/15 - Alysa - Printed
courtesy call completed. Erika 7/15/19 5:15pm
7/18 - Alysa - Customer confirmed delivery Thurs. 7/25 between 8-11AM.
7/26 - Alysa - Driver did not see notes on order to bring a Ninja Foot, we shipped to customer- Tracking Number is : 775844946255",TX,0,7.25,DWA-9150DWA-9150BL-Box,0.00,,0470156176657272578099,,,,,,,/,0.00,,,,,,,,,/,0.00,,,,,,,,,/
"Sam's Club #4873 Lincoln, NE","Sam's Club #4873 Lincoln, NE",Scott Tatum,118699,7/14/2019 8:47:16 PM,Brian Choi,NE,68526,Ninja Leg Massager 2,New,New,1,21.75,299.98,321.73,Purchase Order,,,"2 years parts, 1 year labor for Small Items","Ninja Leg Massager 2,",YES,,Delivered,,,,TX,0,7.25,USJ-880,0.00,,987431921142522621904,,,,,,,/,0.00,,,,,,,,,/,0.00,,,,,,,,,/
"Sam's Club #4873 Lincoln, NE","Sam's Club #4873 Lincoln, NE",Scott Tatum,118702,7/15/2019 9:37:45 AM,Jeffery Hake,NE,68522,Hubble for Sam's,Demo Choco(Box)[-300],Demo,1,0.00,4299.00,4299.00,Purchase Order,,,"3 years parts, 1 year labor (Free)","Hubble for Sam's,",No,,Scheduled,,,"Original received. Erika 7/15/19 11:42am
7/15 - Alysa - Printed
courtesy call completed. Erika 7/15/19 5:13pm
7/18 - Alysa - Customer confirmed delivery Wed. 7/24 between 10-2PM.
7/26 - Alysa - Driver delivered chair however the chair did not have a chair pad. We shipped one out to customer - Tracking # is  775844529550",TX,1,7.25,HUBL-1HUBL-1CH-BOX,4299.00,,3932362967233165799308,,,,,,,/,0.00,,,,,,,,,/,0.00,,,,,,,,,/
