﻿Date,CustomerName,State,Zipcode,Description,productNo,Color,IsDemo,Net,ShippingFee,GiftPrice,FinancingProcessingFee,Gross,Pre_tax,Tax,Commission,Primary Payment Method,Primary Payment Balance,Primary Authorize Number,Primary Purchase Order Number,Primary Synchrony Account Number,Primary Synchrony Application Key,Primary Synchrony AccountInfo,Primary SynchronyTerm,Secondly Payment Method,Secondly Payment Balance,Secondly Authorize Number,Secondly Purchase Order Number,Secondly Synchrony Account Number,Secondly Synchrony Application Key,Secondly Synchrony AccountInfo,Secondly SynchronyTerm,Thirdly Payment Method,Thirdly Payment Balance,Thirdly Authorize Number,Thirdly Purchase Order Number,Thirdly Synchrony Account Number,Thirdly Synchrony Application Key,Thirdly Synchrony AccountInfo,Thirdly SynchronyTerm,DeliveryDate,Ispickup,Warranty,Status,Event Name,Synchrony Notes,Order Notes,Order number,Private Note,Branch,IsNoTax,ActualTaxRate
10/13/2017 7:31:28 AM,James Chao,NC,27519,Relax2Zero 3D,DWA-9060USJ-9060BL-DEMO,Demo Black,Demo,,,,,3900.19,3701.00,199.19,Rodrigo Malabunga,CreditCard,3900.00,912190,,,,,,,0.00,,,,,,,,0.00,,,,,,,11/4/2017 12:00:00 AM,No,"5 years parts, 3 years labor ($700)",Delivered,North Carolina State Fair 10/12-22 (IL),,,101246,WELLS FARGO $3900 CLEARED BY ALICIA 10.16.17,FL,,
10/15/2017 7:39:20 AM,Catherine Winstead,NC,27291,Legacy,DWA-9100DWA-9100CH-DEMO,Demo Choco Brown,Demo,,,,,3400.60,3233.00,167.60,Rodrigo Malabunga,Synchrony,3400.00,,,6034610081571096,79664360,San Diego,36 months,,0.00,,,,,,,,0.00,,,,,,,10/24/2017 12:00:00 AM,No,"3 years parts, 2 years labor ($200)",Delivered,North Carolina State Fair 10/12-22 (IL),,,101275,"***PLEASE DELIVER DEMO SIENNA BROWN***
SYNCHRONY CHARGED 10/24 AUTH# 024777",FL,,
10/15/2017 7:47:53 AM,Glynda Rich,NC,27513,Legacy,DWA-9100DWA-9100SI-DEMO,Demo Sienna Brown,Demo,,,,,3400.60,3233.00,167.60,Rodrigo Malabunga,Synchrony,3400.00,,,6034610081572326,79694085,San Diego,,,0.00,,,,,,,,0.00,,,,,,,10/23/2017 12:00:00 AM,No,"3 years parts, 1 year labor (Free)",Delivered,North Carolina State Fair 10/12-22 (IL),,Please give customer 18 months finance.,101276,Charged Synchrony 10/23 AUTH# 023336,FL,,
10/15/2017 8:00:31 AM,Tony Lioy,NC,28412,Relax2Zero 2.0,USJ-9050USJ-9050BR-DEMO,Demo Brown,Demo,,,,,3400.60,3233.00,167.60,Ruben Cuatrona,CreditCard,1700.00,09866G,,,,,,CreditCard,1700.00,fmRu,,,,,,,0.00,,,,,,,11/7/2017 12:00:00 AM,No,"3 years parts, 3 years labor ($400)",Delivered,North Carolina State Fair 10/12-22 (IL),,"Sales Representative Bryan Albert. Total price $3400, customer already paid $1700 deposit with credit card, the balance $1700 will be paid C.O.D",101278,"WELLS FARGO CLEARED $1700 BY ALICIA 10.16.17
$1700 COD   / sq# fmRu",FL,,
10/15/2017 8:43:28 AM,Heather Johnson,NC,27597,Legacy,DWA-9100DWA-9100BL,Black,New,,,,,4000.54,3795.00,205.54,Ruben Cuatrona,Synchrony,3900.00,,,6034610081574223,79724858,San Diego,36 months,,0.00,,,,,,,,0.00,,,,,,,10/23/2017 12:00:00 AM,No,"3 years parts, 1 year labor (Free)",Delivered,North Carolina State Fair 10/12-22 (IL),,,101279,"**TOTAL PRICE = $3,900**
Charged Synchrony 10/23 AUTH# 023221",FL,,
10/15/2017 8:51:58 AM,Shelia Bland,FL,32931,Legacy,DWA-9100DWA-9100SI,Sienna Brown,New,,,,,3400.60,3233.00,167.60,Rodrigo Malabunga,CreditCard,3400.00,310454,,,,,,,0.00,,,,,,,,0.00,,,,,,,11/10/2017 12:00:00 AM,No,"3 years parts, 1 year labor (Free)",Delivered,North Carolina State Fair 10/12-22 (IL),,,101280,WELLS FARGO CLEARED BY ALICIA 10.16.17,FL,,
10/15/2017 8:59:42 AM,Saba Akbari,NC,27523,Relax2Zero 2.0,USJ-9050USJ-9050BL,Black,New,,,,,3400.60,3233.00,167.60,Rodrigo Malabunga,Synchrony,3400.00,,,6034610081574884,79733425,San Diego,,,0.00,,,,,,,,0.00,,,,,,,10/21/2017 12:00:00 AM,No,"3 years parts, 1 year labor (Free)",Delivered,North Carolina State Fair 10/12-22 (IL),,"18 months finance, please",101281,"CHARGE $3400 BEFORE DELIVERY
CHARGED SYNCHRONY 10/20 $3,400   AUTH# 020482  -MQ",FL,,
10/15/2017 8:59:42 AM,Saba Akbari,NC,27523,Chair Pad for Relax2Zero 2.0,,,New,,,,,3400.60,3233.00,167.60,Rodrigo Malabunga,Synchrony,3400.00,,,6034610081574884,79733425,San Diego,,,0.00,,,,,,,,0.00,,,,,,,10/21/2017 12:00:00 AM,No,no warranty,Delivered,North Carolina State Fair 10/12-22 (IL),,"18 months finance, please",101281,"CHARGE $3400 BEFORE DELIVERY
CHARGED SYNCHRONY 10/20 $3,400   AUTH# 020482  -MQ",FL,,
10/16/2017 7:20:03 AM,Omar Jara,NC,27545,Relax2Zero 2.0,USJ-9050USJ-9050BL-DEMO,Demo Black,Demo,,,,,3400.60,3233.00,167.60,Ruben Cuatrona,CreditCard,3400.00,01849B,,,,,,,0.00,,,,,,,,0.00,,,,,,,10/23/2017 12:00:00 AM,No,"3 years parts, 1 year labor (Free)",Delivered,North Carolina State Fair 10/12-22 (IL),,,101352,WELLS FARGO CLEARED BY ALICIA 10.18.17,FL,,
10/16/2017 7:25:59 AM,Holly Cooper,NC,27549,Relax2Zero 2.0,USJ-9050USJ-9050BR-DEMO,Demo Brown,Demo,,,,,3400.60,3233.00,167.60,Ruben Cuatrona,COD,3400.00,,,,,,,,0.00,,,,,,,,0.00,,,,,,,,No,"3 years parts, 1 year labor (Free)",Cancelled,North Carolina State Fair 10/12-22 (IL),,"Total $3400, customer will pay C.O.D, so please call the customer before delivery.",101354,"CHARGE FULL AMOUNT COD
Per Ruben, this order suppose to be cancelled, because the customer didn't pay the deposit and she never answer to the courtesy call. 1/8/18 Riho",FL,,
10/16/2017 7:33:34 AM,Celia Halos,NC,27587,Legacy,DWA-9100DWA-9100CH,Choco Brown,New,,,,,3500.95,3327.00,173.95,Ruben Cuatrona,CreditCard,3500.00,884396,,,,,,,0.00,,,,,,,,0.00,,,,,,,10/21/2017 12:00:00 AM,No,"3 years parts, 1 year labor (Free)",Delivered,North Carolina State Fair 10/12-22 (IL),,Total $3500,101356,WELLS FARGO CLEAR BY ALICIA 10.18.17,FL,,
10/16/2017 7:41:25 AM,Bradlley Langley,NC,28327,Legacy 3D,DWA-9150USJ-9150CH,Choco Brown,New,,,,,4600.47,4357.00,243.47,Ruben Cuatrona,CreditCard,4600.00,"06805D, 03975C",,,,,,,0.00,,,,,,,,0.00,,,,,,,10/21/2017 12:00:00 AM,No,"3 years parts, 1 year labor (Free)",Delivered,North Carolina State Fair 10/12-22 (IL),,Sales representative: Bryan Albert,101358,"(2) WELLS FARGO TRANSACTIONS FOR $2300 EACH, CLEAR BY ALICIA 10.18.17",FL,,
10/16/2017 7:49:14 AM,Robbie Quick,NC,27704,Relax2Zero 2.0,USJ-9050USJ-9050BR,Brown,New,,,,,3940.76,3739.00,201.76,Ruben Cuatrona,Synchrony,3940.00,,,6034610081575808,79751267,San Diego,36 months,,0.00,,,,,,,,0.00,,,,,,,11/6/2017 12:00:00 AM,No,"3 years parts, 3 years labor ($400)",Delivered,North Carolina State Fair 10/12-22 (IL),,Sales representive: Bryan Albert,101360,"CHARGE BEFORE DELIVERY 10.18.17
11/7 AUTH # 007717",FL,,
10/16/2017 7:54:41 AM,Robbie Daniels,NC,27587,Relax2Zero 2.0,USJ-9050USJ-9050BR,Brown,New,,,,,3500.95,3327.00,173.95,Rodrigo Malabunga,CreditCard,3500.00,09344C,,,,,,,0.00,,,,,,,,0.00,,,,,,,10/23/2017 12:00:00 AM,No,"3 years parts, 1 year labor (Free)",Delivered,North Carolina State Fair 10/12-22 (IL),,,101362,WELLS FARGO CLEARED --ALICIA 10.18.17,FL,,
10/16/2017 8:03:25 AM,Kai Chan,NC,27265,Legacy,DWA-9100DWA-9100BL,Black,New,,,,,4141.45,3927.00,214.45,Rodrigo Malabunga,Synchrony,4141.80,,,6034610081575105,79740785,San Diego,12 months,,0.00,,,,,,,,0.00,,,,,,,10/21/2017 12:00:00 AM,No,"3 years parts, 3 years labor ($400)",Delivered,North Carolina State Fair 10/12-22 (IL),,"Total price $4141.80, 18 months finance please!",101364,"10/16/17 CHARGE BEFORE DELIVERY- CRISTINA
CHARGED SYNCHRONY $4,141.80 10/20   AUTH# 020884 -MQ",FL,,
10/18/2017 7:44:45 AM,Melisa Mack,NC,27610,Relax2Zero 3D,DWA-9060USJ-9060BR-DEMO,Demo Choco Brown,Demo,,,,,3800.92,3608.00,192.92,Ruben Cuatrona,CreditCard,1000.00,271910,,,,,,CreditCard,2800.00,s4pD,,,,,,,0.00,,,,,,,10/23/2017 12:00:00 AM,No,"3 years parts, 1 year labor (Free)",Delivered,North Carolina State Fair 10/12-22 (IL),,"Total price $3800, customer already paid $1000 with credit card, the balance $2800 will be paid on C.O.D",101412,"WELLS FARGO $1,000 CLEAR BY ALICIA(debit)
$2800 COD 10.18.17  /  COD $2800 SQ#s4pD",FL,,
10/18/2017 7:57:18 AM,C.Y. Parrish Parrish,NC,27932,Legacy,DWA-9100DWA-9100BL-DEMO,Demo Black,Demo,,,,,3200.98,3046.00,154.98,Bryan Albert,CreditCard,100.00,017555,,,,,,CreditCard,3100.00,lb6T,,,,,,,0.00,,,,,,,10/24/2017 12:00:00 AM,No,"3 years parts, 1 year labor (Free)",Delivered,North Carolina State Fair 10/12-22 (IL),,"Total price $3200, deposit $100, balance $3100 will be paid on C.O.D",101413,"$3100 COD
WELLS FARGO CLEARED BY ALICIA 10.18.17",FL,,
10/18/2017 8:09:07 AM,Emilio Jaen,NC,27577,Relax2Zero 2.0,USJ-9050USJ-9050BL-DEMO,Demo Black,Demo,,,,,3400.60,3233.00,167.60,Ruben Cuatrona,Synchrony,3400.00,,,6034610081577572,79785958,San Diego,36 months,,0.00,,,,,,,,0.00,,,,,,,10/23/2017 12:00:00 AM,No,"3 years parts, 1 year labor (Free)",Delivered,North Carolina State Fair 10/12-22 (IL),,"Total Price $3400, 36 months free finance",101414,"Synchrony approved ($3,700)
Synchrony charged 10/23 Auth# 023407",FL,,
10/18/2017 2:06:43 PM,Steven Sanderson,NC,27591,Pegasus,DWA-9400Pegasus-BL-DEMO,Demo Black,Demo,,,,,4899.83,4590.00,309.83,Ruben Cuatrona,CreditCard,4900.00,026510,,,,,,,0.00,,,,,,,,0.00,,,,,,,10/23/2017 12:00:00 AM,YES,"3 years parts, 1 year labor (Free)",Delivered,North Carolina State Fair 10/12-22 (IL),,,101419,Confirmed $4900 in WF. 10/19/17 Riho,FL,,
10/18/2017 2:14:56 PM,Cathy Dunn,VA,24333,Legacy,DWA-9100DWA-9100BU,Blue,New,,,,,3749.68,3560.00,189.68,Bryan Albert,CreditCard,3750.00,02462D,,,,,,,0.00,,,,,,,,0.00,,,,,,,10/22/2017 12:00:00 AM,No,"3 years parts, 1 year labor (Free)",Delivered,North Carolina State Fair 10/12-22 (IL),,,101420,"Confirmed $3,750.00 in WF. 10/19/17 Riho",FL,,
10/18/2017 3:46:04 PM,nancy knop,NC,27576,Legacy,DWA-9100DWA-9100BL-DEMO,Demo Black,Demo,,,,,3600.68,3373.00,227.68,Ruben Cuatrona,Synchrony,3600.68,,,6034610081581269,79887335,San Diego,36 months,,0.00,,,,,,,,0.00,,,,,,,10/23/2017 12:00:00 AM,YES,"3 years parts, 1 year labor (Free)",Delivered,North Carolina State Fair 10/12-22 (IL),,,101429,Synchrony charged 10/23 AUTH# 023142,FL,,
10/19/2017 7:29:44 AM,John brent crowder,NC,27616,Pegasus,DWA-9400Pegasus-BR-DEMO,Demo Choco Brown,Demo,,,,,4900.89,4591.00,309.89,Rolly San Jose,Synchrony,3900.00,,,6034610081581426,79892680,San Diego,48 months,CreditCard,1000.00,930551(debit),,,,,,,0.00,,,,,,,10/23/2017 12:00:00 AM,YES,"3 years parts, 1 year labor (Free)",Delivered,North Carolina State Fair 10/12-22 (IL),,"3900 syncrony
1000 credit card w/ approval #930551",101434,"WELLS FARGO CLEARED BY ALICIA 10.20.17
Charged Synchrony 10/23 AUTH#  023993",FL,,
10/19/2017 7:41:05 AM,gregory street,NC,27591,Legacy 3D,DWA-9150USJ-9150BL,Black,New,,,,,3600.23,3420.00,180.23,Ruben Cuatrona,Synchrony,3600.23,,,6034610081581400,79892331,San Diego,36 months,,0.00,,,,,,,,0.00,,,,,,,10/21/2017 12:00:00 AM,No,"3 years parts, 1 year labor (Free)",Delivered,North Carolina State Fair 10/12-22 (IL),,,101435,"Synchrony Approved ($5,500)
CHARGED SYNCHRONY 10/20 $3,600.23 AUTH# 020661 -MQ",FL,,
10/19/2017 12:58:05 PM,John Wilson,NC,28334,Legacy 3D,DWA-9150USJ-9150CH-DEMO,Demo Choco Brown,Demo,,,,,3500.95,3327.00,173.95,Ting Ritchie,CreditCard,3500.00,332249,,,,,,,0.00,,,,,,,,0.00,,,,,,,10/24/2017 12:00:00 AM,No,"3 years parts, 1 year labor (Free)",Delivered,North Carolina State Fair 10/12-22 (IL),,"Special price for the Demo with scratches on both arms part, serial number: 91160682D.",101438,10/24/17 CRISTINA - PAYMENT CLEARED THREW WELLS FARGO,FL,,
10/21/2017 7:05:43 AM,Stephanie/ Chris Otten,NC,27502,Relax2Zero 2.0,USJ-9050USJ-9050BR,Brown,New,,,,,4200.16,3982.00,218.16,Rolly San Jose,Synchrony,4200.00,,,6034610081583976,79967879,San Diego,36 months,,0.00,,,,,,,,0.00,,,,,,,11/6/2017 12:00:00 AM,No,"3 years parts, 1 year labor (Free)",Delivered,North Carolina State Fair 10/12-22 (IL),,,101457,"Synchrony Cleared 10/24 Maggie
11/7 AUTH # 007758",FL,,
10/21/2017 7:12:29 AM,Sharon Cuffee,NC,27540,Legacy,DWA-9100DWA-9100BL,Black,New,,,,,3850.02,3654.00,196.02,Ting Ritchie,CreditCard,3850.00,829230,,,,,,,0.00,,,,,,,,0.00,,,,,,,11/6/2017 12:00:00 AM,No,"3 years parts, 1 year labor (Free)",Delivered,North Carolina State Fair 10/12-22 (IL),,,101458,10/24/17 CRISTINA - PAYMENT CLEARED WELLS FARGO,FL,,
10/21/2017 7:19:46 AM,David Cox,NC,27127,Pegasus,DWA-9400Pegasus-BR,Choco Brown,New,,,,,5200.41,4919.00,281.41,Rolly San Jose,CreditCard,5200.00,01572C,,,,,,,0.00,,,,,,,,0.00,,,,,,,11/4/2017 12:00:00 AM,No,"3 years parts, 1 year labor (Free)",Delivered,North Carolina State Fair 10/12-22 (IL),,,101459,10/24/17 CRISTINA- PLAYMENT CLEARED THREW WELLS FARGO,FL,,
10/21/2017 7:30:02 AM,Fred Herndon,NC,27713,Legacy,DWA-9100DWA-9100SI,Sienna Brown,New,,,,,3899.13,3700.00,199.13,Ting Ritchie,CreditCard,400.00,087175,,,,,,Synchrony,3500.00,,,6034610081584289,79974792,San Diego,36 months,,0.00,,,,,,,11/4/2017 12:00:00 AM,No,"3 years parts, 1 year labor (Free)",Delivered,North Carolina State Fair 10/12-22 (IL),,"Total #3900, customer already paid $400 with credit card, the balance $3500 will be paid thru Synchrony,  Account number: 6034610081584289, Key number: 79974792, 36 months.",101460,"10/24/17- cristina cleared dep of $400 THREW WELLS FARGO ( PLEASE CHARGE SYNCHRONY ACCOUNT BEFORE DELIVERY  {SAN DIEGO LOG IN})
11/3 AUTH# 003829",FL,,
10/21/2017 7:50:42 AM,Katherine/ Maeda Maeda,FL,33026,Legacy,DWA-9100DWA-9100CH,Choco Brown,New,,,,,4000.54,3795.00,205.54,Ting Ritchie,CreditCard,500.00,360293,,,,,,Synchrony,3500.00,,,6034610081584404,79977505,San Diego,36 months,,0.00,,,,,,,12/19/2017 12:00:00 AM,No,"3 years parts, 1 year labor (Free)",Delivered,North Carolina State Fair 10/12-22 (IL),,"Please delivery after Dec, 18th, 2017, but BEFORE Christmas. Total price $4000, customer paid $500 with credit card, the balance $3500 will be paid thru Synchrony, 36 months. SD office. Application number: 6034610081584404, key number: 79977505",101461,"10/25/17 Cristina- Payment cleared for Wells Fargo,  (Synchrony needs to be charged before delivery)
AUTH # 019430 (12/19 MQ)",FL,,
10/21/2017 7:57:09 AM,Grace Dumayas,NC,27844,Legacy,DWA-9100DWA-9100BL,Black,New,,,,,4200.16,3982.00,218.16,Rolly San Jose,Synchrony,4200.00,,,6034610081584438,79978186,San Diego,36 months,,0.00,,,,,,,,0.00,,,,,,,11/10/2017 12:00:00 AM,No,"3 years parts, 1 year labor (Free)",Delivered,North Carolina State Fair 10/12-22 (IL),,"Total price $4200, 36 months finance.",101462,"Synchrony cleared 10/24 Maggie    -   11/1 CA will ship chair to customer per Alicia
SHIPPED OUT 11.2.17 BY ALICIA--- REF# 90027, ELITE CARGO SERVICES, INC 
(310)644-0024
Charged Synchrony $4200 (Auth#010335), because FL didn't charge it. 1/10/18 Riho",FL,,
10/22/2017 7:46:18 AM,Kevin/ Niki Murray,NC,27539,Legacy,DWA-9100DWA-9100CH,Choco Brown,New,,,,,4200.16,3982.00,218.16,Rolly San Jose,CreditCard,4200.00,02041R,,,,,,,0.00,,,,,,,,0.00,,,,,,,11/4/2017 12:00:00 AM,No,"3 years parts, 1 year labor (Free)",Delivered,North Carolina State Fair 10/12-22 (IL),,,101486,10/24/17 cristina payment cleared,FL,,
10/22/2017 7:53:48 AM,Christopher Hunt,NC,28377,Relax2Zero 2.0,USJ-9050USJ-9050BR,Brown,New,,,,,4200.16,3982.00,218.16,Ruben Cuatrona,Synchrony,4200.00,,,6034610081584727,79988942,San Diego,36 months,,0.00,,,,,,,,0.00,,,,,,,11/7/2017 12:00:00 AM,No,"3 years parts, 1 year labor (Free)",Delivered,North Carolina State Fair 10/12-22 (IL),,"Total $4200, 36 months finance.",101488,"Synchrony cleared 10/24 Maggie
11/7 AUTH # 007466",FL,,
10/22/2017 7:59:50 AM,Rob Coyce,NC,27513,Relax2Zero 3D,DWA-9060USJ-9060BR,Choco Brown,New,,,,,4600.47,4357.00,243.47,Bryan Albert,CreditCard,4600.00,859114,,,,,,,0.00,,,,,,,,0.00,,,,,,,11/4/2017 12:00:00 AM,No,"3 years parts, 1 year labor (Free)",Delivered,North Carolina State Fair 10/12-22 (IL),,,101489,10/25/17 cristina payment cleared,FL,,
10/22/2017 8:05:31 AM,Venkatesh Nakkaca,NC,27502,Legacy,DWA-9100DWA-9100CH,Choco Brown,New,,,,,4000.54,3795.00,205.54,Ting Ritchie,CreditCard,4000.00,58053P,,,,,,,0.00,,,,,,,,0.00,,,,,,,11/4/2017 12:00:00 AM,No,"3 years parts, 1 year labor (Free)",Delivered,North Carolina State Fair 10/12-22 (IL),,,101491,10/25/17 cristina payment cleared Wells Fargo,FL,,
10/22/2017 8:13:39 AM,Dean Parrish,NC,27530,Legacy 3D,DWA-9150USJ-9150CH,Choco Brown,New,,,,,4300.51,4076.00,224.51,Ruben Cuatrona,Synchrony,3000.00,,,6034610081586367,80012928,San Diego,36 months,CreditCard,1300.00,jovT,,,,,,,0.00,,,,,,,11/3/2017 12:00:00 AM,No,"3 years parts, 1 year labor (Free)",Delivered,North Carolina State Fair 10/12-22 (IL),,"Total $4300, Synchrony approved $3000, 36 months finance, the balance $1300 will be paid on C.O.D",101492,"10/24/17 Cristina- please charge Synchrony before delivery, (COD Order) $1,300 SQUARE # jovT
11/3 AUTH # 003919",FL,,
10/22/2017 8:31:30 AM,Patricia Stewart,NC,27291,Relax2Zero 3D,DWA-9060USJ-9060BL-DEMO,Demo Black,Demo,,,,,3899.13,3700.00,199.13,Ruben Cuatrona,Synchrony,3900.00,,,6034610081587142,80021193,San Diego,48 months,,0.00,,,,,,,,0.00,,,,,,,10/25/2017 12:00:00 AM,No,"3 years parts, 1 year labor (Free)",Delivered,North Carolina State Fair 10/12-22 (IL),,Please delivery between 5pm to 9pm.,101493,"10/24/17 Cristina- please charge Synchrony before delivery
Synchrony Charged 10/25 Maggie Auth# 025056",FL,,
10/22/2017 8:36:54 AM,Kimberly Garey,NC,27592,Legacy 3D,DWA-9150USJ-9150BL,Black,New,,,,,3600.23,3420.00,180.23,Ruben Cuatrona,CreditCard,3600.00,06884D,,,,,,,0.00,,,,,,,,0.00,,,,,,,11/4/2017 12:00:00 AM,No,"3 years parts, 1 year labor (Free)",Delivered,North Carolina State Fair 10/12-22 (IL),,,101494,10/24/17 Cristina- payment cleared thew WellsFargo,FL,,
10/22/2017 9:25:50 AM,Glen Yasser,NC,27856,Pegasus,DWA-9400Pegasus-BR,Choco Brown,New,,,,,5000.79,4732.00,268.79,Alex Brackelsberg,CreditCard,5000.00,04889G,,,,,,,0.00,,,,,,,,0.00,,,,,,,,No,"3 years parts, 1 year labor (Free)",Cancelled,North Carolina State Fair 10/12-22 (IL),,,101497,"10/24/17- Cristina- Cleared payment Wells Fargo
Salesperson is not correct, so they'll enter correct one. 10/24/17 Riho",FL,,
10/22/2017 4:32:17 PM,Lindsay Heyl,NC,27610,Legacy,DWA-9100DWA-9100BL,Black,New,,,,,3600.23,3420.00,180.23,Ruben Cuatrona,Synchrony,3600.00,,,6034610081584131,79970925,San Diego,48 months,,0.00,,,,,,,,0.00,,,,,,,11/6/2017 12:00:00 AM,No,"3 years parts, 1 year labor (Free)",Delivered,North Carolina State Fair 10/12-22 (IL),,Two chairs purchase discount,101514,"10/24/17-Cristina (please charge Synchrony before delivery
SYNCHRONY CHARGED ORDER #101515 & #101514 = TOTAL $7200 - 11/6/17 STEPHANY AUTH #006675",FL,,
10/22/2017 4:37:08 PM,Lindsay Heyl,NC,27610,Legacy,DWA-9100DWA-9100BL,Black,New,,,,,3600.23,3420.00,180.23,Ruben Cuatrona,Synchrony,3600.00,,,6034610081584131,79970925,San Diego,48 months,,0.00,,,,,,,,0.00,,,,,,,11/6/2017 12:00:00 AM,No,"3 years parts, 1 year labor (Free)",Delivered,North Carolina State Fair 10/12-22 (IL),,Customer purchased two chairs. Discount,101515,"10/24/17 cristina - please charge Synchrony before delivery
11/01/17- cristina- left courtesy call informing her of the FL branch and Maggie's #
SYNCHRONY CHARGED ORDER #101515 & #101514 = TOTAL $7200 - 11/6/17 STEPHANY AUTH #006675",FL,,
10/22/2017 4:45:53 PM,Amy/ Chandler Barnes,NC,27616,Relax2Zero 3D,DWA-9060USJ-9060BL,Black,New,,,,,3600.23,3420.00,180.23,Ruben Cuatrona,,2000.00,,,6034610081589270,80050558,San Diego,36 months,CreditCard,,,,,,,,,,,,,,,,,No,"3 years parts, 1 year labor (Free)",Cancelled,North Carolina State Fair 10/12-22 (IL),,"Synchrony approved $2000, the balance $1600 will be paid on C.O.D",101516,"10/24/17 Cristina- Please charge Synchrony before delivery- (COD) will be pending
10/24/17 -oRDER CANCELED APPROVED BY RUBEN (ORDER NOT CHARGED)",FL,,
10/22/2017 5:01:17 PM,Michele Bryson,NC,27235,Relax2Zero 3D,DWA-9060USJ-9060BL,Black,New,,,,,4100.88,3889.00,211.88,Bryan Albert,CreditCard,4100.00,05471G,,,,,,,0.00,,,,,,,,0.00,,,,,,,11/6/2017 12:00:00 AM,No,"3 years parts, 1 year labor (Free)",Delivered,North Carolina State Fair 10/12-22 (IL),,,101517,10/24/17 Cristina- payment cleared threw wells fargo,FL,,
10/22/2017 5:08:46 PM,Rhonda Smith,NC,27513,Relax2Zero 2.0,USJ-9050USJ-9050BL,Black,New,,,,,4200.16,3982.00,218.16,Ting Ritchie,,4200.00,022653,,,,,,,,,,,,,,,,,,,,,,,No,"3 years parts, 1 year labor (Free)",Cancelled,North Carolina State Fair 10/12-22 (IL),,"Please delivery on Dec, 18th, 2017",101518,"10/24/17 cristina- Payment cleared threw wells fargo 
CANCELLED AND REFUNDED 10/24/17 STEPHANY",FL,,
10/22/2017 5:14:56 PM,Tracey Linkous,NC,27852,Pegasus,DWA-9400Pegasus-BR,Choco Brown,New,,,,,4900.44,4638.00,262.44,Rolly San Jose,Synchrony,4900.00,,,6034610081588579,80042968,San Diego,48 months,,0.00,,,,,,,,0.00,,,,,,,11/3/2017 12:00:00 AM,No,"3 years parts, 1 year labor (Free)",Delivered,North Carolina State Fair 10/12-22 (IL),,,101519,"10/24/17 Cristina (Please charge Synchrony before delivery)
11/3  AUTH # 003802",FL,,
10/22/2017 5:23:24 PM,Kassinda Ross,NC,27409,Legacy,DWA-9100DWA-9100BL,Black,New,,,,,3800.92,3608.00,192.92,Ruben Cuatrona,,2000.00,,,6034610081588496,80042168,San Diego,36 months,CreditCard,,,,,,,,,,,,,,,,,No,"3 years parts, 1 year labor (Free)",Called,North Carolina State Fair 10/12-22 (IL),,"Total $3800, Synchrony approved $2000, the balance will be paid C.O.D, please delivery 2 MONTHS later.",101520,10/24/17- cristina (charge Synchrony before delivery)  (COD),FL,,
10/22/2017 5:30:03 PM,Robert Henderson,NC,27526,Relax2Zero 2.0,USJ-9050USJ-9050BL,Black,New,,,,,4200.16,3982.00,218.16,Rolly San Jose,Synchrony,4200.00,,,6034610081589502,80053361,San Diego,48 months,,0.00,,,,,,,,0.00,,,,,,,11/4/2017 12:00:00 AM,No,"3 years parts, 1 year labor (Free)",Delivered,North Carolina State Fair 10/12-22 (IL),,Sales Representative: Joynlyn,101521,"10/24/17 cristina cleared- charge Synchrony before delivery
11/3 AUTH # 003949",FL,,
10/24/2017 6:07:52 PM,Glen Yasser,NC,27856,Pegasus,DWA-9400Pegasus-BR,Choco Brown,New,,,,,5000.79,4732.00,268.79,Bryan Albert,CreditCard,5000.00,04889G,,,,,,,0.00,,,,,,,,0.00,,,,,,,11/3/2017 12:00:00 AM,No,"3 years parts, 1 year labor (Free)",Delivered,North Carolina State Fair 10/12-22 (IL),,,101554,10/25/17 Cristina- Payment cleared threw Wells Fargo,FL,,
11/1/2017 8:32:38 AM,Ed Sweda,FL,34652,Legacy,DWA-9100DWA-9100BU,Blue,New,,,,,3850.02,3654.00,196.02,Ting Ritchie,CreditCard,3850.00,OzFL,,,,,,,0.00,,,,,,,,0.00,,,,,,,11/10/2017 12:00:00 AM,No,"3 years parts, 1 year labor (Free)",Delivered,North Carolina State Fair 10/12-22 (IL),,,101651,"The sale is from Sam's Club#6448. Customers' daughter bought the chair for them, she is in New York while she purchase the chair, approved my Mitch.",FL,,
