﻿Original Event Name,Event Name,Sales Person,Order Number,Order Date,Customer Name,State,Zip,Product Name,Color,Product Status,QTY,Tax,Total Before Tax,Order Total,Primary Payment Method,Second Payment Method,Thirdl Payment Method,Warranty,Order Items,Pick up,Delivered On,Order Status,Chair Type,Order Notes,Private Note,Branch,No Tax,Actual Tax Rate,SKU,Primary Payment Balance,Primary Authorize Number,Primary Purchase Order Number,Primary Synchrony Account Number,Primary Synchrony Application Key,Primary Synchrony Account Info,Primary Synchrony Term,Second Payment Balance,Second Authorize Number,Second Purchase Order Number,Second Synchrony Account Number,Second Synchrony Application Key,Second Synchrony Account Info,Second SynchronyTerm,Third Payment Balance,Third Authorize Number,Third Purchase Order Number,Third Synchrony Account Number,Third Synchrony Application Key,Third Synchrony Account Info,Third Synchrony Term,First Name,Last Name,Email,Shipping Company,Shipping Address1,Shipping Address2,Shipping Suite,Shipping City,Shipping State,Shipping Zip,Shipping Country,Shipping Phone
"PHILLY HOME SHOW 1/11-13/19 & 1/18-20/19 PHILADELPHIA, PA (IL)","PHILLY HOME SHOW 1/11-13/19 & 1/18-20/19 PHILADELPHIA, PA (IL)",Joseph Chan,114107,1/11/2019 12:46:20 PM,Karen Riley,PA,18927,Legacy 3D,New Black,New,1,0.00,4900.00,4900.00,Synchrony,,,"3 years parts, 1 year labor (Free)","Legacy 3D,",No,,Scheduled,,,"Please add customer”s mailing address to Synchrony as follows 
P.O.Box 241, Hilltown, PA 18927
Confirmed synchrony approved $8,500. --- 1/15/19 Asumi
Confirmed original synchrony application form and invoice. --- 1/16/19 Asumi
1/17/18 3:27pm - Courtesy message sent - Noemi",TX,1,8.00,DWA-9150USJ-9150BL,4900.00,,,6019170813333520,99637063,Las Vegas,36 months,0.00,,,,,,,0.00,,,,,,,Karen,Riley,defaultmail@daiwamassage.com,,10 W Creamery Rd,,,Hilltown,PA,18927,United States,215-527-1114
"PHILLY HOME SHOW 1/11-13/19 & 1/18-20/19 PHILADELPHIA, PA (IL)","PHILLY HOME SHOW 1/11-13/19 & 1/18-20/19 PHILADELPHIA, PA (IL)",Winston Melgar,114167,1/12/2019 8:08:54 PM,Eric Leibowitz,PA,19067,Relax2Zero 3D,Demo Choco,Demo,1,0.00,4000.00,4000.00,Synchrony,,,"3 years parts, 1 year labor (Free)","Relax2Zero 3D,",No,,Called,,Please include one more chair pad (free),1/17/19 3:53pm Courtesy message sent -Noemi,TX,1,8.00,DWA-9060USJ-9060BR-DEMO,4000.00,,,6019170813334510,99665512,Las Vegas,36 months,0.00,,,,,,,0.00,,,,,,,Eric,Leibowitz,eric@norshel.com,,236 Marble Ct,,,Yardley,PA,19067,United States,267-278-2057
"PHILLY HOME SHOW 1/11-13/19 & 1/18-20/19 PHILADELPHIA, PA (IL)","PHILLY HOME SHOW 1/11-13/19 & 1/18-20/19 PHILADELPHIA, PA (IL)",Winston Melgar,114169,1/12/2019 8:52:36 PM,Frederick Rsbena,PA,19067,Relax2Zero 3D,Demo Choco,Demo,1,0.00,4900.00,4900.00,CreditCard,,,"3 years parts, 1 year labor (Free)","Relax2Zero 3D,",No,,Called,,,"Confirmed $4,900.00 in Square. --1/14/19 Hitomi

Confirmed Joseph. Custmer ordered NEW Choco. --- 1/15/19 Asumi
1/17/19 3:54pm -Courtesy message sent -Noemi",TX,1,8.00,DWA-9060USJ-9060BR-DEMO,4900.00,#oZxG,,,,,,0.00,,,,,,,0.00,,,,,,,Frederick,Rsbena,fredrabena@gmail.com,,1218 Linda Ave,,,Yardley,PA,19067,United States,267-235-3178
"PHILLY HOME SHOW 1/11-13/19 & 1/18-20/19 PHILADELPHIA, PA (IL)","PHILLY HOME SHOW 1/11-13/19 & 1/18-20/19 PHILADELPHIA, PA (IL)",Joseph Chan,114171,1/12/2019 8:56:43 PM,Richard Goldman,PA,19444,PEGASUS 2 SMART,New Black,New,1,0.00,6200.00,6200.00,CreditCard,,,"5 years parts, 1 year labor (Free)","PEGASUS 2 SMART,",No,,Called,,,"Confirmed $6,200.00 in Square. ---1/14/19 Hitomi
1/17/19 3:55pm Courtesy message sent -Noemi",TX,1,8.00,PEGS-2PEGS-2-BL,6200.00,#pxkk,,,,,,0.00,,,,,,,0.00,,,,,,,Frederick,Rsbena,athebird@aol.com,,2132 Basswood Dr,,,Lafayette Hill,PA,19444,United States,919-264-9022
"PHILLY HOME SHOW 1/11-13/19 & 1/18-20/19 PHILADELPHIA, PA (IL)","PHILLY HOME SHOW 1/11-13/19 & 1/18-20/19 PHILADELPHIA, PA (IL)",Ilene Maynard,114172,1/12/2019 9:00:28 PM,Sidney Roby,PA,19124,Legacy 3D,Demo Choco,Demo,1,0.00,4200.00,4200.00,CreditCard,,,"3 years parts, 1 year labor (Free)","Legacy 3D,",No,,Called,,,"Confirmed $4,200 in Square.  ---1/14/19 Hitomi
1/17/19 3:56pm Courtesy message sent -Noemi",TX,1,8.00,DWA-9150USJ-9150CH-DEMO,4200.00,#GPM7,,,,,,0.00,,,,,,,0.00,,,,,,,Sidney,Roby,lindamroby@yahoo.com,,4734 Oakland St,,,Philadelphia,PA,19124,United States,215-288-3471
"PHILLY HOME SHOW 1/11-13/19 & 1/18-20/19 PHILADELPHIA, PA (IL)","PHILLY HOME SHOW 1/11-13/19 & 1/18-20/19 PHILADELPHIA, PA (IL)",Winston Melgar,114218,1/13/2019 4:57:49 PM,Michael Young,PA,18974,Relax2Zero 3D,New Black,New,1,0.00,4700.00,4700.00,CreditCard,,,"3 years parts, 1 year labor (Free)","Relax2Zero 3D,",No,,Hold,,,"Customer need to make sure they have enough space for the chair and will call for payment
1/21/19-spoke to Winston, this is Josephs customer. Per. Joseph, customer has not contacted us yet. Place on hold.-  Hitomi",Not Dispatched,1,8.00,DWA-9060USJ-9060BL,0.00,,,,,,,0.00,,,,,,,0.00,,,,,,,Michael,Young,defaultmail@daiwamassage.com,,1344 Manorah Dr,,,Warwick,PA,18974,United States,215-219-8390
"PHILLY HOME SHOW 1/11-13/19 & 1/18-20/19 PHILADELPHIA, PA (IL)","PHILLY HOME SHOW 1/11-13/19 & 1/18-20/19 PHILADELPHIA, PA (IL)",Ilene Maynard,114219,1/13/2019 5:03:14 PM,Laura Doan,NY,14618,Legacy 3D,New Black,New,1,0.00,4700.00,4700.00,Synchrony,,,"3 years parts, 1 year labor (Free)","Legacy 3D,",No,,Hold,,,"Customer needs boy friend to try if he fits in the chair, hold till confirm",TX,1,8.00,DWA-9150USJ-9150BL,4700.00,,,6019170813336531,99694902,Las Vegas,12 months,0.00,,,,,,,0.00,,,,,,,Laura,Doan,defaultmail@daiwamassage.com,,47 Sunset Dr,,,Rochester,NY,14618,United States,585-729-2437
"PHILLY HOME SHOW 1/11-13/19 & 1/18-20/19 PHILADELPHIA, PA (IL)","PHILLY HOME SHOW 1/11-13/19 & 1/18-20/19 PHILADELPHIA, PA (IL)",Winston Melgar,114369,1/18/2019 9:10:48 PM,Shu jie Lin,PA,19107,Legacy 3D,Demo Black,Demo,1,0.00,3400.00,3400.00,Cash,,,"5 years parts, 2 years labor ($200)","Legacy 3D,",YES,1/18/2019 12:00:00 AM,New,Demo,,"Picked up at the convention
SR #0202001181079
//will confirm pickup and cash 1/21/19-Hitomi
Received pickup confirmation. will confirm cash to Winston --- 1/22/19 Asumi
Rod informed he has $3,400 cash. he will let us know once he passes to Yumi- 1/23/19 Hitomi
Confirmed with Hide .Transfer to IL is the best. Will confirm when Rod can bring the cash to IL. --- 1/31/19 Asumi",Not Dispatched,1,8.00,DWA-9150USJ-9150BL-DEMO,3400.00,,,,,,,0.00,,,,,,,0.00,,,,,,,Shu jie,Lin,defaultmail@daiwamassage.com,,1100 vine st,,,Philadelphia,PA,19107,United States,267-632-8888
"PHILLY HOME SHOW 1/11-13/19 & 1/18-20/19 PHILADELPHIA, PA (IL)","PHILLY HOME SHOW 1/11-13/19 & 1/18-20/19 PHILADELPHIA, PA (IL)",Winston Melgar,114370,1/18/2019 9:17:16 PM,J Michael Yang,PA,18974,PEGASUS 2 SMART,New Black,New,1,0.00,5500.00,5500.00,CreditCard,,,"5 years parts, 2 years labor ($200)","PEGASUS 2 SMART,",No,,Called,,,"Confirmed $5,500 in Square. 1/21/19- Hitomi
1/21Maritza Courtesy message sent @ 2:27PM",TX,1,8.00,PEGS-2PEGS-2-BL,5500.00,Sq #toKZ,,,,,,0.00,,,,,,,0.00,,,,,,,J Michael,Yang,myculy@gmail.com,,1344 memorial drive,,,Warwick,PA,18974,United States,215-219-8390
"PHILLY HOME SHOW 1/11-13/19 & 1/18-20/19 PHILADELPHIA, PA (IL)","PHILLY HOME SHOW 1/11-13/19 & 1/18-20/19 PHILADELPHIA, PA (IL)",Winston Melgar,114419,1/20/2019 7:29:40 AM,David O Sullivan,PA,19083,Relax2Zero 3D,Demo Choco,Demo,1,0.00,4000.00,4000.00,Synchrony,,,"5 years parts, 2 years labor ($200)","Relax2Zero 3D,",YES,1/19/2019 12:00:00 AM,Delivered,Demo,,"Confirmed synchrony approved $6,500.00 and original application form and invoice and pickup confirmation --- 1/21/19 Asumi
Signature in synchrony is David's and  signature in invoice is his wife's --- 1/23/19 Asumi
Charged $4,000.00 in Synchrony and sent sales draft to customer by e-mail ----1/24/19  Asumi",TX,1,8.00,DWA-9060USJ-9060BR-DEMO,4000.00,,,6019170813344683,70180636,Las Vegas,36 months,0.00,,,,,,,0.00,,,,,,,David,O Sullivan,defaultmail@daiwamassage.com,,727 E manoa rd,,,Havertown,PA,19083,United States,610-513-8884
"PHILLY HOME SHOW 1/11-13/19 & 1/18-20/19 PHILADELPHIA, PA (IL)","PHILLY HOME SHOW 1/11-13/19 & 1/18-20/19 PHILADELPHIA, PA (IL)",Rodrigo Malabunga,114420,1/20/2019 7:34:13 AM,Kimberly Landman,PA,19047,Relax2Zero 3D,New Choco,New,1,0.00,4000.00,4000.00,Synchrony,,,"5 years parts, 2 years labor ($200)","Relax2Zero 3D,",No,,Assigned,,,"Confirmed synchrony approved $6,500.00 and original application form and invoice. Please charge $4,000.00 upon delivery. --- 1/21/19 Asumi
Courtesy call/text completed- Cristina 01/23/19 11:47 am",TX,1,8.00,DWA-9060USJ-9060BR,4000.00,,,6019170813345342,70191439,Las Vegas,36 months,0.00,,,,,,,0.00,,,,,,,Kimberly,Landman,defaultmail@daiwamassage.com,,217 kilburn rd,,,Langhorne,PA,19047,United States,215-910-9474
"PHILLY HOME SHOW 1/11-13/19 & 1/18-20/19 PHILADELPHIA, PA (IL)","PHILLY HOME SHOW 1/11-13/19 & 1/18-20/19 PHILADELPHIA, PA (IL)",Rolly San Jose,114421,1/20/2019 7:38:15 AM,Steve Frazee,NY,12084,Relax2Zero 3D,New Black,New,1,0.00,4900.00,4900.00,CreditCard,,,"5 years parts, 2 years labor ($200)","Relax2Zero 3D,",No,,Assigned,,,"Confirmed $4,900.00 in SQUARE. --- 1/21/19 Asumi
Courtesy call/text completed- Cristina 01/23/19 12:38 pm",TX,1,8.00,DWA-9060USJ-9060BL,4900.00,SQ# iCCY,,,,,,0.00,,,,,,,0.00,,,,,,,Steve,Frazee,defaultmail@daiwamassage.com,,196 pine ridge dr,,,Guilderland,NY,12084,United States,518-608-5181
"PHILLY HOME SHOW 1/11-13/19 & 1/18-20/19 PHILADELPHIA, PA (IL)","PHILLY HOME SHOW 1/11-13/19 & 1/18-20/19 PHILADELPHIA, PA (IL)",Rodrigo Malabunga,114472,1/20/2019 7:36:40 PM,Maria Bourlako,PA,19006,Legacy,Demo Choco,Demo,1,0.00,3500.00,3500.00,CreditCard,,,"5 years parts, 1 year labor (Free)","Legacy,",No,,Scheduled,,,"01/21/19- Cristina verified Sq $3,500- 9:10 am
Courtesy call/text completed- Cristina 01/23/19 12:36 pm
1/24/19-Rod informed if customer doesn't answer, call her son,Dimitri #215-740-5150.  -Hitomi",TX,1,8.00,DWA-9100DWA-9100BU-DEMO,3500.00,SQ# QwYm,,,,,,0.00,,,,,,,0.00,,,,,,,Maria,Bourlako,defaultmail@daiwamassage.com,,1052 welsh rd,,,Huntington valley,PA,19006,United States,267-770-4772
"PHILLY HOME SHOW 1/11-13/19 & 1/18-20/19 PHILADELPHIA, PA (IL)","PHILLY HOME SHOW 1/11-13/19 & 1/18-20/19 PHILADELPHIA, PA (IL)",Rolly San Jose,114473,1/20/2019 7:42:12 PM,Elia Elia,NJ,08057,Relax2Zero 3D,New Choco,New,1,0.00,4500.00,4500.00,CreditCard,,,"5 years parts, 2 years labor ($200)","Relax2Zero 3D,",No,,Assigned,,,"01/21/19- Cristina verified SQ $4,500 9:08 am
Courtesy call/text completed- Cristina 01/23/19 12:36 pm",TX,1,8.00,DWA-9060USJ-9060BR,4500.00,SQ# NWnY,,,,,,0.00,,,,,,,0.00,,,,,,,Elia,Elia,defaultmail@daiwamassage.com,,103 forest rd,,,Moorestown,NJ,08057,United States,609-744-6300
"PHILLY HOME SHOW 1/11-13/19 & 1/18-20/19 PHILADELPHIA, PA (IL)","PHILLY HOME SHOW 1/11-13/19 & 1/18-20/19 PHILADELPHIA, PA (IL)",Rolly San Jose,114474,1/20/2019 7:49:10 PM,Angelo Butera,NJ,08053,Relax2Zero 3D,New Choco,New,1,0.00,4700.00,4700.00,CreditCard,COD,,"5 years parts, 2 years labor ($200)","Relax2Zero 3D,",No,,Assigned,,,"Angelo to check dimensions of chair vs area in house to put the chair on and call rolly
01/21/19- Cristina verified SQ. payment $500 - 8:54 am
Courtesy call/text completed- Cristina 01/23/19 12:19 pm",TX,1,8.00,DWA-9060USJ-9060BR,500.00,SQ# Qr49,,,,,,4200.00,,,,,,,0.00,,,,,,,Angelo,Butera,defaultmail@daiwamassage.com,,54 pickwick dr,,,Marlton,NJ,08053,United States,856-983-5283
"PHILLY HOME SHOW 1/11-13/19 & 1/18-20/19 PHILADELPHIA, PA (IL)","PHILLY HOME SHOW 1/11-13/19 & 1/18-20/19 PHILADELPHIA, PA (IL)",Winston Melgar,114475,1/20/2019 8:27:13 PM,Ashna Nanavati,NJ,08210,Relax2Zero 2.0,New Brown,New,1,0.00,3500.00,3500.00,CreditCard,COD,,"2 years parts, 1 year labor (Free)","Relax2Zero 2.0,",No,,Assigned,,,"This is a relax2zero chocolate demo order. But since the demo chair has no  demo colors in the system in daiwa space, I put new chocolate. Pls change it in daiwa space
01/21/19- Cristina verified Sq payment $1,000 8:52 am
Courtesy call/text completed- Cristina 01/23/19 12:16 pm",TX,1,8.00,USJ-9050USJ-9050BR,1000.00,SQ# 6NaG,,,,,,2500.00,,,,,,,0.00,,,,,,,Ashna,Nanavati,defaultmail@daiwamassage.com,,1 cynwyd dr,,,Capemay court house,NJ,08210,United States,609-465-9624
