﻿Original Event Name,Event Name,Sales Person,Order Number,Order Date,Customer Name,State,Zip,Product Name,Color,Product Status,QTY,Tax,Total Before Tax,Order Total,Primary Payment Method,Second Payment Method,Thirdl Payment Method,Warranty,Order Items,Pick up,Delivered On,Order Status,Chair Type,Order Notes,Private Note,Branch,No Tax,Actual Tax Rate,SKU,Primary Payment Balance,Primary Authorize Number,Primary Purchase Order Number,Primary Synchrony Account Number,Primary Synchrony Application Key,Primary Synchrony Account Info,Primary Synchrony Term,Second Payment Balance,Second Authorize Number,Second Purchase Order Number,Second Synchrony Account Number,Second Synchrony Application Key,Second Synchrony Account Info,Second SynchronyTerm,Third Payment Balance,Third Authorize Number,Third Purchase Order Number,Third Synchrony Account Number,Third Synchrony Application Key,Third Synchrony Account Info,Third Synchrony Term
"Sam's Club #8176 TOPEKA, KS (3/21-3/31/2019 - TX)","Sam's Club #8176 TOPEKA, KS (3/21-3/31/2019 - TX)",Scott Tatum,116168,3/26/2019 5:29:09 AM,Kevin Zerr,AA,66073,Relax 2 Zero 2.0 for Sam's,Demo (Box) Brown[-701],Demo,1,292.71,3199.00,3491.71,PurchaseOrder,,,"3 years parts, 1 year labor (Free)","Relax 2 Zero 2.0 for Sam's,",No,,Scheduled,,,"3/26/19- Confirmed TC#. State KS -Hitomi
03/29/19 - Courtesy call/ text completed- Cristina 10 am
Printed by June at 3/27/2019
4/5/2019 Scheduled for Sunday April 14, 2019 between 3pm to 7pm - Tina",TX,0,9.15,USJ-9050USJ-9050BR-DEMO (Box),0.00,,TC#9295 5532 2814 1609 4062 83,,,,,0.00,,,,,,,0.00,,,,,,
"Sam's Club #8176 TOPEKA, KS (3/21-3/31/2019 - TX)","Sam's Club #8176 TOPEKA, KS (3/21-3/31/2019 - TX)",Scott Tatum,116169,3/26/2019 5:36:59 AM,Jerry Krueger,AA,66612,Vitality Plate for Sam's,New,New,1,42.09,459.99,502.08,PurchaseOrder,,,"2 years parts, 1 year labor (Free)","Vitality Plate for Sam's,",YES,,Delivered,,,"In store pickup at show.
3/26/19-Confirmed TC#. State is ***KS**-Hitomi",TX,0,9.15,USJ-849USJ-849,0.00,,TC#5121 4437 5696 5829 8571 4,,,,,0.00,,,,,,,0.00,,,,,,
"Sam's Club #8176 TOPEKA, KS (3/21-3/31/2019 - TX)","Sam's Club #8176 TOPEKA, KS (3/21-3/31/2019 - TX)",Scott Tatum,116170,3/26/2019 5:47:40 AM,Blake Lowenthal,AA,66618,Shogun Neck & Back Massger,New,New,1,54.90,599.97,654.87,PurchaseOrder,,,"2 years parts, 1 year labor (Free)","Shogun Neck &amp; Back Massger,Vitality Plate for Sam's,",YES,,Delivered,,,3/26/19- Confirmed TC#. State ***KS***-Hitomi,TX,0,9.15,USJ-874USJ-874,0.00,,TC#0688 1793 3969 0511 2630 7,,,,,0.00,,,,,,,0.00,,,,,,
"Sam's Club #8176 TOPEKA, KS (3/21-3/31/2019 - TX)","Sam's Club #8176 TOPEKA, KS (3/21-3/31/2019 - TX)",Scott Tatum,116170,3/26/2019 5:47:40 AM,Blake Lowenthal,AA,66618,Vitality Plate for Sam's,Demo[-60],Demo,1,54.90,599.97,654.87,PurchaseOrder,,,"2 years parts, 1 year labor (Free)","Shogun Neck &amp; Back Massger,Vitality Plate for Sam's,",YES,,Delivered,,,3/26/19- Confirmed TC#. State ***KS***-Hitomi,TX,0,9.15,USJ-849USJ-849-DEMO,0.00,,TC#0688 1793 3969 0511 2630 7,,,,,0.00,,,,,,,0.00,,,,,,
"Sam's Club #8176 TOPEKA, KS (3/21-3/31/2019 - TX)","Sam's Club #8176 TOPEKA, KS (3/21-3/31/2019 - TX)",Scott Tatum,116171,3/26/2019 5:53:08 AM,Jim Woods,AA,66523,Orbit for Sam's ,Demo Black(Box)[-300],Demo,1,246.87,2698.00,2944.87,PurchaseOrder,,,"3 years parts, 1 year labor (Free)","Orbit for Sam's ,",No,,Cancelled,,,"3/26/19-Confirmed TC#. State***KS*** -Hitomi
Printed by June at 3/27/2019
03/29/19 - Courtesy call/ text completed- Cristina 10 am",TX,0,9.15,ORBT-1DORBT-1BL-BOX,0.00,,TC#8537 9593 1658 5233 0381 49,,,,,0.00,,,,,,,0.00,,,,,,
"Sam's Club #8176 TOPEKA, KS (3/21-3/31/2019 - TX)","Sam's Club #8176 TOPEKA, KS (3/21-3/31/2019 - TX)",Scott Tatum,116172,3/26/2019 5:59:00 AM,Jason Henderson,AA,66536,Relax 2 Zero 2.0 for Sam's,New Brown,New,1,356.85,3900.00,4256.85,PurchaseOrder,,,"3 years parts, 1 year labor (Free)","Relax 2 Zero 2.0 for Sam's,",No,,Cancelled,,,"3/26/19-Confirmed TC#. ***state : KS***-Hitomi

Printed by June 03/25/19
03/29/19 - Courtesy call/ text completed- Cristina 9: 40 am",TX,0,9.15,USJ-9050USJ-9050BR,0.00,,TC#3002 1529 8841 4965 7818 92,,,,,0.00,,,,,,,0.00,,,,,,
"Sam's Club #8176 TOPEKA, KS (3/21-3/31/2019 - TX)","Sam's Club #8176 TOPEKA, KS (3/21-3/31/2019 - TX)",Scott Tatum,116192,3/27/2019 5:48:09 AM,DeAnne Noel,KS,66605,Shogun Neck & Back Massger,New,New,1,18.30,199.98,218.28,PurchaseOrder,,,"2 years parts, 1 year labor for Small Items","Shogun Neck &amp; Back Massger,",No,,Delivered,,,"There is no place for me to enter the TC# under payment method. TC# 223144273676587923774
3/27/19- Confirmed w/Scott, the item was picked up in the store.- Hitomi",TX,0,9.15,USJ-874USJ-874,0.00,,TC# 223144273676587923774,,,,,0.00,,,,,,,0.00,,,,,,
"Sam's Club #8176 TOPEKA, KS (3/21-3/31/2019 - TX)","Sam's Club #8176 TOPEKA, KS (3/21-3/31/2019 - TX)",Scott Tatum,116193,3/27/2019 6:01:31 AM,Frank Johnson,KS,66604,Ninja Leg Massager,,New,1,34.68,379.00,413.68,PurchaseOrder,,,"2 years parts, 1 year labor (Free)","Ninja Leg Massager,",YES,,Delivered,,,TC# no place to put it under payment method. TC# 599300961262746877630,TX,0,9.15,,0.00,,TC# 599300961262746877630,,,,,0.00,,,,,,,0.00,,,,,,
"Sam's Club #8176 TOPEKA, KS (3/21-3/31/2019 - TX)","Sam's Club #8176 TOPEKA, KS (3/21-3/31/2019 - TX)",Scott Tatum,116194,3/27/2019 6:10:39 AM,Darrel Kellerman,KS,66614,Symphony  - Sam's Club,Demo (Box) Choco[-700],Demo,1,420.81,4599.00,5019.81,PurchaseOrder,,,"3 years parts, 1 year labor (Free)","Symphony  - Sam's Club,",No,,Scheduled,,,"No option to enter TC# under payment method. TC#4567499014546239012139
03/29/19- Courtesy call/Text completed- Cristina 9:37 am
4/5/2019 Scheduled for Sunday 5pm to 8pm on April 14, 2019 - Tina",TX,0,9.15,USJ-9300Symphony-BW-DEMOBX,0.00,,TC#4567499014546239012139,,,,,0.00,,,,,,,0.00,,,,,,
"Sam's Club #8176 TOPEKA, KS (3/21-3/31/2019 - TX)","Sam's Club #8176 TOPEKA, KS (3/21-3/31/2019 - TX)",Scott Tatum,116195,3/27/2019 6:17:56 AM,Keith Koelzer,KS,66538,Orbit for Sam's ,Demo Choco(Box)[-300],Demo,1,246.87,2698.00,2944.87,PurchaseOrder,,,"3 years parts, 1 year labor (Free)","Orbit for Sam's ,",No,,Scheduled,,,"There is option to enter TC# under payment method. TC# 9115873323171604429273
3/29Maritza Courtesy message and email sent @ 4PM
4/8/2019 - Scheduled for Tuesday April 16, 2019  between 2pm to 5pm - Tina",TX,0,9.15,ORBT-1ORBT-1CH-BOX,0.00,,TC# 9115873323171604429273,,,,,0.00,,,,,,,0.00,,,,,,
"Sam's Club #8176 TOPEKA, KS (3/21-3/31/2019 - TX)","Sam's Club #8176 TOPEKA, KS (3/21-3/31/2019 - TX)",Scott Tatum,116206,3/28/2019 5:36:21 AM,David Decoste,KS,66044,Shogun Neck & Back Massger,New,New,1,18.30,199.98,218.28,PurchaseOrder,,,"2 years parts, 1 year labor for Small Items","Shogun Neck &amp; Back Massger,",YES,,Delivered,,,In store pickup at show.,TX,0,9.15,USJ-874USJ-874,0.00,,328451642000824623421,,,,,0.00,,,,,,,0.00,,,,,,
"Sam's Club #8176 TOPEKA, KS (3/21-3/31/2019 - TX)","Sam's Club #8176 TOPEKA, KS (3/21-3/31/2019 - TX)",Scott Tatum,116207,3/28/2019 5:55:54 AM,Thonh Von Jhi Le,KS,66801,Legacy for Sam's,Demo(Box) Sienna Brown[-700],Demo,1,345.78,3778.98,4124.76,PurchaseOrder,,,"3 years parts, 1 year labor (Free)","Legacy for Sam's,Shogun Neck &amp; Back Massger,",No,,Cancelled,,Gift 1 Ninja Foot Massager no cost and 1 Vitality  Plate for the price of a Shogun Demo $179.00 to be delivered with Legacy Chair.,"Gift 1 Ninja Foot Massager no cost and 1 Vitality  Plate for the price of a Shogun Demo $179.00 to be delivered with Legacy Chair.
3/28/19-will confirm the situation - Hitomi",Not Dispatched,0,9.15,DWA-9100DWA-9100SB-Box,0.00,,2839168156727191334528,,,,,0.00,,,,,,,0.00,,,,,,
"Sam's Club #8176 TOPEKA, KS (3/21-3/31/2019 - TX)","Sam's Club #8176 TOPEKA, KS (3/21-3/31/2019 - TX)",Scott Tatum,116207,3/28/2019 5:55:54 AM,Thonh Von Jhi Le,KS,66801,Shogun Neck & Back Massger,Demo[-20],Demo,1,345.78,3778.98,4124.76,PurchaseOrder,,,"2 years parts, 1 year labor for Small Items","Legacy for Sam's,Shogun Neck &amp; Back Massger,",No,,Cancelled,,Gift 1 Ninja Foot Massager no cost and 1 Vitality  Plate for the price of a Shogun Demo $179.00 to be delivered with Legacy Chair.,"Gift 1 Ninja Foot Massager no cost and 1 Vitality  Plate for the price of a Shogun Demo $179.00 to be delivered with Legacy Chair.
3/28/19-will confirm the situation - Hitomi",Not Dispatched,0,9.15,USJ-874USJ-874-DEMO,0.00,,2839168156727191334528,,,,,0.00,,,,,,,0.00,,,,,,
"Sam's Club #8176 TOPEKA, KS (3/21-3/31/2019 - TX)","Sam's Club #8176 TOPEKA, KS (3/21-3/31/2019 - TX)",Scott Tatum,116208,3/28/2019 6:20:16 AM,Christy Shawnsa,KS,66604,Symphony  - Sam's Club,Demo (Box) Black[-700],Demo,1,420.81,4599.00,5019.81,PurchaseOrder,,,"3 years parts, 1 year labor (Free)","Symphony  - Sam's Club,",No,,Scheduled,,,"3/28/19- Per.invoice, 1 Vitality plate is gift needs to be delivered. Confirmed w/Hide , if the chair is not in stock ,it is okay to upgrade to Pegasus. -Hitomi
3/29Maritza Courtesy message sent @ 4:06PM
04/05/19- Customer called for status- Transferred call to Alyson 8:59am
4/8/2019 - Scheduled for April 16, 2019 Tuesday between 8am to 11am - Tina",TX,0,9.15,USJ-9300Symphony-BW-DEMO,0.00,,3491564570676582935704,,,,,0.00,,,,,,,0.00,,,,,,
"Sam's Club #8176 TOPEKA, KS (3/21-3/31/2019 - TX)","Sam's Club #8176 TOPEKA, KS (3/21-3/31/2019 - TX)",Scott Tatum,116213,3/28/2019 3:54:09 PM,Thonh Von Jhi Le,KS,66801,Legacy for Sam's,Demo(Box) Sienna Brown[-700],Demo,1,345.78,3778.98,4124.76,PurchaseOrder,,,"3 years parts, 1 year labor (Free)","Legacy for Sam's,Ninja Leg Massager,Vitality Plate for Sam's,",No,,Scheduled,,Gift 1 Ninja Foot Massager no cost and 1 Vitality  Plate for the price of a Shogun Demo $179.00 to be delivered with Legacy Chair.,"Gift 1 Ninja Foot Massager no cost and 1 Vitality  Plate for the price of a Shogun Demo $179.00 to be delivered with Legacy Chair.
3/28/19- Confirmed w/Scott , please deliver all of items. - Hitomi
3/29Maritza Courtesy message sent @ 4:30PM
4/8/2019 Scheduled for April 17, 2019 Wednesday 9am to 11am -Tina",TX,0,9.15,DWA-9100DWA-9100SB-Box,4124.76,,TC#2839168156727191334528,,,,,0.00,,,,,,,0.00,,,,,,
"Sam's Club #8176 TOPEKA, KS (3/21-3/31/2019 - TX)","Sam's Club #8176 TOPEKA, KS (3/21-3/31/2019 - TX)",Scott Tatum,116213,3/28/2019 3:54:09 PM,Thonh Von Jhi Le,KS,66801,Ninja Leg Massager,,New,1,345.78,3778.98,4124.76,PurchaseOrder,,,"2 years parts, 1 year labor for Small Items","Legacy for Sam's,Ninja Leg Massager,Vitality Plate for Sam's,",No,,Scheduled,,Gift 1 Ninja Foot Massager no cost and 1 Vitality  Plate for the price of a Shogun Demo $179.00 to be delivered with Legacy Chair.,"Gift 1 Ninja Foot Massager no cost and 1 Vitality  Plate for the price of a Shogun Demo $179.00 to be delivered with Legacy Chair.
3/28/19- Confirmed w/Scott , please deliver all of items. - Hitomi
3/29Maritza Courtesy message sent @ 4:30PM
4/8/2019 Scheduled for April 17, 2019 Wednesday 9am to 11am -Tina",TX,0,9.15,,4124.76,,TC#2839168156727191334528,,,,,0.00,,,,,,,0.00,,,,,,
"Sam's Club #8176 TOPEKA, KS (3/21-3/31/2019 - TX)","Sam's Club #8176 TOPEKA, KS (3/21-3/31/2019 - TX)",Scott Tatum,116213,3/28/2019 3:54:09 PM,Thonh Von Jhi Le,KS,66801,Vitality Plate for Sam's,New,New,1,345.78,3778.98,4124.76,PurchaseOrder,,,"2 years parts, 1 year labor for Small Items","Legacy for Sam's,Ninja Leg Massager,Vitality Plate for Sam's,",No,,Scheduled,,Gift 1 Ninja Foot Massager no cost and 1 Vitality  Plate for the price of a Shogun Demo $179.00 to be delivered with Legacy Chair.,"Gift 1 Ninja Foot Massager no cost and 1 Vitality  Plate for the price of a Shogun Demo $179.00 to be delivered with Legacy Chair.
3/28/19- Confirmed w/Scott , please deliver all of items. - Hitomi
3/29Maritza Courtesy message sent @ 4:30PM
4/8/2019 Scheduled for April 17, 2019 Wednesday 9am to 11am -Tina",TX,0,9.15,USJ-849USJ-849,4124.76,,TC#2839168156727191334528,,,,,0.00,,,,,,,0.00,,,,,,
"Sam's Club #8176 TOPEKA, KS (3/21-3/31/2019 - TX)","Sam's Club #8176 TOPEKA, KS (3/21-3/31/2019 - TX)",Scott Tatum,116258,3/30/2019 8:29:47 PM,John Kiefhaber,KS,66617,Shogun Neck & Back Massger,New,New,1,18.30,199.98,218.28,PurchaseOrder,,,"2 years parts, 1 year labor for Small Items","Shogun Neck &amp; Back Massger,",YES,,Delivered,,,,TX,0,9.15,USJ-874USJ-874,0.00,,574533324100602451223,,,,,0.00,,,,,,,0.00,,,,,,
"Sam's Club #8176 TOPEKA, KS (3/21-3/31/2019 - TX)","Sam's Club #8176 TOPEKA, KS (3/21-3/31/2019 - TX)",Scott Tatum,116259,3/30/2019 8:54:17 PM,Jason Williams,KS,66618,Symphony  - Sam's Club,Demo (Box) Black[-700],Demo,1,420.81,4599.00,5019.81,PurchaseOrder,,,"3 years parts, 1 year labor (Free)","Symphony  - Sam's Club,",No,,Cancelled,,"1 New Pegasus Black Chair for purchase price of a New Symphony Black Chair New Demo price. Currently out of Black Symphony, Pegasus is the substitute.","1 New Pegasus Black Chair for purchase price of a New Symphony Black Chair New Demo price. Currently out of Black Symphony, Pegasus is the substitute.",Not Dispatched,0,9.15,USJ-9300Symphony-BW-DEMO,0.00,,1800726896817375582916,,,,,0.00,,,,,,,0.00,,,,,,
"Sam's Club #8176 TOPEKA, KS (3/21-3/31/2019 - TX)","Sam's Club #8176 TOPEKA, KS (3/21-3/31/2019 - TX)",Scott Tatum,116317,3/31/2019 6:56:32 PM,John Ridder,KS,66539,Vitality Plate for Sam's,New,New,1,42.09,459.99,502.08,PurchaseOrder,,,"2 years parts, 1 year labor for Small Items","Vitality Plate for Sam's,",YES,,Delivered,,,,TX,0,9.15,USJ-849USJ-849,0.00,,908086873868370574936,,,,,0.00,,,,,,,0.00,,,,,,
"Sam's Club #8176 TOPEKA, KS (3/21-3/31/2019 - TX)","Sam's Club #8176 TOPEKA, KS (3/21-3/31/2019 - TX)",Scott Tatum,116378,4/2/2019 9:42:01 AM,Jason Williams,KS,66618,Pegasus for Sam's,New Black,New,1,420.81,4599.00,5019.81,PurchaseOrder,,,"3 years parts, 1 year labor (Free)","Pegasus for Sam's,",No,,Scheduled,,"1 New Pegasus Black Chair for purchase price of a New Symphony Black Chair New Demo price. Currently out of Black Symphony, Pegasus is the substitute.","4/2/19-Hitomi re-entered #116259. -Hitomi
4/3/2019 Print / Courtesy message done - Tina
4/8/2019 Scheduled for Monday April 15, 2019 between 4:15pm to 7pm - Tina",TX,0,9.15,DWA-9400Pegasus-BL-NEW,5019.81,,1800726896817375582916,,,,,0.00,,,,,,,0.00,,,,,,
"Sam's Club #8176 TOPEKA, KS (3/21-3/31/2019 - TX)","Sam's Club #8176 TOPEKA, KS (3/21-3/31/2019 - TX)",Scott Tatum,116421,4/5/2019 11:51:34 AM,Jim Woods,KS,66523,Orbit for Sam's ,Demo Black(Box)[-300],Demo,1,246.87,2698.00,2944.87,PurchaseOrder,,,"3 years parts, 1 year labor (Free)","Orbit for Sam's ,",No,,Scheduled,,,"Correction of #116171
Printed by June at 3/27/2019
03/29/19 - Courtesy call/ text completed- Cristina 10 am
4/8/2019 - Scheduled for Tuesday April 16, 2019 between 6pm to 8pm - Tina",TX,0,9.15,ORBT-1DORBT-1BL-BOX,0.00,,TC#8537 9593 1658 5233 0381 49,,,,,0.00,,,,,,,0.00,,,,,,
"Sam's Club #8176 TOPEKA, KS (3/21-3/31/2019 - TX)","Sam's Club #8176 TOPEKA, KS (3/21-3/31/2019 - TX)",Scott Tatum,116422,4/5/2019 11:55:21 AM,Jason P Henderson,KS,66536,Relax 2 Zero 2.0 for Sam's,New Brown,New,1,356.85,3900.00,4256.85,PurchaseOrder,,,"3 years parts, 1 year labor (Free)","Relax 2 Zero 2.0 for Sam's,",No,,Scheduled,,,"Correction of 116172
Printed by June 03/25/19
03/29/19 - Courtesy call/ text completed- Cristina 9: 40 am
4/8/2019 - Scheduled for April 16, 2019 Tuesday between 11am to 2pm - Tina",TX,0,9.15,USJ-9050USJ-9050BR,0.00,,TC#3002 1529 8841 4965 7818 92,,,,,0.00,,,,,,,0.00,,,,,,
