﻿Original Event Name,Event Name,Sales Person,Order Number,Order Date,Customer Name,State,Zip,Product Name,Color,Product Status,QTY,Tax,Total Before Tax,Order Total,Primary Payment Method,Second Payment Method,Thirdl Payment Method,Warranty,Order Items,Pick up,Delivered On,Order Status,Chair Type,Order Notes,Private Note,Branch,No Tax,Actual Tax Rate,SKU,Primary Payment Balance,Primary Authorize Number,Primary Purchase Order Number,Primary Synchrony Account Number,Primary Synchrony Application Key,Primary Synchrony Account Info,Primary Synchrony Term,Primary Synchrony Primary ID,Primary Synchrony Issued State,Primary Synchrony Expiretion Date,Second Payment Balance,Second Authorize Number,Second Purchase Order Number,Second Synchrony Account Number,Second Synchrony Application Key,Second Synchrony Account Info,Second SynchronyTerm,Second Synchrony Primary ID,Second Synchrony Issued State,Second Synchrony Expiretion Date,Third Payment Balance,Third Authorize Number,Third Purchase Order Number,Third Synchrony Account Number,Third Synchrony Application Key,Third Synchrony Account Info,Third Synchrony Term,Third Synchrony Primary ID,Third Synchrony Issued State,Third Synchrony Expiretion Date
"The Boat Show (Mercedes-Benz Superdome) New Orleans, LA (2/8-2/10/2019)","The Boat Show (Mercedes-Benz Superdome) New Orleans, LA (2/8-2/10/2019)",Andres Soto,114872,2/9/2019 4:17:55 PM,ROBERT LOCKREM,LA,70452,Orbit,New Black,New,1,0.00,3500.00,3500.00,Synchrony,,,"5 years parts, 1 year labor (Free)","Orbit,",No,,Delivered,New,,"Confirmed square apprived $6,500.00. Will confirm original ---2/11/19 Asumi
2/13/19-Confirmed original. **Please charge $3,500 before delivery and sales draft signed***-Hitomi
Printed - Tina 2/13/2019
2/13/19-Requested quote-Hitomi
2/14/19-Shipping thru ALG. Pro#LAXP2522467-Hitomi",CA,1,9.45,ORBT-1ORBT-1BL,3500.00,,,6501723375006028,71081516,Huston,36 months,,,,0.00,,,,,,,,,,0.00,,,,,,,,,
"The Boat Show (Mercedes-Benz Superdome) New Orleans, LA (2/8-2/10/2019)","The Boat Show (Mercedes-Benz Superdome) New Orleans, LA (2/8-2/10/2019)",Andres Soto,115122,2/19/2019 8:47:59 AM,Paulette Ganucheau,LA,70003,Legacy 3D,Demo Choco,Demo,1,263.34,3536.66,3800.00,CreditCard,CreditCard,,"5 years parts, 1 year labor (Free)","Legacy 3D,",No,3/14/2019 12:00:00 AM,Delivered,Demo,Remaining balance due on delivery,"Confirmed $500.00 in square **COD$3,300.00** --- 2/19/19 Asumi
Printed - Tina 2/20/2019
2/26Maritza- Courtesy message sent @ 1:13PM",TX,0,9.45,DWA-9150USJ-9150CH-DEMO,500.00,i2sw,,,,,,,,,3300.00,Receipt #XvnW,,,,,,,,,0.00,,,,,,,,,
