﻿Original Event Name,Event Name,Sales Person,Order Number,Order Date,Customer Name,State,Zip,Product Name,Color,Product Status,QTY,Tax,Total Before Tax,Order Total,Primary Payment Method,Second Payment Method,Thirdl Payment Method,Warranty,Order Items,Pick up,Delivered On,Order Status,Chair Type,Order Notes,Private Note,Branch,No Tax,Actual Tax Rate,SKU,Primary Payment Balance,Primary Authorize Number,Primary Purchase Order Number,Primary Synchrony Account Number,Primary Synchrony Application Key,Primary Synchrony Account Info,Primary Synchrony Term,Primary Synchrony Primary ID,Primary Synchrony Issued State,Primary Synchrony Expiretion Date,Second Payment Balance,Second Authorize Number,Second Purchase Order Number,Second Synchrony Account Number,Second Synchrony Application Key,Second Synchrony Account Info,Second SynchronyTerm,Second Synchrony Primary ID,Second Synchrony Issued State,Second Synchrony Expiretion Date,Third Payment Balance,Third Authorize Number,Third Purchase Order Number,Third Synchrony Account Number,Third Synchrony Application Key,Third Synchrony Account Info,Third Synchrony Term,Third Synchrony Primary ID,Third Synchrony Issued State,Third Synchrony Expiretion Date
"Sam's Club #4802 Hiram, GA","Sam's Club #4802 Hiram, GA",Michael Rowe,122672,11/24/2019 8:02:29 AM,Thomas Ramsey,GA,30127,Legacy for Sam's,Demo Choco[-500],Demo,1,0.00,3898.00,3898.00,Purchase Order,,,"3 years parts, 3 years labor (Free)","Legacy for Sam's,",No,,New,,,"The serial number on the demo is 0201002170536 and the footrest should be replaced Sams club hit it with pallet jack.
-Original received-Erika 11/26/19 10:23am",FL,1,7.00,DWA-9100DWA-9100CH-DEMO,3898.00,,TC#0600556149288473891089,,,,,,,/,0.00,,,,,,,,,/,0.00,,,,,,,,,/
"Sam's Club #4802 Hiram, GA","Sam's Club #4802 Hiram, GA",Michael Rowe,122673,11/24/2019 8:53:30 AM,Ouliana Pagieva,GA,30157,Legacy for Sam's,Demo Choco[-500],Demo,1,0.00,3898.00,3898.00,Sam’s Club Synchrony,,,"3 years parts, 3 years labor (Free)","Legacy for Sam's,",No,,New,,,,Not Dispatched,1,7.00,DWA-9100DWA-9100CH-DEMO,3898.00,,,,,,,,,/,0.00,,,,,,,,,/,0.00,,,,,,,,,/
