﻿Original Event Name,Event Name,Sales Person,Order Number,Order Date,Customer Name,State,Zip,Product Name,Color,Product Status,QTY,Tax,Total Before Tax,Order Total,Primary Payment Method,Second Payment Method,Thirdl Payment Method,Warranty,Order Items,Pick up,Delivered On,Order Status,Chair Type,Order Notes,Private Note,Branch,No Tax,Actual Tax Rate,SKU,Primary Payment Balance,Primary Authorize Number,Primary Purchase Order Number,Primary Synchrony Account Number,Primary Synchrony Application Key,Primary Synchrony Account Info,Primary Synchrony Term,Second Payment Balance,Second Authorize Number,Second Purchase Order Number,Second Synchrony Account Number,Second Synchrony Application Key,Second Synchrony Account Info,Second SynchronyTerm,Third Payment Balance,Third Authorize Number,Third Purchase Order Number,Third Synchrony Account Number,Third Synchrony Application Key,Third Synchrony Account Info,Third Synchrony Term
SAM'S CLUB KEEAMOKU,SAM'S CLUB KEEAMOKU,Irene Gott,113388,12/17/2018 10:35:09 AM,BEV WONG,HI,96817,Relax 2 Zero 2.0 for Sam's,Demo Black[-701],Demo,1,0.00,3199.00,3199.00,CreditCard,,,"3 years parts, 1 year labor (Free)","Relax 2 Zero 2.0 for Sam's,",No,,Delivered,,,SR# 0102001180313,HI,1,4.71,USJ-9050USJ-9050BL-DEMO,3199.00,,,,,,,0.00,,,,,,,0.00,,,,,,
SAM'S CLUB KEEAMOKU,SAM'S CLUB KEEAMOKU,Irene Gott,113447,12/18/2018 1:06:45 PM,ALBERT KELIIKULOA,HI,96816,Legacy for Sam's,New Choco,New,1,167.23,4299.00,4466.23,CreditCard,,,"3 years parts, 1 year labor (Free)","Legacy for Sam's,",No,,Scheduled,,TENS UNIT GIFT,TENS UNIT GIFT,HI,0,4.71,DWA-9100DWA-9100CH,4299.00,,,,,,,0.00,,,,,,,0.00,,,,,,
SAM'S CLUB KEEAMOKU,SAM'S CLUB KEEAMOKU,Hazel Reyes,113481,12/19/2018 11:24:39 AM,ROBIN SPENCER,HI,96813,Relax 2 Zero 2.0 for Sam's,Demo Brown[-701],Demo,1,0.00,3199.00,3199.00,CreditCard,,,"3 years parts, 1 year labor (Free)","Relax 2 Zero 2.0 for Sam's,",No,,Cancelled,,,,HI,1,4.71,USJ-9050USJ-9050BR-DEMO,3199.00,,,,,,,0.00,,,,,,,0.00,,,,,,
SAM'S CLUB KEEAMOKU,SAM'S CLUB KEEAMOKU,Irene Gott,113482,12/19/2018 11:28:27 AM,ORION LI,HI,96816,Relax 2 Zero 2.0 for Sam's,New Black,New,1,0.00,3898.00,3898.00,CreditCard,,,"3 years parts, 1 year labor (Free)","Relax 2 Zero 2.0 for Sam's,",No,,Delivered,,,,HI,1,4.71,USJ-9050USJ-9050BL,3898.00,,,,,,,0.00,,,,,,,0.00,,,,,,
SAM'S CLUB KEEAMOKU,SAM'S CLUB KEEAMOKU,Irene Gott,113483,12/19/2018 11:31:36 AM,ROBIN SPENCER,HI,96813,Relax 2 Zero 2.0 for Sam's,Demo Brown[-701],Demo,1,0.00,3199.00,3199.00,CreditCard,,,"3 years parts, 1 year labor (Free)","Relax 2 Zero 2.0 for Sam's,",No,,Delivered,,,SR# 951608224A,HI,1,4.71,USJ-9050USJ-9050BR-DEMO,3199.00,,,,,,,0.00,,,,,,,0.00,,,,,,
SAM'S CLUB KEEAMOKU,SAM'S CLUB KEEAMOKU,Irene Gott,113541,12/21/2018 9:35:21 AM,KYONGMI CHAN,HI,96825,Legacy for Sam's,New Choco,New,1,0.00,4299.00,4299.00,CreditCard,,,"3 years parts, 1 year labor (Free)","Legacy for Sam's,",No,,Scheduled,,,,HI,1,4.71,DWA-9100DWA-9100CH,4299.00,,,,,,,0.00,,,,,,,0.00,,,,,,
SAM'S CLUB KEEAMOKU,SAM'S CLUB KEEAMOKU,Irene Gott,113542,12/21/2018 9:40:37 AM,KENDRICK NODA,HI,96782,Legacy for Sam's,Demo Choco[-700],Demo,1,0.00,3599.00,3599.00,CreditCard,,,"3 years parts, 1 year labor (Free)","Legacy for Sam's,",No,,Delivered,,,,HI,1,4.71,DWA-9100DWA-9100CH-DEMO,3599.00,,,,,,,0.00,,,,,,,0.00,,,,,,
SAM'S CLUB KEEAMOKU,SAM'S CLUB KEEAMOKU,Irene Gott,113543,12/21/2018 9:42:36 AM,CARY MURAKAMI,HI,96814,Legacy for Sam's,Demo Black[-700],Demo,1,0.00,3599.00,3599.00,CreditCard,,,"3 years parts, 1 year labor (Free)","Legacy for Sam's,",No,,Delivered,,,,HI,1,4.71,DWA-9100DWA-9100BL-DEMO,3599.00,,,,,,,0.00,,,,,,,0.00,,,,,,
SAM'S CLUB KEEAMOKU,SAM'S CLUB KEEAMOKU,Irene Gott,113684,12/24/2018 10:47:05 AM,HYOK SONG KWON,HI,96814,Legacy for Sam's,New Black,New,1,0.00,4299.00,4299.00,CreditCard,,,"3 years parts, 1 year labor (Free)","Legacy for Sam's,",No,,Delivered,,,,HI,1,4.71,DWA-9100DWA-9100BL,4299.00,,,,,,,0.00,,,,,,,0.00,,,,,,
SAM'S CLUB KEEAMOKU,SAM'S CLUB KEEAMOKU,Irene Gott,113686,12/24/2018 10:51:03 AM,ANDREA KAILIHIWA,HI,96734,Legacy for Sam's,New Choco,New,1,0.00,4299.00,4299.00,CreditCard,,,"3 years parts, 1 year labor (Free)","Legacy for Sam's,",No,,Delivered,,,,HI,1,4.71,DWA-9100DWA-9100CH,4299.00,,,,,,,0.00,,,,,,,0.00,,,,,,
SAM'S CLUB KEEAMOKU,SAM'S CLUB KEEAMOKU,Irene Gott,113689,12/24/2018 10:58:25 AM,THURSTON ROBINSON,HI,96817,Legacy for Sam's,New Choco,New,1,0.00,4299.00,4299.00,CreditCard,,,"3 years parts, 1 year labor (Free)","Legacy for Sam's,",No,,Delivered,,,,HI,1,4.71,DWA-9100DWA-9100CH,4299.00,,,,,,,0.00,,,,,,,0.00,,,,,,
SAM'S CLUB KEEAMOKU,SAM'S CLUB KEEAMOKU,Irene Gott,114037,1/9/2019 3:50:41 PM,ALBERT KELIIKULOA,HI,96816,Legacy for Sam's,New Choco,New,1,0.00,4299.00,4299.00,CreditCard,,,"3 years parts, 1 year labor (Free)","Legacy for Sam's,",No,,Delivered,,,,HI,1,4.71,DWA-9100DWA-9100CH,4299.00,0636Z,,,,,,0.00,,,,,,,0.00,,,,,,
