﻿Date,Customer Name,State,Zipcode,Description,Product Number,Color,Product Status,Net,Shipping Fee,Gift Price,Financing Processing Fee,Order Total,Total Before Tax,Tax,Commission,Primary Payment Method,Primary Payment Balance,Primary Authorize Number,Primary Purchase Order Number,Primary Synchrony Account Number,Primary Synchrony Application Key,Primary Synchrony Account Info,Primary Synchrony Term,Second Payment Method,Second Payment Balance,Second Authorize Number,Second Purchase Order Number,Second Synchrony Account Number,Second Synchrony Application Key,Second Synchrony Account Info,Second Synchrony Term,Third Payment Method,Third Payment Balance,Third Authorize Number,Third Purchase Order Number,Third Synchrony Account Number,Third Synchrony Application Key,Third Synchrony Account Info,Third Synchrony Term,Delivery Date,Pick up,Warranty,Status,Chair Type,Original Event Name,Event Name,Synchrony Notes,Order Notes,Order Number,Private Note,Branch,No Tax,Actual Tax Rate
1/12/2018 10:13:02 AM,ARVIN GUPTA,NV,89135,Legacy,DWA-9100DWA-9100CH,Choco Brown,New,,,,,3500.00,3500.00,0.00,REX QUIRIMIT,CreditCard,3500.00,56642D,,,,,,,0.00,,,,,,,,0.00,,,,,,,1/15/2018 12:00:00 AM,No,"3 years parts, 1 year labor (Free)",Delivered,,Las Vegas 99 Ranch (NV),Las Vegas 99 Ranch (NV),,,102896,"NO DEPOSIT PER REX HIDE APPROVE OF SALE - 1/12/18 STEPHANY
Confirmed the transaction for $3500 in WF. 3/2/18 Riho",NV,1,8.15
1/15/2018 3:46:45 PM,ROLANDO BUENCONSEJO,NV,89141,Legacy,DWA-9100DWA-9100BL,Black,New,,,,,3000.00,3000.00,0.00,Carlos Jose,CreditCard,3000.00,CHdq,,,,,,,0.00,,,,,,,,0.00,,,,,,,1/15/2018 12:00:00 AM,No,"3 years parts, 1 year labor (Free)",Delivered,,Las Vegas 99 Ranch (NV),Las Vegas 99 Ranch (NV),,,103006,"PAYMENT CONFIRMED $3,000 - STEPHANY 1/15/18",NV,1,8.15
9/4/2018 4:53:51 PM,Chelise Gonzales,CA,91401,Legacy 3D,DWA-9150USJ-9150BL-DEMO,Demo Black,Demo,,,,,3900.00,3900.00,0.00,Stephany Higareda,CreditCard,100.00,Receipt #fqkG,,,,,,COD,1900.00,,,,,,,PurchaseOrder,1900.00,,LAYAWAY,,,,,,No,"5 years parts, 1 year labor (Free)",Cancelled,,Las Vegas 99 Ranch (NV),Las Vegas 99 Ranch (NV),,,109072,,Not Dispatched,1,8.15
