﻿Original Event Name,Event Name,Sales Person,Order Number,Order Date,Customer Name,State,Zip,Product Name,Color,Product Status,QTY,Tax,Total Before Tax,Order Total,Primary Payment Method,Second Payment Method,Thirdl Payment Method,Warranty,Order Items,Pick up,Delivered On,Order Status,Chair Type,Order Notes,Private Note,Branch,No Tax,Actual Tax Rate,SKU,Primary Payment Balance,Primary Authorize Number,Primary Purchase Order Number,Primary Synchrony Account Number,Primary Synchrony Application Key,Primary Synchrony Account Info,Primary Synchrony Term,Second Payment Balance,Second Authorize Number,Second Purchase Order Number,Second Synchrony Account Number,Second Synchrony Application Key,Second Synchrony Account Info,Second SynchronyTerm,Third Payment Balance,Third Authorize Number,Third Purchase Order Number,Third Synchrony Account Number,Third Synchrony Application Key,Third Synchrony Account Info,Third Synchrony Term
"Sam's Club #6684 Riverdale, UT 4/4-14/19 (NV)","Sam's Club #6684 Riverdale, UT 4/4-14/19 (NV)",Querubin Milanes,116821,4/18/2019 11:52:27 PM,Mireya Rodriguez,UT,84401,Legacy for Sam's,Demo Choco[-700],Demo,1,268.13,3599.00,3867.13,Credit Card,,,"3 years parts, 1 year labor (Free)","Legacy for Sam's,",No,4/19/2019 12:00:00 AM,Delivered,New,,4/19Maritza Courtesy message sent @ 12PM,NV,0,7.45,DWA-9100DWA-9100CH-DEMO,3867.13,TC# 5434 9815 0116 5925 4188 68,,,,,,0.00,,,,,,,0.00,,,,,,
"Sam's Club #6684 Riverdale, UT 4/4-14/19 (NV)","Sam's Club #6684 Riverdale, UT 4/4-14/19 (NV)",Querubin Milanes,116822,4/18/2019 11:58:08 PM,Roger Hill,UT,84015,PEGASUS 2 SMART - Sam's,New Choco,New,1,461.83,6199.00,6660.83,Credit Card,,,"3 years parts, 1 year labor (Free)","PEGASUS 2 SMART - Sam's,",No,4/19/2019 12:00:00 AM,Delivered,New,,4/19Maritza Courtesy message sent @ 12PM,NV,0,7.45,PEGS-2PEGS-2-BR,6660.83,TC# 9972 2925 4723 4361 8859 49,,,,,,0.00,,,,,,,0.00,,,,,,
"Sam's Club #6684 Riverdale, UT 4/4-14/19 (NV)","Sam's Club #6684 Riverdale, UT 4/4-14/19 (NV)",Querubin Milanes,116830,4/19/2019 12:49:49 PM,"U.S.  JACLEAN, INC.",CA,90249,Vitality Plate for Sam's,Demo[-60],Demo,1,29.80,399.99,429.79,Credit Card,,,"2 years parts, 1 year labor for Small Items","Vitality Plate for Sam's,",YES,,Delivered,,,Customer pick-up @ Sam's Club,CA,0,7.45,USJ-849USJ-849-DEMO,429.79,TC 2079 1897 0869 2945 6110 1,,,,,,0.00,,,,,,,0.00,,,,,,
"Sam's Club #6684 Riverdale, UT 4/4-14/19 (NV)","Sam's Club #6684 Riverdale, UT 4/4-14/19 (NV)",Querubin Milanes,116833,4/19/2019 1:00:25 PM,"U.S.  JACLEAN, INC.",CA,90249,Shogun Neck & Back Massger,New,New,1,14.90,199.98,214.88,Credit Card,,,"2 years parts, 1 year labor for Small Items","Shogun Neck &amp; Back Massger,",YES,,Delivered,,,Customer pick-up @ Sam's Club,CA,0,7.45,USJ-874USJ-874,214.88,TC 0912 2204 2266 3688 8193 9,,,,,,0.00,,,,,,,0.00,,,,,,
