﻿Date,Customer Name,State,Zipcode,Description,Product Number,Color,Product Status,Net,Shipping Fee,Gift Price,Financing Processing Fee,Order Total,Total Before Tax,Tax,Commission,Primary Payment Method,Primary Payment Balance,Primary Authorize Number,Primary Purchase Order Number,Primary Synchrony Account Number,Primary Synchrony Application Key,Primary Synchrony Account Info,Primary Synchrony Term,Second Payment Method,Second Payment Balance,Second Authorize Number,Second Purchase Order Number,Second Synchrony Account Number,Second Synchrony Application Key,Second Synchrony Account Info,Second Synchrony Term,Third Payment Method,Third Payment Balance,Third Authorize Number,Third Purchase Order Number,Third Synchrony Account Number,Third Synchrony Application Key,Third Synchrony Account Info,Third Synchrony Term,Delivery Date,Pick up,Warranty,Status,Original Event Name,Event Name,Synchrony Notes,Order Notes,Order Number,Private Note,Branch,No Tax,Actual Tax Rate
10/18/2018 1:07:56 PM,Jeff Galliher,FL,32720,Legacy 3D,DWA-9150USJ-9150CH-DEMO,Demo Choco,Demo,,,,,4047.00,3800.00,247.00,Joseph Chan,CreditCard,4047.00,#FnhE,,,,,,,0.00,,,,,,,,0.00,,,,,,,10/21/2018 12:00:00 AM,YES,"3 years parts, 1 year labor (Free)",Delivered,BIKETOBERFEST 10/18-21/18 ORMOND BEACH (FL),BIKETOBERFEST 10/18-21/18 ORMOND BEACH (FL),,,110420,"Confirmed $4,047 in Square.COnfirmed with Joseph , it will be picked up after the show   10/18/18 Hitomi//Received pickup confirmation. 10/18/18 Hitomi",FL,0,6.50
10/20/2018 2:05:02 PM,Dawn McDonald,FL,32141,Legacy 3D,DWA-9150USJ-9150BL-DEMO,Demo Black,Demo,,,,,3600.00,3600.00,0.00,Alex Brackelsberg,Synchrony,3600.00,,,6019170813198253,95924879,Huston,36 months,,0.00,,,,,,,,0.00,,,,,,,10/21/2018 12:00:00 AM,YES,"5 years parts, 1 year labor (Free)",Delivered,BIKETOBERFEST 10/18-21/18 ORMOND BEACH (FL),BIKETOBERFEST 10/18-21/18 ORMOND BEACH (FL),10/22/18 Auth#022798/36 months (TX) - Hitomi,,110476,Received pick up confirmation 10/22/18 Hitomi,FL,1,6.50
10/20/2018 2:10:22 PM,Crystal Griffis,GA,31535,Relax2Zero 3D,DWA-9060USJ-9060BL-DEMO,Demo Black,Demo,,,,,4473.00,4245.77,227.23,Joseph Chan,Synchrony,4473.00,,,6019170813198659,95933958,Huston,48 months,,0.00,,,,,,,,0.00,,,,,,,,No,"3 years parts, 1 year labor (Free)",Scheduled,BIKETOBERFEST 10/18-21/18 ORMOND BEACH (FL),BIKETOBERFEST 10/18-21/18 ORMOND BEACH (FL),"Authorization Code
024475
Synch charged $4473 on 10/24/18 by Josefina",,110477,"CC Josefina - 10/23/18 3:00pm (Call between 8:30am -1pm or after 5pm)

Confirmed SYNC($4,500) under CHANNING GRIFFIS. (Crystal Griffis is co applicant) *** PLease charge $4,473.00 before delivery and sales draft signed by CHANNING***10/22/18 Hitomi",FL,0,6.50
10/20/2018 2:16:24 PM,Arthur McPherson,FL,32952,Relax2Zero 3D,DWA-9060USJ-9060BR-DEMO,Demo Choco,Demo,,,,,3800.00,3800.00,0.00,Alex Brackelsberg,CreditCard,500.00,#d8qF,,,,,,,0.00,,,,,,,,0.00,,,,,,,,YES,"5 years parts, 2 years labor ($200)",Cancelled,BIKETOBERFEST 10/18-21/18 ORMOND BEACH (FL),BIKETOBERFEST 10/18-21/18 ORMOND BEACH (FL),,,110478,Customer will pay balance when pick up,Not Dispatched,1,6.50
10/20/2018 2:20:53 PM,James Burns,NC,28304,Legacy 3D,DWA-9150USJ-9150CH,New Choco,New,,,,,4900.00,4900.00,0.00,Joseph Chan,Synchrony,4500.00,,,6019170813199053,95940048,Las Vegas,36 months,CreditCard,400.00,#0Lys,,,,,,,0.00,,,,,,,,No,"3 years parts, 1 year labor (Free)",Assigned,BIKETOBERFEST 10/18-21/18 ORMOND BEACH (FL),BIKETOBERFEST 10/18-21/18 ORMOND BEACH (FL),,,110479,"Confirmed $400 in Square. SYNC($4,500) and original. ***Please charge $4,500 before delivery and sales draft signed.***10/22/18 Hitomi",FL,1,6.50
10/20/2018 7:37:32 PM,Charles Armitage,FL,32168,Legend 2,DWA-9200DWA-9200-BL,New Black,New,,,,,4211.25,4000.00,211.25,Joseph Chan,Synchrony,4000.00,,,6019170813200034,95951723,Las Vegas,48 months,,0.00,,,,,,,,0.00,,,,,,,,No,"3 years parts, 1 year labor (Free)",Cancelled,BIKETOBERFEST 10/18-21/18 ORMOND BEACH (FL),BIKETOBERFEST 10/18-21/18 ORMOND BEACH (FL),,,110487,"Customer need some time to convince his wife, please hold//COnfirmed SYNC($4000) . original sales receipt does not have signature.  We will need it upon the delivery. Place on hold. 10/22/18 Hitomi",Not Dispatched,0,6.50
10/20/2018 7:42:18 PM,Neal Strocchia,NY,11378,Relax2Zero 3D,DWA-9060USJ-9060BR,New Choco,New,,,,,3800.00,3800.00,0.00,Alex Brackelsberg,CreditCard,3800.00,#MdBK,,,,,,,0.00,,,,,,,,0.00,,,,,,,,No,"5 years parts, 1 year labor (Free)",New,BIKETOBERFEST 10/18-21/18 ORMOND BEACH (FL),BIKETOBERFEST 10/18-21/18 ORMOND BEACH (FL),,,110488,"Confirmed $3,800 in Square. 10/22/18 Hitomi",TX,1,6.50
10/23/2018 12:56:30 PM,Charles Armitage,FL,32168,Legend 2,DWA-9200DWA-9200-BL,New Black,New,,,,,4000.00,4000.00,0.00,Joseph Chan,Synchrony,4000.00,,,6019170813200034,95951723,Las Vegas,48 months,,0.00,,,,,,,,0.00,,,,,,,,No,"3 years parts, 1 year labor (Free)",Hold,BIKETOBERFEST 10/18-21/18 ORMOND BEACH (FL),BIKETOBERFEST 10/18-21/18 ORMOND BEACH (FL),,,110603,"Customer need some time to convince his wife, please hold//COnfirmed SYNC($4000) . original sales receipt does not have signature.  We will need it upon the delivery. Place on hold. 10/22/18 Hitomi",FL,1,6.50
