﻿Date,CustomerName,State,Zipcode,Description,productNo,Color,IsDemo,Net,ShippingFee,GiftPrice,FinancingProcessingFee,Gross,Pre_tax,Tax,Commission,Primary Payment Method,Primary Payment Balance,Primary Authorize Number,Primary Purchase Order Number,Primary Synchrony Account Number,Primary Synchrony Application Key,Primary Synchrony AccountInfo,Primary SynchronyTerm,Secondly Payment Method,Secondly Payment Balance,Secondly Authorize Number,Secondly Purchase Order Number,Secondly Synchrony Account Number,Secondly Synchrony Application Key,Secondly Synchrony AccountInfo,Secondly SynchronyTerm,Thirdly Payment Method,Thirdly Payment Balance,Thirdly Authorize Number,Thirdly Purchase Order Number,Thirdly Synchrony Account Number,Thirdly Synchrony Application Key,Thirdly Synchrony AccountInfo,Thirdly SynchronyTerm,DeliveryDate,Ispickup,Warranty,Status,Event Name,Synchrony Notes,Order Notes,Order number,Private Note,Branch,IsNoTax,ActualTaxRate
1/9/2018 9:51:46 AM,JMCK HOLDING CORP McKinney,IL,60014,Legacy for Sam's,DWA-9100DWA-9100CH,Choco,New,,,,,3958.90,3599.00,359.90,Noni Ignacio,PurchaseOrder,0.00,,TC# 9045 4836 1810 3221 0012 23,,,,,,0.00,,,,,,,,0.00,,,,,,,,No,"3 years parts, 2 years labor ($200)",Called,"Sam's Club #8198 Wheeling, IL  1/4-14/18 (IL)",,"PLEASE DELIVER BRAND NEW CHAIR 
CUSTOMER WILL CALL FOR DELIVERY DATE",102808,,TX,0,10.00
1/9/2018 10:03:17 AM,JMCK HOLDING CORP McKinney,IL,60014,Relax2Zero 2.0 for Sam's,USJ-9050USJ-9050BR,Brown,New,,,,,3518.90,3199.00,319.90,Noni Ignacio,PurchaseOrder,0.00,,TC# 9845 2332 1310 1221 0042 23,,,,,,0.00,,,,,,,,0.00,,,,,,,,No,"3 years parts, 2 years labor ($200)",Called,"Sam's Club #8198 Wheeling, IL  1/4-14/18 (IL)",,"PLEASE DELIVER BRAND NEW CHAIR 
CUSTOMER WILL CALL FOR DELIVERY DATE",102809,,TX,0,10.00
1/9/2018 10:12:13 AM,Rani Sharma,IL,60089,Vitality Plate for Sam's,USJ-849USJ-849-DEMO,Demo,Demo,,,,,439.99,399.99,40.00,Noni Ignacio,CreditCard,0.00,001404,,,,,,,0.00,,,,,,,,0.00,,,,,,,,YES,"2 years parts, 1 year labor (Small Items)",Delivered,"Sam's Club #8198 Wheeling, IL  1/4-14/18 (IL)",,Customer pick up merchandise,102810,TC#0850 2638 5876 9977 7697 6 confirmed with sales rep. 1/9/18 Hitomi,TX,0,10.00
