﻿Original Event Name,Event Name,Sales Person,Order Number,Order Date,Customer Name,State,Zip,Product Name,Color,Product Status,QTY,Tax,Total Before Tax,Order Total,Primary Payment Method,Second Payment Method,Thirdl Payment Method,Warranty,Order Items,Pick up,Delivered On,Order Status,Chair Type,Order Notes,Private Note,Branch,No Tax,Actual Tax Rate,SKU,Primary Payment Balance,Primary Authorize Number,Primary Purchase Order Number,Primary Synchrony Account Number,Primary Synchrony Application Key,Primary Synchrony Account Info,Primary Synchrony Term,Second Payment Balance,Second Authorize Number,Second Purchase Order Number,Second Synchrony Account Number,Second Synchrony Application Key,Second Synchrony Account Info,Second SynchronyTerm,Third Payment Balance,Third Authorize Number,Third Purchase Order Number,Third Synchrony Account Number,Third Synchrony Application Key,Third Synchrony Account Info,Third Synchrony Term
"Sam's Club #4787 Bloomington, MN","Sam's Club #4787 Bloomington, MN",Michael Cuatrona,117959,6/11/2019 4:10:27 PM,Michael Halsey,MN,55406,Relax 2 Zero 3D for Sam's,New Brown,New,1,361.04,4499.00,4860.04,Sam’s Club Synchrony,,,"3 years parts, 1 year labor (Free)","Relax 2 Zero 3D for Sam's,",No,,Assigned,,[MC spec notes] -- 3 years parts and 1 year labor warranty included. Free delivery applies,"Please adjust the sales tax to 7.525 .Per rep sales request (Michael C.) 3 years parts / 3 years labor.
Disregard remaining balance.
--Original received. Erika 6/12/19 3:32pm
courtesy call completed-Erika 6/12/19 4:16pm",IL,0,8.03,DWA-9060DWA-9060BR,4837.55,,,,,,,0.00,,,,,,,0.00,,,,,,
"Sam's Club #4787 Bloomington, MN","Sam's Club #4787 Bloomington, MN",Michael Cuatrona,117964,6/12/2019 7:31:35 AM,Ann Kattreh,MN,55410,Relax 2 Zero 3D for Sam's,New Black,New,1,361.04,4499.00,4860.04,Sam’s Club Synchrony,,,"3 years parts, 3 years labor ($400)","Relax 2 Zero 3D for Sam's,",No,,Assigned,,"[MC - additional warranty approved 04/10] -- as per Michael, upgrade the warranty from 3 years parts and 1 year labor to (3 years parts and 3 years labor) at no extra cost. Balance the order to reflect the change. Free delivery applies - customer willing to work with the consolidation","3 years parts and 3 years labor Disregard remaining balance.
Original received.Erika 6/12/19 3:54pm
courtesy call completed erika 6/12/19 4:25pm",IL,0,8.03,DWA-9060DWA-9060BL,4837.55,,,,,,,0.00,,,,,,,0.00,,,,,,
