﻿Date,CustomerName,State,Zipcode,Description,productNo,Color,IsDemo,Net,ShippingFee,GiftPrice,FinancingProcessingFee,Gross,Pre_tax,Tax,Commission,PaymentMethod,Primary Payment Balance,Secondary Payment Method,DeliveryDate,Ispickup,Warranty,Status,Event Name,Synchrony Account Number,Synchrony Application Key,Synchrony Account info,Synchrony Term,Synchrony Notes
9/24/2017 8:13:23 AM,Grey Wells,VA,22033,Legacy 3D,DWA-9150USJ-9150BL-DEMO,Demo Black,Demo,,,,,4001.50,3775.00,226.50,Jonathan Bhowani,CreditCard,4001.50,,9/24/2017 12:00:00 AM,No,"3 years parts, 1 year labor (Free)",Delivered,Capital Home Show Fall 17,,,,,
9/24/2017 8:13:23 AM,Grey Wells,VA,22033,Daiwa Blanket,,,New,,,,,4001.50,3775.00,226.50,Jonathan Bhowani,CreditCard,4001.50,,9/24/2017 12:00:00 AM,No,No Warranty,Delivered,Capital Home Show Fall 17,,,,,
9/24/2017 10:03:29 AM,mathine cline,CA,90245,Legacy,DWA-9100DWA-9100BL-DEMO,Demo Black,Demo,,,,,3420.07,3194.00,226.07,David Wang,Synchrony,0.00,,,No,"3 years parts, 3 years labor ($400)",Cancelled,LA County Fair 9/1-24 (CA),6034610081534961,78853984,San Diego,36 months,
9/24/2017 10:17:44 AM,Tom Rebsom,WA,98290,Legacy 3D,DWA-9150USJ-9150BL,Black,New,,,,,3999.18,3720.00,279.18,Christoper Richard Williams,Synchrony,4000.00,,,No,"5 years parts, 3 years labor ($700)",Assigned,Washington State Fair 9/1-24 (WA),6034610081534565,78846955,Las Vegas,36 months,
9/24/2017 10:19:25 AM,Joyce DeCarlo,IL,60641,Relax2Zero 2.0 for Sam's,USJ-9050USJ-9050BL,Black,New,,,,,3470.92,3199.00,271.92,Michael Wang,CreditCard,0.00,,,No,"3 years parts, 1 year labor (Free)",Scheduled,Health&Wellness H Mart Illinois,,,,,
9/24/2017 10:26:28 AM,Marisela Rangel,CA,91706,Relax2Zero 3D,DWA-9060USJ-9060BL,Black,New,,,,,3999.10,3724.00,275.10,Joseph Chan,CreditCard,4000.00,,,No,"3 years parts, 3 years labor ($400)",Assigned,LA County Fair 9/1-24 (CA),,,,,
9/24/2017 10:26:59 AM,Mary Jacobs,WA,98311,Legacy 3D,DWA-9150USJ-9150CH-DEMO,Demo Choco Brown,Demo,,,,,3999.18,3720.00,279.18,Tom Nguyen,Synchrony,4000.00,,,No,"5 years parts, 3 years labor ($700)",Assigned,Washington State Fair 9/1-24 (WA),6034610081534573,78846972,Las Vegas,36 months,
9/24/2017 10:39:04 AM,Tammy Gabriel,NY,12180,Legacy 3D,DWA-9150USJ-9150BL,Black,New,,,,,4203.13,4000.00,203.13,Gary Cyrlin,Synchrony,0.00,,,No,"3 years parts, 1 year labor (Free)",Scheduled,The Big E State Fair 9/15-10/1,,78794724,Las Vegas,36 months,
9/24/2017 10:43:52 AM,Nancy Tracy,NH,03451,Legacy 3D,DWA-9150USJ-9150CH,Choco Brown,New,,,,,4201.00,3998.00,203.00,Winston Melgar,CreditCard,4200.00,,,No,"3 years parts, 1 year labor (Free)",Scheduled,The Big E State Fair 9/15-10/1,,,,,
9/24/2017 10:47:55 AM,Evangelos Paphristou,CT,06480,Relax2Zero 3D,DWA-9060USJ-9060BR,Choco Brown,New,,,,,4781.13,4544.00,237.13,Gary Cyrlin,Synchrony,0.00,,,No,"3 years parts, 1 year labor (Free)",Cancelled,The Big E State Fair 9/15-10/1,6034610081531181,78787631,Las Vegas,36 months,
9/24/2017 10:52:21 AM,Nancy Twohig,MA,01085,Legacy 3D,DWA-9150USJ-9150BL,Black,New,,,,,4000.19,3809.00,191.19,Amando Loreno,CreditCard,4000.00,,,No,"3 years parts, 1 year labor (Free)",Scheduled,The Big E State Fair 9/15-10/1,,,,,
9/24/2017 10:56:21 AM,Ryna Russell,MA,01027,Legacy 3D,DWA-9150USJ-9150CH,Choco Brown,New,,,,,4000.19,3809.00,191.19,Amando Loreno,CreditCard,4000.00,,,No,"3 years parts, 1 year labor (Free)",Scheduled,The Big E State Fair 9/15-10/1,,,,,
9/24/2017 11:02:47 AM,Dori Letourneau,RI,02864,Legacy 3D,DWA-9150USJ-9150CH,Choco Brown,New,,,,,4000.19,3809.00,191.19,Amando Loreno,Synchrony,0.00,,,No,"3 years parts, 1 year labor (Free)",Scheduled,The Big E State Fair 9/15-10/1,6034610081532171,78814236,Las Vegas,36 months,
9/24/2017 11:07:33 AM,Sharon Cruz,CT,06460,Legacy 3D,DWA-9150USJ-9150BL,Black,New,,,,,4000.19,3809.00,191.19,Amando Loreno,Synchrony,0.00,,,No,"3 years parts, 1 year labor (Free)",Scheduled,The Big E State Fair 9/15-10/1,6034610081533153,78830475,Las Vegas,36 months,
9/24/2017 11:13:24 AM,Debbie Montgomery,OH,45002,Legacy 3D,DWA-9150USJ-9150BL,Black,New,,,,,4201.00,3998.00,203.00,Gary Cyrlin,Synchrony,4200.00,,,No,"3 years parts, 1 year labor (Free)",Scheduled,The Big E State Fair 9/15-10/1,6034610081533500,78834147,Las Vegas,36 months,
9/24/2017 11:18:38 AM,Vittorio Castro,CT,06111,Legacy 3D,DWA-9150USJ-9150BL,Black,New,,,,,4201.00,3998.00,203.00,Ilene Maynard,CreditCard,4200.00,,,No,"3 years parts, 1 year labor (Free)",Assigned,The Big E State Fair 9/15-10/1,,,,,
9/24/2017 11:25:32 AM,Charlie Dinh,CT,06776,Pegasus,DWA-9400Pegasus-BL,Black,New,,,,,4900.13,4656.00,244.13,Rolly San Jose,Synchrony,4900.00,,,No,"3 years parts, 1 year labor (Free)",Scheduled,The Big E State Fair 9/15-10/1,6034610081534151,78841018,Las Vegas,48 months,
9/24/2017 11:33:11 AM,Gemii Ly,CT,06770,Pegasus,DWA-9400Pegasus-BL,Black,New,,,,,4900.38,4668.00,232.38,Rolly San Jose,Synchrony,4900.00,,,No,"3 years parts, 1 year labor (Free)",Scheduled,The Big E State Fair 9/15-10/1,6034610081534177,78841380,Las Vegas,48 months,
9/24/2017 11:41:41 AM,Evangelos Papahristou,CT,06480,Relax2Zero 3D,DWA-9060USJ-9060BR,Choco Brown,New,,,,,4781.13,4544.00,237.13,Gary Cyrlin,Synchrony,4781.00,,,No,"3 years parts, 1 year labor (Free)",Scheduled,The Big E State Fair 9/15-10/1,6034610081531181,78787631,Las Vegas,36 months,
9/24/2017 11:47:34 AM,John Wasilewski,RI,02891,Pegasus,DWA-9400Pegasus-BL,Black,New,,,,,4900.13,4656.00,244.13,Rolly San Jose,Synchrony,4900.00,,,No,"3 years parts, 1 year labor (Free)",Cancelled,The Big E State Fair 9/15-10/1,6034610081534854,78850461,Las Vegas,48 months,
9/24/2017 11:54:01 AM,Rich Martucci,IL,60061,Foot Vibe Pro,USJ-871,,New,,,,,119.34,109.99,9.35,Michael Wang,CreditCard,0.00,,,YES,"2 years parts, 1 year labor (Small Items)",Delivered,Health&Wellness H Mart Illinois,,,,,
9/24/2017 12:33:39 PM,Randolph Hammock,CA,90064,Legacy 3D,DWA-9150USJ-9150BL,Black,New,,,,,4260.20,3963.00,297.20,Kaz Ohashi,CreditCard,4260.20,,,No,"3 years parts, 1 year labor (Free)",Scheduled,LA County Fair 9/1-24 (CA),,,,,
9/24/2017 12:34:19 PM,Michael Williamson,VA,20136,Legacy 3D,DWA-9150USJ-9150CH,Choco Brown,New,,,,,3816.00,3600.00,216.00,Jonathan Bhowani,CreditCard,3816.00,,9/25/2017 12:00:00 AM,No,"3 years parts, 1 year labor (Free)",Delivered,Capital Home Show Fall 17,,,,,
9/24/2017 1:01:35 PM,John Luea,WA,98270,Legacy,DWA-9100DWA-9100BL,Black,New,,,,,3000.36,2807.00,193.36,Ruben Cuatrona,Cash,0.00,CreditCard,,No,"5 years parts, 3 years labor ($700)",Hold,Washington State Fair 9/1-24 (WA),,,,,
9/24/2017 1:13:33 PM,Richard Ihlen,WA,98443,Legacy 3D,DWA-9150USJ-9150BL-DEMO,Demo Black,Demo,,,,,4000.27,3721.00,279.27,Larhonda Ingram,Synchrony,4000.00,,9/25/2017 12:00:00 AM,No,"5 years parts, 3 years labor ($700)",Delivered,Washington State Fair 9/1-24 (WA),6034610081535802,78864984,Las Vegas,48 months,
9/24/2017 1:26:11 PM,Frank Plick Jr,WA,98092,Pegasus,DWA-9400Pegasus-BR,Choco Brown,New,,,,,6021.99,5569.00,452.99,Robert Shih,Synchrony,6022.00,,,No,"5 years parts, 3 years labor ($700)",Assigned,Washington State Fair 9/1-24 (WA),6034610081533534,78834267,Las Vegas,36 months,
9/24/2017 1:33:21 PM,Trudie Easton,WA,98168,Pegasus,DWA-9400Pegasus-BL,Black,New,,,,,5500.15,5092.00,408.15,Alex Brackelsberg,CreditCard,5500.00,,,No,"5 years parts, 3 years labor ($700)",Assigned,Washington State Fair 9/1-24 (WA),,,,,
9/24/2017 2:05:02 PM,Christine Simmons,WA,98321,Relax2Zero 3D,DWA-9060USJ-9060BL,Black,New,,,,,4000.27,3721.00,279.27,Alex Brackelsberg,CreditCard,4000.00,,,No,"5 years parts, 3 years labor ($700)",Cancelled,Washington State Fair 9/1-24 (WA),,,,,
9/24/2017 2:12:45 PM,Robert Irwih-Miller,WA,98043,Relax2Zero 3D,DWA-9060USJ-9060BR-DEMO,Demo Choco Brown,Demo,,,,,4000.27,3721.00,279.27,Robert Shih,Synchrony,4000.00,,,No,"5 years parts, 3 years labor ($700)",Assigned,Washington State Fair 9/1-24 (WA),6034610281534599,78847391,Las Vegas,36 months,
9/24/2017 2:21:55 PM,Angela Vigo,WA,98466,Relax2Zero 3D,DWA-9060USJ-9060BR-DEMO,Demo Choco Brown,Demo,,,,,4379.89,4068.00,311.89,Robert Shih,Synchrony,4380.00,,9/25/2017 12:00:00 AM,No,"5 years parts, 3 years labor ($700)",Delivered,Washington State Fair 9/1-24 (WA),6034610081534235,78842049,Las Vegas,36 months,
9/24/2017 2:35:09 PM,Julie Gibson,WA,98032,Legacy 3D,DWA-9150USJ-9150CH,Choco Brown,New,,,,,4200.48,3904.00,296.48,Laser Howell,Synchrony,4200.00,,,No,"5 years parts, 3 years labor ($700)",Assigned,Washington State Fair 9/1-24 (WA),6034610081533849,78837609,Las Vegas,36 months,
9/24/2017 2:46:49 PM,Michael L Dewitt,WA,98002,Relax2Zero 3D,DWA-9060USJ-9060BR-DEMO,Demo Choco Brown,Demo,,,,,4000.27,3721.00,279.27,Robert Shih,Synchrony,0.00,,,No,"5 years parts, 3 years labor ($700)",Hold,Washington State Fair 9/1-24 (WA),,78856842,Las Vegas,36 months,
9/24/2017 2:53:07 PM,Carol Wallace,WA,98501,Legacy 3D,DWA-9150USJ-9150BL,Black,New,,,,,4000.27,3721.00,279.27,Phuoc Van,CreditCard,4000.00,,,No,"5 years parts, 3 years labor ($700)",Assigned,Washington State Fair 9/1-24 (WA),,,,,
9/24/2017 3:16:23 PM,KATHERINE HOLMES,WA,98826,Legacy 3D,DWA-9150USJ-9150BL,Black,New,,,,,4376.61,4065.00,311.61,Tom Nguyen,CreditCard,4376.00,,,No,"5 years parts, 3 years labor ($700)",Assigned,Washington State Fair 9/1-24 (WA),,,,,
9/24/2017 3:47:56 PM,Max Uribe,CA,91764,Legacy 3D,DWA-9150USJ-9150CH,Choco Brown,New,,,,,4300.63,4000.00,300.63,David Wang,CreditCard,2000.00,,,No,"3 years parts, 3 years labor ($400)",Assigned,LA County Fair 9/1-24 (CA),,,,,
9/24/2017 3:54:33 PM,Sok Ha,WA,98444,Legacy,DWA-9100DWA-9100CH,Choco Brown,New,,,,,3500.32,3264.00,236.32,Tom Nguyen,CreditCard,3500.00,,,No,"5 years parts, 3 years labor ($700)",Assigned,Washington State Fair 9/1-24 (WA),,,,,
9/24/2017 4:14:32 PM,Sharon Pearson,WA,98003,Legacy 3D,DWA-9150USJ-9150BL,Black,New,,,,,4000.27,3721.00,279.27,Larhonda Ingram,CreditCard,200.00,COD,,No,"5 years parts, 3 years labor ($700)",Hold,Washington State Fair 9/1-24 (WA),,,,,
9/24/2017 4:23:31 PM,Sam J Colaacurcio,WA,98019,Legacy 3D,DWA-9150USJ-9150BL,Black,New,,,,,4000.27,3721.00,279.27,Ruben Cuatrona,Synchrony,2500.00,CreditCard,,No,"5 years parts, 3 years labor ($700)",Assigned,Washington State Fair 9/1-24 (WA),6034610081535901,78865894,Las Vegas,24 months,
9/24/2017 4:29:49 PM,Jerrod Baeb Stevens,WA,98204,Legacy 3D,DWA-9150USJ-9150BL,Black,New,,,,,4300.03,3995.00,305.03,Kristy Tran,CreditCard,4300.00,,,No,"5 years parts, 3 years labor ($700)",Assigned,Washington State Fair 9/1-24 (WA),,,,,
9/24/2017 4:35:07 PM,Troy Sandera,WA,98589,Legacy 3D,DWA-9150USJ-9150CH-DEMO,Demo Choco Brown,Demo,,,,,3800.07,3538.00,262.07,Jennifer Tran,Synchrony,3800.00,,,No,"5 years parts, 3 years labor ($700)",Assigned,Washington State Fair 9/1-24 (WA),6034610081536289,78869609,Las Vegas,24 months,
9/24/2017 4:46:42 PM,Barsbold Gaanjuur,WA,98006,Legacy 3D,DWA-9150USJ-9150BL,Black,New,,,,,3000.36,2807.00,193.36,Christoper Richard Williams,Cash,3000.00,CreditCard,,No,"5 years parts, 3 years labor ($700)",Assigned,Washington State Fair 9/1-24 (WA),,,,,
9/24/2017 4:58:45 PM,Hanna Ngoc Diep Ngo,WA,98056,Legacy 3D,DWA-9150USJ-9150BL,Black,New,,,,,3800.07,3538.00,262.07,Ruben Cuatrona,Synchrony,3800.00,,,No,"5 years parts, 3 years labor ($700)",Assigned,Washington State Fair 9/1-24 (WA),6034610081536388,78870886,Las Vegas,36 months,
9/24/2017 5:07:45 PM,Sambath Chau,WA,98445,Legacy 3D,DWA-9150USJ-9150BL,Black,New,,,,,4300.03,3995.00,305.03,Ruben Cuatrona,Synchrony,3500.00,CreditCard,,No,"5 years parts, 3 years labor ($700)",Assigned,Washington State Fair 9/1-24 (WA),6034610081536651,78873326,Las Vegas,36 months,
9/24/2017 5:14:32 PM,Toel Wostanowicz,WA,98329,Legacy 3D,DWA-9150USJ-9150BL,Black,New,,,,,4100.92,3813.00,287.92,Jennifer Tran,CreditCard,4100.00,,,No,"5 years parts, 3 years labor ($700)",Assigned,Washington State Fair 9/1-24 (WA),,,,,
9/24/2017 5:23:58 PM,dOUGLAS WELS,WA,98940,Legacy 3D,DWA-9150USJ-9150CH-DEMO,Demo Choco Brown,Demo,,,,,4305.50,4000.00,305.50,Phuoc Van,Synchrony,3000.00,CreditCard,,No,"5 years parts, 3 years labor ($700)",Assigned,Washington State Fair 9/1-24 (WA),6034610081536909,78876145,Las Vegas,36 months,
9/24/2017 5:30:42 PM,Robert Gaurin,WA,98003,Legacy,DWA-9100DWA-9100CH,Choco Brown,New,,,,,4000.27,3721.00,279.27,Christoper Richard Williams,Synchrony,4000.00,,,No,"5 years parts, 3 years labor ($700)",Assigned,Washington State Fair 9/1-24 (WA),6034610081536842,78875655,Las Vegas,36 months,
9/24/2017 5:38:53 PM,Rita J Parke,WA,98003,Legacy 3D,DWA-9150USJ-9150CH,Choco Brown,New,,,,,4000.27,3721.00,279.27,Christoper Richard Williams,Synchrony,4000.00,,,No,"5 years parts, 3 years labor ($700)",Assigned,Washington State Fair 9/1-24 (WA),6034610081536875,78875891,Las Vegas,36 months,
9/24/2017 5:44:18 PM,Floyd L. Marshall,WA,98338,Legacy 3D,DWA-9150USJ-9150BL,Black,New,,,,,4500.23,4178.00,322.23,Kamille Gines,Synchrony,4500.00,,,No,"5 years parts, 3 years labor ($700)",Assigned,Washington State Fair 9/1-24 (WA),6034610081536883,78875932,Las Vegas,36 months,
9/24/2017 5:56:49 PM,Carmen I Becerra,WA,98499,Legacy 3D,DWA-9150USJ-9150BL-DEMO,Demo Black,Demo,,,,,4000.27,3721.00,279.27,Tom Nguyen,Synchrony,4000.00,,,No,"5 years parts, 3 years labor ($700)",Assigned,Washington State Fair 9/1-24 (WA),6034610081536982,78876653,Las Vegas,36 months,
9/24/2017 6:01:54 PM,Janst Knake,WA,98166,Legacy,DWA-9100DWA-9100BL,Black,New,,,,,4600.88,4270.00,330.88,Heather Jones,CreditCard,300.00,COD,,No,"5 years parts, 3 years labor ($700)",Assigned,Washington State Fair 9/1-24 (WA),,,,,
9/24/2017 7:36:43 PM,Shane Summer,WA,98258,Legacy 3D,DWA-9150USJ-9150CH,Choco Brown,New,,,,,3800.07,3538.00,262.07,Laser Howell,CreditCard,3800.00,,,No,"5 years parts, 3 years labor ($700)",Assigned,Washington State Fair 9/1-24 (WA),,,,,
9/24/2017 8:06:03 PM,Michael Meechan,WA,98133,Legacy,DWA-9100DWA-9100CH-DEMO,Demo Choco Brown,Demo,,,,,5618.30,5200.00,418.30,Christoper Richard Williams,COD,0.00,,,No,"5 years parts, 3 years labor ($700)",Cancelled,Washington State Fair 9/1-24 (WA),,,,,
9/24/2017 8:28:53 PM,Rachel Ford,WA,98584,Legacy 3D,DWA-9150USJ-9150BL,Black,New,,,,,3999.18,3720.00,279.18,Jennifer Tran,CreditCard,4000.00,,,No,"5 years parts, 3 years labor ($700)",Assigned,Washington State Fair 9/1-24 (WA),,,,,
9/24/2017 8:33:56 PM,Ingrid Espinoza,WA,98371,Legacy 3D,DWA-9150USJ-9150CH-DEMO,Demo Choco Brown,Demo,,,,,3599.87,3355.00,244.87,Ruben Cuatrona,CreditCard,3600.00,,,No,"5 years parts, 3 years labor ($700)",Assigned,Washington State Fair 9/1-24 (WA),,,,,
9/24/2017 8:38:19 PM,Jane Hanson,WA,98506,Legacy 3D,DWA-9150USJ-9150CH,Choco Brown,New,,,,,4086.70,3800.00,286.70,Jennifer Tran,CreditCard,4100.00,,,No,"5 years parts, 3 years labor ($700)",Assigned,Washington State Fair 9/1-24 (WA),,,,,
9/24/2017 8:59:00 PM,Destiny Whipple,WA,98338,Legacy 3D,DWA-9150USJ-9150CH,Choco Brown,New,,,,,3999.18,3720.00,279.18,Larhonda Ingram,Synchrony,3000.00,CreditCard,,No,"5 years parts, 3 years labor ($700)",Assigned,Washington State Fair 9/1-24 (WA),6034610081537055,78877732,Las Vegas,36 months,
9/24/2017 9:03:30 PM,Kristopher Briggs,WA,98901,Legacy 3D,DWA-9150USJ-9150BL-DEMO,Demo Black,Demo,,,,,3999.18,3720.00,279.18,Kamille Gines,Synchrony,4000.00,,,No,"5 years parts, 3 years labor ($700)",Assigned,Washington State Fair 9/1-24 (WA),6034610081537105,78879371,Las Vegas,36 months,
9/24/2017 9:09:04 PM,Kendra Watson,WA,98498,Legacy 3D,DWA-9150USJ-9150CH,Choco Brown,New,,,,,3500.32,3264.00,236.32,Ruben Cuatrona,CreditCard,3500.00,,,No,"5 years parts, 3 years labor ($700)",Assigned,Washington State Fair 9/1-24 (WA),,,,,
9/24/2017 9:12:14 PM,Charlotte Bertsch,WA,98056,Legacy 3D,DWA-9150USJ-9150CH,Choco Brown,New,,,,,3999.18,3720.00,279.18,Phuoc Van,Synchrony,4000.00,,,No,"5 years parts, 3 years labor ($700)",Assigned,Washington State Fair 9/1-24 (WA),6034610081537121,78879505,Las Vegas,36 months,
9/24/2017 9:13:08 PM,Reynaldo Anobya,CA,91763,Legacy,DWA-9100DWA-9100CH,Choco Brown,New,,,,,3900.77,3634.00,266.77,Kaz Ohashi,CreditCard,3900.77,,,No,"3 years parts, 1 year labor (Free)",Assigned,LA County Fair 9/1-24 (CA),,,,,
9/24/2017 9:15:48 PM,Marc Grenon,WA,98092,Legacy 3D,DWA-9150USJ-9150BL,Black,New,,,,,3999.18,3720.00,279.18,Christoper Richard Williams,Synchrony,4000.00,,,No,"5 years parts, 3 years labor ($700)",Assigned,Washington State Fair 9/1-24 (WA),6034610081536099,78867832,Las Vegas,36 months,
9/24/2017 9:20:37 PM,Rhonda Hart,CA,93534,Legacy,DWA-9100DWA-9100BL,Black,New,,,,,3499.82,3267.00,232.82,Kaz Ohashi,CreditCard,200.00,Synchrony,,No,"3 years parts, 1 year labor (Free)",Cancelled,LA County Fair 9/1-24 (CA),,,,,
9/24/2017 9:20:41 PM,Robin Mathews,WA,98006,Relax2Zero 3D,DWA-9060USJ-9060BL,Black,New,,,,,3999.18,3720.00,279.18,Heather Jones,CreditCard,4000.00,,,No,"5 years parts, 3 years labor ($700)",Assigned,Washington State Fair 9/1-24 (WA),,,,,
9/24/2017 9:31:09 PM,David Faker,WA,98374,Legacy 3D,DWA-9150USJ-9150BL-DEMO,Demo Black,Demo,,,,,3500.32,3264.00,236.32,Ruben Cuatrona,CreditCard,1500.00,COD,,No,"5 years parts, 3 years labor ($700)",Assigned,Washington State Fair 9/1-24 (WA),,,,,
9/24/2017 9:32:47 PM,Park Hyonki,WA,98003,Legacy 3D,DWA-9150USJ-9150CH,Choco Brown,New,,,,,3999.18,3720.00,279.18,Tom Nguyen,CreditCard,500.00,COD,,No,"5 years parts, 3 years labor ($700)",Hold,Washington State Fair 9/1-24 (WA),,,,,
9/24/2017 9:46:30 PM,Calyn Holdaway,WA,98506,Legacy,DWA-9100DWA-9100BL,Black,New,,,,,3200.56,2990.00,210.56,Tom Nguyen,COD,0.00,,,No,"5 years parts, 3 years labor ($700)",Hold,Washington State Fair 9/1-24 (WA),,,,,
9/24/2017 9:47:32 PM,Eunice Hahm,WA,98003,Legacy 3D,DWA-9150USJ-9150CH,Choco Brown,New,,,,,4196.10,3900.00,296.10,Tom Nguyen,Synchrony,0.00,,,No,"5 years parts, 3 years labor ($700)",Assigned,Washington State Fair 9/1-24 (WA),6034610081534805,78849741,Las Vegas,36 months,
9/24/2017 9:54:14 PM,James Stevens,CT,06479,Legacy 3D,DWA-9150USJ-9150BL-DEMO,Demo Black,Demo,,,,,3500.81,3339.00,161.81,Rolly San Jose,CreditCard,2000.00,Synchrony,,No,"3 years parts, 1 year labor (Free)",Assigned,The Big E State Fair 9/15-10/1,,,,,
9/24/2017 10:07:21 PM,Jill Nguyen,WA,98409,Relax2Zero 3D,DWA-9060USJ-9060BL,Black,New,,,,,3999.18,3720.00,279.18,Rodrigo Malabunga,CreditCard,4000.00,,,No,"3 years parts, 2 years labor ($200)",New,Washington State Fair 9/1-24 (WA),,,,,
9/24/2017 10:13:10 PM,Jeff Wherrett,WA,98407,Relax2Zero 3D,DWA-9060USJ-9060BL,Black,New,,,,,4196.10,3900.00,296.10,Rodrigo Malabunga,Synchrony,4200.00,,,No,"5 years parts, 3 years labor ($700)",Assigned,Washington State Fair 9/1-24 (WA),6034610081537097,78878734,Las Vegas,36 months,
9/24/2017 10:18:02 PM,Kenneth & Jean Edstrom,WA,98373,Legacy 3D,DWA-9150USJ-9150BL,Black,New,,,,,3999.18,3720.00,279.18,Robert Shih,CreditCard,4000.00,,,No,"5 years parts, 3 years labor ($700)",New,Washington State Fair 9/1-24 (WA),,,,,
9/25/2017 4:35:35 AM,Erica Pallardy,MO,63376,Legacy,DWA-9100DWA-9100BL,Black,New,,,,,3599.88,3390.00,209.88,Michael Cuatrona,Synchrony,0.00,,,No,"3 years parts, 3 years labor ($400)",Called,St. Charles Home & Garden Show 9/23-9/24 (TX),,,,36 months,
9/25/2017 7:49:21 AM,Steven Antignani,CT,06611,Legacy 3D,DWA-9150USJ-9150CH,Choco Brown,New,,,,,4000.19,3809.00,191.19,Winston Melgar,Synchrony,4000.00,,,No,"3 years parts, 1 year labor (Free)",Scheduled,The Big E State Fair 9/15-10/1,6034610081537147,78883142,Las Vegas,36 months,
9/25/2017 8:07:22 AM,Anthony Cunagin,MA,01201,Legacy 3D,DWA-9150USJ-9150BL-DEMO,Demo Black,Demo,,,,,3900.31,3715.00,185.31,Ruben Cuatrona,CreditCard,100.00,,,No,"3 years parts, 1 year labor (Free)",Cancelled,The Big E State Fair 9/15-10/1,,,,,
9/25/2017 9:30:05 AM,James Prichard,CA,91739,Relax2Zero 3D,DWA-9060USJ-9060BL,Black,New,,,,,4500.55,4183.00,317.55,Joseph Chan,Synchrony,4500.00,,,No,"3 years parts, 3 years labor ($400)",Scheduled,LA County Fair 9/1-24 (CA),6034610081536628,78873121,San Diego,36 months,
9/25/2017 9:38:07 AM,Barry Illsley,CA,92860,Relax2Zero 3D,DWA-9060USJ-9060BL,Black,New,,,,,3600.33,3359.00,241.33,Joseph Chan,Synchrony,3600.00,,,No,"3 years parts, 3 years labor ($400)",Assigned,LA County Fair 9/1-24 (CA),6034610081535976,78866222,San Diego,36 months,
9/25/2017 9:41:59 AM,Roberto Ibarra,CA,91739,Relax2Zero 3D,DWA-9060USJ-9060BR,Choco Brown,New,,,,,4519.13,4200.00,319.13,Kohei Uno,Synchrony,4519.13,,,No,"3 years parts, 3 years labor ($400)",Assigned,LA County Fair 9/1-24 (CA),6034610081536701,78873921,San Diego,36 months,
9/25/2017 9:47:49 AM,Chris Tam,CA,91709,Relax2Zero 3D,DWA-9060USJ-9060BL,Black,New,,,,,4000.19,3725.00,275.19,Kohei Uno,CreditCard,4000.00,,,No,"3 years parts, 3 years labor ($400)",Assigned,LA County Fair 9/1-24 (CA),,,,,
9/25/2017 9:52:54 AM,Tommy Yu,CA,92880,Relax2Zero 3D,DWA-9060USJ-9060BL,Black,New,,,,,4140.03,3853.00,287.03,Joseph Chan,Synchrony,4140.00,,,No,"3 years parts, 3 years labor ($400)",Assigned,LA County Fair 9/1-24 (CA),6034610081537113,78879383,San Diego,36 months,
9/25/2017 9:58:15 AM,Martha Moreno,CA,92507,Relax2Zero 3D,DWA-9060USJ-9060BR-DEMO,Demo Choco Brown,Demo,,,,,4000.19,3725.00,275.19,Joseph Chan,COD,3000.00,CreditCard,,No,"3 years parts, 3 years labor ($400)",Assigned,LA County Fair 9/1-24 (CA),,,,,
9/25/2017 10:01:19 AM,Henry Chen,CA,91780,Legacy,DWA-9100DWA-9100CH-DEMO,Demo Choco Brown,Demo,,,,,3535.88,3300.00,235.88,Kohei Uno,CreditCard,3535.88,,,No,"3 years parts, 1 year labor (Free)",Assigned,LA County Fair 9/1-24 (CA),,,,,
9/25/2017 1:09:16 PM,Guadalupe Romo,CA,92313,Legacy,DWA-9100DWA-9100CH-DEMO,Demo Choco Brown,Demo,,,,,3000.55,2810.00,190.55,David Wang,Synchrony,3000.00,,,No,"3 years parts, 3 years labor ($400)",Assigned,LA County Fair 9/1-24 (CA),6034610081535737,78864625,San Diego,12 months,
9/25/2017 2:25:28 PM,Anthony Cunagin,MA,01201,Legacy 3D,DWA-9150USJ-9150BL-DEMO,Demo Black,Demo,,,,,3900.31,3715.00,185.31,Ruben Cuatrona,CreditCard,100.00,COD,,No,"3 years parts, 1 year labor (Free)",Scheduled,The Big E State Fair 9/15-10/1,,,,,
9/25/2017 4:32:27 PM,mancilla TM,CA,91791,Legacy,DWA-9100DWA-9100BL,Black,New,,,,,3799.17,3541.00,258.17,Kaz Ohashi,CreditCard,3800.00,,,No,"3 years parts, 3 years labor ($400)",Assigned,LA County Fair 9/1-24 (CA),,,,,
9/25/2017 4:32:27 PM,mancilla TM,CA,91791,Chair Pad for Legacy,,,New,,,,,3799.17,3541.00,258.17,Kaz Ohashi,CreditCard,3800.00,,,No,no warranty,Assigned,LA County Fair 9/1-24 (CA),,,,,
9/25/2017 4:32:28 PM,Paula Randall,MA,01247,Relax2Zero 3D,DWA-9060USJ-9060BR-DEMO,Demo Choco Brown,Demo,,,,,3700.56,3527.00,173.56,Rolly San Jose,Synchrony,3700.00,,,No,"3 years parts, 1 year labor (Free)",Scheduled,The Big E State Fair 9/15-10/1,6034610081537477,78894865,Las Vegas,36 months,
9/25/2017 4:42:30 PM,LAP TON,LA,71111,Relax2Zero 2.0 for Sam's,USJ-9050USJ-9050BR-DEMO,Demo Brown,Demo,,,,,3443.90,3199.00,244.90,KHOA H,CreditCard,0.00,,,No,"3 years parts, 1 year labor (Free)",Scheduled,"Sam's Club #4109 Bossier City, LA  9/14-9/24 (TX)",,,,,
9/25/2017 4:42:30 PM,LAP TON,LA,71111,Daiwa Blanket,,,New,,,,,3443.90,3199.00,244.90,KHOA H,CreditCard,0.00,,,No,no warranty,Scheduled,"Sam's Club #4109 Bossier City, LA  9/14-9/24 (TX)",,,,,
9/25/2017 6:10:22 PM,Juan Macius,CA,91767,Pegasus,DWA-9400Pegasus-BR,Choco Brown,New,,,,,4350.88,4046.00,304.88,Kaz Ohashi,CreditCard,4350.00,,,No,"3 years parts, 3 years labor ($400)",Assigned,LA County Fair 9/1-24 (CA),,,,,
9/25/2017 7:22:35 PM,Jesse Simon,CA,92880,Tourmaline Pad for Legacy 3D,,,New,,,,,3600.33,3359.00,241.33,May Kam,CreditCard,3600.00,,,No,no warranty,Assigned,LA County Fair 9/1-24 (CA),,,,,
9/25/2017 7:22:35 PM,Jesse Simon,CA,92880,Legacy 3D,DWA-9150USJ-9150CH,Choco Brown,New,,,,,3600.33,3359.00,241.33,May Kam,CreditCard,3600.00,,,No,"3 years parts, 3 years labor ($400)",Assigned,LA County Fair 9/1-24 (CA),,,,,
9/26/2017 5:28:35 AM,Cynthia Johann,CA,91910,Legacy 3D,DWA-9150USJ-9150BL,Black,New,,,,,3500.92,3268.00,232.92,Mikito Nakanishi,Check,3500.00,,,No,"3 years parts, 1 year labor (Free)",Hold,LA County Fair 9/1-24 (CA),,,,,
9/26/2017 7:20:15 AM,David Wallace,CA,91307,Pegasus,DWA-9400Pegasus-BR,Choco Brown,New,,,,,4000.19,3725.00,275.19,May Kam,CreditCard,4000.00,,,No,"3 years parts, 3 years labor ($400)",New,LA County Fair 9/1-24 (CA),,,,,
9/26/2017 7:20:15 AM,David Wallace,CA,91307,Tourmaline Pad for Pegasus,,,New,,,,,4000.19,3725.00,275.19,May Kam,CreditCard,4000.00,,,No,no warranty,New,LA County Fair 9/1-24 (CA),,,,,
9/26/2017 7:51:07 AM,Vicki Desmet,CA,91741,Legacy,DWA-9100DWA-9100CH,Choco Brown,New,,,,,3900.77,3634.00,266.77,May Kam,Synchrony,3900.00,,,No,"3 years parts, 3 years labor ($400)",Assigned,LA County Fair 9/1-24 (CA),6034610081538574,78921367,,36 months,
9/26/2017 7:51:07 AM,Vicki Desmet,CA,91741,Daiwa Blanket,,,New,,,,,3900.77,3634.00,266.77,May Kam,Synchrony,3900.00,,,No,no warranty,Assigned,LA County Fair 9/1-24 (CA),6034610081538574,78921367,,36 months,
9/26/2017 8:12:22 AM,Scott Safner,CT,06071,Relax2Zero 3D,DWA-9060USJ-9060BL-DEMO,Demo Black,Demo,,,,,3700.56,3527.00,173.56,Rolly San Jose,Synchrony,3700.00,,,No,"3 years parts, 1 year labor (Free)",Scheduled,The Big E State Fair 9/15-10/1,6034610081537592,78897442,Las Vegas,36 months,
9/26/2017 8:18:00 AM,Vinh Dinh,CA,91789,Legacy 3D,DWA-9150USJ-9150BL,Black,New,,,,,3500.92,3268.00,232.92,Kaz Ohashi,Cash,200.00,CreditCard,,No,"3 years parts, 1 year labor (Free)",Assigned,LA County Fair 9/1-24 (CA),,,,,
9/26/2017 9:21:47 AM,Jerry Clark,NY,12850,Pegasus,DWA-9400Pegasus-BR,Choco Brown,New,,,,,5200.81,4939.00,261.81,Ilene Maynard,CreditCard,100.00,,,No,"3 years parts, 1 year labor (Free)",Assigned,The Big E State Fair 9/15-10/1,,,,,
9/26/2017 9:48:02 AM,Sarah Bewsoe,CT,06082,Relax2Zero 3D,DWA-9060USJ-9060BL,Black,New,,,,,4201.00,3998.00,203.00,Rolly San Jose,Synchrony,4200.00,,,No,"3 years parts, 1 year labor (Free)",Scheduled,The Big E State Fair 9/15-10/1,6034610081537824,78902736,Las Vegas,36 months,
9/26/2017 9:55:03 AM,Brian McDonald,MA,02726,Legacy 3D,DWA-9150USJ-9150BL,Black,New,,,,,4201.00,3998.00,203.00,Ilene Maynard,Synchrony,4200.00,,,No,"3 years parts, 1 year labor (Free)",Cancelled,The Big E State Fair 9/15-10/1,6034610081537964,78906221,Las Vegas,36 months,
9/26/2017 10:15:26 AM,Pat Pastoreck,MA,01036,Legacy 3D,DWA-9150USJ-9150BL,Black,New,,,,,4201.00,3998.00,203.00,Abigail Stirling,CreditCard,4200.00,,,No,"3 years parts, 1 year labor (Free)",Called,The Big E State Fair 9/15-10/1,,,,,
9/26/2017 10:37:33 AM,Sonda Thomas,CT,06451,Legacy 3D,DWA-9150USJ-9150BL,Black,New,,,,,4201.00,3998.00,203.00,Ilene Maynard,Synchrony,4200.00,,,No,"3 years parts, 1 year labor (Free)",Scheduled,The Big E State Fair 9/15-10/1,6034610081536552,78872362,Las Vegas,36 months,
9/26/2017 10:43:17 AM,Lei Zhao,CT,06067,Legacy 3D,DWA-9150USJ-9150BL,Black,New,,,,,3300.00,3150.00,150.00,Winston Melgar,CreditCard,500.00,COD,,No,"3 years parts, 1 year labor (Free)",Called,The Big E State Fair 9/15-10/1,,,,,
9/26/2017 11:02:13 AM,Adriana Buller,IL,60061,Foot Vibe Pro,USJ-871,,New,,,,,119.34,109.99,9.35,Michael Wang,CreditCard,0.00,,,YES,"2 years parts, 1 year labor (Small Items)",Cancelled,Health&Wellness H Mart Illinois,,,,,
9/26/2017 11:37:54 AM,Troy Shoup,CA,91741,Legacy 3D,DWA-9150USJ-9150BL,Black,New,,,,,3750.01,3496.00,254.01,May Kam,Synchrony,3750.00,,,No,"3 years parts, 3 years labor ($400)",Scheduled,LA County Fair 9/1-24 (CA),6034610081539184,78942108,San Diego,24 months,
9/26/2017 11:37:54 AM,Troy Shoup,CA,91741,Tourmaline Pad for Legacy 3D,,,New,,,,,3750.01,3496.00,254.01,May Kam,Synchrony,3750.00,,,No,no warranty,Scheduled,LA County Fair 9/1-24 (CA),6034610081539184,78942108,San Diego,24 months,
9/26/2017 11:55:31 AM,Linda Telis,CA,92301,Pegasus,DWA-9400Pegasus-BL,Black,New,,,,,4500.55,4183.00,317.55,David Wang,Synchrony,4500.00,,,No,"3 years parts, 3 years labor ($400)",Assigned,LA County Fair 9/1-24 (CA),6034610081537063,78877984,San Diego,36 months,
9/26/2017 2:26:47 PM,Joy Lua,MN,55347,Relax2Zero 3D,DWA-9060USJ-9060BR,Choco Brown,New,,,,,4120.50,3900.00,220.50,Noni Ignacio,CreditCard,0.00,,,No,"3 years parts, 1 year labor (Free)",Scheduled,National Safety Council 9/25-27,,,,,
9/26/2017 2:39:15 PM,Kay Dee & Russel Lange,WI,54435,Legacy 3D,DWA-9150USJ-9150CH,Choco Brown,New,,,,,4441.50,4200.00,241.50,Noni Ignacio,CreditCard,0.00,,,No,"3 years parts, 1 year labor (Free)",Scheduled,National Safety Council 9/25-27,,,,,
9/26/2017 2:41:53 PM,Cecilia Hurst,CA,92530,Legacy 3D,DWA-9150USJ-9150CH,Choco Brown,New,,,,,3500.92,3268.00,232.92,May Kam,Synchrony,3500.00,CreditCard,,No,"3 years parts, 3 years labor ($400)",Assigned,LA County Fair 9/1-24 (CA),6034610081538715,78925635,San Diego,36 months,
9/26/2017 2:41:53 PM,Cecilia Hurst,CA,92530,Tourmaline Pad for Legacy 3D,,,New,,,,,3500.92,3268.00,232.92,May Kam,Synchrony,3500.00,CreditCard,,No,no warranty,Assigned,LA County Fair 9/1-24 (CA),6034610081538715,78925635,San Diego,36 months,
9/26/2017 5:40:11 PM,Test Test,CA,90249,Legacy 3D,DWA-9150USJ-9150BL,Black,New,,,,,4846.88,4500.00,346.88,Ruben Cuatrona,CreditCard,500.00,,,No,"3 years parts, 1 year labor (Free)",Cancelled,LA County Fair 9/1-24 (CA),,,,,
9/26/2017 5:40:11 PM,Test Test,CA,90249,Tourmaline Pad for Legacy 3D,,,New,,,,,4846.88,4500.00,346.88,Ruben Cuatrona,CreditCard,500.00,,,No,No Warranty,Cancelled,LA County Fair 9/1-24 (CA),,,,,
9/26/2017 6:02:46 PM,Beatriz Vega,CA,90303,Legacy,DWA-9100DWA-9100CH-DEMO,Demo Choco Brown,Demo,,,,,3400.41,3176.00,224.41,May Kam,Synchrony,3400.00,,,No,"3 years parts, 3 years labor ($400)",Scheduled,LA County Fair 9/1-24 (CA),6034610081539838,78961465,San Diego,36 months,
9/26/2017 6:38:04 PM,Joe Acosta,CA,90650,Legacy 3D,DWA-9150USJ-9150BL,Black,New,,,,,3949.93,3679.00,270.93,May Kam,Synchrony,3950.00,,,No,"3 years parts, 3 years labor ($400)",Assigned,LA County Fair 9/1-24 (CA),6034623333349914,,San Diego,36 months,
9/26/2017 6:38:04 PM,Joe Acosta,CA,90650,Daiwa Blanket,,,New,,,,,3949.93,3679.00,270.93,May Kam,Synchrony,3950.00,,,No,no warranty,Assigned,LA County Fair 9/1-24 (CA),6034623333349914,,San Diego,36 months,
9/26/2017 7:21:49 PM,Brian McDonald,RI,02837,Legacy 3D,DWA-9150USJ-9150BL,Black,New,,,,,4201.00,3998.00,203.00,Ilene Maynard,Synchrony,4200.00,,,No,"3 years parts, 1 year labor (Free)",Scheduled,The Big E State Fair 9/15-10/1,6034610081537964,78906221,Las Vegas,36 months,
9/27/2017 7:57:47 AM,James Winters,NY,12544,Legacy 3D,DWA-9150USJ-9150CH,Choco Brown,New,,,,,3900.31,3715.00,185.31,Gary Cyrlin,Synchrony,3900.00,,,No,"3 years parts, 1 year labor (Free)",Scheduled,The Big E State Fair 9/15-10/1,6034610081634904,78853386,Las Vegas,36 months,
9/27/2017 8:05:59 AM,Carissa Colby,AA,01028,Legacy 3D,DWA-9150USJ-9150CH,Choco Brown,New,,,,,4000.19,3809.00,191.19,Winston Melgar,Cash,200.00,CreditCard,,No,"3 years parts, 1 year labor (Free)",Assigned,The Big E State Fair 9/15-10/1,,,,,
9/27/2017 8:14:10 AM,Jim Roberts,CT,06403,Legacy 3D,DWA-9150USJ-9150BL,Black,New,,,,,4201.00,3998.00,203.00,Rolly San Jose,CreditCard,4200.00,,,No,"3 years parts, 1 year labor (Free)",Called,The Big E State Fair 9/15-10/1,,,,,
9/27/2017 8:22:27 AM,Mary Fomenko,CT,06010,Legacy 3D,DWA-9150USJ-9150CH-DEMO,Demo Choco Brown,Demo,,,,,3700.69,3483.00,217.69,Winston Melgar,Synchrony,3700.00,,,YES,"3 years parts, 1 year labor (Free)",Scheduled,The Big E State Fair 9/15-10/1,6034610081538913,78934084,Las Vegas,36 months,
9/27/2017 8:29:12 AM,John Kubica,MA,01201,Legacy 3D,DWA-9150USJ-9150BL,Black,New,,,,,4201.00,3998.00,203.00,Ilene Maynard,Synchrony,4200.00,,,No,"3 years parts, 1 year labor (Free)",Called,The Big E State Fair 9/15-10/1,6034610081539226,78942751,Las Vegas,36 months,
9/27/2017 8:41:05 AM,Dan&Carol Greeley,MA,01007,Legacy 3D,DWA-9150USJ-9150CH-DEMO,Demo Choco Brown,Demo,,,,,3500.81,3339.00,161.81,Amando Loreno,CreditCard,3500.00,,,No,"3 years parts, 1 year labor (Free)",Called,The Big E State Fair 9/15-10/1,,,,,
9/27/2017 10:38:39 AM,Diane Restivo,CT,06492,Legacy 3D,DWA-9150USJ-9150CH,Choco Brown,New,,,,,4201.00,3998.00,203.00,Gary Cyrlin,Synchrony,4200.00,,,No,"3 years parts, 1 year labor (Free)",Called,The Big E State Fair 9/15-10/1,6034610081539754,78959193,Las Vegas,36 months,
9/27/2017 10:42:14 AM,Qi Ding,IL,60015,Legacy for Sam's,DWA-9100DWA-9100CH,Choco,New,,,,,3904.92,3599.00,305.92,Michael Wang,CreditCard,0.00,,,No,"3 years parts, 1 year labor (Free)",Scheduled,Health&Wellness H Mart Illinois,,,,,
9/27/2017 10:47:00 AM,Willliam Lannone,CT,06492,Relax2Zero 3D,DWA-9060USJ-9060BR,Choco Brown,New,,,,,4000.19,3809.00,191.19,Winston Melgar,Synchrony,4000.00,,,No,"3 years parts, 1 year labor (Free)",Called,The Big E State Fair 9/15-10/1,6034610081539507,78952225,Las Vegas,36 months,
9/27/2017 10:53:57 AM,Anatolily Okhrimenko,MA,01089,Relax2Zero 3D,DWA-9060USJ-9060BR-DEMO,Demo Choco Brown,Demo,,,,,3300.13,3106.00,194.13,Amando Loreno,CreditCard,3300.00,,,YES,"3 years parts, 1 year labor (Free)",Called,The Big E State Fair 9/15-10/1,,,,,
9/27/2017 10:58:03 AM,Karen Mancuso,FL,33772,Relax2Zero 3D,DWA-9060USJ-9060BR,Choco Brown,New,,,,,4201.00,3998.00,203.00,Ilene Maynard,CreditCard,4200.00,,,No,"3 years parts, 1 year labor (Free)",Assigned,The Big E State Fair 9/15-10/1,,,,,
9/27/2017 11:03:45 AM,Yvette Losaw,MA,01225,Legacy 3D,DWA-9150USJ-9150CH,Choco Brown,New,,,,,4500.63,4280.00,220.63,Amando Loreno,Synchrony,4500.00,,,No,"3 years parts, 1 year labor (Free)",Called,The Big E State Fair 9/15-10/1,6034610081539390,78949573,Las Vegas,36 months,
9/27/2017 11:08:55 AM,Jaclyn Mancuso,CT,06716,Relax2Zero 3D,DWA-9060USJ-9060BR,Choco Brown,New,,,,,4201.00,3998.00,203.00,Ilene Maynard,Synchrony,4200.00,,,No,"3 years parts, 1 year labor (Free)",Called,The Big E State Fair 9/15-10/1,6034610081539978,78963616,Las Vegas,36 months,
9/27/2017 4:35:10 PM,Adriana Buller,IL,60061,Foot Vibe Pro,USJ-871,,New,,,,,117.96,109.99,7.97,Michael Wang,CreditCard,117.96,,,YES,"2 years parts, 1 year labor (Small Items)",Delivered,Sam's Club #6228 9/15-9/17 (IL),,,,,
9/27/2017 5:17:02 PM,Pamela Jacobs,CA,90303,Legacy 3D,DWA-9150USJ-9150CH,Choco Brown,New,,,,,3634.20,3390.00,244.20,May Kam,Synchrony,3500.00,CreditCard,,No,"3 years parts, 3 years labor ($400)",New,LA County Fair 9/1-24 (CA),6034610081538616,78921673,San Diego,36 months,
9/27/2017 5:35:15 PM,Jon Leigh,CA,91304,Pegasus,DWA-9400Pegasus-BR,Choco Brown,New,,,,,4200.12,3908.00,292.12,May Kam,Synchrony,3000.00,CreditCard,,No,"3 years parts, 3 years labor ($400)",New,LA County Fair 9/1-24 (CA),6034610081540894,78982513,San Diego,24 months,
9/27/2017 5:35:15 PM,Jon Leigh,CA,91304,Tourmaline Pad for Pegasus,,,New,,,,,4200.12,3908.00,292.12,May Kam,Synchrony,3000.00,CreditCard,,No,no warranty,New,LA County Fair 9/1-24 (CA),6034610081540894,78982513,San Diego,24 months,
9/27/2017 6:37:41 PM,Ana Tribble,CA,91324,Legacy,DWA-9100DWA-9100SI,Sienna Brown,New,,,,,3900.77,3634.00,266.77,Kaz Ohashi,CreditCard,100.00,COD,,No,"3 years parts, 3 years labor ($400)",New,LA County Fair 9/1-24 (CA),,,,,
9/27/2017 6:45:40 PM,Mia D Carr,LA,71111,Foot Vibe Pro,USJ-871,,New,,,,,120.16,109.99,10.17,KHOA H,CreditCard,0.00,,,YES,"2 years parts, 1 year labor (Small Items)",New,Referral (Main Office),,,,,
9/28/2017 6:41:06 AM,Adam Duszak,GA,31324,Legacy 3D,DWA-9150USJ-9150CH,Choco Brown,New,,,,,4227.50,4000.00,227.50,Noni Ignacio,Synchrony,0.00,,,No,"3 years parts, 1 year labor (Free)",Assigned,National Safety Council 9/25-27,6034610081541586,79011898,Las Vegas,36 months,
9/28/2017 8:07:43 AM,Mario Vazquez,IL,60402,Legacy 3D,DWA-9150USJ-9150BL,Black,New,,,,,4800.20,4432.00,368.20,Michael Cuatrona,CreditCard,500.00,,,No,"3 years parts, 1 year labor (Free)",Assigned,NRPA New Orleans 9/26-9/27 (TX),,,,,
9/28/2017 8:18:34 AM,Harnish Patel,MA,01085,Relax2Zero 3D,DWA-9060USJ-9060BL,Black,New,,,,,3500.81,3339.00,161.81,Rolly San Jose,CreditCard,3500.00,,,No,"3 years parts, 1 year labor (Free)",Cancelled,The Big E State Fair 9/15-10/1,,,,,
9/28/2017 9:31:47 AM,Mary Bell Falas,IL,60048,Foot Vibe Pro,USJ-871,,New,,,,,119.34,109.99,9.35,Michael Wang,CreditCard,0.00,,,YES,"2 years parts, 1 year labor (Small Items)",New,Health&Wellness H Mart Illinois,,,,,
9/28/2017 10:23:20 AM,gary taylor,CA,90056,Legacy,DWA-9100DWA-9100CH,Choco Brown,New,,,,,3650.59,3405.00,245.59,May Kam,Cash,100.00,CreditCard,,No,"3 years parts, 3 years labor ($400)",Hold,LA County Fair 9/1-24 (CA),,,,,
9/28/2017 10:38:36 AM,DAN HERER,CA,91367,Legacy 3D,DWA-9150USJ-9150BL,Black,New,,,,,4150.95,3863.00,287.95,May Kam,Cash,50.00,CreditCard,,No,"3 years parts, 3 years labor ($400)",Hold,LA County Fair 9/1-24 (CA),,,,,
9/28/2017 10:38:36 AM,DAN HERER,CA,91367,Daiwa Blanket,,,New,,,,,4150.95,3863.00,287.95,May Kam,Cash,50.00,CreditCard,,No,no warranty,Hold,LA County Fair 9/1-24 (CA),,,,,
9/28/2017 10:48:35 AM,ROY BAYSINGER,CA,92553,Legacy,DWA-9100DWA-9100BL,Black,New,,,,,3900.77,3634.00,266.77,May Kam,CreditCard,50.00,COD,,No,"3 years parts, 3 years labor ($400)",Hold,LA County Fair 9/1-24 (CA),,,,,
9/28/2017 10:59:28 AM,Alexander Lee,CA,90240,Legacy 3D,DWA-9150USJ-9150BL,Black,New,,,,,4200.12,3908.00,292.12,Charles Ishida,CreditCard,100.00,COD,,No,"3 years parts, 3 years labor ($400)",Hold,LA County Fair 9/1-24 (CA),,,,,
9/28/2017 11:18:52 AM,Stacey PRUITT,CA,90016,Legacy,DWA-9100DWA-9100BL,Black,New,,,,,3500.92,3268.00,232.92,Kaz Ohashi,CreditCard,100.00,COD,,No,"3 years parts, 3 years labor ($400)",Hold,LA County Fair 9/1-24 (CA),,,,,
9/28/2017 1:56:09 PM,Lorado Gnigles,IL,60061,Foot Vibe Pro,USJ-871,,New,,,,,117.96,109.99,7.97,Michael Wang,CreditCard,0.00,,,YES,"2 years parts, 1 year labor (Small Items)",Delivered,Sam's Club #6228 9/15-9/17 (IL),,,,,
9/28/2017 3:47:24 PM,SHARON VAN DER WALDE,MI,48105,Legacy,DWA-9100DWA-9100CH,Choco Brown,New,,,,,3497.70,3330.00,167.70,Ruben Cuatrona,CreditCard,3500.00,,,No,"3 years parts, 1 year labor (Free)",Assigned,IAAPA ORLANDO (FOLLOW UP),,,,,
9/28/2017 4:11:56 PM,Kee Myung Song,IL,60060,Ninja Leg Massager,,,New,,,,,406.48,379.00,27.48,Michael Wang,CreditCard,0.00,,,YES,"2 years parts, 1 year labor (Small Items)",New,Sam's Club #6228 9/15-9/17 (IL),,,,,
