﻿Original Event Name,Event Name,Sales Person,Order Number,Order Date,Customer Name,State,Zip,Product Name,Color,Product Status,QTY,Tax,Total Before Tax,Order Total,Primary Payment Method,Second Payment Method,Thirdl Payment Method,Warranty,Order Items,Pick up,Delivered On,Order Status,Chair Type,Order Notes,Private Note,Branch,No Tax,Actual Tax Rate,SKU,Primary Payment Balance,Primary Authorize Number,Primary Purchase Order Number,Primary Synchrony Account Number,Primary Synchrony Application Key,Primary Synchrony Account Info,Primary Synchrony Term,Second Payment Balance,Second Authorize Number,Second Purchase Order Number,Second Synchrony Account Number,Second Synchrony Application Key,Second Synchrony Account Info,Second SynchronyTerm,Third Payment Balance,Third Authorize Number,Third Purchase Order Number,Third Synchrony Account Number,Third Synchrony Application Key,Third Synchrony Account Info,Third Synchrony Term
Las Vegas SF Market (NV),Las Vegas SF Market (NV),Kohei Uno,107847,7/26/2018 10:35:19 PM,Lyam Kiim,TX,75022,Pegasus,New Choco,New,1,0.00,4500.00,4500.00,Synchrony,,,"3 years parts, 1 year labor (Free)","Pegasus,",No,7/31/2018 12:00:00 AM,Delivered,,,"***Referral Order***//Confirmed synchrony account ($6,000) . ORIGINAL NEEDS TO BE CONFIRMED-7/27/18 HITOMI//Confirmed original. ***Please charge before delivery and have sales draft signed. ***7/30/18 Hitomi
7/30Maritza Courtesy call @ 12:01PM **CUSTOMER NEEDS IT ASAP**",TX,1,8.15,DWA-9400Pegasus-BR,4500.00,,,6019170813051718,92152212,Las Vegas,24 months,0.00,,,,,,,0.00,,,,,,
Las Vegas SF Market (NV),Las Vegas SF Market (NV),Kohei Uno,107848,7/26/2018 10:43:09 PM,Andy Kim,NV,89138,Pegasus,New Choco,New,1,0.00,4500.00,4500.00,CreditCard,Synchrony,,"3 years parts, 1 year labor (Free)","Pegasus,",No,8/3/2018 12:00:00 AM,Delivered,,,"***Referral Order***///Confirmed $1,000 in Square/synchrony account ($3,500) under KIM RAN.  (his wife )ORIGINAL NEEDS TO BE CONFIRMED-7/27/18 HITOMI///Confirmed original. **PLease charge before delivery and have sales draft signed. ***7/30/18 Hitomi
Delivered by Li & Kohei on 8/3/2018
SYNCHRONY CLEARED $3500 #031030 - STEPHANY 08/07/18",NV,1,8.15,DWA-9400Pegasus-BR,1000.00,Square# zZY8,,,,,,3500.00,,,6019170813051759,92152748,Las Vegas,48 months,0.00,,,,,,
Las Vegas SF Market (NV),Las Vegas SF Market (NV),Kohei Uno,107874,7/27/2018 6:48:56 PM,Robert Sigal,CA,92119,Legacy,New Black,New,1,0.00,3500.00,3500.00,CreditCard,,,"3 years parts, 1 year labor (Free)","Legacy,",No,8/15/2018 12:00:00 AM,Delivered,,,"Confirmed $3,500 in Square 7/30/18 Hitomi",CA,1,8.15,DWA-9100DWA-9100BL,3500.00,Square# uFNP,,,,,,0.00,,,,,,,0.00,,,,,,
Las Vegas SF Market (NV),Las Vegas SF Market (NV),Jovylyn Florea,108162,8/6/2018 1:37:28 PM,Bernadette Jackson,NV,89147,Legacy,New Choco,New,1,0.00,4200.00,4200.00,Synchrony,,,"3 years parts, 1 year labor (Free)","Legacy,",No,8/10/2018 12:00:00 AM,Delivered,,,"COnfirmed synchrony account ($6,500).  ORIGINAL NEEDS TO BE CONFIRMED 8/6/18 Hitomi//Confirmed original. ***Please charge before delivery and have sales draft signed. *** 8/7/18 Hitomi
COURTESY CALL LEFT VM 08/07/18 1:16PM - STEPHANY
CHARGED SYNCHRONY $4200 AUTH  010909 - STEPHANY 08/10/18",NV,1,8.15,DWA-9100DWA-9100BU,4200.00,,,6019170813064513,92500801,Las Vegas,24 months,0.00,,,,,,,0.00,,,,,,
Las Vegas SF Market (NV),Las Vegas SF Market (NV),Laser Howell,108407,8/12/2018 5:49:57 PM,Frank Nguyen,NV,89052,Legacy 3D,New Choco,New,1,0.00,4300.00,4300.00,CreditCard,,,"3 years parts, 1 year labor (Free)","Legacy 3D,",No,8/17/2018 12:00:00 AM,Delivered,,Please give 2 daiwa blanket,"COnfirmed $4,300 in Square. 8/13/18 Hitomi
Leg-rest had been replaced on 9/12/18 by LV branch. Riho",NV,1,8.15,DWA-9150USJ-9150CH,4300.00,Receipt #G4SQ,,,,,,0.00,,,,,,,0.00,,,,,,
Las Vegas SF Market (NV),Las Vegas SF Market (NV),Jovylyn Florea,108491,8/14/2018 12:03:16 PM,Dong Mei Dai,NV,89147,Legacy 3D,New Choco,New,1,0.00,4200.00,4200.00,Synchrony,,,"3 years parts, 1 year labor (Free)","Legacy 3D,",No,8/18/2018 12:00:00 AM,Delivered,,,"COnfirmed synchrony account  ($4500) and original. ***Please charge $4,200 before delivery and have sales draft signed. *** 8/14/18 Hitomi PLEASE CHANGE COLOR TO BLACK - 08/15/18 STEPHANY
courtesy call done 08/15/18 9am stephany
CHARGED SYNCHRONY $4200 # 016471 - STEPHANY 08/16/18",NV,1,8.15,DWA-9150USJ-9150CH,4200.00,,,6019170813081863,92928461,Las Vegas,12 months,0.00,,,,,,,0.00,,,,,,
Las Vegas SF Market (NV),Las Vegas SF Market (NV),Jovylyn Florea,108492,8/14/2018 12:40:08 PM,He Mei Hua,NV,89117,Legacy 3D,New Choco,New,1,0.00,4200.00,4200.00,Synchrony,,,"3 years parts, 1 year labor (Free)","Legacy 3D,",No,8/18/2018 12:00:00 AM,Delivered,,,"Confirmed synchrony account ($6000) and original. ***Please charge $4,200 before delivery and have sales draft signed. *** 8/14/18 Hitomi PLEASE CHANGE COLOR TO BLACK - STEPHANY 08/15/18
CHARGED SYNCHRONY $4200  # 016836 - STEPHANY 08/16/18",NV,1,8.15,DWA-9150USJ-9150CH,4200.00,,,6019170813081947,92929126,Las Vegas,12 months,0.00,,,,,,,0.00,,,,,,
Las Vegas SF Market (NV),Las Vegas SF Market (NV),Jovylyn Florea,109251,9/10/2018 4:27:49 PM,Boubacar Djallah,NV,89031,Legacy 3D,New Black,New,1,0.00,4500.00,4500.00,Synchrony,,,"3 years parts, 1 year labor (Free)","Legacy 3D,",No,9/11/2018 12:00:00 AM,Delivered,,,"Synchrony 8,500/ under NG, WAI YEE(wife,Per.Rex) .Talked to Rex, he already asked wife to have signed on sales draft. SSN is missing on synchrony application form. Rex will ask Jovylyn . - CONFIRMED SSN 9/11/18 Hitomi
per rex customer wants choco - stephany 09/11/18",NV,1,8.15,DWA-9150USJ-9150BL,4500.00,,,6019170813133383,94223063,Las Vegas,24 months,0.00,,,,,,,0.00,,,,,,
Las Vegas SF Market (NV),Las Vegas SF Market (NV),Jovylyn Florea,110222,10/9/2018 1:08:51 PM,Luis Ramirez,UT,84770,Legacy 3D,New Choco,New,1,0.00,4300.00,4300.00,Cash,,,"3 years parts, 1 year labor (Free)","Legacy 3D,",YES,10/9/2018 12:00:00 AM,Delivered,,,"10/10/18-Confirmed Kohei received $4,300 cash .(received confirmation). Kohei confirmed customer picked up in LV warehouse.-Hitomi",NV,1,8.15,DWA-9150USJ-9150CH,4300.00,,,,,,,0.00,,,,,,,0.00,,,,,,
Las Vegas SF Market (NV),Las Vegas SF Market (NV),Jovylyn Florea,110233,10/9/2018 6:12:09 PM,Meng Yuan Zhang,NV,89102,Majesty,New Black,New,1,0.00,3300.00,3300.00,Synchrony,,,"3 years parts, 1 year labor (Free)","Majesty,",No,10/17/2018 12:00:00 AM,Delivered,,,"Confirmed SYNC($5,000) and original. ***PLease charge $3,300 before delivery and sales draft signed. ***10/10/18 Hitomi
Synchrony charged #016525 by Kohei Uno 10/16/2018",NV,1,8.15,MAJ-1010MAJ-1010-BL,3300.00,,,6019170813182596,95488254,Las Vegas,6 months,0.00,,,,,,,0.00,,,,,,
Las Vegas SF Market (NV),Las Vegas SF Market (NV),Jovylyn Florea,112908,12/4/2018 4:41:34 PM,Yang Chenglong,NV,89103,PEGASUS 2 SMART,New Choco,New,1,0.00,7200.00,7200.00,Synchrony,,,"3 years parts, 1 year labor (Free)","PEGASUS 2 SMART,",No,,Cancelled,,,"Synchrony approved only $1,500. I will confirm the situation. 12/5/18 Hitomi
Jovylyn informed to cancel . - 12/5/18 @11:10 Hitomi",Not Dispatched,1,8.15,PEGS-2PEGS-2-BR,7200.00,,,6019170813281711,98116904,Las Vegas,36 months,0.00,,,,,,,0.00,,,,,,
Las Vegas SF Market (NV),Las Vegas SF Market (NV),Joy Anne Torres,112951,12/6/2018 4:51:15 PM,Trinidad Ganir,NV,89139,Kawasaki Massage Lounger,Black Armrest,New,1,0.00,1000.00,1000.00,CreditCard,,,"3 years parts, 1 year labor (Free)","Kawasaki Massage Lounger,",No,12/7/2018 12:00:00 AM,Delivered,New,,"Confirmed 	Square#yzCs-$1,000 (Auth code: 006926) , Kohei is aware of this order and approved to process -12/7/18 Hitomi
12/11/18 courtesy call completed- cristina 11:30
12/7 Delivered by Rex Q",NV,1,8.15,USJ-6000USJ-6000KU,1000.00,Receipt #yzCs,,,,,,0.00,,,,,,,0.00,,,,,,
Las Vegas SF Market (NV),Las Vegas SF Market (NV),Jovylyn Florea,113019,12/8/2018 2:44:10 PM,Ann Caday,NV,89142,Majesty,New Choco,New,1,0.00,3000.00,3000.00,Synchrony,,,"3 years parts, 1 year labor (Free)","Majesty,",No,12/13/2018 12:00:00 AM,Delivered,New,,"Please deliver ASAP thank you
//COnfirmed SYNC($3,000) and original. ***Please charge $3,000 before delivery and sales draft signed.*** 12/10/18 Hitomi
12/13-Delivered by Rex",NV,1,8.15,MAJ-1010MAJ-1010-BR,3000.00,,,6019170813287437,98285531,Las Vegas,24 months,0.00,,,,,,,0.00,,,,,,
Las Vegas SF Market (NV),Las Vegas SF Market (NV),Jovylyn Florea,113474,12/18/2018 8:45:34 PM,Nam Hoang,WA,98408,PEGASUS 2 SMART,New Black,New,1,0.00,6700.00,6700.00,Synchrony,,,"3 years parts, 1 year labor (Free)","PEGASUS 2 SMART,",No,12/31/2018 12:00:00 AM,Delivered,New,,"COnfirmed SYNC($8,500) and original.***Please charge $6,700 before delivery and sales draft signed.*** 12/19/18 Hitomi
12/20/18- Courtesy call/text completed- Cristina 10:19 am
Scheduled Dec 31st 8am to 10am
1/8Maritza- Delivery confirmation received with sales draft.",WA,1,8.15,PEGS-2PEGS-2-BL,6700.00,,,6019170813303093,98723331,Las Vegas,36 months,0.00,,,,,,,0.00,,,,,,
Las Vegas SF Market (NV),Las Vegas SF Market (NV),Joy Anne Torres,113816,1/2/2019 9:54:30 AM,Chen Sen,CA,91770,Majesty,New Black,New,1,0.00,2700.00,2700.00,Cash,Cash,,"3 years parts, 1 year labor (Free)","Majesty,",No,1/7/2019 12:00:00 AM,Delivered,New,,"Deposited $300 cash and the balance of $2400 will be COD
//Kohei sent email saying that he received $200 cash. will confirm confirmation later. ***COD $2,400.*** 1/2/19 Hitomi
1/8Maritza- Delivery confirmation received. Cash signed off by Michael.",CA,1,8.15,MAJ-1010MAJ-1010-BL,300.00,,,,,,,2400.00,,,,,,,0.00,,,,,,
Las Vegas SF Market (NV),Las Vegas SF Market (NV),Rolly San Jose,113825,1/2/2019 4:55:43 PM,James Smith,PA,16866,Majesty,New Black,New,1,0.00,3000.00,3000.00,CreditCard,CreditCard,,"2 years parts, 1 year labor (Free)","Majesty,",No,,Scheduled,,,"Holiday free gifts - 1 daiwa gray blanket - pls deliver with the chair, 2 acumate - to be delivered by rex here in vegas( son lives here who bought the chair for his dad in PA, 1 citie cure mini hand massager - picked up already
//Confirmed $3,000.00 in Square. -1/3/19 Hitomi

1/4/19: Courtesy call. Left VM & sent text message -Noemi",TX,1,8.15,MAJ-1010MAJ-1010-BL,1500.00,Receipt #vIKE,,,,,,1500.00,Receipt #kUNT,,,,,,0.00,,,,,,
Las Vegas SF Market (NV),Las Vegas SF Market (NV),Jovylyn Florea,113927,1/6/2019 11:33:45 AM,Thong Nguyen,KS,67216,Majesty,New Black,New,1,0.00,3200.00,3200.00,Synchrony,,,"3 years parts, 1 year labor (Free)","Majesty,",No,,Scheduled,,,"Share commissions with Yi chuang (Debbie) Yang.
1/7/19-Referral order from 113474 Nam Hoang. Referral Coupon has been used. Please confirm to issue the check w/Yumi after the delivery  - Hitomi
1/7/19-Confirmed synchrony approved$3,500 and original invoice and apprication form. Please charge $3,200 before delivery and have sales draft signed. - Asumi
1/9Maritza Courtesy message sent @ 1:06PM",TX,1,8.15,MAJ-1010MAJ-1010-BL,3200.00,,,6019170813325401,99385703,Las Vegas,24 months,0.00,,,,,,,0.00,,,,,,
Las Vegas SF Market (NV),Las Vegas SF Market (NV),Jovylyn Florea,114004,1/8/2019 11:40:05 AM,Dawei Wang,NV,89183,Kawasaki Massage Lounger,Black Armrest,New,1,0.00,800.00,800.00,COD,,,"3 years parts, 1 year labor (Free)","Kawasaki Massage Lounger,",No,,Cancelled,,,"Deposit $200.00 C.O.D $800.00 . Please Deliver ASAP thank you.
Revise to #114018 because order  total amount was wrong. --- 1/8/19 Asumi",Not Dispatched,1,8.15,USJ-6000USJ-6000KU,800.00,,,,,,,0.00,,,,,,,0.00,,,,,,
Las Vegas SF Market (NV),Las Vegas SF Market (NV),Jovylyn Florea,114018,1/8/2019 5:19:04 PM,Dawei Wang,NV,89183,AGM Kawasaki,,New,1,0.00,1000.00,1000.00,CreditCard,COD,,"3 years parts, 1 year labor (Free)","AGM Kawasaki,",No,,Cancelled,,,"Deposit $200.00 C.O.D $800.00 . Please Deliver ASAP thank you.
correction for #14018
Confirmed $200 on square. Please charge $800 when the chair is delivered. --- 1/8/19 Asumi",Not Dispatched,1,8.15,USJ-6000,200.00,#KQdm,,,,,,800.00,,,,,,,0.00,,,,,,
Las Vegas SF Market (NV),Las Vegas SF Market (NV),Jovylyn Florea,114032,1/9/2019 8:43:06 AM,Dawei Wang,NV,89183,Kawasaki Massage Lounger,Black Armrest,New,1,0.00,1000.00,1000.00,CreditCard,COD,,"3 years parts, 1 year labor (Free)","Kawasaki Massage Lounger,",No,1/17/2019 12:00:00 AM,Delivered,New,,"Deposit $200.00 C.O.D $800.00 . Please Deliver ASAP thank you.
Per. Jovylyn, NV has kawasaki chair --- 1/8/19 Hitomi
Correction from #114004. --- 1/9/19 Asumi
Confirmed $200 on square. Please charge $800 at the timing of delivery. --- 1/9/19 Asumi
1/9Maritza Courtesy message sent @ 9:56AM
1/17 - Delivered by Rex. Cash received by Kohei Uno.
Received delivery confirmation --- 1/18/19 Asumi
No serial for this chair",NV,1,8.15,USJ-6000USJ-6000KU,200.00,KQdm,,,,,,800.00,,,,,,,0.00,,,,,,
Las Vegas SF Market (NV),Las Vegas SF Market (NV),Querubin Milanes,114492,1/21/2019 5:01:58 PM,Jamila Bui,UT,84770,SF Market Legacy,New Choco,New,1,0.00,4300.00,4300.00,Synchrony,,,"3 years parts, 1 year labor (Free)","SF Market Legacy,",No,,Assigned,,,"Synchrony 0% APR/ O Down/ 36 Months Installment, Please deliver a New Legacy (DWA-9100) Choco
//Confirmed SYNC($4,300). need to confirm original-1/22/19 Hitomi
1/23/19-Confirmed original. ***Please charge $4,300 before delivery and sales draft signed.*** -Hitomi
Courtesy call/text completed- Cristina 01/23/19 1:11 pm",NV,1,8.15,DWA-9100DWA-9100BU,4300.00,,,6019170813349013,70282479,San Diego,36 months,0.00,,,,,,,0.00,,,,,,
