﻿Date,Customer Name,State,Zipcode,Description,Product Number,Color,Product Status,Net,Shipping Fee,Gift Price,Financing Processing Fee,Order Total,Total Before Tax,Tax,Commission,Primary Payment Method,Primary Payment Balance,Primary Authorize Number,Primary Purchase Order Number,Primary Synchrony Account Number,Primary Synchrony Application Key,Primary Synchrony Account Info,Primary Synchrony Term,Second Payment Method,Second Payment Balance,Second Authorize Number,Second Purchase Order Number,Second Synchrony Account Number,Second Synchrony Application Key,Second Synchrony Account Info,Second Synchrony Term,Third Payment Method,Third Payment Balance,Third Authorize Number,Third Purchase Order Number,Third Synchrony Account Number,Third Synchrony Application Key,Third Synchrony Account Info,Third Synchrony Term,Delivery Date,Pick up,Warranty,Status,Original Event Name,Event Name,Synchrony Notes,Order Notes,Order Number,Private Note,Branch,No Tax,Actual Tax Rate
8/25/2018 9:51:16 PM,Billie Jo Hagan,FL,33859,Legacy 3D,DWA-9150USJ-9150CH,New Choco,New,,,,,8800.00,8800.00,0.00,Andres Soto,Synchrony,8800.00,,,6019170813101095,93466413,Huston,36 months,,0.00,,,,,,,,0.00,,,,,,,9/6/2018 12:00:00 AM,No,"3 years parts, 1 year labor (Free)",Delivered,TAMPA HOME & GARDEN 8/25-26/18 TAMPA (FL),TAMPA HOME & GARDEN 8/25-26/18 TAMPA (FL),"Authorization Code
005412
Josefina - 9/5/18
10/4/18 Confirmed $8,800 was charged for 36 months. - Hitomi",,108751,"Legacy 3D S/N: 0202002170712
Pegasus S/N: 0501002170205
Synchrony account charged $8,800 for the two chairs - Josefina 9/5/18
CC Josefina - 8/28/18 1:10pm

COnfirmed synchrony account  (10,500) under HAGAN, BILLIE . will confirm original. 8/27/18 Hitomi///Confirmed original. ***Please charge $8,800 before delivery and have sale draft signed.***8/28/18 Hitomi",FL,1,7.00
8/25/2018 9:51:16 PM,Billie Jo Hagan,FL,33859,Pegasus,DWA-9400Pegasus-BR,New Choco,New,,,,,8800.00,8800.00,0.00,Andres Soto,Synchrony,8800.00,,,6019170813101095,93466413,Huston,36 months,,0.00,,,,,,,,0.00,,,,,,,9/6/2018 12:00:00 AM,No,"3 years parts, 1 year labor (Free)",Delivered,TAMPA HOME & GARDEN 8/25-26/18 TAMPA (FL),TAMPA HOME & GARDEN 8/25-26/18 TAMPA (FL),"Authorization Code
005412
Josefina - 9/5/18
10/4/18 Confirmed $8,800 was charged for 36 months. - Hitomi",,108751,"Legacy 3D S/N: 0202002170712
Pegasus S/N: 0501002170205
Synchrony account charged $8,800 for the two chairs - Josefina 9/5/18
CC Josefina - 8/28/18 1:10pm

COnfirmed synchrony account  (10,500) under HAGAN, BILLIE . will confirm original. 8/27/18 Hitomi///Confirmed original. ***Please charge $8,800 before delivery and have sale draft signed.***8/28/18 Hitomi",FL,1,7.00
8/25/2018 10:06:47 PM,Beu wall,FL,33606,Legacy 3D,DWA-9150USJ-9150BL-DEMO,Demo Black,Demo,,,,,3900.00,3900.00,0.00,Robert Shih,CreditCard,3900.00,Square # LHKs,,,,,,,0.00,,,,,,,,0.00,,,,,,,8/29/2018 12:00:00 AM,No,"3 years parts, 1 year labor (Free)",Delivered,TAMPA HOME & GARDEN 8/25-26/18 TAMPA (FL),TAMPA HOME & GARDEN 8/25-26/18 TAMPA (FL),,,108752,"COnfirmed $3,900 in Square.  8/27/18 Hitomi",FL,1,7.00
8/25/2018 10:16:52 PM,Kyle H Allison,FL,33629,Relax2Zero 3D,DWA-9060USJ-9060BR-DEMO,Demo Choco,Demo,,,,,3600.00,3600.00,0.00,Robert Shih,CreditCard,3600.00,Square #vJtw,,,,,,,0.00,,,,,,,,0.00,,,,,,,8/29/2018 12:00:00 AM,No,"3 years parts, 1 year labor (Free)",Delivered,TAMPA HOME & GARDEN 8/25-26/18 TAMPA (FL),TAMPA HOME & GARDEN 8/25-26/18 TAMPA (FL),,,108753,"Confirmed $3,600 in Square. 8/27/18 Hitomi",FL,1,7.00
8/25/2018 10:26:42 PM,Yolawda Brown,FL,33579,Relax2Zero 3D,DWA-9060USJ-9060BL-DEMO,Demo Black,Demo,,,,,3900.00,3900.00,0.00,Andres Soto,Synchrony,3900.00,,,6019170813101083,93466824,Huston,36 months,,0.00,,,,,,,,0.00,,,,,,,9/14/2018 12:00:00 AM,No,"3 years parts, 1 year labor (Free)",Delivered,TAMPA HOME & GARDEN 8/25-26/18 TAMPA (FL),TAMPA HOME & GARDEN 8/25-26/18 TAMPA (FL),"Authorization Code
011118
Synchrony account charged $3,900 - 9/11/18 Josefina
//Confirmed $3,900 was charged for 36 months, received sales draft. 10/8/18 Hitomi",,108754,"** Phone number: 813-591-9054 **
CC Josefina - 8/28/18 1:20pm VM
Confirmed synchrony account (8,500) will confirm original 8/27/18 HItomi//Confirmed original.***Please charge $3,900 before delivery and have sales draft signed.*** 8/28/18 Hitomi",FL,1,7.00
8/25/2018 10:33:09 PM,Duane Plate,FL,34609,Pegasus,DWA-9400Pegasus-BL-DEMO,Demo Black,Demo,,,,,4700.00,4700.00,0.00,Andres Soto,CreditCard,4700.00,Square # uGEy,,,,,,,0.00,,,,,,,,0.00,,,,,,,8/29/2018 12:00:00 AM,No,"3 years parts, 1 year labor (Free)",Delivered,TAMPA HOME & GARDEN 8/25-26/18 TAMPA (FL),TAMPA HOME & GARDEN 8/25-26/18 TAMPA (FL),,,108755,"Confirmed $4,700 in Square. 8/27/18 Hitomi",FL,1,7.00
8/26/2018 8:40:23 PM,Charleston Masterson,FL,33624,Relax2Zero 3D,DWA-9060USJ-9060BR,New Choco,New,,,,,3500.00,3500.00,0.00,Robert Shih,CreditCard,500.00,Square# 47fD,,,,,,CreditCard,3000.00,Housecall Pro,,,,,,,0.00,,,,,,,9/6/2018 12:00:00 AM,No,"3 years parts, 1 year labor (Free)",Cancelled,TAMPA HOME & GARDEN 8/25-26/18 TAMPA (FL),TAMPA HOME & GARDEN 8/25-26/18 TAMPA (FL),,"Dear Charleston ,

Thank you for being part of Daiwa family / COD $3,000",108803,"COnfirmed $500 in Square. COD $3,000. 8/27/18 Hitomi
PROCESSING RETURN 9/18 (MQ) -- WILL SCHEDULE PICK UP WITH CUSTOMER ASAP & CHARGE RESTOCKING FEE",FL,1,7.00
8/27/2018 10:43:51 AM,Andrew & Yolanda Breuer,FL,33541,Relax2Zero 3D,DWA-9060USJ-9060BL-DEMO,Demo Black,Demo,,,,,3700.00,3700.00,0.00,Andres Soto,Synchrony,3500.00,,,6034590914444564,,,36 months,CreditCard,200.00,Square# a6yF,,,,,,,0.00,,,,,,,9/6/2018 12:00:00 AM,No,"3 years parts, 1 year labor (Free)",Delivered,TAMPA HOME & GARDEN 8/25-26/18 TAMPA (FL),TAMPA HOME & GARDEN 8/25-26/18 TAMPA (FL),"Authorization Code
005694
(Josefina - 9/5/18)
10/4/18 confirmed $3,500 was charged for 36 months.-Hitomi",,108823,"EXCHANGED DEMO FOR NEW ON 9/10/18 CUSTOMER THOUGHT HE WAS GETTING A DEMO BOX - EXCHANGE NO EXTRA COST
NEW S/N: 0103001170393

Synchrony charged $3,500 on 9/5/18 - Josefina 

CC Josefina - 8/28/18 1:15pm VM

Payment notes 
Charge $3500 36 months free financing 
Account# 6034590914444564
(Cristina charged / refunded to check if the account is activate ) 
Collected $200 w/credit card. Square #a6yF
//COnfirmed $200 in Square. ***Please charge $3,500 before delivery and have sales draft signed. *** 8/27/18 Hitomi",FL,1,7.00
