﻿Original Event Name,Event Name,Sales Person,Order Number,Order Date,Customer Name,State,Zip,Product Name,Color,Product Status,QTY,Tax,Total Before Tax,Order Total,Primary Payment Method,Second Payment Method,Thirdl Payment Method,Warranty,Order Items,Pick up,Delivered On,Order Status,Chair Type,Order Notes,Private Note,Branch,No Tax,Actual Tax Rate,SKU,Primary Payment Balance,Primary Authorize Number,Primary Purchase Order Number,Primary Synchrony Account Number,Primary Synchrony Application Key,Primary Synchrony Account Info,Primary Synchrony Term,Second Payment Balance,Second Authorize Number,Second Purchase Order Number,Second Synchrony Account Number,Second Synchrony Application Key,Second Synchrony Account Info,Second SynchronyTerm,Third Payment Balance,Third Authorize Number,Third Purchase Order Number,Third Synchrony Account Number,Third Synchrony Application Key,Third Synchrony Account Info,Third Synchrony Term
"Sam's Club #6267 Edmond, OK (5/16-5/26/2019) TX","Sam's Club #6267 Edmond, OK (5/16-5/26/2019) TX",Scott Tatum,117436,5/18/2019 5:43:22 AM,Brandy McDonald,OK,73044,Orbit for Sam's ,New Choco,New,1,247.34,2998.00,3245.34,Sam’s Club Synchrony,,,"3 years parts, 1 year labor (Free)","Orbit for Sam's ,",No,,Printed,,,"Original received 
Erika 5/21/19 2:58pm
5/21/2019: Courtesy call-Left voicemail -NH
Printed - Tina 5/22/2019",TX,0,8.25,ORBT-1ORBT-1CH,0.00,,,,,,,0.00,,,,,,,0.00,,,,,,
"Sam's Club #6267 Edmond, OK (5/16-5/26/2019) TX","Sam's Club #6267 Edmond, OK (5/16-5/26/2019) TX",Scott Tatum,117437,5/18/2019 5:51:07 AM,Kimberly Ernst,OK,73151,PEGASUS 2 SMART - Sam's,Demo(Box) Black[-700],Demo,1,453.67,5499.00,5952.67,Purchase Order,,,"3 years parts, 1 year labor (Free)","PEGASUS 2 SMART - Sam's,",No,,Printed,,,"Original received.
Erika 5/21/19 2:56pm
5/21/2019: Courtesy call-Left voicemail -Noemi
Printed - Tina 5/22/2019",TX,0,8.25,PEGS-2PEGS-2-BL-DEMO(Box),0.00,,9403890834014848773711,,,,,0.00,,,,,,,0.00,,,,,,
"Sam's Club #6267 Edmond, OK (5/16-5/26/2019) TX","Sam's Club #6267 Edmond, OK (5/16-5/26/2019) TX",Scott Tatum,117463,5/19/2019 6:00:56 AM,Jennifer McDonough,OK,73025,Legacy for Sam's,New Choco,New,1,354.67,4299.00,4653.67,Purchase Order,,,"3 years parts, 1 year labor (Free)","Legacy for Sam's,",No,,Printed,,,"Original received Erika 5/20/19 2:01pm
Courtesy call/ Text completed- Cristina 05/20/19 3:44
5/21/2019 Printed - Tina",TX,0,8.25,DWA-9100DWA-9100CH,0.00,,0380916226627575332324,,,,,0.00,,,,,,,0.00,,,,,,
"Sam's Club #6267 Edmond, OK (5/16-5/26/2019) TX","Sam's Club #6267 Edmond, OK (5/16-5/26/2019) TX",Scott Tatum,117488,5/20/2019 5:17:32 AM,Scott Hill,OK,73013,Legacy for Sam's,Demo(Box) Choco[-700],Demo,1,296.92,3599.00,3895.92,Purchase Order,,,"3 years parts, 1 year labor (Free)","Legacy for Sam's,",No,,Cancelled,,,"Original received Erika 5/20/19 2:07pm
Courtesy call/text completed- Cristina 05/20/19 3:47pm
Printed - Tina 5/21/2019

New order # entered #117537
Please void Order # 117488
Changed from a Legacy to a Relax 2 Zero 2.0
Erika 5/23/19 9:48am",TX,0,8.25,DWA-9100DWA-9100CH-Box,0.00,,1802662114226760965950,,,,,0.00,,,,,,,0.00,,,,,,
"Sam's Club #6267 Edmond, OK (5/16-5/26/2019) TX","Sam's Club #6267 Edmond, OK (5/16-5/26/2019) TX",Scott Tatum,117505,5/21/2019 8:20:43 AM,Mohammad Choundhry,OK,73034,Ninja Leg Massager 2,New,New,1,24.75,299.98,324.73,Purchase Order,,,"2 years parts, 1 year labor for Small Items","Ninja Leg Massager 2,",YES,,Delivered,,,"Original received.
Erika 5/21/19 9:15am",TX,0,8.25,USJ-880,0.00,,520431091190625868893,,,,,0.00,,,,,,,0.00,,,,,,
"Sam's Club #6267 Edmond, OK (5/16-5/26/2019) TX","Sam's Club #6267 Edmond, OK (5/16-5/26/2019) TX",Scott Tatum,117519,5/22/2019 5:59:32 AM,B.J. Miller Jr,OK,73034,PEGASUS 2 SMART - Sam's,New Black,New,1,511.42,6199.00,6710.42,Purchase Order,,,"3 years parts, 1 year labor (Free)","PEGASUS 2 SMART - Sam's,",No,,Printed,,,"Please be patient and help customer understand everything about Daiwa Smart technology, phone app and youtube video explaining the remote control. Customer worried this will be difficult to understand. 
5/22/2019 Printed - Tina

Thank you, Scott

Original received.
Erika 5/22/19 9:05am
Courtesy call completed-cristina 05/22/199:18 am",TX,0,8.25,PEGS-2PEGS-2-BL,0.00,,5951444014498982515562,,,,,0.00,,,,,,,0.00,,,,,,
"Sam's Club #6267 Edmond, OK (5/16-5/26/2019) TX","Sam's Club #6267 Edmond, OK (5/16-5/26/2019) TX",Scott Tatum,117537,5/23/2019 5:40:45 AM,Scott Hill,OK,73013,Relax 2 Zero 3D for Sam's,Demo (Box) Brown[-700],Demo,1,313.42,3799.00,4112.42,Purchase Order,,,"3 years parts, 1 year labor (Free)","Relax 2 Zero 3D for Sam's,",No,,Assigned,,,"Exchanged original Legacy purchased, difference paid , see email with receipt, Everybody notified.

Please disregard order # 117488 
Customer change from legacy 9100 to Relax 2 Zero 3D
Erika 5/23/19 10:17am",TX,0,8.25,DWA-9060DWA-9060BR-DEMO (Box),0.00,,4708877943706158043088,,,,,0.00,,,,,,,0.00,,,,,,
