﻿Order Number,Order Date,Event Name,Salesperson,SKU,Product Name,Color,QTY,Warranty,Payment Details,Tax,Order Total,Gross,Primary Payment Method,Primary Payment Balance,Primary Authorize Number,Primary Purchase Order Number,Primary Synchrony Account Number,Primary Synchrony Application Key,Primary Synchrony AccountInfo,Primary SynchronyTerm,Secondly Payment Method,Secondly Payment Balance,Secondly Authorize Number,Secondly Purchase Order Number,Secondly Synchrony Account Number,Secondly Synchrony Application Key,Secondly Synchrony AccountInfo,Secondly SynchronyTerm,Thirdly Payment Method,Thirdly Payment Balance,Thirdly Authorize Number,Thirdly Purchase Order Number,Thirdly Synchrony Account Number,Thirdly Synchrony Application Key,Thirdly Synchrony AccountInfo,Thirdly SynchronyTerm,Actual Shipping Cost,CustomerName,Shipping Address,Delivered On,Serial Number (TO Be),Note,Branch,IsNoTax,ActualTaxRate
100954,9/29/2017 10:09:59 AM,Jacksonville Home and Patio Show,Mitch Valdes,DWA-9100DWA-9100BU-DEMO,Legacy,Demo Blue,1,"3 years parts, 1 year labor (Free)",CreditCard ,245.00,3745.00,3745.00,CreditCard,3745.00,UKQS,,,,,,,0.00,,,,,,,,0.00,,,,,,,0.00,Robert O'Brien,5712386865,10/1/2017 12:00:00 AM,,,FL,,
100959,9/29/2017 12:26:11 PM,Jacksonville Home and Patio Show,Mitch Valdes,USJ-9050USJ-9050BR-DEMO,Relax2Zero 2.0,Demo Brown,1,"3 years parts, 1 year labor (Free)",CreditCard ,210.00,3210.00,3210.00,CreditCard,3210.00,SFml,,,,,,,0.00,,,,,,,,0.00,,,,,,,0.00,Gina Eyermann,2146682395,10/1/2017 12:00:00 AM,,,FL,,
100966,9/29/2017 5:29:18 PM,Jacksonville Home and Patio Show,Mitch Valdes,DWA-9100DWA-9100CH,Legacy,Choco Brown,1,"3 years parts, 1 year labor (Free)",CreditCard ,255.50,3905.50,3905.50,CreditCard,3905.50,lbZA,,,,,,,0.00,,,,,,,,0.00,,,,,,,0.00,Lulu Ferrer,9044342331,10/5/2017 12:00:00 AM,,,FL,,
100966,9/29/2017 5:29:18 PM,Jacksonville Home and Patio Show,Mitch Valdes,,Chair Pad for Legacy,,1,no warranty,CreditCard ,255.50,3905.50,3905.50,CreditCard,3905.50,lbZA,,,,,,,0.00,,,,,,,,0.00,,,,,,,0.00,Lulu Ferrer,9044342331,10/5/2017 12:00:00 AM,,,FL,,
100968,9/29/2017 6:00:22 PM,Jacksonville Home and Patio Show,Mitch Valdes,USJ-9050USJ-9050BE-DEMO,Relax2Zero 2.0,Demo Beige,1,"3 years parts, 1 year labor (Free)",CreditCard ,217.00,3317.00,3317.00,CreditCard,3317.00,Wekt,,,,,,,0.00,,,,,,,,0.00,,,,,,,0.00,Giampaolo Bordonaro,9049942707,10/1/2017 12:00:00 AM,,,FL,,
100968,9/29/2017 6:00:22 PM,Jacksonville Home and Patio Show,Mitch Valdes,,Daiwa Blanket,,1,no warranty,CreditCard ,217.00,3317.00,3317.00,CreditCard,3317.00,Wekt,,,,,,,0.00,,,,,,,,0.00,,,,,,,0.00,Giampaolo Bordonaro,9049942707,10/1/2017 12:00:00 AM,,,FL,,
101016,10/1/2017 10:56:37 AM,Jacksonville Home and Patio Show,Mitch Valdes,DWA-9100DWA-9100CR-DEMO,Legacy,Demo Cream,1,"3 years parts, 1 year labor (Free)",CreditCard ,245.00,3745.00,3745.00,CreditCard,3745.00,CDbv,,,,,,,0.00,,,,,,,,0.00,,,,,,,0.00,Felicia Luke,9043147515,10/1/2017 12:00:00 AM,,,FL,,
101016,10/1/2017 10:56:37 AM,Jacksonville Home and Patio Show,Mitch Valdes,,Chair Pad for Legacy,,1,no warranty,CreditCard ,245.00,3745.00,3745.00,CreditCard,3745.00,CDbv,,,,,,,0.00,,,,,,,,0.00,,,,,,,0.00,Felicia Luke,9043147515,10/1/2017 12:00:00 AM,,,FL,,
101017,10/1/2017 12:20:28 PM,Jacksonville Home and Patio Show,Alex Brackelsberg,USJ-9050USJ-9050BR,Relax2Zero 2.0,Brown,1,"3 years parts, 1 year labor (Free)",Synchrony ,273.00,4173.00,4173.00,Synchrony,4173.00,,,6034610981548417,79151332,Huston,36 months,,0.00,,,,,,,,0.00,,,,,,,0.00,Shawn Drussart,9043051303,10/5/2017 12:00:00 AM,,,FL,,
101018,10/1/2017 12:46:38 PM,Jacksonville Home and Patio Show,Mitch Valdes,DWA-9100DWA-9100CR,Legacy,Cream,1,"3 years parts, 1 year labor (Free)",CreditCard CreditCard,245.00,3745.00,3745.00,CreditCard,100.00,iYZl,,,,,,CreditCard,3645.00,,,,,,,,0.00,,,,,,,0.00,Ronald Jolley,9042072802,10/5/2017 12:00:00 AM,,"Balance of $3,645 to be paid before delivery
Call next week for payment and delivery",FL,,
101850,11/13/2017 11:30:51 AM,Jacksonville Home and Patio Show,Alex Brackelsberg,DWA-9100DWA-9100BL,Legacy,Black,1,"3 years parts, 1 year labor (Free)",CreditCard ,252.00,3852.00,3852.00,,0.00,X00q,,,,,,,,,,,,,,,,,,,,,,350.00,Kent Rempe,8067774529,11/25/2017 12:00:00 AM,,,TX,,
