﻿Date,CustomerName,State,Zipcode,Description,productNo,Color,Product Status,Net,ShippingFee,GiftPrice,FinancingProcessingFee,Order Total,Pre_tax,Tax,Commission,Primary Payment Method,Primary Payment Balance,Primary Authorize Number,Primary Purchase Order Number,Primary Synchrony Account Number,Primary Synchrony Application Key,Primary Synchrony AccountInfo,Primary SynchronyTerm,Secondly Payment Method,Secondly Payment Balance,Secondly Authorize Number,Secondly Purchase Order Number,Secondly Synchrony Account Number,Secondly Synchrony Application Key,Secondly Synchrony AccountInfo,Secondly SynchronyTerm,Thirdly Payment Method,Thirdly Payment Balance,Thirdly Authorize Number,Thirdly Purchase Order Number,Thirdly Synchrony Account Number,Thirdly Synchrony Application Key,Thirdly Synchrony AccountInfo,Thirdly SynchronyTerm,DeliveryDate,Pick up,Warranty,Status,Original Event Name,Event Name,Synchrony Notes,Order Notes,Order number,Private Note,Branch,No Tax,ActualTaxRate
10/14/2017 6:26:04 AM,Savannah Kean,IN,46160,Relax2Zero 3D,DWA-9060USJ-9060BR,Choco Brown,New,,,,,4000.00,3787.38,212.62,Joseph Chan,,4000.00,,,6034610081571294,79070088,San Diego,36 months,,,,,,,,,,,,,,,,,11/4/2017 12:00:00 AM,No,"3 years parts, 1 year labor (Free)",Delivered,Covered Bridge Festival 10/13-22/17 (IL),Covered Bridge Festival 10/13-22/17 (IL),,Family buying 2 chairs,101260,"CHARGE BEFORE DELIVERY $4000, Auth #031166",TX,,
10/14/2017 6:32:50 AM,Sheilah Smith,IN,46160,Relax2Zero 3D,DWA-9060USJ-9060BL,Black,New,,,,,4000.00,3787.38,212.62,Joseph Chan,,4000.00,,,6034610081571351,79670577,San Diego,36 months,,,,,,,,,,,,,,,,,11/4/2017 12:00:00 AM,No,"3 years parts, 1 year labor (Free)",Delivered,Covered Bridge Festival 10/13-22/17 (IL),Covered Bridge Festival 10/13-22/17 (IL),,,101261,CHARGE BEFORE DELIVERY $4000,TX,,
10/14/2017 11:01:22 AM,Robert Bolster,KY,42220,Relax2Zero 3D,DWA-9060USJ-9060BR,Choco Brown,New,,,,,4100.00,3880.84,219.16,Joseph Chan,,4100.00,,,6034610081572821,79704033,San Diego,36 months,,,,,,,,,,,,,,,,,11/4/2017 12:00:00 AM,No,"3 years parts, 1 year labor (Free)",Delivered,Covered Bridge Festival 10/13-22/17 (IL),Covered Bridge Festival 10/13-22/17 (IL),,,101266,CHARGE $4100 BEFORE DELIVERY,TX,,
10/15/2017 12:24:14 PM,Vernon Ragain,IL,62959,Relax2Zero 3D,DWA-9060USJ-9060BR,Choco Brown,New,,,,,4500.00,4254.67,245.33,Joseph Chan,,4500.00,,,6034610081575469,79746412,San Diego,36 months,,,,,,,,,,,,,,,,,10/24/2017 12:00:00 AM,No,"3 years parts, 1 year labor (Free)",Delivered,Covered Bridge Festival 10/13-22/17 (IL),Covered Bridge Festival 10/13-22/17 (IL),,,101289,"CHARGE BEFORE DELIVERY $4500
Auth #006603 - 10/23/2017",TX,,
10/16/2017 8:08:24 AM,Michael Mahlke,IN,47923,Relax2Zero 3D,DWA-9060USJ-9060BL,Black,New,,,,,4500.00,4254.67,245.33,Joseph Chan,,4500.00,,,6034610081577101,79770867,San Diego,36 months,,,,,,,,,,,,,,,,,10/31/2017 12:00:00 AM,No,"3 years parts, 1 year labor (Free)",Delivered,Covered Bridge Festival 10/13-22/17 (IL),Covered Bridge Festival 10/13-22/17 (IL),,,101365,"10/16/17 CHARGE BEFORE DELIVERY- CRISTINA
CHARGED 10/31/17 AUTH 030610 - 11/15/17 STEPHANY",TX,,
10/18/2017 2:36:23 PM,Christie Stone,IL,62474,Legacy 3D,DWA-9150USJ-9150CH,Choco Brown,New,,,,,4200.00,3974.30,225.70,Amando Loreno,,4200.00,#wbXk,,,,,,,,,,,,,,,,,,,,,,10/24/2017 12:00:00 AM,No,"3 years parts, 1 year labor (Free)",Delivered,Covered Bridge Festival 10/13-22/17 (IL),Covered Bridge Festival 10/13-22/17 (IL),,,101423,SQUARE CLEARED BY ALICIA 10.18.17,TX,,
10/19/2017 11:02:47 AM,Patricia Cochenour,IN,46158,Relax2Zero 3D,DWA-9060USJ-9060BR,Choco Brown,New,,,,,4500.00,4254.67,245.33,Joseph Chan,,4500.00,,,6034610091581848,79912711,San Diego,36 months,,,,,,,,,,,,,,,,,11/5/2017 12:00:00 AM,No,"3 years parts, 1 year labor (Free)",Delivered,Covered Bridge Festival 10/13-22/17 (IL),Covered Bridge Festival 10/13-22/17 (IL),,,101436,NEEDS TO BE CHARGED BEFORE DELIVERY,TX,,
10/21/2017 5:41:00 PM,Ernest Wallace,IN,46291,Legacy 3D,DWA-9150USJ-9150BL,Black,New,,,,,4200.00,3974.30,225.70,Kamille Gines,,4200.00,#rLjw,,,,,,,,,,,,,,,,,,,,,,11/5/2017 12:00:00 AM,No,"3 years parts, 1 year labor (Free)",Delivered,Covered Bridge Festival 10/13-22/17 (IL),Covered Bridge Festival 10/13-22/17 (IL),,,101471,Square cleared for $4200 - 10/25/17 Stephany,TX,,
10/21/2017 5:52:06 PM,Jason Walker,IN,47802,Legacy 3D,DWA-9150USJ-9150CH,Choco Brown,New,,,,,4500.00,4254.67,245.33,Joseph Chan,,4500.00,#mpaA,,,,,,,,,,,,,,,,,,,,,,11/5/2017 12:00:00 AM,No,"3 years parts, 1 year labor (Free)",Delivered,Covered Bridge Festival 10/13-22/17 (IL),Covered Bridge Festival 10/13-22/17 (IL),,,101473,Square cleared for $4500 - 10/25/17 Stephany,TX,,
10/21/2017 6:05:26 PM,Cindy Pierce,IN,46135,Relax2Zero 3D,DWA-9060USJ-9060BR,Choco Brown,New,,,,,4000.00,3787.38,212.62,Kamille Gines,,3500.00,,,6034610081586441,80013366,San Diego,36 months,CreditCard,,,,,,,,,,,,,,,,11/5/2017 12:00:00 AM,No,"3 years parts, 1 year labor (Free)",Delivered,Covered Bridge Festival 10/13-22/17 (IL),Covered Bridge Festival 10/13-22/17 (IL),,"Credit Card payment $500, Square approval #kUFR",101474,"PAYMENT CLEARED FOR SQUARE $500, PLEASE CHARGE SYNCHRONY BEFORE DELIVERY - 10/25/17 STEPHANY",TX,,
10/21/2017 6:14:08 PM,Rhonda Langston,IN,46203,Pegasus,DWA-9400Pegasus-BR-DEMO,Demo Choco Brown,Demo,,,,,4000.00,3738.32,261.68,Amando Loreno,,3000.00,#UZgO,,,,,,Cash,,,,,,,,,,,,,,,,10/21/2017 12:00:00 AM,YES,"3 years parts, 1 year labor (Free)",Delivered,Covered Bridge Festival 10/13-22/17 (IL),Covered Bridge Festival 10/13-22/17 (IL),,Cash $1000.00 received by Joseph,101475,"P. Michael received the Cash $1000, Confirmed $3000 in Square. 10/24/17 Riho

SN: 94160142D
PICKED UP 10/22/2017
-MELISSA 10/27/2017",TX,,
10/22/2017 4:05:11 PM,Denny Lord,IN,47906,Relax2Zero 3D,DWA-9060USJ-9060BR,Choco Brown,New,,,,,3750.00,3553.74,196.26,Joseph Chan,,200.00,#OxIU,,,,,,COD,,,,,,,,,,,,,,,,11/5/2017 12:00:00 AM,No,"3 years parts, 1 year labor (Free)",Delivered,Covered Bridge Festival 10/13-22/17 (IL),Covered Bridge Festival 10/13-22/17 (IL),,Balance of $3550 charge before delivery,101510,"Confirmed $200 in Square 10/24/17 Riho
Receipt #0xIU
Square #2kk4 - $3,550 - 11/24/2017",TX,,
10/22/2017 4:15:13 PM,Derringer Downey,IL,62809,Legacy 3D,DWA-9150USJ-9150CH-DEMO,Demo Choco Brown,Demo,,,,,3500.00,3271.03,228.97,Amando Loreno,,3500.00,,,6034610081588140,80037814,San Diego,36 months,,,,,,,,,,,,,,,,,10/22/2017 12:00:00 AM,YES,"3 years parts, 1 year labor (Free)",Delivered,Covered Bridge Festival 10/13-22/17 (IL),Covered Bridge Festival 10/13-22/17 (IL),,,101511,"SYNCHRONY CLEARED. NEEDS TO BE CHARGED BEFORE DELIVERY - STEPHANY 10/25/17
CHARGED 11/16/17 AUTH 016085 - 11/16/17 STEPHANY",TX,,
10/22/2017 4:22:35 PM,Cindy Hofman,IN,46123,Relax2Zero 3D,DWA-9060USJ-9060BL,Black,New,,,,,3800.00,3600.47,199.53,Joseph Chan,,100.00,,,,,,,Check,,,,,,,,,,,,,,,,11/5/2017 12:00:00 AM,No,"3 years parts, 1 year labor (Free)",Delivered,Covered Bridge Festival 10/13-22/17 (IL),Covered Bridge Festival 10/13-22/17 (IL),,"Balance of $3700, COD with Cash",101512,"Please give an extra *Chair Pad*
P. Michael received the cash $100, 10/24/17 Riho
COD BY SQUARE: BMVQ",TX,,
10/22/2017 4:30:57 PM,William Jones,IN,46175,Relax2Zero 3D,DWA-9060USJ-9060BR,Choco Brown,New,,,,,4500.00,4254.67,245.33,Joseph Chan,,0.00,,,,,,,Check,,,,,,,,,,,,,,,,,No,"3 years parts, 1 year labor (Free)",Hold,Covered Bridge Festival 10/13-22/17 (IL),Covered Bridge Festival 10/13-22/17 (IL),,Customer will call for deposit and do the layaway,101513,,Not Dispatched,,
