﻿Original Event Name,Event Name,Sales Person,Order Number,Order Date,Customer Name,State,Zip,Product Name,Color,Product Status,QTY,Tax,Total Before Tax,Order Total,Primary Payment Method,Second Payment Method,Thirdl Payment Method,Warranty,Order Items,Pick up,Delivered On,Order Status,Chair Type,Order Notes,Private Note,Branch,No Tax,Actual Tax Rate,SKU,Primary Payment Balance,Primary Authorize Number,Primary Purchase Order Number,Primary Synchrony Account Number,Primary Synchrony Application Key,Primary Synchrony Account Info,Primary Synchrony Term,Second Payment Balance,Second Authorize Number,Second Purchase Order Number,Second Synchrony Account Number,Second Synchrony Application Key,Second Synchrony Account Info,Second SynchronyTerm,Third Payment Balance,Third Authorize Number,Third Purchase Order Number,Third Synchrony Account Number,Third Synchrony Application Key,Third Synchrony Account Info,Third Synchrony Term
"Sam'a Club #8250 Mcallen, TX (2/28-3/10/2019)","Sam'a Club #8250 Mcallen, TX (2/28-3/10/2019)",Edgar Coroan,115882,3/18/2019 3:02:54 PM,Jose Ma. Morales Sandez,TX,12345,Shogun Neck & Back Massger,New,New,1,16.50,199.98,216.48,CreditCard,,,"2 years parts, 1 year labor for Small Items","Shogun Neck &amp; Back Massger,",YES,,Delivered,,,customer picked up,TX,0,8.25,USJ-874USJ-874,216.48,TC# 9936 5534 6303 3106 8504 9,,,,,,0.00,,,,,,,0.00,,,,,,
"Sam'a Club #8250 Mcallen, TX (2/28-3/10/2019)","Sam'a Club #8250 Mcallen, TX (2/28-3/10/2019)",Edgar Coroan,115883,3/18/2019 3:19:50 PM,Ellia Garcia,TX,12345,Shogun Neck & Back Massger,New,New,1,16.50,199.98,216.48,CreditCard,,,"2 years parts, 1 year labor for Small Items","Shogun Neck &amp; Back Massger,",YES,,Delivered,,,"customer picked up
sales person put 2 years labor , 2 years part
will confirm TC# -3/18/19 Hitomi
3/21/19-Confirmed purchase with receipt. -Hitomi",TX,0,8.25,USJ-874USJ-874,216.48,,,,,,,0.00,,,,,,,0.00,,,,,,
"Sam'a Club #8250 Mcallen, TX (2/28-3/10/2019)","Sam'a Club #8250 Mcallen, TX (2/28-3/10/2019)",Edgar Coroan,115884,3/18/2019 3:25:28 PM,Amando Guerra,TX,12345,Ninja Leg Massager 2,New,New,1,24.75,299.98,324.73,CreditCard,,,"2 years parts, 1 year labor for Small Items","Ninja Leg Massager 2,",YES,,Delivered,,,"customer picked up 
2 years parts and 2 years labor",TX,0,8.25,USJ-880,324.73,TC# 6488 8780 5915 9562 1734 8,,,,,,0.00,,,,,,,0.00,,,,,,
"Sam'a Club #8250 Mcallen, TX (2/28-3/10/2019)","Sam'a Club #8250 Mcallen, TX (2/28-3/10/2019)",Edgar Coroan,115885,3/18/2019 3:27:59 PM,Rosa Urbano,TX,12345,Shogun Neck & Back Massger,New,New,1,16.50,199.98,216.48,CreditCard,,,"1 year parts, 1 year labor (Free)","Shogun Neck &amp; Back Massger,",YES,,Delivered,,,customer picked up,TX,0,8.25,USJ-874USJ-874,216.48,TC# 6849 8811 5797 7950 2451 6,,,,,,0.00,,,,,,,0.00,,,,,,
"Sam'a Club #8250 Mcallen, TX (2/28-3/10/2019)","Sam'a Club #8250 Mcallen, TX (2/28-3/10/2019)",Edgar Coroan,115886,3/18/2019 3:47:44 PM,Ma Fernanda Tellez Pineda,TX,12345,Shogun Neck & Back Massger,New,New,1,16.50,199.98,216.48,CreditCard,,,"1 year parts, 1 year labor (Free)","Shogun Neck &amp; Back Massger,",YES,,Delivered,,,customer picked up,TX,0,8.25,USJ-874USJ-874,216.48,TC# 3954 1198 8040 0247 9348 3,,,,,,0.00,,,,,,,0.00,,,,,,
"Sam'a Club #8250 Mcallen, TX (2/28-3/10/2019)","Sam'a Club #8250 Mcallen, TX (2/28-3/10/2019)",Edgar Coroan,115887,3/18/2019 4:04:38 PM,Adrian Torres,TX,12345,Ninja Leg Massager 2,New,New,1,41.25,499.96,541.21,CreditCard,,,"2 years parts, 1 year labor for Small Items","Ninja Leg Massager 2,Shogun Neck &amp; Back Massger,",YES,,Delivered,,,customer picked up,TX,0,8.25,USJ-880,541.21,TC# 0049 2871 3757 7980 6058 6,,,,,,0.00,,,,,,,0.00,,,,,,
"Sam'a Club #8250 Mcallen, TX (2/28-3/10/2019)","Sam'a Club #8250 Mcallen, TX (2/28-3/10/2019)",Edgar Coroan,115887,3/18/2019 4:04:38 PM,Adrian Torres,TX,12345,Shogun Neck & Back Massger,New,New,1,41.25,499.96,541.21,CreditCard,,,"2 years parts, 1 year labor for Small Items","Ninja Leg Massager 2,Shogun Neck &amp; Back Massger,",YES,,Delivered,,,customer picked up,TX,0,8.25,USJ-874USJ-874,541.21,TC# 0049 2871 3757 7980 6058 6,,,,,,0.00,,,,,,,0.00,,,,,,
"Sam'a Club #8250 Mcallen, TX (2/28-3/10/2019)","Sam'a Club #8250 Mcallen, TX (2/28-3/10/2019)",Edgar Coroan,115888,3/18/2019 4:07:45 PM,Joana Martinez,TX,12345,Ninja Leg Massager 2,New,New,1,24.75,299.98,324.73,CreditCard,,,"1 year parts, 1 year labor (Free)","Ninja Leg Massager 2,",YES,,Delivered,,,customer pick up,TX,0,8.25,USJ-880,324.73,TC# 9095 5326 2121 1098 4527 5,,,,,,0.00,,,,,,,0.00,,,,,,
"Sam'a Club #8250 Mcallen, TX (2/28-3/10/2019)","Sam'a Club #8250 Mcallen, TX (2/28-3/10/2019)",Edgar Coroan,115890,3/18/2019 4:12:53 PM,Otelia Castillo,TX,78537,Relax 2 Zero 2.0 for Sam's,Demo Brown[-701],Demo,1,263.92,3199.00,3462.92,CreditCard,,,"3 years parts, 1 year labor (Free)","Relax 2 Zero 2.0 for Sam's,",No,,Scheduled,,"2nd Floor Delivery (Call before, GPS doesn't show)",3/21Maritza- Courtesy message sent with email but didn't go through @ 9:39AM,TX,0,8.25,USJ-9050USJ-9050BR-DEMO,3462.92,TC# 3563 8701 7426 4241 9406 11,,,,,,0.00,,,,,,,0.00,,,,,,
"Sam'a Club #8250 Mcallen, TX (2/28-3/10/2019)","Sam'a Club #8250 Mcallen, TX (2/28-3/10/2019)",Edgar Coroan,115891,3/18/2019 4:17:36 PM,Mirna Caballero,TX,12345,Ninja Leg Massager 2,New,New,1,24.75,299.98,324.73,CreditCard,,,"1 year parts, 1 year labor (Free)","Ninja Leg Massager 2,",YES,,Delivered,,,customer picked up,TX,0,8.25,USJ-880,324.73,TC# 1132 0219 0404 4615 7383 0,,,,,,0.00,,,,,,,0.00,,,,,,
"Sam'a Club #8250 Mcallen, TX (2/28-3/10/2019)","Sam'a Club #8250 Mcallen, TX (2/28-3/10/2019)",Edgar Coroan,115892,3/18/2019 4:25:39 PM,Marta Mascorro,TX,12345,Ninja Leg Massager 2,New,New,1,24.75,299.98,324.73,CreditCard,,,"2 years parts, 1 year labor for Small Items","Ninja Leg Massager 2,",YES,,Delivered,,,customer picked up,TX,0,8.25,USJ-880,324.73,TC# 0891 2405 2688 6803 9971 2,,,,,,0.00,,,,,,,0.00,,,,,,
"Sam'a Club #8250 Mcallen, TX (2/28-3/10/2019)","Sam'a Club #8250 Mcallen, TX (2/28-3/10/2019)",Edgar Coroan,115893,3/18/2019 4:38:08 PM,Gabriela Gonzales,TX,12345,Vitality Plate for Sam's,New,New,1,37.95,459.99,497.94,CreditCard,,,"2 years parts, 1 year labor for Small Items","Vitality Plate for Sam's,",YES,,Delivered,,,customer picked up,TX,0,8.25,USJ-849USJ-849,497.94,TC# 6907 3942 7513 5364 3810 7,,,,,,0.00,,,,,,,0.00,,,,,,
"Sam'a Club #8250 Mcallen, TX (2/28-3/10/2019)","Sam'a Club #8250 Mcallen, TX (2/28-3/10/2019)",Edgar Coroan,115894,3/18/2019 4:41:50 PM,Maria Rodriguez,TX,12345,Shogun Neck & Back Massger,New,New,1,16.50,199.98,216.48,CreditCard,,,"2 years parts, 1 year labor for Small Items","Shogun Neck &amp; Back Massger,",YES,,Delivered,,,customer picked up,TX,0,8.25,USJ-874USJ-874,216.48,TC# 4950 6613 3878 8791 0493 4,,,,,,0.00,,,,,,,0.00,,,,,,
"Sam'a Club #8250 Mcallen, TX (2/28-3/10/2019)","Sam'a Club #8250 Mcallen, TX (2/28-3/10/2019)",Edgar Coroan,115895,3/18/2019 4:45:02 PM,Antonia Rodriguez,TX,12345,Shogun Neck & Back Massger,New,New,1,16.50,199.98,216.48,CreditCard,,,"2 years parts, 1 year labor for Small Items","Shogun Neck &amp; Back Massger,",YES,,Delivered,,,"customer picked up, bought 3 year warranty through sam's club",TX,0,8.25,USJ-874USJ-874,216.48,TC# 4570 2693 6888 8781 8499 4,,,,,,0.00,,,,,,,0.00,,,,,,
"Sam'a Club #8250 Mcallen, TX (2/28-3/10/2019)","Sam'a Club #8250 Mcallen, TX (2/28-3/10/2019)",Edgar Coroan,115896,3/18/2019 4:47:54 PM,Keila Rivera,TX,12345,Ninja Leg Massager 2,New,New,1,24.75,299.98,324.73,CreditCard,,,"1 year parts, 1 year labor (Free)","Ninja Leg Massager 2,",YES,,Delivered,,,customer picked up,TX,0,8.25,USJ-880,324.73,TC# 4799 6861 1797 7940 3252 6,,,,,,0.00,,,,,,,0.00,,,,,,
"Sam'a Club #8250 Mcallen, TX (2/28-3/10/2019)","Sam'a Club #8250 Mcallen, TX (2/28-3/10/2019)",Edgar Coroan,115897,3/18/2019 4:52:43 PM,San Juanita Gonzales,TX,12345,Ninja Leg Massager 2,New,New,1,41.25,499.96,541.21,CreditCard,,,"2 years parts, 1 year labor for Small Items","Ninja Leg Massager 2,Shogun Neck &amp; Back Massger,",YES,,Delivered,,,customer picked up,TX,0,8.25,USJ-880,499.96,TC# 7324 9128 7020 0217 3941 3,,,,,,0.00,,,,,,,0.00,,,,,,
"Sam'a Club #8250 Mcallen, TX (2/28-3/10/2019)","Sam'a Club #8250 Mcallen, TX (2/28-3/10/2019)",Edgar Coroan,115897,3/18/2019 4:52:43 PM,San Juanita Gonzales,TX,12345,Shogun Neck & Back Massger,New,New,1,41.25,499.96,541.21,CreditCard,,,"2 years parts, 1 year labor for Small Items","Ninja Leg Massager 2,Shogun Neck &amp; Back Massger,",YES,,Delivered,,,customer picked up,TX,0,8.25,USJ-874USJ-874,499.96,TC# 7324 9128 7020 0217 3941 3,,,,,,0.00,,,,,,,0.00,,,,,,
"Sam'a Club #8250 Mcallen, TX (2/28-3/10/2019)","Sam'a Club #8250 Mcallen, TX (2/28-3/10/2019)",Edgar Coroan,115898,3/18/2019 4:55:30 PM,San Juana Mireles,TX,12345,Shogun Neck & Back Massger,New,New,1,16.50,199.98,216.48,CreditCard,,,"1 year parts, 1 year labor (Free)","Shogun Neck &amp; Back Massger,",YES,,Delivered,,,"customer picked up, customer bought 3 year warranty through sams",TX,0,8.25,USJ-874USJ-874,216.48,TC# 8558 6770 2959 9592 9433 8,,,,,,0.00,,,,,,,0.00,,,,,,
"Sam'a Club #8250 Mcallen, TX (2/28-3/10/2019)","Sam'a Club #8250 Mcallen, TX (2/28-3/10/2019)",Edgar Coroan,115899,3/18/2019 4:57:24 PM,Norma Agueda,TX,12345,Ninja Leg Massager 2,New,New,1,24.75,299.98,324.73,CreditCard,,,"1 year parts, 1 year labor (Free)","Ninja Leg Massager 2,",YES,,Delivered,,,customer picked up,TX,0,8.25,USJ-880,324.73,TC# 7716 9534 9361 3176 2408 9,,,,,,0.00,,,,,,,0.00,,,,,,
