﻿Original Event Name,Event Name,Sales Person,Order Number,Order Date,Customer Name,State,Zip,Product Name,Color,Product Status,QTY,Tax,Total Before Tax,Order Total,Primary Payment Method,Second Payment Method,Thirdl Payment Method,Warranty,Order Items,Pick up,Delivered On,Order Status,Chair Type,Order Notes,Private Note,Branch,No Tax,Actual Tax Rate,SKU,Primary Payment Balance,Primary Authorize Number,Primary Purchase Order Number,Primary Synchrony Account Number,Primary Synchrony Application Key,Primary Synchrony Account Info,Primary Synchrony Term,Second Payment Balance,Second Authorize Number,Second Purchase Order Number,Second Synchrony Account Number,Second Synchrony Application Key,Second Synchrony Account Info,Second SynchronyTerm,Third Payment Balance,Third Authorize Number,Third Purchase Order Number,Third Synchrony Account Number,Third Synchrony Application Key,Third Synchrony Account Info,Third Synchrony Term
"Sam's Club #8225 Macon, GA 12/13-23/18 (FL)","Sam's Club #8225 Macon, GA 12/13-23/18 (FL)",Alex Brackelsberg,113207,12/14/2018 10:56:47 AM,James Williams,GA,31061,Relax 2 Zero 2.0 for Sam's,Demo (Box) Brown[-701],Demo,1,223.93,3199.00,3422.93,CreditCard,,,"3 years parts, 1 year labor (Free)","Relax 2 Zero 2.0 for Sam's,",No,12/21/2018 12:00:00 AM,Delivered,New,Military discount.,1/2Maritza-Delivery confirmation received.,FL,0,7.00,USJ-9050USJ-9050BR-DEMO (Box),3422.93,5954431391502745325433,,,,,,0.00,,,,,,,0.00,,,,,,
"Sam's Club #8225 Macon, GA 12/13-23/18 (FL)","Sam's Club #8225 Macon, GA 12/13-23/18 (FL)",Alex Brackelsberg,113287,12/16/2018 5:10:50 AM,Jill Davis,GA,31005,Shogun Neck & Back Massger,Demo[-20],Demo,1,12.60,179.98,192.58,CreditCard,,,"2 years parts, 1 year labor (Free)","Shogun Neck &amp; Back Massger,",YES,,Delivered,,Customer picked up,,FL,0,7.00,USJ-874USJ-874-DEMO,0.00,96373916481341174617,,,,,,0.00,,,,,,,0.00,,,,,,
"Sam's Club #8225 Macon, GA 12/13-23/18 (FL)","Sam's Club #8225 Macon, GA 12/13-23/18 (FL)",Alex Brackelsberg,113289,12/16/2018 5:19:03 AM,John Haines,GA,31069,Legacy for Sam's,Demo Black[-700],Demo,1,251.93,3599.00,3850.93,CreditCard,,,"3 years parts, 1 year labor (Free)","Legacy for Sam's,",No,12/26/2018 12:00:00 AM,Delivered,New,,"*** Correction - S/N: 0201001180895 ***
CC Josefina - 12/19/18 2:25pm 
**DEMO (Box)** confirmed with Alex - 12/19/18 JD
Received delivery confirmation ---  1/2/2019 Asumi",FL,0,7.00,DWA-9100DWA-9100BL-DEMO,0.00,8117349865843418734157,,,,,,0.00,,,,,,,0.00,,,,,,
"Sam's Club #8225 Macon, GA 12/13-23/18 (FL)","Sam's Club #8225 Macon, GA 12/13-23/18 (FL)",Alex Brackelsberg,113290,12/16/2018 5:27:36 AM,Fredrik Jones,GA,31210,Relax 2 Zero 2.0 for Sam's,Demo Black[-701],Demo,1,223.93,3199.00,3422.93,CreditCard,,,"3 years parts, 1 year labor (Free)","Relax 2 Zero 2.0 for Sam's,",No,12/27/2018 12:00:00 AM,Delivered,New,,"Just reconfirm address please sale is for brother so I got info over phone.
1/2Maritza-Delivery confirmation received.",FL,0,7.00,USJ-9050USJ-9050BL-DEMO,0.00,5914261690572744387433,,,,,,0.00,,,,,,,0.00,,,,,,
"Sam's Club #8225 Macon, GA 12/13-23/18 (FL)","Sam's Club #8225 Macon, GA 12/13-23/18 (FL)",Alex Brackelsberg,113415,12/18/2018 7:01:12 AM,Carol Trent,SC,29016,Legacy for Sam's,Demo(Box) Black[-700],Demo,1,251.93,3599.00,3850.93,CreditCard,,,"3 years parts, 1 year labor (Free)","Legacy for Sam's,",No,12/28/2018 12:00:00 AM,Delivered,New,,"*FREE FOOT VIBE AS GIFT *  picked up at store - Alex 12/20/18
Received delivery confirmation ---  1/4/19 Asumi",FL,0,7.00,DWA-9100DWA-9100BL-Box,0.00,18722527581665810608,,,,,,0.00,,,,,,,0.00,,,,,,
"Sam's Club #8225 Macon, GA 12/13-23/18 (FL)","Sam's Club #8225 Macon, GA 12/13-23/18 (FL)",Alex Brackelsberg,113416,12/18/2018 7:05:03 AM,Mark Robinson,GA,31216,Legacy for Sam's,Demo(Box) Choco[-700],Demo,1,251.93,3599.00,3850.93,CreditCard,,,"3 years parts, 1 year labor (Free)","Legacy for Sam's,",No,12/26/2018 12:00:00 AM,Delivered,New,Deliver after 4pm,,FL,0,7.00,DWA-9100DWA-9100CH-Box,0.00,8187949043893418735157,,,,,,0.00,,,,,,,0.00,,,,,,
"Sam's Club #8225 Macon, GA 12/13-23/18 (FL)","Sam's Club #8225 Macon, GA 12/13-23/18 (FL)",Alex Brackelsberg,113486,12/19/2018 1:36:45 PM,George Barlow,GA,31088,Relax 2 Zero 2.0 for Sam's,Demo (Box) Brown[-701],Demo,1,223.93,3199.00,3422.93,CreditCard,,,"3 years parts, 1 year labor (Free)","Relax 2 Zero 2.0 for Sam's,",No,12/26/2018 12:00:00 AM,Cancelled,New,,"3/5/19 Chair picked up 
12/20/18- Courtesy call / text completed- Cristina 10:26 am
2/14Maritza- Spoke with customer. She wants to return the item. Sams told her she had to call us for a pick up.",FL,0,7.00,USJ-9050USJ-9050BR-DEMO (Box),0.00,1382102852166581062800,,,,,,0.00,,,,,,,0.00,,,,,,
"Sam's Club #8225 Macon, GA 12/13-23/18 (FL)","Sam's Club #8225 Macon, GA 12/13-23/18 (FL)",Alex Brackelsberg,113494,12/20/2018 6:51:53 AM,Jan Warnock-Moore,GA,30470,Legacy for Sam's,Demo(Box) Choco[-700],Demo,1,251.93,3599.00,3850.93,CreditCard,,,"3 years parts, 3 years labor ($400)","Legacy for Sam's,",No,1/5/2019 12:00:00 AM,Delivered,New,3 year parts and 3 year labor warranty,"12/20/18-Courtesy call / text completed- Cristina 10:24 am
Received delivery confirmation --- 1/8/19 Asumi",FL,0,7.00,DWA-9100DWA-9100CH-Box,0.00,8447839946873415755137,,,,,,0.00,,,,,,,0.00,,,,,,
"Sam's Club #8225 Macon, GA 12/13-23/18 (FL)","Sam's Club #8225 Macon, GA 12/13-23/18 (FL)",Alex Brackelsberg,113502,12/20/2018 12:57:57 PM,Bhart Patel,GA,31779,Legacy for Sam's,Demo(Box) Choco[-700],Demo,1,251.93,3599.00,3850.93,CreditCard,,,"3 years parts, 1 year labor (Free)","Legacy for Sam's,",No,1/3/2019 12:00:00 AM,Delivered,New,,Received delivery confirmation. --- 1/8/19 Asumi,FL,0,7.00,DWA-9100DWA-9100CH-Box,0.00,2370016110287190474904,,,,,,0.00,,,,,,,0.00,,,,,,
"Sam's Club #8225 Macon, GA 12/13-23/18 (FL)","Sam's Club #8225 Macon, GA 12/13-23/18 (FL)",Alex Brackelsberg,113506,12/20/2018 1:08:39 PM,Paul Harkness,GA,31050,Shogun Neck & Back Massger,Demo[-20],Demo,1,12.60,179.98,192.58,CreditCard,,,"2 years parts, 1 year labor for Small Items","Shogun Neck &amp; Back Massger,",YES,,Delivered,,Customer picked up at store,,FL,0,7.00,USJ-874USJ-874-DEMO,0.00,470086019267194473904,,,,,,0.00,,,,,,,0.00,,,,,,
"Sam's Club #8225 Macon, GA 12/13-23/18 (FL)","Sam's Club #8225 Macon, GA 12/13-23/18 (FL)",Alex Brackelsberg,113535,12/21/2018 7:17:13 AM,Susan Duffee,GA,30204,Legacy for Sam's,Demo(Box) Choco[-700],Demo,1,251.93,3599.00,3850.93,CreditCard,,,"3 years parts, 3 years labor ($400)","Legacy for Sam's,",No,1/27/2019 12:00:00 AM,Delivered,New,,"** Chair was delivered 12/27/18 Not Jan 27th**
Received delivery confirmation ---  1/2/2019 Asumi",FL,0,7.00,DWA-9100DWA-9100CH-Box,0.00,92158831869108295052,,,,,,0.00,,,,,,,0.00,,,,,,
"Sam's Club #8225 Macon, GA 12/13-23/18 (FL)","Sam's Club #8225 Macon, GA 12/13-23/18 (FL)",Alex Brackelsberg,113536,12/21/2018 7:21:06 AM,John Nesbitt,GA,31211,Shogun Neck & Back Massger,New,New,1,14.00,199.98,213.98,CreditCard,,,"2 years parts, 1 year labor for Small Items","Shogun Neck &amp; Back Massger,",YES,,Delivered,,Customer picked up at store,,FL,0,7.00,USJ-874USJ-874,0.00,143242059166580083860,,,,,,0.00,,,,,,,0.00,,,,,,
"Sam's Club #8225 Macon, GA 12/13-23/18 (FL)","Sam's Club #8225 Macon, GA 12/13-23/18 (FL)",Alex Brackelsberg,113609,12/23/2018 6:50:40 AM,Melecia Reyes,GA,31206,Shogun Neck & Back Massger,New,New,1,14.00,199.98,213.98,CreditCard,,,"2 years parts, 1 year labor for Small Items","Shogun Neck &amp; Back Massger,",YES,,Delivered,,Customer picked up at store,,FL,0,7.00,USJ-874USJ-874,0.00,984655662711600915079,,,,,,0.00,,,,,,,0.00,,,,,,
"Sam's Club #8225 Macon, GA 12/13-23/18 (FL)","Sam's Club #8225 Macon, GA 12/13-23/18 (FL)",Alex Brackelsberg,113611,12/23/2018 7:01:33 AM,Tygeress Fleming,GA,31206,Shogun Neck & Back Massger,Demo[-20],Demo,1,12.60,179.98,192.58,CreditCard,,,"2 years parts, 1 year labor for Small Items","Shogun Neck &amp; Back Massger,",YES,,Delivered,,Customer picked up at store,,FL,0,7.00,USJ-874USJ-874-DEMO,0.00,776503880901826527255,,,,,,0.00,,,,,,,0.00,,,,,,
"Sam's Club #8225 Macon, GA 12/13-23/18 (FL)","Sam's Club #8225 Macon, GA 12/13-23/18 (FL)",Alex Brackelsberg,113617,12/23/2018 12:29:45 PM,Harold Peak,GA,31088,Relax 2 Zero 2.0 for Sam's,Demo (Box) Black[-701],Demo,1,223.93,3199.00,3422.93,CreditCard,,,"3 years parts, 3 years labor ($400)","Relax 2 Zero 2.0 for Sam's,",No,1/4/2019 12:00:00 AM,Delivered,New,Deliver a free shogun back massager as a Christmas gift bonus.,"CC Josefina - 12/28/18 11:57am (address confirmed)
Received delivery confirmation --- 1/8/19 Asumi",FL,0,7.00,USJ-9050USJ-9050BL-DEMO (Box),0.00,4259368408489054696566,,,,,,0.00,,,,,,,0.00,,,,,,
