﻿Original Event Name,Event Name,Sales Person,Order Number,Order Date,Customer Name,State,Zip,Product Name,Color,Product Status,QTY,Tax,Total Before Tax,Order Total,Primary Payment Method,Second Payment Method,Thirdl Payment Method,Warranty,Order Items,Pick up,Delivered On,Order Status,Chair Type,Order Notes,Private Note,Branch,No Tax,Actual Tax Rate,SKU,Primary Payment Balance,Primary Authorize Number,Primary Purchase Order Number,Primary Synchrony Account Number,Primary Synchrony Application Key,Primary Synchrony Account Info,Primary Synchrony Term,Second Payment Balance,Second Authorize Number,Second Purchase Order Number,Second Synchrony Account Number,Second Synchrony Application Key,Second Synchrony Account Info,Second SynchronyTerm,Third Payment Balance,Third Authorize Number,Third Purchase Order Number,Third Synchrony Account Number,Third Synchrony Application Key,Third Synchrony Account Info,Third Synchrony Term
"Sam's Club #8256 KNOXVILLE,TN 11/15-25/18(FL)","Sam's Club #8256 KNOXVILLE,TN 11/15-25/18(FL)",Harmony Williams,112472,11/19/2018 10:36:53 AM,Darlene Eaves,TN,37934,Relax 2 Zero 2.0 for Sam's,Demo Black[-701],Demo,1,295.91,3199.00,3494.91,CreditCard,,,"3 years parts, 1 year labor (Free)","Relax 2 Zero 2.0 for Sam's,",YES,,New,,"TC#0361224320086571300732

Item#0102001180404","Per.Harmony , it will be picked up on Saturday 11/20/18 Hitomi",Not Dispatched,0,9.25,USJ-9050USJ-9050BL-DEMO,0.00,,,,,,,0.00,,,,,,,0.00,,,,,,
"Sam's Club #8256 KNOXVILLE,TN 11/15-25/18(FL)","Sam's Club #8256 KNOXVILLE,TN 11/15-25/18(FL)",Harmony Williams,112474,11/19/2018 10:43:14 AM,Rita Hernandez,TN,31923,Foot Vibe Pro,,New,1,10.17,109.99,120.16,CreditCard,,,"2 years parts, 1 year labor for Small Items","Foot Vibe Pro,",YES,,Delivered,,TC#476184622074579355722,,FL,0,9.25,USJ-871,0.00,,,,,,,0.00,,,,,,,0.00,,,,,,
"Sam's Club #8256 KNOXVILLE,TN 11/15-25/18(FL)","Sam's Club #8256 KNOXVILLE,TN 11/15-25/18(FL)",Harmony Williams,112476,11/19/2018 10:49:27 AM,Linda Mangene,TN,37804,Foot Vibe Pro,,New,1,10.17,109.99,120.16,CreditCard,,,"2 years parts, 1 year labor for Small Items","Foot Vibe Pro,",YES,,Delivered,,TC# 276124028086570357762,,FL,0,9.25,USJ-871,0.00,,,,,,,0.00,,,,,,,0.00,,,,,,
"Sam's Club #8256 KNOXVILLE,TN 11/15-25/18(FL)","Sam's Club #8256 KNOXVILLE,TN 11/15-25/18(FL)",Harmony Williams,112477,11/19/2018 10:59:55 AM,Michael Jonensen,TN,37923,Shogun Neck & Back Massger,New,New,1,18.50,199.98,218.48,CreditCard,,,"2 years parts, 1 year labor for Small Items","Shogun Neck &amp; Back Massger,",YES,,Delivered,,Tc#583533058910622871225,,FL,0,9.25,USJ-874USJ-874,0.00,,,,,,,0.00,,,,,,,0.00,,,,,,
"Sam's Club #8256 KNOXVILLE,TN 11/15-25/18(FL)","Sam's Club #8256 KNOXVILLE,TN 11/15-25/18(FL)",Harmony Williams,112478,11/19/2018 11:03:26 AM,Su Walls,TN,37716,Shogun Neck & Back Massger,New,New,1,18.50,199.98,218.48,CreditCard,,,"2 years parts, 1 year labor for Small Items","Shogun Neck &amp; Back Massger,",YES,,Delivered,,TC#698988266497155024556,,FL,0,9.25,USJ-874USJ-874,0.00,,,,,,,0.00,,,,,,,0.00,,,,,,
"Sam's Club #8256 KNOXVILLE,TN 11/15-25/18(FL)","Sam's Club #8256 KNOXVILLE,TN 11/15-25/18(FL)",Harmony Williams,112479,11/19/2018 11:07:06 AM,David Roberts,TN,37763,Foot Vibe Pro,,New,1,10.17,109.99,120.16,CreditCard,,,"2 years parts, 1 year labor for Small Items","Foot Vibe Pro,",YES,,Delivered,,TC#837719174845217490117,,FL,0,9.25,USJ-871,0.00,,,,,,,0.00,,,,,,,0.00,,,,,,
"Sam's Club #8256 KNOXVILLE,TN 11/15-25/18(FL)","Sam's Club #8256 KNOXVILLE,TN 11/15-25/18(FL)",Harmony Williams,112480,11/19/2018 11:10:52 AM,Peggy Brizizinski,CA,37921,Foot Vibe Pro,,New,1,10.17,109.99,120.16,CreditCard,,,"2 years parts, 1 year labor for Small Items","Foot Vibe Pro,",YES,,Delivered,,TC#420124926068575344762,,CA,0,9.25,USJ-871,0.00,,,,,,,0.00,,,,,,,0.00,,,,,,
"Sam's Club #8256 KNOXVILLE,TN 11/15-25/18(FL)","Sam's Club #8256 KNOXVILLE,TN 11/15-25/18(FL)",Harmony Williams,112499,11/19/2018 3:31:55 PM,Arsenia Tsapenno,TN,37922,Pegasus for Sam's,Demo Black[-700],Demo,1,443.82,4798.00,5241.82,CreditCard,,,"3 years parts, 1 year labor (Free)","Pegasus for Sam's,",YES,11/19/2018 12:00:00 AM,Delivered,Demo,"TC#1430206347206394198964

Chair#0501002180327","Confirmed w/Harmony it is already picked up. wait for confirmation 11/20/18 Hitomi
11/21/18 Received pickup confirmation--Hitomi",FL,0,9.25,DWA-9400Pegasus-BL-DEMO,0.00,,,,,,,0.00,,,,,,,0.00,,,,,,
