﻿Original Event Name,Event Name,Sales Person,Order Number,Order Date,Customer Name,State,Zip,Product Name,Color,Product Status,QTY,Tax,Total Before Tax,Order Total,Primary Payment Method,Second Payment Method,Thirdl Payment Method,Warranty,Order Items,Pick up,Delivered On,Order Status,Chair Type,Order Notes,Private Note,Branch,No Tax,Actual Tax Rate,SKU,Primary Payment Balance,Primary Authorize Number,Primary Purchase Order Number,Primary Synchrony Account Number,Primary Synchrony Application Key,Primary Synchrony Account Info,Primary Synchrony Term,Primary Synchrony Primary ID,Primary Synchrony Issued State,Primary Synchrony Expiretion Date,Second Payment Balance,Second Authorize Number,Second Purchase Order Number,Second Synchrony Account Number,Second Synchrony Application Key,Second Synchrony Account Info,Second SynchronyTerm,Second Synchrony Primary ID,Second Synchrony Issued State,Second Synchrony Expiretion Date,Third Payment Balance,Third Authorize Number,Third Purchase Order Number,Third Synchrony Account Number,Third Synchrony Application Key,Third Synchrony Account Info,Third Synchrony Term,Third Synchrony Primary ID,Third Synchrony Issued State,Third Synchrony Expiretion Date
"Sam's Club #8296 Springfield, MO","Sam's Club #8296 Springfield, MO (IL)",Keith Kei,118170,6/21/2019 12:19:30 AM,Dominik Stevens,MO,65803,PEGASUS 2 SMART - Sam's,New Black,New,1,539.38,6658.99,7198.37,Purchase Order,,,"3 years parts, 1 year labor (Free)","PEGASUS 2 SMART - Sam's,Vitality Plate for Sam's,",No,7/10/2019 12:00:00 AM,Delivered,New,"Please assign delivery asap, only the massage chair needs to be delivered. the vitality plate had picked up by the customer in store already.","--Original received. Erika 6/21/19 9:05am
6/24(12:47pm) Customer confirmed Delivery for 7/16 3:30pm-7:30pm.-Karen
Karen had made a schedule to customer when i had already dispatched to Texas after speaking to Mario and Billy. June will reschedule customers order Erika 6/24/19 3:37pm
Called and left voice message with customer about reschedule the delivery appointment. 5:48pm 6/24/2019 June
Printed - Tina 6/25/2019
7/8 - Alysa - Customer confirmed delivery Thurs 7/11 between 9-1PM.
Delivery conf. completed. Paid in full. Erika 7/12/19 9:52am

Received and confirmed the copy of original and the delivery confirmation. 7/16/19 Riho",TX,0,8.10,PEGS-2PEGS-2-BL,7198.37,,TC# 5640676854688375723994,,,,,,,/,0.00,,,,,,,,,/,0.00,,,,,,,,,/
"Sam's Club #8296 Springfield, MO","Sam's Club #8296 Springfield, MO (IL)",Keith Kei,118170,6/21/2019 12:19:30 AM,Dominik Stevens,MO,65803,Vitality Plate for Sam's,New,New,1,539.38,6658.99,7198.37,Purchase Order,,,"2 years parts, 1 year labor for Small Items","PEGASUS 2 SMART - Sam's,Vitality Plate for Sam's,",No,7/10/2019 12:00:00 AM,Delivered,New,"Please assign delivery asap, only the massage chair needs to be delivered. the vitality plate had picked up by the customer in store already.","--Original received. Erika 6/21/19 9:05am
6/24(12:47pm) Customer confirmed Delivery for 7/16 3:30pm-7:30pm.-Karen
Karen had made a schedule to customer when i had already dispatched to Texas after speaking to Mario and Billy. June will reschedule customers order Erika 6/24/19 3:37pm
Called and left voice message with customer about reschedule the delivery appointment. 5:48pm 6/24/2019 June
Printed - Tina 6/25/2019
7/8 - Alysa - Customer confirmed delivery Thurs 7/11 between 9-1PM.
Delivery conf. completed. Paid in full. Erika 7/12/19 9:52am

Received and confirmed the copy of original and the delivery confirmation. 7/16/19 Riho",TX,0,8.10,USJ-849USJ-849,7198.37,,TC# 5640676854688375723994,,,,,,,/,0.00,,,,,,,,,/,0.00,,,,,,,,,/
"Sam's Club #8296 Springfield, MO","Sam's Club #8296 Springfield, MO (IL)",Keith Kei,118262,6/24/2019 10:11:52 AM,Ray Valenzuela,MO,65648,PEGASUS 2 SMART - Sam's,Demo(Box) Choco[-700],Demo,1,445.42,5499.00,5944.42,Purchase Order,,,"3 years parts, 1 year labor (Free)","PEGASUS 2 SMART - Sam's,",No,7/10/2019 12:00:00 AM,Delivered,New,"2nd floor delivery
Give new chair","Main contact# 4173508301 for Theresa
Original received. Erika 6/24/19 11:41am
Printed-6/25/2019
courtesy text completed. Erika 6/25/19 2:40pm
Courtesy message sent - 6/27 - Alysa
7/8 - Alysa - Customer confirmed delivery Wed. 7/10 between 4-8PM.
delivery conf. completed. Paid in full. Erika 7/12/19 10:01am

Received and confirmed the copy of original and the delivery confirmation. 7/16/19 Riho",TX,0,8.10,PEGS-2PEGS-2-BR-DEMO(Box),5944.42,,TC# 5602032370224960635830,,,,,,,/,0.00,,,,,,,,,/,0.00,,,,,,,,,/
"Sam's Club #8296 Springfield, MO","Sam's Club #8296 Springfield, MO (IL)",Keith Kei,118263,6/24/2019 10:26:14 AM,Yaroslav P. Kataranchuk,MO,65803,PEGASUS 2 SMART - Sam's,New Choco,New,1,502.12,6199.00,6701.12,Sam’s Club Synchrony,,,"3 years parts, 1 year labor (Free)","PEGASUS 2 SMART - Sam's,Daiwa Blanket,",No,7/10/2019 12:00:00 AM,Delivered,New,"24 months zero% APR financing
Give 2 Daiwa blanket
1st floor","Original received. Erika 6/24/19 11:40am
Printed-6/25/2019 Tina
courtesy call completed. Erika 6/25/19 2:36pm
Courtesy message sent 6/27/2019 - Tina
7/8 - Alysa - Customer confirmed delivery Thurs. 7/11 between 8-11AM.
Delivery conf. completed. Paid in full. Erika 7/12/19 9:58am

Received and confirmed the copy of original and the delivery confirmation. 7/16/19 Riho

Keith requested repair@usjaclean.com to follow up this customer's repair request. 8/26/19 Riho",TX,0,8.10,PEGS-2PEGS-2-BR,6701.12,,,,,,,,,/,0.00,,,,,,,,,/,0.00,,,,,,,,,/
"Sam's Club #8296 Springfield, MO","Sam's Club #8296 Springfield, MO (IL)",Keith Kei,118265,6/24/2019 10:37:46 AM,Snappy Member# 10113562266106,MO,00000,Ninja Leg Massager 2,New,New,1,24.30,299.98,324.28,Purchase Order,,,"2 years parts, 1 year labor for Small Items","Ninja Leg Massager 2,",YES,,Delivered,,Item picked up by the customer already,,IL,0,8.10,USJ-880,324.28,,TC# 464968939877195961526,,,,,,,/,0.00,,,,,,,,,/,0.00,,,,,,,,,/
"Sam's Club #8296 Springfield, MO","Sam's Club #8296 Springfield, MO (IL)",Keith Kei,118266,6/24/2019 10:43:01 AM,Richard or K.C. Munoz,MO,65669,PEGASUS 2 SMART - Sam's,New Choco,New,1,502.12,6199.00,6701.12,Purchase Order,,,"3 years parts, 1 year labor (Free)","PEGASUS 2 SMART - Sam's,",No,7/15/2019 12:00:00 AM,Delivered,New,Please assign delivery asap,"Original received. Erika 6/24/19 11:37am
Printed-6/25/2019 Tina
courtesy call completed, Erika 6/25/19 2:33pm
Courtesy message sent 6/27/2019 - Tina
7/9 - Alysa - Customer confirmed delivery Monday 7/15 between 6-8PM.

Attached delivery confirmation to invoice, verified delivery and payment, marked as delivered, and passed complete invoice to Riho - Arisa 7/17/19 9:49am

Received and confirmed the copy of original and the delivery confirmation. 7/25/19 Riho",TX,0,8.10,PEGS-2PEGS-2-BR,6701.12,,TC# 0158297919739058574378,,,,,,,/,0.00,,,,,,,,,/,0.00,,,,,,,,,/
"Sam's Club #8296 Springfield, MO","Sam's Club #8296 Springfield, MO (IL)",Keith Kei,118311,6/26/2019 11:47:12 AM,Scott Phillips,MO,65804,PEGASUS 2 SMART - Sam's,Demo Choco[-700],Demo,1,445.42,5499.00,5944.42,Purchase Order,,,"3 years parts, 1 year labor (Free)","PEGASUS 2 SMART - Sam's,Daiwa Blanket,",No,7/16/2019 12:00:00 AM,Delivered,Demo,Give a Daiwa blanket,"Customer have vision loss issue (blind), please give extra care when delivery.
Original received. Erika 6/26/19 12:03pm
courtesy call completed. Erika 6/26/19 1:44pm
Printed - Tina 6/27/2019
Courtesy message sent 6/27/2019 - Tina
7/9/2019 - Alysa - Customer confirmed delivery Tues. 7/16 between 8-12PM.

Attached delivery confirmation to invoice, verified delivery and payment, marked as delivered, and passed complete invoice to Riho - Arisa 7/17/19 10:05am

Received and confirmed the copy of original and the delivery confirmation. 7/25/19 Riho",TX,0,8.10,PEGS-2PEGS-2-BR-DEMO,5944.42,,TC# 0959128136867196920526,,,,,,,/,0.00,,,,,,,,,/,0.00,,,,,,,,,/
"Sam's Club #8296 Springfield, MO","Sam's Club #8296 Springfield, MO (IL)",Keith Kei,118377,6/29/2019 1:42:14 PM,Paul / Gayle Waldrep,MO,65770,PEGASUS 2 SMART - Sam's,New Choco,New,1,502.12,6199.00,6701.12,Sam’s Club Synchrony,,,"3 years parts, 1 year labor (Free)","PEGASUS 2 SMART - Sam's,",No,7/10/2019 12:00:00 AM,Delivered,New,24 months zero% APR financing,"Original received, Erika 7/1/19 11:40am
courtesy text send. Erika 7/1/19 4:10pm
print by June 7/5/2019
7/8 - Alysa - Customer confirmed delivery Wed/ 7/10 between 2-5PM.
Delivery conf. completed. Paid in full. Erika 7/12/19 10:05am

Received and confirmed the copy of original and the delivery confirmation. 7/16/19 Riho",TX,0,8.10,PEGS-2PEGS-2-BR,6701.12,,,,,,,,,/,0.00,,,,,,,,,/,0.00,,,,,,,,,/
"Sam's Club #8296 Springfield, MO","Sam's Club #8296 Springfield, MO (IL)",Keith Kei,118378,6/29/2019 1:48:31 PM,Tim W Johnson,MO,65803,PEGASUS 2 SMART - Sam's,New Choco,New,1,502.12,6199.00,6701.12,Purchase Order,,,"3 years parts, 1 year labor (Free)","PEGASUS 2 SMART - Sam's,",No,7/16/2019 12:00:00 AM,Delivered,New,,"Please assign delivery asap
Original received. Erika 7/1/19 11:36am
courtesy  call completed. Erika 7/1/19 4:08pm
print by June 7/5/2019
7/9 - Alysa - Customer confirmed delivery Tuesday 7/16 between 12-4PM.

Attached delivery confirmation to invoice, verified delivery and payment, marked as delivered, and passed complete invoice to Riho - Arisa 7/17/19 9:59am

Received and confirmed the copy of original and the delivery confirmation. 7/25/19 Riho",TX,0,8.10,PEGS-2PEGS-2-BR,6701.12,,TC# 6415013249391605038235,,,,,,,/,0.00,,,,,,,,,/,0.00,,,,,,,,,/
"Sam's Club #8296 Springfield, MO","Sam's Club #8296 Springfield, MO (IL)",Keith Kei,118575,7/7/2019 9:47:30 PM,Cathy Peterson,MO,00000,Shogun Neck & Back Massger,New,New,1,16.20,199.98,216.18,Purchase Order,,,"2 years parts, 1 year labor for Small Items","Shogun Neck &amp; Back Massger,",YES,,Delivered,,,,IL,0,8.10,USJ-874USJ-874,216.18,,TC# 851877916739053574308,,,,,,,/,0.00,,,,,,,,,/,0.00,,,,,,,,,/
"Sam's Club #8296 Springfield, MO","Sam's Club #8296 Springfield, MO (IL)",Keith Kei,118576,7/7/2019 9:55:26 PM,Margaret Pollard,MO,00000,Shogun Neck & Back Massger,New,New,1,16.20,199.98,216.18,Purchase Order,,,"2 years parts, 1 year labor for Small Items","Shogun Neck &amp; Back Massger,",YES,,Delivered,,,,IL,0,8.10,USJ-874USJ-874,216.18,,TC# 300411045172824211483,,,,,,,/,0.00,,,,,,,,,/,0.00,,,,,,,,,/
"Sam's Club #8296 Springfield, MO","Sam's Club #8296 Springfield, MO (IL)",Keith Kei,118848,7/21/2019 9:21:27 PM,Erick Burton,MO,64759,PEGASUS 2 SMART - Sam's,New Choco,New,1,502.12,6199.00,6701.12,Purchase Order,,,"5 years parts, 1 year labor (Free)","PEGASUS 2 SMART - Sam's,",No,8/3/2019 12:00:00 AM,Delivered,New,Gave extra warranties. Total of 5 years parts and 1 year in home service labor.,"Extra warranties approved by Hide san.
This customer is from the Sam's Club(#8296) roadshow event during 6/20-6/30.
Original received. Erika 7/23/19 10:02am
courtesy call completed. Erika 7/23/19 1:42pm
Printed - Tina 7/23/2019
7/24 - Alysa - Customer confirmed delivery Saturday 8/3 between 6-8PM.

Verified delivery and payment, marked as delivered, and passed complete invoice to Erika - Arisa 8/6/19 9:13am

Received and Confirmed the invoice and the delivery confirmation. 8/15/19 Riho

Repair service of voice command and bluetooth function scheduled for 2-5PM, 11/3/19 - Arisa 10/29/19",TX,0,8.10,PEGS-2PEGS-2-BR,6701.12,,TC# 4296195416537419154059,,,,,,,/,0.00,,,,,,,,,/,0.00,,,,,,,,,/
"Sam's Club #8296 Springfield, MO (IL)","Sam's Club #8296 Springfield, MO (IL)",Chris Tavira,122995,12/12/2019 8:56:32 PM,Sohail Khan,MO,65804,Ninja Leg Massager 2,New,New,1,24.30,299.98,324.28,Credit Card,,,"2 years parts, 1 year labor for Small Items","Ninja Leg Massager 2,",YES,,Delivered,,Invoice # 0019101,,TX,0,8.10,USJ-880,324.28,TC # 110847147679058570328,,,,,,,,/,0.00,,,,,,,,,/,0.00,,,,,,,,,/
"Sam's Club #8296 Springfield, MO (IL)","Sam's Club #8296 Springfield, MO (IL)",Chris Tavira,122996,12/12/2019 9:02:42 PM,Andy & Ruth Ann Johnson,MO,65742,Legacy 3D - Sam's Club,Demo Choco[-500],Demo,1,348.14,4298.00,4646.14,Sam’s Club Synchrony,,,"3 years parts, 1 year labor (Free)","Legacy 3D - Sam's Club,",No,,Scheduled,,Invoice # 0019102,"-Original received-Erika 12/13/19 9:36am
12/13 - Alysa- Printed 9:45am
12/13 - Alysa - Customer confirmed delivery 7:30 - 9AM. Wednesday 12/18",TX,0,8.10,DWA-9150DWA-9150CH-DEMO,4646.14,,,,,,,,,/,0.00,,,,,,,,,/,0.00,,,,,,,,,/
"Sam's Club #8296 Springfield, MO (IL)","Sam's Club #8296 Springfield, MO (IL)",Chris Tavira,123014,12/13/2019 6:25:57 PM,Andy Anhorn,MO,65804,Shogun Neck & Back Massger,New,New,1,16.20,199.98,216.18,Credit Card,,,"2 years parts, 1 year labor (Free)","Shogun Neck &amp; Back Massger,",YES,,Delivered,,Invoice # 0019108,,TX,0,8.10,USJ-874USJ-874,216.18,TC # 017212330184967691890,,,,,,,,/,0.00,,,,,,,,,/,0.00,,,,,,,,,/
"Sam's Club #8296 Springfield, MO (IL)","Sam's Club #8296 Springfield, MO (IL)",Chris Tavira,123016,12/13/2019 6:29:21 PM,Ron Lindsey,MO,65781,Shogun Neck & Back Massger,New,New,1,16.20,199.98,216.18,Credit Card,,,"2 years parts, 1 year labor for Small Items","Shogun Neck &amp; Back Massger,",YES,,Delivered,,Invoice # 0019109,,TX,0,8.10,USJ-874USJ-874,216.18,TC # 239144214026587847752,,,,,,,,/,0.00,,,,,,,,,/,0.00,,,,,,,,,/
"Sam's Club #8296 Springfield, MO (IL)","Sam's Club #8296 Springfield, MO (IL)",Chris Tavira,123058,12/15/2019 9:50:46 AM,Valentin Chachleu,MO,65738,Ninja Leg Massager 2,New,New,1,24.30,299.98,324.28,Credit Card,,,"3 years parts, 1 year labor (Free)","Ninja Leg Massager 2,",YES,,Delivered,,Invoice # 0019103,,TX,0,8.10,USJ-880,324.28,TC # 099046405268379743904,,,,,,,,/,0.00,,,,,,,,,/,0.00,,,,,,,,,/
"Sam's Club #8296 Springfield, MO (IL)","Sam's Club #8296 Springfield, MO (IL)",Chris Tavira,123059,12/15/2019 10:00:18 AM,Bryant Robinson,MO,65706,PEGASUS 2 SMART - Sam's,New Black,New,1,542.54,6698.00,7240.54,Credit Card,,,"3 years parts, 1 year labor (Free)","PEGASUS 2 SMART - Sam's,",No,12/19/2019 12:00:00 AM,Delivered,New,Invoice # 0019116,"Original received-Erika 12/16/19
12/16 -Alysa - Printed
12/18 - Alysa - Per salesperson Chris, this customer is scheduled Thurs. 12/19 between 8-10AM.
Delivery conf completed-Erika 12/19/19 2:41pm",TX,0,8.10,PEGS-2PEGS-2-BL,7240.54,TC # 05798626477197978576,,,,,,,,/,0.00,,,,,,,,,/,0.00,,,,,,,,,/
"Sam's Club #8296 Springfield, MO (IL)","Sam's Club #8296 Springfield, MO (IL)",Chris Tavira,123060,12/15/2019 10:08:30 AM,Christine Johanning,MO,65804,Ninja Leg Massager 2,New,New,1,24.30,299.98,324.28,Credit Card,,,"2 years parts, 1 year labor for Small Items","Ninja Leg Massager 2,",YES,,Delivered,,Invoice # 0019104,,TX,0,8.10,USJ-880,324.28,TC # 564471797540823255433,,,,,,,,/,0.00,,,,,,,,,/,0.00,,,,,,,,,/
"Sam's Club #8296 Springfield, MO (IL)","Sam's Club #8296 Springfield, MO (IL)",Chris Tavira,123061,12/15/2019 10:25:57 AM,Susan Shaeffer,MO,65802,Ninja Leg Massager 2,New,New,1,24.30,299.98,324.28,Credit Card,,,"2 years parts, 1 year labor for Small Items","Ninja Leg Massager 2,",YES,,Delivered,,Invoice # 0019106,,TX,0,8.10,USJ-880,324.28,TC # 108292035176968615810,,,,,,,,/,0.00,,,,,,,,,/,0.00,,,,,,,,,/
"Sam's Club #8296 Springfield, MO (IL)","Sam's Club #8296 Springfield, MO (IL)",Chris Tavira,123062,12/15/2019 10:31:34 AM,Mark Gray,MO,65559,Shogun Neck & Back Massger,New,New,1,16.20,199.98,216.18,Credit Card,,,"2 years parts, 1 year labor for Small Items","Shogun Neck &amp; Back Massger,",YES,,Delivered,,Invoice # 0019111,,TX,0,8.10,USJ-874USJ-874,216.18,TC # 910655586793410150049,,,,,,,,/,0.00,,,,,,,,,/,0.00,,,,,,,,,/
"Sam's Club #8296 Springfield, MO (IL)","Sam's Club #8296 Springfield, MO (IL)",Chris Tavira,123082,12/15/2019 4:37:27 PM,Nickey Pearl,MO,65809,Ninja Leg Massager 2,New,New,1,24.30,299.98,324.28,Credit Card,,,"2 years parts, 1 year labor for Small Items","Ninja Leg Massager 2,",YES,,Delivered,,Invoice # 0019105,,TX,0,8.10,USJ-880,324.28,TC # 429968629409195966526,,,,,,,,/,0.00,,,,,,,,,/,0.00,,,,,,,,,/
"Sam's Club #8296 Springfield, MO (IL)","Sam's Club #8296 Springfield, MO (IL)",Chris Tavira,123083,12/15/2019 4:41:04 PM,Peter Schneider,MO,65757,Legacy 3D - Sam's Club,Demo Choco[-500],Demo,1,348.14,4298.00,4646.14,Sam’s Club Synchrony,,,"3 years parts, 1 year labor (Free)","Legacy 3D - Sam's Club,",No,,Scheduled,,Invoice # 0019215,"Original received-Erika 12/16/19
12/16 - Alysa - Printed
12/19 - Alysa - Customer confirmed delivery Sun. 12/22 between 12-3PM.",TX,0,8.10,DWA-9150DWA-9150CH-DEMO,4646.14,,,,,,,,,/,0.00,,,,,,,,,/,0.00,,,,,,,,,/
"Sam's Club #8296 Springfield, MO (IL)","Sam's Club #8296 Springfield, MO (IL)",Chris Tavira,123085,12/15/2019 4:46:37 PM,James R Hague,MO,65809,PEGASUS 2 SMART - Sam's,New Black,New,1,542.54,6698.00,7240.54,Credit Card,,,"3 years parts, 1 year labor (Free)","PEGASUS 2 SMART - Sam's,",No,,Cancelled,,Invoice # 0019114,"Original received-Erika 12/16/19
12/16 - Alysa - Printed
Pls verify address address is 4008 on invoice
12/20/2019 Customer called back and said the order was already cancelled, verified with sales as well (Chris)
I will go ahead and change the status of this order. -Tina 12/20/2019
12/20Maritza- Original has been stamped as cancelled. Will wait for Sam's rep to confirm cancellation.",TX,0,8.10,PEGS-2PEGS-2-BL,7240.54,TC # 1888547641614053595338,,,,,,,,/,0.00,,,,,,,,,/,0.00,,,,,,,,,/
"Sam's Club #8296 Springfield, MO (IL)","Sam's Club #8296 Springfield, MO (IL)",Chris Tavira,123086,12/15/2019 4:49:58 PM,Ronnie White,MO,65560,Ninja Leg Massager 2,New,New,1,24.30,299.98,324.28,Credit Card,,,"2 years parts, 1 year labor for Small Items","Ninja Leg Massager 2,",YES,,Delivered,,Invoice # 0019107,,TX,0,8.10,USJ-880,324.28,TC # 650543679991605088235,,,,,,,,/,0.00,,,,,,,,,/,0.00,,,,,,,,,/
"Sam's Club #8296 Springfield, MO (IL)","Sam's Club #8296 Springfield, MO (IL)",Chris Tavira,123088,12/15/2019 4:53:58 PM,Patrick Graham,MO,65613,Shogun Neck & Back Massger,New,New,1,16.20,199.98,216.18,Credit Card,,,"2 years parts, 1 year labor for Small Items","Shogun Neck &amp; Back Massger,",YES,,Delivered,,Invoice # 0019110,,TX,0,8.10,USJ-874USJ-874,216.18,TC # 316212636194967617830,,,,,,,,/,0.00,,,,,,,,,/,0.00,,,,,,,,,/
"Sam's Club #8296 Springfield, MO (IL)","Sam's Club #8296 Springfield, MO (IL)",Chris Tavira,123089,12/15/2019 4:56:43 PM,Ronnie White,MO,65560,Shogun Neck & Back Massger,New,New,1,16.20,199.98,216.18,Credit Card,,,"2 years parts, 1 year labor for Small Items","Shogun Neck &amp; Back Massger,",YES,,Delivered,,Invoice # 0019112,,TX,0,8.10,USJ-874USJ-874,216.18,TC # 650543679991605088235,,,,,,,,/,0.00,,,,,,,,,/,0.00,,,,,,,,,/
"Sam's Club #8296 Springfield, MO (IL)","Sam's Club #8296 Springfield, MO (IL)",Chris Tavira,123136,12/17/2019 6:05:12 PM,Eric Rust,MO,65804,PEGASUS 2 SMART - Sam's,New Black,New,1,542.54,6698.00,7240.54,Credit Card,,,"3 years parts, 1 year labor (Free)","PEGASUS 2 SMART - Sam's,",No,,Scheduled,,Invoice # 0019126,"Original received.-Erika 12/18/19 9:58am
12/18 - Alysa - Printed
12/19 - Alysa - Customer confirmed delivery Sunday 12/22 between 8-11AM.",TX,0,8.10,PEGS-2PEGS-2-BL,7240.54,TC # 8113050997362745495621,,,,,,,,/,0.00,,,,,,,,,/,0.00,,,,,,,,,/
"Sam's Club #8296 Springfield, MO (IL)","Sam's Club #8296 Springfield, MO (IL)",Chris Tavira,123161,12/19/2019 5:31:12 PM,Creekside at Elfindale,MO,65807,Orbit for Sam's ,Demo Black(Box)[-400],Demo,1,234.74,2898.00,3132.74,Credit Card,,,"3 years parts, 1 year labor (Free)","Orbit for Sam's ,",No,,Assigned,,Invoice # 0019135,"Original received-Erika 12/20/19 8:52am
Printed  - Tina 12/19/2019
Scheduled for Sunday 3-6pm 12/22/2019 -Tina 12/20/2019",TX,0,8.10,ORBT-1DORBT-1BL-BOX,3132.74,TC # 0862162957166964641880,,,,,,,,/,0.00,,,,,,,,,/,0.00,,,,,,,,,/
