﻿Date,CustomerName,State,Zipcode,Description,productNo,Color,IsDemo,Net,ShippingFee,GiftPrice,FinancingProcessingFee,Gross,Pre_tax,Tax,Commission,Primary Payment Method,Primary Payment Balance,Primary Authorize Number,Primary Purchase Order Number,Primary Synchrony Account Number,Primary Synchrony Application Key,Primary Synchrony AccountInfo,Primary SynchronyTerm,Secondly Payment Method,Secondly Payment Balance,Secondly Authorize Number,Secondly Purchase Order Number,Secondly Synchrony Account Number,Secondly Synchrony Application Key,Secondly Synchrony AccountInfo,Secondly SynchronyTerm,Thirdly Payment Method,Thirdly Payment Balance,Thirdly Authorize Number,Thirdly Purchase Order Number,Thirdly Synchrony Account Number,Thirdly Synchrony Application Key,Thirdly Synchrony AccountInfo,Thirdly SynchronyTerm,DeliveryDate,Ispickup,Warranty,Status,Event Name,Synchrony Notes,Order Notes,Order number,Private Note,Branch,IsNoTax,ActualTaxRate
1/29/2018 10:21:05 AM,Le Thi dnong,IL,60659,Legacy for Sam's,DWA-9100DWA-9100BL-DEMO,Demo Black,Demo,,,,,3958.90,3599.00,359.90,Miku Yamaguchi,CreditCard,0.00,,,,,,,,0.00,,,,,,,,0.00,,,,,,,2/1/2018 12:00:00 AM,No,"3 years parts, 1 year labor (Free)",Delivered,"Sam's Club #6444 Evanston, IL 1/25-2/4/18 (IL)",,,103365,TC#1601 9043 2265 6170 1355 41,TX,0,10.00
1/29/2018 10:33:58 AM,Pius Zacharias,IL,60053,Legacy for Sam's,DWA-9100DWA-9100BL,Black,New,,,,,3958.90,3599.00,359.90,Miku Yamaguchi,CreditCard,0.00,,,,,,,,0.00,,,,,,,,0.00,,,,,,,2/3/2018 12:00:00 AM,No,"3 years parts, 1 year labor (Free)",Delivered,"Sam's Club #6444 Evanston, IL 1/25-2/4/18 (IL)",,,103366,TC#9805 4032 5819 1721 7146 07,TX,0,10.00
1/29/2018 10:55:03 AM,Ethan Eftekhari,IL,60202,Relax2Zero 2.0 for Sam's,USJ-9050USJ-9050BR-DEMO,Demo Brown,Demo,,,,,3958.89,3598.99,359.90,Miku Yamaguchi,CreditCard,0.00,,,,,,,,0.00,,,,,,,,0.00,,,,,,,2/3/2018 12:00:00 AM,No,"3 years parts, 1 year labor (Free)",Delivered,"Sam's Club #6444 Evanston, IL 1/25-2/4/18 (IL)",,,103368,TC# 6558 3271 8995 9435 4338 34,TX,0,10.00
1/29/2018 10:55:03 AM,Ethan Eftekhari,IL,60202,Vitality Plate for Sam's,USJ-849USJ-849-DEMO,Demo,Demo,,,,,3958.89,3598.99,359.90,Miku Yamaguchi,CreditCard,0.00,,,,,,,,0.00,,,,,,,,0.00,,,,,,,2/3/2018 12:00:00 AM,No,"2 years parts, 1 year labor (Small Items)",Delivered,"Sam's Club #6444 Evanston, IL 1/25-2/4/18 (IL)",,,103368,TC# 6558 3271 8995 9435 4338 34,TX,0,10.00
1/31/2018 6:48:08 PM,Khanh Vo,IL,60645,Legacy for Sam's,DWA-9100DWA-9100CH,Choco,New,,,,,4728.90,4299.00,429.90,Miku Yamaguchi,CreditCard,0.00,,,,,,,,0.00,,,,,,,,0.00,,,,,,,,No,"3 years parts, 1 year labor (Free)",Cancelled,"Sam's Club #6444 Evanston, IL 1/25-2/4/18 (IL)",,,103410,,Not Dispatched,0,10.00
2/1/2018 8:59:57 AM,Khanh Vo,IL,60645,Legacy for Sam's,DWA-9100DWA-9100CH,Choco,New,,,,,4728.90,4299.00,429.90,Miku Yamaguchi,CreditCard,0.00,,,,,,,,0.00,,,,,,,,0.00,,,,,,,2/7/2018 12:00:00 AM,No,"3 years parts, 1 year labor (Free)",Delivered,"Sam's Club #6444 Evanston, IL 1/25-2/4/18 (IL)",,,103411,TC# 3782202718492384364983,TX,0,10.00
2/1/2018 1:17:00 PM,Yuette bullets Easley,IL,60640,Ninja Leg Massager,,,New,,,,,416.90,379.00,37.90,Miku Yamaguchi,CreditCard,0.00,,,,,,,,0.00,,,,,,,,0.00,,,,,,,,YES,"2 years parts, 1 year labor (Small Items)",Delivered,"Sam's Club #6444 Evanston, IL 1/25-2/4/18 (IL)",,,103414,Tc#0740 6682 2858 0980 7333 0,TX,0,10.00
2/4/2018 11:21:54 AM,Marvin Prak,IL,60620,Legacy for Sam's,DWA-9100DWA-9100CH,Choco,New,,,,,3958.90,3599.00,359.90,Miku Yamaguchi,CreditCard,0.00,,,,,,,,0.00,,,,,,,,0.00,,,,,,,,No,"3 years parts, 1 year labor (Free)",Cancelled,"Sam's Club #6444 Evanston, IL 1/25-2/4/18 (IL)",,,103452,,Not Dispatched,0,10.00
2/5/2018 10:22:01 AM,Long Pham,IL,60625,Ninja Leg Massager,,,New,,,,,416.90,379.00,37.90,Miku Yamaguchi,CreditCard,0.00,,,,,,,,0.00,,,,,,,,0.00,,,,,,,,YES,"2 years parts, 1 year labor (Small Items)",Delivered,"Sam's Club #6444 Evanston, IL 1/25-2/4/18 (IL)",,,103478,TC#09090814070725026011 2,TX,0,10.00
2/5/2018 10:37:37 AM,Marvin Prak,IL,60620,Legacy for Sam's,DWA-9100DWA-9100CH-DEMO,Demo Choco,Demo,,,,,3958.90,3599.00,359.90,Miku Yamaguchi,CreditCard,0.00,,,,,,,,0.00,,,,,,,,0.00,,,,,,,2/8/2018 12:00:00 AM,No,"3 years parts, 1 year labor (Free)",Delivered,"Sam's Club #6444 Evanston, IL 1/25-2/4/18 (IL)",,,103483,tc# 2770 1165 2081 8098 0713 90,TX,0,10.00
2/5/2018 12:18:42 PM,california brunch california crunch,CA,90249,Ninja Leg Massager,,,New,,,,,416.90,379.00,37.90,Miku Yamaguchi,PurchaseOrder,0.00,,,,,,,,0.00,,,,,,,,0.00,,,,,,,,YES,"2 years parts, 1 year labor (Small Items)",Delivered,"Sam's Club #6444 Evanston, IL 1/25-2/4/18 (IL)",,,103488,tc#6733 3013 1926 6444 4173 5,CA,0,10.00
2/5/2018 12:24:01 PM,Ricardo Hecante,IL,60645,Ninja Leg Massager,,,New,,,,,416.90,379.00,37.90,Miku Yamaguchi,PurchaseOrder,0.00,,,,,,,,0.00,,,,,,,,0.00,,,,,,,,No,"2 years parts, 1 year labor (Small Items)",Delivered,"Sam's Club #6444 Evanston, IL 1/25-2/4/18 (IL)",,,103491,TC: 0400 1662 7858 0960 6338 0,TX,0,10.00
