﻿Original Event Name,Event Name,Sales Person,Order Number,Order Date,Customer Name,State,Zip,Product Name,Color,Product Status,QTY,Tax,Total Before Tax,Order Total,Primary Payment Method,Second Payment Method,Thirdl Payment Method,Warranty,Order Items,Pick up,Delivered On,Order Status,Chair Type,Order Notes,Private Note,Branch,No Tax,Actual Tax Rate,SKU,Primary Payment Balance,Primary Authorize Number,Primary Purchase Order Number,Primary Synchrony Account Number,Primary Synchrony Application Key,Primary Synchrony Account Info,Primary Synchrony Term,Primary Synchrony Primary ID,Primary Synchrony Issued State,Primary Synchrony Expiretion Date,Second Payment Balance,Second Authorize Number,Second Purchase Order Number,Second Synchrony Account Number,Second Synchrony Application Key,Second Synchrony Account Info,Second SynchronyTerm,Second Synchrony Primary ID,Second Synchrony Issued State,Second Synchrony Expiretion Date,Third Payment Balance,Third Authorize Number,Third Purchase Order Number,Third Synchrony Account Number,Third Synchrony Application Key,Third Synchrony Account Info,Third Synchrony Term,Third Synchrony Primary ID,Third Synchrony Issued State,Third Synchrony Expiretion Date
IAAPA 11/19-22/19 (FL),IAAPA 11/19-22/19 (FL),Robert Shih,122593,11/20/2019 6:16:37 AM,Chris Albano,GA,30022,Cocoon,New Black,New,1,53.59,1224.41,1278.00,Credit Card,,,"2 years parts, 1 year labor (Free)","Cocoon,",No,,Delivered,New,,"Original received. $1278 verified on SQ. Per sales rep, pls drop ship-Erika 11/20/19 11:49am
11/20Printed
11/20Maritza Quoted $360 by Estes (dropship) Will leave from warehouse D tomorrow.
11/21Maritza- Picked up. $360 quote by Estes",CA,0,6.50,DWA-COCNDWA-COCN-1KU,1278.00,#fuWV,,,,,,,,/,0.00,,,,,,,,,/,0.00,,,,,,,,,/
IAAPA 11/19-22/19 (FL),IAAPA 11/19-22/19 (FL),Robert Shih,122594,11/20/2019 6:19:33 AM,Melek Khan,FL,32828,Cocoon,New Black,New,1,422.50,6500.00,6922.50,Synchrony,,,"2 years parts, 1 year labor for Small Items","PEGASUS 2 SMART,Daiwa Blanket,Cocoon,",No,11/26/2019 12:00:00 AM,Delivered,New,Synchrony 48 months / Daiwa blanket x 2 ( Gift ) / Cocoon x 1 ( Gift ),"Synchromy original verified. Credit avail $7700. Remaining bal $6922.50. Charge sync acct, have sales draft signed-Erika 11/20/19 10:11am",FL,0,6.50,DWA-COCNDWA-COCN-1KU,6922.50,,,6501723375419056,84190290,San Diego,48 months,Driver’s License,FL,01/2022,0.00,,,,,,,,,/,0.00,,,,,,,,,/
IAAPA 11/19-22/19 (FL),IAAPA 11/19-22/19 (FL),Robert Shih,122594,11/20/2019 6:19:33 AM,Melek Khan,FL,32828,PEGASUS 2 SMART,New Choco,New,1,422.50,6500.00,6922.50,Synchrony,,,"5 years parts, 1 year labor (Free)","PEGASUS 2 SMART,Daiwa Blanket,Cocoon,",No,11/26/2019 12:00:00 AM,Delivered,New,Synchrony 48 months / Daiwa blanket x 2 ( Gift ) / Cocoon x 1 ( Gift ),"Synchromy original verified. Credit avail $7700. Remaining bal $6922.50. Charge sync acct, have sales draft signed-Erika 11/20/19 10:11am",FL,0,6.50,PEGS-2PEGS-2-BR,6922.50,,,6501723375419056,84190290,San Diego,48 months,Driver’s License,FL,01/2022,0.00,,,,,,,,,/,0.00,,,,,,,,,/
IAAPA 11/19-22/19 (FL),IAAPA 11/19-22/19 (FL),Joseph Chan,122595,11/20/2019 6:21:04 AM,Cruz Vera,VA,23060,PEGASUS 2 SMART,New Black,New,1,0.00,6500.00,6500.00,Synchrony,,,"5 years parts, 1 year labor (Free)","PEGASUS 2 SMART,",No,,Called,,,"Synchrony original verified. Credit avail $7800. Remaining bal $6500. Charge sync acct, have sales draft signed-Erika 11/20/19
cc/text completed-Erika 11/20
11/22- CC; Customer informed me he would like to request delivery time between the 1st or 2nd week of January.-Karen
Redispatched to FL per Maggies RQ-Erika 12/2/19
1st Week of Jan. 12/5/19, 5:22pm-JC",FL,1,6.50,PEGS-2PEGS-2-BL,6500.00,,,6501723375418504,84172572,San Diego,48 months,Driver’s License,VA,11/2024,0.00,,,,,,,,,/,0.00,,,,,,,,,/
IAAPA 11/19-22/19 (FL),IAAPA 11/19-22/19 (FL),Ruben Cuatrona,122596,11/20/2019 6:26:48 AM,Robert Frank,CA,95476,Cocoon,New Choco,New,1,0.00,5500.00,5500.00,Credit Card,,,"2 years parts, 1 year labor (Free)","Hubble,Cocoon,",No,,Scheduled,,,"Original received. $5500 verified on SQ. Paid in full-Erika 11/20/19 9:33am
*2nd floor delivery, remove the old chair free*
11/20Printed
scheduled 11/26 1:30-4:30",CA,1,6.50,DWA-COCNDWA-COCN-1CHC,5500.00,#kUon,,,,,,,,/,0.00,,,,,,,,,/,0.00,,,,,,,,,/
IAAPA 11/19-22/19 (FL),IAAPA 11/19-22/19 (FL),Ruben Cuatrona,122596,11/20/2019 6:26:48 AM,Robert Frank,CA,95476,Hubble,New Choco,New,1,0.00,5500.00,5500.00,Credit Card,,,"5 years parts, 2 years labor ($200)","Hubble,Cocoon,",No,,Scheduled,,,"Original received. $5500 verified on SQ. Paid in full-Erika 11/20/19 9:33am
*2nd floor delivery, remove the old chair free*
11/20Printed
scheduled 11/26 1:30-4:30",CA,1,6.50,HUBL-1HUBL-1CH,5500.00,#kUon,,,,,,,,/,0.00,,,,,,,,,/,0.00,,,,,,,,,/
IAAPA 11/19-22/19 (FL),IAAPA 11/19-22/19 (FL),Robert Shih,122612,11/21/2019 6:15:47 AM,Mario Romirez,CA,92835,Relax 2 Zero 3D,Demo Black,Demo,1,0.00,3800.00,3800.00,Credit Card,,,"5 years parts, 1 year labor (Free)","Relax 2 Zero 3D,",No,,Cancelled,,Needs confirmation from customer before deliver. Balance of $3700 - C.O.D.,Received an email from Andres as a confirmation of cancellation. $100 deposit has been refunded-Erika 11/22/19 9:09am,Not Dispatched,1,6.50,DWA-9060USJ-9060BL-DEMO,100.00,#XzfC,,,,,,,,/,0.00,,,,,,,,,/,0.00,,,,,,,,,/
IAAPA 11/19-22/19 (FL),IAAPA 11/19-22/19 (FL),Robert Shih,122613,11/21/2019 6:17:43 AM,Skylar Needre,VA,23089,Cocoon,New Choco,New,1,0.00,1200.00,1200.00,Cash,,,"2 years parts, 1 year labor for Small Items","Cocoon,",No,,Called,,Customer will finalized the balance during scheduling.,"Original received. $100 cash verified by Maggie. Remaining bal $1100. COD @ delivery-Erika 11/22/19 10:17am
11/22Maritza- Spoke with Robert. He will call customer on 12/2 and see if customer would like to pay over phone or upon delivery.

12/3Maritza- Robert mentioned that customer needs to sell old chair and will call back once she has the money. We will then ship out.
12/11-Customer wants after new years delivery/called for payment options and we will confirm then on payment when scheduling-Karen
12/12 CC Customer to inform of order Would like to change color to CHOCO any day but Wednesday - Karina",IL,1,6.50,DWA-COCNDWA-COCN-1CHC,100.00,,,,,,,,,/,0.00,,,,,,,,,/,0.00,,,,,,,,,/
IAAPA 11/19-22/19 (FL),IAAPA 11/19-22/19 (FL),May Kam,122614,11/21/2019 6:22:58 AM,Ben Lacrey,GA,30144,Relax 2 Zero 3D,New Choco,New,1,0.00,4000.00,4000.00,Credit Card,COD,,"5 years parts, 1 year labor (Free)","Relax 2 Zero 3D,Tourmaline Pad for Relax2Zero 3D,",No,12/5/2019 12:00:00 AM,Scheduled,,"Please include a chair cover on delivery, balance of $3500 - C.O.D.","Original received. $500 verified on SQ. Remaining bal $3500. collect COD @ delivery-Erika 11/22/19 10:23am
CC, Jasmin Carrizales, 11/22/19, 5:06pm, VM
12/3Maritza- Will ship out Tourmaline Pad FedEx 7771 3476 6140",FL,1,6.50,DWA-9060USJ-9060BR,500.00,Wlgc,,,,,,,,/,0.00,,,,,,,,,/,0.00,,,,,,,,,/
IAAPA 11/19-22/19 (FL),IAAPA 11/19-22/19 (FL),Rodrigo Malabunga,122615,11/21/2019 6:23:10 AM,Ann Kaminski,WI,53965,PEGASUS 2 SMART,New Choco,New,1,0.00,5800.00,5800.00,Credit Card,,,"5 years parts, 2 years labor ($200)","PEGASUS 2 SMART,",No,,Scheduled,,,"Original received. $5800 verified on SQ-Erika 11/22/19 10:46am
11/22- CC; LVM-Karen
12/03 - Customer confirmed for delivery of 12/04 1P-5P - Karina",IL,1,6.50,PEGS-2PEGS-2-BR,5800.00,SQ# o6x0,,,,,,,,/,0.00,,,,,,,,,/,0.00,,,,,,,,,/
IAAPA 11/19-22/19 (FL),IAAPA 11/19-22/19 (FL),Robert Shih,122616,11/21/2019 6:27:35 AM,Joseph Champa,KY,40503,Relax 2 Zero 3D,Demo Black,Demo,1,273.00,4200.00,4473.00,Credit Card,Synchrony,,"5 years parts, 1 year labor (Free)","Relax 2 Zero 3D,",No,,Cancelled,,"Synchrony 12 months $ 3,473 / Pls confirm the shipping address with customer ( Home or Office  )","Original received, $1000 verified on SQ. Synchrony original verified. Credit avail $6800. Remaining bal $3473. Charge sync acct, have sales draft signed-Erika 11/22/19 10:56am
11/22- CC; Customer verified we are delivering to :9009 Crown Circle, Lexington, KY 40241) (HOME) . -Karen
11/29-Customer informed he didnt know about Synchrony and cancelled but approves to have it reopened he confirmed delivery for 12/10 between 5-8pm-Karen
12/3- Customer informed me he will have minor surgery and will not be able to accept delivery on scheduled date.
12/09/19- Cristina called Synchrony to see if there was a way to re-apply and save the sale,Unfortunatlly due to the customer closing out his account we were not able to, Cristina has now issued the $1k refund. -9:45 am",IL,0,6.50,DWA-9060USJ-9060BL-DEMO,1000.00,SQ# mhKz,,,,,,,,/,3473.00,,,6501723375420120,84232846,San Diego,12 months,Driver’s License,KY,03/2021,0.00,,,,,,,,,/
IAAPA 11/19-22/19 (FL),IAAPA 11/19-22/19 (FL),Joseph Chan,122617,11/21/2019 6:32:17 AM,Justin Montgomery,IL,60450,PEGASUS 2 SMART,New Black,New,1,0.00,6500.00,6500.00,Credit Card,Credit Card,,"5 years parts, 1 year labor (Free)","PEGASUS 2 SMART,",No,,Scheduled,,"Customer is building a new house, will call to update delivery address, balance of $6200 to be charged before delivery.","Original received. $300 verified on SQ.  Remaining bal $6200. Collect COD @ delivery-Erika 11/22/19 11:07am
Pls confirm the address
11/22- CC; LVM-Karen
Per Joseph customer is ready for his chair. Joseph already charged the remaining balance of $6200 on SQ. Pls contact the wife (815) 474-2800 & verify the new address-Erika 12/5/19 3:16pm
12/6- Confirmed delivery for 12/12 3:30p-6pm-Karen",IL,1,6.50,PEGS-2PEGS-2-BL,300.00,#xHBb,,,,,,,,/,6200.00,6bKj,,,,,,,,/,0.00,,,,,,,,,/
IAAPA 11/19-22/19 (FL),IAAPA 11/19-22/19 (FL),Ruben Cuatrona,122618,11/21/2019 6:37:06 AM,Dharmendra Kumar Patel,GA,31520,Hubble,New Choco,New,1,0.00,3500.00,3500.00,Synchrony,,,"5 years parts, 1 year labor (Free)","Hubble,",No,12/2/2019 12:00:00 AM,Delivered,,Synchrony 12 months,"Synchrony original verified. Credit avail $6600. Remaining bal $3500. Charge sync acct, have sales draft signed-Erika 11/22/19 3:04pm
Pls confirm the address
free blanket + tourmaline pad
12/3maritza- Tourmaline Pad 7771 3381 6267",FL,1,6.50,HUBL-1HUBL-1CH,3500.00,,,6501723320609033,,San Diego,12 months,Driver’s License,GA,11/2027,0.00,,,,,,,,,/,0.00,,,,,,,,,/
IAAPA 11/19-22/19 (FL),IAAPA 11/19-22/19 (FL),Ruben Cuatrona,122619,11/21/2019 6:39:34 AM,Chirag Patel,GA,31523,Hubble,New Choco,New,1,0.00,3500.00,3500.00,Synchrony,,,"5 years parts, 1 year labor (Free)","Hubble,",No,12/2/2019 12:00:00 AM,Delivered,,,"Synchrony original verified. Credit avail $10,500. Remaining bal $3500. charge sync acct, have sales draft signed-Erika 11/22/19 11:30am
pls give free blanket + tourmaline pad
CC, Jasmin Carrizales, 11/22/19, 5:09pm/Av. Mon-Fri. Early Mornings.",FL,1,6.50,HUBL-1HUBL-1CH,3500.00,,,6501723375086244,,Huston,12 months,Driver’s License,GA,02/2021,0.00,,,,,,,,,/,0.00,,,,,,,,,/
IAAPA 11/19-22/19 (FL),IAAPA 11/19-22/19 (FL),Robert Shih,122620,11/21/2019 6:40:47 AM,Dana Knott,TN,37043,Relax 2 Zero 3D,New Choco,New,1,0.00,4200.00,4200.00,Credit Card,,,"5 years parts, 1 year labor (Free)","Relax 2 Zero 3D,",No,,Scheduled,,2 units 2 diffient address .,"Original received. $4200 verified on SQ-Erika 11/22/19 11:40am
Please confirm customers address 
cc/text completed-Erika 11/26
Redispatched to FL per maggies RQ-Erika 12/2/19
Scheduled 12/11/19 Between 5:30pm-8:30pm JC",FL,1,6.50,DWA-9060USJ-9060BR,4200.00,SQ# 3KFa,,,,,,,,/,0.00,,,,,,,,,/,0.00,,,,,,,,,/
IAAPA 11/19-22/19 (FL),IAAPA 11/19-22/19 (FL),Ruben Cuatrona,122621,11/21/2019 6:45:21 AM,Mike Johnson,MI,59701,PEGASUS 2 SMART,New Black,New,1,0.00,5500.00,5500.00,Credit Card,,,"5 years parts, 2 years labor ($200)","PEGASUS 2 SMART,",No,,Scheduled,,,"Original received. $5500 verified on Sq-Erika 11/22/19 11:36am
11/22- CC; LVM-Karen
11/22- Upon searching customers address I noticed customers address is in Montana and not MICHIGAN, spoke to maritza on re-dispatching.-Thank You.-Karen
11/22Maritza- Looking for 3rd party quotes.
11/25Maritza- Kami might be the wife which will be receiving the chair.
Kami confirmed all information today. $977 quote.
12/12Maritza- Customer called saying chair was delivered today but airbags were not inflating. Have reached out to ALG. Called Neli to see if she can call customer to diagnose.",CA,1,6.50,PEGS-2PEGS-2-BL,5500.00,#NVSr,,,,,,,,/,0.00,,,,,,,,,/,0.00,,,,,,,,,/
IAAPA 11/19-22/19 (FL),IAAPA 11/19-22/19 (FL),Robert Shih,122622,11/21/2019 6:46:26 AM,Chase Knott,TN,37043,Relax 2 Zero 3D,New Choco,New,1,0.00,4200.00,4200.00,Credit Card,,,"5 years parts, 1 year labor (Free)","Relax 2 Zero 3D,",No,12/11/2019 12:00:00 AM,Delivered,New,2 units ( Dana & Chase ),"Original received. $4200 verified on Sq-Erika 11/22/19 3:37pm
Please confirm address
cc/text completed-Erika 11/26
redispatched to FL per Maggies RQ-Erika 12/2/19
Scheduled 12/11/19 between 4:30pm-7:30pm (ETZ) JC",FL,1,6.50,DWA-9060USJ-9060BR,4200.00,SQ# 3KFa,,,,,,,,/,0.00,,,,,,,,,/,0.00,,,,,,,,,/
IAAPA 11/19-22/19 (FL),IAAPA 11/19-22/19 (FL),May Kam,122632,11/21/2019 6:53:21 PM,Dereck Alcorn,GU,96913,Relax 2 Zero 3D,New Choco,New,1,0.00,5300.00,5300.00,Synchrony,,,5 years parts (International),"Relax 2 Zero 3D,",No,,Cancelled,,"Guam not GA, pls pay attention to shipping place .Pls arrange 
shipping from HI branch and charge finance $5500, thanks.",New order # 123115,HI,1,6.50,DWA-9060USJ-9060BR,5500.00,,,6501723375420864,84252902,Las Vegas,48 months,Driver’s License,GA,05/2024,0.00,,,,,,,,,/,0.00,,,,,,,,,/
IAAPA 11/19-22/19 (FL),IAAPA 11/19-22/19 (FL),May Kam,122633,11/21/2019 7:09:00 PM,Christina Long,KS,66109,Relax 2 Zero 3D,Demo Black,Demo,1,0.00,3900.00,3900.00,Synchrony,,,"5 years parts, 1 year labor (Free)","Relax 2 Zero 3D,Tourmaline Pad for Relax2Zero 3D,",No,,Scheduled,,"For Vendor special discount ,  manager approval ; Pls make finance $3900 purchase,thanks","Synchrony original verified. Credit avail $8500. Remaining bal $3900. Charge sync acct, have sales draft signed-Erika 11/22/19 11:54am
cc/text completed-Erika 11/26
Printed - tina 11/27/2019
Scheduled for Tues 12/3/2019 1-3Pm -Tina 11/27/2019
12/3 Alysa - Tracking number: 777133803598 for tourmaline pad",TX,1,6.50,DWA-9060USJ-9060BL-DEMO,3900.00,,,6501723375422258,84304229,Las Vegas,48 months,Driver’s License,KS,12/2021,0.00,,,,,,,,,/,0.00,,,,,,,,,/
IAAPA 11/19-22/19 (FL),IAAPA 11/19-22/19 (FL),Anderson Carvalho,122639,11/22/2019 5:52:01 AM,Jeffrey Gustin,AZ,85255,Relax 2 Zero 3D,Demo Black,Demo,1,0.00,4200.00,4200.00,Credit Card,,,"5 years parts, 1 year labor (Free)","Relax 2 Zero 3D,",No,,Scheduled,,,"Confirm office suite # during scheduling . Demo chair at expo is in excellent condition right out of the box. That is what customer is expecting his demo to be.
----Original received.  $4200 verified on Sq. Paid in full-Erika 11/22/19 11:58am
Delivery address: 7720 E redfield suite 11?
scottsdale AZ 85260 *PLEASE CONFIRM****
Gave customer a courtesy call to confirm address did not pick up. Left a voicemail. Pls make sure to confirm his delivery 
address-Erika 11/22/19
CC- Nondi 11/25 10:40am
Cristina scheduled 12/16 @ 2:30-5:30 pm",CA,1,6.50,DWA-9060USJ-9060BL-DEMO,4200.00,#f9we,,,,,,,,/,0.00,,,,,,,,,/,0.00,,,,,,,,,/
IAAPA 11/19-22/19 (FL),IAAPA 11/19-22/19 (FL),Robert Shih,122640,11/22/2019 6:36:20 AM,Ellen Wilcox,FL,33782,PEGASUS 2 SMART,Demo Black,Demo,1,0.00,5800.00,5800.00,Synchrony,,,"5 years parts, 1 year labor (Free)","PEGASUS 2 SMART,",No,12/3/2019 12:00:00 AM,Delivered,Demo,48 months 0% APR,"Synchrony original verified. Credit avail $9000. Remaining bal $5800. charge sync acct, have sales draft signed-Erika 11/22/19 12:16 pm
Scheduled 12/3/19, 10:30am-1:30pm, JC
12/4Maritza- Delivery confirmation received with sales draft",FL,1,6.50,PEGS-2PEGS-2-BL-DEMO,5800.00,,,6501723375421821,84291172,Huston,48 months,Driver’s License,FL,11/2026,0.00,,,,,,,,,/,0.00,,,,,,,,,/
IAAPA 11/19-22/19 (FL),IAAPA 11/19-22/19 (FL),Robert Shih,122641,11/22/2019 6:39:47 AM,Matt Santana,FL,32033,PEGASUS 2 SMART,New Choco,New,1,0.00,6500.00,6500.00,Synchrony,,,"5 years parts, 1 year labor (Free)","PEGASUS 2 SMART,",No,,Cancelled,,,"Customer got approved by Synchrony over phone. He will provide act. Number
Amount is incorrect total should be $5500. Confirmed it with sales rep Robert. He will need to reenter the order again and cancel this one-Erika 11/22 NEW order#122723",Not Dispatched,1,6.50,PEGS-2PEGS-2-BR,6500.00,,,,84285520,Huston,36 months,Driver’s License,FL,11/2027,0.00,,,,,,,,,/,0.00,,,,,,,,,/
IAAPA 11/19-22/19 (FL),IAAPA 11/19-22/19 (FL),May Kam,122642,11/22/2019 6:41:45 AM,Kristine Wiggins,MA,01862,PEGASUS 2 SMART,New Black,New,1,259.39,4740.61,5000.00,Credit Card,,,"5 years parts, 1 year labor (Free)","PEGASUS 2 SMART,Tourmaline Pad for Pegasus,",No,,Scheduled,,Paid in full,"Original received. $5000 verified on SQ. -Erika 11/22/19 12:32pm
11/25- CC informed customer of order received-Karen
12/3- confirmed delivery for 12/11 between 11:30am-3:30pm-Karen",IL,0,6.50,PEGS-2PEGS-2-BL,5000.00,Sq# DSTD,,,,,,,,/,0.00,,,,,,,,,/,0.00,,,,,,,,,/
IAAPA 11/19-22/19 (FL),IAAPA 11/19-22/19 (FL),Robert Shih,122643,11/22/2019 6:42:08 AM,Marcus Geer,WV,26003,Relax 2 Zero 3D,Demo Black,Demo,1,273.00,4200.00,4473.00,Synchrony,,,"5 years parts, 1 year labor (Free)","Relax 2 Zero 3D,",No,,Scheduled,,36 months .,"Synchrony original verified. Credit avail $6000. Remaining bal $4473. Charge sync acct, have sales draft signed-Erika 11/22/19 12:28pm Pls recreate the synchrony application and have customer sign it
cc/text completed-Erika 11/25/19
11/29- LVM-Karen
11/29- Customer confirmed delivery for 12/9- 2pm-6pm-Karen",IL,0,6.50,DWA-9060USJ-9060BL-DEMO,4473.00,,,6501723375421409,84280630,San Diego,36 months,Driver’s License,WV,10/2022,0.00,,,,,,,,,/,0.00,,,,,,,,,/
IAAPA 11/19-22/19 (FL),IAAPA 11/19-22/19 (FL),Anderson Carvalho,122644,11/22/2019 6:51:02 AM,Kim Whalen,MI,48734,Relax 2 Zero 3D,Demo Choco,Demo,1,0.00,4200.00,4200.00,Synchrony,,,"5 years parts, 1 year labor (Free)","Relax 2 Zero 3D,",No,,Called,,,"Missing some synchrony act numbers on form. Demo displayed at expo is in excellent condition. That is what customer is expecting his demo's condition to be in
Synchrony original verified. Credit avail $5000. Remaining bal $4200. Charge sync acct, have sales draft signed-Erika 11/22/19 5:18pm
cc/text completed-Erika 11/22
11/25- CC; LVM-Karen
11/26- CC; LVM-Karen
11/27- sent courtesy text-Karen
11/27Maritza- IL branch spoke with customer through text. Customer mentioned she first needs to return other chair and only then will she be able to move forward. Customer claims to have sent email to sales rep about this. I have messaged Anderson and waiting for him to confirm.",IL,1,6.50,DWA-9060USJ-9060BR-DEMO,4200.00,,,6501723375421573,84285063,Huston,48 months,Driver’s License,MI,10/2021,0.00,,,,,,,,,/,0.00,,,,,,,,,/
IAAPA 11/19-22/19 (FL),IAAPA 11/19-22/19 (FL),Robert Shih,122645,11/22/2019 6:53:08 AM,Preston Blackwell,FL,32792,PEGASUS 2 SMART,Demo Choco,Demo,1,228.87,4271.13,4500.00,Synchrony,,,"5 years parts, 1 year labor (Free)","PEGASUS 2 SMART,",No,11/26/2019 12:00:00 AM,Delivered,New,,"Synchrony original verified. Credit avail $6000. Remaining bal $4500. charge sync acct, have sales draft signed-Erika 11/25/19 12:22pm",FL,0,6.50,PEGS-2PEGS-2-BR-DEMO,4500.00,,,6501723375421425,84282210,Huston,48 months,Driver’s License,FL,03/2026,0.00,,,,,,,,,/,0.00,,,,,,,,,/
IAAPA 11/19-22/19 (FL),IAAPA 11/19-22/19 (FL),Robert Shih,122646,11/22/2019 6:55:18 AM,Janice Yeh,CA,91709,Cocoon,New Choco,New,1,0.00,6500.00,6500.00,Credit Card,,,2 years parts (International),"PEGASUS 2 SMART,Daiwa Blanket,Cocoon,",No,12/5/2019 12:00:00 AM,Delivered,New,"Pls ship Cocoon to different address: 

Receiver : Jacky Yeh

Location :( WTO EXPRESS ) 

20418 E. Walnut Dr. N 

Walnut , CA 91789","Pls ship Cocoon to different address: 
Receiver : Jacky Yeh
Location :( WTO EXPRESS ) 
20418 E. Walnut Dr. N Suite H
Walnut , CA 91789
--Original received. $6500 verified on Sq-Erika 11/22/19 12:38pm
11/22Printed
11/25Maritza- Customer requested delivery after DEC 2nd
scheduled 12/5 @ 11-2
12/10Maritza- Delivery confirmation received.",CA,1,6.50,DWA-COCNDWA-COCN-1CHC,6500.00,SQ# zBVs,,,,,,,,/,0.00,,,,,,,,,/,0.00,,,,,,,,,/
IAAPA 11/19-22/19 (FL),IAAPA 11/19-22/19 (FL),Robert Shih,122646,11/22/2019 6:55:18 AM,Janice Yeh,CA,91709,PEGASUS 2 SMART,New Choco,New,1,0.00,6500.00,6500.00,Credit Card,,,"5 years parts, 1 year labor (Free)","PEGASUS 2 SMART,Daiwa Blanket,Cocoon,",No,12/5/2019 12:00:00 AM,Delivered,New,"Pls ship Cocoon to different address: 

Receiver : Jacky Yeh

Location :( WTO EXPRESS ) 

20418 E. Walnut Dr. N 

Walnut , CA 91789","Pls ship Cocoon to different address: 
Receiver : Jacky Yeh
Location :( WTO EXPRESS ) 
20418 E. Walnut Dr. N Suite H
Walnut , CA 91789
--Original received. $6500 verified on Sq-Erika 11/22/19 12:38pm
11/22Printed
11/25Maritza- Customer requested delivery after DEC 2nd
scheduled 12/5 @ 11-2
12/10Maritza- Delivery confirmation received.",CA,1,6.50,PEGS-2PEGS-2-BR,6500.00,SQ# zBVs,,,,,,,,/,0.00,,,,,,,,,/,0.00,,,,,,,,,/
IAAPA 11/19-22/19 (FL),IAAPA 11/19-22/19 (FL),Ruben Cuatrona,122647,11/22/2019 7:02:49 AM,Sarjukumar Patel,GA,31523,Hubble,New Choco,New,1,0.00,3500.00,3500.00,Synchrony,,,"5 years parts, 1 year labor (Free)","Hubble,",No,12/3/2019 12:00:00 AM,Delivered,,,"12 months 0% APR
Synchrony original verified. $6000 avail of credit. Remaining bal $3500. Charge sync acct, have sales draft signed-Erika 11/22/19 5:12pm",FL,1,6.50,HUBL-1HUBL-1CH,3500.00,,,6019193809626764,,Huston,12 months,Driver’s License,GA,06/2023,0.00,,,,,,,,,/,0.00,,,,,,,,,/
IAAPA 11/19-22/19 (FL),IAAPA 11/19-22/19 (FL),Robert Shih,122650,11/22/2019 1:57:15 PM,Mona Ostrowski,NY,11230,Hubble,Demo Black,Demo,1,228.87,4271.13,4500.00,Synchrony,,,"5 years parts, 1 year labor (Free)","Hubble,",No,,Scheduled,,36 months 0% interest financing,"Synchrony original verified. credit avail $4520. remaining bal $4500. charge sync acct, have sales draft signed-Erika 11/27/19 9:20am
cc/text completed-Erika 11/27
12/02 - CC Customer to inform of Order Received LVM - KArina
12/3-Confirmed delivery for 12/9 between 9:30AM-130PM-Karen",IL,0,6.50,HUBL-1HUBL-1BL-DEMO,4500.00,,,6501723375422704,84325704,Huston,36 months,Driver’s License,NY,07/2024,0.00,,,,,,,,,/,0.00,,,,,,,,,/
IAAPA 11/19-22/19 (FL),IAAPA 11/19-22/19 (FL),May Kam,122667,11/23/2019 7:52:56 PM,Ryan Snyder,NY,12077,Relax 2 Zero 3D,Demo Choco,Demo,1,0.00,3834.00,3834.00,Synchrony,,,"5 years parts, 1 year labor (Free)","Relax 2 Zero 3D,",No,,Scheduled,,"Special discount, manager approval ; Pls make finance $3834 purchase,thanks","Synchrony original verified. Credit avail $7000. Remaining bal $3834. Charge sync acct, have sales draft signed-Erika 11/25/19 10:27am
cc/text completed-Erika 11/25
12/02 - CC Customer to inform of Order Received LVM - Karina
12/3- Confirmed delivery for 12/14 11:00AM-3:00PM-Karen",IL,1,6.50,DWA-9060USJ-9060BR-DEMO,3834.00,,,6501723375423744,84360097,Las Vegas,48 months,Driver’s License,NY,03/2027,0.00,,,,,,,,,/,0.00,,,,,,,,,/
IAAPA 11/19-22/19 (FL),IAAPA 11/19-22/19 (FL),May Kam,122668,11/23/2019 8:05:26 PM,Joseph Rossi,FL,32827,Relax 2 Zero 3D,Demo Choco,Demo,1,0.00,4207.00,4207.00,Synchrony,,,"5 years parts, 1 year labor (Free)","Relax 2 Zero 3D,",No,12/3/2019 12:00:00 AM,Delivered,Demo,"Pls charge finance $4207, thanks","Synchrony original verified. Credit avail $9500. Remaining bal $4207. Charge sync acct, have sales draft signed-Erika 11/25/19 10:07am
*lifelock might affect synchrony charge* - 11/25/19MQ
Scheduled 12/3/19, 5:30pm-8:30pm, JC
12/4Maritza- Delivery confirmation received with sales draft",FL,1,6.50,DWA-9060USJ-9060BR-DEMO,4207.00,,,6501723375426093,84424302,Las Vegas,48 months,Driver’s License,FL,02/2024,0.00,,,,,,,,,/,0.00,,,,,,,,,/
IAAPA 11/19-22/19 (FL),IAAPA 11/19-22/19 (FL),May Kam,122669,11/23/2019 8:12:57 PM,Margo Scicchitano,VA,23608,Relax 2 Zero 3D,New Black,New,1,0.00,3550.00,3550.00,Cash,COD,,"5 years parts, 1 year labor (Free)","Relax 2 Zero 3D,",No,,Cancelled,,"Special discount for one time payment, COD $3450","12/3/19 JD - Customer called to cancel, I gave her May's info and informed May, will wait for confirmation.
--Informed by Josephina that customer has decided to cancel. Fl confirmed with May to issue a refund to customer ($100 cash). Already informed Yumi-Erika 12/3/19 2:16pm
Original received. Deposit of $100 was verified & signed by Maggie Q. Remaining bal $3450. Collect COD @ delivery-Erika 11/25/19 2:14pm
Margo(wife)-757-810-7464, CC, Jasmin Carrizales, 11/29/19, 10:59am/Av. Jan 1st+After Anytime.",FL,1,6.50,DWA-9060USJ-9060BL,100.00,,,,,,,,,/,0.00,,,,,,,,,/,0.00,,,,,,,,,/
IAAPA 11/19-22/19 (FL),IAAPA 11/19-22/19 (FL),May Kam,122670,11/23/2019 8:22:13 PM,David Rodriguez Olena Morozova,FL,33009,Relax 2 Zero 3D,Demo Black,Demo,1,0.00,3500.00,3500.00,Synchrony,,,"5 years parts, 1 year labor (Free)","Relax 2 Zero 3D,",No,,Called,,"Pls make finance $3500 purchase, thanks.","Synchrony original verified. Credit avail $9000. Remaining bal $3500. Charge sync acct, have sales draft signed-Erika 11/25/19 10:50am
CC, Jasmin Carrizales, 12/5/19, 5:24pm, VM-Full",FL,1,6.50,DWA-9060USJ-9060BL-DEMO,3500.00,,,6501723375426085,84424072,Las Vegas,48 months,Driver’s License,FL,07/2025,0.00,,,,,,,,,/,0.00,,,,,,,,,/
IAAPA 11/19-22/19 (FL),IAAPA 11/19-22/19 (FL),May Kam,122671,11/23/2019 8:48:53 PM,Mr Robert Czyszczon,FL,33707,PEGASUS 2 SMART,Demo Black,Demo,2,0.00,8000.00,8000.00,Cash,,,"5 years parts, 1 year labor (Free)","PEGASUS 2 SMART,",No,12/9/2019 12:00:00 AM,Delivered,,"Special discount for one family bought two chairs in cash price ; Another address is : 5301 Gulf Blvd F 508, St Pete Beach , FL 33706","Original received. Chairs were fully paid in cash for $8000. Received & signed by Maggie Q. -Erika 11/25/19 10:41am
Second delivery address: 5301 Gulf Blvd F 508, St Pete Beach , FL 33706, Pls confirm with the customer
CC, Jasmin Carrizales, 11/29/19, 11:03am-Av.-Anytime, Change both colors to Choco.",FL,1,6.50,PEGS-2PEGS-2-BL-DEMO,8000.00,,,,,,,,,/,0.00,,,,,,,,,/,0.00,,,,,,,,,/
IAAPA 11/19-22/19 (FL),IAAPA 11/19-22/19 (FL),Ruben Cuatrona,122715,11/25/2019 4:56:14 AM,Marty Budinger,CA,93405,PEGASUS 2 SMART,New Black,New,1,289.91,5210.09,5500.00,Credit Card,,,"5 years parts, 2 years labor ($200)","PEGASUS 2 SMART,",No,,Scheduled,,,"5 year parts/ 2 year labor warranty
Original received. $5500 verified on SQ.-Erika 11/27/19 8:42am
11/27Maritza Printed
scheduled 12/11 1:30-4:30",CA,0,6.50,PEGS-2PEGS-2-BL,5500.00,Sq#YcBe,,,,,,,,/,0.00,,,,,,,,,/,0.00,,,,,,,,,/
IAAPA 11/19-22/19 (FL),IAAPA 11/19-22/19 (FL),Ruben Cuatrona,122716,11/25/2019 5:52:00 AM,Michael Gray,KY,40118,PEGASUS 2 SMART,Demo Choco,Demo,1,259.39,4740.61,5000.00,Synchrony,,,"5 years parts, 1 year labor (Free)","PEGASUS 2 SMART,",No,,Scheduled,,,"36 months 0% interest financing
Synchrony original verified. Credit avail $7500. Remaining bal $5000. charge sync acct, have sales draft signed-Erika 11/27/19 8:49am
cc/text completed-Erika 11/27
11/29-customer confirmed delivery for 12/11-3-7pm-Karen",IL,0,6.50,PEGS-2PEGS-2-BR-DEMO,5000.00,,,6501723375422514,84321705,Huston,36 months,Driver’s License,KY,03/2022,0.00,,,,,,,,,/,0.00,,,,,,,,,/
IAAPA 11/19-22/19 (FL),IAAPA 11/19-22/19 (FL),Anderson Carvalho,122717,11/25/2019 5:56:23 AM,Emmanuel Mohammed,FL,34744,Relax 2 Zero 3D,New Black,New,1,137.32,2862.68,3000.00,Credit Card,,,"5 years parts, 1 year labor (Free)","Relax 2 Zero 3D,",No,11/27/2019 12:00:00 AM,Delivered,New,,Original received. $3000 verified on SQ. -Erika 11/27/19 8:39am,FL,0,6.50,DWA-9060USJ-9060BL,3000.00,Sq# pfmL,,,,,,,,/,0.00,,,,,,,,,/,0.00,,,,,,,,,/
IAAPA 11/19-22/19 (FL),IAAPA 11/19-22/19 (FL),Anderson Carvalho,122718,11/25/2019 6:00:50 AM,Phillip Short,MO,64086,Relax 2 Zero 3D,New Black,New,1,253.29,4646.71,4900.00,Credit Card,,,"5 years parts, 1 year labor (Free)","Relax 2 Zero 3D,Daiwa Blanket,Chair Pad for Relax2Zero 3D,",No,,Scheduled,,Free chair pad & Daiwa blanket,"Original received. $4900 verified on SQ-Erika 11/27/19
cc/text completed-Erika 11/27
Printed -Tina 11/29/2019
Scheduled for Tues 3-5pm Dec 3, 2019 -Tina 11/29/2019
12/9 - Alysa - Tracking number: 777186462730 for Daiwa Blanket 11:05am",TX,0,6.50,DWA-9060USJ-9060BL,4900.00,Sq# PzF7,,,,,,,,/,0.00,,,,,,,,,/,0.00,,,,,,,,,/
IAAPA 11/19-22/19 (FL),IAAPA 11/19-22/19 (FL),Ruben Cuatrona,122719,11/25/2019 6:10:36 AM,Riley Cooke,AZ,85128,Hubble,Demo Black,Demo,1,210.56,3989.44,4200.00,Check,,,"5 years parts, 1 year labor (Free)","Hubble,",No,,Scheduled,,,"*Please advise when check has cleared
Waiting for check to clear-Erika 11/27
Original received. $4200 check has been cleared on 12/3/19 (Yumi confirmed). Paid in full-Erika 12/3/19 2:42pm
cc/text completed-Erika 12/3/19
Cristina sched 12/17 @11-2 pm (Picky Be there at 11)",CA,0,6.50,HUBL-1HUBL-1BL-DEMO,4200.00,,,,,,,,,/,0.00,,,,,,,,,/,0.00,,,,,,,,,/
IAAPA 11/19-22/19 (FL),IAAPA 11/19-22/19 (FL),Ruben Cuatrona,122720,11/25/2019 6:17:18 AM,Mike Pendergast,TX,76118,PEGASUS 2 SMART,Demo Choco,Demo,1,274.65,4225.35,4500.00,Credit Card,,,"5 years parts, 1 year labor (Free)","PEGASUS 2 SMART,",YES,11/22/2019 12:00:00 AM,Delivered,Demo,,"Picked up at IAAPA (vendor)
S#1201002190647
Original received.-$4500 verified on SQ. Chair was picked up on 11/22-Erika 11/27/19 9:08am",TX,0,6.50,PEGS-2PEGS-2-BR-DEMO,4500.00,sq# nr5z,,,,,,,,/,0.00,,,,,,,,,/,0.00,,,,,,,,,/
IAAPA 11/19-22/19 (FL),IAAPA 11/19-22/19 (FL),Ruben Cuatrona,122723,11/25/2019 10:01:04 AM,Matthew Santana,FL,32033,PEGASUS 2 SMART,New Choco,New,1,0.00,5500.00,5500.00,Synchrony,,,"5 years parts, 1 year labor (Free)","PEGASUS 2 SMART,",No,12/9/2019 12:00:00 AM,Delivered,,Synchrony 36 months.,"Synchrony original verified by customers name & phone#* Matthew Santana (904)540-1174. Credit avail $6600. Remaining bal $5500. charge sync acct, have sales draft signed Pls confirm the last four digits of sync acct #2043 with the customer Erika 11/25/19 3:26pm
Delivered 12/2/19, JC 12/9/19",FL,1,6.50,PEGS-2PEGS-2-BR,5500.00,,,6501723375422043,84285520,San Diego,36 months,Driver’s License,FL,11/2027,0.00,,,,,,,,,/,0.00,,,,,,,,,/
IAAPA 11/19-22/19 (FL),IAAPA 11/19-22/19 (FL),May Kam,123115,12/16/2019 12:12:43 PM,Dereck Alcorn,GU,96913,PEGASUS 2 SMART,New Choco,New,1,0.00,7500.00,7500.00,Synchrony,,,5 years parts (International),"PEGASUS 2 SMART,",No,,Assigned,,"Guam Customer,
Please Charge Synchrony Before Shipment is picked up",Guam initials : GU,HI,1,6.50,PEGS-2PEGS-2-BR,7500.00,,,6501723375420864,84252902,Las Vegas,48 months,Driver’s License,GA,05/2024,0.00,,,,,,,,,/,0.00,,,,,,,,,/
