﻿Date,CustomerName,State,Zipcode,Description,productNo,Color,IsDemo,Net,ShippingFee,GiftPrice,FinancingProcessingFee,Gross,Pre_tax,Tax,Commission,Primary Payment Method,Primary Payment Balance,Primary Authorize Number,Primary Purchase Order Number,Primary Synchrony Account Number,Primary Synchrony Application Key,Primary Synchrony AccountInfo,Primary SynchronyTerm,Secondly Payment Method,Secondly Payment Balance,Secondly Authorize Number,Secondly Purchase Order Number,Secondly Synchrony Account Number,Secondly Synchrony Application Key,Secondly Synchrony AccountInfo,Secondly SynchronyTerm,Thirdly Payment Method,Thirdly Payment Balance,Thirdly Authorize Number,Thirdly Purchase Order Number,Thirdly Synchrony Account Number,Thirdly Synchrony Application Key,Thirdly Synchrony AccountInfo,Thirdly SynchronyTerm,DeliveryDate,Ispickup,Warranty,Status,Event Name,Synchrony Notes,Order Notes,Order number,Private Note,Branch,IsNoTax,ActualTaxRate
3/15/2018 8:36:07 PM,Dien Truong,CA,90242,Legacy for Sam's,DWA-9100DWA-9100SB,New Sienna Brown,New,,,,,3967.90,3599.00,368.90,Patricia Whipple,CreditCard,0.00,A#023000 TC#2470036554888298675353,,,,,,,0.00,,,,,,,,0.00,,,,,,,,No,"3 years parts, 1 year labor (Free)",Called,Sam's Club Long Beach #6613 3/8- 3/17/18 (CA),,,104538,03/20/18-Cristina- Printed,CA,0,10.25
3/18/2018 2:20:28 PM,N/A N/A,CA,00000,Vitality Plate for Sam's,USJ-849USJ-849-DEMO,Demo,Demo,,,,,440.99,399.99,41.00,Patricia Whipple,CreditCard,0.00,A#001623 TC#6227089803555814920272,,,,,,,0.00,,,,,,,,0.00,,,,,,,,YES,"2 years parts, 1 year labor (Free)",Delivered,Sam's Club Long Beach #6613 3/8- 3/17/18 (CA),,,104590,,CA,0,10.25
3/18/2018 2:25:51 PM,Ryan Won,CA,90703,Legacy for Sam's,DWA-9100DWA-9100CH-DEMO,Demo Choco,Demo,,,,,3967.90,3599.00,368.90,Patricia Whipple,CreditCard,0.00,A#001623 TC#6227089803555814920272,,,,,,,0.00,,,,,,,,0.00,,,,,,,,No,"3 years parts, 1 year labor (Free)",Called,Sam's Club Long Beach #6613 3/8- 3/17/18 (CA),,,104591,03/20/18-Cristina- Printed,CA,0,10.25
3/19/2018 3:11:45 PM,N/A N/A,CA,00000,Foot Vibe Pro,USJ-871,,New,,,,,121.26,109.99,11.27,Patricia Whipple,Cash,0.00,,,,,,,,0.00,,,,,,,,0.00,,,,,,,,YES,"2 years parts, 1 year labor (Free)",Delivered,Sam's Club Long Beach #6613 3/8- 3/17/18 (CA),,,104623,TC#297212470494183288929,CA,0,10.25
3/19/2018 3:22:31 PM,Rizalina Carin,CA,90703,Legacy for Sam's,DWA-9100DWA-9100BL,New Black,New,,,,,3967.90,3599.00,368.90,Patricia Whipple,CreditCard,0.00,A#018757 TC#5224681466060540128868,,,,,,,0.00,,,,,,,,0.00,,,,,,,,No,"3 years parts, 1 year labor (Free)",Called,Sam's Club Long Beach #6613 3/8- 3/17/18 (CA),,,104624,"New
03/20/18-Cristina- Printed",CA,0,10.25
