﻿Date,CustomerName,State,Zipcode,Description,productNo,Color,IsDemo,Net,ShippingFee,GiftPrice,FinancingProcessingFee,Gross,Pre_tax,Tax,Commission,Primary Payment Method,Primary Payment Balance,Primary Authorize Number,Primary Purchase Order Number,Primary Synchrony Account Number,Primary Synchrony Application Key,Primary Synchrony AccountInfo,Primary SynchronyTerm,Secondly Payment Method,Secondly Payment Balance,Secondly Authorize Number,Secondly Purchase Order Number,Secondly Synchrony Account Number,Secondly Synchrony Application Key,Secondly Synchrony AccountInfo,Secondly SynchronyTerm,Thirdly Payment Method,Thirdly Payment Balance,Thirdly Authorize Number,Thirdly Purchase Order Number,Thirdly Synchrony Account Number,Thirdly Synchrony Application Key,Thirdly Synchrony AccountInfo,Thirdly SynchronyTerm,DeliveryDate,Ispickup,Warranty,Status,Event Name,Synchrony Notes,Order Notes,Order number,Private Note,Branch,IsNoTax,ActualTaxRate
7/12/2018 6:57:04 PM,Dale McNab,AZ,85308,Legacy for Sam's,DWA-9100DWA-9100CH,New Choco,New,,,,,4694.51,4299.00,395.51,Kohei Uno,CreditCard,4694.51,Approval# 001209,,,,,,,0.00,,,,,,,,0.00,,,,,,,,No,"3 years parts, 1 year labor (Free)",Assigned,"Sam's Club #4732 Glendale, AZ 7/12-22/18 (NV)",,,107378,"TC#1901 0348 8340 6277 0931 49
7/13Maritza Courtesy call @ 11:32AM",NV,0,9.20
7/16/2018 10:23:26 AM,Daiwa Massage,CA,90249,Foot Vibe Pro,USJ-871,,New,,,,,1015.49,929.94,85.55,Satoshi Nakajima,CreditCard,1015.49,,,,,,,,0.00,,,,,,,,0.00,,,,,,,,YES,"2 years parts, 1 year labor (Free)",Delivered,"Sam's Club #4732 Glendale, AZ 7/12-22/18 (NV)",,,107501,"TC# 611036879628493251065

TC# 676709937953714862660

TV# 221262565244083159397

TC# 227573600391529995734",CA,0,9.20
7/16/2018 10:23:26 AM,Daiwa Massage,CA,90249,Vitality Plate for Sam's,USJ-849USJ-849,New,New,,,,,1015.49,929.94,85.55,Satoshi Nakajima,CreditCard,1015.49,,,,,,,,0.00,,,,,,,,0.00,,,,,,,,YES,"2 years parts, 1 year labor for Small Items",Delivered,"Sam's Club #4732 Glendale, AZ 7/12-22/18 (NV)",,,107501,"TC# 611036879628493251065

TC# 676709937953714862660

TV# 221262565244083159397

TC# 227573600391529995734",CA,0,9.20
7/16/2018 10:23:26 AM,Daiwa Massage,CA,90249,Shogun Neck & Back Massger,USJ-874USJ-874-DEMO,Demo,Demo,,,,,1015.49,929.94,85.55,Satoshi Nakajima,CreditCard,1015.49,,,,,,,,0.00,,,,,,,,0.00,,,,,,,,YES,"2 years parts, 1 year labor for Small Items",Delivered,"Sam's Club #4732 Glendale, AZ 7/12-22/18 (NV)",,,107501,"TC# 611036879628493251065

TC# 676709937953714862660

TV# 221262565244083159397

TC# 227573600391529995734",CA,0,9.20
7/17/2018 10:09:58 AM,Lloyd Cadle,CA,90249,Shogun Neck & Back Massger,USJ-874USJ-874,New,New,,,,,218.38,199.98,18.40,Satoshi Nakajima,CreditCard,0.00,,,,,,,,0.00,,,,,,,,0.00,,,,,,,,YES,"2 years parts, 1 year labor for Small Items",Delivered,"Sam's Club #4732 Glendale, AZ 7/12-22/18 (NV)",,,107543,TC# 912605219543900797892,CA,0,9.20
7/17/2018 11:16:10 AM,Todd Garrett,AZ,85374,Legacy for Sam's,DWA-9100DWA-9100BL,New Black,New,,,,,4694.51,4299.00,395.51,Satoshi Nakajima,CreditCard,4694.51,Appt # 341096,,,,,,,0.00,,,,,,,,0.00,,,,,,,,No,"3 years parts, 1 year labor (Free)",Assigned,"Sam's Club #4732 Glendale, AZ 7/12-22/18 (NV)",,,107545,"TC# 3942862363294082153337
7/18Maritza Courtesy call at 9:48AM",NV,0,9.20
7/17/2018 11:16:10 AM,Todd Garrett,AZ,85374,Daiwa Blanket,,,New,,,,,4694.51,4299.00,395.51,Satoshi Nakajima,CreditCard,4694.51,Appt # 341096,,,,,,,0.00,,,,,,,,0.00,,,,,,,,No,no warranty,Assigned,"Sam's Club #4732 Glendale, AZ 7/12-22/18 (NV)",,,107545,"TC# 3942862363294082153337
7/18Maritza Courtesy call at 9:48AM",NV,0,9.20
7/20/2018 7:56:53 PM,Daiwa Massage,CA,90249,Shogun Neck & Back Massger,USJ-874USJ-874-DEMO,Demo,Demo,,,,,196.54,179.98,16.56,Satoshi Nakajima,CreditCard,196.54,Appr# 688499,,,,,,,0.00,,,,,,,,0.00,,,,,,,,YES,"2 years parts, 1 year labor for Small Items",Delivered,"Sam's Club #4732 Glendale, AZ 7/12-22/18 (NV)",,,107647,TC# 808998376637652404213,CA,0,9.20
7/21/2018 11:09:22 AM,Khanh Mai,AZ,85303,Relax 2 Zero 2.0 for Sam's,USJ-9050USJ-9050BL-DEMO (Box),Demo (Box) Black,Demo,,,,,3494.40,3200.00,294.40,Satoshi Nakajima,CreditCard,3493.31,Approval # 021619,,,,,,,0.00,,,,,,,,0.00,,,,,,,,No,"3 years parts, 1 year labor (Free)",New,"Sam's Club #4732 Glendale, AZ 7/12-22/18 (NV)",,1 Blanket free,107657,TC# 9765503710531523996794,NV,0,9.20
7/21/2018 11:09:22 AM,Khanh Mai,AZ,85303,Daiwa Blanket,,,New,,,,,3494.40,3200.00,294.40,Satoshi Nakajima,CreditCard,3493.31,Approval # 021619,,,,,,,0.00,,,,,,,,0.00,,,,,,,,No,no warranty,New,"Sam's Club #4732 Glendale, AZ 7/12-22/18 (NV)",,1 Blanket free,107657,TC# 9765503710531523996794,NV,0,9.20
7/21/2018 1:56:12 PM,Daiwa Massage,CA,90249,Foot Vibe Pro,USJ-871,,New,,,,,436.76,399.96,36.80,Satoshi Nakajima,CreditCard,436.76,Appr # 978462 Appr # 099486,,,,,,,0.00,,,,,,,,0.00,,,,,,,,YES,"2 years parts, 1 year labor for Small Items",Delivered,"Sam's Club #4732 Glendale, AZ 7/12-22/18 (NV)",,"TC# 785563412561523947784
TC# 816998071627652406213",107658,,CA,0,9.20
7/21/2018 1:56:12 PM,Daiwa Massage,CA,90249,Shogun Neck & Back Massger,USJ-874USJ-874-DEMO,Demo,Demo,,,,,436.76,399.96,36.80,Satoshi Nakajima,CreditCard,436.76,Appr # 978462 Appr # 099486,,,,,,,0.00,,,,,,,,0.00,,,,,,,,YES,"2 years parts, 1 year labor for Small Items",Delivered,"Sam's Club #4732 Glendale, AZ 7/12-22/18 (NV)",,"TC# 785563412561523947784
TC# 816998071627652406213",107658,,CA,0,9.20
7/22/2018 8:19:50 AM,Daiwa Massage,CA,90249,Shogun Neck & Back Massger,USJ-874USJ-874,New,New,,,,,218.38,199.98,18.40,Satoshi Nakajima,CreditCard,218.38,Appr# 765826,,,,,,,0.00,,,,,,,,0.00,,,,,,,,YES,"2 years parts, 1 year labor for Small Items",Delivered,"Sam's Club #4732 Glendale, AZ 7/12-22/18 (NV)",,,107694,TC# 828827192875835672441,CA,0,9.20
7/22/2018 3:11:44 PM,Julie Zieler,AZ,85381,Legacy for Sam's,DWA-9100DWA-9100BL-Box,Demo(Box) Black,Demo,,,,,3930.11,3599.00,331.11,Satoshi Nakajima,CreditCard,3930.11,Appr# 150850,,,,,,,0.00,,,,,,,,0.00,,,,,,,,No,"3 years parts, 1 year labor (Free)",New,"Sam's Club #4732 Glendale, AZ 7/12-22/18 (NV)",,,107723,TC# 7176775532983905756832,NV,0,9.20
