﻿Original Event Name,Event Name,Sales Person,Order Number,Order Date,Customer Name,State,Zip,Product Name,Color,Product Status,QTY,Tax,Total Before Tax,Order Total,Primary Payment Method,Second Payment Method,Thirdl Payment Method,Warranty,Order Items,Pick up,Delivered On,Order Status,Order Notes,Private Note,Branch,No Tax,Actual Tax Rate,SKU,Primary Payment Balance,Primary Authorize Number,Primary Purchase Order Number,Primary Synchrony Account Number,Primary Synchrony Application Key,Primary Synchrony Account Info,Primary Synchrony Term,Second Payment Balance,Second Authorize Number,Second Purchase Order Number,Second Synchrony Account Number,Second Synchrony Application Key,Second Synchrony Account Info,Second SynchronyTerm,Third Payment Balance,Third Authorize Number,Third Purchase Order Number,Third Synchrony Account Number,Third Synchrony Application Key,Third Synchrony Account Info,Third Synchrony Term,First Name,Last Name,Email,Shipping Company,Shipping Address1,Shipping Address2,Shipping Suite,Shipping City,Shipping State,Shipping Zip,Shipping Country,Shipping Phone
Dema Show 11/1-4/17 (FL),Dema Show 11/1-4/17 (FL),Rodrigo Malabunga,101688,11/4/2017 7:35:50 AM,Araya Braulio C/O Manuel Antonio,FL,33166,Legacy 3D,Choco Brown,New,1,186.16,3614.00,3800.16,,,,"3 years parts, 1 year labor (Free)","Legacy 3D,",No,11/13/2017 12:00:00 AM,Delivered,,"WELLS FARGO CLEARED BY ALICIA 11.6.17
11/10-  Maggie: CA will ship to customer",CA,,,DWA-9150USJ-9150CH,3800.00,594087,,,,,,,,,,,,,,,,,,,,Araya,Braulio C/O Manuel Antonio,defaultmail@daiwamassage.com,Catamaran Adventure CR 64436,4634 NW 74th Ave,,,Miami,FL,33166,United States,50688565017
Dema Show 11/1-4/17 (FL),Dema Show 11/1-4/17 (FL),Ting Ritchie,101689,11/4/2017 7:44:14 AM,Ron Aiello,GA,30549,Legacy 3D,Demo Choco Brown,Demo,1,191.75,3700.00,3891.75,Synchrony,,,"3 years parts, 1 year labor (Free)","Legacy 3D,",No,11/29/2017 12:00:00 AM,Delivered,Demo Serial Number: 0202002170270,"Total $3900, 36 months finance
SYNCHRONY CLEARED, PLEASE CHARGE BEFORE DELIVERY - 11/06/17 STEPHANY
AUTH # 030784 - MQ",FL,,,DWA-9150USJ-9150CH-DEMO,3900.00,,,6034610081607486,80502841,San Diego,36 months,0.00,,,,,,,0.00,,,,,,,Ron,Aiello,defaultmail@daiwamassage.com,,217 Shoreline Dr,,,Jefferson,GA,30549,United States,7063805805
Dema Show 11/1-4/17 (FL),Dema Show 11/1-4/17 (FL),Jonathan Bhowani,101690,11/4/2017 7:45:11 AM,Keith Fetzner,FL,33572,Relax2Zero 3D,Demo Black,Demo,1,155.63,3144.37,3300.00,CreditCard,,,"3 years parts, 1 year labor (Free)","Relax2Zero 3D,",No,11/9/2017 12:00:00 AM,Delivered,"Paid in full through square
serial #0103001170119",CLEARED SQUARE - 11/6/17 STEPHANY,FL,,,DWA-9060USJ-9060BL-DEMO,3300.00,square receipt #2gFc,,,,,,0.00,,,,,,,0.00,,,,,,,Keith,Fetzner,defaultmail@daiwamassage.com,,615 Islebay,,,Apollo Beach,FL,33572,United States,2483791367
Dema Show 11/1-4/17 (FL),Dema Show 11/1-4/17 (FL),Rodrigo Malabunga,101691,11/4/2017 7:53:24 AM,Maurice Squires,TX,76543,Relax2Zero 3D,Black,New,1,180.05,3519.95,3700.00,,,,"3 years parts, 1 year labor (Free)","Relax2Zero 3D,",No,,Cancelled,,"WELLS FARGO CLEARED BY ALICIA 11.6.17-
CANCELLED PER JON, NEEDED TO CHANGE THE CHAIR MODEL. (11/7-DANA)",TX,,,DWA-9060USJ-9060BL,3700.00,99018Z,,,,,,,,,,,,,,,,,,,,Maurice,Squires,defaultmail@daiwamassage.com,,2602 Lain Drive,,,Killeen,TX,76543,United States,2546818669
Dema Show 11/1-4/17 (FL),Dema Show 11/1-4/17 (FL),Rodrigo Malabunga,101692,11/4/2017 8:04:45 AM,Michael Bonincontri,TX,78414,Legacy 3D,Choco Brown,New,1,180.05,3519.95,3700.00,,,,"3 years parts, 1 year labor (Free)","Legacy 3D,",No,11/15/2017 12:00:00 AM,Delivered,,WELLS FARGO CLEARED BY ALICIA 11.6.17,TX,,,DWA-9150USJ-9150CH,3700.00,06551D,,,,,,,,,,,,,,,,,,,,Michael,Bonincontri,defaultmail@daiwamassage.com,,7322 clement drive,,,Corpus Christi,TX,78414,United States,2544589509
Dema Show 11/1-4/17 (FL),Dema Show 11/1-4/17 (FL),Jonathan Bhowani,101696,11/4/2017 12:23:49 PM,Tanya Brooks,WA,98226,Relax2Zero 3D,Choco Brown,New,1,198.36,3801.64,4000.00,CreditCard,,,"3 years parts, 1 year labor (Free)","Relax2Zero 3D,Tourmaline Pad for Relax2Zero 3D,",No,11/13/2017 12:00:00 AM,Delivered,Include tourmaline pad,"Paid in full through square.
CLEARED SQUARE - 11/6/17 STEPHANY",WA,,,DWA-9060USJ-9060BR,4000.00,Square receipt #1pVV,,,,,,0.00,,,,,,,0.00,,,,,,,Tanya,Brooks,defaultmail@daiwamassage.com,,1313 north shore drive,,,Bellingham,WA,98226,United States,3609613469
Dema Show 11/1-4/17 (FL),Dema Show 11/1-4/17 (FL),Rodrigo Malabunga,101742,11/7/2017 5:22:22 AM,Maurice Squires,TX,76543,Legacy 3D,Black,New,1,180.05,3519.95,3700.00,,,,"3 years parts, 1 year labor (Free)","Legacy 3D,",No,12/14/2017 12:00:00 AM,Delivered,Paid in full through CC machine,"WELLS FARGO CLEARED 11.7.17 BY ALICIA
unreachable 11/30/2017
CORRECT PHONE NUMBER (254) 681-8669",TX,,,DWA-9150USJ-9150BL,3700.00,99018Z,,,,,,,,,,,,,,,,,,,,Maurice,Squires,defaultmail@daiwamassage.com,,2602 lain drive,,,Killeen,TX,76543,United States,2546816889
