﻿Original Event Name,Event Name,Sales Person,Order Number,Order Date,Customer Name,State,Zip,Product Name,Color,Product Status,QTY,Tax,Total Before Tax,Order Total,Primary Payment Method,Second Payment Method,Thirdl Payment Method,Warranty,Order Items,Pick up,Delivered On,Order Status,Chair Type,Order Notes,Private Note,Branch,No Tax,Actual Tax Rate,SKU,Primary Payment Balance,Primary Authorize Number,Primary Purchase Order Number,Primary Synchrony Account Number,Primary Synchrony Application Key,Primary Synchrony Account Info,Primary Synchrony Term,Primary Synchrony Primary ID,Primary Synchrony Issued State,Primary Synchrony Expiretion Date,Second Payment Balance,Second Authorize Number,Second Purchase Order Number,Second Synchrony Account Number,Second Synchrony Application Key,Second Synchrony Account Info,Second SynchronyTerm,Second Synchrony Primary ID,Second Synchrony Issued State,Second Synchrony Expiretion Date,Third Payment Balance,Third Authorize Number,Third Purchase Order Number,Third Synchrony Account Number,Third Synchrony Application Key,Third Synchrony Account Info,Third Synchrony Term,Third Synchrony Primary ID,Third Synchrony Issued State,Third Synchrony Expiretion Date
"Sam's Club #6510 Mankato, MN","Sam's Club #6510 Mankato, MN",Noni Ignacio,117882,6/9/2019 6:23:06 PM,Francis DelMundo,MN,56097,Legacy 3D - Sam's Club,Demo(Box) Choco[-700],Demo,1,314.92,3999.00,4313.92,Purchase Order,,,"3 years parts, 3 years labor ($400)","Legacy 3D - Sam's Club,",No,7/3/2019 12:00:00 AM,Delivered,New,,"Original received, Erika 6/10/19 10:40am
No Voicemail left; VM full; Attempted Courtesy call- Cristina 06/11/19 3:52 pm
6/21: CC (3PM) scheduled for July 3 (2:30-6:30PM) - Emily

Attached delivery confirmation to invoice, verified delivery and payment, marked as delivered, and passed complete invoice to Riho - Arisa 7/8/19 2:45pm

Received and confirmed the copy of invoice and the delivery confirmation.  The warranty agreement on the original is hidden by the slip: receipt from Sam's Club. 7/15/19 Riho",IL,0,7.88,DWA-9150DWA-9150CH-Box,0.00,,TC# 2429-7883-1581-4794-8931-40,,,,,,,,0.00,,,,,,,,,,0.00,,,,,,,,,
"Sam's Club #6510 Mankato, MN","Sam's Club #6510 Mankato, MN",Noni Ignacio,117883,6/9/2019 6:34:35 PM,Dennis Wolff,MN,56093,PEGASUS 2 SMART - Sam's,Demo(Box) Choco[-700],Demo,1,433.05,5499.00,5932.05,Purchase Order,,,"3 years parts, 3 years labor ($400)","PEGASUS 2 SMART - Sam's,",No,7/3/2019 12:00:00 AM,Delivered,New,"Please deliver NEW CHAIR 
Please deliver ASAP if possible.","--Original received. Erika 6/10/19 10:47am
Courtesy call completed- Cristina 06/11/19 at 3:54 pm
6/21: CC scheduled for July 3 12:30-4:30 - Emily (3PM)

Attached delivery confirmation to invoice, verified delivery and payment, marked as delivered, and passed complete invoice to Riho - Arisa 7/8/19 2:43pm

Received and confirmed the copy of invoice and the delivery confirmation.  The warranty agreement on the original is hidden by the slip: receipt from Sam's Club. 7/15/19 Riho",IL,0,7.88,PEGS-2PEGS-2-BR-DEMO(Box),0.00,,TC# 4327-5890-2192-8534-9502-74,,,,,,,,0.00,,,,,,,,,,0.00,,,,,,,,,
"Sam's Club #6510 Mankato, MN","Sam's Club #6510 Mankato, MN",Noni Ignacio,117885,6/9/2019 6:43:51 PM,Carl Polson,IA,50511,PEGASUS 2 SMART - Sam's,Demo(Box) Choco[-700],Demo,1,433.05,5499.00,5932.05,Purchase Order,,,"3 years parts, 3 years labor ($400)","PEGASUS 2 SMART - Sam's,",No,7/16/2019 12:00:00 AM,Delivered,New,,"Original received. Erika 10:05am 6/10/19
Courtesy call completed- 06/11/19 3:58 pm
6/21: CC (3:30PM) informed me he will be out of town until July 8 - Emily
6/26: (2:30) CC left vm and text - Emily
6/26: (2:35) called back and scheduled for delivery July 15 3:30-7:30 - Emily
Delivery conf. completed. Paid in full. Erika 7/19/19 3:21pm

Received & Confirmed the invoice and the delivery confirmation. The customer's signature on the invoice is covered by the Sam's Receipt, so I couldn't see entire signature. 8/7/19 Riho",IL,0,7.88,PEGS-2PEGS-2-BR-DEMO(Box),0.00,,TC# 3861-6042-5847-0683-4675-23,,,,,,,,0.00,,,,,,,,,,0.00,,,,,,,,,
"Sam's Club #6510 Mankato, MN","Sam's Club #6510 Mankato, MN",Noni Ignacio,117987,6/13/2019 7:29:05 AM,Kathleen Brix,MN,56001,Orbit for Sam's ,New Black,New,1,236.09,2998.00,3234.09,Sam’s Club Synchrony,,,"3 years parts, 3 years labor ($400)","Orbit for Sam's ,",No,7/5/2019 12:00:00 AM,Delivered,New,"Sam’s Club Synchrony 24 months. 
2 weeks delivery or earlier","Member#10190100467653028
---Original received. Erika 6/13/19 9:21am
6/17: CC Left VM & Text (1:51PM) - Emily
6/18:Customer confirmed 7/5 5:30p-8pm-Emily

Attached delivery confirmation to invoice, verified delivery and payment, marked as delivered and passed complete invoice to Riho - 7/8/19 12:23pm

Received and confirmed the copy of original and the delivery confirmation. Warranty agreement on the invoice is hidden by the Sam's receipt. 7/15/19 Riho",IL,0,7.88,ORBT-1ORBT-1BL,0.00,,,,,,,,,,0.00,,,,,,,,,,0.00,,,,,,,,,
"Sam's Club #6510 Mankato, MN","Sam's Club #6510 Mankato, MN",Noni Ignacio,118091,6/16/2019 7:09:37 PM,Shyamal Roy,MN,56001,Legacy for Sam's,Demo Black[-700],Demo,1,283.42,3599.00,3882.42,Purchase Order,,,"3 years parts, 3 years labor ($400)","Legacy for Sam's,",No,,Cancelled,,"Please deliver NEW CHAIR 
2 to 3 weeks delivery or earlier.","Sales rep made a mistake. should be Demo (box) disregard this order
new order#118104",Not Dispatched,0,7.88,DWA-9100DWA-9100BL-DEMO,0.00,,TC# 9225-4237-6899-9109-3766-58,,,,,,,,0.00,,,,,,,,,,0.00,,,,,,,,,
"Sam's Club #6510 Mankato, MN","Sam's Club #6510 Mankato, MN",Noni Ignacio,118092,6/16/2019 7:17:17 PM,Brent Busch,MN,56003,PEGASUS 2 SMART - Sam's,Demo(Box) Choco[-700],Demo,1,433.05,5499.00,5932.05,Purchase Order,,,"3 years parts, 3 years labor ($400)","PEGASUS 2 SMART - Sam's,",No,6/28/2019 12:00:00 AM,Delivered,New,"Please deliver NEW CHAIR 
2 to 3 weeks delivery or earlier.","Original received. Erika 6/17/19 11:28am
courtesy call completed. Erika  6/17/19 5:11pm
CC- Left VM @ 6/18 9:48am-Karen
6/24- CC (advised customer we would call back on WEDNESDAY; currently scheduling)-Karen
6/25: Customer called saying the delivery was taking too long and would cancel. I spoke with customer about talking with Sales Rep.) I made changes to an upcoming delivery schedule to satisfy customer into keeping order.-Karen
6/26: Customer confirmed delivery 6/28- 8am-12pm.-Karen

Received and confirmed the copy of original and the delivery confirmation. 7/9/19 Riho",IL,0,7.88,PEGS-2PEGS-2-BR-DEMO(Box),0.00,,TC# 3811-9045-5340-0685-4655-23,,,,,,,,0.00,,,,,,,,,,0.00,,,,,,,,,
"Sam's Club #6510 Mankato, MN","Sam's Club #6510 Mankato, MN",Noni Ignacio,118104,6/17/2019 11:15:01 AM,Shyamal K. Roy,MN,56001,Legacy for Sam's,Demo(Box) Black[-700],Demo,1,283.42,3599.00,3882.42,Purchase Order,,,"3 years parts, 3 years labor ($400)","Legacy for Sam's,",No,7/10/2019 12:00:00 AM,Delivered,New,,"Original received. Erika 6/17/19 11;16am
Please disregard old order#118091
New order# 118104
Courtesy call completed. Erika 6/17/19 5:07pm
CC completed -Karen 6/18 9:50am
6/26- Customer confirmed delivery for 7/10 12:30pm-4:30pm.-Karen (4:00P)

Attached delivery confirmation to invoice, verified delivery and payment, marked as delivered, and passed complete invoice to Riho - Arisa 7/11/19 4:45pm

Received and confirmed the copy of original and the delivery confirmation. 7/16/19 Riho",IL,0,7.88,DWA-9100DWA-9100BL-Box,3882.43,,TC#9225423768399109376658,,,,,,,,0.00,,,,,,,,,,0.00,,,,,,,,,
"Sam's Club #6510 Mankato, MN","Sam's Club #6510 Mankato, MN",Michael Cuatrona,122273,11/4/2019 3:40:50 PM,George Horazdovsky,MN,56017,Legacy 4 for Sam's,Demo Black,Demo,1,354.22,4498.00,4852.22,Purchase Order,,,"3 years parts, 3 years labor ($400)","Legacy 4 for Sam's,",No,,Called,,"[MC upgrade] - as per Michael, adjust the warrant to reflect 3 years of labor at no extra cost. ***send a brand new unit*** -- please balance the order","Order date: nov. 02 -- 3 years parts and 3 years labor
Original received.-Erika 11/5/19 5:11pm
cc/text completed-Erika 11/5
11/06 - CC Customer to inform of ordered received - Karina",IL,0,7.88,LGCY-4LGCY-4BL-DEMO,4829.73,,6177 2793 5487 6538 9022 34,,,,,,,/,0.00,,,,,,,,,/,0.00,,,,,,,,,/
