﻿Order Number,Order Date,Original Event Name,Event Name,Salesperson,SKU,Product Name,Color,QTY,Warranty,Payment Details,Tax,Order Total,Gross,Primary Payment Method,Primary Payment Balance,Primary Authorize Number,Primary Purchase Order Number,Primary Synchrony Account Number,Primary Synchrony Application Key,Primary Synchrony AccountInfo,Primary SynchronyTerm,Secondly Payment Method,Secondly Payment Balance,Secondly Authorize Number,Secondly Purchase Order Number,Secondly Synchrony Account Number,Secondly Synchrony Application Key,Secondly Synchrony AccountInfo,Secondly SynchronyTerm,Thirdly Payment Method,Thirdly Payment Balance,Thirdly Authorize Number,Thirdly Purchase Order Number,Thirdly Synchrony Account Number,Thirdly Synchrony Application Key,Thirdly Synchrony AccountInfo,Thirdly SynchronyTerm,Actual Shipping Cost,CustomerName,Shipping Address,Delivered On,Serial Number (TO Be),Note,Branch,IsNoTax,ActualTaxRate
107958,7/30/2018 4:32:17 AM,"Sam's Club #6678 Pittsburgh, PA 7/19-29/18 (IL)","Sam's Club #6678 Pittsburgh, PA 7/19-29/18 (IL)",Michael Cuatrona,USJ-9050USJ-9050BL,Relax 2 Zero 2.0 for Sam's,New Black,1,"3 years parts, 1 year labor (Free)",CUSTOM ,223.93,3422.93,3422.93,PurchaseOrder,3422.93,,9785 8530 1058 1229 4046 56,,,,,,0.00,,,,,,,,0.00,,,,,,,0.00,James Rhodes,4125260582,,,"[Ovrd MC] - as per Michael, fulfill the demo order with a brand new unit (apply the demo discount) - contact michael for questions about this order",TX,0,7.00
107959,7/30/2018 4:39:13 AM,"Sam's Club #6678 Pittsburgh, PA 7/19-29/18 (IL)","Sam's Club #6678 Pittsburgh, PA 7/19-29/18 (IL)",Michael Cuatrona,USJ-9050USJ-9050BL,Relax 2 Zero 2.0 for Sam's,New Black,1,"3 years parts, 1 year labor (Free)",CUSTOM ,223.93,3422.93,3422.93,PurchaseOrder,3422.93,,3563 6102 2111 3663 8467 17,,,,,,0.00,,,,,,,,0.00,,,,,,,0.00,Robert Lazor,4123704311,,,"[MKTNG MC] - as per Michael, fulfill the demo order with a brand new unit (the demo code will still apply)",TX,0,7.00
107960,7/30/2018 6:08:03 AM,Sam's Club #4861 St Petersburg  7/25-8/5/18 (FL),Sam's Club #4861 St Petersburg  7/25-8/5/18 (FL),Hiroko Hudson,USJ-871,Foot Vibe Pro,,1,"2 years parts, 1 year labor for Small Items",CUSTOM ,7.70,117.69,117.69,PurchaseOrder,0.00,,729877571875735007413,,,,,,0.00,,,,,,,,0.00,,,,,,,0.00,Robert Feldman,7279184703,,,,FL,0,7.00
107961,7/30/2018 6:12:03 AM,Sam's Club #4861 St Petersburg  7/25-8/5/18 (FL),Sam's Club #4861 St Petersburg  7/25-8/5/18 (FL),Hiroko Hudson,USJ-849NEW,Hands Free Bike,New,1,"2 years parts, 1 year labor for Small Items",CUSTOM ,21.00,320.99,320.99,PurchaseOrder,0.00,,096124749248477584167,,,,,,0.00,,,,,,,,0.00,,,,,,,0.00,Michelle Wright,6037385439,,,,FL,0,7.00
107962,7/30/2018 6:29:18 AM,"Sam's Club #6460 Grand Island, NE 7/26-8/5/2018 (TX)","Sam's Club #6460 Grand Island, NE 7/26-8/5/2018 (TX)",David Wallace,DWA-9400Pegasus-BR-BOX,Pegasus for Sam's,Demo Choco(Box),1,"3 years parts, 1 year labor (Free)",CUSTOM ,335.86,5133.86,5133.86,CreditCard,0.00,Tc#7174691407305142874889,,,,,,,0.00,,,,,,,,0.00,,,,,,,0.00,Kazuko Kunz,3089401159,8/2/2018 12:00:00 AM,,,TX,0,7.00
107963,7/30/2018 6:35:09 AM,"Sam's Club #6460 Grand Island, NE 7/26-8/5/2018 (TX)","Sam's Club #6460 Grand Island, NE 7/26-8/5/2018 (TX)",David Wallace,USJ-874USJ-874,Shogun Neck & Back Massger,New,1,"2 years parts, 1 year labor (Free)",CUSTOM ,12.60,192.58,192.58,CreditCard,0.00,Tc# 485827598819737054084,,,,,,,0.00,,,,,,,,0.00,,,,,,,0.00,Ouphayvanh Boutmahavong,3082276039,,,,TX,0,7.00
107964,7/30/2018 6:36:47 AM,"Sam's Club #6460 Grand Island, NE 7/26-8/5/2018 (TX)","Sam's Club #6460 Grand Island, NE 7/26-8/5/2018 (TX)",David Wallace,USJ-871,Foot Vibe Pro,,1,"2 years parts, 1 year labor (Free)",CUSTOM ,7.70,117.69,117.69,CreditCard,0.00,Tc# 485827598819737054084,,,,,,,0.00,,,,,,,,0.00,,,,,,,0.00,Ouphayvanh Boutmahavong,3082276039,,,,TX,0,7.00
107965,7/30/2018 6:43:31 AM,"Sam's Club #6460 Grand Island, NE 7/26-8/5/2018 (TX)","Sam's Club #6460 Grand Island, NE 7/26-8/5/2018 (TX)",David Wallace,USJ-874USJ-874,Shogun Neck & Back Massger,New,1,"2 years parts, 1 year labor (Free)",CUSTOM ,12.60,192.58,192.58,CreditCard,0.00,Tc# 1343 6052 6192 0667 2072 5,,,,,,,0.00,,,,,,,,0.00,,,,,,,0.00,DiAna Leininger,3089914345,,,,TX,0,7.00
107966,7/30/2018 6:51:25 AM,"Sam's Club #6460 Grand Island, NE 7/26-8/5/2018 (TX)","Sam's Club #6460 Grand Island, NE 7/26-8/5/2018 (TX)",David Wallace,USJ-874USJ-874,Shogun Neck & Back Massger,New,1,"2 years parts, 1 year labor (Free)",CUSTOM ,12.60,192.58,192.58,CreditCard,0.00,Tc# 146212347094286960913,,,,,,,0.00,,,,,,,,0.00,,,,,,,0.00,Aaron Heres,4027051070,,,,TX,0,7.00
107967,7/30/2018 7:00:36 AM,"Sam's Club #6460 Grand Island, NE 7/26-8/5/2018 (TX)","Sam's Club #6460 Grand Island, NE 7/26-8/5/2018 (TX)",David Wallace,USJ-871,Foot Vibe Pro,,1,"2 years parts, 1 year labor (Free)",CUSTOM ,7.70,117.69,117.69,CreditCard,0.00,Tc# 286222745094286990973,,,,,,,0.00,,,,,,,,0.00,,,,,,,0.00,Ana Juarez,3083801145,,,,TX,0,7.00
107968,7/30/2018 7:07:10 AM,"Sam's Club #6460 Grand Island, NE 7/26-8/5/2018 (TX)","Sam's Club #6460 Grand Island, NE 7/26-8/5/2018 (TX)",David Wallace,USJ-871,Foot Vibe Pro,,1,"2 years parts, 1 year labor (Free)",CUSTOM ,7.70,117.69,117.69,CreditCard,0.00,Tc# 528330421172068761705,,,,,,,0.00,,,,,,,,0.00,,,,,,,0.00,Denis Stritt,3086959064,,,,TX,0,7.00
107969,7/30/2018 7:33:52 AM,CA MID-STATE FAIR 7/18-29/18 PASO ROBLES(CA),CA MID-STATE FAIR 7/18-29/18 PASO ROBLES(CA),Joseph Chan,DWA-9150USJ-9150BL,Legacy 3D,New Black,1,"3 years parts, 1 year labor (Free)",CUSTOM CreditCard,0.00,4500.00,4500.00,CreditCard,1800.00,#o32b,,,,,,CreditCard,2000.00,#eBdj,,,,,,CreditCard,700.00,#zPSR,,,,,,0.00,Eric Vigic,505-306-1969,8/7/2018 12:00:00 AM,,,CA,1,7.75
107970,7/30/2018 8:18:31 AM,"Sam's Club #6678 Pittsburgh, PA 7/19-29/18 (IL)","Sam's Club #6678 Pittsburgh, PA 7/19-29/18 (IL)",Michael Cuatrona,DWA-9100DWA-9100BL,Legacy for Sam's,New Black,1,"3 years parts, 3 years labor ($400)",CUSTOM ,300.93,4599.93,4599.93,PurchaseOrder,4599.93,,9884 0016 1530 9441 6288 48,,,,,,0.00,,,,,,,,0.00,,,,,,,0.00,Andrei Didycz,4123647274,,,"[MKTNG UPG MC] - as per Michael, add 2 years warranty at no extra cost ** 3 years parts, 3 years labor ** (apply code) - free delivery applies",TX,0,7.00
107971,7/30/2018 8:21:29 AM,"Sam's Club #6582 Bluffton(HILTON HEAD ISLAND), SC 7/26-8/5/18 (FL)","Sam's Club #6582 Bluffton(HILTON HEAD ISLAND), SC 7/26-8/5/18 (FL)",Michael Wang,USJ-9050USJ-9050BE,Relax 2 Zero 2.0 for Sam's,New Beige,1,"3 years parts, 1 year labor (Free)",CUSTOM ,191.94,3390.94,3390.94,CreditCard,3390.94,Tc# 6648757170826834353092,,,,,,,0.00,,,,,,,,0.00,,,,,,,0.00,Mildred Bell,8435403086,,,,FL,0,6.00
107971,7/30/2018 8:21:29 AM,"Sam's Club #6582 Bluffton(HILTON HEAD ISLAND), SC 7/26-8/5/18 (FL)","Sam's Club #6582 Bluffton(HILTON HEAD ISLAND), SC 7/26-8/5/18 (FL)",Michael Wang,,Daiwa Blanket,,1,no warranty,CUSTOM ,191.94,3390.94,3390.94,CreditCard,3390.94,Tc# 6648757170826834353092,,,,,,,0.00,,,,,,,,0.00,,,,,,,0.00,Mildred Bell,8435403086,,,,FL,0,6.00
107971,7/30/2018 8:21:29 AM,"Sam's Club #6582 Bluffton(HILTON HEAD ISLAND), SC 7/26-8/5/18 (FL)","Sam's Club #6582 Bluffton(HILTON HEAD ISLAND), SC 7/26-8/5/18 (FL)",Michael Wang,,Chair Pad for Relax2Zero 2.0,,1,no warranty,CUSTOM ,191.94,3390.94,3390.94,CreditCard,3390.94,Tc# 6648757170826834353092,,,,,,,0.00,,,,,,,,0.00,,,,,,,0.00,Mildred Bell,8435403086,,,,FL,0,6.00
107972,7/30/2018 8:28:30 AM,"Sam's Club #6582 Bluffton(HILTON HEAD ISLAND), SC 7/26-8/5/18 (FL)","Sam's Club #6582 Bluffton(HILTON HEAD ISLAND), SC 7/26-8/5/18 (FL)",Michael Wang,DWA-9100DWA-9100SB,Legacy for Sam's,New Sienna Brown,1,"3 years parts, 1 year labor (Free)",CUSTOM ,215.94,3814.94,3814.94,CreditCard,3814.94,Tc# 2960 8661 6848 7490 9753 01,,,,,,,0.00,,,,,,,,0.00,,,,,,,0.00,Dolores Dimona,8437077089,,,,FL,0,6.00
107972,7/30/2018 8:28:30 AM,"Sam's Club #6582 Bluffton(HILTON HEAD ISLAND), SC 7/26-8/5/18 (FL)","Sam's Club #6582 Bluffton(HILTON HEAD ISLAND), SC 7/26-8/5/18 (FL)",Michael Wang,,Daiwa Blanket,,1,no warranty,CUSTOM ,215.94,3814.94,3814.94,CreditCard,3814.94,Tc# 2960 8661 6848 7490 9753 01,,,,,,,0.00,,,,,,,,0.00,,,,,,,0.00,Dolores Dimona,8437077089,,,,FL,0,6.00
107972,7/30/2018 8:28:30 AM,"Sam's Club #6582 Bluffton(HILTON HEAD ISLAND), SC 7/26-8/5/18 (FL)","Sam's Club #6582 Bluffton(HILTON HEAD ISLAND), SC 7/26-8/5/18 (FL)",Michael Wang,,Chair Pad for Legacy,,1,no warranty,CUSTOM ,215.94,3814.94,3814.94,CreditCard,3814.94,Tc# 2960 8661 6848 7490 9753 01,,,,,,,0.00,,,,,,,,0.00,,,,,,,0.00,Dolores Dimona,8437077089,,,,FL,0,6.00
107973,7/30/2018 9:03:07 AM,"Sam's Club #6582 Bluffton(HILTON HEAD ISLAND), SC 7/26-8/5/18 (FL)","Sam's Club #6582 Bluffton(HILTON HEAD ISLAND), SC 7/26-8/5/18 (FL)",Michael Wang,DWA-9100DWA-9100BL,Legacy for Sam's,New Black,1,"3 years parts, 1 year labor (Free)",CUSTOM ,215.94,3814.94,3814.94,CreditCard,3814.94,Tc# 6398 9776 7485 5834 3500 42,,,,,,,0.00,,,,,,,,0.00,,,,,,,0.00,Harvinder Kohli,8436817355,,,,FL,0,6.00
107973,7/30/2018 9:03:07 AM,"Sam's Club #6582 Bluffton(HILTON HEAD ISLAND), SC 7/26-8/5/18 (FL)","Sam's Club #6582 Bluffton(HILTON HEAD ISLAND), SC 7/26-8/5/18 (FL)",Michael Wang,,Daiwa Blanket,,1,no warranty,CUSTOM ,215.94,3814.94,3814.94,CreditCard,3814.94,Tc# 6398 9776 7485 5834 3500 42,,,,,,,0.00,,,,,,,,0.00,,,,,,,0.00,Harvinder Kohli,8436817355,,,,FL,0,6.00
107973,7/30/2018 9:03:07 AM,"Sam's Club #6582 Bluffton(HILTON HEAD ISLAND), SC 7/26-8/5/18 (FL)","Sam's Club #6582 Bluffton(HILTON HEAD ISLAND), SC 7/26-8/5/18 (FL)",Michael Wang,,Chair Pad for Legacy,,1,no warranty,CUSTOM ,215.94,3814.94,3814.94,CreditCard,3814.94,Tc# 6398 9776 7485 5834 3500 42,,,,,,,0.00,,,,,,,,0.00,,,,,,,0.00,Harvinder Kohli,8436817355,,,,FL,0,6.00
107974,7/30/2018 9:04:28 AM,"Sam's Club #6678 Pittsburgh, PA 7/19-29/18 (IL)","Sam's Club #6678 Pittsburgh, PA 7/19-29/18 (IL)",Michael Cuatrona,USJ-9050USJ-9050BL,Relax 2 Zero 2.0 for Sam's,New Black,1,"3 years parts, 3 years labor ($400)",CUSTOM ,273.00,4173.00,4173.00,PurchaseOrder,4173.00,,0690 8568 6244 2998 5893 23,,,,,,0.00,,,,,,,,0.00,,,,,,,0.00,Stephen Freeman,8325209100,,,"[UPG MC] - as per Michael, please upgrade the service warranty for 2 more years for a total of 3 years parts, 3 years labor at no extra cost (apply code) **free delivery applies",TX,0,7.00
107975,7/30/2018 9:18:17 AM,"Sam's Club #6678 Pittsburgh, PA 7/19-29/18 (IL)","Sam's Club #6678 Pittsburgh, PA 7/19-29/18 (IL)",Michael Cuatrona,DWA-9100DWA-9100CH,Legacy for Sam's,New Choco,1,"3 years parts, 1 year labor (Free)",CUSTOM ,251.93,3850.93,3850.93,PurchaseOrder,3850.93,,8137 5694 9877 8118 0112 12,,,,,,0.00,,,,,,,,0.00,,,,,,,0.00,Daniel Cotter,4123982547,,,"[MKTNG UPG MC] - as per Michael, please fulfill the demo order with a new unit (apply demo code)",TX,0,7.00
107976,7/30/2018 9:18:31 AM,ASD 7/29-8/1/18 LAS VEGAS (NV),ASD 7/29-8/1/18 LAS VEGAS (NV),Rolly San Jose,USJ-9050USJ-9050BR,Relax2Zero 2.0,New Brown,1,"3 years parts, 1 year labor (Free)",CUSTOM ,0.00,4113.00,4113.00,CreditCard,4113.00,00946G,,,,,,,0.00,,,,,,,,0.00,,,,,,,0.00,Talib Jaber,5617228565,,,,FL,1,8.25
107977,7/30/2018 9:33:58 AM,"Sam's Club #6582 Bluffton(HILTON HEAD ISLAND), SC 7/26-8/5/18 (FL)","Sam's Club #6582 Bluffton(HILTON HEAD ISLAND), SC 7/26-8/5/18 (FL)",Michael Wang,USJ-874USJ-874,Shogun Neck & Back Massger,New,1,"2 years parts, 1 year labor for Small Items",CUSTOM ,12.00,211.98,211.98,CreditCard,211.98,Tc# 7057 9999 5753 7111 3029 4,,,,,,,0.00,,,,,,,,0.00,,,,,,,0.00,Daiwa Massage,3105382298,,,,CA,0,6.00
107978,7/30/2018 9:37:36 AM,Health and Wellness Carrollton Store 2017 (TX),Health and Wellness Carrollton Store 2017 (TX),Phuoc Van,DWA-9060USJ-9060BL-DEMO,Relax2Zero 3D,Demo Black,1,"3 years parts, 1 year labor (Free)",CUSTOM ,0.00,4000.00,4000.00,CreditCard,4000.00,Sqaure gQ1H,,,,,,,0.00,,,,,,,,0.00,,,,,,,0.00,Troy Witte,4172939582,,,,TX,1,8.25
107979,7/30/2018 9:38:26 AM,"Sam's Club #6582 Bluffton(HILTON HEAD ISLAND), SC 7/26-8/5/18 (FL)","Sam's Club #6582 Bluffton(HILTON HEAD ISLAND), SC 7/26-8/5/18 (FL)",Michael Wang,USJ-871,Foot Vibe Pro,,1,"2 years parts, 1 year labor for Small Items",CUSTOM ,17.40,307.37,307.37,CreditCard,307.37,Tc# 2580 8656 8467 4959 2135 1,,,,,,,0.00,,,,,,,,0.00,,,,,,,0.00,Daiwa Massage,3105382298,,,,CA,0,6.00
107979,7/30/2018 9:38:26 AM,"Sam's Club #6582 Bluffton(HILTON HEAD ISLAND), SC 7/26-8/5/18 (FL)","Sam's Club #6582 Bluffton(HILTON HEAD ISLAND), SC 7/26-8/5/18 (FL)",Michael Wang,USJ-874USJ-874-DEMO,Shogun Neck & Back Massger,Demo,1,"2 years parts, 1 year labor for Small Items",CUSTOM ,17.40,307.37,307.37,CreditCard,307.37,Tc# 2580 8656 8467 4959 2135 1,,,,,,,0.00,,,,,,,,0.00,,,,,,,0.00,Daiwa Massage,3105382298,,,,CA,0,6.00
107980,7/30/2018 9:42:54 AM,ASD 7/29-8/1/18 LAS VEGAS (NV),ASD 7/29-8/1/18 LAS VEGAS (NV),Kohei Uno,DWA-9150USJ-9150CH-DEMO,Legacy 3D,Demo Choco,1,"3 years parts, 1 year labor (Free)",CUSTOM ,0.00,4900.00,4900.00,Synchrony,4900.00,,,6019170813057020,92271836,Las Vegas,24 months,,0.00,,,,,,,,0.00,,,,,,,0.00,Azucena Pogue,314-766-1581,,,,TX,1,8.25
107981,7/30/2018 9:43:58 AM,"Sam's Club #8202 Savannah, GA 7/26-8/5/18 (FL)","Sam's Club #8202 Savannah, GA 7/26-8/5/18 (FL)",Michael Rowe,DWA-9100DWA-9100CH-Box,Legacy for Sam's,Demo(Box) Choco,1,"3 years parts, 1 year labor (Free)",CUSTOM ,0.00,3599.00,3599.00,PurchaseOrder,0.00,,TC#5254001117380348009473,,,,,,0.00,,,,,,,,0.00,,,,,,,0.00,Jai Maruti,9126258524,,,,FL,1,7.00
107982,7/30/2018 9:49:24 AM,"Sam's Club #6582 Bluffton(HILTON HEAD ISLAND), SC 7/26-8/5/18 (FL)","Sam's Club #6582 Bluffton(HILTON HEAD ISLAND), SC 7/26-8/5/18 (FL)",Michael Wang,USJ-871,Foot Vibe Pro,,1,"2 years parts, 1 year labor for Small Items",CUSTOM CreditCard,18.60,328.57,328.57,CreditCard,116.59,Tc# 8079 8808 7679 6595 0311 0,,,,,,CreditCard,211.98,Tc# 1723 0090 2124 1666 4870 9,,,,,,,0.00,,,,,,,0.00,Herman Gutierrez,8435406569,,,Please ship customer 1 shogun.Estimated time of arrival to customer’s house should be around 10 business days.,FL,0,6.00
107982,7/30/2018 9:49:24 AM,"Sam's Club #6582 Bluffton(HILTON HEAD ISLAND), SC 7/26-8/5/18 (FL)","Sam's Club #6582 Bluffton(HILTON HEAD ISLAND), SC 7/26-8/5/18 (FL)",Michael Wang,USJ-874USJ-874,Shogun Neck & Back Massger,New,1,"2 years parts, 1 year labor for Small Items",CUSTOM CreditCard,18.60,328.57,328.57,CreditCard,116.59,Tc# 8079 8808 7679 6595 0311 0,,,,,,CreditCard,211.98,Tc# 1723 0090 2124 1666 4870 9,,,,,,,0.00,,,,,,,0.00,Herman Gutierrez,8435406569,,,Please ship customer 1 shogun.Estimated time of arrival to customer’s house should be around 10 business days.,FL,0,6.00
107983,7/30/2018 9:56:24 AM,ASD 7/29-8/1/18 LAS VEGAS (NV),ASD 7/29-8/1/18 LAS VEGAS (NV),Kohei Uno,DWA-9150USJ-9150BL,Legacy 3D,New Black,1,3 Years Parts (International),CUSTOM ,0.00,4200.00,4200.00,CreditCard,4200.00,Square# uQGm,,,,,,,0.00,,,,,,,,0.00,,,,,,,0.00,Emy Marzuca,305-631-0686,8/3/2018 12:00:00 AM,,Please add 1 additional year of parts warranty to make a total of 4 years parts international warranty.,FL,1,8.25
107984,7/30/2018 9:57:01 AM,"Sam's Club #8202 Savannah, GA 7/26-8/5/18 (FL)","Sam's Club #8202 Savannah, GA 7/26-8/5/18 (FL)",Michael Rowe,DWA-9100DWA-9100CH-DEMO,Legacy for Sam's,Demo Choco,1,"3 years parts, 1 year labor (Free)",CUSTOM ,251.93,3850.93,3850.93,PurchaseOrder,0.00,,TC#6398237096866836953398,,,,,,0.00,,,,,,,,0.00,,,,,,,0.00,Jennifer Tony Jarrell,8039420363,,,,FL,0,7.00
107985,7/30/2018 12:09:43 PM,Sam's Club #4861 St Petersburg  7/25-8/5/18 (FL),Sam's Club #4861 St Petersburg  7/25-8/5/18 (FL),Hiroko Hudson,DWA-9100DWA-9100BL-Box,Legacy for Sam's,Demo(Box) Black,1,"3 years parts, 1 year labor (Free)",CUSTOM ,251.93,3850.93,3850.93,PurchaseOrder,0.00,,0321484147276476563187,,,,,,0.00,,,,,,,,0.00,,,,,,,0.00,Allan Berggrein,4072308909,,,,FL,0,7.00
107986,7/30/2018 6:30:15 PM,"Sam's Club #8210 Burleson, TX 7/26-8/5/2018 (TX)","Sam's Club #8210 Burleson, TX 7/26-8/5/2018 (TX)",Tina Tran,USJ-874USJ-874,Shogun Neck & Back Massger,New,1,"2 years parts, 1 year labor (Free)",CUSTOM ,16.50,216.48,216.48,CreditCard,216.48,TC# 9835 0303 9561 1223 9521 5,,,,,,,0.00,,,,,,,,0.00,,,,,,,0.00,Maria Garcia,682-459-5833,,,Customer picked up in store.,TX,0,8.25
107987,7/30/2018 6:35:12 PM,"Sam's Club #8210 Burleson, TX 7/26-8/5/2018 (TX)","Sam's Club #8210 Burleson, TX 7/26-8/5/2018 (TX)",Tina Tran,USJ-874USJ-874,Shogun Neck & Back Massger,New,1,"2 years parts, 1 year labor for Small Items",CUSTOM ,16.50,216.48,216.48,CreditCard,216.48,TC# 1903 3060 5152 2690 5769 1,,,,,,,0.00,,,,,,,,0.00,,,,,,,0.00,Rosalba Mimillo,817-808-8802,,,Customer picked up in store.,TX,0,8.25
107988,7/30/2018 7:44:13 PM,Sam's Club #4768 Reno 6/21-7/1/18 (NV),Sam's Club #4768 Reno 6/21-7/1/18 (NV),Michael Wang,DWA-9100DWA-9100SB,Legacy for Sam's,New Sienna Brown,1,"3 years parts, 1 year labor (Free)",CUSTOM ,297.46,3896.46,3896.46,CreditCard,3896.46,Tc# 3643 0406 0416 3667 7555 78,,,,,,,0.00,,,,,,,,0.00,,,,,,,0.00,Ron Appeldoorn,5099930331,,,Please include 2nd floor delivery for customer.,CA,0,8.27
107988,7/30/2018 7:44:13 PM,Sam's Club #4768 Reno 6/21-7/1/18 (NV),Sam's Club #4768 Reno 6/21-7/1/18 (NV),Michael Wang,,Daiwa Blanket,,1,no warranty,CUSTOM ,297.46,3896.46,3896.46,CreditCard,3896.46,Tc# 3643 0406 0416 3667 7555 78,,,,,,,0.00,,,,,,,,0.00,,,,,,,0.00,Ron Appeldoorn,5099930331,,,Please include 2nd floor delivery for customer.,CA,0,8.27
107988,7/30/2018 7:44:13 PM,Sam's Club #4768 Reno 6/21-7/1/18 (NV),Sam's Club #4768 Reno 6/21-7/1/18 (NV),Michael Wang,,Chair Pad for Legacy,,1,no warranty,CUSTOM ,297.46,3896.46,3896.46,CreditCard,3896.46,Tc# 3643 0406 0416 3667 7555 78,,,,,,,0.00,,,,,,,,0.00,,,,,,,0.00,Ron Appeldoorn,5099930331,,,Please include 2nd floor delivery for customer.,CA,0,8.27
107989,7/30/2018 8:37:04 PM,Sam's Club #8155 Gainesville  7/26-8/5/18 (FL),Sam's Club #8155 Gainesville  7/26-8/5/18 (FL),Hunt Zhang,USJ-874USJ-874,Shogun Neck & Back Massger,New,1,"2 years parts, 1 year labor (Free)",CUSTOM ,13.00,212.98,212.98,CreditCard,212.98,330411111390744725431,,,,,,,0.00,,,,,,,,0.00,,,,,,,0.00,Michael Taylor,352-514-9178,,,,FL,0,6.50
107990,7/30/2018 8:59:51 PM,Sam's Club #8155 Gainesville  7/26-8/5/18 (FL),Sam's Club #8155 Gainesville  7/26-8/5/18 (FL),Hunt Zhang,DWA-9100DWA-9100BL-DEMO,Legacy for Sam's,Demo Black,1,"3 years parts, 1 year labor (Free)",CUSTOM ,279.44,4578.44,4578.44,CreditCard,3832.94,9215393635571827809253,,,,,,,0.00,,,,,,,,0.00,,,,,,,0.00,Vietduwg Nguyen,352-226-912,,,,FL,0,6.50
107991,7/31/2018 3:44:36 AM,Sam's Club #4861 St Petersburg  7/25-8/5/18 (FL),Sam's Club #4861 St Petersburg  7/25-8/5/18 (FL),Hiroko Hudson,DWA-9100DWA-9100BL-DEMO,Legacy for Sam's,Demo Black,1,"3 years parts, 1 year labor (Free)",CUSTOM ,0.00,3599.00,3599.00,PurchaseOrder,0.00,,4029898283647857171295,,,,,,0.00,,,,,,,,0.00,,,,,,,0.00,Theresa Bell,7273035702,,,,FL,1,7.00
107992,7/31/2018 7:00:03 AM,ASD 7/29-8/1/18 LAS VEGAS (NV),ASD 7/29-8/1/18 LAS VEGAS (NV),Rolly San Jose,USJ-9050USJ-9050BR,Relax2Zero 2.0,New Brown,1,"3 years parts, 1 year labor (Free)",CUSTOM ,0.00,4113.00,4113.00,CreditCard,4113.00,827215,,,,,,,0.00,,,,,,,,0.00,,,,,,,0.00,John Pohlmeyer,9413476221,,,,FL,1,8.25
107993,7/31/2018 7:31:39 AM,"Sam's Club #8202 Savannah, GA 7/26-8/5/18 (FL)","Sam's Club #8202 Savannah, GA 7/26-8/5/18 (FL)",Michael Rowe,USJ-9050USJ-9050BR-DEMO (Box),Relax 2 Zero 2.0 for Sam's,Demo (Box) Brown,1,"3 years parts, 1 year labor (Free)",CUSTOM ,221.97,3392.93,3392.93,PurchaseOrder,0.00,,TC#35430104091363246611,,,,,,0.00,,,,,,,,0.00,,,,,,,0.00,An Truong,9124013835,,,,FL,0,7.00
107994,7/31/2018 7:59:41 AM,"Sam's Club #8202 Savannah, GA 7/26-8/5/18 (FL)","Sam's Club #8202 Savannah, GA 7/26-8/5/18 (FL)",Michael Rowe,USJ-9050USJ-9050BR-DEMO,Relax 2 Zero 2.0 for Sam's,Demo Brown,1,"3 years parts, 1 year labor (Free)",CUSTOM ,213.43,3262.43,3262.43,PurchaseOrder,0.00,,TC#9585363539501529179255,,,,,,0.00,,,,,,,,0.00,,,,,,,0.00,Ngoc Ngo,9124411323,7/30/2018 12:00:00 AM,,,FL,0,7.00
107995,7/31/2018 8:43:47 AM,ASD 7/29-8/1/18 LAS VEGAS (NV),ASD 7/29-8/1/18 LAS VEGAS (NV),Rodrigo Malabunga,DWA-9150USJ-9150CH,Legacy 3D,New Choco,1,"3 years parts, 1 year labor (Free)",CUSTOM Synchrony,0.00,4200.00,4200.00,CreditCard,2200.00,Square#luUw,,,,,,Synchrony,2000.00,,,6019170813058432,92312153,Las Vegas,48 months,,0.00,,,,,,,0.00,Griselda Gomez,5094409057,,,Please send customer Tourmaline pad,WA,1,8.25
107996,7/31/2018 8:49:47 AM,ASD 7/29-8/1/18 LAS VEGAS (NV),ASD 7/29-8/1/18 LAS VEGAS (NV),Rodrigo Malabunga,DWA-9150USJ-9150CH,Legacy 3D,New Choco,1,"3 years parts, 3 years labor ($400)",CUSTOM ,0.00,4800.00,4800.00,CreditCard,4800.00,Square# QSsQ,,,,,,,0.00,,,,,,,,0.00,,,,,,,0.00,Valetie Anthony,2094995201,8/3/2018 12:00:00 AM,,,NV,1,8.25
107997,7/31/2018 9:02:58 AM,ASD 7/29-8/1/18 LAS VEGAS (NV),ASD 7/29-8/1/18 LAS VEGAS (NV),Elijah Banania,DWA-9150USJ-9150BL,Legacy 3D,New Black,1,"3 years parts, 1 year labor (Free)",CUSTOM ,0.00,3800.00,3800.00,CreditCard,3800.00,Square# HLXA,,,,,,,0.00,,,,,,,,0.00,,,,,,,0.00,Thabit Khuder,8472750992,,,3rd Floor Delivery,TX,1,8.25
107998,7/31/2018 9:26:43 AM,ASD 7/29-8/1/18 LAS VEGAS (NV),ASD 7/29-8/1/18 LAS VEGAS (NV),Rolly San Jose,USJ-9050USJ-9050BL,Relax2Zero 2.0,New Black,1,"3 years parts, 1 year labor (Free)",CUSTOM CreditCard,0.00,4113.00,4113.00,CreditCard,200.00,231291,,,,,,CreditCard,3913.00,071372,,,,,,,0.00,,,,,,,0.00,Kenneth Gallegos,3035251698,,,,TX,1,8.25
107999,7/31/2018 10:16:53 AM,ASD 7/29-8/1/18 LAS VEGAS (NV),ASD 7/29-8/1/18 LAS VEGAS (NV),Mario Higareda,DWA-9060USJ-9060BL,Relax2Zero 3D,New Black,3,"3 years parts, 1 year labor (Free)",CUSTOM COD,0.00,11700.00,11700.00,CreditCard,1170.00,Receipt #lGsb,,,,,,COD,10530.00,,,,,,,,0.00,,,,,,,0.00,Kathleen Keaveny,623-873-4961,,,"***Please bring 5 pieces of EZ Duos for customers upon delivery***

C.O.D balance remaining $10,530.00 upon delivery. Mrs. Chong will be paying the remaining balance so please set up delivery for her first. (480)223-8927",NV,1,8.25
108000,7/31/2018 10:22:35 AM,ASD 7/29-8/1/18 LAS VEGAS (NV),ASD 7/29-8/1/18 LAS VEGAS (NV),Kohei Uno,DWA-9060USJ-9060BL,Relax2Zero 3D,New Black,1,"3 years parts, 1 year labor (Free)",CUSTOM CreditCard,0.00,4700.00,4700.00,Cash,1500.00,,,,,,,CreditCard,3200.00,Square# 0FCg,,,,,,,0.00,,,,,,,0.00,Doug Cleaver,865-405-4146,,,,FL,1,8.25
108001,7/31/2018 10:29:05 AM,ASD 7/29-8/1/18 LAS VEGAS (NV),ASD 7/29-8/1/18 LAS VEGAS (NV),Kohei Uno,DWA-9060USJ-9060BR,Relax2Zero 3D,New Choco,1,"3 years parts, 1 year labor (Free)",CUSTOM COD,0.00,4600.00,4600.00,CreditCard,100.00,Square# n4HY,,,,,,COD,4500.00,,,,,,,,0.00,,,,,,,0.00,Deborah Zapata,909-514-0352,,,"Deposit of $100 received.
C.O.D balance of $4500 remaining to be collected upon delivery.
***Please schedule delivery for August 29th***",CA,1,8.25
108002,7/31/2018 11:08:29 AM,Health & Wellness Factory 99 Ranch Plano (TX),Health & Wellness Factory 99 Ranch Plano (TX),Hailin Xie,USJ-7500USJ-7500BL,Acu Tech Pro,New Black,1,"3 years parts, 1 year labor (Free)",CUSTOM ,0.00,1700.00,1700.00,CreditCard,1700.00,6Vwm,,,,,,,0.00,,,,,,,,0.00,,,,,,,0.00,Jim (Jamie) Nelson,9727501674,8/1/2018 12:00:00 AM,,"GIFT: Comfort Neck Supporter
Purchased and paid on 7/29/2018 at Health&Wellness Factory in 99 Ranch Market Plano.",TX,1,8.25
108003,7/31/2018 11:43:51 AM,BRIDGE USA 7/22/18 TORRANCE (CA),BRIDGE USA 7/22/18 TORRANCE (CA),Kaz Ohashi,DWA-9100DWA-9100BU,Legacy,New Choco,1,"3 years parts, 1 year labor (Free)",CUSTOM COD,0.00,3500.00,3500.00,CreditCard,100.00,#q6KK,,,,,,COD,3400.00,,,,,,,,0.00,,,,,,,0.00,Tsui Watson,949-768-7823,8/7/2018 12:00:00 AM,,Free Two extra Chair and foot pads,CA,1,9.50
108003,7/31/2018 11:43:51 AM,BRIDGE USA 7/22/18 TORRANCE (CA),BRIDGE USA 7/22/18 TORRANCE (CA),Kaz Ohashi,,Chair Pad for Legacy,,2,No Warranty,CUSTOM COD,0.00,3500.00,3500.00,CreditCard,100.00,#q6KK,,,,,,COD,3400.00,,,,,,,,0.00,,,,,,,0.00,Tsui Watson,949-768-7823,8/7/2018 12:00:00 AM,,Free Two extra Chair and foot pads,CA,1,9.50
108003,7/31/2018 11:43:51 AM,BRIDGE USA 7/22/18 TORRANCE (CA),BRIDGE USA 7/22/18 TORRANCE (CA),Kaz Ohashi,,Foot Pads for Legacy,,2,No Warranty,CUSTOM COD,0.00,3500.00,3500.00,CreditCard,100.00,#q6KK,,,,,,COD,3400.00,,,,,,,,0.00,,,,,,,0.00,Tsui Watson,949-768-7823,8/7/2018 12:00:00 AM,,Free Two extra Chair and foot pads,CA,1,9.50
108004,7/31/2018 12:16:17 PM,ASD 7/29-8/1/18 LAS VEGAS (NV),ASD 7/29-8/1/18 LAS VEGAS (NV),Ruben Cuatrona,DWA-9400Pegasus-BR-DEMO,Pegasus,Demo Choco,1,"3 years parts, 1 year labor (Free)",CUSTOM ,0.00,5200.00,5200.00,CreditCard,5200.00,2O6u,,,,,,,0.00,,,,,,,,0.00,,,,,,,0.00,Andres Ohlsen,702-354-0409,8/1/2018 12:00:00 AM,,,NV,1,8.25
108005,7/31/2018 12:49:26 PM,"EAA 7/23-29/18 Oshkosh, WI (IL)","EAA 7/23-29/18 Oshkosh, WI (IL)",Rodrigo Malabunga,DWA-9060USJ-9060BL,Relax2Zero 3D,New Black,1,"3 years parts, 1 year labor (Free)",CUSTOM ,0.00,4200.00,4200.00,CreditCard,4200.00,Sq #nsPz,,,,,,,0.00,,,,,,,,0.00,,,,,,,0.00,Jim Hagger,510 612 5768,,,,CA,1,5.00
108006,7/31/2018 1:16:07 PM,"EAA 7/23-29/18 Oshkosh, WI (IL)","EAA 7/23-29/18 Oshkosh, WI (IL)",Rodrigo Malabunga,DWA-9400Pegasus-BL,Pegasus,New Black,1,"3 years parts, 1 year labor (Free)",CUSTOM COD,0.00,4900.00,4900.00,CreditCard,500.00,Sq #SdTm,,,,,,COD,4400.00,,,,,,,,0.00,,,,,,,0.00,Larry Ronziewiiz,574 870 3415,,,,TX,1,5.00
108007,7/31/2018 1:27:29 PM,"EAA 7/23-29/18 Oshkosh, WI (IL)","EAA 7/23-29/18 Oshkosh, WI (IL)",Darryl Garrett,,Ninja Leg Massager,,1,"2 years parts, 1 year labor (Free)",CUSTOM ,0.00,400.00,400.00,CreditCard,359.00,Sq Vrlr,,,,,,,0.00,,,,,,,,0.00,,,,,,,0.00,Anni Brogan,360 293 8082,8/1/2018 12:00:00 AM,,,CA,1,5.00
108008,7/31/2018 2:55:17 PM,"EAA 7/23-29/18 Oshkosh, WI (IL)","EAA 7/23-29/18 Oshkosh, WI (IL)",Kamille Gines,DWA-9150USJ-9150CH,Legacy 3D,New Choco,1,"3 years parts, 1 year labor (Free)",CUSTOM ,0.00,5040.00,5040.00,CreditCard,5040.00,Sq# ScCB,,,,,,,0.00,,,,,,,,0.00,,,,,,,0.00,Darren Ruhnau,4356599718,,,,NV,1,5.00
108009,7/31/2018 7:14:29 PM,"Sam's Club #8210 Burleson, TX 7/26-8/5/2018 (TX)","Sam's Club #8210 Burleson, TX 7/26-8/5/2018 (TX)",Tina Tran,USJ-874USJ-874,Shogun Neck & Back Massger,New,1,"2 years parts, 1 year labor for Small Items",CUSTOM ,16.50,216.48,216.48,CreditCard,216.48,TC# 2821 5484 2258 6764 7376 2,,,,,,,0.00,,,,,,,,0.00,,,,,,,0.00,Audra Missey,817-648-9130,,,Customer picked up in store.,TX,0,8.25
108010,7/31/2018 9:23:41 PM,ASD 7/29-8/1/18 LAS VEGAS (NV),ASD 7/29-8/1/18 LAS VEGAS (NV),Keith Kei,USJ-9050USJ-9050BL,Relax2Zero 2.0,New Black,1,"3 years parts, 1 year labor (Free)",CUSTOM ,0.00,3000.00,3000.00,CreditCard,3000.00,SQ# OHTw,,,,,,,0.00,,,,,,,,0.00,,,,,,,0.00,Joyce Ko,2818183075,,,,TX,1,8.25
108011,7/31/2018 9:34:06 PM,ASD 7/29-8/1/18 LAS VEGAS (NV),ASD 7/29-8/1/18 LAS VEGAS (NV),Rolly San Jose,USJ-9050USJ-9050BL,Relax2Zero 2.0,New Black,1,"3 years parts, 1 year labor (Free)",CUSTOM ,0.00,3000.00,3000.00,CreditCard,3000.00,05481G,,,,,,,0.00,,,,,,,,0.00,,,,,,,0.00,Usman Ghafoor,8322770192,,,,TX,1,8.25
108012,7/31/2018 9:42:38 PM,ASD 7/29-8/1/18 LAS VEGAS (NV),ASD 7/29-8/1/18 LAS VEGAS (NV),Rolly San Jose,USJ-9050USJ-9050BL,Relax2Zero 2.0,New Black,1,"3 years parts, 1 year labor (Free)",CUSTOM ,0.00,3000.00,3000.00,CreditCard,3000.00,05481G,,,,,,,0.00,,,,,,,,0.00,,,,,,,0.00,Rafiq Merchant,8325121172,,,,TX,1,8.25
108013,7/31/2018 10:31:25 PM,ASD 7/29-8/1/18 LAS VEGAS (NV),ASD 7/29-8/1/18 LAS VEGAS (NV),Rolly San Jose,USJ-9050USJ-9050BL,Relax2Zero 2.0,New Black,1,"3 years parts, 1 year labor (Free)",CUSTOM ,0.00,4113.00,4113.00,CreditCard,4113.00,08011Z,,,,,,,0.00,,,,,,,,0.00,,,,,,,0.00,Nancy Rogers,8438624037,,,,FL,1,8.25
108014,8/1/2018 3:22:03 AM,"Sam's Club #8265 Lake Charles, LA 7/26-8/6/2018 (TX)","Sam's Club #8265 Lake Charles, LA 7/26-8/6/2018 (TX)",Chris Tavira,USJ-871,Foot Vibe Pro,,1,"2 years parts, 1 year labor for Small Items",CUSTOM ,11.22,121.21,121.21,CreditCard,121.21,TC # 0362 9274 8024 5859 0185 0,,,,,,,0.00,,,,,,,,0.00,,,,,,,0.00,Doug Singletary,3373960620,,,Invoice # 0030300,TX,0,10.20
108015,8/1/2018 3:29:51 AM,"Sam's Club #8265 Lake Charles, LA 7/26-8/6/2018 (TX)","Sam's Club #8265 Lake Charles, LA 7/26-8/6/2018 (TX)",Chris Tavira,DWA-9100DWA-9100BL-Box,Legacy for Sam's,Demo(Box) Black,1,"3 years parts, 1 year labor (Free)",CUSTOM ,367.10,3966.10,3966.10,CreditCard,3966.10,TC # 7156 3455 5392 7603 4540 49,,,,,,,0.00,,,,,,,,0.00,,,,,,,0.00,Misty Wilfe,3378422187,,,Invoice # 0030301,TX,0,10.20
108016,8/1/2018 3:37:15 AM,"Sam's Club #8265 Lake Charles, LA 7/26-8/6/2018 (TX)","Sam's Club #8265 Lake Charles, LA 7/26-8/6/2018 (TX)",Chris Tavira,USJ-9300Symphony-BW-DEMOBX,Symphony,Demo (Box) Choco,1,"3 years parts, 1 year labor (Free)",CUSTOM ,469.10,5068.10,5068.10,CreditCard,5068.10,TC # 2938 9076 7187 6239 0733 38,,,,,,,0.00,,,,,,,,0.00,,,,,,,0.00,Alexandria Geovanni,9256956539,8/3/2018 12:00:00 AM,,Invoice # 0030293,TX,0,10.20
108017,8/1/2018 5:46:27 AM,Sam's Club #4861 St Petersburg  7/25-8/5/18 (FL),Sam's Club #4861 St Petersburg  7/25-8/5/18 (FL),Hiroko Hudson,USJ-849NEW,Hands Free Bike,New,1,"2 years parts, 1 year labor for Small Items",CUSTOM ,17.50,267.49,267.49,PurchaseOrder,0.00,,686918187669855128235,,,,,,0.00,,,,,,,,0.00,,,,,,,0.00,Linda Nass,7273282973,,,,FL,0,7.00
108018,8/1/2018 6:57:40 AM,"Sam's Club #8265 Lake Charles, LA 7/26-8/6/2018 (TX)","Sam's Club #8265 Lake Charles, LA 7/26-8/6/2018 (TX)",Chris Tavira,USJ-871,Foot Vibe Pro,,1,"2 years parts, 1 year labor for Small Items",CUSTOM ,11.22,121.21,121.21,CreditCard,121.21,TC# 9357 4999 6755 4152 6410 7,,,,,,,0.00,,,,,,,,0.00,,,,,,,0.00,Robert Smith,3374772668,,,Invoice # 0030302,TX,0,10.20
108019,8/1/2018 7:07:05 AM,"Sam's Club #8265 Lake Charles, LA 7/26-8/6/2018 (TX)","Sam's Club #8265 Lake Charles, LA 7/26-8/6/2018 (TX)",Chris Tavira,USJ-874USJ-874,Shogun Neck & Back Massger,New,1,"2 years parts, 1 year labor for Small Items",CUSTOM ,20.40,220.38,220.38,CreditCard,220.38,TC # 3141 7414 8276 3765 6278 2,,,,,,,0.00,,,,,,,,0.00,,,,,,,0.00,Nikki Pruitt,3373027994,,,Invoice # 0030297,TX,0,10.20
108020,8/1/2018 7:14:53 AM,"Sam's Club #8265 Lake Charles, LA 7/26-8/6/2018 (TX)","Sam's Club #8265 Lake Charles, LA 7/26-8/6/2018 (TX)",Chris Tavira,USJ-9300Symphony-BW-DEMO,Symphony,Demo Choco,1,"3 years parts, 1 year labor (Free)",CUSTOM ,469.10,5068.10,5068.10,CreditCard,5068.10,TC # 9223 0609 0111 2969 7336 61,,,,,,,0.00,,,,,,,,0.00,,,,,,,0.00,Nelwyn Mc Cain,3375982974,,,Invoice # 0030303,TX,0,10.20
108021,8/1/2018 7:34:42 AM,Sam's Club #4785 Sanford 7/26-8/5/18 (FL),Sam's Club #4785 Sanford 7/26-8/5/18 (FL),Darryl Garrett,DWA-9100DWA-9100BL-DEMO,Legacy for Sam's,Demo Black,1,"3 years parts, 2 years labor ($200)",CUSTOM ,251.93,3850.93,3850.93,CreditCard,0.00,7026965450963607017832,,,,,,,0.00,,,,,,,,0.00,,,,,,,0.00,Derek Setzer,4074743050,,,,Not Dispatched,0,7.00
108022,8/1/2018 9:12:06 AM,ASD 7/29-8/1/18 LAS VEGAS (NV),ASD 7/29-8/1/18 LAS VEGAS (NV),Rodrigo Malabunga,DWA-9150USJ-9150CH-DEMO,Legacy 3D,Demo Choco,1,"3 years parts, 1 year labor (Free)",CUSTOM ,0.00,4000.00,4000.00,CreditCard,4000.00,Square # yD4q,,,,,,,0.00,,,,,,,,0.00,,,,,,,0.00,Eung Lee,7737507961,,,,TX,1,8.25
108023,8/1/2018 9:20:47 AM,Health and Wellness Plano Store 2017 (TX),Health and Wellness Plano Store 2017 (TX),Hailin Xie,USJ-7500USJ-7500BL,Acu Tech Pro,New Black,1,"3 years parts, 1 year labor (Free)",CUSTOM ,0.00,1700.00,1700.00,CreditCard,1700.00,06369C,,,,,,,0.00,,,,,,,,0.00,,,,,,,0.00,Jamie Nelson,972-750-1677,,,,Not Dispatched,1,8.25
108023,8/1/2018 9:20:47 AM,Health and Wellness Plano Store 2017 (TX),Health and Wellness Plano Store 2017 (TX),Hailin Xie,,Chair Pad for Legacy 3D,,1,no warranty,CUSTOM ,0.00,1700.00,1700.00,CreditCard,1700.00,06369C,,,,,,,0.00,,,,,,,,0.00,,,,,,,0.00,Jamie Nelson,972-750-1677,,,,Not Dispatched,1,8.25
108023,8/1/2018 9:20:47 AM,Health and Wellness Plano Store 2017 (TX),Health and Wellness Plano Store 2017 (TX),Hailin Xie,,Foot Pads for Legacy 3D,,1,no warranty,CUSTOM ,0.00,1700.00,1700.00,CreditCard,1700.00,06369C,,,,,,,0.00,,,,,,,,0.00,,,,,,,0.00,Jamie Nelson,972-750-1677,,,,Not Dispatched,1,8.25
108024,8/1/2018 9:50:19 AM,ASD 7/29-8/1/18 LAS VEGAS (NV),ASD 7/29-8/1/18 LAS VEGAS (NV),Querubin Milanes,DWA-9400Pegasus-BL-DEMO,Pegasus,Demo Black,1,"3 years parts, 2 years labor ($200)",CUSTOM ,0.00,8600.00,8600.00,Synchrony,8600.00,,,6019170813059729,92354814,San Diego,36 months,,0.00,,,,,,,,0.00,,,,,,,0.00,Jim and Shelby Doty,785-635-9340,,,,TX,1,8.25
108024,8/1/2018 9:50:19 AM,ASD 7/29-8/1/18 LAS VEGAS (NV),ASD 7/29-8/1/18 LAS VEGAS (NV),Querubin Milanes,DWA-9400Pegasus-BR-DEMO,Pegasus,Demo Choco,1,"3 years parts, 2 years labor ($200)",CUSTOM ,0.00,8600.00,8600.00,Synchrony,8600.00,,,6019170813059729,92354814,San Diego,36 months,,0.00,,,,,,,,0.00,,,,,,,0.00,Jim and Shelby Doty,785-635-9340,,,,TX,1,8.25
108025,8/1/2018 9:53:40 AM,Sam's Club #4861 St Petersburg  7/25-8/5/18 (FL),Sam's Club #4861 St Petersburg  7/25-8/5/18 (FL),Hiroko Hudson,DWA-9100DWA-9100BL-Box,Legacy for Sam's,Demo(Box) Black,1,"3 years parts, 1 year labor (Free)",CUSTOM ,251.93,3850.93,3850.93,PurchaseOrder,0.00,,2990216860478692371089,,,,,,0.00,,,,,,,,0.00,,,,,,,0.00,Norman Bonar,8136901331,8/6/2018 12:00:00 AM,,,FL,0,7.00
108026,8/1/2018 10:02:00 AM,ASD 7/29-8/1/18 LAS VEGAS (NV),ASD 7/29-8/1/18 LAS VEGAS (NV),Ruben Cuatrona,DWA-9100DWA-9100BL-DEMO,Legacy,Demo Black,1,"3 years parts, 1 year labor (Free)",CUSTOM ,0.00,3600.00,3600.00,CreditCard,3600.00,Receipt #a7CQ,,,,,,,0.00,,,,,,,,0.00,,,,,,,0.00,Monica Costeira,918-237-2653,8/6/2018 12:00:00 AM,,,TX,1,8.25
108027,8/1/2018 10:12:57 AM,"Sam's Club #8286 Waco, TX 7/26-8/5/2018 (TX)","Sam's Club #8286 Waco, TX 7/26-8/5/2018 (TX)",Khoa Huynh,USJ-871,Foot Vibe Pro,,1,"2 years parts, 1 year labor for Small Items",CUSTOM ,25.57,335.54,335.54,CreditCard,335.54,939583831521621228225,,,,,,,0.00,,,,,,,,0.00,,,,,,,0.00,Noel Nino,2546628762,,,Customer picked up the product.,TX,0,8.25
108027,8/1/2018 10:12:57 AM,"Sam's Club #8286 Waco, TX 7/26-8/5/2018 (TX)","Sam's Club #8286 Waco, TX 7/26-8/5/2018 (TX)",Khoa Huynh,USJ-874USJ-874,Shogun Neck & Back Massger,New,1,"2 years parts, 1 year labor for Small Items",CUSTOM ,25.57,335.54,335.54,CreditCard,335.54,939583831521621228225,,,,,,,0.00,,,,,,,,0.00,,,,,,,0.00,Noel Nino,2546628762,,,Customer picked up the product.,TX,0,8.25
108028,8/1/2018 10:17:44 AM,ASD 7/29-8/1/18 LAS VEGAS (NV),ASD 7/29-8/1/18 LAS VEGAS (NV),Li Chen,DWA-9100DWA-9100BU-DEMO,Legacy,Demo Choco,1,"3 years parts, 1 year labor (Free)",CUSTOM ,0.00,3600.00,3600.00,CreditCard,3600.00,ZPmm,,,,,,,0.00,,,,,,,,0.00,,,,,,,0.00,Yung Ran Chung,702-371-2030,8/3/2018 12:00:00 AM,,,NV,1,8.25
108029,8/1/2018 12:10:09 PM,Referral (Main Office),Referral (Main Office),Kaz Ohashi,DWA-9100DWA-9100BL,Legacy,New Black,1,"3 years parts, 1 year labor (Free)",CUSTOM ,0.00,3700.00,3700.00,CreditCard,3700.00,000013,,,,,,,0.00,,,,,,,,0.00,,,,,,,0.00,Alex Luciano,773-677-7347,,,"Reference From Customer's Sister.
Price Match Grantee Approved.
Business Customer/ No Tax",Not Dispatched,1,9.25
108030,8/1/2018 12:15:40 PM,Referral (Main Office),Referral (Main Office),Kaz Ohashi,DWA-9100DWA-9100BL,Legacy,New Black,1,"3 years parts, 1 year labor (Free)",CUSTOM ,0.00,3700.00,3700.00,CreditCard,3700.00,Receipt #UP4x,,,,,,,0.00,,,,,,,,0.00,,,,,,,0.00,Alex Luciano,773-677-7347,,,"Referral from customer's Sister.
Deal approved by Kaz
Business Customer/ No Tax",TX,1,9.25
108031,8/1/2018 3:09:13 PM,"Sam's Club #6582 Bluffton(HILTON HEAD ISLAND), SC 7/26-8/5/18 (FL)","Sam's Club #6582 Bluffton(HILTON HEAD ISLAND), SC 7/26-8/5/18 (FL)",Michael Wang,USJ-871,Foot Vibe Pro,,1,"2 years parts, 1 year labor for Small Items",CUSTOM CreditCard,18.60,328.57,328.57,CreditCard,116.59,Tc# 5176 5565 7931 9010 6244 6,,,,,,CreditCard,211.98,Tc# 9076 5565 7931 9000 1245 6,,,,,,,0.00,,,,,,,0.00,Vanessa Rios,8434224688,,,Shogun was sold out please ship 1 shogun to customer’s house.,CA,0,6.00
108031,8/1/2018 3:09:13 PM,"Sam's Club #6582 Bluffton(HILTON HEAD ISLAND), SC 7/26-8/5/18 (FL)","Sam's Club #6582 Bluffton(HILTON HEAD ISLAND), SC 7/26-8/5/18 (FL)",Michael Wang,USJ-874USJ-874,Shogun Neck & Back Massger,New,1,"2 years parts, 1 year labor for Small Items",CUSTOM CreditCard,18.60,328.57,328.57,CreditCard,116.59,Tc# 5176 5565 7931 9010 6244 6,,,,,,CreditCard,211.98,Tc# 9076 5565 7931 9000 1245 6,,,,,,,0.00,,,,,,,0.00,Vanessa Rios,8434224688,,,Shogun was sold out please ship 1 shogun to customer’s house.,CA,0,6.00
108032,8/1/2018 7:08:35 PM,ASD 7/29-8/1/18 LAS VEGAS (NV),ASD 7/29-8/1/18 LAS VEGAS (NV),Rolly San Jose,USJ-9050USJ-9050BL,Relax2Zero 2.0,New Black,1,"3 years parts, 1 year labor (Free)",CUSTOM ,0.00,3000.00,3000.00,CreditCard,3000.00,00247G,,,,,,,0.00,,,,,,,,0.00,,,,,,,0.00,Kamran Malcnojia,7134808632,,,,TX,1,8.25
108033,8/1/2018 7:19:10 PM,ASD 7/29-8/1/18 LAS VEGAS (NV),ASD 7/29-8/1/18 LAS VEGAS (NV),Rolly San Jose,USJ-9050USJ-9050BL,Relax2Zero 2.0,New Black,1,"3 years parts, 1 year labor (Free)",CUSTOM ,0.00,3000.00,3000.00,CreditCard,3000.00,00247G,,,,,,,0.00,,,,,,,,0.00,,,,,,,0.00,Mohammad Lalani,7134808632,,,,TX,1,8.25
108034,8/1/2018 7:27:34 PM,Sam's Club #8155 Gainesville  7/26-8/5/18 (FL),Sam's Club #8155 Gainesville  7/26-8/5/18 (FL),Hunt Zhang,USJ-874USJ-874,Shogun Neck & Back Massger,New,1,"2 years parts, 1 year labor (Free)",CUSTOM ,13.00,212.98,212.98,CreditCard,212.98,788799994785411434179,,,,,,,0.00,,,,,,,,0.00,,,,,,,0.00,Vernica Haynes,352-339-3334,,,,FL,0,6.50
108035,8/1/2018 7:27:59 PM,ASD 7/29-8/1/18 LAS VEGAS (NV),ASD 7/29-8/1/18 LAS VEGAS (NV),Rolly San Jose,USJ-9050USJ-9050BL,Relax2Zero 2.0,New Black,1,"3 years parts, 1 year labor (Free)",CUSTOM ,0.00,3000.00,3000.00,CreditCard,3000.00,00247G,,,,,,,0.00,,,,,,,,0.00,,,,,,,0.00,Sajid Hooda,8327071555,,,,TX,1,8.25
108036,8/1/2018 7:32:18 PM,Sam's Club #8155 Gainesville  7/26-8/5/18 (FL),Sam's Club #8155 Gainesville  7/26-8/5/18 (FL),Hunt Zhang,USJ-874USJ-874,Shogun Neck & Back Massger,New,1,"2 years parts, 1 year labor (Free)",CUSTOM ,13.00,212.98,212.98,CreditCard,212.98,977655753901600615095,,,,,,,0.00,,,,,,,,0.00,,,,,,,0.00,Merry Field,407-963-0556,,,,FL,0,6.50
108037,8/2/2018 11:16:10 AM,Sam's Club #8138 Daytona Beach 8/2-12/18 (FL),Sam's Club #8138 Daytona Beach 8/2-12/18 (FL),Abagail Stirling,DWA-9100DWA-9100SB-Box,Legacy for Sam's,Demo(Box) Sienna Brown,1,"3 years parts, 1 year labor (Free)",CUSTOM ,233.94,3832.94,3832.94,CreditCard,0.00,TC# 3683 5303 0311 2665 3466 10,,,,,,,0.00,,,,,,,,0.00,,,,,,,0.00,Henry Florio,3864479611,,,Deliver after August 15th,FL,0,6.50
108038,8/2/2018 12:10:14 PM,"Sam's Club #8286 Waco, TX 7/26-8/5/2018 (TX)","Sam's Club #8286 Waco, TX 7/26-8/5/2018 (TX)",Khoa Huynh,USJ-9050USJ-9050BR-DEMO (Box),Relax 2 Zero 2.0 for Sam's,Demo (Box) Brown,1,"3 years parts, 1 year labor (Free)",CUSTOM ,618.59,8116.59,8116.59,CreditCard,8116.59,1977699293796213142127,,,,,,,0.00,,,,,,,,0.00,,,,,,,0.00,Gene Hefelfinger,2547152475,8/4/2018 12:00:00 AM,,"Paid in full.
Offer 2 Daiwa blankets as gifts.",TX,0,8.25
108038,8/2/2018 12:10:14 PM,"Sam's Club #8286 Waco, TX 7/26-8/5/2018 (TX)","Sam's Club #8286 Waco, TX 7/26-8/5/2018 (TX)",Khoa Huynh,,Daiwa Blanket,,2,no warranty,CUSTOM ,618.59,8116.59,8116.59,CreditCard,8116.59,1977699293796213142127,,,,,,,0.00,,,,,,,,0.00,,,,,,,0.00,Gene Hefelfinger,2547152475,8/4/2018 12:00:00 AM,,"Paid in full.
Offer 2 Daiwa blankets as gifts.",TX,0,8.25
108038,8/2/2018 12:10:14 PM,"Sam's Club #8286 Waco, TX 7/26-8/5/2018 (TX)","Sam's Club #8286 Waco, TX 7/26-8/5/2018 (TX)",Khoa Huynh,DWA-9100DWA-9100CH,Legacy for Sam's,New Choco,1,"3 years parts, 1 year labor (Free)",CUSTOM ,618.59,8116.59,8116.59,CreditCard,8116.59,1977699293796213142127,,,,,,,0.00,,,,,,,,0.00,,,,,,,0.00,Gene Hefelfinger,2547152475,8/4/2018 12:00:00 AM,,"Paid in full.
Offer 2 Daiwa blankets as gifts.",TX,0,8.25
108039,8/2/2018 12:31:33 PM,"Sam's Club #8265 Lake Charles, LA 7/26-8/6/2018 (TX)","Sam's Club #8265 Lake Charles, LA 7/26-8/6/2018 (TX)",Chris Tavira,ORBT-1ORBT-1CH-BOX,Orbit for Sam's ,Demo Choco(Box),1,"2 years parts, 1 year labor (Free)",CUSTOM ,275.20,2973.20,2973.20,CreditCard,2973.20,TC # 9196 5259 5291 8603 4940 79,,,,,,,0.00,,,,,,,,0.00,,,,,,,0.00,Ritesh Jain,9188528339,,,Invoice # 0030294,TX,0,10.20
108040,8/2/2018 1:34:51 PM,"Sam's Club #8265 Lake Charles, LA 7/26-8/6/2018 (TX)","Sam's Club #8265 Lake Charles, LA 7/26-8/6/2018 (TX)",Chris Tavira,USJ-874USJ-874-DEMO,Shogun Neck & Back Massger,Demo,1,"2 years parts, 1 year labor for Small Items",CUSTOM ,18.36,198.34,198.34,CreditCard,198.34,TC # 8878 9737 7825 2340 0834 8,,,,,,,0.00,,,,,,,,0.00,,,,,,,0.00,Bret Maso,3377642868,,,Invoice # 0030304,TX,0,10.20
108041,8/2/2018 1:43:23 PM,"Sam's Club #8265 Lake Charles, LA 7/26-8/6/2018 (TX)","Sam's Club #8265 Lake Charles, LA 7/26-8/6/2018 (TX)",Chris Tavira,USJ-874USJ-874-DEMO,Shogun Neck & Back Massger,Demo,1,"2 years parts, 1 year labor for Small Items",CUSTOM ,18.36,198.34,198.34,CreditCard,198.34,TC # 8078 7757 5815 2320 3434 8,,,,,,,0.00,,,,,,,,0.00,,,,,,,0.00,Amy Morton,3377646261,,,Invoice # 0030306,TX,0,10.20
108042,8/2/2018 1:56:27 PM,"Sam's Club #8265 Lake Charles, LA 7/26-8/6/2018 (TX)","Sam's Club #8265 Lake Charles, LA 7/26-8/6/2018 (TX)",Chris Tavira,USJ-849USJ-849,Vitality Plate for Sam's,New,1,"2 years parts, 1 year labor for Small Items",CUSTOM ,46.92,506.91,506.91,CreditCard,506.91,TC # 6414 3101 4352 7418 9549 3,,,,,,,0.00,,,,,,,,0.00,,,,,,,0.00,Khurshid Asif,3377074201,,,Invoice # 0030307,TX,0,10.20
108043,8/2/2018 2:09:43 PM,"Sam's Club #8265 Lake Charles, LA 7/26-8/6/2018 (TX)","Sam's Club #8265 Lake Charles, LA 7/26-8/6/2018 (TX)",Chris Tavira,USJ-871,Foot Vibe Pro,,1,"2 years parts, 1 year labor for Small Items",CUSTOM ,11.22,121.21,121.21,CreditCard,121.21,TC # 8878 9737 7825 2340 0834 8,,,,,,,0.00,,,,,,,,0.00,,,,,,,0.00,Walter Gotreaux,3377942541,,,Invoice # 0030308,TX,0,10.20
108044,8/2/2018 2:25:23 PM,"Sam's Club #8265 Lake Charles, LA 7/26-8/6/2018 (TX)","Sam's Club #8265 Lake Charles, LA 7/26-8/6/2018 (TX)",Chris Tavira,USJ-9300Symphony-BW-DEMOBX,Symphony,Demo (Box) Choco,1,"3 years parts, 1 year labor (Free)",CUSTOM ,469.10,5068.10,5068.10,CreditCard,5068.10,TC# 3691 0543 4429 0376 5457 72,,,,,,,0.00,,,,,,,,0.00,,,,,,,0.00,Gary Moyer,3374390219,,,Invoice # 0030313,TX,0,10.20
108045,8/2/2018 3:18:24 PM,"Sam's Club #6582 Bluffton(HILTON HEAD ISLAND), SC 7/26-8/5/18 (FL)","Sam's Club #6582 Bluffton(HILTON HEAD ISLAND), SC 7/26-8/5/18 (FL)",Michael Wang,USJ-871,Foot Vibe Pro,,1,"2 years parts, 1 year labor for Small Items",CUSTOM ,6.60,116.59,116.59,CreditCard,116.59,Tc# 3775 3393 7510 5202 8466 8,,,,,,,0.00,,,,,,,,0.00,,,,,,,0.00,Carrol Wright,9142859254,8/3/2018 12:00:00 AM,,,CA,0,6.00
108046,8/2/2018 4:23:33 PM,"Sam's Club #6582 Bluffton(HILTON HEAD ISLAND), SC 7/26-8/5/18 (FL)","Sam's Club #6582 Bluffton(HILTON HEAD ISLAND), SC 7/26-8/5/18 (FL)",Michael Wang,USJ-871,Foot Vibe Pro,,1,"2 years parts, 1 year labor for Small Items",CUSTOM ,18.60,328.57,328.57,CreditCard,328.57,Tc# 5394 3101 8392 3464 7384 7,,,,,,,0.00,,,,,,,,0.00,,,,,,,0.00,Laurie Walker,9145889686,8/3/2018 12:00:00 AM,,,CA,0,6.00
108046,8/2/2018 4:23:33 PM,"Sam's Club #6582 Bluffton(HILTON HEAD ISLAND), SC 7/26-8/5/18 (FL)","Sam's Club #6582 Bluffton(HILTON HEAD ISLAND), SC 7/26-8/5/18 (FL)",Michael Wang,USJ-874USJ-874,Shogun Neck & Back Massger,New,1,"2 years parts, 1 year labor for Small Items",CUSTOM ,18.60,328.57,328.57,CreditCard,328.57,Tc# 5394 3101 8392 3464 7384 7,,,,,,,0.00,,,,,,,,0.00,,,,,,,0.00,Laurie Walker,9145889686,8/3/2018 12:00:00 AM,,,CA,0,6.00
108047,8/2/2018 4:27:25 PM,"Sam's Club #8286 Waco, TX 7/26-8/5/2018 (TX)","Sam's Club #8286 Waco, TX 7/26-8/5/2018 (TX)",Khoa Huynh,USJ-849USJ-849,Vitality Plate for Sam's,New,1,"2 years parts, 1 year labor for Small Items",CUSTOM ,37.95,497.94,497.94,CreditCard,497.94,858615259990408017029,,,,,,,0.00,,,,,,,,0.00,,,,,,,0.00,Katherine Moore,3617657105,,,Customer picked up the product.,TX,0,8.25
108048,8/2/2018 4:30:36 PM,"Sam's Club #6582 Bluffton(HILTON HEAD ISLAND), SC 7/26-8/5/18 (FL)","Sam's Club #6582 Bluffton(HILTON HEAD ISLAND), SC 7/26-8/5/18 (FL)",Michael Wang,USJ-871,Foot Vibe Pro,,1,"2 years parts, 1 year labor (Free)",CUSTOM ,6.60,116.59,116.59,CreditCard,116.59,Tc# 9667 9969 6753 7131 4022 4,,,,,,,0.00,,,,,,,,0.00,,,,,,,0.00,Daiwa Massage,3105382298,,,,CA,0,6.00
108049,8/2/2018 4:36:32 PM,"Sam's Club #6582 Bluffton(HILTON HEAD ISLAND), SC 7/26-8/5/18 (FL)","Sam's Club #6582 Bluffton(HILTON HEAD ISLAND), SC 7/26-8/5/18 (FL)",Michael Wang,USJ-871,Foot Vibe Pro,,1,"2 years parts, 1 year labor for Small Items",CUSTOM ,18.60,328.57,328.57,CreditCard,328.57,Tc# 3753 1050 5124 1686 9876 9,,,,,,,0.00,,,,,,,,0.00,,,,,,,0.00,Fitz Harding,8437077403,8/3/2018 12:00:00 AM,,,CA,0,6.00
108049,8/2/2018 4:36:32 PM,"Sam's Club #6582 Bluffton(HILTON HEAD ISLAND), SC 7/26-8/5/18 (FL)","Sam's Club #6582 Bluffton(HILTON HEAD ISLAND), SC 7/26-8/5/18 (FL)",Michael Wang,USJ-874USJ-874,Shogun Neck & Back Massger,New,1,"2 years parts, 1 year labor for Small Items",CUSTOM ,18.60,328.57,328.57,CreditCard,328.57,Tc# 3753 1050 5124 1686 9876 9,,,,,,,0.00,,,,,,,,0.00,,,,,,,0.00,Fitz Harding,8437077403,8/3/2018 12:00:00 AM,,,CA,0,6.00
108050,8/2/2018 4:54:07 PM,Sam's Club #6628 Torrance 8/2-12/18 (CA),Sam's Club #6628 Torrance 8/2-12/18 (CA),Kamille Gines,USJ-849NEW,Hands Free Bike,New,1,"2 years parts, 1 year labor for Small Items",CUSTOM ,28.50,328.48,328.48,PurchaseOrder,328.48,,TC# 886779294715111762212,,,,,,0.00,,,,,,,,0.00,,,,,,,0.00,Linda Bernardo,3104082276,,,,CA,0,9.50
108051,8/2/2018 5:05:28 PM,"Sam's Club #8213 Columbus, GA 8/2-12/18 (FL)","Sam's Club #8213 Columbus, GA 8/2-12/18 (FL)",Satoshi Nakajima,USJ-871,Foot Vibe Pro,,2,"2 years parts, 1 year labor for Small Items",CUSTOM ,17.60,237.58,237.58,CreditCard,0.00,,,,,,,,0.00,,,,,,,,0.00,,,,,,,0.00,Daiwa Massage,3105382298,,,"Appr# 650082
Appr# 002684",CA,0,8.00
108052,8/2/2018 5:10:03 PM,"Sam's Club #8213 Columbus, GA 8/2-12/18 (FL)","Sam's Club #8213 Columbus, GA 8/2-12/18 (FL)",Satoshi Nakajima,USJ-874USJ-874,Shogun Neck & Back Massger,New,1,"2 years parts, 1 year labor for Small Items",CUSTOM ,16.00,215.98,215.98,CreditCard,0.00,,,,,,,,0.00,,,,,,,,0.00,,,,,,,0.00,Daiwa Massage,3105382298,,,Appr# 000612,CA,0,8.00
108053,8/2/2018 5:17:01 PM,"Sam's Club #8213 Columbus, GA 8/2-12/18 (FL)","Sam's Club #8213 Columbus, GA 8/2-12/18 (FL)",Satoshi Nakajima,USJ-874USJ-874-DEMO,Shogun Neck & Back Massger,Demo,1,"2 years parts, 1 year labor for Small Items",CUSTOM ,14.40,194.38,194.38,CreditCard,0.00,,,,,,,,0.00,,,,,,,,0.00,,,,,,,0.00,Daiwa Massage,3105382298,,,Appr# 002684,CA,0,8.00
108054,8/2/2018 5:54:27 PM,"Sam's Club #6460 Grand Island, NE 7/26-8/5/2018 (TX)","Sam's Club #6460 Grand Island, NE 7/26-8/5/2018 (TX)",David Wallace,DWA-9400Pegasus-BR-BOX,Pegasus for Sam's,Demo Choco(Box),1,"3 years parts, 1 year labor (Free)",CUSTOM ,335.86,5133.86,5133.86,CreditCard,0.00,Tc# 6596 9755 5595 7504 4004 78,,,,,,,0.00,,,,,,,,0.00,,,,,,,0.00,James Simonson,3083837747,,,,TX,0,7.00
108055,8/2/2018 5:58:13 PM,"Sam's Club #6460 Grand Island, NE 7/26-8/5/2018 (TX)","Sam's Club #6460 Grand Island, NE 7/26-8/5/2018 (TX)",David Wallace,USJ-871,Foot Vibe Pro,,1,"2 years parts, 1 year labor (Free)",CUSTOM ,7.70,117.69,117.69,CreditCard,0.00,Tc# 708877677819735008014,,,,,,,0.00,,,,,,,,0.00,,,,,,,0.00,Anita Wall,4027253391,,,,TX,0,7.00
108056,8/2/2018 6:02:01 PM,"Sam's Club #6460 Grand Island, NE 7/26-8/5/2018 (TX)","Sam's Club #6460 Grand Island, NE 7/26-8/5/2018 (TX)",David Wallace,USJ-871,Foot Vibe Pro,,1,"2 years parts, 1 year labor (Free)",CUSTOM ,7.70,117.69,117.69,CreditCard,0.00,Tc# 808655959963503407478,,,,,,,0.00,,,,,,,,0.00,,,,,,,0.00,Don Bergener,4024364791,,,,TX,0,7.00
108057,8/2/2018 6:13:28 PM,"Sam's Club #6460 Grand Island, NE 7/26-8/5/2018 (TX)","Sam's Club #6460 Grand Island, NE 7/26-8/5/2018 (TX)",David Wallace,USJ-871,Foot Vibe Pro,,1,"2 years parts, 1 year labor (Free)",CUSTOM ,7.70,117.69,117.69,CreditCard,0.00,TC# 033272822008286931953,,,,,,,0.00,,,,,,,,0.00,,,,,,,0.00,Rita Roberson,7856475931,,,,TX,0,7.00
108058,8/2/2018 6:25:58 PM,"Sam's Club #6460 Grand Island, NE 7/26-8/5/2018 (TX)","Sam's Club #6460 Grand Island, NE 7/26-8/5/2018 (TX)",David Wallace,USJ-871,Foot Vibe Pro,,1,"2 years parts, 1 year labor (Free)",CUSTOM ,7.70,117.69,117.69,CreditCard,0.00,Tc#832988582639859112132,,,,,,,0.00,,,,,,,,0.00,,,,,,,0.00,Jada Maruska,3083899017,,,,TX,0,7.00
108059,8/2/2018 6:29:47 PM,"Sam's Club #6460 Grand Island, NE 7/26-8/5/2018 (TX)","Sam's Club #6460 Grand Island, NE 7/26-8/5/2018 (TX)",David Wallace,USJ-871,Foot Vibe Pro,,1,"2 years parts, 1 year labor (Free)",CUSTOM ,7.70,117.69,117.69,CreditCard,0.00,Tc#387533132590320661647,,,,,,,0.00,,,,,,,,0.00,,,,,,,0.00,Ken Lloyd,4029103345,,,,TX,0,7.00
108060,8/2/2018 6:30:02 PM,"Sam's Club #6565 Rapid City, SD (8/2-/12/2018) TX","Sam's Club #6565 Rapid City, SD (8/2-/12/2018) TX",Chris Tavira,USJ-871,Foot Vibe Pro,,1,"2 years parts, 1 year labor for Small Items",CUSTOM ,7.15,117.14,117.14,CreditCard,117.14,TC # 5986 7525 2915 6034 5840 6,,,,,,,0.00,,,,,,,,0.00,,,,,,,0.00,Connie Williams,6055780018,,,,TX,0,6.50
108061,8/2/2018 7:37:13 PM,"Sam's Club #8203 Marietta, GA 8/2-12/18 (FL)","Sam's Club #8203 Marietta, GA 8/2-12/18 (FL)",May Kam,USJ-9050USJ-9050BL-DEMO,Relax 2 Zero 2.0 for Sam's,Demo Black,1,"3 years parts, 1 year labor (Free)",CUSTOM ,0.00,3199.00,3199.00,CreditCard,3199.00,TC 03D1380C434925DD,,,,,,,0.00,,,,,,,,0.00,,,,,,,0.00,Mr Roberto Souza,4049146985,,,"Paid in full, request delivery ASAP, Also , the customer bought Vitality plate paid in full, picked up at booth already.
Pls deliver one tourmaline pad as gift together , thanks",FL,1,6.00
108062,8/2/2018 7:49:04 PM,"Sam's Club #8203 Marietta, GA 8/2-12/18 (FL)","Sam's Club #8203 Marietta, GA 8/2-12/18 (FL)",May Kam,USJ-849USJ-849-DEMO,Vitality Plate for Sam's,Demo,1,"2 years parts, 1 year labor (Free)",CUSTOM ,0.00,399.99,399.99,CreditCard,399.99,TC 03D1380C434925DD,,,,,,,0.00,,,,,,,,0.00,,,,,,,0.00,Mr Roberto Souza,4049146985,,,"Mr Roberto family picked up at booth, Thanks",FL,1,6.00
108063,8/2/2018 8:48:16 PM,"Sam's Club #8210 Burleson, TX 7/26-8/5/2018 (TX)","Sam's Club #8210 Burleson, TX 7/26-8/5/2018 (TX)",Tina Tran,DWA-9100DWA-9100CH-Box,Legacy for Sam's,Demo(Box) Choco,1,"3 years parts, 1 year labor (Free)",CUSTOM ,296.92,3895.92,3895.92,CreditCard,3895.92,TC# 1812 3626 2406 4480 2658 50,,,,,,,0.00,,,,,,,,0.00,,,,,,,0.00,Tara / Jim Benson,817-676-3698,,,,TX,0,8.25
108063,8/2/2018 8:48:16 PM,"Sam's Club #8210 Burleson, TX 7/26-8/5/2018 (TX)","Sam's Club #8210 Burleson, TX 7/26-8/5/2018 (TX)",Tina Tran,,Daiwa Blanket,,1,no warranty,CUSTOM ,296.92,3895.92,3895.92,CreditCard,3895.92,TC# 1812 3626 2406 4480 2658 50,,,,,,,0.00,,,,,,,,0.00,,,,,,,0.00,Tara / Jim Benson,817-676-3698,,,,TX,0,8.25
108063,8/2/2018 8:48:16 PM,"Sam's Club #8210 Burleson, TX 7/26-8/5/2018 (TX)","Sam's Club #8210 Burleson, TX 7/26-8/5/2018 (TX)",Tina Tran,,Chair Pad for Legacy,,1,no warranty,CUSTOM ,296.92,3895.92,3895.92,CreditCard,3895.92,TC# 1812 3626 2406 4480 2658 50,,,,,,,0.00,,,,,,,,0.00,,,,,,,0.00,Tara / Jim Benson,817-676-3698,,,,TX,0,8.25
108063,8/2/2018 8:48:16 PM,"Sam's Club #8210 Burleson, TX 7/26-8/5/2018 (TX)","Sam's Club #8210 Burleson, TX 7/26-8/5/2018 (TX)",Tina Tran,,Foot Pads for Legacy,,1,no warranty,CUSTOM ,296.92,3895.92,3895.92,CreditCard,3895.92,TC# 1812 3626 2406 4480 2658 50,,,,,,,0.00,,,,,,,,0.00,,,,,,,0.00,Tara / Jim Benson,817-676-3698,,,,TX,0,8.25
108064,8/2/2018 8:54:10 PM,"Sam's Club #8210 Burleson, TX 7/26-8/5/2018 (TX)","Sam's Club #8210 Burleson, TX 7/26-8/5/2018 (TX)",Tina Tran,DWA-9100DWA-9100CH-Box,Legacy for Sam's,Demo(Box) Choco,1,"3 years parts, 1 year labor (Free)",CUSTOM ,296.92,3895.92,3895.92,CreditCard,3895.92,TC# 2900 0760 6947 7894 6729 14,,,,,,,0.00,,,,,,,,0.00,,,,,,,0.00,Sue Lewis,817-614-6040,8/5/2018 12:00:00 AM,,,TX,0,8.25
108064,8/2/2018 8:54:10 PM,"Sam's Club #8210 Burleson, TX 7/26-8/5/2018 (TX)","Sam's Club #8210 Burleson, TX 7/26-8/5/2018 (TX)",Tina Tran,,Daiwa Blanket,,1,no warranty,CUSTOM ,296.92,3895.92,3895.92,CreditCard,3895.92,TC# 2900 0760 6947 7894 6729 14,,,,,,,0.00,,,,,,,,0.00,,,,,,,0.00,Sue Lewis,817-614-6040,8/5/2018 12:00:00 AM,,,TX,0,8.25
108064,8/2/2018 8:54:10 PM,"Sam's Club #8210 Burleson, TX 7/26-8/5/2018 (TX)","Sam's Club #8210 Burleson, TX 7/26-8/5/2018 (TX)",Tina Tran,,Chair Pad for Legacy,,1,no warranty,CUSTOM ,296.92,3895.92,3895.92,CreditCard,3895.92,TC# 2900 0760 6947 7894 6729 14,,,,,,,0.00,,,,,,,,0.00,,,,,,,0.00,Sue Lewis,817-614-6040,8/5/2018 12:00:00 AM,,,TX,0,8.25
108064,8/2/2018 8:54:10 PM,"Sam's Club #8210 Burleson, TX 7/26-8/5/2018 (TX)","Sam's Club #8210 Burleson, TX 7/26-8/5/2018 (TX)",Tina Tran,,Foot Pads for Legacy,,1,no warranty,CUSTOM ,296.92,3895.92,3895.92,CreditCard,3895.92,TC# 2900 0760 6947 7894 6729 14,,,,,,,0.00,,,,,,,,0.00,,,,,,,0.00,Sue Lewis,817-614-6040,8/5/2018 12:00:00 AM,,,TX,0,8.25
108065,8/3/2018 6:10:27 AM,Sam's Club #4785 Sanford 7/26-8/5/18 (FL),Sam's Club #4785 Sanford 7/26-8/5/18 (FL),Darryl Garrett,DWA-9100DWA-9100BL-DEMO,Legacy for Sam's,Demo Black,1,"3 years parts, 2 years labor ($200)",CUSTOM ,251.93,3850.93,3850.93,CreditCard,0.00,6308427276839236354491,,,,,,,0.00,,,,,,,,0.00,,,,,,,0.00,Tienthi Huang,4079131488,8/5/2018 12:00:00 AM,,,FL,0,7.00
108066,8/3/2018 8:19:23 AM,Sam's Club #4785 Sanford 7/26-8/5/18 (FL),Sam's Club #4785 Sanford 7/26-8/5/18 (FL),Darryl Garrett,USJ-871,Foot Vibe Pro,,1,"2 years parts, 1 year labor (Free)",CUSTOM ,7.70,117.69,117.69,CreditCard,0.00,175411310380742485966,,,,,,,0.00,,,,,,,,0.00,,,,,,,0.00,Wendie Harper,4074446315,,,,FL,0,7.00
108067,8/3/2018 8:48:43 AM,ASD 7/29-8/1/18 LAS VEGAS (NV),ASD 7/29-8/1/18 LAS VEGAS (NV),Ruben Cuatrona,DWA-9400Pegasus-BR-DEMO,Pegasus,Demo Choco,1,"3 years parts, 1 year labor (Free)",CUSTOM CreditCard,0.00,4000.00,4000.00,Cash,200.00,,,,,,,CreditCard,3800.00,Square# pEvH,,,,,,,0.00,,,,,,,0.00,Vivek Pahariya,352-871-0905,8/3/2018 12:00:00 AM,,$200 cash deposit collected by Ruben Cuatrona. C.O.D balance of $3800 remaining to be collected upon delivery.,NV,1,8.25
108068,8/3/2018 8:50:58 AM,"Sam's Club #6244 Fort Worth, TX (8/2-8/12/18) TX","Sam's Club #6244 Fort Worth, TX (8/2-8/12/18) TX",Kristy Tran,USJ-874USJ-874,Shogun Neck & Back Massger,New,1,"2 years parts, 1 year labor for Small Items",CUSTOM ,16.50,216.48,216.48,CreditCard,216.48,TC 4300 2686 2488 0980 8439 4,,,,,,,0.00,,,,,,,,0.00,,,,,,,0.00,Jenny Bassham,000-000-0000,,,Customer picked up 8/2/2018,TX,0,8.25
108069,8/3/2018 8:53:26 AM,Sam's Club #4785 Sanford 7/26-8/5/18 (FL),Sam's Club #4785 Sanford 7/26-8/5/18 (FL),Darryl Garrett,USJ-871,Foot Vibe Pro,,1,"2 years parts, 1 year labor (Free)",CUSTOM ,0.00,289.97,289.97,CreditCard,0.00,171222122024581830307,,,,,,,0.00,,,,,,,,0.00,,,,,,,0.00,Mita Patel,4074303145,,,,FL,1,7.00
108069,8/3/2018 8:53:26 AM,Sam's Club #4785 Sanford 7/26-8/5/18 (FL),Sam's Club #4785 Sanford 7/26-8/5/18 (FL),Darryl Garrett,USJ-874USJ-874-DEMO,Shogun Neck & Back Massger,Demo,1,"2 years parts, 1 year labor (Free)",CUSTOM ,0.00,289.97,289.97,CreditCard,0.00,171222122024581830307,,,,,,,0.00,,,,,,,,0.00,,,,,,,0.00,Mita Patel,4074303145,,,,FL,1,7.00
108070,8/3/2018 9:14:36 AM,ASD 7/29-8/1/18 LAS VEGAS (NV),ASD 7/29-8/1/18 LAS VEGAS (NV),Ruben Cuatrona,DWA-9400Pegasus-BR-DEMO,Pegasus,Demo Choco,1,"3 years parts, 1 year labor (Free)",CUSTOM ,0.00,4500.00,4500.00,Synchrony,4500.00,,,6019170813059232,92337029,Huston,48 months,,0.00,,,,,,,,0.00,,,,,,,0.00,Jason Dupont,575-430-1896,,,,TX,1,8.25
108071,8/3/2018 9:17:33 AM,"Sam's Club #8211 Douglasville, GA 8/2-12/18 (FL)","Sam's Club #8211 Douglasville, GA 8/2-12/18 (FL)",Robert Shih,DWA-9100DWA-9100CH,Legacy for Sam's,New Choco,1,"3 years parts, 1 year labor (Free)",CUSTOM ,300.93,4599.93,4599.93,CreditCard,4599.93,TC# 4248 4579 7084 9736 7553 58,,,,,,,0.00,,,,,,,,0.00,,,,,,,0.00,Michael Jackett,4045973755,,,Please deliver with a Shogun neck and back massager as gift.,FL,0,7.00
108071,8/3/2018 9:17:33 AM,"Sam's Club #8211 Douglasville, GA 8/2-12/18 (FL)","Sam's Club #8211 Douglasville, GA 8/2-12/18 (FL)",Robert Shih,USJ-874USJ-874,Shogun Neck & Back Massger,New,1,"2 years parts, 1 year labor (Free)",CUSTOM ,300.93,4599.93,4599.93,CreditCard,4599.93,TC# 4248 4579 7084 9736 7553 58,,,,,,,0.00,,,,,,,,0.00,,,,,,,0.00,Michael Jackett,4045973755,,,Please deliver with a Shogun neck and back massager as gift.,FL,0,7.00
108072,8/3/2018 9:24:50 AM,"Sam's Club #8211 Douglasville, GA 8/2-12/18 (FL)","Sam's Club #8211 Douglasville, GA 8/2-12/18 (FL)",Robert Shih,USJ-9050USJ-9050BL,Relax 2 Zero 2.0 for Sam's,New Black,1,"3 years parts, 2 years labor ($200)",CUSTOM ,273.00,4173.00,4173.00,CreditCard,4173.00,TC# 7375 7437 3254 0321 3132 95,,,,,,,0.00,,,,,,,,0.00,,,,,,,0.00,Nigel Herbert,6788388167,,,"Dear Nigel , 

Thank you for being part of daiwa family ! / Please deliver ASAP / Free 1 year labor extension",FL,0,7.00
108073,8/3/2018 9:53:22 AM,Health and Wellness Carrollton Store 2017 (TX),Health and Wellness Carrollton Store 2017 (TX),Mijung Song,USJ-9050USJ-9050BR,Relax2Zero 2.0,New Brown,1,"3 years parts, 1 year labor (Free)",CUSTOM COD,0.00,3000.00,3000.00,CreditCard,200.00,KXTy,,,,,,COD,2800.00,,,,,,,,0.00,,,,,,,0.00,Eranga Kaneria,972-489-1217,,,,Not Dispatched,1,8.25
108074,8/3/2018 10:08:01 AM,Health and Wellness Carrollton Store 2017 (TX),Health and Wellness Carrollton Store 2017 (TX),Mijung Song,DWA-9150USJ-9150BL,Legacy 3D,New Black,1,"3 years parts, 1 year labor (Free)",CUSTOM ,0.00,4500.00,4500.00,Synchrony,4500.00,,,6019170813057202,92273987,Huston,36 months,,0.00,,,,,,,,0.00,,,,,,,0.00,Tuong Truong,909-362-2621,8/5/2018 12:00:00 AM,,2nd Floor delivery will be charged.,TX,1,8.25
108075,8/3/2018 10:41:25 AM,"STURGIS RALLY 8/1-11-18 RAPID CITY , SD (IL)","STURGIS RALLY 8/1-11-18 RAPID CITY , SD (IL)",Winston Melgar,DWA-9150USJ-9150BL-DEMO,Legacy 3D,Demo Black,1,"3 years parts, 1 year labor (Free)",CUSTOM ,0.00,3780.00,3780.00,Synchrony,3780.00,,,6019170813060503,92384981,Huston,18 months,,0.00,,,,,,,,0.00,,,,,,,0.00,Mike Fitzpatrict,309-797-8200,,,Package deal,TX,1,6.50
108076,8/3/2018 10:48:27 AM,"STURGIS RALLY 8/1-11-18 RAPID CITY , SD (IL)","STURGIS RALLY 8/1-11-18 RAPID CITY , SD (IL)",Winston Melgar,DWA-9150USJ-9150CH-DEMO,Legacy 3D,Demo Choco,1,"3 years parts, 1 year labor (Free)",CUSTOM ,0.00,3780.00,3780.00,CreditCard,3780.00,Square#SPKJ,,,,,,,0.00,,,,,,,,0.00,,,,,,,0.00,Steven(Rick) Johnson,816-260-0744,,,Please ship the chair after August 13th.,TX,1,6.50
108077,8/3/2018 10:58:20 AM,"STURGIS RALLY 8/1-11-18 RAPID CITY , SD (IL)","STURGIS RALLY 8/1-11-18 RAPID CITY , SD (IL)",Ruben Cuatrona,DWA-9150USJ-9150BL,Legacy 3D,New Black,1,"3 years parts, 1 year labor (Free)",CUSTOM ,0.00,4000.00,4000.00,CreditCard,4000.00,Square#vrwU,,,,,,,0.00,,,,,,,,0.00,,,,,,,0.00,Randy Keiser,559-281-3101,,,Please Ship As soon As possible to the customer,CA,1,6.50
108078,8/3/2018 11:09:22 AM,Health and Wellness Carrollton Store 2017 (TX),Health and Wellness Carrollton Store 2017 (TX),Mijung Song,USJ-9000USJ-9000BR,Relax2Zero 1.0,New Brown,1,"3 years parts, 1 year labor (Free)",CUSTOM Cash,0.00,3000.00,3000.00,CreditCard,200.00,KXTy,,,,,,Cash,2800.00,,,,,,,,0.00,,,,,,,0.00,Eranga Kaneria,972-489-1217,8/5/2018 12:00:00 AM,,,TX,1,8.25
108079,8/3/2018 11:50:27 AM,"STURGIS RALLY 8/1-11-18 RAPID CITY , SD (IL)","STURGIS RALLY 8/1-11-18 RAPID CITY , SD (IL)",Winston Melgar,DWA-9150USJ-9150BL-DEMO,Legacy 3D,Demo Black,1,"3 years parts, 1 year labor (Free)",CUSTOM ,0.00,3800.00,3800.00,Synchrony,3800.00,,,6019170813062608,92445198,Huston,36 months,,0.00,,,,,,,,0.00,,,,,,,0.00,Troy Dahmes,507-249-8739,,,Please charge 3800/36 months on Houston acc. Please bring Sales Draft for the customer to sign when delivery the chair.,TX,1,6.50
108080,8/3/2018 11:56:33 AM,"STURGIS RALLY 8/1-11-18 RAPID CITY , SD (IL)","STURGIS RALLY 8/1-11-18 RAPID CITY , SD (IL)",Ruben Cuatrona,DWA-9150USJ-9150CH-DEMO,Legacy 3D,Demo Choco,1,"3 years parts, 1 year labor (Free)",CUSTOM ,0.00,4200.00,4200.00,Synchrony,4200.00,,,6019170813063770,92479021,Huston,36 months,,0.00,,,,,,,,0.00,,,,,,,0.00,Josephine Boykin,410-980-1799,,,Please charge 4200/36 months on Houston acc. Please bring Sales Draft for the the customer to sign when delivery.,TX,1,6.50
108081,8/3/2018 11:59:44 AM,Sam's Club #6387 Pinellas Park 8/2-8/12/18 (FL),Sam's Club #6387 Pinellas Park 8/2-8/12/18 (FL),Patricia Whipple,USJ-871,Foot Vibe Pro,,1,"2 years parts, 1 year labor (Free)",CUSTOM PurchaseOrder,7.70,117.69,117.69,CreditCard,0.00,000870,,,,,,PurchaseOrder,0.00,,526645450923207038437,,,,,,0.00,,,,,,,0.00,N/A N/A,0,,,,FL,0,7.00
108082,8/3/2018 12:03:05 PM,"STURGIS RALLY 8/1-11-18 RAPID CITY , SD (IL)","STURGIS RALLY 8/1-11-18 RAPID CITY , SD (IL)",Ruben Cuatrona,DWA-9150USJ-9150BL-DEMO,Legacy 3D,Demo Black,1,"3 years parts, 1 year labor (Free)",CUSTOM COD,0.00,3900.00,3900.00,CreditCard,2000.00,Receipt #y8Kn,,,,,,COD,1900.00,,,,,,,,0.00,,,,,,,0.00,Joe & Tammy Homan,701-223-8677,,,Deposit $2000. balance pay when delivery,TX,1,6.50
108083,8/3/2018 12:07:29 PM,"STURGIS RALLY 8/1-11-18 RAPID CITY , SD (IL)","STURGIS RALLY 8/1-11-18 RAPID CITY , SD (IL)",Ruben Cuatrona,DWA-9150USJ-9150CH-DEMO,Legacy 3D,Demo Choco,1,"3 years parts, 1 year labor (Free)",CUSTOM ,0.00,3900.00,3900.00,CreditCard,3900.00,Square#zzP8,,,,,,,0.00,,,,,,,,0.00,,,,,,,0.00,Kenneth Kleinsassor,701-214-3217,,,Paid In Full. Square#zzP8,TX,1,6.50
108084,8/3/2018 12:10:10 PM,"Sam's Club #6582 Bluffton(HILTON HEAD ISLAND), SC 7/26-8/5/18 (FL)","Sam's Club #6582 Bluffton(HILTON HEAD ISLAND), SC 7/26-8/5/18 (FL)",Michael Wang,DWA-9100DWA-9100CH-Box,Legacy for Sam's,Demo(Box) Choco,1,"3 years parts, 1 year labor (Free)",CUSTOM ,215.94,3814.94,3814.94,CreditCard,3814.94,Tc# 1822 5220 2504 6083 8679 35,,,,,,,0.00,,,,,,,,0.00,,,,,,,0.00,James Tavino,8433389230,,,Free setup plus delivery.Customer receives 2 free chair pads 1 free Daiwa blanket.,FL,0,6.00
108084,8/3/2018 12:10:10 PM,"Sam's Club #6582 Bluffton(HILTON HEAD ISLAND), SC 7/26-8/5/18 (FL)","Sam's Club #6582 Bluffton(HILTON HEAD ISLAND), SC 7/26-8/5/18 (FL)",Michael Wang,,Daiwa Blanket,,1,no warranty,CUSTOM ,215.94,3814.94,3814.94,CreditCard,3814.94,Tc# 1822 5220 2504 6083 8679 35,,,,,,,0.00,,,,,,,,0.00,,,,,,,0.00,James Tavino,8433389230,,,Free setup plus delivery.Customer receives 2 free chair pads 1 free Daiwa blanket.,FL,0,6.00
108084,8/3/2018 12:10:10 PM,"Sam's Club #6582 Bluffton(HILTON HEAD ISLAND), SC 7/26-8/5/18 (FL)","Sam's Club #6582 Bluffton(HILTON HEAD ISLAND), SC 7/26-8/5/18 (FL)",Michael Wang,,Chair Pad for Legacy,,1,no warranty,CUSTOM ,215.94,3814.94,3814.94,CreditCard,3814.94,Tc# 1822 5220 2504 6083 8679 35,,,,,,,0.00,,,,,,,,0.00,,,,,,,0.00,James Tavino,8433389230,,,Free setup plus delivery.Customer receives 2 free chair pads 1 free Daiwa blanket.,FL,0,6.00
108085,8/3/2018 12:54:16 PM,"Sam's Club #6582 Bluffton(HILTON HEAD ISLAND), SC 7/26-8/5/18 (FL)","Sam's Club #6582 Bluffton(HILTON HEAD ISLAND), SC 7/26-8/5/18 (FL)",Michael Wang,USJ-871,Foot Vibe Pro,,1,"2 years parts, 1 year labor for Small Items",CUSTOM ,6.60,116.59,116.59,CreditCard,116.59,Tc# 1174 1141 2330 3424 7888 7,,,,,,,0.00,,,,,,,,0.00,,,,,,,0.00,Alfonzo Flores,8454151408,,,,FL,0,6.00
108086,8/3/2018 1:59:53 PM,"Sam's Club #6582 Bluffton(HILTON HEAD ISLAND), SC 7/26-8/5/18 (FL)","Sam's Club #6582 Bluffton(HILTON HEAD ISLAND), SC 7/26-8/5/18 (FL)",Michael Wang,USJ-871,Foot Vibe Pro,,1,"2 years parts, 1 year labor for Small Items",CUSTOM ,0.00,109.99,109.99,CreditCard,109.99,Tc# 2231 7414 3268 2747 6952 3,,,,,,,0.00,,,,,,,,0.00,,,,,,,0.00,Jason Rainey,8434760845,,,,TX,1,6.00
108087,8/3/2018 2:23:36 PM,Sam's Club #6189 Apopka 8/2-12/18 (FL),Sam's Club #6189 Apopka 8/2-12/18 (FL),Rebecca Miller,DWA-9100DWA-9100BL-DEMO,Legacy for Sam's,Demo Black,1,"3 years parts, 1 year labor (Free)",CUSTOM ,233.94,3832.94,3832.94,PurchaseOrder,3832.94,,3643530301165465647710,,,,,,0.00,,,,,,,,0.00,,,,,,,0.00,Lionel Cadogan,407-703-4728,8/4/2018 12:00:00 AM,,,FL,0,6.50
108088,8/3/2018 3:41:04 PM,Referral (Main Office),Referral (Main Office),Rolly San Jose,DWA-9100DWA-9100BL,Legacy,New Black,1,"3 years parts, 1 year labor (Free)",CUSTOM ,0.00,4200.00,4200.00,CreditCard,4200.00,07548I,,,,,,,0.00,,,,,,,,0.00,,,,,,,0.00,Jim Mckelvey,6087705711,,,,Not Dispatched,1,9.25
108089,8/3/2018 3:54:21 PM,Referral (Main Office),Referral (Main Office),Rolly San Jose,DWA-9100DWA-9100BL,Legacy,New Black,1,"3 years parts, 1 year labor (Free)",CUSTOM ,0.00,4200.00,4200.00,CreditCard,4200.00,07548I,,,,,,,0.00,,,,,,,,0.00,,,,,,,0.00,Jim Mckelvey,6087705711,,,,TX,1,9.25
108090,8/3/2018 4:20:27 PM,ASD 7/29-8/1/18 LAS VEGAS (NV),ASD 7/29-8/1/18 LAS VEGAS (NV),Ruben Cuatrona,DWA-9400Pegasus-BR-DEMO,Pegasus,Demo Choco,1,"3 years parts, 1 year labor (Free)",CUSTOM ,0.00,5200.00,5200.00,Synchrony,5200.00,,,6019170813059265,92337564,Huston,36 months,,0.00,,,,,,,,0.00,,,,,,,0.00,Kristy-Ann Dunlap-Smith,(502)777-3716,,,,TX,1,8.25
108091,8/3/2018 4:47:04 PM,ASD 7/29-8/1/18 LAS VEGAS (NV),ASD 7/29-8/1/18 LAS VEGAS (NV),Ruben Cuatrona,DWA-9400Pegasus-BR,Pegasus,New Choco,1,"3 years parts, 1 year labor (Free)",CUSTOM ,0.00,4500.00,4500.00,Synchrony,0.00,,,6019170813059232,92337029,Huston,48 months,,0.00,,,,,,,,0.00,,,,,,,0.00,Jason Dupont,(575)430-1896,,,,TX,1,8.25
108092,8/3/2018 5:16:16 PM,"Sam's Club #8213 Columbus, GA 8/2-12/18 (FL)","Sam's Club #8213 Columbus, GA 8/2-12/18 (FL)",Satoshi Nakajima,USJ-871,Foot Vibe Pro,,2,"2 years parts, 1 year labor for Small Items",CUSTOM ,17.60,237.58,237.58,CreditCard,237.58,,,,,,,,0.00,,,,,,,,0.00,,,,,,,0.00,Jason Dupont,575-430-1896,,,"App# 000897
App# 811831",TX,0,8.00
108093,8/3/2018 5:21:55 PM,ASD 7/29-8/1/18 LAS VEGAS (NV),ASD 7/29-8/1/18 LAS VEGAS (NV),Ruben Cuatrona,DWA-9150USJ-9150BL,Legacy 3D,New Black,1,"3 years parts, 1 year labor (Free)",CUSTOM ,0.00,3900.00,3900.00,CreditCard,0.00,9der,,,,,,,0.00,,,,,,,,0.00,,,,,,,0.00,Phong Nguyen,(512)731-8367,,,,TX,1,8.25
108093,8/3/2018 5:21:55 PM,ASD 7/29-8/1/18 LAS VEGAS (NV),ASD 7/29-8/1/18 LAS VEGAS (NV),Ruben Cuatrona,,Daiwa Blanket,,1,no warranty,CUSTOM ,0.00,3900.00,3900.00,CreditCard,0.00,9der,,,,,,,0.00,,,,,,,,0.00,,,,,,,0.00,Phong Nguyen,(512)731-8367,,,,TX,1,8.25
108094,8/3/2018 5:22:00 PM,Health and Wellness Plano Store 2017 (TX),Health and Wellness Plano Store 2017 (TX),Hailin Xie,DWA-9060USJ-9060BR,Relax2Zero 3D,New Choco,1,"3 years parts, 1 year labor (Free)",CUSTOM ,0.00,3900.00,3900.00,Synchrony,3900.00,,,6019170813064422,92498312,Huston,36 months,,0.00,,,,,,,,0.00,,,,,,,0.00,Yi Ja Wei,832-524-1518,,,,TX,1,8.25
108095,8/3/2018 5:27:01 PM,ASD 7/29-8/1/18 LAS VEGAS (NV),ASD 7/29-8/1/18 LAS VEGAS (NV),Ruben Cuatrona,DWA-9150USJ-9150BL,Legacy 3D,New Black,1,"3 years parts, 1 year labor (Free)",CUSTOM ,0.00,3900.00,3900.00,CreditCard,0.00,9der,,,,,,,0.00,,,,,,,,0.00,,,,,,,0.00,Rev. Joseph Nguyen,(904)724-0080,,,,FL,1,8.25
108095,8/3/2018 5:27:01 PM,ASD 7/29-8/1/18 LAS VEGAS (NV),ASD 7/29-8/1/18 LAS VEGAS (NV),Ruben Cuatrona,,Daiwa Blanket,,1,no warranty,CUSTOM ,0.00,3900.00,3900.00,CreditCard,0.00,9der,,,,,,,0.00,,,,,,,,0.00,,,,,,,0.00,Rev. Joseph Nguyen,(904)724-0080,,,,FL,1,8.25
108096,8/3/2018 6:29:20 PM,Sam's Club #8141 Melbourne 8/2-12/18 (FL),Sam's Club #8141 Melbourne 8/2-12/18 (FL),Ting Ritchie,USJ-871,Foot Vibe Pro,,1,"2 years parts, 1 year labor for Small Items",CUSTOM ,7.70,117.69,117.69,CreditCard,117.69,0153 1040 5112 0685 7761 0,,,,,,,0.00,,,,,,,,0.00,,,,,,,0.00,John Anderson,3217277194,,,,FL,0,7.00
108097,8/3/2018 6:34:42 PM,Sam's Club #8141 Melbourne 8/2-12/18 (FL),Sam's Club #8141 Melbourne 8/2-12/18 (FL),Ting Ritchie,USJ-849USJ-849-DEMO,Vitality Plate for Sam's,Demo,1,"2 years parts, 1 year labor for Small Items",CUSTOM ,0.00,427.99,427.99,CreditCard,427.99,7685 5383 7559 3207 0624 3,,,,,,,0.00,,,,,,,,0.00,,,,,,,0.00,Joshua Goldner,3215447994,,,,FL,1,7.00
108098,8/3/2018 6:43:25 PM,Sam's Club #8141 Melbourne 8/2-12/18 (FL),Sam's Club #8141 Melbourne 8/2-12/18 (FL),Ting Ritchie,DWA-9100DWA-9100BG-DEMO,Legacy for Sam's,Demo Beige,1,"3 years parts, 1 year labor (Free)",CUSTOM ,0.00,3850.93,3850.93,CreditCard,3850.93,7056 6056 5499 3503 8640 15,,,,,,,0.00,,,,,,,,0.00,,,,,,,0.00,Cary Sargent,3217201534,,,"Please deliver the foot vibe with the chair, thanks!",FL,1,7.00
108098,8/3/2018 6:43:25 PM,Sam's Club #8141 Melbourne 8/2-12/18 (FL),Sam's Club #8141 Melbourne 8/2-12/18 (FL),Ting Ritchie,USJ-871,Foot Vibe Pro,,1,No Warranty,CUSTOM ,0.00,3850.93,3850.93,CreditCard,3850.93,7056 6056 5499 3503 8640 15,,,,,,,0.00,,,,,,,,0.00,,,,,,,0.00,Cary Sargent,3217201534,,,"Please deliver the foot vibe with the chair, thanks!",FL,1,7.00
108099,8/3/2018 7:25:38 PM,Sam's Club #6628 Torrance 8/2-12/18 (CA),Sam's Club #6628 Torrance 8/2-12/18 (CA),Kamille Gines,DWA-9100DWA-9100SB-Box,Legacy for Sam's,Demo(Box) Sienna Brown,1,"3 years parts, 1 year labor (Free)",CUSTOM ,341.91,3940.91,3940.91,PurchaseOrder,3940.91,,Tc# 1662532224064882069949,,,,,,0.00,,,,,,,,0.00,,,,,,,0.00,Carolyn Saiki,3105412802,8/8/2018 12:00:00 AM,,,CA,0,9.50
108100,8/3/2018 8:27:14 PM,Sam's Club #8155 Gainesville  7/26-8/5/18 (FL),Sam's Club #8155 Gainesville  7/26-8/5/18 (FL),Hunt Zhang,USJ-874USJ-874,Shogun Neck & Back Massger,New,1,"2 years parts, 1 year labor (Free)",CUSTOM ,13.00,212.98,212.98,CreditCard,212.98,41006686841774946,,,,,,,0.00,,,,,,,,0.00,,,,,,,0.00,Karlotha Bryant,352-870-3085,,,,FL,0,6.50
108101,8/3/2018 8:32:34 PM,Sam's Club #8155 Gainesville  7/26-8/5/18 (FL),Sam's Club #8155 Gainesville  7/26-8/5/18 (FL),Hunt Zhang,USJ-871,Foot Vibe Pro,,1,"2 years parts, 1 year labor for Small Items",CUSTOM ,7.15,117.14,117.14,CreditCard,117.14,714877079815234279317,,,,,,,0.00,,,,,,,,0.00,,,,,,,0.00,Sydney Meth,352-474-7785,,,,FL,0,6.50
108102,8/4/2018 1:27:12 AM,Sam's Club #4861 St Petersburg  7/25-8/5/18 (FL),Sam's Club #4861 St Petersburg  7/25-8/5/18 (FL),Hiroko Hudson,USJ-871,Foot Vibe Pro,,1,"2 years parts, 1 year labor for Small Items",CUSTOM ,7.70,117.69,117.69,PurchaseOrder,0.00,,308533133581320666742,,,,,,0.00,,,,,,,,0.00,,,,,,,0.00,Jon C Bayer,7279065635,,,,FL,0,7.00
108103,8/4/2018 6:47:30 AM,"Sam's Club #8202 Savannah, GA 7/26-8/5/18 (FL)","Sam's Club #8202 Savannah, GA 7/26-8/5/18 (FL)",Michael Rowe,USJ-874USJ-874,Shogun Neck & Back Massger,New,1,"2 years parts, 1 year labor (Free)",CUSTOM ,14.00,213.98,213.98,PurchaseOrder,0.00,,TC#157300304154166240631,,,,,,0.00,,,,,,,,0.00,,,,,,,0.00,Robert Oberhelman,9126774394,8/6/2018 12:00:00 AM,,,CA,0,7.00
108104,8/4/2018 12:00:33 PM,"Sam's Club #8165 Sioux, SD (8/2-8/12/2018) TX","Sam's Club #8165 Sioux, SD (8/2-8/12/2018) TX",Gail Kerns,USJ-874USJ-874,Shogun Neck & Back Massger,New,1,"2 years parts, 1 year labor for Small Items",CUSTOM ,13.00,212.98,212.98,Check,212.98,,,,,,,,0.00,,,,,,,,0.00,,,,,,,0.00,Ruth Kern-Scott,605-321-2208,,,"Picked up
Paid with check
TC#1373 0010 8112 9667 4361 0",TX,0,6.50
108105,8/4/2018 12:44:24 PM,Sam's Club #8138 Daytona Beach 8/2-12/18 (FL),Sam's Club #8138 Daytona Beach 8/2-12/18 (FL),Abagail Stirling,DWA-9100DWA-9100BL-Box,Legacy for Sam's,Demo(Box) Black,1,"3 years parts, 1 year labor (Free)",CUSTOM ,233.94,3832.94,3832.94,CreditCard,0.00,TC# 6318 0675 7380 9334 6503 87,,,,,,,0.00,,,,,,,,0.00,,,,,,,0.00,Bob Wood,3867672827,,,,FL,0,6.50
108106,8/4/2018 12:54:07 PM,"Sam's Club #8203 Marietta, GA 8/2-12/18 (FL)","Sam's Club #8203 Marietta, GA 8/2-12/18 (FL)",May Kam,USJ-9050USJ-9050BL-DEMO,Relax 2 Zero 2.0 for Sam's,Demo Black,1,"3 years parts, 1 year labor (Free)",CUSTOM ,0.00,3199.00,3199.00,CreditCard,3199.00,TC 9994E48E03E450CC; AID A0000000031010,,,,,,,0.00,,,,,,,,0.00,,,,,,,0.00,Mr Mohammad Babar,6787703419,,,"Pls check to make sure Good Condition, Thanks",FL,1,6.00
108106,8/4/2018 12:54:07 PM,"Sam's Club #8203 Marietta, GA 8/2-12/18 (FL)","Sam's Club #8203 Marietta, GA 8/2-12/18 (FL)",May Kam,,Daiwa Blanket,,1,no warranty,CUSTOM ,0.00,3199.00,3199.00,CreditCard,3199.00,TC 9994E48E03E450CC; AID A0000000031010,,,,,,,0.00,,,,,,,,0.00,,,,,,,0.00,Mr Mohammad Babar,6787703419,,,"Pls check to make sure Good Condition, Thanks",FL,1,6.00
108107,8/4/2018 12:54:16 PM,Sam's Club #8138 Daytona Beach 8/2-12/18 (FL),Sam's Club #8138 Daytona Beach 8/2-12/18 (FL),Abagail Stirling,USJ-9050USJ-9050BR-DEMO (Box),Relax 2 Zero 2.0 for Sam's,Demo (Box) Brown,1,"3 years parts, 1 year labor (Free)",CUSTOM ,207.94,3406.94,3406.94,CreditCard,0.00,TC# 5984 8012 1438 0449 5284 81,,,,,,,0.00,,,,,,,,0.00,,,,,,,0.00,Doug & Candace Dorr,3862754894,,,,FL,0,6.50
108108,8/4/2018 1:13:12 PM,Sam's Club #8138 Daytona Beach 8/2-12/18 (FL),Sam's Club #8138 Daytona Beach 8/2-12/18 (FL),Abagail Stirling,USJ-9050USJ-9050BR-DEMO (Box),Relax 2 Zero 2.0 for Sam's,Demo (Box) Brown,1,"3 years parts, 1 year labor (Free)",CUSTOM ,207.94,3406.94,3406.94,CreditCard,0.00,TC# 8697 2592 9372 5116 8321 29,,,,,,,0.00,,,,,,,,0.00,,,,,,,0.00,Marilenn Punsalon,3862372045,,,,FL,0,6.50
108109,8/4/2018 1:16:28 PM,"Sam's Club #6582 Bluffton(HILTON HEAD ISLAND), SC 7/26-8/5/18 (FL)","Sam's Club #6582 Bluffton(HILTON HEAD ISLAND), SC 7/26-8/5/18 (FL)",Michael Wang,USJ-871,Foot Vibe Pro,,1,"2 years parts, 1 year labor for Small Items",CUSTOM ,6.60,116.59,116.59,CreditCard,116.59,Tc# 0973 0030 2114 1646 9977 9,,,,,,,0.00,,,,,,,,0.00,,,,,,,0.00,Thomas Faber,3105382298,,,,FL,0,6.00
108110,8/4/2018 1:25:18 PM,Sam's Club #8138 Daytona Beach 8/2-12/18 (FL),Sam's Club #8138 Daytona Beach 8/2-12/18 (FL),Abagail Stirling,DWA-9400Pegasus-BR-BOX,Pegasus for Sam's,Demo Choco(Box),1,"3 years parts, 1 year labor (Free)",CUSTOM ,311.87,5109.87,5109.87,CreditCard,0.00,TC# 1680 3863 6743 8995 2939 76,,,,,,,0.00,,,,,,,,0.00,,,,,,,0.00,Janet Hughes,3866769703,,,,FL,0,6.50
108111,8/4/2018 3:52:30 PM,"Sam's Club #8286 Waco, TX 7/26-8/5/2018 (TX)","Sam's Club #8286 Waco, TX 7/26-8/5/2018 (TX)",Khoa Huynh,USJ-871,Foot Vibe Pro,,1,"2 years parts, 1 year labor for Small Items",CUSTOM ,9.07,119.06,119.06,CreditCard,119.06,554625853923405064059,,,,,,,0.00,,,,,,,,0.00,,,,,,,0.00,Guadalure Gonzales,2548170163,,,Customer picked up the products.,TX,0,8.25
108112,8/4/2018 4:13:57 PM,"Sam's Club #8213 Columbus, GA 8/2-12/18 (FL)","Sam's Club #8213 Columbus, GA 8/2-12/18 (FL)",Satoshi Nakajima,USJ-874USJ-874,Shogun Neck & Back Massger,New,2,"2 years parts, 1 year labor for Small Items",CUSTOM ,40.80,550.75,550.75,CreditCard,550.75,,,,,,,,0.00,,,,,,,,0.00,,,,,,,0.00,Jason Dupont,575-430-1896,,,"TC# 109262324004189262860
TC# 435164241296078481782",TX,0,8.00
108112,8/4/2018 4:13:57 PM,"Sam's Club #8213 Columbus, GA 8/2-12/18 (FL)","Sam's Club #8213 Columbus, GA 8/2-12/18 (FL)",Satoshi Nakajima,USJ-871,Foot Vibe Pro,,1,"2 years parts, 1 year labor for Small Items",CUSTOM ,40.80,550.75,550.75,CreditCard,550.75,,,,,,,,0.00,,,,,,,,0.00,,,,,,,0.00,Jason Dupont,575-430-1896,,,"TC# 109262324004189262860
TC# 435164241296078481782",TX,0,8.00
108113,8/4/2018 5:22:49 PM,"STURGIS RALLY 8/1-11-18 RAPID CITY , SD (IL)","STURGIS RALLY 8/1-11-18 RAPID CITY , SD (IL)",Tom Nguyen,DWA-9400Pegasus-BR,Pegasus,New Choco,1,"3 years parts, 1 year labor (Free)",CUSTOM ,0.00,5900.00,5900.00,CreditCard,5900.00,Square#JQwl,,,,,,,0.00,,,,,,,,0.00,,,,,,,0.00,Tom Drake,530-526-4439,,,Paid IN Full. Square#JQwl,CA,1,6.50
108114,8/4/2018 6:56:04 PM,Sam's Club #8141 Melbourne 8/2-12/18 (FL),Sam's Club #8141 Melbourne 8/2-12/18 (FL),Ting Ritchie,DWA-9100DWA-9100BL-Box,Legacy for Sam's,Demo(Box) Black,1,"3 years parts, 1 year labor (Free)",CUSTOM ,0.00,3850.93,3850.93,CreditCard,3850.93,3433 7203 0013 5064 5876 10,,,,,,,0.00,,,,,,,,0.00,,,,,,,0.00,Ying Ng,2514726828,,,,FL,1,7.00
108115,8/4/2018 7:03:34 PM,Sam's Club #8141 Melbourne 8/2-12/18 (FL),Sam's Club #8141 Melbourne 8/2-12/18 (FL),Ting Ritchie,USJ-9050USJ-9050BR,Relax 2 Zero 2.0 for Sam's,New Brown,1,"3 years parts, 1 year labor (Free)",CUSTOM ,273.00,4173.00,4173.00,CreditCard,4173.00,9184 8614 1431 0140 9074 51,,,,,,,0.00,,,,,,,,0.00,,,,,,,0.00,Cori Henderson,3212416475,,,,FL,0,7.00
108116,8/4/2018 7:08:02 PM,Sam's Club #8141 Melbourne 8/2-12/18 (FL),Sam's Club #8141 Melbourne 8/2-12/18 (FL),Ting Ritchie,USJ-874USJ-874-DEMO,Shogun Neck & Back Massger,Demo,1,"2 years parts, 1 year labor for Small Items",CUSTOM ,14.00,213.98,213.98,CreditCard,213.98,2919 8838 9687 8502 6057 8,,,,,,,0.00,,,,,,,,0.00,,,,,,,0.00,Fred March,3217204029,,,,FL,0,7.00
108117,8/4/2018 7:35:00 PM,"Sam's Club #4795 Grapevine, TX (8/2-8/12/2018) TX","Sam's Club #4795 Grapevine, TX (8/2-8/12/2018) TX",Jennifer Tran,USJ-874USJ-874,Shogun Neck & Back Massger,New,1,"2 years parts, 1 year labor for Small Items",CUSTOM ,0.00,199.98,199.98,CreditCard,199.98,TC# 7647 8959 3773 4113 1662 0,,,,,,,0.00,,,,,,,,0.00,,,,,,,0.00,Anne Evbuomwan,469-363-0448,,,TAX-EXEMPT,TX,1,8.25
108118,8/4/2018 7:37:04 PM,"Sam's Club #4795 Grapevine, TX (8/2-8/12/2018) TX","Sam's Club #4795 Grapevine, TX (8/2-8/12/2018) TX",Jennifer Tran,USJ-871,Foot Vibe Pro,,1,"2 years parts, 1 year labor for Small Items",CUSTOM ,9.07,119.06,119.06,CreditCard,119.06,TC# 1792 1292 2066 5856 7130 7,,,,,,,0.00,,,,,,,,0.00,,,,,,,0.00,Amy Monson,817-659-9872,,,,TX,0,8.25
108119,8/4/2018 7:41:26 PM,Sam's Club #4785 Sanford 7/26-8/5/18 (FL),Sam's Club #4785 Sanford 7/26-8/5/18 (FL),Darryl Garrett,USJ-874USJ-874-DEMO,Shogun Neck & Back Massger,Demo,1,"2 years parts, 1 year labor for Small Items",CUSTOM ,12.60,192.58,192.58,CreditCard,0.00,158421016322744473936,,,,,,,0.00,,,,,,,,0.00,,,,,,,0.00,Ashok Kumas,7046268686,,,,FL,0,7.00
108120,8/4/2018 7:42:02 PM,"Sam's Club #4795 Grapevine, TX (8/2-8/12/2018) TX","Sam's Club #4795 Grapevine, TX (8/2-8/12/2018) TX",Jennifer Tran,USJ-9300Symphony-BW-DEMOBX,Symphony,Demo (Box) Choco,1,"3 years parts, 1 year labor (Free)",CUSTOM ,0.00,4599.00,4599.00,CreditCard,4599.00,TC# 5953 7405 0117 4962 4295 48,,,,,,,0.00,,,,,,,,0.00,,,,,,,0.00,Jason Comer,817-584-4295,,,"TAX-EXEMPT
*DELIVER ASAP*",TX,1,8.25
108121,8/4/2018 7:45:29 PM,"Sam's Club #4795 Grapevine, TX (8/2-8/12/2018) TX","Sam's Club #4795 Grapevine, TX (8/2-8/12/2018) TX",Jennifer Tran,USJ-871,Foot Vibe Pro,,1,"2 years parts, 1 year labor for Small Items",CUSTOM ,9.07,119.06,119.06,CreditCard,119.06,TC# 8619 5808 8697 0519 0026 3,,,,,,,0.00,,,,,,,,0.00,,,,,,,0.00,Ratilal Patel,817-846-2835,,,,TX,0,8.25
108122,8/4/2018 9:07:36 PM,"Sam's Club #8210 Burleson, TX 7/26-8/5/2018 (TX)","Sam's Club #8210 Burleson, TX 7/26-8/5/2018 (TX)",Tina Tran,USJ-874USJ-874,Shogun Neck & Back Massger,New,1,"2 years parts, 1 year labor for Small Items",CUSTOM ,16.50,216.48,216.48,CreditCard,216.48,TC# 2351 0494 4268 6754 6071 2,,,,,,,0.00,,,,,,,,0.00,,,,,,,0.00,Gerrie Waldom,817-647-5795,,,Customer picked up in store.,TX,0,8.25
108123,8/4/2018 9:12:02 PM,"Sam's Club #8210 Burleson, TX 7/26-8/5/2018 (TX)","Sam's Club #8210 Burleson, TX 7/26-8/5/2018 (TX)",Tina Tran,USJ-871,Foot Vibe Pro,,1,"2 years parts, 1 year labor for Small Items",CUSTOM ,9.07,119.06,119.06,CreditCard,119.06,TC# 6919 9888 4697 7588 1053 6,,,,,,,0.00,,,,,,,,0.00,,,,,,,0.00,Maria Dolores Rodriguez,682-597-7356,,,Customer picked up in store.,TX,0,8.25
