﻿Date,CustomerName,State,Zipcode,Description,productNo,Color,IsDemo,Net,ShippingFee,GiftPrice,FinancingProcessingFee,Gross,Pre_tax,Tax,Commission,Primary Payment Method,Primary Payment Balance,Primary Authorize Number,Primary Purchase Order Number,Primary Synchrony Account Number,Primary Synchrony Application Key,Primary Synchrony AccountInfo,Primary SynchronyTerm,Secondly Payment Method,Secondly Payment Balance,Secondly Authorize Number,Secondly Purchase Order Number,Secondly Synchrony Account Number,Secondly Synchrony Application Key,Secondly Synchrony AccountInfo,Secondly SynchronyTerm,Thirdly Payment Method,Thirdly Payment Balance,Thirdly Authorize Number,Thirdly Purchase Order Number,Thirdly Synchrony Account Number,Thirdly Synchrony Application Key,Thirdly Synchrony AccountInfo,Thirdly SynchronyTerm,DeliveryDate,Ispickup,Warranty,Status,Original Event Name,Event Name,Synchrony Notes,Order Notes,Order number,Private Note,Branch,IsNoTax,ActualTaxRate
7/24/2018 7:23:51 AM,Alycia Brown,IN,46845,Pegasus,DWA-9400Pegasus-BR,New Choco,New,,,,,6090.00,5800.00,290.00,Robert Shih,Synchrony,6090.00,,,6019170813047856,92033737,Las Vegas,36 months,,0.00,,,,,,,,0.00,,,,,,,,No,"3 years parts, 1 year labor (Free)",Cancelled,"EAA 7/23-29/18 Oshkosh, WI (IL)","EAA 7/23-29/18 Oshkosh, WI (IL)",,"Dear Brown family , 

Thank you very much for being part of daiwa family ! / Synchrony 36 months 0% APR / Please deliver ASAP / Second floor delivery",107772,"Confirmed synchrony account ($8,500) and original.***PLease charge before delivery and have sales draft signed. *** 7/24/18 Hitomi
called and none answer the phone, left the test message. 7/25/2018 June
Customer called sales for cancel, and she will call us tomorrow 7/26/2018 to confirm her cancellation. 7/25/2018 June
Sales confirmed the cancellation. 7/26/2018 June
//Marked as canceled 7/26/18 Hitomi",TX,0,5.00
7/24/2018 7:29:35 AM,Timothy L. Sorg,IN,46723,Legacy 3D,DWA-9150USJ-9150BL-DEMO,Demo Black,Demo,,,,,3900.00,3900.00,0.00,Ruben Cuatrona,CreditCard,100.00,SQUARE # BTS8,,,,,,CreditCard,3800.00,nv17,,,,,,,0.00,,,,,,,8/13/2018 12:00:00 AM,No,"3 years parts, 1 year labor (Free)",Delivered,"EAA 7/23-29/18 Oshkosh, WI (IL)","EAA 7/23-29/18 Oshkosh, WI (IL)",,"Dear Sorg family,  

Thank you for being part of daiwa family ! / Please deliver ASAP",107773,"Confirmed $100 in Square. Please collect COD $3,800. 7/24/18/ Hitomi
called and scheduled. 7/25/2018 June
Confirmed COD $3,800/#nv17 on square. 8/21/18 Riho",TX,1,5.00
7/24/2018 7:33:17 AM,Michael Lang,MN,55423,Legacy 3D,DWA-9150USJ-9150BL-DEMO,Demo Black,Demo,,,,,4000.00,4000.00,0.00,Ting Ritchie,Synchrony,4000.00,,,6019170813047864,92034123,San Diego,36 months,,0.00,,,,,,,,0.00,,,,,,,8/2/2018 12:00:00 AM,No,"3 years parts, 1 year labor (Free)",Scheduled,"EAA 7/23-29/18 Oshkosh, WI (IL)","EAA 7/23-29/18 Oshkosh, WI (IL)",,Please delivery after noon only. Thanks.,107774,"Confirmed synchrony account ($6,000) and original. ***PLease charge before delivery and have sales draft signed. *** 7/25/18 Hitomi
7/25Maritza Courtesy call @ 2:45PM(Please deliver after 12PM)",TX,1,5.00
7/24/2018 4:22:30 PM,TF Smoak,FL,34429,Relax2Zero 3D,DWA-9060USJ-9060BR,New Choco,New,,,,,3800.00,3800.00,0.00,Winston Melgar,CreditCard,3800.00,SQ EKxv,,,,,,,0.00,,,,,,,,0.00,,,,,,,8/7/2018 12:00:00 AM,No,"3 years parts, 1 year labor (Free)",Delivered,"EAA 7/23-29/18 Oshkosh, WI (IL)","EAA 7/23-29/18 Oshkosh, WI (IL)",,,107783,"CC Josefina - 7/25/18 12:15pm

Confirmed $3,800 in Square. 7/25/18 Hitomi",FL,1,5.00
7/24/2018 4:27:35 PM,Jeremy Dales,UT,84005,Relax2Zero 3D,DWA-9060USJ-9060BL,New Black,New,,,,,4040.00,4040.00,0.00,Winston Melgar,CreditCard,4040.00,SQ # gGcd,,,,,,,0.00,,,,,,,,0.00,,,,,,,,No,"3 years parts, 1 year labor (Free)",Cancelled,"EAA 7/23-29/18 Oshkosh, WI (IL)","EAA 7/23-29/18 Oshkosh, WI (IL)",,,107785,Square 3800. will confirm total amount. 7/25/18 hitomi//REVISED TO  107861 UNDER CORRECT TOTAL AMOUNT,Not Dispatched,1,5.00
7/24/2018 4:33:07 PM,Dave Bennett,AZ,85390,Relax2Zero 3D,DWA-9060USJ-9060BR,New Choco,New,,,,,4095.00,4095.00,0.00,Rodrigo Malabunga,CreditCard,4095.00,SQ# FEn1,,,,,,,0.00,,,,,,,,0.00,,,,,,,8/13/2018 12:00:00 AM,No,"3 years parts, 1 year labor (Free)",Delivered,"EAA 7/23-29/18 Oshkosh, WI (IL)","EAA 7/23-29/18 Oshkosh, WI (IL)",,,107786,"Confirmed $4,095 in Square. 7/25/18 Hitomi
7/25Maritza Courtesy call @ 2:43",NV,1,5.00
7/24/2018 4:37:44 PM,John rob Holland,FL,32200,Relax2Zero 3D,DWA-9060USJ-9060BR,New Choco,New,,,,,3995.00,3995.00,0.00,Rodrigo Malabunga,CreditCard,3995.00,SQ#0QgH,,,,,,,0.00,,,,,,,,0.00,,,,,,,8/9/2018 12:00:00 AM,No,"3 years parts, 1 year labor (Free)",Delivered,"EAA 7/23-29/18 Oshkosh, WI (IL)","EAA 7/23-29/18 Oshkosh, WI (IL)",,,107787,"CC Josefina - 7/25/18 12:18pm

Confirmed $3,995 in Square . 7/25/18 Hitomi",FL,1,5.00
7/25/2018 7:24:32 AM,Jeremy Lade,WI,53563,Legacy 3D,DWA-9150USJ-9150BL-DEMO,Demo Black,Demo,,,,,4095.00,3900.00,195.00,Robert Shih,CreditCard,4095.00,SQUARE # JLNi,,,,,,,0.00,,,,,,,,0.00,,,,,,,8/3/2018 12:00:00 AM,No,"3 years parts, 1 year labor (Free)",Delivered,"EAA 7/23-29/18 Oshkosh, WI (IL)","EAA 7/23-29/18 Oshkosh, WI (IL)",,"Dear Lade family,  

Thank you for being part of daiwa family ! / Please deliver ASAP",107792,"COnfirmed $4,095 in Square.7/25/18 Hitomi
called 7/25/2018 June",TX,0,5.00
7/25/2018 7:31:36 AM,Kathleen Safford,FL,32195,Legacy 3D,DWA-9150USJ-9150CH-DEMO,Demo Choco,Demo,,,,,3900.00,3900.00,0.00,Robert Shih,CreditCard,3900.00,SQUARE # f4Rz,,,,,,,0.00,,,,,,,,0.00,,,,,,,,No,"3 years parts, 1 year labor (Free)",Cancelled,"EAA 7/23-29/18 Oshkosh, WI (IL)","EAA 7/23-29/18 Oshkosh, WI (IL)",,"Dear Kathleen ,

Thank you for being part of daiwa family ! / Please deliver ASAP",107793,"Cancelled 7/31

Please see if we have a refurbished demo in Fl warehouse,  if not , Please  deliver a NEW one///Confirmed $3,900 in Square. 7/25/18 Hitomi
7/25Maritza Courtesy call @ 3:03PM",FL,1,5.00
7/25/2018 7:35:50 AM,Charles Starke III,FL,32208,Legacy 3D,DWA-9150USJ-9150BL-DEMO,Demo Black,Demo,,,,,3900.00,3900.00,0.00,Robert Shih,CreditCard,3900.00,SQUARE # yBpO,,,,,,,0.00,,,,,,,,0.00,,,,,,,,No,"3 years parts, 1 year labor (Free)",Cancelled,"EAA 7/23-29/18 Oshkosh, WI (IL)","EAA 7/23-29/18 Oshkosh, WI (IL)",,"Dear Charles, 

Thank you for being part of daiwa family ! / Please deliver ASAP",107794,"Cancelled 7/31

CC Josefina - 7/26/18 10am
Pls see if we have a refurbished demo before delivery///Confirmed $3,900 in Square. 7/25/18 Hitomi",FL,1,5.00
7/25/2018 7:40:37 AM,Christina Campbell,NC,28104,Legacy 3D,DWA-9150USJ-9150CH-DEMO,Demo Choco,Demo,,,,,3900.00,3900.00,0.00,Ting Ritchie,Synchrony,3900.00,,,6019170813048763,92062672,San Diego,36 months,,0.00,,,,,,,,0.00,,,,,,,8/10/2018 12:00:00 AM,No,"3 years parts, 1 year labor (Free)",Delivered,"EAA 7/23-29/18 Oshkosh, WI (IL)","EAA 7/23-29/18 Oshkosh, WI (IL)","Authorization # 006478 8/6 Maggie
COnfirmed $3900.00 was charged for 36 months 8/15/18 Hitomi",Synchrony 36 Months 0% APR,107795,"CC Josefina - 7/26/18 10:05am VM

Confirmed synchrony account ($6,000) and original. ***Please charge before delivery and have sales draft signed. *** 7/25/18 Hitomi",FL,1,5.00
7/25/2018 7:45:00 AM,Rosa Goforth,AZ,85387,Legacy 3D,DWA-9150USJ-9150CH-DEMO,Demo Choco,Demo,,,,,3900.00,3900.00,0.00,Ruben Cuatrona,CreditCard,3900.00,SQUARE # hTp9,,,,,,,0.00,,,,,,,,0.00,,,,,,,8/12/2018 12:00:00 AM,No,"3 years parts, 1 year labor (Free)",Delivered,"EAA 7/23-29/18 Oshkosh, WI (IL)","EAA 7/23-29/18 Oshkosh, WI (IL)",,,107796,"Confirmed $3,900 in Square. 7/25/18 Hitomi
7/26Maritza Courtesy call @ 12:30PM",NV,1,5.00
7/25/2018 6:25:24 PM,Scott Wicker,TX,75052,Pegasus,DWA-9400Pegasus-BR,New Choco,New,,,,,5500.00,5500.00,0.00,Rolly San Jose,Synchrony,5500.00,,,6019170813049357,92084288,San Diego,48 months,,0.00,,,,,,,,0.00,,,,,,,,No,"3 years parts, 1 year labor (Free)",Hold,"EAA 7/23-29/18 Oshkosh, WI (IL)","EAA 7/23-29/18 Oshkosh, WI (IL)",,,107806,"Confirmed synchrony account ($8,500) ORIGINAL NEEDS TO BE CONFIRMED  7/26/18 HITOMI//original is confirmed. ***Please charge before delivery and have sales draft signed. *** 7/27/18 Hitomi
7/27Maritza Courtesy call @ 3:43PM Customer wants to cancel. He was instructed to call sells rep. Will cancel when we hear from Rolly.",TX,1,5.00
7/25/2018 6:31:53 PM,Bob Kendall,WI,54562,Relax2Zero 3D,DWA-9060USJ-9060BR-DEMO,Demo Choco,Demo,,,,,3800.00,3800.00,0.00,Winston Melgar,CreditCard,3800.00,SQ# a1P8,,,,,,,0.00,,,,,,,,0.00,,,,,,,8/3/2018 12:00:00 AM,No,"3 years parts, 1 year labor (Free)",Delivered,"EAA 7/23-29/18 Oshkosh, WI (IL)","EAA 7/23-29/18 Oshkosh, WI (IL)",,,107807,"Deliver after July 29 show//Confirmed $3,800 in Square. 7/26/18 Hitomi
Called and scheduled7/27/2018 June",TX,1,5.00
7/25/2018 6:38:35 PM,Marylou Frahn,AK,99688,Relax2Zero 3D,DWA-9060USJ-9060BR,New Choco,New,,,,,5050.00,5050.00,0.00,Winston Melgar,CreditCard,5050.00,03764D,,,,,,,0.00,,,,,,,,0.00,,,,,,,7/27/2018 12:00:00 AM,No,"3 years parts, 1 year labor (Free)",Delivered,"EAA 7/23-29/18 Oshkosh, WI (IL)","EAA 7/23-29/18 Oshkosh, WI (IL)",,,107808,"Deliver 2-3 weeks from July 29///Confirmed $5,050 in Wells Fargo. 7/26/18 Hitomi
SHIPPED WITH SPAN ALASKA QUOTE # 2545760- STEPHANY 07/27/18",WA,1,5.00
7/25/2018 6:50:04 PM,Chris Follington,WI,53032,Pegasus,DWA-9400Pegasus-BR-DEMO,Demo Choco,Demo,,,,,4800.00,4800.00,0.00,Rolly San Jose,Synchrony,4800.00,,,6019170813050025,92104048,San Diego,36 months,,0.00,,,,,,,,0.00,,,,,,,8/3/2018 12:00:00 AM,No,"3 years parts, 1 year labor (Free)",Delivered,"EAA 7/23-29/18 Oshkosh, WI (IL)","EAA 7/23-29/18 Oshkosh, WI (IL)",,,107809,"See if Chicago branch can deliver July 29 evening or July 31 afternoon. Cannot be on other dates. Pls test, clean and sanitize first before delivery.//Confirmed synchrony account ($8,300) ORIGINAL NEEDS TO BE CONFIRMED.  7/26/18 HITOMI//original confirmed. ***PLease charge and have sales draft signed. *** 7/27/18 Hitomi
SYNCHRONY CLEARED $4800 AUTH#001277 - STEPHANY 08/07/18",TX,1,5.00
7/25/2018 6:58:56 PM,Jeff Kramer,MO,63131,Pegasus,DWA-9400Pegasus-BR-DEMO,Demo Choco,Demo,,,,,4800.00,4800.00,0.00,Rolly San Jose,CreditCard,200.00,SQ# 4dii,,,,,,CreditCard,4600.00,,,,,,,,0.00,,,,,,,,No,"3 years parts, 1 year labor (Free)",Cancelled,"EAA 7/23-29/18 Oshkosh, WI (IL)","EAA 7/23-29/18 Oshkosh, WI (IL)",,,107810,"$4600 will be paid via credit card on July 26. Pls deliver demo chair by Chicago branch between Aug 10-24. Call first prior to above dates.///Confirmed $200 in Square. PLease ask about $4600 upon the courtesy call .- 7/26/18 Hitomi
7/26Maritza Courtesy Call @ 12:52PM Left voicemail to call back and pay remaining balance.
7/28 Refund issued by Rod
8/2 Maritza Called Rolly he said customer cancelled.",TX,1,5.00
7/26/2018 6:44:32 AM,Joe Twohy,CA,95125,Legacy 3D,DWA-9150USJ-9150CH,New Choco,New,,,,,4500.00,4500.00,0.00,Ruben Cuatrona,CreditCard,4500.00,SQUARE # dZut,,,,,,,0.00,,,,,,,,0.00,,,,,,,,No,"3 years parts, 3 years labor ($400)",Scheduled,"EAA 7/23-29/18 Oshkosh, WI (IL)","EAA 7/23-29/18 Oshkosh, WI (IL)",,"Dear Joe , 

Thank you for being part of daiwa family ! / 2 years labor extension / Please deliver ASAP",107815,"Confirmed $4,500 in Square. 7/26/18 Hitomi PRINTED
8/16Wont be home. Possible first week of September delivery.-Maritza",CA,1,5.00
7/26/2018 6:51:31 AM,Wade Thompson,CA,92075,Pegasus,DWA-9400Pegasus-BR-DEMO,Demo Choco,Demo,,,,,4900.00,4900.00,0.00,Noni Ignacio,Synchrony,4900.00,,,6019170813049969,92102211,San Diego,48 months,,0.00,,,,,,,,0.00,,,,,,,8/2/2018 12:00:00 AM,No,"3 years parts, 1 year labor (Free)",Delivered,"EAA 7/23-29/18 Oshkosh, WI (IL)","EAA 7/23-29/18 Oshkosh, WI (IL)","Authorization # 026919
Confirmed $4,900/48 months on Synchrony SD. 8/20/18 Riho","Dear Wade,

Thank you for being part of daiwa family ! / Synchrony 48 months 0% APR  / Please deliver ASAP",107816,"Confirmed synchrony account ($5,900) and original . ***Please charge before delivery *** 7/26/18 Hitomi PRINTED",CA,1,5.00
7/26/2018 7:01:26 AM,Dean Skarvan,KY,40511,Legacy 3D,DWA-9150USJ-9150CH,New Choco,New,,,,,4500.00,4500.00,0.00,Ruben Cuatrona,CreditCard,4500.00,SQUARE # K5Xg,,,,,,,0.00,,,,,,,,0.00,,,,,,,,No,"3 years parts, 1 year labor (Free)",Scheduled,"EAA 7/23-29/18 Oshkosh, WI (IL)","EAA 7/23-29/18 Oshkosh, WI (IL)",,"Dear Dean , 

Thank you for being part of daiwa family ! / Please deliver ASAP",107817,"Confirmed $4,500 in Square. 7/26/18 Hitomi
7/27Maritza Courtesy call @ 3:50PM If customer doesn't answer please leave voicemails and text messages. Both are cell phones. They work in a very noisy work environment so they might not hear the phone. Thank you!",TX,1,5.00
7/26/2018 7:12:06 AM,Charles Lohse,WA,98564,Legacy 3D,DWA-9150USJ-9150BL-DEMO,Demo Black,Demo,,,,,4095.00,3900.00,195.00,Ruben Cuatrona,Synchrony,4095.00,,,6019170813050777,92122988,Las Vegas,36 months,,0.00,,,,,,,,0.00,,,,,,,8/3/2018 12:00:00 AM,No,"3 years parts, 1 year labor (Free)",Delivered,"EAA 7/23-29/18 Oshkosh, WI (IL)","EAA 7/23-29/18 Oshkosh, WI (IL)",,Synchrony 36 months 0% APR,107818,"Confirmed synchrony account ($8,500) and original. 7/26/18 Hitomi///Robert informed that they want to close their account and pay in credit card.  ****Please do not charge yet.***-7/31/18 Hitomi
PER ROBERT PLEASE CHARGE $3700 PLUS 5% TAX = $3,885 - STEPHANY 07/31/18
SPOKE TO CUSTOMER HE WOULD LIKE TO CHANGE COLOR BROWN - 10:57AM 07/31/18 STEPHANY
SQUARE CLEARED $3885 Receipt #W3vY - STEPHANY 07/31/18",WA,0,5.00
7/26/2018 7:35:29 AM,Matthew Palmer,CA,92506,Pegasus,DWA-9400Pegasus-BR-DEMO,Demo Choco,Demo,,,,,5040.00,4800.00,240.00,Noni Ignacio,Synchrony,4040.00,,,6019170813050793,92123387,Las Vegas,36 months,CreditCard,1000.00,SQ# EfK5,,,,,,,0.00,,,,,,,8/7/2018 12:00:00 AM,No,"3 years parts, 2 years labor ($200)",Delivered,"EAA 7/23-29/18 Oshkosh, WI (IL)","EAA 7/23-29/18 Oshkosh, WI (IL)","Authorization # 031997
Confirmed $4,040/36 months on Synchrony LV. 8/20/18 Riho","Dear Matthew ,

Thank you for being part of daiwa family ! / Synchrony 36 months 0% APR $4040 / 1 year labor extension / Please deliver ASAP",107819,"Confirmed $1,000 in Square. synchrony account ($6,500) and original . ***Please charge before delivery and have sales draft signed. *** 7/26/18 Hitomi PRINTED",CA,0,5.00
7/26/2018 7:48:35 AM,Steven Bailey,AR,72401,Legacy 3D,DWA-9150USJ-9150BL-DEMO,Demo Black,Demo,,,,,4095.00,3900.00,195.00,Robert Shih,Synchrony,4095.00,,,6019170813050801,92124457,Las Vegas,36 months,,0.00,,,,,,,,0.00,,,,,,,8/2/2018 12:00:00 AM,No,"3 years parts, 1 year labor (Free)",Delivered,"EAA 7/23-29/18 Oshkosh, WI (IL)","EAA 7/23-29/18 Oshkosh, WI (IL)",,"Dear Steven , 

Thank you for being part of daiwa family ! / Synchrony 36 months 0%APR / Please deliver ASAP",107820,"Pls see if we have a refurbished demo / if not pls ship the new one///Confirmed synchrony account ($5,500) and original. ***Please charge before delivery and have sales draft signed. ***  7/26/18 Hitomi
called and scheduled. 7/26/2018 June
SYNCHRONY $4095 CLEARED #026865 - STEPHANY 08/07/18",TX,0,5.00
7/26/2018 5:15:30 PM,Greg Wright,CA,93277,Relax2Zero 3D,DWA-9060USJ-9060BR,New Choco,New,,,,,3900.00,3900.00,0.00,Rodrigo Malabunga,CreditCard,3900.00,SQ# AAav,,,,,,,0.00,,,,,,,,0.00,,,,,,,8/6/2018 12:00:00 AM,No,"3 years parts, 1 year labor (Free)",Delivered,"EAA 7/23-29/18 Oshkosh, WI (IL)","EAA 7/23-29/18 Oshkosh, WI (IL)",,,107828,"Drop ship only///Confirmed $3,900 in Square. 7/27/18 Hitomi Printed
7/30 Maritza Per Rod we will also assemble chair.",CA,1,5.00
7/26/2018 5:43:17 PM,Richard Batdorf,MD,21409,Pegasus,DWA-9400Pegasus-BR-DEMO,Demo Choco,Demo,,,,,5200.00,5200.00,0.00,Robert Shih,CreditCard,5200.00,SQ# BZ39,,,,,,,0.00,,,,,,,,0.00,,,,,,,8/15/2018 12:00:00 AM,No,"3 years parts, 1 year labor (Free)",Delivered,"EAA 7/23-29/18 Oshkosh, WI (IL)","EAA 7/23-29/18 Oshkosh, WI (IL)",,"Dear Richard , 

Thank you for being part of daiwa family ! / Please deliver ASAP",107830,"Maybe need to help the customer to move the chair .///Confirmed $5,200 in Square. 7/27/18 Hitomi
7/27Maritza Courtesy call @ 4:07PM",TX,1,5.00
7/26/2018 5:48:44 PM,Ranjn Goonetilleke,CA,90808,Legacy 3D,DWA-9150USJ-9150CH-DEMO,Demo Choco,Demo,,,,,3700.00,3700.00,0.00,Ting Ritchie,CreditCard,250.00,Receipt #6UDv,,,,,,CreditCard,3450.00,housecall pro,,,,,,,0.00,,,,,,,8/6/2018 12:00:00 AM,No,"3 years parts, 1 year labor (Free)",Delivered,"EAA 7/23-29/18 Oshkosh, WI (IL)","EAA 7/23-29/18 Oshkosh, WI (IL)",,"Dear Ranjn,

Thank you for being part of daiwa family ! / Please deliver ASAP",107831,"Confirmed $250 in Square. Please collect COD $3,450. 7/27/18 Hitomi PRINTED
COD $3,450 had been paid thru Hausecall Pro.8/16/18 Riho",CA,1,5.00
7/26/2018 5:52:43 PM,Marvin Wessel,AZ,85226,Legacy 3D,DWA-9150USJ-9150CH-DEMO,Demo Choco,Demo,,,,,3900.00,3900.00,0.00,Ruben Cuatrona,CreditCard,3900.00,SQ# hbUZ,,,,,,,0.00,,,,,,,,0.00,,,,,,,,No,"3 years parts, 1 year labor (Free)",Scheduled,"EAA 7/23-29/18 Oshkosh, WI (IL)","EAA 7/23-29/18 Oshkosh, WI (IL)",,"Dear Marvin 

Thank you for being part of daiwa family ! / Please deliver ASAP",107832,"COnfirmed $3,900 in Square. 7/27/18 Hitomi
7/31Maritza Courtesy email sent (phone kept ringing no VM)",NV,1,5.00
7/26/2018 5:59:48 PM,Nicholas Eskew,WY,82609,Legacy 3D,DWA-9150USJ-9150CH-DEMO,Demo Choco,Demo,,,,,3900.00,3900.00,0.00,Ting Ritchie,Synchrony,3900.00,,,6019170813052047,92158568,San Diego,36 months,,0.00,,,,,,,,0.00,,,,,,,8/14/2018 12:00:00 AM,No,"3 years parts, 1 year labor (Free)",Delivered,"EAA 7/23-29/18 Oshkosh, WI (IL)","EAA 7/23-29/18 Oshkosh, WI (IL)","Authorization # 014792. 8/14/2018
COnfirmed $3,900 was charged for 36 months. 8/14/18 Hitomi","Dear Nicholas , 

Thank you for being part of daiwa family ! / Synchrony 36 months 0% APR / Please deliver ASAP",107833,"Confirmed synchrony account ($4,700) and original. ***Please charge before delivery and have sales draft signed.*** 7/27/18 Hitomi////Talked to Ting , if we need ship it , it is okay to ship NEW chair - 7/27/18 Hitomi
COURTESY CALL DONE LEFT VM 07/31/18 STEPHANY 11:50",TX,1,5.00
7/26/2018 6:10:56 PM,Troy Eskew,WY,82604,Legacy 3D,DWA-9150USJ-9150CH-DEMO,Demo Choco,Demo,,,,,3900.00,3900.00,0.00,Ting Ritchie,Synchrony,3900.00,,,6019170813052070,92158822,San Diego,36 months,,0.00,,,,,,,,0.00,,,,,,,8/14/2018 12:00:00 AM,No,"3 years parts, 1 year labor (Free)",Delivered,"EAA 7/23-29/18 Oshkosh, WI (IL)","EAA 7/23-29/18 Oshkosh, WI (IL)","Authorization # 014261. 8/14/2018
Confirmed $3,900 was charged for 36 months. 8/14/18 Hitomi","Dear Troy , 

Thank you for being part of daiwa family ! / Synchrony 36 months 0% APR / Please deliver ASAP",107834,"Confirmed synchrony account ($8,500) and original. ***Please charge before delivery and have sale draft signed. *** 7/27/18 Hitomi////Talked to Ting , if we need ship it , it is okay to ship NEW chair - 7/27/18 Hitomi
COURTESY CALL DONE SPOKE TO CUSTOMER OKAY WITH MID AUGUST DELIVERY - 07/31/18 11:44 STEPHANY",TX,1,5.00
7/26/2018 6:16:44 PM,Kent Snider,CO,80134,Legacy 3D,DWA-9150USJ-9150CH,New Choco,New,,,,,4600.00,4600.00,0.00,Kamille Gines,Synchrony,4600.00,,,6019170813052039,92158208,San Diego,36 months,,0.00,,,,,,,,0.00,,,,,,,,No,"3 years parts, 1 year labor (Free)",Scheduled,"EAA 7/23-29/18 Oshkosh, WI (IL)","EAA 7/23-29/18 Oshkosh, WI (IL)",,Synchrony 36 months 0% APR,107835,"Confirmed synchrony account ($8,500) and original. ***Please charge before delivery and have sales draft signed.*** 7/27/18 Hitomi
7/30Maritza Courtesy call @ 8:37",TX,1,5.00
7/26/2018 6:22:24 PM,Mandy Adams,TX,78130,Legacy 3D,DWA-9150USJ-9150BL-DEMO,Demo Black,Demo,,,,,3900.00,3900.00,0.00,Ruben Cuatrona,Synchrony,3900.00,,,6019170813052021,92157944,San Diego,36 months,,0.00,,,,,,,,0.00,,,,,,,,No,"3 years parts, 1 year labor (Free)",Cancelled,"EAA 7/23-29/18 Oshkosh, WI (IL)","EAA 7/23-29/18 Oshkosh, WI (IL)",,,107836,"Confirmed synchrony account ($6,500) and original. ***Please charge before delivery anh have sales draft signed.*** 7/27/18 Hitomi
7/30Maritza Courtesy call @ 8:40
Per.June, canceled -8/10/18 Hitomi",TX,1,5.00
7/26/2018 6:29:53 PM,Joseph Pfeifer,NY,11204,Legacy 3D,DWA-9150USJ-9150CH,New Choco,New,,,,,3800.00,3800.00,0.00,Ting Ritchie,CreditCard,100.00,Receipt #qo0T,,,,,,COD,3700.00,,,,,,,,0.00,,,,,,,,No,"3 years parts, 1 year labor (Free)",Called,"EAA 7/23-29/18 Oshkosh, WI (IL)","EAA 7/23-29/18 Oshkosh, WI (IL)",,"Dear Joseph 

Thank you for being part of daiwa family ! / Please deliver ASAP",107837,"COnfirmed $100 in Square. Please collect COD $3,700. Per.Ting, this order is paid deposit with 107856.  7/27/18 Hitomi
7/30Maritza Courtesy call @ 8:42AM CUSTOMER IS STILL UNSURE ABOUT THE PURCHASE. HE STILL DOESN'T KNOW WHERE TO PLACE THE CHAIR SO CALL IN ADVANCED TO CONFIRM ADDRESS AND IF THEY WANT TO CONTINUE WITH THE SALE.",TX,1,5.00
7/27/2018 6:50:18 AM,Israel Kozlik,NY,11204,Legacy 3D,DWA-9150USJ-9150CH,New Choco,New,,,,,3800.00,3800.00,0.00,Ting Ritchie,CreditCard,0.00,SQ# goOT,,,,,,COD,3800.00,,,,,,,,0.00,,,,,,,8/12/2018 12:00:00 AM,No,"3 years parts, 1 year labor (Free)",Called,"EAA 7/23-29/18 Oshkosh, WI (IL)","EAA 7/23-29/18 Oshkosh, WI (IL)",,,107856,"Same order with #107837 . Customer will advise the COD payment $7,500//Per.Ting, deposit was paid with #107837. PLease collect $3,800. 7/27/18 Hitomi
7/30Maritza Courtesy call @ 8:45AM CUSTOMER IS STILL UNSURE ABOUT THE PURCHASE. HE STILL DOESN'T KNOW WHERE TO PLACE THE CHAIR SO CALL IN ADVANCED TO CONFIRM ADDRESS AND IF THEY WANT TO CONTINUE WITH THE SALE.
Put Wrong information on the delivery details, please disregard it. Sorry for the confusion! 8/31/18 Riho",TX,1,5.00
7/27/2018 10:53:27 AM,Jeremy Dales,UT,84005,Relax2Zero 3D,DWA-9060USJ-9060BL,New Black,New,,,,,3800.00,3800.00,0.00,Winston Melgar,CreditCard,3800.00,SQ # gGcd,,,,,,,0.00,,,,,,,,0.00,,,,,,,8/6/2018 12:00:00 AM,No,"3 years parts, 1 year labor (Free)",Delivered,"EAA 7/23-29/18 Oshkosh, WI (IL)","EAA 7/23-29/18 Oshkosh, WI (IL)",,,107861,"CORRECTION FOR 107785//Confirmed $3,800 in Square. 7/27/18 Hitomi
COURTESY CALL DONE 10:26AM  07/31/18 - STEPHANY NO VOICEMAIL SETUP",NV,1,5.00
7/27/2018 4:53:06 PM,Rick Smrcka,WI,54956,Pegasus,DWA-9400Pegasus-BL-DEMO,Demo Black,Demo,,,,,4800.00,4800.00,0.00,Rolly San Jose,Synchrony,4800.00,,,6019170813052732,92183415,San Diego,48 months,,0.00,,,,,,,,0.00,,,,,,,8/3/2018 12:00:00 AM,No,"3 years parts, 1 year labor (Free)",Delivered,"EAA 7/23-29/18 Oshkosh, WI (IL)","EAA 7/23-29/18 Oshkosh, WI (IL)",,,107863,"Confirmed synchrony account ($8,500) and original.***please charge before delivery and have sales draft signed. ***7/30/18 Hitomi
7/31Maritza Courtesy call @ 9:45AM
SYNCHRONY CLEARED $4800 #002007 * STEPHANY 08/07/18",TX,1,5.00
7/27/2018 5:00:35 PM,Kathryn Schiffer,MI,48866,Relax2Zero 3D,DWA-9060USJ-9060BR,New Choco,New,,,,,3900.00,3900.00,0.00,Rodrigo Malabunga,CreditCard,3900.00,SQ# 825M,,,,,,,0.00,,,,,,,,0.00,,,,,,,,No,"3 years parts, 1 year labor (Free)",Scheduled,"EAA 7/23-29/18 Oshkosh, WI (IL)","EAA 7/23-29/18 Oshkosh, WI (IL)",,,107865,"Confirmed $3,900 in Square. 7/27/18 Hitomi
7/30Maritza courtesy call @ 9:06AM",TX,1,5.00
7/27/2018 5:10:21 PM,Lev Prichard,TX,75225,Pegasus,DWA-9400Pegasus-BR,New Choco,New,,,,,5500.00,5500.00,0.00,Rolly San Jose,CreditCard,200.00,SQ# 1xUF,,,,,,COD,5300.00,,,,,,,,0.00,,,,,,,,No,"3 years parts, 1 year labor (Free)",Cancelled,"EAA 7/23-29/18 Oshkosh, WI (IL)","EAA 7/23-29/18 Oshkosh, WI (IL)",,,107866,Wife must be scheduled to go to Dallas branch office to try the Pegasus. Somebody knowledgeable in Pegasus demo must be there to demo to the wife before they decide to pay balance.//Confirmed $200 in Square 7/30/18 Hitomi,TX,1,5.00
7/27/2018 5:17:18 PM,Michael Folkerts,CO,80920,Pegasus,DWA-9400Pegasus-BR,New Choco,New,,,,,5500.00,5500.00,0.00,Rolly San Jose,CreditCard,200.00,SQ# v6Na,,,,,,COD,5300.00,,,,,,,,0.00,,,,,,,,No,"3 years parts, 1 year labor (Free)",Cancelled,"EAA 7/23-29/18 Oshkosh, WI (IL)","EAA 7/23-29/18 Oshkosh, WI (IL)","***8/28 CANCELLED*** informed by Chikasa, TX. Per. June, confirmed cancellation with sales rep and since he didn't mention to refund the deposit, keeping the deposit as of now.  9/4/18 Hitomi",,107867,"Customer to talk to wife first before they call to schedule delivery///Confirmed $200 in Square. 7/30/18 Hitomi
7/30Maritza courtesy call @ 9:12AM PLEASE CALL FIRST TO SEE IF THEY WANT TO KEEP THE CHAIR.////PER ROLLY , he will pay his balance when we call for delivery. The chair is going to be set up in their basement where the door is very tight.-8/2/18 Hitomi",TX,1,5.00
7/27/2018 5:47:47 PM,John kenneth Pereda,MN,55901,Pegasus,DWA-9400Pegasus-BR,New Choco,New,,,,,5500.00,5500.00,0.00,Rolly San Jose,COD,5500.00,,,,,,,,0.00,,,,,,,,0.00,,,,,,,,No,"3 years parts, 1 year labor (Free)",Hold,"EAA 7/23-29/18 Oshkosh, WI (IL)","EAA 7/23-29/18 Oshkosh, WI (IL)",,,107868,Customer adv he needs to discuss with his wife first before he agrees on delivery schedule and payment. He will call rolly,Not Dispatched,1,5.00
7/27/2018 6:06:05 PM,Karla/mark Loud,TX,76108,Pegasus,DWA-9400Pegasus-BR,New Choco,New,,,,,4800.00,4800.00,0.00,Rolly San Jose,Synchrony,2000.00,,,6019170813049381,92084541,San Diego,36 months,COD,2800.00,,,,,,,,0.00,,,,,,,,No,"3 years parts, 1 year labor (Free)",Hold,"EAA 7/23-29/18 Oshkosh, WI (IL)","EAA 7/23-29/18 Oshkosh, WI (IL)",,,107869,"Customer to adv rolly on how balance is to be paid. Pls hold///Confirmed 	synchrony account ($2,000) and original. place on HOLD 7/30/18 Hitomi",Not Dispatched,1,5.00
7/27/2018 7:15:54 PM,Tony Zimmerman,OH,43416,Legacy 3D,DWA-9150USJ-9150CH-DEMO,Demo Choco,Demo,,,,,3750.00,3750.00,0.00,Noni Ignacio,CreditCard,3750.00,SQ# xRdH,,,,,,,0.00,,,,,,,,0.00,,,,,,,,No,"3 years parts, 1 year labor (Free)",Scheduled,"EAA 7/23-29/18 Oshkosh, WI (IL)","EAA 7/23-29/18 Oshkosh, WI (IL)",,"Dear Tony , 
 
Thank you for being part of daiwa family ! / Pls delivery ASAP",107875,"Confirmed $3,700 in Square 7/30/18 Hitomi
7/30Maritza Courtesy call @ 9:24AM
8/20Maritza Customer called at 5:20PM her appointment was at 7:30PM and it is 8:30 and driver has not yet called. We tried reachingt Armando and he has not yet responded. We gave customer his number. @ 5:30PM",TX,1,5.00
7/27/2018 7:23:56 PM,Francisco Campa,SC,29910,Pegasus,DWA-9400Pegasus-BL-DEMO,Demo Black,Demo,,,,,4900.00,4900.00,0.00,Ting Ritchie,Cash,1000.00,,,,,,,CreditCard,2000.00,1Aeu,,,,,,CreditCard,1900.00,yNKr,,,,,,8/9/2018 12:00:00 AM,No,"3 years parts, 1 year labor (Free)",Delivered,"EAA 7/23-29/18 Oshkosh, WI (IL)","EAA 7/23-29/18 Oshkosh, WI (IL)",,"Dear Francisco,  

Thank you for being part of daiwa family ! / Please deliver ASAP",107876,"Cash is collected by Noni///Noni received $1,000 cash. Received cash confirmation 7/30/18 Hitomi
7/30Maritza Courtesy call @ 12:09PM",FL,1,5.00
7/28/2018 7:04:35 AM,Karl F. Walter,GA,30215,Pegasus,DWA-9400Pegasus-BR-DEMO,Demo Choco,Demo,,,,,4500.00,4500.00,0.00,Robert Shih,Synchrony,4500.00,,,6019170813053748,92206937,Las Vegas,36 months,,0.00,,,,,,,,0.00,,,,,,,8/7/2018 12:00:00 AM,No,"3 years parts, 1 year labor (Free)",Delivered,"EAA 7/23-29/18 Oshkosh, WI (IL)","EAA 7/23-29/18 Oshkosh, WI (IL)","Authorization # 014725 8/14 Maggie
//Confirmed $4500 was charged for 36 months.  8/14/18 Hitomi/sales draft was received. 8/21/18 Hitomi","Dear Karl , 

Thank you for being part of daiwa family ! / Synchrony 36 months 0% APR / Please deliver ASAP",107880,"Pls see if we have a refurbished demo.///Confirmed synchrony account ($6,000) and original. ***Please charge before delivery and have sales draft signed *** 7/30/18 Hitomi
7/30Maritza Courtesy call @ 12:15PM CUSTOMER MIGHT CHANGE COLOR OF CHAIR**CHANGE COLOR TO BLACK!!",FL,1,5.00
7/28/2018 7:12:33 AM,Kent Jackson,DC,20036,Legacy 3D,DWA-9150USJ-9150BL-DEMO,Demo Black,Demo,,,,,3800.00,3800.00,0.00,Ting Ritchie,Synchrony,3800.00,,,6019170813052633,92179202,San Diego,24 months,,0.00,,,,,,,,0.00,,,,,,,8/15/2018 12:00:00 AM,No,"3 years parts, 1 year labor (Free)",Delivered,"EAA 7/23-29/18 Oshkosh, WI (IL)","EAA 7/23-29/18 Oshkosh, WI (IL)","Confirmed $3,800/24 months/Auth#001121 on Synchrony SD. 8/21/18 Riho","Dear Kent , 

Thank you for being part of daiwa family! / Synchrony 24 months 0% APR / Please deliver ASAP",107881,"Confirmed synchrony account ($8,500) and original. ***Please charge before delivery and have sales draft signed. *** 7/30/18 Hitomi
Called June 7/30/2018",TX,1,5.00
7/28/2018 7:46:22 AM,Ronald Ness,GA,30075,Legacy 3D,DWA-9150USJ-9150CH-DEMO,Demo Choco,Demo,,,,,3600.00,3600.00,0.00,Ruben Cuatrona,CreditCard,3600.00,SQ# wQ1y,,,,,,,0.00,,,,,,,,0.00,,,,,,,7/29/2018 12:00:00 AM,YES,"3 years parts, 1 year labor (Free)",Delivered,"EAA 7/23-29/18 Oshkosh, WI (IL)","EAA 7/23-29/18 Oshkosh, WI (IL)",,Pick up on Sunday,107882,"Confirmed $3,600 in Square. Received pickup confirmation 7/30/18 Hitomi",FL,1,5.00
7/28/2018 7:50:58 AM,Ronald Mattioli,GA,30075,Legacy 3D,DWA-9150USJ-9150CH-DEMO,Demo Choco,Demo,,,,,3600.00,3600.00,0.00,Ruben Cuatrona,CreditCard,3600.00,SQ# p1LK,,,,,,,0.00,,,,,,,,0.00,,,,,,,7/29/2018 12:00:00 AM,YES,"3 years parts, 1 year labor (Free)",Delivered,"EAA 7/23-29/18 Oshkosh, WI (IL)","EAA 7/23-29/18 Oshkosh, WI (IL)",,Pick up on Sunday,107883,"JOHN MATTIOLI///Confirmed $3,600 in Square.Received pickup confirmation 7/30/18 Hitomi",FL,1,5.00
7/28/2018 4:30:16 PM,Timothy Schoemann,WI,53916,Pegasus,DWA-9400Pegasus-BR-DEMO,Demo Choco,Demo,,,,,5145.00,4900.00,245.00,Robert Shih,Synchrony,5145.00,,,6019170813055503,92241976,Las Vegas,48 months,,0.00,,,,,,,,0.00,,,,,,,8/10/2018 12:00:00 AM,No,"3 years parts, 1 year labor (Free)",Delivered,"EAA 7/23-29/18 Oshkosh, WI (IL)","EAA 7/23-29/18 Oshkosh, WI (IL)",,"Dear Timothy ,

Thank you for being part of daiwa family ! / Synchrony 48 months 0% APR / Please deliver ASAP",107896,"Confirmed synchrony account ($6,600) and original. ***Please charge before delivery and have sales draft signed. *** 7/30/18 Hitomi
COURTESY CALL DONE 07/31/18 3:40PM LEFT VM STEPHANY
SYCHRONY CHARGED $5145 AUTH 006224",TX,0,5.00
7/28/2018 4:38:37 PM,Baoyun Ge,WI,53705,Legacy 3D,DWA-9150USJ-9150BL-DEMO,Demo Black,Demo,,,,,3900.00,3900.00,0.00,Kamille Gines,Synchrony,3900.00,,,6019170813055511,92242037,San Diego,36 months,,0.00,,,,,,,,0.00,,,,,,,8/3/2018 12:00:00 AM,No,"3 years parts, 1 year labor (Free)",Delivered,"EAA 7/23-29/18 Oshkosh, WI (IL)","EAA 7/23-29/18 Oshkosh, WI (IL)",,Synchrony 36 months 0% APR,107897,"Confirmed synchrony account($6,500) under ""BAO GE"" and original. ***Please charge before delivery and have sales draft signed. *** 7/30/18 Hitomi
PER CUSTOMER UPSET HE'S NOT GETTING DELIVERY DATE KAMILLE PROMISED, I REFERRED HIM TO CALL HER - 07/31/18 STEPHANY 4PM
8/3Maritza Rod called to upgrade warranty and send copy to customer. email: byge1991@gmail.com
SYNCHRONY CLEARED $3900 #002332 - STEPHANY 08/07/18",TX,1,5.00
7/28/2018 4:45:54 PM,Gene Hindman,GA,30115,Legacy 3D,DWA-9150USJ-9150BL-DEMO,Demo Black,Demo,,,,,3900.00,3900.00,0.00,Kamille Gines,CreditCard,3900.00,SQ# CKM4,,,,,,,0.00,,,,,,,,0.00,,,,,,,8/8/2018 12:00:00 AM,No,"3 years parts, 1 year labor (Free)",Delivered,"EAA 7/23-29/18 Oshkosh, WI (IL)","EAA 7/23-29/18 Oshkosh, WI (IL)",,"Dear Gene , 

Thank you for being part of daiwa family ! / Please deliver ASAP",107898,"Pls see if we have a refurbished demo.  if not , pls deliver a NEW one///Confirmed $3,900 in Square. 7/30/18 Hitomi
7/30Maritza Courtesy call @ 9:32AM",FL,1,5.00
7/28/2018 4:50:59 PM,Richard Stanley,MA,01258,Legacy 3D,DWA-9150USJ-9150CH,New Choco,New,,,,,5040.00,5040.00,0.00,Ting Ritchie,Synchrony,5040.00,,,6019170813055537,92242726,San Diego,12 months,,0.00,,,,,,,,0.00,,,,,,,,No,"3 years parts, 1 year labor (Free)",Scheduled,"EAA 7/23-29/18 Oshkosh, WI (IL)","EAA 7/23-29/18 Oshkosh, WI (IL)",,,107899,"Confirmed synchrony account ($8,500) and original. ***Please charge before delivery and have sales draft signed. *** 7/30/18 Hitomi
Called 7/30/2018 June",TX,1,5.00
7/28/2018 4:53:59 PM,Genon Murray,FL,32704,Relax2Zero 3D,DWA-9060USJ-9060BR,New Choco,New,,,,,3900.00,3900.00,0.00,Rodrigo Malabunga,CreditCard,3900.00,Sq#wAHk,,,,,,,0.00,,,,,,,,0.00,,,,,,,8/7/2018 12:00:00 AM,No,"3 years parts, 1 year labor (Free)",Delivered,"EAA 7/23-29/18 Oshkosh, WI (IL)","EAA 7/23-29/18 Oshkosh, WI (IL)",,,107900,"Confirmed $3,900 in Square. 7/30/18 Hitomi
7/30Maritza Courtesy call @ 9:35AM",FL,1,5.00
7/28/2018 4:54:55 PM,Anthony L. Weber,WI,53586,Legacy 3D,DWA-9150USJ-9150BL-DEMO,Demo Black,Demo,,,,,3900.00,3900.00,0.00,Ting Ritchie,Synchrony,1200.00,,,6019170813054084,92216545,San Diego,12 months,COD,2700.00,,,,,,,,0.00,,,,,,,,No,"3 years parts, 1 year labor (Free)",Scheduled,"EAA 7/23-29/18 Oshkosh, WI (IL)","EAA 7/23-29/18 Oshkosh, WI (IL)",,"Dear Anthony , 

Thank you for being part of daiwa family ! / Synchrony 12 months $1,200 / COD $2,700",107901,"Confirmed synchrony account ($1,200) and original. ***Please charge before delivery and have sales draft. COLLECT COD $2,700.*** 7/30/18 Hitomi
8/1Maritza Courtesy email @ 8:45AM(Didn't go through) Call @ 9AM",TX,1,5.00
7/28/2018 5:00:52 PM,Cindi Stampfli,WI,53593,Relax2Zero 3D,DWA-9060USJ-9060BR-DEMO,Demo Choco,Demo,,,,,3600.00,3600.00,0.00,Winston Melgar,CreditCard,200.00,FJ1M,,,,,,COD,3400.00,,,,,,,,0.00,,,,,,,8/3/2018 12:00:00 AM,No,"3 years parts, 1 year labor (Free)",Delivered,"EAA 7/23-29/18 Oshkosh, WI (IL)","EAA 7/23-29/18 Oshkosh, WI (IL)",,,107902,"C.O.D $3,400///Confirmed $200 in Square. 7/30/18 Hitomi
7/30Maritza Courtesy call @ 9:36AM
COD CLEARED $3400 #8Joh - STEPHANY 08/03/18",TX,1,5.00
7/28/2018 5:04:49 PM,John & Carol Schimnicl,MN,56379,Legacy 3D,DWA-9150USJ-9150CH-DEMO,Demo Choco,Demo,,,,,3800.00,3800.00,0.00,Robert Shih,CreditCard,3800.00,SQ# OmVa,,,,,,,0.00,,,,,,,,0.00,,,,,,,8/10/2018 12:00:00 AM,No,"3 years parts, 1 year labor (Free)",Delivered,"EAA 7/23-29/18 Oshkosh, WI (IL)","EAA 7/23-29/18 Oshkosh, WI (IL)",,"Dear John & Carol 

Thank you for being part of daiwa family / Please deliver ASAP",107903,"Confirmed $3,800 in Square. 7/30/18 Hitomi
7/30Maritza Courtesy call @ 9:40AM",TX,1,5.00
7/28/2018 5:04:51 PM,Ann Salmirs,NY,11702,Pegasus,DWA-9400Pegasus-BL,New Black,New,,,,,5500.00,5500.00,0.00,Rolly San Jose,CreditCard,300.00,Sq#iDjN,,,,,,COD,5200.00,,,,,,,,0.00,,,,,,,,No,"3 years parts, 1 year labor (Free)",Scheduled,"EAA 7/23-29/18 Oshkosh, WI (IL)","EAA 7/23-29/18 Oshkosh, WI (IL)",,,107904,"7/30Maritza Courtesy call @ 9:42AM **PLEASE DELIVER LATE NOVEMBER- EARLY DECEMBER.SHE BOUGHT IT FOR HER HUSBAND FOR HANUKKAH. ADDRESS IS CORRECT** SHE WILL PAY CREDIT CARD UPON DELIVERY.
The customer will advice when is the delivery date. They will change the shipping address.///COnfirmed $300 in Square. 7/30/18 Hitomi
Customer not ready for the chair, asking delivery at begin of December, 20188/6/2018 June
08/20/18-Customer called in at 8:30 am to advise that she has changed her mind and would like delivery to take place asap, I advised the customer that delivery takes 2-3 weeks and shes fine with that- Cristina",TX,1,5.00
7/29/2018 11:27:18 AM,Jill Hardison,AR,72031,Legacy 3D,DWA-9150USJ-9150CH,New Choco,New,,,,,4800.00,4800.00,0.00,Ting Ritchie,CreditCard,4800.00,cKW6,,,,,,,0.00,,,,,,,,0.00,,,,,,,8/3/2018 12:00:00 AM,No,"3 years parts, 1 year labor (Free)",Delivered,"EAA 7/23-29/18 Oshkosh, WI (IL)","EAA 7/23-29/18 Oshkosh, WI (IL)",,,107935,"Confirmed $4,800 in Square. 7/30/18 Hitomi
Unreachable. 7/30/2018 June,",TX,1,5.00
7/29/2018 4:19:46 PM,Mike Demuth,WI,54162,Legacy 3D,DWA-9150USJ-9150BL-DEMO,Demo Black,Demo,,,,,3500.00,3500.00,0.00,Robert Shih,CreditCard,3500.00,SQ# RwVa,,,,,,,0.00,,,,,,,,0.00,,,,,,,7/29/2018 12:00:00 AM,YES,"3 years parts, 1 year labor (Free)",Delivered,"EAA 7/23-29/18 Oshkosh, WI (IL)","EAA 7/23-29/18 Oshkosh, WI (IL)",,S/N 0202001170632,107944,"COnfirmed $3,500 in Square. received picked up confirmation 7/30/18 Hitomi",TX,1,5.00
7/31/2018 12:49:26 PM,Jim Hagger,CA,94502,Relax2Zero 3D,DWA-9060USJ-9060BL,New Black,New,,,,,4200.00,4200.00,0.00,Rodrigo Malabunga,CreditCard,4200.00,Sq #nsPz,,,,,,,0.00,,,,,,,,0.00,,,,,,,,No,"3 years parts, 1 year labor (Free)",Hold,"EAA 7/23-29/18 Oshkosh, WI (IL)","EAA 7/23-29/18 Oshkosh, WI (IL)",,,108005,"07/31/18-Cristina- Cleared SQ payment. 1:19 pm
8/16Maritza- Called to schedule but he is doing construction. He will call when ready.",CA,1,5.00
7/31/2018 1:16:07 PM,Larry Ronziewiiz,IN,47960,Pegasus,DWA-9400Pegasus-BL,New Black,New,,,,,4900.00,4900.00,0.00,Rodrigo Malabunga,CreditCard,500.00,Sq #SdTm,,,,,,COD,4400.00,,,,,,,,0.00,,,,,,,,No,"3 years parts, 1 year labor (Free)",Scheduled,"EAA 7/23-29/18 Oshkosh, WI (IL)","EAA 7/23-29/18 Oshkosh, WI (IL)",,,108006,"Remaining balanced is $4400.00
Deposit 500.00 sq #SdTn
Pls. Charge the customer before delivery & SQ #SdTn",TX,1,5.00
7/31/2018 1:27:29 PM,Anni Brogan,WA,98221,Ninja Leg Massager,,,New,,,,,400.00,400.00,0.00,Darryl Garrett,CreditCard,359.00,Sq Vrlr,,,,,,,0.00,,,,,,,,0.00,,,,,,,8/1/2018 12:00:00 AM,No,"2 years parts, 1 year labor (Free)",Cancelled,"EAA 7/23-29/18 Oshkosh, WI (IL)","EAA 7/23-29/18 Oshkosh, WI (IL)",,,108007,"REVISED TO 108259 UNDER CORRECT SALES REP 
Cuetemer he gib is
//Sold by Wingston.",CA,1,5.00
7/31/2018 2:55:17 PM,Darren Ruhnau,UT,84098,Legacy 3D,DWA-9150USJ-9150CH,New Choco,New,,,,,5040.00,5040.00,0.00,Kamille Gines,CreditCard,5040.00,Sq# ScCB,,,,,,,0.00,,,,,,,,0.00,,,,,,,8/5/2018 12:00:00 AM,No,"3 years parts, 1 year labor (Free)",Delivered,"EAA 7/23-29/18 Oshkosh, WI (IL)","EAA 7/23-29/18 Oshkosh, WI (IL)",,,108008,"2nd Floor (no charge)
Free White Glove Delivery///Confirmed $5,040 in Square. 7/31/18 Hitomi
07/31/18-Cristina- Completed courtesy call- 3:52 pm",NV,1,5.00
8/9/2018 5:08:59 PM,Anni Brogan,WA,98221,Ninja Leg Massager,,,New,,,,,400.00,400.00,0.00,Winston Melgar,CreditCard,359.00,Sq Vrlr,,,,,,,0.00,,,,,,,,0.00,,,,,,,8/1/2018 12:00:00 AM,No,"2 years parts, 1 year labor (Free)",Delivered,"EAA 7/23-29/18 Oshkosh, WI (IL)","EAA 7/23-29/18 Oshkosh, WI (IL)",,,108259,CORRECTION FOR 108007,CA,1,5.00
8/14/2018 7:03:30 AM,Diem Le,CA,95762,Relax2Zero 1.0,USJ-9000USJ-9000BR,New Brown,New,,,,,3294.00,3294.00,0.00,Rodrigo Malabunga,CreditCard,3294.00,Receipt #H19O,,,,,,,0.00,,,,,,,,0.00,,,,,,,8/21/2018 12:00:00 AM,No,"3 years parts, 1 year labor (Free)",Delivered,"EAA 7/23-29/18 Oshkosh, WI (IL)","EAA 7/23-29/18 Oshkosh, WI (IL)",,,108478,"After show sale follow up order
Pls give her a call thanks
Rod M
///Confirmed $3,294.00 in Square. 8/14/18 Hitomi
8/14Printed8/22 Maritza- Customer was promised pillow by sales rep. We don't know what pillow was promised? Will follow up with sales rep. Per Rod do NOT deliver pillow. Customer was told for next referral they would get a pillow.",CA,1,5.00
