﻿Date,CustomerName,State,Zipcode,Description,productNo,Color,IsDemo,Net,ShippingFee,GiftPrice,FinancingProcessingFee,Gross,Pre_tax,Tax,Commission,Primary Payment Method,Primary Payment Balance,Primary Authorize Number,Primary Purchase Order Number,Primary Synchrony Account Number,Primary Synchrony Application Key,Primary Synchrony AccountInfo,Primary SynchronyTerm,Secondly Payment Method,Secondly Payment Balance,Secondly Authorize Number,Secondly Purchase Order Number,Secondly Synchrony Account Number,Secondly Synchrony Application Key,Secondly Synchrony AccountInfo,Secondly SynchronyTerm,Thirdly Payment Method,Thirdly Payment Balance,Thirdly Authorize Number,Thirdly Purchase Order Number,Thirdly Synchrony Account Number,Thirdly Synchrony Application Key,Thirdly Synchrony AccountInfo,Thirdly SynchronyTerm,DeliveryDate,Ispickup,Warranty,Status,Event Name,Synchrony Notes,Order Notes,Order number,Private Note,Branch,IsNoTax,ActualTaxRate
7/2/2018 9:19:33 AM,Hai & Thuy Nguyen,OK,73112,Legacy 3D,DWA-9150USJ-9150BL-DEMO,Demo Black,Demo,,,,,3500.00,3500.00,0.00,Robert Shih,Synchrony,3500.00,,,6019170813006910,90983229,Las Vegas,36 months,,0.00,,,,,,,,0.00,,,,,,,,No,"3 years parts, 1 year labor (Free)",Called,Mitsuwa Chair & Rack Sale (6/29-7/8/2018) TX,,Thank you very much for your business with us in Mitsuwa Plano TX / Synchrony 36 months 0% APR / Please deliver ASAP,107210,"Their son's number : 405 - 413 - 6952//COnfirmed synchrony account ($4,000) and original . ***Please charge before delivery and have sales draft signed. *** 7/2/18 Hitomi
COURTESY CALL DONE LEFT VM - STEPHANY 07/02/18 3:12",TX,1,8.25
7/2/2018 12:47:22 PM,Trong Nguyen,NC,28273,Legacy,DWA-9100DWA-9100BU,New Choco,New,,,,,3600.00,3600.00,0.00,Robert Shih,CreditCard,3600.00,Square# s4q9,,,,,,,0.00,,,,,,,,0.00,,,,,,,,No,"3 years parts, 1 year labor (Free)",Scheduled,Mitsuwa Chair & Rack Sale (6/29-7/8/2018) TX,,Thank you very much for your business with us / Please deliver ASAP,107213,"Confirmed $3,600 in Square. 7/2/18 Hitomi
COURTESY CALL DONE LEFT VM 07/02/18 3:06 PM - STEPHANY",FL,1,8.25
7/3/2018 5:03:46 PM,Gregory L. Morgan,AZ,85142,Legacy 3D,DWA-9150USJ-9150CH-DEMO,Demo Choco,Demo,,,,,3900.00,3900.00,0.00,Robert Shih,Synchrony,3900.00,,,6019170813013288,91142362,Las Vegas,36 months,,0.00,,,,,,,,0.00,,,,,,,,No,"3 years parts, 1 year labor (Free)",Scheduled,Mitsuwa Chair & Rack Sale (6/29-7/8/2018) TX,,"Dear Mr. Morgan 

Thank you very much for your business with us in Mitsuwa Plano TX  / Synchrony 36 months 0% APR / Please deliver ASAP",107244,"Please deliver a refurbished demo, if unavailable than please deliver a new one to instead///confirmed synchrony account ($8,500) and original.***Please charge before delivery and have sales draft signed. *** 7/5/18 Hitomi
CHARGED 3900 AUTH # 006935 - STEPHANY 07/06/18",NV,1,8.25
7/6/2018 1:45:11 PM,Jianing Deng,TX,75075,Legacy 3D,DWA-9150USJ-9150CH-DEMO,Demo Choco,Demo,,,,,3600.00,3600.00,0.00,Robert Shih,Synchrony,3600.00,,,6019170813014112,91161811,Las Vegas,36 months,,0.00,,,,,,,,0.00,,,,,,,7/10/2018 12:00:00 AM,No,"3 years parts, 1 year labor (Free)",Delivered,Mitsuwa Chair & Rack Sale (6/29-7/8/2018) TX,,"Dear Mr / Mrs. Deng

Thank you very much for your business with us in Mitsuwa Plano TX / Synchrony 36 months 0% APR / Please deliver ASAP.",107284,"Please double check if is a refurbished demo and clean before  delivery / If not , Please deliver a new one for instead///Confirmed synchrony account ($6,500) and original. ***Please charge before delivery and have sales draft signed. *** 7/6/18 Hitomi",TX,1,8.25
7/6/2018 1:52:50 PM,Man Fong,TX,75024,Legacy 3D,DWA-9150USJ-9150BL,New Black,New,,,,,3600.00,3600.00,0.00,Robert Shih,CreditCard,100.00,SQUARE # z5Pq,,,,,,COD,3500.00,,,,,,,,0.00,,,,,,,,No,"3 years parts, 1 year labor (Free)",Called,Mitsuwa Chair & Rack Sale (6/29-7/8/2018) TX,,"Dear Mr / Mrs. Fong

Thank you very much for your business with us in Mitsuwa Plano TX / COD $ 3,500 / Please deliver ASAP",107285,"Confirmed $100 in Square. COD$3,500. 7/6/18 Hitomi
courtesy call done 07/10/18 11:45am stephany left vm",TX,1,8.25
7/6/2018 2:01:14 PM,Linda Jangula,TX,75166,Solace,SOL-1,,New,,,,,2814.50,2600.00,214.50,Robert Shih,Synchrony,2814.50,,,6019170813017446,91237058,Las Vegas,24 months,,0.00,,,,,,,,0.00,,,,,,,7/10/2018 12:00:00 AM,No,"3 years parts, 1 year labor (Free)",Delivered,Mitsuwa Chair & Rack Sale (6/29-7/8/2018) TX,,"Dear Mr / Mrs. Jangula

Thank you very much for your business with us in Mitsuwa Plano TX / Synchrony 24 months 0% APR / Please deliver ASAP",107286,"Please double check if is a refurbished BROWN demo and clean before delivery / If not , Please deliver a new one for instead///Please add Daiwa blanket ( pls add with delivery )and EZE set USJ - 836 ( already picked up in store ). ///Confirmed synchrony account ($6,500) and original.***Please charge before delivery  and original. 7/6/18 Hitomi",TX,0,8.25
7/6/2018 2:07:10 PM,Dominic Sun,TX,75035,Legacy 3D,DWA-9150USJ-9150BL-DEMO,Demo Black,Demo,,,,,4221.75,3900.00,321.75,Robert Shih,Synchrony,4221.75,,,6019170813018006,91260698,Las Vegas,36 months,,0.00,,,,,,,,0.00,,,,,,,7/10/2018 12:00:00 AM,No,"3 years parts, 1 year labor (Free)",Delivered,Mitsuwa Chair & Rack Sale (6/29-7/8/2018) TX,,"Dear Mr / Mrs. Sun

Thank you very much for your business with us in Mitsuwa Plano TX / Synchrony 36 months 0% APR / Please deliver ASAP / Second floor delivery",107287,"Please double check if is a refurbished demo and clean before  delivery / If not , Please deliver a new one for instead///Confirmed synchrony account ($6,500) and original. ***Please charge before delivery and have sales draft signed.*** 7/6/18 Hitomi",TX,0,8.25
7/7/2018 9:01:56 AM,AL Dastgiri,NC,27587,Legacy 3D,DWA-9150USJ-9150CH-DEMO,Demo Choco,Demo,,,,,3600.00,3600.00,0.00,Robert Shih,Cash,100.00,,,,,,,COD,3500.00,,,,,,,,0.00,,,,,,,,No,"3 years parts, 1 year labor (Free)",Assigned,Mitsuwa Chair & Rack Sale (6/29-7/8/2018) TX,,"Dear Dastgiri family , 

Thank you very much for your business with us in Mitsuwa Plano TX / Please deliver ASAP / COD $3,500",107290,"Please double check if is a refurbished demo and clean ( if we don't have brown demo can be black demo but please let me know and I'll tell customer to change color ) before  delivery / If not , Please deliver a new one for instead. Thank you very much.//will confirm cash  7/9/18 Hitomi//Mario received $100 cash. Received cash confirmation. 7/10/18 Hitomi
COURTESY CALL DONE LEFT VM 07/10/18 STEPHANY 3:18 PM",FL,1,8.25
7/8/2018 5:08:48 PM,Newly Guajardo,TX,75070,Solace,SOL-1,,New,,,,,2814.50,2600.00,214.50,Robert Shih,Synchrony,2814.50,,,6019170813021117,91330219,Las Vegas,24 months,,0.00,,,,,,,,0.00,,,,,,,7/10/2018 12:00:00 AM,No,"3 years parts, 1 year labor (Free)",Delivered,Mitsuwa Chair & Rack Sale (6/29-7/8/2018) TX,,"Dear Guajardo family , 

Thank you very much for your time and your business with us in Mitsuwa Plano TX / Synchrony 24 months 0% APR / Please deliver ASAP",107311,"Please double check if is a refurbished demo and clean before  delivery / If not , Please deliver a new one for instead//Confirmed the account ($6,000) and original.( Pre Robert, husband and wife they were signing separately as they both were there .  they signed a same first name.) **PLease charge before delivery and have sales draft signed. ***  7/9/18 Hitomi",TX,0,8.25
7/8/2018 5:26:09 PM,James Otto,TX,75024,Solace,SOL-1,,New,,,,,2600.00,2600.00,0.00,Robert Shih,CreditCard,2600.00,SQUARE # c0pP,,,,,,,0.00,,,,,,,,0.00,,,,,,,7/11/2018 12:00:00 AM,No,"3 years parts, 1 year labor (Free)",Delivered,Mitsuwa Chair & Rack Sale (6/29-7/8/2018) TX,,"Dear Otto family ,

Thank you very much for your time and business with us in Mitsuwa Plano TX / Please deliver ASAP / Second floor delivery",107312,"Please double check if is a refurbished demo and clean before  delivery / If not , Please deliver a new one for instead///Confirmed $2,600 in Square. 7/9/18 Hitomi",TX,1,8.25
7/8/2018 5:37:09 PM,Julio Lizcano,TX,76164,Solace,SOL-1,,New,,,,,3000.00,3000.00,0.00,Robert Shih,Synchrony,3000.00,,,6019191248208418,,,24 months,,0.00,,,,,,,,0.00,,,,,,,7/11/2018 12:00:00 AM,No,"3 years parts, 1 year labor (Free)",Delivered,Mitsuwa Chair & Rack Sale (6/29-7/8/2018) TX,,"Dear Lizcano family , 

Thank you very much for your business with us in Mitsuwa Plano TX / Synchrony 24 months 0% APR / Please deliver ASAP / Please deliver the brown color",107313,"Synchrony account by Rooms to go//confirmed synchrony account ($4,500).***Please charge before delivery and have sales draft signed. *** 7/9/18 Hitomi",TX,1,8.25
7/8/2018 6:11:09 PM,Toyoko F. Cervantes,TX,75093,Legacy 3D,DWA-9150USJ-9150CH,New Choco,New,,,,,4800.00,4800.00,0.00,Robert Shih,CreditCard,4800.00,SQUARE # YcVl,,,,,,,0.00,,,,,,,,0.00,,,,,,,,No,"3 years parts, 1 year labor (Free)",Cancelled,Mitsuwa Chair & Rack Sale (6/29-7/8/2018) TX,,"Dear Cervantes family , 

Thank you very much for your time and business with us in Mitsuwa Plano TX / Please deliver ASAP",107314,Gift as a comfort pillow ( USJ 944 ) already picked up in Mitsuwa rack sale/// dispute of 107315 7/9/18 Hitomi,Not Dispatched,1,8.25
7/8/2018 6:15:17 PM,Toyoko F. Cervantes,TX,75093,Legacy 3D,DWA-9150USJ-9150CH,New Choco,New,,,,,4800.00,4800.00,0.00,Robert Shih,CreditCard,4800.00,SQUARE # YcVl,,,,,,,0.00,,,,,,,,0.00,,,,,,,7/10/2018 12:00:00 AM,No,"3 years parts, 1 year labor (Free)",Delivered,Mitsuwa Chair & Rack Sale (6/29-7/8/2018) TX,,"Dear Cervantes family , 

Thank you very much for your business with us in Mitsuwa Plano TX / Please deliver ASAP",107315,"/Gift as a Comfort pillow ( USJ 944 ) has been picked up by Mitsuwa rack sale///COnfirmed $4,800 in Square. 7/9/18 Hitomi",TX,1,8.25
7/8/2018 6:22:45 PM,Sultan Haroon,TX,75231,Solace,SOL-1,,New,,,,,3000.00,3000.00,0.00,Robert Shih,CreditCard,100.00,SQUARE # SKx3,,,,,,COD,2900.00,,,,,,,,0.00,,,,,,,,No,"3 years parts, 1 year labor (Free)",Called,Mitsuwa Chair & Rack Sale (6/29-7/8/2018) TX,,"Dear Sultan,

Thank you very much for your time and business with us in Mitsuwa Plano TX / COD $2,900 / Black color",107316,"COnfirmed $100 in Square. COD $2,900. 7/9/18 Hitomi
COURTESY CALL DONE SPOKE TO CUSTOMER ""TX CALLED ALREADY TRIED TO DELIVER BUT CUSTOMER COULDN'T ACCEPT DELIVER, NEED TO RESCHEDULE."" - 07/10/18 STEPHANY 3:54",TX,1,8.25
7/8/2018 6:29:53 PM,Diana H. Nguyen,TX,75088,Solace,SOL-1,,New,,,,,3000.00,3000.00,0.00,Robert Shih,CreditCard,1000.00,SQUARE # reUO,,,,,,Synchrony,2000.00,,,6019191239620795,,,24 months,,0.00,,,,,,,7/10/2018 12:00:00 AM,No,"3 years parts, 1 year labor (Free)",Delivered,Mitsuwa Chair & Rack Sale (6/29-7/8/2018) TX,,"Dear Nguyen family,  

Thank you very much for your time and business with us in Mitsuwa Plano TX / Synchrony 24 months 0% APR $ 2,000 by Rooms to go account / Please deliver ASAP",107317,"COnfirmed $1,000 in Square and synchrony account $2,042 . ***Please charge before delivery and have sales draft signed. *** 7/9/18 Hitomi",TX,1,8.25
