﻿Original Event Name,Event Name,Sales Person,Order Number,Order Date,Customer Name,State,Zip,Product Name,Color,Product Status,QTY,Tax,Total Before Tax,Order Total,Primary Payment Method,Second Payment Method,Thirdl Payment Method,Warranty,Order Items,Pick up,Delivered On,Order Status,Chair Type,Order Notes,Private Note,Branch,No Tax,Actual Tax Rate,SKU,Primary Payment Balance,Primary Authorize Number,Primary Purchase Order Number,Primary Synchrony Account Number,Primary Synchrony Application Key,Primary Synchrony Account Info,Primary Synchrony Term,Primary Synchrony Primary ID,Primary Synchrony Issued State,Primary Synchrony Expiretion Date,Second Payment Balance,Second Authorize Number,Second Purchase Order Number,Second Synchrony Account Number,Second Synchrony Application Key,Second Synchrony Account Info,Second SynchronyTerm,Second Synchrony Primary ID,Second Synchrony Issued State,Second Synchrony Expiretion Date,Third Payment Balance,Third Authorize Number,Third Purchase Order Number,Third Synchrony Account Number,Third Synchrony Application Key,Third Synchrony Account Info,Third Synchrony Term,Third Synchrony Primary ID,Third Synchrony Issued State,Third Synchrony Expiretion Date
"Sams Club #6520 Vero Beach, FL","Sams Club #6520 Vero Beach, FL",Neneth Finley,120460,8/25/2019 12:13:12 PM,Tammy Crowe Martin,FL,32967,Legacy for Sam's,Demo(Box) Choco[-500],Demo,1,272.86,3898.00,4170.86,Credit Card,,,"3 years parts, 3 years labor ($400)","Legacy for Sam's,",No,,Called,,,"Original received.-Erika 8/26/19 10:18am
CC, Jasmin Carrizales, 8/26/19, 2:06pm, VM",FL,0,7.00,DWA-9100DWA-9100CH-Box,0.00,4848 1875 6184 9959 8580 82,,,,,,,,/,0.00,,,,,,,,,/,0.00,,,,,,,,,/
"Sams Club #6520 Vero Beach, FL","Sams Club #6520 Vero Beach, FL",Neneth Finley,120461,8/25/2019 12:21:32 PM,Pamela macnai,FL,34947,Shogun Neck & Back Massger,Demo[-20],Demo,1,40.60,579.97,620.57,Credit Card,,,"2 years parts, 1 year labor for Small Items","Shogun Neck &amp; Back Massger,Vitality Plate for Sam's,",YES,,New,,,,Not Dispatched,0,7.00,USJ-874USJ-874-DEMO,0.00,1830 5652 8488 8754 7637 1,,,,,,,,/,0.00,,,,,,,,,/,0.00,,,,,,,,,/
"Sams Club #6520 Vero Beach, FL","Sams Club #6520 Vero Beach, FL",Neneth Finley,120461,8/25/2019 12:21:32 PM,Pamela macnai,FL,34947,Vitality Plate for Sam's,Demo[-60],Demo,1,40.60,579.97,620.57,Credit Card,,,"2 years parts, 1 year labor for Small Items","Shogun Neck &amp; Back Massger,Vitality Plate for Sam's,",YES,,New,,,,Not Dispatched,0,7.00,USJ-849USJ-849-DEMO,0.00,1830 5652 8488 8754 7637 1,,,,,,,,/,0.00,,,,,,,,,/,0.00,,,,,,,,,/
"Sams Club #6520 Vero Beach, FL","Sams Club #6520 Vero Beach, FL",Neneth Finley,120462,8/25/2019 12:29:36 PM,Jean thomas,FL,32958,Vitality Plate for Sam's,Demo[-60],Demo,1,28.00,399.99,427.99,Credit Card,,,"2 years parts, 1 year labor for Small Items","Vitality Plate for Sam's,",YES,,New,,,,Not Dispatched,0,7.00,USJ-849USJ-849-DEMO,0.00,4058 6728 0889 9528 5806 2,,,,,,,,/,0.00,,,,,,,,,/,0.00,,,,,,,,,/
