﻿Date,CustomerName,State,Zipcode,Description,productNo,Color,IsDemo,Net,ShippingFee,GiftPrice,FinancingProcessingFee,Gross,Pre_tax,Tax,Commission,Primary Payment Method,Primary Payment Balance,Primary Authorize Number,Primary Purchase Order Number,Primary Synchrony Account Number,Primary Synchrony Application Key,Primary Synchrony AccountInfo,Primary SynchronyTerm,Secondly Payment Method,Secondly Payment Balance,Secondly Authorize Number,Secondly Purchase Order Number,Secondly Synchrony Account Number,Secondly Synchrony Application Key,Secondly Synchrony AccountInfo,Secondly SynchronyTerm,Thirdly Payment Method,Thirdly Payment Balance,Thirdly Authorize Number,Thirdly Purchase Order Number,Thirdly Synchrony Account Number,Thirdly Synchrony Application Key,Thirdly Synchrony AccountInfo,Thirdly SynchronyTerm,DeliveryDate,Ispickup,Warranty,Status,Event Name,Synchrony Notes,Order Notes,Order number,Private Note,Branch,IsNoTax,ActualTaxRate
11/13/2017 9:22:01 AM,John & Mandy Islam,CA,93030,Relax2Zero 2.0 for Sam's,USJ-9050USJ-9050BR,Brown,New,,,,,4202.25,3900.00,302.25,Bryan Albert,,0.00,,26122,,,,,,,,,,,,,,,,,,,,,11/27/2017 12:00:00 AM,No,"3 years parts, 1 year labor (Free)",Delivered,Sam's Club #6455 OXNARD 11/9-19/17 (CA),,,101844,"11/27/17- Drivers Notes- Leg rest needs to be replaced .
New leg rest has scratches",CA,,
11/13/2017 9:32:01 AM,William & Kay Duarte / Champion,CA,93004,Legacy for Sam's,DWA-9100DWA-9100BL-DEMO,Demo Black,Demo,,,,,4632.17,4299.00,333.17,Bryan Albert,,0.00,,26123,,,,,,,,,,,,,,,,,,,,,11/19/2017 12:00:00 AM,YES,"3 years parts, 1 year labor (Free)",Delivered,Sam's Club #6455 OXNARD 11/9-19/17 (CA),,,101846,Delivered and coordinated by Bryan Albert,CA,,
11/13/2017 9:40:58 AM,Ramesh & Ujjala Kumar,CA,92129,Legacy for Sam's,DWA-9100DWA-9100BL-DEMO,Demo Blue,Demo,,,,,3877.92,3599.00,278.92,Bryan Albert,,0.00,,26124,,,,,,,,,,,,,,,,,,,,,11/30/2017 12:00:00 AM,YES,"3 years parts, 2 years labor ($200)",Delivered,Sam's Club #6455 OXNARD 11/9-19/17 (CA),,1extra year in home labor!,101848,In order to retain sale I promised that the chair would have no dings! Unfortunately shopping carts have Ding's the arms and the leg. Please exchange for new arms and new leg. Also the chair will be picked up at Gardena office scheduled by customer.,CA,,
11/16/2017 8:13:24 AM,Jimmy L Webb,CA,93060,Legacy for Sam's,DWA-9100DWA-9100BL-DEMO,Demo Blue,Demo,,,,,3877.92,3599.00,278.92,Bryan Albert,,0.00,,26147,,,,,,,,,,,,,,,,,,,,,11/19/2017 12:00:00 AM,No,"3 years parts, 1 year labor (Free)",Delivered,Sam's Club #6455 OXNARD 11/9-19/17 (CA),,,101895,11/17/17- cristina - printed,CA,0,7.75
11/16/2017 8:19:15 AM,Ronald P Smith,CA,93015,Relax2Zero 2.0 for Sam's,USJ-9050USJ-9050BR,Brown,New,,,,,4202.25,3900.00,302.25,Bryan Albert,,0.00,,26125,,,,,,,,,,,,,,,,,,,,,11/27/2017 12:00:00 AM,No,"3 years parts, 2 years labor ($200)",Delivered,Sam's Club #6455 OXNARD 11/9-19/17 (CA),,,101896,11/17/17- cristina Printed,CA,0,7.75
11/19/2017 10:25:47 PM,Olga Vittoria,CA,93033,Relax2Zero 2.0 for Sam's,USJ-9050USJ-9050BR-DEMO,Demo Brown,Demo,,,,,3446.92,3199.00,247.92,Bryan Albert,,0.00,,26126,,,,,,,,,,,,,,,,,,,,,11/19/2017 12:00:00 AM,No,"3 years parts, 1 year labor (Free)",Delivered,Sam's Club #6455 OXNARD 11/9-19/17 (CA),,Local delivery made by Bryan on November 19th 2017 s/n 95160195A,101991,,CA,0,7.75
