﻿Original Event Name,Event Name,Sales Person,Order Number,Order Date,Customer Name,State,Zip,Product Name,Color,Product Status,QTY,Tax,Total Before Tax,Order Total,Primary Payment Method,Second Payment Method,Thirdl Payment Method,Warranty,Order Items,Pick up,Delivered On,Order Status,Chair Type,Order Notes,Private Note,Branch,No Tax,Actual Tax Rate,SKU,Primary Payment Balance,Primary Authorize Number,Primary Purchase Order Number,Primary Synchrony Account Number,Primary Synchrony Application Key,Primary Synchrony Account Info,Primary Synchrony Term,Second Payment Balance,Second Authorize Number,Second Purchase Order Number,Second Synchrony Account Number,Second Synchrony Application Key,Second Synchrony Account Info,Second SynchronyTerm,Third Payment Balance,Third Authorize Number,Third Purchase Order Number,Third Synchrony Account Number,Third Synchrony Application Key,Third Synchrony Account Info,Third Synchrony Term
"Sam's Club #4731 Oklahoma City, OK","Sam's Club #4731 Oklahoma City, OK",Obale Enoweyere,117904,6/10/2019 8:43:04 AM,Leroy Brooks,OK,73162,Hubble for Sam's,New Black,New,1,331.98,3849.00,4180.98,Credit Card,,,"3 years parts, 1 year labor (Free)","Hubble for Sam's,",No,,Cancelled,,,"Printed - Tina 6/10/2019
sales person put new instead of demo(box), i told him to re enter in the daiwa.space -Tina 6/10/2019",Not Dispatched,0,8.63,HUBL-1HUBL-1BL,0.00,TC# 6067149046955933826690,,,,,,0.00,,,,,,,0.00,,,,,,
"Sam's Club #4731 Oklahoma City, OK","Sam's Club #4731 Oklahoma City, OK",Obale Enoweyere,117906,6/10/2019 8:58:21 AM,Marc Ediger,OK,73162,Hubble for Sam's,New Black,New,1,0.00,4299.00,4299.00,Sam’s Club Synchrony,,,"3 years parts, 1 year labor (Free)","Hubble for Sam's,",No,,Cancelled,,,"Printed -Tina 6/10/2019
sales person put new instead of demo(box), i told him to re enter in the daiwa.space -Tina 6/10/2019",Not Dispatched,1,8.63,HUBL-1HUBL-1BL,0.00,,,,,,,0.00,,,,,,,0.00,,,,,,
"Sam's Club #4731 Oklahoma City, OK","Sam's Club #4731 Oklahoma City, OK",Obale Enoweyere,117907,6/10/2019 9:13:11 AM,Marc Ediger,OK,73162,Hubble for Sam's,Demo Black(Box)[-300],Demo,1,0.00,4699.00,4699.00,Sam’s Club Synchrony,,,"3 years parts, 1 year labor (Free)","Hubble for Sam's,",No,,New,,,"Printed - Tina 6/10/2019
Original received. Erika 6/10/19 9:31am",TX,1,8.63,HUBL-1HUBL-1BL-BOX,0.00,,,,,,,0.00,,,,,,,0.00,,,,,,
"Sam's Club #4731 Oklahoma City, OK","Sam's Club #4731 Oklahoma City, OK",Obale Enoweyere,117908,6/10/2019 9:18:46 AM,Leroy Brooks,OK,73162,Hubble for Sam's,Demo Choco(Box)[-300],Demo,1,405.29,4699.00,5104.29,Credit Card,,,"3 years parts, 1 year labor (Free)","Hubble for Sam's,",No,,Cancelled,,,"Printed - Tina 6/10/2019
Original received. note pricing does not match invoice 
Reentering the order, canceling order# 117908
 Erika 11:37am 6/10/19
New order # is 117932",Not Dispatched,0,8.63,HUBL-1HUBL-1CH-BOX,0.00,TC# 6067149046955933826690,,,,,,0.00,,,,,,,0.00,,,,,,
"Sam's Club #4731 Oklahoma City, OK","Sam's Club #4731 Oklahoma City, OK",Obale Enoweyere,117932,6/10/2019 2:41:01 PM,Leroy Brooks,OK,73162,Hubble for Sam's,Demo Choco(Box)[-300],Demo,1,0.00,4699.00,4699.00,Purchase Order,,,"3 years parts, 1 year labor (Free)","Hubble for Sam's,",No,,New,,,"Original received, note invoice was incorrect as well as previous order #117908. Note sales rep Obale said it is a demo choco (box) spoke to him 6/10/19
New order # is 117932. Erika 6/10/19 2:44pm
Printed- Tina 6/10/2019",TX,1,8.63,HUBL-1HUBL-1CH-BOX,4699.00,,tc#6067149046995933826690,,,,,0.00,,,,,,,0.00,,,,,,
