﻿Original Event Name,Event Name,Sales Person,Order Number,Order Date,Customer Name,State,Zip,Product Name,Color,Product Status,QTY,Tax,Total Before Tax,Order Total,Primary Payment Method,Second Payment Method,Thirdl Payment Method,Warranty,Order Items,Pick up,Delivered On,Order Status,Chair Type,Order Notes,Private Note,Branch,No Tax,Actual Tax Rate,SKU,Primary Payment Balance,Primary Authorize Number,Primary Purchase Order Number,Primary Synchrony Account Number,Primary Synchrony Application Key,Primary Synchrony Account Info,Primary Synchrony Term,Primary Synchrony Primary ID,Primary Synchrony Issued State,Primary Synchrony Expiretion Date,Second Payment Balance,Second Authorize Number,Second Purchase Order Number,Second Synchrony Account Number,Second Synchrony Application Key,Second Synchrony Account Info,Second SynchronyTerm,Second Synchrony Primary ID,Second Synchrony Issued State,Second Synchrony Expiretion Date,Third Payment Balance,Third Authorize Number,Third Purchase Order Number,Third Synchrony Account Number,Third Synchrony Application Key,Third Synchrony Account Info,Third Synchrony Term,Third Synchrony Primary ID,Third Synchrony Issued State,Third Synchrony Expiretion Date
Maricopa Summer Home & Landscape Show 7/19-21/19,Maricopa Summer Home & Landscape Show 7/19-21/19,Christopher Williams,118859,7/22/2019 11:53:30 AM,Judith Ruland,AZ,85345,Majesty,Demo Choco,Demo,1,0.00,2500.00,2500.00,Credit Card,,,"5 years parts, 1 year labor (Free)","Majesty,",YES,7/21/2019 12:00:00 AM,Delivered,Demo,,"Costumer  has picked up chair. 7/21/19-Chris
Original received Sq amount verified. $2500 paid in full. Erika 7/22/19 5:10pm

Received the original invoice, confirmed the customer's signatures for confirming both Purchase & Pick-up. SQ payment $2500 q8MB verified. 8/9/19 Riho",NV,1,8.60,MAJ-1010MAJ-1010-BR-DEMO,2500.00,#q8MB,,,,,,,,/,0.00,,,,,,,,,/,0.00,,,,,,,,,/
Maricopa Summer Home & Landscape Show 7/19-21/19,Maricopa Summer Home & Landscape Show 7/19-21/19,Juan Ochoa,118863,7/22/2019 12:53:44 PM,Mark damon,AZ,86001,Relax 2 Zero 3D,New Choco,New,1,356.90,4900.00,5256.90,Credit Card,,,"4 years parts, 1 years labor (Free)","Relax 2 Zero 3D,",No,,Delivered,New,,"SQUARE NUMBER IS IN CREDIT CARD AREA
Original received. SQ amount verified of $3900. Paid in full. Erika 7/22/19 5:12pm

Received & confirmed the invoice and the delivery confirmation. 8/15/19 Riho",CA,0,8.60,DWA-9060USJ-9060BR,3900.00,#8Jde,,,,,,,,/,0.00,,,,,,,,,/,0.00,,,,,,,,,/
Maricopa Summer Home & Landscape Show 7/19-21/19,Maricopa Summer Home & Landscape Show 7/19-21/19,Charles Ishida,118887,7/23/2019 3:20:26 PM,Robert Smith,AZ,85361,Relax 2 Zero 1.0,Demo Beige,Demo,1,0.00,3499.00,3499.00,Synchrony,,,"5 years parts, 1 year labor (Free)","Relax 2 Zero 1.0,",No,8/24/2019 12:00:00 AM,Delivered,New,,"Synchrony original verified. Credit available $5000. Remaining balance $3499.Pls charge synchrony account upon delivery, have sales draft sign. Erika 7/23/19 3:28pm
Check to see if Aux is possible
Customer would like 3rd party
Delivery confirmation completed payment verified. sales draft signed-Erika 8/28/19 11:38am",NV,1,8.60,USJ-9000USJ-9000CR-DEMO,3499.00,,,,78446700,San Diego,48 months,Driver’s License,AZ,03/2024,0.00,,,,,,,,,/,0.00,,,,,,,,,/
Maricopa Summer Home & Landscape Show 7/19-21/19,Maricopa Summer Home & Landscape Show 7/19-21/19,Juan Ochoa,118888,7/23/2019 3:42:41 PM,Albert Rodriguez,AZ,85306,Relax 2 Zero 3D,New Choco,New,1,0.00,4000.00,4000.00,Credit Card,,,"4 years parts, 1 years labor (Free)","Relax 2 Zero 3D,",No,8/6/2019 12:00:00 AM,Delivered,New,,"Original received. SQ amount verified $4000. Paid in full. Erika 7/22/19 5:20pm
Disregard old order# 118864
Verified delivery and payment, marked as delivered and passed complete invoice to Erika - Arisa 8/13/19 12:18pm

Received & Confirmed the invoice and the delivery confirmation. Erika & Arisa stated verified payment, but wrong SQ# (Enmz) was entered at the payment detail section, updated it to correct SQ# (Enm2). 8/16/19 Riho",CA,1,8.60,DWA-9060USJ-9060BR,4000.00,Enm2,,,,,,,,/,0.00,,,,,,,,,/,0.00,,,,,,,,,/
Maricopa Summer Home & Landscape Show 7/19-21/19,Maricopa Summer Home & Landscape Show 7/19-21/19,Christopher Williams,118890,7/23/2019 4:51:41 PM,Omar Vargas,AZ,85268,PEGASUS 2 SMART,Demo Black,Demo,1,0.00,5500.00,5500.00,Synchrony,,,"5 years parts, 1 year labor (Free)","PEGASUS 2 SMART,",No,7/21/2019 12:00:00 AM,Delivered,Demo,,"Chair was picked up by the customer on 07/21/19 S# 1201001180187

Cristina charged Synchrony account on  07/23/19 email needs to be sent to the customer. (4:49 Pm)",NV,1,8.60,PEGS-2PEGS-2-BL-DEMO,5500.00,,,6501723375243522,78526129,San Diego,48 months,Driver’s License,AZ,12/2038,0.00,,,,,,,,,/,0.00,,,,,,,,,/
Maricopa Summer Home & Landscape Show 7/19-21/19,Maricopa Summer Home & Landscape Show 7/19-21/19,Christopher Williams,118905,7/24/2019 11:32:12 AM,Conran Parra,AZ,85388,Relax 2 Zero 3D,Demo Black,Demo,1,288.10,4100.00,4388.10,Synchrony,,,"5 years parts, 1 year labor (Free)","Relax 2 Zero 3D,",No,,Cancelled,,,wrong info- ignore this order,NV,0,8.60,DWA-9060USJ-9060BL-DEMO,4100.00,,,6501723375241666,78481239,San Diego,36 months,Driver’s License,AZ,11/2038,0.00,,,,,,,,,/,0.00,,,,,,,,,/
Maricopa Summer Home & Landscape Show 7/19-21/19,Maricopa Summer Home & Landscape Show 7/19-21/19,Christopher Williams,118906,7/24/2019 11:36:26 AM,Conrad Parra,AZ,85388,Relax 2 Zero 3D,New Choco,New,1,0.00,4100.00,4100.00,Synchrony,,,"5 years parts, 1 year labor (Free)","Relax 2 Zero 3D,",No,8/6/2019 12:00:00 AM,Delivered,New,,"2-3 week delivery; Available credit $7,000; Verified both original and synchrony form - Cristina 07/24/19 11:51-
 Received signed SYNC sales draft. Verified delivery and payment, marked as delivered and passed complete invoice to Erika - Arisa 8/13/19 1:57pm",CA,1,8.60,DWA-9060USJ-9060BR,4100.00,,,6501723375241666,78481239,San Diego,36 months,Driver’s License,AZ,11/2038,0.00,,,,,,,,,/,0.00,,,,,,,,,/
Maricopa Summer Home & Landscape Show 7/19-21/19,Maricopa Summer Home & Landscape Show 7/19-21/19,Charles Ishida,118907,7/24/2019 11:46:02 AM,Barbra Curtis,AZ,85395,Relax 2 Zero 3D,New Choco,New,1,0.00,4000.00,4000.00,Credit Card,COD,,"3 years parts, 2 years labor ($200)","Relax 2 Zero 3D,Daiwa Blanket,Chair Pad for Relax2Zero 3D,",No,,Assigned,,,"Please collect COD of $1,500.00 
One Extra Back pad and Free Blanket**
Customer Email : mwnusser18@gmail.com
Deposit verified threw Sq for $2,500- Cristina 07/24/19 11:48 am",NV,1,8.60,DWA-9060USJ-9060BR,2500.00,PYdu,,,,,,,,/,0.00,,,,,,,,,/,0.00,,,,,,,,,/
