﻿Date,CustomerName,State,Zipcode,Description,productNo,Color,IsDemo,Net,ShippingFee,GiftPrice,FinancingProcessingFee,Gross,Pre_tax,Tax,Commission,PaymentMethod,Primary Payment Balance,Secondary Payment Method,DeliveryDate,Ispickup,Warranty,Status,Event Name,Synchrony Account Number,Synchrony Application Key,Synchrony Account info,Synchrony Term,Synchrony Notes,Order Notes
9/24/2017 8:13:23 AM,Grey Wells,VA,22033,Legacy 3D,DWA-9150USJ-9150BL-DEMO,Demo Black,Demo,,,,,4001.50,3775.00,226.50,Jonathan Bhowani,CreditCard,4001.50,,9/24/2017 12:00:00 AM,No,"3 years parts, 1 year labor (Free)",Delivered,Capital Home Show Fall 17,,,,,,"Please include daiwa blanket. 
Serial #91160937D"
9/24/2017 8:13:23 AM,Grey Wells,VA,22033,Daiwa Blanket,,,New,,,,,4001.50,3775.00,226.50,Jonathan Bhowani,CreditCard,4001.50,,9/24/2017 12:00:00 AM,No,No Warranty,Delivered,Capital Home Show Fall 17,,,,,,"Please include daiwa blanket. 
Serial #91160937D"
9/24/2017 10:03:29 AM,mathine cline,CA,90245,Legacy,DWA-9100DWA-9100BL-DEMO,Demo Black,Demo,,,,,3420.07,3194.00,226.07,David Wang,Synchrony,0.00,,,No,"3 years parts, 3 years labor ($400)",Cancelled,LA County Fair 9/1-24 (CA),6034610081534961,78853984,San Diego,36 months,,3420 total.36 mo synchrony.
9/24/2017 10:17:44 AM,Tom Rebsom,WA,98290,Legacy 3D,DWA-9150USJ-9150BL,Black,New,,,,,3999.18,3720.00,279.18,Christoper Richard Williams,Synchrony,4000.00,,,No,"5 years parts, 3 years labor ($700)",Assigned,Washington State Fair 9/1-24 (WA),6034610081534565,78846955,Las Vegas,36 months,,"Invoice 238
Paid in full"
9/24/2017 10:19:25 AM,Joyce DeCarlo,IL,60641,Relax2Zero 2.0 for Sam's,USJ-9050USJ-9050BL,Black,New,,,,,3470.92,3199.00,271.92,Michael Wang,CreditCard,0.00,,,No,"3 years parts, 1 year labor (Free)",Scheduled,Health&Wellness H Mart Illinois,,,,,,Give 2 free chairs pads and it is a Sam's Vernon Hills delivery 6228 for Chicago branch to deliver.Deliver to second floor for free since Sam's club order and provide original instructions if possible or at least email.Black demo Relax2zero 1.0 chair to be delivered.Please deliver one without scratches.
9/24/2017 10:26:28 AM,Marisela Rangel,CA,91706,Relax2Zero 3D,DWA-9060USJ-9060BL,Black,New,,,,,3999.10,3724.00,275.10,Joseph Chan,CreditCard,4000.00,,,No,"3 years parts, 3 years labor ($400)",Assigned,LA County Fair 9/1-24 (CA),,,,,,Offer for customer is $4000 out the door including tax.
9/24/2017 10:26:59 AM,Mary Jacobs,WA,98311,Legacy 3D,DWA-9150USJ-9150CH-DEMO,Demo Choco Brown,Demo,,,,,3999.18,3720.00,279.18,Tom Nguyen,Synchrony,4000.00,,,No,"5 years parts, 3 years labor ($700)",Assigned,Washington State Fair 9/1-24 (WA),6034610081534573,78846972,Las Vegas,36 months,,"Invoice 236
Auth #023406
Paid in full
**PLEASE Deliver Wednesday Afternoon**"
9/24/2017 10:39:04 AM,Tammy Gabriel,NY,12180,Legacy 3D,DWA-9150USJ-9150BL,Black,New,,,,,4203.13,4000.00,203.13,Gary Cyrlin,Synchrony,0.00,,,No,"3 years parts, 1 year labor (Free)",Scheduled,The Big E State Fair 9/15-10/1,,78794724,Las Vegas,36 months,,"Order Date: 09/22/2017
Total amount is $4,203-
No charge for $0.13-"
9/24/2017 10:43:52 AM,Nancy Tracy,NH,03451,Legacy 3D,DWA-9150USJ-9150CH,Choco Brown,New,,,,,4201.00,3998.00,203.00,Winston Melgar,CreditCard,4200.00,,,No,"3 years parts, 1 year labor (Free)",Scheduled,The Big E State Fair 9/15-10/1,,,,,,"Order Date: 09/22/2017
Total amount is $4,200-
No charge for $1.00-
No remaining balance."
9/24/2017 10:47:55 AM,Evangelos Paphristou,CT,06480,Relax2Zero 3D,DWA-9060USJ-9060BR,Choco Brown,New,,,,,4781.13,4544.00,237.13,Gary Cyrlin,Synchrony,0.00,,,No,"3 years parts, 1 year labor (Free)",Cancelled,The Big E State Fair 9/15-10/1,6034610081531181,78787631,Las Vegas,36 months,,"Order Date: 09/22/2017
Total amount is $4,781-
No charge for $0.13-"
9/24/2017 10:52:21 AM,Nancy Twohig,MA,01085,Legacy 3D,DWA-9150USJ-9150BL,Black,New,,,,,4000.19,3809.00,191.19,Amando Loreno,CreditCard,4000.00,,,No,"3 years parts, 1 year labor (Free)",Scheduled,The Big E State Fair 9/15-10/1,,,,,,"Order Date: 09/22/2017
Total amount is $4,000-
No charge for $0.19-"
9/24/2017 10:56:21 AM,Ryna Russell,MA,01027,Legacy 3D,DWA-9150USJ-9150CH,Choco Brown,New,,,,,4000.19,3809.00,191.19,Amando Loreno,CreditCard,4000.00,,,No,"3 years parts, 1 year labor (Free)",Scheduled,The Big E State Fair 9/15-10/1,,,,,,"Order Date: 09/23/2017
Total amount is $4,000-
No charge for $0.19-
No remaining balance."
9/24/2017 11:02:47 AM,Dori Letourneau,RI,02864,Legacy 3D,DWA-9150USJ-9150CH,Choco Brown,New,,,,,4000.19,3809.00,191.19,Amando Loreno,Synchrony,0.00,,,No,"3 years parts, 1 year labor (Free)",Scheduled,The Big E State Fair 9/15-10/1,6034610081532171,78814236,Las Vegas,36 months,,"Order Date: 09/23/2017
Total amount is $4,000-
No charge for $0.19-"
9/24/2017 11:07:33 AM,Sharon Cruz,CT,06460,Legacy 3D,DWA-9150USJ-9150BL,Black,New,,,,,4000.19,3809.00,191.19,Amando Loreno,Synchrony,0.00,,,No,"3 years parts, 1 year labor (Free)",Scheduled,The Big E State Fair 9/15-10/1,6034610081533153,78830475,Las Vegas,36 months,,"Order Date: 09/23/2017
Total amount is $4.000-
No charge for $0.19-"
9/24/2017 11:13:24 AM,Debbie Montgomery,OH,45002,Legacy 3D,DWA-9150USJ-9150BL,Black,New,,,,,4201.00,3998.00,203.00,Gary Cyrlin,Synchrony,4200.00,,,No,"3 years parts, 1 year labor (Free)",Scheduled,The Big E State Fair 9/15-10/1,6034610081533500,78834147,Las Vegas,36 months,,"Order Date: 09/23/2017
Total amount is $4,200-
No charge for $1.00-
No remaining balance."
9/24/2017 11:18:38 AM,Vittorio Castro,CT,06111,Legacy 3D,DWA-9150USJ-9150BL,Black,New,,,,,4201.00,3998.00,203.00,Ilene Maynard,CreditCard,4200.00,,,No,"3 years parts, 1 year labor (Free)",Assigned,The Big E State Fair 9/15-10/1,,,,,,"Order Date: 09/23/2017
Actual total amount is $4,200-
No charge for $1.00-
Balance is paid off."
9/24/2017 11:25:32 AM,Charlie Dinh,CT,06776,Pegasus,DWA-9400Pegasus-BL,Black,New,,,,,4900.13,4656.00,244.13,Rolly San Jose,Synchrony,4900.00,,,No,"3 years parts, 1 year labor (Free)",Scheduled,The Big E State Fair 9/15-10/1,6034610081534151,78841018,Las Vegas,48 months,,"Order Date: 09/23/2017
Actual total amount is $4,900-
No charge for $0.13-
Remaining balance is paid off."
9/24/2017 11:33:11 AM,Gemii Ly,CT,06770,Pegasus,DWA-9400Pegasus-BL,Black,New,,,,,4900.38,4668.00,232.38,Rolly San Jose,Synchrony,4900.00,,,No,"3 years parts, 1 year labor (Free)",Scheduled,The Big E State Fair 9/15-10/1,6034610081534177,78841380,Las Vegas,48 months,,"Order Date: 09/23/2017
Actual total amount is $4,900-
No charge for $0.38-
No remaining balance."
9/24/2017 11:41:41 AM,Evangelos Papahristou,CT,06480,Relax2Zero 3D,DWA-9060USJ-9060BR,Choco Brown,New,,,,,4781.13,4544.00,237.13,Gary Cyrlin,Synchrony,4781.00,,,No,"3 years parts, 1 year labor (Free)",Scheduled,The Big E State Fair 9/15-10/1,6034610081531181,78787631,Las Vegas,36 months,,"Order Date: 09/23/2017
Actual total amount is $4,781-
No charge for $0.13-
No remaining balance."
9/24/2017 11:47:34 AM,John Wasilewski,RI,02891,Pegasus,DWA-9400Pegasus-BL,Black,New,,,,,4900.13,4656.00,244.13,Rolly San Jose,Synchrony,4900.00,,,No,"3 years parts, 1 year labor (Free)",Cancelled,The Big E State Fair 9/15-10/1,6034610081534854,78850461,Las Vegas,48 months,,"Order Date: 09/23/2017
Actual total amount is $4,900-
No charge for $0.13-
No remaining balance."
9/24/2017 11:54:01 AM,Rich Martucci,IL,60061,Foot Vibe Pro,USJ-871,,New,,,,,119.34,109.99,9.35,Michael Wang,CreditCard,0.00,,,YES,"2 years parts, 1 year labor (Small Items)",Delivered,Health&Wellness H Mart Illinois,,,,,,"2nd order of foot vibe pro 6228 Vernon Hills,Illinois.Customer picked up."
9/24/2017 12:33:39 PM,Randolph Hammock,CA,90064,Legacy 3D,DWA-9150USJ-9150BL,Black,New,,,,,4260.20,3963.00,297.20,Kaz Ohashi,CreditCard,4260.20,,,No,"3 years parts, 1 year labor (Free)",Scheduled,LA County Fair 9/1-24 (CA),,,,,,$4260 Tax Included
9/24/2017 12:34:19 PM,Michael Williamson,VA,20136,Legacy 3D,DWA-9150USJ-9150CH,Choco Brown,New,,,,,3816.00,3600.00,216.00,Jonathan Bhowani,CreditCard,3816.00,,9/25/2017 12:00:00 AM,No,"3 years parts, 1 year labor (Free)",Delivered,Capital Home Show Fall 17,,,,,,Serial #91160668D
9/24/2017 1:01:35 PM,John Luea,WA,98270,Legacy,DWA-9100DWA-9100BL,Black,New,,,,,3000.36,2807.00,193.36,Ruben Cuatrona,Cash,0.00,CreditCard,,No,"5 years parts, 3 years labor ($700)",Hold,Washington State Fair 9/1-24 (WA),,,,,,"invoice 246
total 3000
**Will pay deposit on Sep 24, remaining will be pay by credit card**"
9/24/2017 1:13:33 PM,Richard Ihlen,WA,98443,Legacy 3D,DWA-9150USJ-9150BL-DEMO,Demo Black,Demo,,,,,4000.27,3721.00,279.27,Larhonda Ingram,Synchrony,4000.00,,9/25/2017 12:00:00 AM,No,"5 years parts, 3 years labor ($700)",Delivered,Washington State Fair 9/1-24 (WA),6034610081535802,78864984,Las Vegas,48 months,,"invoice 245
Auth # 024398
** Hold $ 100 deposit which paid by credit card, and its refunded, Sqaure # ZfUM. The total amount will be paid all by Synchrony**"
9/24/2017 1:26:11 PM,Frank Plick Jr,WA,98092,Pegasus,DWA-9400Pegasus-BR,Choco Brown,New,,,,,6021.99,5569.00,452.99,Robert Shih,Synchrony,6022.00,,,No,"5 years parts, 3 years labor ($700)",Assigned,Washington State Fair 9/1-24 (WA),6034610081533534,78834267,Las Vegas,36 months,,"invoice 247
paid in full
Auth # 023509"
9/24/2017 1:33:21 PM,Trudie Easton,WA,98168,Pegasus,DWA-9400Pegasus-BL,Black,New,,,,,5500.15,5092.00,408.15,Alex Brackelsberg,CreditCard,5500.00,,,No,"5 years parts, 3 years labor ($700)",Assigned,Washington State Fair 9/1-24 (WA),,,,,,"invoice 248
paid in full"
9/24/2017 2:05:02 PM,Christine Simmons,WA,98321,Relax2Zero 3D,DWA-9060USJ-9060BL,Black,New,,,,,4000.27,3721.00,279.27,Alex Brackelsberg,CreditCard,4000.00,,,No,"5 years parts, 3 years labor ($700)",Cancelled,Washington State Fair 9/1-24 (WA),,,,,,"invoice 249
paid in full"
9/24/2017 2:12:45 PM,Robert Irwih-Miller,WA,98043,Relax2Zero 3D,DWA-9060USJ-9060BR-DEMO,Demo Choco Brown,Demo,,,,,4000.27,3721.00,279.27,Robert Shih,Synchrony,4000.00,,,No,"5 years parts, 3 years labor ($700)",Assigned,Washington State Fair 9/1-24 (WA),6034610281534599,78847391,Las Vegas,36 months,,"invoice 250
Auth # 023773
**paid in full 
NO RETURN /Cancel**"
9/24/2017 2:21:55 PM,Angela Vigo,WA,98466,Relax2Zero 3D,DWA-9060USJ-9060BR-DEMO,Demo Choco Brown,Demo,,,,,4379.89,4068.00,311.89,Robert Shih,Synchrony,4380.00,,9/25/2017 12:00:00 AM,No,"5 years parts, 3 years labor ($700)",Delivered,Washington State Fair 9/1-24 (WA),6034610081534235,78842049,Las Vegas,36 months,,"invoice 251
paid in full
Auth # 023334
** No cancel, Return**"
9/24/2017 2:35:09 PM,Julie Gibson,WA,98032,Legacy 3D,DWA-9150USJ-9150CH,Choco Brown,New,,,,,4200.48,3904.00,296.48,Laser Howell,Synchrony,4200.00,,,No,"5 years parts, 3 years labor ($700)",Assigned,Washington State Fair 9/1-24 (WA),6034610081533849,78837609,Las Vegas,36 months,,"invoice 252
paid in full
Auth #023232"
9/24/2017 2:46:49 PM,Michael L Dewitt,WA,98002,Relax2Zero 3D,DWA-9060USJ-9060BR-DEMO,Demo Choco Brown,Demo,,,,,4000.27,3721.00,279.27,Robert Shih,Synchrony,0.00,,,No,"5 years parts, 3 years labor ($700)",Hold,Washington State Fair 9/1-24 (WA),,78856842,Las Vegas,36 months,,"invoice 253

**NEED TO BE PROCESS,  
PAYMENT DECLINED**"
9/24/2017 2:53:07 PM,Carol Wallace,WA,98501,Legacy 3D,DWA-9150USJ-9150BL,Black,New,,,,,4000.27,3721.00,279.27,Phuoc Van,CreditCard,4000.00,,,No,"5 years parts, 3 years labor ($700)",Assigned,Washington State Fair 9/1-24 (WA),,,,,,"invoice 254
paid in full
** PLEASE Shipping 2-3 weeks after the show**"
9/24/2017 3:16:23 PM,KATHERINE HOLMES,WA,98826,Legacy 3D,DWA-9150USJ-9150BL,Black,New,,,,,4376.61,4065.00,311.61,Tom Nguyen,CreditCard,4376.00,,,No,"5 years parts, 3 years labor ($700)",Assigned,Washington State Fair 9/1-24 (WA),,,,,,"invoice 255
paid in full"
9/24/2017 3:47:56 PM,Max Uribe,CA,91764,Legacy 3D,DWA-9150USJ-9150CH,Choco Brown,New,,,,,4300.63,4000.00,300.63,David Wang,CreditCard,2000.00,,,No,"3 years parts, 3 years labor ($400)",Assigned,LA County Fair 9/1-24 (CA),,,,,,"Sold by Riho, offered $4300.00 (the balance $2300 will be paid by Layaway)"
9/24/2017 3:54:33 PM,Sok Ha,WA,98444,Legacy,DWA-9100DWA-9100CH,Choco Brown,New,,,,,3500.32,3264.00,236.32,Tom Nguyen,CreditCard,3500.00,,,No,"5 years parts, 3 years labor ($700)",Assigned,Washington State Fair 9/1-24 (WA),,,,,,"invoice 256
paid in full
**PLEASE DO SUNDAY TO TUESDAY DELIVERY
ONE FREE DUO THUMPER
PLEASE HELP THEM BRING THE OLD CHAIR TO THEIR CAR TO RETURN TO COSTCO**"
9/24/2017 4:14:32 PM,Sharon Pearson,WA,98003,Legacy 3D,DWA-9150USJ-9150BL,Black,New,,,,,4000.27,3721.00,279.27,Larhonda Ingram,CreditCard,200.00,COD,,No,"5 years parts, 3 years labor ($700)",Hold,Washington State Fair 9/1-24 (WA),,,,,,"invoice 257
total 4000
deposit 200
remaining 3800
**HOLD UP TO 8 MONTHS**
**NEED TO UPDATE ADDRESS WHEN DELIEVRY
SYNCHRONY WAS DECLIEND**"
9/24/2017 4:23:31 PM,Sam J Colaacurcio,WA,98019,Legacy 3D,DWA-9150USJ-9150BL,Black,New,,,,,4000.27,3721.00,279.27,Ruben Cuatrona,Synchrony,2500.00,CreditCard,,No,"5 years parts, 3 years labor ($700)",Assigned,Washington State Fair 9/1-24 (WA),6034610081535901,78865894,Las Vegas,24 months,,"invoice 258
total 4000
deposit 2500(Auth #024705)
remaining 1500 (COD)"
9/24/2017 4:29:49 PM,Jerrod Baeb Stevens,WA,98204,Legacy 3D,DWA-9150USJ-9150BL,Black,New,,,,,4300.03,3995.00,305.03,Kristy Tran,CreditCard,4300.00,,,No,"5 years parts, 3 years labor ($700)",Assigned,Washington State Fair 9/1-24 (WA),,,,,,"invoice 259
paid in full"
9/24/2017 4:35:07 PM,Troy Sandera,WA,98589,Legacy 3D,DWA-9150USJ-9150CH-DEMO,Demo Choco Brown,Demo,,,,,3800.07,3538.00,262.07,Jennifer Tran,Synchrony,3800.00,,,No,"5 years parts, 3 years labor ($700)",Assigned,Washington State Fair 9/1-24 (WA),6034610081536289,78869609,Las Vegas,24 months,,"invoice 260
paid in full
Auth #024206"
9/24/2017 4:46:42 PM,Barsbold Gaanjuur,WA,98006,Legacy 3D,DWA-9150USJ-9150BL,Black,New,,,,,3000.36,2807.00,193.36,Christoper Richard Williams,Cash,3000.00,CreditCard,,No,"5 years parts, 3 years labor ($700)",Assigned,Washington State Fair 9/1-24 (WA),,,,,,"invoice 261
paid in full
$3000 cash
$1000 credit card (Square #Too0)
Paid in full"
9/24/2017 4:58:45 PM,Hanna Ngoc Diep Ngo,WA,98056,Legacy 3D,DWA-9150USJ-9150BL,Black,New,,,,,3800.07,3538.00,262.07,Ruben Cuatrona,Synchrony,3800.00,,,No,"5 years parts, 3 years labor ($700)",Assigned,Washington State Fair 9/1-24 (WA),6034610081536388,78870886,Las Vegas,36 months,,"invoice 262
paid in full
Auth #024248"
9/24/2017 5:07:45 PM,Sambath Chau,WA,98445,Legacy 3D,DWA-9150USJ-9150BL,Black,New,,,,,4300.03,3995.00,305.03,Ruben Cuatrona,Synchrony,3500.00,CreditCard,,No,"5 years parts, 3 years labor ($700)",Assigned,Washington State Fair 9/1-24 (WA),6034610081536651,78873326,Las Vegas,36 months,,"invoice 263
total 4300
deposit 3500(Auth #024419)
remaining 800 (COD)"
9/24/2017 5:14:32 PM,Toel Wostanowicz,WA,98329,Legacy 3D,DWA-9150USJ-9150BL,Black,New,,,,,4100.92,3813.00,287.92,Jennifer Tran,CreditCard,4100.00,,,No,"5 years parts, 3 years labor ($700)",Assigned,Washington State Fair 9/1-24 (WA),,,,,,"invoice 264
paid in full
**DELIVERY ASAP**"
9/24/2017 5:23:58 PM,dOUGLAS WELS,WA,98940,Legacy 3D,DWA-9150USJ-9150CH-DEMO,Demo Choco Brown,Demo,,,,,4305.50,4000.00,305.50,Phuoc Van,Synchrony,3000.00,CreditCard,,No,"5 years parts, 3 years labor ($700)",Assigned,Washington State Fair 9/1-24 (WA),6034610081536909,78876145,Las Vegas,36 months,,"invoice 265
Total 4305.50
deposit 3000
remaining 1305.50
Auth # 024101"
9/24/2017 5:30:42 PM,Robert Gaurin,WA,98003,Legacy,DWA-9100DWA-9100CH,Choco Brown,New,,,,,4000.27,3721.00,279.27,Christoper Richard Williams,Synchrony,4000.00,,,No,"5 years parts, 3 years labor ($700)",Assigned,Washington State Fair 9/1-24 (WA),6034610081536842,78875655,Las Vegas,36 months,,"invoice 266
paid in full
Auth 024707"
9/24/2017 5:38:53 PM,Rita J Parke,WA,98003,Legacy 3D,DWA-9150USJ-9150CH,Choco Brown,New,,,,,4000.27,3721.00,279.27,Christoper Richard Williams,Synchrony,4000.00,,,No,"5 years parts, 3 years labor ($700)",Assigned,Washington State Fair 9/1-24 (WA),6034610081536875,78875891,Las Vegas,36 months,,"invoice 267
paid in full
Auth 024929"
9/24/2017 5:44:18 PM,Floyd L. Marshall,WA,98338,Legacy 3D,DWA-9150USJ-9150BL,Black,New,,,,,4500.23,4178.00,322.23,Kamille Gines,Synchrony,4500.00,,,No,"5 years parts, 3 years labor ($700)",Assigned,Washington State Fair 9/1-24 (WA),6034610081536883,78875932,Las Vegas,36 months,,"invoice 268
paid in full 
Auth # 024378"
9/24/2017 5:56:49 PM,Carmen I Becerra,WA,98499,Legacy 3D,DWA-9150USJ-9150BL-DEMO,Demo Black,Demo,,,,,4000.27,3721.00,279.27,Tom Nguyen,Synchrony,4000.00,,,No,"5 years parts, 3 years labor ($700)",Assigned,Washington State Fair 9/1-24 (WA),6034610081536982,78876653,Las Vegas,36 months,,"invoice 269
paid in full
Auth #024482"
9/24/2017 6:01:54 PM,Janst Knake,WA,98166,Legacy,DWA-9100DWA-9100BL,Black,New,,,,,4600.88,4270.00,330.88,Heather Jones,CreditCard,300.00,COD,,No,"5 years parts, 3 years labor ($700)",Assigned,Washington State Fair 9/1-24 (WA),,,,,,"invoice 270
total 4600
deposit 300
remaining 4300"
9/24/2017 7:36:43 PM,Shane Summer,WA,98258,Legacy 3D,DWA-9150USJ-9150CH,Choco Brown,New,,,,,3800.07,3538.00,262.07,Laser Howell,CreditCard,3800.00,,,No,"5 years parts, 3 years labor ($700)",Assigned,Washington State Fair 9/1-24 (WA),,,,,,"Invoice 271
Paid in full"
9/24/2017 8:06:03 PM,Michael Meechan,WA,98133,Legacy,DWA-9100DWA-9100CH-DEMO,Demo Choco Brown,Demo,,,,,5618.30,5200.00,418.30,Christoper Richard Williams,COD,0.00,,,No,"5 years parts, 3 years labor ($700)",Cancelled,Washington State Fair 9/1-24 (WA),,,,,,"Invoice 272
**Customer came back to CANCEL**"
9/24/2017 8:28:53 PM,Rachel Ford,WA,98584,Legacy 3D,DWA-9150USJ-9150BL,Black,New,,,,,3999.18,3720.00,279.18,Jennifer Tran,CreditCard,4000.00,,,No,"5 years parts, 3 years labor ($700)",Assigned,Washington State Fair 9/1-24 (WA),,,,,,"Invoice 273
Paid in full"
9/24/2017 8:33:56 PM,Ingrid Espinoza,WA,98371,Legacy 3D,DWA-9150USJ-9150CH-DEMO,Demo Choco Brown,Demo,,,,,3599.87,3355.00,244.87,Ruben Cuatrona,CreditCard,3600.00,,,No,"5 years parts, 3 years labor ($700)",Assigned,Washington State Fair 9/1-24 (WA),,,,,,"Invoice 274
Paid in full"
9/24/2017 8:38:19 PM,Jane Hanson,WA,98506,Legacy 3D,DWA-9150USJ-9150CH,Choco Brown,New,,,,,4086.70,3800.00,286.70,Jennifer Tran,CreditCard,4100.00,,,No,"5 years parts, 3 years labor ($700)",Assigned,Washington State Fair 9/1-24 (WA),,,,,,"Invoice 275
Paid in full"
9/24/2017 8:59:00 PM,Destiny Whipple,WA,98338,Legacy 3D,DWA-9150USJ-9150CH,Choco Brown,New,,,,,3999.18,3720.00,279.18,Larhonda Ingram,Synchrony,3000.00,CreditCard,,No,"5 years parts, 3 years labor ($700)",Assigned,Washington State Fair 9/1-24 (WA),6034610081537055,78877732,Las Vegas,36 months,,"Invoice 276
Total: $4000
COD: $1000
Auth #024487"
9/24/2017 9:03:30 PM,Kristopher Briggs,WA,98901,Legacy 3D,DWA-9150USJ-9150BL-DEMO,Demo Black,Demo,,,,,3999.18,3720.00,279.18,Kamille Gines,Synchrony,4000.00,,,No,"5 years parts, 3 years labor ($700)",Assigned,Washington State Fair 9/1-24 (WA),6034610081537105,78879371,Las Vegas,36 months,,"Invoice 281
Authorization # 024196
Paid In Full"
9/24/2017 9:09:04 PM,Kendra Watson,WA,98498,Legacy 3D,DWA-9150USJ-9150CH,Choco Brown,New,,,,,3500.32,3264.00,236.32,Ruben Cuatrona,CreditCard,3500.00,,,No,"5 years parts, 3 years labor ($700)",Assigned,Washington State Fair 9/1-24 (WA),,,,,,"Invoice 214
Paid in full"
9/24/2017 9:12:14 PM,Charlotte Bertsch,WA,98056,Legacy 3D,DWA-9150USJ-9150CH,Choco Brown,New,,,,,3999.18,3720.00,279.18,Phuoc Van,Synchrony,4000.00,,,No,"5 years parts, 3 years labor ($700)",Assigned,Washington State Fair 9/1-24 (WA),6034610081537121,78879505,Las Vegas,36 months,,"Invoice 282
Authorization # 024968
Paid In Full"
9/24/2017 9:13:08 PM,Reynaldo Anobya,CA,91763,Legacy,DWA-9100DWA-9100CH,Choco Brown,New,,,,,3900.77,3634.00,266.77,Kaz Ohashi,CreditCard,3900.77,,,No,"3 years parts, 1 year labor (Free)",Assigned,LA County Fair 9/1-24 (CA),,,,,,$3900 Tax included
9/24/2017 9:15:48 PM,Marc Grenon,WA,98092,Legacy 3D,DWA-9150USJ-9150BL,Black,New,,,,,3999.18,3720.00,279.18,Christoper Richard Williams,Synchrony,4000.00,,,No,"5 years parts, 3 years labor ($700)",Assigned,Washington State Fair 9/1-24 (WA),6034610081536099,78867832,Las Vegas,36 months,,"Invoice 277
Auth #024435
Paid in full"
9/24/2017 9:20:37 PM,Rhonda Hart,CA,93534,Legacy,DWA-9100DWA-9100BL,Black,New,,,,,3499.82,3267.00,232.82,Kaz Ohashi,CreditCard,200.00,Synchrony,,No,"3 years parts, 1 year labor (Free)",Cancelled,LA County Fair 9/1-24 (CA),,,,,,"Layway 12 month.
Please confirm a color of chair again."
9/24/2017 9:20:41 PM,Robin Mathews,WA,98006,Relax2Zero 3D,DWA-9060USJ-9060BL,Black,New,,,,,3999.18,3720.00,279.18,Heather Jones,CreditCard,4000.00,,,No,"5 years parts, 3 years labor ($700)",Assigned,Washington State Fair 9/1-24 (WA),,,,,,"Invoice #278
Paid In full"
9/24/2017 9:31:09 PM,David Faker,WA,98374,Legacy 3D,DWA-9150USJ-9150BL-DEMO,Demo Black,Demo,,,,,3500.32,3264.00,236.32,Ruben Cuatrona,CreditCard,1500.00,COD,,No,"5 years parts, 3 years labor ($700)",Assigned,Washington State Fair 9/1-24 (WA),,,,,,"Invoice 280
Total $3500
CC $1500
Remaining $2000 on Delivery
1 Extra Padding"
9/24/2017 9:32:47 PM,Park Hyonki,WA,98003,Legacy 3D,DWA-9150USJ-9150CH,Choco Brown,New,,,,,3999.18,3720.00,279.18,Tom Nguyen,CreditCard,500.00,COD,,No,"5 years parts, 3 years labor ($700)",Hold,Washington State Fair 9/1-24 (WA),,,,,,"Invoice 283
Total: $4000
COD: $3500
**PLEASE Hold until November 15th**
Please send with 1 free Daiwa Blanket"
9/24/2017 9:46:30 PM,Calyn Holdaway,WA,98506,Legacy,DWA-9100DWA-9100BL,Black,New,,,,,3200.56,2990.00,210.56,Tom Nguyen,COD,0.00,,,No,"5 years parts, 3 years labor ($700)",Hold,Washington State Fair 9/1-24 (WA),,,,,,"Invoice 279
Remaining $3200
HOLD for customer Driver License for Synchrony's application"
9/24/2017 9:47:32 PM,Eunice Hahm,WA,98003,Legacy 3D,DWA-9150USJ-9150CH,Choco Brown,New,,,,,4196.10,3900.00,296.10,Tom Nguyen,Synchrony,0.00,,,No,"5 years parts, 3 years labor ($700)",Assigned,Washington State Fair 9/1-24 (WA),6034610081534805,78849741,Las Vegas,36 months,,"Invoice 284
Please send a Daiwa Blanket
This customer will use Hyonki, Park Synchrony (was approved for $8470). She will use $4200 and another customer will use $4200 (Chong S Kim). We haven't processed the sale on Synchrony yet.  Please process $8400 when we deliver the chairs to the 2 customers."
9/24/2017 9:54:14 PM,James Stevens,CT,06479,Legacy 3D,DWA-9150USJ-9150BL-DEMO,Demo Black,Demo,,,,,3500.81,3339.00,161.81,Rolly San Jose,CreditCard,2000.00,Synchrony,,No,"3 years parts, 1 year labor (Free)",Assigned,The Big E State Fair 9/15-10/1,,,,,,"Order Date: 09/24/2017
Synchrony account number: 6034610081535596
Synchrony application Key: 78863146
Las Vegas
24months
First payment is credit for $2,000-
Second payment is Synchrony for $1,500-
No charge for $0.81-
No remaining balance."
9/24/2017 10:07:21 PM,Jill Nguyen,WA,98409,Relax2Zero 3D,DWA-9060USJ-9060BL,Black,New,,,,,3999.18,3720.00,279.18,Rodrigo Malabunga,CreditCard,4000.00,,,No,"3 years parts, 2 years labor ($200)",New,Washington State Fair 9/1-24 (WA),,,,,,"Invoice 285
Paid in full"
9/24/2017 10:13:10 PM,Jeff Wherrett,WA,98407,Relax2Zero 3D,DWA-9060USJ-9060BL,Black,New,,,,,4196.10,3900.00,296.10,Rodrigo Malabunga,Synchrony,4200.00,,,No,"5 years parts, 3 years labor ($700)",Assigned,Washington State Fair 9/1-24 (WA),6034610081537097,78878734,Las Vegas,36 months,,"Invoice 286
Paid in full
Auth #024202"
9/24/2017 10:18:02 PM,Kenneth & Jean Edstrom,WA,98373,Legacy 3D,DWA-9150USJ-9150BL,Black,New,,,,,3999.18,3720.00,279.18,Robert Shih,CreditCard,4000.00,,,No,"5 years parts, 3 years labor ($700)",New,Washington State Fair 9/1-24 (WA),,,,,,"Invoice 287
Paid in full"
9/25/2017 4:35:35 AM,Erica Pallardy,MO,63376,Legacy,DWA-9100DWA-9100BL,Black,New,,,,,3599.88,3390.00,209.88,Michael Cuatrona,Synchrony,0.00,,,No,"3 years parts, 3 years labor ($400)",Called,St. Charles Home & Garden Show 9/23-9/24 (TX),,,,36 months,,
9/25/2017 7:49:21 AM,Steven Antignani,CT,06611,Legacy 3D,DWA-9150USJ-9150CH,Choco Brown,New,,,,,4000.19,3809.00,191.19,Winston Melgar,Synchrony,4000.00,,,No,"3 years parts, 1 year labor (Free)",Scheduled,The Big E State Fair 9/15-10/1,6034610081537147,78883142,Las Vegas,36 months,,"Order Date: 09/25/2017
Actual total amount is $4,000-
No charge for $0.19-"
9/25/2017 8:07:22 AM,Anthony Cunagin,MA,01201,Legacy 3D,DWA-9150USJ-9150BL-DEMO,Demo Black,Demo,,,,,3900.31,3715.00,185.31,Ruben Cuatrona,CreditCard,100.00,,,No,"3 years parts, 1 year labor (Free)",Cancelled,The Big E State Fair 9/15-10/1,,,,,,"Order Date: 09/17/2017
Actual total amount is $3,900-
No charge for $0.81-
Remaining balance is $3,800-
Deliver before October 30, 2017"
9/25/2017 9:30:05 AM,James Prichard,CA,91739,Relax2Zero 3D,DWA-9060USJ-9060BL,Black,New,,,,,4500.55,4183.00,317.55,Joseph Chan,Synchrony,4500.00,,,No,"3 years parts, 3 years labor ($400)",Scheduled,LA County Fair 9/1-24 (CA),6034610081536628,78873121,San Diego,36 months,,Offer price is $4500 out the door including tax
9/25/2017 9:38:07 AM,Barry Illsley,CA,92860,Relax2Zero 3D,DWA-9060USJ-9060BL,Black,New,,,,,3600.33,3359.00,241.33,Joseph Chan,Synchrony,3600.00,,,No,"3 years parts, 3 years labor ($400)",Assigned,LA County Fair 9/1-24 (CA),6034610081535976,78866222,San Diego,36 months,,Offer price is $3600 out the door including taxes
9/25/2017 9:41:59 AM,Roberto Ibarra,CA,91739,Relax2Zero 3D,DWA-9060USJ-9060BR,Choco Brown,New,,,,,4519.13,4200.00,319.13,Kohei Uno,Synchrony,4519.13,,,No,"3 years parts, 3 years labor ($400)",Assigned,LA County Fair 9/1-24 (CA),6034610081536701,78873921,San Diego,36 months,,Synchrony Auth# 024448
9/25/2017 9:47:49 AM,Chris Tam,CA,91709,Relax2Zero 3D,DWA-9060USJ-9060BL,Black,New,,,,,4000.19,3725.00,275.19,Kohei Uno,CreditCard,4000.00,,,No,"3 years parts, 3 years labor ($400)",Assigned,LA County Fair 9/1-24 (CA),,,,,,Offer price is $4000 out door including tax
9/25/2017 9:52:54 AM,Tommy Yu,CA,92880,Relax2Zero 3D,DWA-9060USJ-9060BL,Black,New,,,,,4140.03,3853.00,287.03,Joseph Chan,Synchrony,4140.00,,,No,"3 years parts, 3 years labor ($400)",Assigned,LA County Fair 9/1-24 (CA),6034610081537113,78879383,San Diego,36 months,,"Offer price is $4140 out the door including tax

Synchrony Auth# 024001"
9/25/2017 9:58:15 AM,Martha Moreno,CA,92507,Relax2Zero 3D,DWA-9060USJ-9060BR-DEMO,Demo Choco Brown,Demo,,,,,4000.19,3725.00,275.19,Joseph Chan,COD,3000.00,CreditCard,,No,"3 years parts, 3 years labor ($400)",Assigned,LA County Fair 9/1-24 (CA),,,,,,"Offer price is $4000 out the door including tax.

$3000 cash received. COD $1000 upon delivery."
9/25/2017 10:01:19 AM,Henry Chen,CA,91780,Legacy,DWA-9100DWA-9100CH-DEMO,Demo Choco Brown,Demo,,,,,3535.88,3300.00,235.88,Kohei Uno,CreditCard,3535.88,,,No,"3 years parts, 1 year labor (Free)",Assigned,LA County Fair 9/1-24 (CA),,,,,,
9/25/2017 1:09:16 PM,Guadalupe Romo,CA,92313,Legacy,DWA-9100DWA-9100CH-DEMO,Demo Choco Brown,Demo,,,,,3000.55,2810.00,190.55,David Wang,Synchrony,3000.00,,,No,"3 years parts, 3 years labor ($400)",Assigned,LA County Fair 9/1-24 (CA),6034610081535737,78864625,San Diego,12 months,,"Sold with Riho
Legacy Choco Demo was offered $3000.00, paid by Synchrony 12months Auth#025015"
9/25/2017 2:25:28 PM,Anthony Cunagin,MA,01201,Legacy 3D,DWA-9150USJ-9150BL-DEMO,Demo Black,Demo,,,,,3900.31,3715.00,185.31,Ruben Cuatrona,CreditCard,100.00,COD,,No,"3 years parts, 1 year labor (Free)",Scheduled,The Big E State Fair 9/15-10/1,,,,,,"Ruben offered $3900.00. Deliver before Oct. 30, and please collect the balance $3800.00."
9/25/2017 4:32:27 PM,mancilla TM,CA,91791,Legacy,DWA-9100DWA-9100BL,Black,New,,,,,3799.17,3541.00,258.17,Kaz Ohashi,CreditCard,3800.00,,,No,"3 years parts, 3 years labor ($400)",Assigned,LA County Fair 9/1-24 (CA),,,,,,paid off
9/25/2017 4:32:27 PM,mancilla TM,CA,91791,Chair Pad for Legacy,,,New,,,,,3799.17,3541.00,258.17,Kaz Ohashi,CreditCard,3800.00,,,No,no warranty,Assigned,LA County Fair 9/1-24 (CA),,,,,,paid off
9/25/2017 4:32:28 PM,Paula Randall,MA,01247,Relax2Zero 3D,DWA-9060USJ-9060BR-DEMO,Demo Choco Brown,Demo,,,,,3700.56,3527.00,173.56,Rolly San Jose,Synchrony,3700.00,,,No,"3 years parts, 1 year labor (Free)",Scheduled,The Big E State Fair 9/15-10/1,6034610081537477,78894865,Las Vegas,36 months,,"Order Date: 09/25/2017
Actual total amount is $3,700-
No charge for $0.56-"
9/25/2017 4:42:30 PM,LAP TON,LA,71111,Relax2Zero 2.0 for Sam's,USJ-9050USJ-9050BR-DEMO,Demo Brown,Demo,,,,,3443.90,3199.00,244.90,KHOA H,CreditCard,0.00,,,No,"3 years parts, 1 year labor (Free)",Scheduled,"Sam's Club #4109 Bossier City, LA  9/14-9/24 (TX)",,,,,,"Offer 1 blanket & 1 usb.
Chair opens from new."
9/25/2017 4:42:30 PM,LAP TON,LA,71111,Daiwa Blanket,,,New,,,,,3443.90,3199.00,244.90,KHOA H,CreditCard,0.00,,,No,no warranty,Scheduled,"Sam's Club #4109 Bossier City, LA  9/14-9/24 (TX)",,,,,,"Offer 1 blanket & 1 usb.
Chair opens from new."
9/25/2017 6:10:22 PM,Juan Macius,CA,91767,Pegasus,DWA-9400Pegasus-BR,Choco Brown,New,,,,,4350.88,4046.00,304.88,Kaz Ohashi,CreditCard,4350.00,,,No,"3 years parts, 3 years labor ($400)",Assigned,LA County Fair 9/1-24 (CA),,,,,,Paid off
9/25/2017 7:22:35 PM,Jesse Simon,CA,92880,Tourmaline Pad for Legacy 3D,,,New,,,,,3600.33,3359.00,241.33,May Kam,CreditCard,3600.00,,,No,no warranty,Assigned,LA County Fair 9/1-24 (CA),,,,,,Paid off
9/25/2017 7:22:35 PM,Jesse Simon,CA,92880,Legacy 3D,DWA-9150USJ-9150CH,Choco Brown,New,,,,,3600.33,3359.00,241.33,May Kam,CreditCard,3600.00,,,No,"3 years parts, 3 years labor ($400)",Assigned,LA County Fair 9/1-24 (CA),,,,,,Paid off
9/26/2017 5:28:35 AM,Cynthia Johann,CA,91910,Legacy 3D,DWA-9150USJ-9150BL,Black,New,,,,,3500.92,3268.00,232.92,Mikito Nakanishi,Check,3500.00,,,No,"3 years parts, 1 year labor (Free)",Hold,LA County Fair 9/1-24 (CA),,,,,,"Check no 1703, will ask to deposit"
9/26/2017 7:20:15 AM,David Wallace,CA,91307,Pegasus,DWA-9400Pegasus-BR,Choco Brown,New,,,,,4000.19,3725.00,275.19,May Kam,CreditCard,4000.00,,,No,"3 years parts, 3 years labor ($400)",New,LA County Fair 9/1-24 (CA),,,,,,"Paid off, special discount for one family bought two chairs"
9/26/2017 7:20:15 AM,David Wallace,CA,91307,Tourmaline Pad for Pegasus,,,New,,,,,4000.19,3725.00,275.19,May Kam,CreditCard,4000.00,,,No,no warranty,New,LA County Fair 9/1-24 (CA),,,,,,"Paid off, special discount for one family bought two chairs"
9/26/2017 7:51:07 AM,Vicki Desmet,CA,91741,Legacy,DWA-9100DWA-9100CH,Choco Brown,New,,,,,3900.77,3634.00,266.77,May Kam,Synchrony,3900.00,,,No,"3 years parts, 3 years labor ($400)",Assigned,LA County Fair 9/1-24 (CA),6034610081538574,78921367,,36 months,,
9/26/2017 7:51:07 AM,Vicki Desmet,CA,91741,Daiwa Blanket,,,New,,,,,3900.77,3634.00,266.77,May Kam,Synchrony,3900.00,,,No,no warranty,Assigned,LA County Fair 9/1-24 (CA),6034610081538574,78921367,,36 months,,
9/26/2017 8:12:22 AM,Scott Safner,CT,06071,Relax2Zero 3D,DWA-9060USJ-9060BL-DEMO,Demo Black,Demo,,,,,3700.56,3527.00,173.56,Rolly San Jose,Synchrony,3700.00,,,No,"3 years parts, 1 year labor (Free)",Scheduled,The Big E State Fair 9/15-10/1,6034610081537592,78897442,Las Vegas,36 months,,"Order Date: 09/25/2017
White Glove Delivery after show.
Actual amount is $3,700-
No charge for $0.56-
No remaining balance."
9/26/2017 8:18:00 AM,Vinh Dinh,CA,91789,Legacy 3D,DWA-9150USJ-9150BL,Black,New,,,,,3500.92,3268.00,232.92,Kaz Ohashi,Cash,200.00,CreditCard,,No,"3 years parts, 1 year labor (Free)",Assigned,LA County Fair 9/1-24 (CA),,,,,,
9/26/2017 9:21:47 AM,Jerry Clark,NY,12850,Pegasus,DWA-9400Pegasus-BR,Choco Brown,New,,,,,5200.81,4939.00,261.81,Ilene Maynard,CreditCard,100.00,,,No,"3 years parts, 1 year labor (Free)",Assigned,The Big E State Fair 9/15-10/1,,,,,,"Order Date: 09/25/2017
$100.00- deposit.
$5,100.00 to be paid 9/26 via debit card.

Actual total amount is $5,200-
No charge for $0.81-"
9/26/2017 9:48:02 AM,Sarah Bewsoe,CT,06082,Relax2Zero 3D,DWA-9060USJ-9060BL,Black,New,,,,,4201.00,3998.00,203.00,Rolly San Jose,Synchrony,4200.00,,,No,"3 years parts, 1 year labor (Free)",Scheduled,The Big E State Fair 9/15-10/1,6034610081537824,78902736,Las Vegas,36 months,,"Order Date: 09/25/2016
Actual total amount is $4,200-
No charge for $1.00-
No remaining balance."
9/26/2017 9:55:03 AM,Brian McDonald,MA,02726,Legacy 3D,DWA-9150USJ-9150BL,Black,New,,,,,4201.00,3998.00,203.00,Ilene Maynard,Synchrony,4200.00,,,No,"3 years parts, 1 year labor (Free)",Cancelled,The Big E State Fair 9/15-10/1,6034610081537964,78906221,Las Vegas,36 months,,"Order Date: 09/25/2017
Actual total amount is $4,200-
No charge for $1.00-"
9/26/2017 10:15:26 AM,Pat Pastoreck,MA,01036,Legacy 3D,DWA-9150USJ-9150BL,Black,New,,,,,4201.00,3998.00,203.00,Abigail Stirling,CreditCard,4200.00,,,No,"3 years parts, 1 year labor (Free)",Called,The Big E State Fair 9/15-10/1,,,,,,"Order Date: 09/25/2017
Actual total amount is $4,200-
No charge for $1.00-
No remaining balance.
Sales Rep: Abigail & Ilene"
9/26/2017 10:37:33 AM,Sonda Thomas,CT,06451,Legacy 3D,DWA-9150USJ-9150BL,Black,New,,,,,4201.00,3998.00,203.00,Ilene Maynard,Synchrony,4200.00,,,No,"3 years parts, 1 year labor (Free)",Scheduled,The Big E State Fair 9/15-10/1,6034610081536552,78872362,Las Vegas,36 months,,"Order Date: 09/25/2017
Actual total amount is $4,200-
No charge for $1.00-"
9/26/2017 10:43:17 AM,Lei Zhao,CT,06067,Legacy 3D,DWA-9150USJ-9150BL,Black,New,,,,,3300.00,3150.00,150.00,Winston Melgar,CreditCard,500.00,COD,,No,"3 years parts, 1 year labor (Free)",Called,The Big E State Fair 9/15-10/1,,,,,,Order Date: 09/25/2017
9/26/2017 11:02:13 AM,Adriana Buller,IL,60061,Foot Vibe Pro,USJ-871,,New,,,,,119.34,109.99,9.35,Michael Wang,CreditCard,0.00,,,YES,"2 years parts, 1 year labor (Small Items)",Cancelled,Health&Wellness H Mart Illinois,,,,,,"Customer paid and picked up 1 foot vibe pro at Sam's Club 6228 Vernon Hills, IL."
9/26/2017 11:37:54 AM,Troy Shoup,CA,91741,Legacy 3D,DWA-9150USJ-9150BL,Black,New,,,,,3750.01,3496.00,254.01,May Kam,Synchrony,3750.00,,,No,"3 years parts, 3 years labor ($400)",Scheduled,LA County Fair 9/1-24 (CA),6034610081539184,78942108,San Diego,24 months,,"Total $3750, could u pls arrange to deliver this week, thanks"
9/26/2017 11:37:54 AM,Troy Shoup,CA,91741,Tourmaline Pad for Legacy 3D,,,New,,,,,3750.01,3496.00,254.01,May Kam,Synchrony,3750.00,,,No,no warranty,Scheduled,LA County Fair 9/1-24 (CA),6034610081539184,78942108,San Diego,24 months,,"Total $3750, could u pls arrange to deliver this week, thanks"
9/26/2017 11:55:31 AM,Linda Telis,CA,92301,Pegasus,DWA-9400Pegasus-BL,Black,New,,,,,4500.55,4183.00,317.55,David Wang,Synchrony,4500.00,,,No,"3 years parts, 3 years labor ($400)",Assigned,LA County Fair 9/1-24 (CA),6034610081537063,78877984,San Diego,36 months,,
9/26/2017 2:26:47 PM,Joy Lua,MN,55347,Relax2Zero 3D,DWA-9060USJ-9060BR,Choco Brown,New,,,,,4120.50,3900.00,220.50,Noni Ignacio,CreditCard,0.00,,,No,"3 years parts, 1 year labor (Free)",Scheduled,National Safety Council 9/25-27,,,,,,
9/26/2017 2:39:15 PM,Kay Dee & Russel Lange,WI,54435,Legacy 3D,DWA-9150USJ-9150CH,Choco Brown,New,,,,,4441.50,4200.00,241.50,Noni Ignacio,CreditCard,0.00,,,No,"3 years parts, 1 year labor (Free)",Scheduled,National Safety Council 9/25-27,,,,,,"Customer not available to accept order 10/9-13, 2017 vacation"
9/26/2017 2:41:53 PM,Cecilia Hurst,CA,92530,Legacy 3D,DWA-9150USJ-9150CH,Choco Brown,New,,,,,3500.92,3268.00,232.92,May Kam,Synchrony,3500.00,CreditCard,,No,"3 years parts, 3 years labor ($400)",Assigned,LA County Fair 9/1-24 (CA),6034610081538715,78925635,San Diego,36 months,,"COD $233, total $3733"
9/26/2017 2:41:53 PM,Cecilia Hurst,CA,92530,Tourmaline Pad for Legacy 3D,,,New,,,,,3500.92,3268.00,232.92,May Kam,Synchrony,3500.00,CreditCard,,No,no warranty,Assigned,LA County Fair 9/1-24 (CA),6034610081538715,78925635,San Diego,36 months,,"COD $233, total $3733"
9/26/2017 5:40:11 PM,Test Test,CA,90249,Legacy 3D,DWA-9150USJ-9150BL,Black,New,,,,,4846.88,4500.00,346.88,Ruben Cuatrona,CreditCard,500.00,,,No,"3 years parts, 1 year labor (Free)",Cancelled,LA County Fair 9/1-24 (CA),,,,,,
9/26/2017 5:40:11 PM,Test Test,CA,90249,Tourmaline Pad for Legacy 3D,,,New,,,,,4846.88,4500.00,346.88,Ruben Cuatrona,CreditCard,500.00,,,No,No Warranty,Cancelled,LA County Fair 9/1-24 (CA),,,,,,
9/26/2017 6:02:46 PM,Beatriz Vega,CA,90303,Legacy,DWA-9100DWA-9100CH-DEMO,Demo Choco Brown,Demo,,,,,3400.41,3176.00,224.41,May Kam,Synchrony,3400.00,,,No,"3 years parts, 3 years labor ($400)",Scheduled,LA County Fair 9/1-24 (CA),6034610081539838,78961465,San Diego,36 months,,
9/26/2017 6:38:04 PM,Joe Acosta,CA,90650,Legacy 3D,DWA-9150USJ-9150BL,Black,New,,,,,3949.93,3679.00,270.93,May Kam,Synchrony,3950.00,,,No,"3 years parts, 3 years labor ($400)",Assigned,LA County Fair 9/1-24 (CA),6034623333349914,,San Diego,36 months,,Synchrony Approved aut # 026750
9/26/2017 6:38:04 PM,Joe Acosta,CA,90650,Daiwa Blanket,,,New,,,,,3949.93,3679.00,270.93,May Kam,Synchrony,3950.00,,,No,no warranty,Assigned,LA County Fair 9/1-24 (CA),6034623333349914,,San Diego,36 months,,Synchrony Approved aut # 026750
9/26/2017 7:21:49 PM,Brian McDonald,RI,02837,Legacy 3D,DWA-9150USJ-9150BL,Black,New,,,,,4201.00,3998.00,203.00,Ilene Maynard,Synchrony,4200.00,,,No,"3 years parts, 1 year labor (Free)",Scheduled,The Big E State Fair 9/15-10/1,6034610081537964,78906221,Las Vegas,36 months,,"Order Date: 09/25/2017 
Actual total amount is $4,200- 
No charge for $1.00-"
9/27/2017 7:57:47 AM,James Winters,NY,12544,Legacy 3D,DWA-9150USJ-9150CH,Choco Brown,New,,,,,3900.31,3715.00,185.31,Gary Cyrlin,Synchrony,3900.00,,,No,"3 years parts, 1 year labor (Free)",Scheduled,The Big E State Fair 9/15-10/1,6034610081634904,78853386,Las Vegas,36 months,,"Order Date: 09/24/2017
Actual total amount is $3,900-
No charge for $0.31-"
9/27/2017 8:05:59 AM,Carissa Colby,AA,01028,Legacy 3D,DWA-9150USJ-9150CH,Choco Brown,New,,,,,4000.19,3809.00,191.19,Winston Melgar,Cash,200.00,CreditCard,,No,"3 years parts, 1 year labor (Free)",Assigned,The Big E State Fair 9/15-10/1,,,,,,"Order Date: 09/24/2017
Balance on 09/25/2017
Second payment: credit card.
Paid in full."
9/27/2017 8:14:10 AM,Jim Roberts,CT,06403,Legacy 3D,DWA-9150USJ-9150BL,Black,New,,,,,4201.00,3998.00,203.00,Rolly San Jose,CreditCard,4200.00,,,No,"3 years parts, 1 year labor (Free)",Called,The Big E State Fair 9/15-10/1,,,,,,"Order Date: 09/25/2017
Actual total amount is $4,200-
No charge for $1.00-"
9/27/2017 8:22:27 AM,Mary Fomenko,CT,06010,Legacy 3D,DWA-9150USJ-9150CH-DEMO,Demo Choco Brown,Demo,,,,,3700.69,3483.00,217.69,Winston Melgar,Synchrony,3700.00,,,YES,"3 years parts, 1 year labor (Free)",Scheduled,The Big E State Fair 9/15-10/1,6034610081538913,78934084,Las Vegas,36 months,,"Order Date: 09/26/2017
Approval #026413
Actual total amount is $3,700-
Sales tax, included.
Pick up on Oct 1st, 4PM."
9/27/2017 8:29:12 AM,John Kubica,MA,01201,Legacy 3D,DWA-9150USJ-9150BL,Black,New,,,,,4201.00,3998.00,203.00,Ilene Maynard,Synchrony,4200.00,,,No,"3 years parts, 1 year labor (Free)",Called,The Big E State Fair 9/15-10/1,6034610081539226,78942751,Las Vegas,36 months,,"Order Date: 09/26/2017
Approval#026331
Actual total amount is $4,200-
Sales tax, included.
No remaining balance."
9/27/2017 8:41:05 AM,Dan&Carol Greeley,MA,01007,Legacy 3D,DWA-9150USJ-9150CH-DEMO,Demo Choco Brown,Demo,,,,,3500.81,3339.00,161.81,Amando Loreno,CreditCard,3500.00,,,No,"3 years parts, 1 year labor (Free)",Called,The Big E State Fair 9/15-10/1,,,,,,"Order Date: 09/26/17
Actual total amount is $3,500-
Sales tax: Included.
Delivery on Oct 2nd."
9/27/2017 10:38:39 AM,Diane Restivo,CT,06492,Legacy 3D,DWA-9150USJ-9150CH,Choco Brown,New,,,,,4201.00,3998.00,203.00,Gary Cyrlin,Synchrony,4200.00,,,No,"3 years parts, 1 year labor (Free)",Called,The Big E State Fair 9/15-10/1,6034610081539754,78959193,Las Vegas,36 months,,"Order Date: 09/27/2017
Actual amount is $4,200-
No remaining balance."
9/27/2017 10:42:14 AM,Qi Ding,IL,60015,Legacy for Sam's,DWA-9100DWA-9100CH,Choco,New,,,,,3904.92,3599.00,305.92,Michael Wang,CreditCard,0.00,,,No,"3 years parts, 1 year labor (Free)",Scheduled,Health&Wellness H Mart Illinois,,,,,,Give a total of 2 free chairs pads.Give 1 Daiwa blanket for free.If possible open new legacy as a demo and deliver to customer.
9/27/2017 10:47:00 AM,Willliam Lannone,CT,06492,Relax2Zero 3D,DWA-9060USJ-9060BR,Choco Brown,New,,,,,4000.19,3809.00,191.19,Winston Melgar,Synchrony,4000.00,,,No,"3 years parts, 1 year labor (Free)",Called,The Big E State Fair 9/15-10/1,6034610081539507,78952225,Las Vegas,36 months,,"Order Date: 09/26/2017
Actual total amount is $4,000-
No charge for $0.19-
No remaining balance.
Police officer discount approved."
9/27/2017 10:53:57 AM,Anatolily Okhrimenko,MA,01089,Relax2Zero 3D,DWA-9060USJ-9060BR-DEMO,Demo Choco Brown,Demo,,,,,3300.13,3106.00,194.13,Amando Loreno,CreditCard,3300.00,,,YES,"3 years parts, 1 year labor (Free)",Called,The Big E State Fair 9/15-10/1,,,,,,"Order Date: 09/26/2017
Actual total amount is $3,300-
No remaining balance.
Pick up: 10/01/2017, 7PM"
9/27/2017 10:58:03 AM,Karen Mancuso,FL,33772,Relax2Zero 3D,DWA-9060USJ-9060BR,Choco Brown,New,,,,,4201.00,3998.00,203.00,Ilene Maynard,CreditCard,4200.00,,,No,"3 years parts, 1 year labor (Free)",Assigned,The Big E State Fair 9/15-10/1,,,,,,"Order Date: 09/26/2017
Actual total amount is $4,200-
No remaining balance.
Sales Tax Included."
9/27/2017 11:03:45 AM,Yvette Losaw,MA,01225,Legacy 3D,DWA-9150USJ-9150CH,Choco Brown,New,,,,,4500.63,4280.00,220.63,Amando Loreno,Synchrony,4500.00,,,No,"3 years parts, 1 year labor (Free)",Called,The Big E State Fair 9/15-10/1,6034610081539390,78949573,Las Vegas,36 months,,
9/27/2017 11:08:55 AM,Jaclyn Mancuso,CT,06716,Relax2Zero 3D,DWA-9060USJ-9060BR,Choco Brown,New,,,,,4201.00,3998.00,203.00,Ilene Maynard,Synchrony,4200.00,,,No,"3 years parts, 1 year labor (Free)",Called,The Big E State Fair 9/15-10/1,6034610081539978,78963616,Las Vegas,36 months,,
9/27/2017 4:35:10 PM,Adriana Buller,IL,60061,Foot Vibe Pro,USJ-871,,New,,,,,117.96,109.99,7.97,Michael Wang,CreditCard,117.96,,,YES,"2 years parts, 1 year labor (Small Items)",Delivered,Sam's Club #6228 9/15-9/17 (IL),,,,,,Customer paid and picked up 1 foot vibe pro at Sam's Club #6228 Vernon Hills Illinois (Entered by Riho)
9/27/2017 5:17:02 PM,Pamela Jacobs,CA,90303,Legacy 3D,DWA-9150USJ-9150CH,Choco Brown,New,,,,,3634.20,3390.00,244.20,May Kam,Synchrony,3500.00,CreditCard,,No,"3 years parts, 3 years labor ($400)",New,LA County Fair 9/1-24 (CA),6034610081538616,78921673,San Diego,36 months,,"COD $134; Synchrony Two accounts , approval aut #027561 $2000; #027121 $1500;"
9/27/2017 5:35:15 PM,Jon Leigh,CA,91304,Pegasus,DWA-9400Pegasus-BR,Choco Brown,New,,,,,4200.12,3908.00,292.12,May Kam,Synchrony,3000.00,CreditCard,,No,"3 years parts, 3 years labor ($400)",New,LA County Fair 9/1-24 (CA),6034610081540894,78982513,San Diego,24 months,,Approval aut #027354 $3000; Balance $1200 pls process by Jon leigh A/C 6034610081540894;
9/27/2017 5:35:15 PM,Jon Leigh,CA,91304,Tourmaline Pad for Pegasus,,,New,,,,,4200.12,3908.00,292.12,May Kam,Synchrony,3000.00,CreditCard,,No,no warranty,New,LA County Fair 9/1-24 (CA),6034610081540894,78982513,San Diego,24 months,,Approval aut #027354 $3000; Balance $1200 pls process by Jon leigh A/C 6034610081540894;
9/27/2017 6:37:41 PM,Ana Tribble,CA,91324,Legacy,DWA-9100DWA-9100SI,Sienna Brown,New,,,,,3900.77,3634.00,266.77,Kaz Ohashi,CreditCard,100.00,COD,,No,"3 years parts, 3 years labor ($400)",New,LA County Fair 9/1-24 (CA),,,,,,"Pls call first, may need to hold"
9/27/2017 6:45:40 PM,Mia D Carr,LA,71111,Foot Vibe Pro,USJ-871,,New,,,,,120.16,109.99,10.17,KHOA H,CreditCard,0.00,,,YES,"2 years parts, 1 year labor (Small Items)",New,Referral (Main Office),,,,,,
9/28/2017 6:41:06 AM,Adam Duszak,GA,31324,Legacy 3D,DWA-9150USJ-9150CH,Choco Brown,New,,,,,4227.50,4000.00,227.50,Noni Ignacio,Synchrony,0.00,,,No,"3 years parts, 1 year labor (Free)",Assigned,National Safety Council 9/25-27,6034610081541586,79011898,Las Vegas,36 months,,2-3 weeks delivery
9/28/2017 8:07:43 AM,Mario Vazquez,IL,60402,Legacy 3D,DWA-9150USJ-9150BL,Black,New,,,,,4800.20,4432.00,368.20,Michael Cuatrona,CreditCard,500.00,,,No,"3 years parts, 1 year labor (Free)",Assigned,NRPA New Orleans 9/26-9/27 (TX),,,,,,$4300 actual price (agreed on paper order before daiwa space) Michael cuatrona and Chris tavira
9/28/2017 8:18:34 AM,Harnish Patel,MA,01085,Relax2Zero 3D,DWA-9060USJ-9060BL,Black,New,,,,,3500.81,3339.00,161.81,Rolly San Jose,CreditCard,3500.00,,,No,"3 years parts, 1 year labor (Free)",Cancelled,The Big E State Fair 9/15-10/1,,,,,,"Order Date: 09/25/2017
Actual total amount is $3,500-
No remaining balance."
9/28/2017 9:31:47 AM,Mary Bell Falas,IL,60048,Foot Vibe Pro,USJ-871,,New,,,,,119.34,109.99,9.35,Michael Wang,CreditCard,0.00,,,YES,"2 years parts, 1 year labor (Small Items)",New,Health&Wellness H Mart Illinois,,,,,,"Sam's club customer paid and picked up 1 foot vibe pro from Sam's Vernon Hills, IL 6228."
9/28/2017 10:23:20 AM,gary taylor,CA,90056,Legacy,DWA-9100DWA-9100CH,Choco Brown,New,,,,,3650.59,3405.00,245.59,May Kam,Cash,100.00,CreditCard,,No,"3 years parts, 3 years labor ($400)",Hold,LA County Fair 9/1-24 (CA),,,,,,"hold to Dec.15th, 2017 DELIVERY"
9/28/2017 10:38:36 AM,DAN HERER,CA,91367,Legacy 3D,DWA-9150USJ-9150BL,Black,New,,,,,4150.95,3863.00,287.95,May Kam,Cash,50.00,CreditCard,,No,"3 years parts, 3 years labor ($400)",Hold,LA County Fair 9/1-24 (CA),,,,,,"HOLD TO OCT 7,2017"
9/28/2017 10:38:36 AM,DAN HERER,CA,91367,Daiwa Blanket,,,New,,,,,4150.95,3863.00,287.95,May Kam,Cash,50.00,CreditCard,,No,no warranty,Hold,LA County Fair 9/1-24 (CA),,,,,,"HOLD TO OCT 7,2017"
9/28/2017 10:48:35 AM,ROY BAYSINGER,CA,92553,Legacy,DWA-9100DWA-9100BL,Black,New,,,,,3900.77,3634.00,266.77,May Kam,CreditCard,50.00,COD,,No,"3 years parts, 3 years labor ($400)",Hold,LA County Fair 9/1-24 (CA),,,,,,Will bring wife to try chair in office soon
9/28/2017 10:59:28 AM,Alexander Lee,CA,90240,Legacy 3D,DWA-9150USJ-9150BL,Black,New,,,,,4200.12,3908.00,292.12,Charles Ishida,CreditCard,100.00,COD,,No,"3 years parts, 3 years labor ($400)",Hold,LA County Fair 9/1-24 (CA),,,,,,will bring Mom to try chair in office soon
9/28/2017 11:18:52 AM,Stacey PRUITT,CA,90016,Legacy,DWA-9100DWA-9100BL,Black,New,,,,,3500.92,3268.00,232.92,Kaz Ohashi,CreditCard,100.00,COD,,No,"3 years parts, 3 years labor ($400)",Hold,LA County Fair 9/1-24 (CA),,,,,,"She will bring father to try Pegasus in office soon, might change chair and price"
9/28/2017 1:56:09 PM,Lorado Gnigles,IL,60061,Foot Vibe Pro,USJ-871,,New,,,,,117.96,109.99,7.97,Michael Wang,CreditCard,0.00,,,YES,"2 years parts, 1 year labor (Small Items)",Delivered,Sam's Club #6228 9/15-9/17 (IL),,,,,,Customer paid and picked up at Sam's Club Vernon Hills 6228.
9/28/2017 3:47:24 PM,SHARON VAN DER WALDE,MI,48105,Legacy,DWA-9100DWA-9100CH,Choco Brown,New,,,,,3497.70,3330.00,167.70,Ruben Cuatrona,CreditCard,3500.00,,,No,"3 years parts, 1 year labor (Free)",Assigned,IAAPA ORLANDO (FOLLOW UP),,,,,,"Deliver Asap.
Ruben offered $3500.00."
9/28/2017 4:11:56 PM,Kee Myung Song,IL,60060,Ninja Leg Massager,,,New,,,,,406.48,379.00,27.48,Michael Wang,CreditCard,0.00,,,YES,"2 years parts, 1 year labor (Small Items)",New,Sam's Club #6228 9/15-9/17 (IL),,,,,,Customer paid and picked up at Sam's Vernon Hills 6228.
