﻿Date,CustomerName,State,Zipcode,Description,productNo,Color,IsDemo,Net,ShippingFee,GiftPrice,FinancingProcessingFee,Gross,Pre_tax,Tax,Commission,Primary Payment Method,Primary Payment Balance,Primary Authorize Number,Primary Purchase Order Number,Primary Synchrony Account Number,Primary Synchrony Application Key,Primary Synchrony AccountInfo,Primary SynchronyTerm,Secondly Payment Method,Secondly Payment Balance,Secondly Authorize Number,Secondly Purchase Order Number,Secondly Synchrony Account Number,Secondly Synchrony Application Key,Secondly Synchrony AccountInfo,Secondly SynchronyTerm,Thirdly Payment Method,Thirdly Payment Balance,Thirdly Authorize Number,Thirdly Purchase Order Number,Thirdly Synchrony Account Number,Thirdly Synchrony Application Key,Thirdly Synchrony AccountInfo,Thirdly SynchronyTerm,DeliveryDate,Ispickup,Warranty,Status,Event Name,Synchrony Notes,Order Notes,Order number,Private Note,Branch,IsNoTax,ActualTaxRate
2/18/2018 2:12:59 PM,Samuel Lee,MS,39232,Legacy for Sam's,DWA-9100DWA-9100SB,Sienna Brown,New,,,,,4627.93,4325.17,302.76,Chris Tavira,CreditCard,4627.93,TC# 6727 1397 6154 3515 3576 30,,,,,,,0.00,,,,,,,,0.00,,,,,,,,No,"3 years parts, 3 years labor ($400)",Scheduled,"Sam's Club #4790 Pearl, MS",,Invoice # 20683,103800,,TX,0,7.00
2/18/2018 2:18:21 PM,Rev Milton Brown,MS,39208,Legacy for Sam's,DWA-9100DWA-9100BL,Black,New,,,,,3850.93,3599.00,251.93,Chris Tavira,CreditCard,3850.93,TC # 0751 7343 1066 6670 8851 69,,,,,,,0.00,,,,,,,,0.00,,,,,,,,No,"3 years parts, 1 year labor (Free)",Scheduled,"Sam's Club #4790 Pearl, MS",,Sales Receipt #20689,103802,,TX,0,7.00
2/18/2018 2:24:41 PM,Lori Rowell,MS,39208,Vitality Plate for Sam's,USJ-849USJ-849-DEMO,Demo,Demo,,,,,427.99,399.99,28.00,Chris Tavira,CreditCard,427.99,TC # 6837 7976 0505 5133 3460 0,,,,,,,0.00,,,,,,,,0.00,,,,,,,,YES,"2 years parts, 1 year labor (Small Items)",Delivered,"Sam's Club #4790 Pearl, MS",,Invoice # 00110081,103803,,TX,0,7.00
2/18/2018 2:36:04 PM,Wei Lin,MS,39047,Legacy for Sam's,DWA-9100DWA-9100BL,Black,New,,,,,3850.93,3599.00,251.93,Chris Stirling,CreditCard,3850.93,TC # 6278 5576 4897 4939 5904 51,,,,,,,0.00,,,,,,,,0.00,,,,,,,,No,"3 years parts, 1 year labor (Free)",Scheduled,"Sam's Club #4790 Pearl, MS",,Invoice #00110054,103804,,TX,0,7.00
2/18/2018 2:36:04 PM,Wei Lin,MS,39047,Chair Pad for Legacy,,,New,,,,,3850.93,3599.00,251.93,Chris Stirling,CreditCard,3850.93,TC # 6278 5576 4897 4939 5904 51,,,,,,,0.00,,,,,,,,0.00,,,,,,,,No,no warranty,Scheduled,"Sam's Club #4790 Pearl, MS",,Invoice #00110054,103804,,TX,0,7.00
2/21/2018 6:28:02 PM,Arden Juby,FL,33844,Legacy for Sam's,DWA-9100DWA-9100CH,New Choco,New,,,,,3850.93,3599.00,251.93,Kamille Gines,CreditCard,3850.93,TC# 6358827022921436559491,,,,,,,0.00,,,,,,,,0.00,,,,,,,,No,"3 years parts, 1 year labor (Free)",Scheduled,"Sam's Club #4790 Pearl, MS",,,103899,Please deliver new chair,FL,0,7.00
