﻿Original Event Name,Event Name,Sales Person,Order Number,Order Date,Customer Name,State,Zip,Product Name,Color,Product Status,QTY,Tax,Total Before Tax,Order Total,Primary Payment Method,Second Payment Method,Thirdl Payment Method,Warranty,Order Items,Pick up,Delivered On,Order Status,Chair Type,Order Notes,Private Note,Branch,No Tax,Actual Tax Rate,SKU,Primary Payment Balance,Primary Authorize Number,Primary Purchase Order Number,Primary Synchrony Account Number,Primary Synchrony Application Key,Primary Synchrony Account Info,Primary Synchrony Term,Second Payment Balance,Second Authorize Number,Second Purchase Order Number,Second Synchrony Account Number,Second Synchrony Application Key,Second Synchrony Account Info,Second SynchronyTerm,Third Payment Balance,Third Authorize Number,Third Purchase Order Number,Third Synchrony Account Number,Third Synchrony Application Key,Third Synchrony Account Info,Third Synchrony Term
Health & Wellness Factory 99 Ranch Plano (TX),Health & Wellness Factory 99 Ranch Plano (TX),Yuhan Liu,113508,12/20/2018 1:22:34 PM,Junhong Chow,TX,75024,Legacy 3D,New Black,New,1,0.00,4300.00,4300.00,Synchrony,,,"3 years parts, 1 year labor (Free)","Legacy 3D,Chair Pad for Legacy 3D,Daiwa Blanket,Foot Pads for Legacy 3D,",No,12/24/2018 12:00:00 AM,Delivered,New,,"Delivery will  be 24th 8 to 10 pm
//Confirmed SYNC($6,500) and original. ***Please charge $4,300 before delivery and sales draft signed.*** Per.June, Mario already spoke to Yuhan , it is not happening on 24th , they will try to make it on 27th--12/21/18 Hitomi
12/26/2018 Asumi/received delivery confirmation and sells draft",TX,1,8.25,DWA-9150USJ-9150BL,4300.00,,,6019170813304869,98789475,Huston,36 months,0.00,,,,,,,0.00,,,,,,
Health & Wellness Factory 99 Ranch Plano (TX),Health & Wellness Factory 99 Ranch Plano (TX),Hailin Xie,113615,12/23/2018 12:12:50 PM,Stacy Wyatt,TX,75002,Acu Tech Pro,New Black,New,1,0.00,1500.00,1500.00,CreditCard,,,"3 years parts, 1 year labor (Free)","Acu Tech Pro,",No,1/25/2019 12:00:00 AM,Delivered,New,Receipt# y9N8,"Confirmed $1,500.00 in Square with Receipt #y9N8. Confirmed w/Mario , TX has inventory and price  - 12/24/18 Hitomi
12/27Maritza- Courtesy email and message sent @ 12:21PM
1/31/19-updated delivery confirmation - Hitomi",TX,1,8.25,USJ-7500USJ-7500BL,1500.00,Receipt# y9N8,,,,,,0.00,,,,,,,0.00,,,,,,
Health & Wellness Factory 99 Ranch Plano (TX),Health & Wellness Factory 99 Ranch Plano (TX),Hailin Xie,113773,12/30/2018 11:52:27 AM,Shaohong Xu,TX,75002,Relax 2 Zero 2.0 for Sam's,New Brown,New,1,0.00,3200.00,3200.00,Cash,COD,,"3 years parts, 1 year labor (Free)","Relax 2 Zero 2.0 for Sam's,",No,,Scheduled,,,"Cash deal, collect $3000 cash when delivering the chair
Will confirm cash --- 12/31/2018 Asumi
//Mario received $200 cash. received cash confirmation. ***COD$3,000***--1/2/19 Hitomi
1/2Maritza Courtesy message sent at 12:14PM",TX,1,8.25,USJ-9050USJ-9050BR,200.00,,,,,,,3000.00,,,,,,,0.00,,,,,,
Health & Wellness Factory 99 Ranch Plano (TX),Health & Wellness Factory 99 Ranch Plano (TX),Hailin Xie,113775,12/30/2018 1:34:20 PM,Sheng Bai,MO,65810,Relax2Zero 3D,New Choco,New,1,0.00,4200.00,4200.00,CreditCard,,,"3 years parts, 1 year labor (Free)","Relax2Zero 3D,",No,,Cancelled,,Receipt# vCrM,"Received email from sales person Helen, this customer wants to cancel the order. 12/31/2018 June
Confirmed refund. --square Receipt# vCrM  12/31/2018 Asumi",Not Dispatched,1,8.25,DWA-9060USJ-9060BR,4200.00,09547C,,,,,,0.00,,,,,,,0.00,,,,,,
Health & Wellness Factory 99 Ranch Plano (TX),Health & Wellness Factory 99 Ranch Plano (TX),Tina Tran,113986,1/7/2019 11:51:36 AM,Kris Kao,TX,75025,Legacy 3D,New Black,New,1,0.00,4200.00,4200.00,Check,,,"5 years parts, 1 year labor (Free)","Legacy 3D,",No,1/15/2019 12:00:00 AM,Delivered,New,,"Yumi confirmed $4200 check deposit will confirm if it is cleaned on 1/11/19 -1/7/19 Asumi
//Yumi confirmed $4,200 check was cleared. - 1/11/19 Hitomi
1/11Maritza- Courtesy message sent @ 10:49AM
1/17Delivery confirmation received",TX,1,8.25,DWA-9150USJ-9150BL,4200.00,,,,,,,0.00,,,,,,,0.00,,,,,,
Health & Wellness Factory 99 Ranch Plano (TX),Health & Wellness Factory 99 Ranch Plano (TX),Mijung Song,114112,1/11/2019 2:28:43 PM,Deanna Wong,TX,75035,Legacy 3D,Demo Black,Demo,1,0.00,3250.00,3250.00,CreditCard,Check,Cash,"3 years parts, 1 year labor (Free)","Legacy 3D,",No,1/22/2019 12:00:00 AM,Delivered,Demo,,"Confirmed square $200 in square. Please charge COD$3030 at the timing of  delivery. --- 1/11/19 Asumi
1/17/19 3:29pm - Courtesy message sent -Noemi
Balance $3050 was paid in cash $50 and cashiers check $3000, received both confirmation. 1/25/19 Riho",TX,1,8.25,DWA-9150USJ-9150BL-DEMO,200.00,HJ3x,,,,,,3000.00,,,,,,,50.00,,,,,,
Health & Wellness Factory 99 Ranch Plano (TX),Health & Wellness Factory 99 Ranch Plano (TX),Hailin Xie,114207,1/13/2019 3:52:19 PM,Jessica Kuo,TX,75074,AGM Relax2Zero 1.0,New Brown,New,1,0.00,2900.00,2900.00,Synchrony,,,"3 years parts, 1 year labor (Free)","AGM Relax2Zero 1.0,",No,2/5/2019 12:00:00 AM,Delivered,New,,"will confirm chair and synchrony --1/14/19 Hitomi
Confirmed original synchlony and invoice and inventry.--- 1/16/19 Asumi
1/17/19 4:04pm -Courtesy message sent -Noemi",TX,1,8.25,USJ-9000USJ-9000BR,2900.00,,,6019170813337992,99723735,Huston,36 months,0.00,,,,,,,0.00,,,6019170813337992,99723735,Huston,36 months
Health & Wellness Factory 99 Ranch Plano (TX),Health & Wellness Factory 99 Ranch Plano (TX),Hailin Xie,114272,1/14/2019 2:36:20 PM,Nhan-Ni Chau,TX,75013,AGM Relax2Zero 1.0,New Brown,New,1,0.00,2800.00,2800.00,CreditCard,,,"3 years parts, 1 year labor (Free)","AGM Relax2Zero 1.0,",No,1/22/2019 12:00:00 AM,Delivered,New,Receipt: 6CZF,"Confirmed $2,800 in SQUARE --- 1/15/19 Asumi
1/17/19 4:18pm Courtesy message sent -Noemi",TX,1,8.25,USJ-9000USJ-9000BR,2800.00,6CZF,,,,,,0.00,,,,,,,0.00,,,,,,
Health & Wellness Factory 99 Ranch Plano (TX),Health & Wellness Factory 99 Ranch Plano (TX),Mijung Song,114612,1/27/2019 10:01:01 AM,Yong soo Lee,IL,60062,Legacy 3D,New Choco,New,1,0.00,3700.00,3700.00,CreditCard,Synchrony,,"3 years parts, 1 year labor (Free)","Legacy 3D,",No,2/3/2019 12:00:00 AM,Delivered,New,,"Confiormed $1,700.00 in square and synchrony approved $2,000.00 and original application form and invoice. Please charge $2,000.00 before delivery and have sales draft signed. --- 1/28/19 Asumi
Printed 1/30/2019 - Tina
//Courtesy text message is sent - 1/30/19 @1:30 PM Hitomi",TX,1,8.25,DWA-9150USJ-9150CH,1700.00,p9e6,,,,,,2000.00,,,6019170813354716,70489636,Huston,24 months,0.00,,,,,,
Health & Wellness Factory 99 Ranch Plano (TX),Health & Wellness Factory 99 Ranch Plano (TX),Mijung Song,114613,1/27/2019 10:07:38 AM,Chong soon Hong,IL,60091,Legacy 3D,New Choco,New,1,0.00,3600.00,3600.00,CreditCard,,,"3 years parts, 1 year labor (Free)","Legacy 3D,",No,2/3/2019 12:00:00 AM,Delivered,New,,"Confirmed $3,600.00  in square. --- 1/29/19 Asumi
Printed 1/30/2019 - Tina
//Courtesy text message is sent - 1/30/19 @1:25 PM  Hitomi",TX,1,8.25,DWA-9150USJ-9150CH,3600.00,Receipt #hTO3,,,,,,0.00,,,,,,,0.00,,,,,,
Health & Wellness Factory 99 Ranch Plano (TX),Health & Wellness Factory 99 Ranch Plano (TX),Yuhan Liu,114706,1/31/2019 12:48:07 PM,Rina Roseli Sudjana,TX,75070,Legacy 3D,New Black,New,1,0.00,3900.00,3900.00,Cash,Cash,,"3 years parts, 1 year labor (Free)","Legacy 3D,Chair Pad for Legacy 3D,Daiwa Blanket,Foot Pads for Legacy 3D,",No,1/31/2019 12:00:00 AM,Delivered,New,,"Customer paid the cash $300 at the HW store Plano, SQ# HOIX. 1/31/19 Riho
Please charge COD $3,600 upon delivery. --- 1/31/19 Asumi
2/6Maritza Courtesy message sent @ 1:20PM
Received delivery confirmation and cash $3600 confirmation by June--- 2/25/19 Asumi",TX,1,8.25,DWA-9150USJ-9150BL,300.00,,,,,,,3600.00,,,,,,,0.00,,,,,,
Health & Wellness Factory 99 Ranch Plano (TX),Health & Wellness Factory 99 Ranch Plano (TX),Mijung Song,114810,2/6/2019 12:16:01 PM,Jennifer Palma,TX,75161,Relax2Zero 1.0,New Black,New,1,0.00,3500.00,3500.00,Synchrony,,,"3 years parts, 1 year labor (Free)","Relax2Zero 1.0,",No,2/6/2019 12:00:00 AM,Delivered,New,,"Confirmed synchrony approved $6,000.00 and  application form and original invoice. Please charge $3,500.00 before delivery and have sales draft signed.  --- 2/6/19 Asumi
2/7Maritza Courtesy message sent @ 12:13PM
Received delivery confiramtion and sales draft--- 2/25/19 Asumi",TX,1,8.25,USJ-9000USJ-9000KU,3500.00,,,6501723375000880,70927117,Huston,36 months,0.00,,,,,,,0.00,,,,,,
Health & Wellness Factory 99 Ranch Plano (TX),Health & Wellness Factory 99 Ranch Plano (TX),Mijung Song,115330,2/25/2019 12:50:55 PM,Shunshen Pan,TX,75035,Legacy 3D,New Choco,New,1,0.00,3900.00,3900.00,CreditCard,Synchrony,,"3 years parts, 1 year labor (Free)","Legacy 3D,",No,3/16/2019 12:00:00 AM,Delivered,New,,"SQ#FbfJ-$216.50 ask 16.50 . synchrony $6,000.00 approved in TX account. Term needs to be confirmed 2/26/19-Hitomi
2/27/19-Per.Mijun, she issued refund overcharged $16.50 in cash. Synchrony confirmed. ***Please charge $3,700/sales draft ***- Hitomi
2/28Maritza- Courtesy message sent @ 11:10AM",TX,1,8.25,DWA-9150USJ-9150CH,200.00,#FbfJ,,,,,,3700.00,,,6501723375030192,71781526,Huston,36 months,0.00,,,,,,
Health & Wellness Factory 99 Ranch Plano (TX),Health & Wellness Factory 99 Ranch Plano (TX),Yuhan Liu,115607,3/10/2019 12:22:19 PM,Yingge Li,TX,75033,Legacy 3D,New Black,New,1,0.00,3600.00,3600.00,CreditCard,Cash,,"3 years parts, 1 year labor (Free)","Legacy 3D,Chair Pad for Legacy 3D,Daiwa Blanket,Foot Pads for Legacy 3D,",No,3/15/2019 12:00:00 AM,Delivered,New,,"will confirm cash - 3/11/19 Hitomi
3/12/19 Confirmed $100 in SQ. ***COD $3500***-Hitomi
3/12Maritza Courtesy message sent @ 4:31PM",TX,1,8.25,DWA-9150USJ-9150BL,100.00,Receipt #fmSX(CASH),,,,,,3500.00,,,,,,,0.00,,,,,,
Health & Wellness Factory 99 Ranch Plano (TX),Health & Wellness Factory 99 Ranch Plano (TX),Mijung Song,116035,3/23/2019 12:24:42 PM,Bobby On,OK,74133,Legacy,New Choco,New,1,0.00,3000.00,3000.00,Cash,Cash,,"3 years parts, 1 year labor (Free)","Legacy,",No,4/30/2019 12:00:00 AM,Delivered,New,,"3/25/19-Confirmed w/Mario , it is okay to process. will confirm cash once Mario receives, ***COD $2,800***-Hitomi
Hold delivery till May, according to sales' note. 3/26/2019 June
03/29/19 - Courtesy call/ text completed- Cristina 10:10am
4/24/2019 Scheduled Tues 8am to 10am April 30, 2019 - Tina
4/29/19-Received $200 cash confirmation signed by Mario - Hitomi
5/8Maritza- Delivery confirmation received. Cash COD 2800 confirmed and signed by Mario.",TX,1,8.25,DWA-9100DWA-9100BU,200.00,,,,,,,2800.00,,,,,,,0.00,,,,,,
Health & Wellness Factory 99 Ranch Plano (TX),Health & Wellness Factory 99 Ranch Plano (TX),Mijung Song,116043,3/23/2019 2:38:49 PM,Haidy Chuang,TX,75150,Legacy 3D,New Choco,New,1,0.00,3800.00,3800.00,CreditCard,COD,,"3 years parts, 1 year labor (Free)","Legacy 3D,",No,,Cancelled,,,"3/25/19-Confirmed $200.00 in SQ. will confirm total amount- Hitomi
3/26/19-PER.MIJUN, TOTAL MOUNT IS $3600.REVISED TO #116183 -HITOMI",Not Dispatched,1,8.25,DWA-9150USJ-9150CH,200.00,Tc8p,,,,,,3400.00,,,,,,,0.00,,,,,,
Health & Wellness Factory 99 Ranch Plano (TX),Health & Wellness Factory 99 Ranch Plano (TX),Mijung Song,116062,3/23/2019 7:15:14 PM,Subinuer Abudurexiei,TX,75071,Legacy 3D,New Choco,New,1,0.00,4000.00,4000.00,Synchrony,,,"3 years parts, 1 year labor (Free)","Legacy 3D,",No,3/31/2019 12:00:00 AM,Delivered,New,,"3/25/19-Confirmed SYNC$6,000 and original. ***Please charge $4,000/ sales draft***-Hitomi
Subinuer Abudurexiei
Shipping Home: 703-940-4877
Shipping Cell: 571-699-9702 (571-644-9702? asking Mijun)
Printed and scheduled for Sunday 10-12PM March 31, 2019 - Tina 3/29/2019",TX,1,8.25,DWA-9150USJ-9150CH,4000.00,,,6501723375072582,73060702,Huston,36 months,0.00,,,,,,,0.00,,,,,,
Health & Wellness Factory 99 Ranch Plano (TX),Health & Wellness Factory 99 Ranch Plano (TX),Mijung Song,116154,3/25/2019 12:15:00 PM,Abraham Choi,OK,73703,PEGASUS 2 SMART,Demo Choco,Demo,1,0.00,5000.00,5000.00,CreditCard,,,"3 years parts, 1 year labor (Free)","PEGASUS 2 SMART,",No,4/9/2019 12:00:00 AM,Delivered,Demo,,"3/25/19-Confirmed $5,000.00 in SQ. - Hitomi
Schedule to 4/9/2019 between 12-3PM. 3/26/2019 June
4/12Maritza- Delivery confirmation received.",TX,1,8.25,PEGS-2PEGS-2-BR-DEMO,5000.00,Iy8c,,,,,,0.00,,,,,,,0.00,,,,,,
Health & Wellness Factory 99 Ranch Plano (TX),Health & Wellness Factory 99 Ranch Plano (TX),Mijung Song,116158,3/25/2019 3:46:05 PM,Cherry Trinidad,OK,74008,Legacy,Demo Choco,Demo,1,0.00,2700.00,2700.00,Credit Card,Credit Card,,"3 years parts, 1 year labor (Free)","Legacy,",No,4/29/2019 12:00:00 AM,Delivered,Demo,,"3/26-19 Confirmed $200.00 in SQ. ***COD $2,500***will confirm the price w/Hide  -Hitomi
3/28/19- Confirmed the price w/Hide - Hitomi
3/29Maritza Courtesy message sent @ 3:42PM
4/24/2019 Scheduled for April 29, 2019 Monday 5pm to 8pm - Tina",TX,1,8.25,DWA-9100DWA-9100BU-DEMO,200.00,PGvg,,,,,,2500.00,Receipt #cgGt,,,,,,0.00,,,,,,
Health & Wellness Factory 99 Ranch Plano (TX),Health & Wellness Factory 99 Ranch Plano (TX),Mijung Song,116183,3/26/2019 12:16:03 PM,Haidy Chuang,TX,75150,Legacy 3D,New Choco,New,1,0.00,3600.00,3600.00,Credit Card,Cash,,"3 years parts, 1 year labor (Free)","Legacy 3D,",No,4/12/2019 12:00:00 AM,Delivered,New,,"3/26/19-Corrected for #116043. Confirmed $200.00 in SQ. ***COD$3,400***- Hitomi
03/29/19 - Courtesy call/ text completed- Cristina 9: 40 am
Printed by June at 3/27/2019
4/2/19 Alysa - Delivery Schedule Confirmed
4/16Maritza- Delivery confirmation received. COD paid by cash and signed by Mario.",TX,1,8.25,DWA-9150USJ-9150CH,200.00,Tc8p,,,,,,3400.00,,,,,,,0.00,,,,,,
Health & Wellness Factory 99 Ranch Plano (TX),Health & Wellness Factory 99 Ranch Plano (TX),Yuhan Liu,116761,4/16/2019 4:33:56 PM,Polo N/A,TX,75052,Legacy 3D,New Black,New,1,0.00,3700.00,3700.00,Credit Card,,,"3 years parts, 1 year labor (Free)","Legacy 3D,Chair Pad for Legacy 3D,Foot Pads for Legacy 3D,",No,4/23/2019 12:00:00 AM,Delivered,New,,"4/17/19-Confirmed $3,700.00 in SQ.**Please confirm customer's name**(in SQ, it says  Steven Su) . Hitomi
4/18/19-Confirmed customer's name - Hitomi
4/19Maritza- Courtesy message sent @ 9:56AM
4/19/2019 Scheduled for 4/23/2019 Tuesday 11am to 2pm -Tina
4/23Maritza Delivery confirmation received.",TX,1,8.25,DWA-9150USJ-9150BL,3700.00,Receipt #1BQ9,,,,,,0.00,,,,,,,0.00,,,,,,
Health & Wellness Factory 99 Ranch Plano (TX),Health & Wellness Factory 99 Ranch Plano (TX),Yuhan Liu,116993,4/27/2019 9:57:53 AM,Huiqin Chen,TX,75034,Legacy,New Sienna,New,1,0.00,3500.00,3500.00,Cash,COD,,"3 years parts, 1 year labor (Free)","Legacy,Chair Pad for Legacy,Foot Pads for Legacy,",No,5/7/2019 12:00:00 AM,Delivered,New,,"4/29/19-Received cash confirmation , Mario received $500 cash. ***COD$3,000*** Mini back massager was given as gift. Already picked up. Confirmed with Yuhan  -Hitomi
5/1Maritza- Courtesy message sent @ 8:50AM
5/2 - Alysa - Customer confirmed delivery Tuesday 5/7 between 10-2PM.",TX,1,8.25,DWA-9100DWA-9100SI,500.00,,,,,,,3000.00,,,,,,,0.00,,,,,,
Health & Wellness Factory 99 Ranch Plano (TX),Health & Wellness Factory 99 Ranch Plano (TX),Mijung Song,117482,5/19/2019 6:48:56 PM,Run quan Zhou,TX,75070,Majesty,New Choco,New,1,0.00,2600.00,2600.00,Credit Card,,,"3 years parts, 1 year labor (Free)","Majesty,",No,5/20/2019 12:00:00 AM,Delivered,New,,"5/20Maritza- Confirmed 200 deposit on square. Please collect $2400 cash upon delivery.
Printed - Tina 5/20/2019
5/21/2019 - Scheduled for 5/20/2019 Monday 6 to 8pm - Tina

Received email from June on 5/21/19 11:26am mentioning that Mario received COD payment of cash $2,400. Payment and delivery status verified - Arisa 6/11/19 11:31am",TX,1,8.25,MAJ-1010MAJ-1010-BR,0.00,08158G,,,,,,0.00,,,,,,,0.00,,,,,,
Health & Wellness Factory 99 Ranch Plano (TX),Health & Wellness Factory 99 Ranch Plano (TX),Mijung Song,117592,5/26/2019 3:59:51 PM,Lien Nguyen,TX,75042,Majesty,New Choco,New,1,0.00,3140.00,3140.00,Synchrony,,,"3 years parts, 1 year labor (Free)","Majesty,",No,5/30/2019 12:00:00 AM,Delivered,New,,"Printed 5/28 - Alysa
Synchrony original verified credit of $6800. Remaining balance of $3140. Please charge upon delivery and have sales signed. Erika 5/28/19 2:32pm
5/29 - Alysa - Customer confirmed delivery Thursday 5/30 between 4-7PM.
- Synchrony Authorization Code 029612
Delivery Confirmed completed, Payment verified of  $3,140.00, note we need a sales draft signed.
Erika 5/31/19 4:45pm",TX,1,8.25,MAJ-1010MAJ-1010-BR,0.00,,,6501723375161096,75934323,,36 months,0.00,,,,,,,0.00,,,,,,
Health & Wellness Factory 99 Ranch Plano (TX),Health & Wellness Factory 99 Ranch Plano (TX),Mijung Song,117594,5/26/2019 4:11:02 PM,Edwin Guingab,TX,78109,Majesty,New Choco,New,1,0.00,3140.00,3140.00,Synchrony,,,"3 years parts, 1 year labor (Free)","Majesty,",No,,Called,,,"Synchrony Original verified, Credit available $5500. Remaining balance $3140. Please charge synchrony account upon delivery and have sales signed. Erika 5/28/19 2:38 pm
courtesy call/ text completed - cristina  05/29/19
5/29/2019 - Tina printed
6/7/2019 Tried scheduling for June 8 but customer is not responding, due to financing we have to take it out and maybe add on a different trip -Tina (left vm and text)",TX,1,8.25,MAJ-1010MAJ-1010-BR,0.00,,,6501723375161260,75936907,,36 months,0.00,,,,,,,0.00,,,,,,
Health & Wellness Factory 99 Ranch Plano (TX),Health & Wellness Factory 99 Ranch Plano (TX),Mijung Song,117595,5/26/2019 4:19:39 PM,An nguyen,TX,85255,Legacy 3D,New Black,New,1,0.00,4500.00,4500.00,Synchrony,,,"3 years parts, 1 year labor (Free)","Legacy 3D,",No,,Assigned,,,"Synchrony original verified,credit available $7000. Remaining balance $4500. Please charge synchrony account upon delivery and have sales signed. Erika 5/28/19 2:51pm
The City and Zip code are belong to Arizone. 5/29/2019 June
Redispatch branc
h belongs to vegas, Sales rep put wrong address. Erika 5/29/19 10:33am
18525 n Scottsdale rd #2043
Scottsdale, AZ. 85255
Customer doesn't want delivery until August, will call when ready - Haleigh",NV,1,8.25,DWA-9150USJ-9150BL,0.00,,,6501723375161450,75939513,,36 months,0.00,,,,,,,0.00,,,,,,
Health & Wellness Factory 99 Ranch Plano (TX),Health & Wellness Factory 99 Ranch Plano (TX),Mijung Song,117697,5/31/2019 12:40:16 PM,Cyndi Le,TX,75002,Legacy 3D,Demo Choco,Demo,1,0.00,3500.00,3500.00,Cash,COD,,"3 years parts, 1 year labor (Free)","Legacy 3D,",No,6/7/2019 12:00:00 AM,Delivered,Demo,,"6/4/2019 customer called to check on delivery status of chair ( I let them know that we are waiting on main office for payment confirmation) she said that she will be out of town from June 12th to June 19th and to deliver before if possible - Tina
---Original received. Cash Deposit conf. $100. Mario signed. COD @ delivery $3400. Erika 6/5/19 9:10am
6/5Maritza- Courtesy message sent @ 2:28PM
Printed -Tina 6/5/2019
Delivery conf. completed. COD was collected of 3400. Erika 6/12/19",TX,1,8.25,DWA-9150USJ-9150CH-DEMO,100.00,,,,,,,3400.00,,,,,,,0.00,,,,,,
Health & Wellness Factory 99 Ranch Plano (TX),Health & Wellness Factory 99 Ranch Plano (TX),Mijung Song,117725,6/1/2019 5:34:22 PM,Jenny LA,TX,75089,Majesty,New Black,New,1,0.00,2900.00,2900.00,Cash,COD,,"3 years parts, 1 year labor (Free)","Majesty,",No,6/7/2019 12:00:00 AM,Delivered,New,,"Alysa - Printed 6/4
Spoke with june mario will sign for deposit 6/5/19 will dispatch when received. Erika 6/4/19
Original Received. $1,000 deposit conf. Mario signed. COD @ delivery of $1900. Erika 9:05m 6/5/19
Schedule to 6/7/2019 between 10-2pm. 6/6/209 June
Delivery conf. completed. cod was collected signed off by mario. Erika 6/13/19",TX,1,8.25,MAJ-1010MAJ-1010-BL,1000.00,,,,,,,1900.00,,,,,,,0.00,,,,,,
Health & Wellness Factory 99 Ranch Plano (TX),Health & Wellness Factory 99 Ranch Plano (TX),Mijung Song,117763,6/2/2019 2:33:22 PM,Gerald Pili,TX,75409,Majesty,Demo Black,Demo,1,0.00,2700.00,2700.00,Synchrony,,,"3 years parts, 1 year labor (Free)","Majesty,",No,,Scheduled,,,"Synchrony Original received.  Credit available $6800. Remaining balance of $2700. Please charge synchrony account upon delivery and have sales draft sign. Erika 6/3/19 11:36am
Courtesy call  completed with customers wife 06/03/19 12:01 pm -Cristina
Schedule to 6/7/2019 between 3-6pm. 6/6/2019 June
Printed - Tina 6/4/2019",TX,1,8.25,MAJ-1010MAJ-1010-BL-DEMO,2700.00,,,6501723375173984,76280934,Huston,36 months,0.00,,,,,,,0.00,,,,,,
