﻿Order Number,Order Date,Event Name,Salesperson,SKU,Product Name,Color,QTY,Warranty,Payment Details,Tax,Order Total,Gross,Primary Payment Method,Primary Payment Balance,Primary Authorize Number,Primary Purchase Order Number,Primary Synchrony Account Number,Primary Synchrony Application Key,Primary Synchrony AccountInfo,Primary SynchronyTerm,Secondly Payment Method,Secondly Payment Balance,Secondly Authorize Number,Secondly Purchase Order Number,Secondly Synchrony Account Number,Secondly Synchrony Application Key,Secondly Synchrony AccountInfo,Secondly SynchronyTerm,Thirdly Payment Method,Thirdly Payment Balance,Thirdly Authorize Number,Thirdly Purchase Order Number,Thirdly Synchrony Account Number,Thirdly Synchrony Application Key,Thirdly Synchrony AccountInfo,Thirdly SynchronyTerm,Actual Shipping Cost,CustomerName,Shipping Address,Delivered On,Serial Number (TO Be),Note,Branch,IsNoTax,ActualTaxRate
101108,10/5/2017 2:10:05 PM,Georgia National Fair (10/5-10/15/17),Robert Shih,DWA-9200DWA-9200-BL,Legend 2,Black,1,"3 years parts, 1 year labor (Free)",CreditCard ,262.50,4762.50,4762.50,,0.00,0000000000,,,,,,,,,,,,,,,,,,,,,,0.00,John Doe,1234567890,,,,Not Dispatched,,
101117,10/6/2017 10:40:23 AM,Georgia National Fair (10/5-10/15/17),Robert Shih,DWA-9200DWA-9200-BL-DEMO,Legend 2,Demo Black,1,"3 years parts, 1 year labor (Free)",Synchrony CreditCard,231.00,3531.00,3531.00,,3500.00,,,6034610081555974,79328049,Las Vegas,36 months,CreditCard,,,,,,,,,,,,,,,,0.00,Brandon Tygret,7047971808,,,"Synchrony 36 months for $3,500

Credit card for $31.00

Do not accept Cancelle , Return , Refund on the floor model.

Customer will picks up the chair the end of the day .",FL,,
101119,10/6/2017 4:16:04 PM,Georgia National Fair (10/5-10/15/17),Robert Shih,DWA-9100DWA-9100CH,Legacy,Choco Brown,1,"3 years parts, 1 year labor (Free)",COD COD,213.50,4013.50,4013.50,,200.00,,,,,,,COD,3813.50,,,,,,,,0.00,,,,,,,0.00,Ray Sullivan,2298057067,10/31/2017 12:00:00 AM,,"Deposited $200 

C.O.D $3,813.50",FL,,
101131,10/7/2017 5:24:25 PM,Georgia National Fair (10/5-10/15/17),Robert Shih,DWA-9100DWA-9100SI-DEMO,Legacy,Demo Sienna Brown,1,"3 years parts, 1 year labor (Free)",Synchrony COD,200.20,4010.20,4010.20,Synchrony,3500.00,,,6034610081561097,79426766,Las Vegas,36 months,COD,510.20,,,,,,,,0.00,,,,,,,0.00,Jeffery Wilson,7064760595,11/1/2017 12:00:00 AM,,"No Canceled , Returned , Refunded for floor model purchased. 

Synchrony 36 months 0APR $3500

C.O.D $510.20",FL,,
101185,10/9/2017 12:05:38 PM,Georgia National Fair (10/5-10/15/17),Robert Shih,DWA-9100DWA-9100BU-DEMO,Legacy,Demo Blue,1,"3 years parts, 1 year labor (Free)",CreditCard CreditCard,212.62,4000.00,4000.00,CreditCard,100.00,Square receipt #CR7J,,,,,,CreditCard,3900.00,Uvqw,,,,,,,0.00,,,,,,,0.00,Catherine Johnson,2298549579,10/30/2017 12:00:00 AM,,"No Canceled,  Returned,  Refunded on the floor model purchased. 

Deposited $100

COD $3900",FL,,
101186,10/9/2017 1:39:30 PM,Georgia National Fair (10/5-10/15/17),Robert Shih,DWA-9100DWA-9100SI,Legacy,Sienna Brown,1,"3 years parts, 1 year labor (Free)",CreditCard CreditCard,212.62,4000.00,4000.00,CreditCard,100.00,Square receipt #lZey,,,,,,CreditCard,3900.00,NsIC,,,,,,,0.00,,,,,,,0.00,Angela Edwards,4789942468,11/1/2017 12:00:00 AM,,"Militarily discount 

Deposited $100

COD $3,900",FL,,
101189,10/9/2017 3:21:01 PM,Georgia National Fair (10/5-10/15/17),Jonathan Bhowani,DWA-9100DWA-9100CH,Legacy,Choco Brown,1,"3 years parts, 1 year labor (Free)",CreditCard ,212.73,4001.73,4001.73,CreditCard,4001.80,Square receipt #fO3v,,,,,,,0.00,,,,,,,,0.00,,,,,,,0.00,Gregory Stanley,4783333344,,,"All repairs are done in home, even after warranty is over. There is a service fee required after warranty is over.",FL,,
101191,10/9/2017 3:30:22 PM,Georgia National Fair (10/5-10/15/17),Robert Shih,DWA-9200DWA-9200-BR,Legend 2,Choco Brown,1,"3 years parts, 1 year labor (Free)",CreditCard CreditCard,179.91,3500.00,3500.00,CreditCard,100.00,Square receipt #V9zA,,,,,,CreditCard,3400.00,rs3I,,,,,,,0.00,,,,,,,0.00,Pat West,4789875682,11/2/2017 12:00:00 AM,,"No Canceled,  Returned,  Refunded on the discount purchased. 

Deposited $100 

COD $3,400",FL,,
101192,10/9/2017 4:51:58 PM,Georgia National Fair (10/5-10/15/17),Robert Shih,DWA-9100DWA-9100CH,Legacy,Choco Brown,1,"3 years parts, 1 year labor (Free)",CreditCard Synchrony,212.62,4000.00,4000.00,CreditCard,2000.00,Square receipt #6EW0,,,,,,Synchrony,2000.00,,,6034610081565668,79512916,,,,0.00,,,,,,,0.00,Joseph Bossi,4782569216,10/31/2017 12:00:00 AM,,Mailtiy discount. Synchrony 24months 0%APR $2000 / square # 6EW0 $2000 . PAID IN FULL,FL,,
101198,10/10/2017 2:35:39 PM,Georgia National Fair (10/5-10/15/17),Robert Shih,DWA-9200DWA-9200-BR,Legend 2,Choco Brown,1,"3 years parts, 1 year labor (Free)",Synchrony ,245.33,4500.00,4500.00,Synchrony,4500.00,,,6034610081567185,79552405,Huston,36 months,,0.00,,,,,,,,0.00,,,,,,,0.00,Brandon Craven,2295918657,11/3/2017 12:00:00 AM,,Thank you for the business in GA national fair  :),FL,,
101199,10/10/2017 3:44:16 PM,Georgia National Fair (10/5-10/15/17),Robert Shih,DWA-9100DWA-9100BL,Legacy,Black,1,"3 years parts, 1 year labor (Free)",Synchrony CreditCard,212.62,4000.00,4000.00,,3500.00,,,6034610081567284,79556389,,36 months,CreditCard,,,,,,,,,,,,,,,,0.00,Lewis McCoy,8033814644,,,military discount.  Synchrony 36 months 0%APR $3500 / COD $500,FL,,
101208,10/11/2017 1:50:46 PM,Georgia National Fair (10/5-10/15/17),Robert Shih,DWA-9200DWA-9200-BR,Legend 2,Choco Brown,1,"3 years parts, 1 year labor (Free)",Cash CreditCard,166.82,3500.00,3500.00,,50.00,,,,,,,CreditCard,,,,,,,,,,,,,,,,0.00,John Gibbs,4789545015,,,Pls on hold the order till to the customer move into the new home / Deposited $50 cash / COD $3450,FL,,
101211,10/11/2017 5:19:25 PM,Georgia National Fair (10/5-10/15/17),Gary Cyrlin,DWA-9100DWA-9100BU,Legacy,Blue,1,"3 years parts, 1 year labor (Free)",CreditCard ,232.24,4500.00,4500.00,CreditCard,4500.00,Square receipt #GP9u,,,,,,,0.00,,,,,,,,0.00,,,,,,,0.00,Glen Emory,6784637825,11/1/2017 12:00:00 AM,,Thank you for your business with us in GA national fair :),FL,,
101234,10/12/2017 2:23:21 PM,Georgia National Fair (10/5-10/15/17),Robert Shih,DWA-9200DWA-9200-BR,Legend 2,Choco Brown,1,"3 years parts, 1 year labor (Free)",Synchrony CreditCard,212.62,4000.00,4000.00,,2000.00,,,6034610081569868,79634592,Las Vegas,,CreditCard,,,,,,,,,,,,,,,,0.00,Brian Skelton,6783508205,,,"Synchrony 18 months 0% APR $2,000 / Please on hold the order about 2 months befor X'mas and processed the synchrony .",FL,,
101238,10/12/2017 4:24:12 PM,Georgia National Fair (10/5-10/15/17),Robert Shih,DWA-9100DWA-9100CH,Legacy,Choco Brown,1,"3 years parts, 1 year labor (Free)",Synchrony ,245.33,4500.00,4500.00,Synchrony,4500.00,,,6034610081570429,79641788,Las Vegas,36 months,,0.00,,,,,,,,0.00,,,,,,,0.00,Joseph Yancey,4782138753,11/1/2017 12:00:00 AM,,"Synchrony 36 months 0%APR $4,500 / Thank you for your business with us in GA national fair :)",FL,,
101241,10/12/2017 5:44:32 PM,Georgia National Fair (10/5-10/15/17),Robert Shih,DWA-9200DWA-9200-BR,Legend 2,Choco Brown,1,"3 years parts, 1 year labor (Free)",Synchrony ,245.33,4500.00,4500.00,Synchrony,4500.00,,,6034610081570585,79645080,Las Vegas,36 months,,0.00,,,,,,,,0.00,,,,,,,0.00,Allan Cason,4782568105,11/2/2017 12:00:00 AM,,"Synchrony 36 months 0 % APR $4,500 / Thank you for your business in GA national fair :)",FL,,
101247,10/13/2017 9:24:58 AM,Georgia National Fair (10/5-10/15/17),Gary Cyrlin,DWA-9100DWA-9100CH,Legacy,Choco Brown,1,"3 years parts, 1 year labor (Free)",Synchrony ,232.24,4500.00,4500.00,Synchrony,4500.00,,,6034610081570437,79642269,Las Vegas,36 months,,0.00,,,,,,,,0.00,,,,,,,0.00,Pamela Hauck,4789724584,11/1/2017 12:00:00 AM,,"Synchrony 36 months 0 % APR $ 4,500",FL,,
101248,10/13/2017 9:34:37 AM,Georgia National Fair (10/5-10/15/17),Robert Shih,DWA-9200DWA-9200-BL-DEMO,Legend 2,Demo Black,1,"3 years parts, 1 year labor (Free)",Synchrony ,147.20,3000.00,3000.00,Synchrony,1200.00,,,6034610081569355,79621263,Las Vegas,,,0.00,,,,,,,,0.00,,,,,,,0.00,Betty & Bobby Boatright,9123450725,,,"Synchrony 12 months 0 % APR $1,200 / DO NOT PROCESS TILL DELIVER.",FL,,
101249,10/13/2017 10:29:45 AM,Georgia National Fair (10/5-10/15/17),Jonathan Bhowani,DWA-9200DWA-9200-BL,Legend 2,Black,1,"3 years parts, 1 year labor (Free)",Cash CreditCard,160.28,3200.00,3200.00,Cash,100.00,,,,,,,CreditCard,3100.00,cwr4,,,,,,,0.00,,,,,,,0.00,Shailesh Patel,4786971617,11/1/2017 12:00:00 AM,,"Jon's customer / Deposited cash $100 / COD $3,100",FL,,
101250,10/13/2017 10:58:24 AM,Georgia National Fair (10/5-10/15/17),Jonathan Bhowani,DWA-9200DWA-9200-BR,Legend 2,Choco Brown,1,"3 years parts, 1 year labor (Free)",Cash CreditCard,160.28,3200.00,3200.00,Cash,100.00,,,,,,,CreditCard,3100.00,cwr4,,,,,,,0.00,,,,,,,0.00,Yogesh Patel,4787316803,11/2/2017 12:00:00 AM,,"Jin's customer / Cash deposited $100 / COD $3,100 /",FL,,
101253,10/13/2017 3:27:48 PM,Georgia National Fair (10/5-10/15/17),Robert Shih,DWA-9200DWA-9200-BR-DEMO,Legend 2,Demo Choco Brown,1,"3 years parts, 1 year labor (Free)",CreditCard CreditCard,147.20,3000.00,3000.00,CreditCard,100.00,Square receipt #n03l,,,,,,CreditCard,2900.00,2eFR,,,,,,,0.00,,,,,,,0.00,Robin Bray,4784427532,10/16/2017 12:00:00 AM,,"No cancelled, returned, refunded on the floor model purchased / SOLD AS IS /",FL,,
101262,10/14/2017 7:33:53 AM,Georgia National Fair (10/5-10/15/17),Robert Shih,DWA-9100DWA-9100SI-DEMO,Legacy,Demo Sienna Brown,1,"3 years parts, 1 year labor (Free)",CreditCard Cash,147.20,3000.00,3000.00,CreditCard,50.00,Square receipt #Lrfj,,,,,,Cash,1500.00,,,,,,,CreditCard,1450.00,GWaY,,,,,,0.00,Drew McNeil,4788085112,10/16/2017 12:00:00 AM,,"No Canceled, Returned, Refunded on floor model purchased .",FL,,
101263,10/14/2017 7:50:45 AM,Georgia National Fair (10/5-10/15/17),Gary Cyrlin,DWA-9100DWA-9100CH,Legacy,Choco Brown,1,"3 years parts, 1 year labor (Free)",Synchrony ,245.33,4500.00,4500.00,Synchrony,4500.00,,,6034610081572268,79693107,Las Vegas,36 months,,0.00,,,,,,,,0.00,,,,,,,0.00,Marsha Orme,2298911080,10/30/2017 12:00:00 AM,,"Synchrony 36 months 0 % APR $4,500",FL,,
101264,10/14/2017 9:30:24 AM,Georgia National Fair (10/5-10/15/17),Robert Shih,DWA-9200DWA-9200-BL,Legend 2,Black,1,"3 years parts, 1 year labor (Free)",Synchrony ,245.33,4500.00,4500.00,Synchrony,4500.00,,,6034610081572466,79697596,Las Vegas,36 months,,0.00,,,,,,,,0.00,,,,,,,0.00,Glen Yoder,4789523217,10/31/2017 12:00:00 AM,,Synchrony 36 months 0% Apr $4500,FL,,
101268,10/14/2017 12:17:05 PM,Georgia National Fair (10/5-10/15/17),Robert Shih,DWA-9200DWA-9200-BL,Legend 2,Black,1,"3 years parts, 1 year labor (Free)",CreditCard COD,212.62,4000.00,4000.00,,100.00,Square receipt #zbdS,,,,,,COD,,,,,,,,,,,,,,,,0.00,Hui Ning Zhang,4782312010,,,Thank you for your business in GA national fair :),FL,,
101269,10/14/2017 2:07:43 PM,Georgia National Fair (10/5-10/15/17),Robert Shih,DWA-9200DWA-9200-BR,Legend 2,Choco Brown,1,"3 years parts, 1 year labor (Free)",CreditCard Cash,166.82,3500.00,3500.00,CreditCard,100.00,Square receipt #8gup,,,,,,Cash,3400.00,,,,,,,,0.00,,,,,,,0.00,Michael Christmas,6787687043,11/2/2017 12:00:00 AM,,Group order discount .,FL,,
101270,10/14/2017 2:18:20 PM,Georgia National Fair (10/5-10/15/17),Robert Shih,DWA-9200DWA-9200-BR,Legend 2,Choco Brown,1,"3 years parts, 1 year labor (Free)",Synchrony ,212.62,4000.00,4000.00,Synchrony,4000.00,,,6034610081573779,79718035,Las Vegas,36 months,,0.00,,,,,,,,0.00,,,,,,,0.00,Kenyetta Christmas,7047961961,11/2/2017 12:00:00 AM,,"Group order discount 2 / synchrony 36 months 0 %APR $ 4,000 / Need second back pad with chair delivery .",FL,,
101270,10/14/2017 2:18:20 PM,Georgia National Fair (10/5-10/15/17),Robert Shih,,Chair Pad for Legend 2,,1,no warranty,Synchrony ,212.62,4000.00,4000.00,Synchrony,4000.00,,,6034610081573779,79718035,Las Vegas,36 months,,0.00,,,,,,,,0.00,,,,,,,0.00,Kenyetta Christmas,7047961961,11/2/2017 12:00:00 AM,,"Group order discount 2 / synchrony 36 months 0 %APR $ 4,000 / Need second back pad with chair delivery .",FL,,
101271,10/14/2017 2:31:10 PM,Georgia National Fair (10/5-10/15/17),Robert Shih,DWA-9200DWA-9200-BR,Legend 2,Choco Brown,1,"3 years parts, 1 year labor (Free)",Synchrony ,212.62,4000.00,4000.00,Synchrony,4000.00,,,6034610081573712,79717304,Las Vegas,36 months,,0.00,,,,,,,,0.00,,,,,,,0.00,Patricia Ashley,6786400016,11/2/2017 12:00:00 AM,,"Group order discount 3 / Synchrony 36 months 0 % APR $ 4,000 / Second Back pad needed .",FL,,
101287,10/15/2017 12:01:23 PM,Georgia National Fair (10/5-10/15/17),Robert Shih,DWA-9200DWA-9200-BR,Legend 2,Choco Brown,1,"3 years parts, 1 year labor (Free)",CreditCard ,179.91,3500.00,3500.00,CreditCard,3500.00,Square receipt #fdl2,,,,,,,0.00,,,,,,,,0.00,,,,,,,0.00,Linda Cox,4788089115,11/2/2017 12:00:00 AM,,Thank you for your business in GA national fair:) / Please taking good care for this royalty customer:),FL,,
101294,10/15/2017 2:05:30 PM,Georgia National Fair (10/5-10/15/17),Gary Cyrlin,DWA-9100DWA-9100CH,Legacy,Choco Brown,1,"3 years parts, 1 year labor (Free)",Synchrony ,262.50,4762.50,4762.50,Synchrony,4762.50,,,6034610081576046,79753168,Las Vegas,24 months,,0.00,,,,,,,,0.00,,,,,,,0.00,Mitchell Watson,4788623669,10/31/2017 12:00:00 AM,,,FL,,
101304,10/15/2017 2:46:44 PM,Georgia National Fair (10/5-10/15/17),Robert Shih,DWA-9200DWA-9200-BR,Legend 2,Choco Brown,1,"3 years parts, 1 year labor (Free)",CreditCard CreditCard,212.62,4000.00,4000.00,CreditCard,100.00,Square receipt #klh8,,,,,,CreditCard,3900.00,REVS,,,,,,,0.00,,,,,,,0.00,Sherrie Sappington,7705842888,11/2/2017 12:00:00 AM,,Delivery available Tuesday - Saturday .,FL,,
101316,10/15/2017 4:03:45 PM,Georgia National Fair (10/5-10/15/17),Robert Shih,DWA-9200DWA-9200-BR,Legend 2,Choco Brown,1,"3 years parts, 1 year labor (Free)",CreditCard CreditCard,179.91,3500.00,3500.00,CreditCard,100.00,Square receipt #D9f5,,,,,,CreditCard,3400.00,1myu,,,,,,,0.00,,,,,,,0.00,Donald Clem,4789514251,12/11/2017 12:00:00 AM,,"Order on hold about 1 - 2 months / Deposited $100 / COD $3,400",FL,,
101331,10/15/2017 5:49:40 PM,Georgia National Fair (10/5-10/15/17),Robert Shih,DWA-9100DWA-9100BL,Legacy,Black,1,"3 years parts, 1 year labor (Free)",Synchrony ,179.91,3500.00,3500.00,Synchrony,3500.00,,,6034610081576897,79761987,Las Vegas,36 months,,0.00,,,,,,,,0.00,,,,,,,0.00,Ciaig Smith,7066042176,11/3/2017 12:00:00 AM,,Synchrony 36 months 0 % APR /,FL,,
101333,10/15/2017 6:27:01 PM,Georgia National Fair (10/5-10/15/17),Robert Shih,DWA-9200DWA-9200-BR,Legend 2,Choco Brown,1,"3 years parts, 1 year labor (Free)",Synchrony ,245.33,4500.00,4500.00,Synchrony,4500.00,,,6034610081574868,79733155,Las Vegas,36 months,,0.00,,,,,,,,0.00,,,,,,,0.00,Diana Glover,2294073078,10/30/2017 12:00:00 AM,,,FL,,
