﻿Original Event Name,Event Name,Sales Person,Order Number,Order Date,Customer Name,State,Zip,Product Name,Color,Product Status,QTY,Tax,Total Before Tax,Order Total,Primary Payment Method,Second Payment Method,Thirdl Payment Method,Warranty,Order Items,Pick up,Delivered On,Order Status,Chair Type,Order Notes,Private Note,Branch,No Tax,Actual Tax Rate,SKU,Primary Payment Balance,Primary Authorize Number,Primary Purchase Order Number,Primary Synchrony Account Number,Primary Synchrony Application Key,Primary Synchrony Account Info,Primary Synchrony Term,Second Payment Balance,Second Authorize Number,Second Purchase Order Number,Second Synchrony Account Number,Second Synchrony Application Key,Second Synchrony Account Info,Second SynchronyTerm,Third Payment Balance,Third Authorize Number,Third Purchase Order Number,Third Synchrony Account Number,Third Synchrony Application Key,Third Synchrony Account Info,Third Synchrony Term
Sam's Club #8177 Las Vegas 9/6-16/18 (NV),Sam's Club #8177 Las Vegas 9/6-16/18 (NV),Kohei Uno,109132,9/7/2018 4:18:19 PM,US Jaclean Inc,CA,90249,Vitality Plate for Sam's,Demo,Demo,1,42.07,509.98,552.05,PurchaseOrder,,,"2 years parts, 1 year labor for Small Items","Vitality Plate for Sam's,Foot Vibe Pro,",YES,,Delivered,,,,CA,0,8.25,USJ-849USJ-849-DEMO,552.06,,TC# 4557 4974 7725 0140 5417 9,,,,,0.00,,,,,,,0.00,,,,,,
Sam's Club #8177 Las Vegas 9/6-16/18 (NV),Sam's Club #8177 Las Vegas 9/6-16/18 (NV),Kohei Uno,109132,9/7/2018 4:18:19 PM,US Jaclean Inc,CA,90249,Foot Vibe Pro,,New,1,42.07,509.98,552.05,PurchaseOrder,,,"2 years parts, 1 year labor for Small Items","Vitality Plate for Sam's,Foot Vibe Pro,",YES,,Delivered,,,,CA,0,8.25,USJ-871,552.06,,TC# 4557 4974 7725 0140 5417 9,,,,,0.00,,,,,,,0.00,,,,,,
Sam's Club #8177 Las Vegas 9/6-16/18 (NV),Sam's Club #8177 Las Vegas 9/6-16/18 (NV),Kohei Uno,109146,9/8/2018 1:58:03 PM,US Jaclean Inc,CA,90249,Vitality Plate for Sam's,New,New,1,37.95,459.99,497.94,PurchaseOrder,,,"2 years parts, 1 year labor for Small Items","Vitality Plate for Sam's,",YES,,Delivered,,,,CA,0,8.25,USJ-849USJ-849,497.94,,TC# 7618 7773 2982 21311793 27,,,,,0.00,,,,,,,0.00,,,,,,
Sam's Club #8177 Las Vegas 9/6-16/18 (NV),Sam's Club #8177 Las Vegas 9/6-16/18 (NV),Kohei Uno,109147,9/8/2018 3:06:27 PM,US Jaclean Inc,CA,90249,Foot Vibe Pro,,New,1,9.07,109.99,119.06,PurchaseOrder,,,"2 years parts, 1 year labor for Small Items","Foot Vibe Pro,",YES,,Delivered,,,,CA,0,8.25,USJ-871,119.06,,TC#: 9697 9914 8725 0120 5413 9,,,,,0.00,,,,,,,0.00,,,,,,
Sam's Club #8177 Las Vegas 9/6-16/18 (NV),Sam's Club #8177 Las Vegas 9/6-16/18 (NV),Kohei Uno,109235,9/10/2018 11:54:40 AM,US Jaclean Inc,CA,90249,Foot Vibe Pro,,New,1,9.07,109.99,119.06,PurchaseOrder,,,"2 years parts, 1 year labor for Small Items","Foot Vibe Pro,",YES,,Delivered,,,,CA,0,8.25,USJ-871,119.06,,TC# 8168 7782 1887 1381 1937 7,,,,,0.00,,,,,,,0.00,,,,,,
Sam's Club #8177 Las Vegas 9/6-16/18 (NV),Sam's Club #8177 Las Vegas 9/6-16/18 (NV),Kohei Uno,109278,9/11/2018 1:09:07 PM,Enrique Hernandez,NV,89110,Relax 2 Zero 2.0 for Sam's,Demo Black,Demo,1,263.92,3199.00,3462.92,PurchaseOrder,,,"3 years parts, 1 year labor (Free)","Relax 2 Zero 2.0 for Sam's,",No,9/18/2018 12:00:00 AM,Delivered,,,"9/14Maritza- Courtesy email sent + text @ 3:42PM
Delivered by Rex and Kohei 9/18/18
Customer received a Brown Demo chair instead of a black demo chair. No black demo chair left at the LV Branch warehouse.",NV,0,8.25,USJ-9050USJ-9050BL-DEMO,3462.92,,TC# 0951 1144 3320 6975 9097 94,,,,,0.00,,,,,,,0.00,,,,,,
Sam's Club #8177 Las Vegas 9/6-16/18 (NV),Sam's Club #8177 Las Vegas 9/6-16/18 (NV),Kohei Uno,109279,9/11/2018 1:12:59 PM,US Jaclean Inc,CA,90249,Foot Vibe Pro,,New,1,42.07,509.98,552.05,PurchaseOrder,,,"2 years parts, 1 year labor for Small Items","Foot Vibe Pro,Vitality Plate for Sam's,",YES,,Delivered,,,,CA,0,8.25,USJ-871,552.05,,TC# 3601 3473 7246 9739 6272 4,,,,,0.00,,,,,,,0.00,,,,,,
Sam's Club #8177 Las Vegas 9/6-16/18 (NV),Sam's Club #8177 Las Vegas 9/6-16/18 (NV),Kohei Uno,109279,9/11/2018 1:12:59 PM,US Jaclean Inc,CA,90249,Vitality Plate for Sam's,Demo,Demo,1,42.07,509.98,552.05,PurchaseOrder,,,"2 years parts, 1 year labor for Small Items","Foot Vibe Pro,Vitality Plate for Sam's,",YES,,Delivered,,,,CA,0,8.25,USJ-849USJ-849-DEMO,552.05,,TC# 3601 3473 7246 9739 6272 4,,,,,0.00,,,,,,,0.00,,,,,,
Sam's Club #8177 Las Vegas 9/6-16/18 (NV),Sam's Club #8177 Las Vegas 9/6-16/18 (NV),Kohei Uno,109281,9/11/2018 1:55:31 PM,US Jaclean Inc,CA,90249,Foot Vibe Pro,,New,1,9.07,109.99,119.06,PurchaseOrder,,,"2 years parts, 1 year labor for Small Items","Foot Vibe Pro,",YES,,Delivered,,,,CA,0,8.25,USJ-871,119.06,,TC# 1094 1197 7350 6486 0642 1,,,,,0.00,,,,,,,0.00,,,,,,
Sam's Club #8177 Las Vegas 9/6-16/18 (NV),Sam's Club #8177 Las Vegas 9/6-16/18 (NV),Kohei Uno,109298,9/11/2018 8:00:11 PM,Aniljit Mroque,NV,89110,Legacy for Sam's,Demo Black,Demo,1,296.92,3599.00,3895.92,PurchaseOrder,,,"3 years parts, 1 year labor (Free)","Legacy for Sam's,",No,9/18/2018 12:00:00 AM,Delivered,,2nd Floor Delivery,"9/14Maritza Courtesy email + text sent @ 3:56PM
Delivered by Rex and Kohei 9/18/18",NV,0,8.25,DWA-9100DWA-9100BL-DEMO,3895.92,,TC# 4189 2687 0860 7352 3995 58,,,,,0.00,,,,,,,0.00,,,,,,
Sam's Club #8177 Las Vegas 9/6-16/18 (NV),Sam's Club #8177 Las Vegas 9/6-16/18 (NV),Kohei Uno,109328,9/13/2018 11:47:47 AM,US Jaclean Inc,CA,90249,Foot Vibe Pro,,New,1,9.07,109.99,119.06,PurchaseOrder,,,"2 years parts, 1 year labor for Small Items","Foot Vibe Pro,",YES,,Delivered,,,,CA,0,8.25,USJ-871,119.06,,TC# 3674 4107 3330 6436 4343 1,,,,,0.00,,,,,,,0.00,,,,,,
Sam's Club #8177 Las Vegas 9/6-16/18 (NV),Sam's Club #8177 Las Vegas 9/6-16/18 (NV),Kohei Uno,109335,9/13/2018 12:36:27 PM,US Jaclean Inc,CA,90249,Foot Vibe Pro,,New,1,42.07,509.98,552.05,PurchaseOrder,,,"2 years parts, 1 year labor for Small Items","Foot Vibe Pro,Vitality Plate for Sam's,",YES,,Delivered,,,,CA,0,8.25,USJ-871,552.05,,TC# 3451 5433 2226 9749 1274 4,,,,,0.00,,,,,,,0.00,,,,,,
Sam's Club #8177 Las Vegas 9/6-16/18 (NV),Sam's Club #8177 Las Vegas 9/6-16/18 (NV),Kohei Uno,109335,9/13/2018 12:36:27 PM,US Jaclean Inc,CA,90249,Vitality Plate for Sam's,Demo,Demo,1,42.07,509.98,552.05,PurchaseOrder,,,"2 years parts, 1 year labor (Free)","Foot Vibe Pro,Vitality Plate for Sam's,",YES,,Delivered,,,,CA,0,8.25,USJ-849USJ-849-DEMO,552.05,,TC# 3451 5433 2226 9749 1274 4,,,,,0.00,,,,,,,0.00,,,,,,
Sam's Club #8177 Las Vegas 9/6-16/18 (NV),Sam's Club #8177 Las Vegas 9/6-16/18 (NV),Kohei Uno,109336,9/13/2018 12:38:27 PM,US Jaclean Inc,CA,90249,Vitality Plate for Sam's,New,New,1,37.95,459.99,497.94,PurchaseOrder,,,"2 years parts, 1 year labor for Small Items","Vitality Plate for Sam's,",YES,,Delivered,,,,CA,0,8.25,USJ-849USJ-849,497.94,,TC# 8265 5398 3571 4244 0427 3,,,,,0.00,,,,,,,0.00,,,,,,
Sam's Club #8177 Las Vegas 9/6-16/18 (NV),Sam's Club #8177 Las Vegas 9/6-16/18 (NV),Kohei Uno,109340,9/13/2018 4:01:20 PM,US Jaclean Inc,CA,90249,Foot Vibe Pro,,New,1,9.07,109.99,119.06,PurchaseOrder,,,"2 years parts, 1 year labor for Small Items","Foot Vibe Pro,",YES,,Delivered,,,,CA,0,8.25,USJ-871,119.06,,TC# 4051 4493 9216 9759 6178 4,,,,,0.00,,,,,,,0.00,,,,,,
Sam's Club #8177 Las Vegas 9/6-16/18 (NV),Sam's Club #8177 Las Vegas 9/6-16/18 (NV),Kohei Uno,109363,9/14/2018 5:43:22 PM,US Jaclean Inc,CA,90249,Vitality Plate for Sam's,New,New,1,37.95,459.99,497.94,PurchaseOrder,,,"2 years parts, 1 year labor for Small Items","Vitality Plate for Sam's,",YES,,Delivered,,,,CA,0,8.25,USJ-849USJ-849,497.94,,TC# 2839 9800 9667 3523 9553 8,,,,,0.00,,,,,,,0.00,,,,,,
Sam's Club #8177 Las Vegas 9/6-16/18 (NV),Sam's Club #8177 Las Vegas 9/6-16/18 (NV),Kohei Uno,109382,9/15/2018 12:11:52 PM,US Jaclean Inc,CA,90249,Foot Vibe Pro,,New,1,9.07,109.99,119.06,PurchaseOrder,,,"2 years parts, 1 year labor for Small Items","Foot Vibe Pro,",YES,,Delivered,,,,CA,0,8.25,USJ-871,119.06,,TC# 7338 6732 7869 1351 5334 7,,,,,0.00,,,,,,,0.00,,,,,,
Sam's Club #8177 Las Vegas 9/6-16/18 (NV),Sam's Club #8177 Las Vegas 9/6-16/18 (NV),Kohei Uno,109391,9/15/2018 4:29:53 PM,Jose Garcia,NV,89121,Relax 2 Zero 2.0 for Sam's,Demo Black,Demo,1,263.92,3199.00,3462.92,PurchaseOrder,,,"3 years parts, 1 year labor (Free)","Relax 2 Zero 2.0 for Sam's,",No,9/18/2018 12:00:00 AM,Delivered,,,"9/17Maritza Courtesy email + text sent @ 10:04AM
9/18Kohei: Color changed to Choco brown. Still Demo Chair.
Delivered by Rex and Kohei 9/18/18",NV,0,8.25,USJ-9050USJ-9050BL-DEMO,3462.92,,TC# 6418 3077 2782 9138 1563 87,,,,,0.00,,,,,,,0.00,,,,,,
Sam's Club #8177 Las Vegas 9/6-16/18 (NV),Sam's Club #8177 Las Vegas 9/6-16/18 (NV),Kohei Uno,109398,9/15/2018 6:45:23 PM,US Jaclean Inc,CA,90249,Foot Vibe Pro,,New,1,9.07,109.99,119.06,PurchaseOrder,,,"2 years parts, 1 year labor for Small Items","Foot Vibe Pro,",YES,,Delivered,,,,CA,0,8.25,USJ-871,119.06,,TC# 1144 1157 6390 6486 0642 1,,,,,0.00,,,,,,,0.00,,,,,,
