﻿Original Event Name,Event Name,Sales Person,Order Number,Order Date,Customer Name,State,Zip,Product Name,Color,Product Status,QTY,Tax,Total Before Tax,Order Total,Primary Payment Method,Second Payment Method,Thirdl Payment Method,Warranty,Order Items,Pick up,Delivered On,Order Status,Chair Type,Order Notes,Private Note,Branch,No Tax,Actual Tax Rate,SKU,Primary Payment Balance,Primary Authorize Number,Primary Purchase Order Number,Primary Synchrony Account Number,Primary Synchrony Application Key,Primary Synchrony Account Info,Primary Synchrony Term,Second Payment Balance,Second Authorize Number,Second Purchase Order Number,Second Synchrony Account Number,Second Synchrony Application Key,Second Synchrony Account Info,Second SynchronyTerm,Third Payment Balance,Third Authorize Number,Third Purchase Order Number,Third Synchrony Account Number,Third Synchrony Application Key,Third Synchrony Account Info,Third Synchrony Term
Maricopa County Home Show 3/2-3/4/18 (LV),Maricopa County Home Show 3/2-3/4/18 (LV),Li Chen,104113,3/4/2018 10:29:30 AM,Jonathan Levin,AZ,85383,Relax2Zero 3D,New Black,New,1,304.90,4295.31,4600.21,Synchrony,,,"3 years parts, 1 year labor (Free)","Relax2Zero 3D,",No,3/14/2018 12:00:00 AM,Delivered,,Sold for 4600,"confirmed Synchrony form and the account ($6,500) ***Please charge before delivery. ***3/6/18 Hitomi",CA,0,8.60,DWA-9060USJ-9060BL,0.00,,,6034610083136070,85776772,Las Vegas,36 months,0.00,,,,,,,0.00,,,,,,
Maricopa County Home Show 3/2-3/4/18 (LV),Maricopa County Home Show 3/2-3/4/18 (LV),Ilene Maynard,104147,3/4/2018 11:04:28 PM,Robert Ruttle,AZ,85345,Legacy,Demo Choco,Demo,1,0.00,3200.00,3200.00,CreditCard,,,"3 years parts, 1 year labor (Free)","Legacy,",No,3/4/2018 12:00:00 AM,Cancelled,,,"confirmed $3,200 in Square. 3/5/18 Hitomi
CA will pick up the returning chair, and collect the restocking fee. 3/13/18 Riho",CA,1,8.60,DWA-9100DWA-9100BU-DEMO,3200.00,#2GzK,,,,,,0.00,,,,,,,0.00,,,,,,
Maricopa County Home Show 3/2-3/4/18 (LV),Maricopa County Home Show 3/2-3/4/18 (LV),Abagail Stirling,104149,3/4/2018 11:09:33 PM,Tim Millette,AZ,85351,Legacy,Demo Black,Demo,1,0.00,2500.00,2500.00,CreditCard,,,"3 years parts, 1 year labor (Free)","Legacy,",No,3/4/2018 12:00:00 AM,Delivered,,,"S/N 0201001170434
confirmed $2,500 in Square. 3/5/18 Hitomi",CA,1,8.60,DWA-9100DWA-9100BL-DEMO,2500.00,#AK1G,,,,,,0.00,,,,,,,0.00,,,,,,
Maricopa County Home Show 3/2-3/4/18 (LV),Maricopa County Home Show 3/2-3/4/18 (LV),Joseph Chan,104150,3/4/2018 11:15:51 PM,Loran Wilcox,AZ,85248,Pegasus,New Choco,New,1,0.00,4800.00,4800.00,Synchrony,,,"3 years parts, 1 year labor (Free)","Pegasus,",No,3/13/2018 12:00:00 AM,Delivered,,,"confirmed Synchrony form and the account ($8,500).***Please charge before delivery.***3/7/18 Hitomi",CA,1,8.60,DWA-9400Pegasus-BR,4800.00,,,6034610083137391,85799331,Las Vegas,48 months,0.00,,,,,,,0.00,,,,,,
Maricopa County Home Show 3/2-3/4/18 (LV),Maricopa County Home Show 3/2-3/4/18 (LV),Ilene Maynard,104152,3/4/2018 11:21:01 PM,Mary Walczak,AZ,85040,Legacy,New Black,New,1,0.00,4000.00,4000.00,Synchrony,,,"3 years parts, 1 year labor (Free)","Legacy,",No,3/13/2018 12:00:00 AM,Delivered,,,"confirmed Synchrony form and the account ($8,500). **Please charge before delivery.**3/6/18 Hitomi",CA,1,8.60,DWA-9100DWA-9100BL,4000.00,,,6034610083134430,85756765,Las Vegas,36 months,0.00,,,,,,,0.00,,,,,,
Maricopa County Home Show 3/2-3/4/18 (LV),Maricopa County Home Show 3/2-3/4/18 (LV),Joseph Chan,104153,3/4/2018 11:24:27 PM,Chi Wan,AZ,85015,Legacy,New Black,New,1,0.00,4000.00,4000.00,CreditCard,,,"3 years parts, 1 year labor (Free)","Legacy,",No,3/13/2018 12:00:00 AM,Delivered,,,"Please add Chinese Owner Manual
confirmed $4,000 in Square. 3/5/18 Hitomi",CA,1,8.60,DWA-9100DWA-9100BL,4000.00,#AkyU,,,,,,0.00,,,,,,,0.00,,,,,,
Maricopa County Home Show 3/2-3/4/18 (LV),Maricopa County Home Show 3/2-3/4/18 (LV),Abagail Stirling,104154,3/4/2018 11:28:37 PM,Linda Sellers,AZ,85395,Legacy,New Choco,New,1,0.00,4000.00,4000.00,CreditCard,,,"3 years parts, 1 year labor (Free)","Legacy,",No,3/19/2018 12:00:00 AM,Delivered,,,"confirmed $4,000 in Square. 3/5/18 Hitomi",CA,1,8.60,DWA-9100DWA-9100BU,4000.00,#ibig,,,,,,0.00,,,,,,,0.00,,,,,,
Maricopa County Home Show 3/2-3/4/18 (LV),Maricopa County Home Show 3/2-3/4/18 (LV),Abagail Stirling,104155,3/4/2018 11:33:20 PM,Varsha Shetty,AZ,85225,Legacy,Demo Sienna,Demo,1,0.00,3000.00,3000.00,CreditCard,,,"3 years parts, 1 year labor (Free)","Legacy,",YES,3/4/2018 12:00:00 AM,Delivered,,,"confirmed $3,000 in Square. 3/5/18 Hitomi",CA,1,8.60,DWA-9100DWA-9100SI-DEMO,3000.00,#hWQw,,,,,,0.00,,,,,,,0.00,,,,,,
Maricopa County Home Show 3/2-3/4/18 (LV),Maricopa County Home Show 3/2-3/4/18 (LV),Joseph Chan,104157,3/4/2018 11:39:25 PM,Richard Fischer,AZ,85353,Legacy,New Choco,New,1,0.00,4000.00,4000.00,CreditCard,,,"3 years parts, 1 year labor (Free)","Legacy,",No,3/19/2018 12:00:00 AM,Delivered,,,"confirmed $4,000 in Square. 3/5/18 Hitomi",CA,1,8.60,DWA-9100DWA-9100BU,4000.00,#4LnT,,,,,,0.00,,,,,,,0.00,,,,,,
Maricopa County Home Show 3/2-3/4/18 (LV),Maricopa County Home Show 3/2-3/4/18 (LV),Joseph Chan,104158,3/4/2018 11:43:56 PM,Robn Schraeder,AZ,85326,Legacy,New Choco,New,1,0.00,4000.00,4000.00,CreditCard,,,"3 years parts, 1 year labor (Free)","Legacy,",No,3/19/2018 12:00:00 AM,Delivered,,,"confirmed $4,000 in Square. 3/5/18 Hitomi",CA,1,8.60,DWA-9100DWA-9100BU,4000.00,#2qmR,,,,,,0.00,,,,,,,0.00,,,,,,
Maricopa County Home Show 3/2-3/4/18 (LV),Maricopa County Home Show 3/2-3/4/18 (LV),Abagail Stirling,104159,3/4/2018 11:48:05 PM,Janet Roger,AZ,85262,Legacy,New Sienna,New,1,0.00,3900.00,3900.00,CreditCard,,,"3 years parts, 1 year labor (Free)","Legacy,",No,,Cancelled,,,"confirmed $3,900 in Square. 3/5/18 Hitomi
03/08/18-Cristina- Refunded customer called x4 to try to cancel.",CA,1,8.60,DWA-9100DWA-9100SI,3900.00,#Us21,,,,,,0.00,,,,,,,0.00,,,,,,
Maricopa County Home Show 3/2-3/4/18 (LV),Maricopa County Home Show 3/2-3/4/18 (LV),Abagail Stirling,104160,3/4/2018 11:51:59 PM,Ed Pinch,AZ,85374,Legacy,New Black,New,1,0.00,4100.00,4100.00,CreditCard,,,"3 years parts, 1 year labor (Free)","Legacy,",No,3/13/2018 12:00:00 AM,Cancelled,,,"confirmed $4,100 in Square. 3/5/18 Hitomi
Choco brown. 03/06/18- Cristina
printed",CA,1,8.60,DWA-9100DWA-9100BL,4100.00,#bWyC,,,,,,0.00,,,,,,,0.00,,,,,,
Maricopa County Home Show 3/2-3/4/18 (LV),Maricopa County Home Show 3/2-3/4/18 (LV),Abagail Stirling,104161,3/4/2018 11:55:52 PM,Rich Callaghan,AZ,85382,Legacy,New Black,New,1,0.00,4200.00,4200.00,Synchrony,,,"3 years parts, 1 year labor (Free)","Legacy,",No,3/14/2018 12:00:00 AM,Delivered,,,"confirmed Synchrony form and the account under CALLAGHAN, KARE	($8,500).**PLease charge before delivery.**3/6/18 Hitomi",CA,1,8.60,DWA-9100DWA-9100BL,4200.00,,,6034610083131758,85703270,Las Vegas,36 months,0.00,,,,,,,0.00,,,,,,
Maricopa County Home Show 3/2-3/4/18 (LV),Maricopa County Home Show 3/2-3/4/18 (LV),Abagail Stirling,104162,3/4/2018 11:59:37 PM,Brian Coble,AZ,85308,Pegasus,New Choco,New,1,0.00,5200.00,5200.00,Synchrony,,,"3 years parts, 1 year labor (Free)","Pegasus,",No,3/14/2018 12:00:00 AM,Delivered,,,"confirmed Synchrony form and the account under COBLE, BRIAN ($8,500) ***Please charge before delivery.***3/6/18 Hitomi",CA,1,8.60,DWA-9400Pegasus-BR,5200.00,,,6034610083134216,85754199,Las Vegas,36 months,0.00,,,,,,,0.00,,,,,,
Maricopa County Home Show 3/2-3/4/18 (LV),Maricopa County Home Show 3/2-3/4/18 (LV),Christoper Richard Williams,104246,3/6/2018 1:43:54 PM,Kathleen Vanesian,AZ,85022,Relax2Zero 3D,New Choco,New,1,0.00,4400.00,4400.00,CreditCard,,,"3 years parts, 1 year labor (Free)","Relax2Zero 3D,",No,3/14/2018 12:00:00 AM,Delivered,,,"confirmed $4,400 in Square.  3/6/18 Hitomi",CA,1,8.60,DWA-9060USJ-9060BR,4400.00,pJex,,,,,,0.00,,,,,,,0.00,,,,,,
Maricopa County Home Show 3/2-3/4/18 (LV),Maricopa County Home Show 3/2-3/4/18 (LV),Harmony Daiwa,104247,3/6/2018 1:57:02 PM,Shaweta Vasudeva,AZ,85282,Relax2Zero 1.0,New Black,New,1,0.00,3300.00,3300.00,Synchrony,,,"3 years parts, 1 year labor (Free)","Relax2Zero 1.0,",No,3/29/2018 12:00:00 AM,Delivered,,,"Key#85806246
acct. #6034610083137995 
She asked if it can be delivered before March 23rd. I meant to say demo..but I said new..so I had to grant it New for her.
Confirmed Synchrony form and the account ($8,500)***Please charge before delivery.***3/6/18 Hitomi
3/22 Printed -Maritza",CA,1,8.60,USJ-9000USJ-9000KU,3300.00,,,6034610083137995,85806246,Las Vegas,36 months,0.00,,,,,,,0.00,,,,,,
Maricopa County Home Show 3/2-3/4/18 (LV),Maricopa County Home Show 3/2-3/4/18 (LV),Christoper Richard Williams,104248,3/6/2018 2:15:37 PM,Dana Service,AZ,85087,Relax2Zero 3D,Demo Black,Demo,1,0.00,3600.00,3600.00,CreditCard,,,"3 years parts, 1 year labor (Free)","Relax2Zero 3D,",No,3/3/2018 12:00:00 AM,Delivered,,,"#010300117026 it has been delivered already.
confirmed $3,600 in Square. received confirmation. 3/6/18 Hitomi",CA,1,8.60,DWA-9060USJ-9060BL-DEMO,3600.00,4iJo,,,,,,0.00,,,,,,,0.00,,,,,,
Maricopa County Home Show 3/2-3/4/18 (LV),Maricopa County Home Show 3/2-3/4/18 (LV),Harmony Daiwa,104249,3/6/2018 2:23:39 PM,Larry Branchick,MI,48064,Relax2Zero 3D,New Choco,New,1,0.00,4800.00,4800.00,CreditCard,,,"3 years parts, 1 year labor (Free)","Relax2Zero 3D,",No,5/9/2018 12:00:00 AM,Delivered,,,"Please call to schedule delivery.
confirmed $4,800 in Square. 3/6/18 Hitomi
Hold until May 9th. June",TX,1,8.60,DWA-9060USJ-9060BR,4800.00,Qq4i,,,,,,0.00,,,,,,,0.00,,,,,,
Maricopa County Home Show 3/2-3/4/18 (LV),Maricopa County Home Show 3/2-3/4/18 (LV),Christoper Richard Williams,104250,3/6/2018 2:38:40 PM,Minh Hang Thi Nqeyen,AZ,85225,Relax2Zero 1.0,New Black,New,1,0.00,3500.00,3500.00,Synchrony,,,"3 years parts, 1 year labor (Free)","Relax2Zero 1.0,",No,3/20/2018 12:00:00 AM,Delivered,,,"confirmed Synchrony form and the account ($6,500) **Please charge before delivery.** 3/6/18 Hitomi
03/20/18 Authorization # 020643",CA,1,8.60,USJ-9000USJ-9000KU,3500.00,,,6034610083135312,85766248,Las Vegas,36 months,0.00,,,,,,,0.00,,,,,,
Maricopa County Home Show 3/2-3/4/18 (LV),Maricopa County Home Show 3/2-3/4/18 (LV),Christoper Richard Williams,104251,3/6/2018 2:46:30 PM,Mahmoud Mohammed,CA,85323,Relax2Zero 1.0,New Black,New,1,0.00,3500.00,3500.00,Synchrony,,,"3 years parts, 1 year labor (Free)","Relax2Zero 1.0,",No,3/4/2018 12:00:00 AM,Delivered,,,"Picked up #96160419
Confirmed Synchrony form and the account ($6,000).3/7/18 Hitomi",CA,1,8.60,USJ-9000USJ-9000KU,3500.00,,,6034610083137128,85796529,Las Vegas,36 months,0.00,,,,,,,0.00,,,,,,
Maricopa County Home Show 3/2-3/4/18 (LV),Maricopa County Home Show 3/2-3/4/18 (LV),Li Chen,104274,3/8/2018 1:58:24 PM,Justin Hagger,AZ,85383,Relax2Zero 3D,Demo Black,Demo,1,0.00,3900.00,3900.00,CreditCard,,,"3 years parts, 1 year labor (Free)","Relax2Zero 3D,",No,3/21/2018 12:00:00 AM,Delivered,,,"confirmed $3,900 in Square. 3/8/18 Hitomi",CA,1,8.60,DWA-9060USJ-9060BL-DEMO,3900.00,mhT4,,,,,,0.00,,,,,,,0.00,,,,,,
Maricopa County Home Show 3/2-3/4/18 (LV),Maricopa County Home Show 3/2-3/4/18 (LV),Harmony Daiwa,104275,3/8/2018 2:02:24 PM,Cheryl James,AZ,85045,Relax2Zero 3D,Demo Black,Demo,1,0.00,4000.00,4000.00,Synchrony,,,"3 years parts, 1 year labor (Free)","Relax2Zero 3D,",No,3/20/2018 12:00:00 AM,Delivered,,,"Confirmed Synchrony form and the account ($8,500)***Please charge before delivery***

**3/22-Maritza Serial Number:0103001170106

3/22-Maritza *left arm latch is stuck and drivers could not crew on the back screw. Contacted Hide via email.
4/2 Maritza- redispated to CA",CA,1,8.60,DWA-9060USJ-9060BL-DEMO,4000.00,,,6034610083134042,85751256,Las Vegas,36 months,0.00,,,,,,,0.00,,,,,,
Maricopa County Home Show 3/2-3/4/18 (LV),Maricopa County Home Show 3/2-3/4/18 (LV),Li Chen,104277,3/8/2018 2:05:55 PM,Juli Liltou,AZ,85283,Relax2Zero 3D,Demo Choco,Demo,1,0.00,3900.00,3900.00,Synchrony,,,"3 years parts, 1 year labor (Free)","Relax2Zero 3D,",No,3/20/2018 12:00:00 AM,Delivered,,,"Confirmed Synchrony form and the account ($6,000) **Please charge before delivery.**3/8/18 Hitomi",CA,1,8.60,DWA-9060USJ-9060BR-DEMO,3900.00,,,6034610083138100,85808295,Las Vegas,36 months,0.00,,,,,,,0.00,,,,,,
