﻿Date,Customer Name,State,Zipcode,Description,Product Number,Color,Product Status,Net,Shipping Fee,Gift Price,Financing Processing Fee,Order Total,Total Before Tax,Tax,Commission,Primary Payment Method,Primary Payment Balance,Primary Authorize Number,Primary Purchase Order Number,Primary Synchrony Account Number,Primary Synchrony Application Key,Primary Synchrony Account Info,Primary Synchrony Term,Primary Synchrony Primary ID,Primary Synchrony Issued State,Primary Synchrony Expiretion Date,Second Payment Method,Second Payment Balance,Second Authorize Number,Second Purchase Order Number,Second Synchrony Account Number,Second Synchrony Application Key,Second Synchrony Account Info,Second Synchrony Term,Second Synchrony Primary ID,Second Synchrony Issued State,Second Synchrony Expiretion Date,Third Payment Method,Third Payment Balance,Third Authorize Number,Third Purchase Order Number,Third Synchrony Account Number,Third Synchrony Application Key,Third Synchrony Account Info,Third Synchrony Term,Third Synchrony Primary ID,Third Synchrony Issued State,Third Synchrony Expiretion Date,Delivery Date,Pick up,Warranty,Status,Chair Type,Original Event Name,Event Name,Synchrony Notes,Order Notes,Order Number,Private Note,Branch,No Tax,Actual Tax Rate
9/10/2018 9:39:48 AM,Dawn Kalish,KS,67502,Legacy 3D,DWA-9150USJ-9150CH,New Choco,New,,,,,3900.00,3900.00,0.00,Mario Higareda,Synchrony,3900.00,,,6019170813131445,94190777,Huston,48 months,,,,,0.00,,,,,,,,,,,0.00,,,,,,,,,,9/28/2018 12:00:00 AM,No,"5 years parts, 1 year labor (Free)",Delivered,,KANSAS STATE FAIR 9/6-9/16/2018 (TX),KANSAS STATE FAIR 9/6-9/16/2018 (TX),"Authorization Code 
019580
charged by Tina  9/19/2018",Special Price (2 Chairs),109224,"Confirmed synchrony account (3,900) and original.***Please charge $3,900 before delivery and have sales draft signed.*** 9/11/18 Hitomi
9/11Maritza Courtesy text @ 11AM",TX,1,9.10
9/10/2018 9:52:34 AM,Jeff Rehlander,KS,67502,Legacy 3D,DWA-9150USJ-9150CH,New Choco,New,,,,,3900.00,3900.00,0.00,Mario Higareda,Synchrony,3900.00,,,6019170813131478,94190850,Huston,48 months,,,,,0.00,,,,,,,,,,,0.00,,,,,,,,,,9/28/2018 12:00:00 AM,No,"5 years parts, 1 year labor (Free)",Delivered,,KANSAS STATE FAIR 9/6-9/16/2018 (TX),KANSAS STATE FAIR 9/6-9/16/2018 (TX),"Authorization Code 
019771
charged by Tina 9/19/2018",,109225,"COnfirmed synchrony account ($8,500) and original. ***Please charge $3,900 before delivery and have sales draft signed. *** 9/11/18 Hitomi
9/11Maritza Courtesy text @ 11:02AM
10/2 Delivery confirmation received. Sales draft has fathers signature. We need account holders signature.
12/6Maritza- Replacement confirmation received New Serial # 0202002170865 Delivered 11/27/18",TX,1,9.10
9/10/2018 9:58:56 AM,Sharon Lakey,KS,67219,Orbit,ORBT-1ORBT-1BL,New Black,New,,,,,3000.00,3000.00,0.00,Mario Higareda,Synchrony,2000.00,,,6019170813131718,94197757,Huston,36 months,,,,Check,1000.00,,,,,,,,,,,0.00,,,,,,,,,,9/26/2018 12:00:00 AM,No,"5 years parts, 1 year labor (Free)",Delivered,,KANSAS STATE FAIR 9/6-9/16/2018 (TX),KANSAS STATE FAIR 9/6-9/16/2018 (TX),"Authorization Code 
019311
charged  by Tina 9/19/2018","COD $1,000",109226,"Confirmed synchrony account ($2,000) and original.***Please charge $2,000 before delivery and have sales draft signed. COD $1,000*** 9/11/18 Hitomi
9/11Maritza Courtesy text @ 11:05AM
9/26 Received cashiers check for remaining cod $1000
10/3 Yumi confirmed $1,000 cashiers check, signed paper.- Hitomi",TX,1,9.10
9/10/2018 10:04:37 AM,Fred Flanigan,KS,67005,Legacy 3D,DWA-9150USJ-9150CH-DEMO,Demo Choco,Demo,,,,,3900.00,3900.00,0.00,Mario Higareda,Synchrony,3900.00,,,6019170813132906,94215691,Huston,36 months,,,,,0.00,,,,,,,,,,,0.00,,,,,,,,,,9/26/2018 12:00:00 AM,No,"5 years parts, 1 year labor (Free)",Delivered,,KANSAS STATE FAIR 9/6-9/16/2018 (TX),KANSAS STATE FAIR 9/6-9/16/2018 (TX),Auth: 019656 Charged by Tina 9/19/2018,,109227,"COnfirmed synchrony account ($5,000) and original.***Please charge $3,900 before delivery and have sales draft signed.***9/11/18 Hitomi
09/11/18 Courtesy call completed- 12:56 pm- Cristina",TX,1,9.10
9/10/2018 10:11:25 AM,Larry D. Chartier,KS,67028,Orbit,ORBT-1ORBT-1CH,New Choco,New,,,,,3744.80,3495.00,249.80,Mario Higareda,Synchrony,3745.00,,,6019170813133193,94220007,Huston,48 months,,,,,0.00,,,,,,,,,,,0.00,,,,,,,,,,9/27/2018 12:00:00 AM,No,"5 years parts, 1 year labor (Free)",Delivered,,KANSAS STATE FAIR 9/6-9/16/2018 (TX),KANSAS STATE FAIR 9/6-9/16/2018 (TX),Auth:018633 charged by Tina 9/19/2018,,109228,"TOTAL AMOUNT IS $3,745// Confirmed synchrony account ($3,800) and original.  ***Please charge $3,745 before delivery and have sale draft signed. ***9/11/18  Hitomi
9/11Maritza Courtesy text @ 11:08AM",TX,0,9.10
9/11/2018 2:52:28 PM,Wes Koortz,KS,67502,Legacy 3D,DWA-9150USJ-9150CH,New Choco,New,,,,,5242.74,4868.00,374.74,Mario Higareda,CreditCard,500.00,gZpu,,,,,,,,,CreditCard,4743.00,#Bcap,,,,,,,,,,0.00,,,,,,,,,,9/28/2018 12:00:00 AM,No,"5 years parts, 1 year labor (Free)",Delivered,,KANSAS STATE FAIR 9/6-9/16/2018 (TX),KANSAS STATE FAIR 9/6-9/16/2018 (TX),,,109288,"TOTAL AMOUNT IS $5243.Confirmed $500 in Square. COD $4,743.-9/11/18 Hitomi
Mario may need give a gift, not decide yet.  9/11/2018 June
09/12/18-Courtesy call completed- Cristina 11:16 am
10/2 Confirmed COD on square 4743.00",TX,0,9.10
9/11/2018 3:02:04 PM,Pamela Mitchell,AA,66901,Orbit,ORBT-1ORBT-1CH,New Choco,New,,,,,3000.00,3000.00,0.00,Mario Higareda,Synchrony,3000.00,,,6019170813134548,94260164,Huston,36 months,,,,,0.00,,,,,,,,,,,0.00,,,,,,,,,,9/30/2018 12:00:00 AM,No,"5 years parts, 1 year labor (Free)",Delivered,,KANSAS STATE FAIR 9/6-9/16/2018 (TX),KANSAS STATE FAIR 9/6-9/16/2018 (TX),,,109290,"Confirmed synchrony account ($3,000) and original. ***Please charge $3,000 before delivery and have sales draft signed. *** 9/11/18 Hitomi
9/14 Courtesy text + email sent @ 9:40AM",TX,1,9.10
9/11/2018 3:11:57 PM,Ryan Carey,KS,67460,Pegasus,DWA-9400Pegasus-BL,New Black,New,,,,,4000.00,4000.00,0.00,Mario Higareda,Synchrony,4000.00,,,6019170813135081,94270938,Huston,48 months,,,,,0.00,,,,,,,,,,,0.00,,,,,,,,,,9/26/2018 12:00:00 AM,No,"5 years parts, 1 year labor (Free)",Delivered,,KANSAS STATE FAIR 9/6-9/16/2018 (TX),KANSAS STATE FAIR 9/6-9/16/2018 (TX),"Authorization Code 
024025
charged by Tina 9/24/2018",,109292,"Confirmed synchrony account ($6,000) and original. ***Please charge $4,000 before delivery and have sales draft signed. *** 9/11/18 Hitomi
9/14Maritza Courtesy email + text @ 9:51AM email didn't go through",TX,1,9.10
9/17/2018 8:23:21 AM,Lesa Dechant,KS,67512,Legacy,DWA-9100DWA-9100BU-DEMO,Demo Choco,Demo,,,,,3900.00,3900.00,0.00,Mario Higareda,Synchrony,3900.00,,,6019170813140313,94436335,Huston,48 months,,,,,0.00,,,,,,,,,,,0.00,,,,,,,,,,9/27/2018 12:00:00 AM,No,"5 years parts, 1 year labor (Free)",Delivered,,KANSAS STATE FAIR 9/6-9/16/2018 (TX),KANSAS STATE FAIR 9/6-9/16/2018 (TX),"Authorization Code 
019740
charged by Tina 9/19/2018",,109481,"Confirmed synchrony account ($3,900) and original. ***Please charge $3,900 before delivery and have sales draft signed.*** 9/18/18 Hitomi
9/18Maritza Courtesy email + text sent @ 11:15AM
The chair model is Daiwa Legacy 3D not legacy 9100. 9/20/2018 June",TX,1,9.10
9/17/2018 8:41:02 AM,Kena Forbes,KS,67220,Relax2Zero 3D,DWA-9060USJ-9060BR,New Choco,New,,,,,3900.00,3900.00,0.00,Mario Higareda,Synchrony,3900.00,,,6019170813142608,94476272,Huston,48 months,,,,,0.00,,,,,,,,,,,0.00,,,,,,,,,,9/26/2018 12:00:00 AM,No,"5 years parts, 1 year labor (Free)",Delivered,,KANSAS STATE FAIR 9/6-9/16/2018 (TX),KANSAS STATE FAIR 9/6-9/16/2018 (TX),"Authorization Code 
019558
charged by Tina 9/19/2018
",,109484,"Confirmed synchrony account ($8,500) and original.***PLease charge $3,900 before delivery and have sales draft signed.*** 9/18/18 Hitomi
9/18Maritza Courtesy email + text @ 11:24AM",TX,1,9.10
9/17/2018 8:45:52 AM,Rhonda Mukes,KS,67214,Relax2Zero 3D,DWA-9060USJ-9060BR,New Choco,New,,,,,3900.00,3900.00,0.00,Mario Higareda,Synchrony,3900.00,,,6019170813149969,94482002,Huston,48 months,,,,,0.00,,,,,,,,,,,0.00,,,,,,,,,,9/26/2018 12:00:00 AM,No,"5 years parts, 1 year labor (Free)",Delivered,,KANSAS STATE FAIR 9/6-9/16/2018 (TX),KANSAS STATE FAIR 9/6-9/16/2018 (TX),"Authorization Code 
019370
charged by Tina 9/19/2018
",,109487,"Confirmed synchrony account ($5,000) and original. ***Please charge  $3,900 before delivery and have sales draft signed.*** 9/18/18 Hitomi
9/18Maritza Courtesy Text sent @ 11:27AM email didn't go through.",TX,1,9.10
9/17/2018 8:51:08 AM,Mercedes Helms,KS,67530,Pegasus,DWA-9400Pegasus-BL-DEMO,Demo Black,Demo,,,,,4900.00,4900.00,0.00,Mario Higareda,Synchrony,4900.00,,,6019170813140412,94438557,Huston,48 months,,,,,0.00,,,,,,,,,,,0.00,,,,,,,,,,9/27/2018 12:00:00 AM,No,"5 years parts, 1 year labor (Free)",Delivered,,KANSAS STATE FAIR 9/6-9/16/2018 (TX),KANSAS STATE FAIR 9/6-9/16/2018 (TX),"Authorization Code 
019175
charged by Tina 9/19/2018",,109488,"Confirmed synchrony account ($5,900) and original. ***Please charge $4,900 before delivery and have sales draft signed.*** 9/18/18 Hitomi",TX,1,9.10
9/17/2018 9:21:59 AM,Lorie Davis,KS,66617,Legacy 3D,DWA-9150USJ-9150CH-DEMO,Demo Choco,Demo,,,,,3900.00,3900.00,0.00,Mario Higareda,Synchrony,3900.00,,,6019170813136725,94336387,Huston,48 months,,,,,0.00,,,,,,,,,,,0.00,,,,,,,,,,10/1/2018 12:00:00 AM,No,"5 years parts, 1 year labor (Free)",Delivered,,KANSAS STATE FAIR 9/6-9/16/2018 (TX),KANSAS STATE FAIR 9/6-9/16/2018 (TX),"Authorization Code 
024008
charged By Tina 9/24/2018
",,109492,"Confirmed synchrony account ($6,000) and original.***PLease charge $3,900 before delivery and have sales draft signed.*** 9/18/18 Hitomi
9/19Maritza Courtesy text @ 3:10PM",TX,1,9.10
9/17/2018 9:35:56 AM,Larry Marshall,KS,67530,Pegasus,DWA-9400Pegasus-BL,New Black,New,,,,,4900.00,4900.00,0.00,Mario Higareda,Synchrony,2000.00,,,6019170813137137,94348845,Huston,48 months,,,,CreditCard,2900.00,#q1uv,,,,,,,,,,0.00,,,,,,,,,,9/27/2018 12:00:00 AM,No,"5 years parts, 1 year labor (Free)",Delivered,,KANSAS STATE FAIR 9/6-9/16/2018 (TX),KANSAS STATE FAIR 9/6-9/16/2018 (TX),"Authorization Code 
019440
charged by Tina 9/19/2018",,109493,"COD $2,900//Confirmed synchrony account ($2,000) and original. ***Please charge $2,000 before delivery and have sales draft signed.COD $2,900.*** 9/18/18 Hitomi
10/2Maritza- Confirmed delivery. COD confirmed on square. Need signature from account holder on sales draft.",TX,1,9.10
10/13/2018 10:18:55 AM,Stacy Kruck,AR,72206,Solace,SOL-1SOL-1-CH-DEMO,Demo Choco,Demo,,,,,2700.00,2700.00,0.00,Kristy Tran,Synchrony,2700.00,,,6019170813187058,95621353,Huston,36 months,,,,,0.00,,,,,,,,,,,0.00,,,,,,,,,,10/21/2018 12:00:00 AM,YES,"5 years parts, 1 year labor (Free)",Delivered,,"Arkansas State Fair (10/11- 10/21/2018) Little Rock, AR","Arkansas State Fair (10/11- 10/21/2018) Little Rock, AR","10/14/18 /Auth#014801/$2,700 was charged for 36 months. TX acct ","Customer will pick up 10/21/2018.
SN 0801002170047
** Please charge Synchrony and get customer’s signature BEFORE pickup**",110267,will confirm sales draft after they pick up on 10/21- 10/16/18 Hitomi//Received pickup confirmation and sale draft. 10/24/18 Hitomi,TX,1,9.00
10/15/2018 9:48:16 AM,Jason & Kelly Krause,AR,71822,Legacy 3D,DWA-9150USJ-9150CH,New Choco,New,,,,,4800.00,4800.00,0.00,Tom Nguyen,Synchrony,4800.00,,,6018170813190938,95692349,Huston,48 months,,,,,0.00,,,,,,,,,,,0.00,,,,,,,,,,10/27/2018 12:00:00 AM,No,"5 years parts, 1 year labor (Free)",Delivered,,"Arkansas State Fair (10/11- 10/21/2018) Little Rock, AR","Arkansas State Fair (10/11- 10/21/2018) Little Rock, AR",Autho#023270,Please charge Synchrony,110358,"$4,800 Needs to be charged on Synchrony//Confirmed SYNC($4,800) under JASON KRAUSE and original. ***Please charge $4,800 before delivery and sales draft signed.***10/16/18 Hitomi
10/17Maritza Courtesy email + messages sent to both numbers @ 9:45AM",TX,1,9.00
10/15/2018 9:53:40 AM,George Mallory,AR,72212,Legacy 3D,DWA-9150USJ-9150CH-DEMO,Demo Choco,Demo,,,,,3600.00,3600.00,0.00,Tom Nguyen,CreditCard,200.00,Receipt #iInM,,,,,,,,,Cash,3400.00,,,,,,,,,,,0.00,,,,,,,,,,10/28/2018 12:00:00 AM,No,"5 years parts, 1 year labor (Free)",Delivered,,"Arkansas State Fair (10/11- 10/21/2018) Little Rock, AR","Arkansas State Fair (10/11- 10/21/2018) Little Rock, AR",,"CASH on Delivery
No cards or checks.
If balance is paid with card, then charge extra $100 (balance: $3500).
SN 0202002170902",110359,"Confirmed $200 in Square.***COD $3,400 in cash/$3,500 in card*** 10/16/18 Hitomi
10/17Maritza Courtesy email + messages sent to both numbers @ 9:55AM
11/01/18- Mario accepted cash 10:30 am- cristina",TX,1,9.00
10/22/2018 3:22:34 PM,Luis Castro & Pat Davenport,AR,72022,Legacy 3D,DWA-9150USJ-9150BL-DEMO,Demo Black,Demo,,,,,3500.00,3500.00,0.00,Mario Higareda,Synchrony,2000.00,,,6019170813201446,95979399,Huston,48 months,,,,Synchrony,1500.00,,,6019170813201453,95979779,Huston,48 months,,,,,0.00,,,,,,,,,,10/28/2018 12:00:00 AM,No,"5 years parts, 1 year labor (Free)",Delivered,,"Arkansas State Fair (10/11- 10/21/2018) Little Rock, AR","Arkansas State Fair (10/11- 10/21/2018) Little Rock, AR",Auth# 023608 / Autho# 023059,,110595,"2 Synchrony accounts combined, 1 for $2,000 and 1 or $1,500//COnfirmed synchrony account ,LAIS CASTRO (6019170813201446)$2,000,PATRICK N DAVENPORT(6019170813201453) $1,500. Original is cleared.***Please charge $3,500 in total and have signed on sales draft by LAIS and PATRICK.***10/23/18 Hitomi",TX,1,9.00
10/22/2018 3:29:46 PM,Demmer Banks,AR,72117,Legacy 3D,DWA-9150USJ-9150CH,New Choco,New,,,,,4100.00,4100.00,0.00,Mario Higareda,Synchrony,4100.00,,,6019170813196307,95867260,Huston,48 months,,,,,0.00,,,,,,,,,,,0.00,,,,,,,,,,10/28/2018 12:00:00 AM,No,"5 years parts, 1 year labor (Free)",Delivered,,"Arkansas State Fair (10/11- 10/21/2018) Little Rock, AR","Arkansas State Fair (10/11- 10/21/2018) Little Rock, AR",,*Military discount,110598,"Confirmed SYNC($4,100) and original. ***Please charge $4,100 before delivery and sales draft signed.***10/23/18 Hitomi",TX,1,9.00
12/19/2018 8:07:38 AM,WIlliam Todd Case,AR,72206,PEGASUS 2 SMART,PEGS-2PEGS-2-BR-DEMO,Demo Choco,Demo,,,,,5967.50,5536.70,430.80,Keith Kei,Synchrony,5967.50,,,6019170813294185,98483305,Huston,36 months,,,,,0.00,,,,,,,,,,,0.00,,,,,,,,,,12/27/2018 12:00:00 AM,No,"5 years parts, 1 year labor (Free)",Delivered,Demo,"Arkansas State Fair (10/11- 10/21/2018) Little Rock, AR","Arkansas State Fair (10/11- 10/21/2018) Little Rock, AR",,,113475,"Sales persons: Mario and Keith.
REFERRAL ORDER 
//Confirmed SYNC($8,500) and original.***Please charge $5,967.50 before delivery and sales draft signed. *** spoked to June, it is already scheduled. - 12/19/18 Hitomi
12/28Maritza delivery confirmation received with sales draft",TX,0,9.00
