﻿Original Event Name,Event Name,Sales Person,Order Number,Order Date,Customer Name,State,Zip,Product Name,Color,Product Status,QTY,Tax,Total Before Tax,Order Total,Primary Payment Method,Second Payment Method,Thirdl Payment Method,Warranty,Order Items,Pick up,Delivered On,Order Status,Chair Type,Order Notes,Private Note,Branch,No Tax,Actual Tax Rate,SKU,Primary Payment Balance,Primary Authorize Number,Primary Purchase Order Number,Primary Synchrony Account Number,Primary Synchrony Application Key,Primary Synchrony Account Info,Primary Synchrony Term,Primary Synchrony Primary ID,Primary Synchrony Issued State,Primary Synchrony Expiretion Date,Second Payment Balance,Second Authorize Number,Second Purchase Order Number,Second Synchrony Account Number,Second Synchrony Application Key,Second Synchrony Account Info,Second SynchronyTerm,Second Synchrony Primary ID,Second Synchrony Issued State,Second Synchrony Expiretion Date,Third Payment Balance,Third Authorize Number,Third Purchase Order Number,Third Synchrony Account Number,Third Synchrony Application Key,Third Synchrony Account Info,Third Synchrony Term,Third Synchrony Primary ID,Third Synchrony Issued State,Third Synchrony Expiretion Date
"Sam's Club #8164 Waukesha, WI","Sam's Club #8164 Waukesha, WI",Brando Hart,122791,12/2/2019 4:38:36 AM,Deborah Dake,WI,53189,Legacy 3D - Sam's Club,New Black,New,1,244.70,4798.00,5042.70,Sam’s Club Synchrony,,,"3 years parts, 1 year labor (Free)","Legacy 3D - Sam's Club,",No,12/18/2019 12:00:00 AM,Delivered,New,,"Have Brandon come help set up delivery of chair.
Original received-Erika 12/2/19
cc/text completed-Erika 12/2
12/03 CC Customer to inform of order received - Karina
12/10-Confirmed delivery for 12/19 9am-1pm-Karen
1/7Maritza- Delivery confirmation received color changed to CHOCO",IL,0,5.10,DWA-9150DWA-9150BL,0.00,,,,,,,,,/,0.00,,,,,,,,,/,0.00,,,,,,,,,/
"Sam's Club #8164 Waukesha, WI","Sam's Club #8164 Waukesha, WI",Brando Hart,122792,12/2/2019 4:55:48 AM,Glen Brandemuehl,WI,53119,Relax 2 Zero 3D for Sam's,New Black,New,1,244.70,4798.00,5042.70,Sam’s Club Synchrony,,,"3 years parts, 1 year labor (Free)","Relax 2 Zero 3D for Sam's,",No,12/18/2019 12:00:00 AM,Delivered,New,,"Original received. No tc # was provided. Lex confirmed chair was purchased at Sams.-Erika 12/3/19 10:47am
cc/text completed-Erika 12/3
12/03 CC Customer to inform of order received - Karina
12/9-customer confirmed delivery for 4:30pm-8pm on 12/18-Karina
1/7Maritza- Delivery confirmation received",IL,0,5.10,DWA-9060DWA-9060BL,0.00,,,,,,,,,/,0.00,,,,,,,,,/,0.00,,,,,,,,,/
"Sam's Club #8164 Waukesha, WI","Sam's Club #8164 Waukesha, WI",Brando Hart,123348,12/31/2019 11:27:22 AM,Tim Schmalz,WI,53219,PEGASUS 2 SMART - Sam's,Demo(Box) Black[-700],Demo,1,305.90,5998.00,6303.90,Sam’s Club Synchrony,Credit Card,,"3 years parts, 3 years labor ($400)","PEGASUS 2 SMART - Sam's,",No,1/2/2020 12:00:00 AM,Delivered,New,,"Original received-Erika 12/31/19 1:55pm 
12/31 CC Customer Karen confirmed delivery for 1/2/2020  between 1:00P-5:00P
Delivery conf completed-Erika 1/3/2020",IL,0,5.10,PEGS-2PEGS-2-BL-DEMO(Box),0.00,,,,,,,,,/,0.00,,,,,,,,,/,0.00,,,,,,,,,/
