﻿Original Event Name,Event Name,Sales Person,Order Number,Order Date,Customer Name,State,Zip,Product Name,Color,Product Status,QTY,Tax,Total Before Tax,Order Total,Primary Payment Method,Second Payment Method,Thirdl Payment Method,Warranty,Order Items,Pick up,Delivered On,Order Status,Chair Type,Order Notes,Private Note,Branch,No Tax,Actual Tax Rate,SKU,Primary Payment Balance,Primary Authorize Number,Primary Purchase Order Number,Primary Synchrony Account Number,Primary Synchrony Application Key,Primary Synchrony Account Info,Primary Synchrony Term,Second Payment Balance,Second Authorize Number,Second Purchase Order Number,Second Synchrony Account Number,Second Synchrony Application Key,Second Synchrony Account Info,Second SynchronyTerm,Third Payment Balance,Third Authorize Number,Third Purchase Order Number,Third Synchrony Account Number,Third Synchrony Application Key,Third Synchrony Account Info,Third Synchrony Term
"Sam's Club #4915 Bullhead City, AZ 4/4-14/19 (NV)","Sam's Club #4915 Bullhead City, AZ 4/4-14/19 (NV)",Michael Rowe,116411,4/4/2019 1:22:23 PM,Dorthy Fee,CA,93021,Orbit for Sam's ,Demo Choco(Box)[-300],Demo,1,0.00,2698.00,2698.00,PurchaseOrder,,,"3 years parts, 1 year labor (Free)","Orbit for Sam's ,",No,4/18/2019 12:00:00 AM,Delivered,New,Dorothy will be on vacation for 1 week from today.,"4/5Maritza- Printed. Will send courtesy text to inform her we received her order and will aim to deliver the week of April 15th(Since she will still not be home next week)
4/19Maritza Delivery confirmation received",CA,1,7.85,ORBT-1ORBT-1CH-BOX,2698.00,,TC#2881164887636388494188,,,,,0.00,,,,,,,0.00,,,,,,
"Sam's Club #4915 Bullhead City, AZ 4/4-14/19 (NV)","Sam's Club #4915 Bullhead City, AZ 4/4-14/19 (NV)",Michael Rowe,116446,4/6/2019 6:51:05 PM,Show Gun,AZ,34567,Shogun Neck & Back Massger,New,New,1,0.00,199.98,199.98,PurchaseOrder,,,"2 years parts, 1 year labor (Free)","Shogun Neck &amp; Back Massger,",YES,,Delivered,,,,NV,1,7.85,USJ-874USJ-874,199.98,,TC#775673308141804315730,,,,,0.00,,,,,,,0.00,,,,,,
"Sam's Club #4915 Bullhead City, AZ 4/4-14/19 (NV)","Sam's Club #4915 Bullhead City, AZ 4/4-14/19 (NV)",Michael Rowe,116447,4/6/2019 6:54:37 PM,Ted Win,AZ,32451,Shogun Neck & Back Massger,New,New,1,15.70,199.98,215.68,PurchaseOrder,,,"2 years parts, 1 year labor (Free)","Shogun Neck &amp; Back Massger,",YES,,Delivered,,,,NV,0,7.85,USJ-874USJ-874,199.98,,TC#367320949254941011594,,,,,0.00,,,,,,,0.00,,,,,,
"Sam's Club #4915 Bullhead City, AZ 4/4-14/19 (NV)","Sam's Club #4915 Bullhead City, AZ 4/4-14/19 (NV)",Michael Rowe,116454,4/6/2019 7:58:38 PM,Ted In,AZ,12345,Shogun Neck & Back Massger,New,New,1,0.00,199.98,199.98,PurchaseOrder,,,"2 years parts, 1 year labor for Small Items","Shogun Neck &amp; Back Massger,",YES,,Delivered,,,,NV,1,7.85,USJ-874USJ-874,199.98,,TC#54840102000072814992,,,,,0.00,,,,,,,0.00,,,,,,
"Sam's Club #4915 Bullhead City, AZ 4/4-14/19 (NV)","Sam's Club #4915 Bullhead City, AZ 4/4-14/19 (NV)",Michael Rowe,116464,4/7/2019 1:17:58 PM,Steven pearson,NV,89029,Orbit for Sam's ,Demo Choco[-300],Demo,1,0.00,2698.00,2698.00,PurchaseOrder,,,"3 years parts, 1 year labor (Free)","Orbit for Sam's ,",No,,Assigned,,Steven bought my demo for -300 this is a third floor delivery.,"Steven bought my demo for -300 this is a third floor delivery.
4/24Maritza- Customer called asking for ETA. Provided him with NV number.",NV,1,7.85,ORBT-1ORBT-1CH-DEMO,2698.00,,TC#9106235016323611529811,,,,,0.00,,,,,,,0.00,,,,,,
"Sam's Club #4915 Bullhead City, AZ 4/4-14/19 (NV)","Sam's Club #4915 Bullhead City, AZ 4/4-14/19 (NV)",Michael Rowe,116548,4/9/2019 2:48:37 PM,Bob Webber,AZ,86440,Legacy for Sam's,Demo(Box) Sienna Brown[-700],Demo,1,0.00,3599.00,3599.00,PurchaseOrder,,,"3 years parts, 1 year labor (Free)","Legacy for Sam's,",No,,Assigned,,,,NV,1,7.85,DWA-9100DWA-9100SB-Box,3599.00,,TC#5073430042262944011524,,,,,0.00,,,,,,,0.00,,,,,,
"Sam's Club #4915 Bullhead City, AZ 4/4-14/19 (NV)","Sam's Club #4915 Bullhead City, AZ 4/4-14/19 (NV)",Michael Rowe,116559,4/9/2019 6:11:33 PM,Mike prior,AZ,86409,Relax 2 Zero 2.0 for Sam's,Demo (Box) Black[-701],Demo,1,0.00,3199.00,3199.00,PurchaseOrder,,,"3 years parts, 1 year labor (Free)","Relax 2 Zero 2.0 for Sam's,",No,,Assigned,,,,NV,1,7.85,USJ-9050USJ-9050BL-DEMO (Box),3199.00,,TC#9795063103121806315760,,,,,0.00,,,,,,,0.00,,,,,,
"Sam's Club #4915 Bullhead City, AZ 4/4-14/19 (NV)","Sam's Club #4915 Bullhead City, AZ 4/4-14/19 (NV)",Michael Rowe,116582,4/11/2019 2:38:35 PM,James May,NV,86429,Legacy for Sam's,Demo(Box) Sienna Brown[-700],Demo,1,0.00,3599.00,3599.00,PurchaseOrder,,,"3 years parts, 1 year labor (Free)","Legacy for Sam's,",No,,Assigned,,,,NV,1,7.85,DWA-9100DWA-9100SB-Box,3599.00,,TC#819791965737947693,,,,,0.00,,,,,,,0.00,,,,,,
"Sam's Club #4915 Bullhead City, AZ 4/4-14/19 (NV)","Sam's Club #4915 Bullhead City, AZ 4/4-14/19 (NV)",Michael Rowe,116628,4/13/2019 2:27:14 PM,Rosa Gonzalez,AZ,86406,Ninja Leg Massager 2,New,New,1,0.00,299.98,299.98,Purchase Order,,,"2 years parts, 1 year labor for Small Items","Ninja Leg Massager 2,",YES,,Delivered,,,"4/15/19-Ship request from Michael Rowe. sent email to NV if they can ship it  - Hitomi
4/19/19-sent text message w/ TRK# -Hitomi",NV,1,7.85,USJ-880,299.98,,TC#363310227062943091534,,,,,0.00,,,,,,,0.00,,,,,,
"Sam's Club #4915 Bullhead City, AZ 4/4-14/19 (NV)","Sam's Club #4915 Bullhead City, AZ 4/4-14/19 (NV)",Michael Rowe,116667,4/14/2019 12:39:49 PM,Larry John Obrien,AZ,86403,Orbit for Sam's ,Demo Choco(Box)[-300],Demo,1,0.00,2698.00,2698.00,Purchase Order,,,"3 years parts, 1 year labor (Free)","Orbit for Sam's ,",No,,Assigned,,,4/17Maritza Courtesy message sent @ 4:36PM,NV,1,7.85,ORBT-1ORBT-1CH-BOX,2698.00,,TC#3923510721052942079574,,,,,0.00,,,,,,,0.00,,,,,,
"Sam's Club #4915 Bullhead City, AZ 4/4-14/19 (NV)","Sam's Club #4915 Bullhead City, AZ 4/4-14/19 (NV)",Michael Rowe,116677,4/14/2019 3:31:20 PM,Ron Mendez,AZ,86442,Pegasus for Sam's,Demo Choco(Box)[-700],Demo,1,0.00,4798.00,4798.00,Purchase Order,,,"3 years parts, 1 year labor (Free)","Pegasus for Sam's,",No,,Assigned,,Free footvibe and brand new chair.,4/17Maritza- Courtesy message sent @ 4:38PM,NV,1,7.85,DWA-9400Pegasus-BR-BOX,4798.00,,TC#7194961305155729184992,,,,,0.00,,,,,,,0.00,,,,,,
