﻿Date,CustomerName,State,Zipcode,Description,productNo,Color,IsDemo,Net,ShippingFee,GiftPrice,FinancingProcessingFee,Gross,Pre_tax,Tax,Commission,Primary Payment Method,Primary Payment Balance,Primary Authorize Number,Primary Purchase Order Number,Primary Synchrony Account Number,Primary Synchrony Application Key,Primary Synchrony AccountInfo,Primary SynchronyTerm,Secondly Payment Method,Secondly Payment Balance,Secondly Authorize Number,Secondly Purchase Order Number,Secondly Synchrony Account Number,Secondly Synchrony Application Key,Secondly Synchrony AccountInfo,Secondly SynchronyTerm,Thirdly Payment Method,Thirdly Payment Balance,Thirdly Authorize Number,Thirdly Purchase Order Number,Thirdly Synchrony Account Number,Thirdly Synchrony Application Key,Thirdly Synchrony AccountInfo,Thirdly SynchronyTerm,DeliveryDate,Ispickup,Warranty,Status,Event Name,Synchrony Notes,Order Notes,Order number,Private Note,Branch,IsNoTax,ActualTaxRate
3/18/2018 1:04:17 PM,Stephen Cammllarie,AZ,85053,Relax2Zero 3D,DWA-9060USJ-9060BR,New Choco,New,,,,,4200.00,4200.00,0.00,Bryan Albert,CreditCard,4200.00,Square #tJ0e collected by Scott Ishikawa,,,,,,,0.00,,,,,,,,0.00,,,,,,,,No,"3 years parts, 3 years labor ($400)",Cancelled,Maricopa County Home Show 4/27-29/18 (NV),,,104576,"This order is under Maricopa show 2017. confirmed with Bryan. 3/20/18 Hitomi
Confirmed $4,200.00 in Square. 3/20/18 Hitomi
Revised to #104641. under the referral and correct shipping methods. 3/20/18 Hitomi",Not Dispatched,1,8.60
4/29/2018 11:54:36 AM,Wendy Johansen,AZ,85044,Relax2Zero 3D,DWA-9060USJ-9060BL,New Black,New,,,,,4000.40,3743.00,257.40,Christoper Williams,Synchrony,4000.00,,,6034610083244452,88230115,Las Vegas,36 months,,0.00,,,,,,,,0.00,,,,,,,,No,"3 years parts, 1 year labor (Free)",Cancelled,Maricopa County Home Show 4/27-29/18 (NV),,"Sold for 4000
Throw in Free blanket
2-3week delivery",105593,,CA,0,8.60
4/29/2018 12:19:42 PM,Tom Gusictt,AZ,86035,Relax2Zero 3D,DWA-9060USJ-9060BL,New Black,New,,,,,4499.96,4203.00,296.96,Christoper Williams,Cash,100.00,,,,,,,COD,4400.00,,,,,,,,0.00,,,,,,,,No,"3 years parts, 1 year labor (Free)",Assigned,Maricopa County Home Show 4/27-29/18 (NV),,"Sold for 4500, customer put a $100 cash deposit down and will pay remainder  before chair is delivered. Call on Wednesday for remainder payment",105595,"will confirm cash 4/30/18 Hitomi
04/30/18 chris has $100//Yumi received $100 cash 5/2/18 Hitomi",NV,0,8.60
4/29/2018 3:23:28 PM,Lucy Baker,AZ,85340,Legacy 3D,DWA-9150USJ-9150CH,New Choco,New,,,,,4800.00,4800.00,0.00,Joseph Chan,CreditCard,4800.00,#5qSX,,,,,,,0.00,,,,,,,,0.00,,,,,,,,No,"3 years parts, 1 year labor (Free)",Assigned,Maricopa County Home Show 4/27-29/18 (NV),,,105601,"Confirmed $4,800.00 in Square. 4/30/18 Hitomi",NV,1,8.60
4/29/2018 3:27:32 PM,Mitzi Pohl,AZ,85004,Legacy 3D,DWA-9150USJ-9150BL,New Black,New,,,,,4800.00,4800.00,0.00,Joseph Chan,COD,4800.00,,,,,,,,0.00,,,,,,,,0.00,,,,,,,,No,"3 years parts, 1 year labor (Free)",Hold,Maricopa County Home Show 4/27-29/18 (NV),,,105602,"Customer is closing a house deal that may need another 2-3 weeks before she can exercise her Credit Card, please hold till customer contact us",Not Dispatched,1,8.60
4/30/2018 12:12:26 PM,Somer Masias,AZ,85339,Relax2Zero 1.0,USJ-9000USJ-9000BR,New Brown,New,,,,,3300.00,3300.00,0.00,Harmony Daiwa,CreditCard,2000.00,Vral,,,,,,CreditCard,1300.00,yaUK,,,,,,,0.00,,,,,,,,No,"3 years parts, 1 year labor (Free)",Assigned,Maricopa County Home Show 4/27-29/18 (NV),,,105684,"04/30/18- Cristina spoke to harmony Rep. proof to deliver chair. (Dispatched for now)
05/01/18-Cristina- Payment cleared will ship chair for Rex to assemble at the customer's home./Confirmed chair model with Harmony.5/3/18 Hitomi",NV,1,8.60
