﻿Order Number,Order Date,Event Name,Salesperson,SKU,Product Name,Color,QTY,Warranty,Payment Details,Tax,Order Total,Gross,Primary Payment Method,Primary Payment Balance,Primary Authorize Number,Primary Purchase Order Number,Primary Synchrony Account Number,Primary Synchrony Application Key,Primary Synchrony AccountInfo,Primary SynchronyTerm,Secondly Payment Method,Secondly Payment Balance,Secondly Authorize Number,Secondly Purchase Order Number,Secondly Synchrony Account Number,Secondly Synchrony Application Key,Secondly Synchrony AccountInfo,Secondly SynchronyTerm,Thirdly Payment Method,Thirdly Payment Balance,Thirdly Authorize Number,Thirdly Purchase Order Number,Thirdly Synchrony Account Number,Thirdly Synchrony Application Key,Thirdly Synchrony AccountInfo,Thirdly SynchronyTerm,Actual Shipping Cost,CustomerName,Shipping Address,Delivered On,Serial Number (TO Be),Note,Branch,IsNoTax,ActualTaxRate
101246,10/13/2017 7:31:28 AM,North Carolina State Fair 10/12-22 (IL),Rodrigo Malabunga,DWA-9060USJ-9060BL-DEMO,Relax2Zero 3D,Demo Black,1,"5 years parts, 3 years labor ($700)",CreditCard ,199.19,3900.19,3900.19,CreditCard,3900.00,912190,,,,,,,0.00,,,,,,,,0.00,,,,,,,0.00,James Chao,9193085081,11/4/2017 12:00:00 AM,,,FL,,
101275,10/15/2017 7:39:20 AM,North Carolina State Fair 10/12-22 (IL),Rodrigo Malabunga,DWA-9100DWA-9100CH-DEMO,Legacy,Demo Choco Brown,1,"3 years parts, 2 years labor ($200)",Synchrony ,167.60,3400.60,3400.60,Synchrony,3400.00,,,6034610081571096,79664360,San Diego,36 months,,0.00,,,,,,,,0.00,,,,,,,0.00,Catherine Winstead,3365997508,10/24/2017 12:00:00 AM,,,FL,,
101276,10/15/2017 7:47:53 AM,North Carolina State Fair 10/12-22 (IL),Rodrigo Malabunga,DWA-9100DWA-9100SI-DEMO,Legacy,Demo Sienna Brown,1,"3 years parts, 1 year labor (Free)",Synchrony ,167.60,3400.60,3400.60,Synchrony,3400.00,,,6034610081572326,79694085,San Diego,,,0.00,,,,,,,,0.00,,,,,,,0.00,Glynda Rich,9196569508,10/23/2017 12:00:00 AM,,Please give customer 18 months finance.,FL,,
101278,10/15/2017 8:00:31 AM,North Carolina State Fair 10/12-22 (IL),Ruben Cuatrona,USJ-9050USJ-9050BR-DEMO,Relax2Zero 2.0,Demo Brown,1,"3 years parts, 3 years labor ($400)",CreditCard CreditCard,167.60,3400.60,3400.60,CreditCard,1700.00,09866G,,,,,,CreditCard,1700.00,fmRu,,,,,,,0.00,,,,,,,0.00,Tony Lioy,9103672204,11/7/2017 12:00:00 AM,,"Sales Representative Bryan Albert. Total price $3400, customer already paid $1700 deposit with credit card, the balance $1700 will be paid C.O.D",FL,,
101279,10/15/2017 8:43:28 AM,North Carolina State Fair 10/12-22 (IL),Ruben Cuatrona,DWA-9100DWA-9100BL,Legacy,Black,1,"3 years parts, 1 year labor (Free)",Synchrony ,205.54,4000.54,4000.54,Synchrony,3900.00,,,6034610081574223,79724858,San Diego,36 months,,0.00,,,,,,,,0.00,,,,,,,0.00,Heather Johnson,9199062537,10/23/2017 12:00:00 AM,,,FL,,
101280,10/15/2017 8:51:58 AM,North Carolina State Fair 10/12-22 (IL),Rodrigo Malabunga,DWA-9100DWA-9100SI,Legacy,Sienna Brown,1,"3 years parts, 1 year labor (Free)",CreditCard ,167.60,3400.60,3400.60,CreditCard,3400.00,310454,,,,,,,0.00,,,,,,,,0.00,,,,,,,0.00,Shelia Bland,3214809187,11/10/2017 12:00:00 AM,,,FL,,
101281,10/15/2017 8:59:42 AM,North Carolina State Fair 10/12-22 (IL),Rodrigo Malabunga,USJ-9050USJ-9050BL,Relax2Zero 2.0,Black,1,"3 years parts, 1 year labor (Free)",Synchrony ,167.60,3400.60,3400.60,Synchrony,3400.00,,,6034610081574884,79733425,San Diego,,,0.00,,,,,,,,0.00,,,,,,,0.00,Saba Akbari,9199985464,10/21/2017 12:00:00 AM,,"18 months finance, please",FL,,
101281,10/15/2017 8:59:42 AM,North Carolina State Fair 10/12-22 (IL),Rodrigo Malabunga,,Chair Pad for Relax2Zero 2.0,,1,no warranty,Synchrony ,167.60,3400.60,3400.60,Synchrony,3400.00,,,6034610081574884,79733425,San Diego,,,0.00,,,,,,,,0.00,,,,,,,0.00,Saba Akbari,9199985464,10/21/2017 12:00:00 AM,,"18 months finance, please",FL,,
101352,10/16/2017 7:20:03 AM,North Carolina State Fair 10/12-22 (IL),Ruben Cuatrona,USJ-9050USJ-9050BL-DEMO,Relax2Zero 2.0,Demo Black,1,"3 years parts, 1 year labor (Free)",CreditCard ,167.60,3400.60,3400.60,CreditCard,3400.00,01849B,,,,,,,0.00,,,,,,,,0.00,,,,,,,0.00,Omar Jara,9199060857,10/23/2017 12:00:00 AM,,,FL,,
101354,10/16/2017 7:25:59 AM,North Carolina State Fair 10/12-22 (IL),Ruben Cuatrona,USJ-9050USJ-9050BR-DEMO,Relax2Zero 2.0,Demo Brown,1,"3 years parts, 1 year labor (Free)",COD ,167.60,3400.60,3400.60,COD,3400.00,,,,,,,,0.00,,,,,,,,0.00,,,,,,,0.00,Holly Cooper,9192711831,,,"Total $3400, customer will pay C.O.D, so please call the customer before delivery.",FL,,
101356,10/16/2017 7:33:34 AM,North Carolina State Fair 10/12-22 (IL),Ruben Cuatrona,DWA-9100DWA-9100CH,Legacy,Choco Brown,1,"3 years parts, 1 year labor (Free)",CreditCard ,173.95,3500.95,3500.95,CreditCard,3500.00,884396,,,,,,,0.00,,,,,,,,0.00,,,,,,,0.00,Celia Halos,9199459776,10/21/2017 12:00:00 AM,,Total $3500,FL,,
101358,10/16/2017 7:41:25 AM,North Carolina State Fair 10/12-22 (IL),Ruben Cuatrona,DWA-9150USJ-9150CH,Legacy 3D,Choco Brown,1,"3 years parts, 1 year labor (Free)",CreditCard ,243.47,4600.47,4600.47,CreditCard,4600.00,"06805D, 03975C",,,,,,,0.00,,,,,,,,0.00,,,,,,,0.00,Bradlley Langley,3365097206,10/21/2017 12:00:00 AM,,Sales representative: Bryan Albert,FL,,
101360,10/16/2017 7:49:14 AM,North Carolina State Fair 10/12-22 (IL),Ruben Cuatrona,USJ-9050USJ-9050BR,Relax2Zero 2.0,Brown,1,"3 years parts, 3 years labor ($400)",Synchrony ,201.76,3940.76,3940.76,Synchrony,3940.00,,,6034610081575808,79751267,San Diego,36 months,,0.00,,,,,,,,0.00,,,,,,,0.00,Robbie Quick,9192205045,11/6/2017 12:00:00 AM,,Sales representive: Bryan Albert,FL,,
101362,10/16/2017 7:54:41 AM,North Carolina State Fair 10/12-22 (IL),Rodrigo Malabunga,USJ-9050USJ-9050BR,Relax2Zero 2.0,Brown,1,"3 years parts, 1 year labor (Free)",CreditCard ,173.95,3500.95,3500.95,CreditCard,3500.00,09344C,,,,,,,0.00,,,,,,,,0.00,,,,,,,0.00,Robbie Daniels,9192916219,10/23/2017 12:00:00 AM,,,FL,,
101364,10/16/2017 8:03:25 AM,North Carolina State Fair 10/12-22 (IL),Rodrigo Malabunga,DWA-9100DWA-9100BL,Legacy,Black,1,"3 years parts, 3 years labor ($400)",Synchrony ,214.45,4141.45,4141.45,Synchrony,4141.80,,,6034610081575105,79740785,San Diego,12 months,,0.00,,,,,,,,0.00,,,,,,,0.00,Kai Chan,3363024760,10/21/2017 12:00:00 AM,,"Total price $4141.80, 18 months finance please!",FL,,
101412,10/18/2017 7:44:45 AM,North Carolina State Fair 10/12-22 (IL),Ruben Cuatrona,DWA-9060USJ-9060BR-DEMO,Relax2Zero 3D,Demo Choco Brown,1,"3 years parts, 1 year labor (Free)",CreditCard CreditCard,192.92,3800.92,3800.92,CreditCard,1000.00,271910,,,,,,CreditCard,2800.00,s4pD,,,,,,,0.00,,,,,,,0.00,Melisa Mack,9197406444,10/23/2017 12:00:00 AM,,"Total price $3800, customer already paid $1000 with credit card, the balance $2800 will be paid on C.O.D",FL,,
101413,10/18/2017 7:57:18 AM,North Carolina State Fair 10/12-22 (IL),Bryan Albert,DWA-9100DWA-9100BL-DEMO,Legacy,Demo Black,1,"3 years parts, 1 year labor (Free)",CreditCard CreditCard,154.98,3200.98,3200.98,CreditCard,100.00,017555,,,,,,CreditCard,3100.00,lb6T,,,,,,,0.00,,,,,,,0.00,C.Y. Parrish Parrish,2523375911,10/24/2017 12:00:00 AM,,"Total price $3200, deposit $100, balance $3100 will be paid on C.O.D",FL,,
101414,10/18/2017 8:09:07 AM,North Carolina State Fair 10/12-22 (IL),Ruben Cuatrona,USJ-9050USJ-9050BL-DEMO,Relax2Zero 2.0,Demo Black,1,"3 years parts, 1 year labor (Free)",Synchrony ,167.60,3400.60,3400.60,Synchrony,3400.00,,,6034610081577572,79785958,San Diego,36 months,,0.00,,,,,,,,0.00,,,,,,,0.00,Emilio Jaen,9193009134,10/23/2017 12:00:00 AM,,"Total Price $3400, 36 months free finance",FL,,
101419,10/18/2017 2:06:43 PM,North Carolina State Fair 10/12-22 (IL),Ruben Cuatrona,DWA-9400Pegasus-BL-DEMO,Pegasus,Demo Black,1,"3 years parts, 1 year labor (Free)",CreditCard ,309.83,4899.83,4899.83,CreditCard,4900.00,026510,,,,,,,0.00,,,,,,,,0.00,,,,,,,0.00,Steven Sanderson,9194228020,10/23/2017 12:00:00 AM,,,FL,,
101420,10/18/2017 2:14:56 PM,North Carolina State Fair 10/12-22 (IL),Bryan Albert,DWA-9100DWA-9100BU,Legacy,Blue,1,"3 years parts, 1 year labor (Free)",CreditCard ,189.68,3749.68,3749.68,CreditCard,3750.00,02462D,,,,,,,0.00,,,,,,,,0.00,,,,,,,0.00,Cathy Dunn,3362500591,10/22/2017 12:00:00 AM,,,FL,,
101429,10/18/2017 3:46:04 PM,North Carolina State Fair 10/12-22 (IL),Ruben Cuatrona,DWA-9100DWA-9100BL-DEMO,Legacy,Demo Black,1,"3 years parts, 1 year labor (Free)",Synchrony ,227.68,3600.68,3600.68,Synchrony,3600.68,,,6034610081581269,79887335,San Diego,36 months,,0.00,,,,,,,,0.00,,,,,,,0.00,nancy knop,7166280976,10/23/2017 12:00:00 AM,,,FL,,
101434,10/19/2017 7:29:44 AM,North Carolina State Fair 10/12-22 (IL),Rolly San Jose,DWA-9400Pegasus-BR-DEMO,Pegasus,Demo Choco Brown,1,"3 years parts, 1 year labor (Free)",Synchrony CreditCard,309.89,4900.89,4900.89,Synchrony,3900.00,,,6034610081581426,79892680,San Diego,48 months,CreditCard,1000.00,930551(debit),,,,,,,0.00,,,,,,,0.00,John brent crowder,9195238323,10/23/2017 12:00:00 AM,,"3900 syncrony
1000 credit card w/ approval #930551",FL,,
101435,10/19/2017 7:41:05 AM,North Carolina State Fair 10/12-22 (IL),Ruben Cuatrona,DWA-9150USJ-9150BL,Legacy 3D,Black,1,"3 years parts, 1 year labor (Free)",Synchrony ,180.23,3600.23,3600.23,Synchrony,3600.23,,,6034610081581400,79892331,San Diego,36 months,,0.00,,,,,,,,0.00,,,,,,,0.00,gregory street,9196733117,10/21/2017 12:00:00 AM,,,FL,,
101438,10/19/2017 12:58:05 PM,North Carolina State Fair 10/12-22 (IL),Ting Ritchie,DWA-9150USJ-9150CH-DEMO,Legacy 3D,Demo Choco Brown,1,"3 years parts, 1 year labor (Free)",CreditCard ,173.95,3500.95,3500.95,CreditCard,3500.00,332249,,,,,,,0.00,,,,,,,,0.00,,,,,,,0.00,John Wilson,9106580110,10/24/2017 12:00:00 AM,,"Special price for the Demo with scratches on both arms part, serial number: 91160682D.",FL,,
101457,10/21/2017 7:05:43 AM,North Carolina State Fair 10/12-22 (IL),Rolly San Jose,USJ-9050USJ-9050BR,Relax2Zero 2.0,Brown,1,"3 years parts, 1 year labor (Free)",Synchrony ,218.16,4200.16,4200.16,Synchrony,4200.00,,,6034610081583976,79967879,San Diego,36 months,,0.00,,,,,,,,0.00,,,,,,,0.00,Stephanie/ Chris Otten,9198129390,11/6/2017 12:00:00 AM,,,FL,,
101458,10/21/2017 7:12:29 AM,North Carolina State Fair 10/12-22 (IL),Ting Ritchie,DWA-9100DWA-9100BL,Legacy,Black,1,"3 years parts, 1 year labor (Free)",CreditCard ,196.02,3850.02,3850.02,CreditCard,3850.00,829230,,,,,,,0.00,,,,,,,,0.00,,,,,,,0.00,Sharon Cuffee,9192716409,11/6/2017 12:00:00 AM,,,FL,,
101459,10/21/2017 7:19:46 AM,North Carolina State Fair 10/12-22 (IL),Rolly San Jose,DWA-9400Pegasus-BR,Pegasus,Choco Brown,1,"3 years parts, 1 year labor (Free)",CreditCard ,281.41,5200.41,5200.41,CreditCard,5200.00,01572C,,,,,,,0.00,,,,,,,,0.00,,,,,,,0.00,David Cox,3364094581,11/4/2017 12:00:00 AM,,,FL,,
101460,10/21/2017 7:30:02 AM,North Carolina State Fair 10/12-22 (IL),Ting Ritchie,DWA-9100DWA-9100SI,Legacy,Sienna Brown,1,"3 years parts, 1 year labor (Free)",CreditCard Synchrony,199.13,3899.13,3899.13,CreditCard,400.00,087175,,,,,,Synchrony,3500.00,,,6034610081584289,79974792,San Diego,36 months,,0.00,,,,,,,0.00,Fred Herndon,9193582569,11/4/2017 12:00:00 AM,,"Total #3900, customer already paid $400 with credit card, the balance $3500 will be paid thru Synchrony,  Account number: 6034610081584289, Key number: 79974792, 36 months.",FL,,
101461,10/21/2017 7:50:42 AM,North Carolina State Fair 10/12-22 (IL),Ting Ritchie,DWA-9100DWA-9100CH,Legacy,Choco Brown,1,"3 years parts, 1 year labor (Free)",CreditCard Synchrony,205.54,4000.54,4000.54,CreditCard,500.00,360293,,,,,,Synchrony,3500.00,,,6034610081584404,79977505,San Diego,36 months,,0.00,,,,,,,0.00,Katherine/ Maeda Maeda,9196065771,12/19/2017 12:00:00 AM,,"Please delivery after Dec, 18th, 2017, but BEFORE Christmas. Total price $4000, customer paid $500 with credit card, the balance $3500 will be paid thru Synchrony, 36 months. SD office. Application number: 6034610081584404, key number: 79977505",FL,,
101462,10/21/2017 7:57:09 AM,North Carolina State Fair 10/12-22 (IL),Rolly San Jose,DWA-9100DWA-9100BL,Legacy,Black,1,"3 years parts, 1 year labor (Free)",Synchrony ,218.16,4200.16,4200.16,Synchrony,4200.00,,,6034610081584438,79978186,San Diego,36 months,,0.00,,,,,,,,0.00,,,,,,,0.00,Grace Dumayas,9108856249,11/10/2017 12:00:00 AM,,"Total price $4200, 36 months finance.",FL,,
101486,10/22/2017 7:46:18 AM,North Carolina State Fair 10/12-22 (IL),Rolly San Jose,DWA-9100DWA-9100CH,Legacy,Choco Brown,1,"3 years parts, 1 year labor (Free)",CreditCard ,218.16,4200.16,4200.16,CreditCard,4200.00,02041R,,,,,,,0.00,,,,,,,,0.00,,,,,,,0.00,Kevin/ Niki Murray,9198174645,11/4/2017 12:00:00 AM,,,FL,,
101488,10/22/2017 7:53:48 AM,North Carolina State Fair 10/12-22 (IL),Ruben Cuatrona,USJ-9050USJ-9050BR,Relax2Zero 2.0,Brown,1,"3 years parts, 1 year labor (Free)",Synchrony ,218.16,4200.16,4200.16,Synchrony,4200.00,,,6034610081584727,79988942,San Diego,36 months,,0.00,,,,,,,,0.00,,,,,,,0.00,Christopher Hunt,9106746802,11/7/2017 12:00:00 AM,,"Total $4200, 36 months finance.",FL,,
101489,10/22/2017 7:59:50 AM,North Carolina State Fair 10/12-22 (IL),Bryan Albert,DWA-9060USJ-9060BR,Relax2Zero 3D,Choco Brown,1,"3 years parts, 1 year labor (Free)",CreditCard ,243.47,4600.47,4600.47,CreditCard,4600.00,859114,,,,,,,0.00,,,,,,,,0.00,,,,,,,0.00,Rob Coyce,9194918643,11/4/2017 12:00:00 AM,,,FL,,
101491,10/22/2017 8:05:31 AM,North Carolina State Fair 10/12-22 (IL),Ting Ritchie,DWA-9100DWA-9100CH,Legacy,Choco Brown,1,"3 years parts, 1 year labor (Free)",CreditCard ,205.54,4000.54,4000.54,CreditCard,4000.00,58053P,,,,,,,0.00,,,,,,,,0.00,,,,,,,0.00,Venkatesh Nakkaca,9199243865,11/4/2017 12:00:00 AM,,,FL,,
101492,10/22/2017 8:13:39 AM,North Carolina State Fair 10/12-22 (IL),Ruben Cuatrona,DWA-9150USJ-9150CH,Legacy 3D,Choco Brown,1,"3 years parts, 1 year labor (Free)",Synchrony CreditCard,224.51,4300.51,4300.51,Synchrony,3000.00,,,6034610081586367,80012928,San Diego,36 months,CreditCard,1300.00,jovT,,,,,,,0.00,,,,,,,0.00,Dean Parrish,9199208622,11/3/2017 12:00:00 AM,,"Total $4300, Synchrony approved $3000, 36 months finance, the balance $1300 will be paid on C.O.D",FL,,
101493,10/22/2017 8:31:30 AM,North Carolina State Fair 10/12-22 (IL),Ruben Cuatrona,DWA-9060USJ-9060BL-DEMO,Relax2Zero 3D,Demo Black,1,"3 years parts, 1 year labor (Free)",Synchrony ,199.13,3899.13,3899.13,Synchrony,3900.00,,,6034610081587142,80021193,San Diego,48 months,,0.00,,,,,,,,0.00,,,,,,,0.00,Patricia Stewart,3365047134,10/25/2017 12:00:00 AM,,Please delivery between 5pm to 9pm.,FL,,
101494,10/22/2017 8:36:54 AM,North Carolina State Fair 10/12-22 (IL),Ruben Cuatrona,DWA-9150USJ-9150BL,Legacy 3D,Black,1,"3 years parts, 1 year labor (Free)",CreditCard ,180.23,3600.23,3600.23,CreditCard,3600.00,06884D,,,,,,,0.00,,,,,,,,0.00,,,,,,,0.00,Kimberly Garey,9198010159,11/4/2017 12:00:00 AM,,,FL,,
101497,10/22/2017 9:25:50 AM,North Carolina State Fair 10/12-22 (IL),Alex Brackelsberg,DWA-9400Pegasus-BR,Pegasus,Choco Brown,1,"3 years parts, 1 year labor (Free)",CreditCard ,268.79,5000.79,5000.79,CreditCard,5000.00,04889G,,,,,,,0.00,,,,,,,,0.00,,,,,,,0.00,Glen Yasser,9197953662,,,,FL,,
101514,10/22/2017 4:32:17 PM,North Carolina State Fair 10/12-22 (IL),Ruben Cuatrona,DWA-9100DWA-9100BL,Legacy,Black,1,"3 years parts, 1 year labor (Free)",Synchrony ,180.23,3600.23,3600.23,Synchrony,3600.00,,,6034610081584131,79970925,San Diego,48 months,,0.00,,,,,,,,0.00,,,,,,,0.00,Lindsay Heyl,4802092135,11/6/2017 12:00:00 AM,,Two chairs purchase discount,FL,,
101515,10/22/2017 4:37:08 PM,North Carolina State Fair 10/12-22 (IL),Ruben Cuatrona,DWA-9100DWA-9100BL,Legacy,Black,1,"3 years parts, 1 year labor (Free)",Synchrony ,180.23,3600.23,3600.23,Synchrony,3600.00,,,6034610081584131,79970925,San Diego,48 months,,0.00,,,,,,,,0.00,,,,,,,0.00,Lindsay Heyl,4802092135,11/6/2017 12:00:00 AM,,Customer purchased two chairs. Discount,FL,,
101516,10/22/2017 4:45:53 PM,North Carolina State Fair 10/12-22 (IL),Ruben Cuatrona,DWA-9060USJ-9060BL,Relax2Zero 3D,Black,1,"3 years parts, 1 year labor (Free)",Synchrony CreditCard,180.23,3600.23,3600.23,,2000.00,,,6034610081589270,80050558,San Diego,36 months,CreditCard,,,,,,,,,,,,,,,,0.00,Amy/ Chandler Barnes,9192154525,,,"Synchrony approved $2000, the balance $1600 will be paid on C.O.D",FL,,
101517,10/22/2017 5:01:17 PM,North Carolina State Fair 10/12-22 (IL),Bryan Albert,DWA-9060USJ-9060BL,Relax2Zero 3D,Black,1,"3 years parts, 1 year labor (Free)",CreditCard ,211.88,4100.88,4100.88,CreditCard,4100.00,05471G,,,,,,,0.00,,,,,,,,0.00,,,,,,,0.00,Michele Bryson,3366908543,11/6/2017 12:00:00 AM,,,FL,,
101518,10/22/2017 5:08:46 PM,North Carolina State Fair 10/12-22 (IL),Ting Ritchie,USJ-9050USJ-9050BL,Relax2Zero 2.0,Black,1,"3 years parts, 1 year labor (Free)",CreditCard ,218.16,4200.16,4200.16,,4200.00,022653,,,,,,,,,,,,,,,,,,,,,,0.00,Rhonda Smith,9199065172,,,"Please delivery on Dec, 18th, 2017",FL,,
101519,10/22/2017 5:14:56 PM,North Carolina State Fair 10/12-22 (IL),Rolly San Jose,DWA-9400Pegasus-BR,Pegasus,Choco Brown,1,"3 years parts, 1 year labor (Free)",Synchrony ,262.44,4900.44,4900.44,Synchrony,4900.00,,,6034610081588579,80042968,San Diego,48 months,,0.00,,,,,,,,0.00,,,,,,,0.00,Tracey Linkous,2528856274,11/3/2017 12:00:00 AM,,,FL,,
101520,10/22/2017 5:23:24 PM,North Carolina State Fair 10/12-22 (IL),Ruben Cuatrona,DWA-9100DWA-9100BL,Legacy,Black,1,"3 years parts, 1 year labor (Free)",Synchrony CreditCard,192.92,3800.92,3800.92,,2000.00,,,6034610081588496,80042168,San Diego,36 months,CreditCard,,,,,,,,,,,,,,,,0.00,Kassinda Ross,3363036797,,,"Total $3800, Synchrony approved $2000, the balance will be paid C.O.D, please delivery 2 MONTHS later.",FL,,
101521,10/22/2017 5:30:03 PM,North Carolina State Fair 10/12-22 (IL),Rolly San Jose,USJ-9050USJ-9050BL,Relax2Zero 2.0,Black,1,"3 years parts, 1 year labor (Free)",Synchrony ,218.16,4200.16,4200.16,Synchrony,4200.00,,,6034610081589502,80053361,San Diego,48 months,,0.00,,,,,,,,0.00,,,,,,,0.00,Robert Henderson,9197286586,11/4/2017 12:00:00 AM,,Sales Representative: Joynlyn,FL,,
101554,10/24/2017 6:07:52 PM,North Carolina State Fair 10/12-22 (IL),Bryan Albert,DWA-9400Pegasus-BR,Pegasus,Choco Brown,1,"3 years parts, 1 year labor (Free)",CreditCard ,268.79,5000.79,5000.79,CreditCard,5000.00,04889G,,,,,,,0.00,,,,,,,,0.00,,,,,,,0.00,Glen Yasser,9197953662,11/3/2017 12:00:00 AM,,,FL,,
101651,11/1/2017 8:32:38 AM,North Carolina State Fair 10/12-22 (IL),Ting Ritchie,DWA-9100DWA-9100BU,Legacy,Blue,1,"3 years parts, 1 year labor (Free)",CreditCard ,196.02,3850.02,3850.02,CreditCard,3850.00,OzFL,,,,,,,0.00,,,,,,,,0.00,,,,,,,0.00,Ed Sweda,7275053536,11/10/2017 12:00:00 AM,,,FL,,
