﻿Order Number,Order Date,Original Event Name,Event Name,Salesperson,SKU,Product Name,Color,QTY,Warranty,Payment Details,Tax,Order Total,Gross,Primary Payment Method,Primary Payment Balance,Primary Authorize Number,Primary Purchase Order Number,Primary Synchrony Account Number,Primary Synchrony Application Key,Primary Synchrony AccountInfo,Primary SynchronyTerm,Secondly Payment Method,Secondly Payment Balance,Secondly Authorize Number,Secondly Purchase Order Number,Secondly Synchrony Account Number,Secondly Synchrony Application Key,Secondly Synchrony AccountInfo,Secondly SynchronyTerm,Thirdly Payment Method,Thirdly Payment Balance,Thirdly Authorize Number,Thirdly Purchase Order Number,Thirdly Synchrony Account Number,Thirdly Synchrony Application Key,Thirdly Synchrony AccountInfo,Thirdly SynchronyTerm,Actual Shipping Cost,CustomerName,Shipping Address,Delivered On,Serial Number (TO Be),Note,Branch,IsNoTax,ActualTaxRate
107772,7/24/2018 7:23:51 AM,"EAA 7/23-29/18 Oshkosh, WI (IL)","EAA 7/23-29/18 Oshkosh, WI (IL)",Robert Shih,DWA-9400Pegasus-BR,Pegasus,New Choco,1,"3 years parts, 1 year labor (Free)",CUSTOM ,290.00,6090.00,6090.00,Synchrony,6090.00,,,6019170813047856,92033737,Las Vegas,36 months,,0.00,,,,,,,,0.00,,,,,,,0.00,Alycia Brown,8284340279,,,"Dear Brown family , 

Thank you very much for being part of daiwa family ! / Synchrony 36 months 0% APR / Please deliver ASAP / Second floor delivery",TX,0,5.00
107773,7/24/2018 7:29:35 AM,"EAA 7/23-29/18 Oshkosh, WI (IL)","EAA 7/23-29/18 Oshkosh, WI (IL)",Ruben Cuatrona,DWA-9150USJ-9150BL-DEMO,Legacy 3D,Demo Black,1,"3 years parts, 1 year labor (Free)",CUSTOM CreditCard,0.00,3900.00,3900.00,CreditCard,100.00,SQUARE # BTS8,,,,,,CreditCard,3800.00,nv17,,,,,,,0.00,,,,,,,0.00,Timothy L. Sorg,2606931355,8/13/2018 12:00:00 AM,,"Dear Sorg family,  

Thank you for being part of daiwa family ! / Please deliver ASAP",TX,1,5.00
107774,7/24/2018 7:33:17 AM,"EAA 7/23-29/18 Oshkosh, WI (IL)","EAA 7/23-29/18 Oshkosh, WI (IL)",Ting Ritchie,DWA-9150USJ-9150BL-DEMO,Legacy 3D,Demo Black,1,"3 years parts, 1 year labor (Free)",CUSTOM ,0.00,4000.00,4000.00,Synchrony,4000.00,,,6019170813047864,92034123,San Diego,36 months,,0.00,,,,,,,,0.00,,,,,,,0.00,Michael Lang,6127708969,8/2/2018 12:00:00 AM,,Please delivery after noon only. Thanks.,TX,1,5.00
107783,7/24/2018 4:22:30 PM,"EAA 7/23-29/18 Oshkosh, WI (IL)","EAA 7/23-29/18 Oshkosh, WI (IL)",Winston Melgar,DWA-9060USJ-9060BR,Relax2Zero 3D,New Choco,1,"3 years parts, 1 year labor (Free)",CUSTOM ,0.00,3800.00,3800.00,CreditCard,3800.00,SQ EKxv,,,,,,,0.00,,,,,,,,0.00,,,,,,,0.00,TF Smoak,3862088900,8/7/2018 12:00:00 AM,,,FL,1,5.00
107785,7/24/2018 4:27:35 PM,"EAA 7/23-29/18 Oshkosh, WI (IL)","EAA 7/23-29/18 Oshkosh, WI (IL)",Winston Melgar,DWA-9060USJ-9060BL,Relax2Zero 3D,New Black,1,"3 years parts, 1 year labor (Free)",CUSTOM ,0.00,4040.00,4040.00,CreditCard,4040.00,SQ # gGcd,,,,,,,0.00,,,,,,,,0.00,,,,,,,0.00,Jeremy Dales,8017160094,,,,Not Dispatched,1,5.00
107786,7/24/2018 4:33:07 PM,"EAA 7/23-29/18 Oshkosh, WI (IL)","EAA 7/23-29/18 Oshkosh, WI (IL)",Rodrigo Malabunga,DWA-9060USJ-9060BR,Relax2Zero 3D,New Choco,1,"3 years parts, 1 year labor (Free)",CUSTOM ,0.00,4095.00,4095.00,CreditCard,4095.00,SQ# FEn1,,,,,,,0.00,,,,,,,,0.00,,,,,,,0.00,Dave Bennett,7193389093,8/13/2018 12:00:00 AM,,,NV,1,5.00
107787,7/24/2018 4:37:44 PM,"EAA 7/23-29/18 Oshkosh, WI (IL)","EAA 7/23-29/18 Oshkosh, WI (IL)",Rodrigo Malabunga,DWA-9060USJ-9060BR,Relax2Zero 3D,New Choco,1,"3 years parts, 1 year labor (Free)",CUSTOM ,0.00,3995.00,3995.00,CreditCard,3995.00,SQ#0QgH,,,,,,,0.00,,,,,,,,0.00,,,,,,,0.00,John rob Holland,9049232487,8/9/2018 12:00:00 AM,,,FL,1,5.00
107792,7/25/2018 7:24:32 AM,"EAA 7/23-29/18 Oshkosh, WI (IL)","EAA 7/23-29/18 Oshkosh, WI (IL)",Robert Shih,DWA-9150USJ-9150BL-DEMO,Legacy 3D,Demo Black,1,"3 years parts, 1 year labor (Free)",CUSTOM ,195.00,4095.00,4095.00,CreditCard,4095.00,SQUARE # JLNi,,,,,,,0.00,,,,,,,,0.00,,,,,,,0.00,Jeremy Lade,9206501060,8/3/2018 12:00:00 AM,,"Dear Lade family,  

Thank you for being part of daiwa family ! / Please deliver ASAP",TX,0,5.00
107793,7/25/2018 7:31:36 AM,"EAA 7/23-29/18 Oshkosh, WI (IL)","EAA 7/23-29/18 Oshkosh, WI (IL)",Robert Shih,DWA-9150USJ-9150CH-DEMO,Legacy 3D,Demo Choco,1,"3 years parts, 1 year labor (Free)",CUSTOM ,0.00,3900.00,3900.00,CreditCard,3900.00,SQUARE # f4Rz,,,,,,,0.00,,,,,,,,0.00,,,,,,,0.00,Kathleen Safford,3522745003,,,"Dear Kathleen ,

Thank you for being part of daiwa family ! / Please deliver ASAP",FL,1,5.00
107794,7/25/2018 7:35:50 AM,"EAA 7/23-29/18 Oshkosh, WI (IL)","EAA 7/23-29/18 Oshkosh, WI (IL)",Robert Shih,DWA-9150USJ-9150BL-DEMO,Legacy 3D,Demo Black,1,"3 years parts, 1 year labor (Free)",CUSTOM ,0.00,3900.00,3900.00,CreditCard,3900.00,SQUARE # yBpO,,,,,,,0.00,,,,,,,,0.00,,,,,,,0.00,Charles Starke III,9042373033,,,"Dear Charles, 

Thank you for being part of daiwa family ! / Please deliver ASAP",FL,1,5.00
107795,7/25/2018 7:40:37 AM,"EAA 7/23-29/18 Oshkosh, WI (IL)","EAA 7/23-29/18 Oshkosh, WI (IL)",Ting Ritchie,DWA-9150USJ-9150CH-DEMO,Legacy 3D,Demo Choco,1,"3 years parts, 1 year labor (Free)",CUSTOM ,0.00,3900.00,3900.00,Synchrony,3900.00,,,6019170813048763,92062672,San Diego,36 months,,0.00,,,,,,,,0.00,,,,,,,0.00,Christina Campbell,4123288152,8/10/2018 12:00:00 AM,,Synchrony 36 Months 0% APR,FL,1,5.00
107796,7/25/2018 7:45:00 AM,"EAA 7/23-29/18 Oshkosh, WI (IL)","EAA 7/23-29/18 Oshkosh, WI (IL)",Ruben Cuatrona,DWA-9150USJ-9150CH-DEMO,Legacy 3D,Demo Choco,1,"3 years parts, 1 year labor (Free)",CUSTOM ,0.00,3900.00,3900.00,CreditCard,3900.00,SQUARE # hTp9,,,,,,,0.00,,,,,,,,0.00,,,,,,,0.00,Rosa Goforth,7025969232,8/12/2018 12:00:00 AM,,,NV,1,5.00
107806,7/25/2018 6:25:24 PM,"EAA 7/23-29/18 Oshkosh, WI (IL)","EAA 7/23-29/18 Oshkosh, WI (IL)",Rolly San Jose,DWA-9400Pegasus-BR,Pegasus,New Choco,1,"3 years parts, 1 year labor (Free)",CUSTOM ,0.00,5500.00,5500.00,Synchrony,5500.00,,,6019170813049357,92084288,San Diego,48 months,,0.00,,,,,,,,0.00,,,,,,,0.00,Scott Wicker,4698315094,,,,TX,1,5.00
107807,7/25/2018 6:31:53 PM,"EAA 7/23-29/18 Oshkosh, WI (IL)","EAA 7/23-29/18 Oshkosh, WI (IL)",Winston Melgar,DWA-9060USJ-9060BR-DEMO,Relax2Zero 3D,Demo Choco,1,"3 years parts, 1 year labor (Free)",CUSTOM ,0.00,3800.00,3800.00,CreditCard,3800.00,SQ# a1P8,,,,,,,0.00,,,,,,,,0.00,,,,,,,0.00,Bob Kendall,7158911903,8/3/2018 12:00:00 AM,,,TX,1,5.00
107808,7/25/2018 6:38:35 PM,"EAA 7/23-29/18 Oshkosh, WI (IL)","EAA 7/23-29/18 Oshkosh, WI (IL)",Winston Melgar,DWA-9060USJ-9060BR,Relax2Zero 3D,New Choco,1,"3 years parts, 1 year labor (Free)",CUSTOM ,0.00,5050.00,5050.00,CreditCard,5050.00,03764D,,,,,,,0.00,,,,,,,,0.00,,,,,,,0.00,Marylou Frahn,9074953674,7/27/2018 12:00:00 AM,,,WA,1,5.00
107809,7/25/2018 6:50:04 PM,"EAA 7/23-29/18 Oshkosh, WI (IL)","EAA 7/23-29/18 Oshkosh, WI (IL)",Rolly San Jose,DWA-9400Pegasus-BR-DEMO,Pegasus,Demo Choco,1,"3 years parts, 1 year labor (Free)",CUSTOM ,0.00,4800.00,4800.00,Synchrony,4800.00,,,6019170813050025,92104048,San Diego,36 months,,0.00,,,,,,,,0.00,,,,,,,0.00,Chris Follington,2626892207,8/3/2018 12:00:00 AM,,,TX,1,5.00
107810,7/25/2018 6:58:56 PM,"EAA 7/23-29/18 Oshkosh, WI (IL)","EAA 7/23-29/18 Oshkosh, WI (IL)",Rolly San Jose,DWA-9400Pegasus-BR-DEMO,Pegasus,Demo Choco,1,"3 years parts, 1 year labor (Free)",CUSTOM CreditCard,0.00,4800.00,4800.00,CreditCard,200.00,SQ# 4dii,,,,,,CreditCard,4600.00,,,,,,,,0.00,,,,,,,0.00,Jeff Kramer,3147494860,,,,TX,1,5.00
107815,7/26/2018 6:44:32 AM,"EAA 7/23-29/18 Oshkosh, WI (IL)","EAA 7/23-29/18 Oshkosh, WI (IL)",Ruben Cuatrona,DWA-9150USJ-9150CH,Legacy 3D,New Choco,1,"3 years parts, 3 years labor ($400)",CUSTOM ,0.00,4500.00,4500.00,CreditCard,4500.00,SQUARE # dZut,,,,,,,0.00,,,,,,,,0.00,,,,,,,0.00,Joe Twohy,4085915916,9/5/2018 12:00:00 AM,,"Dear Joe , 

Thank you for being part of daiwa family ! / 2 years labor extension / Please deliver ASAP",CA,1,5.00
107816,7/26/2018 6:51:31 AM,"EAA 7/23-29/18 Oshkosh, WI (IL)","EAA 7/23-29/18 Oshkosh, WI (IL)",Noni Ignacio,DWA-9400Pegasus-BR-DEMO,Pegasus,Demo Choco,1,"3 years parts, 1 year labor (Free)",CUSTOM ,0.00,4900.00,4900.00,Synchrony,4900.00,,,6019170813049969,92102211,San Diego,48 months,,0.00,,,,,,,,0.00,,,,,,,0.00,Wade Thompson,9162200455,8/2/2018 12:00:00 AM,,"Dear Wade,

Thank you for being part of daiwa family ! / Synchrony 48 months 0% APR  / Please deliver ASAP",CA,1,5.00
107817,7/26/2018 7:01:26 AM,"EAA 7/23-29/18 Oshkosh, WI (IL)","EAA 7/23-29/18 Oshkosh, WI (IL)",Ruben Cuatrona,DWA-9150USJ-9150CH,Legacy 3D,New Choco,1,"3 years parts, 1 year labor (Free)",CUSTOM ,0.00,4500.00,4500.00,CreditCard,4500.00,SQUARE # K5Xg,,,,,,,0.00,,,,,,,,0.00,,,,,,,0.00,Dean Skarvan,8593513750,,,"Dear Dean , 

Thank you for being part of daiwa family ! / Please deliver ASAP",TX,1,5.00
107818,7/26/2018 7:12:06 AM,"EAA 7/23-29/18 Oshkosh, WI (IL)","EAA 7/23-29/18 Oshkosh, WI (IL)",Ruben Cuatrona,DWA-9150USJ-9150BL-DEMO,Legacy 3D,Demo Black,1,"3 years parts, 1 year labor (Free)",CUSTOM ,195.00,4095.00,4095.00,Synchrony,4095.00,,,6019170813050777,92122988,Las Vegas,36 months,,0.00,,,,,,,,0.00,,,,,,,0.00,Charles Lohse,6782009111,8/3/2018 12:00:00 AM,,Synchrony 36 months 0% APR,WA,0,5.00
107819,7/26/2018 7:35:29 AM,"EAA 7/23-29/18 Oshkosh, WI (IL)","EAA 7/23-29/18 Oshkosh, WI (IL)",Noni Ignacio,DWA-9400Pegasus-BR-DEMO,Pegasus,Demo Choco,1,"3 years parts, 2 years labor ($200)",CUSTOM CreditCard,240.00,5040.00,5040.00,Synchrony,4040.00,,,6019170813050793,92123387,Las Vegas,36 months,CreditCard,1000.00,SQ# EfK5,,,,,,,0.00,,,,,,,0.00,Matthew Palmer,9514903554,8/7/2018 12:00:00 AM,,"Dear Matthew ,

Thank you for being part of daiwa family ! / Synchrony 36 months 0% APR $4040 / 1 year labor extension / Please deliver ASAP",CA,0,5.00
107820,7/26/2018 7:48:35 AM,"EAA 7/23-29/18 Oshkosh, WI (IL)","EAA 7/23-29/18 Oshkosh, WI (IL)",Robert Shih,DWA-9150USJ-9150BL-DEMO,Legacy 3D,Demo Black,1,"3 years parts, 1 year labor (Free)",CUSTOM ,195.00,4095.00,4095.00,Synchrony,4095.00,,,6019170813050801,92124457,Las Vegas,36 months,,0.00,,,,,,,,0.00,,,,,,,0.00,Steven Bailey,8705301146,8/2/2018 12:00:00 AM,,"Dear Steven , 

Thank you for being part of daiwa family ! / Synchrony 36 months 0%APR / Please deliver ASAP",TX,0,5.00
107828,7/26/2018 5:15:30 PM,"EAA 7/23-29/18 Oshkosh, WI (IL)","EAA 7/23-29/18 Oshkosh, WI (IL)",Rodrigo Malabunga,DWA-9060USJ-9060BR,Relax2Zero 3D,New Choco,1,"3 years parts, 1 year labor (Free)",CUSTOM ,0.00,3900.00,3900.00,CreditCard,3900.00,SQ# AAav,,,,,,,0.00,,,,,,,,0.00,,,,,,,0.00,Greg Wright,5597868226,8/6/2018 12:00:00 AM,,,CA,1,5.00
107830,7/26/2018 5:43:17 PM,"EAA 7/23-29/18 Oshkosh, WI (IL)","EAA 7/23-29/18 Oshkosh, WI (IL)",Robert Shih,DWA-9400Pegasus-BR-DEMO,Pegasus,Demo Choco,1,"3 years parts, 1 year labor (Free)",CUSTOM ,0.00,5200.00,5200.00,CreditCard,5200.00,SQ# BZ39,,,,,,,0.00,,,,,,,,0.00,,,,,,,0.00,Richard Batdorf,4109936729,8/15/2018 12:00:00 AM,,"Dear Richard , 

Thank you for being part of daiwa family ! / Please deliver ASAP",TX,1,5.00
107831,7/26/2018 5:48:44 PM,"EAA 7/23-29/18 Oshkosh, WI (IL)","EAA 7/23-29/18 Oshkosh, WI (IL)",Ting Ritchie,DWA-9150USJ-9150CH-DEMO,Legacy 3D,Demo Choco,1,"3 years parts, 1 year labor (Free)",CUSTOM CreditCard,0.00,3700.00,3700.00,CreditCard,250.00,Receipt #6UDv,,,,,,CreditCard,3450.00,housecall pro,,,,,,,0.00,,,,,,,0.00,Ranjn Goonetilleke,5624293018,8/6/2018 12:00:00 AM,,"Dear Ranjn,

Thank you for being part of daiwa family ! / Please deliver ASAP",CA,1,5.00
107832,7/26/2018 5:52:43 PM,"EAA 7/23-29/18 Oshkosh, WI (IL)","EAA 7/23-29/18 Oshkosh, WI (IL)",Ruben Cuatrona,DWA-9150USJ-9150CH-DEMO,Legacy 3D,Demo Choco,1,"3 years parts, 1 year labor (Free)",CUSTOM ,0.00,3900.00,3900.00,CreditCard,3900.00,SQ# hbUZ,,,,,,,0.00,,,,,,,,0.00,,,,,,,0.00,Marvin Wessel,4808141393,9/5/2018 12:00:00 AM,,"Dear Marvin 

Thank you for being part of daiwa family ! / Please deliver ASAP",NV,1,5.00
107833,7/26/2018 5:59:48 PM,"EAA 7/23-29/18 Oshkosh, WI (IL)","EAA 7/23-29/18 Oshkosh, WI (IL)",Ting Ritchie,DWA-9150USJ-9150CH-DEMO,Legacy 3D,Demo Choco,1,"3 years parts, 1 year labor (Free)",CUSTOM ,0.00,3900.00,3900.00,Synchrony,3900.00,,,6019170813052047,92158568,San Diego,36 months,,0.00,,,,,,,,0.00,,,,,,,0.00,Nicholas Eskew,3072666200,8/14/2018 12:00:00 AM,,"Dear Nicholas , 

Thank you for being part of daiwa family ! / Synchrony 36 months 0% APR / Please deliver ASAP",TX,1,5.00
107834,7/26/2018 6:10:56 PM,"EAA 7/23-29/18 Oshkosh, WI (IL)","EAA 7/23-29/18 Oshkosh, WI (IL)",Ting Ritchie,DWA-9150USJ-9150CH-DEMO,Legacy 3D,Demo Choco,1,"3 years parts, 1 year labor (Free)",CUSTOM ,0.00,3900.00,3900.00,Synchrony,3900.00,,,6019170813052070,92158822,San Diego,36 months,,0.00,,,,,,,,0.00,,,,,,,0.00,Troy Eskew,3072475505,8/14/2018 12:00:00 AM,,"Dear Troy , 

Thank you for being part of daiwa family ! / Synchrony 36 months 0% APR / Please deliver ASAP",TX,1,5.00
107835,7/26/2018 6:16:44 PM,"EAA 7/23-29/18 Oshkosh, WI (IL)","EAA 7/23-29/18 Oshkosh, WI (IL)",Kamille Gines,DWA-9150USJ-9150CH,Legacy 3D,New Choco,1,"3 years parts, 1 year labor (Free)",CUSTOM ,0.00,4600.00,4600.00,Synchrony,4600.00,,,6019170813052039,92158208,San Diego,36 months,,0.00,,,,,,,,0.00,,,,,,,0.00,Kent Snider,7206355102,8/23/2018 12:00:00 AM,,Synchrony 36 months 0% APR,TX,1,5.00
107836,7/26/2018 6:22:24 PM,"EAA 7/23-29/18 Oshkosh, WI (IL)","EAA 7/23-29/18 Oshkosh, WI (IL)",Ruben Cuatrona,DWA-9150USJ-9150BL-DEMO,Legacy 3D,Demo Black,1,"3 years parts, 1 year labor (Free)",CUSTOM ,0.00,3900.00,3900.00,Synchrony,3900.00,,,6019170813052021,92157944,San Diego,36 months,,0.00,,,,,,,,0.00,,,,,,,0.00,Mandy Adams,8302145373,,,,TX,1,5.00
107837,7/26/2018 6:29:53 PM,"EAA 7/23-29/18 Oshkosh, WI (IL)","EAA 7/23-29/18 Oshkosh, WI (IL)",Ting Ritchie,DWA-9150USJ-9150CH,Legacy 3D,New Choco,1,"3 years parts, 1 year labor (Free)",CUSTOM COD,0.00,3800.00,3800.00,CreditCard,100.00,Receipt #qo0T,,,,,,COD,3700.00,,,,,,,,0.00,,,,,,,0.00,Joseph Pfeifer,9175770832,,,"Dear Joseph 

Thank you for being part of daiwa family ! / Please deliver ASAP",TX,1,5.00
107856,7/27/2018 6:50:18 AM,"EAA 7/23-29/18 Oshkosh, WI (IL)","EAA 7/23-29/18 Oshkosh, WI (IL)",Ting Ritchie,DWA-9150USJ-9150CH,Legacy 3D,New Choco,1,"3 years parts, 1 year labor (Free)",CUSTOM COD,0.00,3800.00,3800.00,CreditCard,0.00,SQ# goOT,,,,,,COD,3800.00,,,,,,,,0.00,,,,,,,0.00,Israel Kozlik,6462082675,8/12/2018 12:00:00 AM,,,TX,1,5.00
107861,7/27/2018 10:53:27 AM,"EAA 7/23-29/18 Oshkosh, WI (IL)","EAA 7/23-29/18 Oshkosh, WI (IL)",Winston Melgar,DWA-9060USJ-9060BL,Relax2Zero 3D,New Black,1,"3 years parts, 1 year labor (Free)",CUSTOM ,0.00,3800.00,3800.00,CreditCard,3800.00,SQ # gGcd,,,,,,,0.00,,,,,,,,0.00,,,,,,,0.00,Jeremy Dales,8017160094,8/6/2018 12:00:00 AM,,,NV,1,5.00
107863,7/27/2018 4:53:06 PM,"EAA 7/23-29/18 Oshkosh, WI (IL)","EAA 7/23-29/18 Oshkosh, WI (IL)",Rolly San Jose,DWA-9400Pegasus-BL-DEMO,Pegasus,Demo Black,1,"3 years parts, 1 year labor (Free)",CUSTOM ,0.00,4800.00,4800.00,Synchrony,4800.00,,,6019170813052732,92183415,San Diego,48 months,,0.00,,,,,,,,0.00,,,,,,,0.00,Rick Smrcka,9202135645,8/3/2018 12:00:00 AM,,,TX,1,5.00
107865,7/27/2018 5:00:35 PM,"EAA 7/23-29/18 Oshkosh, WI (IL)","EAA 7/23-29/18 Oshkosh, WI (IL)",Rodrigo Malabunga,DWA-9060USJ-9060BR,Relax2Zero 3D,New Choco,1,"3 years parts, 1 year labor (Free)",CUSTOM ,0.00,3900.00,3900.00,CreditCard,3900.00,SQ# 825M,,,,,,,0.00,,,,,,,,0.00,,,,,,,0.00,Kathryn Schiffer,9898345066,,,,TX,1,5.00
107866,7/27/2018 5:10:21 PM,"EAA 7/23-29/18 Oshkosh, WI (IL)","EAA 7/23-29/18 Oshkosh, WI (IL)",Rolly San Jose,DWA-9400Pegasus-BR,Pegasus,New Choco,1,"3 years parts, 1 year labor (Free)",CUSTOM COD,0.00,5500.00,5500.00,CreditCard,200.00,SQ# 1xUF,,,,,,COD,5300.00,,,,,,,,0.00,,,,,,,0.00,Lev Prichard,2147392914,,,,TX,1,5.00
107867,7/27/2018 5:17:18 PM,"EAA 7/23-29/18 Oshkosh, WI (IL)","EAA 7/23-29/18 Oshkosh, WI (IL)",Rolly San Jose,DWA-9400Pegasus-BR,Pegasus,New Choco,1,"3 years parts, 1 year labor (Free)",CUSTOM COD,0.00,5500.00,5500.00,CreditCard,200.00,SQ# v6Na,,,,,,COD,5300.00,,,,,,,,0.00,,,,,,,0.00,Michael Folkerts,3035185920,,,,TX,1,5.00
107868,7/27/2018 5:47:47 PM,"EAA 7/23-29/18 Oshkosh, WI (IL)","EAA 7/23-29/18 Oshkosh, WI (IL)",Rolly San Jose,DWA-9400Pegasus-BR,Pegasus,New Choco,1,"3 years parts, 1 year labor (Free)",CUSTOM ,0.00,5500.00,5500.00,COD,5500.00,,,,,,,,0.00,,,,,,,,0.00,,,,,,,0.00,John kenneth Pereda,5072063607,,,,Not Dispatched,1,5.00
107869,7/27/2018 6:06:05 PM,"EAA 7/23-29/18 Oshkosh, WI (IL)","EAA 7/23-29/18 Oshkosh, WI (IL)",Rolly San Jose,DWA-9400Pegasus-BR,Pegasus,New Choco,1,"3 years parts, 1 year labor (Free)",CUSTOM COD,0.00,4800.00,4800.00,Synchrony,2000.00,,,6019170813049381,92084541,San Diego,36 months,COD,2800.00,,,,,,,,0.00,,,,,,,0.00,Karla/mark Loud,2147185012,,,,Not Dispatched,1,5.00
107875,7/27/2018 7:15:54 PM,"EAA 7/23-29/18 Oshkosh, WI (IL)","EAA 7/23-29/18 Oshkosh, WI (IL)",Noni Ignacio,DWA-9150USJ-9150CH-DEMO,Legacy 3D,Demo Choco,1,"3 years parts, 1 year labor (Free)",CUSTOM ,0.00,3750.00,3750.00,CreditCard,3750.00,SQ# xRdH,,,,,,,0.00,,,,,,,,0.00,,,,,,,0.00,Tony Zimmerman,4196808109,,,"Dear Tony , 
 
Thank you for being part of daiwa family ! / Pls delivery ASAP",TX,1,5.00
107876,7/27/2018 7:23:56 PM,"EAA 7/23-29/18 Oshkosh, WI (IL)","EAA 7/23-29/18 Oshkosh, WI (IL)",Ting Ritchie,DWA-9400Pegasus-BL-DEMO,Pegasus,Demo Black,1,"3 years parts, 1 year labor (Free)",CUSTOM CreditCard,0.00,4900.00,4900.00,Cash,1000.00,,,,,,,CreditCard,2000.00,1Aeu,,,,,,CreditCard,1900.00,yNKr,,,,,,0.00,Francisco Campa,8432271618,8/9/2018 12:00:00 AM,,"Dear Francisco,  

Thank you for being part of daiwa family ! / Please deliver ASAP",FL,1,5.00
107880,7/28/2018 7:04:35 AM,"EAA 7/23-29/18 Oshkosh, WI (IL)","EAA 7/23-29/18 Oshkosh, WI (IL)",Robert Shih,DWA-9400Pegasus-BR-DEMO,Pegasus,Demo Choco,1,"3 years parts, 1 year labor (Free)",CUSTOM ,0.00,4500.00,4500.00,Synchrony,4500.00,,,6019170813053748,92206937,Las Vegas,36 months,,0.00,,,,,,,,0.00,,,,,,,0.00,Karl F. Walter,6787947053,8/7/2018 12:00:00 AM,,"Dear Karl , 

Thank you for being part of daiwa family ! / Synchrony 36 months 0% APR / Please deliver ASAP",FL,1,5.00
107881,7/28/2018 7:12:33 AM,"EAA 7/23-29/18 Oshkosh, WI (IL)","EAA 7/23-29/18 Oshkosh, WI (IL)",Ting Ritchie,DWA-9150USJ-9150BL-DEMO,Legacy 3D,Demo Black,1,"3 years parts, 1 year labor (Free)",CUSTOM ,0.00,3800.00,3800.00,Synchrony,3800.00,,,6019170813052633,92179202,San Diego,24 months,,0.00,,,,,,,,0.00,,,,,,,0.00,Kent Jackson,2028476273,8/15/2018 12:00:00 AM,,"Dear Kent , 

Thank you for being part of daiwa family! / Synchrony 24 months 0% APR / Please deliver ASAP",TX,1,5.00
107882,7/28/2018 7:46:22 AM,"EAA 7/23-29/18 Oshkosh, WI (IL)","EAA 7/23-29/18 Oshkosh, WI (IL)",Ruben Cuatrona,DWA-9150USJ-9150CH-DEMO,Legacy 3D,Demo Choco,1,"3 years parts, 1 year labor (Free)",CUSTOM ,0.00,3600.00,3600.00,CreditCard,3600.00,SQ# wQ1y,,,,,,,0.00,,,,,,,,0.00,,,,,,,0.00,Ronald Ness,7708438867,7/29/2018 12:00:00 AM,,Pick up on Sunday,FL,1,5.00
107883,7/28/2018 7:50:58 AM,"EAA 7/23-29/18 Oshkosh, WI (IL)","EAA 7/23-29/18 Oshkosh, WI (IL)",Ruben Cuatrona,DWA-9150USJ-9150CH-DEMO,Legacy 3D,Demo Choco,1,"3 years parts, 1 year labor (Free)",CUSTOM ,0.00,3600.00,3600.00,CreditCard,3600.00,SQ# p1LK,,,,,,,0.00,,,,,,,,0.00,,,,,,,0.00,Ronald Mattioli,2629454476,7/29/2018 12:00:00 AM,,Pick up on Sunday,FL,1,5.00
107896,7/28/2018 4:30:16 PM,"EAA 7/23-29/18 Oshkosh, WI (IL)","EAA 7/23-29/18 Oshkosh, WI (IL)",Robert Shih,DWA-9400Pegasus-BR-DEMO,Pegasus,Demo Choco,1,"3 years parts, 1 year labor (Free)",CUSTOM ,245.00,5145.00,5145.00,Synchrony,5145.00,,,6019170813055503,92241976,Las Vegas,48 months,,0.00,,,,,,,,0.00,,,,,,,0.00,Timothy Schoemann,9206365180,8/10/2018 12:00:00 AM,,"Dear Timothy ,

Thank you for being part of daiwa family ! / Synchrony 48 months 0% APR / Please deliver ASAP",TX,0,5.00
107897,7/28/2018 4:38:37 PM,"EAA 7/23-29/18 Oshkosh, WI (IL)","EAA 7/23-29/18 Oshkosh, WI (IL)",Kamille Gines,DWA-9150USJ-9150BL-DEMO,Legacy 3D,Demo Black,1,"3 years parts, 1 year labor (Free)",CUSTOM ,0.00,3900.00,3900.00,Synchrony,3900.00,,,6019170813055511,92242037,San Diego,36 months,,0.00,,,,,,,,0.00,,,,,,,0.00,Baoyun Ge,6083017198,8/3/2018 12:00:00 AM,,Synchrony 36 months 0% APR,TX,1,5.00
107898,7/28/2018 4:45:54 PM,"EAA 7/23-29/18 Oshkosh, WI (IL)","EAA 7/23-29/18 Oshkosh, WI (IL)",Kamille Gines,DWA-9150USJ-9150BL-DEMO,Legacy 3D,Demo Black,1,"3 years parts, 1 year labor (Free)",CUSTOM ,0.00,3900.00,3900.00,CreditCard,3900.00,SQ# CKM4,,,,,,,0.00,,,,,,,,0.00,,,,,,,0.00,Gene Hindman,4047903978,8/8/2018 12:00:00 AM,,"Dear Gene , 

Thank you for being part of daiwa family ! / Please deliver ASAP",FL,1,5.00
107899,7/28/2018 4:50:59 PM,"EAA 7/23-29/18 Oshkosh, WI (IL)","EAA 7/23-29/18 Oshkosh, WI (IL)",Ting Ritchie,DWA-9150USJ-9150CH,Legacy 3D,New Choco,1,"3 years parts, 1 year labor (Free)",CUSTOM ,0.00,5040.00,5040.00,Synchrony,5040.00,,,6019170813055537,92242726,San Diego,12 months,,0.00,,,,,,,,0.00,,,,,,,0.00,Richard Stanley,4134462001,,,,TX,1,5.00
107900,7/28/2018 4:53:59 PM,"EAA 7/23-29/18 Oshkosh, WI (IL)","EAA 7/23-29/18 Oshkosh, WI (IL)",Rodrigo Malabunga,DWA-9060USJ-9060BR,Relax2Zero 3D,New Choco,1,"3 years parts, 1 year labor (Free)",CUSTOM ,0.00,3900.00,3900.00,CreditCard,3900.00,Sq#wAHk,,,,,,,0.00,,,,,,,,0.00,,,,,,,0.00,Genon Murray,4078083129,8/7/2018 12:00:00 AM,,,FL,1,5.00
107901,7/28/2018 4:54:55 PM,"EAA 7/23-29/18 Oshkosh, WI (IL)","EAA 7/23-29/18 Oshkosh, WI (IL)",Ting Ritchie,DWA-9150USJ-9150BL-DEMO,Legacy 3D,Demo Black,1,"3 years parts, 1 year labor (Free)",CUSTOM COD,0.00,3900.00,3900.00,Synchrony,1200.00,,,6019170813054084,92216545,San Diego,12 months,COD,2700.00,,,,,,,,0.00,,,,,,,0.00,Anthony L. Weber,6084825196,,,"Dear Anthony , 

Thank you for being part of daiwa family ! / Synchrony 12 months $1,200 / COD $2,700",TX,1,5.00
107902,7/28/2018 5:00:52 PM,"EAA 7/23-29/18 Oshkosh, WI (IL)","EAA 7/23-29/18 Oshkosh, WI (IL)",Winston Melgar,DWA-9060USJ-9060BR-DEMO,Relax2Zero 3D,Demo Choco,1,"3 years parts, 1 year labor (Free)",CUSTOM COD,0.00,3600.00,3600.00,CreditCard,200.00,FJ1M,,,,,,COD,3400.00,,,,,,,,0.00,,,,,,,0.00,Cindi Stampfli,6082255613,8/3/2018 12:00:00 AM,,,TX,1,5.00
107903,7/28/2018 5:04:49 PM,"EAA 7/23-29/18 Oshkosh, WI (IL)","EAA 7/23-29/18 Oshkosh, WI (IL)",Robert Shih,DWA-9150USJ-9150CH-DEMO,Legacy 3D,Demo Choco,1,"3 years parts, 1 year labor (Free)",CUSTOM ,0.00,3800.00,3800.00,CreditCard,3800.00,SQ# OmVa,,,,,,,0.00,,,,,,,,0.00,,,,,,,0.00,John & Carol Schimnicl,3203872366,8/10/2018 12:00:00 AM,,"Dear John & Carol 

Thank you for being part of daiwa family / Please deliver ASAP",TX,1,5.00
107904,7/28/2018 5:04:51 PM,"EAA 7/23-29/18 Oshkosh, WI (IL)","EAA 7/23-29/18 Oshkosh, WI (IL)",Rolly San Jose,DWA-9400Pegasus-BL,Pegasus,New Black,1,"3 years parts, 1 year labor (Free)",CUSTOM CreditCard,0.00,5500.00,5500.00,CreditCard,300.00,Sq#iDjN,,,,,,CreditCard,5200.00,ReKK,,,,,,,0.00,,,,,,,0.00,Ann Salmirs,5166371482,8/29/2018 12:00:00 AM,,,TX,1,5.00
107935,7/29/2018 11:27:18 AM,"EAA 7/23-29/18 Oshkosh, WI (IL)","EAA 7/23-29/18 Oshkosh, WI (IL)",Ting Ritchie,DWA-9150USJ-9150CH,Legacy 3D,New Choco,1,"3 years parts, 1 year labor (Free)",CUSTOM ,0.00,4800.00,4800.00,CreditCard,4800.00,cKW6,,,,,,,0.00,,,,,,,,0.00,,,,,,,0.00,Jill Hardison,4799707145,8/3/2018 12:00:00 AM,,,TX,1,5.00
107944,7/29/2018 4:19:46 PM,"EAA 7/23-29/18 Oshkosh, WI (IL)","EAA 7/23-29/18 Oshkosh, WI (IL)",Robert Shih,DWA-9150USJ-9150BL-DEMO,Legacy 3D,Demo Black,1,"3 years parts, 1 year labor (Free)",CUSTOM ,0.00,3500.00,3500.00,CreditCard,3500.00,SQ# RwVa,,,,,,,0.00,,,,,,,,0.00,,,,,,,0.00,Mike Demuth,9203712155,7/29/2018 12:00:00 AM,,S/N 0202001170632,TX,1,5.00
108005,7/31/2018 12:49:26 PM,"EAA 7/23-29/18 Oshkosh, WI (IL)","EAA 7/23-29/18 Oshkosh, WI (IL)",Rodrigo Malabunga,DWA-9060USJ-9060BL,Relax2Zero 3D,New Black,1,"3 years parts, 1 year labor (Free)",CUSTOM ,0.00,4200.00,4200.00,CreditCard,4200.00,Sq #nsPz,,,,,,,0.00,,,,,,,,0.00,,,,,,,0.00,Jim Hagger,510 612 5768,,,,CA,1,5.00
108006,7/31/2018 1:16:07 PM,"EAA 7/23-29/18 Oshkosh, WI (IL)","EAA 7/23-29/18 Oshkosh, WI (IL)",Rodrigo Malabunga,DWA-9400Pegasus-BL,Pegasus,New Black,1,"3 years parts, 1 year labor (Free)",CUSTOM COD,0.00,4900.00,4900.00,CreditCard,500.00,Sq #SdTm,,,,,,COD,4400.00,,,,,,,,0.00,,,,,,,0.00,Larry Ronziewiiz,574 870 3415,,,,TX,1,5.00
108007,7/31/2018 1:27:29 PM,"EAA 7/23-29/18 Oshkosh, WI (IL)","EAA 7/23-29/18 Oshkosh, WI (IL)",Darryl Garrett,,Ninja Leg Massager,,1,"2 years parts, 1 year labor (Free)",CUSTOM ,0.00,400.00,400.00,CreditCard,359.00,Sq Vrlr,,,,,,,0.00,,,,,,,,0.00,,,,,,,0.00,Anni Brogan,360 293 8082,8/1/2018 12:00:00 AM,,,CA,1,5.00
108008,7/31/2018 2:55:17 PM,"EAA 7/23-29/18 Oshkosh, WI (IL)","EAA 7/23-29/18 Oshkosh, WI (IL)",Kamille Gines,DWA-9150USJ-9150CH,Legacy 3D,New Choco,1,"3 years parts, 1 year labor (Free)",CUSTOM ,0.00,5040.00,5040.00,CreditCard,5040.00,Sq# ScCB,,,,,,,0.00,,,,,,,,0.00,,,,,,,0.00,Darren Ruhnau,4356599718,8/5/2018 12:00:00 AM,,,NV,1,5.00
108259,8/9/2018 5:08:59 PM,"EAA 7/23-29/18 Oshkosh, WI (IL)","EAA 7/23-29/18 Oshkosh, WI (IL)",Winston Melgar,,Ninja Leg Massager,,1,"2 years parts, 1 year labor (Free)",CUSTOM ,0.00,400.00,400.00,CreditCard,359.00,Sq Vrlr,,,,,,,0.00,,,,,,,,0.00,,,,,,,0.00,Anni Brogan,360 293 8082,8/1/2018 12:00:00 AM,,,CA,1,5.00
108478,8/14/2018 7:03:30 AM,"EAA 7/23-29/18 Oshkosh, WI (IL)","EAA 7/23-29/18 Oshkosh, WI (IL)",Rodrigo Malabunga,USJ-9000USJ-9000BR,Relax2Zero 1.0,New Brown,1,"3 years parts, 1 year labor (Free)",CUSTOM ,0.00,3294.00,3294.00,CreditCard,3294.00,Receipt #H19O,,,,,,,0.00,,,,,,,,0.00,,,,,,,0.00,Diem Le,916 260 9653,8/21/2018 12:00:00 AM,,,CA,1,5.00
