﻿Original Event Name,Event Name,Sales Person,Order Number,Order Date,Customer Name,State,Zip,Product Name,Color,Product Status,QTY,Tax,Total Before Tax,Order Total,Primary Payment Method,Second Payment Method,Thirdl Payment Method,Warranty,Order Items,Pick up,Delivered On,Order Status,Chair Type,Order Notes,Private Note,Branch,No Tax,Actual Tax Rate,SKU,Primary Payment Balance,Primary Authorize Number,Primary Purchase Order Number,Primary Synchrony Account Number,Primary Synchrony Application Key,Primary Synchrony Account Info,Primary Synchrony Term,Primary Synchrony Primary ID,Primary Synchrony Issued State,Primary Synchrony Expiretion Date,Second Payment Balance,Second Authorize Number,Second Purchase Order Number,Second Synchrony Account Number,Second Synchrony Application Key,Second Synchrony Account Info,Second SynchronyTerm,Second Synchrony Primary ID,Second Synchrony Issued State,Second Synchrony Expiretion Date,Third Payment Balance,Third Authorize Number,Third Purchase Order Number,Third Synchrony Account Number,Third Synchrony Application Key,Third Synchrony Account Info,Third Synchrony Term,Third Synchrony Primary ID,Third Synchrony Issued State,Third Synchrony Expiretion Date
Surf Expo 1/25-27/18 (FL),Surf Expo 1/25-27/18 (FL),Jonathan Bhowani,103242,1/25/2018 2:48:28 PM,Kerry Welsh,AA,90275,Legacy 3D,Choco Brown,New,1,0.00,4800.00,4800.00,CreditCard,,,"3 years parts, 1 year labor (Free)","Legacy 3D,",No,1/31/2018 12:00:00 AM,Delivered,,,"Hold order for 30 days before scheduling for delivery.
CLEARED SQUARE $4800 - STEPHANY 1/29/18",CA,1,6.50,DWA-9150USJ-9150CH,4800.00,Square receipt #9SVl,,,,,,,,,0.00,,,,,,,,,,0.00,,,,,,,,,
Surf Expo 1/25-27/18 (FL),Surf Expo 1/25-27/18 (FL),Jonathan Bhowani,103270,1/26/2018 3:04:00 PM,James Cartland,CA,93465,Legacy 3D,Choco Brown,New,1,0.00,4800.00,4800.00,CreditCard,,,"3 years parts, 1 year labor (Free)","Legacy 3D,",No,2/19/2018 12:00:00 AM,Delivered,,Estimated delivery: 2-3 weeks,"confirmed $4,800 in Square. 1/29/18 Hitomi
01/30/18-cristina printed",CA,1,6.50,DWA-9150USJ-9150CH,4800.00,Square receipt #vjAe,,,,,,,,,0.00,,,,,,,,,,0.00,,,,,,,,,
Surf Expo 1/25-27/18 (FL),Surf Expo 1/25-27/18 (FL),Robert Shih,103281,1/27/2018 6:06:54 AM,Ahmeo Soliman,FL,33707,Pegasus,Demo Choco Brown,Demo,1,0.00,4500.00,4500.00,Synchrony,,,"3 years parts, 1 year labor (Free)","Pegasus,",No,,Hold,,"Thank you very much for your business with us at Surf Expo in Orlando Fl  / Synchrony 36 months 0% APR approved $2,000 / Please on hold the order,  the customer will have his girl friend to joint the financing for the balance $2,500",,Not Dispatched,1,6.50,DWA-9400Pegasus-BR-DEMO,2000.00,,,6034610083067796,84174779,Las Vegas,36 months,,,,0.00,,,,,,,,,,0.00,,,,,,,,,
Surf Expo 1/25-27/18 (FL),Surf Expo 1/25-27/18 (FL),Robert Shih,103282,1/27/2018 6:13:14 AM,Choudhry Mustasam,FL,33442,Relax2Zero 3D,Demo Choco Brown,Demo,1,0.00,3600.00,3600.00,Synchrony,,,"3 years parts, 1 year labor (Free)","Relax2Zero 3D,",No,,Cancelled,,Thank you very much for your business with us at Surf Expo in Orlando Fl  / Synchrony 36 months with 0%APR,"confirmed the account in Synchrony.($5,000) *Please charge before delivery.* 1/29/18 Hitomi
**DUPLICATE ORDER** CORRECT ORDER # 103310",FL,1,6.50,DWA-9060USJ-9060BR-DEMO,3600.00,,,6034610083067671,84172447,Las Vegas,36 months,,,,0.00,,,,,,,,,,0.00,,,,,,,,,
Surf Expo 1/25-27/18 (FL),Surf Expo 1/25-27/18 (FL),Jonathan Bhowani,103288,1/27/2018 10:57:30 AM,David Trapp,MD,21223,Legacy 3D,Black,New,1,0.00,4000.00,4000.00,CreditCard,,,"3 years parts, 1 year labor (Free)","Legacy 3D,",No,3/16/2018 12:00:00 AM,Delivered,,Estimated delivery: 2-3 weeks,"confirmed $4,000 in Square. 1/29/18 Hitomi
03/01/18- Cristina- Re-dispatched to FL Maggie has agreed",FL,1,6.50,DWA-9150USJ-9150BL,4000.00,Square receipt #4FJx,,,,,,,,,0.00,,,,,,,,,,0.00,,,,,,,,,
Surf Expo 1/25-27/18 (FL),Surf Expo 1/25-27/18 (FL),Jonathan Bhowani,103289,1/27/2018 11:03:58 AM,Camilo Raful,FL,33480,Legacy 3D,Black,New,1,0.00,3800.00,3800.00,CreditCard,Cash,,"3 years parts, 1 year labor (Free)","Legacy 3D,",No,2/9/2018 12:00:00 AM,Delivered,,Estimated delivery: 2-3 weeks,"COD $2400
confirmed $1,400 in Square. 1/29/18 Hitomi",FL,1,6.50,DWA-9150USJ-9150BL,1400.00,Square receipt #VWmC,,,,,,,,,2400.00,,,,,,,,,,0.00,,,,,,,,,
Surf Expo 1/25-27/18 (FL),Surf Expo 1/25-27/18 (FL),Jonathan Bhowani,103300,1/27/2018 7:13:53 PM,Thomas Perrino,NY,11793,Legacy 3D,Black,New,1,0.00,3700.00,3700.00,CreditCard,CreditCard,CreditCard,"5 years parts, 3 years labor ($700)","Legacy 3D,",No,2/18/2018 12:00:00 AM,Delivered,,"Delivery: 2-3 weeks
Warranty: 5 years parts/5 years labor","Customer bought chair with warranty of: 5 years parts & 5 years labor
COD-$2700
confirmed $1,000 in Square. 1/29/18 Hitomi
1000 #8cta & 1700 LSMB - STEPHANY 03/08/18",TX,1,6.50,DWA-9150USJ-9150BL,1000.00,Square receipt #oOZo,,,,,,,,,1000.00,8cta,,,,,,,,,1700.00,LSMB,,,,,,,,
Surf Expo 1/25-27/18 (FL),Surf Expo 1/25-27/18 (FL),Robert Shih,103306,1/27/2018 8:26:41 PM,Jerry Albritton,FL,33823,Legacy 3D,Demo Black,Demo,1,0.00,3500.00,3500.00,Synchrony,Cash,,"3 years parts, 1 year labor (Free)","Legacy 3D,",No,2/6/2018 12:00:00 AM,Delivered,,"Thank you very much for your business with us at Surf Expo in Orlando Fl / Synchrony 24 months 0% APR $2,000 / COD $1,500","confirmed the account in Synchrony.($2,000) *Please charge before delivery.* 1/29/18Hitomi
AUTH # 007003
Received confirmation for COD, $1,500 cash received by Mitch. 2/7/18 Hitomi",FL,1,6.50,DWA-9150USJ-9150BL-DEMO,2000.00,,,6034610083069487,84208543,Las Vegas,24 months,,,,1500.00,,,,,,,,,,0.00,,,,,,,,,
Surf Expo 1/25-27/18 (FL),Surf Expo 1/25-27/18 (FL),Robert Shih,103307,1/27/2018 8:35:23 PM,Kelly Loeser,DE,19975,Legacy 3D,Choco Brown,New,1,0.00,4000.00,4000.00,CreditCard,,,"3 years parts, 1 year labor (Free)","Legacy 3D,",No,3/7/2018 12:00:00 AM,Delivered,,Thank you very much for your business with us at Surf Expo in Orlando Fl / Please on hold the order .,"02/23/18-Cristina- Courtesy call made at 3:22 pm
confirmed $50 in Square. 2/28/18 Hitomi
BTX PICKED UP 03/07/18 TRACKING# 31X2127023",FL,1,6.50,DWA-9150USJ-9150CH,50.00,Square# 5z54,,,,,,,,,0.00,,,,,,,,,,0.00,,,,,,,,,
Surf Expo 1/25-27/18 (FL),Surf Expo 1/25-27/18 (FL),Robert Shih,103308,1/27/2018 8:43:33 PM,Jae Ick Eom,CA,90620,Relax2Zero 3D,Black,New,1,0.00,4000.00,4000.00,CreditCard,CreditCard,,"3 years parts, 1 year labor (Free)","Relax2Zero 3D,",No,2/15/2018 12:00:00 AM,Delivered,,"Thank you very much for your business with us at Surf Expo in Orlando Fl / Sencond floor delivery / COD $3,900","confirmed $100 in Square. 1/29/18 Hitomi
01/30/18-cristina printed",CA,1,6.50,DWA-9060USJ-9060BL,100.00,Square# Sj74,,,,,,,,,3900.00,House Call Pro,,,,,,,,,0.00,,,,,,,,,
Surf Expo 1/25-27/18 (FL),Surf Expo 1/25-27/18 (FL),Robert Shih,103310,1/27/2018 8:47:43 PM,Choudhry Mustasam,FL,33442,Relax2Zero 3D,Demo Choco Brown,Demo,1,0.00,3600.00,3600.00,Synchrony,,,"3 years parts, 1 year labor (Free)","Relax2Zero 3D,",No,2/2/2018 12:00:00 AM,Delivered,,Thank you very much for your business with us at Surf Expo in Orlando Fl / Synchrony 36 months 0% APR,"confirmed the account in Synchrony.($5,000) *Please charge before delivery.*1/29/18 Hitomi
--AUTH # 002019 (2/2 Maggie)",FL,1,6.50,DWA-9060USJ-9060BR-DEMO,3600.00,,,6034610083067671,84172447,Las Vegas,36 months,,,,0.00,,,,,,,,,,0.00,,,,,,,,,
