﻿Original Event Name,Event Name,Sales Person,Order Number,Order Date,Customer Name,State,Zip,Product Name,Color,Product Status,QTY,Tax,Total Before Tax,Order Total,Primary Payment Method,Second Payment Method,Thirdl Payment Method,Warranty,Order Items,Pick up,Delivered On,Order Status,Chair Type,Order Notes,Private Note,Branch,No Tax,Actual Tax Rate,SKU,Primary Payment Balance,Primary Authorize Number,Primary Purchase Order Number,Primary Synchrony Account Number,Primary Synchrony Application Key,Primary Synchrony Account Info,Primary Synchrony Term,Second Payment Balance,Second Authorize Number,Second Purchase Order Number,Second Synchrony Account Number,Second Synchrony Application Key,Second Synchrony Account Info,Second SynchronyTerm,Third Payment Balance,Third Authorize Number,Third Purchase Order Number,Third Synchrony Account Number,Third Synchrony Application Key,Third Synchrony Account Info,Third Synchrony Term
ATS Expo 5/20-22/18 (CA),ATS Expo 5/20-22/18 (CA),Rodrigo Malabunga,106315,5/20/2018 9:56:24 PM,Susana Morris,CA,92130,Legacy 3D,New Choco,New,1,0.00,3900.00,3900.00,CreditCard,,,"3 years parts, 1 year labor (Free)","Legacy 3D,Tourmaline Pad for Legacy 3D,",No,6/8/2018 12:00:00 AM,Delivered,,,"3rd floor delivery with Elivator///Confirmed $3,900.00 in Square. 5/21/18 Hitomi
PRINTED 5/21",CA,1,7.75,DWA-9150USJ-9150CH,3900.00,Sq #i35y,,,,,,0.00,,,,,,,0.00,,,,,,
ATS Expo 5/20-22/18 (CA),ATS Expo 5/20-22/18 (CA),Rodrigo Malabunga,106364,5/22/2018 10:29:55 AM,Xueyan Peng,CT,06525,Relax2Zero 3D,New Choco,New,1,0.00,4600.00,4600.00,CreditCard,,,"3 years parts, 1 year labor (Free)","Relax2Zero 3D,",No,6/9/2018 12:00:00 AM,Delivered,,,"Confirmed $4,600 in Square.Please have signature on invoice .  5/22/18 Hitomi
5/22Maritza Courtesy call @ 4:18PM//",TX,1,7.75,DWA-9060USJ-9060BR,4600.00,Sq #MMBL,,,,,,0.00,,,,,,,0.00,,,,,,
ATS Expo 5/20-22/18 (CA),ATS Expo 5/20-22/18 (CA),Rodrigo Malabunga,106385,5/23/2018 11:14:58 AM,Winston Dorian,NM,87120,Legacy 3D,New Choco,New,1,0.00,4190.00,4190.00,CreditCard,CreditCard,,"3 years parts, 1 year labor (Free)","Legacy 3D,",No,6/17/2018 12:00:00 AM,Delivered,,,"Confirmed $1,000 in Square. COD$3,190.. 5/23/18 Hitomi
5/25Maritza Courtesy call @ 11:17AM///COnfirmed $3,190 in Square. 6/21/18 Hitomi",TX,1,7.75,DWA-9150USJ-9150CH,1000.00,Receipt #8cIT,,,,,,3190.00,#JNfh,,,,,,0.00,,,,,,
ATS Expo 5/20-22/18 (CA),ATS Expo 5/20-22/18 (CA),Ruben Cuatrona,106387,5/23/2018 11:20:23 AM,Jim Harper,OH,44149,Legacy 3D,New Choco,New,1,0.00,3700.00,3700.00,CreditCard,,,"3 years parts, 1 year labor (Free)","Legacy 3D,",No,5/30/2018 12:00:00 AM,Delivered,,,"COnfirmed $3,700 in Square . 5/23/18 Hitomi
5/25Maritza Courtesy Call @ 11:20AM",TX,1,7.75,DWA-9150USJ-9150CH,3700.00,Sq #bP4U,,,,,,0.00,,,,,,,0.00,,,,,,
ATS Expo 5/20-22/18 (CA),ATS Expo 5/20-22/18 (CA),Ruben Cuatrona,106390,5/23/2018 11:30:02 AM,Daniel Matataiho,CA,90069,Legacy 3D,Demo Black,Demo,1,0.00,3600.00,3600.00,Synchrony,,,"3 years parts, 1 year labor (Free)","Legacy 3D,",No,6/1/2018 12:00:00 AM,Delivered,,,"**Original Synchrony invoice needs signature**Confirmed the account ($6,500).***Please charge before delivery*** 5/24/18 Hitomi Printed 5/24",CA,1,7.75,DWA-9150USJ-9150BL-DEMO,3600.00,,,6034610083284468,89188579,Las Vegas,36 months,0.00,,,,,,,0.00,,,,,,
ATS Expo 5/20-22/18 (CA),ATS Expo 5/20-22/18 (CA),Rodrigo Malabunga,106400,5/24/2018 3:29:09 PM,Jennifer Diamond,CA,93021,Relax2Zero 3D,Demo Choco,Demo,1,0.00,3900.00,3900.00,CreditCard,,,"3 years parts, 1 year labor (Free)","Relax2Zero 3D,",No,6/4/2018 12:00:00 AM,Delivered,,,"This sale for Rod M and Ruben C
Printed 5/25",CA,1,7.75,DWA-9060USJ-9060BR-DEMO,3900.00,Sq #f90u,,,,,,0.00,,,,,,,0.00,,,,,,
