﻿Original Event Name,Event Name,Sales Person,Order Number,Order Date,Customer Name,State,Zip,Product Name,Color,Product Status,QTY,Tax,Total Before Tax,Order Total,Primary Payment Method,Second Payment Method,Thirdl Payment Method,Warranty,Order Items,Pick up,Delivered On,Order Status,Chair Type,Order Notes,Private Note,Branch,No Tax,Actual Tax Rate,SKU,Primary Payment Balance,Primary Authorize Number,Primary Purchase Order Number,Primary Synchrony Account Number,Primary Synchrony Application Key,Primary Synchrony Account Info,Primary Synchrony Term,Primary Synchrony Primary ID,Primary Synchrony Issued State,Primary Synchrony Expiretion Date,Second Payment Balance,Second Authorize Number,Second Purchase Order Number,Second Synchrony Account Number,Second Synchrony Application Key,Second Synchrony Account Info,Second SynchronyTerm,Second Synchrony Primary ID,Second Synchrony Issued State,Second Synchrony Expiretion Date,Third Payment Balance,Third Authorize Number,Third Purchase Order Number,Third Synchrony Account Number,Third Synchrony Application Key,Third Synchrony Account Info,Third Synchrony Term,Third Synchrony Primary ID,Third Synchrony Issued State,Third Synchrony Expiretion Date
"Sam's Club #6570 Raleigh, NC","Sam's Club #6570 Raleigh, NC",Edwin Jacome,122214,11/1/2019 9:43:12 AM,Inno Azuogalanya,NC,27616,PEGASUS 2 SMART - Sam's,Demo(Box) Choco[-700],Demo,1,434.86,5998.00,6432.86,Credit Card,,,"2 years parts, 1 year labor (Free)","PEGASUS 2 SMART - Sam's,Vitality Plate for Sam's,",No,,Called,,Free Vitality Plate,"Original received.-Erika 11/1/19 10:38am
order placed on 10/26/19
CC, Jasmin Carrizales, 11/5/19, 11:15am/Av. Anytime",FL,0,7.25,PEGS-2PEGS-2-BR-DEMO(Box),6432.86,9352-6127-6601-3469-7899-05,,,,,,,,/,0.00,,,,,,,,,/,0.00,,,,,,,,,/
"Sam's Club #6570 Raleigh, NC","Sam's Club #6570 Raleigh, NC",Edwin Jacome,122214,11/1/2019 9:43:12 AM,Inno Azuogalanya,NC,27616,Vitality Plate for Sam's,New,New,1,434.86,5998.00,6432.86,Credit Card,,,"2 years parts, 1 year labor for Small Items","PEGASUS 2 SMART - Sam's,Vitality Plate for Sam's,",No,,Called,,Free Vitality Plate,"Original received.-Erika 11/1/19 10:38am
order placed on 10/26/19
CC, Jasmin Carrizales, 11/5/19, 11:15am/Av. Anytime",FL,0,7.25,USJ-849USJ-849,6432.86,9352-6127-6601-3469-7899-05,,,,,,,,/,0.00,,,,,,,,,/,0.00,,,,,,,,,/
