﻿Original Event Name,Event Name,Sales Person,Order Number,Order Date,Customer Name,State,Zip,Product Name,Color,Product Status,QTY,Tax,Total Before Tax,Order Total,Primary Payment Method,Second Payment Method,Thirdl Payment Method,Warranty,Order Items,Pick up,Delivered On,Order Status,Chair Type,Order Notes,Private Note,Branch,No Tax,Actual Tax Rate,SKU,Primary Payment Balance,Primary Authorize Number,Primary Purchase Order Number,Primary Synchrony Account Number,Primary Synchrony Application Key,Primary Synchrony Account Info,Primary Synchrony Term,Primary Synchrony Primary ID,Primary Synchrony Issued State,Primary Synchrony Expiretion Date,Second Payment Balance,Second Authorize Number,Second Purchase Order Number,Second Synchrony Account Number,Second Synchrony Application Key,Second Synchrony Account Info,Second SynchronyTerm,Second Synchrony Primary ID,Second Synchrony Issued State,Second Synchrony Expiretion Date,Third Payment Balance,Third Authorize Number,Third Purchase Order Number,Third Synchrony Account Number,Third Synchrony Application Key,Third Synchrony Account Info,Third Synchrony Term,Third Synchrony Primary ID,Third Synchrony Issued State,Third Synchrony Expiretion Date
"The New Central Market,  Anchorage.","The New Central Market,  Anchorage.",May Kam,122293,11/5/2019 2:29:37 PM,Mrs Hyun Yoo,AK,99503,Relax 2 Zero 2.0,New Brown,New,1,0.00,3000.00,3000.00,Credit Card,,,"5 years parts, 1 year labor (Free)","Relax 2 Zero 2.0,",No,11/4/2019 12:00:00 AM,Delivered,New,"The demo place  market owner special discount , paid off, TX branch Manager Mario delivered chair on Nov 4,2019",Original/delivery conf received. Chair was delivered by Texas Mario. Payment of $3000 verified on SQ-Erika 11/6/19 11:09am,CA,1,0.00,USJ-9050USJ-9050BR,3000.00,fCe6,,,,,,,,/,0.00,,,,,,,,,/,0.00,,,,,,,,,/
"The New Central Market,  Anchorage.","The New Central Market,  Anchorage.",May Kam,122305,11/5/2019 7:31:26 PM,Mr & Mrs James Chun,AK,99502,Relax 2 Zero 2.0,Demo Black,Demo,1,0.00,3000.00,3000.00,Credit Card,Credit Card,,"5 years parts, 1 year labor (Free)","Relax 2 Zero 2.0,",No,11/3/2019 12:00:00 AM,Delivered,Demo,"Delivered by Tx branch manager Mario; Pls send 1 pcs USJ 568 -M by USPS as gift , thanks","Original/delivery conf received. Chair was delivered by Texas Mario. Payments of $300 & $2700 verified on SQ-Erika 11/6/19 9:50am
Mailed Magnetic Wait Belt Medium through USPS priority mail. Tracking # 9114901496451746879920. 11/6/19 - Lex",CA,1,0.00,USJ-9050USJ-9050BL-DEMO,300.00,#bPoe,,,,,,,,/,2700.00,Jdzw,,,,,,,,/,0.00,,,,,,,,,/
"The New Central Market,  Anchorage.","The New Central Market,  Anchorage.",May Kam,122308,11/5/2019 7:46:19 PM,Mr & Mrs Jae S Kim,AK,99515,Relax 2 Zero 2.0,Demo Brown,Demo,1,0.00,3000.00,3000.00,Credit Card,Credit Card,,"5 years parts, 1 year labor (Free)","Relax 2 Zero 2.0,Tourmaline Pad for Relax2Zero 2.0,Daiwa Blanket,",No,11/4/2019 12:00:00 AM,Delivered,Demo,"Delivered by TX branch Manager Mario, need send Tourmaline pad & blanket to his house by USPS , thanks","Original/delivery conf received. Chair was delivered by Texas Mario. Payments of $200 & $2800 verified on SQ-Erika 11/6/19 9:46am
Mailed Tourmaline pad and Daiwa blanket through USPS priority mail. Tracking # 9114901496451746879883 - 11/6/19 - Lex",CA,1,0.00,USJ-9050USJ-9050BR-DEMO,200.00,OxrB,,,,,,,,/,2800.00,VW1L,,,,,,,,/,0.00,,,,,,,,,/
"The New Central Market,  Anchorage.","The New Central Market,  Anchorage.",May Kam,122312,11/5/2019 8:01:31 PM,Mrs Kyu Ran Bae,AK,99503,Relax 2 Zero 2.0,Demo Brown,Demo,1,0.00,3000.00,3000.00,Credit Card,Credit Card,,"5 years parts, 1 year labor (Free)","Relax 2 Zero 2.0,",No,11/3/2019 12:00:00 AM,Delivered,Demo,"Delivered by TX branch Manager Mario, Pls USJ 568 only 1 pcs ( her waist is 30 inch )","Original/delivery conf received. Chair was delivered by Texas Mario. Payments of $300 & $2700 verified on SQ-Erika 11/6/19 9:57am
Mailed Magnetic Wait Belt Medium through USPS priority mail. Tracking # 9114901496451746879999. 11/6/19 - Lex",CA,1,0.00,USJ-9050USJ-9050BR-DEMO,300.00,yI5K,,,,,,,,/,2700.00,MCub,,,,,,,,/,0.00,,,,,,,,,/
"The New Central Market,  Anchorage.","The New Central Market,  Anchorage.",Mario Higareda,122313,11/5/2019 8:28:31 PM,Mrs Mee Son Chung,AK,99518,Relax 2 Zero 2.0,New Brown,New,1,0.00,2700.00,2700.00,Credit Card,Credit Card,,"5 years parts, 1 year labor (Free)","Relax 2 Zero 2.0,",No,11/4/2019 12:00:00 AM,Delivered,New,Delivered by TX branch Manager Mario,Original/delivery conf received. Chair was delivered by Texas Mario. Payments of $200 & $2500 verified on SQ-Erika 11/6/19 11:13 am,CA,1,0.00,USJ-9050USJ-9050BR,200.00,IGgY,,,,,,,,/,2500.00,UUdK,,,,,,,,/,0.00,,,,,,,,,/
