﻿Date,CustomerName,State,Zipcode,Description,productNo,Color,IsDemo,Net,ShippingFee,GiftPrice,FinancingProcessingFee,Gross,Pre_tax,Tax,Commission,Primary Payment Method,Primary Payment Balance,Primary Authorize Number,Primary Purchase Order Number,Primary Synchrony Account Number,Primary Synchrony Application Key,Primary Synchrony AccountInfo,Primary SynchronyTerm,Secondly Payment Method,Secondly Payment Balance,Secondly Authorize Number,Secondly Purchase Order Number,Secondly Synchrony Account Number,Secondly Synchrony Application Key,Secondly Synchrony AccountInfo,Secondly SynchronyTerm,Thirdly Payment Method,Thirdly Payment Balance,Thirdly Authorize Number,Thirdly Purchase Order Number,Thirdly Synchrony Account Number,Thirdly Synchrony Application Key,Thirdly Synchrony AccountInfo,Thirdly SynchronyTerm,DeliveryDate,Ispickup,Warranty,Status,Event Name,Synchrony Notes,Order Notes,Order number,Private Note,Branch,IsNoTax,ActualTaxRate
2/28/2018 1:34:00 PM,Lisa Shepard,TX,78415,Legacy,DWA-9100DWA-9100BL,New Black,New,,,,,4500.00,4500.00,0.00,KHOA H,CreditCard,350.00,143254,,,,,,CreditCard,4150.00,852737,,,,,,,0.00,,,,,,,3/2/2018 12:00:00 AM,No,"3 years parts, 1 year labor (Free)",Delivered,"CORPUS CHRISTI HM & GD	(2/16-2/18, TX)",,,104056,"confirmed $350 in Wells Fargo. COD $4,150. 3/1/18 Hitomi
Balance paid upon delivery. Approval code: 852737
Confirmed $4150 in Wells Fargo. 4/3/18 Riho",TX,1,8.25
