﻿Date,CustomerName,State,Zipcode,Description,productNo,Color,IsDemo,Net,ShippingFee,GiftPrice,FinancingProcessingFee,Gross,Pre_tax,Tax,Commission,Primary Payment Method,Primary Payment Balance,Primary Authorize Number,Primary Purchase Order Number,Primary Synchrony Account Number,Primary Synchrony Application Key,Primary Synchrony AccountInfo,Primary SynchronyTerm,Secondly Payment Method,Secondly Payment Balance,Secondly Authorize Number,Secondly Purchase Order Number,Secondly Synchrony Account Number,Secondly Synchrony Application Key,Secondly Synchrony AccountInfo,Secondly SynchronyTerm,Thirdly Payment Method,Thirdly Payment Balance,Thirdly Authorize Number,Thirdly Purchase Order Number,Thirdly Synchrony Account Number,Thirdly Synchrony Application Key,Thirdly Synchrony AccountInfo,Thirdly SynchronyTerm,DeliveryDate,Ispickup,Warranty,Status,Event Name,Synchrony Notes,Order Notes,Order number,Private Note,Branch,IsNoTax,ActualTaxRate
1/13/2018 9:50:39 PM,David & Jenny Lindemann,TX,78732,Relax2Zero 3D,DWA-9060USJ-9060BL,Black,New,,,,,4200.00,4200.00,0.00,Tom Nguyen,CreditCard,500.00,Square #Njdf,,,,,,CreditCard,0.00,,,,,,,,0.00,,,,,,,,No,"3 years parts, 1 year labor (Free)",Called,AUSTIN HOME & GD #706 1/12-14/18 (TX),,Pay remaining on Delivery,102930,confirmed $500 in Square. 1/15/18 Hitomi,TX,1,8.25
1/13/2018 9:57:43 PM,James Wilson,TX,78628,Relax2Zero 3D,DWA-9060USJ-9060BR,Choco Brown,New,,,,,3500.00,3500.00,0.00,Tom Nguyen,CreditCard,200.00,Square #iQ1G,,,,,,Cash,0.00,,,,,,,,0.00,,,,,,,,No,"3 years parts, 1 year labor (Free)",Called,AUSTIN HOME & GD #706 1/12-14/18 (TX),,CASH on Delivery,102931,confirmed $200 in Square. 1/15/18 Hitomi,TX,1,8.25
1/13/2018 10:02:36 PM,Albie Zayas,TX,78610,Relax2Zero 3D,DWA-9060USJ-9060BR,Choco Brown,New,,,,,4000.00,4000.00,0.00,Jennifer Tran,CreditCard,4000.00,Square # Oknt,,,,,,,0.00,,,,,,,,0.00,,,,,,,,No,"3 years parts, 1 year labor (Free)",Called,AUSTIN HOME & GD #706 1/12-14/18 (TX),,,102932,,TX,1,8.25
1/13/2018 10:06:49 PM,Daniel Hoeger,TX,78660,Pegasus,DWA-9400Pegasus-BL-DEMO,Demo Black,Demo,,,,,4000.00,4000.00,0.00,Jennifer Tran,CreditCard,4000.00,Square #cEWu,,,,,,,0.00,,,,,,,,0.00,,,,,,,1/14/2018 12:00:00 AM,YES,"3 years parts, 1 year labor (Free)",Delivered,AUSTIN HOME & GD #706 1/12-14/18 (TX),,"SN# 0501001170098
Customer picked up 1/14/2018",102933,confirmed $4000 in Square. 1/15/18 Hitomi,TX,1,8.25
1/13/2018 10:19:17 PM,Jane & Michael Santos,TX,78640,Relax2Zero 3D,DWA-9060USJ-9060BR-DEMO,Demo Choco Brown,Demo,,,,,3788.75,3500.00,288.75,Chris Tavira,CreditCard,3788.75,Square #Dzyu,,,,,,,0.00,,,,,,,,0.00,,,,,,,1/14/2018 12:00:00 AM,YES,"3 years parts, 1 year labor (Free)",Delivered,AUSTIN HOME & GD #706 1/12-14/18 (TX),,"SN# 0103002170296
Customer picked up 1/14/2018",102934,"confirmed $3,788.75 in Square.  1/15/18 Hitomi",TX,0,8.25
1/13/2018 10:27:00 PM,Phil Pascoe,TX,77423,Legacy 3D,DWA-9150USJ-9150BL,Black,New,,,,,3700.00,3700.00,0.00,Kristy Tran,CreditCard,200.00,Square #q4tp,,,,,,Cash,0.00,,,,,,,,0.00,,,,,,,,No,"3 years parts, 1 year labor (Free)",Scheduled,AUSTIN HOME & GD #706 1/12-14/18 (TX),,"CASH on Delivery
No checks or card",102935,confirmed $200 in Square.1/15/18 Hitomi,TX,1,8.25
1/13/2018 10:33:01 PM,Cassandra Lee,TX,78612,Pegasus,DWA-9400Pegasus-BL,Black,New,,,,,5000.00,5000.00,0.00,Kristy Tran,Synchrony,0.00,,,,,,,,0.00,,,,,,,,0.00,,,,,,,,No,"3 years parts, 1 year labor (Free)",Hold,AUSTIN HOME & GD #706 1/12-14/18 (TX),,"Finance 36 months.
Hold Synchrony processing until customer is finished on closing.
They will advise and follow up by next week.",102936,,TX,1,8.25
1/13/2018 10:48:56 PM,Derek R. VanGilder,TX,78602,Relax2Zero 3D,DWA-9060USJ-9060BL,Black,New,,,,,3850.00,3850.00,0.00,Chris Tavira,Synchrony,3850.00,,,6034610083045370,83652275,Huston,12 months,,0.00,,,,,,,,0.00,,,,,,,,No,"3 years parts, 1 year labor (Free)",Scheduled,AUSTIN HOME & GD #706 1/12-14/18 (TX),Auth# 018553,"Customer wants the arms that are FLAT, smooth texture with no bumps.",102938,"confirmed the account in Synchrony.($3,900) *Please charge before delivery.* 1/15/18 Hitomi",TX,1,8.25
1/14/2018 2:35:20 PM,Mike Brunner,TX,78731,Relax2Zero 3D,DWA-9060USJ-9060BL,Black,New,,,,,4200.00,4200.00,0.00,Tom Nguyen,CreditCard,4200.00,Square #1Dzx,,,,,,,0.00,,,,,,,,0.00,,,,,,,,No,"3 years parts, 1 year labor (Free)",Called,AUSTIN HOME & GD #706 1/12-14/18 (TX),,,102947,confirmed $4200 in Square. 1/15/18 Hitomi,TX,1,8.25
1/14/2018 2:39:11 PM,Yue Liang,TX,75068,Legacy 3D,DWA-9150USJ-9150CH,Choco Brown,New,,,,,3500.00,3500.00,0.00,Jennifer Tran,CreditCard,300.00,Square #qJhG,,,,,,Cash,0.00,,,,,,,,0.00,,,,,,,,No,"3 years parts, 1 year labor (Free)",Cancelled,AUSTIN HOME & GD #706 1/12-14/18 (TX),,"Hold Delivery for 6 months
CASH on Delivery
No cards or checks",102948,,Not Dispatched,1,8.25
1/14/2018 2:42:57 PM,Zhong Ying Zhu,TX,78730,Legacy 3D,DWA-9150USJ-9150CH,Choco Brown,New,,,,,3500.00,3500.00,0.00,Jennifer Tran,Cash,1000.00,,,,,,,Cash,0.00,,,,,,,,0.00,,,,,,,,No,"3 years parts, 1 year labor (Free)",Cancelled,AUSTIN HOME & GD #706 1/12-14/18 (TX),,"CASH on Delivery
No cards or checks",102949,,Not Dispatched,1,8.25
1/14/2018 2:51:17 PM,Yue Liang,TX,75068,Relax2Zero 3D,DWA-9060USJ-9060BR,Choco Brown,New,,,,,3500.00,3500.00,0.00,Jennifer Tran,CreditCard,300.00,Square #qJhG,,,,,,Cash,0.00,,,,,,,,0.00,,,,,,,,No,"3 years parts, 1 year labor (Free)",Hold,AUSTIN HOME & GD #706 1/12-14/18 (TX),,"CASH on Delivery 
No checks or cards
HOLD Delivery for 6 months
Please disregard other invoice",102950,confirmed $300 in Square. 1/15/18 Hitomi,TX,1,8.25
1/14/2018 2:54:30 PM,Zhong Ying Zhu,TX,78730,Relax2Zero 3D,DWA-9060USJ-9060BR,Choco Brown,New,,,,,3500.00,3500.00,0.00,Jennifer Tran,Cash,1000.00,,,,,,,Cash,0.00,,,,,,,,0.00,,,,,,,,No,"3 years parts, 1 year labor (Free)",Called,AUSTIN HOME & GD #706 1/12-14/18 (TX),,"CASH on Delivery
No cards or checks
Please disregard other invoice",102951,"TX Mario received the cash deposit $1000. 1/16/18 Riho
**COD $2500**",TX,1,8.25
1/14/2018 2:59:53 PM,Paul Finn,TX,78653,Relax2Zero 3D,DWA-9060USJ-9060BL,Black,New,,,,,3700.00,3700.00,0.00,Chris Tavira,CreditCard,100.00,Square #OBrz,,,,,,Synchrony,3600.00,,,6034610083047558,83687608,Huston,36 months,,0.00,,,,,,,,No,"3 years parts, 1 year labor (Free)",Scheduled,AUSTIN HOME & GD #706 1/12-14/18 (TX),Auth# 018953,Please proceed with Synchrony sale,102952,"confirmed $100 in Square. confirmed the account in Synchrony.( $5,500) *Please charge $3600 before delivery.* 1/15/18 Hitomi",TX,1,8.25
1/14/2018 3:04:20 PM,Daniel Rothwell,TX,78745,Relax2Zero 3D,DWA-9060USJ-9060BL,Black,New,,,,,4000.00,4000.00,0.00,Tom Nguyen,Synchrony,4000.00,,,6034610083047772,83691540,Huston,36 months,,0.00,,,,,,,,0.00,,,,,,,,No,"3 years parts, 1 year labor (Free)",Scheduled,AUSTIN HOME & GD #706 1/12-14/18 (TX),Auth# 018535,"Please proceed with Synchrony sale
Deliver before February",102953,confirmed the account in Synchrony.($8500) *Please charge before delivery. * 1/15/18 Hitomi,TX,1,8.25
1/14/2018 3:08:31 PM,Lance Giambelluca,TX,78750,Relax2Zero 3D,DWA-9060USJ-9060BR-DEMO,Demo Choco Brown,Demo,,,,,3500.00,3500.00,0.00,Jennifer Tran,CreditCard,3500.00,Square #I54g,,,,,,,0.00,,,,,,,,0.00,,,,,,,1/14/2018 12:00:00 AM,YES,"3 years parts, 1 year labor (Free)",Delivered,AUSTIN HOME & GD #706 1/12-14/18 (TX),,"SN# 96160223D
Customer picked up 1/14/2018",102954,"confirmed $3,500 in Square. 1/15/18",TX,1,8.25
1/14/2018 3:12:09 PM,Simone Houlihan,TX,78681,Pegasus,DWA-9400Pegasus-BR-DEMO,Demo Choco Brown,Demo,,,,,4000.00,4000.00,0.00,Tom Nguyen,CreditCard,4000.00,Square #TiDa,,,,,,,0.00,,,,,,,,0.00,,,,,,,1/14/2018 12:00:00 AM,YES,"3 years parts, 1 year labor (Free)",Delivered,AUSTIN HOME & GD #706 1/12-14/18 (TX),,"SN# 0501002170162
Customer picked up 1/14/2018",102955,"confirmed $4,000 in Square. 1/15/18 Hitomi",TX,1,8.25
1/14/2018 3:15:31 PM,Marilyn Nichols,TX,78759,Pegasus,DWA-9400Pegasus-BR-DEMO,Demo Choco Brown,Demo,,,,,4100.00,4100.00,0.00,Tom Nguyen,CreditCard,300.00,Square #wCM1,,,,,,,0.00,,,,,,,,0.00,,,,,,,,No,"3 years parts, 1 year labor (Free)",Called,AUSTIN HOME & GD #706 1/12-14/18 (TX),,,102956,confirmed $300 in Square. 1/15/18 Hitomi,TX,1,8.25
1/14/2018 3:20:01 PM,Melissa Fanning,TX,78665,Relax2Zero 3D,DWA-9060USJ-9060BL-DEMO,Demo Black,Demo,,,,,3500.00,3500.00,0.00,Kristy Tran,CreditCard,100.00,Square #a3HG,,,,,,,0.00,,,,,,,,0.00,,,,,,,,YES,"3 years parts, 1 year labor (Free)",Cancelled,AUSTIN HOME & GD #706 1/12-14/18 (TX),,,102957,,Not Dispatched,1,8.25
