﻿Date,CustomerName,State,Zipcode,Description,productNo,Color,IsDemo,Net,ShippingFee,GiftPrice,FinancingProcessingFee,Gross,Pre_tax,Tax,Commission,Primary Payment Method,Primary Payment Balance,Primary Authorize Number,Primary Purchase Order Number,Primary Synchrony Account Number,Primary Synchrony Application Key,Primary Synchrony AccountInfo,Primary SynchronyTerm,Secondly Payment Method,Secondly Payment Balance,Secondly Authorize Number,Secondly Purchase Order Number,Secondly Synchrony Account Number,Secondly Synchrony Application Key,Secondly Synchrony AccountInfo,Secondly SynchronyTerm,Thirdly Payment Method,Thirdly Payment Balance,Thirdly Authorize Number,Thirdly Purchase Order Number,Thirdly Synchrony Account Number,Thirdly Synchrony Application Key,Thirdly Synchrony AccountInfo,Thirdly SynchronyTerm,DeliveryDate,Ispickup,Warranty,Status,Event Name,Synchrony Notes,Order Notes,Order number,Private Note,Branch,IsNoTax,ActualTaxRate
12/16/2017 10:49:31 PM,Mudit Arora,PA,19146,Legacy 3D,DWA-9150USJ-9150CH,Choco Brown,New,,,,,3850.00,3613.74,236.26,Kristy Tran,CreditCard,100.00,E491D8E4C1B5B051,,,,,,,0.00,,,,,,,,0.00,,,,,,,,No,"3 years parts, 1 year labor (Free)",Called,Anti-Aging Show Las Vegas (NV),,Deposit $100. Please Call for Balance when We Are ready to ship.,102515,"Please ship the chair as soon as possible after we collect  the balance $3750
WF DEPOSIT CLEARED 100 - 12/18/17 STEPHANY",TX,0,8.25
12/16/2017 11:04:29 PM,James Schaan,AZ,85714,Relax2Zero 3D,DWA-9060USJ-9060BR,Choco Brown,New,,,,,4349.99,4075.63,274.36,Kristy Tran,CreditCard,4350.00,1243FC70699BD197,,,,,,,0.00,,,,,,,,0.00,,,,,,,,No,"3 years parts, 1 year labor (Free)",Called,Anti-Aging Show Las Vegas (NV),,Paid In Full. Please Give them Free Tourmaline Pad,102516,12/18/17- Cristina- printed-,CA,0,8.25
12/16/2017 11:04:29 PM,James Schaan,AZ,85714,Tourmaline Pad for Relax2Zero 3D,,,New,,,,,4349.99,4075.63,274.36,Kristy Tran,CreditCard,4350.00,1243FC70699BD197,,,,,,,0.00,,,,,,,,0.00,,,,,,,,No,no warranty,Called,Anti-Aging Show Las Vegas (NV),,Paid In Full. Please Give them Free Tourmaline Pad,102516,12/18/17- Cristina- printed-,CA,0,8.25
12/16/2017 11:10:47 PM,Alexandra Oleinik,FL,33181,Legacy 3D,DWA-9150USJ-9150BL,Black,New,,,,,3800.00,3567.55,232.45,Kristy Tran,CreditCard,3800.00,F273AC808BA3F8E0,,,,,,,0.00,,,,,,,,0.00,,,,,,,,No,"3 years parts, 1 year labor (Free)",Assigned,Anti-Aging Show Las Vegas (NV),,Paid in full.,102517,"WF CLEARED 3800 - STEPHANY 12/18/17
12/19/17-Cristina- Per Kristy customer is not ready for delivery until the 1st week of Jan.",FL,0,8.25
12/16/2017 11:18:29 PM,Margo Emami,CA,92130,Legacy 3D,DWA-9150USJ-9150CH-DEMO,Demo Choco Brown,Demo,,,,,3800.00,3567.55,232.45,Tom Nguyen,CreditCard,100.00,07016G,,,,,,CreditCard,3700.00,05649G,,,,,,,0.00,,,,,,,,No,"3 years parts, 1 year labor (Free)",Assigned,Anti-Aging Show Las Vegas (NV),,Paid In Full. Please ship As soon As Possible. Please Call for schedule before 12/20.,102518,Confirmed $100 and $3700 in Daiwa Space. 12/19/17 Riho,CA,0,8.25
12/16/2017 11:22:55 PM,James Lyons,AZ,85255,Legacy 3D,DWA-9150USJ-9150BL,Black,New,,,,,4300.00,4029.45,270.55,Tom Nguyen,CreditCard,4300.00,C9549A4A08A14466,,,,,,,0.00,,,,,,,,0.00,,,,,,,,No,"3 years parts, 1 year labor (Free)",Called,Anti-Aging Show Las Vegas (NV),,Paid In full. Please Give them Free Tourmaline Pad.,102519,12/18/17/- check for receipt from Tom,CA,0,8.25
12/16/2017 11:22:55 PM,James Lyons,AZ,85255,Tourmaline Pad for Legacy 3D,,,New,,,,,4300.00,4029.45,270.55,Tom Nguyen,CreditCard,4300.00,C9549A4A08A14466,,,,,,,0.00,,,,,,,,0.00,,,,,,,,No,no warranty,Called,Anti-Aging Show Las Vegas (NV),,Paid In full. Please Give them Free Tourmaline Pad.,102519,12/18/17/- check for receipt from Tom,CA,0,8.25
12/16/2017 11:41:46 PM,Marla Gibbs,FL,33166,Legacy 3D,DWA-9150USJ-9150BL,Black,New,,,,,4000.00,4000.00,0.00,Tom Nguyen,CreditCard,4000.00,EC6F7632BB4A2CBD,,,,,,,0.00,,,,,,,,0.00,,,,,,,,No,"3 years parts, 1 year labor (Free)",Assigned,Anti-Aging Show Las Vegas (NV),,"Please call for her before drop off. If we use trucking company, please send her the tracking #.  her emal: newlands@candw.ky",102520,"Customer Address: 
PO Box 490  
City :Grand Cayman
State : Cayman Island  Zip: KYI-1502
Warranty: 3 years Parts only.",FL,1,8.25
12/16/2017 11:50:56 PM,Tariq Mirza,CA,94587,Relax2Zero 3D,DWA-9060USJ-9060BL,Black,New,,,,,3500.00,3290.42,209.58,Kristy Tran,CreditCard,3500.00,CDCD4B0096D636C5,,,,,,,0.00,,,,,,,,0.00,,,,,,,,No,"3 years parts, 1 year labor (Free)",Assigned,Anti-Aging Show Las Vegas (NV),,Paid In full.,102521,Possible customer may buy 6 in future.,CA,0,8.25
12/16/2017 11:57:16 PM,Dr. Stepher Rath,NM,88345,Relax2Zero 3D,DWA-9060USJ-9060BL-DEMO,Demo Black,Demo,,,,,3800.00,3567.55,232.45,Tom Nguyen,CreditCard,3800.00,B3C7B247B975A792,,,,,,,0.00,,,,,,,,0.00,,,,,,,,No,"3 years parts, 1 year labor (Free)",Called,Anti-Aging Show Las Vegas (NV),,Paid In Full. Please Pick Up their Old Chair and Throw Away.,102522,WF CLEARED FOR 3800 - 12/18/17 STEPHANY AUTH 821304,TX,0,8.25
12/17/2017 12:05:26 AM,Abdalmajid Katranji,MI,48823,Relax2Zero 3D,DWA-9060USJ-9060BR-DEMO,Demo Choco Brown,Demo,,,,,3800.00,3567.55,232.45,Tom Nguyen,CreditCard,100.00,24F07CBDB31E14B4,,,,,,,0.00,,,,,,,,0.00,,,,,,,,No,"3 years parts, 1 year labor (Free)",Hold,Anti-Aging Show Las Vegas (NV),,"Deposit $100, Customer will call back for balance on next week.",102523,,Not Dispatched,0,8.25
12/17/2017 12:12:29 AM,Joseph Leano,AZ,85704,Relax2Zero 3D,DWA-9060USJ-9060BL,Black,New,,,,,3999.99,3725.63,274.36,Tom Nguyen,CreditCard,4000.00,C0DCC3EC2FA4D7A3,,,,,,,0.00,,,,,,,,0.00,,,,,,,,No,"3 years parts, 1 year labor (Free)",Called,Anti-Aging Show Las Vegas (NV),,Paid In Full,102524,12/18/17-cristina- printed,CA,0,8.25
12/17/2017 12:20:01 AM,Steven Parnell,MN,56031,Relax2Zero 3D,DWA-9060USJ-9060BR,Choco Brown,New,,,,,4000.00,3752.31,247.69,Kristy Tran,CreditCard,4000.00,DCAD5576FFC0AF37,,,,,,,0.00,,,,,,,,0.00,,,,,,,,No,"3 years parts, 1 year labor (Free)",Called,Anti-Aging Show Las Vegas (NV),,Paid In Full.,102525,WF CLEARED FOR 4000 - 12/18/17 STEPHANY,TX,0,8.25
12/17/2017 12:31:45 AM,Khanh Pham,NV,89131,Relax2Zero 3D,DWA-9060USJ-9060BL,Black,New,,,,,3600.00,3382.79,217.21,Tom Nguyen,Synchrony,3600.00,,,6034610083005192,82609172,Las Vegas,36 months,,0.00,,,,,,,,0.00,,,,,,,,No,"3 years parts, 1 year labor (Free)",Assigned,Anti-Aging Show Las Vegas (NV),,Please Charge $3600/36 months on Synchrony Las Vegas Account.,102527,CHARGE SYNCHRONY BEFORE DELIVER 3600- 12/18/17 STEPHANY,NV,0,8.25
12/17/2017 12:37:16 AM,Erin Amato,MT,59102,Relax2Zero 3D,DWA-9060USJ-9060BL,Black,New,,,,,3999.99,3725.63,274.36,Tom Nguyen,Synchrony,4000.00,,,6034610083005218,82609366,Las Vegas,36 months,,0.00,,,,,,,,0.00,,,,,,,12/18/2017 12:00:00 AM,No,"3 years parts, 1 year labor (Free)",Delivered,Anti-Aging Show Las Vegas (NV),,"Drop Off Delivery.
Please charge $4000/36 months on Synchrony Las Vegas Account.",102528,"confirmed the account ($6,500), charged $4,000 through Synchrony. 
Stephany is scheduling for delivery. 12/18/17 Hitomi
ELITE CARGO 90029",CA,0,8.25
12/17/2017 12:44:07 AM,Jessica + David Mitchell,GA,30058,Relax2Zero 3D,DWA-9060USJ-9060BL,Black,New,,,,,4349.99,4075.63,274.36,Kristy Tran,CreditCard,4350.00,015512,,,,,,,0.00,,,,,,,,0.00,,,,,,,,No,"3 years parts, 1 year labor (Free)",Scheduled,Anti-Aging Show Las Vegas (NV),,Paid In full.,102529,WF CLEARED 4350 - 12/18/17 STEPHANY,FL,0,8.25
12/17/2017 4:17:14 PM,Kevin Conners,MN,55042,Legacy 3D,DWA-9150USJ-9150CH,Choco Brown,New,,,,,3700.00,3700.00,0.00,May Kam,CreditCard,3700.00,811984,,,,,,,0.00,,,,,,,,0.00,,,,,,,,No,"3 years parts, 1 year labor (Free)",Called,Anti-Aging Show Las Vegas (NV),,"Paid off, shipping only",102549,"confirmed $3,700 in Wells Fargo. 12/18/17 Hitomi",TX,1,8.25
12/17/2017 4:17:14 PM,Kevin Conners,MN,55042,Daiwa Blanket,,,New,,,,,3700.00,3700.00,0.00,May Kam,CreditCard,3700.00,811984,,,,,,,0.00,,,,,,,,0.00,,,,,,,,No,no warranty,Called,Anti-Aging Show Las Vegas (NV),,"Paid off, shipping only",102549,"confirmed $3,700 in Wells Fargo. 12/18/17 Hitomi",TX,1,8.25
12/17/2017 4:17:14 PM,Kevin Conners,MN,55042,Tourmaline Pad for Legacy 3D,,,New,,,,,3700.00,3700.00,0.00,May Kam,CreditCard,3700.00,811984,,,,,,,0.00,,,,,,,,0.00,,,,,,,,No,no warranty,Called,Anti-Aging Show Las Vegas (NV),,"Paid off, shipping only",102549,"confirmed $3,700 in Wells Fargo. 12/18/17 Hitomi",TX,1,8.25
12/17/2017 4:36:23 PM,Kevin Conners,MN,55082,Legacy 3D,DWA-9150USJ-9150CH,Choco Brown,New,,,,,4000.00,4000.00,0.00,May Kam,CreditCard,4000.00,823904,,,,,,,0.00,,,,,,,,0.00,,,,,,,,No,"3 years parts, 1 year labor (Free)",Called,Anti-Aging Show Las Vegas (NV),,"Paid off , shipping only",102550,"confirmed $4,000 in Wells Fargo. 12/18/17 Hitomi",TX,1,8.25
12/17/2017 4:36:23 PM,Kevin Conners,MN,55082,Daiwa Blanket,,,New,,,,,4000.00,4000.00,0.00,May Kam,CreditCard,4000.00,823904,,,,,,,0.00,,,,,,,,0.00,,,,,,,,No,no warranty,Called,Anti-Aging Show Las Vegas (NV),,"Paid off , shipping only",102550,"confirmed $4,000 in Wells Fargo. 12/18/17 Hitomi",TX,1,8.25
12/17/2017 4:36:23 PM,Kevin Conners,MN,55082,Tourmaline Pad for Legacy 3D,,,New,,,,,4000.00,4000.00,0.00,May Kam,CreditCard,4000.00,823904,,,,,,,0.00,,,,,,,,0.00,,,,,,,,No,no warranty,Called,Anti-Aging Show Las Vegas (NV),,"Paid off , shipping only",102550,"confirmed $4,000 in Wells Fargo. 12/18/17 Hitomi",TX,1,8.25
12/17/2017 4:45:22 PM,Natalya Marchelli,ID,83814,Legacy 3D,DWA-9150USJ-9150CH,Choco Brown,New,,,,,4350.00,4350.00,0.00,May Kam,Synchrony,4350.00,,,6034610083001118,82524727,San Diego,24 months,,0.00,,,,,,,,0.00,,,,,,,,No,"3 years parts, 1 year labor (Free)",Scheduled,Anti-Aging Show Las Vegas (NV),,"Pls make $4350 finance purchase, Thanks",102551,"confirmed the account ($ 4,800) in Synchrony. *Please charge before delivery.* 12/18/17 Hitomi
scheduled on dec 22 fri 1pm-4pm",WA,1,8.25
12/17/2017 5:24:51 PM,Tricia Nelson,CA,90049,Legacy 3D,DWA-9150USJ-9150CH-DEMO,Demo Choco Brown,Demo,,,,,3850.00,3850.00,0.00,May Kam,CreditCard,200.00,833323,,,,,,CreditCard,3650.00,COD,,,,,,,0.00,,,,,,,,No,"3 years parts, 1 year labor (Free)",Assigned,Anti-Aging Show Las Vegas (NV),,"Extra 1 each for chair back and foot pad , COD $3650",102553,"12/18/17- cristina _ printed
Customer would like delivery 12/28/17 if possible -  12/18/17 STEPHANY",CA,1,8.25
12/17/2017 5:24:51 PM,Tricia Nelson,CA,90049,Chair Pad for Legacy 3D,,,New,,,,,3850.00,3850.00,0.00,May Kam,CreditCard,200.00,833323,,,,,,CreditCard,3650.00,COD,,,,,,,0.00,,,,,,,,No,no warranty,Assigned,Anti-Aging Show Las Vegas (NV),,"Extra 1 each for chair back and foot pad , COD $3650",102553,"12/18/17- cristina _ printed
Customer would like delivery 12/28/17 if possible -  12/18/17 STEPHANY",CA,1,8.25
12/17/2017 5:24:51 PM,Tricia Nelson,CA,90049,Foot Pads for Legacy 3D,,,New,,,,,3850.00,3850.00,0.00,May Kam,CreditCard,200.00,833323,,,,,,CreditCard,3650.00,COD,,,,,,,0.00,,,,,,,,No,no warranty,Assigned,Anti-Aging Show Las Vegas (NV),,"Extra 1 each for chair back and foot pad , COD $3650",102553,"12/18/17- cristina _ printed
Customer would like delivery 12/28/17 if possible -  12/18/17 STEPHANY",CA,1,8.25
12/18/2017 6:21:35 AM,Nicole Bergstrom,NV,89706,Legacy 3D,DWA-9150USJ-9150BL-DEMO,Demo Black,Demo,,,,,3550.00,3550.00,0.00,May Kam,CreditCard,3550.00,824203,,,,,,,0.00,,,,,,,,0.00,,,,,,,12/16/2017 12:00:00 AM,YES,"3 years parts, 1 year labor (Free)",Delivered,Anti-Aging Show Las Vegas (NV),,"Picked up at Show place, paid off",102571,"confirmed $3,550 in Wells Fargo. 12/18/17 Hitomi
Received the confirmation from May. 12/18/17 Riho",NV,1,8.25
12/18/2017 7:10:15 AM,Larry Andrew,UT,84651,Legacy 3D,DWA-9150USJ-9150BL,Black,New,,,,,4350.00,4350.00,0.00,May Kam,CreditCard,2000.00,09677D,,,,,,CreditCard,2350.00,COD,,,,,,,0.00,,,,,,,,No,"3 years parts, 1 year labor (Free)",Assigned,Anti-Aging Show Las Vegas (NV),,COD $2350,102573,"confirmed $2,000 in Wells Fargo.  12/18/17 Hitomi",NV,1,8.25
12/18/2017 7:10:15 AM,Larry Andrew,UT,84651,Tourmaline Pad for Legacy 3D,,,New,,,,,4350.00,4350.00,0.00,May Kam,CreditCard,2000.00,09677D,,,,,,CreditCard,2350.00,COD,,,,,,,0.00,,,,,,,,No,no warranty,Assigned,Anti-Aging Show Las Vegas (NV),,COD $2350,102573,"confirmed $2,000 in Wells Fargo.  12/18/17 Hitomi",NV,1,8.25
12/18/2017 10:03:28 AM,Gordana Bowerfind,OH,44122,Legacy 3D,DWA-9150USJ-9150BL,Black,New,,,,,3850.00,3850.00,0.00,May Kam,Synchrony,3850.00,,,6034610083002892,82575298,Las Vegas,24 months,,0.00,,,,,,,,0.00,,,,,,,,No,"3 years parts, 1 year labor (Free)",Called,Anti-Aging Show Las Vegas (NV),,"Pls make $ 3850 finance purchase, thanks",102579,PLEASE CHARGE SYNCHRONY BEFORE DELIVERY - 12/18/17 STEPHANY,TX,1,8.25
12/18/2017 10:28:59 AM,Robert Phillips,CA,92562,Legacy 3D,DWA-9150USJ-9150CH-DEMO,Demo Choco Brown,Demo,,,,,3750.00,3750.00,0.00,May Kam,CreditCard,200.00,00271C,,,,,,CreditCard,3550.00,COD,,,,,,,0.00,,,,,,,,No,"3 years parts, 1 year labor (Free)",Scheduled,Anti-Aging Show Las Vegas (NV),,COD $3550,102581,WF CLEARED FOR 200 DEPOSIT  - 12/18/17 STEPHANY CHARGE COD UPON DELIVERY,CA,1,8.25
12/18/2017 12:58:53 PM,Faustina Kwok,BC,V7C5N5,Legacy 3D,DWA-9150USJ-9150BL,Black,New,,,,,3950.00,3950.00,0.00,May Kam,CreditCard,3950.00,172341,,,,,,,0.00,,,,,,,,0.00,,,,,,,,No,"3 years parts, 1 year labor (Free)",New,Anti-Aging Show Las Vegas (NV),,"Only 3 year parts warranty , since Daiwa space can’t select",102582,"confirmed $3,950 in Wells Fargo.(Debit Transaction) 12/19/17 Hitomi",Not Dispatched,1,8.25
12/18/2017 12:58:53 PM,Faustina Kwok,BC,V7C5N5,Tourmaline Pad for Legacy 3D,,,New,,,,,3950.00,3950.00,0.00,May Kam,CreditCard,3950.00,172341,,,,,,,0.00,,,,,,,,0.00,,,,,,,,No,No Warranty,New,Anti-Aging Show Las Vegas (NV),,"Only 3 year parts warranty , since Daiwa space can’t select",102582,"confirmed $3,950 in Wells Fargo.(Debit Transaction) 12/19/17 Hitomi",Not Dispatched,1,8.25
12/18/2017 1:22:47 PM,William Clark,CA,95366,Legacy 3D,DWA-9150USJ-9150CH,Choco Brown,New,,,,,3900.00,3900.00,0.00,May Kam,Check,1950.00,,,,,,,CreditCard,1950.00,COD,,,,,,,0.00,,,,,,,,No,"3 years parts, 1 year labor (Free)",Hold,Anti-Aging Show Las Vegas (NV),,Paid by check #3180 ; COD $1950,102583,,CA,1,8.25
12/18/2017 1:22:47 PM,William Clark,CA,95366,Tourmaline Pad for Legacy 3D,,,New,,,,,3900.00,3900.00,0.00,May Kam,Check,1950.00,,,,,,,CreditCard,1950.00,COD,,,,,,,0.00,,,,,,,,No,No Warranty,Hold,Anti-Aging Show Las Vegas (NV),,Paid by check #3180 ; COD $1950,102583,,CA,1,8.25
12/18/2017 1:37:12 PM,William Clark,CA,95366,Tourmaline Pad for Relax2Zero 3D,,,New,,,,,7800.00,7800.00,0.00,May Kam,Check,3900.00,,,,,,,CreditCard,3900.00,COD,,,,,,,0.00,,,,,,,,No,No Warranty,Hold,Anti-Aging Show Las Vegas (NV),,"Paid by check $3900 with order 102583
 together, pls deliver one Relax 2 Zero 3 D first,  COD $3900 . Pls hold another Relax 2 Zero 3D 
about one month later to deliver New place .",102585,,Not Dispatched,1,8.25
12/18/2017 1:37:12 PM,William Clark,CA,95366,Relax2Zero 3D,DWA-9060USJ-9060BR,Choco Brown,New,,,,,7800.00,7800.00,0.00,May Kam,Check,3900.00,,,,,,,CreditCard,3900.00,COD,,,,,,,0.00,,,,,,,,No,"3 years parts, 1 year labor (Free)",Hold,Anti-Aging Show Las Vegas (NV),,"Paid by check $3900 with order 102583
 together, pls deliver one Relax 2 Zero 3 D first,  COD $3900 . Pls hold another Relax 2 Zero 3D 
about one month later to deliver New place .",102585,,Not Dispatched,1,8.25
