﻿Date,CustomerName,State,Zipcode,Description,productNo,Color,IsDemo,Net,ShippingFee,GiftPrice,FinancingProcessingFee,Gross,Pre_tax,Tax,Commission,Primary Payment Method,Primary Payment Balance,Primary Authorize Number,Primary Purchase Order Number,Primary Synchrony Account Number,Primary Synchrony Application Key,Primary Synchrony AccountInfo,Primary SynchronyTerm,Secondly Payment Method,Secondly Payment Balance,Secondly Authorize Number,Secondly Purchase Order Number,Secondly Synchrony Account Number,Secondly Synchrony Application Key,Secondly Synchrony AccountInfo,Secondly SynchronyTerm,Thirdly Payment Method,Thirdly Payment Balance,Thirdly Authorize Number,Thirdly Purchase Order Number,Thirdly Synchrony Account Number,Thirdly Synchrony Application Key,Thirdly Synchrony AccountInfo,Thirdly SynchronyTerm,DeliveryDate,Ispickup,Warranty,Status,Event Name,Synchrony Notes,Order Notes,Order number,Private Note,Branch,IsNoTax,ActualTaxRate
2/12/2018 10:04:37 AM,N/A N/A,CA,00000,Foot Vibe Pro,USJ-871,,New,,,,,119.61,109.99,9.62,Lori Daringer,CreditCard,0.00,A#011598 TC#031300653294660875743,,,,,,,0.00,,,,,,,,0.00,,,,,,,,YES,"2 years parts, 1 year labor (Small Items)",Delivered,Sam's Club #6378 Riverside (CA),,,103656,,CA,0,8.75
2/12/2018 10:26:37 PM,N/A N/A,CA,00000,Ninja Leg Massager,,,New,,,,,412.16,379.00,33.16,Lori Daringer,Cash,0.00,,,,,,,,0.00,,,,,,,,0.00,,,,,,,,YES,"2 years parts, 1 year labor (Small Items)",Delivered,Sam's Club #6378 Riverside (CA),,,103686,TC#108739865565113016218,CA,0,8.75
2/13/2018 11:04:25 PM,N/A N/A,CA,00000,Shogun Neck & Back Massger,USJ-874USJ-874,New,New,,,,,217.48,199.98,17.50,Lori Daringer,Cash,0.00,,,,,,,,0.00,,,,,,,,0.00,,,,,,,,YES,"2 years parts, 1 year labor (Small Items)",Delivered,Sam's Club #6378 Riverside (CA),,,103712,TC#9586 0508 7333 0072 2443 7,CA,0,8.75
2/13/2018 11:10:39 PM,N/A N/A,CA,00000,Shogun Neck & Back Massger,USJ-874USJ-874,New,New,,,,,217.48,199.98,17.50,Lori Daringer,CreditCard,0.00,419041# Tc 894847146905338187096,,,,,,,0.00,,,,,,,,0.00,,,,,,,,YES,"2 years parts, 1 year labor (Small Items)",Delivered,Sam's Club #6378 Riverside (CA),,,103713,,CA,0,8.75
2/17/2018 10:35:59 PM,Singh Kulwinder,CA,92508,Legacy for Sam's,DWA-9100DWA-9100CH,Choco,New,,,,,4299.00,4299.00,0.00,Lori Daringer,CreditCard,0.00,A# 028480 TC# 4878357248989339190056,,,,,,,0.00,,,,,,,,0.00,,,,,,,3/12/2018 12:00:00 AM,No,"3 years parts, 1 year labor (Free)",Delivered,Sam's Club #6378 Riverside (CA),,,103769,02/19/18-Cristina- Printed,CA,1,8.75
2/17/2018 10:46:15 PM,N/A N/A,CA,00000,Shogun Neck & Back Massger,USJ-874USJ-874,New,New,,,,,217.48,199.98,17.50,Lori Daringer,CreditCard,0.00,A#09207G TC# 474471190007449653815,,,,,,,0.00,,,,,,,,0.00,,,,,,,,YES,"2 years parts, 1 year labor (Small Items)",Delivered,Sam's Club #6378 Riverside (CA),,,103770,,CA,0,8.75
2/19/2018 12:06:57 AM,N/A N/A,CA,00000,Ninja Leg Massager,,,New,,,,,629.64,578.98,50.66,Lori Daringer,Cash,0.00,,,,,,,CreditCard,0.00,TC# 852471392090440687835,,,,,,,0.00,,,,,,,,YES,"2 years parts, 1 year labor (Small Items)",Delivered,Sam's Club #6378 Riverside (CA),,,103833,,CA,0,8.75
2/19/2018 12:06:57 AM,N/A N/A,CA,00000,Shogun Neck & Back Massger,USJ-874USJ-874,New,New,,,,,629.64,578.98,50.66,Lori Daringer,Cash,0.00,,,,,,,CreditCard,0.00,TC# 852471392090440687835,,,,,,,0.00,,,,,,,,YES,"2 years parts, 1 year labor (Small Items)",Delivered,Sam's Club #6378 Riverside (CA),,,103833,,CA,0,8.75
2/19/2018 12:14:59 AM,N/A N/A,CA,00000,Vitality Plate for Sam's,USJ-849USJ-849,New,New,,,,,500.24,459.99,40.25,Lori Daringer,CreditCard,0.00,A#018556 TC# 8705 1387 5140 2274 5161 9,,,,,,,0.00,,,,,,,,0.00,,,,,,,,YES,"2 years parts, 1 year labor (Small Items)",Delivered,Sam's Club #6378 Riverside (CA),,,103834,,CA,0,8.75
2/19/2018 12:21:26 AM,N/A N/A,CA,00000,Shogun Neck & Back Massger,USJ-874USJ-874,New,New,,,,,217.48,199.98,17.50,Lori Daringer,CreditCard,0.00,TC# 1043 6005 028466-980-0723,,,,,,,0.00,,,,,,,,0.00,,,,,,,,YES,"2 years parts, 1 year labor (Small Items)",Delivered,Sam's Club #6378 Riverside (CA),,,103835,,CA,0,8.75
2/19/2018 12:32:18 AM,Meehan Lee,CA,92882,Legacy for Sam's,DWA-9100DWA-9100CH,Choco,New,,,,,4675.16,4299.00,376.16,Lori Daringer,CreditCard,0.00,A# 000947 TC# 7445013173100227439609,,,,,,,0.00,,,,,,,,0.00,,,,,,,2/27/2018 12:00:00 AM,No,"3 years parts, 1 year labor (Free)",Delivered,Sam's Club #6378 Riverside (CA),,,103836,02/19/18-Cristina- Printed,CA,0,8.75
