﻿Original Event Name,Event Name,Sales Person,Order Number,Order Date,Customer Name,State,Zip,Product Name,Color,Product Status,QTY,Tax,Total Before Tax,Order Total,Primary Payment Method,Second Payment Method,Thirdl Payment Method,Warranty,Order Items,Pick up,Delivered On,Order Status,Chair Type,Order Notes,Private Note,Branch,No Tax,Actual Tax Rate,SKU,Primary Payment Balance,Primary Authorize Number,Primary Purchase Order Number,Primary Synchrony Account Number,Primary Synchrony Application Key,Primary Synchrony Account Info,Primary Synchrony Term,Second Payment Balance,Second Authorize Number,Second Purchase Order Number,Second Synchrony Account Number,Second Synchrony Application Key,Second Synchrony Account Info,Second SynchronyTerm,Third Payment Balance,Third Authorize Number,Third Purchase Order Number,Third Synchrony Account Number,Third Synchrony Application Key,Third Synchrony Account Info,Third Synchrony Term
"Sam's Club #6213 CHANDLER,AZ 5/16-26/19 (NV)","Sam's Club #6213 CHANDLER,AZ 5/16-26/19 (NV)",Querubin Milanes,117439,5/18/2019 12:13:52 PM,"U.S.  JACLEAN, INC.",CA,90249,Vitality Plate for Sam's,New,New,1,35.88,459.99,495.87,Credit Card,,,"2 years parts, 1 year labor (Free)","Vitality Plate for Sam's,",YES,,Delivered,,,Customer pick-up @ Sams Club,CA,0,7.80,USJ-849USJ-849,495.87,TC 6007 3998 1925 8309 1724 7,,,,,,0.00,,,,,,,0.00,,,,,,
"Sam's Club #6213 CHANDLER,AZ 5/16-26/19 (NV)","Sam's Club #6213 CHANDLER,AZ 5/16-26/19 (NV)",Querubin Milanes,117446,5/18/2019 5:28:02 PM,"U.S.  JACLEAN, INC.",CA,90249,Vitality Plate for Sam's,New,New,1,35.88,459.99,495.87,Credit Card,,,"2 years parts, 1 year labor (Free)","Vitality Plate for Sam's,",YES,,Delivered,,,Customer pick-up @ Sams Club,CA,0,7.80,USJ-849USJ-849,495.87,TC 7725 0389 3340 9043 2168 5,,,,,,0.00,,,,,,,0.00,,,,,,
"Sam's Club #6213 CHANDLER,AZ 5/16-26/19 (NV)","Sam's Club #6213 CHANDLER,AZ 5/16-26/19 (NV)",Querubin Milanes,117451,5/18/2019 8:12:42 PM,"U.S.  JACLEAN, INC.",CA,90249,Foot Vibe Pro,,New,1,22.62,289.97,312.59,Credit Card,,,"2 years parts, 1 year labor (Free)","Foot Vibe Pro,Shogun Neck &amp; Back Massger,",YES,,Delivered,,,Customer pick-up @ Sams Club,CA,0,7.80,USJ-871,312.59,TC 5144 1195 8190 5221 7983 3,,,,,,0.00,,,,,,,0.00,,,,,,
"Sam's Club #6213 CHANDLER,AZ 5/16-26/19 (NV)","Sam's Club #6213 CHANDLER,AZ 5/16-26/19 (NV)",Querubin Milanes,117451,5/18/2019 8:12:42 PM,"U.S.  JACLEAN, INC.",CA,90249,Shogun Neck & Back Massger,Demo[-20],Demo,1,22.62,289.97,312.59,Credit Card,,,"2 years parts, 1 year labor (Free)","Foot Vibe Pro,Shogun Neck &amp; Back Massger,",YES,,Delivered,,,Customer pick-up @ Sams Club,CA,0,7.80,USJ-874USJ-874-DEMO,312.59,TC 5144 1195 8190 5221 7983 3,,,,,,0.00,,,,,,,0.00,,,,,,
"Sam's Club #6213 CHANDLER,AZ 5/16-26/19 (NV)","Sam's Club #6213 CHANDLER,AZ 5/16-26/19 (NV)",Querubin Milanes,117500,5/20/2019 8:00:51 PM,"U.S.  JACLEAN, INC.",CA,90249,Shogun Neck & Back Massger,New,New,1,15.60,199.98,215.58,Credit Card,,,"2 years parts, 1 year labor (Free)","Shogun Neck &amp; Back Massger,",YES,,Delivered,,,Customer pick-up @ Sams Club,CA,0,7.80,USJ-874USJ-874,215.58,TC 7204 0129 2137 5211 8287 3,,,,,,0.00,,,,,,,0.00,,,,,,
"Sam's Club #6213 CHANDLER,AZ 5/16-26/19 (NV)","Sam's Club #6213 CHANDLER,AZ 5/16-26/19 (NV)",Querubin Milanes,117502,5/20/2019 8:04:58 PM,"U.S.  JACLEAN, INC.",CA,90249,Shogun Neck & Back Massger,New,New,1,15.60,199.98,215.58,Credit Card,,,"2 years parts, 1 year labor (Free)","Shogun Neck &amp; Back Massger,",YES,,Delivered,,,Customer pick up @ Sams Club,NV,0,7.80,USJ-874USJ-874,215.58,TC 2861 5401 7418 0844 1058 2,,,,,,0.00,,,,,,,0.00,,,,,,
"Sam's Club #6213 CHANDLER,AZ 5/16-26/19 (NV)","Sam's Club #6213 CHANDLER,AZ 5/16-26/19 (NV)",Querubin Milanes,117512,5/21/2019 2:15:29 PM,"U.S.  JACLEAN, INC.",CA,90249,Foot Vibe Pro,,New,1,8.58,109.99,118.57,Credit Card,,,"2 years parts, 1 year labor (Free)","Foot Vibe Pro,",YES,,Delivered,,,Customer pick up @ Sams Club,CA,0,7.80,USJ-871,118.57,TC 6880 6361 0763 8275 6733 34,,,,,,0.00,,,,,,,0.00,,,,,,
"Sam's Club #6213 CHANDLER,AZ 5/16-26/19 (NV)","Sam's Club #6213 CHANDLER,AZ 5/16-26/19 (NV)",Querubin Milanes,117517,5/21/2019 7:15:33 PM,"U.S.  JACLEAN, INC.",CA,90249,Foot Vibe Pro,,New,1,0.00,309.97,309.97,Credit Card,,,"2 years parts, 1 year labor (Free)","Foot Vibe Pro,Shogun Neck &amp; Back Massger,",YES,,Delivered,,,Customer pick up @ Sams. The customer was Tax Exempted.,CA,1,7.80,USJ-871,309.97,TC 0441 6471 6496 0894 8558 2,,,,,,0.00,,,,,,,0.00,,,,,,
"Sam's Club #6213 CHANDLER,AZ 5/16-26/19 (NV)","Sam's Club #6213 CHANDLER,AZ 5/16-26/19 (NV)",Querubin Milanes,117517,5/21/2019 7:15:33 PM,"U.S.  JACLEAN, INC.",CA,90249,Shogun Neck & Back Massger,New,New,1,0.00,309.97,309.97,Credit Card,,,"2 years parts, 1 year labor (Free)","Foot Vibe Pro,Shogun Neck &amp; Back Massger,",YES,,Delivered,,,Customer pick up @ Sams. The customer was Tax Exempted.,CA,1,7.80,USJ-874USJ-874,309.97,TC 0441 6471 6496 0894 8558 2,,,,,,0.00,,,,,,,0.00,,,,,,
"Sam's Club #6213 CHANDLER,AZ 5/16-26/19 (NV)","Sam's Club #6213 CHANDLER,AZ 5/16-26/19 (NV)",Querubin Milanes,117521,5/22/2019 12:14:06 PM,"U.S.  JACLEAN, INC.",CA,90249,Shogun Neck & Back Massger,New,New,1,15.60,199.98,215.58,Credit Card,,,"2 years parts, 1 year labor (Free)","Shogun Neck &amp; Back Massger,",YES,,Delivered,,,Customer pick up @ Sams.,CA,0,7.80,USJ-874USJ-874,215.58,TC 2069 1852 6837 4988 2114 6,,,,,,0.00,,,,,,,0.00,,,,,,
"Sam's Club #6213 CHANDLER,AZ 5/16-26/19 (NV)","Sam's Club #6213 CHANDLER,AZ 5/16-26/19 (NV)",Querubin Milanes,117522,5/22/2019 2:10:26 PM,"U.S.  JACLEAN, INC.",CA,90249,Foot Vibe Pro,,New,1,8.58,109.99,118.57,Credit Card,,,"2 years parts, 1 year labor (Free)","Foot Vibe Pro,",YES,,Delivered,,,Customer pick up @ Sams.,CA,0,7.80,USJ-871,118.57,TC 8069 3892 6837 4968 9612 6,,,,,,0.00,,,,,,,0.00,,,,,,
"Sam's Club #6213 CHANDLER,AZ 5/16-26/19 (NV)","Sam's Club #6213 CHANDLER,AZ 5/16-26/19 (NV)",Querubin Milanes,117523,5/22/2019 2:12:54 PM,"U.S.  JACLEAN, INC.",CA,90249,Foot Vibe Pro,,New,1,8.58,109.99,118.57,Credit Card,,,"2 years parts, 1 year labor (Free)","Foot Vibe Pro,",YES,,Delivered,,,Customer pick up @ Sams,CA,0,7.80,USJ-871,118.57,TC 6740 6630 3657 2756 1839 4,,,,,,0.00,,,,,,,0.00,,,,,,
"Sam's Club #6213 CHANDLER,AZ 5/16-26/19 (NV)","Sam's Club #6213 CHANDLER,AZ 5/16-26/19 (NV)",Querubin Milanes,117540,5/23/2019 2:00:38 PM,Patricia Carillo,IL,61265,Foot Vibe Pro,,New,1,375.10,4808.99,5184.09,Credit Card,,,"2 years parts, 1 year labor (Free)","Legacy 3D - Sam's Club,Foot Vibe Pro,",No,,Hold,,,"Please Deliver the Legacy 3D Choco Chair after 3 Months from Purchase date. Thank you.
The Footvibe was pick up @ Sams Club Chandler, Az
5/24Maritza- Customer called to get delivery until September. Please send a courtesy text once dispatched with IL number. When September comes around please call to make sure someone will be home.
-original received. 5/28/19 2:55pm
05/29/19 Courtesy call/ TEXT completed- Cristina-05/29  Karen/ Emily please make sure to place as hold and follow up with them in Sept.
5/29- Spoke to customer confirmed to hold the delivery until September will put on Hold and check back to see if she is ready in September.-Karen",IL,0,7.80,USJ-871,5184.09,TC 2458 6876 4471 9656 7980 38,,,,,,0.00,,,,,,,0.00,,,,,,
"Sam's Club #6213 CHANDLER,AZ 5/16-26/19 (NV)","Sam's Club #6213 CHANDLER,AZ 5/16-26/19 (NV)",Querubin Milanes,117540,5/23/2019 2:00:38 PM,Patricia Carillo,IL,61265,Legacy 3D - Sam's Club,New Choco,New,1,375.10,4808.99,5184.09,Credit Card,,,"3 years parts, 1 year labor (Free)","Legacy 3D - Sam's Club,Foot Vibe Pro,",No,,Hold,,,"Please Deliver the Legacy 3D Choco Chair after 3 Months from Purchase date. Thank you.
The Footvibe was pick up @ Sams Club Chandler, Az
5/24Maritza- Customer called to get delivery until September. Please send a courtesy text once dispatched with IL number. When September comes around please call to make sure someone will be home.
-original received. 5/28/19 2:55pm
05/29/19 Courtesy call/ TEXT completed- Cristina-05/29  Karen/ Emily please make sure to place as hold and follow up with them in Sept.
5/29- Spoke to customer confirmed to hold the delivery until September will put on Hold and check back to see if she is ready in September.-Karen",IL,0,7.80,DWA-9150DWA-9150CH,5184.09,TC 2458 6876 4471 9656 7980 38,,,,,,0.00,,,,,,,0.00,,,,,,
"Sam's Club #6213 CHANDLER,AZ 5/16-26/19 (NV)","Sam's Club #6213 CHANDLER,AZ 5/16-26/19 (NV)",Querubin Milanes,117547,5/24/2019 12:43:55 PM,Nick Au,AZ,85048,Legacy 3D - Sam's Club,New Black,New,1,366.52,4699.00,5065.52,Credit Card,,,"5 years parts, 1 year labor (Free)","Legacy 3D - Sam's Club,",No,,Assigned,,,"Please Deliver a New Legacy 3D Black Chair. Thank You.

The 5 Years Warranty on Parts was Approved by Mr. Rod.
-Original Received. 5/28/19 2:56pm",NV,0,7.80,DWA-9150DWA-9150BL,5065.52,TC 0719 2185 2585 9496 8061 06,,,,,,0.00,,,,,,,0.00,,,,,,
"Sam's Club #6213 CHANDLER,AZ 5/16-26/19 (NV)","Sam's Club #6213 CHANDLER,AZ 5/16-26/19 (NV)",Querubin Milanes,117560,5/25/2019 1:27:34 PM,"U.S.  JACLEAN, INC.",CA,90249,Foot Vibe Pro,,New,1,8.58,109.99,118.57,Credit Card,,,"2 years parts, 1 year labor (Free)","Foot Vibe Pro,",YES,,Delivered,,,Customer pick up @ Sams.,NV,0,7.80,USJ-871,118.57,TC 1493 9055 2039 3470 4471 1,,,,,,0.00,,,,,,,0.00,,,,,,
"Sam's Club #6213 CHANDLER,AZ 5/16-26/19 (NV)","Sam's Club #6213 CHANDLER,AZ 5/16-26/19 (NV)",Querubin Milanes,117562,5/25/2019 2:30:26 PM,"U.S.  JACLEAN, INC.",CA,90249,Vitality Plate for Sam's,Demo[-60],Demo,1,31.20,399.99,431.19,Credit Card,,,"2 years parts, 1 year labor (Free)","Vitality Plate for Sam's,",YES,,Delivered,,,Customer pick up @ Sams.,NV,0,7.80,USJ-849USJ-849-DEMO,431.19,TC 2909 4802 8859 4998 8718 6,,,,,,0.00,,,,,,,0.00,,,,,,
"Sam's Club #6213 CHANDLER,AZ 5/16-26/19 (NV)","Sam's Club #6213 CHANDLER,AZ 5/16-26/19 (NV)",Querubin Milanes,117583,5/26/2019 2:00:35 PM,Alex Wraight,AZ,85044,Legacy for Sam's,New Choco,New,1,335.32,4299.00,4634.32,Credit Card,,,"3 years parts, 1 year labor (Free)","Legacy for Sam's,",No,,Assigned,,,"Please Deliver a New Legacy Choco Chair. (DWA-9100). Thank you.
Original received. Erika 5/28/19 2:55pm
Per LV req ship using 3rd party- Cristina / redispatched 05/29/19 11:32 am",CA,0,7.80,DWA-9100DWA-9100CH,4634.32,TC 8086 4754 8550 3719 5794 49,,,,,,0.00,,,,,,,0.00,,,,,,
