﻿Order Number,Order Date,Original Event Name,Event Name,Salesperson,SKU,Product Name,Color,QTY,Warranty,Payment Details,Tax,Order Total,Gross,Primary Payment Method,Primary Payment Balance,Primary Authorize Number,Primary Purchase Order Number,Primary Synchrony Account Number,Primary Synchrony Application Key,Primary Synchrony AccountInfo,Primary SynchronyTerm,Secondly Payment Method,Secondly Payment Balance,Secondly Authorize Number,Secondly Purchase Order Number,Secondly Synchrony Account Number,Secondly Synchrony Application Key,Secondly Synchrony AccountInfo,Secondly SynchronyTerm,Thirdly Payment Method,Thirdly Payment Balance,Thirdly Authorize Number,Thirdly Purchase Order Number,Thirdly Synchrony Account Number,Thirdly Synchrony Application Key,Thirdly Synchrony AccountInfo,Thirdly SynchronyTerm,Actual Shipping Cost,CustomerName,Shipping Address,Delivered On,Serial Number (TO Be),Note,Branch,IsNoTax,ActualTaxRate
108946,9/1/2018 10:27:26 AM,L.A. COUNTY FAIR 8/31-9/23/18 POMONA (CA),L.A. COUNTY FAIR 8/31-9/23/18 POMONA (CA),David Wang,DWA-9060USJ-9060BR-DEMO,Relax2Zero 3D,Demo Choco,1,"3 years parts, 1 year labor (Free)",CUSTOM ,0.00,4200.00,4200.00,Synchrony,4200.00,,,6019170813111330,93756134,San Diego,36 months,,0.00,,,,,,,,0.00,,,,,,,0.00,Amose Douge,909-546-2231,,,,CA,1,9.50
108946,9/1/2018 10:27:26 AM,L.A. COUNTY FAIR 8/31-9/23/18 POMONA (CA),L.A. COUNTY FAIR 8/31-9/23/18 POMONA (CA),David Wang,,Daiwa Blanket,,1,no warranty,CUSTOM ,0.00,4200.00,4200.00,Synchrony,4200.00,,,6019170813111330,93756134,San Diego,36 months,,0.00,,,,,,,,0.00,,,,,,,0.00,Amose Douge,909-546-2231,,,,CA,1,9.50
108947,9/1/2018 10:50:55 AM,L.A. COUNTY FAIR 8/31-9/23/18 POMONA (CA),L.A. COUNTY FAIR 8/31-9/23/18 POMONA (CA),Daisuke Ito,SOL-1,Solace,,1,"3 years parts, 1 year labor (Free)",CUSTOM ,295.93,4161.00,4161.00,CreditCard,4161.00,cftL,,,,,,,0.00,,,,,,,,0.00,,,,,,,0.00,Richard Lonsford,909-556-5159,,,,CA,0,9.50
108952,9/1/2018 3:36:39 PM,L.A. COUNTY FAIR 8/31-9/23/18 POMONA (CA),L.A. COUNTY FAIR 8/31-9/23/18 POMONA (CA),David Wang,DWA-9060USJ-9060BR,Relax2Zero 3D,New Choco,1,"5 years parts, 1 year labor ($300)",CUSTOM ,0.00,4800.00,4800.00,Synchrony,4800.00,,,6019170813114326,93818343,San Diego,36 months,,0.00,,,,,,,,0.00,,,,,,,0.00,Patricia Plourde,714-774-3195,,,,CA,1,9.50
109019,9/3/2018 10:46:56 AM,L.A. COUNTY FAIR 8/31-9/23/18 POMONA (CA),L.A. COUNTY FAIR 8/31-9/23/18 POMONA (CA),Daisuke Ito,DWA-9060USJ-9060BL,Relax2Zero 3D,New Black,1,"5 years parts, 1 year labor ($300)",CUSTOM ,0.00,4500.00,4500.00,CreditCard,4500.00,NLNr,,,,,,,0.00,,,,,,,,0.00,,,,,,,0.00,Francine Rizzio,760-927-5950,,,,CA,1,9.50
109025,9/3/2018 6:34:32 PM,L.A. COUNTY FAIR 8/31-9/23/18 POMONA (CA),L.A. COUNTY FAIR 8/31-9/23/18 POMONA (CA),Daisuke Ito,SOL-1,Solace,,1,"5 years parts, 1 year labor ($300)",CUSTOM ,257.93,3723.00,3723.00,CreditCard,3723.00,08Qw,,,,,,,0.00,,,,,,,,0.00,,,,,,,0.00,Agnes Calvillo,951-789-7031,,,,CA,0,9.50
109025,9/3/2018 6:34:32 PM,L.A. COUNTY FAIR 8/31-9/23/18 POMONA (CA),L.A. COUNTY FAIR 8/31-9/23/18 POMONA (CA),Daisuke Ito,,Daiwa Blanket,,1,no warranty,CUSTOM ,257.93,3723.00,3723.00,CreditCard,3723.00,08Qw,,,,,,,0.00,,,,,,,,0.00,,,,,,,0.00,Agnes Calvillo,951-789-7031,,,,CA,0,9.50
109069,9/4/2018 4:41:15 PM,L.A. COUNTY FAIR 8/31-9/23/18 POMONA (CA),L.A. COUNTY FAIR 8/31-9/23/18 POMONA (CA),May Kam,DWA-9400Pegasus-BR,Pegasus,New Choco,1,"5 years parts, 1 year labor (Free)",CUSTOM ,0.00,6351.00,6351.00,Synchrony,6351.00,,,6019170813111629,93762823,Las Vegas,36 months,,0.00,,,,,,,,0.00,,,,,,,0.00,Daniel Aviles,909-437-9093,,,,CA,1,9.50
109069,9/4/2018 4:41:15 PM,L.A. COUNTY FAIR 8/31-9/23/18 POMONA (CA),L.A. COUNTY FAIR 8/31-9/23/18 POMONA (CA),May Kam,,Tourmaline Pad for Pegasus,,1,no warranty,CUSTOM ,0.00,6351.00,6351.00,Synchrony,6351.00,,,6019170813111629,93762823,Las Vegas,36 months,,0.00,,,,,,,,0.00,,,,,,,0.00,Daniel Aviles,909-437-9093,,,,CA,1,9.50
109073,9/4/2018 5:00:39 PM,L.A. COUNTY FAIR 8/31-9/23/18 POMONA (CA),L.A. COUNTY FAIR 8/31-9/23/18 POMONA (CA),May Kam,DWA-9150USJ-9150BL-DEMO,Legacy 3D,Demo Black,1,"5 years parts, 1 year labor (Free)",CUSTOM COD,0.00,3700.00,3700.00,CreditCard,100.00,Receipt #Nsze,,,,,,COD,1900.00,,,,,,,PurchaseOrder,1700.00,,LAYAWAY,,,,,0.00,Angelita Moya,626-641-3876,,,,CA,1,9.50
109073,9/4/2018 5:00:39 PM,L.A. COUNTY FAIR 8/31-9/23/18 POMONA (CA),L.A. COUNTY FAIR 8/31-9/23/18 POMONA (CA),May Kam,,Tourmaline Pad for Legacy 3D,,1,no warranty,CUSTOM COD,0.00,3700.00,3700.00,CreditCard,100.00,Receipt #Nsze,,,,,,COD,1900.00,,,,,,,PurchaseOrder,1700.00,,LAYAWAY,,,,,0.00,Angelita Moya,626-641-3876,,,,CA,1,9.50
109074,9/4/2018 5:09:26 PM,L.A. COUNTY FAIR 8/31-9/23/18 POMONA (CA),L.A. COUNTY FAIR 8/31-9/23/18 POMONA (CA),Stephany Higareda,DWA-9150USJ-9150BL-DEMO,Legacy 3D,Demo Black,1,"5 years parts, 1 year labor (Free)",CUSTOM COD,0.00,3900.00,3900.00,CreditCard,100.00,Receipt #fqkG,,,,,,COD,1900.00,,,,,,,PurchaseOrder,1900.00,,LAYAWAY,,,,,0.00,Chelise Gonzales,818-437-5493,,,,CA,1,9.50
109075,9/4/2018 5:17:57 PM,L.A. COUNTY FAIR 8/31-9/23/18 POMONA (CA),L.A. COUNTY FAIR 8/31-9/23/18 POMONA (CA),May Kam,SOL-1,Solace,,1,"5 years parts, 1 year labor (Free)",CUSTOM ,0.00,3300.00,3300.00,Synchrony,3300.00,,,6019170813111652,93767363,Las Vegas,36 months,,0.00,,,,,,,,0.00,,,,,,,0.00,CECILIA CASTRO,818-895-0905,9/8/2018 12:00:00 AM,,Solace New Choco,CA,1,9.50
109075,9/4/2018 5:17:57 PM,L.A. COUNTY FAIR 8/31-9/23/18 POMONA (CA),L.A. COUNTY FAIR 8/31-9/23/18 POMONA (CA),May Kam,,Tourmaline Pad for Solace,,1,no warranty,CUSTOM ,0.00,3300.00,3300.00,Synchrony,3300.00,,,6019170813111652,93767363,Las Vegas,36 months,,0.00,,,,,,,,0.00,,,,,,,0.00,CECILIA CASTRO,818-895-0905,9/8/2018 12:00:00 AM,,Solace New Choco,CA,1,9.50
109076,9/4/2018 5:24:50 PM,L.A. COUNTY FAIR 8/31-9/23/18 POMONA (CA),L.A. COUNTY FAIR 8/31-9/23/18 POMONA (CA),May Kam,DWA-9150USJ-9150CH,Legacy 3D,New Choco,1,"5 years parts, 1 year labor (Free)",CUSTOM ,0.00,4421.00,4421.00,Synchrony,4421.00,,,6019170813119010,93909283,Las Vegas,24 months,,0.00,,,,,,,,0.00,,,,,,,0.00,ROBERT OLIN,909-574-0108,,,,CA,1,9.50
109076,9/4/2018 5:24:50 PM,L.A. COUNTY FAIR 8/31-9/23/18 POMONA (CA),L.A. COUNTY FAIR 8/31-9/23/18 POMONA (CA),May Kam,,Tourmaline Pad for Legacy 3D,,1,no warranty,CUSTOM ,0.00,4421.00,4421.00,Synchrony,4421.00,,,6019170813119010,93909283,Las Vegas,24 months,,0.00,,,,,,,,0.00,,,,,,,0.00,ROBERT OLIN,909-574-0108,,,,CA,1,9.50
109077,9/4/2018 5:35:17 PM,L.A. COUNTY FAIR 8/31-9/23/18 POMONA (CA),L.A. COUNTY FAIR 8/31-9/23/18 POMONA (CA),Mikito Nakanishi,DWA-9100DWA-9100BL,Legacy,New Black,1,"3 years parts, 1 year labor (Free)",CUSTOM ,0.00,3600.00,3600.00,Synchrony,3600.00,,,6019170813119085,93910351,Las Vegas,24 months,,0.00,,,,,,,,0.00,,,,,,,0.00,JORGE GUZMAN,909-641-6355,,,,CA,1,9.50
109082,9/5/2018 9:59:45 AM,L.A. COUNTY FAIR 8/31-9/23/18 POMONA (CA),L.A. COUNTY FAIR 8/31-9/23/18 POMONA (CA),Mikito Nakanishi,DWA-9100DWA-9100BU,Legacy,New Choco,1,"3 years parts, 1 year labor (Free)",CUSTOM ,0.00,3500.00,3500.00,Synchrony,3500.00,,,6019170813119127,93910872,Las Vegas,24 months,,0.00,,,,,,,,0.00,,,,,,,0.00,MARCO LAGUITAN,951-214-9081,9/7/2018 12:00:00 AM,,,CA,1,9.50
109085,9/5/2018 10:10:47 AM,L.A. COUNTY FAIR 8/31-9/23/18 POMONA (CA),L.A. COUNTY FAIR 8/31-9/23/18 POMONA (CA),May Kam,DWA-9400Pegasus-BR,Pegasus,New Choco,1,"5 years parts, 1 year labor (Free)",CUSTOM COD,0.00,5450.00,5450.00,CreditCard,2725.00,Receipt #uiid,,,,,,COD,2725.00,,,,,,,,0.00,,,,,,,0.00,Vicki & Terence Keenan,909-230-0554,,,,CA,1,9.50
109085,9/5/2018 10:10:47 AM,L.A. COUNTY FAIR 8/31-9/23/18 POMONA (CA),L.A. COUNTY FAIR 8/31-9/23/18 POMONA (CA),May Kam,,Tourmaline Pad for Pegasus,,1,no warranty,CUSTOM COD,0.00,5450.00,5450.00,CreditCard,2725.00,Receipt #uiid,,,,,,COD,2725.00,,,,,,,,0.00,,,,,,,0.00,Vicki & Terence Keenan,909-230-0554,,,,CA,1,9.50
109087,9/5/2018 10:19:44 AM,L.A. COUNTY FAIR 8/31-9/23/18 POMONA (CA),L.A. COUNTY FAIR 8/31-9/23/18 POMONA (CA),May Kam,SOL-1,Solace,,1,"5 years parts, 1 year labor (Free)",CUSTOM COD,0.00,2700.00,2700.00,CreditCard,219.00,Receipt #Szn9,,,,,,COD,2481.00,,,,,,,,0.00,,,,,,,0.00,Yolanda Moreno,323-547-1598,,,Solace DEMO Choco brown,CA,1,9.50
109090,9/5/2018 10:47:54 AM,L.A. COUNTY FAIR 8/31-9/23/18 POMONA (CA),L.A. COUNTY FAIR 8/31-9/23/18 POMONA (CA),Mikito Nakanishi,DWA-9400Pegasus-BL,Pegasus,New Black,1,"5 years parts, 1 year labor (Free)",CUSTOM ,0.00,5300.00,5300.00,CreditCard,5300.00,Receipt #zcEo,,,,,,,0.00,,,,,,,,0.00,,,,,,,0.00,Josh Brown,619-597-9443,9/11/2018 12:00:00 AM,,,CA,1,9.50
109095,9/5/2018 11:39:50 AM,L.A. COUNTY FAIR 8/31-9/23/18 POMONA (CA),L.A. COUNTY FAIR 8/31-9/23/18 POMONA (CA),May Kam,DWA-9100DWA-9100BU-DEMO,Legacy,Demo Choco,1,"5 years parts, 1 year labor (Free)",CUSTOM COD,0.00,3550.00,3550.00,Synchrony,2000.00,,,6019170813118129,93890902,Las Vegas,24 months,COD,1550.00,,,,,,,,0.00,,,,,,,0.00,DIANE DUBOIS,909-648-9972,,,,CA,1,9.50
109095,9/5/2018 11:39:50 AM,L.A. COUNTY FAIR 8/31-9/23/18 POMONA (CA),L.A. COUNTY FAIR 8/31-9/23/18 POMONA (CA),May Kam,,Tourmaline Pad for Legacy,,1,no warranty,CUSTOM COD,0.00,3550.00,3550.00,Synchrony,2000.00,,,6019170813118129,93890902,Las Vegas,24 months,COD,1550.00,,,,,,,,0.00,,,,,,,0.00,DIANE DUBOIS,909-648-9972,,,,CA,1,9.50
109098,9/5/2018 1:03:21 PM,L.A. COUNTY FAIR 8/31-9/23/18 POMONA (CA),L.A. COUNTY FAIR 8/31-9/23/18 POMONA (CA),May Kam,SOL-1,Solace,,1,"5 years parts, 1 year labor (Free)",CUSTOM ,0.00,3230.00,3230.00,Synchrony,3230.00,,,6019170813125199,94035064,Las Vegas,36 months,,0.00,,,,,,,,0.00,,,,,,,0.00,CARRIE CORDERO,909-996-2633,,,Solace DEMO black,CA,1,9.50
109098,9/5/2018 1:03:21 PM,L.A. COUNTY FAIR 8/31-9/23/18 POMONA (CA),L.A. COUNTY FAIR 8/31-9/23/18 POMONA (CA),May Kam,,Tourmaline Pad for Solace,,1,no warranty,CUSTOM ,0.00,3230.00,3230.00,Synchrony,3230.00,,,6019170813125199,94035064,Las Vegas,36 months,,0.00,,,,,,,,0.00,,,,,,,0.00,CARRIE CORDERO,909-996-2633,,,Solace DEMO black,CA,1,9.50
109102,9/5/2018 8:36:11 PM,L.A. COUNTY FAIR 8/31-9/23/18 POMONA (CA),L.A. COUNTY FAIR 8/31-9/23/18 POMONA (CA),Christoper Williams,USJ-9000USJ-9000CR-DEMO,Relax2Zero 1.0,Demo Beige,1,"5 years parts, 1 year labor (Free)",CUSTOM ,260.30,3400.30,3400.30,Synchrony,0.00,,,6019170813125942,94057663,San Diego,24 months,,0.00,,,,,,,,0.00,,,,,,,0.00,jason lucas,6262603446,,,sold for 3400,Not Dispatched,0,9.50
109103,9/5/2018 9:49:50 PM,L.A. COUNTY FAIR 8/31-9/23/18 POMONA (CA),L.A. COUNTY FAIR 8/31-9/23/18 POMONA (CA),May Kam,SOL-1,Solace,,1,"5 years parts, 1 year labor (Free)",CUSTOM COD,0.00,3120.00,3120.00,CreditCard,200.00,YGAs,,,,,,COD,2920.00,,,,,,,,0.00,,,,,,,0.00,Mr & Mrs Scott Newsome,9099802826,,,"Brown color, thanks
Special discount for senior day, balance $2920",CA,1,9.50
109103,9/5/2018 9:49:50 PM,L.A. COUNTY FAIR 8/31-9/23/18 POMONA (CA),L.A. COUNTY FAIR 8/31-9/23/18 POMONA (CA),May Kam,,Tourmaline Pad for Solace,,1,no warranty,CUSTOM COD,0.00,3120.00,3120.00,CreditCard,200.00,YGAs,,,,,,COD,2920.00,,,,,,,,0.00,,,,,,,0.00,Mr & Mrs Scott Newsome,9099802826,,,"Brown color, thanks
Special discount for senior day, balance $2920",CA,1,9.50
109104,9/5/2018 10:06:36 PM,L.A. COUNTY FAIR 8/31-9/23/18 POMONA (CA),L.A. COUNTY FAIR 8/31-9/23/18 POMONA (CA),May Kam,SOL-1,Solace,,1,"5 years parts, 1 year labor (Free)",CUSTOM ,0.00,3000.00,3000.00,Synchrony,3000.00,,,6019170813125959,94057863,Las Vegas,24 months,,0.00,,,,,,,,0.00,,,,,,,0.00,Mrs Tomasa Haverstick,9518582235,,,"Black color, special discount for senior day.another phone is 9515227068",CA,1,9.50
109104,9/5/2018 10:06:36 PM,L.A. COUNTY FAIR 8/31-9/23/18 POMONA (CA),L.A. COUNTY FAIR 8/31-9/23/18 POMONA (CA),May Kam,,Tourmaline Pad for Solace,,1,no warranty,CUSTOM ,0.00,3000.00,3000.00,Synchrony,3000.00,,,6019170813125959,94057863,Las Vegas,24 months,,0.00,,,,,,,,0.00,,,,,,,0.00,Mrs Tomasa Haverstick,9518582235,,,"Black color, special discount for senior day.another phone is 9515227068",CA,1,9.50
109107,9/6/2018 11:18:09 AM,L.A. COUNTY FAIR 8/31-9/23/18 POMONA (CA),L.A. COUNTY FAIR 8/31-9/23/18 POMONA (CA),May Kam,SOL-1SOL-1-BL,Solace,New Black,1,"5 years parts, 1 year labor (Free)",CUSTOM COD,0.00,3650.00,3650.00,Synchrony,3000.00,,,6019193016323247,,,24 months,COD,650.00,,,,,,,,0.00,,,,,,,0.00,PAUL/MARITZA KLINEFELTER,562-292-5083,,,,CA,1,9.50
109107,9/6/2018 11:18:09 AM,L.A. COUNTY FAIR 8/31-9/23/18 POMONA (CA),L.A. COUNTY FAIR 8/31-9/23/18 POMONA (CA),May Kam,,Tourmaline Pad for Solace,,1,no warranty,CUSTOM COD,0.00,3650.00,3650.00,Synchrony,3000.00,,,6019193016323247,,,24 months,COD,650.00,,,,,,,,0.00,,,,,,,0.00,PAUL/MARITZA KLINEFELTER,562-292-5083,,,,CA,1,9.50
109108,9/6/2018 11:57:30 AM,L.A. COUNTY FAIR 8/31-9/23/18 POMONA (CA),L.A. COUNTY FAIR 8/31-9/23/18 POMONA (CA),Christoper Williams,DWA-9100DWA-9100BU,Legacy,New Choco,1,"5 years parts, 1 year labor (Free)",CUSTOM ,325.38,4500.38,4500.38,Synchrony,0.00,,,6019170813126288,94079005,San Diego,36 months,,0.00,,,,,,,,0.00,,,,,,,0.00,Dionisio Garza,9092100840,,,sold for 4500,Not Dispatched,0,9.50
109116,9/6/2018 5:07:08 PM,L.A. COUNTY FAIR 8/31-9/23/18 POMONA (CA),L.A. COUNTY FAIR 8/31-9/23/18 POMONA (CA),Christoper Williams,USJ-9000USJ-9000CR-DEMO,Relax2Zero 1.0,Demo Beige,1,"5 years parts, 1 year labor (Free)",CUSTOM ,0.00,3400.00,3400.00,Synchrony,3400.00,,,6019170813125942,94057663,San Diego,24 months,,0.00,,,,,,,,0.00,,,,,,,0.00,JASON LUCAS,818-408-3193,,,,CA,1,9.50
109118,9/6/2018 5:27:54 PM,L.A. COUNTY FAIR 8/31-9/23/18 POMONA (CA),L.A. COUNTY FAIR 8/31-9/23/18 POMONA (CA),Christoper Williams,DWA-9100DWA-9100BU,Legacy,New Choco,1,"5 years parts, 1 year labor (Free)",CUSTOM ,0.00,4500.00,4500.00,Synchrony,4500.00,,,6019170813126288,94079005,San Diego,36 months,,0.00,,,,,,,,0.00,,,,,,,0.00,DIONISIO GARZA,909-210-0840,,,,CA,1,9.50
109144,9/8/2018 10:02:22 AM,L.A. COUNTY FAIR 8/31-9/23/18 POMONA (CA),L.A. COUNTY FAIR 8/31-9/23/18 POMONA (CA),David Wang,DWA-9060USJ-9060BL,Relax2Zero 3D,New Black,1,"5 years parts, 1 year labor (Free)",CUSTOM COD,0.00,4000.00,4000.00,CreditCard,500.00,1kSq,,,,,,COD,3500.00,,,,,,,,0.00,,,,,,,0.00,Thomas Drydon,213-880-6636,,,,CA,1,9.50
109168,9/8/2018 10:00:09 PM,L.A. COUNTY FAIR 8/31-9/23/18 POMONA (CA),L.A. COUNTY FAIR 8/31-9/23/18 POMONA (CA),Joseph Chan,DWA-9150USJ-9150CH,Legacy 3D,New Choco,1,"3 years parts, 1 year labor (Free)",CUSTOM ,0.00,4500.00,4500.00,Synchrony,4500.00,,,6019170813130173,94175596,Las Vegas,36 months,,0.00,,,,,,,,0.00,,,,,,,0.00,Alexander Montes,909-229-4654,,,,CA,1,9.50
109171,9/8/2018 10:09:09 PM,L.A. COUNTY FAIR 8/31-9/23/18 POMONA (CA),L.A. COUNTY FAIR 8/31-9/23/18 POMONA (CA),Joseph Chan,DWA-9150USJ-9150BL,Legacy 3D,New Black,1,"3 years parts, 1 year labor (Free)",CUSTOM ,0.00,4800.00,4800.00,Synchrony,3000.00,,,6019170813131496,94191783,Las Vegas,36 months,,0.00,,,,,,,,0.00,,,,,,,0.00,Jesse Olivas,562-505-1606,,,"Due to technical issue from the bank, they can not increase customer’s credit line before he actually received the package, package should arrived in 10-14 days, please hold for the time being",CA,1,9.50
109182,9/9/2018 7:31:13 AM,L.A. COUNTY FAIR 8/31-9/23/18 POMONA (CA),L.A. COUNTY FAIR 8/31-9/23/18 POMONA (CA),Hiroko Hudson,DWA-9150USJ-9150CH,Legacy 3D,New Choco,1,"5 years parts, 1 year labor (Free)",CUSTOM ,0.00,3500.00,3500.00,CreditCard,3500.00,Receipt #q9LK,,,,,,,0.00,,,,,,,,0.00,,,,,,,0.00,Ramby Wong,6266166712,,,,CA,1,9.50
109183,9/9/2018 8:13:55 AM,L.A. COUNTY FAIR 8/31-9/23/18 POMONA (CA),L.A. COUNTY FAIR 8/31-9/23/18 POMONA (CA),Jessica Phung,DWA-9100DWA-9100BL,Legacy,New Black,1,"5 years parts, 1 year labor (Free)",CUSTOM ,0.00,3960.00,3960.00,Synchrony,3960.00,,,6019170813131528,94192409,Las Vegas,36 months,,0.00,,,,,,,,0.00,,,,,,,0.00,Jose Sandin,909-461-7250,,,,CA,1,9.50
109184,9/9/2018 10:31:51 AM,L.A. COUNTY FAIR 8/31-9/23/18 POMONA (CA),L.A. COUNTY FAIR 8/31-9/23/18 POMONA (CA),Paul Wnag,DWA-9150USJ-9150BL,Legacy 3D,New Black,1,"5 years parts, 1 year labor (Free)",CUSTOM ,0.00,4500.00,4500.00,Synchrony,4500.00,,,6019170813131338,94189349,Las Vegas,24 months,,0.00,,,,,,,,0.00,,,,,,,0.00,Summer Mendes,6268230120,,,,CA,1,9.50
109185,9/9/2018 10:41:19 AM,L.A. COUNTY FAIR 8/31-9/23/18 POMONA (CA),L.A. COUNTY FAIR 8/31-9/23/18 POMONA (CA),May Kam,SOL-1SOL-1-CH-DEMO,Solace,Demo Choco,1,"5 years parts, 1 year labor (Free)",CUSTOM ,0.00,3230.00,3230.00,Synchrony,3230.00,,,6019170813131916,94200245,Las Vegas,36 months,,0.00,,,,,,,,0.00,,,,,,,0.00,Elsa Arellano,951-250-5336,,,,CA,1,9.50
109186,9/9/2018 10:42:45 AM,L.A. COUNTY FAIR 8/31-9/23/18 POMONA (CA),L.A. COUNTY FAIR 8/31-9/23/18 POMONA (CA),Paul Wnag,SOL-1SOL-1-CH-DEMO,Solace,Demo Choco,1,"5 years parts, 1 year labor (Free)",CUSTOM ,0.00,3200.00,3200.00,Synchrony,3200.00,,,6019170813131502,94191686,Las Vegas,36 months,,0.00,,,,,,,,0.00,,,,,,,0.00,Rochelle Caldwell,9094387704,,,,CA,1,9.50
109187,9/9/2018 11:14:29 AM,L.A. COUNTY FAIR 8/31-9/23/18 POMONA (CA),L.A. COUNTY FAIR 8/31-9/23/18 POMONA (CA),Christoper Williams,DWA-9060USJ-9060BL,Relax2Zero 3D,New Black,1,"5 years parts, 1 year labor (Free)",CUSTOM ,0.00,4200.00,4200.00,Synchrony,4200.00,,,6019170813131957,94200942,San Diego,36 months,,0.00,,,,,,,,0.00,,,,,,,0.00,john Herman,7144030653,,,,CA,1,9.50
109192,9/9/2018 11:44:36 AM,L.A. COUNTY FAIR 8/31-9/23/18 POMONA (CA),L.A. COUNTY FAIR 8/31-9/23/18 POMONA (CA),Christoper Williams,DWA-9060USJ-9060BL,Relax2Zero 3D,New Black,1,"5 years parts, 1 year labor (Free)",CUSTOM COD,0.00,4000.00,4000.00,CreditCard,100.00,OsM5,,,,,,COD,3900.00,,,,,,,,0.00,,,,,,,0.00,Gina Passan,6263885534,,,customer pay 100 deposit please see cod 3900,CA,1,9.50
109204,9/9/2018 8:03:22 PM,L.A. COUNTY FAIR 8/31-9/23/18 POMONA (CA),L.A. COUNTY FAIR 8/31-9/23/18 POMONA (CA),Joseph Chan,DWA-9100DWA-9100BL,Legacy,New Black,1,"3 years parts, 1 year labor (Free)",CUSTOM ,0.00,4000.00,4000.00,CreditCard,4000.00,#X02w,,,,,,,0.00,,,,,,,,0.00,,,,,,,0.00,Danny Lew,702-547-6979,,,,NV,1,9.50
109206,9/9/2018 8:08:34 PM,L.A. COUNTY FAIR 8/31-9/23/18 POMONA (CA),L.A. COUNTY FAIR 8/31-9/23/18 POMONA (CA),Joseph Chan,DWA-9100DWA-9100BL,Legacy,New Black,1,"3 years parts, 1 year labor (Free)",CUSTOM ,0.00,4000.00,4000.00,Synchrony,4000.00,,,6019170813133391,94223077,Las Vegas,36 months,,0.00,,,,,,,,0.00,,,,,,,0.00,Armiclaudine Ramirez,310-989-7343,,,,CA,1,9.50
109208,9/9/2018 8:17:31 PM,L.A. COUNTY FAIR 8/31-9/23/18 POMONA (CA),L.A. COUNTY FAIR 8/31-9/23/18 POMONA (CA),May Kam,SOL-1SOL-1-BL-DEMO,Solace,Demo Black,1,"5 years parts, 1 year labor (Free)",CUSTOM ,0.00,3230.00,3230.00,Synchrony,3230.00,,,6019170813125199,94035064,Las Vegas,36 months,,0.00,,,,,,,,0.00,,,,,,,0.00,Carrie Cordero,909-996-2633,,,,Not Dispatched,1,9.50
109211,9/9/2018 8:27:15 PM,L.A. COUNTY FAIR 8/31-9/23/18 POMONA (CA),L.A. COUNTY FAIR 8/31-9/23/18 POMONA (CA),Jessica Phung,DWA-9100DWA-9100BU,Legacy,New Choco,1,"5 years parts, 1 year labor (Free)",CUSTOM ,0.00,4200.00,4200.00,Synchrony,4200.00,,,6019170813133201,94219971,Las Vegas,36 months,,0.00,,,,,,,,0.00,,,,,,,0.00,Danny Williams,951-243-0462,,,Please add 2 fabric back pads and I remote holder with the delivery,CA,1,9.50
109215,9/9/2018 8:36:08 PM,L.A. COUNTY FAIR 8/31-9/23/18 POMONA (CA),L.A. COUNTY FAIR 8/31-9/23/18 POMONA (CA),May Kam,DWA-9150USJ-9150CH-DEMO,Legacy 3D,Demo Choco,1,"5 years parts, 1 year labor (Free)",CUSTOM CreditCard,0.00,3500.00,3500.00,CreditCard,200.00,#vARy,,,,,,CreditCard,3300.00,#LXeZ,,,,,,,0.00,,,,,,,0.00,Art Luczon,562-760-8378,,,Please add 1 Tourmaline Pad with the delivery,CA,1,9.50
109217,9/9/2018 8:41:11 PM,L.A. COUNTY FAIR 8/31-9/23/18 POMONA (CA),L.A. COUNTY FAIR 8/31-9/23/18 POMONA (CA),May Kam,DWA-9150USJ-9150BL,Legacy 3D,New Black,1,"5 years parts, 1 year labor (Free)",CUSTOM ,0.00,4000.00,4000.00,Synchrony,1500.00,,,6019170813133433,94223931,Las Vegas,24 months,,0.00,,,,,,,,0.00,,,,,,,0.00,Kimberly Phillips,909-856-9904,,,Please add 1 Tourmaline pad with the delivery,Not Dispatched,1,9.50
109219,9/9/2018 8:46:04 PM,L.A. COUNTY FAIR 8/31-9/23/18 POMONA (CA),L.A. COUNTY FAIR 8/31-9/23/18 POMONA (CA),Hiroko Hudson,DWA-9150USJ-9150CH,Legacy 3D,New Choco,1,"5 years parts, 1 year labor (Free)",CUSTOM ,0.00,4200.00,4200.00,CreditCard,4200.00,w1Er,,,,,,,0.00,,,,,,,,0.00,,,,,,,0.00,Jose Montellano,9098024572,,,,CA,1,9.50
109249,9/10/2018 3:39:36 PM,L.A. COUNTY FAIR 8/31-9/23/18 POMONA (CA),L.A. COUNTY FAIR 8/31-9/23/18 POMONA (CA),Jessica Phung,DWA-9100DWA-9100BL,Legacy,New Black,1,"5 years parts, 1 year labor (Free)",CUSTOM ,0.00,3500.00,3500.00,CreditCard,3500.00,zZgh,,,,,,,0.00,,,,,,,,0.00,,,,,,,0.00,Wenseslado Iniguez,310-270-7977,,,,CA,1,9.50
109249,9/10/2018 3:39:36 PM,L.A. COUNTY FAIR 8/31-9/23/18 POMONA (CA),L.A. COUNTY FAIR 8/31-9/23/18 POMONA (CA),Jessica Phung,,Tourmaline Pad for Legacy,,1,no warranty,CUSTOM ,0.00,3500.00,3500.00,CreditCard,3500.00,zZgh,,,,,,,0.00,,,,,,,,0.00,,,,,,,0.00,Wenseslado Iniguez,310-270-7977,,,,CA,1,9.50
109250,9/10/2018 3:49:12 PM,L.A. COUNTY FAIR 8/31-9/23/18 POMONA (CA),L.A. COUNTY FAIR 8/31-9/23/18 POMONA (CA),Jessica Phung,DWA-9100DWA-9100BU,Legacy,New Choco,1,"5 years parts, 1 year labor (Free)",CUSTOM ,0.00,4200.00,4200.00,Synchrony,4200.00,,,6019170813133201,94219971,Las Vegas,36 months,,0.00,,,,,,,,0.00,,,,,,,0.00,Danny Williams,951-243-0462,,,,Not Dispatched,1,9.50
109250,9/10/2018 3:49:12 PM,L.A. COUNTY FAIR 8/31-9/23/18 POMONA (CA),L.A. COUNTY FAIR 8/31-9/23/18 POMONA (CA),Jessica Phung,,Chair Pad for Legacy,,1,no warranty,CUSTOM ,0.00,4200.00,4200.00,Synchrony,4200.00,,,6019170813133201,94219971,Las Vegas,36 months,,0.00,,,,,,,,0.00,,,,,,,0.00,Danny Williams,951-243-0462,,,,Not Dispatched,1,9.50
