﻿Date,Customer Name,State,Zipcode,Description,Product Number,Color,Product Status,Net,Shipping Fee,Gift Price,Financing Processing Fee,Order Total,Total Before Tax,Tax,Commission,Primary Payment Method,Primary Payment Balance,Primary Authorize Number,Primary Purchase Order Number,Primary Synchrony Account Number,Primary Synchrony Application Key,Primary Synchrony Account Info,Primary Synchrony Term,Second Payment Method,Second Payment Balance,Second Authorize Number,Second Purchase Order Number,Second Synchrony Account Number,Second Synchrony Application Key,Second Synchrony Account Info,Second Synchrony Term,Third Payment Method,Third Payment Balance,Third Authorize Number,Third Purchase Order Number,Third Synchrony Account Number,Third Synchrony Application Key,Third Synchrony Account Info,Third Synchrony Term,Delivery Date,Pick up,Warranty,Status,Chair Type,Original Event Name,Event Name,Synchrony Notes,Order Notes,Order Number,Private Note,Branch,No Tax,Actual Tax Rate
1/10/2018 7:48:14 PM,Simon Siu,NV,89139,Tech Touch 3D,DWA-9250USJ-9250CH,Choco Brown,New,,,,,4500.00,4500.00,0.00,Rodrigo Malabunga,Synchrony,4500.00,,,6034610083041312,83553856,Las Vegas,36 months,,0.00,,,,,,,,0.00,,,,,,,1/10/2018 12:00:00 AM,No,"3 years parts, 1 year labor (Free)",Delivered,,CES 1/9-12/18 (NV),CES 1/9-12/18 (NV),,,102835,"Sales Team will deliver this chair on same day. By Kaz
confirmed the account in Synchrony ($6,000). confirmed it charged $4,500.(Auth#010411) 1/11/18 Hitomi",NV,1,8.25
1/10/2018 7:48:14 PM,Simon Siu,NV,89139,Tourmaline Pad for Legacy 3D,,,New,,,,,4500.00,4500.00,0.00,Rodrigo Malabunga,Synchrony,4500.00,,,6034610083041312,83553856,Las Vegas,36 months,,0.00,,,,,,,,0.00,,,,,,,1/10/2018 12:00:00 AM,No,no warranty,Delivered,,CES 1/9-12/18 (NV),CES 1/9-12/18 (NV),,,102835,"Sales Team will deliver this chair on same day. By Kaz
confirmed the account in Synchrony ($6,000). confirmed it charged $4,500.(Auth#010411) 1/11/18 Hitomi",NV,1,8.25
1/10/2018 7:58:19 PM,Kerry Jocobs,FL,33156,Pegasus,DWA-9400Pegasus-BR,Choco Brown,New,,,,,4200.00,4200.00,0.00,Rolly San Jose,CreditCard,300.00,07433D,,,,,,COD,3900.00,,,,,,,,0.00,,,,,,,,No,"3 years parts, 1 year labor (Free)",Cancelled,,CES 1/9-12/18 (NV),CES 1/9-12/18 (NV),,,102837,"confirmed $300 in Wells Fargo. 1/11/18 Hitomi
CANCELLED AND REFUNDED $300 ON 1.18.18 BY ALICIA, ROLLY APPROVED",FL,1,8.25
1/10/2018 8:03:26 PM,Jan Bednar,FL,33441,Tech Touch 3D,DWA-9250USJ-9250BL-DEMO,Demo Black,Demo,,,,,4000.00,4000.00,0.00,Kaz Ohashi,CreditCard,4000.00,820078,,,,,,,0.00,,,,,,,,0.00,,,,,,,1/29/2018 12:00:00 AM,No,"3 years parts, 1 year labor (Free)",Delivered,,CES 1/9-12/18 (NV),CES 1/9-12/18 (NV),,Free one ASUS Tablet,102839,"CES Special
Free one ASUS Tablet
confirmed $4,000 in Wells Fargo. 1/11/18 Hitomi",FL,1,8.25
1/10/2018 8:15:24 PM,Julie Daum,NY,10028,Majesty,DWA-8000DWA-8000-BL,Black,New,,,,,3200.00,3200.00,0.00,Rodrigo Malabunga,CreditCard,3200.00,024207,,,,,,,0.00,,,,,,,,0.00,,,,,,,2/20/2018 12:00:00 AM,No,"3 years parts, 1 year labor (Free)",Delivered,,CES 1/9-12/18 (NV),CES 1/9-12/18 (NV),,,102842,"confirmed $3,200 in Wells Fargo. 1/11/18 Hitomi",TX,1,8.25
1/10/2018 8:26:03 PM,Kristina Moore,CA,90814,Relax2Zero 3D,DWA-9060USJ-9060BR,Choco Brown,New,,,,,3500.00,3500.00,0.00,Rodrigo Malabunga,CreditCard,3500.00,05735D,,,,,,,0.00,,,,,,,,0.00,,,,,,,1/22/2018 12:00:00 AM,No,"3 years parts, 1 year labor (Free)",Delivered,,CES 1/9-12/18 (NV),CES 1/9-12/18 (NV),,,102844,"Can't read customer's Hand writing.
3634 E Fook St or Cook St?
confirmed $3,500 in Wells Fargo. 1/11/18 Hitomi",CA,1,8.25
1/10/2018 8:29:28 PM,Anthony Han,HI,96813,Majesty,DWA-8000DWA-8000-BR,Choco Brown,New,,,,,4000.00,4000.00,0.00,Rodrigo Malabunga,CreditCard,4000.00,610105,,,,,,,0.00,,,,,,,,0.00,,,,,,,1/31/2018 12:00:00 AM,No,"3 years parts, 1 year labor (Free)",Delivered,,CES 1/9-12/18 (NV),CES 1/9-12/18 (NV),,,102846,"confirmed $4,000 in Wells Fargo. 1/11/18 Hitomi
Delivery date is not correct, but customer's signature is on the confirmation. 1/8/18 Riho",HI,1,8.25
1/10/2018 8:29:28 PM,Anthony Han,HI,96813,Tourmaline Pad for Serenity,,,New,,,,,4000.00,4000.00,0.00,Rodrigo Malabunga,CreditCard,4000.00,610105,,,,,,,0.00,,,,,,,,0.00,,,,,,,1/31/2018 12:00:00 AM,No,no warranty,Delivered,,CES 1/9-12/18 (NV),CES 1/9-12/18 (NV),,,102846,"confirmed $4,000 in Wells Fargo. 1/11/18 Hitomi
Delivery date is not correct, but customer's signature is on the confirmation. 1/8/18 Riho",HI,1,8.25
1/10/2018 9:03:15 PM,Kai Freitas,NV,89178,Tourmaline Pad for Pegasus,,,New,,,,,3800.00,3800.00,0.00,Rodrigo Malabunga,Cash,100.00,,,,,,,CreditCard,3205.00,410098/04272B/015280,,,,,,Cash,495.00,,,,,,,1/15/2018 12:00:00 AM,YES,no warranty,Delivered,,CES 1/9-12/18 (NV),CES 1/9-12/18 (NV),,Pick up at Warehouse,102848,"Please collect the remaining balance $3700 when they pick up. 1/11/18 Riho
President Michael received $100 deposit cash. 1/15/18 Hitomi
confirmed $3205 COD in Wells Fargo. 1/19/18 Hitomi
COD $495 cash is stored in the safe by Kohei.2/1/18 Hitomi",NV,1,8.25
1/10/2018 9:03:15 PM,Kai Freitas,NV,89178,Pegasus,DWA-9400Pegasus-BR-DEMO,Demo Choco Brown,Demo,,,,,3800.00,3800.00,0.00,Rodrigo Malabunga,Cash,100.00,,,,,,,CreditCard,3205.00,410098/04272B/015280,,,,,,Cash,495.00,,,,,,,1/15/2018 12:00:00 AM,YES,"3 years parts, 1 year labor (Free)",Delivered,,CES 1/9-12/18 (NV),CES 1/9-12/18 (NV),,Pick up at Warehouse,102848,"Please collect the remaining balance $3700 when they pick up. 1/11/18 Riho
President Michael received $100 deposit cash. 1/15/18 Hitomi
confirmed $3205 COD in Wells Fargo. 1/19/18 Hitomi
COD $495 cash is stored in the safe by Kohei.2/1/18 Hitomi",NV,1,8.25
1/11/2018 1:25:52 PM,BRIAN ANZALONE,NV,89118,Legacy,DWA-9100DWA-9100CH,Choco Brown,New,,,,,3500.00,3500.00,0.00,REX QUIRIMIT,CreditCard,3000.00,01176Z,,,,,,Cash,500.00,,,,,,,,0.00,,,,,,,1/11/2018 12:00:00 AM,No,"3 years parts, 1 year labor (Free)",Delivered,,CES 1/9-12/18 (NV),CES 1/9-12/18 (NV),,,102862,"99 RANCH LAS VEGAS, NOT CES - HIDE APPROVED FOR REX TO SELL CHAIR - 1/11/18 STEPHANY
3000 COD AUTH 01176Z CLEARED - 1/16/18 STEPHANY 
500 CASH RECEIVED BY REX - 1/16/18 STEPHANY",NV,1,8.25
1/11/2018 9:02:07 PM,David Chapman,CA,92831,Tech Touch 3D,DWA-9250USJ-9250BL-DEMO,Demo Black,Demo,,,,,4000.00,4000.00,0.00,Rodrigo Malabunga,CreditCard,4000.00,00084D,,,,,,,0.00,,,,,,,,0.00,,,,,,,2/2/2018 12:00:00 AM,No,"3 years parts, 1 year labor (Free)",Delivered,,CES 1/9-12/18 (NV),CES 1/9-12/18 (NV),,Free Asus Tablet,102883,Confirmed $4000 in Wells Fargo. 1/12/18 Riho,CA,1,8.25
1/11/2018 9:40:10 PM,Steven Kim,CA,94303,Tech Touch 3D,DWA-9250USJ-9250CH-DEMO,Demo Choco Brown,Demo,,,,,3800.00,3800.00,0.00,Hidemitsu Yoshida,CreditCard,1300.00,144821,,,,,,CreditCard,1000.00,111115,,,,,,Synchrony,1500.00,,,6034610083041403,83556554,San Diego,24 months,2/7/2018 12:00:00 AM,No,"3 years parts, 1 year labor (Free)",Delivered,,CES 1/9-12/18 (NV),CES 1/9-12/18 (NV),,,102884,"Confirmed $1000 and $1300 in Wells Fargo.
*Please charge $1500 from the synchrony account before delivery* 1/12/18 Riho
Authorization # 026224",CA,1,8.25
1/11/2018 9:40:10 PM,Steven Kim,CA,94303,Tourmaline Pad for Legacy 3D,,,New,,,,,3800.00,3800.00,0.00,Hidemitsu Yoshida,CreditCard,1300.00,144821,,,,,,CreditCard,1000.00,111115,,,,,,Synchrony,1500.00,,,6034610083041403,83556554,San Diego,24 months,2/7/2018 12:00:00 AM,No,no warranty,Delivered,,CES 1/9-12/18 (NV),CES 1/9-12/18 (NV),,,102884,"Confirmed $1000 and $1300 in Wells Fargo.
*Please charge $1500 from the synchrony account before delivery* 1/12/18 Riho
Authorization # 026224",CA,1,8.25
1/11/2018 9:44:23 PM,An Nguyen,GA,30084,Majesty,DWA-8000DWA-8000-BL,Black,New,,,,,3200.00,3200.00,0.00,Rodrigo Malabunga,Cash,500.00,,,,,,,CreditCard,2700.00,zzix,,,,,,,0.00,,,,,,,1/23/2018 12:00:00 AM,No,"3 years parts, 1 year labor (Free)",Delivered,,CES 1/9-12/18 (NV),CES 1/9-12/18 (NV),,,102885,"*COD $2700* -- SQUARE# zzix
Kaz keep $500 cash -Need to be confirmed by Accounting Dep. after the show. 1/12/18 Riho
President Michael received $500 deposit cash. 1/15/18 Hitomi",FL,1,8.25
1/11/2018 9:51:02 PM,Joel Sloane,PA,19444,Tech Touch 3D,DWA-9250USJ-9250BL,Black,New,,,,,4000.00,4000.00,0.00,Kaz Ohashi,CreditCard,100.00,861110,,,,,,CreditCard,3900.00,Tb5Z,,,,,,,0.00,,,,,,,2/18/2018 12:00:00 AM,No,"3 years parts, 1 year labor (Free)",Delivered,,CES 1/9-12/18 (NV),CES 1/9-12/18 (NV),,Free Asus Tablet,102886,"*COD $3900*
Confirmed $100 in Wells Fargo. 1/12/18 Riho
CONFIRMED COD 3900 Tb5Z - STEPHANY 03/08/18",TX,1,8.25
1/11/2018 9:58:03 PM,Elliot Sloane,FL,34229,Tech Touch 3D,DWA-9250USJ-9250BL,Black,New,,,,,4000.00,4000.00,0.00,Kaz Ohashi,CreditCard,100.00,865184,,,,,,CreditCard,3900.00,ILfg,,,,,,,0.00,,,,,,,1/26/2018 12:00:00 AM,No,"3 years parts, 1 year labor (Free)",Delivered,,CES 1/9-12/18 (NV),CES 1/9-12/18 (NV),,Free ASUS tablet,102887,"*COD $3900*  -- SQUARE # ILfg
Confirmed $100 in Wells Fargo. 1/12/18 Riho
COD confirmed $3900 in Square. 1/30/18 Hitomi",FL,1,8.25
1/11/2018 10:10:40 PM,Andrey Kunov Svic,CA,94404,Tech Touch 3D,DWA-9250USJ-9250BL,Black,New,,,,,4000.00,4000.00,0.00,Kohei Uno,CreditCard,4000.00,05638G,,,,,,,0.00,,,,,,,,0.00,,,,,,,2/7/2018 12:00:00 AM,No,"3 years parts, 1 year labor (Free)",Delivered,,CES 1/9-12/18 (NV),CES 1/9-12/18 (NV),,Free ASUS Tablet,102888,Confirmed $4000 in Wells Fargo. 1/12/18 Riho,CA,1,8.25
1/11/2018 10:26:13 PM,Derek Cahill,CA,92673,Pegasus,DWA-9400Pegasus-BL,Black,New,,,,,4546.00,4546.00,0.00,Rolly San Jose,CreditCard,300.00,01138D,,,,,,,0.00,,,,,,,,0.00,,,,,,,,No,"3 years parts, 1 year labor (Free)",Cancelled,,CES 1/9-12/18 (NV),CES 1/9-12/18 (NV),,,102889,Wife will come to check a chair at Gardena,Not Dispatched,1,8.25
1/11/2018 10:43:05 PM,Josh Engel,NJ,07726,Pegasus,DWA-9400Pegasus-BL,Black,New,,,,,4546.00,4546.00,0.00,Rolly San Jose,Synchrony,4546.00,,,6034610083042898,83596476,San Diego,36 months,,0.00,,,,,,,,0.00,,,,,,,2/4/2018 12:00:00 AM,No,"3 years parts, 1 year labor (Free)",Delivered,,CES 1/9-12/18 (NV),CES 1/9-12/18 (NV),"AUTH# 026048
$4,546.00 was charged for 36 months. 3/21/18 Hitomi",,102890,"Confirmed the application, PLEASE CHARGE $4546 before delivery. 1/12/18 Riho
Customer asked to change a color black to BROWN. 1/15/18 Kaz",TX,1,8.25
1/11/2018 11:38:30 PM,HOWARD OSMAN,VA,20120,Relax2Zero 3D,DWA-9060USJ-9060BR,Choco Brown,New,,,,,3500.00,3500.00,0.00,Mario Higareda,Synchrony,3500.00,,,6034610083042914,83596746,San Diego,36 months,,0.00,,,,,,,,0.00,,,,,,,2/2/2018 12:00:00 AM,No,"3 years parts, 1 year labor (Free)",Delivered,,CES 1/9-12/18 (NV),CES 1/9-12/18 (NV),"AUTH# 026814
$3,500 was charged for 36 months. 3/21/18 Hitomi",,102891,"Confirmed the Synchrony account. 1/12/18 Riho
*Please charge $3500 before delivery*",TX,1,8.25
1/12/2018 5:34:24 PM,Gilbert Le,CA,91764,Tech Touch 3D,DWA-9250USJ-9250BL,Black,New,,,,,3800.00,3800.00,0.00,Kohei Uno,CreditCard,3800.00,01323C,,,,,,,0.00,,,,,,,,0.00,,,,,,,1/15/2018 12:00:00 AM,YES,"3 years parts, 1 year labor (Free)",Delivered,,CES 1/9-12/18 (NV),CES 1/9-12/18 (NV),,Pick up from Gardena Office,102906,"confirmed $3,800 in Wells Fargo. customer will call when it ready. 1/15/18 Hitomi",CA,1,8.25
1/12/2018 5:38:40 PM,Alex Truong,WA,98030,Tech Touch 3D,DWA-9250USJ-9250CH,Choco Brown,New,,,,,4196.00,4196.00,0.00,Rodrigo Malabunga,Synchrony,4196.00,,,6034610083043904,83596440,San Diego,36 months,,0.00,,,,,,,,0.00,,,,,,,1/27/2018 12:00:00 AM,No,"3 years parts, 1 year labor (Free)",Delivered,,CES 1/9-12/18 (NV),CES 1/9-12/18 (NV),,Free ASUS Tablet,102907,"CHARGE SYNCHRONY BEFORE DELIVERY - 1/15/18 STEPHANY
WE CANNOT GET TECH TOUCH 3D CHOCO YET DUE TO FINANCIAL ISSUES WITH WAREHOUSE D, ROD CALLED CUSTOMER AND INFORMED HIM HIS DELIVERY WILL TAKE 2-3 WEEKS DUE TO THIS DELAY. I WILL FOLLOW UP WITH THIS IN A WEEK - 1/15/18 STEPHANY",WA,1,8.25
1/12/2018 5:46:06 PM,Jean Hee Pak,NV,89144,Chair Pad for Pegasus,,,New,,,,,4500.00,4500.00,0.00,Hidemitsu Yoshida,Synchrony,4500.00,,,6034610083044290,83629132,San Diego,48 months,,0.00,,,,,,,,0.00,,,,,,,1/18/2018 12:00:00 AM,No,no warranty,Delivered,,CES 1/9-12/18 (NV),CES 1/9-12/18 (NV),,"Two Chair Pads
Deliver any Friday. Preferred 1/26",102908,"confirmed the account ($8,500) in Synchrony. *Please charge before delivery* 1/15/18 Hitomi
CHARGED SYNCHRONY  AUTH # 017495 $4500 - STEPHANY 01/17/18",NV,1,8.25
1/12/2018 5:46:06 PM,Jean Hee Pak,NV,89144,Pegasus,DWA-9400Pegasus-BR,Choco Brown,New,,,,,4500.00,4500.00,0.00,Hidemitsu Yoshida,Synchrony,4500.00,,,6034610083044290,83629132,San Diego,48 months,,0.00,,,,,,,,0.00,,,,,,,1/18/2018 12:00:00 AM,No,"3 years parts, 1 year labor (Free)",Delivered,,CES 1/9-12/18 (NV),CES 1/9-12/18 (NV),,"Two Chair Pads
Deliver any Friday. Preferred 1/26",102908,"confirmed the account ($8,500) in Synchrony. *Please charge before delivery* 1/15/18 Hitomi
CHARGED SYNCHRONY  AUTH # 017495 $4500 - STEPHANY 01/17/18",NV,1,8.25
1/12/2018 5:49:16 PM,Julian Joseph,GA,30310,Majesty,DWA-8000DWA-8000-BL,Black,New,,,,,3100.00,3100.00,0.00,Kohei Uno,CreditCard,3100.00,KL11,,,,,,,0.00,,,,,,,,0.00,,,,,,,1/23/2018 12:00:00 AM,No,"3 years parts, 1 year labor (Free)",Delivered,,CES 1/9-12/18 (NV),CES 1/9-12/18 (NV),,,102909,confirmed $3100 in Square. 1/15/18 Hitomi,FL,1,8.25
1/12/2018 5:57:53 PM,Maxxon Company,CA,91748,Pegasus,DWA-9400Pegasus-BR,Choco Brown,New,,,,,4289.00,4289.00,0.00,Rodrigo Malabunga,CreditCard,4289.00,Vg5R,,,,,,,0.00,,,,,,,,0.00,,,,,,,1/24/2018 12:00:00 AM,No,"3 years parts, 1 year labor (Free)",Delivered,,CES 1/9-12/18 (NV),CES 1/9-12/18 (NV),,,102910,"Call for Delivery Address
Customer use Company Credit",CA,1,8.25
1/12/2018 6:18:13 PM,Curt Thompson,NV,89128,Pegasus,DWA-9400Pegasus-BR,Choco Brown,New,,,,,5500.00,5500.00,0.00,Rolly San Jose,CreditCard,4870.00,1Irw,,,,,,,0.00,,,,,,,,0.00,,,,,,,1/22/2018 12:00:00 AM,No,"3 years parts, 1 year labor (Free)",Delivered,,CES 1/9-12/18 (NV),CES 1/9-12/18 (NV),,If customer order second chair please give them $300 royalty discount,102911,"confirmed $4,870 in Square. 1/15/18 Hitomi",NV,1,8.25
1/12/2018 6:23:10 PM,Earl Geertgens,NJ,08075,Tech Touch 3D,DWA-9250USJ-9250BL,Black,New,,,,,4500.00,4500.00,0.00,Rodrigo Malabunga,CreditCard,4500.00,vmAX,,,,,,,0.00,,,,,,,,0.00,,,,,,,,No,"3 years parts, 1 year labor (Free)",Cancelled,,CES 1/9-12/18 (NV),CES 1/9-12/18 (NV),,Free ASUS Tablet,102912,"confirmed $4,500 in Square. 1/15/18 Hitomi
TX asked me to cancel this order, but the sales rep (Rod) haven't confirmed the cancellation, so I informed Rod its detail and waiting for his update. 2/13/18 Riho

CANCELLED",TX,1,8.25
1/12/2018 6:28:17 PM,Joel Ting,NV,89052,Tech Touch 3D,DWA-9250USJ-9250CH,Choco Brown,New,,,,,4000.00,4000.00,0.00,Rodrigo Malabunga,CreditCard,100.00,KIev,,,,,,CreditCard,3900.00,10516D,,,,,,,0.00,,,,,,,1/29/2018 12:00:00 AM,No,"3 years parts, 1 year labor (Free)",Delivered,,CES 1/9-12/18 (NV),CES 1/9-12/18 (NV),,Free ASUS tablet,102913,"Square receipt # was corrected 1/15/18-Alicia
Confirmed C.C. transaction for $3900. 3/2/18 Riho",NV,1,8.25
1/12/2018 6:32:49 PM,Lee Kenny,CA,91776,Pegasus,DWA-9400Pegasus-BL,Black,New,,,,,3800.00,3800.00,0.00,Kaz Ohashi,CreditCard,3800.00,KmB1,,,,,,,0.00,,,,,,,,0.00,,,,,,,1/25/2018 12:00:00 AM,No,"3 years parts, 1 year labor (Free)",Delivered,,CES 1/9-12/18 (NV),CES 1/9-12/18 (NV),,,102914,,CA,1,8.25
1/12/2018 6:37:46 PM,Thomas R Pipes,MO,65109,Pegasus,DWA-9400Pegasus-BR,Choco Brown,New,,,,,3500.00,3500.00,0.00,Kaz Ohashi,CreditCard,3500.00,VM2r,,,,,,,0.00,,,,,,,,0.00,,,,,,,1/25/2018 12:00:00 AM,No,"3 years parts, 1 year labor (Free)",Delivered,,CES 1/9-12/18 (NV),CES 1/9-12/18 (NV),,One Time Manager Discount,102915,"confirmed $3,500 in Square. 1/15/18 Hitomi",TX,1,8.25
1/12/2018 6:45:11 PM,Jeremy Greene,CA,90260,Tech Touch 3D,DWA-9250USJ-9250BL,Black,New,,,,,3500.00,3500.00,0.00,Mario Higareda,Synchrony,3500.00,,,6034610083043698,00000000,Huston,24 months,,0.00,,,,,,,,0.00,,,,,,,1/22/2018 12:00:00 AM,No,"3 years parts, 1 year labor (Free)",Delivered,,CES 1/9-12/18 (NV),CES 1/9-12/18 (NV),,,102916,"Customer Cancel the Infinity Chair. Infinity already processed Synchrony Finance and got approved by 24m.
I don't have a application key but here is the Approval Key.
Delivered replacement S#92160007D on 1/31/18",CA,1,8.25
1/12/2018 6:56:18 PM,Robert Burrows,WA,98671,Pegasus,DWA-9400Pegasus-BR,Choco Brown,New,,,,,3900.00,3900.00,0.00,Mario Higareda,CreditCard,390.00,LMdZ,,,,,,COD,0.00,,,,,,,,0.00,,,,,,,,No,"3 years parts, 1 year labor (Free)",Cancelled,,CES 1/9-12/18 (NV),CES 1/9-12/18 (NV),,,102917,"SQUARE CLEARED $390 -1/15/18 STEPHANY
COLLECT COD $3510
ORDER CANCELLED & REFUNDED DEPOSIT - STEPHANY 1/18/18",WA,1,8.25
1/15/2018 6:47:55 PM,Steven Lee,CA,94539,Tech Touch 3D,DWA-9250USJ-9250BL,Black,New,,,,,4500.00,4500.00,0.00,Kohei Uno,CreditCard,4500.00,jRaQ,,,,,,,0.00,,,,,,,,0.00,,,,,,,2/20/2018 12:00:00 AM,No,"3 years parts, 1 year labor (Free)",Delivered,,CES 1/9-12/18 (NV),CES 1/9-12/18 (NV),,,103015,"Please schedule delivery for customer after 2/4/18. He will be out of town until then.
confirmed $4,500 in Square. 1/16/18 Hitomi",CA,1,8.25
1/16/2018 7:49:47 PM,Kui Han,NV,89135,Pegasus,DWA-9400Pegasus-BL,Black,New,,,,,4500.00,4500.00,0.00,Hidemitsu Yoshida,Synchrony,4500.00,,,6034610083052657,83793716,Las Vegas,24 months,,0.00,,,,,,,,0.00,,,,,,,1/22/2018 12:00:00 AM,No,"3 years parts, 1 year labor (Free)",Delivered,,CES 1/9-12/18 (NV),CES 1/9-12/18 (NV),,,103041,"Please schedule delivery for Monday, Wednesday, or Thursday from 2pm~5pm
confirmed the account in Synchrony.($5,400) *Please charge before delivery.* 1/17/18 Hitomi",NV,1,8.25
1/16/2018 7:52:54 PM,Youn Yu,NV,89148,Pegasus,DWA-9400Pegasus-BL,Black,New,,,,,4500.00,4500.00,0.00,Kohei Uno,Synchrony,4500.00,,,6034610083052681,83794000,Las Vegas,24 months,,0.00,,,,,,,,0.00,,,,,,,1/23/2018 12:00:00 AM,No,"3 years parts, 1 year labor (Free)",Delivered,,CES 1/9-12/18 (NV),CES 1/9-12/18 (NV),,,103042,"Please schedule delivery for Tuesday's from 8am~11am
confirmed the account in Synchrony.($5,400) *Please charge before delivery.* 1/17/18 Hitomi

Authorization # 027989",NV,1,8.25
1/17/2018 9:13:31 AM,Hendra Wijaya,TX,76005,Tech Touch 3D,DWA-9250USJ-9250BL,Black,New,,,,,4000.00,4000.00,0.00,Mario Higareda,Synchrony,2000.00,,,6034610083042906,83596712,San Diego,36 months,CreditCard,2000.00,Housecall Pro,,,,,,,0.00,,,,,,,1/19/2018 12:00:00 AM,No,"3 years parts, 1 year labor (Free)",Delivered,,CES 1/9-12/18 (NV),CES 1/9-12/18 (NV),"Confirmed $2000/36 months/Auth#018204 on Sychrony SD. 6/14/18 Riho
COD $2,000 had been paid through Housecall Pro. 7/2/18 Riho",,103044,"confirmed the account in Synchrony. ($2000) *Please charge before delivery.*  1/17/18 Hitomi
synchrony cleared $2000 018204 - stephany 06/13/18",TX,1,8.25
1/18/2018 5:02:59 PM,Ryan Thimmig,CA,92614,Tech Touch 3D,DWA-9250USJ-9250BL,Black,New,,,,,4300.00,4300.00,0.00,Rodrigo Malabunga,Synchrony,4300.00,,,6034610083042922,83596783,San Diego,24 months,,0.00,,,,,,,,0.00,,,,,,,1/22/2018 12:00:00 AM,No,"3 years parts, 1 year labor (Free)",Delivered,,CES 1/9-12/18 (NV),CES 1/9-12/18 (NV),Confirmed transaction $4300/24 months/Auth#019267 in Synchrony SD. 4/9/18 Riho,No tablet.,103070,"Synchrony approved ($4800). 1/18/18 Riho
01/19/18-Cristina: Authorization # 019267",CA,1,8.25
1/22/2018 12:08:15 PM,Joseph Arrambidez,TX,76013,Tech Touch 3D,DWA-9250USJ-9250BL,Black,New,,,,,3800.00,3800.00,0.00,Mario Higareda,Synchrony,2000.00,,,6034610083052368,83596569,San Diego,24 months,CreditCard,1800.00,081864,,,,,,,0.00,,,,,,,1/29/2018 12:00:00 AM,No,"3 years parts, 1 year labor (Free)",Delivered,,CES 1/9-12/18 (NV),CES 1/9-12/18 (NV),,,103190,"the confirmed the account in Synchrony($2000) *Please charge before delivery.* 1/22/18 Hitomi
TX branch charged $2,000 by Synchrony.Auth#025096.
$1,800 COD paid by WF. Auth#081864",TX,1,8.25
