﻿Date,CustomerName,State,Zipcode,Description,productNo,Color,IsDemo,Net,ShippingFee,GiftPrice,FinancingProcessingFee,Gross,Pre_tax,Tax,Commission,Primary Payment Method,Primary Payment Balance,Primary Authorize Number,Primary Purchase Order Number,Primary Synchrony Account Number,Primary Synchrony Application Key,Primary Synchrony AccountInfo,Primary SynchronyTerm,Secondly Payment Method,Secondly Payment Balance,Secondly Authorize Number,Secondly Purchase Order Number,Secondly Synchrony Account Number,Secondly Synchrony Application Key,Secondly Synchrony AccountInfo,Secondly SynchronyTerm,Thirdly Payment Method,Thirdly Payment Balance,Thirdly Authorize Number,Thirdly Purchase Order Number,Thirdly Synchrony Account Number,Thirdly Synchrony Application Key,Thirdly Synchrony AccountInfo,Thirdly SynchronyTerm,DeliveryDate,Ispickup,Warranty,Status,Event Name,Synchrony Notes,Order Notes,Order number,Private Note,Branch,IsNoTax,ActualTaxRate
1/10/2018 5:14:53 PM,Grey Kubitz,AZ,85326,Legacy for Sam's,DWA-9100DWA-9100CH-DEMO,Demo Choco,Demo,,,,,3915.71,3659.66,256.05,David Wang,PurchaseOrder,3915.71,,5224011814060041562974,,,,,,0.00,,,,,,,,0.00,,,,,,,,No,"3 years parts, 1 year labor (Free)",Assigned,Sam's Club #4830 1/4-14/18 (CA),,,102832,"Please send the BRAND NEW DWA-9100 CHOCOLATE chair to the customer!!! Thank you so much!!!
01/11/17- Cristina _printed-
01/18/18-Cristina- re dispatched to LV per Hide's Request.",NV,0,8.80
1/10/2018 5:48:40 PM,Daiwa Massage,CA,90249,Ninja Leg Massager,,,New,,,,,412.35,379.00,33.35,David Wang,PurchaseOrder,412.35,,34922226404481157318,,,,,,0.00,,,,,,,,0.00,,,,,,,,YES,"2 years parts, 1 year labor (Small Items)",Delivered,Sam's Club #4830 1/4-14/18 (CA),,,102834,customer's name Kristen Hinkle. store pick up.We do not need to ship!!!,CA,0,8.80
1/12/2018 9:57:55 AM,Daiwa Massage,CA,90249,Vitality Plate for Sam's,USJ-849USJ-849-DEMO,Demo,Demo,,,,,435.19,399.99,35.20,David Wang,PurchaseOrder,435.19,,584421206020042523924,,,,,,0.00,,,,,,,,0.00,,,,,,,,YES,"2 years parts, 1 year labor (Small Items)",Delivered,Sam's Club #4830 1/4-14/18 (CA),,,102893,store pick up,CA,0,8.80
1/12/2018 10:01:15 AM,Daiwa Massage,CA,90249,Vitality Plate for Sam's,USJ-849USJ-849-DEMO,Demo,Demo,,,,,435.19,399.99,35.20,David Wang,PurchaseOrder,435.19,,491867998929935670423,,,,,,0.00,,,,,,,,0.00,,,,,,,,YES,"2 years parts, 1 year labor (Small Items)",Delivered,Sam's Club #4830 1/4-14/18 (CA),,,102894,store pick up,CA,0,8.80
1/12/2018 10:06:04 AM,Daiwa Massage,CA,90249,Vitality Plate for Sam's,USJ-849USJ-849-DEMO,Demo,Demo,,,,,435.19,399.99,35.20,David Wang,PurchaseOrder,435.19,,829300325215266376596,,,,,,0.00,,,,,,,,0.00,,,,,,,,YES,"2 years parts, 1 year labor (Small Items)",Delivered,Sam's Club #4830 1/4-14/18 (CA),,,102895,store pick up.,CA,0,8.80
1/14/2018 12:48:42 PM,Adam Fuentes,AZ,85392,Legacy for Sam's,DWA-9100DWA-9100CH-DEMO,Demo Choco,Demo,,,,,3915.71,3659.66,256.05,David Wang,PurchaseOrder,3915.71,,8357699699525519802641,,,,,,0.00,,,,,,,,0.00,,,,,,,,No,"3 years parts, 1 year labor (Free)",Scheduled,Sam's Club #4830 1/4-14/18 (CA),,,102944,"Please send the BRAND NEW (DWA-9100)CHOCO legacy chair to the customer.Thank you.
01/18/18-Cristina- re dispatched to LV per Hide's Request.",NV,0,8.80
