﻿Date,Customer Name,State,Zipcode,Description,Product Number,Color,Product Status,Net,Shipping Fee,Gift Price,Financing Processing Fee,Order Total,Total Before Tax,Tax,Commission,Primary Payment Method,Primary Payment Balance,Primary Authorize Number,Primary Purchase Order Number,Primary Synchrony Account Number,Primary Synchrony Application Key,Primary Synchrony Account Info,Primary Synchrony Term,Primary Synchrony Primary ID,Primary Synchrony Issued State,Primary Synchrony Expiretion Date,Second Payment Method,Second Payment Balance,Second Authorize Number,Second Purchase Order Number,Second Synchrony Account Number,Second Synchrony Application Key,Second Synchrony Account Info,Second Synchrony Term,Second Synchrony Primary ID,Second Synchrony Issued State,Second Synchrony Expiretion Date,Third Payment Method,Third Payment Balance,Third Authorize Number,Third Purchase Order Number,Third Synchrony Account Number,Third Synchrony Application Key,Third Synchrony Account Info,Third Synchrony Term,Third Synchrony Primary ID,Third Synchrony Issued State,Third Synchrony Expiretion Date,Delivery Date,Pick up,Warranty,Status,Chair Type,Original Event Name,Event Name,Synchrony Notes,Order Notes,Order Number,Private Note,Branch,No Tax,Actual Tax Rate
2/18/2018 6:46:30 PM,Amyn Jiwani,TX,76244,Legacy 3D,DWA-9150USJ-9150BL,Black,New,,,,,4000.00,4000.00,0.00,Mijung Song,Cash,200.00,,,,,,,,,,Cash,3800.00,,,,,,,,,,,0.00,,,,,,,,,,4/17/2018 12:00:00 AM,No,"3 years parts, 1 year labor (Free)",Delivered,,"TEXAS HOME & GARDEN (2/16 -2/18, TX)","TEXAS HOME & GARDEN (2/16 -2/18, TX)",,,103810,"Cash price total : $4000
Deposit: $200
Remaning (COD): $3800
Delivery begining of April
////Mijung received the cash and will pass to Mario. 2/23/18 Hitomi
Mario received $200cash deposit. 3/8/18 Hitomi
4/20Maritza Cash received by Mario4/17",TX,1,8.25
2/18/2018 6:54:59 PM,Cheryl Benoit,TX,79413,Majesty,DWA-8000DWA-8000-BL,Black,New,,,,,3463.83,3257.00,206.83,Phuoc Van,Synchrony,3464.00,,,6034610083106024,85107207,Huston,24 months,,,,,0.00,,,,,,,,,,,0.00,,,,,,,,,,3/9/2018 12:00:00 AM,No,"3 years parts, 1 year labor (Free)",Delivered,,"TEXAS HOME & GARDEN (2/16 -2/18, TX)","TEXAS HOME & GARDEN (2/16 -2/18, TX)",auth#006104. 3/6/2018 June,,103811,"24 months financing
Total price : $3464
confirmed Synchrony form and account $8,500.**Please charge before delivery.**2/19/18 Hitomi
TX charged Synchrony $3464/24months/Auth#006104 -3/16/18 Riho",TX,0,8.25
2/18/2018 7:01:13 PM,Jim Williams,TX,76210,Majesty,DWA-8000DWA-8000-BR,Choco Brown,New,,,,,3463.83,3257.00,206.83,Phuoc Van,CreditCard,3464.00,G1V1,,,,,,,,,,0.00,,,,,,,,,,,0.00,,,,,,,,,,2/26/2018 12:00:00 AM,No,"3 years parts, 1 year labor (Free)",Delivered,,"TEXAS HOME & GARDEN (2/16 -2/18, TX)","TEXAS HOME & GARDEN (2/16 -2/18, TX)",,,103812,"Total price $3464 paid in full with square # G1V1
confirmed $3,464 in Square. 2/19/18 Hitomi",TX,0,8.25
2/18/2018 7:07:50 PM,Mike Jungers,TX,76126,Legacy 3D,DWA-9150USJ-9150BL-DEMO,Demo Black,Demo,,,,,4000.00,4000.00,0.00,Phuoc Van,CreditCard,300.00,mNgd,,,,,,,,,CreditCard,3700.00,02555C,,,,,,,,,,0.00,,,,,,,,,,3/9/2018 12:00:00 AM,No,"3 years parts, 1 year labor (Free)",Delivered,,"TEXAS HOME & GARDEN (2/16 -2/18, TX)","TEXAS HOME & GARDEN (2/16 -2/18, TX)",,,103813,"Total price $4000
Depost $300 with square 
COD $3700 was paid by C.C.-Auth#02555C, confirmed the transaction. 3/19/18 Riho
confirmed $300 in Square. 2/19/18 Hitomi",TX,1,8.25
2/19/2018 8:14:42 AM,Cheryl Benoit,TX,79413,Majesty,DWA-8000DWA-8000-BL,Black,New,,,,,3464.00,3464.00,0.00,Phuoc Van,Synchrony,3464.00,,,6034610083106024,85107207,Huston,24 months,,,,,0.00,,,,,,,,,,,0.00,,,,,,,,,,,No,"3 years parts, 1 year labor (Free)",Cancelled,,"TEXAS HOME & GARDEN (2/16 -2/18, TX)","TEXAS HOME & GARDEN (2/16 -2/18, TX)",,,103844,"Duplicate with order 103811, cancel",Not Dispatched,1,8.25
2/19/2018 8:20:02 AM,Michael Gorsline,TX,78380,Legacy,DWA-9100DWA-9100BL,Black,New,,,,,4300.00,4300.00,0.00,KHOA H,Synchrony,4300.00,,,6034610083107147,85130952,Huston,24 months,,,,,0.00,,,,,,,,,,,0.00,,,,,,,,,,3/2/2018 12:00:00 AM,No,"3 years parts, 1 year labor (Free)",Delivered,,"TEXAS HOME & GARDEN (2/16 -2/18, TX)","TEXAS HOME & GARDEN (2/16 -2/18, TX)","AUTH# 028933
Confirmed $4,300/24 months on Synchrony HST. 6/28/18 Riho",,103846,"will confirm the Synchrony form. 2/19/18 Hitomi
Sales put wrong show. The correct show name is CORPUS CHRISTI HM & GD. 2/19/2018 June
confirmed the account $5,500 and form. 2/21/18 hitomi",TX,1,8.25
2/19/2018 8:21:32 AM,Jim Williams,TX,76210,Majesty,DWA-8000DWA-8000-BR,Choco Brown,New,,,,,3464.00,3464.00,0.00,Phuoc Van,CreditCard,3464.00,G1V1,,,,,,,,,,0.00,,,,,,,,,,,0.00,,,,,,,,,,,No,"3 years parts, 1 year labor (Free)",Cancelled,,"TEXAS HOME & GARDEN (2/16 -2/18, TX)","TEXAS HOME & GARDEN (2/16 -2/18, TX)",,,103847,,Not Dispatched,1,8.25
2/19/2018 8:30:19 AM,Dru Kiesel,TX,78411,Relax2Zero 3D,DWA-9060USJ-9060BL,Black,New,,,,,4800.00,4800.00,0.00,KHOA H,Synchrony,5000.00,,,6034610083108863,85156533,Huston,24 months,,,,,0.00,,,,,,,,,,,0.00,,,,,,,,,,3/2/2018 12:00:00 AM,No,"3 years parts, 1 year labor (Free)",Delivered,,"TEXAS HOME & GARDEN (2/16 -2/18, TX)","TEXAS HOME & GARDEN (2/16 -2/18, TX)","Auth#028218
Confirmed transaction $5000/48 months in Synchrony HST. 4/26/18 Riho",,103849,"will confirm the Synchrony form. 2/19/18 Hitomi
Sales put wrong show. The correct show name is CORPUS CHRISTI HM & GD. 2/19/2018 June
confirmed the account $6,500 and form. 2/21/18 Hitomi",TX,1,8.25
3/2/2018 3:09:04 PM,Barbara Coulter Smith,TX,76051,Relax2Zero 3D,DWA-9060USJ-9060BR-DEMO,Demo Choco,Demo,,,,,3500.00,3500.00,0.00,Mijung Song,CreditCard,3500.00,#Lgfw,,,,,,,,,,0.00,,,,,,,,,,,0.00,,,,,,,,,,3/14/2018 12:00:00 AM,No,"2 years parts, 1 year labor (Free)",Delivered,,Texas Home & Garden Show  Dallas 3/2-4/18,Texas Home & Garden Show  Dallas 3/2-4/18,,,104085,"confirmed $3,500 in Square. 3/2/18 Hitomi",TX,1,8.25
3/5/2018 12:33:38 PM,Terry L. Webb,TX,76210,Relax2Zero 3D,DWA-9060USJ-9060BL-DEMO,Demo Black,Demo,,,,,3500.00,3500.00,0.00,Mijung Song,CreditCard,2500.00,#XMrP,,,,,,,,,CreditCard,1000.00,#Jtov,,,,,,,,,,0.00,,,,,,,,,,3/9/2018 12:00:00 AM,No,"3 years parts, 1 year labor (Free)",Delivered,,Texas Home & Garden Show  Dallas 3/2-4/18,Texas Home & Garden Show  Dallas 3/2-4/18,,,104202,"confirmed $3,500 ($2,500+$1,000) in Square. 3/5/18 Hitomi
Please disregard the delivery details, Accidentally I put wrong information. 3/20/18 Riho",TX,1,8.25
3/5/2018 12:46:22 PM,Kim Hooks,TX,75087,Legacy 3D,DWA-9150USJ-9150CH,New Choco,New,,,,,4275.00,4275.00,0.00,Mijung Song,Check,4275.00,,,,,,,,,,,0.00,,,,,,,,,,,0.00,,,,,,,,,,3/14/2018 12:00:00 AM,No,"3 years parts, 1 year labor (Free)",Delivered,,Texas Home & Garden Show  Dallas 3/2-4/18,Texas Home & Garden Show  Dallas 3/2-4/18,,,104203,The check #5852 ($4275) was confirmed by Yumi. 3/12/18 Riho,TX,1,8.25
3/5/2018 12:56:05 PM,Christina Minton,TX,76016,Legacy 3D,DWA-9150USJ-9150CH-DEMO,Demo Choco,Demo,,,,,3500.00,3500.00,0.00,Mijung Song,CreditCard,3500.00,#PSn8,,,,,,,,,,0.00,,,,,,,,,,,0.00,,,,,,,,,,3/9/2018 12:00:00 AM,No,"3 years parts, 1 year labor (Free)",Delivered,,Texas Home & Garden Show  Dallas 3/2-4/18,Texas Home & Garden Show  Dallas 3/2-4/18,,,104204,"Deliver before Friday, Customer request on Friday before 5pm
Confirmed the correct Square # is Yt25. confirmed $3,500 in Square. 3/6/18 Hitomi",TX,1,8.25
3/5/2018 1:05:34 PM,Shane Bledsoe,TX,76657,Relax2Zero 3D,DWA-9060USJ-9060BL-DEMO,Demo Black,Demo,,,,,3200.00,3200.00,0.00,Mijung Song,CreditCard,3200.00,#Yt25,,,,,,,,,,0.00,,,,,,,,,,,0.00,,,,,,,,,,4/13/2018 12:00:00 AM,No,"3 years parts, 1 year labor (Free)",Delivered,,Texas Home & Garden Show  Dallas 3/2-4/18,Texas Home & Garden Show  Dallas 3/2-4/18,,,104205,"Confirmed the correct Square # is PSn8. confirmed $3,200 in Square. 3/6/18 Hitomi",TX,1,8.25
6/17/2018 10:09:18 AM,Raymond Morlock,TX,77029,Pegasus,DWA-9400Pegasus-BR,New Choco,New,,,,,4500.00,4500.00,0.00,Tom Nguyen,Synchrony,4500.00,,,6034610083334824,90357495,Huston,36 months,,,,,0.00,,,,,,,,,,,0.00,,,,,,,,,,,No,"3 years parts, 1 year labor (Free)",Cancelled,,"Texas Home & Garden Show (6/16-17/2018) Houston, TX","Texas Home & Garden Show (6/16-17/2018) Houston, TX",,Please charge Synchrony,106868,Called sales Kristy for cancelled at 6/18/2018. June,Not Dispatched,1,8.25
6/17/2018 10:16:21 AM,Rachel Elvis,TX,77373,Legacy 3D,DWA-9150USJ-9150CH,New Choco,New,,,,,3800.00,3800.00,0.00,Tom Nguyen,CreditCard,100.00,Square #OJGQ,,,,,,,,,Synchrony,3700.00,,,,,,,,,,,0.00,,,,,,,,,,,No,"3 years parts, 1 year labor (Free)",Hold,,"Texas Home & Garden Show (6/16-17/2018) Houston, TX","Texas Home & Garden Show (6/16-17/2018) Houston, TX",,Haven’t checked Synchrony yet. Customer will hold for 6 months to buy a house before we check Synchrony and charge remaining of $3700. We already checked ID’s and Customer have filled out Synchrony form. We need to call in 6 months to get Social Security.,106869,,Not Dispatched,1,8.25
6/17/2018 2:34:21 PM,Qianhe Yue,TX,78620,Pegasus,DWA-9400Pegasus-BR,New Choco,New,,,,,3800.00,3800.00,0.00,Tom Nguyen,Cash,100.00,,,,,,,,,,COD,3700.00,,,,,,,,,,,0.00,,,,,,,,,,,No,"3 years parts, 1 year labor (Free)",Hold,,"Texas Home & Garden Show (6/16-17/2018) Houston, TX","Texas Home & Garden Show (6/16-17/2018) Houston, TX",,"Cash on Delivery
HOLD order for 3 months. Customer is still in the process of building house.",106877,"Tom has the $100 cash deposit//Mario received $100 cash. received confirmation. 6/21/18 Hitomi
Customer was remodeling home and pushed Hold for longer and is now thinking about Cancellation (spoke to June)3/27/2019 - Tina",TX,1,8.25
10/29/2018 3:12:33 PM,Misty Dawn Blocker,TX,78070,Legacy 3D,DWA-9150USJ-9150CH,New Choco,New,,,,,4221.75,4221.75,0.00,Keith Kei,CreditCard,4221.75,4kS5,,,,,,,,,,0.00,,,,,,,,,,,0.00,,,,,,,,,,11/13/2018 12:00:00 AM,No,"5 years parts, 1 year labor (Free)",Delivered,New,"Texas Home & Garden Show (10/26-10/28/2018) San Antonio, TX","Texas Home & Garden Show (10/26-10/28/2018) San Antonio, TX",,,110753,"Confirmed $4,221.75 in Square. 10/29/18 Hitomi",TX,1,8.25
10/29/2018 3:17:27 PM,Antonio A Gonzalez,TX,78542,Relax2Zero 3D,DWA-9060USJ-9060BR-DEMO,Demo Choco,Demo,,,,,4330.00,4330.00,0.00,Keith Kei,Synchrony,3000.00,,,6019170813211494,96276742,Huston,24 months,,,,CreditCard,1330.00,NdiH,,,,,,,,,,0.00,,,,,,,,,,11/14/2018 12:00:00 AM,No,"5 years parts, 1 year labor (Free)",Delivered,New,"Texas Home & Garden Show (10/26-10/28/2018) San Antonio, TX","Texas Home & Garden Show (10/26-10/28/2018) San Antonio, TX","Authorization Code: 005185
Confirmed the transaction [$3,000-24months-Auth#005185] and the sales draft signed. 5/31/19 Riho ",,110754,"Confirmed $1,330.00 in Square. SYNC $3,000 under MARY GONZALEZ. Original needs to be confirmed. 10/30/18 Hitomi//Confirmed original.***Please charge $3,000 before delivery and have MARY to sign sales draft. *** 10/31/18 Hitomi
11/1Maritza Courtesy message sent at 1PM",CA,1,8.25
