﻿Date,CustomerName,State,Zipcode,Description,productNo,Color,IsDemo,Net,ShippingFee,GiftPrice,FinancingProcessingFee,Gross,Pre_tax,Tax,Commission,Primary Payment Method,Primary Payment Balance,Primary Authorize Number,Primary Purchase Order Number,Primary Synchrony Account Number,Primary Synchrony Application Key,Primary Synchrony AccountInfo,Primary SynchronyTerm,Secondly Payment Method,Secondly Payment Balance,Secondly Authorize Number,Secondly Purchase Order Number,Secondly Synchrony Account Number,Secondly Synchrony Application Key,Secondly Synchrony AccountInfo,Secondly SynchronyTerm,Thirdly Payment Method,Thirdly Payment Balance,Thirdly Authorize Number,Thirdly Purchase Order Number,Thirdly Synchrony Account Number,Thirdly Synchrony Application Key,Thirdly Synchrony AccountInfo,Thirdly SynchronyTerm,DeliveryDate,Ispickup,Warranty,Status,Event Name,Synchrony Notes,Order Notes,Order number,Private Note,Branch,IsNoTax,ActualTaxRate
2/20/2018 9:55:23 AM,Jane Sih,MD,21030,Relax2Zero 3D,DWA-9060USJ-9060BR,New Choco,New,,,,,4500.00,4500.00,0.00,Harmony Daiwa,Synchrony,4500.00,,,6034610083107501,85137201,Las Vegas,36 months,,0.00,,,,,,,,0.00,,,,,,,,No,"3 years parts, 1 year labor (Free)",Called,Baltimore Remodeling Expo 2/16-18/18 (IL),,,103886,"Synchrony approved $6500, please charge $4500 before delivery. 2/20/18 Riho
Client asked if chair can be delivered in 60 days they are remodeling their floors and home.Someone can follow up on a date convenient",TX,1,6.00
2/20/2018 9:58:04 AM,Sabina Kang,MD,21202,Relax2Zero 3D,DWA-9060USJ-9060BR-DEMO,Demo Choco,Demo,,,,,4142.00,3950.00,192.00,Christoper Richard Williams,Synchrony,4000.00,,,6034610008310741,85135682,Las Vegas,36 months,,0.00,,,,,,,,0.00,,,,,,,,No,"3 years parts, 1 year labor (Free)",Scheduled,Baltimore Remodeling Expo 2/16-18/18 (IL),,Sold for 4000,103887,"Synchrony approved $5500, please charge $4000 before delivery. 2/20/18 Riho
customer confirmed 3/1/2018 4-9PM delivery appointment. auth # 021903. 2/23/2018 June",TX,0,6.00
