﻿Date,CustomerName,State,Zipcode,Description,productNo,Color,IsDemo,Net,ShippingFee,GiftPrice,FinancingProcessingFee,Gross,Pre_tax,Tax,Commission,Primary Payment Method,Primary Payment Balance,Primary Authorize Number,Primary Purchase Order Number,Primary Synchrony Account Number,Primary Synchrony Application Key,Primary Synchrony AccountInfo,Primary SynchronyTerm,Secondly Payment Method,Secondly Payment Balance,Secondly Authorize Number,Secondly Purchase Order Number,Secondly Synchrony Account Number,Secondly Synchrony Application Key,Secondly Synchrony AccountInfo,Secondly SynchronyTerm,Thirdly Payment Method,Thirdly Payment Balance,Thirdly Authorize Number,Thirdly Purchase Order Number,Thirdly Synchrony Account Number,Thirdly Synchrony Application Key,Thirdly Synchrony AccountInfo,Thirdly SynchronyTerm,DeliveryDate,Ispickup,Warranty,Status,Event Name,Synchrony Notes,Order Notes,Order number,Private Note,Branch,IsNoTax,ActualTaxRate
11/1/2017 7:37:40 PM,Russ Nebhut,CA,79761,Relax2Zero 2.0 for Sam's,USJ-9050USJ-9050BR-DEMO,Demo Brown,Demo,,,,,3542.89,3199.00,343.89,Michael Wang,,0.00,Paid in full approval number 48513P,,,,,,,,,,,,,,,,,,,,,,,No,"3 years parts, 1 year labor (Free)",Cancelled,Sam's Club #11/2-11/12/17 (TX),,"2 total free chair pads, 1 free Daiwa blanket, 1 usb flash drive included.",101653,"**This order was revised, the new one is #101776**
Give customer new chair please.Previous Sam’s Club Customer from Odessa, TX 6439 buying another chair.Tax rate may not be accurate since no option for Odessa 6439.",CA,,
11/2/2017 3:59:32 PM,Margot Tutor,TX,78240,Relax2Zero 2.0 for Sam's,USJ-9050USJ-9050BR-DEMO,Demo Brown,Demo,,,,,3462.27,3199.00,263.27,Mario Higareda,,0.00,02850Z,,,,,,,,,,,,,,,,,,,,,,11/6/2017 12:00:00 AM,No,"3 years parts, 1 year labor (Free)",Delivered,Sam's Club #11/2-11/12/17 (TX),,,101668,"This is from a show earlier in 2017 in Sam's club in San Antonio
San's Club#8227",TX,,
