﻿Date,CustomerName,State,Description,productNo,Color,IsDemo,Net,Tax,ShippingFee,GiftPrice,FinancingProcessingFee,Gross,Commission,PaymentMethod,Primary Payment Balance,Secondary Payment Method,DeliveryDate,Ispickup,Warranty,Status
9/1/2017 2:09:27 PM,Tae Lee,GA,Legacy,DWA-9100DWA-9100BL,Black,New,,294.15,,,,4224.15,Mitch Valdes,CreditCard,4222.00,,9/6/2017 12:00:00 AM,No,"3 years parts, 1 year labor (Free)",Delivered
9/1/2017 5:15:48 PM,Clarence Fox,FL,Legacy for Sam's,DWA-9100DWA-9100CH-DEMO,Demo Choco,New,,251.93,,,,3850.93,Jonathan Bhowani,CreditCard,0.00,,,No,"3 years parts, 1 year labor (Free)",Dispatched / Shipped
9/1/2017 5:15:48 PM,Clarence Fox,FL,Daiwa Blanket,,,New,,251.93,,,,3850.93,Jonathan Bhowani,CreditCard,0.00,,,No,No Warranty,Dispatched / Shipped
9/1/2017 11:26:27 PM,Randy Costales,AA,Legacy,DWA-9100DWA-9100CH-DEMO,Demo Choco Brown,New,,198.88,,,,3098.88,David Wang,CreditCard,0.00,,,No,"3 years parts, 1 year labor (Free)",Dispatched / Shipped
9/2/2017 1:17:43 AM,NADINE ZARRINKOUH,CA,Legacy,DWA-9100DWA-9100CH-DEMO,Demo Choco Brown,New,,208.13,,,,3208.13,Mei Kang,Synchrony,3208.13,,,No,"3 years parts, 1 year labor (Free)",Dispatched / Shipped
9/2/2017 4:23:39 PM,Geri Cooper,WA,Legacy 3D,DWA-9150USJ-9150CH-DEMO,Demo Choco Brown,New,,267.90,,,,3867.90,Kristy Tran,COD,500.00,CreditCard,,No,"5 years parts, 3 years labor ($700)",Dispatched / Shipped
9/2/2017 4:34:08 PM,Lucinda Bryant,WA,Legacy 3D,DWA-9150USJ-9150CH-DEMO,Demo Choco Brown,New,,305.50,,,,4305.50,Tom Nguyen,Synchrony,4000.00,,,No,"5 years parts, 3 years labor ($700)",Dispatched / Shipped
9/2/2017 4:41:31 PM,Tom Weber,WA,Legacy 3D,DWA-9150USJ-9150BL-DEMO,Demo Black,New,,305.50,,,,4305.50,Ruben Cuatrona,COD,1000.00,CreditCard,,No,"5 years parts, 3 years labor ($700)",Dispatched / Shipped
9/2/2017 4:52:20 PM,Jane Schultz,WA,Legacy 3D,DWA-9150USJ-9150BL,Black,New,,361.90,,,,4961.90,Christoper Richard Williams,CreditCard,5055.40,,,No,"5 years parts, 3 years labor ($700)",Dispatched / Shipped
9/2/2017 4:52:20 PM,Jane Schultz,WA,Tourmaline Pad for Lagacy 3D,,,New,,361.90,,,,4961.90,Christoper Richard Williams,CreditCard,5055.40,,,No,no warranty,Dispatched / Shipped
9/2/2017 4:58:44 PM,Barb Sankey,WA,Legacy,DWA-9100DWA-9100CH-DEMO,Demo Choco Brown,New,,262.20,,,,3862.20,Joseph Chan,CreditCard,3931.00,,,No,"3 years parts, 3 years labor ($400)",Dispatched / Shipped
9/2/2017 5:04:04 PM,Brian Nokes,WA,Legacy 3D,DWA-9150USJ-9150BL,Black,New,,361.90,,,,4961.90,Phuoc Van,COD,300.00,CreditCard,,No,"5 years parts, 3 years labor ($700)",Dispatched / Shipped
9/2/2017 5:21:20 PM,Sam Hankins,WA,Relax2Zero 3D,DWA-9060USJ-9060BR-DEMO,Demo Choco Brown,New,,305.50,,,,4305.50,Laser Howell,Synchrony,4000.00,,,No,"5 years parts, 3 years labor ($700)",Dispatched / Shipped
9/2/2017 5:36:23 PM,Test Test,CA,Legacy,DWA-9100DWA-9100CH,Choco Brown,New,,263.63,,,,3863.63,Mei Kang,CreditCard,100.00,COD,,No,"3 years parts, 1 year labor (Free)",Cancelled
9/2/2017 5:36:23 PM,Test Test,CA,Tourmaline Pad for Lagacy,,,New,,263.63,,,,3863.63,Mei Kang,CreditCard,100.00,COD,,No,no warranty,Cancelled
9/2/2017 5:50:06 PM,Richard Callaham,WA,Relax2Zero 3D,DWA-9060USJ-9060BR-DEMO,Demo Choco Brown,New,,286.70,,,,4086.70,Tom Nguyen,Synchrony,3500.00,CreditCard,,No,"5 years parts, 3 years labor ($700)",Hold
9/2/2017 7:18:40 PM,Cuc Nguyen,FL,Legacy 3D,DWA-9150USJ-9150BL,Black,New,,319.38,,,,4719.38,Jessica Phung,Synchrony,0.00,,,No,"3 years parts, 1 year labor (Free)",Dispatched / Shipped
9/2/2017 7:18:40 PM,Cuc Nguyen,FL,Chair Pad for Lagacy 3D,,,New,,319.38,,,,4719.38,Jessica Phung,Synchrony,0.00,,,No,no warranty,Dispatched / Shipped
9/2/2017 7:18:40 PM,Cuc Nguyen,FL,Daiwa Blanket,,,New,,319.38,,,,4719.38,Jessica Phung,Synchrony,0.00,,,No,no warranty,Dispatched / Shipped
9/2/2017 7:18:40 PM,Cuc Nguyen,FL,Foot Pads for Lagacy 3D,,,New,,319.38,,,,4719.38,Jessica Phung,Synchrony,0.00,,,No,no warranty,Dispatched / Shipped
9/2/2017 8:21:04 PM,Sau Coc Thong,CA,Legacy 3D,DWA-9150USJ-9150CH,Choco Brown,New,,319.38,,,,4719.38,Jessica Phung,Synchrony,0.00,,,No,"3 years parts, 1 year labor (Free)",Cancelled
9/2/2017 8:21:04 PM,Sau Coc Thong,CA,Chair Pad for Lagacy 3D,,,New,,319.38,,,,4719.38,Jessica Phung,Synchrony,0.00,,,No,no warranty,Cancelled
9/2/2017 8:21:04 PM,Sau Coc Thong,CA,Foot Pads for Lagacy 3D,,,New,,319.38,,,,4719.38,Jessica Phung,Synchrony,0.00,,,No,no warranty,Cancelled
9/2/2017 9:13:25 PM,Jimmy Retana,CA,Legacy,DWA-9100DWA-9100CH-DEMO,Demo Choco Brown,New,,207.20,,,,3197.20,Kaz Ohashi,CreditCard,100.00,,,No,"3 years parts, 1 year labor (Free)",Cancelled
9/2/2017 9:17:46 PM,Claudia Dodel,WA,Relax2Zero 3D,DWA-9060USJ-9060BL-DEMO,Demo Black,New,,267.72,,,,3927.72,Joseph Chan,CreditCard,4000.00,,,No,"3 years parts, 3 years labor ($400)",Dispatched / Shipped
9/2/2017 10:23:32 PM,John Smith,CA,Legacy 3D,DWA-9150USJ-9150CH,Choco Brown,New,,319.38,,,,4719.38,Jessica Phung,COD,0.00,,,No,"3 years parts, 1 year labor (Free)",Cancelled
9/2/2017 10:23:32 PM,John Smith,CA,Chair Pad for Lagacy 3D,,,New,,319.38,,,,4719.38,Jessica Phung,COD,0.00,,,No,no warranty,Cancelled
9/3/2017 4:11:55 PM,Mary Miller,WA,Legacy 3D,DWA-9150USJ-9150CH-DEMO,Demo Choco Brown,New,,305.50,,,,4305.50,Ruben Cuatrona,Synchrony,4000.00,,,No,"5 years parts, 3 years labor ($700)",Dispatched / Shipped
9/3/2017 4:19:47 PM,Terri Vaughn,WA,Legacy 3D,DWA-9150USJ-9150CH,Choco Brown,New,,324.30,,,,4524.30,Tom Nguyen,CreditCard,500.00,COD,,No,"5 years parts, 3 years labor ($700)",Dispatched / Shipped
9/3/2017 4:34:06 PM,Ronald & Pamela Greene,WA,Legacy 3D,DWA-9150USJ-9150BL,Black,New,,333.70,,,,4633.70,Kristy Tran,Synchrony,4300.00,,,No,"5 years parts, 3 years labor ($700)",Dispatched / Shipped
9/3/2017 4:41:22 PM,Robert Breynaert,WA,Legacy 3D,DWA-9150USJ-9150BL,Black,New,,305.50,,,,4305.50,Ruben Cuatrona,CreditCard,4000.00,,,No,"5 years parts, 3 years labor ($700)",Dispatched / Shipped
9/3/2017 4:47:51 PM,Tara Kleca,WA,Relax2Zero 3D,DWA-9060USJ-9060BR,Choco Brown,New,,305.50,,,,4305.50,Larhonda Ingram,CreditCard,500.00,COD,,No,"5 years parts, 3 years labor ($700)",Dispatched / Shipped
9/3/2017 5:03:48 PM,James Young,WA,Relax2Zero 3D,DWA-9060USJ-9060BL,Black,New,,361.90,,,,4961.90,Scott Ishikawa,CreditCard,100.00,COD,,No,"5 years parts, 3 years labor ($700)",Dispatched / Shipped
9/3/2017 5:12:52 PM,Susan Dones,WA,Relax2Zero 3D,DWA-9060USJ-9060BR,Choco Brown,New,,305.50,,,,4305.50,Laser Howell,CreditCard,400.00,COD,,No,"5 years parts, 3 years labor ($700)",Dispatched / Shipped
9/3/2017 5:21:39 PM,George Hernandez,CA,Relax2Zero 1.0,USJ-9000USJ-9000KU,Black,New,,254.38,,,,3754.38,Kohei Uno,Synchrony,0.00,,,No,"3 years parts, 1 year labor (Free)",Dispatched / Shipped
9/3/2017 5:21:39 PM,George Hernandez,CA,Daiwa Blanket,,,New,,254.38,,,,3754.38,Kohei Uno,Synchrony,0.00,,,No,no warranty,Dispatched / Shipped
9/3/2017 5:21:39 PM,George Hernandez,CA,Chair Pad for Relax2Zero 1.0,,,New,,254.38,,,,3754.38,Kohei Uno,Synchrony,0.00,,,No,no warranty,Dispatched / Shipped
9/3/2017 5:21:39 PM,George Hernandez,CA,Foot Pads for Relax2Zero 1.0,,,New,,254.38,,,,3754.38,Kohei Uno,Synchrony,0.00,,,No,no warranty,Dispatched / Shipped
9/3/2017 6:37:02 PM,Joe Cruz,FL,Relax2Zero 2.0 for Sam's,USJ-9050USJ-9050BR,Brown,New,,223.93,,,,3422.93,Fnu Pierce Wusilong,CreditCard,0.00,,,YES,"3 years parts, 1 year labor (Free)",Dispatched / Shipped
9/3/2017 9:02:11 PM,Juam Rodriguez,CA,Legacy,DWA-9100DWA-9100CR-DEMO,Demo Cream,New,,223.85,,,,3393.85,Ting Ritchie,CreditCard,3393.85,,,No,"3 years parts, 1 year labor (Free)",Dispatched / Shipped
9/3/2017 9:06:53 PM,Laurie Werk,CA,Pegasus,DWA-9400Pegasus-BR-DEMO,Demo Choco Brown,New,,304.33,,,,4344.33,David Wang,Synchrony,0.00,,,No,"3 years parts, 1 year labor (Free)",New
9/3/2017 9:43:30 PM,Hoa Huynh,CA,Chair Pad for Relax2Zero 1.0,,,New,,166.25,,,,2816.25,Jessica Phung,Cash,1316.25,,,No,no warranty,New
9/3/2017 9:43:30 PM,Hoa Huynh,CA,Foot Pads for Relax2Zero 1.0,,,New,,166.25,,,,2816.25,Jessica Phung,Cash,1316.25,,,No,no warranty,New
9/3/2017 9:43:30 PM,Hoa Huynh,CA,Relax2Zero 1.0,USJ-9000USJ-9000CR,Cream,New,,166.25,,,,2816.25,Jessica Phung,Cash,1316.25,,,No,"3 years parts, 1 year labor (Free)",New
9/4/2017 2:06:06 AM,Cathy Yoel,CA,Legacy,DWA-9100DWA-9100CH-DEMO,Demo Choco Brown,New,,223.85,,,,3393.85,David Wang,Synchrony,0.00,,,No,"3 years parts, 1 year labor (Free)",Dispatched / Shipped
9/4/2017 2:06:06 AM,Cathy Yoel,CA,Foot Pads for Lagacy,,,New,,223.85,,,,3393.85,David Wang,Synchrony,0.00,,,No,no warranty,Dispatched / Shipped
9/4/2017 3:31:28 AM,Giselle Zarrinkouh,CA,Legacy,DWA-9100DWA-9100CH-DEMO,Demo Choco Brown,New,,208.13,,,,3208.13,Mei Kang,Synchrony,0.00,,,No,"3 years parts, 1 year labor (Free)",Cancelled
9/4/2017 3:42:36 AM,Lucas Blankenship,CA,Legacy,DWA-9100DWA-9100BL,Black,New,,218.30,,,,3328.30,Mei Kang,Synchrony,0.00,,,No,"3 years parts, 1 year labor (Free)",Dispatched / Shipped
9/4/2017 4:18:34 AM,Amy Gray,CA,Legacy 3D,DWA-9150USJ-9150BL,Black,New,,263.63,,,,3863.63,Ting Ritchie,Synchrony,0.00,,,No,"3 years parts, 1 year labor (Free)",Dispatched / Shipped
9/4/2017 4:49:31 PM,Ken Hebert,WA,Legacy 3D,DWA-9150USJ-9150CH,Choco Brown,New,,361.90,,,,4961.90,Kristy Tran,CreditCard,4961.90,,,No,"5 years parts, 3 years labor ($700)",Dispatched / Shipped
9/4/2017 4:58:18 PM,Nathalie Watsek,WA,Legacy 3D,DWA-9150USJ-9150CH,Choco Brown,New,,361.90,,,,4961.90,Kristy Tran,Synchrony,4962.00,,,No,"5 years parts, 3 years labor ($700)",Dispatched / Shipped
9/4/2017 5:12:18 PM,Charlie Megia,WA,Legacy 3D,DWA-9150USJ-9150BL,Black,New,,305.50,,,,4305.50,Kamille Gines,Synchrony,4000.00,,,No,"5 years parts, 3 years labor ($700)",Dispatched / Shipped
9/4/2017 5:12:18 PM,Charlie Megia,WA,Tourmaline Pad for Lagacy 3D,,,New,,305.50,,,,4305.50,Kamille Gines,Synchrony,4000.00,,,No,no warranty,Dispatched / Shipped
9/4/2017 5:20:14 PM,Marnie Gonzales,WA,Legacy 3D,DWA-9150USJ-9150BL,Black,New,,305.50,,,,4305.50,Kamille Gines,Synchrony,4000.00,,,No,"5 years parts, 3 years labor ($700)",Dispatched / Shipped
9/4/2017 5:20:14 PM,Marnie Gonzales,WA,Tourmaline Pad for Lagacy 3D,,,New,,305.50,,,,4305.50,Kamille Gines,Synchrony,4000.00,,,No,no warranty,Dispatched / Shipped
9/4/2017 5:25:26 PM,Brian Baltierra,WA,Legacy,DWA-9100DWA-9100BL-DEMO,Demo Black,New,,211.50,,,,3211.50,Tom Nguyen,CreditCard,3000.00,,,No,"5 years parts, 3 years labor ($700)",Delivered
9/4/2017 5:39:21 PM,Meredith Blache,WA,Legacy 3D,DWA-9150USJ-9150BL,Black,New,,361.90,,,,4961.90,Alex Brackelsberg,Synchrony,0.00,CreditCard,,No,"5 years parts, 3 years labor ($700)",Hold
9/4/2017 5:50:10 PM,Connie Ryerson,WA,Legacy 3D,DWA-9150USJ-9150CH-DEMO,Demo Choco Brown,New,,305.50,,,,4305.50,Jennifer Tran,Synchrony,4300.00,,,No,"5 years parts, 3 years labor ($700)",Dispatched / Shipped
9/4/2017 5:56:13 PM,Daniel Kirby,WA,Legacy 3D,DWA-9150USJ-9150BL,Black,New,,385.40,,,,5235.40,Christoper Richard Williams,CreditCard,4850.00,,,No,"5 years parts, 3 years labor ($700)",Dispatched / Shipped
9/4/2017 6:02:25 PM,Bernard Tagalan,WA,Legacy 3D,DWA-9150USJ-9150CH,Choco Brown,New,,324.30,,,,4524.30,Kristy Tran,CreditCard,500.00,COD,,No,"5 years parts, 3 years labor ($700)",Dispatched / Shipped
9/4/2017 6:13:31 PM,Desert Green Farms Inc. Mianecki,WA,Legacy 3D,DWA-9150USJ-9150BL,Black,New,,531.10,,,,6931.10,Jennifer Tran,CreditCard,6400.00,,,No,"5 years parts, 3 years labor ($700)",Dispatched / Shipped
9/4/2017 6:16:53 PM,Natalie Dick,CA,Relax2Zero 1.0,USJ-9000USJ-9000KU,Black,New,,254.38,,,,3754.38,Kohei Uno,Synchrony,3754.38,,,No,"3 years parts, 1 year labor (Free)",Dispatched / Shipped
9/4/2017 6:22:04 PM,Dennis Fischer,WA,Legacy 3D,DWA-9150USJ-9150BL,Black,New,,230.30,,,,3430.30,Jennifer Tran,CreditCard,3200.00,,,No,"5 years parts, 3 years labor ($700)",Dispatched / Shipped
9/4/2017 6:33:17 PM,Brian Klein,WA,Legacy 3D,DWA-9150USJ-9150BL,Black,New,,333.70,,,,4633.70,Ruben Cuatrona,Synchrony,4300.00,,,No,"5 years parts, 3 years labor ($700)",Dispatched / Shipped
9/4/2017 6:40:12 PM,James Bliss,WA,Legacy 3D,DWA-9150USJ-9150CH,Choco Brown,New,,361.90,,,,4961.90,Christoper Richard Williams,CreditCard,500.00,COD,,No,"5 years parts, 3 years labor ($700)",Hold
9/4/2017 6:46:22 PM,Adam Pegum,WA,Legacy 3D,DWA-9150USJ-9150CH-DEMO,Demo Choco Brown,New,,258.50,,,,3758.50,Kristy Tran,Synchrony,3500.00,,,No,"5 years parts, 3 years labor ($700)",Dispatched / Shipped
9/4/2017 6:56:32 PM,John Lucier III,WA,Pegasus,DWA-9400Pegasus-BL,Black,New,,390.10,,,,5290.10,Kamille Gines,Synchrony,1500.00,CreditCard,,No,"5 years parts, 3 years labor ($700)",Hold
9/4/2017 7:01:25 PM,Roman Gonzales,WA,Legacy 3D,DWA-9150USJ-9150CH,Choco Brown,New,,333.70,,,,4633.70,Kamille Gines,Synchrony,4300.00,,,No,"5 years parts, 3 years labor ($700)",Dispatched / Shipped
9/4/2017 7:10:29 PM,Vitaily Topal,WA,Legacy 3D,DWA-9150USJ-9150BL,Black,New,,338.40,,,,4338.40,Kristy Tran,CreditCard,4000.00,,,No,"5 years parts, 3 years labor ($700)",Dispatched / Shipped
9/4/2017 7:23:47 PM,Robert Mina,WA,Legacy,DWA-9100DWA-9100BL,Black,New,,230.30,,,,3430.30,Jennifer Tran,CreditCard,3200.00,,,No,"5 years parts, 3 years labor ($700)",Dispatched / Shipped
9/4/2017 7:29:14 PM,Aleta Gehrke,WA,Pegasus,DWA-9400Pegasus-BL,Black,New,,380.70,,,,5180.70,Kamille Gines,Synchrony,4800.00,,,No,"5 years parts, 3 years labor ($700)",Dispatched / Shipped
9/4/2017 7:42:11 PM,Christeli Brunder,CT,Relax2Zero 3D,DWA-9060USJ-9060BL,Black,New,,371.30,,,,5071.30,Rodrigo Malabunga,CreditCard,4998.00,,,No,"3 years parts, 2 years labor ($200)",Dispatched / Shipped
9/4/2017 7:49:10 PM,Jeff Mucha,WA,Relax2Zero 2.0,USJ-9050USJ-9050BL,Black,New,,211.50,,,,3211.50,Rodrigo Malabunga,CreditCard,500.00,COD,,No,"5 years parts, 3 years labor ($700)",Dispatched / Shipped
9/4/2017 7:59:50 PM,Sam Canfield,WA,Relax2Zero 3D,DWA-9060USJ-9060BL,Black,New,,361.90,,,,4961.90,Scott Ishikawa,Cash,20.00,CreditCard,,No,"5 years parts, 3 years labor ($700)",Hold
9/4/2017 8:07:28 PM,Cathy Bennett,WA,Legacy 3D,DWA-9150USJ-9150CH,Choco Brown,New,,333.70,,,,4633.70,Larhonda Ingram,Synchrony,4300.00,,,No,"5 years parts, 3 years labor ($700)",Dispatched / Shipped
9/4/2017 8:12:13 PM,Clifford Cox,WA,Relax2Zero 3D,DWA-9060USJ-9060BR-DEMO,Demo Choco Brown,New,,305.50,,,,4305.50,Kamille Gines,Synchrony,4000.00,,,No,"5 years parts, 3 years labor ($700)",Dispatched / Shipped
9/4/2017 8:17:56 PM,Jan Miller,WA,Legacy 3D,DWA-9150USJ-9150BL-DEMO,Demo Black,New,,267.90,,,,3867.90,Jennifer Tran,CreditCard,3600.00,,,No,"5 years parts, 3 years labor ($700)",Dispatched / Shipped
9/4/2017 8:23:13 PM,Debbie Tateishi,WA,Legacy 3D,DWA-9150USJ-9150BL-DEMO,Demo Black,New,,277.30,,,,3977.30,Jennifer Tran,Synchrony,3700.00,,,No,"5 years parts, 3 years labor ($700)",Dispatched / Shipped
9/4/2017 8:27:53 PM,Richard and Charlene Spring,WA,Legacy 3D,DWA-9150USJ-9150CH,Choco Brown,New,,343.10,,,,4743.10,Kamille Gines,CreditCard,4400.00,,,No,"5 years parts, 3 years labor ($700)",Dispatched / Shipped
9/4/2017 11:57:21 PM,Tuyen Thanh Phan,CA,Legacy 3D,DWA-9150USJ-9150CH,Choco Brown,New,,301.88,,,,4501.88,Jessica Phung,PURCHASEORDER,0.00,,,No,"3 years parts, 1 year labor (Free)",New
9/4/2017 11:57:21 PM,Tuyen Thanh Phan,CA,Chair Pad for Lagacy 3D,,,New,,301.88,,,,4501.88,Jessica Phung,PURCHASEORDER,0.00,,,No,no warranty,New
9/4/2017 11:57:21 PM,Tuyen Thanh Phan,CA,Foot Pads for Lagacy 3D,,,New,,301.88,,,,4501.88,Jessica Phung,PURCHASEORDER,0.00,,,No,no warranty,New
9/5/2017 12:33:01 AM,Luong Thi,CA,Legacy 3D,DWA-9150USJ-9150CH,Choco Brown,New,,301.88,,,,4501.88,Jessica Phung,CreditCard,0.00,,,No,"3 years parts, 1 year labor (Free)",New
9/5/2017 12:33:01 AM,Luong Thi,CA,Chair Pad for Lagacy 3D,,,New,,301.88,,,,4501.88,Jessica Phung,CreditCard,0.00,,,No,no warranty,New
9/5/2017 12:33:01 AM,Luong Thi,CA,Foot Pads for Lagacy 3D,,,New,,301.88,,,,4501.88,Jessica Phung,CreditCard,0.00,,,No,no warranty,New
9/5/2017 3:09:35 AM,Carl Levinger,CA,Legacy,DWA-9100DWA-9100CH-DEMO,Demo Choco Brown,New,,207.20,,,,3197.20,Ting Ritchie,CreditCard,0.00,,,No,"3 years parts, 1 year labor (Free)",Dispatched / Shipped
9/5/2017 3:18:17 AM,George Close,WA,Legacy 3D,DWA-9150USJ-9150CH,Choco Brown,New,,361.90,,,,4961.90,Christoper Richard Williams,Synchrony,4600.00,,,No,"5 years parts, 3 years labor ($700)",Dispatched / Shipped
9/5/2017 3:23:44 AM,Jose Martinez,WA,Legacy,DWA-9100DWA-9100BL,Black,New,,267.90,,,,3867.90,Tom Nguyen,Synchrony,3600.00,,,No,"5 years parts, 3 years labor ($700)",Dispatched / Shipped
9/5/2017 3:30:05 AM,Eric Daniels,WA,Pegasus,DWA-9400Pegasus-BL-DEMO,Demo Black,New,,380.70,,,,5180.70,Kristy Tran,Synchrony,4800.00,,,No,"5 years parts, 3 years labor ($700)",Dispatched / Shipped
9/5/2017 3:34:59 AM,Bryce VanDevender,WA,Legacy 3D,DWA-9150USJ-9150CH,Choco Brown,New,,305.50,,,,4305.50,Kristy Tran,CreditCard,4000.00,,,No,"5 years parts, 1 year labor ($300)",Dispatched / Shipped
9/5/2017 3:40:52 AM,Dale Anderson,WA,Legacy 3D,DWA-9150USJ-9150CH,Choco Brown,New,,305.50,,,,4305.50,Tom Nguyen,Synchrony,3500.00,CreditCard,,No,"5 years parts, 3 years labor ($700)",Dispatched / Shipped
9/5/2017 3:44:37 AM,Jennifer Dean,WA,Legacy 3D,DWA-9150USJ-9150BL-DEMO,Demo Black,New,,305.50,,,,4305.50,Phuoc Van,CreditCard,4000.00,,,No,"5 years parts, 3 years labor ($700)",Dispatched / Shipped
9/5/2017 3:50:21 AM,Jerry Thatcher,WA,Legacy 3D,DWA-9150USJ-9150CH,Choco Brown,New,,343.10,,,,4743.10,Kamille Gines,CreditCard,4400.00,,,No,"5 years parts, 3 years labor ($700)",Dispatched / Shipped
9/5/2017 3:57:55 AM,Elsa Kilburn,WA,Pegasus,DWA-9400Pegasus-BR,Choco Brown,New,,399.50,,,,5399.50,Ruben Cuatrona,Synchrony,5000.00,,,No,"5 years parts, 3 years labor ($700)",Dispatched / Shipped
9/5/2017 4:02:17 AM,Janet Bernert,WA,Legacy 3D,DWA-9150USJ-9150BL,Black,New,,333.70,,,,4633.70,Phuoc Van,Synchrony,4300.00,,,No,"5 years parts, 3 years labor ($700)",Dispatched / Shipped
9/5/2017 4:06:36 AM,Jay Hall,WA,Legacy 3D,DWA-9150USJ-9150CH,Choco Brown,New,,333.70,,,,4633.70,Ruben Cuatrona,Synchrony,4300.00,,,No,"5 years parts, 3 years labor ($700)",Dispatched / Shipped
9/5/2017 4:24:38 AM,Robert and Yeonsun Park,WA,Relax2Zero 3D,DWA-9060USJ-9060BR,Choco Brown,New,,324.30,,,,4524.30,Rodrigo Malabunga,Synchrony,4200.00,,,No,"5 years parts, 3 years labor ($700)",Dispatched / Shipped
9/5/2017 4:34:30 AM,Aung Aung,WA,Relax2Zero 3D,DWA-9060USJ-9060BL,Black,New,,582.80,,,,7532.80,Scott Ishikawa,Synchrony,6950.00,,,No,"5 years parts, 3 years labor ($700)",Dispatched / Shipped
9/5/2017 4:11:19 PM,Agustin Caudillo,CA,Relax2Zero 1.0,USJ-9000USJ-9000KU,Black,New,,208.13,,,,3208.13,Kohei Uno,Synchrony,3208.13,,,No,"3 years parts, 1 year labor (Free)",Dispatched / Shipped
9/5/2017 4:23:53 PM,Javier Romero,CA,Relax2Zero 1.0,USJ-9000USJ-9000KU,Black,New,,190.55,,,,3000.55,Kohei Uno,Synchrony,3000.55,,,No,"3 years parts, 1 year labor (Free)",Dispatched / Shipped
9/5/2017 4:23:53 PM,Javier Romero,CA,Daiwa Blanket,,,New,,190.55,,,,3000.55,Kohei Uno,Synchrony,3000.55,,,No,no warranty,Dispatched / Shipped
9/5/2017 4:32:24 PM,Stuart Sam,CA,Relax2Zero 1.0,USJ-9000USJ-9000BR,Brown,New,,254.38,,,,3754.38,Kohei Uno,CreditCard,0.00,,,No,"3 years parts, 3 years labor ($400)",Dispatched / Shipped
9/5/2017 6:44:56 PM,Jeanne Tso,CA,Legacy,DWA-9100DWA-9100BL-DEMO,Demo Black,New,,208.13,,,,3408.13,Mei Kang,Synchrony,0.00,,,No,"3 years parts, 1 year labor (Free)",Dispatched / Shipped
9/5/2017 7:04:44 PM,Lee Luong,TX,Legacy,DWA-9100DWA-9100BU,Blue,New,,209.55,,,,3499.55,Mario Higareda,CreditCard,0.00,,,No,"3 years parts, 1 year labor (Free)",Hold
9/5/2017 7:14:44 PM,Victor Ontiveros,CA,Legacy,DWA-9100DWA-9100BL,Black,New,,277.50,,,,4227.50,Mei Kang,Synchrony,351.00,CreditCard,,No,"3 years parts, 1 year labor (Free)",Dispatched / Shipped
9/5/2017 7:37:49 PM,Carl Levinger,CA,Legacy,DWA-9100DWA-9100CH-DEMO,Demo Choco Brown,New,,231.25,,,,3481.25,Ting Ritchie,CreditCard,0.00,,,No,"3 years parts, 1 year labor (Free)",Dispatched / Shipped
9/5/2017 1:21:05 PM,Willi Xiang,TX,Relax2Zero 3D,DWA-9060USJ-9060BR,Choco Brown,New,,396.00,,,,5946.00,Tangyu Jin,Synchrony,4000.00,,,No,"3 years parts, 1 year labor (Free)",Dispatched / Shipped
9/5/2017 2:30:51 PM,NGOc Trinh,TX,Relax2Zero 3D,DWA-9060USJ-9060BR,Choco Brown,New,,243.38,,,,3943.38,Molly Zhao,CreditCard,0.00,,,No,"3 years parts, 1 year labor (Free)",Dispatched / Shipped
9/5/2017 2:41:58 PM,Wayne Luster,NV,Pegasus,DWA-9400Pegasus-BL-DEMO,Demo Black,New,,304.33,,,,4344.33,Mei Kang,CreditCard,2000.00,COD,,No,"3 years parts, 1 year labor (Free)",Dispatched / Shipped
9/5/2017 2:41:58 PM,Wayne Luster,NV,Daiwa Blanket,,,New,,304.33,,,,4344.33,Mei Kang,CreditCard,2000.00,COD,,No,no warranty,Dispatched / Shipped
9/5/2017 5:24:00 PM,Sau Coc Thong,CA,Legacy 3D,DWA-9150USJ-9150CH,Choco Brown,New,,319.38,,,,4719.38,Jessica Phung,Synchrony,0.00,,,No,"3 years parts, 1 year labor (Free)",New
9/5/2017 5:24:00 PM,Sau Coc Thong,CA,Chair Pad for Lagacy 3D,,,New,,319.38,,,,4719.38,Jessica Phung,Synchrony,0.00,,,No,no warranty,New
9/5/2017 5:24:00 PM,Sau Coc Thong,CA,Foot Pads for Lagacy 3D,,,New,,319.38,,,,4719.38,Jessica Phung,Synchrony,0.00,,,No,no warranty,New
9/6/2017 10:35:10 AM,Candance Robles,WA,Relax2Zero 3D,DWA-9060USJ-9060BR,Choco Brown,New,,350.52,,,,4910.52,Joseph Chan,COD,0.00,,,No,"3 years parts, 3 years labor ($400)",Hold
9/6/2017 10:42:01 AM,David & Cheryl Travis,WA,Relax2Zero 3D,DWA-9060USJ-9060BL,Black,New,,350.52,,,,4910.52,Joseph Chan,CreditCard,200.00,Synchrony,,No,"3 years parts, 3 years labor ($400)",New
9/6/2017 10:47:40 AM,Sandy Koch,WA,Relax2Zero 3D,DWA-9060USJ-9060BR-DEMO,Demo Choco Brown,New,,286.12,,,,4146.12,Joseph Chan,Synchrony,4149.60,,,No,"3 years parts, 3 years labor ($400)",New
9/6/2017 10:54:03 AM,Kirk Fisher,WA,Legacy,DWA-9100DWA-9100CH,Choco Brown,New,,256.68,,,,3796.68,Joseph Chan,CreditCard,100.00,COD,,No,"3 years parts, 3 years labor ($400)",New
9/6/2017 6:02:06 PM,Robert Gursslin,CA,Serenity,SSRT-1SSRT-1-BR,Choco Brown,New,,226.63,,,,3426.63,Kohei Uno,CreditCard,0.00,,,No,"3 years parts, 3 years labor ($400)",New
9/6/2017 6:06:02 PM,Sharee Moore,CA,Serenity,SSRT-1SSRT-1-BL,Black,New,,254.38,,,,3754.38,Kohei Uno,CreditCard,0.00,,,No,"3 years parts, 3 years labor ($400)",New
9/6/2017 6:06:02 PM,Sharee Moore,CA,Daiwa Blanket,,,New,,254.38,,,,3754.38,Kohei Uno,CreditCard,0.00,,,No,no warranty,New
9/6/2017 9:03:14 PM,Troy Abbott,CA,Legacy,DWA-9100DWA-9100CH,Choco Brown,New,,266.40,,,,3896.40,Ting Ritchie,Synchrony,0.00,,,No,"3 years parts, 3 years labor ($400)",New
9/7/2017 8:07:09 AM,Dennis Smith,CA,Pegasus,DWA-9400Pegasus-BL,Black,New,,407.00,,,,5557.00,Mei Kang,CreditCard,4150.00,,,No,"3 years parts, 3 years labor ($400)",Dispatched / Shipped
9/7/2017 8:07:09 AM,Dennis Smith,CA,Tourmaline Pad for Pegasus,,,New,,407.00,,,,5557.00,Mei Kang,CreditCard,4150.00,,,No,no warranty,Dispatched / Shipped
9/7/2017 11:07:28 AM,Troy Abbott,CA,Legacy,DWA-9100DWA-9100CH,Choco Brown,New,,268.25,,,,3918.25,Ting Ritchie,Synchrony,0.00,Cash,,No,"3 years parts, 3 years labor ($400)",New
9/7/2017 12:26:40 PM,Titoanits Rodriguo,CA,Legacy,DWA-9100DWA-9100CH-DEMO,Demo Choco Brown,New,,215.53,,,,3295.53,Mei Kang,COD,200.00,CreditCard,,No,"3 years parts, 3 years labor ($400)",New
9/7/2017 12:26:40 PM,Titoanits Rodriguo,CA,Tourmaline Pad for Lagacy,,,New,,215.53,,,,3295.53,Mei Kang,COD,200.00,CreditCard,,No,no warranty,New
9/7/2017 5:35:59 PM,"Pauline, A Chavez",NM,Serenity,SSRT-1SSRT-1-BL-DEMO,Demo Black,New,,187.88,,,,3442.88,Xiongxiaojun Ji,CreditCard,3440.00,,,No,"3 years parts, 1 year labor (Free)",New
9/7/2017 8:09:10 PM,Marilyn Williams,CA,Legacy,DWA-9100DWA-9100BL-DEMO,Demo Black,New,,206.28,,,,3186.28,David Wang,Synchrony,3186.28,,,No,"3 years parts, 1 year labor (Free)",New
9/7/2017 8:35:37 PM,Darlene Johnson,WA,Legacy 3D,DWA-9150USJ-9150CH,Choco Brown,New,,340.28,,,,4710.28,Jennifer Tran,CreditCard,4361.90,,,No,"5 years parts, 3 years labor ($700)",New
9/7/2017 8:53:58 PM,Tony Xie,WA,Legacy,DWA-9100DWA-9100BL-DEMO,Demo Black,New,,211.50,,,,3211.50,Larhonda Ingram,Synchrony,3211.00,,,No,"5 years parts, 3 years labor ($700)",New
9/7/2017 9:01:55 PM,Becky Bond,WA,Relax2Zero 3D,DWA-9060USJ-9060BR,Choco Brown,New,,361.90,,,,4961.90,Robert Shih,Synchrony,0.00,,,No,"5 years parts, 3 years labor ($700)",New
9/7/2017 9:13:17 PM,Donald and Debbie Noble,WA,Relax2Zero 3D,DWA-9060USJ-9060BR,Choco Brown,New,,361.90,,,,4961.90,Robert Shih,Synchrony,0.00,,,No,"5 years parts, 3 years labor ($700)",New
9/7/2017 9:35:12 PM,Angela Riccio,NV,Legacy,DWA-9100DWA-9100BL,Black,New,,231.25,,,,3481.25,Mikito Nakanishi,Synchrony,3496.00,,,No,"3 years parts, 1 year labor (Free)",New
9/7/2017 11:44:28 PM,Kuey Wong,CA,Legacy,DWA-9100DWA-9100CH,Choco Brown,New,,224.78,,,,3404.78,Mikito Nakanishi,CreditCard,3400.00,,,No,"3 years parts, 1 year labor (Free)",New
9/8/2017 5:55:53 AM,Allen Cayir,CA,Legacy,DWA-9100DWA-9100CH,Choco Brown,New,,259.00,,,,3809.00,Mikito Nakanishi,CreditCard,3800.00,,,No,"3 years parts, 1 year labor (Free)",New
9/8/2017 7:03:39 AM,Fredy Galindo,CA,Legacy,DWA-9100DWA-9100CH-DEMO,Demo Choco Brown,New,,208.13,,,,3208.13,David Wang,Synchrony,2500.00,CreditCard,,No,"3 years parts, 1 year labor (Free)",New
9/8/2017 8:20:43 AM,Lee Luong,TX,Legacy,DWA-9100DWA-9100BU,Blue,New,,209.55,,,,3499.55,Linda Qu,CreditCard,0.00,,,No,"3 years parts, 1 year labor (Free)",New
9/8/2017 9:06:01 AM,Teri Muse,CA,Legacy 3D,DWA-9150USJ-9150CH-DEMO,Demo Choco Brown,New,,233.10,,,,3503.10,Mei Kang,Synchrony,3500.00,,,No,"3 years parts, 3 years labor ($400)",New
9/8/2017 9:06:01 AM,Teri Muse,CA,Daiwa Blanket,,,New,,233.10,,,,3503.10,Mei Kang,Synchrony,3500.00,,,No,no warranty,New
9/8/2017 9:46:53 AM,Joy Fisher,CA,Serenity,SSRT-1SSRT-1-BL-DEMO,Demo Black,New,,152.63,,,,2552.63,Kohei Uno,CreditCard,0.00,,,No,"3 years parts, 1 year labor (Free)",New
9/8/2017 9:55:28 AM,Joy Sotto,CA,Relax2Zero 1.0,USJ-9000USJ-9000BR,Brown,New,,226.63,,,,3426.63,Kohei Uno,Synchrony,3426.63,,,No,"3 years parts, 3 years labor ($400)",New
