﻿Date,CustomerName,State,Zipcode,Description,productNo,Color,IsDemo,Net,ShippingFee,GiftPrice,FinancingProcessingFee,Gross,Pre_tax,Tax,Commission,Primary Payment Method,Primary Payment Balance,Primary Authorize Number,Primary Purchase Order Number,Primary Synchrony Account Number,Primary Synchrony Application Key,Primary Synchrony AccountInfo,Primary SynchronyTerm,Secondly Payment Method,Secondly Payment Balance,Secondly Authorize Number,Secondly Purchase Order Number,Secondly Synchrony Account Number,Secondly Synchrony Application Key,Secondly Synchrony AccountInfo,Secondly SynchronyTerm,Thirdly Payment Method,Thirdly Payment Balance,Thirdly Authorize Number,Thirdly Purchase Order Number,Thirdly Synchrony Account Number,Thirdly Synchrony Application Key,Thirdly Synchrony AccountInfo,Thirdly SynchronyTerm,DeliveryDate,Ispickup,Warranty,Status,Event Name,Synchrony Notes,Order Notes,Order number,Private Note,Branch,IsNoTax,ActualTaxRate
1/28/2018 10:57:37 AM,WILLIAM Madison,AZ,85210,Relax2Zero 3D,DWA-9060USJ-9060BL,Black,New,,,,,4298.51,4020.00,278.51,Christoper Richard Williams,Synchrony,0.00,,,6034710083071152,84236350,Las Vegas,36 months,,0.00,,,,,,,,0.00,,,,,,,2/1/2018 12:00:00 AM,No,"3 years parts, 1 year labor (Free)",Delivered,GREEN COUNTRY HM & GD 1/26-28/18(TX),,,103325,Synchrony Approved him for 3500 but the chair is 4200 he payed the 700$ balance on the square #RaGc Home and Garden show AZ,CA,0,8.52
1/29/2018 9:21:22 AM,Jeffrey Brown,OK,74112,Relax2Zero 1.0,USJ-9000USJ-9000KU,Black,New,,,,,2929.56,2758.50,171.06,Phuoc Van,Synchrony,2929.50,,,6034610083067184,84161439,Huston,24 months,,0.00,,,,,,,,0.00,,,,,,,2/4/2018 12:00:00 AM,No,"3 years parts, 1 year labor (Free)",Delivered,GREEN COUNTRY HM & GD 1/26-28/18(TX),,,103362,"confirmed the account in Synchrony, $2929.50 was charged by Phuoc. Auth#026903--1/29/18 Hitomi",TX,0,8.52
1/29/2018 9:30:09 AM,Cheryl Newman,OK,74019,Majesty,DWA-8000DWA-8000-BL-DEMO,Demo Black,Demo,,,,,2929.46,2758.40,171.06,Phuoc Van,CreditCard,2929.50,Square# igYU,,,,,,,0.00,,,,,,,,0.00,,,,,,,2/4/2018 12:00:00 AM,No,"3 years parts, 1 year labor (Free)",Delivered,GREEN COUNTRY HM & GD 1/26-28/18(TX),,"Paid in full
Total $2929.50",103363,"confirmed $2,929.50 in Square. 1/29/18 Hitomi",TX,0,8.52
1/29/2018 9:35:45 AM,Dim Lun,OK,74037,Relax2Zero 1.0,USJ-9000USJ-9000BR,Brown,New,,,,,3200.00,3200.00,0.00,Phuoc Van,CreditCard,300.00,Square# 9HRB,,,,,,CreditCard,2900.00,ms5Z,,,,,,,0.00,,,,,,,2/4/2018 12:00:00 AM,No,"3 years parts, 1 year labor (Free)",Delivered,GREEN COUNTRY HM & GD 1/26-28/18(TX),,"Customer is tax exempt 
Total $3200
Remaining (COD) $2900
Deposit: $300",103364,"confirmed $300 in Square. 1/29/18 Hitomi
confirmed COD $2,900 in Square. 2/9/18 Hitomi",TX,1,8.52
