﻿Original Event Name,Event Name,Sales Person,Order Number,Order Date,Customer Name,State,Zip,Product Name,Color,Product Status,QTY,Tax,Total Before Tax,Order Total,Primary Payment Method,Second Payment Method,Thirdl Payment Method,Warranty,Order Items,Pick up,Delivered On,Order Status,Chair Type,Order Notes,Private Note,Branch,No Tax,Actual Tax Rate,SKU,Primary Payment Balance,Primary Authorize Number,Primary Purchase Order Number,Primary Synchrony Account Number,Primary Synchrony Application Key,Primary Synchrony Account Info,Primary Synchrony Term,Second Payment Balance,Second Authorize Number,Second Purchase Order Number,Second Synchrony Account Number,Second Synchrony Application Key,Second Synchrony Account Info,Second SynchronyTerm,Third Payment Balance,Third Authorize Number,Third Purchase Order Number,Third Synchrony Account Number,Third Synchrony Application Key,Third Synchrony Account Info,Third Synchrony Term
"Sam's Club #6312 Woodbury, MN 5/23-6/2/19 (IL)","Sam's Club #6312 Woodbury, MN 5/23-6/2/19 (IL)",Michael Wang,117549,5/24/2019 2:22:23 PM,Nathaniel Jackson,WI,54022,Relax 2 Zero 2.0 for Sam's,Demo Brown[-701],Demo,1,227.93,3199.00,3426.93,Sam’s Club Synchrony,Credit Card,,"3 years parts, 1 year labor (Free)","Relax 2 Zero 2.0 for Sam's,",No,,Scheduled,,,"Customer financed 3k on the Sam's Mastercard and paid the balance of the chair in full.

Billy Shea reserved a demo demo for me in Chicago warehouse.

1st floor delivery and give customer 1 USB flash drive.

Please give customer 1 leather chair pad 1 fabric chair pad.

Customer use 45 dollar discount that he received for signing up for Sam's mastercard.

Original Received Erika 5/24/19 3:33pm
Verified payment 
please disregard the $45, customer open up sams credit card and got $45 off.

Sam's Club Membership #: 10142100187675038 - Lex 5/24/19
Courtesy call/text completed- Cristina 05/29/19 4:12
5/31 CC left VM, Called back @ 11:30am, Confirmed delivery for 6/10 4:30p-8p-Emily",IL,0,7.13,USJ-9050USJ-9050BR-DEMO,3000.00,TC# 1382 3027 3228 1061 2689 91,,,,,,381.93,Tc# 1382 3027 3228 1061 2689 91,,,,,,0.00,,,,,,
"Sam's Club #6312 Woodbury, MN 5/23-6/2/19 (IL)","Sam's Club #6312 Woodbury, MN 5/23-6/2/19 (IL)",Michael Wang,117552,5/24/2019 5:26:57 PM,"U.S.  JACLEAN, INC.",CA,90249,Foot Vibe Pro,,New,1,7.84,109.99,117.83,Credit Card,,,"2 years parts, 1 year labor for Small Items","Foot Vibe Pro,",YES,,Delivered,,,,CA,0,7.13,USJ-871,117.83,Tc# 4811 4411 1488 2804 7559 0,,,,,,0.00,,,,,,,0.00,,,,,,
"Sam's Club #6312 Woodbury, MN 5/23-6/2/19 (IL)","Sam's Club #6312 Woodbury, MN 5/23-6/2/19 (IL)",Michael Wang,117584,5/26/2019 2:24:31 PM,"U.S.  JACLEAN, INC.",CA,90249,Shogun Neck & Back Massger,New,New,1,14.25,199.98,214.23,Credit Card,,,"2 years parts, 1 year labor (Free)","Shogun Neck &amp; Back Massger,",YES,,Delivered,,,,CA,0,7.13,USJ-874USJ-874,214.23,Tc# 3884 1199 3160 3251 3989 5,,,,,,0.00,,,,,,,0.00,,,,,,
"Sam's Club #6312 Woodbury, MN 5/23-6/2/19 (IL)","Sam's Club #6312 Woodbury, MN 5/23-6/2/19 (IL)",Michael Wang,117611,5/27/2019 10:40:22 AM,"U.S.  JACLEAN, INC.",CA,90249,Foot Vibe Pro,,New,1,7.84,109.99,117.83,Credit Card,,,"2 years parts, 1 year labor for Small Items","Foot Vibe Pro,",YES,,Delivered,,,,CA,0,7.13,USJ-871,117.83,Tc# 2172 2253 2236 0612 8497 1,,,,,,0.00,,,,,,,0.00,,,,,,
"Sam's Club #6312 Woodbury, MN 5/23-6/2/19 (IL)","Sam's Club #6312 Woodbury, MN 5/23-6/2/19 (IL)",Michael Wang,117612,5/27/2019 10:56:26 AM,"U.S.  JACLEAN, INC.",CA,90249,Foot Vibe Pro,,New,1,7.84,109.99,117.83,Credit Card,,,"2 years parts, 1 year labor for Small Items","Foot Vibe Pro,",YES,,Delivered,,,,CA,0,7.13,USJ-871,117.83,Tc# 4791 4411 7421 2804 7559 0,,,,,,0.00,,,,,,,0.00,,,,,,
"Sam's Club #6312 Woodbury, MN 5/23-6/2/19 (IL)","Sam's Club #6312 Woodbury, MN 5/23-6/2/19 (IL)",Michael Wang,117617,5/27/2019 3:53:57 PM,"U.S.  JACLEAN, INC.",CA,90249,Foot Vibe Pro,,New,1,7.84,109.99,117.83,Credit Card,,,"2 years parts, 1 year labor for Small Items","Foot Vibe Pro,",YES,,Delivered,,,,CA,0,7.13,USJ-871,117.83,Tc# 1964 1149 5145 3251 4486 5,,,,,,0.00,,,,,,,0.00,,,,,,
"Sam's Club #6312 Woodbury, MN 5/23-6/2/19 (IL)","Sam's Club #6312 Woodbury, MN 5/23-6/2/19 (IL)",Michael Wang,117678,5/30/2019 10:44:38 AM,Leonard Wodarezyk,MN,55016,Relax 2 Zero 2.0 for Sam's,Demo (Box) Brown[-701],Demo,1,227.93,3199.00,3426.93,Credit Card,,,"3 years parts, 1 year labor (Free)","Relax 2 Zero 2.0 for Sam's,Chair Pad for Relax2Zero 2.0,",No,,Scheduled,,,"1st floor delivery but 6 steps up to front door.Free setup plus delivery.The 2nd chair pad for customer we give should be pleather.
Original Received. Erika 5/30/19 11:11am
5/31 CC @ 11:30-Left VM; Called back Customer confirmed for 6/11 8:30A-12:30p.-Emily",IL,0,7.13,USJ-9050USJ-9050BR-DEMO (Box),3426.93,Tc# 0171 6243 3043 8280 4845 50,,,,,,0.00,,,,,,,0.00,,,,,,
