﻿Date,Customer Name,State,Zipcode,Description,Product Number,Color,Product Status,Net,Shipping Fee,Gift Price,Financing Processing Fee,Order Total,Total Before Tax,Tax,Commission,Primary Payment Method,Primary Payment Balance,Primary Authorize Number,Primary Purchase Order Number,Primary Synchrony Account Number,Primary Synchrony Application Key,Primary Synchrony Account Info,Primary Synchrony Term,Second Payment Method,Second Payment Balance,Second Authorize Number,Second Purchase Order Number,Second Synchrony Account Number,Second Synchrony Application Key,Second Synchrony Account Info,Second Synchrony Term,Third Payment Method,Third Payment Balance,Third Authorize Number,Third Purchase Order Number,Third Synchrony Account Number,Third Synchrony Application Key,Third Synchrony Account Info,Third Synchrony Term,Delivery Date,Pick up,Warranty,Status,Chair Type,Original Event Name,Event Name,Synchrony Notes,Order Notes,Order Number,Private Note,Branch,No Tax,Actual Tax Rate
3/11/2018 3:08:11 PM,Gideon Brillantes,NV,89119,Legacy for Sam's,DWA-9100DWA-9100CH-DEMO,Demo Choco,Demo,,,,,3895.92,3599.00,296.92,Jovylyn Florea,CreditCard,3895.92,011886,,,,,,,0.00,,,,,,,,0.00,,,,,,,3/16/2018 12:00:00 AM,No,"3 years parts, 1 year labor (Free)",Delivered,,Sam's Club #8177 Las Vegas (NV),Sam's Club #8177 Las Vegas (NV),,Please Deliver Brand New.,104367,"TC 2930 8762 5084 8594 5729 16
Delivered by Kohei. 3/16/2018
Received delivery confirmation. 3/19/18 Hitomi",NV,0,8.25
3/11/2018 7:40:44 PM,Daiwa Massage,CA,90249,Shogun Neck & Back Massger,USJ-874USJ-874,New,New,,,,,216.48,199.98,16.50,Jovylyn Florea,CreditCard,216.48,000906,,,,,,,0.00,,,,,,,,0.00,,,,,,,,YES,"2 years parts, 1 year labor for Small Items",Delivered,,Sam's Club #8177 Las Vegas (NV),Sam's Club #8177 Las Vegas (NV),,,104393,TC 7457 9940 7555 0110 6612 9,CA,0,8.25
3/11/2018 7:53:26 PM,Daiwa Massage,CA,90249,Shogun Neck & Back Massger,USJ-874USJ-874,New,New,,,,,216.48,199.98,16.50,Jovylyn Florea,CreditCard,216.48,011672,,,,,,,0.00,,,,,,,,0.00,,,,,,,,YES,"3 years parts, 1 year labor (Free)",Delivered,,Sam's Club #8177 Las Vegas (NV),Sam's Club #8177 Las Vegas (NV),,,104395,TC 8057 7930 9505 0120 2012 9,CA,0,8.25
3/12/2018 10:14:13 AM,Daiwa Massage,CA,90249,Shogun Neck & Back Massger,USJ-874USJ-874,New,New,,,,,216.48,199.98,16.50,Jovylyn Florea,CreditCard,216.48,222405,,,,,,,0.00,,,,,,,,0.00,,,,,,,,YES,"2 years parts, 1 year labor for Small Items",Delivered,,Sam's Club #8177 Las Vegas (NV),Sam's Club #8177 Las Vegas (NV),,,104454,TC 4730 4693 8838 5965 9592 6,CA,0,8.25
3/12/2018 10:22:45 AM,Daiwa Massage,CA,90249,Shogun Neck & Back Massger,USJ-874USJ-874,New,New,,,,,216.48,199.98,16.50,Jovylyn Florea,CreditCard,216.48,452134,,,,,,,0.00,,,,,,,,0.00,,,,,,,,YES,"2 years parts, 1 year labor for Small Items",Delivered,,Sam's Club #8177 Las Vegas (NV),Sam's Club #8177 Las Vegas (NV),,,104456,TC 9166 1514 3343 2082 5407 5,CA,0,8.25
3/12/2018 10:29:53 AM,Daiwa Massage,CA,90249,Shogun Neck & Back Massger,USJ-874USJ-874,New,New,,,,,216.48,199.98,16.50,Jovylyn Florea,CreditCard,216.48,006732,,,,,,,0.00,,,,,,,,0.00,,,,,,,,YES,"2 years parts, 1 year labor for Small Items",Delivered,,Sam's Club #8177 Las Vegas (NV),Sam's Club #8177 Las Vegas (NV),,,104457,TC 4910 2673 8838 5935 7396 6,CA,0,8.25
3/12/2018 10:36:41 AM,Daiwa Massage,CA,90249,Foot Vibe Pro,USJ-871,,New,,,,,119.06,109.99,9.07,Jovylyn Florea,CreditCard,119.06,323713,,,,,,,0.00,,,,,,,,0.00,,,,,,,,YES,"2 years parts, 1 year labor for Small Items",Delivered,,Sam's Club #8177 Las Vegas (NV),Sam's Club #8177 Las Vegas (NV),,,104458,TC 4329 3811 6771 3543 9752 8,CA,0,8.25
3/12/2018 10:53:59 AM,Daiwa Massage,CA,90249,Foot Vibe Pro,USJ-871,,New,,,,,119.06,109.99,9.07,Jovylyn Florea,Cash,119.06,,,,,,,,0.00,,,,,,,,0.00,,,,,,,,YES,"2 years parts, 1 year labor for Small Items",Delivered,,Sam's Club #8177 Las Vegas (NV),Sam's Club #8177 Las Vegas (NV),,,104460,TC 8209 5821 2787 3503 0452 8,CA,0,8.25
3/12/2018 10:58:31 AM,Daiwa Massage,CA,90249,Foot Vibe Pro,USJ-871,,New,,,,,119.06,109.99,9.07,Jovylyn Florea,CreditCard,119.06,387006,,,,,,,0.00,,,,,,,,0.00,,,,,,,,YES,"2 years parts, 1 year labor for Small Items",Delivered,,Sam's Club #8177 Las Vegas (NV),Sam's Club #8177 Las Vegas (NV),,,104462,TC 7147 0992 9535 0160 8612 9,CA,0,8.25
3/12/2018 11:01:55 AM,Daiwa Massage,CA,90249,Foot Vibe Pro,USJ-871,,New,,,,,119.06,109.99,9.07,Jovylyn Florea,CreditCard,119.06,575805,,,,,,,0.00,,,,,,,,0.00,,,,,,,,YES,"2 years parts, 1 year labor for Small Items",Delivered,,Sam's Club #8177 Las Vegas (NV),Sam's Club #8177 Las Vegas (NV),,,104463,TC 2672 7269 1494 7807 2786 2,CA,0,8.25
3/12/2018 11:08:28 AM,Daiwa Massage,CA,90249,Foot Vibe Pro,USJ-871,,New,,,,,119.06,109.99,9.07,Jovylyn Florea,CreditCard,119.06,310641,,,,,,,0.00,,,,,,,,0.00,,,,,,,,YES,"2 years parts, 1 year labor for Small Items",Delivered,,Sam's Club #8177 Las Vegas (NV),Sam's Club #8177 Las Vegas (NV),,,104464,TC  4791 3485 0656 9709 7977 4,CA,0,8.25
3/12/2018 11:16:46 AM,Daiwa Massage,CA,90249,Foot Vibe Pro,USJ-871,,New,,,,,119.06,109.99,9.07,Jovylyn Florea,Cash,119.06,,,,,,,,0.00,,,,,,,,0.00,,,,,,,,YES,"2 years parts, 1 year labor for Small Items",Delivered,,Sam's Club #8177 Las Vegas (NV),Sam's Club #8177 Las Vegas (NV),,,104465,TC 5575 9316 3138 4214 8126 3,CA,0,8.25
3/12/2018 11:23:41 AM,Daiwa Massage,CA,90249,Shogun Neck & Back Massger,USJ-874USJ-874-DEMO,Demo,Demo,,,,,194.82,179.97,14.85,Jovylyn Florea,CreditCard,194.82,001273,,,,,,,0.00,,,,,,,,0.00,,,,,,,,YES,"2 years parts, 1 year labor for Small Items",Delivered,,Sam's Club #8177 Las Vegas (NV),Sam's Club #8177 Las Vegas (NV),,,104467,TC 1143 0017 2222 8638 0567 0,CA,0,8.25
3/12/2018 11:29:20 AM,Daiwa Massage,CA,90249,Shogun Neck & Back Massger,USJ-874USJ-874-DEMO,Demo,Demo,,,,,194.82,179.97,14.85,Jovylyn Florea,CreditCard,194.82,001266,,,,,,,0.00,,,,,,,,0.00,,,,,,,,YES,"2 years parts, 1 year labor for Small Items",Delivered,,Sam's Club #8177 Las Vegas (NV),Sam's Club #8177 Las Vegas (NV),,,104468,TC 3364 8178 0091 6426 5043 1,CA,0,8.25
9/7/2018 4:18:19 PM,US Jaclean Inc,CA,90249,Vitality Plate for Sam's,USJ-849USJ-849-DEMO,Demo,Demo,,,,,552.05,509.98,42.07,Kohei Uno,PurchaseOrder,552.06,,TC# 4557 4974 7725 0140 5417 9,,,,,,0.00,,,,,,,,0.00,,,,,,,,YES,"2 years parts, 1 year labor for Small Items",Delivered,,Sam's Club #8177 Las Vegas 9/6-16/18 (NV),Sam's Club #8177 Las Vegas 9/6-16/18 (NV),,,109132,,CA,0,8.25
9/7/2018 4:18:19 PM,US Jaclean Inc,CA,90249,Foot Vibe Pro,USJ-871,,New,,,,,552.05,509.98,42.07,Kohei Uno,PurchaseOrder,552.06,,TC# 4557 4974 7725 0140 5417 9,,,,,,0.00,,,,,,,,0.00,,,,,,,,YES,"2 years parts, 1 year labor for Small Items",Delivered,,Sam's Club #8177 Las Vegas 9/6-16/18 (NV),Sam's Club #8177 Las Vegas 9/6-16/18 (NV),,,109132,,CA,0,8.25
9/8/2018 1:58:03 PM,US Jaclean Inc,CA,90249,Vitality Plate for Sam's,USJ-849USJ-849,New,New,,,,,497.94,459.99,37.95,Kohei Uno,PurchaseOrder,497.94,,TC# 7618 7773 2982 21311793 27,,,,,,0.00,,,,,,,,0.00,,,,,,,,YES,"2 years parts, 1 year labor for Small Items",Delivered,,Sam's Club #8177 Las Vegas 9/6-16/18 (NV),Sam's Club #8177 Las Vegas 9/6-16/18 (NV),,,109146,,CA,0,8.25
9/8/2018 3:06:27 PM,US Jaclean Inc,CA,90249,Foot Vibe Pro,USJ-871,,New,,,,,119.06,109.99,9.07,Kohei Uno,PurchaseOrder,119.06,,TC#: 9697 9914 8725 0120 5413 9,,,,,,0.00,,,,,,,,0.00,,,,,,,,YES,"2 years parts, 1 year labor for Small Items",Delivered,,Sam's Club #8177 Las Vegas 9/6-16/18 (NV),Sam's Club #8177 Las Vegas 9/6-16/18 (NV),,,109147,,CA,0,8.25
9/10/2018 11:54:40 AM,US Jaclean Inc,CA,90249,Foot Vibe Pro,USJ-871,,New,,,,,119.06,109.99,9.07,Kohei Uno,PurchaseOrder,119.06,,TC# 8168 7782 1887 1381 1937 7,,,,,,0.00,,,,,,,,0.00,,,,,,,,YES,"2 years parts, 1 year labor for Small Items",Delivered,,Sam's Club #8177 Las Vegas 9/6-16/18 (NV),Sam's Club #8177 Las Vegas 9/6-16/18 (NV),,,109235,,CA,0,8.25
9/11/2018 1:09:07 PM,Enrique Hernandez,NV,89110,Relax 2 Zero 2.0 for Sam's,USJ-9050USJ-9050BL-DEMO,Demo Black,Demo,,,,,3462.92,3199.00,263.92,Kohei Uno,PurchaseOrder,3462.92,,TC# 0951 1144 3320 6975 9097 94,,,,,,0.00,,,,,,,,0.00,,,,,,,9/18/2018 12:00:00 AM,No,"3 years parts, 1 year labor (Free)",Delivered,,Sam's Club #8177 Las Vegas 9/6-16/18 (NV),Sam's Club #8177 Las Vegas 9/6-16/18 (NV),,,109278,"9/14Maritza- Courtesy email sent + text @ 3:42PM
Delivered by Rex and Kohei 9/18/18
Customer received a Brown Demo chair instead of a black demo chair. No black demo chair left at the LV Branch warehouse.",NV,0,8.25
9/11/2018 1:12:59 PM,US Jaclean Inc,CA,90249,Foot Vibe Pro,USJ-871,,New,,,,,552.05,509.98,42.07,Kohei Uno,PurchaseOrder,552.05,,TC# 3601 3473 7246 9739 6272 4,,,,,,0.00,,,,,,,,0.00,,,,,,,,YES,"2 years parts, 1 year labor for Small Items",Delivered,,Sam's Club #8177 Las Vegas 9/6-16/18 (NV),Sam's Club #8177 Las Vegas 9/6-16/18 (NV),,,109279,,CA,0,8.25
9/11/2018 1:12:59 PM,US Jaclean Inc,CA,90249,Vitality Plate for Sam's,USJ-849USJ-849-DEMO,Demo,Demo,,,,,552.05,509.98,42.07,Kohei Uno,PurchaseOrder,552.05,,TC# 3601 3473 7246 9739 6272 4,,,,,,0.00,,,,,,,,0.00,,,,,,,,YES,"2 years parts, 1 year labor for Small Items",Delivered,,Sam's Club #8177 Las Vegas 9/6-16/18 (NV),Sam's Club #8177 Las Vegas 9/6-16/18 (NV),,,109279,,CA,0,8.25
9/11/2018 1:55:31 PM,US Jaclean Inc,CA,90249,Foot Vibe Pro,USJ-871,,New,,,,,119.06,109.99,9.07,Kohei Uno,PurchaseOrder,119.06,,TC# 1094 1197 7350 6486 0642 1,,,,,,0.00,,,,,,,,0.00,,,,,,,,YES,"2 years parts, 1 year labor for Small Items",Delivered,,Sam's Club #8177 Las Vegas 9/6-16/18 (NV),Sam's Club #8177 Las Vegas 9/6-16/18 (NV),,,109281,,CA,0,8.25
9/11/2018 8:00:11 PM,Aniljit Mroque,NV,89110,Legacy for Sam's,DWA-9100DWA-9100BL-DEMO,Demo Black,Demo,,,,,3895.92,3599.00,296.92,Kohei Uno,PurchaseOrder,3895.92,,TC# 4189 2687 0860 7352 3995 58,,,,,,0.00,,,,,,,,0.00,,,,,,,9/18/2018 12:00:00 AM,No,"3 years parts, 1 year labor (Free)",Delivered,,Sam's Club #8177 Las Vegas 9/6-16/18 (NV),Sam's Club #8177 Las Vegas 9/6-16/18 (NV),,2nd Floor Delivery,109298,"9/14Maritza Courtesy email + text sent @ 3:56PM
Delivered by Rex and Kohei 9/18/18",NV,0,8.25
9/13/2018 11:47:47 AM,US Jaclean Inc,CA,90249,Foot Vibe Pro,USJ-871,,New,,,,,119.06,109.99,9.07,Kohei Uno,PurchaseOrder,119.06,,TC# 3674 4107 3330 6436 4343 1,,,,,,0.00,,,,,,,,0.00,,,,,,,,YES,"2 years parts, 1 year labor for Small Items",Delivered,,Sam's Club #8177 Las Vegas 9/6-16/18 (NV),Sam's Club #8177 Las Vegas 9/6-16/18 (NV),,,109328,,CA,0,8.25
9/13/2018 12:36:27 PM,US Jaclean Inc,CA,90249,Foot Vibe Pro,USJ-871,,New,,,,,552.05,509.98,42.07,Kohei Uno,PurchaseOrder,552.05,,TC# 3451 5433 2226 9749 1274 4,,,,,,0.00,,,,,,,,0.00,,,,,,,,YES,"2 years parts, 1 year labor for Small Items",Delivered,,Sam's Club #8177 Las Vegas 9/6-16/18 (NV),Sam's Club #8177 Las Vegas 9/6-16/18 (NV),,,109335,,CA,0,8.25
9/13/2018 12:36:27 PM,US Jaclean Inc,CA,90249,Vitality Plate for Sam's,USJ-849USJ-849-DEMO,Demo,Demo,,,,,552.05,509.98,42.07,Kohei Uno,PurchaseOrder,552.05,,TC# 3451 5433 2226 9749 1274 4,,,,,,0.00,,,,,,,,0.00,,,,,,,,YES,"2 years parts, 1 year labor (Free)",Delivered,,Sam's Club #8177 Las Vegas 9/6-16/18 (NV),Sam's Club #8177 Las Vegas 9/6-16/18 (NV),,,109335,,CA,0,8.25
9/13/2018 12:38:27 PM,US Jaclean Inc,CA,90249,Vitality Plate for Sam's,USJ-849USJ-849,New,New,,,,,497.94,459.99,37.95,Kohei Uno,PurchaseOrder,497.94,,TC# 8265 5398 3571 4244 0427 3,,,,,,0.00,,,,,,,,0.00,,,,,,,,YES,"2 years parts, 1 year labor for Small Items",Delivered,,Sam's Club #8177 Las Vegas 9/6-16/18 (NV),Sam's Club #8177 Las Vegas 9/6-16/18 (NV),,,109336,,CA,0,8.25
9/13/2018 4:01:20 PM,US Jaclean Inc,CA,90249,Foot Vibe Pro,USJ-871,,New,,,,,119.06,109.99,9.07,Kohei Uno,PurchaseOrder,119.06,,TC# 4051 4493 9216 9759 6178 4,,,,,,0.00,,,,,,,,0.00,,,,,,,,YES,"2 years parts, 1 year labor for Small Items",Delivered,,Sam's Club #8177 Las Vegas 9/6-16/18 (NV),Sam's Club #8177 Las Vegas 9/6-16/18 (NV),,,109340,,CA,0,8.25
9/14/2018 5:43:22 PM,US Jaclean Inc,CA,90249,Vitality Plate for Sam's,USJ-849USJ-849,New,New,,,,,497.94,459.99,37.95,Kohei Uno,PurchaseOrder,497.94,,TC# 2839 9800 9667 3523 9553 8,,,,,,0.00,,,,,,,,0.00,,,,,,,,YES,"2 years parts, 1 year labor for Small Items",Delivered,,Sam's Club #8177 Las Vegas 9/6-16/18 (NV),Sam's Club #8177 Las Vegas 9/6-16/18 (NV),,,109363,,CA,0,8.25
9/15/2018 12:11:52 PM,US Jaclean Inc,CA,90249,Foot Vibe Pro,USJ-871,,New,,,,,119.06,109.99,9.07,Kohei Uno,PurchaseOrder,119.06,,TC# 7338 6732 7869 1351 5334 7,,,,,,0.00,,,,,,,,0.00,,,,,,,,YES,"2 years parts, 1 year labor for Small Items",Delivered,,Sam's Club #8177 Las Vegas 9/6-16/18 (NV),Sam's Club #8177 Las Vegas 9/6-16/18 (NV),,,109382,,CA,0,8.25
9/15/2018 4:29:53 PM,Jose Garcia,NV,89121,Relax 2 Zero 2.0 for Sam's,USJ-9050USJ-9050BL-DEMO,Demo Black,Demo,,,,,3462.92,3199.00,263.92,Kohei Uno,PurchaseOrder,3462.92,,TC# 6418 3077 2782 9138 1563 87,,,,,,0.00,,,,,,,,0.00,,,,,,,9/18/2018 12:00:00 AM,No,"3 years parts, 1 year labor (Free)",Delivered,,Sam's Club #8177 Las Vegas 9/6-16/18 (NV),Sam's Club #8177 Las Vegas 9/6-16/18 (NV),,,109391,"9/17Maritza Courtesy email + text sent @ 10:04AM
9/18Kohei: Color changed to Choco brown. Still Demo Chair.
Delivered by Rex and Kohei 9/18/18",NV,0,8.25
9/15/2018 6:45:23 PM,US Jaclean Inc,CA,90249,Foot Vibe Pro,USJ-871,,New,,,,,119.06,109.99,9.07,Kohei Uno,PurchaseOrder,119.06,,TC# 1144 1157 6390 6486 0642 1,,,,,,0.00,,,,,,,,0.00,,,,,,,,YES,"2 years parts, 1 year labor for Small Items",Delivered,,Sam's Club #8177 Las Vegas 9/6-16/18 (NV),Sam's Club #8177 Las Vegas 9/6-16/18 (NV),,,109398,,CA,0,8.25
