﻿Original Event Name,Event Name,Sales Person,Order Number,Order Date,Customer Name,State,Zip,Product Name,Color,Product Status,QTY,Tax,Total Before Tax,Order Total,Primary Payment Method,Second Payment Method,Thirdl Payment Method,Warranty,Order Items,Pick up,Delivered On,Order Status,Chair Type,Order Notes,Private Note,Branch,No Tax,Actual Tax Rate,SKU,Primary Payment Balance,Primary Authorize Number,Primary Purchase Order Number,Primary Synchrony Account Number,Primary Synchrony Application Key,Primary Synchrony Account Info,Primary Synchrony Term,Second Payment Balance,Second Authorize Number,Second Purchase Order Number,Second Synchrony Account Number,Second Synchrony Application Key,Second Synchrony Account Info,Second SynchronyTerm,Third Payment Balance,Third Authorize Number,Third Purchase Order Number,Third Synchrony Account Number,Third Synchrony Application Key,Third Synchrony Account Info,Third Synchrony Term
"West Michigan HM&GD Show 2/28-3/3/19 Grand Rapids, MI (IL)","West Michigan HM&GD Show 2/28-3/3/19 Grand Rapids, MI (IL)",Winston Melgar,115412,3/2/2019 7:09:39 PM,Susan/Rolf Busch,MI,49316,Legacy 3D,New Choco,New,1,0.00,4500.00,4500.00,Synchrony,,,"5 years parts, 1 year labor (Free)","Legacy 3D,",No,,Scheduled,,,"Confirmed SYNC$8,500 under SUSAN BUSCH and original. ***Please charge $4,500 / sales draft signed*** 3/4/19 Hitomi
3/6Maritza- Courtesy message sent @ 9:57AM
3/13Maritza- Customer texted for an ETA. Spoke with Texas, first available team will be week of March 25th",TX,1,6.00,DWA-9150USJ-9150CH,4500.00,,,6501723350388039,72050538,Las Vegas,36 months,0.00,,,,,,,0.00,,,,,,
"West Michigan HM&GD Show 2/28-3/3/19 Grand Rapids, MI (IL)","West Michigan HM&GD Show 2/28-3/3/19 Grand Rapids, MI (IL)",Joseph Chan,115413,3/2/2019 7:14:34 PM,Richard Koetje,MI,49423,Legacy 3D,New Choco,New,1,0.00,4900.00,4900.00,Synchrony,,,"5 years parts, 1 year labor (Free)","Legacy 3D,",No,3/19/2019 12:00:00 AM,Delivered,New,,"Confirmed SYNC$6,500 and original. ***Please charge $4,900 /sales draft *** 3/4/19 Hitomi
3/6Maritza- Courtesy messages to both numbers",TX,1,6.00,DWA-9150USJ-9150CH,4900.00,,,6501723375038559,72059572,Las Vegas,36 months,0.00,,,,,,,0.00,,,,,,
"West Michigan HM&GD Show 2/28-3/3/19 Grand Rapids, MI (IL)","West Michigan HM&GD Show 2/28-3/3/19 Grand Rapids, MI (IL)",Winston Melgar,115414,3/2/2019 7:19:22 PM,Steve Deschaine,MI,49512,Legacy 3D,Demo Black,Demo,1,0.00,4200.00,4200.00,CreditCard,,,"5 years parts, 1 year labor (Free)","Legacy 3D,",YES,3/3/2019 12:00:00 AM,Delivered,Demo,,"3/4/19 Confirmed $4,200.00 in SQ. will confirm if it is pickup - Hitomi
3/5/19 Received pickup confirmation  - Hitomi",TX,1,6.00,DWA-9150USJ-9150BL-DEMO,4200.00,#A4jL,,,,,,0.00,,,,,,,0.00,,,,,,
"West Michigan HM&GD Show 2/28-3/3/19 Grand Rapids, MI (IL)","West Michigan HM&GD Show 2/28-3/3/19 Grand Rapids, MI (IL)",Joseph Chan,115435,3/3/2019 1:08:28 PM,Bill Dykstra,MI,49341,PEGASUS 2 SMART,New Black,New,1,0.00,6400.00,6400.00,Cash,COD,,"5 years parts, 2 years labor ($200)","PEGASUS 2 SMART,",No,,Hold,,Balance of $6300 - C.O.D.,"will confirm cash - 3/4/19 Hitomi
3/5/19-Yumi received $100 cash. ***COD$6,300*** -Hitomi
3/6Maritza- Courtesy message sent @ 12:47PM
3/11Maritza- Customer reached out to cancel order. Will place on hold until Joseph gives thumbs up.",TX,1,6.00,PEGS-2PEGS-2-BL,100.00,,,,,,,6300.00,,,,,,,0.00,,,,,,
