﻿Original Event Name,Event Name,Sales Person,Order Number,Order Date,Customer Name,State,Zip,Product Name,Color,Product Status,QTY,Tax,Total Before Tax,Order Total,Primary Payment Method,Second Payment Method,Thirdl Payment Method,Warranty,Order Items,Pick up,Delivered On,Order Status,Chair Type,Order Notes,Private Note,Branch,No Tax,Actual Tax Rate,SKU,Primary Payment Balance,Primary Authorize Number,Primary Purchase Order Number,Primary Synchrony Account Number,Primary Synchrony Application Key,Primary Synchrony Account Info,Primary Synchrony Term,Second Payment Balance,Second Authorize Number,Second Purchase Order Number,Second Synchrony Account Number,Second Synchrony Application Key,Second Synchrony Account Info,Second SynchronyTerm,Third Payment Balance,Third Authorize Number,Third Purchase Order Number,Third Synchrony Account Number,Third Synchrony Application Key,Third Synchrony Account Info,Third Synchrony Term
"Sam's Club #7658 Brunswick, GA 12/13-23/18 (FL)","Sam's Club #7658 Brunswick, GA 12/13-23/18 (FL)",Michael Cuatrona,113707,12/26/2018 10:06:57 AM,Gene Swindall,GA,31523,Relax 2 Zero 2.0 for Sam's,Demo (Box) Brown[-701],Demo,1,223.93,3199.00,3422.93,PurchaseOrder,,,"3 years parts, 1 year labor (Free)","Relax 2 Zero 2.0 for Sam's,",No,1/3/2019 12:00:00 AM,Delivered,New,"[MC MKTNG] - as per Michael, make sure to send a brand new unit instead of a demo unit at no extra cost.","Please send a new unit
Received delivery confirmation --- 1/8/19 Asumi",FL,0,7.00,USJ-9050USJ-9050BR-DEMO (Box),3422.93,,1312 6020 3816 1881 5687 09,,,,,0.00,,,,,,,0.00,,,,,,
"Sam's Club #7658 Brunswick, GA 12/13-23/18 (FL)","Sam's Club #7658 Brunswick, GA 12/13-23/18 (FL)",Michael Cuatrona,113709,12/26/2018 12:17:20 PM,Robert Torras,GA,31522,Legacy 3D,New Black,New,1,321.93,4599.00,4920.93,PurchaseOrder,,,"3 years parts, 1 year labor (Free)","Legacy 3D,",No,1/3/2019 12:00:00 AM,Delivered,New,"[MC DISC] -- SAMS was promoting the Daiwa Legacy but the customer wanted the Legacy 3D. An arrangement had been made to use the symphony code so the receipt needs to be balanced. Apply a discount code to reflect the discount. (Total $4,599 pretax for the Legacy 3D) -- free delivery applies","CC Josefina - 12/31/18 12:17pm VM
Please send a Legacy 3d black. Please note that the customer is hard of hearing.
12/26/18-Legacy 3D price @ sams is $4,699.00. sent email to Michael to confirm. - hitomi
12/28Customer called asking for their chair delivery that was promised by the end of this week. Michael will call customer. Florida will try to schedule for next week.
12/28/18- confirmed w/Michael C , this was processed as Symphony demo at Sam's club store since he was not aware of Legacy 3D code was activated. . Talked to Cristina, it will be processed  however in case the customer would return , we would need to pick up the chair to avoid confusion. will inform Shiho this situation  -12/28/18 Hitomi
1/7Maritza/Cristina- Customer called in wanting to return item.
Received delivery confirmation --- 1/8/19 Asumi",FL,0,7.00,DWA-9150USJ-9150BL,4920.93,,9234 6310 7554 5445 7286 08,,,,,0.00,,,,,,,0.00,,,,,,
"Sam's Club #7658 Brunswick, GA 12/13-23/18 (FL)","Sam's Club #7658 Brunswick, GA 12/13-23/18 (FL)",Michael Cuatrona,113739,12/27/2018 8:50:07 PM,Lawrence Jones,GA,31522,Relax 2 Zero 2.0 for Sam's,Demo Black[-701],Demo,1,223.93,3199.00,3422.93,PurchaseOrder,,,"3 years parts, 1 year labor (Free)","Relax 2 Zero 2.0 for Sam's,",YES,12/23/2018 12:00:00 AM,Delivered,Demo,"[MC PROMO] - the member purchased the black demo unit and picked it up on 12/23 as per Michael. The same warranty will apply ( 3 years parts, 1 year labor)","Do not deliver. The member picked it up (Andy)
Need a pick up confirmation -- 12/28/18 Asumi
1/4/19- received pickup confirmation --Hitomi",FL,0,7.00,USJ-9050USJ-9050BL-DEMO,3422.93,,7826 4954  6077 6007 6112 94,,,,,0.00,,,,,,,0.00,,,,,,
"Sam's Club #7658 Brunswick, GA 12/13-23/18 (FL)","Sam's Club #7658 Brunswick, GA 12/13-23/18 (FL)",Michael Cuatrona,113740,12/27/2018 9:13:40 PM,Mark Johnson,GA,31525,Relax 2 Zero 2.0 for Sam's,Demo Brown[-701],Demo,1,223.93,3199.00,3422.93,PurchaseOrder,,,"3 years parts, 1 year labor (Free)","Relax 2 Zero 2.0 for Sam's,",YES,,Cancelled,,"[MC PROMO] - the member purchased the brown demo unit and picked it up on 12/23. The warranty would remain the same ( 3 years parts, 1 year labor)","Do not deliver. The member picked up the chair (Mark)
Need a pick up confirmation -- 12/28/2018 Asumi",Not Dispatched,0,7.00,USJ-9050USJ-9050BR-DEMO,3422.93,,1372 7529 5014 1882 5587 19,,,,,0.00,,,,,,,0.00,,,,,,
