﻿Original Event Name,Event Name,Sales Person,Order Number,Order Date,Customer Name,State,Zip,Product Name,Color,Product Status,QTY,Tax,Total Before Tax,Order Total,Primary Payment Method,Second Payment Method,Thirdl Payment Method,Warranty,Order Items,Pick up,Delivered On,Order Status,Chair Type,Order Notes,Private Note,Branch,No Tax,Actual Tax Rate,SKU,Primary Payment Balance,Primary Authorize Number,Primary Purchase Order Number,Primary Synchrony Account Number,Primary Synchrony Application Key,Primary Synchrony Account Info,Primary Synchrony Term,Primary Synchrony Primary ID,Primary Synchrony Issued State,Primary Synchrony Expiretion Date,Second Payment Balance,Second Authorize Number,Second Purchase Order Number,Second Synchrony Account Number,Second Synchrony Application Key,Second Synchrony Account Info,Second SynchronyTerm,Second Synchrony Primary ID,Second Synchrony Issued State,Second Synchrony Expiretion Date,Third Payment Balance,Third Authorize Number,Third Purchase Order Number,Third Synchrony Account Number,Third Synchrony Application Key,Third Synchrony Account Info,Third Synchrony Term,Third Synchrony Primary ID,Third Synchrony Issued State,Third Synchrony Expiretion Date
BIRMINGHAM HM & GD 	(2/15 - 2/18),BIRMINGHAM HM & GD 	(2/15 - 2/18),Kristy Tran,103784,2/18/2018 9:41:52 AM,Terry Moore,AL,35096,Legacy 3D,Choco Brown,New,1,0.00,3800.00,3800.00,CreditCard,Cash,,"3 years parts, 1 year labor (Free)","Legacy 3D,",No,3/2/2018 12:00:00 AM,Delivered,,"Deliver BEFORE March 2nd
CASH on Delivery
No cards or checks","confirmed $200 in Square. dispatched to TX branch. 2/19/18 Hitomi
Mario received $3,600 cash.3/14/18Hitomi",TX,1,10.00,DWA-9150USJ-9150CH,200.00,Square #yYX5,,,,,,,,,3600.00,,,,,,,,,,0.00,,,,,,,,,
BIRMINGHAM HM & GD 	(2/15 - 2/18),BIRMINGHAM HM & GD 	(2/15 - 2/18),Kristy Tran,103785,2/18/2018 9:47:37 AM,Randy D Holmes,AL,35055,Majesty,Choco Brown,New,1,251.82,3268.18,3520.00,Synchrony,,,"3 years parts, 1 year labor (Free)","Majesty,",No,,Cancelled,,Please proceed with Synchrony sale.,"confirmed the form and  account in Synchrony.($8,500)  ***Please charge before delivery.***2/19/18 Hitomi
Customer cancel this order and repurchased as $2800. $100 Square and $2700 cash on delivery. The new order # is 103896 2/21/2018 June",TX,0,10.00,DWA-8000DWA-8000-BR,3520.00,,,6034610083102312,85035661,Huston,36 months,,,,0.00,,,,,,,,,,0.00,,,,,,,,,
BIRMINGHAM HM & GD 	(2/15 - 2/18),BIRMINGHAM HM & GD 	(2/15 - 2/18),Kristy Tran,103786,2/18/2018 9:52:16 AM,Dave J Monceaux,AL,00000,Majesty,Black,New,1,0.00,2700.00,2700.00,Cash,Cash,,"3 years parts, 1 year labor (Free)","Majesty,",No,,Hold,,"Customer is building a house so HOLD Delivery until April 9th. 
CASH on Delivery
No cards or checks",,Not Dispatched,1,10.00,DWA-8000DWA-8000-BL,200.00,,,,,,,,,,0.00,,,,,,,,,,0.00,,,,,,,,,
BIRMINGHAM HM & GD 	(2/15 - 2/18),BIRMINGHAM HM & GD 	(2/15 - 2/18),Kristy Tran,103787,2/18/2018 9:57:17 AM,Bradley Phillips,AL,35216,Relax2Zero 3D,Choco Brown,New,1,0.00,4200.00,4200.00,Synchrony,,,"3 years parts, 1 year labor (Free)","Relax2Zero 3D,",No,3/1/2018 12:00:00 AM,Delivered,,Please proceed with Synchrony sale.,"confirmed the account in SYnchrony($8,500)***Please charge before delivery.***2/19/18 Hitomi
TX charged the Synchrony $4200/36months/Auth#021422 -3/16/18 Riho",TX,1,10.00,DWA-9060USJ-9060BR,4200.00,,,6034610083103971,85077615,Huston,36 months,,,,0.00,,,,,,,,,,0.00,,,,,,,,,
BIRMINGHAM HM & GD 	(2/15 - 2/18),BIRMINGHAM HM & GD 	(2/15 - 2/18),Tom Nguyen,103788,2/18/2018 10:05:15 AM,David Wolford,AL,35173,Majesty,Choco Brown,New,1,0.00,3000.00,3000.00,Synchrony,,,"3 years parts, 1 year labor (Free)","Majesty,",No,3/2/2018 12:00:00 AM,Delivered,,"Proceed with Synchrony sale.
Prefer delivery after 2pm","confirmed Synchrony form and the account $8,500.***Please charge before delivery.***2/20/18 Hitomi
TX charged Synchrony $3000/24months/Auth#021466 -3/16/18 Riho",TX,1,10.00,DWA-8000DWA-8000-BR,3000.00,,,6034610083106008,85106828,Huston,24 months,,,,0.00,,,,,,,,,,0.00,,,,,,,,,
BIRMINGHAM HM & GD 	(2/15 - 2/18),BIRMINGHAM HM & GD 	(2/15 - 2/18),Kristy Tran,103790,2/18/2018 10:10:02 AM,Sara Ayers,AL,00000,Relax2Zero 3D,Black,New,1,0.00,3700.00,3700.00,Synchrony,,,"3 years parts, 1 year labor (Free)","Relax2Zero 3D,",No,,Cancelled,,"HOLD Synchrony sale until Delivery.
HOLD Delivery for 6 months.",,Not Dispatched,1,10.00,DWA-9060USJ-9060BL,3700.00,,,6034610083104961,85092215,Huston,36 months,,,,0.00,,,,,,,,,,0.00,,,,,,,,,
BIRMINGHAM HM & GD 	(2/15 - 2/18),BIRMINGHAM HM & GD 	(2/15 - 2/18),Jennifer Tran,103791,2/18/2018 10:15:40 AM,Albert DelGreco,AL,35242,Majesty,Choco Brown,New,1,0.00,3000.00,3000.00,Synchrony,,,"3 years parts, 1 year labor (Free)","Majesty,",No,3/1/2018 12:00:00 AM,Delivered,,Proceed with Synchrony sale.,"confirmed Synchrony form and the account $6,500. ***Please charge before delivery.***2/20/18 Hitomi
TX charged Synchrony $3000/36months/Auth#021392 -3/16/18 Riho",TX,1,10.00,DWA-8000DWA-8000-BR,3000.00,,,6034610083104623,85087889,Huston,36 months,,,,0.00,,,,,,,,,,0.00,,,,,,,,,
BIRMINGHAM HM & GD 	(2/15 - 2/18),BIRMINGHAM HM & GD 	(2/15 - 2/18),Jennifer Tran,103792,2/18/2018 10:20:46 AM,Steve Rogers,AL,35570,Legacy 3D,Black,New,1,0.00,4000.00,4000.00,CreditCard,Cash,,"5 years parts, 3 years labor ($700)","Legacy 3D,",No,3/1/2018 12:00:00 AM,Delivered,,"CASH on Delivery
No cards or checks","confirmed $200 in Square. 2/19/18 Hitomi
*COD $3800*
Mario received $3,800 cash. 3/14 Hitomi",TX,1,10.00,DWA-9150USJ-9150BL,200.00,Square #gQh5,,,,,,,,,3800.00,,,,,,,,,,0.00,,,,,,,,,
BIRMINGHAM HM & GD 	(2/15 - 2/18),BIRMINGHAM HM & GD 	(2/15 - 2/18),Jennifer Tran,103793,2/18/2018 10:29:48 AM,James Cazzaly,AL,35244,Majesty,Demo Choco Brown,Demo,1,0.00,2500.00,2500.00,Synchrony,CreditCard,,"3 years parts, 1 year labor (Free)","Majesty,",YES,2/18/2018 12:00:00 AM,Delivered,,"18 months no interest ($2000). Already processed Synchrony (Auth# 018122). 
Customer picked up 2/18/2018.
SN# 0901002170015",confirmed $500 in Square. confirmed Synchrony form and the account. Synchrony Term is 18 months. 2/20/18 Hitomi,TX,1,10.00,DWA-8000DWA-8000-BR-DEMO,2000.00,,,6034610083106461,85113696,Huston,,,,,500.00,Square #SSNZ,,,,,,,,,0.00,,,,,,,,,
BIRMINGHAM HM & GD 	(2/15 - 2/18),BIRMINGHAM HM & GD 	(2/15 - 2/18),Tom Nguyen,103794,2/18/2018 10:37:49 AM,David Todd Peak,AL,35094,Majesty,Demo Black,Demo,1,250.00,2500.00,2750.00,Synchrony,,,"3 years parts, 1 year labor (Free)","Majesty,",YES,2/18/2018 12:00:00 AM,Delivered,,"Already processed Synchrony sale.
TRANSACTION APPROVED 
Authorization # 018400
Customer picked up 2/18/2018
SN# 090100110126",confirmed Synchrony account and process.  2/19/18 Hitomi,TX,0,10.00,DWA-8000DWA-8000-BL-DEMO,2750.00,,,6034610083103864,85075466,Huston,24 months,,,,0.00,,,,,,,,,,0.00,,,,,,,,,
BIRMINGHAM HM & GD 	(2/15 - 2/18),BIRMINGHAM HM & GD 	(2/15 - 2/18),Tom Nguyen,103894,2/21/2018 8:05:20 AM,Paulio Sontong,AL,35124,Legacy 3D,Demo Choco,Demo,1,0.00,3500.00,3500.00,Cash,CreditCard,CreditCard,"5 years parts, 1 year labor ($300)","Legacy 3D,",YES,2/18/2018 12:00:00 AM,Delivered,,,"customer already pick up the chair after the show.
Received $100 cash.
Serial number is 0202002170242. 2/21/2018 June
confirmed $1650 & $1750 in Square. the cash was passed to Humberto Higareda by June. 2/21/18 Hitomi",TX,1,10.00,DWA-9150USJ-9150CH-DEMO,100.00,,,,,,,,,,1650.00,ezvu,,,,,,,,,1750.00,2Ic4,,,,,,,,
BIRMINGHAM HM & GD 	(2/15 - 2/18),BIRMINGHAM HM & GD 	(2/15 - 2/18),Kristy Tran,103896,2/21/2018 11:41:04 AM,Randy D Holmes,AL,35055,Majesty,New Choco,New,1,0.00,2700.00,2700.00,CreditCard,,,"3 years parts, 1 year labor (Free)","Majesty,",No,,Cancelled,,,"Customer cancel the old order(#103785) and repurchased. New price is $2800. $100 paid by square #olMp.
confirmed $100 in Square. PLEASE CANCEL new invoice #103904",Not Dispatched,1,10.00,MAJ-1010MAJ-1010-BR,0.00,#olMp,,,,,,,,,0.00,,,,,,,,,,0.00,,,,,,,,,
BIRMINGHAM HM & GD 	(2/15 - 2/18),BIRMINGHAM HM & GD 	(2/15 - 2/18),Kristy Tran,103904,2/22/2018 10:14:02 AM,Randy D. Holmes,IL,35055,Majesty,New Choco,New,1,0.00,2800.00,2800.00,CreditCard,Cash,,"3 years parts, 1 year labor (Free)","Majesty,",No,3/1/2018 12:00:00 AM,Delivered,,COD $2700 CASH only (no checks or cards),"Customer cancel the old order(#103785 and #103896) and repurchased. New price is $2800. $100 paid by square #olMp.
confirmed $100 in Square. ***CORRECT ADDRESS IS AL***2/22/18HITOMI
Mario received $2,700 cash 3/14/18 Hitomi",TX,1,10.00,MAJ-1010MAJ-1010-BR,100.00,#olMp,,,,,,,,,2700.00,,,,,,,,,,0.00,,,,,,,,,
