﻿Date,Customer Name,State,Zipcode,Description,Product Number,Color,Product Status,Net,Shipping Fee,Gift Price,Financing Processing Fee,Order Total,Total Before Tax,Tax,Commission,Primary Payment Method,Primary Payment Balance,Primary Authorize Number,Primary Purchase Order Number,Primary Synchrony Account Number,Primary Synchrony Application Key,Primary Synchrony Account Info,Primary Synchrony Term,Second Payment Method,Second Payment Balance,Second Authorize Number,Second Purchase Order Number,Second Synchrony Account Number,Second Synchrony Application Key,Second Synchrony Account Info,Second Synchrony Term,Third Payment Method,Third Payment Balance,Third Authorize Number,Third Purchase Order Number,Third Synchrony Account Number,Third Synchrony Application Key,Third Synchrony Account Info,Third Synchrony Term,Delivery Date,Pick up,Warranty,Status,Chair Type,Original Event Name,Event Name,Synchrony Notes,Order Notes,Order Number,Private Note,Branch,No Tax,Actual Tax Rate
11/17/2017 9:34:44 AM,Johnny Lam,NY,11357,Legacy 3D,DWA-9150USJ-9150BL,Black,New,,,,,3900.00,3900.00,0.00,Ruben Cuatrona,,3900.00,04666i,,,,,,,,,,,,,,,,,,,,,,12/1/2017 12:00:00 AM,No,"3 years parts, 1 year labor (Free)",Delivered,,IAAPA 11/14-11/17 (FL),IAAPA 11/14-11/17 (FL),,,101915,Confirmed $3900 in WF. 11/17/17 Riho,TX,1,6.50
11/17/2017 10:10:50 AM,Marc Beige,NY,11590,Legacy 3D,DWA-9150USJ-9150CH,Choco Brown,New,,,,,4300.00,4300.00,0.00,Rolly San Jose,,4300.00,843562,,,,,,,,,,,,,,,,,,,,,,12/2/2017 12:00:00 AM,No,"3 years parts, 1 year labor (Free)",Delivered,,IAAPA 11/14-11/17 (FL),IAAPA 11/14-11/17 (FL),,,101916,Confirmed $4300 in WF. 11/17/17 Riho,TX,1,6.50
11/17/2017 10:19:00 AM,Larry Soffell,TN,37876,Legacy 3D,DWA-9150USJ-9150BL-DEMO,Demo Black,Demo,,,,,3900.00,3900.00,0.00,Tom Nguyen,CreditCard,3900.00,006424,,,,,,,0.00,,,,,,,,0.00,,,,,,,11/30/2017 12:00:00 AM,No,"3 years parts, 1 year labor (Free)",Delivered,,IAAPA 11/14-11/17 (FL),IAAPA 11/14-11/17 (FL),,,101917,"Confirmed $4300 in WF. 11/17/17 Riho
FL WILL DELIVER (Tel. Cell 865 740 5138)",FL,1,6.50
11/17/2017 10:31:55 AM,Edward Dougherty,NJ,07850,Legacy 3D,DWA-9150USJ-9150CH,Choco Brown,New,,,,,3700.00,3700.00,0.00,Jonathan Bhowani,,1800.00,,,,,,,,,,,,,,,,,,,,,,,12/1/2017 12:00:00 AM,No,"3 years parts, 1 year labor (Free)",Delivered,,IAAPA 11/14-11/17 (FL),IAAPA 11/14-11/17 (FL),,,101918,"Remaining balanced $1,900 
COD.the $1,800 cash to Ruben (passed it to CA)
Remaining balance $1900 received by Mario.",TX,1,6.50
11/17/2017 12:49:38 PM,Nathaniel White,FL,32801,Legacy 3D,DWA-9150USJ-9150BL-DEMO,Demo Black,Demo,,,,,3800.00,3800.00,0.00,Ruben Cuatrona,Check,300.00,01064C,,,,,,CreditCard,1800.00,xTe3,,,,,,,0.00,,,,,,,11/22/2017 12:00:00 AM,No,"3 years parts, 1 year labor (Free)",Delivered,,IAAPA 11/14-11/17 (FL),IAAPA 11/14-11/17 (FL),,"COD $3,500",101921,"Confirmed $300 by to check C.C. receipt. 11/17/17 Riho
COD $1,800
SQ# xTe3",FL,1,6.50
11/17/2017 1:04:15 PM,Sook Molyneaux,FL,34604,Legacy 3D,DWA-9150USJ-9150BL-DEMO,Demo Black,Demo,,,,,3900.00,3900.00,0.00,Rolly San Jose,Synchrony,3900.00,,,6034610081637939,81196775,Huston,36 months,,0.00,,,,,,,,0.00,,,,,,,11/22/2017 12:00:00 AM,No,"3 years parts, 1 year labor (Free)",Delivered,,IAAPA 11/14-11/17 (FL),IAAPA 11/14-11/17 (FL),,,101922,"**Please charge $3900 when the delivery is scheduled** 11/17/17 Riho
AUTH #  # 022314 (11/22 MQ)",FL,1,6.50
11/17/2017 1:11:50 PM,Theresa Rodriguez,FL,34759,Legacy 3D,DWA-9150USJ-9150BL-DEMO,Demo Black,Demo,,,,,3900.00,3900.00,0.00,Tom Nguyen,CreditCard,1000.00,888017,,,,,,Synchrony,2900.00,,,6034610081637848,81193401,Huston,24 months,,0.00,,,,,,,11/22/2017 12:00:00 AM,No,"3 years parts, 1 year labor (Free)",Delivered,,IAAPA 11/14-11/17 (FL),IAAPA 11/14-11/17 (FL),,24 months 0% APR,101923,"Synchrony Acc: 6034610081637848/ Key:81193401 / 24 month/ TX
**Please charge $2,900 before delivery** Confirmed $1000 by  checking C.C. receipt. 11/17/17 Riho
AUTH # 022925 (11/22 MQ)",FL,1,6.50
11/17/2017 1:16:36 PM,Carrie Fisher,FL,33308,Relax2Zero 3D,DWA-9060USJ-9060BL-DEMO,Demo Black,Demo,,,,,3600.00,3600.00,0.00,Jonathan Bhowani,Synchrony,3600.00,,,6034610081638101,81200325,San Diego,36 months,,0.00,,,,,,,,0.00,,,,,,,12/8/2017 12:00:00 AM,No,"3 years parts, 1 year labor (Free)",Delivered,,IAAPA 11/14-11/17 (FL),IAAPA 11/14-11/17 (FL),,,101924,"**Please charge $3600 before delivery** 11/17/17 Riho
AUTH # 008769 -12/8 MQ",FL,1,6.50
11/18/2017 10:08:41 PM,Brandon Archer,LA,70360,Relax2Zero 3D,DWA-9060USJ-9060BR,Choco Brown,New,,,,,4300.00,4300.00,0.00,Jonathan Bhowani,,4300.00,,,6034610081637996,81198011,Huston,36 months,,,,,,,,,,,,,,,,,12/14/2017 12:00:00 AM,No,"3 years parts, 1 year labor (Free)",Delivered,,IAAPA 11/14-11/17 (FL),IAAPA 11/14-11/17 (FL),,,101954,"CHARGE BEFORE DELIVERY --ALICIA 11/21/17
AUTH#007816",TX,1,6.50
11/18/2017 10:16:13 PM,Paul Grube,IN,47122,Relax2Zero 3D,DWA-9060USJ-9060BL-DEMO,Demo Black,Demo,,,,,3500.00,3500.00,0.00,Jonathan Bhowani,,3500.00,132870,,,,,,,,,,,,,,,,,,,,,,12/6/2017 12:00:00 AM,No,"3 years parts, 1 year labor (Free)",Delivered,,IAAPA 11/14-11/17 (FL),IAAPA 11/14-11/17 (FL),,,101955,"Pls if there is a demo ship demo but in good condition
WF CLEARED - 11/20/17 STEPHANY
11/29/17- beth customers wife called in looking to set delivery time 502 550 9201",TX,1,6.50
11/18/2017 10:25:37 PM,Kid Guiles,ID,83318,Legacy,DWA-9100DWA-9100CH,Choco Brown,New,,,,,3200.00,3200.00,0.00,Ruben Cuatrona,CreditCard,3200.00,09264E,,,,,,,0.00,,,,,,,,0.00,,,,,,,12/6/2017 12:00:00 AM,No,"3 years parts, 1 year labor (Free)",Delivered,,IAAPA 11/14-11/17 (FL),IAAPA 11/14-11/17 (FL),,,101956,WF CLEARED - 11/20/17 STEPHANY,NV,1,6.50
11/18/2017 10:34:59 PM,Marc Zachary,CA,90064,Legacy 3D,DWA-9150USJ-9150BL,Black,New,,,,,4600.00,4600.00,0.00,Rodrigo Malabunga,,4600.00,04168C,,,,,,,,,,,,,,,,,,,,,,11/29/2017 12:00:00 AM,No,"3 years parts, 1 year labor (Free)",Delivered,,IAAPA 11/14-11/17 (FL),IAAPA 11/14-11/17 (FL),,,101957,11/20/17- cristina- printed- payment cleared,CA,1,6.50
11/18/2017 10:46:57 PM,David Hill,NC,27534,Legacy 3D,DWA-9150USJ-9150CH,Choco Brown,New,,,,,3900.00,3900.00,0.00,Ruben Cuatrona,Synchrony,3900.00,,,6034610081636816,81166090,San Diego,36 months,,0.00,,,,,,,,0.00,,,,,,,12/13/2017 12:00:00 AM,No,"3 years parts, 1 year labor (Free)",Delivered,,IAAPA 11/14-11/17 (FL),IAAPA 11/14-11/17 (FL),,,101958,"SYNCHRONY CLEARED, PLS CHARGE BEFORE DELIVERY - 11/20/17 STEPHANY
AUTH  # 013323 (12/13 MQ)",FL,1,6.50
11/18/2017 10:57:46 PM,Elizabeth Spratt,VA,20124,Legacy 3D,DWA-9150USJ-9150BL,Black,New,,,,,4300.00,4300.00,0.00,Ruben Cuatrona,,4300.00,48116G,,,,,,,,,,,,,,,,,,,,,,11/29/2017 12:00:00 AM,No,"3 years parts, 1 year labor (Free)",Delivered,,IAAPA 11/14-11/17 (FL),IAAPA 11/14-11/17 (FL),,,101959,WF CLEARED - 11/20/17 STEPHANY,TX,1,6.50
11/18/2017 11:13:57 PM,Randy Fullmer,ID,83642,Legacy 3D,DWA-9150USJ-9150BL,Black,New,,,,,3900.00,3900.00,0.00,Ruben Cuatrona,,500.00,12182D,,,,,,COD,,,,,,,,,,,,,,,,,No,"3 years parts, 1 year labor (Free)",Hold,,IAAPA 11/14-11/17 (FL),IAAPA 11/14-11/17 (FL),,,101960,,Not Dispatched,1,6.50
11/18/2017 11:22:04 PM,Mike Hojnacki,OH,43560,Legacy,DWA-9100DWA-9100BL,Black,New,,,,,3500.00,3500.00,0.00,Rodrigo Malabunga,,3500.00,015185,,,,,,,,,,,,,,,,,,,,,,11/28/2017 12:00:00 AM,No,"3 years parts, 1 year labor (Free)",Delivered,,IAAPA 11/14-11/17 (FL),IAAPA 11/14-11/17 (FL),,,101961,"Model # DWA 9100
Pls send a pocket for remote control 
WF CLEARED - 11/20/17 STEPHANY",TX,1,6.50
11/18/2017 11:36:11 PM,Nicky Cvitanovich,MS,39540,Legacy 3D,DWA-9150USJ-9150BL,Black,New,,,,,4153.00,4153.00,0.00,Rodrigo Malabunga,,4153.00,828188,,,,,,,,,,,,,,,,,,,,,,11/28/2017 12:00:00 AM,No,"3 years parts, 1 year labor (Free)",Delivered,,IAAPA 11/14-11/17 (FL),IAAPA 11/14-11/17 (FL),,,101962,WF CLEARED - 11/20/17 STEPHANY,TX,1,6.50
11/19/2017 8:16:36 AM,Francisca Thrailkill,TX,78586,Legacy 3D,DWA-9150USJ-9150BL,Black,New,,,,,3900.00,3900.00,0.00,Tom Nguyen,,3000.00,,,6034610081633078,81073714,Huston,36 months,,,,,,,,,,,,,,,,,,No,"3 years parts, 1 year labor (Free)",Hold,,IAAPA 11/14-11/17 (FL),IAAPA 11/14-11/17 (FL),,,101963,"Balanced $900.00
COD or before delivery
Total priced is $3,900
Synchrony $3,000
Balanced $900.00",CA,1,6.50
11/19/2017 8:24:10 AM,Ahmad Hamade,MI,48127,Legacy 3D,DWA-9150USJ-9150BL,Black,New,,,,,3900.00,3900.00,0.00,Ruben Cuatrona,Synchrony,3900.00,,,6034610081633136,81076251,San Diego,24 months,,0.00,,,,,,,,0.00,,,,,,,11/27/2017 12:00:00 AM,No,"3 years parts, 1 year labor (Free)",Delivered,,IAAPA 11/14-11/17 (FL),IAAPA 11/14-11/17 (FL),,,101964,"SYNCHRONY CLEARED, PLS CHARGE BEFORE DELIVERY - STEPHANY 11/20/17",TX,1,6.50
11/19/2017 8:32:14 AM,Denise Horton,AL,35150,Pegasus,DWA-9400Pegasus-BR,Choco Brown,New,,,,,5218.50,5218.50,0.00,Rodrigo Malabunga,Synchrony,5218.50,,,6034610081632435,81059362,San Diego,36 months,,0.00,,,,,,,,0.00,,,,,,,12/11/2017 12:00:00 AM,No,"3 years parts, 1 year labor (Free)",Delivered,,IAAPA 11/14-11/17 (FL),IAAPA 11/14-11/17 (FL),,,101965,"SYNCHRONY CLEARED, PLS CHARGE BEFORE DELIVERY- 11/20/17 STEPHANY
AUTH # 011882 (12/11 MQ)",FL,1,6.50
11/19/2017 8:39:16 AM,Todd Elmer,MN,56326,Relax2Zero 3D,DWA-9060USJ-9060BR,Choco Brown,New,,,,,3500.00,3500.00,0.00,Rodrigo Malabunga,CreditCard,3500.00,32547Z,,,,,,,0.00,,,,,,,,0.00,,,,,,,4/7/2018 12:00:00 AM,No,"3 years parts, 1 year labor (Free)",Delivered,,IAAPA 11/14-11/17 (FL),IAAPA 11/14-11/17 (FL),,,101966,"Deliver in April 2018
04/02/18- Customer called in wanting to sched his delivery I advised him that his order was on hold and I was about to dispatch- Cristina
Called customer, will schedule on this Weekend.  4/2/2018 June",TX,1,6.50
11/19/2017 8:53:45 AM,Emily Smith,GA,30032,Legacy 3D,DWA-9150USJ-9150BL-DEMO,Demo Black,Demo,,,,,3900.00,3900.00,0.00,Ruben Cuatrona,CreditCard,100.00,561612,,,,,,CreditCard,3800.00,MFMr,,,,,,,0.00,,,,,,,1/15/2018 12:00:00 AM,No,"3 years parts, 1 year labor (Free)",Cancelled,,IAAPA 11/14-11/17 (FL),IAAPA 11/14-11/17 (FL),,,101967,"Total priced $3,900 -- Deposit $100.00 WF CLEARED - 11/20/17 STEPHANY 
Balanced $3,800 COD -- SQUARE #MGMR
CANCELLED, REFUNDED 2/6/17 THROUGH SQUARE. REFUNDED $3,020 BY ALICIA ( $3,900 MINUS 20% RESTOCKING)",FL,1,6.50
11/19/2017 9:04:13 AM,Virginia Walden,FL,32065,Pegasus,DWA-9400Pegasus-BL-DEMO,Demo Black,Demo,,,,,4700.00,4700.00,0.00,Ruben Cuatrona,CreditCard,500.00,962409,,,,,,,0.00,,,,,,,,0.00,,,,,,,,No,"3 years parts, 1 year labor (Free)",Called,,IAAPA 11/14-11/17 (FL),IAAPA 11/14-11/17 (FL),,,101969,"Total Priced $4,700
Deposit $500 WF CLEARED - 11/20/17 STEPHANY 
Balanced $4,200 COD
customer will advise for delivery but pls call for follow up delivery // HOLD FOR $ - Call back in JAN -
1/3 MQ Call back Feb.",FL,1,6.50
11/19/2017 9:18:46 AM,Tim Shortino,FL,33176,Relax2Zero 3D,DWA-9060USJ-9060BR-DEMO,Demo Choco Brown,Demo,,,,,3900.00,3900.00,0.00,Tom Nguyen,Synchrony,3800.00,,,6034610081634316,81106761,Huston,36 months,CreditCard,100.00,33332P,,,,,,,0.00,,,,,,,12/8/2017 12:00:00 AM,No,"3 years parts, 1 year labor (Free)",Delivered,,IAAPA 11/14-11/17 (FL),IAAPA 11/14-11/17 (FL),,,101971,"Total priced $3900
Balanced $100.00 ( PAID ) by credit card approval # 33332P
NEED TO CHARGE $3800 ON SYNCHRONY--ALICIA 11/21/17
AUTH # 008915 - 12/8 MQ",FL,1,6.50
11/19/2017 9:59:54 PM,Christopher Deck,FL,32110,Legacy 3D,DWA-9150USJ-9150BL,Black,New,,,,,3900.00,3900.00,0.00,Ruben Cuatrona,CreditCard,100.00,962185,,,,,,,0.00,,,,,,,,0.00,,,,,,,,No,"3 years parts, 1 year labor (Free)",Hold,,IAAPA 11/14-11/17 (FL),IAAPA 11/14-11/17 (FL),,,101989,"Total price $3,900
Deposit $100.00
Balanced $3,800
Customer will advise and will make payments before delivery
$100 CLEARED, BALANCE REMAINING $3800",FL,1,6.50
11/19/2017 10:08:44 PM,Ali Sayed,MI,48124,Legacy 3D,DWA-9150USJ-9150CH,Choco Brown,New,,,,,3900.00,3900.00,0.00,Ruben Cuatrona,,3900.00,,,6034610081633102,81075475,San Diego,36 months,,,,,,,,,,,,,,,,,,No,"3 years parts, 1 year labor (Free)",Hold,,IAAPA 11/14-11/17 (FL),IAAPA 11/14-11/17 (FL),,,101990,"Pls hold for this order do not charge the house still not ready
Wait until the customer call us and confirm for delivery",Not Dispatched,1,6.50
11/20/2017 7:08:12 AM,Toma Stubbs,FL,33712,Legacy 3D,DWA-9150USJ-9150CH-DEMO,Demo Choco Brown,Demo,,,,,3900.00,3900.00,0.00,Rodrigo Malabunga,Synchrony,3900.00,,,6019170225237921,,San Diego,36 months,,0.00,,,,,,,,0.00,,,,,,,12/7/2017 12:00:00 AM,No,"3 years parts, 1 year labor (Free)",Delivered,,IAAPA 11/14-11/17 (FL),IAAPA 11/14-11/17 (FL),,,101996,"$3900 had been charged by Rod already (Synchrony San Diego) 11/21/17 Riho
11/22/17- Cristina- 10:52 am PST: Req Maggie to give the customer a courtesy call due to Yashi
Auth# 017390",FL,1,6.50
11/20/2017 7:23:35 AM,Arnold Novak,FL,33615,Legacy 3D,DWA-9150USJ-9150BL,Black,New,,,,,3800.00,3800.00,0.00,Jonathan Bhowani,Synchrony,3800.00,,,6034610081638606,81213363,,36 months,,0.00,,,,,,,,0.00,,,,,,,12/7/2017 12:00:00 AM,No,"3 years parts, 1 year labor (Free)",Delivered,,IAAPA 11/14-11/17 (FL),IAAPA 11/14-11/17 (FL),,,101998,"SYNCHRONY, TX ACCOUNT
CHARGE BEFORE DELIVERY--ALICIA 11.21.17
$3,800 AUTH # 007433 (12/7 MQ)",FL,1,6.50
11/20/2017 7:30:27 AM,Ron Daniels,CA,93446,Relax2Zero 3D,DWA-9060USJ-9060BR-DEMO,Demo Choco Brown,Demo,,,,,3090.00,3090.00,0.00,Mitch Valdes,,3090.00,CNUX,,,,,,,,,,,,,,,,,,,,,,11/17/2017 12:00:00 AM,YES,"3 years parts, 1 year labor (Free)",Delivered,,IAAPA 11/14-11/17 (FL),IAAPA 11/14-11/17 (FL),,"Customer picked up from booth on 11/17
SN: 0103002170049",101999,"SQUARE CLEARED $3,090.00 - 11/20/17 STEPHANY",CA,1,6.50
11/21/2017 4:22:17 PM,Steve Pleasants,FL,32940,Legacy 3D,DWA-9150USJ-9150BL-DEMO,Demo Black,Demo,,,,,3500.00,3500.00,0.00,Ruben Cuatrona,CreditCard,100.00,Square xr5c,,,,,,CreditCard,3400.00,WtfB,,,,,,,0.00,,,,,,,12/8/2017 12:00:00 AM,No,"3 years parts, 1 year labor (Free)",Delivered,,IAAPA 11/14-11/17 (FL),IAAPA 11/14-11/17 (FL),,,102038,"Square cleared for $100 deposit, please collect COD - 11/22/17 Stephany",FL,1,6.50
4/10/2018 10:59:18 AM,Yakov (Jay) Zeilingold,NJ,08701,Legacy Vending Chair,DWA-9100V,,New,,,,,3150.00,3150.00,0.00,Ruben Cuatrona,CreditCard,0.00,5lUq,,,,,,,0.00,,,,,,,,0.00,,,,,,,4/26/2018 12:00:00 AM,No,"3 years parts, 1 year labor (Free)",Delivered,,IAAPA 11/14-11/17 (FL),IAAPA 11/14-11/17 (FL),,"(Drop Ship Only)
Legacy Vending Chair w/ CC Reader
(IAAPA Follow Up)",105155,"Per Rubens Agreement w/ Customer 
Mr. Jay will be returning a new unopened Legacy 9100 for a refund of $3,000.00 after chair is picked up by IL/TX Branch.

-Cristina has verified customers order with pres. Micheal-
and will be coordinating the shipment once the Weight and Dims are available.",CA,1,6.50
4/18/2018 5:41:12 PM,Patrick Riggs,NY,14610,Legacy,DWA-9100DWA-9100CH,New Beige,New,,,,,3500.00,3500.00,0.00,Ruben Cuatrona,CreditCard,3500.00,TUPQ,,,,,,,0.00,,,,,,,,0.00,,,,,,,,No,"3 years parts, 1 year labor (Free)",Delivered,,IAAPA 11/14-11/17 (FL),IAAPA 11/14-11/17 (FL),,(1-2) orders.,105365,Mrs. Glory (purchased massage chairs for both Patrick Riggs and Mary Sue Monahan(105366)) as a gift  Per Ruben do not forward a sales invoice to customer. Ship using 3rd party white glove.,CA,1,6.50
4/18/2018 5:55:22 PM,Mary Sue Monahan,MI,49615,Legacy,DWA-9100DWA-9100CH,New Beige,New,,,,,3500.00,3500.00,0.00,Ruben Cuatrona,CreditCard,3500.00,TUPQ,,,,,,,0.00,,,,,,,,0.00,,,,,,,6/8/2018 12:00:00 AM,No,"3 years parts, 1 year labor (Free)",Delivered,,IAAPA 11/14-11/17 (FL),IAAPA 11/14-11/17 (FL),,(2-2),105366,"Mrs. Glory  Stonisch(105365) bought two chairs as gifts one for Patrick Riggs and Mary Sue Monahan
	31X2128321",TX,1,6.50
4/19/2018 11:44:57 AM,Randall Walker,AZ,85602,Legacy 3D,DWA-9150USJ-9150CH,New Choco,New,,,,,3600.00,3600.00,0.00,Ruben Cuatrona,CreditCard,3600.00,dTrm,,,,,,,0.00,,,,,,,,0.00,,,,,,,5/7/2018 12:00:00 AM,No,"3 years parts, 1 year labor (Free)",Delivered,,IAAPA 11/14-11/17 (FL),IAAPA 11/14-11/17 (FL),,3rd unit purchase - Ruben approved discounted price.,105373,"COURTESY CALL DONE 04/20/18 STEPHANY
CUSTOMER CAN WAIT FOR MARICOPA SHOW DELIVERIES FIRST WEEK OF MAY
Confirmed $3600(#dTrm) on Square. 6/15/18 Riho",NV,1,6.50
