﻿Date,Customer Name,State,Zipcode,Description,Product Number,Color,Product Status,Net,Shipping Fee,Gift Price,Financing Processing Fee,Order Total,Total Before Tax,Tax,Commission,Primary Payment Method,Primary Payment Balance,Primary Authorize Number,Primary Purchase Order Number,Primary Synchrony Account Number,Primary Synchrony Application Key,Primary Synchrony Account Info,Primary Synchrony Term,Second Payment Method,Second Payment Balance,Second Authorize Number,Second Purchase Order Number,Second Synchrony Account Number,Second Synchrony Application Key,Second Synchrony Account Info,Second Synchrony Term,Third Payment Method,Third Payment Balance,Third Authorize Number,Third Purchase Order Number,Third Synchrony Account Number,Third Synchrony Application Key,Third Synchrony Account Info,Third Synchrony Term,Delivery Date,Pick up,Warranty,Status,Chair Type,Original Event Name,Event Name,Synchrony Notes,Order Notes,Order Number,Private Note,Branch,No Tax,Actual Tax Rate
3/13/2018 11:03:03 PM,Davis Ngo,NC,28213,Relax2Zero 3D,DWA-9060USJ-9060BR,New Choco,New,,,,,4800.00,4800.00,0.00,Mario Higareda,Synchrony,4800.00,,,6034610083157068,86212395,Las Vegas,36 months,,0.00,,,,,,,,0.00,,,,,,,4/12/2018 12:00:00 AM,No,"3 years parts, 1 year labor (Free)",Delivered,,ASD Show 3/11-14/18 (NV),ASD Show 3/11-14/18 (NV),"AUTH # 012350 4/12 MAGGIE
Confirmed $4,800.00 was charged for 36 months. Received synchrony signed. 4/19/18 Hitomi ",,104488,"will confirm synchrony form . 3/14/18 Hitomi
Confirmed the account $6,500
CHARGE $4800 BEFORE DELIVERY, PLEASE MAKE SURE CUSTOMER SIGNS SYNCHRONY FORM ON DELIVERY!!",FL,1,8.25
3/13/2018 11:11:57 PM,Gary Sahni,GA,30097,Relax2Zero 3D,DWA-9060USJ-9060BR,New Choco,New,,,,,4000.00,4000.00,0.00,Mario Higareda,CreditCard,400.00,RXsZ,,,,,,COD,3600.00,,,,,,,,0.00,,,,,,,,No,"3 years parts, 1 year labor (Free)",Cancelled,,ASD Show 3/11-14/18 (NV),ASD Show 3/11-14/18 (NV),,"COD. Paid $400 by CC. 
Square # RXsZ
Remaining balance $3600",104489,"Confirmed $400 in Square. COD$3,600.  3/14/18 Hitomi
Revised to #104559 under correct warranty. 3/16/18 Hitomi",FL,1,8.25
3/13/2018 11:23:12 PM,Sanjeev Arora,NV,89178,Relax2Zero 3D,DWA-9060USJ-9060BR,New Choco,New,,,,,4000.00,4000.00,0.00,Mario Higareda,CreditCard,400.00,OEoC,,,,,,,0.00,,,,,,,,0.00,,,,,,,,No,"3 years parts, 1 year labor (Free)",Cancelled,,ASD Show 3/11-14/18 (NV),ASD Show 3/11-14/18 (NV),,"COD. Paid $400 by CC. 
Square # OEoC
Remaining balance $3600.",104490,"Confirmed  $400 in Square. COD$3,600. 3/14/18 Hitomi
//I was informed that Rod will deliver the chair. waiting for the confirmation. 3/15/18 Hitomi
Kohei informed me that they are going deliver the chair. 3/21/18 Hitomi
Dispatched FL branch due to customer's moving to GA about 2 months from now. 3/26/18 Hitomi
PER MARIO REQUEST VIA TEXT REFUND MONEY EMAILED YUMI TO ISSUE CHECK 10/19/18 STEPHANY",FL,1,8.25
3/14/2018 9:16:02 AM,Ah moy Chuah,AL,36064,Relax2Zero 2.0,USJ-9050USJ-9050BR,New Brown,New,,,,,3900.00,3900.00,0.00,Rolly San Jose,Synchrony,3900.00,,,6034610083157480,86223507,Las Vegas,36 months,,0.00,,,,,,,,0.00,,,,,,,3/24/2018 12:00:00 AM,No,"3 years parts, 1 year labor (Free)",Delivered,,ASD Show 3/11-14/18 (NV),ASD Show 3/11-14/18 (NV),Confirmed Sync. transaction for $3900/ 36 months/ Auth# 023575 -3/30/18 Riho,,104491,"Confirmed synchrony form the account ($6,500).***Please charge before delivery.***3/14/18Hitomi
auth  # 023575 3/23 maggie",FL,1,8.25
3/14/2018 9:25:35 AM,Misha Tracy,MT,59404,Relax2Zero 2.0,USJ-9050USJ-9050BE,New Beige,New,,,,,4100.00,4100.00,0.00,Rolly San Jose,CreditCard,4100.00,72389D,,,,,,,0.00,,,,,,,,0.00,,,,,,,,No,"3 years parts, 1 year labor (Free)",Delivered,,ASD Show 3/11-14/18 (NV),ASD Show 3/11-14/18 (NV),,,104492,"Deliver after Mar 27th. Call first!!! 
Please add one more back pad.
Confirmed $4,100.00 in Wells Fargo. 3/14/18 Hitomi",CA,1,8.25
3/14/2018 9:32:51 AM,Wercleyn Aguilar,CA,92236,Relax2Zero 2.0,USJ-9050USJ-9050BR,New Brown,New,,,,,3900.00,3900.00,0.00,Rolly San Jose,Cash,200.00,,,,,,,Cash,3700.00,,,,,,,,0.00,,,,,,,4/16/2018 12:00:00 AM,No,"3 years parts, 1 year labor (Free)",Delivered,,ASD Show 3/11-14/18 (NV),ASD Show 3/11-14/18 (NV),,,104493,"COD!!! Charge $3700 first before delivery!!!
Rolly deposited $200 into Wells Fargo A/C. 3/16/18 Riho
03/20/18- cristina -printed
4/16Maritza- COD $3700 cash received by Yumi",CA,1,8.25
3/14/2018 10:09:49 AM,Ali Valji,TX,77040,Relax2Zero 3D,DWA-9060USJ-9060BL,New Black,New,,,,,4000.00,4000.00,0.00,Kohei Uno,Synchrony,2000.00,,,6034610083157050,86211883,Las Vegas,24 months,COD,0.00,,,,,,,,0.00,,,,,,,3/27/2018 12:00:00 AM,No,"3 years parts, 1 year labor (Free)",Delivered,,ASD Show 3/11-14/18 (NV),ASD Show 3/11-14/18 (NV),Confirmed the transaction for $2000/24 months/Auth#023532 on Synchrony LV. 4/4/18 Riho,COD. Remaining balance $2000 upon delivery.,104494,"Confirmed Synchrony form, charge $2,000 on Synchrony before delivery--Alicia 3/16/18",TX,1,8.25
3/14/2018 11:45:55 AM,Thanh Lewis,NV,89120,Relax2Zero 2.0,USJ-9050USJ-9050BR-DEMO,Demo Brown,Demo,,,,,2800.00,2800.00,0.00,David Wang,CreditCard,2800.00,02490C,,,,,,,0.00,,,,,,,,0.00,,,,,,,3/16/2018 12:00:00 AM,No,"3 years parts, 1 year labor (Free)",Delivered,,ASD Show 3/11-14/18 (NV),ASD Show 3/11-14/18 (NV),,,104497,"Please send one more chair pad!!!
/Confirmed $2,800 in Wells Fargo. I was informed that Rod will deliver the chair. waiting for the confirmation. 3/15/18 Hitomi
Delivered by Kohei. 3/16/2018
Received delivery confirmation. 3/19/18 Hitomi",NV,1,8.25
3/14/2018 12:04:31 PM,Muhammad Hassan,VA,22554,Relax2Zero 2.0,USJ-9050USJ-9050BR,New Brown,New,,,,,3000.00,3000.00,0.00,Rolly San Jose,CreditCard,3000.00,67496D,,,,,,,0.00,,,,,,,,0.00,,,,,,,3/22/2018 12:00:00 AM,No,"3 years parts, 1 year labor (Free)",Delivered,,ASD Show 3/11-14/18 (NV),ASD Show 3/11-14/18 (NV),,,104498,"Confirmed 3,000 in Wells Fargo. 3/15/18 Hitomi",TX,1,8.25
3/14/2018 12:13:04 PM,Bilal Walah,VA,22193,Relax2Zero 2.0,USJ-9050USJ-9050BL,New Black,New,,,,,3000.00,3000.00,0.00,Rolly San Jose,Cash,1000.00,,,,,,,CreditCard,2000.00,01790P,,,,,,,0.00,,,,,,,3/22/2018 12:00:00 AM,No,"3 years parts, 1 year labor (Free)",Delivered,,ASD Show 3/11-14/18 (NV),ASD Show 3/11-14/18 (NV),,,104499,Rolly deposited $1000 cash into WF. Confirmed $2000 transaction in WF. 3/16/18 Riho,TX,1,8.25
3/14/2018 1:07:56 PM,Everyone's Market Everyone's Market,OR,97402,Relax2Zero 2.0,USJ-9050USJ-9050BR,New Brown,New,,,,,7800.00,7800.00,0.00,David Wang,Check,0.00,,,,,,,,0.00,,,,,,,,0.00,,,,,,,,No,"3 years parts, 1 year labor (Free)",Hold,,ASD Show 3/11-14/18 (NV),ASD Show 3/11-14/18 (NV),,,104500,"The customer will mail the company check to gardena office in a couple of days. Please deliver the chairs after we clear the check!!! one brown,and one beige!!!!!! Same address.",Not Dispatched,1,8.25
3/14/2018 1:52:26 PM,Anil Virani,TX,77007,Relax2Zero 3D,DWA-9060USJ-9060BL,New Black,New,,,,,4000.00,4000.00,0.00,Kohei Uno,Cash,300.00,,,,,,,Cash,3700.00,,,,,,,,0.00,,,,,,,3/23/2018 12:00:00 AM,No,"3 years parts, 1 year labor (Free)",Delivered,,ASD Show 3/11-14/18 (NV),ASD Show 3/11-14/18 (NV),,"COD. Paid cash $300.
Remaining balance $3700 upon delivery.",104501,"Ruben provided $300 cash to Pres.Michael. COD$3,700..3/16/18 Hitomi",TX,1,8.25
3/14/2018 1:57:37 PM,Andy Dhruv,FL,32836,Relax2Zero 3D,DWA-9060USJ-9060BR,New Choco,New,,,,,4000.00,4000.00,0.00,Kohei Uno,CreditCard,2000.00,p2BT,,,,,,Cash,2000.00,,,,,,,,0.00,,,,,,,4/3/2018 12:00:00 AM,No,"3 years parts, 1 year labor (Free)",Delivered,,ASD Show 3/11-14/18 (NV),ASD Show 3/11-14/18 (NV),,,104502,"$2000 deposit cleared on Square by alicia 3/15/18
Ruben provided $2,000 cash to Pres.Michael. 3/16/18 Hitomi",FL,1,8.25
3/14/2018 2:24:53 PM,Brijesh Patel,AL,36066,Relax2Zero 3D,DWA-9060USJ-9060BR,New Choco,New,,,,,4000.00,4000.00,0.00,Kohei Uno,Cash,4000.00,,,,,,,,0.00,,,,,,,,0.00,,,,,,,3/24/2018 12:00:00 AM,No,"3 years parts, 1 year labor (Free)",Delivered,,ASD Show 3/11-14/18 (NV),ASD Show 3/11-14/18 (NV),,,104503,"Ruben provided $4,000 cash to Pres.Michael. 3/16/18 Hitomi",FL,1,8.25
3/14/2018 2:27:47 PM,Amit Patel,AL,36117,Relax2Zero 3D,DWA-9060USJ-9060BR,New Choco,New,,,,,4000.00,4000.00,0.00,Kohei Uno,Cash,4000.00,,,,,,,,0.00,,,,,,,,0.00,,,,,,,3/24/2018 12:00:00 AM,No,"3 years parts, 1 year labor (Free)",Delivered,,ASD Show 3/11-14/18 (NV),ASD Show 3/11-14/18 (NV),,,104504,"Ruben provided $4,000 cash to Pres.Michael. 3/16/18 Hitomi",FL,1,8.25
3/14/2018 2:30:55 PM,Obaid Mobaligh,NV,89703,Relax2Zero 3D,DWA-9060USJ-9060BL-DEMO,Demo Black,Demo,,,,,4000.00,4000.00,0.00,Mario Higareda,Cash,100.00,,,,,,,CreditCard,3900.00,uJBp,,,,,,,0.00,,,,,,,4/5/2018 12:00:00 AM,No,"3 years parts, 1 year labor (Free)",Delivered,,ASD Show 3/11-14/18 (NV),ASD Show 3/11-14/18 (NV),,,104505,"Mario H. holding $100 cash deposit, $3900 confirmed on Square by alicia 3/15/18
Ruben provided $100 cash to Pres.Michael. 3/16/18 Hitomi
Per Hide's request ,re dispatched to CA. 3/26/18 Hitomi
3/26Maritza: Printed",CA,1,8.25
3/14/2018 2:40:59 PM,Larry Wolf,MO,63367,Relax2Zero 2.0,USJ-9050USJ-9050BR,New Brown,New,,,,,3300.00,3300.00,0.00,Rolly San Jose,CreditCard,3300.00,884791,,,,,,,0.00,,,,,,,,0.00,,,,,,,3/31/2018 12:00:00 AM,No,"3 years parts, 1 year labor (Free)",Delivered,,ASD Show 3/11-14/18 (NV),ASD Show 3/11-14/18 (NV),,,104506,"Confirmed $3,300 in Wells Fargo. 3/15/18 Hitomi",TX,1,8.25
3/14/2018 2:49:30 PM,Ziv Navon,FL,33180,Relax2Zero 2.0,USJ-9050USJ-9050BR,New Brown,New,,,,,10200.00,10200.00,0.00,Rolly San Jose,CreditCard,500.00,819820,,,,,,CreditCard,3200.00,133383,,,,,,PurchaseOrder,6500.00,,,,,,,3/23/2018 12:00:00 AM,No,"3 years parts, 1 year labor (Free)",Delivered,,ASD Show 3/11-14/18 (NV),ASD Show 3/11-14/18 (NV),,,104507,"Customer revised the quantity from 3 to 1, please deliver just 1 chair. 
confirmed $500 in Wells Fargo. 3/15/18 Hitomi
Confirmed $3200 in Wells Fargo. 3/19/18 Riho",FL,1,8.25
3/14/2018 7:38:26 PM,Nancy Pinizzotto,CA,93542,Legacy,DWA-9100DWA-9100SI-DEMO,Demo Sienna,Demo,,,,,2800.00,2800.00,0.00,Laser Howell,CreditCard,2800.00,Sq #TeQv,,,,,,,0.00,,,,,,,,0.00,,,,,,,3/14/2018 12:00:00 AM,YES,"3 years parts, 1 year labor (Free)",Delivered,,ASD Show 3/11-14/18 (NV),ASD Show 3/11-14/18 (NV),,,104508,"Picked up from convention
Sr #0201004170089
Do not ship
sent email to sales rep to have delivery confirmation3/20/18
Confirmed $2,800 in Square. Received delivery confirmation. 3/22/18 Hitomi",CA,1,8.25
3/14/2018 7:51:18 PM,Beata Eichenbaum,NV,89117,Legacy,DWA-9100DWA-9100BU-DEMO,Demo Choco,Demo,,,,,2800.00,2800.00,0.00,Laser Howell,CreditCard,2800.00,Sq #3W9E,,,,,,,0.00,,,,,,,,0.00,,,,,,,3/15/2018 12:00:00 AM,YES,"3 years parts, 1 year labor (Free)",Delivered,,ASD Show 3/11-14/18 (NV),ASD Show 3/11-14/18 (NV),,,104509,"Picked up from convention
Sr #0201002170227
$2800 confirmed on Square by alicia 3/15/18
//I was informed that Rod will deliver the chair. waiting for the confirmation. 3/15/18 Hitomi
Received confirmation. 3/19/18 Hitomi",NV,1,8.25
3/14/2018 9:34:15 PM,Dong Ju Kang,CA,93720,Legacy,DWA-9100DWA-9100BU,New Choco,New,,,,,3400.00,3400.00,0.00,Miku Yamaguchi,CreditCard,200.00,Sq #qfqN,,,,,,Cash,3200.00,,,,,,,,0.00,,,,,,,4/4/2018 12:00:00 AM,No,"3 years parts, 1 year labor (Free)",Delivered,,ASD Show 3/11-14/18 (NV),ASD Show 3/11-14/18 (NV),,,104511,"COD $3,200
$200 cleared on Square by alicia 3/15/18
03/20/18-Cristina- Printed
4/6 Maritza- Paid COD 3200 cash. Handed to Michael.",CA,1,8.25
3/14/2018 9:41:44 PM,Zenaida Carrazo,CA,95355,Legacy,DWA-9100DWA-9100CH,New Beige,New,,,,,3600.00,3600.00,0.00,Miku Yamaguchi,Synchrony,3600.00,,,6034610083156185,86191241,Las Vegas,36 months,,0.00,,,,,,,,0.00,,,,,,,3/28/2018 12:00:00 AM,No,"3 years parts, 1 year labor (Free)",Delivered,,ASD Show 3/11-14/18 (NV),ASD Show 3/11-14/18 (NV),,,104512,"Confirmed synchrony form and the account ($6,000)***Please charge before delivery.***3/15/18Hitomi.
03/20/18-Cristina- Printed",CA,1,8.25
3/14/2018 9:50:56 PM,Cynthia Shaw,FL,33068,Legacy,DWA-9100DWA-9100BU,New Choco,New,,,,,3750.00,3750.00,0.00,Miku Yamaguchi,Synchrony,3750.00,,,6034610083157159,86214037,Las Vegas,36 months,,0.00,,,,,,,,0.00,,,,,,,4/3/2018 12:00:00 AM,No,"3 years parts, 1 year labor (Free)",Delivered,,ASD Show 3/11-14/18 (NV),ASD Show 3/11-14/18 (NV),"Confirmed $3,750.00 was charged for 36 months. 4/19/18 Hitomi
Auth#003002",,104513,"Confirmed synchrony form and the account ($5,000) ***Please charge before delivery.***3/15/18 Hitomi
AUTH # 003002 4/3 MAGGIE",FL,1,8.25
3/14/2018 9:56:39 PM,Mamun Alkarim,NY,11040,Legacy,DWA-9100DWA-9100BL,New Black,New,,,,,3450.00,3450.00,0.00,Miku Yamaguchi,CreditCard,3400.00,Sq #eX8T,,,,,,,0.00,,,,,,,,0.00,,,,,,,4/14/2018 12:00:00 AM,No,"3 years parts, 1 year labor (Free)",Delivered,,ASD Show 3/11-14/18 (NV),ASD Show 3/11-14/18 (NV),,,104514,"$3400 cleared on Square by alicia 3/15/18
Email shipping dept if TX/IL branch cannot deliver
CORRECT TOTAL AMOUNT IS $3,400. 3/19/18 HITOMI
Customer will out of town till April 6th. 3/19/2018 June",TX,1,8.25
3/14/2018 10:03:44 PM,Zainab Amin,TX,78258,Legacy,DWA-9100DWA-9100BL,New Black,New,,,,,3400.00,3400.00,0.00,Miku Yamaguchi,CreditCard,1000.00,Sq #4ANQ,,,,,,Synchrony,2400.00,,,6034610083156235,86191937,Las Vegas,24 months,,0.00,,,,,,,4/1/2018 12:00:00 AM,No,"3 years parts, 1 year labor (Free)",Delivered,,ASD Show 3/11-14/18 (NV),ASD Show 3/11-14/18 (NV),"Auth #030566 3/30/2018 June
Confirmed the transaction for $2400/24 months/Auth#030566 on Synchrony LV. 4/4/18 Riho",,104515,"Down $1000.00
Sync  $2400.00
Total $3400.00
Confirmed $1000 in Square. Confirmed the account ($8,500 ) ***Please charge $2,400 before delivery.***3/15/18 Hitomi",TX,1,8.25
3/14/2018 10:20:17 PM,Sung Chiu,CA,90249,Legacy,DWA-9100DWA-9100CH,New Beige,New,,,,,3600.00,3600.00,0.00,Miku Yamaguchi,CreditCard,500.00,Sq #XKNT,,,,,,Synchrony,3100.00,,,6034610083277684,89054702,Las Vegas,36 months,,0.00,,,,,,,6/1/2018 12:00:00 AM,No,"3 years parts, 1 year labor (Free)",Delivered,,ASD Show 3/11-14/18 (NV),ASD Show 3/11-14/18 (NV)," Authorization Number:	031449
Confirmed $3100 was charged for 36 months.---6/13/18 Hitomi",,104516,"COLOR CHANGE: Sienna Brown
New Address: 8213 Meadow Rd.
Dallas, TX  75231  Per customer Please deliver June 2nd or the week of June 4th.
AUTH 	031449 $3100 CONFIRMED - STEPHANY 06/14/18",TX,1,8.25
3/15/2018 12:47:05 PM,Saeeda Javed,TX,79765,Legacy,DWA-9100DWA-9100SI,New Sienna,New,,,,,6800.00,6800.00,0.00,Laser Howell,CreditCard,4000.00,Sq #nVSg,,,,,,CreditCard,2800.00,Layaway,,,,,,,0.00,,,,,,,3/30/2018 12:00:00 AM,No,"3 years parts, 1 year labor (Free)",Delivered,,ASD Show 3/11-14/18 (NV),ASD Show 3/11-14/18 (NV),,,104520,"The remaining balanced thru LAYAWAY $2800.00 for 10 months $280.00 per month.
Confirmed $4000 in Square *Please start Layaway  Payment after the delivery* 3/15/18 Riho
Layaway: Paid off on 1/15/19.  -Riho",TX,1,8.25
3/15/2018 12:53:09 PM,Muhammad Din,TX,79606,Legacy,DWA-9100DWA-9100SI,New Sienna,New,,,,,3400.00,3400.00,0.00,Laser Howell,CreditCard,2000.00,Sq #jo0y,,,,,,CreditCard,1400.00,Layaway,,,,,,,0.00,,,,,,,3/29/2018 12:00:00 AM,No,"3 years parts, 1 year labor (Free)",Delivered,,ASD Show 3/11-14/18 (NV),ASD Show 3/11-14/18 (NV),,,104521,"The remaining balanced $1400.00 LAYAWAY 12 months to pay.
confirmed $2,000 in Square. 3/15/18 Hitomi",TX,1,8.25
3/15/2018 1:57:36 PM,David Pender,SC,29107,Legacy 3D,DWA-9150USJ-9150CH,New Choco,New,,,,,4500.00,4500.00,0.00,Ruben Cuatrona,CreditCard,200.00,rjsn,,,,,,CreditCard,4300.00,P4x1,,,,,,,0.00,,,,,,,4/13/2018 12:00:00 AM,No,"3 years parts, 1 year labor (Free)",Delivered,,ASD Show 3/11-14/18 (NV),ASD Show 3/11-14/18 (NV),Confirmed COD $4300/#P4x1 on Square. 5/9/18 Riho,,104524,"$4500 payment cleared on Square by alicia 3/15/18(SQUARE#  Lnvu)
($4,500) REFUNDED 3/28 // CHARGED $200 DEPOSIT (SQ# rjsn) // COD $4,300//
(Before we deliver the chair he was upset about making payments full amount of the chair which he has not received. So we refunded and charged only a deposit until the chair was delivered.)",FL,1,8.25
3/15/2018 2:14:08 PM,Olga Rodriguez,FL,32834,Legacy 3D,DWA-9150USJ-9150CH,New Choco,New,,,,,3300.00,3300.00,0.00,Ruben Cuatrona,Synchrony,3300.00,,,,,,36 months,,0.00,,,,,,,,0.00,,,,,,,,No,3 Years Parts (International),Hold,,ASD Show 3/11-14/18 (NV),ASD Show 3/11-14/18 (NV),,,104525,Synchrony pending Ruben advise customer to call synchrony for additional info to get approved. -Stephany 03/15/18,Not Dispatched,1,8.25
3/15/2018 2:25:13 PM,Jeff Brown,NC,28468,Legacy 3D,DWA-9150USJ-9150BL-DEMO,Demo Black,Demo,,,,,3900.00,3900.00,0.00,Ruben Cuatrona,CreditCard,3900.00,9mqE,,,,,,,0.00,,,,,,,,0.00,,,,,,,5/1/2018 12:00:00 AM,No,"3 years parts, 1 year labor (Free)",Delivered,,ASD Show 3/11-14/18 (NV),ASD Show 3/11-14/18 (NV),"Confirmed $3,900.00 in Square. 5/11/18 Hitomi ",,104526,"Deliver after April 10th leaving town until then.
$3900 payment cleared on wells fargo by alicia 3/15/18
CUSTOMER DISPUTED CHARGE WITH BANK// DOES NOT WANT CHAIR ANYMORE
Was under the impression that they would put down a small deposit then decide at a later date but instead was charged full amount. Very upset with miscommunication/ misunderstanding. Gave her my info and told her to call back if she changes her mind. (4/13 Maggie)
4/18 Maggie - Spoke to customer, as long as they get their promised price & warranty (which I assured) they will remove dispute
Recharged customer full amount with new credit card // READY FOR DELIVERY",FL,1,8.25
3/15/2018 2:37:52 PM,Karie Molotchick,UT,84095,Legacy 3D,DWA-9150USJ-9150BL,New Black,New,,,,,4300.00,4300.00,0.00,Ruben Cuatrona,CreditCard,1000.00,397654,,,,,,CreditCard,3300.00,u7QT,,,,,,,0.00,,,,,,,3/18/2018 12:00:00 AM,No,"3 years parts, 1 year labor (Free)",Delivered,,ASD Show 3/11-14/18 (NV),ASD Show 3/11-14/18 (NV),,Send extra Black chair pad,104527,"$1,000 deposit cleared by alicia 3/15/18 on wells fargo
$3300 COD
3/21 Confirmed on Square(3300) Square Receipt# u7QT - Maritza",NV,1,8.25
3/15/2018 2:37:52 PM,Karie Molotchick,UT,84095,Chair Pad for Legacy 3D,,,New,,,,,4300.00,4300.00,0.00,Ruben Cuatrona,CreditCard,1000.00,397654,,,,,,CreditCard,3300.00,u7QT,,,,,,,0.00,,,,,,,3/18/2018 12:00:00 AM,No,no warranty,Delivered,,ASD Show 3/11-14/18 (NV),ASD Show 3/11-14/18 (NV),,Send extra Black chair pad,104527,"$1,000 deposit cleared by alicia 3/15/18 on wells fargo
$3300 COD
3/21 Confirmed on Square(3300) Square Receipt# u7QT - Maritza",NV,1,8.25
3/15/2018 2:48:26 PM,Paul Chapman,TX,77581,Legacy 3D,DWA-9150USJ-9150CH-DEMO,Demo Choco,Demo,,,,,3700.00,3700.00,0.00,Ruben Cuatrona,CreditCard,3700.00,01294R,,,,,,,0.00,,,,,,,,0.00,,,,,,,3/26/2018 12:00:00 AM,No,"3 years parts, 1 year labor (Free)",Delivered,,ASD Show 3/11-14/18 (NV),ASD Show 3/11-14/18 (NV),,,104528,payment $3700 cleared by alicia 3/15/18 on wells fargo,TX,1,8.25
3/15/2018 3:13:36 PM,Elias Lozano,TX,64610,Legacy 3D,DWA-9150USJ-9150CH,New Choco,New,,,,,3500.00,3500.00,0.00,Ruben Cuatrona,COD,0.00,,,,,,,,0.00,,,,,,,,0.00,,,,,,,,No,3 Years Parts (International),Hold,,ASD Show 3/11-14/18 (NV),ASD Show 3/11-14/18 (NV),,,104529,This customer will pay texas branch for massage chair.,Not Dispatched,1,8.25
3/15/2018 3:29:01 PM,Ekim Kaya,CA,90036,Legacy 3D,DWA-9150USJ-9150CH,New Choco,New,,,,,3200.00,3200.00,0.00,Ruben Cuatrona,CreditCard,3200.00,02782G,,,,,,,0.00,,,,,,,,0.00,,,,,,,3/27/2018 12:00:00 AM,No,"3 years parts, 1 year labor (Free)",Delivered,,ASD Show 3/11-14/18 (NV),ASD Show 3/11-14/18 (NV),,(2)  Unit Discount,104530,"$3200 payment cleared on wells fargo by alicia, 3/15/18
03/20/18-Cristina- Printed",CA,1,8.25
3/15/2018 3:36:22 PM,Mark Gatherwright,OH,45202,Legacy 3D,DWA-9150USJ-9150CH,New Choco,New,,,,,3500.00,3500.00,0.00,Ruben Cuatrona,CreditCard,3500.00,03448G,,,,,,,0.00,,,,,,,,0.00,,,,,,,3/24/2018 12:00:00 AM,No,"3 years parts, 1 year labor (Free)",Delivered,,ASD Show 3/11-14/18 (NV),ASD Show 3/11-14/18 (NV),,Floor Model Discount,104531,"$3500 payment cleared by alicia on wells fargo, 3/15/18",TX,1,8.25
3/15/2018 3:48:28 PM,Erica Cheramie,LA,70360,Legacy 3D,DWA-9150USJ-9150BL,New Black,New,,,,,4500.00,4500.00,0.00,Kamille Gines,Synchrony,4500.00,,,6034610083155021,86161192,Las Vegas,36 months,,0.00,,,,,,,,0.00,,,,,,,3/29/2018 12:00:00 AM,No,"3 years parts, 1 year labor (Free)",Delivered,,ASD Show 3/11-14/18 (NV),ASD Show 3/11-14/18 (NV),"Confirmed transaction for $4,500/ 36 months/ Auth#019070 in Sync. LV 3/30/18 Riho",36 Months 0% Apr,104532,"Confirmed the account ($5,400)>***Please charge before delivery.***3/16/18 Hitomi",TX,1,8.25
3/15/2018 4:13:31 PM,Majdi Liqa,IL,60464,Legacy 3D,DWA-9150USJ-9150CH,New Choco,New,,,,,7000.00,7000.00,0.00,Ruben Cuatrona,Synchrony,7000.00,,,6034610083155237,86164099,Las Vegas,24 months,,0.00,,,,,,,,0.00,,,,,,,3/21/2018 12:00:00 AM,No,"3 years parts, 3 years labor ($400)",Delivered,,ASD Show 3/11-14/18 (NV),ASD Show 3/11-14/18 (NV),,"(1) Chair going to Baker Rashid 
13071 Ridgewood Dr Palos Park, IL 60464",104533,"Confirm colors and confirm addresses.
Confirmed the account ($8,400). ***Please charge before delivery.***3/16/18 Hitomi
PLEASE HAVE CUSTOMERS SIGN ON INVOICE WHEN IT DELIVERS.",TX,1,8.25
3/15/2018 4:26:30 PM,Lawrence Dagada,TX,75022,Legacy 3D,DWA-9150USJ-9150CH,New Choco,New,,,,,4800.00,4800.00,0.00,Ruben Cuatrona,Synchrony,4800.00,,,6034610083154834,86158151,Las Vegas,48 months,,0.00,,,,,,,,0.00,,,,,,,3/26/2018 12:00:00 AM,No,"3 years parts, 1 year labor (Free)",Delivered,,ASD Show 3/11-14/18 (NV),ASD Show 3/11-14/18 (NV),,48  Months 0% APR,104534,"Confirmed the account($5,500) under ""DAGADU, LAWRENCE"".***Please charge before delivery.***3/16/18 Hitomi
Authorization#	021556 Confirmed the Synchrony transaction for $4800/48months. 3/29/18 Riho",TX,1,8.25
3/15/2018 4:33:24 PM,Jason and Linnie Phelps,UT,84026,Legacy 3D,DWA-9150USJ-9150CH-DEMO,Demo Choco,Demo,,,,,3900.00,3900.00,0.00,Ruben Cuatrona,CreditCard,3900.00,01333G,,,,,,,0.00,,,,,,,,0.00,,,,,,,3/19/2018 12:00:00 AM,No,"3 years parts, 1 year labor (Free)",Delivered,,ASD Show 3/11-14/18 (NV),ASD Show 3/11-14/18 (NV),,,104535,$3900 payment cleared on wells fargo by alicia 3/15/18,NV,1,8.25
3/15/2018 5:12:45 PM,John Orozco,CA,92081,Pegasus,DWA-9400Pegasus-BR,New Choco,New,,,,,4500.00,4500.00,0.00,Kamille Gines,CreditCard,4500.00,GeMI,,,,,,,0.00,,,,,,,,0.00,,,,,,,,No,"3 years parts, 1 year labor (Free)",Cancelled,,ASD Show 3/11-14/18 (NV),ASD Show 3/11-14/18 (NV),,,104536,"paid in full, $4500 on Square, cleared by alicia 3/16/18
03/20/18-Cristina-printed.",CA,1,8.25
3/16/2018 9:54:34 AM,Mohammad Amer,TN,37122,Legacy 3D,DWA-9150USJ-9150BL,New Black,New,,,,,3000.00,3000.00,0.00,Ruben Cuatrona,CreditCard,7000.00,#01309R #03202B,,,,,,COD,14000.00,,,,,,,,0.00,,,,,,,,No,"3 years parts, 1 year labor (Free)",Cancelled,,ASD Show 3/11-14/18 (NV),ASD Show 3/11-14/18 (NV),,"Customer purchased 7 chairs, and paid it together ($21,000-$3,000/ea) But it has 3 different address.",104540,"Don't charge the remaining balance $14,000 for 5 chairs, customer will advise about that.
Confirmed $1000/#01309R and $6000/#03202B in Wells Fargo. 3/16/18 Riho",FL,1,8.25
3/16/2018 10:07:06 AM,Mohammad Amer,DE,19970,Legacy 3D,DWA-9150USJ-9150BL,New Black,New,,,,,3000.00,3000.00,0.00,Ruben Cuatrona,CreditCard,7000.00,#01309R #03202B,,,,,,COD,14000.00,,,,,,,,0.00,,,,,,,,No,"3 years parts, 1 year labor (Free)",Cancelled,,ASD Show 3/11-14/18 (NV),ASD Show 3/11-14/18 (NV),,"Customer purchased 7 chairs, and paid it together (for $21,000-$3,000/ea) But it has 3 different address.",104541,"Don't charge the remaining balance $14,000 for 5 chairs, customer will advise about that.
Confirmed $1000/#01309R and $6000/#03202B in Wells Fargo. 3/16/18 Riho",TX,1,8.25
3/16/2018 10:08:14 AM,Jessica Welle,FL,33178,Legacy 3D,DWA-9150USJ-9150CH-DEMO,Demo Choco,Demo,,,,,3500.00,3500.00,0.00,Kamille Gines,Synchrony,2700.00,,,6034610083157597,86232796,Las Vegas,36 months,CreditCard,800.00,sEZ8,,,,,,,0.00,,,,,,,3/23/2018 12:00:00 AM,No,"3 years parts, 1 year labor (Free)",Delivered,,ASD Show 3/11-14/18 (NV),ASD Show 3/11-14/18 (NV),,,104542,"$800 cleared on Square by alicia 3/16/18
Confirmed the account ($5,500).***Please charge before delivery.***3/16/18 Hitomi",FL,1,8.25
3/16/2018 10:21:34 AM,Omar Akhteri,CA,91325,Legacy 3D,DWA-9150USJ-9150BL-DEMO,Demo Black,Demo,,,,,3500.00,3500.00,0.00,Kamille Gines,Synchrony,3500.00,,,6034610083157589,86232298,Las Vegas,24 months,,0.00,,,,,,,,0.00,,,,,,,4/3/2018 12:00:00 AM,No,"3 years parts, 1 year labor (Free)",Delivered,,ASD Show 3/11-14/18 (NV),ASD Show 3/11-14/18 (NV),,24 months 0% Apr,104543,"Confirmed the account ($6,500) uneder ""ARHTERI, OMAR'.***Please charge before delivery.***3/16/18 Hitomi
03/20/18-Cristina- Printed",CA,1,8.25
3/16/2018 10:21:54 AM,Mohammad Amer,TN,37211,Legacy 3D,DWA-9150USJ-9150BL,New Black,New,,,,,15000.00,15000.00,0.00,Ruben Cuatrona,CreditCard,7000.00,#01309R #03202B,,,,,,COD,14000.00,,,,,,,,0.00,,,,,,,,No,"3 years parts, 1 year labor (Free)",Cancelled,,ASD Show 3/11-14/18 (NV),ASD Show 3/11-14/18 (NV),,"Customer purchased 7 chairs, and paid it together (for $21,000-$3,000/ea) But it has 3 different address.
Related with #104540, #104541",104544,"Hold until 1st and 2nd delivery are completed, customer will advise about this order and will pay the remaining balance $14,000.
Confirmed $1000/#01309R and $6000/#03202B in Wells Fargo. 3/16/18 Riho",FL,1,8.25
3/16/2018 10:56:12 AM,Hyung Kim,CA,91710,Relax2Zero 1.0,USJ-9000USJ-9000KU,New Black,New,,,,,4000.00,4000.00,0.00,Kamille Gines,CreditCard,4000.00,Kwvb,,,,,,,0.00,,,,,,,,0.00,,,,,,,4/2/2018 12:00:00 AM,No,"2 years parts, 1 year labor (Free)",Delivered,,ASD Show 3/11-14/18 (NV),ASD Show 3/11-14/18 (NV),,"Please deliver within two weeks, customer will be going to China in 3 weeks.",104545,"Relax 2 Zero 9000
paid in full, $4000 on Square, cleared by alicia 3/16/18
03/20/18-Cristina- Printed",CA,1,8.25
3/16/2018 11:00:18 AM,Lisa Simon,CA,91977,Legacy 3D,DWA-9150USJ-9150CH,New Choco,New,,,,,3900.00,3900.00,0.00,Ruben Cuatrona,CreditCard,3900.00,BIU3,,,,,,,0.00,,,,,,,,0.00,,,,,,,3/30/2018 12:00:00 AM,No,"3 years parts, 1 year labor (Free)",Delivered,,ASD Show 3/11-14/18 (NV),ASD Show 3/11-14/18 (NV),,,104546,"paid in full $3900 on Square, cleared by alicia 3/16/18
03/20/18-Cristina- printed",CA,1,8.25
3/16/2018 11:05:34 AM,Lisa and Robert Simon,MI,48601,Legacy 3D,DWA-9150USJ-9150CH,New Choco,New,,,,,3900.00,3900.00,0.00,Ruben Cuatrona,CreditCard,100.00,891298,,,,,,CreditCard,3800.00,#y1Dy,,,,,,,0.00,,,,,,,4/2/2018 12:00:00 AM,No,"3 years parts, 1 year labor (Free)",Delivered,,ASD Show 3/11-14/18 (NV),ASD Show 3/11-14/18 (NV),,,104547,"$100 deposit cleared on WF by alicia 3/16/18
$3800 COD #y1Dy CONFIRMED - STEPHANY  04/11/18",TX,1,8.25
3/16/2018 11:10:03 AM,Brian Mrotek,MI,49120,Legacy 3D,DWA-9150USJ-9150BL,New Black,New,,,,,4000.00,4000.00,0.00,Ruben Cuatrona,CreditCard,200.00,861330,,,,,,CreditCard,3800.00,E618,,,,,,,0.00,,,,,,,4/17/2018 12:00:00 AM,No,"3 years parts, 1 year labor (Free)",Delivered,,ASD Show 3/11-14/18 (NV),ASD Show 3/11-14/18 (NV),,Delivery request April 16th or 17th,104548,"$200 deposit cleared on WF by alicia 3/16/18
COD $3800 was paid through Square, confirmed the transaction #E618. 4/25/18 Riho",TX,1,8.25
3/16/2018 11:15:58 AM,Nicko Didgorodetskiy,KY,40353,Legacy 3D,DWA-9150USJ-9150CH,New Choco,New,,,,,3000.00,3000.00,0.00,Ruben Cuatrona,CreditCard,3000.00,LzlU,,,,,,,0.00,,,,,,,,0.00,,,,,,,3/23/2018 12:00:00 AM,No,"3 years parts, 1 year labor (Free)",Delivered,,ASD Show 3/11-14/18 (NV),ASD Show 3/11-14/18 (NV),,5 unit discount. Drop Ship,104549,"paid in full $3000 on Square, cleared by alicia 3/16/18",TX,1,8.25
3/16/2018 11:47:50 AM,Okcha Hoak,WA,98541,Legacy,DWA-9100DWA-9100BU,New Choco,New,,,,,3500.00,3500.00,0.00,Kamille Gines,CreditCard,3500.00,00674G,,,,,,,0.00,,,,,,,,0.00,,,,,,,,No,"3 years parts, 1 year labor (Free)",Cancelled,,ASD Show 3/11-14/18 (NV),ASD Show 3/11-14/18 (NV),,,104550,"paid in full, $3500 on WF cleared by alicia 3/16/18
Revised to #104619 under the correct chair model 3/19/18 Hitomi",WA,1,8.25
3/16/2018 1:36:49 PM,HENRY NGUYEN,TX,77043,Legacy 3D,DWA-9150USJ-9150BL,New Black,New,,,,,3800.00,3800.00,0.00,Ruben Cuatrona,CreditCard,3800.00,PxGq,,,,,,,0.00,,,,,,,,0.00,,,,,,,3/23/2018 12:00:00 AM,No,"3 years parts, 1 year labor (Free)",Delivered,,ASD Show 3/11-14/18 (NV),ASD Show 3/11-14/18 (NV),,Company's Phone# 281-496-7026,104551,"cleared on Square $3800 by alicia 3/17/18
Per Ruben, change the color to BROWN.3/19/18 Hitomi",TX,1,8.25
3/16/2018 1:41:53 PM,Chris Hattenpach,FL,33326,Legacy 3D,DWA-9150USJ-9150BL,New Black,New,,,,,3726.88,3500.00,226.88,Ruben Cuatrona,CreditCard,3500.00,eGy5,,,,,,,0.00,,,,,,,,0.00,,,,,,,3/23/2018 12:00:00 AM,No,"3 years parts, 1 year labor (Free)",Delivered,,ASD Show 3/11-14/18 (NV),ASD Show 3/11-14/18 (NV),,,104552,"paid in full $3500 on Square, cleared by alicia 3/16/18",FL,0,8.25
3/16/2018 1:59:42 PM,Charles C. Cook,WA,98541,Legacy 3D,DWA-9150USJ-9150CH,New Choco,New,,,,,3500.00,3500.00,0.00,Kamille Gines,Synchrony,3500.00,,,6034610083158447,86258374,Las Vegas,24 months,,0.00,,,,,,,,0.00,,,,,,,3/20/2018 12:00:00 AM,No,"3 years parts, 1 year labor (Free)",Delivered,,ASD Show 3/11-14/18 (NV),ASD Show 3/11-14/18 (NV),,,104553,"Confirmed the account ($3,500.)***PLease charge before delivery.***3/16/18 Hitomi
Synchrony processed 3/20/2018 by Scott
24 month $3,500 Auth # 020871
Received delivery confirmation 3/20/18 Hitomi",WA,1,8.25
3/16/2018 2:08:39 PM,Ronen Zaguri,FL,33026,Legacy 3D,DWA-9150USJ-9150BL-DEMO,Demo Black,Demo,,,,,3500.00,3500.00,0.00,Elijah Banania,Synchrony,3500.00,,,6034610083157613,86233113,Las Vegas,24 months,,0.00,,,,,,,,0.00,,,,,,,3/23/2018 12:00:00 AM,No,"3 years parts, 1 year labor (Free)",Delivered,,ASD Show 3/11-14/18 (NV),ASD Show 3/11-14/18 (NV),,,104554,"Confirmed the account ($6,500)***PLease charge before delivery.***3/16/18 Hitomi",FL,1,8.25
3/16/2018 4:49:14 PM,Gary Sahni,GA,30097,Relax2Zero 3D,DWA-9060USJ-9060BR,New Choco,New,,,,,4000.00,4000.00,0.00,Mario Higareda,CreditCard,400.00,RXsZ,,,,,,CreditCard,3600.00,KJtW,,,,,,,0.00,,,,,,,3/28/2018 12:00:00 AM,No,"5 years parts, 1 year labor ($300)",Delivered,,ASD Show 3/11-14/18 (NV),ASD Show 3/11-14/18 (NV),,,104559,"Corrected Warranty of #104489 
Confirmed $400 in Square. COD$3,600.  3/14/18 Hitomi
Confirmed $3,600 COD in Square. 4/12/18 Hitomi",FL,1,8.25
3/16/2018 10:53:52 PM,Diane Campbell,WI,53191,Relax2Zero 3D,DWA-9060USJ-9060BR,New Choco,New,,,,,4000.00,4000.00,0.00,Kohei Uno,CreditCard,4000.00,qTWT,,,,,,,0.00,,,,,,,,0.00,,,,,,,4/16/2018 12:00:00 AM,No,"3 years parts, 1 year labor (Free)",Delivered,,ASD Show 3/11-14/18 (NV),ASD Show 3/11-14/18 (NV),,,104564,"Confirmed $4,000 in Square. 3/19/18 Hitomi
04/05/18- Per Kohie ship using 3rd party due to IL not having the chair in stock. and add a tourmaline pad as a gift due to the inconvenience.",TX,1,8.25
3/19/2018 11:05:22 AM,Okcha Hoak,WA,98541,Legacy 3D,DWA-9150USJ-9150CH,New Choco,New,,,,,3500.00,3500.00,0.00,Kamille Gines,CreditCard,3500.00,00674G,,,,,,,0.00,,,,,,,,0.00,,,,,,,3/20/2018 12:00:00 AM,No,"3 years parts, 1 year labor (Free)",Delivered,,ASD Show 3/11-14/18 (NV),ASD Show 3/11-14/18 (NV),,,104619,"paid in full, $3500 on WF cleared by alicia 3/16/18
Revised for #104550 under the chair model. 3/19/18 Hitomi
Received delivery confirmation. 3/20/18 Hitomi",WA,1,8.25
3/19/2018 6:23:47 PM,Todd Bosley,OH,44641,Legacy,DWA-9100DWA-9100BL,New Black,New,,,,,15000.00,15000.00,0.00,Rodrigo Malabunga,CreditCard,15000.00,Sq #mkz4,,,,,,,0.00,,,,,,,,0.00,,,,,,,3/29/2018 12:00:00 AM,No,"3 years parts, 1 year labor (Free)",Delivered,,ASD Show 3/11-14/18 (NV),ASD Show 3/11-14/18 (NV),,,104632,"He wants to be  a dealer at Ohio
Total 5 chairs 9100 -4 black, 1 choco brown, 1 tourmaline pad
Let me know when we can deliver the chairs so i can talk to him.he has a reseller permit for tax purposes thanks//WARRANTY 3YRS PARTS ONLY. 
Confirmed $15,000.00 in Square. 3/20/18 Hitomi",TX,1,8.25
3/21/2018 3:50:52 PM,Rodolfo Escalera Daniels,PR,00982,Legacy 3D,DWA-9150USJ-9150CH,New Choco,New,,,,,3600.00,3600.00,0.00,Ruben Cuatrona,Synchrony,3600.00,,,6034610083168479,,Las Vegas,36 months,,0.00,,,,,,,,0.00,,,,,,,,No,3 Years Parts (International),Delivered,,ASD Show 3/11-14/18 (NV),ASD Show 3/11-14/18 (NV),,"Shipping address: QO-26  Calle 536 Country Club, Carolina, Puerto Rico, 00982",104650,"Please charge Synchrony account before delivery
AUTH # 029022 3/29 MAGGIE",FL,1,8.25
3/22/2018 5:13:17 PM,Carolyne Rodriguez,LA,70737,Relax2Zero 3D,DWA-9060USJ-9060BR,New Choco,New,,,,,4000.00,4000.00,0.00,Kohei Uno,Synchrony,4000.00,,,6034610083154164,86129006,Las Vegas,36 months,,0.00,,,,,,,,0.00,,,,,,,4/4/2018 12:00:00 AM,No,"3 years parts, 1 year labor (Free)",Delivered,,ASD Show 3/11-14/18 (NV),ASD Show 3/11-14/18 (NV),"Authorization #: 010908
Confirmed transaction for $4000/36 month/Auth#010908 in Synchrony LV. 4/11/18 Riho",,104667,"Please call customer to verify shipping address. They were still deciding where to ship it to at the time of purchase.
3/23-Maritza Synchrony funds are available(6500). Charge before delivery.
the account is under SOTO, CAROLYNE. confirmed synchrony form. 3/23/18 Hitomi",TX,1,8.25
3/23/2018 1:51:53 PM,Chris Fuimara,NY,11530,Relax2Zero 3D,DWA-9060USJ-9060BL,New Black,New,,,,,4000.00,4000.00,0.00,Mario Higareda,CreditCard,400.00,Qp1d,,,,,,Cash,3600.00,,,,,,,,0.00,,,,,,,4/13/2018 12:00:00 AM,No,"3 years parts, 1 year labor (Free)",Delivered,,ASD Show 3/11-14/18 (NV),ASD Show 3/11-14/18 (NV),,,104699,"Confirmed $400 in Square.COD$3,600..3/23/18 Hitomi
COD $3600 was paid in cash, need to confirm with TX Mario. 4/24/18 Riho",TX,1,8.25
3/26/2018 10:30:08 AM,Tae Chung,CA,91501,Legacy,DWA-9100DWA-9100BL,New Black,New,,,,,3000.00,3000.00,0.00,Rodrigo Malabunga,CreditCard,3000.00,3mrJ,,,,,,,0.00,,,,,,,,0.00,,,,,,,4/5/2018 12:00:00 AM,No,"3 years parts, 1 year labor (Free)",Delivered,,ASD Show 3/11-14/18 (NV),ASD Show 3/11-14/18 (NV),,,104786,"Confirmed $3,000 in Square. 3/26/18 Hitomi
3/26 Maritza: Printed",CA,1,8.25
