﻿Date,CustomerName,State,Zipcode,Description,productNo,Color,IsDemo,Net,ShippingFee,GiftPrice,FinancingProcessingFee,Gross,Pre_tax,Tax,Commission,Primary Payment Method,Primary Payment Balance,Primary Authorize Number,Primary Purchase Order Number,Primary Synchrony Account Number,Primary Synchrony Application Key,Primary Synchrony AccountInfo,Primary SynchronyTerm,Secondly Payment Method,Secondly Payment Balance,Secondly Authorize Number,Secondly Purchase Order Number,Secondly Synchrony Account Number,Secondly Synchrony Application Key,Secondly Synchrony AccountInfo,Secondly SynchronyTerm,Thirdly Payment Method,Thirdly Payment Balance,Thirdly Authorize Number,Thirdly Purchase Order Number,Thirdly Synchrony Account Number,Thirdly Synchrony Application Key,Thirdly Synchrony AccountInfo,Thirdly SynchronyTerm,DeliveryDate,Ispickup,Warranty,Status,Event Name,Synchrony Notes,Order Notes,Order number,Private Note,Branch,IsNoTax,ActualTaxRate
12/19/2017 4:08:32 PM,Bob Sandlin,TX,75231,Foot Vibe Pro,USJ-871,,New,,,,,119.05,109.98,9.07,KHOA H,CreditCard,0.00,TC# 1934 1167 3690 3686 0682 6,,,,,,,0.00,,,,,,,,0.00,,,,,,,,YES,"2 years parts, 1 year labor (Small Items)",Delivered,"Sam's Club #6372 Dallas, TX 12/14-24/17 (TX)",,Customer picked up product,102591,confirmed TC number  12/20/17 Hitomi,TX,0,8.25
12/22/2017 1:43:52 PM,Susan Catheart,TX,75214,Foot Vibe Pro,USJ-871,,New,,,,,119.06,109.99,9.07,Chris Tavira,CreditCard,119.06,TC# 2511 0463 8054 2909 4452 0,,,,,,,0.00,,,,,,,,0.00,,,,,,,,YES,"2 years parts, 1 year labor (Small Items)",Delivered,"Sam's Club #6372 Dallas, TX 12/14-24/17 (TX)",,Invoice # 0010372,102631,,TX,0,8.25
12/23/2017 6:07:50 PM,Wilber Guevara,TX,75204,Foot Vibe Pro,USJ-871,,New,,,,,119.06,109.99,9.07,Kristy Tran,CreditCard,119.06,TC 384503889923541401699,,,,,,,0.00,,,,,,,,0.00,,,,,,,,YES,"2 years parts, 1 year labor (Small Items)",Delivered,"Sam's Club #6372 Dallas, TX 12/14-24/17 (TX)",,,102644,Customer picked up 12/23/2017,TX,0,8.25
12/23/2017 6:14:17 PM,Maria Hernandez,TX,75181,Foot Vibe Pro,USJ-871,,New,,,,,119.06,109.99,9.07,Kristy Tran,CreditCard,119.06,,,,,,,,0.00,,,,,,,,0.00,,,,,,,,YES,"2 years parts, 1 year labor (Small Items)",Delivered,"Sam's Club #6372 Dallas, TX 12/14-24/17 (TX)",,Customer picked up 12/23/2017,102645,will be confirmed the payment proof. 12/26/17 Hitomi,TX,0,8.25
12/24/2017 11:39:46 AM,Terell Winston,TX,75231,Foot Vibe Pro,USJ-871,,New,,,,,119.06,109.99,9.07,Kristy Tran,CreditCard,119.06,,,,,,,,0.00,,,,,,,,0.00,,,,,,,,YES,"2 years parts, 1 year labor (Small Items)",Delivered,"Sam's Club #6372 Dallas, TX 12/14-24/17 (TX)",,Customer picked up 12/23/2017,102653,will be confirmed the payment proof.  12/26/17 Hitomi,TX,0,8.25
12/24/2017 11:42:21 AM,Stephanie Gonzalez,TX,76010,Foot Vibe Pro,USJ-871,,New,,,,,119.06,109.99,9.07,Kristy Tran,CreditCard,119.06,,,,,,,,0.00,,,,,,,,0.00,,,,,,,,YES,"2 years parts, 1 year labor (Small Items)",Delivered,"Sam's Club #6372 Dallas, TX 12/14-24/17 (TX)",,Customer picked up 12/24/2017,102654,will be confirmed the payment proof. 12/26/17 Hitomi,TX,0,8.25
12/26/2017 12:27:51 PM,Bob Sandlin,TX,75231,Foot Vibe Pro,USJ-871,,New,,,,,119.06,109.99,9.07,KHOA H,CreditCard,0.00,000799,,,,,,,0.00,,,,,,,,0.00,,,,,,,,YES,"2 years parts, 1 year labor (Small Items)",Cancelled,"Sam's Club #6372 Dallas, TX 12/14-24/17 (TX)",,Customer picked up the product.,102667,"TC# 1934 1157 3690 3686 0682 5
Duplicate order.  Same as order #102591. 12/28/2017 June",TX,0,8.25
