﻿Date,CustomerName,State,Zipcode,Description,productNo,Color,IsDemo,Net,ShippingFee,GiftPrice,FinancingProcessingFee,Gross,Pre_tax,Tax,Commission,Primary Payment Method,Primary Payment Balance,Primary Authorize Number,Primary Purchase Order Number,Primary Synchrony Account Number,Primary Synchrony Application Key,Primary Synchrony AccountInfo,Primary SynchronyTerm,Secondly Payment Method,Secondly Payment Balance,Secondly Authorize Number,Secondly Purchase Order Number,Secondly Synchrony Account Number,Secondly Synchrony Application Key,Secondly Synchrony AccountInfo,Secondly SynchronyTerm,Thirdly Payment Method,Thirdly Payment Balance,Thirdly Authorize Number,Thirdly Purchase Order Number,Thirdly Synchrony Account Number,Thirdly Synchrony Application Key,Thirdly Synchrony AccountInfo,Thirdly SynchronyTerm,DeliveryDate,Ispickup,Warranty,Status,Event Name,Synchrony Notes,Order Notes,Order number,Private Note,Branch,IsNoTax,ActualTaxRate
2/17/2018 9:46:28 PM,Clyde Fox,WA,98274,Relax2Zero 3D,DWA-9060USJ-9060BR,Choco Brown,New,,,,,3800.00,3800.00,0.00,Bonnie Brooks,CreditCard,200.00,Sq# BNfq,,,,,,COD,0.00,,,,,,,,0.00,,,,,,,,No,"3 years parts, 1 year labor (Free)",Assigned,Seattle Home Show 2/17-25/18 (WA),,,103764,"2-3 weeks delivery
confirmed $200 in Square. 2/19/18 Hitomi",WA,1,9.60
2/17/2018 10:02:49 PM,Tamara Berg,WA,98056,Relax2Zero 3D,DWA-9060USJ-9060BR,Choco Brown,New,,,,,4932.00,4932.00,0.00,Jason Liu,CreditCard,4932.00,SQ# YXGL,,,,,,,0.00,,,,,,,,0.00,,,,,,,,No,"3 years parts, 1 year labor (Free)",Assigned,Seattle Home Show 2/17-25/18 (WA),,,103765,"2-3 weeks delivery
confirmed $4,932 in Square. 2/19/18 Hitomi",WA,1,9.60
2/17/2018 10:13:02 PM,Ronda Edwards,WA,98034,Relax2Zero 2.0,USJ-9050USJ-9050BL-DEMO,Demo Black,Demo,,,,,3500.00,3500.00,0.00,Bonnie Brooks,Synchrony,3500.00,,,6034610083106578,85115462,Las Vegas,36 months,,0.00,,,,,,,,0.00,,,,,,,,YES,"3 years parts, 1 year labor (Free)",Assigned,Seattle Home Show 2/17-25/18 (WA),,,103766,"confirmed Synchrony form and the account $6,500. customer will pick up the chair on 2/25/18.---2/22/18 Hitomi
informed by Scott that this has changed to delivery. will let Shiho know. 
*Please charge before delivery*  2/28/18 Hitomi",WA,1,9.60
2/17/2018 10:24:15 PM,Randy Brooks,WA,98168,Legacy 3D,DWA-9150USJ-9150BL-DEMO,Demo Black,Demo,,,,,3990.00,3990.00,0.00,Ethan Hayoyu Jiang,CreditCard,3990.00,03985D,,,,,,,0.00,,,,,,,,0.00,,,,,,,2/26/2018 12:00:00 AM,YES,"3 years parts, 1 year labor (Free)",Delivered,Seattle Home Show 2/17-25/18 (WA),,,103767,"Please deliver to 
525 Pelly ave N.
Renton, WA 98057
confirmed 3,990 in Wells Fargo. 2/19/18 Hitomi 
 customer will pick up the chair on 2/25/18.---2/22/18 Hitomi
informed by Scott that this has changed to delivery. will let Shiho know. 2/28/18 Hitomi",WA,1,9.60
2/17/2018 10:33:51 PM,Paul Sauro,WA,98027,Legacy 3D,DWA-9150USJ-9150CH-DEMO,Demo Choco Brown,Demo,,,,,3990.00,3990.00,0.00,Rolly San Jose,CreditCard,3990.00,60673G,,,,,,,0.00,,,,,,,,0.00,,,,,,,2/26/2018 12:00:00 AM,YES,"3 years parts, 1 year labor (Free)",Delivered,Seattle Home Show 2/17-25/18 (WA),,,103768,"confirmed 3,990 in Wells Fargo. will confirm pick up or delivery 2/19/18 Hitomi
Rolly informed they pick up the chair on 2/25/18--2/22/18 Hitomi
informed by Scott  that this has changed to delivery. will let Shiho know. 2/28/18 Hitomi",WA,1,9.60
2/20/2018 7:48:20 PM,Del Lui,WA,98144,Legacy,DWA-9100DWA-9100BL-DEMO,Demo Black,Demo,,,,,3360.00,3360.00,0.00,Ethan Hayoyu Jiang,CreditCard,300.00,06207D,,,,,,COD,0.00,,,,,,,,0.00,,,,,,,,YES,"3 years parts, 1 year labor (Free)",Assigned,Seattle Home Show 2/17-25/18 (WA),,,103892,"Bal payment of $3060 will be paid in cash by customer
confirmed $300 in Wells Fargo. 2/21/18 Hitomi
customer will pick up the chair on 2/25/18.---2/22/18 Hitomi
informed by Scott that this has changed to delivery. will let Shiho know. 2/28/18 Hitomi",WA,1,9.60
2/21/2018 7:50:46 PM,Theresa Lo,WA,98118,Relax2Zero 3D,DWA-9060USJ-9060BR,New Choco,New,,,,,4400.00,4400.00,0.00,Jason Liu,CreditCard,200.00,Sq# OVxP,,,,,,COD,0.00,,,,,,,,0.00,,,,,,,,No,"3 years parts, 1 year labor (Free)",Assigned,Seattle Home Show 2/17-25/18 (WA),,,103901,"$200 down, bal $4200 C.O.D - charge before delivery
confirmed $200in Square. COD $4,200.  2/22/18 Hitomi",WA,1,9.60
2/22/2018 7:57:07 PM,Tom Trahan,WA,98052,Legacy 3D,DWA-9150USJ-9150CH-DEMO,Demo Choco,Demo,,,,,3800.00,3800.00,0.00,Rolly San Jose,CreditCard,3800.00,07302C,,,,,,,0.00,,,,,,,,0.00,,,,,,,,YES,"3 years parts, 1 year labor (Free)",Assigned,Seattle Home Show 2/17-25/18 (WA),,,103915,"confirmed $3,800 in Wells Fargo. will confirm delivery confirmation. 2/23/18 Hitomi
informed by Scott that this has changed to delivery. will let Shiho know. 2/28/18 Hitomi",WA,1,9.60
2/23/2018 7:39:04 PM,Larry Boyce,WA,98498,Legacy 3D,DWA-9150USJ-9150BL-DEMO,Demo Black,Demo,,,,,4364.00,4364.00,0.00,Rolly San Jose,CreditCard,4264.00,08436D,,,,,,CreditCard,100.00,Refund,,,,,,,0.00,,,,,,,2/26/2018 12:00:00 AM,YES,"3 years parts, 1 year labor (Free)",Delivered,Seattle Home Show 2/17-25/18 (WA),,,103928,"$4264 less $100 refund = $4164
informed that this has changed to delivery. will let Shiho know. 2/28/18 Hitomi",WA,1,9.60
2/24/2018 9:41:43 PM,Shelly Jukanovich,WA,98282,Relax2Zero 3D,DWA-9060USJ-9060BR-DEMO,Demo Choco,Demo,,,,,3800.00,3800.00,0.00,Bonnie Brooks,Synchrony,3800.00,,,6034610083120884,85445555,Las Vegas,36 months,,0.00,,,,,,,,0.00,,,,,,,,YES,"3 years parts, 1 year labor (Free)",New,Seattle Home Show 2/17-25/18 (WA),,,103942,,Not Dispatched,1,9.60
2/24/2018 9:49:01 PM,Ken Kreutzer,WA,98042,Relax2Zero 3D,DWA-9060USJ-9060BL-DEMO,Demo Black,Demo,,,,,3700.00,3700.00,0.00,Bonnie Brooks,CreditCard,3700.00,Sq# grvg,,,,,,,0.00,,,,,,,,0.00,,,,,,,,YES,"3 years parts, 1 year labor (Free)",New,Seattle Home Show 2/17-25/18 (WA),,,103943,"confirmed $3,700 in Square. will confirm delivery confirmation.",WA,1,9.60
2/24/2018 9:56:36 PM,Gary Herigstad,WA,98022,Legacy,DWA-9100DWA-9100BU-DEMO,Demo Choco,Demo,,,,,3626.00,3626.00,0.00,Rolly San Jose,CreditCard,300.00,530234,,,,,,CreditCard,3326.00,E80F,,,,,,,0.00,,,,,,,2/26/2018 12:00:00 AM,YES,"3 years parts, 1 year labor (Free)",Delivered,Seattle Home Show 2/17-25/18 (WA),,,103944,"Down payment $300,  bal $3326 will be paid charge before delivery or pick up
informed that this has changed to delivery. will let Shiho know. 2/28/18 Hitomi",WA,1,9.60
2/24/2018 10:05:43 PM,Anna Mathieson,WA,98249,Legacy,DWA-9100DWA-9100BL,New Black,New,,,,,4274.00,4274.00,0.00,Scott Ishikawa,Synchrony,4274.00,,,6034610083119985,85433715,Las Vegas,24 months,,0.00,,,,,,,,0.00,,,,,,,,No,"3 years parts, 1 year labor (Free)",Cancelled,Seattle Home Show 2/17-25/18 (WA),,,103945,"Please change chair to Legacy 3D
Office please change in Daiwa.space and confirm after done with scott.
***REVISED TO #104054 under correct chair model *** 2/28/18 Hitomi",WA,1,9.60
2/25/2018 5:05:43 PM,Summit implants Jared letter,WA,98166,Relax2Zero 3D,DWA-9060USJ-9060BL,New Black,New,,,,,4500.00,4500.00,0.00,Scott Ishikawa,CreditCard,100.00,Sq#qoOK,,,,,,COD,0.00,,,,,,,,0.00,,,,,,,,No,"3 years parts, 1 year labor (Free)",Assigned,Seattle Home Show 2/17-25/18 (WA),,,103969,"Scott to call for delivery and bal payment. Pls HOLD first
confirmed $100 in Square. 2/26/18 Hitomi",WA,1,9.60
2/25/2018 5:13:24 PM,David Draves,WA,98133,Relax2Zero 2.0,USJ-9050USJ-9050BR-DEMO,Demo Brown,Demo,,,,,3700.00,3700.00,0.00,Bonnie Brooks,Synchrony,3700.00,,,6034610083123284,85483870,Las Vegas,36 months,,0.00,,,,,,,,0.00,,,,,,,,YES,"3 years parts, 1 year labor (Free)",Assigned,Seattle Home Show 2/17-25/18 (WA),,,103970,"confirmed Synchrony form and the account ($5,000). *Please charge before delivery.*2/28/18 Hitomi",WA,1,9.60
2/25/2018 5:19:15 PM,Michael Wu,WA,98075,Relax2Zero 3D,DWA-9060USJ-9060BR,New Choco,New,,,,,4200.00,4200.00,0.00,Jason Liu,CreditCard,4200.00,Sq# BW0i,,,,,,,0.00,,,,,,,,0.00,,,,,,,,No,"3 years parts, 1 year labor (Free)",Assigned,Seattle Home Show 2/17-25/18 (WA),,,103971,"confirmed $4,200 in Square. 2/26/18 Hitomi",WA,1,9.60
2/28/2018 9:20:53 AM,Anna Mathieson,WA,98249,Legacy 3D,DWA-9150USJ-9150BL,New Black,New,,,,,4274.00,4274.00,0.00,Scott Ishikawa,Synchrony,4274.00,,,6034610083119985,85433715,Las Vegas,24 months,,0.00,,,,,,,,0.00,,,,,,,,No,"3 years parts, 1 year labor (Free)",Assigned,Seattle Home Show 2/17-25/18 (WA),,,104054,"***CORRECTION FOR #103945.Chair model is updated.***
 confirmed Synchrony form and the account $6,500.  *Please charge before delivery.* 2/28/18 Hitomi",WA,1,9.60
