﻿Original Event Name,Event Name,Sales Person,Order Number,Order Date,Customer Name,State,Zip,Product Name,Color,Product Status,QTY,Tax,Total Before Tax,Order Total,Primary Payment Method,Second Payment Method,Thirdl Payment Method,Warranty,Order Items,Pick up,Delivered On,Order Status,Chair Type,Order Notes,Private Note,Branch,No Tax,Actual Tax Rate,SKU,Primary Payment Balance,Primary Authorize Number,Primary Purchase Order Number,Primary Synchrony Account Number,Primary Synchrony Application Key,Primary Synchrony Account Info,Primary Synchrony Term,Second Payment Balance,Second Authorize Number,Second Purchase Order Number,Second Synchrony Account Number,Second Synchrony Application Key,Second Synchrony Account Info,Second SynchronyTerm,Third Payment Balance,Third Authorize Number,Third Purchase Order Number,Third Synchrony Account Number,Third Synchrony Application Key,Third Synchrony Account Info,Third Synchrony Term
AMERICA'S BEAUTY SHOW 3/30-4/1/19 CHICAGO (IL),AMERICA'S BEAUTY SHOW 3/30-4/1/19 CHICAGO (IL),May Kam,116255,3/30/2019 6:51:09 PM,Mrs Luz Flores,TX,79706,Relax 2 Zero 3D,Demo Choco,Demo,1,0.00,3800.00,3800.00,Cash,COD,,"5 years parts, 1 year labor (Free)","Relax 2 Zero 3D,Tourmaline Pad for Relax2Zero 3D,",No,,Assigned,,"Special discount for one time payment, manager approval . Pls call the 
customer about Aug , 2019 for delivery schedule , since moving to TX new place , Balance will be pay as COD, thanks","4/1/19-will confirm cash once May comes back. ***COD $3,750.***  - Hitomi
4/2Maritza- Courtesy message sent @ 9:28AM",TX,1,10.25,DWA-9060USJ-9060BR-DEMO,50.00,,,,,,,3750.00,,,,,,,0.00,,,,,,
AMERICA'S BEAUTY SHOW 3/30-4/1/19 CHICAGO (IL),AMERICA'S BEAUTY SHOW 3/30-4/1/19 CHICAGO (IL),Abagail Stirling,116318,3/31/2019 7:29:21 PM,Nancy Hefner,IL,60035,Relax 2 Zero 3D,Demo Black,Demo,1,0.00,4000.00,4000.00,CreditCard,,,"5 years parts, 1 year labor (Free)","Relax 2 Zero 3D,",No,,Assigned,,,"4/1/19-Confirmed $4,000.00 in SQ. - Hitomi
4/2Maritza Courtesy message sent @ 9:02AM",TX,1,10.25,DWA-9060USJ-9060BL-DEMO,4000.00,Sq# ejLC,,,,,,0.00,,,,,,,0.00,,,,,,
AMERICA'S BEAUTY SHOW 3/30-4/1/19 CHICAGO (IL),AMERICA'S BEAUTY SHOW 3/30-4/1/19 CHICAGO (IL),Ilene Maynard,116319,3/31/2019 7:33:40 PM,Angela Vassallo Vitale,MI,48183,Legacy 3D,Demo Black,Demo,1,0.00,3800.00,3800.00,CreditCard,,,"5 years parts, 1 year labor (Free)","Legacy 3D,",No,,Assigned,,,"4/1/19- COnfirmed $3,800.00 in SQ. -Hitomi
4/2Maritza Courtesy message sent @ 9:05AM **CUSTOMER CAN ONLY ACCEPT DELIVERY SUNDAY OR MONDAY**",TX,1,10.25,DWA-9150USJ-9150BL-DEMO,3800.00,Sq# LVcm,,,,,,0.00,,,,,,,0.00,,,,,,
AMERICA'S BEAUTY SHOW 3/30-4/1/19 CHICAGO (IL),AMERICA'S BEAUTY SHOW 3/30-4/1/19 CHICAGO (IL),May Kam,116320,3/31/2019 7:39:18 PM,Mrs Debrah Englert,OH,45236,Relax 2 Zero 3D,New Black,New,1,0.00,4350.00,4350.00,CreditCard,COD,,"5 years parts, 1 year labor (Free)","Relax 2 Zero 3D,Tourmaline Pad for Relax2Zero 3D,",No,,Assigned,,"Special discount for one time payment, manager approval . Balance will be paid when we deliver chair ( including Assembly), Thanks","4/1/19-Confirmed $200.00 in SQ. ***COD$4,150****-Hitomi
4/2Maritza- Courtesy message sent @ 9:06AM",TX,1,10.25,DWA-9060USJ-9060BL,200.00,#FhTy,,,,,,4150.00,,,,,,,0.00,,,,,,
AMERICA'S BEAUTY SHOW 3/30-4/1/19 CHICAGO (IL),AMERICA'S BEAUTY SHOW 3/30-4/1/19 CHICAGO (IL),Abagail Stirling,116321,3/31/2019 7:40:29 PM,Jacqueline Carrejo,TX,78543,Relax 2 Zero 3D,New Black,New,1,0.00,4500.00,4500.00,CreditCard,CreditCard,,"5 years parts, 1 year labor (Free)","Relax 2 Zero 3D,",No,,Assigned,,,"4/1/19- Confirmed $4,500 in SQ.-Hitomi
4/2Maritza Courtesy message sent @ 4:59PM",TX,1,10.25,DWA-9060USJ-9060BL,2250.00,Receipt #IQeu,,,,,,2250.00,TC# Crcl,,,,,,0.00,,,,,,
AMERICA'S BEAUTY SHOW 3/30-4/1/19 CHICAGO (IL),AMERICA'S BEAUTY SHOW 3/30-4/1/19 CHICAGO (IL),May Kam,116322,3/31/2019 7:54:54 PM,Mrs Yvonne Gray,IL,60643,Legacy 3D,Demo Choco,Demo,1,0.00,3500.00,3500.00,CreditCard,COD,CreditCard,"5 years parts, 1 year labor (Free)","Legacy 3D,Tourmaline Pad for Legacy 3D,",No,,Cancelled,,"Special discount for payment plan , manager approval","4/1/19-Confirmed $100.00 in SQ. ***COD$1,900*** Confirmed LAYAWAY form. ($1,500 for 10 months)- Emailed to Cristina.-*Please pass delivery confirmation to Cristina.* -Hitomi
4/2/19-Per.May, cancelled and issued the refund of $100. (From May : ""The customer came to booth, since she won’t have $1900 to pay chair , refunded $100"" .)-Hitomi",TX,1,10.25,DWA-9150USJ-9150CH-DEMO,100.00,#5rZw,,,,,,1900.00,,,,,,,1500.00,LAYAWAY 10 months,,,,,
AMERICA'S BEAUTY SHOW 3/30-4/1/19 CHICAGO (IL),AMERICA'S BEAUTY SHOW 3/30-4/1/19 CHICAGO (IL),May Kam,116323,3/31/2019 8:24:23 PM,Mrs Chrystalin Sherrell,SC,29201,Legacy 3D,Demo Black,Demo,1,0.00,4900.00,4900.00,CreditCard,COD,CreditCard,"5 years parts, 1 year labor (Free)","Tourmaline Pad for Legacy 3D,Legacy 3D,",No,,Cancelled,,"Special discount for monthly payment, manager approval","4/1/19-Per.Invoice, total amount is $3,800.  Revised to #116372  - Hitomi",Not Dispatched,1,10.25,DWA-9150USJ-9150BL-DEMO,200.00,uYmL,,,,,,1800.00,,,,,,,1800.00,Monthly payment,,,,,
AMERICA'S BEAUTY SHOW 3/30-4/1/19 CHICAGO (IL),AMERICA'S BEAUTY SHOW 3/30-4/1/19 CHICAGO (IL),Ilene Maynard,116338,4/1/2019 3:22:06 AM,Rebecca Yarnell,OH,45875,Legacy 3D,New Black,New,1,0.00,4900.00,4900.00,Synchrony,,,"5 years parts, 1 year labor (Free)","Legacy 3D,",No,,Cancelled,,"Pls make finance $4500 purchase, thanks","4/1/19- will confirm sync- Hitomi 
4/2/19- Confirmed total amount is $4,500 . Revised to #116392 - Hitomi",Not Dispatched,1,10.25,DWA-9150USJ-9150BL,4500.00,,,6501723375085097,73423214,Las Vegas,36 months,0.00,,,,,,,0.00,,,,,,
AMERICA'S BEAUTY SHOW 3/30-4/1/19 CHICAGO (IL),AMERICA'S BEAUTY SHOW 3/30-4/1/19 CHICAGO (IL),Abagail Stirling,116339,4/1/2019 3:32:22 AM,Tammy Scott,IN,47725,Relax 2 Zero 3D,New Choco,New,1,0.00,4500.00,4500.00,Synchrony,,,"5 years parts, 1 year labor (Free)","Relax 2 Zero 3D,",No,,New,,"Pls make finance $4500 purchase, thanks","Dear Team : Could u pls help check synchrony account no is correct, thanks
4/1/19-will confirm sync - Hitomi
4/2/19-Confirmed SYNC$8,500 and original. ***Please charge $4,500/sales draft***-Hitomi",TX,1,10.25,DWA-9060USJ-9060BR,4500.00,,,6501723375088510,73423271,Las Vegas,36 months,0.00,,,,,,,0.00,,,,,,
AMERICA'S BEAUTY SHOW 3/30-4/1/19 CHICAGO (IL),AMERICA'S BEAUTY SHOW 3/30-4/1/19 CHICAGO (IL),Ilene Maynard,116353,4/1/2019 7:24:30 AM,Lori Anne DiDonato,NC,28031,Legacy 3D,New Choco,New,1,0.00,4500.00,4500.00,CreditCard,Synchrony,,"5 years parts, 1 year labor (Free)","Legacy 3D,",No,,New,,,"4/1/19-Confirmed $500.00 in SQ. will confirm sync -Hitomi
4/2/19-Confirmed SYNC$6,500 and original. ***Please charge $4,000/sales draft*** -Hitomi",FL,1,10.25,DWA-9150USJ-9150CH,500.00,Sq# G5DC,,,,,,4000.00,,,6501723375085220,73427687,Las Vegas,36 months,0.00,,,,,,
AMERICA'S BEAUTY SHOW 3/30-4/1/19 CHICAGO (IL),AMERICA'S BEAUTY SHOW 3/30-4/1/19 CHICAGO (IL),Ilene Maynard,116357,4/1/2019 7:49:10 AM,Simply Beautiful Salon/Danielle Withouse,MO,65101,Legacy 3D,New Black,New,1,0.00,4500.00,4500.00,Synchrony,,,"5 years parts, 1 year labor (Free)","Legacy 3D,",No,,New,,,"4/1/19-will confirm sync -Hitomi
4/2/19-Confirmed SYNC$8,500 under DANIELLE WITHOUSE and original. ***Please charge $4,500/sales draft ***-Hitomi",TX,1,10.25,DWA-9150USJ-9150BL,4500.00,,,6501723375085246,73428701,Las Vegas,36 months,0.00,,,6501723375085246,73428701,Las Vegas,36 months,0.00,,,,,,
AMERICA'S BEAUTY SHOW 3/30-4/1/19 CHICAGO (IL),AMERICA'S BEAUTY SHOW 3/30-4/1/19 CHICAGO (IL),May Kam,116372,4/1/2019 2:32:29 PM,Mrs Chrystalin Sherrell,SC,29201,Legacy 3D,Demo Black,Demo,1,0.00,3800.00,3800.00,CreditCard,COD,PurchaseOrder,"5 years parts, 1 year labor (Free)","Legacy 3D,Tourmaline Pad for Legacy 3D,",No,,New,,"Special discount for monthly payment, manager approval","4/1/19-Confirmed $200.00 in SQ. ***COD $1,800/LAYAWAY$1,800*** .LAYAWAY form needs to be signed - Hitomi",Not Dispatched,1,10.25,DWA-9150USJ-9150BL-DEMO,200.00,uYmL,,,,,,1800.00,,,,,,,1800.00,,Monthly payment,,,,
