﻿Original Event Name,Event Name,Sales Person,Order Number,Order Date,Customer Name,State,Zip,Product Name,Color,Product Status,QTY,Tax,Total Before Tax,Order Total,Primary Payment Method,Second Payment Method,Thirdl Payment Method,Warranty,Order Items,Pick up,Delivered On,Order Status,Chair Type,Order Notes,Private Note,Branch,No Tax,Actual Tax Rate,SKU,Primary Payment Balance,Primary Authorize Number,Primary Purchase Order Number,Primary Synchrony Account Number,Primary Synchrony Application Key,Primary Synchrony Account Info,Primary Synchrony Term,Second Payment Balance,Second Authorize Number,Second Purchase Order Number,Second Synchrony Account Number,Second Synchrony Application Key,Second Synchrony Account Info,Second SynchronyTerm,Third Payment Balance,Third Authorize Number,Third Purchase Order Number,Third Synchrony Account Number,Third Synchrony Application Key,Third Synchrony Account Info,Third Synchrony Term
Sam's Club #6615 Fountain Valley 4/25-5/5/19 (CA),Sam's Club #6615 Fountain Valley 4/25-5/5/19 (CA),Hiroko Hudson,117070,4/30/2019 11:53:50 AM,Rebecca Nouyen,CA,92683,Shogun Neck & Back Massger,New,New,1,17.50,199.98,217.48,Purchase Order,,,"2 years parts, 1 year labor for Small Items","Shogun Neck &amp; Back Massger,",YES,,Delivered,,,,CA,0,8.75,USJ-874USJ-874,0.00,,410719190965433926262,,,,,0.00,,,,,,,0.00,,,,,,
Sam's Club #6615 Fountain Valley 4/25-5/5/19 (CA),Sam's Club #6615 Fountain Valley 4/25-5/5/19 (CA),Hiroko Hudson,117071,4/30/2019 11:59:58 AM,Ana Padilla,CA,90280,Shogun Neck & Back Massger,New,New,1,17.50,199.98,217.48,Purchase Order,,,"2 years parts, 1 year labor for Small Items","Shogun Neck &amp; Back Massger,",YES,,Delivered,,,,CA,0,8.75,USJ-874USJ-874,0.00,,910583135371804306666,,,,,0.00,,,,,,,0.00,,,,,,
Sam's Club #6615 Fountain Valley 4/25-5/5/19 (CA),Sam's Club #6615 Fountain Valley 4/25-5/5/19 (CA),Hiroko Hudson,117072,4/30/2019 12:03:26 PM,Ana Padilla,CA,90280,Foot Vibe Pro,,New,1,9.62,109.99,119.61,Purchase Order,,,"2 years parts, 1 year labor for Small Items","Foot Vibe Pro,",YES,,Delivered,,,,CA,0,8.75,USJ-871,0.00,,910583135371804306666,,,,,0.00,,,,,,,0.00,,,,,,
Sam's Club #6615 Fountain Valley 4/25-5/5/19 (CA),Sam's Club #6615 Fountain Valley 4/25-5/5/19 (CA),Hiroko Hudson,117073,4/30/2019 12:09:06 PM,Diane Haskell,CA,92708,Vitality Plate for Sam's,New,New,1,35.00,399.99,434.99,Purchase Order,,,"2 years parts, 1 year labor for Small Items","Vitality Plate for Sam's,",YES,,Delivered,,,,CA,0,8.75,USJ-849USJ-849,0.00,,800675254571611518484,,,,,0.00,,,,,,,0.00,,,,,,
Sam's Club #6615 Fountain Valley 4/25-5/5/19 (CA),Sam's Club #6615 Fountain Valley 4/25-5/5/19 (CA),Hiroko Hudson,117107,5/4/2019 10:15:12 AM,Maria Reyes,CA,92613,Shogun Neck & Back Massger,New,New,1,17.50,199.98,217.48,Purchase Order,,,"2 years parts, 1 year labor for Small Items","Shogun Neck &amp; Back Massger,",YES,,Delivered,,,,CA,0,8.75,USJ-874USJ-874,0.00,,618877682769257706090,,,,,0.00,,,,,,,0.00,,,,,,
Sam's Club #6615 Fountain Valley 4/25-5/5/19 (CA),Sam's Club #6615 Fountain Valley 4/25-5/5/19 (CA),Hiroko Hudson,117108,5/4/2019 10:19:43 AM,Glenna Madrid,CA,92708,Foot Vibe Pro,,New,1,9.62,109.99,119.61,Purchase Order,,,"2 years parts, 1 year labor for Small Items","Foot Vibe Pro,",YES,,Delivered,,,,CA,0,8.75,USJ-871,0.00,,462114420496383423545,,,,,0.00,,,,,,,0.00,,,,,,
Sam's Club #6615 Fountain Valley 4/25-5/5/19 (CA),Sam's Club #6615 Fountain Valley 4/25-5/5/19 (CA),Hiroko Hudson,117109,5/4/2019 10:26:53 AM,Mark Nguyen,CA,90278,Vitality Plate for Sam's,New,New,1,35.00,399.99,434.99,Purchase Order,,,"2 years parts, 1 year labor for Small Items","Vitality Plate for Sam's,",YES,,Delivered,,,,CA,0,8.75,USJ-849USJ-849,0.00,,244958560807090841121,,,,,0.00,,,,,,,0.00,,,,,,
Sam's Club #6615 Fountain Valley 4/25-5/5/19 (CA),Sam's Club #6615 Fountain Valley 4/25-5/5/19 (CA),Hiroko Hudson,117110,5/4/2019 10:31:54 AM,Claire Gomez,CA,92701,Foot Vibe Pro,,New,1,9.62,109.99,119.61,Purchase Order,,,"2 years parts, 1 year labor for Small Items","Foot Vibe Pro,",YES,,Delivered,,,,CA,0,8.75,USJ-871,0.00,,053300114072940075747,,,,,0.00,,,,,,,0.00,,,,,,
Sam's Club #6615 Fountain Valley 4/25-5/5/19 (CA),Sam's Club #6615 Fountain Valley 4/25-5/5/19 (CA),Hiroko Hudson,117111,5/4/2019 11:01:18 AM,Kevin Nguyen,CA,92708,Foot Vibe Pro,,New,1,9.62,109.99,119.61,Purchase Order,,,"2 years parts, 1 year labor for Small Items","Foot Vibe Pro,",YES,,Delivered,,,,CA,0,8.75,USJ-871,0.00,,10196100825256233,,,,,0.00,,,,,,,0.00,,,,,,
Sam's Club #6615 Fountain Valley 4/25-5/5/19 (CA),Sam's Club #6615 Fountain Valley 4/25-5/5/19 (CA),Hiroko Hudson,117131,5/5/2019 10:21:48 AM,Khanh phuong Ho,CA,92648,Vitality Plate for Sam's,New,New,1,35.00,399.99,434.99,Purchase Order,,,"2 years parts, 1 year labor for Small Items","Vitality Plate for Sam's,",YES,,Delivered,,,,CA,0,8.75,USJ-849USJ-849,0.00,,212948169837099898121,,,,,0.00,,,,,,,0.00,,,,,,
Sam's Club #6615 Fountain Valley 4/25-5/5/19 (CA),Sam's Club #6615 Fountain Valley 4/25-5/5/19 (CA),Hiroko Hudson,117132,5/5/2019 10:28:11 AM,Shanin Washington,CA,92602,Vitality Plate for Sam's,New,New,1,35.00,399.99,434.99,Purchase Order,,,"2 years parts, 1 year labor for Small Items","Vitality Plate for Sam's,",YES,,Delivered,,,,CA,0,8.75,USJ-849USJ-849,0.00,,727593757370800307676,,,,,0.00,,,,,,,0.00,,,,,,
Sam's Club #6615 Fountain Valley 4/25-5/5/19 (CA),Sam's Club #6615 Fountain Valley 4/25-5/5/19 (CA),Hiroko Hudson,117133,5/5/2019 10:33:27 AM,Hassan Moslehi,CA,92782,Shogun Neck & Back Massger,New,New,1,17.50,199.98,217.48,Purchase Order,,,"2 years parts, 1 year labor for Small Items","Shogun Neck &amp; Back Massger,",YES,,Delivered,,,,CA,0,8.75,USJ-874USJ-874,0.00,,604887880712259759040,,,,,0.00,,,,,,,0.00,,,,,,
Sam's Club #6615 Fountain Valley 4/25-5/5/19 (CA),Sam's Club #6615 Fountain Valley 4/25-5/5/19 (CA),Hiroko Hudson,117135,5/5/2019 10:38:11 AM,Luis Rivera,CA,92704,Shogun Neck & Back Massger,New,New,1,17.50,199.98,217.48,Purchase Order,,,"2 years parts, 1 year labor for Small Items","Shogun Neck &amp; Back Massger,",YES,,Delivered,,,,CA,0,8.75,USJ-874USJ-874,0.00,,706799676943431969202,,,,,0.00,,,,,,,0.00,,,,,,
Sam's Club #6615 Fountain Valley 4/25-5/5/19 (CA),Sam's Club #6615 Fountain Valley 4/25-5/5/19 (CA),Hiroko Hudson,117410,5/16/2019 5:37:55 PM,Steven E. Marion,CA,92648,Shogun Neck & Back Massger,New,New,1,15.75,179.98,195.73,Purchase Order,,,"2 years parts, 1 year labor for Small Items","Shogun Neck &amp; Back Massger,",YES,5/5/2019 12:00:00 AM,Delivered,New,,"*Need to check the actual purchase date* 5/17/19 Riho
The customer picked up on 5/5/19, confirmed the original receipt. 5/17/19 -Riho",CA,0,8.75,USJ-874USJ-874,0.00,,784759772973430925292,,,,,0.00,,,,,,,0.00,,,,,,
Sam's Club #6615 Fountain Valley 4/25-5/5/19 (CA),Sam's Club #6615 Fountain Valley 4/25-5/5/19 (CA),Hiroko Hudson,117411,5/16/2019 5:45:23 PM,Roger Luper,CA,92707,Shogun Neck & Back Massger,New,New,1,15.75,179.98,195.73,Purchase Order,,,"2 years parts, 1 year labor for Small Items","Shogun Neck &amp; Back Massger,",YES,5/5/2019 12:00:00 AM,Delivered,New,,"*Need to check the actual purchase date* 5/17/19 Riho
The customer picked up on 5/5/19, confirmed the original receipt. 5/17/19 -Riho",CA,0,8.75,USJ-874USJ-874,0.00,,283114928448388480575,,,,,0.00,,,,,,,0.00,,,,,,
Sam's Club #6615 Fountain Valley 4/25-5/5/19 (CA),Sam's Club #6615 Fountain Valley 4/25-5/5/19 (CA),Hiroko Hudson,117413,5/16/2019 5:56:26 PM,Tracy Nuto yen,CA,92708,Vitality Plate for Sam's,New,New,1,35.00,399.99,434.99,Purchase Order,,,"2 years parts, 1 year labor for Small Items","Vitality Plate for Sam's,",YES,5/5/2019 12:00:00 AM,Delivered,New,,"*Need to check the actual purchase date* 5/17/19 Riho
The customer picked up on 5/5/19, confirmed the original receipt. 5/17/19 -Riho",CA,0,8.75,USJ-849USJ-849,0.00,,768593858380800303676,,,,,0.00,,,,,,,0.00,,,,,,
Sam's Club #6615 Fountain Valley 4/25-5/5/19 (CA),Sam's Club #6615 Fountain Valley 4/25-5/5/19 (CA),Hiroko Hudson,117414,5/16/2019 6:00:50 PM,Jessica Garcia,CA,92704,Vitality Plate for Sam's,New,New,1,35.00,399.99,434.99,Purchase Order,,,"2 years parts, 1 year labor for Small Items","Vitality Plate for Sam's,",YES,5/5/2019 12:00:00 AM,Delivered,New,,"*Need to check the actual purchase date* 5/17/19 Riho
The customer picked up on 5/5/19, confirmed the original receipt. 5/17/19 -Riho",CA,0,8.75,USJ-849USJ-849,0.00,,708593658311800305676,,,,,0.00,,,,,,,0.00,,,,,,
Sam's Club #6615 Fountain Valley 4/25-5/5/19 (CA),Sam's Club #6615 Fountain Valley 4/25-5/5/19 (CA),Hiroko Hudson,117415,5/16/2019 6:07:57 PM,Irma Ramirez,CA,92802,Vitality Plate for Sam's,New,New,1,35.00,399.99,434.99,Purchase Order,,,"2 years parts, 1 year labor for Small Items","Vitality Plate for Sam's,",YES,5/5/2019 12:00:00 AM,Delivered,New,,"*Need to check the actual purchase date* 5/17/19 -Riho
The customer picked up on 5/5/19, confirmed the original receipt. 5/17/19 -Riho",CA,0,8.75,USJ-849USJ-849,0.00,,664769470965434938292,,,,,0.00,,,,,,,0.00,,,,,,
