﻿Date,CustomerName,State,Zipcode,Description,productNo,Color,IsDemo,Net,ShippingFee,GiftPrice,FinancingProcessingFee,Gross,Pre_tax,Tax,Commission,Primary Payment Method,Primary Payment Balance,Primary Authorize Number,Primary Purchase Order Number,Primary Synchrony Account Number,Primary Synchrony Application Key,Primary Synchrony AccountInfo,Primary SynchronyTerm,Secondly Payment Method,Secondly Payment Balance,Secondly Authorize Number,Secondly Purchase Order Number,Secondly Synchrony Account Number,Secondly Synchrony Application Key,Secondly Synchrony AccountInfo,Secondly SynchronyTerm,Thirdly Payment Method,Thirdly Payment Balance,Thirdly Authorize Number,Thirdly Purchase Order Number,Thirdly Synchrony Account Number,Thirdly Synchrony Application Key,Thirdly Synchrony AccountInfo,Thirdly SynchronyTerm,DeliveryDate,Ispickup,Warranty,Status,Event Name,Synchrony Notes,Order Notes,Order number,Private Note,Branch,IsNoTax,ActualTaxRate
11/5/2017 10:00:39 AM,Charlatte Coco,LA,70611,Legacy for Sam's,DWA-9100DWA-9100BG-DEMO,Demo Beige,Demo,,,,,7971.79,7198.00,773.79,Keith Kei,,0.00,,TC# 3909338676484039131586,,,,,,,,,,,,,,,,,,,,,11/10/2017 12:00:00 AM,No,"3 years parts, 1 year labor (Free)",Delivered,Sam's Club #8265 11/2-11/12/17 (TX),,"Invoice #1
Customer wants the chairs to be deliver as soon as possible.
Paid in full with cash through sam's club 
Use 3375327733 as primary contact for delivery.",101707,"Please give 2 new beige legacy.
Deliver asap",TX,,
11/5/2017 10:16:18 AM,Karl Ray,LA,70607,Legacy for Sam's,DWA-9100DWA-9100CH-DEMO,Demo Choco,Demo,,,,,3985.89,3599.00,386.89,Keith Kei,,0.00,,TC# 9085223716941840625285,,,,,,,,,,,,,,,,,,,,,11/16/2017 12:00:00 AM,No,"3 years parts, 1 year labor (Free)",Delivered,Sam's Club #8265 11/2-11/12/17 (TX),,"Invoice #2
Customer paid in full with card through sam's club",101708,Give new Choco legacy.,TX,,
11/7/2017 9:22:29 AM,Ernest Lowery,LA,70605,Legacy for Sam's,DWA-9100DWA-9100GD,Gold,New,,,,,4761.14,4299.00,462.14,Keith Kei,,0.00,,TC# 4148907273619214078378,,,,,,,,,,,,,,,,,,,,,11/10/2017 12:00:00 AM,No,"3 years parts, 1 year labor (Free)",Delivered,Sam's Club #8265 11/2-11/12/17 (TX),,"Primary contact number: 3373041739
Call to confirm shipping address
Customer paid in full through sam's club.",101747,,TX,,
11/7/2017 9:42:04 AM,Joey Kulaga,LA,70605,Legacy for Sam's,DWA-9100DWA-9100BL-DEMO,Demo Black,Demo,,,,,3985.89,3599.00,386.89,Keith Kei,,0.00,,TC# 4929758180447039154506,,,,,,,,,,,,,,,,,,,,,11/10/2017 12:00:00 AM,No,"3 years parts, 1 year labor (Free)",Delivered,Sam's Club #8265 11/2-11/12/17 (TX),,"Invoice #5 
Primary contact: 3373048895
Paid in full through sam's club",101751,,TX,,
11/7/2017 9:49:41 AM,Joey Kulaga,LA,70605,Ninja Leg Massager,,,New,,,,,419.74,379.00,40.74,Keith Kei,,0.00,,TC# 86365545677362842701,,,,,,,,,,,,,,,,,,,,,,YES,"3 years parts, 1 year labor (Free)",Delivered,Sam's Club #8265 11/2-11/12/17 (TX),,"Invoice #6
Paid through sams
Picked up already.",101752,,TX,,
11/7/2017 10:00:10 AM,Keatha Poullard,LA,70607,Vitality Plate for Sam's,USJ-849USJ-849,New,New,,,,,509.44,459.99,49.45,Keith Kei,,0.00,,TC# 386164941056391514782,,,,,,,,,,,,,,,,,,,,,,YES,"3 years parts, 1 year labor (Free)",Delivered,Sam's Club #8265 11/2-11/12/17 (TX),,"Invoice #7
Paid in full through sams
Picked up already.",101753,,TX,,
11/9/2017 9:42:19 AM,Yolanda Denton,LA,70605,Legacy for Sam's,DWA-9100DWA-9100CH-DEMO,Demo Choco,Demo,,,,,3985.89,3599.00,386.89,Keith Kei,,0.00,,TC# 2740496166277157392914,,,,,,,,,,,,,,,,,,,,,11/16/2017 12:00:00 AM,No,"3 years parts, 1 year labor (Free)",Delivered,Sam's Club #8265 11/2-11/12/17 (TX),,"Invoice #8
Paid in full through Sam's club.",101774,Give new.,TX,,
11/9/2017 9:50:11 AM,John Jansen,LA,71446,Vitality Plate for Sam's,USJ-849USJ-849,New,New,,,,,509.44,459.99,49.45,Keith Kei,,0.00,,TC# 298897678639214048358,,,,,,,,,,,,,,,,,,,,,,YES,"3 years parts, 1 year labor (Free)",Delivered,Sam's Club #8265 11/2-11/12/17 (TX),,"Invoice #9
Paid in full through Sam's club
Item picked up by customer already.",101775,,TX,,
11/11/2017 6:13:29 AM,Michael Moreaux,TX,70647,Legacy for Sam's,DWA-9100DWA-9100CH-DEMO,Demo Choco,Demo,,,,,3985.89,3599.00,386.89,Keith Kei,,0.00,,TC# 8377819695865403218147,,,,,,,,,,,,,,,,,,,,,11/17/2017 12:00:00 AM,No,"3 years parts, 1 year labor (Free)",Delivered,Sam's Club #8265 11/2-11/12/17 (TX),,,101792,,TX,,
11/11/2017 6:21:49 AM,Bruce McClelland,TX,77632,Legacy for Sam's,DWA-9100DWA-9100GD-DEMO,Demo Gold,Demo,,,,,3985.89,3599.00,386.89,Keith Kei,,0.00,,TC# 0841174245040398575732,,,,,,,,,,,,,,,,,,,,,11/17/2017 12:00:00 AM,No,"3 years parts, 1 year labor (Free)",Delivered,Sam's Club #8265 11/2-11/12/17 (TX),,"Invoice number 11
Paid in full through Sam's club",101793,,TX,,
11/11/2017 6:11:22 PM,Amrik Khinda,LA,70605,Legacy for Sam's,DWA-9100DWA-9100BL,Black,New,,,,,4761.14,4299.00,462.14,Keith Kei,,0.00,,TC# 5173940001352982723641,,,,,,,,,,,,,,,,,,,,,11/16/2017 12:00:00 AM,No,"3 years parts, 1 year labor (Free)",Delivered,Sam's Club #8265 11/2-11/12/17 (TX),,"Invoice # 12
Customer paid in full through Sam's Club.
Please note the customer have tax exemption iD: EIN 27-0963247
Sam's Club member #: 10159110523637924.",101801,Please fix the tax on this order.,TX,,
11/12/2017 1:16:17 PM,Tammy Brafa,LA,71446,Legacy for Sam's,DWA-9100DWA-9100CH-DEMO,Demo Choco,Demo,,,,,7971.79,7198.00,773.79,Keith Kei,,0.00,,TC# 7632572427104576975820,,,,,,,,,,,,,,,,,,,,,11/21/2017 12:00:00 AM,No,"3 years parts, 1 year labor (Free)",Delivered,Sam's Club #8265 11/2-11/12/17 (TX),,"Invoice # 13 & 14
Customer paid in full through Sam's Club.
This order is for 2 chairs.
Second floor delivery included.",101820,Please give new.,TX,,
11/12/2017 2:55:25 PM,Raissa Cecchini,LA,70605,Legacy for Sam's,DWA-9100DWA-9100CH-DEMO,Demo Choco,Demo,,,,,7528.79,6798.00,730.79,Keith Kei,,0.00,,TC# 6754831314515762868443,,,,,,,,,,,,,,,,,,,,,11/16/2017 12:00:00 AM,No,"3 years parts, 1 year labor (Free)",Delivered,Sam's Club #8265 11/2-11/12/17 (TX),,"Invoice # 15 & 16
Paid in full through Sam's club
Please note this is order for 2 chairs.
Please give an extra legacy dwa-9100  brochure  when delivering.",101825,Please give new,TX,,
11/12/2017 2:55:25 PM,Raissa Cecchini,LA,70605,Relax2Zero 2.0 for Sam's,USJ-9050USJ-9050BL-DEMO,Demo Black,Demo,,,,,7528.79,6798.00,730.79,Keith Kei,,0.00,,TC# 6754831314515762868443,,,,,,,,,,,,,,,,,,,,,11/16/2017 12:00:00 AM,No,"3 years parts, 1 year labor (Free)",Delivered,Sam's Club #8265 11/2-11/12/17 (TX),,"Invoice # 15 & 16
Paid in full through Sam's club
Please note this is order for 2 chairs.
Please give an extra legacy dwa-9100  brochure  when delivering.",101825,Please give new,TX,,
