﻿Original Event Name,Event Name,Sales Person,Order Number,Order Date,Customer Name,State,Zip,Product Name,Color,Product Status,QTY,Tax,Total Before Tax,Order Total,Primary Payment Method,Second Payment Method,Thirdl Payment Method,Warranty,Order Items,Pick up,Delivered On,Order Status,Chair Type,Order Notes,Private Note,Branch,No Tax,Actual Tax Rate,SKU,Primary Payment Balance,Primary Authorize Number,Primary Purchase Order Number,Primary Synchrony Account Number,Primary Synchrony Application Key,Primary Synchrony Account Info,Primary Synchrony Term,Second Payment Balance,Second Authorize Number,Second Purchase Order Number,Second Synchrony Account Number,Second Synchrony Application Key,Second Synchrony Account Info,Second SynchronyTerm,Third Payment Balance,Third Authorize Number,Third Purchase Order Number,Third Synchrony Account Number,Third Synchrony Application Key,Third Synchrony Account Info,Third Synchrony Term
WINTER FEST OC 12/20/18-1/6/19 COSTA MESA (CA),WINTER FEST OC 12/20/18-1/6/19 COSTA MESA (CA),May Kam,113679,12/24/2018 9:22:26 AM,Mr & Mrs Dennis Sta Maria,CA,95023,Relax2Zero 3D,Demo Black,Demo,1,0.00,4200.00,4200.00,CreditCard,,,"5 years parts, 1 year labor (Free)","Tourmaline Pad for Relax2Zero 3D,Relax2Zero 3D,",No,,Scheduled,,"Special discount for One time payment , manager approval","Confirmed $4,200 in Square. 12/24/18 Hitomi",CA,1,7.75,DWA-9060USJ-9060BL-DEMO,4200.00,Receipt #0ixL,,,,,,0.00,,,,,,,0.00,,,,,,
WINTER FEST OC 12/20/18-1/6/19 COSTA MESA (CA),WINTER FEST OC 12/20/18-1/6/19 COSTA MESA (CA),May Kam,113691,12/24/2018 11:14:45 AM,Mr John Lowcher,CA,92672,Relax2Zero 3D,Demo Black,Demo,1,0.00,4200.00,4200.00,Synchrony,,,"5 years parts, 1 year labor (Free)","Relax2Zero 3D,",No,12/31/2018 12:00:00 AM,Delivered,Demo,"Pls make finance $4200 purchase, thanks","Confirmed SYNC($8,500) and original. ***Please charge $4,200 before delivery and sales draft signed.***12/24/18 Hitomi
1/3Delivery confirmation received. Still waiting on sales draft.",CA,1,7.75,DWA-9060USJ-9060BL-DEMO,4200.00,,,6019170813310387,98934562,Las Vegas,36 months,0.00,,,,,,,0.00,,,,,,
WINTER FEST OC 12/20/18-1/6/19 COSTA MESA (CA),WINTER FEST OC 12/20/18-1/6/19 COSTA MESA (CA),Masa Otani,113721,12/26/2018 9:47:29 PM,Bowen Song,CA,92675,Relax2Zero 3D,New Black,New,1,0.00,4900.00,4900.00,CreditCard,,,"3 years parts, 1 year labor (Free)","Relax2Zero 3D,",No,12/31/2018 12:00:00 AM,Delivered,New,,12/27Maritza- Payment cleared through square.,CA,1,7.75,DWA-9060USJ-9060BL,4900.00,An0i,,,,,,0.00,,,,,,,0.00,,,,,,
WINTER FEST OC 12/20/18-1/6/19 COSTA MESA (CA),WINTER FEST OC 12/20/18-1/6/19 COSTA MESA (CA),Masahiro Muku,113731,12/27/2018 5:40:32 PM,Karen Aanderud,CA,90630,Relax2Zero 3D,New Black,New,1,0.00,4900.00,4900.00,CreditCard,,,"5 years parts, 1 year labor (Free)","Relax2Zero 3D,",No,1/4/2019 12:00:00 AM,Delivered,New,,"12/28Maritza- Confirmed 4900 on square.
**This is sold over the phone, please get customer's signature on the original receipt.** 1/7/2019 Riho
1/8Received Delivery confirmation. Will try to stop by and collect signature on original.",CA,1,7.75,DWA-9060USJ-9060BL,4900.00,#nzbK,,,,,,0.00,,,,,,,0.00,,,,,,
WINTER FEST OC 12/20/18-1/6/19 COSTA MESA (CA),WINTER FEST OC 12/20/18-1/6/19 COSTA MESA (CA),May Kam,113741,12/28/2018 7:31:24 AM,Mrs Lucia Sayas,CA,91605,Relax2Zero 3D,Demo Black,Demo,1,0.00,4500.00,4500.00,Synchrony,,,"5 years parts, 1 year labor (Free)","Tourmaline Pad for Legacy,Relax2Zero 3D,",No,,Called,,"For Account no , The customer will get card about Jan 5,2019 from Bank , Approved $5500 under Cristina help.","Cristina: Could u pls Help change Synchrony Bank application address from  vanowen   st to Wixom St, thank u so much for your time !
//Confirmed SYNC($5,500) and original. ***Please charge $4,500 before delivery and sales draft signed.*** 12/28/18 Hitomi",CA,1,7.75,DWA-9060USJ-9060BL-DEMO,4500.00,,,6019170813311880,98948508,Las Vegas,36 months,0.00,,,,,,,0.00,,,,,,
WINTER FEST OC 12/20/18-1/6/19 COSTA MESA (CA),WINTER FEST OC 12/20/18-1/6/19 COSTA MESA (CA),Ruben Cuatrona,113749,12/28/2018 2:12:13 PM,Vilma Roman,CA,92821,PEGASUS 2 SMART,New Choco,New,1,0.00,6000.00,6000.00,Synchrony,,,"5 years parts, 2 years labor ($200)","PEGASUS 2 SMART,",No,1/2/2019 12:00:00 AM,Delivered,New,Financed - 48 months. Free delivery,"Confirmed SYNC($6,600) and original. ***Please charge $6,000 before delivery and sales draft signed.***12/28/18 Hitomi
1/3Delivery confirmation received including sales draft",CA,1,7.75,PEGS-2PEGS-2-BR,6000.00,,,6019170813308092,98878105,San Diego,48 months,0.00,,,,,,,0.00,,,,,,
WINTER FEST OC 12/20/18-1/6/19 COSTA MESA (CA),WINTER FEST OC 12/20/18-1/6/19 COSTA MESA (CA),Ruben Cuatrona,113750,12/28/2018 2:30:04 PM,Larry Williams,NJ,08501,Relax2Zero 3D,New Black,New,1,0.00,4900.00,4900.00,PurchaseOrder,,,"5 years parts, 2 years labor ($200)","Relax2Zero 3D,",No,,Scheduled,,Free delivery,"#6CM9
//Confirmed $4,900.00 in Square. 12/28/18 Hitomi
scheduled to 1/7/2018. 12/31/2018 June",TX,1,7.75,DWA-9060USJ-9060BL,4900.00,,#6CM9,,,,,0.00,,,,,,,0.00,,,,,,
WINTER FEST OC 12/20/18-1/6/19 COSTA MESA (CA),WINTER FEST OC 12/20/18-1/6/19 COSTA MESA (CA),Ruben Cuatrona,113751,12/28/2018 2:39:26 PM,Patti Pollack,CA,95070,PEGASUS 2 SMART,New Choco,New,1,0.00,5000.00,5000.00,PurchaseOrder,,,"5 years parts, 2 years labor ($200)","PEGASUS 2 SMART,",No,,Scheduled,,Free delivery (part of a 2 unit order),"#n1h9
//Confirmed $5,000 in Square. 12/28/18 Hitomi",CA,1,7.75,PEGS-2PEGS-2-BR,5000.00,,#n1h9,,,,,0.00,,,,,,,0.00,,,,,,
WINTER FEST OC 12/20/18-1/6/19 COSTA MESA (CA),WINTER FEST OC 12/20/18-1/6/19 COSTA MESA (CA),Ruben Cuatrona,113752,12/28/2018 2:44:55 PM,Sherri Pollack,CA,95070,PEGASUS 2 SMART,New Choco,New,1,0.00,5000.00,5000.00,PurchaseOrder,,,"5 years parts, 2 years labor ($200)","PEGASUS 2 SMART,",No,,Scheduled,,Free delivery (Part of a 2 unit order),"#zz09
Confirmed $5,000 w/Receipt #zzoa in Square. 12/28/18 Hitomi",CA,1,7.75,PEGS-2PEGS-2-BR,5000.00,,Receipt #zzoa,,,,,0.00,,,,,,,0.00,,,,,,
WINTER FEST OC 12/20/18-1/6/19 COSTA MESA (CA),WINTER FEST OC 12/20/18-1/6/19 COSTA MESA (CA),Masahiro Muku,113759,12/28/2018 8:36:13 PM,Jasmine Truong,CA,92704,Legacy 3D,Demo Black,Demo,1,0.00,4200.00,4200.00,Cash,,,"5 years parts, 1 year labor (Free)","Legacy 3D,",No,,Scheduled,,,"Demo Box
Will confirm cash and chair condition . -- 12/31/2018 Asumi
//Muku is holding $4,200. He will bring cash on 1/2/19. Chair condition will be NEW (confirmed w/muku)- 12/31/18 @2;30 PM Hitomi
//Masa provided $4,200 cash to Yumi. Yumi provided cash to Pre.Michael. received Michael signature -- 1/2/19 Hitomi",CA,1,7.75,DWA-9150USJ-9150BL-DEMO,4200.00,,,,,,,0.00,,,,,,,0.00,,,,,,
WINTER FEST OC 12/20/18-1/6/19 COSTA MESA (CA),WINTER FEST OC 12/20/18-1/6/19 COSTA MESA (CA),Masahiro Muku,113765,12/29/2018 12:13:02 PM,Dexter Phillip,MD,20746,PEGASUS 2 SMART,New Black,New,1,0.00,6900.00,6900.00,Synchrony,,,"5 years parts, 1 year labor (Free)","PEGASUS 2 SMART,",No,,Scheduled,,,"Confirmed synchlony approved $8,300. Need to confirm original. ---12/31/2018  Asumi
//Confirmed originals. ***Please charge $6,900 before delivery and sales draft signed. *** 12/31/18 @2:56 Hitomi
1/2Maritza Courtesy message sent @ 12:12PM",TX,1,7.75,PEGS-2PEGS-2-BL,6900.00,,,6019170813315402,99092279,San Diego,36 months,0.00,,,,,,,0.00,,,,,,
WINTER FEST OC 12/20/18-1/6/19 COSTA MESA (CA),WINTER FEST OC 12/20/18-1/6/19 COSTA MESA (CA),Joseph Chan,113789,12/30/2018 10:34:43 PM,Michael Gerro,CA,92657,PEGASUS 2 SMART,New Choco,New,1,0.00,6200.00,6200.00,CreditCard,,,"3 years parts, 1 year labor (Free)","PEGASUS 2 SMART,",No,,Scheduled,,,12/31Maritza Confirmed 6200 on square,CA,1,7.75,PEGS-2PEGS-2-BR,6200.00,#qVHn,,,,,,0.00,,,,,,,0.00,,,,,,
WINTER FEST OC 12/20/18-1/6/19 COSTA MESA (CA),WINTER FEST OC 12/20/18-1/6/19 COSTA MESA (CA),May Kam,113998,1/7/2019 5:25:42 PM,Mrs Marie De Guzman,CA,91304,Legacy 3D,Demo Black,Demo,1,0.00,3900.00,3900.00,Synchrony,,,"5 years parts, 1 year labor (Free)","Legacy 3D,",No,,Called,,"Pls make finance $3900 purchase, thanks",Confirmed synchrony approved $8500 and original application form and invoice. Please charge $3900 before delivery and have sales draft signed.--- 1/8/19 Asumi,CA,1,7.75,DWA-9150USJ-9150BL-DEMO,3900.00,,,6019170813328660,99447023,San Diego,36 months,0.00,,,,,,,0.00,,,,,,
