﻿Date,CustomerName,State,Zipcode,Description,productNo,Color,IsDemo,Net,ShippingFee,GiftPrice,FinancingProcessingFee,Gross,Pre_tax,Tax,Commission,Primary Payment Method,Primary Payment Balance,Primary Authorize Number,Primary Purchase Order Number,Primary Synchrony Account Number,Primary Synchrony Application Key,Primary Synchrony AccountInfo,Primary SynchronyTerm,Secondly Payment Method,Secondly Payment Balance,Secondly Authorize Number,Secondly Purchase Order Number,Secondly Synchrony Account Number,Secondly Synchrony Application Key,Secondly Synchrony AccountInfo,Secondly SynchronyTerm,Thirdly Payment Method,Thirdly Payment Balance,Thirdly Authorize Number,Thirdly Purchase Order Number,Thirdly Synchrony Account Number,Thirdly Synchrony Application Key,Thirdly Synchrony AccountInfo,Thirdly SynchronyTerm,DeliveryDate,Ispickup,Warranty,Status,Event Name,Synchrony Notes,Order Notes,Order number,Private Note,Branch,IsNoTax,ActualTaxRate
5/1/2018 12:03:06 AM,Sophia Lu,CA,95014,Relax2Zero 3D,DWA-9060USJ-9060BR,New Choco,New,,,,,3300.00,3300.00,0.00,May Kam,Cash,100.00,,,,,,,COD,3200.00,,,,,,,,0.00,,,,,,,,No,"3 years parts, 2 years labor ($200)",Scheduled,Mitsuwa San Jose 4/20-29/18 (CA),,"Special discount from #110054 referral 
President approval",105701,5/1Maritza Need to receive 100 from May. COD of 3200 upon delivery.,CA,1,8.75
5/1/2018 12:03:06 AM,Sophia Lu,CA,95014,Tourmaline Pad for Relax2Zero 3D,,,New,,,,,3300.00,3300.00,0.00,May Kam,Cash,100.00,,,,,,,COD,3200.00,,,,,,,,0.00,,,,,,,,No,no warranty,Scheduled,Mitsuwa San Jose 4/20-29/18 (CA),,"Special discount from #110054 referral 
President approval",105701,5/1Maritza Need to receive 100 from May. COD of 3200 upon delivery.,CA,1,8.75
5/1/2018 8:09:46 PM,Jing Yang,CA,95136,Legacy 3D,DWA-9150USJ-9150CH,New Choco,New,,,,,4050.00,4050.00,0.00,May Kam,CreditCard,100.00,#2bD8,,,,,,COD,3950.00,,,,,,,,0.00,,,,,,,,No,"3 years parts, 1 year labor (Free)",Called,Mitsuwa San Jose 4/20-29/18 (CA),,"Need return Costco chair first, COD $3950",105713,"Confirmed $100.00 in Square, 5/2/18 Hitomi COD3950",CA,1,8.75
5/1/2018 8:09:46 PM,Jing Yang,CA,95136,Daiwa Blanket,,,New,,,,,4050.00,4050.00,0.00,May Kam,CreditCard,100.00,#2bD8,,,,,,COD,3950.00,,,,,,,,0.00,,,,,,,,No,no warranty,Called,Mitsuwa San Jose 4/20-29/18 (CA),,"Need return Costco chair first, COD $3950",105713,"Confirmed $100.00 in Square, 5/2/18 Hitomi COD3950",CA,1,8.75
5/1/2018 8:09:46 PM,Jing Yang,CA,95136,Tourmaline Pad for Legacy 3D,,,New,,,,,4050.00,4050.00,0.00,May Kam,CreditCard,100.00,#2bD8,,,,,,COD,3950.00,,,,,,,,0.00,,,,,,,,No,no warranty,Called,Mitsuwa San Jose 4/20-29/18 (CA),,"Need return Costco chair first, COD $3950",105713,"Confirmed $100.00 in Square, 5/2/18 Hitomi COD3950",CA,1,8.75
5/1/2018 10:20:25 PM,Herman Waltar Armyo,CA,95076,Legacy 3D,DWA-9150USJ-9150CH,New Choco,New,,,,,4050.00,4050.00,0.00,May Kam,CreditCard,100.00,#PGPV,,,,,,COD,3950.00,,,,,,,,0.00,,,,,,,,No,"3 years parts, 2 years labor ($200)",Scheduled,Mitsuwa San Jose 4/20-29/18 (CA),,Need return Costco chair first. COD $3950,105714,Confirmed $100.00 in Square 5/2/18 Hitomi COD3950,CA,1,8.75
5/1/2018 10:20:25 PM,Herman Waltar Armyo,CA,95076,Daiwa Blanket,,,New,,,,,4050.00,4050.00,0.00,May Kam,CreditCard,100.00,#PGPV,,,,,,COD,3950.00,,,,,,,,0.00,,,,,,,,No,no warranty,Scheduled,Mitsuwa San Jose 4/20-29/18 (CA),,Need return Costco chair first. COD $3950,105714,Confirmed $100.00 in Square 5/2/18 Hitomi COD3950,CA,1,8.75
5/1/2018 10:20:25 PM,Herman Waltar Armyo,CA,95076,Tourmaline Pad for Legacy 3D,,,New,,,,,4050.00,4050.00,0.00,May Kam,CreditCard,100.00,#PGPV,,,,,,COD,3950.00,,,,,,,,0.00,,,,,,,,No,no warranty,Scheduled,Mitsuwa San Jose 4/20-29/18 (CA),,Need return Costco chair first. COD $3950,105714,Confirmed $100.00 in Square 5/2/18 Hitomi COD3950,CA,1,8.75
5/1/2018 11:56:10 PM,Alana Sunzeri,CA,95135,Legacy,DWA-9100DWA-9100BU-DEMO,Demo Choco,Demo,,,,,3450.00,3450.00,0.00,May Kam,Synchrony,3450.00,,,6034610083059652,83965697,Las Vegas,36 months,,0.00,,,,,,,,0.00,,,,,,,,No,"3 years parts, 1 year labor (Free)",Scheduled,Mitsuwa San Jose 4/20-29/18 (CA),Authorization # 004365,"Financial Approved #002715 , since it is the Customer 2nd Chair,Mrs Alana had A/C already. Pls arrange delivery ASAP. Thanks",105715,"Correct account is under LAS VEGAS.(applied for order#103176).refunded through Houston ***Please  recharge $3,450.00 through Las Vegas login before delivery and have sale draft signed.*** 5/2/18 Hitomi
5/4Maritza- Available funds already charged Synchrony",CA,1,8.75
5/1/2018 11:56:10 PM,Alana Sunzeri,CA,95135,Daiwa Blanket,,,New,,,,,3450.00,3450.00,0.00,May Kam,Synchrony,3450.00,,,6034610083059652,83965697,Las Vegas,36 months,,0.00,,,,,,,,0.00,,,,,,,,No,no warranty,Scheduled,Mitsuwa San Jose 4/20-29/18 (CA),Authorization # 004365,"Financial Approved #002715 , since it is the Customer 2nd Chair,Mrs Alana had A/C already. Pls arrange delivery ASAP. Thanks",105715,"Correct account is under LAS VEGAS.(applied for order#103176).refunded through Houston ***Please  recharge $3,450.00 through Las Vegas login before delivery and have sale draft signed.*** 5/2/18 Hitomi
5/4Maritza- Available funds already charged Synchrony",CA,1,8.75
5/1/2018 11:56:10 PM,Alana Sunzeri,CA,95135,Tourmaline Pad for Legacy,,,New,,,,,3450.00,3450.00,0.00,May Kam,Synchrony,3450.00,,,6034610083059652,83965697,Las Vegas,36 months,,0.00,,,,,,,,0.00,,,,,,,,No,no warranty,Scheduled,Mitsuwa San Jose 4/20-29/18 (CA),Authorization # 004365,"Financial Approved #002715 , since it is the Customer 2nd Chair,Mrs Alana had A/C already. Pls arrange delivery ASAP. Thanks",105715,"Correct account is under LAS VEGAS.(applied for order#103176).refunded through Houston ***Please  recharge $3,450.00 through Las Vegas login before delivery and have sale draft signed.*** 5/2/18 Hitomi
5/4Maritza- Available funds already charged Synchrony",CA,1,8.75
5/3/2018 10:14:12 AM,Thai Chau Le,CA,95121,Pegasus,DWA-9400Pegasus-BR,New Choco,New,,,,,5700.00,5700.00,0.00,May Kam,Synchrony,5700.00,,,,88340130,Huston,36 months,,0.00,,,,,,,,0.00,,,,,,,,No,"3 years parts, 1 year labor (Free)",Cancelled,Mitsuwa San Jose 4/20-29/18 (CA),,"Special service request : When we deliver Pegasus , pls move the Customer 1st chair ( DWA 9060 ) to her Mom home , same street address- 1062 Glenfinnan Dr San Jose CA 95122) Thank you so much for extra help.",105731,Financial Approval #003607,Not Dispatched,1,8.75
5/3/2018 10:16:43 AM,Thai Chau Le,CA,95121,Pegasus,DWA-9400Pegasus-BR,New Choco,New,,,,,5700.00,5700.00,0.00,May Kam,Synchrony,0.00,,,6034610083250038,88340130,Huston,36 months,,0.00,,,,,,,,0.00,,,,,,,,No,"3 years parts, 1 year labor (Free)",Scheduled,Mitsuwa San Jose 4/20-29/18 (CA),,"Per May, Please deliver customers DWA-9060 to her mother's home after her New DAW-9400is delivered.

Mother's Home Address: 

1062 Glenfinnan Dr, San Jose, CA 95122
Please have Synchrony Sale's Draft Signed.",105732,Authorization#:003607,CA,1,8.75
5/7/2018 6:32:28 PM,Yeh Shen,CA,91765,Legacy 3D,DWA-9150USJ-9150CH,New Choco,New,,,,,4350.00,4350.00,0.00,May Kam,CreditCard,200.00,#5Dou,,,,,,COD,4150.00,,,,,,,,0.00,,,,,,,,No,"3 years parts, 1 year labor (Free)",Called,Mitsuwa San Jose 4/20-29/18 (CA),,"COD $4150, special discount , Manager approval",105918,5/8Maritza Confirmed 200 through Square. COD $4150,CA,1,8.75
5/7/2018 6:32:28 PM,Yeh Shen,CA,91765,Daiwa Blanket,,,New,,,,,4350.00,4350.00,0.00,May Kam,CreditCard,200.00,#5Dou,,,,,,COD,4150.00,,,,,,,,0.00,,,,,,,,No,no warranty,Called,Mitsuwa San Jose 4/20-29/18 (CA),,"COD $4150, special discount , Manager approval",105918,5/8Maritza Confirmed 200 through Square. COD $4150,CA,1,8.75
