﻿Order Number,Order Date,Event Name,Salesperson,SKU,Product Name,Color,QTY,Warranty,Payment Details,Tax,Order Total,Gross,Primary Payment Method,Primary Payment Balance,Primary Authorize Number,Primary Purchase Order Number,Primary Synchrony Account Number,Primary Synchrony Application Key,Primary Synchrony AccountInfo,Primary SynchronyTerm,Secondly Payment Method,Secondly Payment Balance,Secondly Authorize Number,Secondly Purchase Order Number,Secondly Synchrony Account Number,Secondly Synchrony Application Key,Secondly Synchrony AccountInfo,Secondly SynchronyTerm,Thirdly Payment Method,Thirdly Payment Balance,Thirdly Authorize Number,Thirdly Purchase Order Number,Thirdly Synchrony Account Number,Thirdly Synchrony Application Key,Thirdly Synchrony AccountInfo,Thirdly SynchronyTerm,Actual Shipping Cost,CustomerName,Shipping Address,Delivered On,Serial Number (TO Be),Note,Branch,IsNoTax,ActualTaxRate
105338,4/16/2018 10:40:19 PM,Washington State Spring Fair 4/19-22/18 (WA),May Kam,DWA-9100DWA-9100BL,Legacy,New Black,1,"3 years parts, 1 year labor (Free)",CUSTOM COD,0.00,3900.00,3900.00,Cash,200.00,,,,,,,COD,3700.00,,,,,,,,0.00,,,,,,,0.00,Allen Fong,2066959388,,,"Special discount for one time payment
Balance $3700",Not Dispatched,1,9.90
105338,4/16/2018 10:40:19 PM,Washington State Spring Fair 4/19-22/18 (WA),May Kam,,Daiwa Blanket,,1,no warranty,CUSTOM COD,0.00,3900.00,3900.00,Cash,200.00,,,,,,,COD,3700.00,,,,,,,,0.00,,,,,,,0.00,Allen Fong,2066959388,,,"Special discount for one time payment
Balance $3700",Not Dispatched,1,9.90
105457,4/23/2018 7:08:19 AM,Washington State Spring Fair 4/19-22/18 (WA),Jason Liu,DWA-9400Pegasus-BR-DEMO,Pegasus,Demo Choco,1,"3 years parts, 1 year labor (Free)",CUSTOM ,0.00,5394.90,5394.90,Synchrony,5394.90,,,6034610083228869,87892684,Las Vegas,36 months,,0.00,,,,,,,,0.00,,,,,,,0.00,Duncan Stone,360 249 5565,,,,WA,1,9.90
105458,4/23/2018 7:15:01 AM,Washington State Spring Fair 4/19-22/18 (WA),Scott Ishikawa,USJ-9050USJ-9050BL-DEMO,Relax2Zero 2.0,Demo Black,1,"3 years parts, 1 year labor (Free)",CUSTOM ,0.00,3518.00,3518.00,Synchrony,3518.00,,,6034610083227457,87861455,Las Vegas,36 months,,0.00,,,,,,,,0.00,,,,,,,0.00,Vinicio Andino,253 302 3444,,,,WA,1,9.90
105459,4/23/2018 7:22:44 AM,Washington State Spring Fair 4/19-22/18 (WA),Scott Ishikawa,DWA-9100DWA-9100GD-DEMO,Legacy,Demo Gold,1,"3 years parts, 1 year labor (Free)",CUSTOM Synchrony,0.00,3199.00,3199.00,CreditCard,1000.00,Receipt #1EO7,,,,,,Synchrony,2199.00,,,6034610083232788,87943280,Las Vegas,12 months,,0.00,,,,,,,0.00,Fai Mathews,206 722 4795,,,,WA,1,9.90
105460,4/23/2018 7:27:54 AM,Washington State Spring Fair 4/19-22/18 (WA),Scott Ishikawa,DWA-9150USJ-9150BL-DEMO,Legacy 3D,Demo Black,1,"3 years parts, 1 year labor (Free)",CUSTOM ,0.00,3900.00,3900.00,CreditCard,3900.00,Sq #4nfN,,,,,,,0.00,,,,,,,,0.00,,,,,,,0.00,John Stewart,253 474 0674,,,,Not Dispatched,1,9.90
105461,4/23/2018 7:33:13 AM,Washington State Spring Fair 4/19-22/18 (WA),Scott Ishikawa,DWA-9150USJ-9150CH-DEMO,Legacy 3D,Demo Choco,1,"3 years parts, 1 year labor (Free)",CUSTOM ,0.00,4290.00,4290.00,Synchrony,4290.00,,,6034610083232499,87940996,Las Vegas,36 months,,0.00,,,,,,,,0.00,,,,,,,0.00,Andrew Sanchez,719 237 8577,,,,WA,1,9.90
105483,4/23/2018 5:43:35 PM,Washington State Spring Fair 4/19-22/18 (WA),Scott Ishikawa,DWA-9060USJ-9060BR-DEMO,Relax2Zero 3D,Demo Choco,1,"3 years parts, 1 year labor (Free)",CUSTOM ,0.00,3800.00,3800.00,Synchrony,3800.00,,,6034610083233232,87948576,Las Vegas,36 months,,0.00,,,,,,,,0.00,,,,,,,,Nicole Howard,253 380 3697,,,,Not Dispatched,1,9.90
105484,4/23/2018 5:52:20 PM,Washington State Spring Fair 4/19-22/18 (WA),Scott Ishikawa,USJ-9050USJ-9050BR,Relax2Zero 2.0,New Brown,1,"3 years parts, 1 year labor (Free)",CUSTOM Synchrony,0.00,3800.00,3800.00,CreditCard,1400.00,Sq #4rDA,,,,,,Synchrony,2400.00,,,6034610083232168,87937792,Las Vegas,36 months,,0.00,,,,,,,0.00,Golina Muhomit,206 304 9686,,,,WA,1,9.90
105485,4/23/2018 5:57:22 PM,Washington State Spring Fair 4/19-22/18 (WA),Scott Ishikawa,DWA-9150USJ-9150BL,Legacy 3D,New Black,1,"3 years parts, 1 year labor (Free)",CUSTOM ,0.00,4800.00,4800.00,Synchrony,4800.00,,,6034610083232341,87939179,Las Vegas,36 months,,0.00,,,,,,,,0.00,,,,,,,0.00,Robert Misenar,253 826 1774,,,,WA,1,9.90
105486,4/23/2018 6:12:10 PM,Washington State Spring Fair 4/19-22/18 (WA),Scott Ishikawa,DWA-9150USJ-9150BL,Legacy 3D,New Black,1,"3 years parts, 1 year labor (Free)",CUSTOM ,0.00,4293.90,4293.90,CreditCard,4293.90,Sq #cOJT,,,,,,,0.00,,,,,,,,0.00,,,,,,,0.00,Hee sum sue Roy,253 446 7170,,,,WA,1,9.90
105487,4/23/2018 6:22:33 PM,Washington State Spring Fair 4/19-22/18 (WA),Scott Ishikawa,DWA-9150USJ-9150CH,Legacy 3D,New Choco,1,"3 years parts, 1 year labor (Free)",CUSTOM ,0.00,4290.00,4290.00,Synchrony,4290.00,,,6034610083230915,87918430,Las Vegas,36 months,,0.00,,,,,,,,0.00,,,,,,,0.00,Carlos Quintanilla,253 414 3176,,,,WA,1,9.90
