﻿Order Number,Order Date,Original Event Name,Event Name,Salesperson,SKU,Product Name,Color,QTY,Warranty,Payment Details,Tax,Order Total,Gross,Primary Payment Method,Primary Payment Balance,Primary Authorize Number,Primary Purchase Order Number,Primary Synchrony Account Number,Primary Synchrony Application Key,Primary Synchrony AccountInfo,Primary SynchronyTerm,Secondly Payment Method,Secondly Payment Balance,Secondly Authorize Number,Secondly Purchase Order Number,Secondly Synchrony Account Number,Secondly Synchrony Application Key,Secondly Synchrony AccountInfo,Secondly SynchronyTerm,Thirdly Payment Method,Thirdly Payment Balance,Thirdly Authorize Number,Thirdly Purchase Order Number,Thirdly Synchrony Account Number,Thirdly Synchrony Application Key,Thirdly Synchrony AccountInfo,Thirdly SynchronyTerm,Actual Shipping Cost,CustomerName,Shipping Address,Delivered On,Serial Number (TO Be),Note,Branch,IsNoTax,ActualTaxRate
103049,1/17/2018 12:10:14 PM,HALLOWEEN & PARTY #2007 1/12-25/18 (TX),HALLOWEEN & PARTY #2007 1/12-25/18 (TX),Xiongxiaojun Ji,DWA-9150USJ-9150CH,Legacy 3D,Choco Brown,1,"3 years parts, 1 year labor (Free)",CUSTOM ,0.00,4876.00,4876.00,Synchrony,4876.00,,,6034610083046436,83667573,Huston,36 months,,0.00,,,,,,,,0.00,,,,,,,0.00,Deborah Stephenson Haire,334-303-7063,1/25/2018 12:00:00 AM,,,FL,1,10.00
103051,1/17/2018 12:36:20 PM,HALLOWEEN & PARTY #2007 1/12-25/18 (TX),HALLOWEEN & PARTY #2007 1/12-25/18 (TX),Xiongxiaojun Ji,DWA-9150USJ-9150BL,Legacy 3D,Black,1,"3 years parts, 1 year labor (Free)",CUSTOM Synchrony,361.90,4730.90,4730.90,CreditCard,1730.00,#4POs,,,,,,Synchrony,3000.00,,,6034610083049828,83725048,Huston,12 months,,0.00,,,,,,,0.00,Scott Ari Reltord,843-458-3367,1/30/2018 12:00:00 AM,,,FL,0,10.00
103052,1/17/2018 12:43:54 PM,HALLOWEEN & PARTY #2007 1/12-25/18 (TX),HALLOWEEN & PARTY #2007 1/12-25/18 (TX),Keith Kei,DWA-9150USJ-9150BL,Legacy 3D,Black,1,"3 years parts, 1 year labor (Free)",CUSTOM ,0.00,3500.00,3500.00,Cash,3500.00,,,,,,,,0.00,,,,,,,,0.00,,,,,,,0.00,Edgar Sellers,985-677-9237,1/25/2018 12:00:00 AM,,,TX,1,10.00
