﻿Date,CustomerName,State,Zipcode,Description,productNo,Color,IsDemo,Net,ShippingFee,GiftPrice,FinancingProcessingFee,Gross,Pre_tax,Tax,Commission,Primary Payment Method,Primary Payment Balance,Primary Authorize Number,Primary Purchase Order Number,Primary Synchrony Account Number,Primary Synchrony Application Key,Primary Synchrony AccountInfo,Primary SynchronyTerm,Secondly Payment Method,Secondly Payment Balance,Secondly Authorize Number,Secondly Purchase Order Number,Secondly Synchrony Account Number,Secondly Synchrony Application Key,Secondly Synchrony AccountInfo,Secondly SynchronyTerm,Thirdly Payment Method,Thirdly Payment Balance,Thirdly Authorize Number,Thirdly Purchase Order Number,Thirdly Synchrony Account Number,Thirdly Synchrony Application Key,Thirdly Synchrony AccountInfo,Thirdly SynchronyTerm,DeliveryDate,Ispickup,Warranty,Status,Event Name,Synchrony Notes,Order Notes,Order number,Private Note,Branch,IsNoTax,ActualTaxRate
3/12/2018 8:11:20 PM,Kashyap Patel,GA,30458,Legacy for Sam's,DWA-9100DWA-9100CH,New Choco,New,,,,,3599.00,3599.00,0.00,Hiroko Hudson,PurchaseOrder,0.00,,8477339020515515751631,,,,,,0.00,,,,,,,,0.00,,,,,,,,No,"3 years parts, 1 year labor (Free)",Scheduled,"Sam's Club #4820 Pooler, GA 3/8-18/18 (FL)",,,104477,"Second Floor
Preferred Saturday delivery",FL,1,7.00
3/12/2018 8:23:50 PM,Ramejh Patel,GA,31322,Legacy for Sam's,DWA-9100DWA-9100CH,New Choco,New,,,,,3850.93,3599.00,251.93,Hiroko Hudson,PurchaseOrder,0.00,,4599808931799754696275,,,,,,0.00,,,,,,,,0.00,,,,,,,,No,"3 years parts, 1 year labor (Free)",Scheduled,"Sam's Club #4820 Pooler, GA 3/8-18/18 (FL)",,,104478,First Floor,FL,0,7.00
3/12/2018 8:37:10 PM,Mike Davis,PA,18944,Shogun Neck & Back Massger,USJ-874USJ-874,New,New,,,,,213.98,199.98,14.00,Hiroko Hudson,PurchaseOrder,0.00,,932655344333300916870,,,,,,0.00,,,,,,,,0.00,,,,,,,,YES,"2 years parts, 1 year labor for Small Items",Delivered,"Sam's Club #4820 Pooler, GA 3/8-18/18 (FL)",,,104479,,FL,0,7.00
3/12/2018 8:48:02 PM,Elsie Winiarski,GA,31326,Shogun Neck & Back Massger,USJ-874USJ-874,New,New,,,,,213.98,199.98,14.00,Hiroko Hudson,PurchaseOrder,0.00,,152300486264266143536,,,,,,0.00,,,,,,,,0.00,,,,,,,,YES,"2 years parts, 1 year labor for Small Items",Delivered,"Sam's Club #4820 Pooler, GA 3/8-18/18 (FL)",,,104480,,FL,0,7.00
3/12/2018 8:53:52 PM,Matthew Roche,GA,31324,Vitality Plate for Sam's,USJ-849USJ-849,New,New,,,,,492.19,459.99,32.20,Hiroko Hudson,PurchaseOrder,0.00,,649739505533513798671,,,,,,0.00,,,,,,,,0.00,,,,,,,,YES,"2 years parts, 1 year labor for Small Items",Delivered,"Sam's Club #4820 Pooler, GA 3/8-18/18 (FL)",,,104481,,FL,0,7.00
3/18/2018 10:00:22 PM,Caralee Hudson,GA,31326,Relax2Zero 2.0 for Sam's,USJ-9050USJ-9050BE,New Beige,New,,,,,3422.93,3199.00,223.93,Hiroko Hudson,PurchaseOrder,0.00,,2070046151838892473049,,,,,,0.00,,,,,,,,0.00,,,,,,,,No,"3 years parts, 1 year labor (Free)",Assigned,"Sam's Club #4820 Pooler, GA 3/8-18/18 (FL)",,,104607,,FL,0,7.00
3/18/2018 10:13:59 PM,Mukesh B. Sheth,GA,31405,Legacy for Sam's,DWA-9100DWA-9100CH,New Choco,New,,,,,3599.00,3599.00,0.00,Hiroko Hudson,PurchaseOrder,0.00,,0841584695668678282177,,,,,,0.00,,,,,,,,0.00,,,,,,,,No,"3 years parts, 1 year labor (Free)",Assigned,"Sam's Club #4820 Pooler, GA 3/8-18/18 (FL)",,,104608,Second Floor,FL,1,7.00
3/18/2018 10:21:10 PM,Mukesh B. Sheth,GA,31405,Vitality Plate for Sam's,USJ-849USJ-849,New,New,,,,,399.99,399.99,0.00,Hiroko Hudson,PurchaseOrder,0.00,,0841584695668678282177,,,,,,0.00,,,,,,,,0.00,,,,,,,,YES,"2 years parts, 1 year labor for Small Items",Delivered,"Sam's Club #4820 Pooler, GA 3/8-18/18 (FL)",,,104609,,FL,1,7.00
3/20/2018 5:18:49 AM,Jack Butler,GA,31302,Legacy for Sam's,DWA-9100DWA-9100BG,New Beige,New,,,,,3850.93,3599.00,251.93,Hiroko Hudson,PurchaseOrder,0.00,,6358127414925936857493,,,,,,0.00,,,,,,,,0.00,,,,,,,,No,"3 years parts, 1 year labor (Free)",Called,"Sam's Club #4820 Pooler, GA 3/8-18/18 (FL)",,,104636,First Floor,FL,0,7.00
3/20/2018 5:36:06 AM,Sara Lopez Smith,GA,31324,Relax2Zero 2.0 for Sam's,USJ-9050USJ-9050BR,New Brown,New,,,,,3422.93,3199.00,223.93,Hiroko Hudson,PurchaseOrder,0.00,,6258157411995935858433,,,,,,0.00,,,,,,,,0.00,,,,,,,,No,"3 years parts, 1 year labor (Free)",Assigned,"Sam's Club #4820 Pooler, GA 3/8-18/18 (FL)",,,104637,3rd Floor (Apartment),FL,0,7.00
3/20/2018 5:44:24 AM,Sohil Vashi,GA,31407,Legacy for Sam's,DWA-9100DWA-9100GD,New Gold,New,,,,,3850.93,3599.00,251.93,Hiroko Hudson,PurchaseOrder,0.00,,7575443144110125505722,,,,,,0.00,,,,,,,,0.00,,,,,,,,No,"3 years parts, 1 year labor (Free)",Assigned,"Sam's Club #4820 Pooler, GA 3/8-18/18 (FL)",,,104638,"Second Floor
PLEASE ADD CHAIR PAD",FL,0,7.00
3/20/2018 5:52:26 AM,Sohil Vashi,GA,31407,Vitality Plate for Sam's,USJ-849USJ-849,New,New,,,,,427.99,399.99,28.00,Hiroko Hudson,PurchaseOrder,0.00,,7575443144110125505722,,,,,,0.00,,,,,,,,0.00,,,,,,,,YES,"2 years parts, 1 year labor for Small Items",Delivered,"Sam's Club #4820 Pooler, GA 3/8-18/18 (FL)",,,104639,,FL,0,7.00
3/20/2018 6:00:03 AM,Sara Lopez Smith,GA,31324,Vitality Plate for Sam's,USJ-849USJ-849,New,New,,,,,399.99,399.99,0.00,Hiroko Hudson,PurchaseOrder,0.00,,6258157411995935858433,,,,,,0.00,,6258157411995935858433,,,,,,0.00,,,,,,,,YES,"2 years parts, 1 year labor for Small Items",Delivered,"Sam's Club #4820 Pooler, GA 3/8-18/18 (FL)",,,104640,,FL,1,7.00
3/25/2018 8:36:37 AM,Mukesh Sheth,GA,31405,Vitality Plate for Sam's,USJ-849USJ-849,New,New,,,,,459.99,459.99,0.00,Hiroko Hudson,PurchaseOrder,0.00,,81966023363301911810,,,,,,0.00,,,,,,,,0.00,,,,,,,,YES,"2 years parts, 1 year labor for Small Items",Delivered,"Sam's Club #4820 Pooler, GA 3/8-18/18 (FL)",,,104727,,FL,1,7.00
3/25/2018 8:41:16 AM,Cregg Womack,GA,31419,Vitality Plate for Sam's,USJ-849USJ-849,New,New,,,,,427.99,399.99,28.00,Hiroko Hudson,PurchaseOrder,0.00,,558310787224264141586,,,,,,0.00,,,,,,,,0.00,,,,,,,,YES,"2 years parts, 1 year labor for Small Items",Delivered,"Sam's Club #4820 Pooler, GA 3/8-18/18 (FL)",,,104729,,FL,0,7.00
3/25/2018 8:47:03 AM,Kenneth Gibbons,GA,31408,Vitality Plate for Sam's,USJ-849USJ-849,New,New,,,,,492.19,459.99,32.20,Hiroko Hudson,PurchaseOrder,0.00,,279998136737759681265,,,,,,0.00,,,,,,,,0.00,,,,,,,,YES,"2 years parts, 1 year labor for Small Items",Delivered,"Sam's Club #4820 Pooler, GA 3/8-18/18 (FL)",,,104730,,FL,0,7.00
3/25/2018 8:54:03 AM,Retina Felton,GA,31313,Vitality Plate for Sam's,USJ-849USJ-849,New,New,,,,,427.99,399.99,28.00,Hiroko Hudson,PurchaseOrder,0.00,,918431165042042320964,,,,,,0.00,,,,,,,,0.00,,,,,,,,YES,"2 years parts, 1 year labor for Small Items",Delivered,"Sam's Club #4820 Pooler, GA 3/8-18/18 (FL)",,,104731,,FL,0,7.00
3/25/2018 8:59:28 AM,Rigobato Nelasco,GA,30216,Shogun Neck & Back Massger,USJ-874USJ-874,New,New,,,,,199.98,199.98,0.00,Hiroko Hudson,PurchaseOrder,0.00,,368503346100122509702,,,,,,0.00,,,,,,,,0.00,,,,,,,,YES,"2 years parts, 1 year labor for Small Items",Delivered,"Sam's Club #4820 Pooler, GA 3/8-18/18 (FL)",,,104732,,FL,1,7.00
