﻿Original Event Name,Event Name,Sales Person,Order Number,Order Date,Customer Name,State,Zip,Product Name,Color,Product Status,QTY,Tax,Total Before Tax,Order Total,Primary Payment Method,Second Payment Method,Thirdl Payment Method,Warranty,Order Items,Pick up,Delivered On,Order Status,Chair Type,Order Notes,Private Note,Branch,No Tax,Actual Tax Rate,SKU,Primary Payment Balance,Primary Authorize Number,Primary Purchase Order Number,Primary Synchrony Account Number,Primary Synchrony Application Key,Primary Synchrony Account Info,Primary Synchrony Term,Second Payment Balance,Second Authorize Number,Second Purchase Order Number,Second Synchrony Account Number,Second Synchrony Application Key,Second Synchrony Account Info,Second SynchronyTerm,Third Payment Balance,Third Authorize Number,Third Purchase Order Number,Third Synchrony Account Number,Third Synchrony Application Key,Third Synchrony Account Info,Third Synchrony Term
"MARICOPA COUNTY HM & LND 10/19-21/18 SCOTTSDALE,AZ (NV)","MARICOPA COUNTY HM & LND 10/19-21/18 SCOTTSDALE,AZ (NV)",Abagail Stirling,110495,10/20/2018 8:58:10 PM,Mark Myer,AZ,85020,Legacy 3D,New Choco,New,1,0.00,4200.00,4200.00,CreditCard,,,"5 years parts, 1 year labor (Free)","Legacy 3D,",No,10/26/2018 12:00:00 AM,Delivered,,,"COnfirmed $4,200 in Square. 10/22/18 Hitomi",NV,1,7.95,DWA-9150USJ-9150CH,4200.00,j9rS,,,,,,0.00,,,,,,,0.00,,,,,,
"MARICOPA COUNTY HM & LND 10/19-21/18 SCOTTSDALE,AZ (NV)","MARICOPA COUNTY HM & LND 10/19-21/18 SCOTTSDALE,AZ (NV)",David Wang,110497,10/20/2018 9:06:05 PM,Donald McBride,AZ,85087,Relax2Zero 3D,New Black,New,1,0.00,4200.00,4200.00,CreditCard,,,"5 years parts, 1 year labor (Free)","Relax2Zero 3D,",No,10/25/2018 12:00:00 AM,Delivered,,,"Confirmed $4,200 in Square. 10/22/18 Hitomi",NV,1,7.95,DWA-9060USJ-9060BL,4200.00,sn2Y,,,,,,0.00,,,,,,,0.00,,,,,,
"MARICOPA COUNTY HM & LND 10/19-21/18 SCOTTSDALE,AZ (NV)","MARICOPA COUNTY HM & LND 10/19-21/18 SCOTTSDALE,AZ (NV)",David Wang,110498,10/20/2018 9:12:31 PM,Amir Kajtezovic,AZ,85016,Legacy 3D,Demo Black,Demo,1,0.00,3900.00,3900.00,CreditCard,,,"5 years parts, 1 year labor (Free)","Legacy 3D,",YES,10/19/2018 12:00:00 AM,Delivered,,,"customer picked up already!!! 
Serial number is 91171039D.
//Confirmed $3,900 in Square. will confirm pickup confirmation 10/22/18/ Hitomi//Received pickup confirmation. 10/23/18 Hitomi",NV,1,7.95,DWA-9150USJ-9150BL-DEMO,3900.00,W3Ca,,,,,,0.00,,,,,,,0.00,,,,,,
"MARICOPA COUNTY HM & LND 10/19-21/18 SCOTTSDALE,AZ (NV)","MARICOPA COUNTY HM & LND 10/19-21/18 SCOTTSDALE,AZ (NV)",Querubin Milanes,110499,10/20/2018 9:30:07 PM,Chris Brecht,AZ,85140,Relax2Zero 3D,New Choco,New,1,0.00,4200.00,4200.00,CreditCard,,,"5 years parts, 1 year labor (Free)","Relax2Zero 3D,",No,10/26/2018 12:00:00 AM,Delivered,,,"COnfirmed $4,200 in Square. 10/22/18 Hitomi",NV,1,7.95,DWA-9060USJ-9060BR,4200.00,9qHm,,,,,,0.00,,,,,,,0.00,,,,,,
"MARICOPA COUNTY HM & LND 10/19-21/18 SCOTTSDALE,AZ (NV)","MARICOPA COUNTY HM & LND 10/19-21/18 SCOTTSDALE,AZ (NV)",Querubin Milanes,110500,10/20/2018 10:03:57 PM,Allan Buenaventura,AZ,85297,Legacy,New Black,New,1,0.00,3600.00,3600.00,Synchrony,,,"3 years parts, 1 year labor (Free)","Legacy,",No,10/26/2018 12:00:00 AM,Delivered,,,"will confirm synchrony 10/22/18 Hitomi//COnfirmed SYNC($6,000) and original.***Please charge $3,600 before delivery and sales draft signed.***10/23/18 Hitomi
synchrony auth #024185 $4500 stephany 11/06/18",NV,1,7.95,DWA-9100DWA-9100BL,3600.00,rjU0,,6019170813200190,95953505,Las Vegas,36 months,0.00,,,,,,,0.00,,,,,,
"MARICOPA COUNTY HM & LND 10/19-21/18 SCOTTSDALE,AZ (NV)","MARICOPA COUNTY HM & LND 10/19-21/18 SCOTTSDALE,AZ (NV)",David Wang,110566,10/22/2018 12:52:39 AM,Yali Chao,AZ,85224,Pegasus,New Choco,New,1,0.00,5000.00,5000.00,Synchrony,,,"5 years parts, 1 year labor (Free)","Pegasus,",No,10/26/2018 12:00:00 AM,Delivered,,,"!!! The customer is really picky.  Please send to the customer within a week!!! OR they will cancel the order!!! Thank you.
//Confirmed SYNC($6,500) and original. ***Please charge $5,000 before delivery and sales draft signed.***10/22/18 Hitomi
SYNCHRONY #024286 $5000 STEPHANY 11/06/18",NV,1,7.95,DWA-9400Pegasus-BR,5000.00,,,6019170813202063,95988083,Las Vegas,48 months,0.00,,,,,,,0.00,,,,,,
"MARICOPA COUNTY HM & LND 10/19-21/18 SCOTTSDALE,AZ (NV)","MARICOPA COUNTY HM & LND 10/19-21/18 SCOTTSDALE,AZ (NV)",David Wang,110567,10/22/2018 1:07:34 AM,Tom Kelly,AZ,85254,Relax2Zero 3D,Demo Black,Demo,1,0.00,4000.00,4000.00,CreditCard,,,"5 years parts, 1 year labor (Free)","Relax2Zero 3D,",YES,10/21/2018 12:00:00 AM,Delivered,,,"customer Pick up. serial # 0103001180641. please send manual book!///COnfirmed $4,000 in Square. will confirm pick up confirmation 10/22/18 Hitomi//Received pickup confirmation 10/23/18Hitomi",NV,1,7.95,DWA-9060USJ-9060BL-DEMO,4000.00,Uzar,,,,,,0.00,,,,,,,0.00,,,,,,
"MARICOPA COUNTY HM & LND 10/19-21/18 SCOTTSDALE,AZ (NV)","MARICOPA COUNTY HM & LND 10/19-21/18 SCOTTSDALE,AZ (NV)",Abagail Stirling,110568,10/22/2018 1:15:14 AM,Natalie Friend,AZ,85297,Pegasus,New Choco,New,1,0.00,5200.00,5200.00,Synchrony,,,"5 years parts, 1 year labor (Free)","Pegasus,",No,10/26/2018 12:00:00 AM,Delivered,,,"Confirmed SYNC($8,500) and original. ***Please charge $5,200 before delivery and sales draft signed.***10/22/18 Hitomi 
synchrony charged auth #024152 $5200 - stephany 11/05/18",NV,1,7.95,DWA-9400Pegasus-BR,5200.00,,,6019170813201396,95978643,Las Vegas,48 months,0.00,,,,,,,0.00,,,,,,
"MARICOPA COUNTY HM & LND 10/19-21/18 SCOTTSDALE,AZ (NV)","MARICOPA COUNTY HM & LND 10/19-21/18 SCOTTSDALE,AZ (NV)",Querubin Milanes,110569,10/22/2018 1:16:08 AM,Rainer Willingham,AZ,85375,Legacy,Demo Black,Demo,1,0.00,3000.00,3000.00,CreditCard,,,"3 years parts, 1 year labor (Free)","Legacy,",YES,10/27/2018 12:00:00 AM,Delivered,,,"Please Deliver the Legacy Black Demo as soon as possible. Thank you.//COnfirmed $3,000 in Square. 10/22/18 Hitomi",NV,1,7.95,DWA-9100DWA-9100BL-DEMO,3000.00,YCsW,,,,,,0.00,,,,,,,0.00,,,,,,
"MARICOPA COUNTY HM & LND 10/19-21/18 SCOTTSDALE,AZ (NV)","MARICOPA COUNTY HM & LND 10/19-21/18 SCOTTSDALE,AZ (NV)",Querubin Milanes,110570,10/22/2018 1:35:43 AM,Trent Colwel,AZ,85044,Pegasus,New Choco,New,1,0.00,5200.00,5200.00,CreditCard,,,"3 years parts, 1 year labor (Free)","Pegasus,",No,10/25/2018 12:00:00 AM,Delivered,,,"Please deliver a new Pegasus Choco//COnfirmed $5,200 in Square. 10/22/18 Hitomi",NV,1,7.95,DWA-9400Pegasus-BR,5200.00,HUNB,,,,,,0.00,,,,,,,0.00,,,,,,
"MARICOPA COUNTY HM & LND 10/19-21/18 SCOTTSDALE,AZ (NV)","MARICOPA COUNTY HM & LND 10/19-21/18 SCOTTSDALE,AZ (NV)",Querubin Milanes,110571,10/22/2018 1:46:49 AM,Clayton Joyce Kuchinba,AZ,85254,Legacy,Demo Gold,Demo,1,0.00,3000.00,3000.00,CreditCard,,,"3 years parts, 1 year labor (Free)","Legacy,",YES,10/21/2018 12:00:00 AM,Delivered,,,"COnfirmed $3,000 in Square. will confirm if its pickup 10/22/18 Hitomi//Received pickup confirmation 10/23/18 Hitomi",NV,1,7.95,DWA-9100DWA-9100GD-DEMO,3000.00,Receipt #rjU0,,,,,,0.00,,,,,,,0.00,,,,,,
"MARICOPA COUNTY HM & LND 10/19-21/18 SCOTTSDALE,AZ (NV)","MARICOPA COUNTY HM & LND 10/19-21/18 SCOTTSDALE,AZ (NV)",Abagail Stirling,110601,10/22/2018 10:45:35 PM,justin higley,AZ,85022,Relax2Zero 3D,New Choco,New,1,0.00,4500.00,4500.00,Synchrony,,,"5 years parts, 1 year labor (Free)","Relax2Zero 3D,",No,10/26/2018 12:00:00 AM,Delivered,,,"COnfirmed SYNC($6,500) and original.***Please charge $4,500 before delivery and sales draft signed.***10/23/18 Hitomi
SYNCHRONY AUTH #110601 $4500 - STEPHANY 11/05/18",NV,1,7.95,DWA-9060USJ-9060BR,4500.00,,,6019170813203541,96040740,Las Vegas,36 months,0.00,,,,,,,0.00,,,,,,
"MARICOPA COUNTY HM & LND 10/19-21/18 SCOTTSDALE,AZ (NV)","MARICOPA COUNTY HM & LND 10/19-21/18 SCOTTSDALE,AZ (NV)",Querubin Milanes,112561,11/22/2018 7:20:34 PM,Rainer Willingham,WA,98498,Legacy,New Black,New,1,0.00,3500.00,3500.00,CreditCard,COD,,"5 years parts, 1 year labor (Free)","Legacy,",No,,Scheduled,,,"Legacy New Black Chair, Deposit $200.00 (#9bZ1). Please Collect the Balance of $3300.00 (COD). Please deliver Between December 15 to 20, 2018. This is a follow-Up/Repeat Order of my Customer. Thank you.

///Confirmed $200.00 in SQ.*** COD$3,300.*** 11/23/18 Hitomi

11/29Maritza- Scott spoke with customer but customer will be home mid December.

12/13/18- Customer called in wanting to know status on his order and update us that his daughter will be home for his delivery her name is Lisa and her number is (253)733-8700 ( Please do not tell her husband; The chair is a surprise for him) (PS I TEXTED YOU THIS SCOTT) - Cristina 5:05 pm",WA,1,7.95,DWA-9100DWA-9100BL,200.00,9bZ1,,,,,,3300.00,,,,,,,0.00,,,,,,
