﻿Original Event Name,Event Name,Sales Person,Order Number,Order Date,Customer Name,State,Zip,Product Name,Color,Product Status,QTY,Tax,Total Before Tax,Order Total,Primary Payment Method,Second Payment Method,Thirdl Payment Method,Warranty,Order Items,Pick up,Delivered On,Order Status,Chair Type,Order Notes,Private Note,Branch,No Tax,Actual Tax Rate,SKU,Primary Payment Balance,Primary Authorize Number,Primary Purchase Order Number,Primary Synchrony Account Number,Primary Synchrony Application Key,Primary Synchrony Account Info,Primary Synchrony Term,Second Payment Balance,Second Authorize Number,Second Purchase Order Number,Second Synchrony Account Number,Second Synchrony Application Key,Second Synchrony Account Info,Second SynchronyTerm,Third Payment Balance,Third Authorize Number,Third Purchase Order Number,Third Synchrony Account Number,Third Synchrony Application Key,Third Synchrony Account Info,Third Synchrony Term
NADA EXPO 1/25-27/19 SAN FRANCISCO (CA),NADA EXPO 1/25-27/19 SAN FRANCISCO (CA),Rodrigo Malabunga,114656,1/28/2019 9:40:11 AM,Peter Collette,FL,32168,Relax2Zero 3D,New Choco,New,1,0.00,4000.00,4000.00,CreditCard,COD,,"5 years parts, 2 years labor ($200)","Relax2Zero 3D,",No,,Hold,,,"HOLD for now the house not ready (UNTIL MAY)
$100.00 deposit
$3900.00 COD balanced
$4000.00 total

Confirmed $100.00 in square. ---1/28/19 Asumi
2/12Maritza- Spoke with customer. Sent him an email with my and Florida's numbers. His home wont be ready until May so he will call 1-2 weeks before.",Not Dispatched,1,8.50,DWA-9060USJ-9060BR,100.00,Sq #S51E,,,,,,3900.00,,,,,,,0.00,,,,,,
NADA EXPO 1/25-27/19 SAN FRANCISCO (CA),NADA EXPO 1/25-27/19 SAN FRANCISCO (CA),Ruben Cuatrona,114657,1/28/2019 9:49:11 AM,Jeff Tognetti,NY,10006,PEGASUS 2 SMART,Demo Choco,Demo,1,0.00,6000.00,6000.00,CreditCard,,,"5 years parts, 2 years labor ($200)","PEGASUS 2 SMART,",No,,Scheduled,,,"Confirmed $6,000.00 in square. --- 1/28/19 Asumi
//Courtesy text message is sent - 1/30/19 @3:37PM Hitomi",TX,1,8.50,PEGS-2PEGS-2-BR-DEMO,6000.00,Sq #ypek,,,,,,0.00,,,,,,,0.00,,,,,,
NADA EXPO 1/25-27/19 SAN FRANCISCO (CA),NADA EXPO 1/25-27/19 SAN FRANCISCO (CA),Ruben Cuatrona,114658,1/28/2019 9:59:14 AM,Todd Ford,CA,95630,PEGASUS 2 SMART,Demo Choco,Demo,1,0.00,6000.00,6000.00,CreditCard,,,"5 years parts, 2 years labor ($200)","PEGASUS 2 SMART,",No,2/12/2019 12:00:00 AM,Delivered,New,,"Pls deliver ASAP
Confirmed $6,000.00 in square. --- 1/28/19 Asumi
01/29/19= Courtesy call/ text completed=  5:02 pm Maritza
2/14Maritza- For the record, customer was delivered a Choco- Peg2 as stated in the invoice on 2/7 but customer mentioned he ordered black.
2/26Maritza- Omar has picked up chair. I issued refund today @ 12:44PM and sent receipts to phone and email.",CA,1,8.50,PEGS-2PEGS-2-BR-DEMO,6000.00,Sq #N0Z8,,,,,,0.00,,,,,,,0.00,,,,,,
NADA EXPO 1/25-27/19 SAN FRANCISCO (CA),NADA EXPO 1/25-27/19 SAN FRANCISCO (CA),Ruben Cuatrona,114659,1/28/2019 10:17:46 AM,Mike Bambrick,IL,61611,PEGASUS 2 SMART,New Black,New,3,0.00,12000.00,12000.00,CreditCard,Check,,"5 years parts, 2 years labor ($200)","PEGASUS 2 SMART,",No,,Scheduled,,,"Color for this 3 chairs
2 BLACK
1 BROWN
check will be mail

5 years parts, 3 years labor

Confirmed $1,000.00 in square. 
Confirmed with Ruben customer will send check after around one week. --- 1/28/19 Asumi
Confirmed with Ruben Check will be mailed to CA branch (To Christina) in this week. --- 2/6/19 Asumi
Received check and Shoko deposited it. Will confirm it is cleared on Feb 14. ---2/8/19 Asumi
Confirmed with Yumi, check is cleared. --- 2/14/19 Asumi",TX,1,8.50,PEGS-2PEGS-2-BL,1000.00,Sq #hUxj,,,,,,11000.00,,,,,,,0.00,,,,,,
NADA EXPO 1/25-27/19 SAN FRANCISCO (CA),NADA EXPO 1/25-27/19 SAN FRANCISCO (CA),Ruben Cuatrona,114660,1/28/2019 10:24:05 AM,Jay Marr,AZ,85749,PEGASUS 2 SMART,New Choco,New,1,0.00,5800.00,5800.00,CreditCard,CreditCard,,"5 years parts, 2 years labor ($200)","PEGASUS 2 SMART,",No,2/9/2019 12:00:00 AM,Delivered,New,,"Confirmed $500.00 in square. Please charge $5300.00 upon delivery. ---1/28/19 Asumi
//Courtesy text message is sent - 1/30/19 @4:09PM Hitomi
Received delivery confirmation and COD $5,300.00 (SQUARE $5300.00) --- 2/26/19 Asumi",NV,1,8.50,PEGS-2PEGS-2-BR,500.00,Sq #2oRu,,,,,,5300.00,QZJs,,,,,,0.00,,,,,,
NADA EXPO 1/25-27/19 SAN FRANCISCO (CA),NADA EXPO 1/25-27/19 SAN FRANCISCO (CA),Ruben Cuatrona,114661,1/28/2019 10:43:42 AM,Gabriel Vigorito,NY,11977,PEGASUS 2 SMART,New Black,New,1,0.00,5800.00,5800.00,CreditCard,,,"5 years parts, 2 years labor ($200)","PEGASUS 2 SMART,",No,,Scheduled,,,"Confirmed $5,800.00 in square. --- 1/28/19 Asumi
//Courtesy text message is sent - 1/30/19 @3:38PM Hitomi
2/20/19-customer called in asking status. asked TX to contact the customer -Hitomi",TX,1,8.50,PEGS-2PEGS-2-BL,5800.00,Sq #L29X,,,,,,0.00,,,,,,,0.00,,,,,,
NADA EXPO 1/25-27/19 SAN FRANCISCO (CA),NADA EXPO 1/25-27/19 SAN FRANCISCO (CA),Rodrigo Malabunga,114662,1/28/2019 10:47:37 AM,Don Wilson,MS,39157,Relax2Zero 3D,New Choco,New,1,0.00,4200.00,4200.00,CreditCard,,,"5 years parts, 2 years labor ($200)","Relax2Zero 3D,",No,2/18/2019 12:00:00 AM,Delivered,New,,"Customer's name is Doug
Confirmed $4,200.00 in square. --- 1/28/19 Asumi
//Courtesy text message is sent - /30/19 @3:41 PM Hitomi

Received delivery confirmation --- 2/27/19 Asumi",TX,1,8.50,DWA-9060USJ-9060BR,4200.00,Sq #vdVR,,,,,,0.00,,,,,,,0.00,,,,,,
NADA EXPO 1/25-27/19 SAN FRANCISCO (CA),NADA EXPO 1/25-27/19 SAN FRANCISCO (CA),Rodrigo Malabunga,114664,1/28/2019 11:04:07 AM,David Fultz,MO,63026,PEGASUS 2 SMART,New Black,New,2,0.00,12000.00,12000.00,CreditCard,CreditCard,,"5 years parts, 3 years labor ($400)","PEGASUS 2 SMART,",No,,Scheduled,,,"2 different address
1) 227 n Lindbergh
    Creve couer Mo 63141
2) 5132 Romaine spring dr
     Fenton Mo 63026
Pls call for no.1 address no zip code

Confirmed $12,000.00 in square. --- 1/28/19 Asumi
1/29Maritza- Courtesy email sent @ 10:39AM",TX,1,8.50,PEGS-2PEGS-2-BL,7900.00,Sq  #71ct,,,,,,4100.00,Sq#2XDK,,,,,,0.00,,,,,,
NADA EXPO 1/25-27/19 SAN FRANCISCO (CA),NADA EXPO 1/25-27/19 SAN FRANCISCO (CA),Rodrigo Malabunga,114665,1/28/2019 11:10:23 AM,Kimberly Skaggs,NM,88001,Relax2Zero 3D,New Choco,New,1,0.00,4200.00,4200.00,CreditCard,,,"5 years parts, 2 years labor ($200)","Relax2Zero 3D,",No,3/1/2019 12:00:00 AM,Delivered,New,,"Confirmed $4,200.00 in square.---1/28/19 Asumi
01/28/19- Courtesy call/ text completed- Cristina- 5:03 pm",TX,1,8.50,DWA-9060USJ-9060BR,4200.00,Sq #oAeF,,,,,,0.00,,,,,,,0.00,,,,,,
NADA EXPO 1/25-27/19 SAN FRANCISCO (CA),NADA EXPO 1/25-27/19 SAN FRANCISCO (CA),Ruben Cuatrona,114943,2/11/2019 2:17:26 PM,Kevin Kelker,CA,95762,PEGASUS 2 SMART,Demo Choco,Demo,1,0.00,6000.00,6000.00,CreditCard,,,"5 years parts, 3 years labor ($400)","PEGASUS 2 SMART,",No,2/26/2019 12:00:00 AM,Delivered,New,,,CA,1,8.50,PEGS-2PEGS-2-BR-DEMO,6000.00,Housecall Pro,,,,,,0.00,,,,,,,0.00,,,,,,
