﻿Original Event Name,Event Name,Sales Person,Order Number,Order Date,Customer Name,State,Zip,Product Name,Color,Product Status,QTY,Tax,Total Before Tax,Order Total,Primary Payment Method,Second Payment Method,Thirdl Payment Method,Warranty,Order Items,Pick up,Delivered On,Order Status,Chair Type,Order Notes,Private Note,Branch,No Tax,Actual Tax Rate,SKU,Primary Payment Balance,Primary Authorize Number,Primary Purchase Order Number,Primary Synchrony Account Number,Primary Synchrony Application Key,Primary Synchrony Account Info,Primary Synchrony Term,Primary Synchrony Primary ID,Primary Synchrony Issued State,Primary Synchrony Expiretion Date,Second Payment Balance,Second Authorize Number,Second Purchase Order Number,Second Synchrony Account Number,Second Synchrony Application Key,Second Synchrony Account Info,Second SynchronyTerm,Second Synchrony Primary ID,Second Synchrony Issued State,Second Synchrony Expiretion Date,Third Payment Balance,Third Authorize Number,Third Purchase Order Number,Third Synchrony Account Number,Third Synchrony Application Key,Third Synchrony Account Info,Third Synchrony Term,Third Synchrony Primary ID,Third Synchrony Issued State,Third Synchrony Expiretion Date
"Sam's Club #4831 Durham, NC","Sam's Club #4831 Durham, NC",Joseph Otero,121878,10/18/2019 7:10:47 AM,"U.S.  JACLEAN, INC.",CA,90249,Ninja Leg Massager 2,Demo[-20.00],Demo,1,21.00,279.98,300.98,Purchase Order,,,No Warranty,"Ninja Leg Massager 2,",YES,,Delivered,,,,CA,0,7.50,USJ-880-Demo,0.00,,,,,,,,,/,0.00,,,,,,,,,/,0.00,,,,,,,,,/
"Sam's Club #4831 Durham, NC","Sam's Club #4831 Durham, NC",Joseph Otero,121953,10/20/2019 7:34:37 PM,"U.S.  JACLEAN, INC.",CA,90249,Shogun Neck & Back Massger,New,New,1,15.00,199.98,214.98,Purchase Order,,,"2 years parts, 1 year labor (Free)","Shogun Neck &amp; Back Massger,",YES,,Delivered,,,,CA,0,7.50,USJ-874USJ-874,0.00,,,,,,,,,/,0.00,,,,,,,,,/,0.00,,,,,,,,,/
"Sam's Club #4831 Durham, NC","Sam's Club #4831 Durham, NC",Joseph Otero,122113,10/26/2019 7:34:23 AM,"U.S.  JACLEAN, INC.",CA,90249,Shogun Neck & Back Massger,New,New,1,15.00,199.98,214.98,Purchase Order,,,No Warranty,"Shogun Neck &amp; Back Massger,",YES,,Delivered,,End of day small item report for 10/26/18,,CA,0,7.50,USJ-874USJ-874,0.00,,,,,,,,,/,0.00,,,,,,,,,/,0.00,,,,,,,,,/
"Sam's Club #4831 Durham, NC","Sam's Club #4831 Durham, NC",Joseph Otero,122125,10/26/2019 6:07:09 PM,"U.S.  JACLEAN, INC.",CA,90249,Ninja Leg Massager 2,New,New,1,36.00,479.96,515.96,Purchase Order,,,No Warranty,"Ninja Leg Massager 2,Shogun Neck &amp; Back Massger,",YES,,Delivered,,End of day small item report October 26 2019,,CA,0,7.50,USJ-880,0.00,,,,,,,,,/,0.00,,,,,,,,,/,0.00,,,,,,,,,/
"Sam's Club #4831 Durham, NC","Sam's Club #4831 Durham, NC",Joseph Otero,122125,10/26/2019 6:07:09 PM,"U.S.  JACLEAN, INC.",CA,90249,Shogun Neck & Back Massger,Demo[-20],Demo,1,36.00,479.96,515.96,Purchase Order,,,No Warranty,"Ninja Leg Massager 2,Shogun Neck &amp; Back Massger,",YES,,Delivered,,End of day small item report October 26 2019,,CA,0,7.50,USJ-874USJ-874-DEMO,0.00,,,,,,,,,/,0.00,,,,,,,,,/,0.00,,,,,,,,,/
