﻿Order Number,Order Date,Event Name,Salesperson,SKU,Product Name,Color,QTY,Warranty,Payment Details,Tax,Order Total,Gross,Primary Payment Method,Primary Payment Balance,Primary Authorize Number,Primary Purchase Order Number,Primary Synchrony Account Number,Primary Synchrony Application Key,Primary Synchrony AccountInfo,Primary SynchronyTerm,Secondly Payment Method,Secondly Payment Balance,Secondly Authorize Number,Secondly Purchase Order Number,Secondly Synchrony Account Number,Secondly Synchrony Application Key,Secondly Synchrony AccountInfo,Secondly SynchronyTerm,Thirdly Payment Method,Thirdly Payment Balance,Thirdly Authorize Number,Thirdly Purchase Order Number,Thirdly Synchrony Account Number,Thirdly Synchrony Application Key,Thirdly Synchrony AccountInfo,Thirdly SynchronyTerm,Actual Shipping Cost,CustomerName,Shipping Address,Delivered On,Serial Number (TO Be),Note,Branch,IsNoTax,ActualTaxRate
104066,3/1/2018 5:49:33 PM,Sam's Club #6482 Dallas (TX),Jennifer Tran,USJ-9050USJ-9050BL,Relax2Zero 2.0 for Sam's,New Black,1,"3 years parts, 1 year labor (Free)",CUSTOM ,0.00,3199.00,3199.00,CreditCard,3199.00,TC# 6798 9573 0899 9839 3920 54,,,,,,,0.00,,,,,,,,0.00,,,,,,,0.00,Hanna Huynh,4698261747,3/14/2018 12:00:00 AM,,"PAID IN FULL
Tax-Exempt",TX,1,8.25
104089,3/2/2018 8:28:15 PM,Sam's Club #6482 Dallas (TX),Jennifer Tran,USJ-9050USJ-9050BR,Relax2Zero 2.0 for Sam's,New Brown,1,"3 years parts, 1 year labor (Free)",CUSTOM ,0.00,3199.00,3199.00,CreditCard,3199.00,TC# 3073 0402 7922 0162 6227 45,,,,,,,0.00,,,,,,,,0.00,,,,,,,0.00,Mina Fangary,214-213-2475,3/14/2018 12:00:00 AM,,TAX-EXEMPT,TX,1,8.25
104090,3/2/2018 8:35:04 PM,Sam's Club #6482 Dallas (TX),Jennifer Tran,DWA-9100DWA-9100SB,Legacy for Sam's,New Sienna Brown,1,"3 years parts, 1 year labor (Free)",CUSTOM ,0.00,3599.00,3599.00,CreditCard,3599.00,TC# 3903 0407 7725 0162 6237 45,,,,,,,0.00,,,,,,,,0.00,,,,,,,0.00,Talal Aldafai,903-372-9979,3/9/2018 12:00:00 AM,,**REMINDER: Schedule Delivery For March 8**,TX,1,8.25
104144,3/4/2018 8:21:02 PM,Sam's Club #6482 Dallas (TX),Jennifer Tran,USJ-874USJ-874-DEMO,Shogun Neck & Back Massger,Demo,1,"2 years parts, 1 year labor for Small Items",CUSTOM ,14.85,194.83,194.83,CreditCard,194.83,TC# 4860 4663 0888 4949 6131 0,,,,,,,0.00,,,,,,,,0.00,,,,,,,0.00,Tyrona Taylor,469-203-6165,,,,TX,0,8.25
104930,4/1/2018 1:02:10 PM,Sam's Club #6482 Dallas (TX),Gary Cyrlin,USJ-9050USJ-9050BL,Relax2Zero 2.0 for Sam's,New Black,1,"3 years parts, 1 year labor (Free)",CUSTOM ,321.75,4221.75,4221.75,CreditCard,4221.76,1231624681616273292541,,,,,,,0.00,,,,,,,,0.00,,,,,,,0.00,Kaaren Good,9032209004,,,,TX,0,8.25
104932,4/1/2018 7:52:57 PM,Sam's Club #6482 Dallas (TX),Gary Cyrlin,USJ-871,Foot Vibe Pro,,1,"2 years parts, 1 year labor for Small Items",CUSTOM ,9.07,119.06,119.06,CreditCard,119.06,046300468232167121745,,,,,,,0.00,,,,,,,,0.00,,,,,,,0.00,Drew Cooper,9037586354,,,,TX,0,8.25
104980,4/2/2018 9:01:20 PM,Sam's Club #6482 Dallas (TX),Gary Cyrlin,DWA-9100DWA-9100BL,Legacy for Sam's,New Black,1,"3 years parts, 1 year labor (Free)",CUSTOM ,296.92,3895.92,3895.92,CreditCard,3895.92,6348857256929838854024,,,,,,,0.00,,,,,,,,0.00,,,,,,,0.00,David Kenney,9038352501,,,,TX,0,8.25
