﻿Date,Customer Name,State,Zipcode,Description,Product Number,Color,Product Status,Net,Shipping Fee,Gift Price,Financing Processing Fee,Order Total,Total Before Tax,Tax,Commission,Primary Payment Method,Primary Payment Balance,Primary Authorize Number,Primary Purchase Order Number,Primary Synchrony Account Number,Primary Synchrony Application Key,Primary Synchrony Account Info,Primary Synchrony Term,Second Payment Method,Second Payment Balance,Second Authorize Number,Second Purchase Order Number,Second Synchrony Account Number,Second Synchrony Application Key,Second Synchrony Account Info,Second Synchrony Term,Third Payment Method,Third Payment Balance,Third Authorize Number,Third Purchase Order Number,Third Synchrony Account Number,Third Synchrony Application Key,Third Synchrony Account Info,Third Synchrony Term,Delivery Date,Pick up,Warranty,Status,Chair Type,Original Event Name,Event Name,Synchrony Notes,Order Notes,Order Number,Private Note,Branch,No Tax,Actual Tax Rate
4/30/2018 10:50:41 PM,Christopher Wamberg,CA,92532,Relax2Zero 3D,DWA-9060USJ-9060BL,New Black,New,,,,,4400.00,4400.00,0.00,Abagail Stirling,Synchrony,4400.00,,,6034610083243876,88217818,Las Vegas,48 months,,0.00,,,,,,,,0.00,,,,,,,5/10/2018 12:00:00 AM,No,"3 years parts, 1 year labor (Free)",Delivered,,Laughlin River Run 4/25-28/18 (NV),Laughlin River Run 4/25-28/18 (NV),"Authorization # 003446
Confirmed $4400/48 months in Synchrony LV. 5/11/18 Riho",,105693,"Extra chair pad (regular)
5/1Maritza Confirmed 7200 available credit. Please check forms. CHARGE BEFORE DLEIVERY AND PRINT SYNCHRONY SALES DRAFT//Confirmed synchrony form 5/1/18 Hitomi
5/1Printed",CA,1,8.25
4/30/2018 10:57:26 PM,Kimberley Kupecz,CA,92399,Relax2Zero 3D,DWA-9060USJ-9060BL-DEMO,Demo Black,Demo,,,,,4000.00,4000.00,0.00,Abagail Stirling,Synchrony,4000.00,,,6034610083243769,88216089,Las Vegas,36 months,,0.00,,,,,,,,0.00,,,,,,,5/9/2018 12:00:00 AM,No,"3 years parts, 1 year labor (Free)",Delivered,,Laughlin River Run 4/25-28/18 (NV),Laughlin River Run 4/25-28/18 (NV),"Authorization # 003724
Confirmed $4000/36 months in Synchrony LV. 5/11/18 Riho",,105694,"Pls make it sure if you deliver the demo chair must be in good condition.
5/1Maritza- Confirmed 8500 available credit.Please check synchrony forms. CHARGE AND PRINT SYNCHRONY BEFORE DELIVERY!//Confirmed synchrony form. 5/1/18 Hitomi
5/1Printed",CA,1,8.25
4/30/2018 11:07:50 PM,Garth Watkins,CA,92020,Legacy 3D,DWA-9150USJ-9150BL,New Black,New,,,,,4000.00,4000.00,0.00,Ilene Maynard,CreditCard,4000.00,Sq # CE8o,,,,,,,0.00,,,,,,,,0.00,,,,,,,5/10/2018 12:00:00 AM,No,"3 years parts, 1 year labor (Free)",Delivered,,Laughlin River Run 4/25-28/18 (NV),Laughlin River Run 4/25-28/18 (NV),,,105695,5/1 Maritza Confirmed 4000 on square.,CA,1,8.25
4/30/2018 11:13:33 PM,Kenneth Myers,MN,56466,Legacy 3D,DWA-9150USJ-9150CH,New Choco,New,,,,,3900.00,3900.00,0.00,Ilene Maynard,CreditCard,3900.00,Sq #27vb,,,,,,,0.00,,,,,,,,0.00,,,,,,,5/22/2018 12:00:00 AM,No,"3 years parts, 1 year labor (Free)",Delivered,,Laughlin River Run 4/25-28/18 (NV),Laughlin River Run 4/25-28/18 (NV),,,105696,"Confirmed $3,900.00 in Square. 5/1/18 Hitomi
5/4Maritza Courtesy call @ 2:45PM
218-894-3714 BUSINESS NUMBER 8AM-5PM - PLEASE CALL FOR APPOINT DURING THESE HOURS, IF NOT CALL OTHER NUMBERS",TX,1,8.25
4/30/2018 11:19:51 PM,Rudy Bjerga,MN,56479,Legacy 3D,DWA-9150USJ-9150BL,New Black,New,,,,,3900.00,3900.00,0.00,Ilene Maynard,Check,3900.00,,,,,,,,0.00,,,,,,,,0.00,,,,,,,5/22/2018 12:00:00 AM,No,"3 years parts, 1 year labor (Free)",Delivered,,Laughlin River Run 4/25-28/18 (NV),Laughlin River Run 4/25-28/18 (NV),,,105697,"Check  #18416
Deposited today 30 April 2018//Yumi confirmed check. 5/15/18 Hitomi
5/15Maritza Courtesy call @ 5:10PM",TX,1,8.25
4/30/2018 11:23:47 PM,Dana Henry,WA,99207,Legacy 3D,DWA-9150USJ-9150CH,New Choco,New,,,,,4200.00,4200.00,0.00,Ilene Maynard,CreditCard,4200.00,Sq #j3gm,,,,,,,0.00,,,,,,,,0.00,,,,,,,6/7/2018 12:00:00 AM,No,"3 years parts, 1 year labor (Free)",Delivered,,Laughlin River Run 4/25-28/18 (NV),Laughlin River Run 4/25-28/18 (NV),,,105698,"Confirmed $4,200.00 in Square. 5/1/18 Hitomi
courtesy call by Scott on 5/1/2018 left a message.
CUSTOMER NOT READY TO ACCEPT DELIVERY WILL CONTACT NEXT WEEK.- STEPHANY 05/09/18",WA,1,8.25
