﻿Order Number,Order Date,Original Event Name,Event Name,Salesperson,SKU,Product Name,Color,QTY,Warranty,Tax,Order Total,Primary Payment Method,Primary Payment Balance,Primary Authorize Number,Primary Purchase Order Number,Primary Synchrony Account Number,Primary Synchrony Application Key,Primary Synchrony AccountInfo,Primary SynchronyTerm,Secondly Payment Method,Secondly Payment Balance,Secondly Authorize Number,Secondly Purchase Order Number,Secondly Synchrony Account Number,Secondly Synchrony Application Key,Secondly Synchrony AccountInfo,Secondly SynchronyTerm,Thirdly Payment Method,Thirdly Payment Balance,Thirdly Authorize Number,Thirdly Purchase Order Number,Thirdly Synchrony Account Number,Thirdly Synchrony Application Key,Thirdly Synchrony AccountInfo,Thirdly SynchronyTerm,Actual Shipping Cost,CustomerName,Shipping Phone,Delivered On,Serial Number (TO Be),Note,Branch,No Tax,ActualTaxRate
101136,10/7/2017 7:42:43 PM,New Mexico Balloon Fiesta 10/6-10-15 (TX),New Mexico Balloon Fiesta 10/6-10-15 (TX),May Kam,DWA-9400Pegasus-BL,Pegasus,Black,1,"3 years parts, 1 year labor (Free)",282.75,4900.75,,500.00,380539,,,,,,COD,,,,,,,,,,,,,,,,350.00,Rosalie Valdez,7204361724,10/22/2017 12:00:00 AM,,"Before shipping at next week, will pay balance $4400",TX,,
101167,10/8/2017 8:48:05 PM,New Mexico Balloon Fiesta 10/6-10-15 (TX),New Mexico Balloon Fiesta 10/6-10-15 (TX),May Kam,DWA-9060USJ-9060BR-DEMO,Relax2Zero 3D,Demo Choco Brown,1,"3 years parts, 1 year labor (Free)",272.52,4000.52,,200.00,00868R,,,,,,COD,,,,,,,,,,,,,,,,350.00,Dan Newhouse,5056720739,10/21/2017 12:00:00 AM,,"Special discount for Vendors, balance $3800 will be paid on Oct 15,2017 , when pick up the chair",TX,,
101168,10/8/2017 9:21:21 PM,New Mexico Balloon Fiesta 10/6-10-15 (TX),New Mexico Balloon Fiesta 10/6-10-15 (TX),May Kam,DWA-9060USJ-9060BL-DEMO,Relax2Zero 3D,Demo Black,1,"3 years parts, 1 year labor (Free)",272.52,4000.52,,200.00,708073,,,,,,COD,,,,,,,,,,,,,,,,0.00,Greg Gowen,5052502516,,,"Vendor Special discount , balance $3800 will be paid on Oct 16,2017
At pick up",TX,,
101169,10/8/2017 9:39:31 PM,New Mexico Balloon Fiesta 10/6-10-15 (TX),New Mexico Balloon Fiesta 10/6-10-15 (TX),Keith Kei,DWA-9060USJ-9060BL,Relax2Zero 3D,Black,1,"3 years parts, 1 year labor (Free)",221.42,4000.42,,4000.00,382621,,,,,,,,,,,,,,,,,,,,,,0.00,Maria Batac,9097065583,10/30/2017 12:00:00 AM,,,CA,,
101193,10/9/2017 5:58:23 PM,New Mexico Balloon Fiesta 10/6-10-15 (TX),New Mexico Balloon Fiesta 10/6-10-15 (TX),May Kam,DWA-9150USJ-9150BL-DEMO,Legacy 3D,Demo Black,1,"3 years parts, 3 years labor ($400)",218.06,3951.06,,200.00,62011D,,,,,,COD,,,,,,,,,,,,,,,,350.00,Patrick Moore,5052861909,10/21/2017 12:00:00 AM,,,TX,,
101195,10/9/2017 7:09:19 PM,New Mexico Balloon Fiesta 10/6-10-15 (TX),New Mexico Balloon Fiesta 10/6-10-15 (TX),Chris Tavira,DWA-9060USJ-9060BR,Relax2Zero 3D,Choco Brown,1,"3 years parts, 1 year labor (Free)",288.31,4982.31,,4982.00,,,6034610081563853,79470021,Huston,36 months,,,,,,,,,,,,,,,,,350.00,Kathleen Whitson,5756317886,10/29/2017 12:00:00 AM,,"Pls make purchasing for finance $4982, thanks",TX,,
101201,10/10/2017 7:13:45 PM,New Mexico Balloon Fiesta 10/6-10-15 (TX),New Mexico Balloon Fiesta 10/6-10-15 (TX),Keith Kei,DWA-9060USJ-9060BR-DEMO,Relax2Zero 3D,Demo Choco Brown,1,"3 years parts, 1 year labor (Free)",256.51,4515.51,,4515.00,,,6034610081566195,79524867,Huston,24 months,,,,,,,,,,,,,,,,,350.00,Julian Silva,5057955727,10/28/2017 12:00:00 AM,,"Pls make finance purchasing ,total $4515, Thanks",TX,,
101202,10/10/2017 7:32:01 PM,New Mexico Balloon Fiesta 10/6-10-15 (TX),New Mexico Balloon Fiesta 10/6-10-15 (TX),Keith Kei,DWA-9060USJ-9060BR,Relax2Zero 3D,Choco Brown,1,"3 years parts, 1 year labor (Free)",256.51,4515.51,,4515.00,,,6034610081566179,79523780,Huston,36 months,,,,,,,,,,,,,,,,,350.00,Mechelbamg Hiroichi,7816976162,10/31/2017 12:00:00 AM,,"Pls make Finanic purchasing $4515, Thanks",TX,,
101242,10/12/2017 8:59:20 PM,New Mexico Balloon Fiesta 10/6-10-15 (TX),New Mexico Balloon Fiesta 10/6-10-15 (TX),May Kam,DWA-9060USJ-9060BR-DEMO,Relax2Zero 3D,Demo Choco Brown,1,"3 years parts, 3 years labor ($400)",235.02,4200.02,,500.00,01059D,,,,,,COD,,,,,,,,,,,,,,,,350.00,Donna Jackson,4097186278,11/10/2017 12:00:00 AM,,"COD $3700, request : After Nov 1st delivery and assembly, thanks",TX,,
101242,10/12/2017 8:59:20 PM,New Mexico Balloon Fiesta 10/6-10-15 (TX),New Mexico Balloon Fiesta 10/6-10-15 (TX),May Kam,,Daiwa Blanket,,1,no warranty,235.02,4200.02,,500.00,01059D,,,,,,COD,,,,,,,,,,,,,,,,350.00,Donna Jackson,4097186278,11/10/2017 12:00:00 AM,,"COD $3700, request : After Nov 1st delivery and assembly, thanks",TX,,
101243,10/12/2017 9:14:59 PM,New Mexico Balloon Fiesta 10/6-10-15 (TX),New Mexico Balloon Fiesta 10/6-10-15 (TX),May Kam,DWA-9150USJ-9150CH,Legacy 3D,Choco Brown,1,"3 years parts, 3 years labor ($400)",235.02,4200.02,,200.00,01130C,,,,,,COD,,,,,,,,,,,,,,,,350.00,Randy Funston,9407679912,10/27/2017 12:00:00 AM,,,TX,,
101244,10/12/2017 9:22:58 PM,New Mexico Balloon Fiesta 10/6-10-15 (TX),New Mexico Balloon Fiesta 10/6-10-15 (TX),Keith Kei,DWA-9060USJ-9060BR-DEMO,Relax2Zero 3D,Demo Choco Brown,1,"3 years parts, 1 year labor (Free)",235.02,4200.02,,200.00,01228C,,,,,,COD,,,,,,,,,,,,,,,,0.00,Douglas Allen,5052643665,,,COD $4000,TX,,
101245,10/12/2017 9:35:19 PM,New Mexico Balloon Fiesta 10/6-10-15 (TX),New Mexico Balloon Fiesta 10/6-10-15 (TX),Keith Kei,DWA-9060USJ-9060BR-DEMO,Relax2Zero 3D,Demo Choco Brown,1,"3 years parts, 1 year labor (Free)",239.48,4265.48,,3500.00,,,6034610081569108,79611560,Huston,12 months,CreditCard,,,,,,,,,,,,,,,,350.00,Ignacio Orozco,9159228014,10/31/2017 12:00:00 AM,,"Total $4265, COD pay balance $765",TX,,
101257,10/13/2017 8:41:35 PM,New Mexico Balloon Fiesta 10/6-10-15 (TX),New Mexico Balloon Fiesta 10/6-10-15 (TX),May Kam,DWA-9060USJ-9060BR,Relax2Zero 3D,Choco Brown,1,"3 years parts, 1 year labor (Free)",245.25,4350.25,,200.00,01313R,,,,,,COD,,,,,,,,,,,,,,,,350.00,Melba Edwards,8123272008,10/31/2017 12:00:00 AM,,"Pls arrange to deliver chair after Nov 15th , because of New house. COD $4150",TX,,
101257,10/13/2017 8:41:35 PM,New Mexico Balloon Fiesta 10/6-10-15 (TX),New Mexico Balloon Fiesta 10/6-10-15 (TX),May Kam,,Daiwa Blanket,,1,no warranty,245.25,4350.25,,200.00,01313R,,,,,,COD,,,,,,,,,,,,,,,,350.00,Melba Edwards,8123272008,10/31/2017 12:00:00 AM,,"Pls arrange to deliver chair after Nov 15th , because of New house. COD $4150",TX,,
101288,10/15/2017 12:12:17 PM,New Mexico Balloon Fiesta 10/6-10-15 (TX),New Mexico Balloon Fiesta 10/6-10-15 (TX),Keith Kei,DWA-9060USJ-9060BL-DEMO,Relax2Zero 3D,Demo Black,1,"3 years parts, 1 year labor (Free)",258.92,3800.92,,3800.00,,,6034610081574975,79737327,Huston,36 months,,,,,,,,,,,,,,,,,0.00,Robert Ortiz,5054297550,,,"Pls make finance purchasing $3800, Thanks",TX,,
101337,10/15/2017 9:16:08 PM,New Mexico Balloon Fiesta 10/6-10-15 (TX),New Mexico Balloon Fiesta 10/6-10-15 (TX),May Kam,DWA-9150USJ-9150CH-DEMO,Legacy 3D,Demo Choco Brown,1,"3 years parts, 2 years labor ($200)",255.48,3750.48,,3750.00,013256.     015181,,,,,,,,,,,,,,,,,,,,,,0.00,Mindy Connolly,2025313537,,,"Delivered by Chris, Keith, May together
After Fair on Oct 15,2017, paid in full",Not Dispatched,,
101341,10/15/2017 9:38:21 PM,New Mexico Balloon Fiesta 10/6-10-15 (TX),New Mexico Balloon Fiesta 10/6-10-15 (TX),May Kam,DWA-9150USJ-9150BL,Legacy 3D,Black,1,"3 years parts, 1 year labor (Free)",214.62,3900.62,,3500.00,322576,,,,,,COD,,,,,,,,,,,,,,,,350.00,Dan Ulibarri,5059889830,10/21/2017 12:00:00 AM,,Cod $400,TX,,
101346,10/15/2017 10:15:29 PM,New Mexico Balloon Fiesta 10/6-10-15 (TX),New Mexico Balloon Fiesta 10/6-10-15 (TX),May Kam,DWA-9060USJ-9060BR-DEMO,Relax2Zero 3D,Demo Choco Brown,1,"3 years parts, 1 year labor (Free)",218.06,3951.06,,3950.00,,,6034610081577028,79765435,San Diego,36 months,,,,,,,,,,,,,,,,,350.00,Carlos Gonzalez,5052900880,10/29/2017 12:00:00 AM,,,TX,,
101348,10/15/2017 10:34:02 PM,New Mexico Balloon Fiesta 10/6-10-15 (TX),New Mexico Balloon Fiesta 10/6-10-15 (TX),May Kam,DWA-9150USJ-9150CH,Legacy 3D,Choco Brown,1,"3 years parts, 1 year labor (Free)",258.85,4549.85,,4550.00,,,6034610081574918,79733794,San Diego,36 months,,,,,,,,,,,,,,,,,0.00,Joseph Elder,5053599309,,,,TX,,
101350,10/15/2017 11:08:24 PM,New Mexico Balloon Fiesta 10/6-10-15 (TX),New Mexico Balloon Fiesta 10/6-10-15 (TX),Chris Tavira,DWA-9150USJ-9150CH,Legacy 3D,Choco Brown,1,"3 years parts, 1 year labor (Free)",256.51,4515.51,,4515.00,,,6034610081574942,79735668,Huston,36 months,,,,,,,,,,,,,,,,,350.00,Henry Park,2035848405,10/17/2017 12:00:00 AM,,,TX,,
101353,10/16/2017 7:20:43 AM,New Mexico Balloon Fiesta 10/6-10-15 (TX),New Mexico Balloon Fiesta 10/6-10-15 (TX),Chris Tavira,DWA-9150USJ-9150BL,Legacy 3D,Black,1,"3 years parts, 1 year labor (Free)",207.82,3800.82,,200.00,38538A,,,,,,COD,,,,,,,,,,,,,,,,350.00,Bharaneeshwar Renukuntla,9155040453,10/31/2017 12:00:00 AM,,COD $3600,TX,,
101355,10/16/2017 7:31:02 AM,New Mexico Balloon Fiesta 10/6-10-15 (TX),New Mexico Balloon Fiesta 10/6-10-15 (TX),Chris Tavira,DWA-9150USJ-9150CH,Legacy 3D,Choco Brown,1,"3 years parts, 1 year labor (Free)",292.33,5041.33,,500.00,869404,,,,,,COD,,,,,,,,,,,,,,,,350.00,Raola Juan,7204133696,10/28/2017 12:00:00 AM,,Balance $4540.75,TX,,
101361,10/16/2017 7:49:52 AM,New Mexico Balloon Fiesta 10/6-10-15 (TX),New Mexico Balloon Fiesta 10/6-10-15 (TX),May Kam,DWA-9060USJ-9060BL-DEMO,Relax2Zero 3D,Demo Black,1,"3 years parts, 1 year labor (Free)",235.02,4200.02,,100.00,870424,,,,,,COD,,,,,,,,,,,,,,,,0.00,Sylvia Longoria,2103885555,,,"Might change Payment plan , need hold, color might change too",TX,,
