﻿Date,CustomerName,State,Zipcode,Description,productNo,Color,IsDemo,Net,ShippingFee,GiftPrice,FinancingProcessingFee,Gross,Pre_tax,Tax,Commission,Primary Payment Method,Primary Payment Balance,Primary Authorize Number,Primary Purchase Order Number,Primary Synchrony Account Number,Primary Synchrony Application Key,Primary Synchrony AccountInfo,Primary SynchronyTerm,Secondly Payment Method,Secondly Payment Balance,Secondly Authorize Number,Secondly Purchase Order Number,Secondly Synchrony Account Number,Secondly Synchrony Application Key,Secondly Synchrony AccountInfo,Secondly SynchronyTerm,Thirdly Payment Method,Thirdly Payment Balance,Thirdly Authorize Number,Thirdly Purchase Order Number,Thirdly Synchrony Account Number,Thirdly Synchrony Application Key,Thirdly Synchrony AccountInfo,Thirdly SynchronyTerm,DeliveryDate,Ispickup,Warranty,Status,Event Name,Synchrony Notes,Order Notes,Order number,Private Note,Branch,IsNoTax,ActualTaxRate
11/11/2017 9:05:59 PM,Rashid Ali,CO,80015,Legacy for Sam's,DWA-9100DWA-9100BL,Black,New,,,,,4589.18,4299.00,290.18,Gail Kerns,,4642.92,Approval #000996. TC#4088 6479 7867 4018 7504 83,,,,,,,,,,,,,,,,,,,,,,11/25/2017 12:00:00 AM,No,"3 years parts, 1 year labor (Free)",Delivered,"Sam's Club #4816 Aurora, CO 11/9-19/17 (TX)",,,101804,"Tax rate is incorrect in system.
This store #4816 has a 8% tax rate.
So there is no balance due.
Tax charged was $343.92 not $290.18",TX,,
11/11/2017 9:18:15 PM,Jose Garcia,CO,80016,Relax2Zero 2.0 for Sam's,USJ-9050USJ-9050BR,Brown,New,,,,,3414.93,3199.00,215.93,Gail Kerns,,3454.92,Approval #001383 TC#8617449390865207932661,,,,,,,,,,,,,,,,,,,,,,11/25/2017 12:00:00 AM,No,"3 years parts, 1 year labor (Free)",Delivered,"Sam's Club #4816 Aurora, CO 11/9-19/17 (TX)",,,101805,"Tax rate is 8% - system is wrong.
Tax paid was $255.92 not $215.93",TX,,
11/11/2017 9:26:03 PM,Raelyn Sparks,CO,80016,Ninja Leg Massager,,,New,,,,,404.58,379.00,25.58,Gail Kerns,,409.32,,,,,,,,,,,,,,,,,,,,,,,,YES,"2 years parts, 1 year labor (Small Items)",Delivered,"Sam's Club #4816 Aurora, CO 11/9-19/17 (TX)",,,101806,"Picked Up by customer
Tax rate in system is wrong.
Should be 8%. $30.32 is correct tax payment. Not $25.58.",TX,,
11/14/2017 9:46:04 PM,Iouri Beloaus,CO,80016,Vitality Plate for Sam's,USJ-849USJ-849,New,New,,,,,491.04,459.99,31.05,Gail Kerns,,496.79,Approval #000916 TC#0250 7616 3268 3576 5003 9,,,,,,,,,,,,,,,,,,,,,,,YES,"2 years parts, 1 year labor (Small Items)",Delivered,"Sam's Club #4816 Aurora, CO 11/9-19/17 (TX)",,Picked Up at time of purchase,101879,"Sales Tax is incorrect
8% = $36.80",TX,0,6.75
11/14/2017 9:57:27 PM,Blair Laigo,CO,80018,Relax2Zero 2.0 for Sam's,USJ-9050USJ-9050BR,Brown,New,,,,,3414.93,3199.00,215.93,Gail Kerns,,3454.92,Approval #06997C & #452270 TC #5964 6710 1756 0863,,,,,,,,,,,,,,,,,,,,,,12/26/2017 12:00:00 AM,No,"3 years parts, 1 year labor (Free)",Delivered,"Sam's Club #4816 Aurora, CO 11/9-19/17 (TX)",,,101880,Tax rate incorrect 8% = $255.92,TX,0,6.75
11/14/2017 10:04:13 PM,Sheryl Childs,CO,80011,Vitality Plate for Sam's,USJ-849USJ-849,New,New,,,,,491.04,459.99,31.05,Gail Kerns,,496.79,Approval #730069 TC#0059 7848 6407 1338 0123 5,,,,,,,,,,,,,,,,,,,,,,,YES,"2 years parts, 1 year labor (Small Items)",Delivered,"Sam's Club #4816 Aurora, CO 11/9-19/17 (TX)",,Picked up at time of purchase,101881,Tax rate incorrect in system. Should be 8% = $36.80,TX,0,6.75
11/14/2017 10:09:26 PM,Diane Lesnansky,CO,80013,Vitality Plate for Sam's,USJ-849USJ-849,New,New,,,,,491.04,459.99,31.05,Gail Kerns,,496.79,Approval #07086D TC#7825 0373 4931 6403. 4776 2,,,,,,,,,,,,,,,,,,,,,,,YES,"2 years parts, 1 year labor (Small Items)",Delivered,"Sam's Club #4816 Aurora, CO 11/9-19/17 (TX)",,Picked up by customer at time of purchase,101882,Tax rate incorrect should be 8% = $36.80,TX,0,6.75
11/19/2017 11:26:17 AM,Joe Austin,CO,80016-5216,Legacy for Sam's,DWA-9100DWA-9100SB,Sienna Brown,New,,,,,8529.84,7898.00,631.84,Gail Kerns,,3886.92,Approval #001865 TC#7016 3055 9379 8429 5148 40,,,,,,,,,,,,,,,,,,,,,,11/27/2017 12:00:00 AM,No,"3 years parts, 1 year labor (Free)",Delivered,"Sam's Club #4816 Aurora, CO 11/9-19/17 (TX)",,,101974,"Please remove and haul away old chair.
NOTE. Price jumped to $8,000 
Sales tax is 8% for this store
Customer paid in full",TX,0,8.00
11/19/2017 11:26:17 AM,Joe Austin,CO,80016-5216,Chair Pad for Legacy,,,New,,,,,8529.84,7898.00,631.84,Gail Kerns,,3886.92,Approval #001865 TC#7016 3055 9379 8429 5148 40,,,,,,,,,,,,,,,,,,,,,,11/27/2017 12:00:00 AM,No,no warranty,Delivered,"Sam's Club #4816 Aurora, CO 11/9-19/17 (TX)",,,101974,"Please remove and haul away old chair.
NOTE. Price jumped to $8,000 
Sales tax is 8% for this store
Customer paid in full",TX,0,8.00
11/19/2017 12:34:00 PM,Mei Kuang,CO,80013,Ninja Leg Massager,,,New,,,,,409.32,379.00,30.32,Gail Kerns,,409.32,Approval #07469B TC#3222 4220 4194 9702 1036 8,,,,,,,,,,,,,,,,,,,,,,11/19/2017 12:00:00 AM,YES,"2 years parts, 1 year labor (Small Items)",Delivered,"Sam's Club #4816 Aurora, CO 11/9-19/17 (TX)",,,101976,,TX,0,8.00
11/19/2017 3:42:20 PM,Artto Ensmeier,CO,80135,Relax2Zero 2.0 for Sam's,USJ-9050USJ-9050BR,Brown,New,,,,,3454.92,3199.00,255.92,Gail Kerns,,3454.92,Approval #09461Z,,,,,,,,,,,,,,,,,,,,,,11/26/2017 12:00:00 AM,No,"3 years parts, 1 year labor (Free)",Delivered,"Sam's Club #4816 Aurora, CO 11/9-19/17 (TX)",,,101983,,TX,0,8.00
11/19/2017 3:42:20 PM,Artto Ensmeier,CO,80135,Chair Pad for Relax2Zero 2.0,,,New,,,,,3454.92,3199.00,255.92,Gail Kerns,,3454.92,Approval #09461Z,,,,,,,,,,,,,,,,,,,,,,11/26/2017 12:00:00 AM,No,no warranty,Delivered,"Sam's Club #4816 Aurora, CO 11/9-19/17 (TX)",,,101983,,TX,0,8.00
11/19/2017 3:49:05 PM,Tammy Herman,CO,80016,Vitality Plate for Sam's,USJ-849USJ-849,New,New,,,,,496.79,459.99,36.80,Gail Kerns,,496.79,Approval #989463,,,,,,,,,,,,,,,,,,,,,,11/19/2017 12:00:00 AM,YES,"2 years parts, 1 year labor (Small Items)",Delivered,"Sam's Club #4816 Aurora, CO 11/9-19/17 (TX)",,,101984,Picked Up,TX,0,8.00
11/20/2017 10:09:50 PM,Yvonne Wingard,CO,80016,Relax2Zero 2.0 for Sam's,USJ-9050USJ-9050BR,Brown,New,,,,,3454.92,3199.00,255.92,Gail Kerns,,3454.92,Approval #019999,,,,,,,,,,,,,,,,,,,,,,,No,"3 years parts, 1 year labor (Free)",Scheduled,"Sam's Club #4816 Aurora, CO 11/9-19/17 (TX)",,,102016,,TX,0,8.00
11/20/2017 10:18:29 PM,Joo Lee,CO,80016,Relax2Zero 2.0 for Sam's,USJ-9050USJ-9050BR,Brown,New,,,,,3454.92,3199.00,255.92,Gail Kerns,,3454.92,Approval #000925,,,,,,,,,,,,,,,,,,,,,,11/25/2017 12:00:00 AM,No,"3 years parts, 1 year labor (Free)",Delivered,"Sam's Club #4816 Aurora, CO 11/9-19/17 (TX)",,,102017,,TX,0,8.00
11/20/2017 10:25:42 PM,Rashid Ali,CO,80015,Relax2Zero 2.0 for Sam's,USJ-9050USJ-9050BL,Black,New,,,,,3454.92,3199.00,255.92,Gail Kerns,,3454.92,Approval #019812 & #000818,,,,,,,,,,,,,,,,,,,,,,11/25/2017 12:00:00 AM,No,"3 years parts, 1 year labor (Free)",Delivered,"Sam's Club #4816 Aurora, CO 11/9-19/17 (TX)",,,102018,,TX,0,8.00
11/20/2017 10:35:41 PM,Srinivasan Raj,CO,80016,Relax2Zero 2.0 for Sam's,USJ-9050USJ-9050BL,Black,New,,,,,3454.92,3199.00,255.92,Gail Kerns,,3454.92,Approval #003250,,,,,,,,,,,,,,,,,,,,,,11/25/2017 12:00:00 AM,No,"3 years parts, 1 year labor (Free)",Delivered,"Sam's Club #4816 Aurora, CO 11/9-19/17 (TX)",,,102020,"I choose Black but please check with customer before shipping!
Customer change mind to brown color 11/23/2017",TX,0,8.00
11/20/2017 10:43:46 PM,Tyrone Hill,CO,80634,Relax2Zero 2.0 for Sam's,USJ-9050USJ-9050BL,Black,New,,,,,3454.92,3199.00,255.92,Gail Kerns,,3454.92,Approval #001372,,,,,,,,,,,,,,,,,,,,,,12/11/2017 12:00:00 AM,No,"3 years parts, 1 year labor (Free)",Delivered,"Sam's Club #4816 Aurora, CO 11/9-19/17 (TX)",,,102021,"12/05/17-Cristina- STI # BR704700 COLOR CHANGE: BROWN
Last Min. Request deliver week of Dec 25th. 
Shipment pick up date : 12/06/17",CA,0,8.00
11/20/2017 11:03:11 PM,Leon Zokovsky,CO,80016,Vitality Plate for Sam's,USJ-849USJ-849,New,New,,,,,400.00,400.00,0.00,Gail Kerns,,431.99,Approval #001246,,,,,,,,,,,,,,,,,,,,,,,No,"2 years parts, 1 year labor (Small Items)",Delivered,"Sam's Club #4816 Aurora, CO 11/9-19/17 (TX)",,,102022,"Per Gail, It was not picked up, NEED TO BE DELIVERED. 11/21/17 Riho",TX,0,8.00
11/20/2017 11:13:22 PM,Dung Phan,CO,80031,Legacy for Sam's,DWA-9100DWA-9100CH,Choco,New,,,,,3886.92,3599.00,287.92,Gail Kerns,,3886.92,Approval #283120,,,,,,,,,,,,,,,,,,,,,,11/26/2017 12:00:00 AM,No,"3 years parts, 1 year labor (Free)",Delivered,"Sam's Club #4816 Aurora, CO 11/9-19/17 (TX)",,,102023,Picked up Ninja Leg Massager.,TX,0,8.00
11/20/2017 11:13:22 PM,Dung Phan,CO,80031,Ninja Leg Massager,,,New,,,,,3886.92,3599.00,287.92,Gail Kerns,,3886.92,Approval #283120,,,,,,,,,,,,,,,,,,,,,,11/26/2017 12:00:00 AM,No,"2 years parts, 1 year labor (Small Items)",Delivered,"Sam's Club #4816 Aurora, CO 11/9-19/17 (TX)",,,102023,Picked up Ninja Leg Massager.,TX,0,8.00
