﻿Original Event Name,Event Name,Sales Person,Order Number,Order Date,Customer Name,State,Zip,Product Name,Color,Product Status,QTY,Tax,Total Before Tax,Order Total,Primary Payment Method,Second Payment Method,Thirdl Payment Method,Warranty,Order Items,Pick up,Delivered On,Order Status,Chair Type,Order Notes,Private Note,Branch,No Tax,Actual Tax Rate,SKU,Primary Payment Balance,Primary Authorize Number,Primary Purchase Order Number,Primary Synchrony Account Number,Primary Synchrony Application Key,Primary Synchrony Account Info,Primary Synchrony Term,Primary Synchrony Primary ID,Primary Synchrony Issued State,Primary Synchrony Expiretion Date,Second Payment Balance,Second Authorize Number,Second Purchase Order Number,Second Synchrony Account Number,Second Synchrony Application Key,Second Synchrony Account Info,Second SynchronyTerm,Second Synchrony Primary ID,Second Synchrony Issued State,Second Synchrony Expiretion Date,Third Payment Balance,Third Authorize Number,Third Purchase Order Number,Third Synchrony Account Number,Third Synchrony Application Key,Third Synchrony Account Info,Third Synchrony Term,Third Synchrony Primary ID,Third Synchrony Issued State,Third Synchrony Expiretion Date
"Austin Fall Home and Garden 8/23-25/19, TX","Austin Fall Home and Garden 8/23-25/19, TX",Tom Nguyen,120471,8/25/2019 5:14:51 PM,Tim Snodgrass,TX,78704,PEGASUS 2 SMART,Demo Black,Demo,1,0.00,4500.00,4500.00,Credit Card,Credit Card,,"5 years parts, 1 year labor (Free)","PEGASUS 2 SMART,",YES,8/25/2019 12:00:00 AM,Delivered,Demo,"SN#1201001180157
Customer picked up 08/25/2019.",Original received. Chair has been delivered. SQ amount verified of $500 & $4000. Paid in full-Erika 8/26/19 2:01pm,TX,1,8.25,PEGS-2PEGS-2-BL-DEMO,500.00,Square #htn5,,,,,,,,/,4000.00,Square #Qx6T,,,,,,,,/,0.00,,,,,,,,,/
"Austin Fall Home and Garden 8/23-25/19, TX","Austin Fall Home and Garden 8/23-25/19, TX",Jennifer Tran,120473,8/25/2019 5:44:26 PM,Jim & Julie Morales,TX,78642,Symphony,Demo Black,Demo,1,313.50,3800.00,4113.50,Synchrony,,,"5 years parts, 1 year labor (Free)","Symphony,",YES,8/26/2019 12:00:00 AM,Delivered,Demo,"SN#93160006D 
Auth#024931 
Customer pick up 08/26/2019.","Synchrony original verified. Chair was charged and delivered. Sales draft signed, customer signed electronically, cristina spoke to sales rep and emailed customer for new signature.-Erika 8/26/19 2:18pm",TX,0,8.25,USJ-9300Symphony-BL-DEMO,4113.50,,,6501723375290184,80106134,Huston,36 months,Driver’s License,TX,10/2023,0.00,,,,,,,,,/,0.00,,,,,,,,,/
"Austin Fall Home and Garden 8/23-25/19, TX","Austin Fall Home and Garden 8/23-25/19, TX",Kristy Tran,120474,8/25/2019 5:53:55 PM,Matt Houston,TX,78645,Relax 2 Zero 3D,Demo Choco,Demo,1,0.00,3300.00,3300.00,Credit Card,,,"5 years parts, 1 year labor (Free)","Relax 2 Zero 3D,",YES,8/25/2019 12:00:00 AM,Delivered,Demo,"SN 0103002181179
Customer pick up 08/25/2019.",Original received. SQ amount verified $3300. Paid in full. Chair was delivered.-Erika 8/26/19 2:12pm,TX,1,8.25,DWA-9060USJ-9060BR-DEMO,3300.00,Square #m2qs,,,,,,,,/,0.00,,,,,,,,,/,0.00,,,,,,,,,/
"Austin Fall Home and Garden 8/23-25/19, TX","Austin Fall Home and Garden 8/23-25/19, TX",Tom Nguyen,120475,8/25/2019 6:04:20 PM,Frank Kee,TX,78634,PEGASUS 2 SMART,Demo Choco,Demo,1,0.00,4800.00,4800.00,Synchrony,,,"5 years parts, 1 year labor (Free)","PEGASUS 2 SMART,",YES,8/25/2019 12:00:00 AM,Delivered,Demo,"SN 1201002180086
Auth#024683
Customer pick up 08/25/2019.","Synchrony original verified. Chair was charged and delivered. Sales draft signed, customer signed electronically, cristina spoke to sales rep and emailed customer for new signature.-Erika 8/26/19 2:18pm",TX,1,8.25,PEGS-2PEGS-2-BR-DEMO,4800.00,,,6501723375290341,80110701,Huston,48 months,Driver’s License,TX,01/2021,0.00,,,,,,,,,/,0.00,,,,,,,,,/
"Austin Fall Home and Garden 8/23-25/19, TX","Austin Fall Home and Garden 8/23-25/19, TX",Kristy Tran,120477,8/25/2019 6:07:50 PM,Stephanie Ratliff,TX,78737,Legacy 4,Demo Black,Demo,1,0.00,3300.00,3300.00,Credit Card,,,"5 years parts, 1 year labor (Free)","Legacy 4,",YES,8/25/2019 12:00:00 AM,Delivered,Demo,"SN 0203001180001
Customer pick up 8/25/2019.",Original received. Sq amount verified. Paid in full. Chair was delivered-Erika 8/26/19 2:24pm,TX,1,8.25,LGCY-4LGCY-4BL-DEMO,3300.00,Square #7wo9,,,,,,,,/,0.00,,,,,,,,,/,0.00,,,,,,,,,/
"Austin Fall Home and Garden 8/23-25/19, TX","Austin Fall Home and Garden 8/23-25/19, TX",Kristy Tran,120478,8/25/2019 6:16:16 PM,Austin Shuler,TX,78610,Legacy 4,Demo Black,Demo,1,0.00,3300.00,3300.00,Credit Card,,,"5 years parts, 1 year labor (Free)","Legacy 4,",YES,8/25/2019 12:00:00 AM,Delivered,Demo,"SN 0203001180002
Customer pick up 8/25/2019.",Original received. Sq amount verified $3300. Paid in full. Chair has been delivered-Erika 8/26/19 2:30pm,TX,1,8.25,LGCY-4LGCY-4BL-DEMO,3300.00,Square #6Dy4,,,,,,,,/,0.00,,,,,,,,,/,0.00,,,,,,,,,/
