﻿Original Event Name,Event Name,Sales Person,Order Number,Order Date,Customer Name,State,Zip,Product Name,Color,Product Status,QTY,Tax,Total Before Tax,Order Total,Primary Payment Method,Second Payment Method,Thirdl Payment Method,Warranty,Order Items,Pick up,Delivered On,Order Status,Chair Type,Order Notes,Private Note,Branch,No Tax,Actual Tax Rate,SKU,Primary Payment Balance,Primary Authorize Number,Primary Purchase Order Number,Primary Synchrony Account Number,Primary Synchrony Application Key,Primary Synchrony Account Info,Primary Synchrony Term,Primary Synchrony Primary ID,Primary Synchrony Issued State,Primary Synchrony Expiretion Date,Second Payment Balance,Second Authorize Number,Second Purchase Order Number,Second Synchrony Account Number,Second Synchrony Application Key,Second Synchrony Account Info,Second SynchronyTerm,Second Synchrony Primary ID,Second Synchrony Issued State,Second Synchrony Expiretion Date,Third Payment Balance,Third Authorize Number,Third Purchase Order Number,Third Synchrony Account Number,Third Synchrony Application Key,Third Synchrony Account Info,Third Synchrony Term,Third Synchrony Primary ID,Third Synchrony Issued State,Third Synchrony Expiretion Date
"CHAMPLAIN VALLEY FAIR 8/23-9/1/19 VERMONT, VT","CHAMPLAIN VALLEY FAIR 8/23-9/1/19 VERMONT, VT",Winston Melgar,120500,8/26/2019 3:41:43 PM,Manuela Knickerbacker,AA,05403,Legacy 3D,Demo Choco,Demo,1,0.00,3600.00,3600.00,Synchrony,,,"5 years parts, 1 year labor (Free)","Legacy 3D,",YES,,Delivered,,,"P/U from convention
SN #0202002181461",IL,1,6.00,DWA-9150USJ-9150CH-DEMO,3600.00,,,6501723375291828,80147650,San Diego,36 months,Driver’s License,VT,01/2021,0.00,,,,,,,,,/,0.00,,,,,,,,,/
"CHAMPLAIN VALLEY FAIR 8/23-9/1/19 VERMONT, VT","CHAMPLAIN VALLEY FAIR 8/23-9/1/19 VERMONT, VT",Ruben Cuatrona,120501,8/26/2019 3:51:01 PM,John Moniz,VT,05061,Hubble,Demo Black,Demo,1,0.00,5000.00,5000.00,Synchrony,,,"5 years parts, 2 years labor ($200)","Hubble,",YES,8/29/2019 12:00:00 AM,Delivered,Demo,,"Chair will be delivered this weekend,
Original received. Synchrony was verified and charged. I Send the customer the sales draft to get it signed-Erika 8/27/19 3:32pm",IL,1,6.00,HUBL-1HUBL-1BL-DEMO,5000.00,,,6034623337418715,,Las Vegas,36 months,Driver’s License,VT,08/2021,0.00,,,,,,,,,/,0.00,,,,,,,,,/
"CHAMPLAIN VALLEY FAIR 8/23-9/1/19 VERMONT, VT","CHAMPLAIN VALLEY FAIR 8/23-9/1/19 VERMONT, VT",Ruben Cuatrona,120503,8/26/2019 5:26:01 PM,Linda Bell,VT,05468,PEGASUS 2 SMART,Demo Choco,Demo,1,0.00,5000.00,5000.00,Synchrony,COD,,"5 years parts, 1 year labor (Free)","PEGASUS 2 SMART,",No,,Hold,,,"HOLD DO NOT SHIP
COD $2600.00",Not Dispatched,1,6.00,PEGS-2PEGS-2-BR-DEMO,2400.00,,,6501723375289244,80087145,San Diego,36 months,Driver’s License,VT,07/2023,2600.00,,,,,,,,,/,0.00,,,,,,,,,/
"CHAMPLAIN VALLEY FAIR 8/23-9/1/19 VERMONT, VT","CHAMPLAIN VALLEY FAIR 8/23-9/1/19 VERMONT, VT",Ruben Cuatrona,120504,8/26/2019 5:32:31 PM,Brian Mc Donald,VT,05455,Hubble,New Choco,New,1,0.00,4700.00,4700.00,Credit Card,,,"5 years parts, 3 years labor ($400)","Hubble,",No,,New,,,"Original received. SQ amount verified $4700. Paid in full-Erika 8/27/19 3:35pm
8/28Maritza- Courtesy message sent @ 10:24AM",CA,1,6.00,HUBL-1HUBL-1CH,4700.00,Sq #Zf7n,,,,,,,,/,0.00,,,,,,,,,/,0.00,,,,,,,,,/
"CHAMPLAIN VALLEY FAIR 8/23-9/1/19 VERMONT, VT","CHAMPLAIN VALLEY FAIR 8/23-9/1/19 VERMONT, VT",Ruben Cuatrona,120505,8/26/2019 5:38:58 PM,Marcel & Suzanne Isabelle,VT,05907,PEGASUS 2 SMART,New Black,New,1,0.00,5500.00,5500.00,Credit Card,,,"5 years parts, 2 years labor ($200)","PEGASUS 2 SMART,",No,,New,,,"Original received. SQ amount verified $5500. Paid in full-Erika 8/27/19 3:36pm
8/28Maritza- Courtesy message sent to the cell number @ 10:27AM",CA,1,6.00,PEGS-2PEGS-2-BL,5500.00,Sq #T6w4,,,,,,,,/,0.00,,,,,,,,,/,0.00,,,,,,,,,/
"CHAMPLAIN VALLEY FAIR 8/23-9/1/19 VERMONT, VT","CHAMPLAIN VALLEY FAIR 8/23-9/1/19 VERMONT, VT",Ruben Cuatrona,120533,8/30/2019 7:35:22 AM,Wayne Trudsoe,NY,12817,PEGASUS 2 SMART,Demo Choco,Demo,1,0.00,5200.00,5200.00,Synchrony,,,"5 years parts, 2 years labor ($200)","PEGASUS 2 SMART,",YES,,New,,,NEW CHAIR,Not Dispatched,1,6.00,PEGS-2PEGS-2-BR-DEMO,5200.00,,,6501723375296140,80299326,San Diego,48 months,Driver’s License,NY,09/2027,0.00,,,,,,,,,/,0.00,,,,,,,,,/
"CHAMPLAIN VALLEY FAIR 8/23-9/1/19 VERMONT, VT","CHAMPLAIN VALLEY FAIR 8/23-9/1/19 VERMONT, VT",Winston Melgar,120534,8/30/2019 7:45:34 AM,Mark Parent,VT,05477,Legacy 3D,New Black,New,1,0.00,3900.00,3900.00,Synchrony,COD,,"5 years parts, 1 year labor (Free)","Legacy 3D,",No,,New,,,,Not Dispatched,1,6.00,DWA-9150USJ-9150BL,2200.00,,,6501723375294954,80254219,San Diego,36 months,Driver’s License,VT,02/2020,1700.00,,,,,,,,,/,0.00,,,,,,,,,/
"CHAMPLAIN VALLEY FAIR 8/23-9/1/19 VERMONT, VT","CHAMPLAIN VALLEY FAIR 8/23-9/1/19 VERMONT, VT",Ruben Cuatrona,120535,8/30/2019 7:51:25 AM,John Thouron,VT,05682,PEGASUS 2 SMART,New Choco,New,1,0.00,5000.00,5000.00,Credit Card,,,"5 years parts, 3 years labor ($400)","PEGASUS 2 SMART,",No,,New,,,,Not Dispatched,1,6.00,PEGS-2PEGS-2-BR,5000.00,Sq #LAjz,,,,,,,,/,0.00,,,,,,,,,/,0.00,,,,,,,,,/
"CHAMPLAIN VALLEY FAIR 8/23-9/1/19 VERMONT, VT","CHAMPLAIN VALLEY FAIR 8/23-9/1/19 VERMONT, VT",Ruben Cuatrona,120536,8/30/2019 7:56:30 AM,David/Fred Feller,WA,98498,Legacy 3D,New Black,New,1,0.00,3800.00,3800.00,Credit Card,,,"5 years parts, 1 year labor (Free)","Legacy 3D,",No,,New,,,,Not Dispatched,1,6.00,DWA-9150USJ-9150BL,3800.00,Sq #TJem,,,,,,,,/,0.00,,,,,,,,,/,0.00,,,,,,,,,/
"CHAMPLAIN VALLEY FAIR 8/23-9/1/19 VERMONT, VT","CHAMPLAIN VALLEY FAIR 8/23-9/1/19 VERMONT, VT",Winston Melgar,120605,9/1/2019 2:38:11 PM,Mark Fenn,VT,05060,Legacy 3D,Demo Black,Demo,1,0.00,3500.00,3500.00,Credit Card,,,"5 years parts, 1 year labor (Free)","Legacy 3D,",No,,New,,,,Not Dispatched,1,6.00,DWA-9150USJ-9150BL-DEMO,3500.00,Sq #X25J,,,,,,,,/,0.00,,,,,,,,,/,0.00,,,,,,,,,/
"CHAMPLAIN VALLEY FAIR 8/23-9/1/19 VERMONT, VT","CHAMPLAIN VALLEY FAIR 8/23-9/1/19 VERMONT, VT",Winston Melgar,120607,9/1/2019 2:44:21 PM,Michael O Keefe,VT,05846,Legacy 3D,Demo Black,Demo,1,0.00,3800.00,3800.00,Synchrony,,,"5 years parts, 1 year labor (Free)","Legacy 3D,",No,,New,,,,Not Dispatched,1,6.00,DWA-9150USJ-9150BL-DEMO,3800.00,,,6501723375301031,80460027,San Diego,36 months,Driver’s License,VT,02/2022,0.00,,,,,,,,,/,0.00,,,,,,,,,/
"CHAMPLAIN VALLEY FAIR 8/23-9/1/19 VERMONT, VT","CHAMPLAIN VALLEY FAIR 8/23-9/1/19 VERMONT, VT",Winston Melgar,120608,9/1/2019 2:51:06 PM,Arturo Grimaldo,VT,05465,Legacy 3D,Demo Black,Demo,1,0.00,3800.00,3800.00,Synchrony,,,"5 years parts, 2 years labor ($200)","Legacy 3D,",No,,New,,,Delivery day Saturday and sunday,Not Dispatched,1,6.00,DWA-9150USJ-9150BL-DEMO,3800.00,,,6501723375303961,80525302,San Diego,36 months,Driver’s License,VT,08/2020,0.00,,,,,,,,,/,0.00,,,,,,,,,/
"CHAMPLAIN VALLEY FAIR 8/23-9/1/19 VERMONT, VT","CHAMPLAIN VALLEY FAIR 8/23-9/1/19 VERMONT, VT",Winston Melgar,120609,9/1/2019 2:57:33 PM,David Ezero,NY,12972,PEGASUS 2 SMART,Demo Choco,Demo,1,0.00,5800.00,5800.00,Synchrony,,,"5 years parts, 1 year labor (Free)","PEGASUS 2 SMART,",No,,New,,,,Not Dispatched,1,6.00,PEGS-2PEGS-2-BR-DEMO,5800.00,,,6501723375302936,80502911,San Diego,36 months,Driver’s License,NY,11/2025,0.00,,,,,,,,,/,0.00,,,,,,,,,/
"CHAMPLAIN VALLEY FAIR 8/23-9/1/19 VERMONT, VT","CHAMPLAIN VALLEY FAIR 8/23-9/1/19 VERMONT, VT",Winston Melgar,120610,9/1/2019 3:20:40 PM,Gary Ligmanh,AA,05478,Legacy 3D,New Choco,New,1,0.00,4500.00,4500.00,Synchrony,,,"5 years parts, 2 years labor ($200)","Legacy 3D,",No,,New,,,,Not Dispatched,1,6.00,DWA-9150USJ-9150CH,4500.00,,,6501723375303516,80517682,San Diego,36 months,Driver’s License,VT,07/2020,0.00,,,,,,,,,/,0.00,,,,,,,,,/
"CHAMPLAIN VALLEY FAIR 8/23-9/1/19 VERMONT, VT","CHAMPLAIN VALLEY FAIR 8/23-9/1/19 VERMONT, VT",Winston Melgar,120611,9/1/2019 3:40:08 PM,Tabatha West,VT,05446,Legacy 3D,New Black,New,1,0.00,4200.00,4200.00,Credit Card,COD,,"5 years parts, 2 years labor ($200)","Legacy 3D,",No,,New,,,"Call customer for balanced and
Charge before delivery
Balanced $3200",Not Dispatched,1,6.00,DWA-9150USJ-9150BL,1000.00,Sq #xeUk,,,,,,,,/,3200.00,,,,,,,,,/,0.00,,,,,,,,,/
"CHAMPLAIN VALLEY FAIR 8/23-9/1/19 VERMONT, VT","CHAMPLAIN VALLEY FAIR 8/23-9/1/19 VERMONT, VT",Winston Melgar,120613,9/1/2019 3:45:36 PM,Kevin Russin,VT,05468,Legacy 3D,Demo Black,Demo,1,0.00,3500.00,3500.00,Cash,Check,,"5 years parts, 1 year labor (Free)","Legacy 3D,",YES,,New,,,"Pick up at the fair
San #202001191453
Check #127",Not Dispatched,1,6.00,DWA-9150USJ-9150BL-DEMO,100.00,,,,,,,,,/,3400.00,,,,,,,,,/,0.00,,,,,,,,,/
"CHAMPLAIN VALLEY FAIR 8/23-9/1/19 VERMONT, VT","CHAMPLAIN VALLEY FAIR 8/23-9/1/19 VERMONT, VT",Winston Melgar,120614,9/1/2019 3:49:39 PM,Kim Nuse,VT,05656,Legacy 3D,New Black,New,1,0.00,4500.00,4500.00,Synchrony,,,"5 years parts, 2 years labor ($200)","Legacy 3D,",No,,New,,,Place on hold,Not Dispatched,1,6.00,DWA-9150USJ-9150BL,4500.00,,,6501723375304241,80529845,San Diego,36 months,Driver’s License,VT,11/2019,0.00,,,,,,,,,/,0.00,,,,,,,,,/
