﻿Date,CustomerName,State,Zipcode,Description,productNo,Color,IsDemo,Net,ShippingFee,GiftPrice,FinancingProcessingFee,Gross,Pre_tax,Tax,Commission,Primary Payment Method,Primary Payment Balance,Primary Authorize Number,Primary Purchase Order Number,Primary Synchrony Account Number,Primary Synchrony Application Key,Primary Synchrony AccountInfo,Primary SynchronyTerm,Secondly Payment Method,Secondly Payment Balance,Secondly Authorize Number,Secondly Purchase Order Number,Secondly Synchrony Account Number,Secondly Synchrony Application Key,Secondly Synchrony AccountInfo,Secondly SynchronyTerm,Thirdly Payment Method,Thirdly Payment Balance,Thirdly Authorize Number,Thirdly Purchase Order Number,Thirdly Synchrony Account Number,Thirdly Synchrony Application Key,Thirdly Synchrony AccountInfo,Thirdly SynchronyTerm,DeliveryDate,Ispickup,Warranty,Status,Event Name,Synchrony Notes,Order Notes,Order number,Private Note,Branch,IsNoTax,ActualTaxRate
1/4/2018 1:37:57 PM,Chris Koller,NV,89156,Legacy for Sam's,DWA-9100DWA-9100CH,Choco,New,,,,,4653.67,4299.00,354.67,Kohei Uno,CreditCard,4653.67,000737,,,,,,,0.00,,,,,,,,0.00,,,,,,,1/5/2018 12:00:00 AM,No,"3 years parts, 1 year labor (Free)",Delivered,Sam's Club #6382 Las Vegas (NV),,,102735,confirmed TC# 6237 6495 5159 5710 1262 88. 1/4/18 Hitomi,NV,0,8.25
1/6/2018 11:08:22 AM,Pick up Na,NV,89103,Vitality Plate for Sam's,USJ-849USJ-849,New,New,,,,,497.94,459.99,37.95,Kohei Uno,CreditCard,497.94,000989,,,,,,,0.00,,,,,,,,0.00,,,,,,,1/6/2018 12:00:00 AM,YES,"2 years parts, 1 year labor (Small Items)",Delivered,Sam's Club #6382 Las Vegas (NV),,,102750,"TC# 4227 3985 3575 7181 7129 8
will confirm customer information. 1/8/18 Hitomi",NV,0,8.25
1/7/2018 12:56:53 PM,Ronald Pezzuti,NV,89103,Legacy for Sam's,DWA-9100DWA-9100BG,Beige,New,,,,,3895.92,3599.00,296.92,Kohei Uno,CreditCard,3895.92,001258,,,,,,,0.00,,,,,,,,0.00,,,,,,,1/11/2018 12:00:00 AM,No,"3 years parts, 1 year labor (Free)",Delivered,Sam's Club #6382 Las Vegas (NV),,,102774,Tc# 9245 4036 1319 1525 2016 89,NV,0,8.25
1/7/2018 3:06:39 PM,Na Na,NV,89156,Vitality Plate for Sam's,USJ-849USJ-849,New,New,,,,,497.94,459.99,37.95,Kohei Uno,CreditCard,497.94,000755,,,,,,,0.00,,,,,,,,0.00,,,,,,,1/8/2018 12:00:00 AM,YES,"2 years parts, 1 year labor (Small Items)",Delivered,Sam's Club #6382 Las Vegas (NV),,,102778,TC# 8745 6391 0151 5212 3761 9,NV,0,8.25
1/9/2018 4:55:17 PM,Kiet Tanng,NV,89117,Legacy for Sam's,DWA-9100DWA-9100CH,Choco,New,,,,,4653.67,4299.00,354.67,Jovylyn Florea,CreditCard,4653.67,001025,,,,,,,0.00,,,,,,,,0.00,,,,,,,1/11/2018 12:00:00 AM,No,"3 years parts, 1 year labor (Free)",Delivered,Sam's Club #6382 Las Vegas (NV),,,102819,3972 6526 4341 4087 8939 11,NV,0,8.25
1/11/2018 2:43:42 PM,Daiwa Massage,CA,90249,Foot Vibe Pro,USJ-871,,New,,,,,119.06,109.99,9.07,Michael Wang,CreditCard,119.06,Tc# 8441 6444 2636 7745 3514 9,,,,,,,0.00,,,,,,,,0.00,,,,,,,,YES,"2 years parts, 1 year labor (Small Items)",Cancelled,Sam's Club #6382 Las Vegas (NV),,,102863,"Please add Reno Sam’s 4768 to event name.
Sales tax 8.265.Final price should be 119.08.
revised to #102874. 1/12/18 Hitomi",Not Dispatched,0,8.25
1/11/2018 7:37:50 PM,Daiwa Massage,CA,90249,Ninja Leg Massager,,,New,,,,,410.27,379.00,31.27,Jovylyn Florea,PurchaseOrder,0.00,,TC 8435 9393 5171 5242 1769 9,,,,,,0.00,,,,,,,,0.00,,,,,,,,YES,"2 years parts, 1 year labor (Small Items)",Delivered,Sam's Club #6382 Las Vegas (NV),,,102881,TC 8435 9393 5171 5242 1769 9,CA,0,8.25
1/13/2018 7:16:53 PM,Daiwa Massage,CA,90249,Vitality Plate for Sam's,USJ-849USJ-849,New,New,,,,,497.94,459.99,37.95,Jovylyn Florea,CreditCard,497.94,02170Z,,,,,,,0.00,,,,,,,,0.00,,,,,,,,YES,"2 years parts, 1 year labor (Small Items)",Delivered,Sam's Club #6382 Las Vegas (NV),,,102924,TC# 4068 5747 8929 8343 5001 6,CA,0,8.25
1/14/2018 4:09:20 PM,Daiwa Massage,CA,90249,Vitality Plate for Sam's,USJ-849USJ-849-DEMO,Demo,Demo,,,,,432.99,399.99,33.00,Jovylyn Florea,CreditCard,432.99,001086,,,,,,,0.00,,,,,,,,0.00,,,,,,,,YES,"2 years parts, 1 year labor (Small Items)",Delivered,Sam's Club #6382 Las Vegas (NV),,,102960,TC # 4648 6757 6929 8353 5008 6  confirmed with sales rep. 1/16/18 Hitomi,CA,0,8.25
1/14/2018 10:44:50 PM,Daiwa Massage,CA,90249,Vitality Plate for Sam's,USJ-849USJ-849,New,New,,,,,497.94,459.99,37.95,Jovylyn Florea,CreditCard,497.94,000844,,,,,,,0.00,,,,,,,,0.00,,,,,,,,YES,"2 years parts, 1 year labor (Small Items)",Delivered,Sam's Club #6382 Las Vegas (NV),,,102970,TC# 1211 8464 3636 2717 8759 0  confirmed with sales rep. 1/16/18 Hitomi,CA,0,8.25
1/14/2018 11:15:49 PM,Maria Navarro,NV,89103,Relax2Zero 2.0 for Sam's,USJ-9050USJ-9050BR-DEMO,Demo Brown,Demo,,,,,3198.79,2955.00,243.79,Jovylyn Florea,CreditCard,3199.00,000852,,,,,,,0.00,,,,,,,,0.00,,,,,,,1/18/2018 12:00:00 AM,YES,"3 years parts, 1 year labor (Free)",Delivered,Sam's Club #6382 Las Vegas (NV),,Deliver it New,102971,"TC# 6408 4077 7695 9838 3580 86
delivery jan 18 2018 - 10am - 2pm - stephany 01/16/18",NV,0,8.25
1/14/2018 11:41:50 PM,Chun Jo Lim,AA,89146,Legacy for Sam's,DWA-9100DWA-9100BL-DEMO,Demo Black,Demo,,,,,3709.73,3427.00,282.73,Jovylyn Florea,CreditCard,3709.67,000819,,,,,,,0.00,,,,,,,,0.00,,,,,,,1/26/2018 12:00:00 AM,No,"3 years parts, 1 year labor (Free)",Delivered,Sam's Club #6382 Las Vegas (NV),,,102972,TC # 5293 5502 0320 2164 6687 73 CUSTOMER CHANGE TO SHEENA BROWN INSTEAD BLACK,NV,0,8.25
1/14/2018 11:56:15 PM,Martha Aguilar,AA,89103,Legacy for Sam's,DWA-9100DWA-9100BL-DEMO,Demo Blue,Demo,,,,,3895.92,3599.00,296.92,Jovylyn Florea,CreditCard,3895.92,001031,,,,,,,0.00,,,,,,,,0.00,,,,,,,1/23/2018 12:00:00 AM,No,"3 years parts, 1 year labor (Free)",Delivered,Sam's Club #6382 Las Vegas (NV),,,102973,TC 7046 8155 5831 3909 0194 67,NV,0,8.25
