﻿Date,CustomerName,State,Zipcode,Description,productNo,Color,IsDemo,Net,ShippingFee,GiftPrice,FinancingProcessingFee,Gross,Pre_tax,Tax,Commission,Primary Payment Method,Primary Payment Balance,Primary Authorize Number,Primary Purchase Order Number,Primary Synchrony Account Number,Primary Synchrony Application Key,Primary Synchrony AccountInfo,Primary SynchronyTerm,Secondly Payment Method,Secondly Payment Balance,Secondly Authorize Number,Secondly Purchase Order Number,Secondly Synchrony Account Number,Secondly Synchrony Application Key,Secondly Synchrony AccountInfo,Secondly SynchronyTerm,Thirdly Payment Method,Thirdly Payment Balance,Thirdly Authorize Number,Thirdly Purchase Order Number,Thirdly Synchrony Account Number,Thirdly Synchrony Application Key,Thirdly Synchrony AccountInfo,Thirdly SynchronyTerm,DeliveryDate,Ispickup,Warranty,Status,Event Name,Synchrony Notes,Order Notes,Order number,Private Note,Branch,IsNoTax,ActualTaxRate
1/22/2018 8:42:37 AM,Bud Shuler,AA,32401,Legacy for Sam's,DWA-9100DWA-9100BL,Black,New,,,,,3850.93,3599.00,251.93,Michael Cuatrona,PurchaseOrder,3886.92,,9235 0230 3213 1325 8082 63,,,,,,0.00,,,,,,,,0.00,,,,,,,1/29/2018 12:00:00 AM,No,"3 years parts, 1 year labor (Free)",Delivered,Sam's Club #8151 Panama City 1/18-28 (FL),,"[MED] - demo order upgaded to brand new unit as per Michael
Please fix the tax rate discrepancy",103142,"Please send a new unit
Please fix the tax rate discrepancy
shipping address **FL** 1/22/18 Hitomi",FL,0,7.00
1/22/2018 8:52:57 AM,Karen Wilson,AL,36330,Relax2Zero 2.0 for Sam's,USJ-9050USJ-9050BR,Brown,New,,,,,4212.00,3900.00,312.00,Michael Cuatrona,PurchaseOrder,4212.00,,3012 6228 2641 3284 5498 02,,,,,,0.00,,,,,,,,0.00,,,,,,,1/25/2018 12:00:00 AM,No,"3 years parts, 2 years labor ($200)",Delivered,Sam's Club #8151 Panama City 1/18-28 (FL),,"Original warranty 3 years parts, 1 year labor.
[MED] Michael added 1 more year of labor warranty free of charge.
Total warranty 3 years parts, 2 years labor.",103144,"Order#3 
Maggie, please call 850-258-0316 for delivery scheduling (the chair is for their parents)
Original warranty 3 years parts, 1 year labor.
[MED] Michael added 1 more year of labor warranty free of charge.
Total warranty 3 years parts, 2 years labor.",FL,0,8.00
1/22/2018 8:58:21 AM,Jody Dillon,FL,32444,Relax2Zero 2.0 for Sam's,USJ-9050USJ-9050BR,Brown,New,,,,,3454.92,3199.00,255.92,Michael Cuatrona,PurchaseOrder,3454.92,,5904 2712 1806 0143 7284 91,,,,,,0.00,,,,,,,,0.00,,,,,,,1/30/2018 12:00:00 AM,No,"3 years parts, 1 year labor (Free)",Delivered,Sam's Club #8151 Panama City 1/18-28 (FL),,[MED] demo order upgraded to brand new unit as per Michael,103146,Please send brand new,FL,0,8.00
1/22/2018 9:04:33 AM,Terry Davis,FL,32404,Legacy for Sam's,DWA-9100DWA-9100CH,Choco,New,,,,,4642.92,4299.00,343.92,Michael Cuatrona,PurchaseOrder,4642.92,,0360 8360 4783 8698 1829 66,,,,,,0.00,,,,,,,,0.00,,,,,,,1/30/2018 12:00:00 AM,No,"3 years parts, 3 years labor ($400)",Delivered,Sam's Club #8151 Panama City 1/18-28 (FL),,Labor warranty upgraded from 1 year to 3 years total as per Michael (no extra cost -$400),103149,Labor warranty upgraded from 1 year to 3 years total as per Michael (no extra cost -$400),FL,0,8.00
1/22/2018 9:10:19 AM,Grand Floridian Builders Inc (Shane),FL,32413,Legacy for Sam's,DWA-9100DWA-9100BL,Black,New,,,,,4642.92,4299.00,343.92,Michael Cuatrona,PurchaseOrder,4642.92,,6297 5695 7451 5917 4331 79,,,,,,0.00,,,,,,,,0.00,,,,,,,,No,"3 years parts, 3 years labor ($400)",Scheduled,Sam's Club #8151 Panama City 1/18-28 (FL),,[AD] - service warranty upgraded from 1 year to 3 years total as per Michael (apply -$400),103151,[AD] - service warranty upgraded from 1 year to 3 years total as per Michael (apply -$400),FL,0,8.00
1/22/2018 9:17:28 AM,Abraham Attar,FL,32408,Relax2Zero 2.0 for Sam's,USJ-9050USJ-9050BR,Brown,New,,,,,3454.92,3199.00,255.92,Michael Cuatrona,PurchaseOrder,3454.92,,5914 0716 3508 5143 7244 91,,,,,,0.00,,,,,,,,0.00,,,,,,,,No,"3 years parts, 1 year labor (Free)",Hold,Sam's Club #8151 Panama City 1/18-28 (FL),,[AD] - demo order upgraded to brand new as per Michael,103152,"Order #7 
Please send brand new",FL,0,8.00
1/22/2018 9:22:06 AM,Rati Poriya,FL,32405,Relax2Zero 2.0 for Sam's,USJ-9050USJ-9050BL,Black,New,,,,,3454.92,3199.00,255.92,Michael Cuatrona,PurchaseOrder,3454.92,,7866 3159 9330 5503 6290 85,,,,,,0.00,,,,,,,,0.00,,,,,,,,No,"3 years parts, 1 year labor (Free)",Scheduled,Sam's Club #8151 Panama City 1/18-28 (FL),,[AD] - demo order upgraded to brand new as per Michael C,103153,"Order#8
[AD] - demo order upgraded to brand new as per Michael C",FL,0,8.00
1/22/2018 9:26:14 AM,Roland Cortes,FL,32444,Legacy for Sam's,DWA-9100DWA-9100BG,Beige,New,,,,,3886.92,3599.00,287.92,Michael Cuatrona,PurchaseOrder,3886.92,,0711 6743 2262 6472 3817 54,,,,,,0.00,,,,,,,,0.00,,,,,,,1/30/2018 12:00:00 AM,No,"3 years parts, 1 year labor (Free)",Delivered,Sam's Club #8151 Panama City 1/18-28 (FL),,[AD] - blue demo order upgraded to a brand new unit as per Michael ( no extra cost ),103155,"Order #9
[AD] - blue demo order upgraded to a brand new unit as per Michael ( no extra cost )",FL,0,8.00
1/22/2018 9:31:41 AM,Rachel Spikes,FL,32409,Relax2Zero 2.0 for Sam's,USJ-9050USJ-9050BE,Beige,New,,,,,4212.00,3900.00,312.00,Michael Cuatrona,PurchaseOrder,4212.00,,7545 3331 5915 1321 8172 53,,,,,,0.00,,,,,,,,0.00,,,,,,,1/30/2018 12:00:00 AM,No,"3 years parts, 2 years labor ($200)",Delivered,Sam's Club #8151 Panama City 1/18-28 (FL),,[MED] - service warranty upgraded from 1 year to 2 years total as per Michael ( no extra cost ),103156,"Order #10
[MED] - service warranty upgraded from 1 year to 2 years total as per Michael ( no extra cost )",FL,0,8.00
1/22/2018 9:37:51 AM,Jeff Anderson,FL,32456,Relax2Zero 2.0 for Sam's,USJ-9050USJ-9050BL,Black,New,,,,,4212.00,3900.00,312.00,Michael Cuatrona,PurchaseOrder,4212.00,,2669 8883 6372 7857 0735 68,,,,,,0.00,,,,,,,,0.00,,,,,,,,No,"3 years parts, 2 years labor ($200)",Scheduled,Sam's Club #8151 Panama City 1/18-28 (FL),,[AD] - 1 year labor warranty upgraded to 2 year labor warranty as per Michael  (no extra cost ),103158,[AD] - 1 year labor warranty upgraded to 2 year labor warranty as per Michael  (no extra cost ),FL,0,8.00
1/22/2018 9:59:17 AM,Derwin White,FL,32405,Legacy for Sam's,DWA-9100DWA-9100SB-DEMO,Demo Sienna Brown,Demo,,,,,3886.92,3599.00,287.92,Michael Cuatrona,PurchaseOrder,3886.92,,5464 4416 1601 0143 7294 81,,,,,,0.00,,,,,,,,0.00,,,,,,,,YES,"3 years parts, 1 year labor (Free)",Hold,Sam's Club #8151 Panama City 1/18-28 (FL),,Demo chair to be picked up - 6pm 01/28,103163,Demo chair to be picked up - 6pm 01/28,Not Dispatched,0,8.00
1/23/2018 11:41:42 AM,Mary Hines,FL,32444,Relax2Zero 2.0 for Sam's,USJ-9050USJ-9050BR,Brown,New,,,,,3454.92,3199.00,255.92,Michael Cuatrona,PurchaseOrder,3454.92,,3553 1906 1527 3061 9466 50,,,,,,0.00,,,,,,,,0.00,,,,,,,1/30/2018 12:00:00 AM,No,"3 years parts, 1 year labor (Free)",Delivered,Sam's Club #8151 Panama City 1/18-28 (FL),,[AD] - demo order upgraded to brand new unit as per Michael,103209,"Please send brand new unit
[AD] - demo order upgraded to brand new unit as per Michael",FL,0,8.00
1/23/2018 11:54:28 AM,Guo Yong Den,AA,32444,Legacy for Sam's,DWA-9100DWA-9100SB,Sienna Brown,New,,,,,4212.00,3900.00,312.00,Michael Cuatrona,PurchaseOrder,4212.00,,0841 2644 2469 6476 3607 64,,,,,,0.00,,,,,,,,0.00,,,,,,,1/30/2018 12:00:00 AM,No,"3 years parts, 1 year labor (Free)",Delivered,Sam's Club #8151 Panama City 1/18-28 (FL),,"$4299 - $399 = $3900 ($399 discount applied) as per Michael 
Legacy for the price of the Relax2Zero 2.0",103210,"Order #13 
Maggie, please call the customer for delivery schedule asap
$4299 - $399 = $3900 ($399 discount applied)
correct state **FL***  1/24/18 Hitomi",FL,0,8.00
1/25/2018 8:27:01 AM,Pam Barr,FL,32408,Legacy for Sam's,DWA-9100DWA-9100BG,Beige,New,,,,,3886.92,3599.00,287.92,Michael Cuatrona,PurchaseOrder,3886.92,,8107 6190 7951 9917 4371 29,,,,,,0.00,,,,,,,,0.00,,,,,,,1/30/2018 12:00:00 AM,No,"3 years parts, 1 year labor (Free)",Delivered,Sam's Club #8151 Panama City 1/18-28 (FL),,[MED] - Blue demo unit upgraded to a brand new beige unit at no extra cost as per Michael,103234,Beige brand new.,FL,0,8.00
1/26/2018 1:56:14 PM,Ronald Carter,FL,32444,Legacy for Sam's,DWA-9100DWA-9100SB,Sienna Brown,New,,,,,3886.92,3599.00,287.92,Michael Cuatrona,PurchaseOrder,3886.92,,6368 0375 8797 9738 2573 07,,,,,,0.00,,,,,,,,0.00,,,,,,,1/30/2018 12:00:00 AM,No,"3 years parts, 1 year labor (Free)",Delivered,Sam's Club #8151 Panama City 1/18-28 (FL),,[MKTNG] - blue demo upgraded to a brand new sienna brown unit as per Michael,103265,Please send a new unit,FL,0,8.00
1/29/2018 5:07:10 PM,Mihye Raczynski,FL,32404,Legacy for Sam's,DWA-9100DWA-9100CH,Choco,New,,,,,3886.92,3599.00,287.92,Michael Cuatrona,PurchaseOrder,3886.92,,9025 4932 5813 1325 8032 33,,,,,,0.00,,,,,,,,0.00,,,,,,,,No,"3 years parts, 1 year labor (Free)",Scheduled,Sam's Club #8151 Panama City 1/18-28 (FL),,[AD DISC] demo order upgraded to brand new dwa-9100 unit (choco) at no extra cost as per Michael,103372,"Order# 21 - please send new
[AD DISC] demo order upgraded to brand new dwa-9100 unit (choco) at no extra cost as per Michael",FL,0,8.00
1/30/2018 10:22:55 AM,Richard Scott,FL,32444,Legacy for Sam's,DWA-9100DWA-9100BL,Black,New,,,,,3886.92,3599.00,287.92,Michael Cuatrona,PurchaseOrder,3886.92,,3643 7608 1120 2061 9406 70,,,,,,0.00,,,,,,,,0.00,,,,,,,,No,"3 years parts, 1 year labor (Free)",Scheduled,Sam's Club #8151 Panama City 1/18-28 (FL),,[AD] - demo order upgraded to a brand new dwa-9100 black unit at no extra cost as per Michael,103386,"Order# 16
[AD] - demo order upgraded to a brand new dwa-9100 black unit at no extra cost as per Michael",FL,0,8.00
1/30/2018 10:27:55 AM,Darryl Bertrand,FL,32411,Relax2Zero 2.0 for Sam's,USJ-9050USJ-9050BL,Black,New,,,,,3454.92,3199.00,255.92,Michael Cuatrona,PurchaseOrder,3454.92,,1322 9526 0046 4280 5628 32,,,,,,0.00,,,,,,,,0.00,,,,,,,,No,"3 years parts, 1 year labor (Free)",Scheduled,Sam's Club #8151 Panama City 1/18-28 (FL),,[AD] - demo order upgraded to a brand new unit (black) at no extra cost as per Michael,103387,"Order # 17
Please send a new unit",FL,0,8.00
1/30/2018 10:42:32 AM,Riu Nguyen,FL,32409,Legacy for Sam's,DWA-9100DWA-9100CH,Choco,New,,,,,3886.92,3599.00,287.92,Michael Cuatrona,PurchaseOrder,3886.92,,7106 4354 9239 3505 6780 85,,,,,,0.00,,,,,,,,0.00,,,,,,,,No,"3 years parts, 1 year labor (Free)",Scheduled,Sam's Club #8151 Panama City 1/18-28 (FL),,[AD MC] - blue demo unit order upgraded to a brand new dwa-9100 unit (choco) at no extra cost as per Michael,103389,"Order # 18 
Please send a new unit",FL,0,8.00
1/30/2018 11:51:43 AM,Bethany Davis,FL,32401,Legacy for Sam's,DWA-9100DWA-9100BL,Blue,New,,,,,3886.92,3599.00,287.92,Michael Cuatrona,PurchaseOrder,3886.92,,5444 6417 3509 9143 7204 81,,,,,,0.00,,,,,,,,0.00,,,,,,,,No,"3 years parts, 1 year labor (Free)",Scheduled,Sam's Club #8151 Panama City 1/18-28 (FL),,[AD] - customer ordered the Blue demo but the order will be upgraded to a brand new unit dwa-9100 unit (blue) at no extra cost as per Michael,103392,"Order # 19
Please send a brand new unit",FL,0,8.00
1/30/2018 11:56:57 AM,Bill Hewett,FL,32444,Relax2Zero 2.0 for Sam's,USJ-9050USJ-9050BL,Black,New,,,,,3454.92,3199.00,255.92,Michael Cuatrona,PurchaseOrder,3454.92,,8637 0497 7352 8917 4311 69,,,,,,0.00,,,,,,,,0.00,,,,,,,,No,"3 years parts, 1 year labor (Free)",Scheduled,Sam's Club #8151 Panama City 1/18-28 (FL),,[AD] demo order will be upgraded to a brand new unit (black) at no extra cost as per Michael,103393,"Order # 20
Please send a new unit",FL,0,8.00
1/30/2018 12:01:54 PM,Cynthia Black,FL,32405,Legacy for Sam's,DWA-9100DWA-9100CH,Choco,New,,,,,3886.92,3599.00,287.92,Michael Cuatrona,PurchaseOrder,3886.92,,7006 0059 9235 3509 6150 45,,,,,,0.00,,,,,,,,0.00,,,,,,,,No,"3 years parts, 1 year labor (Free)",Scheduled,Sam's Club #8151 Panama City 1/18-28 (FL),,[MKTNG] - blue demo order will be upgraded to a brand new dwa-9100 (choco) unit at no extra cost as per Michael,103394,"Order # 22
Please send a new unit",FL,0,8.00
1/30/2018 12:08:06 PM,Julie Hugghins,FL,32444,Relax2Zero 2.0 for Sam's,USJ-9050USJ-9050BL,Black,New,,,,,3454.92,3199.00,255.92,Michael Cuatrona,PurchaseOrder,3454.92,,3543 6903 1820 2061 9406 50,,,,,,0.00,,,,,,,,0.00,,,,,,,,No,"3 years parts, 1 year labor (Free)",Scheduled,Sam's Club #8151 Panama City 1/18-28 (FL),,[AD MC] - demo order was upgraded to a brand new dwa-9100 unit (black) at no extra cost as per Michael,103395,"Order # 23 
Please send a new unit --- COLOR CHANGED TO BEIGE 2/5 Maggie",FL,0,8.00
1/30/2018 12:13:44 PM,Arthur Ness,FL,32405,Legacy for Sam's,DWA-9100DWA-9100BL,Black,New,,,,,3886.92,3599.00,287.92,Michael Cuatrona,PurchaseOrder,3886.92,,4599 5582 6378 7856 0985 18,,,,,,0.00,,,,,,,,0.00,,,,,,,,No,"3 years parts, 1 year labor (Free)",Scheduled,Sam's Club #8151 Panama City 1/18-28 (FL),,[DISC MC] - the customer ordered a blue demo unit but the order will be upgraded to a brand new DWA-9100 unit (black) at no extra cost as per Michael,103396,"Order # 24

Please send a new unit",FL,0,8.00
1/30/2018 12:22:53 PM,Vernon Weaver,FL,32409,Relax2Zero 2.0 for Sam's,USJ-9050USJ-9050BL,Black,New,,,,,3454.92,3199.00,255.92,Michael Cuatrona,PurchaseOrder,3454.92,,7856 0655 9432 3509 6170 85,,,,,,0.00,,,,,,,,0.00,,,,,,,,No,"3 years parts, 1 year labor (Free)",Scheduled,Sam's Club #8151 Panama City 1/18-28 (FL),,[AD MC] - the customer ordered a demo unit but Michael upgraded the order to a brand new unit at no extra cost,103398,"Order # 25
Please send a new unit. As it stands the customer wants a black unit, it might change so please hold for now. Thanks",FL,0,8.00
1/31/2018 8:42:08 AM,Gurprit Sekhon,FL,32444,Relax2Zero 2.0 for Sam's,USJ-9050USJ-9050BL,Black,New,,,,,3454.92,3199.00,255.92,Michael Cuatrona,PurchaseOrder,3454.92,,2090 8163 2180 0694 1739 06,,,,,,0.00,,,,,,,,0.00,,,,,,,,No,"3 years parts, 1 year labor (Free)",Scheduled,Sam's Club #8151 Panama City 1/18-28 (FL),,[MED] -  Rati's circle - same upgrade. Demo order but please send a brand new unit at no extra cost as per Michael,103402,"Order #26 
Please send brand new unit",FL,0,8.00
