﻿Date,CustomerName,State,Zipcode,Description,productNo,Color,IsDemo,Net,ShippingFee,GiftPrice,FinancingProcessingFee,Gross,Pre_tax,Tax,Commission,Primary Payment Method,Primary Payment Balance,Primary Authorize Number,Primary Purchase Order Number,Primary Synchrony Account Number,Primary Synchrony Application Key,Primary Synchrony AccountInfo,Primary SynchronyTerm,Secondly Payment Method,Secondly Payment Balance,Secondly Authorize Number,Secondly Purchase Order Number,Secondly Synchrony Account Number,Secondly Synchrony Application Key,Secondly Synchrony AccountInfo,Secondly SynchronyTerm,Thirdly Payment Method,Thirdly Payment Balance,Thirdly Authorize Number,Thirdly Purchase Order Number,Thirdly Synchrony Account Number,Thirdly Synchrony Application Key,Thirdly Synchrony AccountInfo,Thirdly SynchronyTerm,DeliveryDate,Ispickup,Warranty,Status,Event Name,Synchrony Notes,Order Notes,Order number,Private Note,Branch,IsNoTax,ActualTaxRate
12/12/2017 1:46:37 PM,Jeff Masters,GA,30253,Relax2Zero 2.0 for Sam's,USJ-9050USJ-9050BR,Brown,New,,,,,3486.91,3199.00,287.91,Michael Cuatrona,PurchaseOrder,3486.91,,5964 5413 9354 0361 7294 83,,,,,,0.00,,,,,,,,0.00,,,,,,,12/22/2017 12:00:00 AM,No,"3 years parts, 1 year labor (Free)",Delivered,Sam's Club N.Charleston #8252 12/7-17/17 (FL),,Please send a brand new unit,102422,"Please send a brand new unit

Please try to accommodate the delivery before Christmas, thanks!",FL,0,9.00
12/18/2017 7:07:04 AM,Mark Ray,SC,29485,Relax2Zero 2.0 for Sam's,USJ-9050USJ-9050BL,Black,New,,,,,3486.91,3199.00,287.91,Michael Cuatrona,PurchaseOrder,3486.91,,4299 8584 0849 2638 0965 16,,,,,,0.00,,,,,,,,0.00,,,,,,,12/21/2017 12:00:00 AM,No,"3 years parts, 1 year labor (Free)",Delivered,Sam's Club N.Charleston #8252 12/7-17/17 (FL),,"Demo discount applied (paid) but the order has been upgraded to a ""brand new"" unit after Miichael C confirmed with the customer over the phone (approved 12/18)",102572,,FL,0,9.00
12/18/2017 7:12:47 AM,Paulette Sigmon,SC,29401,Legacy for Sam's,DWA-9100DWA-9100BL,Black,New,,,,,3922.91,3599.00,323.91,Michael Cuatrona,PurchaseOrder,3922.91,,7186 3950 6674 0925 6180 99,,,,,,0.00,,,,,,,,0.00,,,,,,,,No,"3 years parts, 1 year labor (Free)",Called,Sam's Club N.Charleston #8252 12/7-17/17 (FL),,Michael C (upgraded the order to a new unit - no extra charge),102574,"Hold delivery until done renovating home (End of Jan)
1/11 mq- still not ready, 1-2 more weeks",FL,0,9.00
12/18/2017 7:17:39 AM,Lori McCurley,SC,29485,Legacy for Sam's,DWA-9100DWA-9100CH,Choco,New,,,,,3922.91,3599.00,323.91,Michael Cuatrona,PurchaseOrder,3922.91,,3473 2109 9337 2180 9416 11,,,,,,0.00,,,,,,,,0.00,,,,,,,12/21/2017 12:00:00 AM,No,"3 years parts, 1 year labor (Free)",Delivered,Sam's Club N.Charleston #8252 12/7-17/17 (FL),,The order was upgraded by Michael C ( new chocolate brown unit ),102575,,FL,0,9.00
12/18/2017 7:23:09 AM,Minh Bui,AA,29410,Relax2Zero 2.0 for Sam's,USJ-9050USJ-9050BE,Beige,New,,,,,3486.91,3199.00,287.91,Michael Cuatrona,PurchaseOrder,3486.91,,5954 1419 7152 9361 7234 83,,,,,,0.00,,,,,,,,0.00,,,,,,,,No,"3 years parts, 1 year labor (Free)",Scheduled,Sam's Club N.Charleston #8252 12/7-17/17 (FL),,The order is for a demo chair but Michael C upgraded the order to  a brand new beige unit ( approved 12/18 ),102576,"correct shipping address : *SC*
*Out of stock - BE / Michael called customer, they said they will wait 2-3 weeks for Beige",FL,0,9.00
