﻿Original Event Name,Event Name,Sales Person,Order Number,Order Date,Customer Name,State,Zip,Product Name,Color,Product Status,QTY,Tax,Total Before Tax,Order Total,Primary Payment Method,Second Payment Method,Thirdl Payment Method,Warranty,Order Items,Pick up,Delivered On,Order Status,Chair Type,Order Notes,Private Note,Branch,No Tax,Actual Tax Rate,SKU,Primary Payment Balance,Primary Authorize Number,Primary Purchase Order Number,Primary Synchrony Account Number,Primary Synchrony Application Key,Primary Synchrony Account Info,Primary Synchrony Term,Second Payment Balance,Second Authorize Number,Second Purchase Order Number,Second Synchrony Account Number,Second Synchrony Application Key,Second Synchrony Account Info,Second SynchronyTerm,Third Payment Balance,Third Authorize Number,Third Purchase Order Number,Third Synchrony Account Number,Third Synchrony Application Key,Third Synchrony Account Info,Third Synchrony Term
"Sam's Club #6353 Myrtle Beach, SC 2/14-24/19 (FL)","Sam's Club #6353 Myrtle Beach, SC 2/14-24/19 (FL)",Daisuke Ito,115075,2/17/2019 5:50:25 PM,Richard Ray,SC,29569,Pegasus for Sam's,Demo Choco(Box)[-700],Demo,1,431.82,4798.00,5229.82,PurchaseOrder,,,"3 years parts, 1 year labor (Free)","Pegasus for Sam's,",No,,Scheduled,,"Approval # 02484C
TC # 4727 1798 6456 5837 4182 38","Please reconfirm the address with Mr. Ray. Google Map shows the address as 3730 US - 701, Loris, SC 29569",FL,0,9.00,DWA-9400Pegasus-BR-BOX,5229.82,,TC # 4727 1798 6456 5837 4182 38,,,,,0.00,,,,,,,0.00,,,,,,
"Sam's Club #6353 Myrtle Beach, SC 2/14-24/19 (FL)","Sam's Club #6353 Myrtle Beach, SC 2/14-24/19 (FL)",Daisuke Ito,115078,2/17/2019 6:46:10 PM,Jimmy Poore,SC,29579,Pegasus for Sam's,Demo Choco(Box)[-700],Demo,1,431.82,4798.00,5229.82,PurchaseOrder,,,"3 years parts, 1 year labor (Free)","Pegasus for Sam's,",No,,Assigned,,"TC # 1490 9466 0585 2274 1933 72
Cell Ph. 843- 997-2160",CC Josefina - 2/21/19 11:08am VM,FL,0,9.00,DWA-9400Pegasus-BR-BOX,5229.82,,# 1490 9466 0585 2274 1933 72,,,,,0.00,,,,,,,0.00,,,,,,
"Sam's Club #6353 Myrtle Beach, SC 2/14-24/19 (FL)","Sam's Club #6353 Myrtle Beach, SC 2/14-24/19 (FL)",Daisuke Ito,115232,2/23/2019 3:17:45 PM,"U.S.  JACLEAN, INC.",CA,90249,Ninja Leg Massager 2,New,New,1,27.00,299.98,326.98,CreditCard,,,"2 years parts, 1 year labor for Small Items","Ninja Leg Massager 2,",YES,,Delivered,,"Approval #000812
TC# 5294 3197 5045 5247 2488 5",,CA,0,9.00,USJ-880,326.98,,,,,,,0.00,,,,,,,0.00,,,,,,
"Sam's Club #6353 Myrtle Beach, SC 2/14-24/19 (FL)","Sam's Club #6353 Myrtle Beach, SC 2/14-24/19 (FL)",Daisuke Ito,115233,2/23/2019 3:22:26 PM,"U.S.  JACLEAN, INC.",CA,90249,Ninja Leg Massager 2,New,New,1,27.00,299.98,326.98,CreditCard,,,"2 years parts, 1 year labor for Small Items","Ninja Leg Massager 2,",YES,,Delivered,,"Approval #000805
TC #3923 1059 1272 3479 6074 3",,CA,0,9.00,USJ-880,326.98,,,,,,,0.00,,,,,,,0.00,,,,,,
"Sam's Club #6353 Myrtle Beach, SC 2/14-24/19 (FL)","Sam's Club #6353 Myrtle Beach, SC 2/14-24/19 (FL)",Daisuke Ito,115272,2/24/2019 10:34:00 AM,Fran Lucas,OH,44446,Orbit for Sam's ,Demo Choco(Box)[-300],Demo,1,242.82,2698.00,2940.82,CreditCard,,,"3 years parts, 1 year labor (Free)","Orbit for Sam's ,",No,,New,,"*Deliver after March 16th, 2019 (Customer won’t be available there until March 16th)
Approval #00481D
TC# 2891 3146 3167 0082 3755 60",,TX,0,9.00,ORBT-1ORBT-1CH-BOX,2940.82,TC# 2891 3146 3167 0082 3755 60,,,,,,0.00,,,,,,,0.00,,,,,,
"Sam's Club #6353 Myrtle Beach, SC 2/14-24/19 (FL)","Sam's Club #6353 Myrtle Beach, SC 2/14-24/19 (FL)",Daisuke Ito,115278,2/24/2019 2:09:06 PM,William Smith,NC,27534,Pegasus for Sam's,Demo Black(Box)[-700],Demo,1,431.82,4798.00,5229.82,CreditCard,,,"3 years parts, 1 year labor (Free)","Pegasus for Sam's,",No,,New,,"Deliver to Mr. Smith’s Office 
Approval #001069
TC# 9143 9100 9526 3341 9667 43",,FL,0,9.00,DWA-9400Pegasus-BL-BOX,5229.82,TC# 9143 9100 9526 3341 9667 43,,,,,,0.00,,,,,,,0.00,,,,,,
