﻿Date,CustomerName,State,Zipcode,Description,productNo,Color,IsDemo,Net,ShippingFee,GiftPrice,FinancingProcessingFee,Gross,Pre_tax,Tax,Commission,Primary Payment Method,Primary Payment Balance,Primary Authorize Number,Primary Purchase Order Number,Primary Synchrony Account Number,Primary Synchrony Application Key,Primary Synchrony AccountInfo,Primary SynchronyTerm,Secondly Payment Method,Secondly Payment Balance,Secondly Authorize Number,Secondly Purchase Order Number,Secondly Synchrony Account Number,Secondly Synchrony Application Key,Secondly Synchrony AccountInfo,Secondly SynchronyTerm,Thirdly Payment Method,Thirdly Payment Balance,Thirdly Authorize Number,Thirdly Purchase Order Number,Thirdly Synchrony Account Number,Thirdly Synchrony Application Key,Thirdly Synchrony AccountInfo,Thirdly SynchronyTerm,DeliveryDate,Ispickup,Warranty,Status,Event Name,Synchrony Notes,Order Notes,Order number,Private Note,Branch,IsNoTax,ActualTaxRate
12/21/2017 10:44:24 AM,Lillian McFarlin,TX,78216,Foot Vibe Pro,USJ-871,,New,,,,,4014.98,3708.99,305.99,Keith Kei,PurchaseOrder,4014.98,,TC# 2779788108469135896122,,,,,,0.00,,,,,,,,0.00,,,,,,,,No,"2 years parts, 1 year labor (Small Items)",Cancelled,"Sam's Club #6416 San Antonio, TX 12/14-12/24/2017 (TX)",,"Invoice # 1 & 2
Paid in full through SAM'S club
Deliver before 23rd or after Dec 31st
Foot vibe pro had been picked up by customer already.",102610,"Please double check if the chair order have been cancelled through SAM'S club.
ORDER HAS BEEN CANCELLED PER SAMS CLUB, 12.19.17--CONFIRMED BY CRISTINA",TX,0,8.25
12/21/2017 10:44:24 AM,Lillian McFarlin,TX,78216,Legacy for Sam's,DWA-9100DWA-9100BL-DEMO,Demo Black,Demo,,,,,4014.98,3708.99,305.99,Keith Kei,PurchaseOrder,4014.98,,TC# 2779788108469135896122,,,,,,0.00,,,,,,,,0.00,,,,,,,,No,"3 years parts, 1 year labor (Free)",Cancelled,"Sam's Club #6416 San Antonio, TX 12/14-12/24/2017 (TX)",,"Invoice # 1 & 2
Paid in full through SAM'S club
Deliver before 23rd or after Dec 31st
Foot vibe pro had been picked up by customer already.",102610,"Please double check if the chair order have been cancelled through SAM'S club.
ORDER HAS BEEN CANCELLED PER SAMS CLUB, 12.19.17--CONFIRMED BY CRISTINA",TX,0,8.25
12/21/2017 10:53:51 AM,Socorro Herrera,TX,78232,Foot Vibe Pro,USJ-871,,New,,,,,119.06,109.99,9.07,Keith Kei,PurchaseOrder,119.06,,TC# 214222050106979240963,,,,,,0.00,,,,,,,,0.00,,,,,,,,YES,"2 years parts, 1 year labor (Small Items)",Delivered,"Sam's Club #6416 San Antonio, TX 12/14-12/24/2017 (TX)",,"Invoice #3
Paid through SAM'S club
Item been picked up by customer.",102611,,TX,0,8.25
12/21/2017 11:01:09 AM,Jose Adalberto,--,00000,Foot Vibe Pro,USJ-871,,New,,,,,119.06,109.99,9.07,Keith Kei,PurchaseOrder,119.06,,TC# 684066818238353682370,,,,,,0.00,,,,,,,,0.00,,,,,,,,YES,"2 years parts, 1 year labor (Small Items)",Delivered,"Sam's Club #6416 San Antonio, TX 12/14-12/24/2017 (TX)",,"Invoice # 4
Paid through SAM'S club
Item picked up by customer.",102612,,TX,0,8.25
12/21/2017 11:14:49 AM,Maria DeLaRosa,TX,78260,Legacy for Sam's,DWA-9100DWA-9100CH-DEMO,Demo Choco,Demo,,,,,3895.92,3599.00,296.92,Keith Kei,PurchaseOrder,3895.92,,TC# 9275703389961645309687,,,,,,0.00,,,,,,,,0.00,,,,,,,12/20/2017 12:00:00 AM,No,"3 years parts, 1 year labor (Free)",Delivered,"Sam's Club #6416 San Antonio, TX 12/14-12/24/2017 (TX)",,"Invoice # 5
Paid through SAM'S club
Please deliver before Dec 24",102613,Please give new,TX,0,8.25
12/22/2017 11:14:56 AM,David Cerminaro,TX,78258,Legacy for Sam's,DWA-9100DWA-9100CH,Choco,New,,,,,4653.67,4299.00,354.67,Keith Kei,PurchaseOrder,4653.67,,TC# 0300316515238355632320,,,,,,0.00,,,,,,,,0.00,,,,,,,12/29/2017 12:00:00 AM,No,"3 years parts, 1 year labor (Free)",Delivered,"Sam's Club #6416 San Antonio, TX 12/14-12/24/2017 (TX)",,"Invoice # 6
Paid through sam's club
Please deliver before December 30th",102628,,TX,0,8.25
12/30/2017 10:18:12 AM,Bassi Balwinder Kaur,TX,78258,Legacy for Sam's,DWA-9100DWA-9100BL-DEMO,Demo Black,Demo,,,,,3599.00,3599.00,0.00,Keith Kei,PurchaseOrder,3599.00,,TC# 7626215863723423537418,,,,,,0.00,,,,,,,,0.00,,,,,,,1/4/2018 12:00:00 AM,No,"3 years parts, 1 year labor (Free)",Delivered,"Sam's Club #6416 San Antonio, TX 12/14-12/24/2017 (TX)",,"Invoice # 7
Tax Exempted
2nd-floor delivery
Tax Exempt ID: 1-74-28641480-8",102705,,TX,1,8.25
12/30/2017 10:27:39 AM,Troy Salinas,TX,78232,Vitality Plate for Sam's,USJ-849USJ-849,New,New,,,,,497.94,459.99,37.95,Keith Kei,PurchaseOrder,497.94,,TC# 481769342825202979276,,,,,,0.00,,,,,,,,0.00,,,,,,,,No,"2 years parts, 1 year labor (Small Items)",Delivered,"Sam's Club #6416 San Antonio, TX 12/14-12/24/2017 (TX)",,"Invoice # 8
Item had been picked up by customer",102706,,TX,0,8.25
12/30/2017 10:31:42 AM,Tom Nelson,TX,78230,Foot Vibe Pro,USJ-871,,New,,,,,119.06,109.99,9.07,Keith Kei,PurchaseOrder,119.06,,TC# 689066014258353682370,,,,,,0.00,,,,,,,,0.00,,,,,,,,No,"2 years parts, 1 year labor (Small Items)",Delivered,"Sam's Club #6416 San Antonio, TX 12/14-12/24/2017 (TX)",,"Invoice 9
item picked up by the customer",102707,,TX,0,8.25
