﻿Date,CustomerName,State,Zipcode,Description,productNo,Color,IsDemo,Net,ShippingFee,GiftPrice,FinancingProcessingFee,Gross,Pre_tax,Tax,Commission,Primary Payment Method,Primary Payment Balance,Primary Authorize Number,Primary Purchase Order Number,Primary Synchrony Account Number,Primary Synchrony Application Key,Primary Synchrony AccountInfo,Primary SynchronyTerm,Secondly Payment Method,Secondly Payment Balance,Secondly Authorize Number,Secondly Purchase Order Number,Secondly Synchrony Account Number,Secondly Synchrony Application Key,Secondly Synchrony AccountInfo,Secondly SynchronyTerm,Thirdly Payment Method,Thirdly Payment Balance,Thirdly Authorize Number,Thirdly Purchase Order Number,Thirdly Synchrony Account Number,Thirdly Synchrony Application Key,Thirdly Synchrony AccountInfo,Thirdly SynchronyTerm,DeliveryDate,Ispickup,Warranty,Status,Event Name,Synchrony Notes,Order Notes,Order number,Private Note,Branch,IsNoTax,ActualTaxRate
4/29/2018 4:44:52 PM,Patrice Stules,TX,77316,Ninja Leg Massager,,,New,,,,,410.27,379.00,31.27,Yichuang (Debbie) Yang,CreditCard,410.27,548300606044368019528,,,,,,,0.00,,,,,,,,0.00,,,,,,,,YES,"2 years parts, 1 year labor (Free)",Delivered,Sam's Club #4713 Shenandoah 4/26-5/6/18 (TX),,,105604,,TX,0,8.25
5/2/2018 3:23:24 PM,Mostafa Amin,TX,77386,Legacy for Sam's,DWA-9100DWA-9100GD-DEMO,Demo Gold,Demo,,,,,3599.00,3599.00,0.00,Khoa Huynh,CreditCard,3599.00,TC#6248857981716639790451,,,,,,,0.00,,,,,,,,0.00,,,,,,,,No,"3 years parts, 1 year labor (Free)",New,Sam's Club #4713 Shenandoah 4/26-5/6/18 (TX),,Customer paid in full and applied Tax Exempt.,105719,,TX,1,8.25
