﻿Original Event Name,Event Name,Sales Person,Order Number,Order Date,Customer Name,State,Zip,Product Name,Color,Product Status,QTY,Tax,Total Before Tax,Order Total,Primary Payment Method,Second Payment Method,Thirdl Payment Method,Warranty,Order Items,Pick up,Delivered On,Order Status,Chair Type,Order Notes,Private Note,Branch,No Tax,Actual Tax Rate,SKU,Primary Payment Balance,Primary Authorize Number,Primary Purchase Order Number,Primary Synchrony Account Number,Primary Synchrony Application Key,Primary Synchrony Account Info,Primary Synchrony Term,Second Payment Balance,Second Authorize Number,Second Purchase Order Number,Second Synchrony Account Number,Second Synchrony Application Key,Second Synchrony Account Info,Second SynchronyTerm,Third Payment Balance,Third Authorize Number,Third Purchase Order Number,Third Synchrony Account Number,Third Synchrony Application Key,Third Synchrony Account Info,Third Synchrony Term
ASD 7/29-8/1/18 LAS VEGAS (NV),ASD 7/29-8/1/18 LAS VEGAS (NV),Rolly San Jose,107976,7/30/2018 9:18:31 AM,Talib Jaber,FL,33458,Relax2Zero 2.0,New Brown,New,1,0.00,4113.00,4113.00,CreditCard,,,"3 years parts, 1 year labor (Free)","Relax2Zero 2.0,",No,8/16/2018 12:00:00 AM,Delivered,,,"CC Josefina - 7/31/18 3:05pm

Deliver within 2 weeks from Aug 1, 2018///transaction has not shown up 7/30/18 Hitomi///Confirmed 4,113 in Wells Fargo.  7/31/18 Hitomi",FL,1,8.25,USJ-9050USJ-9050BR,4113.00,00946G,,,,,,0.00,,,,,,,0.00,,,,,,
ASD 7/29-8/1/18 LAS VEGAS (NV),ASD 7/29-8/1/18 LAS VEGAS (NV),Kohei Uno,107980,7/30/2018 9:42:54 AM,Azucena Pogue,MO,63051,Legacy 3D,Demo Choco,Demo,1,0.00,4900.00,4900.00,Synchrony,,,"3 years parts, 1 year labor (Free)","Legacy 3D,",No,9/6/2018 12:00:00 AM,Delivered,,,"Confirmed 	synchrony account ($6,500) . ORIGINAL NEEDS TO BE CONFIRMED 7/30/18 Hitomi///original is confirmed. ***Please charge before delivery and have sales draft signed. *** 8/1/18 Hitomi
8/1Maritza Courtesy call @ 11:46AM",TX,1,8.25,DWA-9150USJ-9150CH-DEMO,4900.00,,,6019170813057020,92271836,Las Vegas,24 months,0.00,,,,,,,0.00,,,,,,
ASD 7/29-8/1/18 LAS VEGAS (NV),ASD 7/29-8/1/18 LAS VEGAS (NV),Kohei Uno,107983,7/30/2018 9:56:24 AM,Emy Marzuca,FL,33142,Legacy 3D,New Black,New,1,0.00,4200.00,4200.00,CreditCard,,,3 Years Parts (International),"Legacy 3D,",No,8/3/2018 12:00:00 AM,Delivered,,Please add 1 additional year of parts warranty to make a total of 4 years parts international warranty.,"CC Josefina - 7/31/18 9:45am
Address and phone number on file is customer's carrier info. Customer's phone number is +011 (504) 9991-6621
Emy Marzuca///COnfirmed $4,200 in Square. 7/30/18 Hitomi",FL,1,8.25,DWA-9150USJ-9150BL,4200.00,Square# uQGm,,,,,,0.00,,,,,,,0.00,,,,,,
ASD 7/29-8/1/18 LAS VEGAS (NV),ASD 7/29-8/1/18 LAS VEGAS (NV),Rolly San Jose,107992,7/31/2018 7:00:03 AM,John Pohlmeyer,FL,33980,Relax2Zero 2.0,New Brown,New,1,0.00,4113.00,4113.00,CreditCard,,,"3 years parts, 1 year labor (Free)","Relax2Zero 2.0,",No,8/13/2018 12:00:00 AM,Delivered,,,"CC Josefina - 8/1/18 1pm

Deliver within 2 weeks//transaction has not shown up yet. 7/31/18 Hitomi///CONfirmed $4,113.00 in WF. 8/1/18 Hitomi",FL,1,8.25,USJ-9050USJ-9050BR,4113.00,827215,,,,,,0.00,,,,,,,0.00,,,,,,
ASD 7/29-8/1/18 LAS VEGAS (NV),ASD 7/29-8/1/18 LAS VEGAS (NV),Rodrigo Malabunga,107995,7/31/2018 8:43:47 AM,Griselda Gomez,WA,99337,Legacy 3D,New Choco,New,1,0.00,4200.00,4200.00,CreditCard,Synchrony,,"3 years parts, 1 year labor (Free)","Legacy 3D,",No,8/11/2018 12:00:00 AM,Delivered,,Please send customer Tourmaline pad,"Confirmed $2,200 in Square . Synchrony account approved ($2,000) ORIGINAL NEEDS TO BE CONFIRMED. 7/31/18 Hitomi 
07/31/18- Cristina- confirmed Synchrony funds and Synchrony application- Please charge before delivery and have Sales draft signed
CHARGED SYNCHRONY #006021 $2000 - STEPHANY 08/06/18",WA,1,8.25,DWA-9150USJ-9150CH,2200.00,Square#luUw,,,,,,2000.00,,,6019170813058432,92312153,Las Vegas,48 months,0.00,,,,,,
ASD 7/29-8/1/18 LAS VEGAS (NV),ASD 7/29-8/1/18 LAS VEGAS (NV),Rodrigo Malabunga,107996,7/31/2018 8:49:47 AM,Valetie Anthony,NV,89141,Legacy 3D,New Choco,New,1,0.00,4800.00,4800.00,CreditCard,,,"3 years parts, 3 years labor ($400)","Legacy 3D,",No,8/3/2018 12:00:00 AM,Delivered,,,"Confirmed $4,800 in Square. 7/31/18 Hitomi
8/2Maritza Courtesy call @ 9:19AM
Delivered by Li & Kohei on 8/3/2018",NV,1,8.25,DWA-9150USJ-9150CH,4800.00,Square# QSsQ,,,,,,0.00,,,,,,,0.00,,,,,,
ASD 7/29-8/1/18 LAS VEGAS (NV),ASD 7/29-8/1/18 LAS VEGAS (NV),Elijah Banania,107997,7/31/2018 9:02:58 AM,Thabit Khuder,IL,60143,Legacy 3D,New Black,New,1,0.00,3800.00,3800.00,CreditCard,,,"3 years parts, 1 year labor (Free)","Legacy 3D,",No,8/10/2018 12:00:00 AM,Delivered,,3rd Floor Delivery,"Confirmed $3,800 in Square. 7/31/18 Hitomi
8/1Maritza Courtesy call @ 8:50AM",TX,1,8.25,DWA-9150USJ-9150BL,3800.00,Square# HLXA,,,,,,0.00,,,,,,,0.00,,,,,,
ASD 7/29-8/1/18 LAS VEGAS (NV),ASD 7/29-8/1/18 LAS VEGAS (NV),Rolly San Jose,107998,7/31/2018 9:26:43 AM,Kenneth Gallegos,CO,80239,Relax2Zero 2.0,New Black,New,1,0.00,4113.00,4113.00,CreditCard,CreditCard,,"3 years parts, 1 year labor (Free)","Relax2Zero 2.0,",No,9/13/2018 12:00:00 AM,Delivered,,,"Deliver on sept 10, 2018.  Call first 2 days before delivery///Confirmed $200 in Wells Fargo. Not 3913.00 yet 7/31/18 Hitomi///Confirmed $3,913.00  in WF 8/1/18 Hitomi
8/1Maritza Courtesy call @ 11:50AM
Asking after 9/10/2018. 8/14/2018 June",TX,1,8.25,USJ-9050USJ-9050BL,200.00,231291,,,,,,3913.00,071372,,,,,,0.00,,,,,,
ASD 7/29-8/1/18 LAS VEGAS (NV),ASD 7/29-8/1/18 LAS VEGAS (NV),Mario Higareda,107999,7/31/2018 10:16:53 AM,Kathleen Keaveny,AZ,85351,Relax2Zero 3D,New Black,New,3,0.00,11700.00,11700.00,CreditCard,COD,,"3 years parts, 1 year labor (Free)","Relax2Zero 3D,",No,8/11/2018 12:00:00 AM,Delivered,,"***Please bring 5 pieces of EZ Duos for customers upon delivery***

C.O.D balance remaining $10,530.00 upon delivery. Mrs. Chong will be paying the remaining balance so please set up delivery for her first. (480)223-8927","All 3 chairs will be going to 3 different addresses. Please call (623)873-4961 to confirm address for each delivery.///Confirmed $1,170 in Square. COD $10,530. 7/31/18 Hitomi
1ST CHAIR #0103001170063 SQUARE CONFIRMED $3900 #FZXF STEPHANY 08/16/18 
2ND CHAIR #0103002170500 SQUARE CONFIRMED $6630 #yNvV STEPHANY 08/16/18",NV,1,8.25,DWA-9060USJ-9060BL,1170.00,Receipt #lGsb,,,,,,10530.00,,,,,,,0.00,,,,,,
ASD 7/29-8/1/18 LAS VEGAS (NV),ASD 7/29-8/1/18 LAS VEGAS (NV),Kohei Uno,108000,7/31/2018 10:22:35 AM,Doug Cleaver,TN,37862,Relax2Zero 3D,New Black,New,1,0.00,4700.00,4700.00,Cash,CreditCard,,"3 years parts, 1 year labor (Free)","Relax2Zero 3D,",No,8/8/2018 12:00:00 AM,Delivered,,,"$1500 cash collected by Kohei Uno.///Confirmed $3,200 in Square. will confirm cash and delivery area. 7/31/18 Hitomi///received confirmation that Kohei received cash. 8/1/18 Hitomi",FL,1,8.25,DWA-9060USJ-9060BL,1500.00,,,,,,,3200.00,Square# 0FCg,,,,,,0.00,,,,,,
ASD 7/29-8/1/18 LAS VEGAS (NV),ASD 7/29-8/1/18 LAS VEGAS (NV),Kohei Uno,108001,7/31/2018 10:29:05 AM,Deborah Zapata,CA,92324,Relax2Zero 3D,New Choco,New,1,0.00,4600.00,4600.00,CreditCard,CreditCard,,"3 years parts, 1 year labor (Free)","Relax2Zero 3D,",No,8/28/2018 12:00:00 AM,Delivered,,"Deposit of $100 received.
C.O.D balance of $4500 remaining to be collected upon delivery.
***Please schedule delivery for August 29th***","Confirmed $100 in Square, COD$4,500. 7/31/18 Hitomi
8/28Maritza Customer paid off remaining balance over the phone 4500.00 morning of delivery.",CA,1,8.25,DWA-9060USJ-9060BR,100.00,Square# n4HY,,,,,,4500.00,SQ#6y6M,,,,,,0.00,,,,,,
ASD 7/29-8/1/18 LAS VEGAS (NV),ASD 7/29-8/1/18 LAS VEGAS (NV),Ruben Cuatrona,108004,7/31/2018 12:16:17 PM,Andres Ohlsen,NV,89113,Pegasus,Demo Choco,Demo,1,0.00,5200.00,5200.00,CreditCard,,,"3 years parts, 1 year labor (Free)","Pegasus,",No,8/1/2018 12:00:00 AM,Delivered,,,"Give 1 Tourmaline Pad to Customer.
Demo Pegasus Choco
Please Deliver on July 1, 2018 after the ASD Show.",NV,1,8.25,DWA-9400Pegasus-BR-DEMO,5200.00,2O6u,,,,,,0.00,,,,,,,0.00,,,,,,
ASD 7/29-8/1/18 LAS VEGAS (NV),ASD 7/29-8/1/18 LAS VEGAS (NV),Keith Kei,108010,7/31/2018 9:23:41 PM,Joyce Ko,TX,77498,Relax2Zero 2.0,New Black,New,1,0.00,3000.00,3000.00,CreditCard,,,"3 years parts, 1 year labor (Free)","Relax2Zero 2.0,",No,9/15/2018 12:00:00 AM,Delivered,,,"Deliver within 2 weeks///Groups sales with 108011, 108012. COnfirmed $3,000 in Square.8/1/18 Hitomi
8/1Maritza Courtesy call 11:51AM",TX,1,8.25,USJ-9050USJ-9050BL,3000.00,SQ# OHTw,,,,,,0.00,,,,,,,0.00,,,,,,
ASD 7/29-8/1/18 LAS VEGAS (NV),ASD 7/29-8/1/18 LAS VEGAS (NV),Rolly San Jose,108011,7/31/2018 9:34:06 PM,Usman Ghafoor,TX,77469,Relax2Zero 2.0,New Black,New,1,0.00,3000.00,3000.00,CreditCard,,,"3 years parts, 1 year labor (Free)","Relax2Zero 2.0,",No,9/15/2018 12:00:00 AM,Delivered,,,"This is s group sale of 6 individuals who have gotten the same wholesale price of $3000 each. Pls deliver within 2 weeks.//transaction has not shown up. confirmed $3000 (with #108012) with sales receipt.  8/1/18 Hitomi
8/2Maritza Courtesy call @ 8:40AM",TX,1,8.25,USJ-9050USJ-9050BL,3000.00,05481G,,,,,,0.00,,,,,,,0.00,,,,,,
ASD 7/29-8/1/18 LAS VEGAS (NV),ASD 7/29-8/1/18 LAS VEGAS (NV),Rolly San Jose,108012,7/31/2018 9:42:38 PM,Rafiq Merchant,TX,77498,Relax2Zero 2.0,New Black,New,1,0.00,3000.00,3000.00,CreditCard,,,"3 years parts, 1 year labor (Free)","Relax2Zero 2.0,",No,,Called,,,"Pls give 1 free foot vibes to rafiq and also 1 free foot vibe to usman ghafoor of # 108011.
Pls deliver within 2 weeks.///transaction has not shown up yet . confirmed $3000 with sales receipt.   8/1/18 Hitomi
8/2Maritza Courtesy call @ 8:42AM",TX,1,8.25,USJ-9050USJ-9050BL,3000.00,05481G,,,,,,0.00,,,,,,,0.00,,,,,,
ASD 7/29-8/1/18 LAS VEGAS (NV),ASD 7/29-8/1/18 LAS VEGAS (NV),Rolly San Jose,108013,7/31/2018 10:31:25 PM,Nancy Rogers,SC,29512,Relax2Zero 2.0,New Black,New,1,0.00,4113.00,4113.00,CreditCard,,,"3 years parts, 1 year labor (Free)","Relax2Zero 2.0,",No,8/10/2018 12:00:00 AM,Delivered,,,"Deliver within 2 weeks///transaction has not shown up yet 8/1/18 Hitomi///COnfirmed $4,113.0in WF. 8/2/18 Hitomi
8/2Maritza Courtesy call @ 8:44AM",FL,1,8.25,USJ-9050USJ-9050BL,4113.00,08011Z,,,,,,0.00,,,,,,,0.00,,,,,,
ASD 7/29-8/1/18 LAS VEGAS (NV),ASD 7/29-8/1/18 LAS VEGAS (NV),Rodrigo Malabunga,108022,8/1/2018 9:12:06 AM,Eung Lee,IL,60061,Legacy 3D,Demo Choco,Demo,1,0.00,4000.00,4000.00,CreditCard,,,"3 years parts, 1 year labor (Free)","Legacy 3D,",No,8/10/2018 12:00:00 AM,Delivered,,,"COnfirmed $4,000.00 in SQuare. 8/1/18 Hitomi
8/1Maritza Courtesy call @ 12:10PM",TX,1,8.25,DWA-9150USJ-9150CH-DEMO,4000.00,Square # yD4q,,,,,,0.00,,,,,,,0.00,,,,,,
ASD 7/29-8/1/18 LAS VEGAS (NV),ASD 7/29-8/1/18 LAS VEGAS (NV),Querubin Milanes,108024,8/1/2018 9:50:19 AM,Jim and Shelby Doty,KS,67601,Pegasus,Demo Black,Demo,1,0.00,8600.00,8600.00,Synchrony,,,"3 years parts, 2 years labor ($200)","Pegasus,Pegasus,",No,8/26/2018 12:00:00 AM,Delivered,,,"2 Pegasus Demo Chairs in different address. Send 2 TOURMALINE Pads
Demo Brown @ 1716 Henry St. Hays, Kansas 67601
Demo Black @ 693 210th Ave. Hays, Kansas 67601
///COnfirmed synchrony account ($12,000) and original under JAMES DOTY. ***Please charge before delivery and have sales draft signed. *** 8/1/18 Hitomi
8/2Maritza Courtesy call @ 8:46AM",TX,1,8.25,DWA-9400Pegasus-BL-DEMO,8600.00,,,6019170813059729,92354814,San Diego,36 months,0.00,,,,,,,0.00,,,,,,
ASD 7/29-8/1/18 LAS VEGAS (NV),ASD 7/29-8/1/18 LAS VEGAS (NV),Querubin Milanes,108024,8/1/2018 9:50:19 AM,Jim and Shelby Doty,KS,67601,Pegasus,Demo Choco,Demo,1,0.00,8600.00,8600.00,Synchrony,,,"3 years parts, 2 years labor ($200)","Pegasus,Pegasus,",No,8/26/2018 12:00:00 AM,Delivered,,,"2 Pegasus Demo Chairs in different address. Send 2 TOURMALINE Pads
Demo Brown @ 1716 Henry St. Hays, Kansas 67601
Demo Black @ 693 210th Ave. Hays, Kansas 67601
///COnfirmed synchrony account ($12,000) and original under JAMES DOTY. ***Please charge before delivery and have sales draft signed. *** 8/1/18 Hitomi
8/2Maritza Courtesy call @ 8:46AM",TX,1,8.25,DWA-9400Pegasus-BR-DEMO,8600.00,,,6019170813059729,92354814,San Diego,36 months,0.00,,,,,,,0.00,,,,,,
ASD 7/29-8/1/18 LAS VEGAS (NV),ASD 7/29-8/1/18 LAS VEGAS (NV),Ruben Cuatrona,108026,8/1/2018 10:02:00 AM,Monica Costeira,OK,74012,Legacy,Demo Black,Demo,1,0.00,3600.00,3600.00,CreditCard,,,"3 years parts, 1 year labor (Free)","Legacy,",No,8/6/2018 12:00:00 AM,Delivered,,,"Demo Black Legacy DWA 9100///Confirmed $3,600.00 in Square. 8/1/18 Hitomi
8/1Maritza Courtesy call @ 12:12PM",TX,1,8.25,DWA-9100DWA-9100BL-DEMO,3600.00,Receipt #a7CQ,,,,,,0.00,,,,,,,0.00,,,,,,
ASD 7/29-8/1/18 LAS VEGAS (NV),ASD 7/29-8/1/18 LAS VEGAS (NV),Li Chen,108028,8/1/2018 10:17:44 AM,Yung Ran Chung,NV,89148,Legacy,Demo Choco,Demo,1,0.00,3600.00,3600.00,CreditCard,,,"3 years parts, 1 year labor (Free)","Legacy,",No,8/3/2018 12:00:00 AM,Delivered,,,"Confirmed $3,600.00 in Square. 8/1/18 Hitomi
8/2Maritza Courtesy call @ 9:26AM

Delivered by Li & Kohei on 8/3/2018",NV,1,8.25,DWA-9100DWA-9100BU-DEMO,3600.00,ZPmm,,,,,,0.00,,,,,,,0.00,,,,,,
ASD 7/29-8/1/18 LAS VEGAS (NV),ASD 7/29-8/1/18 LAS VEGAS (NV),Rolly San Jose,108032,8/1/2018 7:08:35 PM,Kamran Malcnojia,TX,77469,Relax2Zero 2.0,New Black,New,1,0.00,3000.00,3000.00,CreditCard,,,"3 years parts, 1 year labor (Free)","Relax2Zero 2.0,",No,8/15/2018 12:00:00 AM,Delivered,,,"Deliver within 2 weeks. Check transaction# 0760098 with Wells Fargo. Check has $9000
Value deposited in USJ Wells Fargo account.//will confirm check will be cleared -8/2/18 Hitomi///Yumi informed that check was bounced. asked Rolly how they will pay and returned item fee $12.00 . 8/3/18 Hitomi///COnfirmed Rolly charged $3,000 through WF.Returned item fee $12.00 will be deducted from Rolly.  8/8/18 Hitomi",TX,1,8.25,USJ-9050USJ-9050BL,3000.00,00247G,,,,,,0.00,,,,,,,0.00,,,,,,
ASD 7/29-8/1/18 LAS VEGAS (NV),ASD 7/29-8/1/18 LAS VEGAS (NV),Rolly San Jose,108033,8/1/2018 7:19:10 PM,Mohammad Lalani,TX,77498,Relax2Zero 2.0,New Black,New,1,0.00,3000.00,3000.00,CreditCard,,,"3 years parts, 1 year labor (Free)","Relax2Zero 2.0,",No,8/17/2018 12:00:00 AM,Delivered,,,"Deliver within 2 weeks. Payment of $3000 was taken from check paid by kamran malcnojia///will confirm check will be cleared -8/2/18 Hitomi/Yumi informed that check was bounced. asked Rolly how they will pay and returned item fee $12.00 . 8/3/18 Hitomi///COnfirmed Rolly charged $3,000 through WF.Returned item fee $12.00 will be deducted from Rolly.  8/8/18 Hitomi",TX,1,8.25,USJ-9050USJ-9050BL,3000.00,00247G,,,,,,0.00,,,,,,,0.00,,,,,,
ASD 7/29-8/1/18 LAS VEGAS (NV),ASD 7/29-8/1/18 LAS VEGAS (NV),Rolly San Jose,108035,8/1/2018 7:27:59 PM,Sajid Hooda,TX,77498,Relax2Zero 2.0,New Black,New,1,0.00,3000.00,3000.00,CreditCard,,,"3 years parts, 1 year labor (Free)","Relax2Zero 2.0,",No,10/19/2018 12:00:00 AM,Delivered,,,"Deliver within 2 weeks. Payments $3000 was paid thru check of kamran which was deposited today thru USJ Wells Fargo bank account.///will confirm check will be cleared -8/2/18 Hitomi///Yumi informed that check was bounced. asked Rolly how they will pay and returned item fee $12.00 . 8/3/18 Hitomi///COnfirmed Rolly charged $3,000 through WF.Returned item fee $12.00 will be deducted from Rolly.  8/8/18 Hitomi",TX,1,8.25,USJ-9050USJ-9050BL,3000.00,00247G,,,,,,0.00,,,,,,,0.00,,,,,,
ASD 7/29-8/1/18 LAS VEGAS (NV),ASD 7/29-8/1/18 LAS VEGAS (NV),Ruben Cuatrona,108067,8/3/2018 8:48:43 AM,Vivek Pahariya,NV,89012,Pegasus,Demo Choco,Demo,1,0.00,4000.00,4000.00,Cash,CreditCard,,"3 years parts, 1 year labor (Free)","Pegasus,",No,8/3/2018 12:00:00 AM,Delivered,,$200 cash deposit collected by Ruben Cuatrona. C.O.D balance of $3800 remaining to be collected upon delivery.,"will confirm cash. COD $3,800. 8/3/18 Hitomi-Yumi received $200 cash.  8/29/18- Hitomi--Pre.Michael received. -Hitomi
please bring cc machine 
08/03/18- Cristina- Dispatched; Sent kohei a Text last night advising of COD: $3,800.00 Chair is to be delivered today 08/3/18

Delivered by Li & Kohei on 8/3/2018. COD payment collected by Kohei via credit card.
CLEARED COD $3800  #pEvH - STEPHANY 08/07/18",NV,1,8.25,DWA-9400Pegasus-BR-DEMO,200.00,,,,,,,3800.00,Square# pEvH,,,,,,0.00,,,,,,
ASD 7/29-8/1/18 LAS VEGAS (NV),ASD 7/29-8/1/18 LAS VEGAS (NV),Ruben Cuatrona,108070,8/3/2018 9:14:36 AM,Jason Dupont,NM,88007,Pegasus,Demo Choco,Demo,1,0.00,4500.00,4500.00,Synchrony,,,"3 years parts, 1 year labor (Free)","Pegasus,",No,,Cancelled,,,"Demo/military discount. Please ship a new chair from texas///Confirmed synchrony account ($6,500) ORIGINAL NEEDS TO BE CONFIRMED 8/3/18 HITOMI///Confirmed original. 8/6/18 Hitomi
8/6Maritza Courtesy call @ 11:32AM",TX,1,8.25,DWA-9400Pegasus-BR-DEMO,4500.00,,,6019170813059232,92337029,Huston,48 months,0.00,,,,,,,0.00,,,,,,
ASD 7/29-8/1/18 LAS VEGAS (NV),ASD 7/29-8/1/18 LAS VEGAS (NV),Ruben Cuatrona,108090,8/3/2018 4:20:27 PM,Kristy-Ann Dunlap-Smith,IN,47119,Pegasus,Demo Choco,Demo,1,0.00,5200.00,5200.00,Synchrony,,,"3 years parts, 1 year labor (Free)","Pegasus,",No,9/14/2018 12:00:00 AM,Delivered,,,"08/03/18- Cristina- (DELIVER AFTER AUGUST 9TH)
Checked synchrony funds on TX log in for $8,500; Please charge synchrony before delivery and have sales draft signed. 4:27 PM
502-634-7615 NEW NUMBER CALL THEM - STEPHANY 08/16/18",TX,1,8.25,DWA-9400Pegasus-BR-DEMO,5200.00,,,6019170813059265,92337564,Huston,36 months,0.00,,,,,,,0.00,,,,,,
ASD 7/29-8/1/18 LAS VEGAS (NV),ASD 7/29-8/1/18 LAS VEGAS (NV),Ruben Cuatrona,108091,8/3/2018 4:47:04 PM,Jason Dupont,NM,88007,Pegasus,New Choco,New,1,0.00,4500.00,4500.00,Synchrony,,,"3 years parts, 1 year labor (Free)","Pegasus,",No,8/21/2018 12:00:00 AM,Delivered,,,"08/03/18-Cristina- Verif. Synchrony under Tx Branch for $6,500.00; Please charge Synchrony before delivery and have sales draft signed.",TX,1,8.25,DWA-9400Pegasus-BR,0.00,,,6019170813059232,92337029,Huston,48 months,0.00,,,,,,,0.00,,,,,,
ASD 7/29-8/1/18 LAS VEGAS (NV),ASD 7/29-8/1/18 LAS VEGAS (NV),Ruben Cuatrona,108093,8/3/2018 5:21:55 PM,Phong Nguyen,TX,77377,Legacy 3D,New Black,New,1,0.00,3900.00,3900.00,CreditCard,,,"3 years parts, 1 year labor (Free)","Legacy 3D,Daiwa Blanket,",No,8/8/2018 12:00:00 AM,Scheduled,,,"08/03/18- Cristina- Cleared SQ. payment for $7,800.00 (Linked to order 108095)",TX,1,8.25,DWA-9150USJ-9150BL,0.00,9der,,,,,,0.00,,,,,,,0.00,,,,,,
ASD 7/29-8/1/18 LAS VEGAS (NV),ASD 7/29-8/1/18 LAS VEGAS (NV),Ruben Cuatrona,108095,8/3/2018 5:27:01 PM,Rev. Joseph Nguyen,FL,32211,Legacy 3D,New Black,New,1,0.00,3900.00,3900.00,CreditCard,,,"3 years parts, 1 year labor (Free)","Legacy 3D,Daiwa Blanket,",No,8/17/2018 12:00:00 AM,Delivered,,,"08/03/18-Cristina- Cleared Sq. payment for $7,800 for two orders. (Linked to order 108093)",FL,1,8.25,DWA-9150USJ-9150BL,3900.00,9der,,,,,,0.00,,,,,,,0.00,,,,,,
ASD 7/29-8/1/18 LAS VEGAS (NV),ASD 7/29-8/1/18 LAS VEGAS (NV),JI Mo,108158,8/6/2018 9:17:17 AM,Jacob Rampel,TX,79901,Legacy,Demo Choco,Demo,1,0.00,3000.00,3000.00,CreditCard,CreditCard,Cash,"3 years parts, 1 year labor (Free)","Legacy,",No,,Delivered,,,"8/6/18 Hitomi confirmed -$1,000.00-Receipt #u0ej,$1,790.00-Receipt #Yicw. cash$210 with Ruben.///
8/6Maritza Courtesy call @ 3:37PM Both orders can not be completed as dialed. Will contact Ji for information.
Hello Hitomi, spoke with Mario, we wont go to El Paso area, please ship the chair. 8/7/2018 June//
Yumi received $210 cash. 8/29/18 Hitomi-Pre.Michael received.",CA,1,8.25,DWA-9100DWA-9100BU-DEMO,1000.00,#u0ej,,,,,,1790.00,#Yicw,,,,,,210.00,,,,,,
ASD 7/29-8/1/18 LAS VEGAS (NV),ASD 7/29-8/1/18 LAS VEGAS (NV),Ruben Cuatrona,108164,8/6/2018 2:36:57 PM,Apirudee Ross,NM,87122,Legacy,New Choco,New,1,0.00,4150.00,4150.00,Synchrony,,,"3 years parts, 1 year labor (Free)","Legacy,",No,,Hold,,"Since the Synchrony Application was declined, this order had been placed on hold, and it needs to be followed up.","Ruben asked Cristina to follow up the synchrony application, however it still has been declined, so they needs to change the payment method. Cristina called & texted the customer at 10:28 am 8/6/18",Not Dispatched,1,8.25,DWA-9100DWA-9100BU,0.00,,,,92296922,San Diego,36 months,0.00,,,,,,,0.00,,,,,,
ASD 7/29-8/1/18 LAS VEGAS (NV),ASD 7/29-8/1/18 LAS VEGAS (NV),Keith Kei,108324,8/11/2018 6:53:41 AM,Shawn Hamilton,NY,14227,Relax2Zero 2.0,New Black,New,1,316.02,4230.49,4546.51,CreditCard,,,"3 years parts, 1 year labor (Free)","Relax2Zero 2.0,",No,8/24/2018 12:00:00 AM,Delivered,,"Order for ASD SHOW
Order for Shawn HAMILTON by AMAZING PARTY & CUSTOM
This shippment will be handle Belin Freight Forwarding contact Marc 7168914040 when arrival for delivery","Full balance paid
Remaining amount: $0.00
Please contact Shawn Hamilton for detail on delivery
This shipment will be transport to Canada by the customer's freight company
The exact amount charged is 4546.50 but Daiwa space can't input exact amount with the tax and discount calculation.
8/13Maritza Confirmed total amount of $4546.50 on square. Not sure where to assign it to.
8/14Maritza Called to verify information but didn't answer. Left a vm to call me back.
8/16Still no call back will contact Keith for more information
8/16 Maritza- Per Keith, when ready to deliver call Marc. Make sure to inform them that the order is for Shawn Hamilton from Amazing Party & Custom. Drop ship only and make sure there is a commercial invoice and packing slip.
8/17Customer reached out. Said TX gave him a date (29th) He asked to make sure his stores name was on the pallet. This is the address he provided for Canada: 923 Oxford St. Etobicoke, ON M8Z 5T3 Canada
8/17Maritza Created commercial invoice and sent to June",TX,0,8.25,USJ-9050USJ-9050BL,4546.50,Square# Sjch,,,,,,0.00,,,,,,,0.00,,,,,,
