﻿Original Event Name,Event Name,Sales Person,Order Number,Order Date,Customer Name,State,Zip,Product Name,Color,Product Status,QTY,Tax,Total Before Tax,Order Total,Primary Payment Method,Second Payment Method,Thirdl Payment Method,Warranty,Order Items,Pick up,Delivered On,Order Status,Chair Type,Order Notes,Private Note,Branch,No Tax,Actual Tax Rate,SKU,Primary Payment Balance,Primary Authorize Number,Primary Purchase Order Number,Primary Synchrony Account Number,Primary Synchrony Application Key,Primary Synchrony Account Info,Primary Synchrony Term,Second Payment Balance,Second Authorize Number,Second Purchase Order Number,Second Synchrony Account Number,Second Synchrony Application Key,Second Synchrony Account Info,Second SynchronyTerm,Third Payment Balance,Third Authorize Number,Third Purchase Order Number,Third Synchrony Account Number,Third Synchrony Application Key,Third Synchrony Account Info,Third Synchrony Term
OKC Renovation & Landscaping (8/17-19/18) TX,OKC Renovation & Landscaping (8/17-19/18) TX,Kristy Tran,108650,8/20/2018 5:54:16 PM,Nila Bond,OK,74875,Solace,,New,1,0.00,2700.00,2700.00,Cash,CreditCard,CreditCard,"3 years parts, 1 year labor (Free)","Solace,",YES,8/18/2018 12:00:00 AM,Delivered,,"Solace Black Demo
SN 0801001170314
Customer picked up 8/19/2018","Kristy has $500 cash//Confirmed $500.00  & $1,700.00 in Square. Mario said received $500cash. will follow up cash confirmation and pick up 8/21/18 HItomi
8/22 Maritza Picked up on 8/19
8/28 Hitomi- confirmed Mario received $500 cash with delivery confirmation.",TX,1,8.63,SOL-1,500.00,,,,,,,500.00,Square #7D0L,,,,,,1700.00,Square #oF7Z,,,,,
OKC Renovation & Landscaping (8/17-19/18) TX,OKC Renovation & Landscaping (8/17-19/18) TX,Kristy Tran,108651,8/20/2018 6:01:40 PM,Ali & Donna Ghazanfari,OK,73013,Solace,,New,1,0.00,2700.00,2700.00,Cash,Cash,,"3 years parts, 1 year labor (Free)","Solace,",No,9/5/2018 12:00:00 AM,Delivered,New,"Solace Brown New
Please deliver ASAP.
CASH on Delivery
No cards or checks.","Kristy has $100 cash.//Mario said he received the cash. I will follow up the confirmation. COD$2,600. - 8/21/18 Hitomi/
8/21Maritza Courtesy text+email @ 5:12PM
Received cash confirmation signed by Mario for the deposit-$100. 8/23/18 Riho
11/2Maritza received the delivery confirmation. COD paid in cash collected by Mario",TX,1,8.63,SOL-1,100.00,,,,,,,2600.00,,,,,,,0.00,,,,,,
