﻿Order Number,Order Date,Event Name,Salesperson,SKU,Product Name,Color,QTY,Warranty,Payment Details,Tax,Order Total,Gross,Primary Payment Method,Primary Payment Balance,Primary Authorize Number,Primary Purchase Order Number,Primary Synchrony Account Number,Primary Synchrony Application Key,Primary Synchrony AccountInfo,Primary SynchronyTerm,Secondly Payment Method,Secondly Payment Balance,Secondly Authorize Number,Secondly Purchase Order Number,Secondly Synchrony Account Number,Secondly Synchrony Application Key,Secondly Synchrony AccountInfo,Secondly SynchronyTerm,Thirdly Payment Method,Thirdly Payment Balance,Thirdly Authorize Number,Thirdly Purchase Order Number,Thirdly Synchrony Account Number,Thirdly Synchrony Application Key,Thirdly Synchrony AccountInfo,Thirdly SynchronyTerm,Actual Shipping Cost,CustomerName,Shipping Address,Delivered On,Serial Number (TO Be),Note,Branch,IsNoTax,ActualTaxRate
104166,3/5/2018 7:35:26 AM,"Strawberry Festival Plant City, Fl 3/1-3/11",Robert Shih,MAJ-1010MAJ-1010-BR-DEMO,Majesty,Demo Choco,1,"3 years parts, 1 year labor (Free)",CUSTOM Synchrony,157.50,3157.50,3157.50,CreditCard,50.00,Square# TBUN,,,,,,Synchrony,3107.50,,,6034610083136054,85776675,Las Vegas,24 months,,0.00,,,,,,,0.00,Deidra West,4075922481,,,,FL,0,7.00
104167,3/5/2018 7:42:52 AM,"Strawberry Festival Plant City, Fl 3/1-3/11",Robert Shih,DWA-9150USJ-9150BL,Legacy 3D,New Black,1,"3 years parts, 1 year labor (Free)",CUSTOM ,0.00,4300.00,4300.00,CreditCard,300.00,Square# WgKU,,,,,,,0.00,,,,,,,,0.00,,,,,,,0.00,Bill Lavin,3522797068,,,"Thank you very much for your business with us  / COD $4,000",FL,1,7.00
104168,3/5/2018 7:50:40 AM,"Strawberry Festival Plant City, Fl 3/1-3/11",Ruben Cuatrona,DWA-9060USJ-9060BL,Relax2Zero 3D,New Black,1,"3 years parts, 1 year labor (Free)",CUSTOM Check,0.00,3700.00,3700.00,CreditCard,2000.00,Square# MhTk,,,,,,Check,1700.00,,,,,,,,0.00,,,,,,,0.00,Derrell & Hope Stewart Stewart,8132447066,3/2/2018 12:00:00 AM,,"Thank you very much for your business with us in Strawberry Festival , Plant city , FL  / Customer will pick up the chair at warehouse in FL with $1,700 remaining balance",FL,1,7.00
104169,3/5/2018 8:01:40 AM,"Strawberry Festival Plant City, Fl 3/1-3/11",Robert Shih,DWA-9060USJ-9060BL,Relax2Zero 3D,New Black,1,"3 years parts, 1 year labor (Free)",CUSTOM ,220.50,4120.50,4120.50,Synchrony,4120.50,,,6034610083131808,85704449,Las Vegas,36 months,,0.00,,,,,,,,0.00,,,,,,,0.00,Ashley Isaacs,6064938903,3/13/2018 12:00:00 AM,,"Thank you very much for your business with us in Strawberry Festival , Plant city , FL  / Synchrony 36 months 0 % APR  / Please deliver first week of April",TX,0,7.00
104170,3/5/2018 8:08:04 AM,"Strawberry Festival Plant City, Fl 3/1-3/11",Ruben Cuatrona,DWA-9150USJ-9150CH,Legacy 3D,New Choco,1,"3 years parts, 1 year labor (Free)",CUSTOM ,0.00,4800.00,4800.00,Synchrony,4800.00,,,6034610083132020,85711546,Las Vegas,48 months,,0.00,,,,,,,,0.00,,,,,,,0.00,Patricia Broach,4106108402,,,"Thank you very much for your business with us in Strawberry Festival , Plant city , FL  / Synchrony 48 months 0 % APR  / Please deliver ASAP",TX,1,7.00
104171,3/5/2018 8:21:27 AM,"Strawberry Festival Plant City, Fl 3/1-3/11",Robert Shih,DWA-9060USJ-9060BR,Relax2Zero 3D,New Choco,1,"3 years parts, 1 year labor (Free)",CUSTOM ,220.50,4120.50,4120.50,Synchrony,4120.50,,,6034610083132152,85713291,Las Vegas,36 months,,0.00,,,,,,,,0.00,,,,,,,0.00,Roger & Glenda Smith,5739790165,,,"Thank you very much for your business with us in Strawberry Festival , Plant city , FL  / Synchrony 36 months 0 % APR  / Please deliver by second week of April",TX,0,7.00
104172,3/5/2018 8:30:08 AM,"Strawberry Festival Plant City, Fl 3/1-3/11",Ruben Cuatrona,DWA-9150USJ-9150BL-DEMO,Legacy 3D,Demo Black,1,"3 years parts, 1 year labor (Free)",CUSTOM ,0.00,3900.00,3900.00,Cash,100.00,,,,,,,,0.00,,,,,,,,0.00,,,,,,,0.00,Jen Covel,9416267271,,,"Thank you very much for your business with us in Strawberry Festival , Plant city , FL  / Hold delivery until full payment",FL,1,7.00
104173,3/5/2018 8:34:48 AM,"Strawberry Festival Plant City, Fl 3/1-3/11",Ruben Cuatrona,DWA-9150USJ-9150CH,Legacy 3D,New Choco,1,"3 years parts, 1 year labor (Free)",CUSTOM ,0.00,4800.00,4800.00,Synchrony,4800.00,,,6034610083132269,85714660,Las Vegas,48 months,,0.00,,,,,,,,0.00,,,,,,,0.00,Steven Berres,6122260091,,,"Thank you very much for your business with us in Strawberry Festival , Plant city , FL  / Synchrony 48 months 0 % APR  / Please deliver ASAP",TX,1,7.00
104174,3/5/2018 8:41:11 AM,"Strawberry Festival Plant City, Fl 3/1-3/11",Robert Shih,DWA-9150USJ-9150CH,Legacy 3D,New Choco,1,"3 years parts, 1 year labor (Free)",CUSTOM ,0.00,3900.00,3900.00,CreditCard,3900.00,Square# oSKW,,,,,,,0.00,,,,,,,,0.00,,,,,,,0.00,Kim Sanderal,8638842199,3/15/2018 12:00:00 AM,,"Thank you very much for your business with us in Strawberry Festival , Plant city , FL  / Please deliver ASAP",FL,1,7.00
104175,3/5/2018 8:53:57 AM,"Strawberry Festival Plant City, Fl 3/1-3/11",Ruben Cuatrona,DWA-9150USJ-9150CH,Legacy 3D,New Choco,1,"3 years parts, 1 year labor (Free)",CUSTOM ,0.00,3900.00,3900.00,CreditCard,2000.00,Square# 2h8c,,,,,,,0.00,,,,,,,,0.00,,,,,,,0.00,Angela Livernois,7273799030,,,"Thank you very much for your business with us in Strawberry Festival  / COD $1,900 / Please deliver ASAP",FL,1,7.00
104176,3/5/2018 8:59:16 AM,"Strawberry Festival Plant City, Fl 3/1-3/11",Daniel Ritchie,DWA-9060USJ-9060BL-DEMO,Relax2Zero 3D,Demo Black,1,"3 years parts, 1 year labor (Free)",CUSTOM ,273.00,4173.00,4173.00,CreditCard,4173.00,Square# VclV,,,,,,,0.00,,,,,,,,0.00,,,,,,,0.00,Justin Mack,3212993112,,,Thank you very much for your business with us in Strawberry Festival  / Please deliver ASAP,FL,0,7.00
104177,3/5/2018 9:04:40 AM,"Strawberry Festival Plant City, Fl 3/1-3/11",Ruben Cuatrona,DWA-9150USJ-9150CH,Legacy 3D,New Choco,1,"3 years parts, 1 year labor (Free)",CUSTOM ,0.00,3900.00,3900.00,CreditCard,100.00,Square# 6Uwh,,,,,,,0.00,,,,,,,,0.00,,,,,,,0.00,Melinda Ford,2705560418,,,"Pls hold the order , when customer ready will provides delivery address",FL,1,7.00
104180,3/5/2018 9:16:05 AM,"Strawberry Festival Plant City, Fl 3/1-3/11",Robert Shih,DWA-9060USJ-9060BR,Relax2Zero 3D,New Choco,1,"3 years parts, 1 year labor (Free)",CUSTOM ,0.00,3900.00,3900.00,Synchrony,3900.00,,,6034610083135106,85763655,Las Vegas,48 months,,0.00,,,,,,,,0.00,,,,,,,0.00,Steven E Noeltner,7275255937,,,Thank you very much for your business with us in Strawberry Festival  / Synchrony 48 months 0 % APR / Please deliver ASAP weekend only,FL,1,7.00
104181,3/5/2018 9:22:24 AM,"Strawberry Festival Plant City, Fl 3/1-3/11",Robert Shih,DWA-9060USJ-9060BL,Relax2Zero 3D,New Black,1,"3 years parts, 1 year labor (Free)",CUSTOM ,0.00,3900.00,3900.00,Synchrony,3500.00,,,6034610083136096,85776873,Las Vegas,48 months,,0.00,,,,,,,,0.00,,,,,,,0.00,Mayra Dejesus,8133103617,,,"Thank you very much for your business with us in Strawberry Festival  / Synchrony 48 months 0 % APR $3,500 / COD $400 / Please deliver ASAP",FL,1,7.00
104182,3/5/2018 9:28:46 AM,"Strawberry Festival Plant City, Fl 3/1-3/11",Robert Shih,MAJ-1010MAJ-1010-BR-DEMO,Majesty,Demo Choco,1,"3 years parts, 1 year labor (Free)",CUSTOM ,0.00,3500.00,3500.00,Synchrony,3500.00,,,6034610083135593,85768497,Las Vegas,48 months,,0.00,,,,,,,,0.00,,,,,,,0.00,Donna Rasei,9084473949,,,Thank you very much for your business with us in Strawberry Festival  / Synchrony 48 months 0 % APR  / Please deliver ASAP weekend only,FL,1,7.00
104183,3/5/2018 9:39:08 AM,"Strawberry Festival Plant City, Fl 3/1-3/11",Robert Shih,DWA-9060USJ-9060BR,Relax2Zero 3D,New Choco,1,"3 years parts, 1 year labor (Free)",CUSTOM ,220.50,4120.50,4120.50,PurchaseOrder,0.00,,,,,,,,0.00,,,,,,,,0.00,,,,,,,,Pete Diaz,8135177947,,,Thank you very much for your business with us in Strawberry Festival  / Synchrony 48 months 0 % APR  / Please on hold the order till second week of April customer finished refinancing home,Not Dispatched,0,7.00
104211,3/5/2018 4:04:53 PM,"Strawberry Festival Plant City, Fl 3/1-3/11",Robert Shih,DWA-9060USJ-9060BR-DEMO,Relax2Zero 3D,Demo Choco,1,"3 years parts, 1 year labor (Free)",CUSTOM ,220.50,4120.50,4120.50,Synchrony,4120.50,,,6034610083139744,85852865,Las Vegas,48 months,,0.00,,,,,,,,0.00,,,,,,,0.00,Philip Villemure,9064504490,,,Thank you very much for your business with us in Strawberry Festival  / Synchrony 48 months 0 % APR  / Please deliver ASAP,FL,0,7.00
104212,3/5/2018 4:10:45 PM,"Strawberry Festival Plant City, Fl 3/1-3/11",Robert Shih,DWA-9060USJ-9060BR,Relax2Zero 3D,New Choco,1,"3 years parts, 1 year labor (Free)",CUSTOM ,0.00,4800.00,4800.00,Synchrony,4800.00,,,6034610083136203,85782743,Las Vegas,48 months,,0.00,,,,,,,,0.00,,,,,,,0.00,Clarence F. Rudolph,8133918588,,,Thank you very much for your business with us in Strawberry Festival  / Synchrony 48 months 0 % APR  / Please deliver ASAP,FL,1,7.00
104213,3/5/2018 4:19:08 PM,"Strawberry Festival Plant City, Fl 3/1-3/11",Ruben Cuatrona,DWA-9150USJ-9150CH,Legacy 3D,New Choco,1,"3 years parts, 1 year labor (Free)",CUSTOM ,0.00,3800.00,3800.00,Cash,100.00,,,,,,,,0.00,,,,,,,,0.00,,,,,,,0.00,Michael Lian,9144336004,,,"Thank you very much for your business with us in Strawberry Festival  / COD $3,700  / Please deliver ASAP",FL,1,7.00
104214,3/5/2018 4:29:34 PM,"Strawberry Festival Plant City, Fl 3/1-3/11",Daniel Ritchie,DWA-9060USJ-9060BL-DEMO,Relax2Zero 3D,Demo Black,1,"3 years parts, 1 year labor (Free)",CUSTOM ,220.50,4120.50,4120.50,Synchrony,4120.50,,,6034610083139843,85854730,Las Vegas,48 months,,0.00,,,,,,,,0.00,,,,,,,0.00,Kimberly Shutley,7273363711,,,Thank you very much for your business with us in Strawberry Festival  / Synchrony 48 months 0 % APR  / Please deliver ASAP,FL,0,7.00
104215,3/5/2018 4:42:56 PM,"Strawberry Festival Plant City, Fl 3/1-3/11",Robert Shih,DWA-9060USJ-9060BR,Relax2Zero 3D,New Choco,1,"3 years parts, 1 year labor (Free)",CUSTOM ,0.00,4800.00,4800.00,PurchaseOrder,0.00,,,,,,,,0.00,,,,,,,,0.00,,,,,,,0.00,Heather L. Whitcow,4043964652,,,"Thank you very much for your business with us in Strawberry Festival  / Synchrony 48 months 0 % APR  / Please on hold the order to fisrt week of April , customer will give SSN to run the application",Not Dispatched,1,7.00
104216,3/5/2018 4:58:21 PM,"Strawberry Festival Plant City, Fl 3/1-3/11",Ruben Cuatrona,DWA-9150USJ-9150BL,Legacy 3D,New Black,1,"3 years parts, 1 year labor (Free)",CUSTOM ,0.00,3800.00,3800.00,CreditCard,3800.00,Square# 26Dg,,,,,,,0.00,,,,,,,,0.00,,,,,,,0.00,Jeff Bell,3523962537,,,Thank you very much for your business with us in Strawberry Festival  / Please deliver ASAP,FL,1,7.00
104217,3/5/2018 5:11:01 PM,"Strawberry Festival Plant City, Fl 3/1-3/11",Robert Shih,DWA-9060USJ-9060BR-DEMO,Relax2Zero 3D,Demo Choco,1,"3 years parts, 1 year labor (Free)",CUSTOM ,0.00,3700.00,3700.00,CreditCard,3700.00,Square# rJa7,,,,,,,0.00,,,,,,,,0.00,,,,,,,0.00,Robert Bass,4435288680,,,Thank you very much for your business with us in Strawberry Festival  / Please deliver ASAP,FL,1,7.00
104218,3/5/2018 5:45:24 PM,"Strawberry Festival Plant City, Fl 3/1-3/11",Robert Shih,DWA-9060USJ-9060BL,Relax2Zero 3D,New Black,1,"3 years parts, 1 year labor (Free)",CUSTOM ,0.00,3500.00,3500.00,Synchrony,3000.00,,,6034623330180296,,Las Vegas,36 months,,0.00,,,,,,,,0.00,,,,,,,0.00,Audimiro Leija,8635896315,,,"Thank you very much for your business with us in Strawberry Festival  / Synchrony 36 months 0 % APR $3,000 on sleep number synchrony card / COD $500",FL,1,7.00
104219,3/5/2018 5:54:45 PM,"Strawberry Festival Plant City, Fl 3/1-3/11",Ruben Cuatrona,DWA-9400Pegasus-BR-DEMO,Pegasus,Demo Choco,1,"3 years parts, 1 year labor (Free)",CUSTOM ,0.00,4800.00,4800.00,PurchaseOrder,0.00,,,,,,,,0.00,,,,,,,,0.00,,,,,,,0.00,Elias Cruz,8136133779,,,Thank you very much for your business with us in Strawberry Festival  / Please call to get the CC payment  / Please deliver ASAP,Not Dispatched,1,7.00
104220,3/5/2018 6:01:55 PM,"Strawberry Festival Plant City, Fl 3/1-3/11",Robert Shih,DWA-9400Pegasus-BR,Pegasus,New Choco,1,"3 years parts, 3 years labor ($400)",CUSTOM ,0.00,5000.00,5000.00,CreditCard,5000.00,Square# us4E,,,,,,,0.00,,,,,,,,0.00,,,,,,,0.00,Cynthic Heitzman,3524274498,,,Thank you very much for your business with us in Strawberry Festival  / Free 2 years labor extension / Please deliver ASAP,FL,1,7.00
104221,3/5/2018 6:06:25 PM,"Strawberry Festival Plant City, Fl 3/1-3/11",Ruben Cuatrona,DWA-9150USJ-9150CH,Legacy 3D,New Choco,1,"3 years parts, 1 year labor (Free)",CUSTOM ,0.00,3900.00,3900.00,CreditCard,3900.00,Square# 7U6W,,,,,,,0.00,,,,,,,,0.00,,,,,,,0.00,Vickie Covert,8135464236,,,Thank you very much for your business with us in Strawberry Festival  / Please deliver ASAP,FL,1,7.00
104222,3/5/2018 6:19:22 PM,"Strawberry Festival Plant City, Fl 3/1-3/11",Daniel Ritchie,DWA-9060USJ-9060BL,Relax2Zero 3D,New Black,1,"3 years parts, 1 year labor (Free)",CUSTOM ,283.50,5083.50,5083.50,Synchrony,5083.50,,,6034610083140080,85859505,Las Vegas,48 months,,0.00,,,,,,,,0.00,,,,,,,0.00,Lucille Wion,7279160249,,,Thank you very much for your business with us in Strawberry Festival  / Please deliver ASAP / Synchrony 48 months with 0 % APR,FL,0,7.00
104223,3/5/2018 6:24:24 PM,"Strawberry Festival Plant City, Fl 3/1-3/11",Robert Shih,DWA-9060USJ-9060BR-DEMO,Relax2Zero 3D,Demo Choco,1,"3 years parts, 1 year labor (Free)",CUSTOM Synchrony,220.50,4120.50,4120.50,Synchrony,2000.00,,,6034610083139694,85852166,Las Vegas,36 months,Synchrony,2000.00,,,6034610083153869,86139222,Las Vegas,36 months,,0.00,,,,,,,0.00,Derek Bennett,7169012151,,,"Thank you very much for your business with us in Strawberry Festival  / Please deliver ASAP / Synchrony 24 months with 0 % APR  for $2,000 approved",FL,0,7.00
104225,3/5/2018 6:34:04 PM,"Strawberry Festival Plant City, Fl 3/1-3/11",Robert Shih,DWA-9060USJ-9060BL,Relax2Zero 3D,New Black,1,"3 years parts, 1 year labor (Free)",CUSTOM ,0.00,4000.00,4000.00,Synchrony,4000.00,,,6034610083139405,85846713,Las Vegas,36 months,,0.00,,,,,,,,0.00,,,,,,,0.00,Russ McNamee,3135757203,3/15/2018 12:00:00 AM,,"Thank you very much for your business with us in Strawberry Festival  / Please deliver ASAP / Synchrony 48 months with 0 % APR $8,000 / Customer purchased two chairs",FL,1,7.00
104226,3/5/2018 6:38:29 PM,"Strawberry Festival Plant City, Fl 3/1-3/11",Robert Shih,DWA-9060USJ-9060BR,Relax2Zero 3D,New Choco,1,"3 years parts, 1 year labor (Free)",CUSTOM ,0.00,4000.00,4000.00,Synchrony,4000.00,,,6034610083139405,85846713,Las Vegas,36 months,,0.00,,,,,,,,0.00,,,,,,,0.00,Russ McNamee,3135757203,,,"Thank you very much for your business with us in Strawberry Festival  / Please deliver ASAP / Synchrony 48 months with 0 % APR for $8,000 / Please deliver target first week of May",TX,1,7.00
104236,3/6/2018 7:39:44 AM,"Strawberry Festival Plant City, Fl 3/1-3/11",Ruben Cuatrona,DWA-9150USJ-9150BL,Legacy 3D,New Black,1,"3 years parts, 1 year labor (Free)",CUSTOM ,0.00,4000.00,4000.00,Synchrony,4000.00,,,6034610083140254,85868071,Las Vegas,36 months,,0.00,,,,,,,,0.00,,,,,,,0.00,Jerrold Settle,3525881164,,,Thank you very much for your business with us in Strawberry Festival / Synchrony 36 months 0 % APR / Please deliver ASAP,FL,1,7.00
104237,3/6/2018 7:58:32 AM,"Strawberry Festival Plant City, Fl 3/1-3/11",Ruben Cuatrona,DWA-9150USJ-9150CH,Legacy 3D,New Choco,1,"3 years parts, 3 years labor ($400)",CUSTOM ,0.00,4500.00,4500.00,CreditCard,4500.00,Square# 45iP,,,,,,,0.00,,,,,,,,0.00,,,,,,,0.00,Patricia Wickliffe,2604248784,3/22/2018 12:00:00 AM,,Thank you very much for your business with us in Strawberry Festival / Please deliver ASAP / Free 2 years labor extension,TX,1,7.00
104238,3/6/2018 8:10:37 AM,"Strawberry Festival Plant City, Fl 3/1-3/11",Ruben Cuatrona,DWA-9150USJ-9150CH,Legacy 3D,New Choco,1,3 Years Parts (International),CUSTOM CreditCard,0.00,3500.00,3500.00,CreditCard,1000.00,Square# mAOF,,,,,,CreditCard,500.00,Square# AyPJ,,,,,,Cash,2000.00,,,,,,,0.00,Glen McLean,8636052777,,,Thank you very much for your business with us in Strawberry Festival / Please deliver ASAP ONLY DROP SHIP BEFORE MARCH 26TH CUSTOMER WILL BRING BACK TO CANADA,FL,1,7.00
104239,3/6/2018 8:15:36 AM,"Strawberry Festival Plant City, Fl 3/1-3/11",Ruben Cuatrona,DWA-9150USJ-9150BL,Legacy 3D,New Black,1,"3 years parts, 3 years labor ($400)",CUSTOM ,241.50,4441.50,4441.50,Synchrony,4200.00,,,6034610083140296,85860322,Las Vegas,36 months,,0.00,,,,,,,,0.00,,,,,,,0.00,Karen Harrison,7724650842,,,Thank you very much for your business with us in Strawberry Festival / Please deliver ASAP  / Synchrony 36 months 0 % APR  / Free 2 years labor extensions,FL,0,7.00
104240,3/6/2018 8:30:34 AM,"Strawberry Festival Plant City, Fl 3/1-3/11",Ruben Cuatrona,DWA-9060USJ-9060BL-DEMO,Relax2Zero 3D,Demo Black,1,"3 years parts, 1 year labor (Free)",CUSTOM ,0.00,3900.00,3900.00,CreditCard,200.00,Square# Isb9,,,,,,,0.00,,,,,,,,0.00,,,,,,,0.00,Michelle Pellerin,6033475673,,,"Thank you very much for your business with us in Strawberry Festival / Special layaway from Ruben , PLEASE CHARGE CUSTOMER $200 on EVERY 15TH OF THE MONTH UNTIL $2000 THAN DELIVER THE CHAIR",Not Dispatched,1,7.00
104252,3/6/2018 5:08:10 PM,"Strawberry Festival Plant City, Fl 3/1-3/11",Ruben Cuatrona,DWA-9150USJ-9150CH,Legacy 3D,New Choco,1,3 Years Parts (International),CUSTOM Cash,0.00,3800.00,3800.00,CreditCard,2800.00,Square#fTqC,,,,,,Cash,1000.00,,,,,,,,0.00,,,,,,,0.00,Eric Laviolelte,7052325925,,,Thank you very much for your business with us in Strawberry Festival / Please arrange the shipping with customer to Canada,CA,1,7.00
104253,3/6/2018 5:15:40 PM,"Strawberry Festival Plant City, Fl 3/1-3/11",Daniel Ritchie,DWA-9060USJ-9060BL-DEMO,Relax2Zero 3D,Demo Black,1,"3 years parts, 1 year labor (Free)",CUSTOM ,273.00,4173.00,4173.00,Cash,100.00,,,,,,,,0.00,,,,,,,,0.00,,,,,,,0.00,Trina Pritchard,3525671521,,,"Thank you very much for your business with us in Strawberry Festival / Please target the deliver April 2 or 3 / COD $4,073",FL,0,7.00
104254,3/6/2018 5:21:14 PM,"Strawberry Festival Plant City, Fl 3/1-3/11",Ruben Cuatrona,DWA-9150USJ-9150CH,Legacy 3D,New Choco,1,"3 years parts, 1 year labor (Free)",CUSTOM ,0.00,4300.00,4300.00,Synchrony,4300.00,,,6034610083140932,85886620,Las Vegas,36 months,,0.00,,,,,,,,0.00,,,,,,,0.00,Steven Sellers,3156818203,,,Thank you very much for your business with us in Strawberry Festival / Synchrony 36 months  0% APR / Please deliver ASAP,FL,1,7.00
104255,3/6/2018 5:29:47 PM,"Strawberry Festival Plant City, Fl 3/1-3/11",Robert Shih,DWA-9060USJ-9060BR-DEMO,Relax2Zero 3D,Demo Choco,1,"3 years parts, 1 year labor (Free)",CUSTOM ,220.50,4120.50,4120.50,Synchrony,4120.50,,,6034610083140635,85881060,Las Vegas,48 months,,0.00,,,,,,,,0.00,,,,,,,0.00,Tina Straud,7276870694,,,Thank you very much for your business with us in Strawberry Festival / Synchrony 48 months 0% APR / Please deliver ASAP,FL,0,7.00
104256,3/7/2018 7:27:43 AM,"Strawberry Festival Plant City, Fl 3/1-3/11",Robert Shih,DWA-9150USJ-9150CH-DEMO,Legacy 3D,Demo Choco,1,"3 years parts, 1 year labor (Free)",CUSTOM ,0.00,3900.00,3900.00,Synchrony,3900.00,,,6034610083142110,85913442,Las Vegas,48 months,,0.00,,,,,,,,0.00,,,,,,,0.00,William Harris,7276577394,,,Synchrony 48 months 0% APR / Please deliver ASAP,FL,1,7.00
104257,3/7/2018 7:40:14 AM,"Strawberry Festival Plant City, Fl 3/1-3/11",Ruben Cuatrona,DWA-9400Pegasus-BL,Pegasus,New Black,1,"3 years parts, 1 year labor (Free)",CUSTOM ,0.00,4800.00,4800.00,CreditCard,4800.00,Square#p91V,,,,,,,0.00,,,,,,,,0.00,,,,,,,0.00,Mark Virgi,8132415469,,,Thank you very much for your business with us in Strawberry Festival  / Please deliver ASAP,FL,1,7.00
104258,3/7/2018 6:32:10 PM,"Strawberry Festival Plant City, Fl 3/1-3/11",Daniel Ritchie,DWA-9150USJ-9150CH,Legacy 3D,New Choco,1,"3 years parts, 1 year labor (Free)",CUSTOM ,0.00,4800.00,4800.00,Synchrony,4500.00,,,6034610083143191,85946545,Las Vegas,48 months,,0.00,,,,,,,,0.00,,,,,,,0.00,Wendy Trapeni,8139070471,3/13/2018 12:00:00 AM,,"Thank you very much for your business with us in Strawberry Festival / Synchrony 48 months 0% APR $4,500 / COD $300 / Please deliver ASAP",FL,1,7.00
104259,3/7/2018 6:37:56 PM,"Strawberry Festival Plant City, Fl 3/1-3/11",Robert Shih,DWA-9150USJ-9150CH,Legacy 3D,New Choco,1,"3 years parts, 1 year labor (Free)",CUSTOM ,0.00,4000.00,4000.00,Synchrony,4000.00,,,6034610083143282,85947784,Las Vegas,48 months,,0.00,,,,,,,,0.00,,,,,,,0.00,Robbie Williams,3528758284,,,Thank you very much for your business with us in Strawberry Festival / Synchrony 48 months 0% APR  / Please deliver ASAP,FL,1,7.00
104260,3/7/2018 6:43:44 PM,"Strawberry Festival Plant City, Fl 3/1-3/11",Robert Shih,DWA-9400Pegasus-BR-DEMO,Pegasus,Demo Choco,1,"3 years parts, 1 year labor (Free)",CUSTOM Check,0.00,4900.00,4900.00,CreditCard,100.00,Square# R2KS,,,,,,Check,4800.00,,,,,,,,0.00,,,,,,,0.00,Robert Forsyth,9415254419,3/15/2018 12:00:00 AM,,"Thank you very much for your business with us in Strawberry Festival / COD$4,800 / Please deliver ASAP",FL,1,7.00
104261,3/7/2018 6:49:15 PM,"Strawberry Festival Plant City, Fl 3/1-3/11",Ting Ritchie,DWA-9060USJ-9060BR,Relax2Zero 3D,New Choco,1,"3 years parts, 1 year labor (Free)",CUSTOM ,0.00,4800.00,4800.00,CreditCard,4800.00,Square# Txtb,,,,,,,0.00,,,,,,,,0.00,,,,,,,0.00,Blanch Siskavich,3158487375,,,Thank you very much for your business with us in Strawberry Festival / Please target deliver after May 1st,TX,1,7.00
104262,3/7/2018 6:53:09 PM,"Strawberry Festival Plant City, Fl 3/1-3/11",Robert Shih,DWA-9150USJ-9150CH,Legacy 3D,New Choco,1,"3 years parts, 1 year labor (Free)",CUSTOM ,0.00,3900.00,3900.00,CreditCard,50.00,Square# PnFA,,,,,,,0.00,,,,,,,,0.00,,,,,,,0.00,Kenneth Johanning,8126396853,,,Thank you very much for your business with us in Strawberry Festival /,TX,1,7.00
104263,3/7/2018 6:56:33 PM,"Strawberry Festival Plant City, Fl 3/1-3/11",Ting Ritchie,DWA-9060USJ-9060BR,Relax2Zero 3D,New Choco,1,"3 years parts, 1 year labor (Free)",CUSTOM ,0.00,4800.00,4800.00,Synchrony,4800.00,,,6034610083143316,85948839,Las Vegas,48 months,,0.00,,,,,,,,0.00,,,,,,,0.00,William Eulitz,3215149188,,,Thank you very much for your business with us in Strawberry Festival / Synchrony 48 months 0% APR  / Please deliver ASAP,FL,1,7.00
104264,3/8/2018 7:04:14 AM,"Strawberry Festival Plant City, Fl 3/1-3/11",Ting Ritchie,DWA-9060USJ-9060BL,Relax2Zero 3D,New Black,1,"3 years parts, 1 year labor (Free)",CUSTOM ,0.00,4200.00,4200.00,Synchrony,4200.00,,,6034610083143498,85956571,Las Vegas,36 months,,0.00,,,,,,,,0.00,,,,,,,0.00,Fanny C Herrera,3865868111,3/24/2018 12:00:00 AM,,Thank you very much for your business with us in Strawberry Festival / Synchrony 36 months 0% APR / Please deliver ASAP / Please target deliver on Sunday,FL,1,7.00
104265,3/8/2018 7:14:43 AM,"Strawberry Festival Plant City, Fl 3/1-3/11",Robert Shih,DWA-9150USJ-9150CH,Legacy 3D,New Choco,1,"3 years parts, 1 year labor (Free)",CUSTOM ,220.50,4120.50,4120.50,CreditCard,50.00,Square# R225,,,,,,,0.00,,,,,,,,0.00,,,,,,,,Derrick & Crystal Corbett,4077662384,,,Thank you very much for your business with us in Strawberry Festival / Please hold the order for customer buying new house,Not Dispatched,0,7.00
104266,3/8/2018 7:23:31 AM,"Strawberry Festival Plant City, Fl 3/1-3/11",Ting Ritchie,,Chair Pad for Relax2Zero 3D,,1,no warranty,CUSTOM ,0.00,4500.00,4500.00,Synchrony,4500.00,,,6034610083143340,85949048,Las Vegas,48 months,,0.00,,,,,,,,0.00,,,,,,,0.00,Lance Alderman,8133313390,3/15/2018 12:00:00 AM,,Thank you very much for your business with us in Strawberry Festival / Synchrony 48 months 0% APR / Please deliver ASAP / Please deliver with extra back and foot pad,FL,1,7.00
104266,3/8/2018 7:23:31 AM,"Strawberry Festival Plant City, Fl 3/1-3/11",Ting Ritchie,,Foot Pads for Relax2Zero 3D,,1,no warranty,CUSTOM ,0.00,4500.00,4500.00,Synchrony,4500.00,,,6034610083143340,85949048,Las Vegas,48 months,,0.00,,,,,,,,0.00,,,,,,,0.00,Lance Alderman,8133313390,3/15/2018 12:00:00 AM,,Thank you very much for your business with us in Strawberry Festival / Synchrony 48 months 0% APR / Please deliver ASAP / Please deliver with extra back and foot pad,FL,1,7.00
104266,3/8/2018 7:23:31 AM,"Strawberry Festival Plant City, Fl 3/1-3/11",Ting Ritchie,DWA-9060USJ-9060BR,Relax2Zero 3D,New Choco,1,"3 years parts, 1 year labor (Free)",CUSTOM ,0.00,4500.00,4500.00,Synchrony,4500.00,,,6034610083143340,85949048,Las Vegas,48 months,,0.00,,,,,,,,0.00,,,,,,,0.00,Lance Alderman,8133313390,3/15/2018 12:00:00 AM,,Thank you very much for your business with us in Strawberry Festival / Synchrony 48 months 0% APR / Please deliver ASAP / Please deliver with extra back and foot pad,FL,1,7.00
104267,3/8/2018 7:30:13 AM,"Strawberry Festival Plant City, Fl 3/1-3/11",Robert Shih,DWA-9150USJ-9150CH,Legacy 3D,New Choco,1,"3 years parts, 1 year labor (Free)",CUSTOM ,227.50,4227.50,4227.50,Synchrony,4000.00,,,6034610083143241,85947387,Las Vegas,48 months,,0.00,,,,,,,,0.00,,,,,,,0.00,Earnest Reed,8509265113,,,Thank you very much for your business with us in Strawberry Festival / Synchrony 48 months 0% APR / Please deliver ASAP,FL,0,7.00
104268,3/8/2018 7:42:22 AM,"Strawberry Festival Plant City, Fl 3/1-3/11",Robert Shih,DWA-9400Pegasus-BR,Pegasus,New Choco,1,"3 years parts, 1 year labor (Free)",CUSTOM ,0.00,4800.00,4800.00,CreditCard,100.00,Square# bFJ1,,,,,,,0.00,,,,,,,,0.00,,,,,,,0.00,Jessica Lin - Sparbel,8639566530,,,Thank you very much for your business with us in Strawberry Festival / Please hold the order,FL,1,7.00
104280,3/8/2018 4:43:02 PM,"Strawberry Festival Plant City, Fl 3/1-3/11",Robert Shih,DWA-9150USJ-9150CH,Legacy 3D,New Choco,1,"3 years parts, 1 year labor (Free)",CUSTOM ,227.50,4227.50,4227.50,Synchrony,4227.50,,,6034610083144736,85990015,Las Vegas,48 months,,0.00,,,,,,,,0.00,,,,,,,0.00,Elizabeth Moran,8636083264,,,Thank you very much for your business with us in Strawberry Festival / Synchrony 48 months 0% APR / Please deliver ASAP,FL,0,7.00
104281,3/8/2018 5:23:35 PM,"Strawberry Festival Plant City, Fl 3/1-3/11",Robert Shih,DWA-9060USJ-9060BL,Relax2Zero 3D,New Black,1,"3 years parts, 1 year labor (Free)",CUSTOM ,248.50,4548.50,4548.50,PurchaseOrder,0.00,,,,,,,,0.00,,,,,,,,0.00,,,,,,,0.00,Connie F McDonald,7074653029,,,Thank you very much for your business with us in Strawberry Festival / Synchrony 48 months 0% APR / Please on hold the order customer will measure for the space .,Not Dispatched,0,7.00
104282,3/8/2018 5:29:54 PM,"Strawberry Festival Plant City, Fl 3/1-3/11",Robert Shih,DWA-9060USJ-9060BR,Relax2Zero 3D,New Choco,1,"3 years parts, 1 year labor (Free)",CUSTOM ,0.00,4300.00,4300.00,CreditCard,4300.00,Square# 7nrV,,,,,,,0.00,,,,,,,,0.00,,,,,,,0.00,Jennie Saberr,7079540724,,,Thank you very much for your business with us in Strawberry Festival / Please deliver ASAP,FL,1,7.00
104285,3/9/2018 10:22:32 AM,"Strawberry Festival Plant City, Fl 3/1-3/11",Ting Ritchie,DWA-9150USJ-9150BL,Legacy 3D,New Black,1,"3 years parts, 1 year labor (Free)",CUSTOM ,0.00,4800.00,4800.00,CreditCard,50.00,Square# FmH2,,,,,,,0.00,,,,,,,,0.00,layaway,,,,,,0.00,Oscar Gonzalez - Flores,7274886502,,,"Thank you very much for your business with us in Strawberry Festival  / COD $1,950 Layaway $2,800 / please email customer layaway form",Not Dispatched,1,7.00
104286,3/9/2018 10:28:08 AM,"Strawberry Festival Plant City, Fl 3/1-3/11",Daniel Ritchie,DWA-9060USJ-9060BR,Relax2Zero 3D,New Choco,1,"3 years parts, 1 year labor (Free)",CUSTOM ,0.00,4800.00,4800.00,Synchrony,4800.00,,,6034610083144694,85989740,Las Vegas,48 months,,0.00,,,,,,,,0.00,,,,,,,0.00,Amanda Harris,7274331761,,,Thank you very much for your business with us in Strawberry Festival  / Synchrony 48 months 0% APR  / Please deliver ASAP,FL,1,7.00
104287,3/9/2018 10:34:55 AM,"Strawberry Festival Plant City, Fl 3/1-3/11",Robert Shih,DWA-9060USJ-9060BL,Relax2Zero 3D,New Black,1,"3 years parts, 1 year labor (Free)",CUSTOM ,0.00,3900.00,3900.00,CreditCard,100.00,Square# r2pr,,,,,,,0.00,,,,,,,,0.00,,,,,,,0.00,Wanda Chabot,3362475477,,,"Thank you very much for your business with us in Strawberry Festival  / COD $1,900 Layaway $1,900 / please email customer layaway form / Delivery ASAP",FL,1,7.00
104307,3/10/2018 7:17:11 AM,"Strawberry Festival Plant City, Fl 3/1-3/11",Ting Ritchie,DWA-9060USJ-9060BL,Relax2Zero 3D,New Black,1,"3 years parts, 1 year labor (Free)",CUSTOM ,0.00,4500.00,4500.00,Synchrony,4500.00,,,6034610083147119,86044391,Las Vegas,48 months,,0.00,,,,,,,,0.00,,,,,,,0.00,Kelly C. Keller,4073278333,,,Thank you very much for your business with us in Strawberry Festival / Synchrony 48 months 0% APR / Please deliver ASAP,FL,1,7.00
104308,3/10/2018 7:22:37 AM,"Strawberry Festival Plant City, Fl 3/1-3/11",Robert Shih,DWA-9150USJ-9150CH,Legacy 3D,New Choco,1,"3 years parts, 1 year labor (Free)",CUSTOM ,0.00,4300.00,4300.00,Synchrony,3000.00,,,6034610083145717,86018558,Las Vegas,36 months,,0.00,,,,,,,,0.00,,,,,,,0.00,Debbie Schmitt,8136543459,,,"Thank you very much for your business with us in Strawberry Festival / Synchrony 36 months 0% APR $3,000 / COD $1,300 / Please deliver ASAP",FL,1,7.00
104309,3/10/2018 7:32:14 AM,"Strawberry Festival Plant City, Fl 3/1-3/11",Ting Ritchie,DWA-9060USJ-9060BL,Relax2Zero 3D,New Black,1,"3 years parts, 1 year labor (Free)",CUSTOM ,0.00,4200.00,4200.00,Synchrony,4200.00,,,6034610083147135,86045045,Las Vegas,48 months,,0.00,,,,,,,,0.00,,,,,,,0.00,Gerald Chestnut,3526934289,,,Thank you very much for your business with us in Strawberry Festival / Synchrony 48 months 0% APR / Please deliver ASAP,FL,1,7.00
104310,3/10/2018 7:36:43 AM,"Strawberry Festival Plant City, Fl 3/1-3/11",Robert Shih,DWA-9150USJ-9150BL,Legacy 3D,New Black,1,"3 years parts, 1 year labor (Free)",CUSTOM ,0.00,4800.00,4800.00,CreditCard,100.00,Square# Y6be,,,,,,,0.00,,,,,,,,0.00,,,,,,,,Tom Hitchens,3522790011,,,Thank you very much for your business with us in Strawberry Festival / Please target delivery by July,Not Dispatched,1,7.00
104311,3/10/2018 7:46:45 AM,"Strawberry Festival Plant City, Fl 3/1-3/11",Daniel Ritchie,DWA-9060USJ-9060BL,Relax2Zero 3D,New Black,1,"3 years parts, 1 year labor (Free)",CUSTOM ,0.00,4000.00,4000.00,Synchrony,4000.00,,,6019193609008411,,,48 months,,0.00,,,,,,,,0.00,,,,,,,0.00,Jennifer Trueman,3219177681,,,Thank you very much for your business with us in Strawberry Festival / Synchrony 48 months 0% APR / Please target delivery on April 7th or 8th,FL,1,7.00
104312,3/10/2018 7:52:11 AM,"Strawberry Festival Plant City, Fl 3/1-3/11",Ting Ritchie,DWA-9060USJ-9060BR,Relax2Zero 3D,New Choco,1,"3 years parts, 1 year labor (Free)",CUSTOM ,0.00,4800.00,4800.00,CreditCard,4800.00,Square# bzmJ,,,,,,,0.00,,,,,,,,0.00,,,,,,,0.00,Linda Collins - Hall,7726210956,,,Thank you very much for your business with us in Strawberry Festival / Please deliver ASAP,FL,1,7.00
104313,3/10/2018 8:03:36 AM,"Strawberry Festival Plant City, Fl 3/1-3/11",Robert Shih,DWA-9400Pegasus-BR,Pegasus,New Choco,1,"3 years parts, 1 year labor (Free)",CUSTOM ,0.00,5300.00,5300.00,CreditCard,50.00,Square# bcYd,,,,,,,0.00,,,,,,,,0.00,,,,,,,,Steve Underwood,3173700247,,,Thank you very much for your business with us in Strawberry Festival / Please target delivery between Nov - Dec,Not Dispatched,1,7.00
104392,3/11/2018 6:06:04 PM,"Strawberry Festival Plant City, Fl 3/1-3/11",Ting Ritchie,DWA-9060USJ-9060BL,Relax2Zero 3D,New Black,1,"3 years parts, 1 year labor (Free)",CUSTOM ,0.00,4300.00,4300.00,Synchrony,4300.00,,,6034610083150923,86096399,Las Vegas,48 months,,0.00,,,,,,,,0.00,,,,,,,0.00,Teresa Young,8139180646,,,Thank you very much for your business with us in Strawberry Festival  / Synchrony 48 months 0% APR / Please deliver ASAP,FL,1,7.00
104428,3/12/2018 7:09:16 AM,"Strawberry Festival Plant City, Fl 3/1-3/11",Daniel Ritchie,DWA-9060USJ-9060BR,Relax2Zero 3D,New Choco,1,"3 years parts, 1 year labor (Free)",CUSTOM ,0.00,4800.00,4800.00,Synchrony,4800.00,,,6034610083153158,86096195,Las Vegas,48 months,,0.00,,,,,,,,0.00,,,,,,,0.00,Mary Colt,8132777464,,,Thank you very much for your business with us in Strawberry Festival / Synchrony 48 months 0% APR / Please deliver ASAP ( week days after 4pm or weekends only ),FL,1,7.00
104430,3/12/2018 7:17:21 AM,"Strawberry Festival Plant City, Fl 3/1-3/11",Ting Ritchie,DWA-9060USJ-9060BL,Relax2Zero 3D,New Black,1,"3 years parts, 1 year labor (Free)",CUSTOM ,0.00,4800.00,4800.00,Synchrony,4800.00,,,6034610083150915,86096084,Las Vegas,48 months,,0.00,,,,,,,,0.00,,,,,,,0.00,Grita Perry,8133937188,,,Thank you very much for your business with us in Strawberry Festival / Synchrony 48 months 0% APR / Please deliver ASAP,FL,1,7.00
104431,3/12/2018 7:27:38 AM,"Strawberry Festival Plant City, Fl 3/1-3/11",Robert Shih,DWA-9150USJ-9150BL,Legacy 3D,New Black,1,"3 years parts, 1 year labor (Free)",CUSTOM ,0.00,4800.00,4800.00,CreditCard,100.00,Square# Ymf0,,,,,,,0.00,,,,,,,,0.00,,,,,,,0.00,Doro Young,3523634197,,,"Thank you very much for your business with us in Strawberry Festival / Deposited $100 COD $1,900 Layaway $2,800 12 months 0% APR / Please deliver ASAP",Not Dispatched,1,7.00
104432,3/12/2018 7:32:17 AM,"Strawberry Festival Plant City, Fl 3/1-3/11",Ting Ritchie,DWA-9060USJ-9060BL,Relax2Zero 3D,New Black,1,"3 years parts, 1 year labor (Free)",CUSTOM ,0.00,4800.00,4800.00,Synchrony,4800.00,,,6034610083150907,86095878,Las Vegas,48 months,,0.00,,,,,,,,0.00,,,,,,,0.00,Jared Stone,3866632008,3/15/2018 12:00:00 AM,,Thank you very much for your business with us in Strawberry Festival / Synchrony 48 months 0% APR / Please deliver ASAP,FL,1,7.00
104432,3/12/2018 7:32:17 AM,"Strawberry Festival Plant City, Fl 3/1-3/11",Ting Ritchie,,Chair Pad for Relax2Zero 3D,,1,no warranty,CUSTOM ,0.00,4800.00,4800.00,Synchrony,4800.00,,,6034610083150907,86095878,Las Vegas,48 months,,0.00,,,,,,,,0.00,,,,,,,0.00,Jared Stone,3866632008,3/15/2018 12:00:00 AM,,Thank you very much for your business with us in Strawberry Festival / Synchrony 48 months 0% APR / Please deliver ASAP,FL,1,7.00
104432,3/12/2018 7:32:17 AM,"Strawberry Festival Plant City, Fl 3/1-3/11",Ting Ritchie,,Foot Pads for Relax2Zero 3D,,1,no warranty,CUSTOM ,0.00,4800.00,4800.00,Synchrony,4800.00,,,6034610083150907,86095878,Las Vegas,48 months,,0.00,,,,,,,,0.00,,,,,,,0.00,Jared Stone,3866632008,3/15/2018 12:00:00 AM,,Thank you very much for your business with us in Strawberry Festival / Synchrony 48 months 0% APR / Please deliver ASAP,FL,1,7.00
104433,3/12/2018 7:37:35 AM,"Strawberry Festival Plant City, Fl 3/1-3/11",Ting Ritchie,DWA-9060USJ-9060BR,Relax2Zero 3D,New Choco,1,"3 years parts, 1 year labor (Free)",CUSTOM ,0.00,4800.00,4800.00,Synchrony,3500.00,,,6034610083150873,86091817,Las Vegas,36 months,,0.00,,,,,,,,0.00,,,,,,,0.00,Wayne Haupt,8435182526,,,"Thank you very much for your business with us in Strawberry Festival / Synchrony 36 months 0% APR  $3,500 / COD $1,300 / Please deliver ASAP",FL,1,7.00
104435,3/12/2018 7:41:32 AM,"Strawberry Festival Plant City, Fl 3/1-3/11",Ting Ritchie,DWA-9060USJ-9060BR,Relax2Zero 3D,New Choco,1,"3 years parts, 1 year labor (Free)",CUSTOM ,0.00,4800.00,4800.00,Synchrony,4800.00,,,6034610083150329,86084274,Las Vegas,48 months,,0.00,,,,,,,,0.00,,,,,,,0.00,Raymond Mora,2399860412,3/28/2018 12:00:00 AM,,Thank you very much for your business with us in Strawberry Festival / Synchrony 48 months 0% APR / Please deliver ASAP,FL,1,7.00
104436,3/12/2018 7:46:40 AM,"Strawberry Festival Plant City, Fl 3/1-3/11",Robert Shih,DWA-9150USJ-9150CH,Legacy 3D,New Choco,1,"3 years parts, 1 year labor (Free)",CUSTOM ,0.00,4000.00,4000.00,Synchrony,4000.00,,,6034610083150931,86096668,Las Vegas,36 months,,0.00,,,,,,,,0.00,,,,,,,0.00,Michael J. Barbone,8134317200,,,Thank you very much for your business with us in Strawberry Festival / Synchrony 36 months 0% APR / Please deliver ASAP,FL,1,7.00
104437,3/12/2018 7:52:30 AM,"Strawberry Festival Plant City, Fl 3/1-3/11",Ting Ritchie,DWA-9060USJ-9060BR,Relax2Zero 3D,New Choco,1,"3 years parts, 1 year labor (Free)",CUSTOM CreditCard,0.00,4500.00,4500.00,Synchrony,2000.00,,,6034610083153265,86122661,Las Vegas,24 months,CreditCard,500.00,Square# r06i,,,,,,,0.00,,,,,,,0.00,Irene Jones,9417475680,3/28/2018 12:00:00 AM,,"Thank you very much for your business with us in Strawberry Festival / Synchrony 24 months 0% APR $2000 / COD $2,000/ Please deliver ASAP",FL,1,7.00
104438,3/12/2018 7:57:38 AM,"Strawberry Festival Plant City, Fl 3/1-3/11",Daniel Ritchie,DWA-9060USJ-9060BL,Relax2Zero 3D,New Black,1,"3 years parts, 1 year labor (Free)",CUSTOM ,0.00,4800.00,4800.00,Cash,50.00,,,,,,,,0.00,,,,,,,,0.00,,,,,,,0.00,Rocky Vamn,4079289460,,,Thank you very much for your business with us in Strawberry Festival / Synchrony 48 months 0% APR / Please hold for delivery,Not Dispatched,1,7.00
104440,3/12/2018 8:06:47 AM,"Strawberry Festival Plant City, Fl 3/1-3/11",Robert Shih,DWA-9150USJ-9150BL,Legacy 3D,New Black,1,"3 years parts, 3 years labor ($400)",CUSTOM ,0.00,4800.00,4800.00,Synchrony,4800.00,,,6034610083153695,86134606,Las Vegas,48 months,,0.00,,,,,,,,0.00,,,,,,,0.00,Long Kim Bui,5622126354,,,Thank you very much for your business with us in Strawberry Festival / Synchrony 48 months 0% APR / Free 2 years labor extension / Please deliver ASAP,FL,1,7.00
104441,3/12/2018 8:15:19 AM,"Strawberry Festival Plant City, Fl 3/1-3/11",Ting Ritchie,DWA-9060USJ-9060BR,Relax2Zero 3D,New Choco,1,"3 years parts, 1 year labor (Free)",CUSTOM ,0.00,4500.00,4500.00,Synchrony,4500.00,,,6034610083153711,86135051,Las Vegas,48 months,,0.00,,,,,,,,0.00,,,,,,,0.00,Blanie Krancich,8633934175,3/28/2018 12:00:00 AM,,Thank you very much for your business with us in Strawberry Festival / Synchrony 48 months 0% APR / Please deliver ASAP,FL,1,7.00
104442,3/12/2018 8:22:53 AM,"Strawberry Festival Plant City, Fl 3/1-3/11",Daniel Ritchie,DWA-9060USJ-9060BL,Relax2Zero 3D,New Black,1,"3 years parts, 1 year labor (Free)",CUSTOM ,0.00,4600.00,4600.00,Synchrony,4600.00,,,6034610083153737,86135441,Las Vegas,48 months,,0.00,,,,,,,,0.00,,,,,,,0.00,Shawn A. Remington,8135632754,,,Thank you very much for your business with us in Strawberry Festival / Synchrony 48 months 0% APR / Please deliver ASAP,FL,1,7.00
104443,3/12/2018 8:28:02 AM,"Strawberry Festival Plant City, Fl 3/1-3/11",Robert Shih,DWA-9060USJ-9060BR,Relax2Zero 3D,New Choco,1,"3 years parts, 1 year labor (Free)",CUSTOM ,0.00,4800.00,4800.00,PurchaseOrder,0.00,,,,,,,,0.00,,,,,,,,0.00,,,,,,,,Daryl Binnig,3154631968,,,"Thank you very much for your business with us in Strawberry Festival / Synchrony 48 months 0% APR / Please hold the order , customer already filled every thing on synchrony",Not Dispatched,1,7.00
104444,3/12/2018 8:39:53 AM,"Strawberry Festival Plant City, Fl 3/1-3/11",Robert Shih,DWA-9150USJ-9150BL,Legacy 3D,New Black,1,"3 years parts, 1 year labor (Free)",CUSTOM ,0.00,4000.00,4000.00,Synchrony,4000.00,,,6034610083153778,86136337,Las Vegas,48 months,,0.00,,,,,,,,0.00,,,,,,,0.00,Quy N. Doan,7272444668,3/28/2018 12:00:00 AM,,Thank you very much for your business with us in Strawberry Festival / Synchrony 48 months 0% APR / Please deliver ASAP,FL,1,7.00
104445,3/12/2018 8:49:36 AM,"Strawberry Festival Plant City, Fl 3/1-3/11",Ting Ritchie,DWA-9150USJ-9150CH,Legacy 3D,New Choco,1,"3 years parts, 1 year labor (Free)",CUSTOM ,0.00,4500.00,4500.00,Synchrony,4500.00,,,6034610083153794,86136908,Las Vegas,48 months,,0.00,,,,,,,,0.00,,,,,,,0.00,Shannon Shuck,8138022567,,,Thank you very much for your business with us in Strawberry Festival / Synchrony 48 months 0% APR / Please deliver ASAP,FL,1,7.00
104446,3/12/2018 9:01:30 AM,"Strawberry Festival Plant City, Fl 3/1-3/11",Robert Shih,DWA-9150USJ-9150CH,Legacy 3D,New Choco,1,"3 years parts, 1 year labor (Free)",CUSTOM ,0.00,4500.00,4500.00,Synchrony,4500.00,,,6034610083153810,86137490,Las Vegas,48 months,,0.00,,,,,,,,0.00,,,,,,,0.00,William Coffey,4074142853,,,Thank you very much for your business with us in Strawberry Festival / Synchrony 48 months 0% APR / Please deliver ASAP,FL,1,7.00
104447,3/12/2018 9:07:34 AM,"Strawberry Festival Plant City, Fl 3/1-3/11",Robert Shih,DWA-9150USJ-9150BL,Legacy 3D,New Black,1,"3 years parts, 1 year labor (Free)",CUSTOM ,0.00,4800.00,4800.00,CreditCard,100.00,Square# uagd,,,,,,,0.00,,,,,,,,0.00,,,,,,,0.00,Valeria Carlisle,8636605463,,,"Thank you very much for your business with us in Strawberry Festival / COD $1,900 / LAYAWAY $2,800 12 months 0% APR",Not Dispatched,1,7.00
104448,3/12/2018 9:10:59 AM,"Strawberry Festival Plant City, Fl 3/1-3/11",Robert Shih,DWA-9060USJ-9060BR,Relax2Zero 3D,New Choco,1,"3 years parts, 1 year labor (Free)",CUSTOM ,0.00,3900.00,3900.00,PurchaseOrder,0.00,,,,,,,,0.00,,,,,,,,0.00,,,,,,,,Gerald Hurren,9895932254,,,Thank you very much for your business with us in Strawberry Festival / Synchrony 36 months 0% APR / Please hold,Not Dispatched,1,7.00
104449,3/12/2018 9:15:33 AM,"Strawberry Festival Plant City, Fl 3/1-3/11",Robert Shih,DWA-9150USJ-9150BL,Legacy 3D,New Black,1,"3 years parts, 1 year labor (Free)",CUSTOM ,0.00,3800.00,3800.00,Cash,100.00,,,,,,,,0.00,,,,,,,,0.00,,,,,,,0.00,Alberico Garcia,8634226215,,,"Thank you very much for your business with us in Strawberry Festival / COD $3,700 / Please deliver ASAP",FL,1,7.00
