﻿Original Event Name,Event Name,Sales Person,Order Number,Order Date,Customer Name,State,Zip,Product Name,Color,Product Status,QTY,Tax,Total Before Tax,Order Total,Primary Payment Method,Second Payment Method,Thirdl Payment Method,Warranty,Order Items,Pick up,Delivered On,Order Status,Chair Type,Order Notes,Private Note,Branch,No Tax,Actual Tax Rate,SKU,Primary Payment Balance,Primary Authorize Number,Primary Purchase Order Number,Primary Synchrony Account Number,Primary Synchrony Application Key,Primary Synchrony Account Info,Primary Synchrony Term,Primary Synchrony Primary ID,Primary Synchrony Issued State,Primary Synchrony Expiretion Date,Second Payment Balance,Second Authorize Number,Second Purchase Order Number,Second Synchrony Account Number,Second Synchrony Application Key,Second Synchrony Account Info,Second SynchronyTerm,Second Synchrony Primary ID,Second Synchrony Issued State,Second Synchrony Expiretion Date,Third Payment Balance,Third Authorize Number,Third Purchase Order Number,Third Synchrony Account Number,Third Synchrony Application Key,Third Synchrony Account Info,Third Synchrony Term,Third Synchrony Primary ID,Third Synchrony Issued State,Third Synchrony Expiretion Date
SURF EXPO 1/10-12/19 ORLAND (FL),SURF EXPO 1/10-12/19 ORLAND (FL),Ting Ritchie,114144,1/12/2019 1:25:43 PM,Dimitri Pantchev,FL,33009,Ninja Leg Massager 2,New,New,1,0.00,299.99,299.99,CreditCard,,,"2 years parts, 1 year labor for Small Items","Ninja Leg Massager 2,",YES,,Delivered,,,Pick up from Surf Expo on 1/12/19///Confirmed $300 in Square. 1/14/19 Hitomi,FL,1,6.50,USJ-880,300.00,Square#tAXv,,,,,,,,,0.00,,,,,,,,,,0.00,,,,,,,,,
SURF EXPO 1/10-12/19 ORLAND (FL),SURF EXPO 1/10-12/19 ORLAND (FL),Ting Ritchie,114145,1/12/2019 1:37:18 PM,Brett Jenkins,FL,34996,Relax2Zero 3D,Demo Black,Demo,2,0.00,7200.00,7200.00,Synchrony,,,"5 years parts, 1 year labor (Free)","Relax2Zero 3D,",No,1/24/2019 12:00:00 AM,Delivered,New,,"* Cust. requested both chairs be changed to Brown*
Andres informed customer will receive DEMO BOX - JD
2 chair Deal//Confirmed SYNC($8,000) under BRETT JERKINS . will confirm original 1/16/19- Hitomi
Confirmed original application form and invoice. Please charge $7,200.00 before delivery and have sales draft signed.--- 1/17/19 Asumi",FL,1,6.50,DWA-9060USJ-9060BL-DEMO,7200.00,,,6019170813333199,99621350,Las Vegas,36 months,,,,0.00,,,,,,,,,,0.00,,,,,,,,,
SURF EXPO 1/10-12/19 ORLAND (FL),SURF EXPO 1/10-12/19 ORLAND (FL),Andres Soto,114147,1/12/2019 2:46:14 PM,James Bnens,NC,27376,Symphony,Demo Choco,Demo,1,295.69,5299.00,5594.69,Synchrony,,,"5 years parts, 1 year labor (Free)","Symphony,",No,,Hold,,,"Will process synchrony week of 1-13-19
Confirmed with Andres : Customer has not authorize us to proceed with charge of Synchrony. Andres will be following up and keep us  updated if sale is complete.  --- 1/30/19 Asumi",Not Dispatched,0,6.50,USJ-9300Symphony-BW-DEMO,0.00,,,,,,,,,,0.00,,,,,,,,,,0.00,,,,,,,,,
