﻿Original Event Name,Event Name,Sales Person,Order Number,Order Date,Customer Name,State,Zip,Product Name,Color,Product Status,QTY,Tax,Total Before Tax,Order Total,Primary Payment Method,Second Payment Method,Thirdl Payment Method,Warranty,Order Items,Pick up,Delivered On,Order Status,Chair Type,Order Notes,Private Note,Branch,No Tax,Actual Tax Rate,SKU,Primary Payment Balance,Primary Authorize Number,Primary Purchase Order Number,Primary Synchrony Account Number,Primary Synchrony Application Key,Primary Synchrony Account Info,Primary Synchrony Term,Primary Synchrony Primary ID,Primary Synchrony Issued State,Primary Synchrony Expiretion Date,Second Payment Balance,Second Authorize Number,Second Purchase Order Number,Second Synchrony Account Number,Second Synchrony Application Key,Second Synchrony Account Info,Second SynchronyTerm,Second Synchrony Primary ID,Second Synchrony Issued State,Second Synchrony Expiretion Date,Third Payment Balance,Third Authorize Number,Third Purchase Order Number,Third Synchrony Account Number,Third Synchrony Application Key,Third Synchrony Account Info,Third Synchrony Term,Third Synchrony Primary ID,Third Synchrony Issued State,Third Synchrony Expiretion Date
Whatcom County HM&GD Show (3/1-3/19),Whatcom County HM&GD Show (3/1-3/19),Scott Ishikawa,115481,3/4/2019 1:37:01 PM,Stephen Robinson,WA,98230,Legacy 3D,Demo Black,Demo,1,265.35,3800.00,4065.35,Synchrony,,,"5 years parts, 1 year labor (Free)","Legacy 3D,",No,,Cancelled,,,"Please double check chair before delivery.
3/5/19-Confirmed SYNC$5,000. need original - Hitomi",Not Dispatched,0,8.70,DWA-9150USJ-9150BL-DEMO,3800.00,,,6501723375040571,72095142,Las Vegas,36 months,,,,0.00,,,,,,,,,,0.00,,,,,,,,,
Whatcom County HM&GD Show (3/1-3/19),Whatcom County HM&GD Show (3/1-3/19),Scott Ishikawa,115482,3/4/2019 1:50:42 PM,Alan Sharp,WA,98229,PEGASUS 2 SMART,New Choco,New,1,535.05,6900.00,7435.05,Synchrony,,,"5 years parts, 1 year labor (Free)","PEGASUS 2 SMART,",No,,Hold,,,"Customer is only approved for $1200
They have two accounts with Synchrony so they will give me other 2 accounts to process later or pay in full with credit card.
3/6/19-Confirmed SYNC$1,200.00 approved original. HOLD -Hitomi",Not Dispatched,0,8.70,PEGS-2PEGS-2-BR,6900.00,,,5601723375040449,72093749,Las Vegas,36 months,,,,0.00,,,,,,,,,,0.00,,,,,,,,,
Whatcom County HM&GD Show (3/1-3/19),Whatcom County HM&GD Show (3/1-3/19),Scott Ishikawa,115526,3/6/2019 12:34:49 PM,Stephen Robinson,WA,98230,Legacy 3D,Demo Black,Demo,1,0.00,3800.00,3800.00,Synchrony,,,"5 years parts, 1 year labor (Free)","Legacy 3D,",No,3/6/2019 12:00:00 AM,Delivered,Demo,,"Please double check chair before delivery.
3/6/19 Correction for #115481 Confirmed SYNC$5,000 and original. ***Please charge $3,800/sales draft*** - Hitomi
Processed Synchrony on March 8th 2019 Scott",WA,1,8.70,DWA-9150USJ-9150BL-DEMO,3800.00,,,6501723375040571,72095142,Las Vegas,36 months,,,,0.00,,,,,,,,,,0.00,,,,,,,,,
