﻿Date,CustomerName,State,Zipcode,Description,productNo,Color,IsDemo,Net,ShippingFee,GiftPrice,FinancingProcessingFee,Gross,Pre_tax,Tax,Commission,Primary Payment Method,Primary Payment Balance,Primary Authorize Number,Primary Purchase Order Number,Primary Synchrony Account Number,Primary Synchrony Application Key,Primary Synchrony AccountInfo,Primary SynchronyTerm,Secondly Payment Method,Secondly Payment Balance,Secondly Authorize Number,Secondly Purchase Order Number,Secondly Synchrony Account Number,Secondly Synchrony Application Key,Secondly Synchrony AccountInfo,Secondly SynchronyTerm,Thirdly Payment Method,Thirdly Payment Balance,Thirdly Authorize Number,Thirdly Purchase Order Number,Thirdly Synchrony Account Number,Thirdly Synchrony Application Key,Thirdly Synchrony AccountInfo,Thirdly SynchronyTerm,DeliveryDate,Ispickup,Warranty,Status,Event Name,Synchrony Notes,Order Notes,Order number,Private Note,Branch,IsNoTax,ActualTaxRate
11/13/2017 10:02:43 PM,Kim Seals,TN,37934,Legacy 3D,DWA-9150USJ-9150CH-DEMO,Demo Choco Brown,Demo,,,,,3900.08,3694.00,206.08,Ruben Cuatrona,,0.00,07347c,,,,,,,,,,,,,,,,,,,,,,11/30/2017 12:00:00 AM,No,"3 years parts, 1 year labor (Free)",Delivered,Christmas Gift and Hobby 11/8-11/12 (IL),,,101870,"FL WILL DELIVER
WELLS FARGO CLEARED 11.16.17, ALICIA",FL,0,7.00
11/15/2017 7:34:48 PM,Rex Fink,IN,47991,Relax2Zero 2.0,USJ-9050USJ-9050BR-DEMO,Demo Brown,Demo,,,,,3371.50,3200.00,171.50,Winston Melgar,,0.00,03489A,,,,,,,,,,,,,,,,,,,,,,11/19/2017 12:00:00 AM,No,"3 years parts, 1 year labor (Free)",Delivered,Christmas Gift and Hobby 11/8-11/12 (IL),,,101893,,TX,0,7.00
