﻿Original Event Name,Event Name,Sales Person,Order Number,Order Date,Customer Name,State,Zip,Product Name,Color,Product Status,QTY,Tax,Total Before Tax,Order Total,Primary Payment Method,Second Payment Method,Thirdl Payment Method,Warranty,Order Items,Pick up,Delivered On,Order Status,Chair Type,Order Notes,Private Note,Branch,No Tax,Actual Tax Rate,SKU,Primary Payment Balance,Primary Authorize Number,Primary Purchase Order Number,Primary Synchrony Account Number,Primary Synchrony Application Key,Primary Synchrony Account Info,Primary Synchrony Term,Primary Synchrony Primary ID,Primary Synchrony Issued State,Primary Synchrony Expiretion Date,Second Payment Balance,Second Authorize Number,Second Purchase Order Number,Second Synchrony Account Number,Second Synchrony Application Key,Second Synchrony Account Info,Second SynchronyTerm,Second Synchrony Primary ID,Second Synchrony Issued State,Second Synchrony Expiretion Date,Third Payment Balance,Third Authorize Number,Third Purchase Order Number,Third Synchrony Account Number,Third Synchrony Application Key,Third Synchrony Account Info,Third Synchrony Term,Third Synchrony Primary ID,Third Synchrony Issued State,Third Synchrony Expiretion Date
AAPD 5/24-26/19 CHICAGO (IL),AAPD 5/24-26/19 CHICAGO (IL),Rodrigo Malabunga,117634,5/28/2019 12:53:34 PM,Travis Giese,ND,58554,PEGASUS 2 SMART,New Black,New,1,0.00,6200.00,6200.00,Credit Card,,,"5 years parts, 2 years labor ($200)","PEGASUS 2 SMART,",No,6/12/2019 12:00:00 AM,Delivered,New,,"Basement Delivery
Original received. SQ. amount verified of $6200. Paid in full.
6/3- CC; Left VM (2:15p)-Emily
6/3 - Called back & scheduled (4PM) for June 12 10:30-2:30PM - Emily",IL,1,10.25,PEGS-2PEGS-2-BL,6200.00,Sq #SZQy,,,,,,,,,0.00,,,,,,,,,,0.00,,,,,,,,,
AAPD 5/24-26/19 CHICAGO (IL),AAPD 5/24-26/19 CHICAGO (IL),Winston Melgar,117635,5/28/2019 1:05:52 PM,Rodney Jackson,KY,40502,Relax 2 Zero 3D,Demo Choco,Demo,1,0.00,4400.00,4400.00,Synchrony,,,"5 years parts, 1 year labor (Free)","Relax 2 Zero 3D,",No,7/13/2019 12:00:00 AM,Delivered,Demo,,"Original received, Synchrony verified Credit available of $9000.  Remaining balance $4400. Please charge synchrony account before delivery and have sales signed. ERika 5/30/19 4:48pm 
6/12: CC (10:35) requested for delivery to come on Fri-Mon - Emily
6/19/: Customer confirmed delivery for 7/13 (9:30am-1:30pm). Customer also informed he emailed about changing  his chair color from Choco to Black; Per Winston I confirmed.-Karen
Delivery conf completed. Paid in full. Auth#019465. sales draft sign. Erika 7/19/19 2:24pm

Received and confirmed the copy of invoice and the delivery confirmation. According to the original invoice, the warranty agreement is only 3yrs Parts & 3yrs Labor, updated Shiho via the shared file.
**According to the original invoice and the payment details on Daiwa Space, the Synchrony payment should be transacted with 24 months financing, but it seems IL team used wrong promo code for 48 months financing. Cristina will follow up with IL team. 8/6/19 Riho

8/14/19, the incorrect financing term 48 months was changed to correct duration 24 months. Synchrony Bank didn't require us to collect another Sales Draft w/ the correct promo code. 8/14/19 Riho",IL,1,10.25,DWA-9060USJ-9060BR-DEMO,4400.00,,,6501723375158399,75863536,Huston,24 months,Driver’s License,KY,09/2020,0.00,,,,,,,,,/,0.00,,,,,,,,,/
AAPD 5/24-26/19 CHICAGO (IL),AAPD 5/24-26/19 CHICAGO (IL),Winston Melgar,117637,5/28/2019 2:49:07 PM,Chloe Mai,CA,92123,Relax 2 Zero 3D,New Black,New,1,0.00,4600.00,4600.00,Synchrony,,,"5 years parts, 1 year labor (Free)","Relax 2 Zero 3D,",No,7/16/2019 12:00:00 AM,Delivered,New,,"You can charge the synchrony 
But DO NOT SHIP NOW. Wait for customer advice
7/15Maritza- Spoke with customer- new address was provided. Have dispatched to WA
Temp license August 2019 OR

Attached delivery confirmation + signed SYNC sales draft to invoice, verified delivery and payment, marked as delivered and passed complete invoice to Erika - Arisa 8/1/19 4:08pm

Received & confirmed the invoice, Synchrony application form, signed sales draft, and the delivery confirmation. 8/13/19 Riho",WA,1,10.25,DWA-9060USJ-9060BL,4600.00,,,6501723375159454,75890236,Las Vegas,36 months,Driver’s License,CA,06/2019,0.00,,,,,,,,,/,0.00,,,,,,,,,/
