﻿Original Event Name,Event Name,Sales Person,Order Number,Order Date,Customer Name,State,Zip,Product Name,Color,Product Status,QTY,Tax,Total Before Tax,Order Total,Primary Payment Method,Second Payment Method,Thirdl Payment Method,Warranty,Order Items,Pick up,Delivered On,Order Status,Chair Type,Order Notes,Private Note,Branch,No Tax,Actual Tax Rate,SKU,Primary Payment Balance,Primary Authorize Number,Primary Purchase Order Number,Primary Synchrony Account Number,Primary Synchrony Application Key,Primary Synchrony Account Info,Primary Synchrony Term,Second Payment Balance,Second Authorize Number,Second Purchase Order Number,Second Synchrony Account Number,Second Synchrony Application Key,Second Synchrony Account Info,Second SynchronyTerm,Third Payment Balance,Third Authorize Number,Third Purchase Order Number,Third Synchrony Account Number,Third Synchrony Application Key,Third Synchrony Account Info,Third Synchrony Term
"Sam's Club #6463 Anderson, SC 11/29-12/9/18 (FL)","Sam's Club #6463 Anderson, SC 11/29-12/9/18 (FL)",Anderson Carvalho,112900,12/4/2018 1:39:58 PM,Fred Freeman,IN,47396,Shogun Neck & Back Massger,New,New,1,0.00,0.00,0.00,PurchaseOrder,,,"2 years parts, 1 year labor for Small Items","Shogun Neck &amp; Back Massger,",YES,,Delivered,,,"Ship from Florida//Purchased by Eva Gaillard , shipping to Fred Freeman. **Please arrange the shipment.**confirmed w/ Anderson. - 12/4/18 Hitomi",FL,1,7.00,USJ-874USJ-874,0.00,,TC#2671 4480 4096 0775 8450 1,,,,,0.00,,,,,,,0.00,,,,,,
"Sam's Club #6463 Anderson, SC 11/29-12/9/18 (FL)","Sam's Club #6463 Anderson, SC 11/29-12/9/18 (FL)",Anderson Carvalho,112901,12/4/2018 1:57:41 PM,Marvin Dotson,SC,29621,Shogun Neck & Back Massger,New,New,1,0.00,0.00,0.00,PurchaseOrder,,,"2 years parts, 1 year labor for Small Items","Shogun Neck &amp; Back Massger,Foot Vibe Pro,",YES,,Delivered,,,Confirmed TC# - 12/4/18 Hitomi,FL,0,7.00,USJ-874USJ-874,0.00,,TC#3953 4033 7382 3607 6376 5,,,,,0.00,,,,,,,0.00,,,,,,
"Sam's Club #6463 Anderson, SC 11/29-12/9/18 (FL)","Sam's Club #6463 Anderson, SC 11/29-12/9/18 (FL)",Anderson Carvalho,112901,12/4/2018 1:57:41 PM,Marvin Dotson,SC,29621,Foot Vibe Pro,,New,1,0.00,0.00,0.00,PurchaseOrder,,,"2 years parts, 1 year labor for Small Items","Shogun Neck &amp; Back Massger,Foot Vibe Pro,",YES,,Delivered,,,Confirmed TC# - 12/4/18 Hitomi,FL,0,7.00,USJ-871,0.00,,TC#3953 4033 7382 3607 6376 5,,,,,0.00,,,,,,,0.00,,,,,,
"Sam's Club #6463 Anderson, SC 11/29-12/9/18 (FL)","Sam's Club #6463 Anderson, SC 11/29-12/9/18 (FL)",Anderson Carvalho,112902,12/4/2018 2:02:29 PM,Grace Jones,SC,29628,Foot Vibe Pro,,New,1,0.00,0.00,0.00,PurchaseOrder,,,"2 years parts, 1 year labor for Small Items","Foot Vibe Pro,",YES,,Delivered,,,COnfirmed TC# -12/4/18 Hitomi,FL,0,7.00,USJ-871,0.00,,TC#9367 4948 2805 8192 2826 6,,,,,0.00,,,,,,,0.00,,,,,,
"Sam's Club #6463 Anderson, SC 11/29-12/9/18 (FL)","Sam's Club #6463 Anderson, SC 11/29-12/9/18 (FL)",Anderson Carvalho,112903,12/4/2018 2:07:04 PM,Hj Burnette,SC,29622,Shogun Neck & Back Massger,New,New,1,0.00,0.00,0.00,PurchaseOrder,,,"2 years parts, 1 year labor for Small Items","Shogun Neck &amp; Back Massger,",YES,,Delivered,,,"Had to open box for manual, sold as demo approved by Andres
//COnfirmed TC# - 12/4/18 Hitomi",FL,0,7.00,USJ-874USJ-874,0.00,,TC#0389 4069 0332 3667 9171 5,,,,,0.00,,,,,,,0.00,,,,,,
"Sam's Club #6463 Anderson, SC 11/29-12/9/18 (FL)","Sam's Club #6463 Anderson, SC 11/29-12/9/18 (FL)",Anderson Carvalho,112904,12/4/2018 2:13:06 PM,Bob Leonardi,SC,29625,Foot Vibe Pro,,New,1,0.00,0.00,0.00,PurchaseOrder,,,"2 years parts, 1 year labor for Small Items","Foot Vibe Pro,",YES,,Delivered,,,COnfirmed TC# - 124/18 Hitomi,FL,0,7.00,USJ-871,0.00,,TC#4450 2602 4228 2963 8434 0,,,,,0.00,,,,,,,0.00,,,,,,
"Sam's Club #6463 Anderson, SC 11/29-12/9/18 (FL)","Sam's Club #6463 Anderson, SC 11/29-12/9/18 (FL)",Anderson Carvalho,112906,12/4/2018 3:07:56 PM,John Morrison,SC,30643,Vitality Plate for Sam's,New,New,1,0.00,0.00,0.00,PurchaseOrder,,,"2 years parts, 1 year labor for Small Items","Vitality Plate for Sam's,",YES,,Delivered,,,COnfirmed TC# 12/4/18 Hitomi,FL,0,7.00,USJ-849USJ-849,0.00,,TC#7444 5155 3560 5458 9185 9,,,,,0.00,,,,,,,0.00,,,,,,
"Sam's Club #6463 Anderson, SC 11/29-12/9/18 (FL)","Sam's Club #6463 Anderson, SC 11/29-12/9/18 (FL)",Anderson Carvalho,112968,12/7/2018 1:10:35 PM,Randall Bray,SC,29626,Foot Vibe Pro,,New,2,1.40,19.98,21.38,PurchaseOrder,,,"2 years parts, 1 year labor for Small Items","Foot Vibe Pro,",YES,,Delivered,,,,FL,0,7.00,USJ-871,0.00,,Tc#3703 7035 6362 3667 5371 5,,,,,0.00,,,,,,,0.00,,,,,,
"Sam's Club #6463 Anderson, SC 11/29-12/9/18 (FL)","Sam's Club #6463 Anderson, SC 11/29-12/9/18 (FL)",Anderson Carvalho,112992,12/8/2018 7:33:49 AM,Brandy Scotland,SC,29624,Shogun Neck & Back Massger,New,New,1,0.00,0.00,0.00,PurchaseOrder,,,"2 years parts, 1 year labor for Small Items","Shogun Neck &amp; Back Massger,",YES,,Delivered,,,Tc# 9996 5538 3713 7004 1747 8,FL,0,7.00,USJ-874USJ-874,0.00,,Tc# 9996 5538 3713 7004 1747 8,,,,,0.00,,,,,,,0.00,,,,,,
"Sam's Club #6463 Anderson, SC 11/29-12/9/18 (FL)","Sam's Club #6463 Anderson, SC 11/29-12/9/18 (FL)",Anderson Carvalho,112999,12/8/2018 9:40:05 AM,John Imand,SC,29621,Symphony,New Choco,New,1,370.93,5299.00,5669.93,PurchaseOrder,Cash,,"3 years parts, 1 year labor (Free)","Symphony,",No,,Paid,,Customer would like late delivery,Tc# 3501 2540 1007 6070 5845 81,FL,0,7.00,USJ-9300Symphony-BW,0.00,,Tc# 3501 2540 1007 6070 5845 81,,,,,5669.93,,,,,,,0.00,,,,,,
"Sam's Club #6463 Anderson, SC 11/29-12/9/18 (FL)","Sam's Club #6463 Anderson, SC 11/29-12/9/18 (FL)",Anderson Carvalho,113007,12/8/2018 10:07:03 AM,Donna Beck,AA,29621,Shogun Neck & Back Massger,New,New,1,0.00,0.00,0.00,PurchaseOrder,,,"2 years parts, 1 year labor for Small Items","Shogun Neck &amp; Back Massger,",YES,,Delivered,,,Tc# 4940 6610 2298 2993 7632 0,FL,0,7.00,USJ-874USJ-874,0.00,,Tc# 4940 6610 2298 2993 7632 0,,,,,0.00,,,,,,,0.00,,,,,,
"Sam's Club #6463 Anderson, SC 11/29-12/9/18 (FL)","Sam's Club #6463 Anderson, SC 11/29-12/9/18 (FL)",Anderson Carvalho,113011,12/8/2018 10:46:12 AM,Trind Clark,SC,29654,Shogun Neck & Back Massger,New,New,1,0.00,0.00,0.00,PurchaseOrder,,,"2 years parts, 1 year labor for Small Items","Shogun Neck &amp; Back Massger,",YES,,Delivered,,,Tc# 0702 7273 9114 1899 7090 3,FL,0,7.00,USJ-874USJ-874,0.00,,Tc# 0702 7273 9114 1899 7090 3,,,,,0.00,,,,,,,0.00,,,,,,
"Sam's Club #6463 Anderson, SC 11/29-12/9/18 (FL)","Sam's Club #6463 Anderson, SC 11/29-12/9/18 (FL)",Anderson Carvalho,113024,12/8/2018 5:34:21 PM,Donna Beck,SC,29621,Shogun Neck & Back Massger,New,New,1,0.00,0.00,0.00,PurchaseOrder,,,"2 years parts, 1 year labor for Small Items","Shogun Neck &amp; Back Massger,",YES,,Delivered,,,Tc# 8088 4754 0655 6350 0905 4,FL,0,7.00,USJ-874USJ-874,0.00,,Tc# 8088 4754 0655 6350 0905 4,,,,,0.00,,,,,,,0.00,,,,,,
"Sam's Club #6463 Anderson, SC 11/29-12/9/18 (FL)","Sam's Club #6463 Anderson, SC 11/29-12/9/18 (FL)",Anderson Carvalho,113062,12/9/2018 2:32:27 PM,Donna Beck,SC,29621,Legacy for Sam's,Demo Black[-700],Demo,1,251.93,3599.00,3850.93,PurchaseOrder,,,"3 years parts, 1 year labor (Free)","Legacy for Sam's,",No,,Assigned,,,"CC Josefina - 11:42am TXT
Tc# 1892 1521 3918 4181 9629 43",FL,0,7.00,DWA-9100DWA-9100BL-DEMO,3850.93,,Tc# 1892 1521 3918 4181 9629 43,,,,,0.00,,,,,,,0.00,,,,,,
"Sam's Club #6463 Anderson, SC 11/29-12/9/18 (FL)","Sam's Club #6463 Anderson, SC 11/29-12/9/18 (FL)",Anderson Carvalho,113064,12/9/2018 3:11:53 PM,Sammie Paul,SC,29621,Orbit for Sam's ,New Choco,New,1,209.86,2998.00,3207.86,PurchaseOrder,,,"3 years parts, 1 year labor (Free)","Orbit for Sam's ,",No,,Assigned,,,"CC Josefina - 12/11/18 11:41am TXT
Tc# 2450 2864 0620 8293 3913 50",FL,0,7.00,ORBT-1ORBT-1CH,3207.86,,Tc# 2450 2864 0620 8293 3913 50,,,,,0.00,,,,,,,0.00,,,,,,
