﻿Original Event Name,Event Name,Sales Person,Order Number,Order Date,Customer Name,State,Zip,Product Name,Color,Product Status,QTY,Tax,Total Before Tax,Order Total,Primary Payment Method,Second Payment Method,Thirdl Payment Method,Warranty,Order Items,Pick up,Delivered On,Order Status,Chair Type,Order Notes,Private Note,Branch,No Tax,Actual Tax Rate,SKU,Primary Payment Balance,Primary Authorize Number,Primary Purchase Order Number,Primary Synchrony Account Number,Primary Synchrony Application Key,Primary Synchrony Account Info,Primary Synchrony Term,Second Payment Balance,Second Authorize Number,Second Purchase Order Number,Second Synchrony Account Number,Second Synchrony Application Key,Second Synchrony Account Info,Second SynchronyTerm,Third Payment Balance,Third Authorize Number,Third Purchase Order Number,Third Synchrony Account Number,Third Synchrony Application Key,Third Synchrony Account Info,Third Synchrony Term
"Sam's Club #6428 Medford, NY 5/2-12/19 (IL)","Sam's Club #6428 Medford, NY 5/2-12/19 (IL)",Chris Tavira,117246,5/10/2019 7:35:37 AM,Dwight Bryant,AA,11777,Foot Vibe Pro,,New,1,9.49,109.99,119.48,Credit Card,,,"2 years parts, 1 year labor for Small Items","Foot Vibe Pro,",YES,,Delivered,,Invoice # 0025697,,IL,0,8.63,USJ-871,119.48,TC # 462086048697972438360,,,,,,0.00,,,,,,,0.00,,,,,,
"Sam's Club #6428 Medford, NY 5/2-12/19 (IL)","Sam's Club #6428 Medford, NY 5/2-12/19 (IL)",Chris Tavira,117247,5/10/2019 7:39:21 AM,Unicare Unicare,NY,11763,Foot Vibe Pro,,New,2,18.97,219.98,238.95,Credit Card,,,"2 years parts, 1 year labor for Small Items","Foot Vibe Pro,",YES,,Delivered,,Invoice # 0025698,,IL,0,8.63,USJ-871,238.95,TC # 2242562109266863045973,,,,,,0.00,,,,,,,0.00,,,,,,
"Sam's Club #6428 Medford, NY 5/2-12/19 (IL)","Sam's Club #6428 Medford, NY 5/2-12/19 (IL)",Chris Tavira,117248,5/10/2019 7:42:57 AM,Carl Joyner,NY,11953,Foot Vibe Pro,,New,1,9.49,109.99,119.48,Credit Card,,,"2 years parts, 1 year labor for Small Items","Foot Vibe Pro,",YES,,Delivered,,Invoice # 0025700,,IL,0,8.63,USJ-871,119.48,TC # 544655996543010986418,,,,,,0.00,,,,,,,0.00,,,,,,
"Sam's Club #6428 Medford, NY 5/2-12/19 (IL)","Sam's Club #6428 Medford, NY 5/2-12/19 (IL)",Chris Tavira,117249,5/10/2019 7:46:17 AM,Corinne Lane,NY,11763,Foot Vibe Pro,,New,1,9.49,109.99,119.48,Credit Card,,,"2 years parts, 1 year labor for Small Items","Foot Vibe Pro,",YES,,Delivered,,Invoice # 0025701,,IL,0,8.63,USJ-871,119.48,TC # 297222301214868039963,,,,,,0.00,,,,,,,0.00,,,,,,
"Sam's Club #6428 Medford, NY 5/2-12/19 (IL)","Sam's Club #6428 Medford, NY 5/2-12/19 (IL)",Chris Tavira,117284,5/12/2019 10:03:07 AM,Carlos Arce,NY,11784,Foot Vibe Pro,,New,1,9.49,109.99,119.48,Credit Card,,,"2 years parts, 1 year labor for Small Items","Foot Vibe Pro,",YES,,Delivered,,Invoice # 0025703,,IL,0,8.63,USJ-871,119.48,TC # 999799181965131762236,,,,,,0.00,,,,,,,0.00,,,,,,
"Sam's Club #6428 Medford, NY 5/2-12/19 (IL)","Sam's Club #6428 Medford, NY 5/2-12/19 (IL)",Chris Tavira,117285,5/12/2019 10:07:24 AM,Clayton Lynn,NY,11763,Foot Vibe Pro,,New,1,9.49,109.99,119.48,Credit Card,,,"2 years parts, 1 year labor for Small Items","Foot Vibe Pro,",YES,,Delivered,,Invoice # 0025704,,IL,0,8.63,USJ-871,119.48,TC # 5156279523019949418,,,,,,0.00,,,,,,,0.00,,,,,,
"Sam's Club #6428 Medford, NY 5/2-12/19 (IL)","Sam's Club #6428 Medford, NY 5/2-12/19 (IL)",Chris Tavira,117286,5/12/2019 10:12:32 AM,Antoinette Griezman,NY,11763,Foot Vibe Pro,,New,1,9.49,109.99,119.48,Credit Card,,,"2 years parts, 1 year labor (Free)","Foot Vibe Pro,",YES,,Delivered,,Invoice # 0025702,,IL,0,8.63,USJ-871,119.48,TC # 010390039089647194735,,,,,,0.00,,,,,,,0.00,,,,,,
"Sam's Club #6428 Medford, NY 5/2-12/19 (IL)","Sam's Club #6428 Medford, NY 5/2-12/19 (IL)",Chris Tavira,117287,5/12/2019 10:16:38 AM,Susan Savage,NY,11763,Foot Vibe Pro,,New,1,9.49,109.99,119.48,Credit Card,,,"2 years parts, 1 year labor for Small Items","Foot Vibe Pro,",YES,,Delivered,,Invoice # 0025705,,IL,0,8.63,USJ-871,119.48,TC # 573553094350207585697,,,,,,0.00,,,,,,,0.00,,,,,,
"Sam's Club #6428 Medford, NY 5/2-12/19 (IL)","Sam's Club #6428 Medford, NY 5/2-12/19 (IL)",Chris Tavira,117303,5/13/2019 4:34:01 AM,Daniel Kreush,NY,11742,Relax 2 Zero 3D for Sam's,Demo (Box) Black[-700],Demo,1,327.66,3799.00,4126.66,Credit Card,,,"3 years parts, 1 year labor (Free)","Relax 2 Zero 3D for Sam's,",No,,Scheduled,,Invoice # 0025731,"Courtesy call / Text completed- Cristina 05/13/19 12:01 pm
5/14(11:15a): CC; left VM.-Karen
possible 3rd party not included on orders given to sched.-cristina
5/22-Customer confirmed delivery for 5/31 (9:30a-1:30p).-Karen",IL,0,8.63,DWA-9060DWA-9060BL-DEMO (Box),4126.66,TC # 4758887069775350802004,,,,,,0.00,,,,,,,0.00,,,,,,
