﻿Date,CustomerName,State,Zipcode,Description,productNo,Color,IsDemo,Net,ShippingFee,GiftPrice,FinancingProcessingFee,Gross,Pre_tax,Tax,Commission,Primary Payment Method,Primary Payment Balance,Primary Authorize Number,Primary Purchase Order Number,Primary Synchrony Account Number,Primary Synchrony Application Key,Primary Synchrony AccountInfo,Primary SynchronyTerm,Secondly Payment Method,Secondly Payment Balance,Secondly Authorize Number,Secondly Purchase Order Number,Secondly Synchrony Account Number,Secondly Synchrony Application Key,Secondly Synchrony AccountInfo,Secondly SynchronyTerm,Thirdly Payment Method,Thirdly Payment Balance,Thirdly Authorize Number,Thirdly Purchase Order Number,Thirdly Synchrony Account Number,Thirdly Synchrony Application Key,Thirdly Synchrony AccountInfo,Thirdly SynchronyTerm,DeliveryDate,Ispickup,Warranty,Status,Event Name,Synchrony Notes,Order Notes,Order number,Private Note,Branch,IsNoTax,ActualTaxRate
11/15/2017 5:22:38 PM,walter azpata,WA,98501,Relax2Zero 2.0,USJ-9050USJ-9050BR,Brown,New,,,,,3700.84,3451.00,249.84,Jason Liu,Synchrony,3700.00,,,6034610081635537,81133548,San Diego,36 months,,0.00,,,,,,,,0.00,,,,,,,11/21/2017 12:00:00 AM,No,"3 years parts, 1 year labor (Free)",Delivered,Referral (Main Office),,"paid in full
charge before scheduling",101892,SYNCHRONY CHARGED $3700 -Jiajia 11/17/2017 Authorization #017184,WA,0,9.25
11/16/2017 4:28:19 PM,Ashton Winter,WI,54935,Legacy,DWA-9100DWA-9100CH-DEMO,Demo Choco Brown,Demo,,,,,3800.00,3800.00,0.00,David Wang,,3800.00,c5CV,,,,,,,,,,,,,,,,,,,,,,12/7/2017 12:00:00 AM,No,"3 years parts, 1 year labor (Free)",Delivered,Referral (Main Office),,,101908,"call back customer from UP State Fair. Paid full amount $3800. White glove service please.
SQUARE CLEARED BY ALICIA 11/2/17",TX,1,9.25
11/18/2017 6:33:55 PM,Sook Kim,CA,90242,Legacy,DWA-9100DWA-9100BL,Black,New,,,,,3500.00,3500.00,0.00,Rolly San Jose,,0.00,044166,,,,,,,,,,,,,,,,,,,,,,11/22/2017 12:00:00 AM,No,"3 years parts, 1 year labor (Free)",Delivered,Referral (Main Office),,,101947,11/20/17- Cristina- Printed ; Payment cleared,CA,1,9.25
11/20/2017 9:32:59 PM,Gustavo Jimenez,CA,93536,Legacy,DWA-9100DWA-9100BL,Black,New,,,,,3500.00,3500.00,0.00,Bryan Albert,,0.00,,26151,,,,,,,,,,,,,,,,,,,,,11/20/2017 12:00:00 AM,YES,"3 years parts, 1 year labor (Free)",Delivered,Referral (Main Office),,,102015,"S/N 0201001170057 picked up 11/20/2017
Brian received the cash $3500, and it was deposit to WF account on 11/21/17",CA,1,9.25
12/9/2017 10:37:08 AM,Clinton Heinzen,WA,98274,Pegasus,DWA-9400Pegasus-BR,Choco Brown,New,,,,,5000.00,5000.00,0.00,Joseph Chan,CreditCard,5000.00,#aqJ7,,,,,,,0.00,,,,,,,,0.00,,,,,,,12/22/2017 12:00:00 AM,No,"3 years parts, 1 year labor (Free)",Delivered,Referral (Main Office),,,102339,"checked square cleared for $5000 - 12/11/17  Stephany
SCHEDULED ON DEC 21ST THUR 1:30PM-4:30PM （second team）",WA,1,9.25
12/9/2017 9:28:01 PM,Chi Chong,WA,98065,Legacy,DWA-9100DWA-9100CH,Choco Brown,New,,,,,3600.00,3600.00,0.00,KHOA H,Synchrony,3600.00,,,6034610081692074,82319926,,,,0.00,,,,,,,,0.00,,,,,,,12/24/2017 12:00:00 AM,No,"2 years parts, 1 year labor (Small Items)",Delivered,Referral (Main Office),,"Offer: 1 chair pad & 1 pair footpad free
Financing $3600 for 24 months 0% interest",102357,"Event name: HMART Denver, CO
SALES REP CHARGED SYNCHRONY 12/10/17 009564  - STEPHANY 12/11/17
SCHEDULED ON DEC 24TH SUNDAY 9:30AM-12:30PM",WA,1,9.25
12/9/2017 9:28:01 PM,Chi Chong,WA,98065,Chair Pad for Legacy,,,New,,,,,3600.00,3600.00,0.00,KHOA H,Synchrony,3600.00,,,6034610081692074,82319926,,,,0.00,,,,,,,,0.00,,,,,,,12/24/2017 12:00:00 AM,No,no warranty,Delivered,Referral (Main Office),,"Offer: 1 chair pad & 1 pair footpad free
Financing $3600 for 24 months 0% interest",102357,"Event name: HMART Denver, CO
SALES REP CHARGED SYNCHRONY 12/10/17 009564  - STEPHANY 12/11/17
SCHEDULED ON DEC 24TH SUNDAY 9:30AM-12:30PM",WA,1,9.25
12/9/2017 9:28:01 PM,Chi Chong,WA,98065,Foot Pads for Legacy,,,New,,,,,3600.00,3600.00,0.00,KHOA H,Synchrony,3600.00,,,6034610081692074,82319926,,,,0.00,,,,,,,,0.00,,,,,,,12/24/2017 12:00:00 AM,No,no warranty,Delivered,Referral (Main Office),,"Offer: 1 chair pad & 1 pair footpad free
Financing $3600 for 24 months 0% interest",102357,"Event name: HMART Denver, CO
SALES REP CHARGED SYNCHRONY 12/10/17 009564  - STEPHANY 12/11/17
SCHEDULED ON DEC 24TH SUNDAY 9:30AM-12:30PM",WA,1,9.25
12/11/2017 5:31:49 AM,Miran Han,CO,80134,Legacy,DWA-9100DWA-9100CH-DEMO,Demo Choco Brown,Demo,,,,,3500.00,3500.00,0.00,KHOA H,Cash,500.00,,,,,,,Cash,3000.00,,,,,,,,0.00,,,,,,,12/13/2017 12:00:00 AM,No,"3 years parts, 1 year labor (Free)",Delivered,Referral (Main Office),,"Customer deposit $500
Ballance $3000 will be paid upon delivery",102390,"Name event: Hmart Denver, Co
$3000 COD, PLS UPDATE AFTER COLLECTED/ ALICIA 12.11.17",TX,1,9.25
12/12/2017 4:01:43 PM,Dhvani Patel,MA,02090,Legend 3.0,DWA-9250USJ-9150CH,Choco Brown,New,,,,,3800.00,3800.00,0.00,Joseph Chan,CreditCard,500.00,#5iRv,,,,,,COD,3300.00,,,,,,,,0.00,,,,,,,12/22/2017 12:00:00 AM,No,"3 years parts, 1 year labor (Free)",Delivered,Referral (Main Office),,Balance $3300 to be charged before delivery,102430,"Referral from ASD Show 2015,
confirmed $500 in Square. 12/13/17 Hitomi
Sales mistake, customer ordered DWA -9150 Choco
Daiwa Legacy 3D model.
Received cash $3300 by Carlo",TX,1,9.25
12/13/2017 7:56:23 AM,Avelino Ong,NV,89032,Legacy,DWA-9100DWA-9100CH,Choco Brown,New,,,,,4000.00,4000.00,0.00,Rolly San Jose,Check,4000.00,,,,,,,,0.00,,,,,,,,0.00,,,,,,,12/14/2017 12:00:00 AM,No,"3 years parts, 1 year labor (Free)",Delivered,Referral (Main Office),,,102442,"CHECKS CLEARED, PLS DELIVER AS SOON AS POSSIBLE - 12/13/17 STEPHANY
This order was paid by check ($1000*4), and the transaction was confirmed by Yumi. It is ISLAND PASIFIC #5 (2017), not Referral. 1/5/18 Riho",NV,1,9.25
12/13/2017 8:46:51 AM,Baccus Beavil,TX,76559,Legacy for Sam's,DWA-9100DWA-9100CH,Choco,New,,,,,3862.53,3599.00,263.53,Chris Tavira,CreditCard,3862.53,5194,,,,,,,0.00,,,,,,,,0.00,,,,,,,12/18/2017 12:00:00 AM,No,"3 years parts, 1 year labor (Free)",Delivered,Referral (Main Office),,,102446,"Give customer a new chair
Need to figure out actual location of the event, it supposed to be held at Sam's club. Riho
Show name: Sam's Club #6245 - 12/15/2017June",TX,0,9.25
12/13/2017 10:16:48 AM,Hideko Galaski,CA,92064,Legacy,DWA-9100DWA-9100BL,Black,New,,,,,4200.00,4200.00,0.00,Kaz Ohashi,CreditCard,100.00,SAJX,,,,,,COD,0.00,,,,,,,,0.00,,,,,,,,No,"3 years parts, 1 year labor (Free)",Hold,Referral (Main Office),,,102447,"Order Date:04/1/17
Update: Customer calls me to keep this order next 2-3 months due to innovation her home. 12/13/17",Not Dispatched,1,9.25
12/15/2017 10:40:15 AM,Mervin Miller,OH,44654,Relax2Zero 1.0,USJ-9000USJ-9000KU,Black,New,,,,,3500.00,3500.00,0.00,Kaz Ohashi,CreditCard,100.00,WaaV,,,,,,COD,3400.00,,,,,,,,0.00,,,,,,,,No,"3 years parts, 1 year labor (Free)",Scheduled,Referral (Main Office),,Business Customer: No Tax,102472,"This is my customer brother's order.
Square deposit $100 cleared - Stephany 12/14/17  please charge COD $3400",TX,1,9.25
12/15/2017 10:40:15 AM,Mervin Miller,OH,44654,Tourmaline Pad for Relax2Zero 1.0,,,New,,,,,3500.00,3500.00,0.00,Kaz Ohashi,CreditCard,100.00,WaaV,,,,,,COD,3400.00,,,,,,,,0.00,,,,,,,,No,no warranty,Scheduled,Referral (Main Office),,Business Customer: No Tax,102472,"This is my customer brother's order.
Square deposit $100 cleared - Stephany 12/14/17  please charge COD $3400",TX,1,9.25
12/20/2017 4:30:10 PM,Min Han,WA,98023,Legacy 3D,DWA-9150USJ-9150CH,Choco Brown,New,,,,,3950.00,3950.00,0.00,May Kam,CreditCard,200.00,013674,,,,,,CreditCard,3750.00,Z99D,,,,,,,0.00,,,,,,,12/24/2017 12:00:00 AM,No,"3 years parts, 1 year labor (Free)",Delivered,Referral (Main Office),,"Request : delivery before Christmas, if we are able to make it, Thanks. COD $3750",102603,"Confirmed $200 by checking the receipt. 12/20/17 Riho
Delivery Scheduled on 12/24/17 between 11am to 2pm
COD 3750 Z99D CLEARED - STEPHANY 12/27/17",WA,1,9.25
12/20/2017 4:30:10 PM,Min Han,WA,98023,Daiwa Blanket,,,New,,,,,3950.00,3950.00,0.00,May Kam,CreditCard,200.00,013674,,,,,,CreditCard,3750.00,Z99D,,,,,,,0.00,,,,,,,12/24/2017 12:00:00 AM,No,no warranty,Delivered,Referral (Main Office),,"Request : delivery before Christmas, if we are able to make it, Thanks. COD $3750",102603,"Confirmed $200 by checking the receipt. 12/20/17 Riho
Delivery Scheduled on 12/24/17 between 11am to 2pm
COD 3750 Z99D CLEARED - STEPHANY 12/27/17",WA,1,9.25
12/26/2017 8:40:43 AM,Ralph Williams,TX,77379,Foot Vibe Pro,USJ-871,,New,,,,,120.16,109.99,10.17,KHOA H,CreditCard,0.00,001415,,,,,,,0.00,,,,,,,,0.00,,,,,,,,YES,"2 years parts, 1 year labor (Small Items)",Cancelled,Referral (Main Office),,Customer picked up the product.,102663,"Event name: Sam Houston #4721
revised to new# 102683  12/28/17 Hitomi",TX,0,9.25
12/26/2017 8:46:16 AM,Iessy Barrios,AA,77070,Foot Vibe Pro,USJ-871,,New,,,,,120.16,109.99,10.17,KHOA H,CreditCard,0.00,692877,,,,,,CreditCard,0.00,693052,,,,,,,0.00,,,,,,,,YES,"2 years parts, 1 year labor (Small Items)",Cancelled,Referral (Main Office),,,102664,revised to new# 102680  12/28/17 Hitomi,TX,0,9.25
12/26/2017 8:55:50 AM,John Lewis,TX,77088,Foot Vibe Pro,USJ-871,,New,,,,,120.16,109.99,10.17,KHOA H,CreditCard,0.00,492578,,,,,,,0.00,,,,,,,,0.00,,,,,,,,YES,"2 years parts, 1 year labor (Small Items)",Cancelled,Referral (Main Office),,Customer picked up the product,102666,"Event name: Sam Houston #4721
revised to new#102684  12/28/17 Hitomi",TX,0,9.25
12/28/2017 3:56:59 PM,Thuy Hanh Hoang,CA,92104,Legacy,DWA-9100DWA-9100BL,Black,New,,,,,3000.55,2810.00,190.55,Ting Ritchie,CreditCard,200.00,#NKtH,,,,,,COD,0.00,,,,,,,,0.00,,,,,,,1/4/2018 12:00:00 AM,No,"3 years parts, 1 year labor (Free)",Delivered,Referral (Main Office),,"Total $3,000, customer already paid $200 with credit card, please C.O.D $2,800 when delivery.",102695,"Hide approved the price $3000-New Legacy, confirmed $200 in Square. 12/29/17 Riho
This is the second chair that customer purchase, customer is from HongKong Supermarket in Georgia, this one is purchased for his family.
01/02/18-cristina- printed",CA,0,9.25
1/14/2018 10:10:37 AM,Wanjien Chen,FL,32308,Legacy,DWA-9100DWA-9100BU,Blue,New,,,,,3500.00,3500.00,0.00,Alex Brackelsberg,CreditCard,0.00,Lcrm,,,,,,,0.00,,,,,,,,0.00,,,,,,,,No,"3 years parts, 1 year labor (Free)",Cancelled,Referral (Main Office),,,102941,"confirmed $3500 in Square. 1/15/18 Hitomi
Refunded $3500 in Square  1/17/18 Maggie",FL,1,9.25
1/18/2018 5:48:07 PM,Steven Matsuyama,CA,91403,Relax2Zero 1.0,USJ-9000USJ-9000KU,Black,New,,,,,1200.00,1200.00,0.00,Charles Ishida,CreditCard,1200.00,07660C,,,,,,,0.00,,,,,,,,0.00,,,,,,,,No,"3 years parts, 1 year labor (Free)",Cancelled,Referral (Main Office),,"The agreement was a "" Trade in"" 
Please pick up the used Airmed when the delivery of the Relax 2 zero (refurbished)",103071,The refurbished relax 2 zero will be ready by Tuesday 1/23/2018,Not Dispatched,1,9.25
1/18/2018 6:00:52 PM,Steven Matsuyama,CA,91403,Relax2Zero 1.0,USJ-9000USJ-9000KU,Black,New,,,,,1200.00,1200.00,0.00,Charles Ishida,CreditCard,1200.00,07660C,,,,,,,0.00,,,,,,,,0.00,,,,,,,,No,"3 years parts, 1 year labor (Free)",Scheduled,Referral (Main Office),,"The agreement was a "" Trade in"" 
Please pick up the used Airmed when the delivery of the Relax 2 zero (refurbished)",103072,"The refurbished relax 2 zero will be ready by Tuesday 1/23/2018
need to be confirmed transaction. 1/19/18 Hitomi",CA,1,9.25
1/31/2018 3:34:41 PM,Christen Ericson,WI,54106,Legacy 3D,DWA-9150USJ-9150CH,Choco Brown,New,,,,,5000.00,5000.00,0.00,Jaime Ramirez,CreditCard,5000.00,#jcd9,,,,,,,0.00,,,,,,,,0.00,,,,,,,,No,"3 years parts, 1 year labor (Free)",Cancelled,Referral (Main Office),,Chair Sales from C warehouse. (Referral),103407,"Confirmed the Square transaction (1/26/18 $5000) 1/31/18 Riho
This order was revised to new order #103417. 2/1/18 Riho",TX,1,9.25
2/1/2018 4:07:27 PM,phillip sutton,IN,46163,Pegasus,DWA-9400Pegasus-BL,Black,New,,,,,6500.00,6500.00,0.00,Charles Ishida,CreditCard,6500.00,P9dE,,,,,,,0.00,,,,,,,,0.00,,,,,,,,No,"3 years parts, 1 year labor (Free)",Scheduled,Referral (Main Office),,,103416,"charged through square : P9dE
confirmed $6500 in Square. 2/1/18 Hitomi",TX,1,9.25
2/1/2018 4:49:52 PM,KRISTIN ERICKSON DEEG,WI,54106,Legacy 3D,DWA-9150USJ-9150CH,Choco Brown,New,,,,,5000.00,5000.00,0.00,Jaime Ramirez,CreditCard,5000.00,#jcd9,,,,,,,0.00,,,,,,,,0.00,,,,,,,,No,"3 years parts, 1 year labor (Free)",Scheduled,Referral (Main Office),,"Chair Sales from C warehouse. (Referral)
Revised from order #103407 due to Customer's correction.",103417,"Please disregard the previous order #103407, customer name is incorrect. 2/1/18 Riho
The Square transaction ($5000, 1/26/18) was confirmed.",TX,1,9.25
2/2/2018 9:54:57 AM,John Webb,FL,33884,Pegasus,DWA-9400Pegasus-BR,Choco Brown,New,,,,,5500.00,5500.00,0.00,Charles Ishida,CreditCard,5500.00,#gk38,,,,,,,0.00,,,,,,,,0.00,,,,,,,2/6/2018 12:00:00 AM,No,"3 years parts, 1 year labor (Free)",Delivered,Referral (Main Office),,"Revised order of 103397.
I didn't enter the Email address to avoid sending the receipt twice. 2/2/18 Riho",103420,"confirmed $5,500 in Square. 1/30/18 Hitomi",FL,1,9.25
2/2/2018 3:43:08 PM,Gayle Gunn,AZ,85210,Majesty,DWA-8000DWA-8000-BR,Choco Brown,New,,,,,2100.00,2100.00,0.00,Hidemitsu Yoshida,CreditCard,2100.00,hu6N,,,,,,,0.00,,,,,,,,0.00,,,,,,,,No,"3 years parts, 1 year labor (Free)",Assigned,Referral (Main Office),,,103423,"Hide Approved this price.
confirmed $2,100 in Square. 2/5/18 Hitomi",NV,1,9.25
2/7/2018 1:30:19 PM,Soren Carlson,OR,97426,Legacy 3D,DWA-9150USJ-9150BL,Black,New,,,,,4300.00,4300.00,0.00,Abagail Stirling,CreditCard,0.00,01394C,,,,,,,0.00,,,,,,,,0.00,,,,,,,,No,"3 years parts, 1 year labor (Free)",New,Referral (Main Office),,Deliver NEW chair before February 25th!,103509,,Not Dispatched,1,9.25
