﻿Original Event Name,Event Name,Sales Person,Order Number,Order Date,Customer Name,State,Zip,Product Name,Color,Product Status,QTY,Tax,Total Before Tax,Order Total,Primary Payment Method,Second Payment Method,Thirdl Payment Method,Warranty,Order Items,Pick up,Delivered On,Order Status,Chair Type,Order Notes,Private Note,Branch,No Tax,Actual Tax Rate,SKU,Primary Payment Balance,Primary Authorize Number,Primary Purchase Order Number,Primary Synchrony Account Number,Primary Synchrony Application Key,Primary Synchrony Account Info,Primary Synchrony Term,Primary Synchrony Primary ID,Primary Synchrony Issued State,Primary Synchrony Expiretion Date,Second Payment Balance,Second Authorize Number,Second Purchase Order Number,Second Synchrony Account Number,Second Synchrony Application Key,Second Synchrony Account Info,Second SynchronyTerm,Second Synchrony Primary ID,Second Synchrony Issued State,Second Synchrony Expiretion Date,Third Payment Balance,Third Authorize Number,Third Purchase Order Number,Third Synchrony Account Number,Third Synchrony Application Key,Third Synchrony Account Info,Third Synchrony Term,Third Synchrony Primary ID,Third Synchrony Issued State,Third Synchrony Expiretion Date
DEMA 11/13-16/19 (FL),DEMA 11/13-16/19 (FL),Ruben Cuatrona,122468,11/15/2019 7:24:20 AM,Thomas Rowde,FL,34223,Hubble,Demo Black,Demo,1,0.00,4200.00,4200.00,Cash,Cash,,"5 years parts, 1 year labor (Free)","Hubble,",YES,11/18/2019 12:00:00 AM,Delivered,Demo,Customer will pick up the chair from warehouse and pay the balance on cash.,"Original received. $100 cash verified by Ruben C. Remaining bal $4100.-Erika 11/15/19
Per sales rep customer will pick up & pay at the warehouse
Delivery conf completed. $4100 cash verified in cash. signed by Andres-Erika 11/29/19",FL,1,6.50,HUBL-1HUBL-1BL-DEMO,100.00,,,,,,,,,/,4100.00,,,,,,,,,/,0.00,,,,,,,,,/
DEMA 11/13-16/19 (FL),DEMA 11/13-16/19 (FL),Ruben Cuatrona,122469,11/15/2019 7:29:02 AM,Chris Bagley,OK,73132,PEGASUS 2 SMART,New Black,New,1,0.00,4500.00,4500.00,Credit Card,,,"5 years parts, 1 year labor (Free)","PEGASUS 2 SMART,",No,,Scheduled,,1 credit card transaction for 2 units. ( Chris & Calvin),"Original received. $4500 verified on SQ. Paid in full-Erika 11/15/19 5:00pm cc/text completed-Erika 11/18
Confirm color
Printed - Tina 11/18/2019
11/19 - Alysa - 10:50am - Customer confirmed delivery Thursday 11/21 between 3-6PM. He requested to move his old chair Legacy to another location. Per Arisa, we will charge $250 for the moving service. Customer agreed and will pay upon deliver/ moving service. Moving service : 510 Annawood Dr. Yukon, OK 73099",TX,1,6.50,PEGS-2PEGS-2-BL,4500.00,SQ# zVe0,,,,,,,,/,0.00,,,,,,,,,/,0.00,,,,,,,,,/
DEMA 11/13-16/19 (FL),DEMA 11/13-16/19 (FL),Ruben Cuatrona,122470,11/15/2019 7:35:07 AM,Calvin Roggew,OK,74059,PEGASUS 2 SMART,New Choco,New,1,0.00,4500.00,4500.00,Credit Card,,,"5 years parts, 1 year labor (Free)","PEGASUS 2 SMART,",No,,Scheduled,,1 credit card transaction per 2 units ( Chris & Calvin ) .,"Original received, $4500 verified on SQ. Paid in full-Erika 11/15/19 5:08pm cc/text completed-Erika 11/18
confirm chair color
Printed - Tina 11/18/2019
11/19 - Alysa - Customer confirmed delivery Fri. 11/22 between 8-11AM.",TX,1,6.50,PEGS-2PEGS-2-BR,4500.00,SQ# zVeO,,,,,,,,/,0.00,,,,,,,,,/,0.00,,,,,,,,,/
DEMA 11/13-16/19 (FL),DEMA 11/13-16/19 (FL),Robert Shih,122471,11/15/2019 7:39:07 AM,Charles Hasbourne,NY,11368,Relax 2 Zero 3D,Demo Choco,Demo,1,0.00,3800.00,3800.00,Credit Card,,,"5 years parts, 1 year labor (Free)","Relax 2 Zero 3D,",No,,Scheduled,,,"Original received. $3800 verified on SQ. Paid in full-Erika 11/15/19 5:10pm
confirm chair color
cc/text completed-Erika 11/18
11/22- CC; LVM- Spoke to customer will add gift due to longer wait time since we have a team in the east currently and have to schedule upon return.-Karen
12/3- Called customer for  delivery but did not answer LVM-Karen  (Sent courtesy text)
Confirmed delivery for 12/9 between 11:30am-3:30pm-customer informed sales rep changes DEMO to NEW.-will confirm with Robert Shih to make sure-Karen 
12/3-Robert confirmed chair is NEW instead of DEMO.-Karen",IL,1,6.50,DWA-9060USJ-9060BR-DEMO,3800.00,SQ# SKDr,,,,,,,,/,0.00,,,,,,,,,/,0.00,,,,,,,,,/
DEMA 11/13-16/19 (FL),DEMA 11/13-16/19 (FL),Ruben Cuatrona,122497,11/16/2019 6:58:07 AM,Keith Sahm,SC,29644,PEGASUS 2 SMART,New Black,New,1,0.00,4700.00,4700.00,Credit Card,,,"5 years parts, 1 year labor (Free)","PEGASUS 2 SMART,Chair Pad for Pegasus,",No,,Called,,Pls pick up customer's Legacy ( DWA9100 ).,"Original received. $4700 verified on SQ-Erika 11/18/19 10:33am
Trade in pick up customer's Legacy ( DWA 9100 ).
CC, Jasmin Carrizales, 11/19/19, 5:55pm/Av. Mon.-Fri. Mornings",FL,1,6.50,PEGS-2PEGS-2-BL,4700.00,SQ# ihC0,,,,,,,,/,0.00,,,,,,,,,/,0.00,,,,,,,,,/
DEMA 11/13-16/19 (FL),DEMA 11/13-16/19 (FL),Robert Shih,122498,11/16/2019 7:03:03 AM,Elizabeth Logan,TN,37922,Relax 2 Zero 3D,Demo Black,Demo,1,273.00,4200.00,4473.00,Synchrony,,,"5 years parts, 1 year labor (Free)","Relax 2 Zero 3D,",No,,Called,,36 months 0% .,"Synchrony original verified. Credit avail $5000. Remaining bal $4473. Charge sync acct, have sales draft signed-Erika 11/18/19 10:38am
CC, Jasmin Carrizales, 11/19/19, 5:59pm/Av. Anytime Should be fine./ Out of town 1st week of Dec.",FL,0,6.50,DWA-9060USJ-9060BL-DEMO,4473.00,,,6501725435029619,,Las Vegas,36 months,Driver’s License,TN,03/2024,0.00,,,,,,,,,/,0.00,,,,,,,,,/
DEMA 11/13-16/19 (FL),DEMA 11/13-16/19 (FL),Ruben Cuatrona,122499,11/16/2019 7:07:46 AM,Kirk Laney,TX,75093,PEGASUS 2 SMART,New Choco,New,1,0.00,5200.00,5200.00,Credit Card,,,"5 years parts, 1 year labor (Free)","PEGASUS 2 SMART,",No,11/19/2019 12:00:00 AM,Delivered,New,,"Printed - Tina 11/18/2019
Original received, SQ amount verified of $5200. Paid in full-Erika 11/18/19 9:27am
11/18/2019 Scheduled for Tuesday Nov 19 , 2019 3-5PM - Tina
11/22Maritza- Delivery confirmation received.",TX,1,6.50,PEGS-2PEGS-2-BR,5200.00,SQ# 4iWH,,,,,,,,/,0.00,,,,,,,,,/,0.00,,,,,,,,,/
DEMA 11/13-16/19 (FL),DEMA 11/13-16/19 (FL),Robert Shih,122530,11/17/2019 7:13:45 PM,Kamala Shadduck,FL,33417,Relax 2 Zero 3D,Demo Black,Demo,1,0.00,3800.00,3800.00,Synchrony,COD,,"5 years parts, 1 year labor (Free)","Relax 2 Zero 3D,",No,,Called,,"Synchrony 12 months $1,500 / COD $2,300 / PLS deliver before11/22 or  12/8-12/14 ( customer traveling for work )","Synchrony original verified. Credit avail $1500. Charge sync acct (1500), have sales draft signed. Remaining bal $2300. Collect COD @ delivery-Erika 11/18/19 9:55am
CC, Jasmin Carrizales, 11/20/19, 11:49am/Av. Dec 9th or Dec 10th",FL,1,6.50,DWA-9060USJ-9060BL-DEMO,1500.00,,,6501723375412986,84018324,San Diego,12 months,Driver’s License,FL,06/2027,0.00,,,,,,,,,/,0.00,,,,,,,,,/
DEMA 11/13-16/19 (FL),DEMA 11/13-16/19 (FL),Ruben Cuatrona,122531,11/17/2019 7:18:34 PM,Barron Miller,FL,34953,Hubble,New Choco,New,1,0.00,4700.00,4700.00,Synchrony,,,"5 years parts, 1 year labor (Free)","Hubble,",No,11/25/2019 12:00:00 AM,Delivered,New,Synchrony 36 months / Customer will unlocked the credit and call Ruben to finalized the Synchrony application.,"Chair was delivered, waiting on customer to sign sales draft. - 11/26/19 JD
Pls place on hold until customer contacts sales rep Ruben and gives us the ok to process the order.-Erika 11/18
Customer got approved for Synchrony
Synchrony acct was verified. Credit avail $5000. Remaining bal $4700. Charge sync acct, have sales draft signed-Erika 11/19/19 11:02am",FL,1,6.50,HUBL-1HUBL-1CH,4700.00,,,,84164223,San Diego,36 months,Driver’s License,FL,01/2028,0.00,,,,,,,,,/,0.00,,,,,,,,,/
DEMA 11/13-16/19 (FL),DEMA 11/13-16/19 (FL),Robert Shih,122532,11/17/2019 7:22:15 PM,Rodger Yazbeck,CA,90278,Relax 2 Zero 3D,Demo Choco,Demo,1,0.00,3900.00,3900.00,Credit Card,Credit Card,,"5 years parts, 1 year labor (Free)","Relax 2 Zero 3D,",No,11/22/2019 12:00:00 AM,Delivered,Demo,"COD $3,400","Original received. $500 verified on SQ. Remaining bal $3400. Collect COD @ delivery-Erika 11/18/19 10:00 am
11/18Printed
scheduled 11/22 10-1
11/25Maritza- Delivery confirmation received COD paid fully through HC",CA,1,6.50,DWA-9060USJ-9060BR-DEMO,500.00,SQ# bor8,,,,,,,,/,3400.00,housecall pro,,,,,,,,/,0.00,,,,,,,,,/
DEMA 11/13-16/19 (FL),DEMA 11/13-16/19 (FL),Ruben Cuatrona,122533,11/17/2019 7:27:47 PM,Shawn Hull,FL,34685,PEGASUS 2 SMART,New Black,New,1,0.00,5500.00,5500.00,Synchrony,,,"5 years parts, 1 year labor (Free)","PEGASUS 2 SMART,",No,11/21/2019 12:00:00 AM,Delivered,New,"Synchrony 36 months / PLS DELIVER 11/21 OR 11/22 ONLY , CUSTOMER GOING OUT TOWN .","Synchrony original verified. Credit avail $9000. Remaining bal $5500. Charge sync acct, have sales draft signed-Erika 11/18/19 10:08am
Delivery conf completed, sales draft signed-Erika 11/29/19",FL,1,6.50,PEGS-2PEGS-2-BL,5500.00,,,6501723375413489,84028879,San Diego,36 months,Driver’s License,FL,08/2020,0.00,,,,,,,,,/,0.00,,,,,,,,,/
DEMA 11/13-16/19 (FL),DEMA 11/13-16/19 (FL),Robert Shih,122534,11/17/2019 7:41:31 PM,Jian Smith,NJ,08648,Relax 2 Zero 3D,Demo Choco,Demo,1,0.00,4000.00,4000.00,Synchrony,,,"5 years parts, 1 year labor (Free)","Relax 2 Zero 3D,",No,,Scheduled,,Synchrony 36 months,"Synchrony original verified. Credit avail $6500. Remaining bal $4000. Charge sync acct, have sales draft signed-Erika 11/18/19 10:22am
cc/text completed-Erika 11/18
11/22- CC;LVM-Karen
12/2- No answer-LVM-Karen
12/3-Customer confirmed delivery for 12/8 between 2-6pm customer informed she will arrive home by 3pm-Karen",IL,1,6.50,DWA-9060USJ-9060BR-DEMO,4000.00,,,6501723375412507,83995196,San Diego,36 months,Driver’s License,NJ,06/2025,0.00,,,,,,,,,/,0.00,,,,,,,,,/
DEMA 11/13-16/19 (FL),DEMA 11/13-16/19 (FL),Robert Shih,122538,11/17/2019 8:30:01 PM,Angela Dockery,FL,32408,Relax 2 Zero 3D,Demo Choco,Demo,1,0.00,3900.00,3900.00,Credit Card,,,"5 years parts, 1 year labor (Free)","Relax 2 Zero 3D,",YES,11/16/2019 12:00:00 AM,Delivered,Demo,S/N : 010300218132 ( PICKED UP ALREADY ),Original received. Per sales rep chair was already picked up. $3900 verified on SQ-Erika 11/18/19 10:13am,FL,1,6.50,DWA-9060USJ-9060BR-DEMO,3900.00,SQ# GnIw,,,,,,,,/,0.00,,,,,,,,,/,0.00,,,,,,,,,/
