﻿Original Event Name,Event Name,Sales Person,Order Number,Order Date,Customer Name,State,Zip,Product Name,Color,Product Status,QTY,Tax,Total Before Tax,Order Total,Primary Payment Method,Second Payment Method,Thirdl Payment Method,Warranty,Order Items,Pick up,Delivered On,Order Status,Chair Type,Order Notes,Private Note,Branch,No Tax,Actual Tax Rate,SKU,Primary Payment Balance,Primary Authorize Number,Primary Purchase Order Number,Primary Synchrony Account Number,Primary Synchrony Application Key,Primary Synchrony Account Info,Primary Synchrony Term,Second Payment Balance,Second Authorize Number,Second Purchase Order Number,Second Synchrony Account Number,Second Synchrony Application Key,Second Synchrony Account Info,Second SynchronyTerm,Third Payment Balance,Third Authorize Number,Third Purchase Order Number,Third Synchrony Account Number,Third Synchrony Application Key,Third Synchrony Account Info,Third Synchrony Term
"SIOUX EMPIRE 3/7-10/19 SIOUX FALLS, SD (IL)","SIOUX EMPIRE 3/7-10/19 SIOUX FALLS, SD (IL)",Noni Ignacio,115636,3/10/2019 7:24:42 PM,Jennifer Leininger,SD,57032,Legacy 3D,New Black,New,1,0.00,4500.00,4500.00,CreditCard,,,"5 years parts, 2 years labor ($200)","Legacy 3D,",No,,Scheduled,,2 to 3 weeks delivery,"Confirmed 4,500.00 in WF. -3/11/19 Hitomi
3/13/19- Courtesy text is sent - Hitomi",TX,1,6.50,DWA-9150USJ-9150BL,4500.00,129011,,,,,,0.00,,,,,,,0.00,,,,,,
"SIOUX EMPIRE 3/7-10/19 SIOUX FALLS, SD (IL)","SIOUX EMPIRE 3/7-10/19 SIOUX FALLS, SD (IL)",Noni Ignacio,115637,3/10/2019 7:33:44 PM,Bob Schimerowski,MN,56209,Legacy 3D,Demo Choco,Demo,1,0.00,4000.00,4000.00,CreditCard,CreditCard,,"5 years parts, 2 years labor ($200)","Legacy 3D,",YES,3/10/2019 12:00:00 AM,Delivered,Demo,DEMO CHAIR/PICK UP FROM SHOW,"Confirmed $4,000 in WF. will confirm pickup confirmation - 3/11/19 Hitomi
3/12/19 Received pickup confirmation - Hitomi",TX,1,6.50,DWA-9150USJ-9150CH-DEMO,2000.00,03778Z,,,,,,2000.00,08172Z,,,,,,0.00,,,,,,
"SIOUX EMPIRE 3/7-10/19 SIOUX FALLS, SD (IL)","SIOUX EMPIRE 3/7-10/19 SIOUX FALLS, SD (IL)",Noni Ignacio,115700,3/11/2019 6:55:27 PM,Lisa Kinsella,MN,56623,Legacy 3D,New Choco,New,1,0.00,4900.00,4900.00,CreditCard,,,"5 years parts, 2 years labor ($200)","Legacy 3D,",No,,Scheduled,,2 to 3 weeks delivery,"3/12/19-Confirmed $4,900 w/WF receipt -Hitomi
3/13Maritza Courtesy message sent with email @ 3:41PM",TX,1,6.50,DWA-9150USJ-9150CH,4900.00,00917D,,,,,,0.00,,,,,,,0.00,,,,,,
