﻿Original Event Name,Event Name,Sales Person,Order Number,Order Date,Customer Name,State,Zip,Product Name,Color,Product Status,QTY,Tax,Total Before Tax,Order Total,Primary Payment Method,Second Payment Method,Thirdl Payment Method,Warranty,Order Items,Pick up,Delivered On,Order Status,Chair Type,Order Notes,Private Note,Branch,No Tax,Actual Tax Rate,SKU,Primary Payment Balance,Primary Authorize Number,Primary Purchase Order Number,Primary Synchrony Account Number,Primary Synchrony Application Key,Primary Synchrony Account Info,Primary Synchrony Term,Second Payment Balance,Second Authorize Number,Second Purchase Order Number,Second Synchrony Account Number,Second Synchrony Application Key,Second Synchrony Account Info,Second SynchronyTerm,Third Payment Balance,Third Authorize Number,Third Purchase Order Number,Third Synchrony Account Number,Third Synchrony Application Key,Third Synchrony Account Info,Third Synchrony Term
SUN N FUN 4/2-7/19 LAKELAND (FL),SUN N FUN 4/2-7/19 LAKELAND (FL),Robert Shih,116409,4/3/2019 7:02:57 PM,Angela Brewer,FL,32832,Relax 2 Zero 3D,Demo Black,Demo,1,0.00,3800.00,3800.00,CreditCard,,,"5 years parts, 1 year labor (Free)","Relax 2 Zero 3D,",No,,Scheduled,,4th floor delivery ( use elevator ),"4/4/19-Confirmed $3,800 in SQ. - Hitomi
CC, Jasmin Carrizales, 4/4/19, 1:12pm, VM",FL,1,7.00,DWA-9060USJ-9060BL-DEMO,3800.00,Receipt #I79L,,,,,,0.00,,,,,,,0.00,,,,,,
SUN N FUN 4/2-7/19 LAKELAND (FL),SUN N FUN 4/2-7/19 LAKELAND (FL),Robert Shih,116488,4/8/2019 8:06:29 AM,William Butcher,FL,32796,Legacy 3D,New Choco,New,1,0.00,4900.00,4900.00,CreditCard,,,"5 years parts, 1 year labor (Free)","Legacy 3D,",No,4/10/2019 12:00:00 AM,Delivered,New,,"4/8/19-Confirmed $4,900 in SQ. -Hitomi
CC, Jasmin Carrizales, 4/8/19, 12:58pm, VM",FL,1,7.00,DWA-9150USJ-9150CH,4900.00,SQ# QVXE,,,,,,0.00,,,,,,,0.00,,,,,,
SUN N FUN 4/2-7/19 LAKELAND (FL),SUN N FUN 4/2-7/19 LAKELAND (FL),Robert Shih,116489,4/8/2019 8:09:48 AM,Willi Johnk,SC,29638,Relax 2 Zero 3D,New Choco,New,1,0.00,4900.00,4900.00,CreditCard,COD,,"5 years parts, 1 year labor (Free)","Relax 2 Zero 3D,",No,,Cancelled,,"COD $4,200","Original receipt stated COD is $4,200 - JD 4/8/19
4/8/19-Confirmed $300.00 in SQ. ***COD $4,600*** -Hitomi
CC, Jasmin Carrizales, 4/8/19, 1:04pm",FL,1,7.00,DWA-9060USJ-9060BR,300.00,SQ# 9DEK,,,,,,4600.00,,,,,,,0.00,,,,,,
SUN N FUN 4/2-7/19 LAKELAND (FL),SUN N FUN 4/2-7/19 LAKELAND (FL),Robert Shih,116490,4/8/2019 8:13:20 AM,Uzi Tailt MD,FL,33812,Legacy 3D,New Black,New,1,0.00,5300.00,5300.00,CreditCard,CreditCard,,"5 years parts, 5 years labor ($800)","Legacy 3D,",No,4/11/2019 12:00:00 AM,Delivered,New,,"4/8/19-COnfirmed $5,300 in SQ. - Hitomi
CC, Jasmin Carrizales, 4/8/19, 4:50pm, VM",FL,1,7.00,DWA-9150USJ-9150BL,100.00,Receipt #0RTX,,,,,,5200.00,SQ# CniE,,,,,,0.00,,,,,,
SUN N FUN 4/2-7/19 LAKELAND (FL),SUN N FUN 4/2-7/19 LAKELAND (FL),Robert Shih,116491,4/8/2019 8:17:03 AM,Brian Dilorenzo,NY,13856,Relax 2 Zero 3D,New Choco,New,1,0.00,4500.00,4500.00,CreditCard,,,"5 years parts, 1 year labor (Free)","Relax 2 Zero 3D,",No,,Called,,,"4/8/19-Confirmed $4,500 in SQ. -Hitomi
4/9Maritza Courtesy message sent @ 2:38PM
4/10/2019 - Printed/Courtesy message sent - Tina
4/15/19 - Alysa - Spoke to customer and he informed me he is getting home remodeled and is requesting us reach back out in the middle of May 5/6 to see if he is ready for chair delivery.",TX,1,7.00,DWA-9060USJ-9060BR,4500.00,SQ# CDSj,,,,,,0.00,,,,,,,0.00,,,,,,
SUN N FUN 4/2-7/19 LAKELAND (FL),SUN N FUN 4/2-7/19 LAKELAND (FL),Robert Shih,116553,4/9/2019 5:12:40 PM,Willi Johnk,SC,29638,Relax 2 Zero 3D,New Choco,New,1,0.00,4500.00,4500.00,CreditCard,COD,,"5 years parts, 1 year labor (Free)","Relax 2 Zero 3D,",No,4/24/2019 12:00:00 AM,Delivered,New,"COD $4,200","4/9/19-corrected for #116489
4/8/19-Confirmed $300.00 in SQ. ***COD $4,200*** -Hitomi
CC, Jasmin Carrizales, 4/8/19, 1:04pm",FL,1,7.00,DWA-9060USJ-9060BR,300.00,SQ# 9DEK,,,,,,0.00,,,,,,,0.00,,,,,,
