﻿Original Event Name,Event Name,Sales Person,Order Number,Order Date,Customer Name,State,Zip,Product Name,Color,Product Status,QTY,Tax,Total Before Tax,Order Total,Primary Payment Method,Second Payment Method,Thirdl Payment Method,Warranty,Order Items,Pick up,Delivered On,Order Status,Chair Type,Order Notes,Private Note,Branch,No Tax,Actual Tax Rate,SKU,Primary Payment Balance,Primary Authorize Number,Primary Purchase Order Number,Primary Synchrony Account Number,Primary Synchrony Application Key,Primary Synchrony Account Info,Primary Synchrony Term,Primary Synchrony Primary ID,Primary Synchrony Issued State,Primary Synchrony Expiretion Date,Second Payment Balance,Second Authorize Number,Second Purchase Order Number,Second Synchrony Account Number,Second Synchrony Application Key,Second Synchrony Account Info,Second SynchronyTerm,Second Synchrony Primary ID,Second Synchrony Issued State,Second Synchrony Expiretion Date,Third Payment Balance,Third Authorize Number,Third Purchase Order Number,Third Synchrony Account Number,Third Synchrony Application Key,Third Synchrony Account Info,Third Synchrony Term,Third Synchrony Primary ID,Third Synchrony Issued State,Third Synchrony Expiretion Date
"Kansas State Fair 9/6-15/19 Hutchinson, KS","Kansas State Fair 9/6-15/19 Hutchinson, KS",Keith Kei,120851,9/9/2019 9:15:02 AM,Eldon Schmidt,KS,67114,Relax 2 Zero 3D,Demo Choco,Demo,2,0.00,6400.00,6400.00,Credit Card,Credit Card,,"5 years parts, 1 year labor (Free)","Relax 2 Zero 3D,",YES,9/15/2019 12:00:00 AM,Delivered,Demo,"Deposit: $2000
remaining balance collect on pick up: $4400
Serial#: 0103002181218
&
#: 96160792D","The customer will come pick up chair on last day of the fair
Please send technician to update the version of relax3D software when assigning delivery in this region!!!
Original received. SQ amount verified $2000. Remaining balance $4400. COD @ delivery. Per sales rep customers chair will be picked up after the show 9/15/19 -Erika 9/10/19 9:03am
Chair was delivered after the show. COD was paid through SQ $4400.-Erika 9/17/19 11:00am",TX,1,9.10,DWA-9060USJ-9060BR-DEMO,2000.00,Sq# eYQV,,,,,,,,/,4400.00,q3RY,,,,,,,,/,0.00,,,,,,,,,/
"Kansas State Fair 9/6-15/19 Hutchinson, KS","Kansas State Fair 9/6-15/19 Hutchinson, KS",Xiongxiaojun Ji,120857,9/9/2019 10:14:09 AM,Waldon Osborne III Berry,KS,66441,PEGASUS 2 SMART,Demo Choco,Demo,1,0.00,5000.00,5000.00,Synchrony,,,"5 years parts, 1 year labor (Free)","PEGASUS 2 SMART,",No,,Scheduled,,,"Synchrony original verified. Credit available $6800. Remaining balance $5000. Charge synchrony account upon delivery, have sales draft signed-Erika 9/9/19 5:21pm
Courtesy call completed-Erika 9/10/19 10:44am
Printed -Tina 9/11/2019
9/18/2019 Scheduled for Monday 10-1pm 9/23/2019 - Tina",TX,1,9.10,PEGS-2PEGS-2-BR-DEMO,5000.00,,,6501723375314588,80833896,Huston,48 months,Driver’s License,KS,12/2019,0.00,,,,,,,,,/,0.00,,,,,,,,,/
"Kansas State Fair 9/6-15/19 Hutchinson, KS","Kansas State Fair 9/6-15/19 Hutchinson, KS",Keith Kei,120862,9/9/2019 10:40:50 AM,Eugene Fisher,KS,67601,PEGASUS 2 SMART,Demo Choco,Demo,1,0.00,5299.00,5299.00,Check,,,"5 years parts, 1 year labor (Free)","PEGASUS 2 SMART,",No,,Scheduled,,,"Please assign delivery asap
Original received. Waiting for accounting to clear the paycheck-Erika 9/10/19 9:11am
Yumi confirmed the paycheck is cleared-Erika 9/17/19 9:04am
cc/text completed
Printed -Tina 9/18/2019
9/18/2019 Scheduled for Tuesday 2-5PM 9/24/2019 - Tina",TX,1,9.10,PEGS-2PEGS-2-BR-DEMO,5299.00,,,,,,,,,/,0.00,,,,,,,,,/,0.00,,,,,,,,,/
"Kansas State Fair 9/6-15/19 Hutchinson, KS","Kansas State Fair 9/6-15/19 Hutchinson, KS",Xiongxiaojun Ji,120870,9/9/2019 11:14:30 AM,Chad J Peterson,KS,67601,PEGASUS 2 SMART,New Choco,New,1,0.00,5999.00,5999.00,Synchrony,,,"5 years parts, 1 year labor (Free)","PEGASUS 2 SMART,",No,,Scheduled,,,"Synchrony original verified. Credit available $9000. Remaining balance $5999. Charge synchrony account upon delivery, have sales draft signed-Erika 9/9/19 5:25pm
Courtesy call completed-Erika 9/10/19 10:55am
Printed - Tina 9/11/2019
9/18/2019 Scheduled for Tuesday 3-6PM 9/24/2019 - Tina",TX,1,9.10,PEGS-2PEGS-2-BR,5999.00,,,6501723375316708,80879980,Huston,48 months,Driver’s License,KS,07/2022,0.00,,,,,,,,,/,0.00,,,,,,,,,/
"Kansas State Fair 9/6-15/19 Hutchinson, KS","Kansas State Fair 9/6-15/19 Hutchinson, KS",Xiongxiaojun Ji,120872,9/9/2019 11:22:04 AM,Harold L Johnson,CO,80918,PEGASUS 2 SMART,New Choco,New,1,0.00,5999.00,5999.00,Synchrony,,,"5 years parts, 1 year labor (Free)","PEGASUS 2 SMART,",No,,Assigned,,Please contact customer in 7-10 days to acquire account# for synchrony account,"Customer is approved for $9000 for synchrony. Base on security reason we can only obtain account# either through customer or synchrony bank after the customer received the credit card and activate it.
Synchrony original verified. Credit available $9000. Remaining balance $5999. Charge synchrony account upon delivery, have sales draft signed. Couldn't look up the customer credit through account # or key#. Called synchrony & they advised the customer needs to activate & receive the card in order to charge the account. Pls make sure to keep the customer updated to activate the card when they receive it.-Erika 9/16/19 3:35pm",TX,1,9.10,PEGS-2PEGS-2-BR,5999.00,,,,80907003,Huston,48 months,Driver’s License,KS,06/2023,0.00,,,,,,,,,/,0.00,,,,,,,,,/
"Kansas State Fair 9/6-15/19 Hutchinson, KS","Kansas State Fair 9/6-15/19 Hutchinson, KS",Keith Kei,120986,9/15/2019 8:53:50 AM,Marion Atkinson,KS,67022,Solace,New Choco,New,1,0.00,2700.00,2700.00,Credit Card,,,"5 years parts, 1 year labor (Free)","Solace,",No,,Scheduled,,,"Please assign delivery asap
THE CUSTOMER IS AN ELDERLY PLEASE HANDLE WITH EXTRA CARE.
Original received. $2700 verified through SQ. paid in full-Erika 9/17/19 11:43am
cc completed-Erika 9/17/19 1:52pm
Printed - Tina9/18/2019
9/18/2019 called to scheduled no answer (left voicemail on answering machine)-Tina
9/18/2019 Scheduled for Sunday 3-6PM 9/22/2019 - Tina",TX,1,9.10,SOL-1SOL-1-CH,2700.00,Sq# hYqG,,,,,,,,/,0.00,,,,,,,,,/,0.00,,,,,,,,,/
"Kansas State Fair 9/6-15/19 Hutchinson, KS","Kansas State Fair 9/6-15/19 Hutchinson, KS",Keith Kei,120987,9/15/2019 9:04:04 AM,William Ball,KS,67505,PEGASUS 2 SMART,Demo Choco,Demo,1,0.00,4999.00,4999.00,Credit Card,,,"5 years parts, 1 year labor (Free)","PEGASUS 2 SMART,",YES,9/15/2019 12:00:00 AM,Delivered,Demo,"Customer self picked up after show.
Serial# : 1201002180271","Original received. $4999 verified through SQ. Paid in full.
Chair was delivered after the show.-Erika 9/17/19 11:48am",TX,1,9.10,PEGS-2PEGS-2-BR-DEMO,4999.00,Sq#Xed8,,,,,,,,/,0.00,,,,,,,,,/,0.00,,,,,,,,,/
"Kansas State Fair 9/6-15/19 Hutchinson, KS","Kansas State Fair 9/6-15/19 Hutchinson, KS",Keith Kei,120988,9/15/2019 9:11:33 AM,Todd Gross,KS,67801,PEGASUS 2 SMART,New Black,New,1,0.00,5000.00,5000.00,Credit Card,,,"5 years parts, 1 year labor (Free)","PEGASUS 2 SMART,",No,,Scheduled,,"Deposit $500
Remaining balance: $4500 CoD","Original received.$500 deposit verified by SQ. Remaining balance $4500. Collect COD @ delivery-Erika 9/17/19 11:51am
cc/text completed-Erika 9/17/19 1:57pm
Printed-Tina 9/18/2019
9/18/2019 Scheduled for Tuesday 7-9PM 9/24/2019 -Tina",TX,1,9.10,PEGS-2PEGS-2-BL,500.00,Sq# o7q4,,,,,,,,/,0.00,,,,,,,,,/,0.00,,,,,,,,,/
"Kansas State Fair 9/6-15/19 Hutchinson, KS","Kansas State Fair 9/6-15/19 Hutchinson, KS",Keith Kei,120989,9/15/2019 9:17:02 AM,Randy / Susan Puls,KS,67501,PEGASUS 2 SMART,New Choco,New,1,0.00,5499.00,5499.00,Credit Card,,,"5 years parts, 1 year labor (Free)","PEGASUS 2 SMART,",No,,Scheduled,,"Deposit: $499
Remaining balance: 5000 CoD","Please deliver ASAP
Original received. $499 deposit verified through SQ. Remaining balance $5000. Collect COD @ delivery-Erika 9/17/19 12:00pm
cc/text completed-Erika 9/17/19 1:58pm
Printed-Tina9/18/2019
9/18/2019 Scheduled for Wednesday 10-1PM 9/25/2019 - Tina",TX,1,9.10,PEGS-2PEGS-2-BR,499.00,Sq# Uv0r,,,,,,,,/,0.00,,,,,,,,,/,0.00,,,,,,,,,/
"Kansas State Fair 9/6-15/19 Hutchinson, KS","Kansas State Fair 9/6-15/19 Hutchinson, KS",Xiongxiaojun Ji,120990,9/15/2019 9:24:18 AM,Deeann Romero,KS,67522,PEGASUS 2 SMART,New Choco,New,1,0.00,5999.00,5999.00,Synchrony,,,"5 years parts, 1 year labor (Free)","PEGASUS 2 SMART,",No,,Scheduled,,,"Synchrony original verified. Credit available $9000. remaining balance $5999. Charge synchrony account upon delivery, have sales draft signed-Erika 9/17/19 12:00pm
cc/text completed-Erika 9/17/19 2:01pm
Printed-Tina9/18/2019",TX,1,9.10,PEGS-2PEGS-2-BR,5999.00,,,6501723375325238,81170365,Huston,48 months,Driver’s License,KS,04/2025,0.00,,,,,,,,,/,0.00,,,,,,,,,/
"Kansas State Fair 9/6-15/19 Hutchinson, KS","Kansas State Fair 9/6-15/19 Hutchinson, KS",Xiongxiaojun Ji,121001,9/15/2019 4:54:18 PM,Terri Cornell,KS,67216,Solace,Demo Black,Demo,1,0.00,3040.80,3040.80,Credit Card,,,"5 years parts, 1 year labor (Free)","Solace,",No,,Scheduled,,,"Please delivery extra chair pad to Terri Cornell.
Original received. $3040.80 verified through SQ. Paid in full-Erika 9/17/19 12:01pm
cc completed-Erika 9/17/19 2:07pm
Printed - Tina 9/18/2019
9/18/2019 Scheduled delivery for Sunday 6-8PM 9/22/2019 - Tina",TX,1,9.10,SOL-1SOL-1-BL-DEMO,3040.80,Jsb7,,,,,,,,/,0.00,,,,,,,,,/,0.00,,,,,,,,,/
"Kansas State Fair 9/6-15/19 Hutchinson, KS","Kansas State Fair 9/6-15/19 Hutchinson, KS",Keith Kei,121003,9/15/2019 5:03:13 PM,Lucy Beatriz McCurry,KS,67108,PEGASUS 2 SMART,Demo Choco,Demo,1,0.00,4999.00,4999.00,Cash,Synchrony,,"5 years parts, 2 years labor ($200)","PEGASUS 2 SMART,",YES,9/15/2019 12:00:00 AM,Delivered,Demo,Chair picked up by customer after show already.,"PLEASE SCHEUDLE REPAIR FOR THE CUSTOMER.
The right arm of the chair need to be replace because shoulder can't come out or in.
Right side speaker also won't work need fix/replace.
Please do a full check up on chair, make sure tube and cables connected correctly.

Cash had been received by: Keith Kei $500
The order had been processed on synchrony as well, because chair been picked up by customer.
$500 cash deposit received & signed by Mario. Synchrony was charging, per june she will send me the sales draft after  arm replacement. Chair was already delivered-Erika 9/17/19 2:48pm",TX,1,9.10,PEGS-2PEGS-2-BR-DEMO,500.00,,,,,,,,,/,4499.00,,,6501723375326475,81198273,Huston,36 months,Driver’s License,KS,04/2023,0.00,,,,,,,,,/
