﻿Original Event Name,Event Name,Sales Person,Order Number,Order Date,Customer Name,State,Zip,Product Name,Color,Product Status,QTY,Tax,Total Before Tax,Order Total,Primary Payment Method,Second Payment Method,Thirdl Payment Method,Warranty,Order Items,Pick up,Delivered On,Order Status,Chair Type,Order Notes,Private Note,Branch,No Tax,Actual Tax Rate,SKU,Primary Payment Balance,Primary Authorize Number,Primary Purchase Order Number,Primary Synchrony Account Number,Primary Synchrony Application Key,Primary Synchrony Account Info,Primary Synchrony Term,Primary Synchrony Primary ID,Primary Synchrony Issued State,Primary Synchrony Expiretion Date,Second Payment Balance,Second Authorize Number,Second Purchase Order Number,Second Synchrony Account Number,Second Synchrony Application Key,Second Synchrony Account Info,Second SynchronyTerm,Second Synchrony Primary ID,Second Synchrony Issued State,Second Synchrony Expiretion Date,Third Payment Balance,Third Authorize Number,Third Purchase Order Number,Third Synchrony Account Number,Third Synchrony Application Key,Third Synchrony Account Info,Third Synchrony Term,Third Synchrony Primary ID,Third Synchrony Issued State,Third Synchrony Expiretion Date,First Name,Last Name,Email,Shipping Company,Shipping Address1,Shipping Address2,Shipping Suite,Shipping City,Shipping State,Shipping Zip,Shipping Country,Shipping Phone
Washington State Fair 8/30-9/22/19,Washington State Fair 8/30-9/22/19,Robert Shih,120558,8/30/2019 9:22:06 PM,Gina & Terry Williams,WA,98055,PEGASUS 2 SMART,New Choco,New,1,0.00,10000.00,10000.00,Synchrony,,,"5 years parts, 1 year labor (Free)","PEGASUS 2 SMART,Relax 2 Zero 3D,",No,,Called,,Synchrony 36 months / Second floor delivery,"#7 + #8
Originals verified; available credit $12,100; Please charge $10,000 and have synchrony sales draft signed- Cristina 09/03/19 11:49 am

9/3/19 1:22PM - Courtesy call. Left VM -Noemi",WA,1,9.90,PEGS-2PEGS-2-BR,10000.00,,,6501723375299524,80417479,Huston,36 months,Driver’s License,WA,03/2022,0.00,,,,,,,,,/,0.00,,,,,,,,,/,Gina & Terry,Williams,defaultmail@daiwamassage.com,,2008 Lincoln Cir SE,,,Renton,WA,98055,United States,425-800-9040
Washington State Fair 8/30-9/22/19,Washington State Fair 8/30-9/22/19,Robert Shih,120558,8/30/2019 9:22:06 PM,Gina & Terry Williams,WA,98055,Relax 2 Zero 3D,New Choco,New,1,0.00,10000.00,10000.00,Synchrony,,,"5 years parts, 1 year labor (Free)","PEGASUS 2 SMART,Relax 2 Zero 3D,",No,,Called,,Synchrony 36 months / Second floor delivery,"#7 + #8
Originals verified; available credit $12,100; Please charge $10,000 and have synchrony sales draft signed- Cristina 09/03/19 11:49 am

9/3/19 1:22PM - Courtesy call. Left VM -Noemi",WA,1,9.90,DWA-9060USJ-9060BR,10000.00,,,6501723375299524,80417479,Huston,36 months,Driver’s License,WA,03/2022,0.00,,,,,,,,,/,0.00,,,,,,,,,/,Gina & Terry,Williams,defaultmail@daiwamassage.com,,2008 Lincoln Cir SE,,,Renton,WA,98055,United States,425-800-9040
Washington State Fair 8/30-9/22/19,Washington State Fair 8/30-9/22/19,Robert Shih,120561,8/30/2019 9:28:30 PM,Robert E. Elis,WA,98225,Relax 2 Zero 3D,Demo Choco,Demo,1,0.00,4200.00,4200.00,Synchrony,,,"5 years parts, 1 year labor (Free)","Relax 2 Zero 3D,",No,,Scheduled,,Synchrony 36 months 0% APR,"#6
originals have been confirmed; Available credit  $6,800; Please charge synchrony account $4,200 and have the sales draft signed-Cristina 09/03/19 10:52 am
9/3/19 1:25pm - Courtesy call. Spoke with Mr. Elis -Noemi
Delivery scheduled 9/5 Th 3p-6p.  
Synchrony Authorization: 004634 - Yoko 9/4/19
9/11/19 Customer called concerned about disconnected air tubes on right side. Need to schedule repair. Also pointed out last name was input incorrectly, ""Elis"" should be ""Eis"" - Donald",WA,1,9.90,DWA-9060USJ-9060BR-DEMO,4200.00,,,6501723375300702,80453562,Huston,36 months,Driver’s License,WA,01/2024,0.00,,,,,,,,,/,0.00,,,,,,,,,/,Robert E.,Elis,defaultmail@daiwamassage.com,,1021 32nd St.,,,Bellingham,WA,98225,United States,360-676-9909
Washington State Fair 8/30-9/22/19,Washington State Fair 8/30-9/22/19,Jennifer Tran,120578,8/31/2019 9:07:45 PM,The Thi Nguyen,WA,98178,Legacy 4,New Choco,New,1,0.00,4200.00,4200.00,Cash,Cash,,"5 years parts, 1 year labor (Free)","Legacy 4,",No,9/3/2019 12:00:00 AM,Delivered,New,Cash discount / Scott collected the $500 deposited already. / Scheduled for Tuesday 8-10am by Scott.,"$500 Cash verified by Scott;CASH DEAL Collect $3,700 COD-Cristina 09/03/19 1:26 pm
Received the delivery confirmation, will ask Scott/Yoko to confirm the cash $3,700. 9/4/19 Riho
Received the document that Scott signed off as a cash confirmation for $3,700, updated the payment detail. 9/6/19 Riho",WA,1,9.90,LGCY-4LGCY-4CH,500.00,,,,,,,,,/,3700.00,,,,,,,,,/,0.00,,,,,,,,,/,The Thi,Nguyen,defaultmail@daiwamassage.com,,8529 S 133rd Place,,,Seattle,WA,98178,United States,206-715-6909
Washington State Fair 8/30-9/22/19,Washington State Fair 8/30-9/22/19,Robert Shih,120581,8/31/2019 9:14:24 PM,Teresa & Krystal Iguin,WA,98503,Legacy 4,Demo Black,Demo,1,0.00,4000.00,4000.00,Synchrony,,,"5 years parts, 1 year labor (Free)","Legacy 4,",No,,Scheduled,,Synchrony 36 months 0% APR .,"#21
Originals verified; available credit $6,800;Please charge $4000 and have the synchrony sales draft signed -Cristina 09/03/19 4:27 pm
9/4/19 8:47 AM Courtesy call. Spoke with customer -Noemi
Delivery schedule  9/6 12:00-2:00pm. Emailed Synchrony receipt to sign ahead.   - Yoko 9/5/19
Synchrony Authorization: 005815",WA,1,9.90,LGCY-4LGCY-4BL-DEMO,4000.00,,,6501723375302328,80487524,Huston,36 months,Driver’s License,WA,04/2023,0.00,,,,,,,,,/,0.00,,,,,,,,,/,Teresa & Krystal,Iguin,defaultmail@daiwamassage.com,,6852 A 5th Ct. SE,,,Lacey,WA,98503,United States,570-764-7136
Washington State Fair 8/30-9/22/19,Washington State Fair 8/30-9/22/19,Robert Shih,120583,8/31/2019 9:19:21 PM,Renee Claybon,WA,98503,Legacy 4,Demo Choco,Demo,1,415.80,4200.00,4615.80,Synchrony,,,"5 years parts, 1 year labor (Free)","Legacy 4,",No,,Scheduled,,Synchrony 36 months 0% APR. / Second floor delivery,"#15
Originals verified; Available credit  $9,000 please charge $4,615.80 and have the synchrony sales draft signed -Cristina 09/03/19 1:22 pm
9/3/19 1:28pm Courtesy call. Left VM -Noemi
Delivery scheduled 9/6 1pm-4pm - Yoko 9/5/19
Synchrony Authorization #: 005785",WA,0,9.90,LGCY-4LGCY-4CH-DEMO,4615.80,,,6501723375301973,80481630,Huston,36 months,Driver’s License,WA,11/2022,0.00,,,,,,,,,/,0.00,,,,,,,,,/,Renee,Claybon,defaultmail@daiwamassage.com,,8202 Walthew Ct SE,,,Lacey,WA,98503,United States,360-539-7040
Washington State Fair 8/30-9/22/19,Washington State Fair 8/30-9/22/19,Anderson Carvalho,120585,8/31/2019 9:23:46 PM,Bryan James,WA,98584,Legacy 4,Demo Black,Demo,1,0.00,4200.00,4200.00,Credit Card,Synchrony,,"5 years parts, 1 year labor (Free)","Legacy 4,",No,,Printed,,"Synchrony 36 months 0% APR @ $3,200","#19
Pls get customer to sign original synchrony form. Scott
Originals verified; available credit $3,200 ; please charge synchrony full amount and have the sales draft signed; Square deposit has been verified for $1k -Cristina 09/03/19 3:58 pm
9/4/19 9:53 am Courtesy call. Left VM -Noemi",WA,1,9.90,LGCY-4LGCY-4BL-DEMO,1000.00,SQ# 8xe0,,,,,,,,/,3200.00,,,6501723375302245,80486173,Huston,36 months,Driver’s License,WA,07/2021,0.00,,,,,,,,,/,Bryan,James,defaultmail@daiwamassage.com,,5070 W. Skokomish Valley Rd.,,,Shelton,WA,98584,United States,360-490-8484
Washington State Fair 8/30-9/22/19,Washington State Fair 8/30-9/22/19,Robert Shih,120619,9/1/2019 9:44:35 PM,Marc Thompson,WA,98020,PEGASUS 2 SMART,Demo Choco,Demo,1,0.00,5800.00,5800.00,Credit Card,,,"5 years parts, 1 year labor (Free)","PEGASUS 2 SMART,",No,,Scheduled,,,"#22
Original and Sq. payment verified for $5,800-Cristina 09/03/19 4:31 pm
9/4/19 9:55 am Courtesy call. Left VM -Noemi
9/4/19 Received call from customer. Prefers Thursdays, will follow up. - Yoko",WA,1,9.90,PEGS-2PEGS-2-BR-DEMO,5800.00,SQ# P9Q2,,,,,,,,/,0.00,,,,,,,,,/,0.00,,,,,,,,,/,Marc,Thompson,defaultmail@daiwamassage.com,,1024 9th Ave S,,,Edmonds,WA,98020,United States,206-300-8870
Washington State Fair 8/30-9/22/19,Washington State Fair 8/30-9/22/19,Jennifer Tran,120622,9/1/2019 9:49:45 PM,Kari Dupuis,WA,98513,Relax 2 Zero 3D,New Choco,New,1,0.00,4600.00,4600.00,Synchrony,,,"5 years parts, 1 year labor (Free)","Relax 2 Zero 3D,",No,,Scheduled,,Remove old chair ./ Synchrony 36 months 0% APR.,"#25
Originals verified; available credit $4600; Please charge $4,600 and have the synchrony sales draft signed- Cristina 09/03/19 4:57 pm
9/4/19 9:58 am Courtesy call. Left VM -Noemi
9/9/2019 Delivery scheduled for 9/12 @ 10AM-12 - Yoko
Synchrony authorization 009046",WA,1,9.90,DWA-9060USJ-9060BR,4600.00,,,6501723375303912,80524823,Huston,36 months,Driver’s License,WA,11/2024,0.00,,,,,,,,,/,0.00,,,,,,,,,/,Kari,Dupuis,defaultmail@daiwamassage.com,,9337 Pinedrop Dr. SE,,,Olympia,WA,98513,United States,360-584-3985
Washington State Fair 8/30-9/22/19,Washington State Fair 8/30-9/22/19,Robert Shih,120624,9/1/2019 9:54:16 PM,Samuel K. Mulvihill,WA,98198,Hubble,Demo Choco,Demo,1,0.00,5000.00,5000.00,Synchrony,,,"5 years parts, 1 year labor (Free)","Hubble,",No,,Scheduled,,Synchrony 36 months 0% APR .,"#28
Originals verified; available credit $7,200; Charge $5,000 and have sales draft signed- Cristina 09/03/19 5:05 pm
9/4/19 10:15 am Courtesy call. Left VM -Noemi
Scheduled for 9/10 9am-12p - Yoko 9/719
Authorization Code
007343",WA,1,9.90,HUBL-1HUBL-1CH-DEMO,5000.00,,,6501723375304225,80529509,Huston,36 months,Driver’s License,WA,03/2024,0.00,,,,,,,,,/,0.00,,,,,,,,,/,Samuel K.,Mulvihill,defaultmail@daiwamassage.com,,1800 S 263rd Pl,,,Des Moines,WA,98198,United States,206-755-3727
Washington State Fair 8/30-9/22/19,Washington State Fair 8/30-9/22/19,Robert Shih,120626,9/1/2019 10:03:41 PM,Annie McMurtrey,WA,98391,Hubble,Demo Black,Demo,1,544.50,5500.00,6044.50,Synchrony,,,"5 years parts, 1 year labor (Free)","Hubble,",No,,Scheduled,,Synchrony 36 months 0% APR,"#31
originals verified;  available credit $7,800 ; charge $6,044.50 and have synchrony sales draft signed- cristina 09/03/19 9:12 pm
9/4/19 11:06 am Cupurtesy call. Left VM -Noemi
9/9/19 17:50 Delivery schedule confirmed - Hideo",WA,0,9.90,HUBL-1HUBL-1BL-DEMO,6044.50,,,6501723375304407,80531842,Huston,36 months,Driver’s License,WA,07/2022,0.00,,,,,,,,,/,0.00,,,,,,,,,/,Annie,McMurtrey,defaultmail@daiwamassage.com,,8304 180th Ave Ct E.,,,Bonney Lake,WA,98391,United States,253-394-2442
Washington State Fair 8/30-9/22/19,Washington State Fair 8/30-9/22/19,Rolly San Jose,120629,9/1/2019 10:04:46 PM,Natasha A Walters,WA,98327,PEGASUS 2 SMART,New Black,New,1,0.00,6400.00,6400.00,Synchrony,,,"5 years parts, 1 year labor (Free)","PEGASUS 2 SMART,",No,,Scheduled,,,"#29
Originals verified; available credit $6,500; Please charge $6,400 and have the synchrony sales draft signed - Cristina 09/03/19 5:08pm
9/4/19 11:21 am Courtesy call. Spoke with customer -Noemi
9/9/19 2:30 PM Spoke with customer, confirmed delivery date 9/12 Thu. - Hideo",WA,1,9.90,PEGS-2PEGS-2-BL,6400.00,,,6501723375304274,80530341,Huston,48 months,Driver’s License,GA,01/2025,0.00,,,,,,,,,/,0.00,,,,,,,,,/,Natasha A,Walters,smartgrl28@hotmail.com,,1788 cadborough ln,,,dupont,WA,98327,United States,706-984-9739
Washington State Fair 8/30-9/22/19,Washington State Fair 8/30-9/22/19,Robert Shih,120630,9/1/2019 10:05:34 PM,Pamela Hagen,WA,98387,Hubble,Demo Black,Demo,1,544.50,5500.00,6044.50,Credit Card,,,"5 years parts, 1 year labor (Free)","Hubble,",No,,Scheduled,,,"#26
Delivery Scheduled on 9/5 12pm- 2pm - Yoko 9/1/2019
Square amount verified $6,044.50 -Cristina 09/03/19 5pm",WA,0,9.90,HUBL-1HUBL-1BL-DEMO,6044.50,G65i,,,,,,,,/,0.00,,,,,,,,,/,0.00,,,,,,,,,/,Pamela,Hagen,defaultmail@daiwamassage.com,,8514 207th st east,,,Spanaway,WA,98387,United States,253-222-5447
Washington State Fair 8/30-9/22/19,Washington State Fair 8/30-9/22/19,Scott Ishikawa,120632,9/1/2019 10:10:23 PM,Karl Schaefer,WA,98532,Hubble,Demo Choco,Demo,1,0.00,5210.00,5210.00,Synchrony,,,"5 years parts, 1 year labor (Free)","Hubble,",No,,Cancelled,,Synchrony 36 months 0% APR,"Originals Verified; available credit; please charge $5,220 and have the synchrony sales draft signed- cristina 09/03/19
9/4/19 11:28 am Courtesy call. Left VM -Noemi",Not Dispatched,1,9.90,HUBL-1HUBL-1CH-DEMO,5210.00,,,6501723375304720,80537769,Huston,36 months,Driver’s License,WA,04/2023,0.00,,,,,,,,,/,0.00,,,,,,,,,/,Karl,Schaefer,defaultmail@daiwamassage.com,,4165 Jackson Hwy 1,,,Ohehalis,WA,98532,United States,360-269-9497
Washington State Fair 8/30-9/22/19,Washington State Fair 8/30-9/22/19,Neneth Finley,120635,9/1/2019 10:14:36 PM,Liway Hsi,WA,98065,Legacy 4,New Choco,New,1,0.00,4000.00,4000.00,Credit Card,,,"5 years parts, 1 year labor (Free)","Legacy 4,",No,,Scheduled,,,"#32
Square payment verified $4,000 - cristina 09/03/19 9:14 pm
9/4/19 11:31 am Courtesy call. Left VM -Noemi
9/9/19 16:02 Left VM for scheduling - Hideo
9/9/19 16:38 Confirmed delivery date & time - Hideo",WA,1,9.90,LGCY-4LGCY-4CH,4000.00,fcvF,,,,,,,,/,0.00,,,,,,,,,/,0.00,,,,,,,,,/,Liway,Hsi,ngfy90t@yahoo.com,,40404A SE 70th Dr,,,Snoqualmie,WA,98065,United States,909-525-8610
Washington State Fair 8/30-9/22/19,Washington State Fair 8/30-9/22/19,Rolly San Jose,120636,9/1/2019 10:15:25 PM,Phillip Enera,WA,98002,Legacy 4,New Choco,New,1,0.00,4900.00,4900.00,Synchrony,,,"5 years parts, 1 year labor (Free)","Legacy 4,",No,,Scheduled,,Synchrony 48 months 0% APR.,"#39
Originals verified;  available credit $ 6,800; Please charge $4,900 and have the synchrony sales draft signed-cristina 09/04/19 9:23 am
9/4/19 11:33 am Courtesy call. Left VM -Noemi
Delivery scheduled for 9/11/19 2p-5p - Yoko 9/6/19
Synchrony Authorization Code 006704",WA,1,9.90,LGCY-4LGCY-4CH,4900.00,,,6501723375304894,80539460,Huston,48 months,Driver’s License,WA,10/2022,0.00,,,,,,,,,/,0.00,,,,,,,,,/,Phillip,Enera,defaultmail@daiwamassage.com,,1909 20th St. NE,,,Auburn,WA,98002,United States,253-833-1522
Washington State Fair 8/30-9/22/19,Washington State Fair 8/30-9/22/19,Ruben Cuatrona,120638,9/1/2019 10:19:10 PM,Kathi Keith,WA,98589,PEGASUS 2 SMART,New Black,New,1,0.00,5700.00,5700.00,Credit Card,,,"5 years parts, 2 years labor ($200)","PEGASUS 2 SMART,",No,,Cancelled,,Only Monday & Friday available for delivery .,,WA,1,9.90,PEGS-2PEGS-2-BL,5700.00,SQ# X5iq,,,,,,,,/,0.00,,,,,,,,,/,0.00,,,,,,,,,/,Kathi,Keith,defaultmail@daiwamassage.com,,15420 Tilley Rd. S.,,,Tehino,WA,98589,United States,360-789-3821
Washington State Fair 8/30-9/22/19,Washington State Fair 8/30-9/22/19,Robert Shih,120639,9/1/2019 10:19:39 PM,Shaun Neil,WA,99205,Legacy 4,New Choco,New,1,441.40,4458.60,4900.00,Synchrony,,,"5 years parts, 1 year labor (Free)","Legacy 4,",No,,Cancelled,,,"Need to verify what chair was sold ; Paper work states 3D Relax  vs Legacy 4
Available credit $7k; please charge $4,900 and have the synchrony sales draft signed- cristina",WA,0,9.90,LGCY-4LGCY-4CH,4900.00,,,6501723375304795,80538234,Huston,48 months,Driver’s License,WA,01/2025,0.00,,,,,,,,,/,0.00,,,,,,,,,/,Shaun,Neil,shaunneil87@yahoo.com,,1407 w kiernan ave,,,Spokane,WA,99205,United States,509-532-2756
Washington State Fair 8/30-9/22/19,Washington State Fair 8/30-9/22/19,Robert Shih,120640,9/1/2019 10:24:04 PM,Todd & Shawn Hansen,WA,98589,PEGASUS 2 SMART,New Choco,New,1,0.00,5700.00,5700.00,Credit Card,Credit Card,,"5 years parts, 2 years labor ($200)","PEGASUS 2 SMART,",No,,Scheduled,,,"#40
Verified Sq deposit $300; Please collect $5,400 COD  - Cristina 09/03/19 9:53 pm
9/4/19 11:37 am Courtesy call. Spoke with customer. Correct email address hansent90@yahoo.com -Noemi
Delivery scheduled 9/6/19 9:30am-12pm- Yoko 9/5/19",WA,1,9.90,PEGS-2PEGS-2-BR,300.00,#AILv,,,,,,,,/,5400.00,#tl6U,,,,,,,,/,0.00,,,,,,,,,/,Todd & Shawn,Hansen,nansent9@yahoo.com,,17348 Marsh St Sw,,,Tenino,WA,98589,United States,360-791-0256
Washington State Fair 8/30-9/22/19,Washington State Fair 8/30-9/22/19,Ruben Cuatrona,120641,9/1/2019 10:30:24 PM,Leon Bronley,WA,98520,Hubble,Demo Black,Demo,1,471.31,4760.69,5232.00,Synchrony,,,"5 years parts, 1 year labor (Free)","Hubble,",No,,Cancelled,,,"Originals verified; available credit $7,800; Please charge $5,232 and have the synchrony sales draft signed- Cristina 09/04/19 9:12 am
9/4/19 11:43 am Courtesy call. Phone# 2064843856 does not belong to customer. Left VM on phone# 2063100141 -Noemi",WA,0,9.90,HUBL-1HUBL-1BL-DEMO,5232.00,,,6501723375304829,80538581,Huston,48 months,Driver’s License,WA,07/2024,0.00,,,,,,,,,/,0.00,,,,,,,,,/,Leon,Bronley,defaultmail@daiwamassage.com,,705 reyvaan dr,,,Aberdeen,WA,98520,United States,206-310-0141
Washington State Fair 8/30-9/22/19,Washington State Fair 8/30-9/22/19,Rolly San Jose,120652,9/2/2019 10:19:47 AM,Josh McMeel,WA,98503,PEGASUS 2 SMART,Demo Black,Demo,1,0.00,6000.00,6000.00,Synchrony,,,"5 years parts, 1 year labor (Free)","PEGASUS 2 SMART,",No,,Scheduled,,Deliver next week,"#2
Synchrony processed Authorization Code: 002724  -Yoko 9/2/19 1:37pm
Delivery Scheduled for 9/4 afternoon - Yoko 9/2/19
Cristina Verified Original -09/03/19 10:33 am",WA,1,9.90,PEGS-2PEGS-2-BL-DEMO,6000.00,,,6501723375299326,80410673,Huston,48 months,Driver’s License,WA,08/2021,0.00,,,,,,,,,/,0.00,,,,,,,,,/,Josh,McMeel,defaultmail@daiwamassage.com,,3013 Brentwood Dr. SE,,,Lacey,WA,98503,United States,360-359-3404
Washington State Fair 8/30-9/22/19,Washington State Fair 8/30-9/22/19,Kristy Tran,120653,9/2/2019 10:22:58 AM,Doug Extine,WA,98371,Legacy 4,New Choco,New,1,0.00,4500.00,4500.00,Credit Card,,,"5 years parts, 1 year labor (Free)","Legacy 4,",No,,Cancelled,,,,WA,1,9.90,LGCY-4LGCY-4CH,4500.00,,,,,,,,,/,0.00,,,,,,,,,/,0.00,,,,,,,,,/,Michael,Perry,defaultmail@daiwamassage.com,,8803 64th ave e,,,Puyallup,WA,98371,United States,253-770-8737
Washington State Fair 8/30-9/22/19,Washington State Fair 8/30-9/22/19,Ruben Cuatrona,120655,9/2/2019 10:25:27 AM,David Boyer,WA,98387,PEGASUS 2 SMART,Demo Choco,Demo,1,519.75,6000.00,6519.75,Credit Card,COD,,"5 years parts, 2 years labor ($200)","PEGASUS 2 SMART,",No,,Cancelled,,Deliver ASAP,,WA,0,9.90,PEGS-2PEGS-2-BR-DEMO,1000.00,#THe6,,,,,,,,/,0.00,,,,,,,,,/,0.00,,,,,,,,,/,David,Boyer,defaultmail@daiwamassage.com,Wagnum Patio Covers,20210 53rd Ave. Ct. E,,,Spanaway,WA,98387,United States,253-304-6859
Washington State Fair 8/30-9/22/19,Washington State Fair 8/30-9/22/19,Anderson Carvalho,120656,9/2/2019 10:31:16 AM,Lisa Carter,WA,98108,PEGASUS 2 SMART,Demo(Box) Black,Demo,1,0.00,5500.00,5500.00,Credit Card,,,"5 years parts, 1 year labor (Free)","PEGASUS 2 SMART,",No,,Cancelled,,,"#27
Sq amount verified $5,500 - Cristina  09/03/19 5:02 pm
9/4/19 11:48 AM Courtesy call. Spoke with customer -Noemi",WA,1,9.90,PEGS-2PEGS-2-BL-DEMO(Box),5500.00,TbYE,,,,,,,,/,0.00,,,,,,,,,/,0.00,,,,,,,,,/,Lisa,Carter,defaultmail@daiwamassage.com,,6705 flora ave s,,,Seattle,WA,98108,United States,206-595-6702
Washington State Fair 8/30-9/22/19,Washington State Fair 8/30-9/22/19,Tom Nguyen,120657,9/2/2019 10:31:38 AM,George V Lingle,WA,98604,Relax 2 Zero 3D,Demo Black,Demo,1,0.00,4200.00,4200.00,Synchrony,,,"5 years parts, 1 year labor (Free)","Relax 2 Zero 3D,",No,,Scheduled,,,"#3
Originals have been verified; Available credit $7,000 ; Please charge Synchrony account for $4,200  and have sales draft signed- Cristina 09/03/19 10:41 am
9/3/19 1:34pm Courtesy call. Left VM -Noemi
Delivery scheduled on 9/6/19 10am - Yoko 9/4/19",WA,1,9.90,DWA-9060USJ-9060BL-DEMO,4200.00,,,6501723375299383,80412940,Huston,36 months,Driver’s License,WA,10/2022,0.00,,,,,,,,,/,0.00,,,,,,,,,/,George V,Lingle,defaultmail@daiwamassage.com,,1504 NE 17th Ave.,,,Battle Ground,WA,98604,United States,360-901-3826
Washington State Fair 8/30-9/22/19,Washington State Fair 8/30-9/22/19,Kristy Tran,120659,9/2/2019 10:39:14 AM,Gary Cowden,WA,98188,Relax 2 Zero 3D,Demo Choco,Demo,1,0.00,4000.00,4000.00,Credit Card,,,"5 years parts, 1 year labor (Free)","Relax 2 Zero 3D,",No,,Cancelled,,,,WA,1,9.90,DWA-9060USJ-9060BR-DEMO,4000.00,,,,,,,,,/,0.00,,,,,,,,,/,0.00,,,,,,,,,/,Leon,Bronley,defaultmail@daiwamassage.com,,4411 s 176th st,,,Seatac,WA,98188,United States,206-948-0781
Washington State Fair 8/30-9/22/19,Washington State Fair 8/30-9/22/19,Jennifer Tran,120660,9/2/2019 10:44:28 AM,Charles David Sandoval,WA,98354,PEGASUS 2 SMART,New Black,New,2,0.00,12600.00,12600.00,Synchrony,,,"5 years parts, 2 years labor ($200)","PEGASUS 2 SMART,",No,,Printed,,,"#4 + #5
3rd Floor Delivery
Originals Verified; Available credit $15,600; Please charge Synchrony account $12,600 and have  the sales draft signed- Cristina 09/03/19 10:45 am
9/3/19 1:37pm Courtesy call. Left VM -Noemi",WA,1,9.90,PEGS-2PEGS-2-BL,12600.00,,,6501723375299425,80413384,Huston,36 months,Driver’s License,WA,01/2020,0.00,,,,,,,,,/,0.00,,,,,,,,,/,Charles David,Sandoval,defaultmail@daiwamassage.com,,210 27th Ave.,#C 302,,Milton,WA,98354,United States,206-818-6274
Washington State Fair 8/30-9/22/19,Washington State Fair 8/30-9/22/19,Anderson Carvalho,120661,9/2/2019 10:46:34 AM,Michael Perry,WA,98338,PEGASUS 2 SMART,Demo Black,Demo,1,0.00,5000.00,5000.00,Credit Card,,,"5 years parts, 1 year labor (Free)","PEGASUS 2 SMART,",No,,Printed,,,"#42
Sq payment verified $5,000- Cristina 09/03/19 9:48 pm
9/4/19 11:56 am  Courtesy call. Spoke with customer -Noemi",WA,1,9.90,PEGS-2PEGS-2-BL-DEMO,5000.00,#NDC6,,,,,,,,/,0.00,,,,,,,,,/,0.00,,,,,,,,,/,Michael,Perry,defaultmail@daiwamassage.com,,22204 orting kap hwy e,,,Graham,WA,98338,United States,253-358-5253
Washington State Fair 8/30-9/22/19,Washington State Fair 8/30-9/22/19,Kristy Tran,120662,9/2/2019 10:53:00 AM,Stacey Nagy,WA,98391,PEGASUS 2 SMART,New Choco,New,1,0.00,5000.00,5000.00,Credit Card,COD,,"5 years parts, 1 year labor (Free)","PEGASUS 2 SMART,",No,,Scheduled,,CASH ON DELIVERY,"#10 
2nd Floor Delivery; CASH DEAL
Verified Sq Deposit for $1,000 ; COD $4,000- Cristina 09/03/19 12:05 pm
9/3/19 1:39pm Courtesy call. Left VM -Noemi
9/10/19 Confirmed delivery schedule. -Hideo",WA,1,9.90,PEGS-2PEGS-2-BR,1000.00,#QoLZ,,,,,,,,/,4000.00,,,,,,,,,/,0.00,,,,,,,,,/,Stacey,Nagy,SJNagy68@rocketmail.com,,16512 108th St. E,,,Bonney Lake,WA,98391,United States,253-241-9893
Washington State Fair 8/30-9/22/19,Washington State Fair 8/30-9/22/19,Anderson Carvalho,120663,9/2/2019 10:55:06 AM,Sally Mcdaniel,WA,98001,PEGASUS 2 SMART,New Black,New,1,0.00,6900.00,6900.00,Credit Card,,,"5 years parts, 1 year labor (Free)","PEGASUS 2 SMART,",No,,Hold,,,"#30
Customer is moving around 2nd wk of November. She put $300 down and we will run synchrony then. Financing is for 48 mts
Sq deposit verified; Customer would like to apply for synchrony credit line; Original form has been filled out but not processed (Process app in November) Yoko please place this order hold - Cristina 09/04/19 10:22 am",WA,1,9.90,PEGS-2PEGS-2-BL,300.00,#2cwU,,,,,,,,/,0.00,,,,,,,,,/,0.00,,,,,,,,,/,Sally,Mcdaniel,defaultmail@daiwamassage.com,,3035 s 381st way,,,Auburn,WA,98001,United States,253-332-4438
Washington State Fair 8/30-9/22/19,Washington State Fair 8/30-9/22/19,Ruben Cuatrona,120665,9/2/2019 10:58:11 AM,John Zilke,WA,98366,PEGASUS 2 SMART,Demo Choco,Demo,1,0.00,4800.00,4800.00,Credit Card,Credit Card,,"5 years parts, 2 years labor ($200)","PEGASUS 2 SMART,",No,,Scheduled,,Deliver ASAP,"#11
Cristina verified both Sq amounts for $2,400 each total of $4,800- Cristina 09/03/19 12:55 pm
9/3/19 1:45pm Courtesy call. Spoke with customer -Noemi
Delivery scheduled for 9/10/19 after 4:30pm - Yoko 9/4/19",WA,1,9.90,PEGS-2PEGS-2-BR-DEMO,2400.00,#F68X,,,,,,,,/,2400.00,yrxa,,,,,,,,/,0.00,,,,,,,,,/,John,Zilke,zilkster@msn.com,,8043 E Aguilar Ct.,,,Part Orchard,WA,98366,United States,206-510-4183
Washington State Fair 8/30-9/22/19,Washington State Fair 8/30-9/22/19,Kristy Tran,120666,9/2/2019 11:02:09 AM,Yoko Ochiai,WA,98006,Legacy 4,New Black,New,1,0.00,4600.00,4600.00,Synchrony,,,"5 years parts, 1 year labor (Free)","Legacy 4,",No,,Scheduled,,,"#33
Originals verified ; available credit  $9k  ; please charge $4,600 and have the synchrony sales draft signed - Cristina 09/03/19  10 pm
9/4/19 12:03 pm Courtesy call. Left VM -Noemi",WA,1,9.90,LGCY-4LGCY-4BL,4600.00,,,6501723375304605,80535597,Huston,24 months,Driver’s License,WA,08/2023,0.00,,,,,,,,,/,0.00,,,,,,,,,/,Yoko,Ochiai,defaultmail@daiwamassage.com,,4407 133rd ave se,,,Bellevue,WA,98006,United States,206-963-2629
Washington State Fair 8/30-9/22/19,Washington State Fair 8/30-9/22/19,Ruben Cuatrona,120667,9/2/2019 11:04:32 AM,John Sager,WA,98501,PEGASUS 2 SMART,New Choco,New,1,0.00,5500.00,5500.00,Synchrony,,,"5 years parts, 2 years labor ($200)","PEGASUS 2 SMART,",No,,Scheduled,,Remove Old Chair,"#12
Synchrony Processed Authorization Number: #031393
Delivery scheduled for 9/4/2019 2:30-4:30 - Yoko 9/2/2019
Cristina verified originals -09/03/19 12:59 pm",WA,1,9.90,PEGS-2PEGS-2-BR,5500.00,#031393,,6501723375301148,80462480,Huston,48 months,Driver’s License,WA,01/2028,0.00,,,,,,,,,/,0.00,,,,,,,,,/,John,Sager,defaultmail@daiwamassage.com,,3002 57th Ave. SE,,,Olympia,WA,98501,United States,360-870-4151
Washington State Fair 8/30-9/22/19,Washington State Fair 8/30-9/22/19,Tom Nguyen,120668,9/2/2019 11:09:01 AM,Robert Park,WA,98338,PEGASUS 2 SMART,Demo Choco,Demo,1,0.00,6000.00,6000.00,Synchrony,,,"5 years parts, 1 year labor (Free)","PEGASUS 2 SMART,",No,,Printed,,,"#34
Originals verified; available credit $9,000 ; please charge $6,000 and have the synchrony sales draft signed - cristina 09/03/19 10:04 pm
9/4/19 12:05 pm Courtesy call. Left VM -Noemi",WA,1,9.90,PEGS-2PEGS-2-BR-DEMO,6000.00,,,6501723375304621,80535899,Huston,48 months,Driver’s License,WA,08/2020,0.00,,,,,,,,,/,0.00,,,,,,,,,/,Robert,Park,defaultmail@daiwamassage.com,,23520 rim rd,,,Graham,WA,98338,United States,253-677-3473
Washington State Fair 8/30-9/22/19,Washington State Fair 8/30-9/22/19,Neneth Finley,120669,9/2/2019 11:09:40 AM,Jodi Markhart,WA,98198,Relax 2 Zero 3D,New Choco,New,1,0.00,4500.00,4500.00,Synchrony,,,"5 years parts, 1 year labor (Free)","Relax 2 Zero 3D,",No,,Printed,,,"#13
Originals verified; Available credit $6,500; Please charge $4,500 and have the sales draft signed- Cristina 09/03/19 1:01 pm
9/3/19 1:48pm Courtesy call. 206-387-7111 does not belong to customer. Called 206-478-7111 & left VM -Noemi",WA,1,9.90,DWA-9060USJ-9060BR,4500.00,,,6501723375301619,80470463,Huston,36 months,Driver’s License,WA,05/2022,0.00,,,,,,,,,/,0.00,,,,,,,,,/,Jodi,Markhart,defaultmail@daiwamassage.com,,23305 12th Ave S,,,Des Moines,WA,98198,United States,206-478-7111
Washington State Fair 8/30-9/22/19,Washington State Fair 8/30-9/22/19,Tom Nguyen,120670,9/2/2019 11:15:00 AM,Mark Sigurdson,WA,98042,PEGASUS 2 SMART,New Choco,New,1,0.00,6000.00,6000.00,Synchrony,,,"5 years parts, 1 year labor (Free)","PEGASUS 2 SMART,",No,,Scheduled,,,"#14
Customer already has existing Synchrony Account
Verified originals credit line open thru mattress firm;  available credit $ 6k  please charge full amount and have sales draft signed / courtesy call completed #7137- Cristina 09/04/19 1:25 pm
Scheduled 9/10/19 11am-2pm
Synchrony Authorization Code 008275 - Yoko 9/8/19",WA,1,9.90,PEGS-2PEGS-2-BR,6000.00,,,6501722425198496,,Huston,24 months,Driver’s License,WA,01/2025,0.00,,,,,,,,,/,0.00,,,,,,,,,/,Mark,Sigurdson,defaultmail@daiwamassage.com,,18130 SE 247th St.,,,Covington,WA,98042,United States,253-639-7137
Washington State Fair 8/30-9/22/19,Washington State Fair 8/30-9/22/19,Jennifer Tran,120671,9/2/2019 11:15:51 AM,April Pooler,WA,98584,Relax 2 Zero 3D,New Black,New,1,0.00,4200.00,4200.00,Synchrony,,,"5 years parts, 1 year labor (Free)","Relax 2 Zero 3D,",No,,Printed,,,"#23
Customer already has synchrony act
HOLD 2 weeks  
Call before processing
Originals verified; Synchrony available credit $4,500; please charge $4,200 and have the sales draft signed- Cristina 09/03/19 4:39 pm
9/4/19 12:10 pm Courtesy call. Left VM -Noemi",WA,1,9.90,DWA-9060USJ-9060BL,4200.00,,,6034611606468735,,,36 months,Driver’s License,WA,03/2020,0.00,,,,,,,,,/,0.00,,,,,,,,,/,April,Pooler,defaultmail@daiwamassage.com,,110 e angel way,,,Shelton,WA,98584,United States,360-229-1179
Washington State Fair 8/30-9/22/19,Washington State Fair 8/30-9/22/19,Ruben Cuatrona,120672,9/2/2019 11:19:30 AM,Richard Farr,UT,84738,PEGASUS 2 SMART,Demo Choco,Demo,1,0.00,5700.00,5700.00,Synchrony,,,"5 years parts, 1 year labor (Free)","PEGASUS 2 SMART,",No,,Assigned,,,"#17
Customer has existing Ashley Furniture Synchrony Account
Corrected customers acc#; available credit $7,400 please charge $5,700 and have the synchrony sales  draft signed - Cristina 09/03/19 3:19
9/4/19 12:15 pm Courtesy call. Spoke with Mrs. Farr -Noemi",NV,1,9.90,PEGS-2PEGS-2-BR-DEMO,5700.00,,,6019193611008169,,Huston,36 months,Driver’s License,WA,01/2025,0.00,,,,,,,,,/,0.00,,,,,,,,,/,Richard,Farr,defaultmail@daiwamassage.com,,146 N Park Avenue Way,,,Ivins,UT,84738,United States,360-901-6002
Washington State Fair 8/30-9/22/19,Washington State Fair 8/30-9/22/19,Kristy Tran,120673,9/2/2019 11:24:46 AM,Kevin Silvas,WA,98055,PEGASUS 2 SMART,Demo Choco,Demo,1,0.00,6000.00,6000.00,Synchrony,,,"5 years parts, 1 year labor (Free)","PEGASUS 2 SMART,",No,,Scheduled,,,"#24
originals confirmed; available credit $8,300 ; Please charge $6,000 and have the synchrony sales draft signed
9/4/19 12:17 pm Courtesy call. Left VM -Noemi
Scheduled 9/10/19 2pm-4pm - Yoko 9/8/19 
Synchrony Authorization Code  008893 - Yoko 9/8/19",WA,1,9.90,PEGS-2PEGS-2-BR-DEMO,6000.00,,,6501723375303714,80521396,Huston,48 months,Driver’s License,WA,08/2022,0.00,,,,,,,,,/,0.00,,,,,,,,,/,Kevin,Silvas,defaultmail@daiwamassage.com,,739 s 47th st,,,Renton,WA,98055,United States,425-591-1505
Washington State Fair 8/30-9/22/19,Washington State Fair 8/30-9/22/19,Ruben Cuatrona,120674,9/2/2019 11:25:58 AM,Constance Kittelman,WA,98374,PEGASUS 2 SMART,New Black,New,1,0.00,6400.00,6400.00,Synchrony,,,"5 years parts, 2 years labor ($200)","PEGASUS 2 SMART,",No,9/3/2019 12:00:00 AM,Delivered,New,Deliver Tuesday September 3rd for Birthday Gift,"Auth: 031395
DELIVERY SCHEDULED ON 9/3- yoko 9/2/19
Originals verified - Cristina 09/03/19 3:26 pm

Received the delivery confirmation and signed sales draft. 9/4/19 Riho",WA,1,9.90,PEGS-2PEGS-2-BL,6400.00,,,6501723375302179,80485131,Huston,36 months,Driver’s License,WA,11/2021,0.00,,,,,,,,,/,0.00,,,,,,,,,/,Constance,Kittelman,defaultmail@daiwamassage.com,,16911 134th Ave Ct East,,,Puyallup,WA,98374,United States,253-278-0429
Washington State Fair 8/30-9/22/19,Washington State Fair 8/30-9/22/19,Rolly San Jose,120677,9/2/2019 11:34:55 AM,James Jr,WA,00000,Legacy 4,New Choco,New,1,0.00,4500.00,4500.00,Credit Card,,,"5 years parts, 1 year labor (Free)","Legacy 4,",No,,Cancelled,,,Customer will provide address and make payment via phone call,WA,1,9.90,LGCY-4LGCY-4CH,500.00,,,,,,,,,/,0.00,,,,,,,,,/,0.00,,,,,,,,,/,James,Jr,defaultmail@daiwamassage.com,,N/a,,,N/a,WA,00000,United States,253-208-1775
Washington State Fair 8/30-9/22/19,Washington State Fair 8/30-9/22/19,Kristy Tran,120680,9/2/2019 11:52:45 AM,James Fisher,CA,92846,Relax 2 Zero 3D,New Choco,New,1,0.00,3800.00,3800.00,Credit Card,,,"5 years parts, 1 year labor (Free)","Relax 2 Zero 3D,",No,,Cancelled,,Deposit is Refundable,"#44
9/3Printed.
Kristy emailed to advise that customer had to cancel his chair due to his wife becoming upset; Kristy issued refund- Cristina 09/03/19 3:23 pm",CA,1,9.90,DWA-9060USJ-9060BR,300.00,#CoC9,,,,,,,,/,0.00,,,,,,,,,/,0.00,,,,,,,,,/,James,Fisher,jfisher@jandstalent.com,,10335 Belinda Ct.,,,Garden Grove,CA,92846,United States,310-486-4411
Washington State Fair 8/30-9/22/19,Washington State Fair 8/30-9/22/19,Ruben Cuatrona,120681,9/2/2019 11:56:55 AM,Kathi Keith,WA,98589,PEGASUS 2 SMART,New Choco,New,1,0.00,5700.00,5700.00,Credit Card,,,"5 years parts, 2 years labor ($200)","PEGASUS 2 SMART,",No,,Scheduled,,,"#41
Call First to Deliver
Only Available Mondays and 
Sq payment verified $5,700 - cristina 09/03/19 9:50 pm
9/4/19 12:19 pm Courtesy call. Left VM -Noemi
Delivery scheduled for 9/6/19 10:30am-1pm. Yoko 9/5/19",WA,1,9.90,PEGS-2PEGS-2-BR,5700.00,#X5iq,,,,,,,,/,0.00,,,,,,,,,/,0.00,,,,,,,,,/,Kathi,Keith,kkeith90@yahoo.com,,15420 Tilley Rd S,,,Tenino,WA,98589,United States,360-789-3821
Washington State Fair 8/30-9/22/19,Washington State Fair 8/30-9/22/19,Kristy Tran,120682,9/2/2019 12:04:18 PM,Tammy Taylor,WA,98407,Relax 2 Zero 3D,New Black,New,1,0.00,3800.00,3800.00,Synchrony,,,"5 years parts, 1 year labor (Free)","Relax 2 Zero 3D,",No,,Cancelled,,,"#43
Kristy sent an email advising that the customer checked her finances and she will not be able to move forward with the chair. -Cristina 09/03/19 3:21 pm",WA,1,9.90,DWA-9060USJ-9060BL,0.00,,,6501723375305818,80564387,Huston,36 months,Driver’s License,WA,11/2019,0.00,,,,,,,,,/,0.00,,,,,,,,,/,Tammy,Taylor,tammytaylor68@lcloud.com,,6009 N Park Way,,,Tacoma,WA,98407,United States,253-298-1916
Washington State Fair 8/30-9/22/19,Washington State Fair 8/30-9/22/19,Kristy Tran,120684,9/2/2019 12:38:38 PM,Doug Extine,WA,98371,Legacy 4,New Black,New,1,0.00,4500.00,4500.00,Credit Card,,,"5 years parts, 1 year labor (Free)","Legacy 4,",No,,Cancelled,,,"#20
Out of town sept 17-21
Sq. Deposit confirmed $4500; Please sched before 09/17 or after 09/21-Cristina 09/03/19 4:16 pm
CANCELLED AND RE-ENTERED.  CHAIR NEEDS TO BE CHOCO COLOR.  
NEW ORDER #120790
-Yoko 9/6/19 8:58 pm",WA,1,9.90,LGCY-4LGCY-4BL,4500.00,#MtSe,,,,,,,,/,0.00,,,,,,,,,/,0.00,,,,,,,,,/,Doug,Extine,defaultmail@daiwamassage.com,,8803 64th ave e,,,Puyallup,WA,98371,United States,253-770-8737
Washington State Fair 8/30-9/22/19,Washington State Fair 8/30-9/22/19,Kristy Tran,120685,9/2/2019 12:41:29 PM,Gary K Cowden,WA,98188,Relax 2 Zero 3D,Demo Choco,Demo,1,0.00,4000.00,4000.00,Credit Card,,,"5 years parts, 1 year labor (Free)","Relax 2 Zero 3D,",No,,Scheduled,,,"#35
Verified sq payment $4,000- Cristina 09/03/19 10 am
9/3/19 1:54pm Courtesy call. Left VM -Noemi
9/9/19 Delivery scheduled for 9/12 2pm -4pm - Yoko",WA,1,9.90,DWA-9060USJ-9060BR-DEMO,4000.00,Square #S4Ok,,,,,,,,/,0.00,,,,,,,,,/,0.00,,,,,,,,,/,Gary K,Cowden,defaultmail@daiwamassage.com,,4411 S 176th St,,,Seatac,WA,98188,United States,206-948-0781
Washington State Fair 8/30-9/22/19,Washington State Fair 8/30-9/22/19,Ruben Cuatrona,120687,9/2/2019 2:10:50 PM,David Boyer,WA,98387,PEGASUS 2 SMART,Demo Choco,Demo,1,0.00,6000.00,6000.00,Credit Card,COD,,"5 years parts, 2 years labor ($200)","PEGASUS 2 SMART,",No,,Scheduled,,,"#1
Invoice was re-entered the 3rd time due to error in balance and show info.   (120655) - Yoko 9/2/2019
Delivery scheduled on 9/5/19 1pm -Yoko 9/2
Cristina verified $1k Deposit: Please collect $5,000 COD- 09/03/19 10:35 am",WA,1,9.90,PEGS-2PEGS-2-BR-DEMO,1000.00,#THe6,,,,,,,,/,5000.00,,,,,,,,,/,0.00,,,,,,,,,/,David,Boyer,aes.boyer@gmail.com,Magnum Patio Covers,20210 53rd Ave Ct E,,,Spanaway,WA,98387,United States,253-304-6859
Washington State Fair 8/30-9/22/19,Washington State Fair 8/30-9/22/19,Rolly San Jose,120688,9/2/2019 2:52:57 PM,James M. Way Jr.,WA,98374,Legacy 4,New Choco,New,1,0.00,4500.00,4500.00,Credit Card,Credit Card,,"5 years parts, 1 year labor (Free)","Legacy 4,",No,9/3/2019 12:00:00 AM,Delivered,New,,"Re-entered info with address on new order.
Chair paid in full by Alice Way Square #oGpX - Yoko 9/2/19 7:38pm
Scheduled for 9/3 after 3pm - Yoko 9/2/2019
cristina verified 09/03/19

Received and confirmed the delivery confirmation. 9/4/19 Riho",WA,1,9.90,LGCY-4LGCY-4CH,500.00,#6tsv,,,,,,,,/,4000.00,#oGpX,,,,,,,,/,0.00,,,,,,,,,/,James M.,Way Jr.,defaultmail@daiwamassage.com,,11019 147th St E,,,Puyallup,WA,98374,United States,253-208-1775
Washington State Fair 8/30-9/22/19,Washington State Fair 8/30-9/22/19,Neneth Finley,120695,9/2/2019 8:49:26 PM,Emigdio Abarquez,WA,98366,Legacy 4,New Black,New,1,0.00,4500.00,4500.00,Synchrony,,,"5 years parts, 1 year labor (Free)","Legacy 4,",No,,Scheduled,,,"#45
Originals verified ; available credit $9k ; Please charge $4,500 and have the synchrony sales draft signed- Cristina 09/04/19 9:25 am
9/4/19 12:22 pm Courtesy call. Left VM -Noemi
Synchrony Authorization: 005224
Delivery scheduled 9/7/19- Yoko",WA,1,9.90,LGCY-4LGCY-4BL,4500.00,,,6501723375306741,80580429,Huston,48 months,Driver’s License,WA,12/2021,0.00,,,,,,,,,/,0.00,,,,,,,,,/,Emigdio,Abarquez,defaultmail@daiwamassage.com,,4229 Harris rd se,,,Port orchard,WA,98366,United States,360-990-7747
Washington State Fair 8/30-9/22/19,Washington State Fair 8/30-9/22/19,Neneth Finley,120696,9/2/2019 8:52:33 PM,Herminiano Vallejo,WA,98366,Legacy 4,New Choco,New,1,0.00,4500.00,4500.00,Synchrony,,,"5 years parts, 1 year labor (Free)","Legacy 4,",No,,Scheduled,,,"#46
Originals verified; available credit $ 6,800; please charge $4,500 and have the sales draft signed - Cristina 09/04/19 9:49 am
9/4/19 12:29 pm Courtesy call. Left VM -Noemi
Scheduled 9/7/19 10am-12pm- Yoko
Synchrony Authorization: 005224",WA,1,9.90,LGCY-4LGCY-4CH,4500.00,,,6501723375306808,80581327,Huston,48 months,Driver’s License,WA,09/2022,0.00,,,,,,,,,/,0.00,,,,,,,,,/,Herminiano,Vallejo,defaultmail@daiwamassage.com,,4109 Harris Rd. SE,,,Port Orchard,WA,98366,United States,808-429-9342
Washington State Fair 8/30-9/22/19,Washington State Fair 8/30-9/22/19,Robert Shih,120697,9/2/2019 8:55:21 PM,Zheng Du,WA,98040,Legacy 4,Demo Choco,Demo,1,0.00,4200.00,4200.00,Credit Card,,,"5 years parts, 1 year labor (Free)","Legacy 4,",No,,Scheduled,,,"#47
Verified Sq payment $4,200 - Cristina 09/03/19 9:45 pm
9/4/19 12:32 pm Courtesy call. Spoke with customer -Noemi
Delivery Scheduled 9/14/19 1pm-3pm - Yoko 9/7/19",WA,1,9.90,LGCY-4LGCY-4CH-DEMO,4200.00,1Ro5,,,,,,,,/,0.00,,,,,,,,,/,0.00,,,,,,,,,/,Zheng,Du,defaultmail@daiwamassage.com,,4338 w Mercer way,,,Mercer island,WA,98040,United States,408-569-9205
Washington State Fair 8/30-9/22/19,Washington State Fair 8/30-9/22/19,Ruben Cuatrona,120698,9/2/2019 8:57:46 PM,Mel Ceccanti,WA,98375,PEGASUS 2 SMART,Demo Choco,Demo,1,0.00,5700.00,5700.00,Credit Card,,,"5 years parts, 2 years labor ($200)","PEGASUS 2 SMART,",No,,Scheduled,,,"#48
PAID IN FULL
Square payment verified $5,700 - Cristina 09/03/19 9:42 pm
9/4/19 12:34 pm Courtesy call. Left VM -Noemi
Delivery scheduled for 9/9 10am-12pm - Yoko 9/7/19",WA,1,9.90,PEGS-2PEGS-2-BR-DEMO,5700.00,#HAL4,,,,,,,,/,0.00,,,,,,,,,/,0.00,,,,,,,,,/,Mel,Ceccanti,defaultmail@daiwamassage.com,,9405 161st St. Ct. E,,,Puyallup,WA,98375,United States,253-651-9026
Washington State Fair 8/30-9/22/19,Washington State Fair 8/30-9/22/19,Neneth Finley,120699,9/2/2019 9:03:49 PM,Lorena Snider,WA,98370,Legacy 4,New Choco,New,1,0.00,4500.00,4500.00,Synchrony,,,"5 years parts, 1 year labor (Free)","Legacy 4,",No,,Scheduled,,,"#50
Originals verified; available credit $9k; please charge $4,500 an have the synchrony sales draft signed-Cristina 09/04/19 10 am
9/4/19 12:37 pm Courtesy call. Left VM -Noemi
Scheduled 9/10 2pm to 4pm - Yoko 9/7/19
Synchrony Authorization Code 008227 - Yoko 9/8/19",WA,1,9.90,LGCY-4LGCY-4CH,4500.00,,,6501723375307715,80599168,Huston,48 months,Driver’s License,WA,05/2022,0.00,,,,,,,,,/,0.00,,,,,,,,,/,Lorena,Snider,defaultmail@daiwamassage.com,,21722 Windmill Loop NW,,,Poulsbo,WA,98370,United States,360-813-4850
Washington State Fair 8/30-9/22/19,Washington State Fair 8/30-9/22/19,Tom Nguyen,120701,9/2/2019 9:13:18 PM,Jeff Brony,CA,92307,Legacy 4,Demo Choco,Demo,1,0.00,4200.00,4200.00,Credit Card,,,"5 years parts, 1 year labor (Free)","Legacy 4,",No,,Scheduled,,,"Cash on Delivery
Original received. SQ amount verified $700. Remaining balance $3500. Collect COD (cash) @ delivery-Erika 9/3/19 3:33pm
9/3Printed.
scheduled 9/11 10:30-12:30",CA,1,9.90,LGCY-4LGCY-4CH-DEMO,700.00,#Wjb1,,,,,,,,/,0.00,,,,,,,,,/,0.00,,,,,,,,,/,Jeff,Brony,brunybunch@gmail.com,,18485 Menakha Ct.,,,Apple Valley,CA,92307,United States,760-403-5116
Washington State Fair 8/30-9/22/19,Washington State Fair 8/30-9/22/19,Tom Nguyen,120702,9/2/2019 9:16:13 PM,Winnie Liang,WA,98371,Relax 2 Zero 3D,Demo Black,Demo,1,0.00,3800.00,3800.00,Cash,COD,,"5 years parts, 1 year labor (Free)","Relax 2 Zero 3D,",No,,Scheduled,,,"#57
Pick up old chair
$200 cash was collected by Scott; Please collect $3600 COD- Cristina 09/03/19 9:37 pm
9/4/19 12:48 pm Courtesy call. Left VM -Noemi
Scheduled 9/9/19 10am-1pm - Yoko 9/8/19",WA,1,9.90,DWA-9060USJ-9060BL-DEMO,200.00,,,,,,,,,/,3600.00,,,,,,,,,/,0.00,,,,,,,,,/,Winnie,Liang,defaultmail@daiwamassage.com,,1621 5th St SW,,,Puyallup,WA,98371,United States,208-389-8229
Washington State Fair 8/30-9/22/19,Washington State Fair 8/30-9/22/19,Anderson Carvalho,120703,9/2/2019 9:16:35 PM,Polley F Fields,WA,98391,Legacy 4,New Choco,New,1,0.00,4900.00,4900.00,Synchrony,,,"5 years parts, 1 year labor (Free)","Legacy 4,",No,,Cancelled,,,"Correct Name: Polly
Originals verified; available credit $9K; please charge $4,900 and have the sales draft signed- cristina- 09/04/19

Not dispatched need to check  what chair was sold.",WA,1,9.90,LGCY-4LGCY-4CH,0.00,,,6501723375308234,80607349,,48 months,Driver’s License,WA,08/2022,0.00,,,,,,,,,/,0.00,,,,,,,,,/,Polley F,Fields,pffields9406@gamil.com,,9406 181st Ave E,,,Bonney lake,WA,98391,United States,253-561-5841
Washington State Fair 8/30-9/22/19,Washington State Fair 8/30-9/22/19,Scott Ishikawa,120704,9/2/2019 9:17:43 PM,Wilhelmina O. Amlag,WA,98311,Legacy 4,New Choco,New,1,0.00,4500.00,4500.00,Synchrony,,,"5 years parts, 1 year labor (Free)","Legacy 4,",No,,Scheduled,,Synchrony 36 months 0% APR.,"#54
Originals verified; available  credit $9k ; please charge $4,500 and have sales draft signed / courtesy call completed #0055- Cristina 09/04/19 1:272 pm
9/11/19 Confirmed delivery schedule - Hideo",WA,1,9.90,LGCY-4LGCY-4CH,4500.00,,,6501723375308408,80610489,Huston,36 months,Driver’s License,WA,06/2020,0.00,,,,,,,,,/,0.00,,,,,,,,,/,Wilhelmina O.,Amlag,defaultmail@daiwamassage.com,,5400 Pineridge Pl NE,,,Bremerton,WA,98311,United States,425-412-0055
Washington State Fair 8/30-9/22/19,Washington State Fair 8/30-9/22/19,Anderson Carvalho,120705,9/2/2019 9:18:16 PM,David Cooper   (III),WA,98002,Relax 2 Zero 3D,New Black,New,1,485.10,4900.00,5385.10,Synchrony,,,"5 years parts, 1 year labor (Free)","Relax 2 Zero 3D,",No,,Cancelled,,,"Full name (David Julian cooper ||| )
Originals verified;  available credit $6,500 please charge $4,900 and have the sales draft signed- Cristina 09/04/19 10:06 am
Courtesy call completed #5090- Cristina 09/04/19 1:21pm",WA,0,9.90,DWA-9060USJ-9060BL,4900.00,,,6501723375307947,80602961,Huston,48 months,Driver’s License,WA,09/2020,0.00,,,,,,,,,/,0.00,,,,,,,,,/,David,Cooper   (III),defaultmail@daiwamassage.com,,603 24th st se,,,Auburn,WA,98002,United States,253-561-5090
Washington State Fair 8/30-9/22/19,Washington State Fair 8/30-9/22/19,Scott Ishikawa,120706,9/2/2019 9:21:05 PM,Mark Chua,WA,98092,Relax 2 Zero 3D,New Choco,New,1,0.00,4500.00,4500.00,Synchrony,,,"5 years parts, 1 year labor (Free)","Relax 2 Zero 3D,",No,,Scheduled,,,"#58
Originals verified; available credit $7k; please charge $4,500 and have the sales draft signed- Cristina 09/04/19 1:05 pm
cc completed-erika 9/5/19 11:20am
Scheduled 9/11 1pm-3pm - Yoko 9/6/19
Synchrony Authorization Code 006421",WA,1,9.90,DWA-9060USJ-9060BR,4500.00,,,6501723375308606,80616634,Huston,36 months,Driver’s License,WA,08/2023,0.00,,,,,,,,,/,0.00,,,,,,,,,/,Mark,Chua,markchua86@gmail.com,,31128 122nd Ln. SE,,,Auburn,WA,98092,United States,505-358-1147
Washington State Fair 8/30-9/22/19,Washington State Fair 8/30-9/22/19,Anderson Carvalho,120707,9/2/2019 9:24:01 PM,Douglas Palmer,WA,98524,Relax 2 Zero 3D,New Choco,New,1,485.10,4900.00,5385.10,Synchrony,Purchase Order,,"5 years parts, 1 year labor (Free)","Relax 2 Zero 3D,",No,,Scheduled,,,"#55
Originals verified; available credit $9k ; Please charge $4,900 please have synchrony sales draft signed- Cristina 09/04/19 12:29 pm
9/4/19 12:52 pm Courtesy call. Left VM -Noemi
9/11/19 Confirmed delivery schedule. - Donald",WA,0,9.90,DWA-9060USJ-9060BR,4900.00,,,6501723375308390,80610286,Huston,48 months,Driver’s License,WA,12/2021,485.10,,TAX WAIVED SCOTT APPROVED,,,,,,,/,0.00,,,,,,,,,/,Douglas,Palmer,dpdunrite@gmail.com,,91 e Lakeland way,,,Allyn Washington,WA,98524,United States,253-377-8276
Washington State Fair 8/30-9/22/19,Washington State Fair 8/30-9/22/19,Neneth Finley,120708,9/2/2019 9:30:30 PM,Larry strong,WA,98022,Relax 2 Zero 3D,New Choco,New,1,0.00,4500.00,4500.00,Credit Card,,,"5 years parts, 1 year labor (Free)","Relax 2 Zero 3D,",No,,Scheduled,,,"#59
Square payment verified $4,500 - Cristina 09/03/19 9:30 pm
9/4/19 12:54 pm Courtesy call. Spoke with Mrs. Strong -Noemi
Scheduled for 9/10/19 10am- 12pm.   - Yoko 9/7/19
Larry's phone number: 206-795-0797 
Kathy (wife): Home phone number listed.",WA,1,9.90,DWA-9060USJ-9060BR,4500.00,X5ak,,,,,,,,/,0.00,,,,,,,,,/,0.00,,,,,,,,,/,Larry,strong,LKstrong@comcast.net,,24624 SE 390TH ST,,,enumdclaw,WA,98022,United States,253-740-0308
Washington State Fair 8/30-9/22/19,Washington State Fair 8/30-9/22/19,Anderson Carvalho,120758,9/5/2019 9:05:19 AM,Shaun Neil,WA,99205,Relax 2 Zero 3D,New Choco,New,1,0.00,4900.00,4900.00,Synchrony,,,"5 years parts, 1 year labor (Free)","Relax 2 Zero 3D,",No,,Printed,,,"#37
Originals Verified; available credit  $7K ; Please charge $4,900 and have the synchrony form signed ;
Courtesy call completed #2756 - Cristina 09/05/19 9:17am",WA,1,9.90,DWA-9060USJ-9060BR,4900.00,,,6501723375304795,80538234,Huston,48 months,Driver’s License,WA,01/2025,0.00,,,,,,,,,/,0.00,,,,,,,,,/,Shaun,Neil,defaultmail@daiwamassage.com,,1407 W. Kiernan Ave.,,,Spokane,WA,99205,United States,253-223-5462
Washington State Fair 8/30-9/22/19,Washington State Fair 8/30-9/22/19,Anderson Carvalho,120760,9/5/2019 9:15:12 AM,Polly Fields,WA,98391,Relax 2 Zero 3D,New Choco,New,1,0.00,4900.00,4900.00,Synchrony,,,"5 years parts, 1 year labor (Free)","Relax 2 Zero 3D,",No,,Scheduled,,,"#53
Originals verified; available credit $9K ; please charge $4,900 and have the synchrony sales draft signed- Cristina 09/05/19 9:19 am
cc completed-Erika 9/5/19 11:26am
Scheduled on 9/13 1:00-3:00pm - Yoko
Synchrony Authorization #009272 - Hideo",WA,1,9.90,DWA-9060USJ-9060BR,4900.00,,,6501723375308234,80607249,Huston,48 months,Driver’s License,WA,08/2022,0.00,,,,,,,,,/,0.00,,,,,,,,,/,Polly,Fields,defaultmail@daiwamassage.com,,9406 181 St. Ave E,,,Bonney Lake,WA,98391,United States,2538622163111
Washington State Fair 8/30-9/22/19,Washington State Fair 8/30-9/22/19,Scott Ishikawa,120763,9/5/2019 11:04:32 AM,Karl Schaefer,WA,98532,Hubble,Demo Choco,Demo,1,0.00,5220.00,5220.00,Synchrony,,,"5 years parts, 1 year labor (Free)","Hubble,",No,,Printed,,,"#36
originals Verified; available credit; please charge $5,220 and have the synchrony sales draft signed; order re-entered to correct amount due- cristina 09/03/19
9/4/19 11:28 am Courtesy call. Left VM -Noemi",WA,1,9.90,HUBL-1HUBL-1CH-DEMO,5220.00,,,6501723375304720,80537769,Huston,36 months,Driver’s License,WA,04/2023,0.00,,,,,,,,,/,0.00,,,,,,,,,/,Karl,Schaefer,defaultmail@daiwamassage.com,,4165 Jackson Hwy 1,,,Ohehails,WA,98532,United States,360-269-9497
Washington State Fair 8/30-9/22/19,Washington State Fair 8/30-9/22/19,Ruben Cuatrona,120764,9/5/2019 11:25:30 AM,Leon Bromley,WA,98520,Hubble,Demo Black,Demo,1,0.00,5232.00,5232.00,Synchrony,,,"5 years parts, 1 year labor (Free)","Hubble,",No,,Scheduled,,,"#38
Originals verified; available credit $7,800; Please charge $5,232 and have the synchrony sales draft signed- Cristina 09/04/19 9:12 am
9/4/19 11:43 am Courtesy call. Left VM on phone# 2063100141 -Noemi
9/10/19 Delivery scheduled for 9/12 (Thurs.) Call GF upon delivery - Hideo",WA,1,9.90,HUBL-1HUBL-1BL-DEMO,5232.00,,,6501723375304829,80538581,Huston,48 months,Driver’s License,WA,07/2024,0.00,,,,,,,,,/,0.00,,,,,,,,,/,Leon,Bromley,defaultmail@daiwamassage.com,,705 Reynaan Dr.,,,Aberdeen,WA,98520,United States,206-310-0141
Washington State Fair 8/30-9/22/19,Washington State Fair 8/30-9/22/19,Anderson Carvalho,120766,9/5/2019 12:44:21 PM,David J. Cooper III,CA,98002,Relax 2 Zero 3D,New Black,New,1,0.00,4900.00,4900.00,Synchrony,,,"5 years parts, 1 year labor (Free)","Relax 2 Zero 3D,",No,,Printed,,,"#52
Full name (David Julian cooper ||| )
Originals verified;  available credit $6,500 please charge $4,900 and have the sales draft signed- Cristina 09/04/19 10:06 am
Courtesy call completed #5090- Cristina 09/04/19 1:21pm",WA,1,9.90,DWA-9060USJ-9060BL,4900.00,,,6501723375307949,80602961,Huston,48 months,Driver’s License,WA,09/2020,0.00,,,,,,,,,/,0.00,,,,,,,,,/,David J.,Cooper III,defaultmail@daiwamassage.com,,603 24th St. SE,,,Auburn,CA,98002,United States,253-561-5090
Washington State Fair 8/30-9/22/19,Washington State Fair 8/30-9/22/19,Neneth Finley,120769,9/5/2019 3:29:12 PM,Janet Roslie,WA,98373,Relax 2 Zero 3D,Demo Choco,Demo,1,0.00,3900.00,3900.00,Synchrony,,,"5 years parts, 1 year labor (Free)","Relax 2 Zero 3D,",No,,Scheduled,,,"#60
Relax 3D Chocolate demo
Originals Verified ; available credit $9k ; Please charge $3,900 hand have the sales draft signed
(Courtesy call completed #8421 - Cristina 09/06/19 10:46 am
Delivery scheduled 9/9 1pm-3pm - Yoko 9/7/19
Synchrony Authorization Code 008862 - yoko 9/8/17",WA,1,9.90,DWA-9060USJ-9060BR-DEMO,3900.00,,,6501723375311907,80744686,Huston,48 months,Driver’s License,WA,02/2023,0.00,,,,,,,,,/,0.00,,,,,,,,,/,Janet,Roslie,jroslie@gmail.com,,11420 88th Ave E,,,Puyallup,WA,98373,United States,760-500-8421
Washington State Fair 8/30-9/22/19,Washington State Fair 8/30-9/22/19,Joy Anne Torres,120770,9/5/2019 3:36:04 PM,Robert Carney,WA,98391,Legacy 4,New Choco,New,1,0.00,4900.00,4900.00,Synchrony,,,"5 years parts, 1 year labor (Free)","Legacy 4,",No,,Printed,,,"#61
Legacy 4 new choco
Originals verified; available credit $7,200; Please charge $4,900 and have the synchrony sales draft signed (Courtesy call completed #3072)- Cristina 09/06/19 10:48 am
9/9/19 17:21 Left VM for scheduling - Hideo",WA,1,9.90,LGCY-4LGCY-4CH,4900.00,,,6501723375311949,80746022,Huston,48 months,Driver’s License,WA,10/2022,0.00,,,,,,,,,/,0.00,,,,,,,,,/,Robert,Carney,joshjoaquinm@gmail.com,,12913 213th Ave Ct E,,,Bonney Lake,WA,98391,United States,253-736-4231
Washington State Fair 8/30-9/22/19,Washington State Fair 8/30-9/22/19,Rolly San Jose,120771,9/5/2019 4:22:19 PM,Mike Burgess,WA,98520,Legacy 4,New Choco,New,1,0.00,3850.00,3850.00,Credit Card,,,"5 years parts, 1 year labor (Free)","Legacy 4,",No,,Scheduled,,,"#62
Legacy 4 choco new. Please deliver on or before September 30 for couple is leaving on October 2.
Sq Total amount verified $3,850 
(Courtesy call attempted # 0189; Background noise only, No VM) -Cristina 09/06/19 10:51 am
Delivery scheduled on 9/12 11am-2pm - Yoko 9/9/19",WA,1,9.90,LGCY-4LGCY-4CH,3850.00,sQ#WUSn,,,,,,,,/,0.00,,,,,,,,,/,0.00,,,,,,,,,/,Mike,Burgess,blizzard@techline.com,,1701 Graves Ave,,,Aberdeen,WA,98520,United States,360-580-0189
Washington State Fair 8/30-9/22/19,Washington State Fair 8/30-9/22/19,Rodrigo Malabunga,120775,9/5/2019 6:11:17 PM,Michael Davin,WA,98023,Legacy 4,New Choco,New,1,0.00,4200.00,4200.00,Credit Card,,,"5 years parts, 1 year labor (Free)","Legacy 4,",No,,Scheduled,,,"#63
Legacy 4 new choco
Sq amount Verified $4,200
(Courtesy call completed #4835) - Cristina 09/06/19 10:53 am
Scheduled for 9/10 10am to 12pm - Yoko 9/8/19",WA,1,9.90,LGCY-4LGCY-4CH,4200.00,SQ#NT2C,,,,,,,,/,0.00,,,,,,,,,/,0.00,,,,,,,,,/,Michael,Davin,amicdav@gmail.com,,30313 17th Ave SW,,,Federal Way,WA,98023,United States,425-737-4835
Washington State Fair 8/30-9/22/19,Washington State Fair 8/30-9/22/19,Anderson Carvalho,120776,9/5/2019 7:31:58 PM,Lisa Carter,WA,98108,PEGASUS 2 SMART,Demo Black,Demo,1,0.00,5500.00,5500.00,Credit Card,,,"5 years parts, 1 year labor (Free)","PEGASUS 2 SMART,",No,,Scheduled,,,"#27
Sq payment verified  $5,500
9/10/19 Confirmed delivery schedule - Donald",WA,1,9.90,PEGS-2PEGS-2-BL-DEMO,5500.00,Square #TbYE,,,,,,,,/,0.00,,,,,,,,,/,0.00,,,,,,,,,/,Lisa,Carter,defaultmail@daiwamassage.com,,6705 Flora Ave S,,,Seattle,WA,98108,United States,206-595-6702
Washington State Fair 8/30-9/22/19,Washington State Fair 8/30-9/22/19,Robert Shih,120777,9/6/2019 9:36:14 AM,Kerry Wallingford,WA,98166,Legacy 4,New Black,New,1,0.00,4615.80,4615.80,Synchrony,,,"5 years parts, 1 year labor (Free)","Legacy 4,",No,,Printed,,,"#49
Originals verified; available credit  $9k ; please charge $4,615.80 and have the synchrony sales draft signed-Cristina 09/04/19 9:57 am
9/4/19 12:40 pm Courtesy call. Left VM -Noemi
Order re entered previous order # 120700",WA,1,9.90,LGCY-4LGCY-4BL,4615.80,,,6501723375307152,80589988,Huston,36 months,Driver’s License,WA,12/2025,0.00,,,,,,,,,/,0.00,,,,,,,,,/,Kerry,Wallingford,defaultmail@daiwamassage.com,,236 SW 171 St.,,,Normandy Park,WA,98166,United States,206-242-7954
Washington State Fair 8/30-9/22/19,Washington State Fair 8/30-9/22/19,Robert Shih,120782,9/6/2019 3:23:14 PM,James Jr Henry,WA,98392,Legacy 4,New Choco,New,1,0.00,4200.00,4200.00,Credit Card,COD,,"5 years parts, 1 year labor (Free)","Legacy 4,",No,,Scheduled,,,"Legacy 4 new choco. COD balance of 3900
#65 Original received. SQ amount verified $300. Remaining balance $3900. Collect COD @ delivery-Erika 9/9/19 10:45am.  A courtesy call is done by Scott 3:15pm 9/9/2019.
9/11/19 Delivery schedule confirmed. Will be paying remaining balance in full with chashier's check. - Donald",WA,1,9.90,LGCY-4LGCY-4CH,300.00,SQ#A8yJ,,,,,,,,/,3900.00,,,,,,,,,/,0.00,,,,,,,,,/,James Jr,Henry,nsigo50@hotmail.com,,6921 NE Center St,,,Suquamish,WA,98392,United States,360-265-9675
Washington State Fair 8/30-9/22/19,Washington State Fair 8/30-9/22/19,Winston Melgar,120783,9/6/2019 3:35:03 PM,Karen Arlt,WA,98022,PEGASUS 2 SMART,New Choco,New,1,0.00,6000.00,6000.00,Credit Card,,,"5 years parts, 1 year labor (Free)","PEGASUS 2 SMART,",No,,Scheduled,,,"#66 Original received. SQ amount verified $6000. Paid in full-Erika 9/9/19 10:48am
Pegasus Smart 2 new brown to be delivered on Tuesday September 10,2019
Delivery Scheduled on 9/10/19 10am-12pm - Yoko 9/7/19",WA,1,9.90,PEGS-2PEGS-2-BR,6000.00,SQ#G9Uq,,,,,,,,/,0.00,,,,,,,,,/,0.00,,,,,,,,,/,Karen,Arlt,karen@karenarlt.com,,43424 244th Ave SE,,,Enumclaw,WA,98022,United States,253-332-0865
Washington State Fair 8/30-9/22/19,Washington State Fair 8/30-9/22/19,Rodrigo Malabunga,120784,9/6/2019 4:30:15 PM,Clarence Ching,HI,96816,PEGASUS 2 SMART,New Choco,New,1,0.00,6200.00,6200.00,Credit Card,,,"5 years parts, 3 years labor ($400)","PEGASUS 2 SMART,",No,,Cancelled,,,"Pegasus smart 2.0 new choco. Returning customer and purchased this 2nd chair. To be delivered on November 2,2019.",Not Dispatched,1,9.90,PEGS-2PEGS-2-BR,6200.00,SQ#4Czj,,,,,,,,/,0.00,,,,,,,,,/,0.00,,,,,,,,,/,Clarence,Ching,chingcjd@gmail.com,,1871 Palolo Ave,,,Honolulu,HI,96816,United States,360-265-6671
Washington State Fair 8/30-9/22/19,Washington State Fair 8/30-9/22/19,Rolly San Jose,120785,9/6/2019 4:56:51 PM,Katherine Mangrubang,WA,98008,Legacy 4,New Black,New,1,0.00,4200.00,4200.00,Synchrony,,,"5 years parts, 1 year labor (Free)","Legacy 4,",No,,Printed,,,"Legacy 4 New black synchrony 36 mos. purchased chair 5 yrs ago and this is the 2nd chair. To be delivered on the week of October 21,2019
#68 Synchrony original verified. Credit available $7000. Remaining balance $4200. Charge synchrony account upon delivery, have sales draft signed-Per sales rep rq deliver week of Oct 21, 2019 Erika 9/9/19 10:52am.  Courtesy by Scott 9/9/19 3:30pm.  Will call in if she wants it earlier than the 21st of Oct.",WA,1,9.90,LGCY-4LGCY-4BL,4200.00,,,6501723375313200,80797292,San Diego,36 months,Driver’s License,WA,06/2023,0.00,,,,,,,,,/,0.00,,,,,,,,,/,Katherine,Mangrubang,scubakathy@comcast.net,,2948 161st Ave SE,,,Bellevue,WA,98008,United States,425-221-2145
Washington State Fair 8/30-9/22/19,Washington State Fair 8/30-9/22/19,Anderson Carvalho,120786,9/6/2019 5:03:34 PM,Keith Herion,WA,98092,Relax 2 Zero 3D,Demo Black,Demo,1,0.00,4200.00,4200.00,Synchrony,,,"5 years parts, 1 year labor (Free)","Relax 2 Zero 3D,",No,,Scheduled,,,"#69 Synchrony account verified. Credit available $6800. Remaining balance $4200. Charge synchrony account upon delivery, have sales draft signed-Erika 9/9/19 10:57am
9/9/2019 Left VM for scheduling @ 3:49 PM - Hideo
9/10/19 Confirmed Delivery Schedule. -Hideo",WA,1,9.90,DWA-9060USJ-9060BL-DEMO,4200.00,,,6501723375313317,80799156,San Diego,48 months,Driver’s License,WA,10/2020,0.00,,,,,,,,,/,0.00,,,,,,,,,/,Keith,Herion,kherio@live.com,,11108 SE 316th Pl,,,Auburn,WA,98092,United States,253-486-2223
Washington State Fair 8/30-9/22/19,Washington State Fair 8/30-9/22/19,Kristy Tran,120790,9/6/2019 8:51:32 PM,Doug Extine,WA,98371,Legacy,New Choco,New,1,0.00,4500.00,4500.00,Credit Card,,,"5 years parts, 1 year labor (Free)","Legacy,Tourmaline Pad for Legacy,",No,,Scheduled,,,"PREVIOUS ORDER 120684 INPUT ERROR.  
Delivered Black chair but customer wanted Chocolate.  
Re-entered information. 
Sq. Deposit confirmed $4500; Please sched before 09/17 or after 09/21-Cristina 09/03/19 4:16 pm
Redelivery scheduled on 9/9/19 9am-12pm - Yoko 9/6/19",WA,1,9.90,DWA-9100DWA-9100BU,4500.00,#MtSe,,,,,,,,/,0.00,,,,,,,,,/,0.00,,,,,,,,,/,Doug,Extine,defaultmail@daiwamassage.com,,8803 64TH AVE E,,,PUYALLUP,WA,98371,United States,253-770-8737
Washington State Fair 8/30-9/22/19,Washington State Fair 8/30-9/22/19,Ruben Cuatrona,120791,9/6/2019 9:21:37 PM,Robert Johnson,WA,98338,PEGASUS 2 SMART,New Choco,New,1,0.00,5000.00,5000.00,Synchrony,,,"5 years parts, 1 year labor (Free)","PEGASUS 2 SMART,",No,,Printed,,,"#71 Synchrony original verified. Credit available $6800. Remaining balance $5000. Charge synchrony account upon delivery, have sales draft signed-Erika 9/9/19 11:00am",WA,1,9.90,PEGS-2PEGS-2-BR,5000.00,,,6501723375313531,80805707,San Diego,36 months,Driver’s License,WA,01/2022,0.00,,,,,,,,,/,0.00,,,,,,,,,/,Robert,Johnson,rrforever99@msn.com,,20806 111th Ave E,,,Graham,WA,98338,United States,503-851-5793
Washington State Fair 8/30-9/22/19,Washington State Fair 8/30-9/22/19,Rodrigo Malabunga,120794,9/7/2019 1:33:07 PM,Clarence Ching,HI,96816,PEGASUS 2 SMART,New Black,New,1,0.00,6200.00,6200.00,Credit Card,,,"5 years parts, 3 years labor ($400)","PEGASUS 2 SMART,",No,,Assigned,,,"#67
Pegasus Smart 2 New black. To be delivered on November 2,2019 (2nd chair purchased)
Original received. SQ amount verified $6200. Paid in full-Erika 9/9/19 2:10pm",HI,1,9.90,PEGS-2PEGS-2-BL,6200.00,SQ#4Czj,,,,,,,,/,0.00,,,,,,,,,/,0.00,,,,,,,,,/,Clarence,Ching,chingcjd@gmail.com,,1871 Palolo Ave,,,Honolulu,HI,96816,United States,360-265-6671
Washington State Fair 8/30-9/22/19,Washington State Fair 8/30-9/22/19,Robert Shih,120795,9/7/2019 1:43:53 PM,Karin Grady,WA,98372,Relax 2 Zero 3D,Demo Choco,Demo,1,0.00,4396.00,4396.00,Synchrony,,,"5 years parts, 1 year labor (Free)","Relax 2 Zero 3D,",No,,Printed,,,"Relax 2.0 3D demo choco. Synchrony 36 mos. second floor delivery
#72 Synchrony original verified. Credit available $6500. Remaining balance $4396. Charge synchrony account upon delivery, have sales draft signed-Erika 9/9/19 11:03am
9/9/2019 3:33 Left VM for scheduling - Hideo",WA,1,9.90,DWA-9060USJ-9060BR-DEMO,4396.00,,,6501723375314273,80828289,San Diego,36 months,Driver’s License,WA,11/2021,0.00,,,,,,,,,/,0.00,,,,,,,,,/,Karin,Grady,gradykarin@ymail.com,,11025 5th St Ct E,,,Edgewood,WA,98372,United States,253-315-1571
Washington State Fair 8/30-9/22/19,Washington State Fair 8/30-9/22/19,Querubin Milanes,120796,9/7/2019 5:55:13 PM,Dan Winters,WA,98188,Legacy 4,New Choco,New,1,0.00,4500.00,4500.00,Synchrony,,,"5 years parts, 1 year labor (Free)","Legacy 4,",No,,Scheduled,,,"Legacy 4 new choco synchrony 36 mos
#73 Synchrony original verified. Credit available $9000. Remaining balance $4500. Charge synchrony account upon delivery, have sales draft signed-Erika 9/9/19 11;05am
9/10/19 Delivery schedule confirmed - hideo",WA,1,9.90,LGCY-4LGCY-4CH,4500.00,,,6501723375314513,80831585,San Diego,36 months,Driver’s License,WA,12/2022,0.00,,,,,,,,,/,0.00,,,,,,,,,/,Dan,Winters,marikow2@gmail.com,,17604 41st Ave S,,,Seatac,WA,98188,United States,206-852-1127
Washington State Fair 8/30-9/22/19,Washington State Fair 8/30-9/22/19,Ruben Cuatrona,120797,9/7/2019 6:07:18 PM,Aileen Anslay,WA,98520,PEGASUS 2 SMART,Demo Choco,Demo,1,0.00,6000.00,6000.00,Synchrony,,,"5 years parts, 1 year labor (Free)","PEGASUS 2 SMART,",No,,Printed,,,"Pegasus smart 2.0 choco demo 36 mossynchrony
#74 Synchrony account verified. Credit available $8300. Remaining balance $6000. Charge synchrony account upon delivery have sales draft signed-Erika 9/9/19 11:08am
Zip code correction 98503",WA,1,9.90,PEGS-2PEGS-2-BR-DEMO,6000.00,,,6501723375314661,80835097,San Diego,36 months,Driver’s License,WA,09/2021,0.00,,,,,,,,,/,0.00,,,,,,,,,/,Aileen,Anslay,aileenanslay71@gmail.com,,1203 E Carson Ln,,E 203,Lacey,WA,98520,United States,360-589-2036
Washington State Fair 8/30-9/22/19,Washington State Fair 8/30-9/22/19,Neneth Finley,120799,9/7/2019 7:27:34 PM,Sherry Rivera,WA,98375,Relax 2 Zero 3D,New Choco,New,1,0.00,4500.00,4500.00,Synchrony,,,"5 years parts, 1 year labor (Free)","Relax 2 Zero 3D,",No,,Printed,,,"Relax 3D choco new synchrony 48 mos
#75 Synchrony original verified. Credit available $6500. Remaining balance $4500. Charge synchrony account upon delivery, have sales draft signed-Erika 9/9/19",WA,1,9.90,DWA-9060USJ-9060BR,4500.00,,,6501723375314711,80836148,San Diego,48 months,Driver’s License,WA,12/2024,0.00,,,,,,,,,/,0.00,,,,,,,,,/,Sherry,Rivera,sherrygirl64@live.com,,18709 99th Ave Ct E,,,Puyallup,WA,98375,United States,253-678-5805
Washington State Fair 8/30-9/22/19,Washington State Fair 8/30-9/22/19,Robert Shih,120800,9/7/2019 7:42:09 PM,Brooklee Jensen,WA,98541,Relax 2 Zero 3D,Demo Black,Demo,1,0.00,4396.00,4396.00,Synchrony,,,"5 years parts, 1 year labor (Free)","Relax 2 Zero 3D,",No,,Scheduled,,,"Relax 3D black demo synchrony 36 mos. prefers Friday delivery 
#76 Synchrony original verified. Credit available $7000. Remaining balance $4396. Charge synchrony account upon delivery, have sales draft signed-Erika 9/9/19 11:15am
Scheduled 9/14/19 9am-11am -yoko 9/10/19
Authorization Code 010784 - Yoko 9/10/19",WA,1,9.90,DWA-9060USJ-9060BL-DEMO,4396.00,,,6501723375314976,80840795,San Diego,36 months,Driver’s License,WA,10/2023,0.00,,,,,,,,,/,0.00,,,,,,,,,/,Brooklee,Jensen,brookleejensen@gmail.com,,66 Mc Donald Crk,,,Elma,WA,98541,United States,360-464-7047
Washington State Fair 8/30-9/22/19,Washington State Fair 8/30-9/22/19,Robert Shih,120801,9/7/2019 7:55:36 PM,Robin Suther,FL,98375,Legacy 4,New Choco,New,1,0.00,4500.00,4500.00,Synchrony,,,"5 years parts, 1 year labor (Free)","Legacy 4,",No,,Scheduled,,,"#81
16411 87th ave e
Puyallup, WA 98375
Synchrony original verified. Credit available $9000. Remaining balance $4500. Charge synchrony account upon delivery, have sales draft signed-Erika 9/9/19 11:32am
9/10/19 Confirmed delivery schedule - Hideo",WA,1,9.90,LGCY-4LGCY-4CH,4500.00,,,6501723375315536,80851142,San Diego,36 months,Driver’s License,WA,04/2024,0.00,,,,,,,,,/,0.00,,,,,,,,,/,Robin,Suther,broncobuck@comcast.net,,16411 87th ave e,,,Puyallup,FL,98375,United States,253-875-1460
Washington State Fair 8/30-9/22/19,Washington State Fair 8/30-9/22/19,Scott Ishikawa,120802,9/7/2019 8:03:37 PM,Cean Martin,WA,98058,Legacy 4,New Black,New,1,0.00,4900.00,4900.00,Credit Card,Synchrony,COD,"5 years parts, 1 year labor (Free)","Legacy 4,",No,,Printed,,,"#17
Hold for now and wait for the customer’s call. 

Original received, $100 deposit verified. Remaining balance $2400. Collect COD (2400) @ delivery. Synchrony original verified. Credit available $2400. . Charge synchrony (2400) account upon delivery, have sales draft signed. Per sales rep rq, pls place it on hold.-Erika 9/9/19",WA,1,9.90,LGCY-4LGCY-4BL,100.00,SQ#G0j4,,,,,,,,/,2400.00,,,6501723375315072,80841591,San Diego,36 months,Driver’s License,WA,09/2028,2400.00,,,,,,,,,/,Cean,Martin,cean.martin@yahoo.com,,15205 140th Way SE,,,Renton,WA,98058,United States,253-283-7728
Washington State Fair 8/30-9/22/19,Washington State Fair 8/30-9/22/19,Neneth Finley,120803,9/7/2019 8:19:22 PM,Tameka Probst,WA,98433,Relax 2 Zero 3D,Demo Black,Demo,1,0.00,3800.00,3800.00,Synchrony,Synchrony,,"5 years parts, 1 year labor (Free)","Relax 2 Zero 3D,",No,,Printed,,,"Relax 3D black demo synchrony 36 mos. 1st synchrony approved for 2400 and second for 1400 total of 3800
#78 Synchrony original verified. Credit available $2400 for account #5080. Charge synchrony account  (2400) upon delivery, have sales draft signed. Credit available $2200 for account #5247. Charge synchrony account (1400) upon delivery, have sales draft signed-Erika 9/9/19 11:24am",WA,1,9.90,DWA-9060USJ-9060BL-DEMO,2400.00,,,6501723375315080,80842244,San Diego,36 months,Driver’s License,TX,09/2022,1400.00,,,6501723375315247,80843242,San Diego,36 months,Military ID,WA,04/2022,0.00,,,,,,,,,/,Tameka,Probst,tm.quiles@hotmail.com,,6023 A Garcia Blvd,,,JBLM,WA,98433,United States,337-353-2398
Washington State Fair 8/30-9/22/19,Washington State Fair 8/30-9/22/19,Joy Anne Torres,120804,9/7/2019 8:32:05 PM,Christopher Rubin,WA,98597,Legacy 4,New Choco,New,1,0.00,4000.00,4000.00,Credit Card,,,"5 years parts, 1 year labor (Free)","Legacy 4,",No,,Printed,,,"Legacy 4 New choco
#79 Original received. SQ amount verified $4000. Paid in full-Erika 9/9/19 11:30am",WA,1,9.90,LGCY-4LGCY-4CH,4000.00,SQ#4axy,,,,,,,,/,0.00,,,,,,,,,/,0.00,,,,,,,,,/,Christopher,Rubin,chrisrubin@yahoo.com,,15331 Chuckawa Ln SE,,,Yelm,WA,98597,United States,360-606-0022
Washington State Fair 8/30-9/22/19,Washington State Fair 8/30-9/22/19,Querubin Milanes,120817,9/8/2019 9:36:08 AM,Renato Jr Santonil,WA,98003,Legacy 4,New Black,New,1,0.00,4600.00,4600.00,Synchrony,,,"5 years parts, 2 years labor ($200)","Legacy 4,",No,,Scheduled,,,"#82
Synchrony original verified. Credit available $6500. Remaining balance $4600. Charge synchrony account upon delivery, have sales draft signed-Erika 9/9/19 11:38am
9/10/19 Confirmed delivery schedule. - Hideo",WA,1,9.90,LGCY-4LGCY-4BL,4600.00,,,6501723375315585,80851404,San Diego,48 months,Driver’s License,WA,08/2020,0.00,,,,,,,,,/,0.00,,,,,,,,,/,Renato Jr,Santonil,rsantonil@yahoo.com,,37819 21st Ct S,,,Federal Way,WA,98003,United States,206-331-9387
Washington State Fair 8/30-9/22/19,Washington State Fair 8/30-9/22/19,Querubin Milanes,120818,9/8/2019 9:44:38 AM,Serawn Archer,WA,98374,Hubble,New Black,New,1,0.00,5500.00,5500.00,Credit Card,,,"5 years parts, 1 year labor (Free)","Hubble,",No,,Scheduled,,,"#84 Original received. SQ amount verified $5500. Paid in full-Erika 9/9/19 11:42am
9/10/19 delivery schedule confirmed - Hideo",WA,1,9.90,HUBL-1HUBL-1BL,5500.00,SQ#lPJD,,,,,,,,/,0.00,,,,,,,,,/,0.00,,,,,,,,,/,Serawn,Archer,serawnarcher@yahoo.com,,10401 123rd  St Ct E,,,Puyallup,WA,98374,United States,253-314-1132
Washington State Fair 8/30-9/22/19,Washington State Fair 8/30-9/22/19,Robert Shih,120820,9/8/2019 9:57:17 AM,Lanelle Bentz,WA,98036,Legacy 4,Demo Black,Demo,1,0.00,4000.00,4000.00,Synchrony,COD,,"5 years parts, 1 year labor (Free)","Legacy 4,",No,,Scheduled,,,"#85 Legacy 4 black demo second floor delivery
 Synchrony account verified.Credit available $10,800. Remaining balance $4000. Charge synchrony account upon delivery, have sales draft signed-Erika 9/9/19 11:45am
9/10/19 5:00 PM - Wants to pay in full with credit card for order # (120820), synchrony for order # (120822). Confirmed delivery schedule - Hideo
Confirmed a Purchase (Auth#010020) and a Refund transaction on Synchrony-Houston account, checked the customer's credit limit however the amount hasn't been recovered yet: available credit is still $2,800. -Riho 9/11/19",WA,1,9.90,LGCY-4LGCY-4BL-DEMO,0.00,,,6501723375315726,80856009,San Diego,36 months,Driver’s License,WA,05/2021,4000.00,,,,,,,,,/,0.00,,,,,,,,,/,Lanelle,Bentz,ldbentz@comcast.net,,21998 Oak Way,,,Brier,WA,98036,United States,425-776-6196
Washington State Fair 8/30-9/22/19,Washington State Fair 8/30-9/22/19,Robert Shih,120822,9/8/2019 10:15:37 AM,Larry Lichty,WA,98030,Legacy 4,Demo Black,Demo,1,0.00,4000.00,4000.00,Synchrony,,,"5 years parts, 1 year labor (Free)","Legacy 4,",No,,Scheduled,,,"Legacy 4 black demo delivery on the second floor
#86 Synchrony original verified. Credit available $10,800. Remaining balance $4000. Charge synchrony account upon delivery, have sales draft signed-Erika 9/9/19 11:50am
9/10/19 Confirmed delivery schedule. - Hideo
Confirmed a Purchase (Auth#010284) and a Refund transaction on Synchrony-San Diego, checked the customer's credit limit however the amount hasn't been recovered yet: available credit is still $2,800. -Riho 9/11/19",WA,1,9.90,LGCY-4LGCY-4BL-DEMO,4000.00,,,6501723375315726,80856009,San Diego,36 months,Driver’s License,WA,05/2021,0.00,,,,,,,,,/,0.00,,,,,,,,,/,Larry,Lichty,larrylichty@gmail.com,,27932 123rd Pl SE,,,Kent,WA,98030,United States,206-794-7132
Washington State Fair 8/30-9/22/19,Washington State Fair 8/30-9/22/19,Anderson Carvalho,120823,9/8/2019 10:23:28 AM,Susan Mitchell Matson,WA,98443,Legacy 4,New Choco,New,1,0.00,4700.00,4700.00,Check,,,"5 years parts, 1 year labor (Free)","Legacy 4,",No,,New,,,"#80
Check no.1086 Bank of America in the amount of $4700.
 1 extra cloth chair pad
Original received. Check will be deposit tomorrow 9/10/19 by Sales rep Ruben C. will be waiting for paycheck to deposit and be cleared-Erika 9/9/19 before dispatching.",Not Dispatched,1,9.90,LGCY-4LGCY-4CH,4700.00,,,,,,,,,/,0.00,,,,,,,,,/,0.00,,,,,,,,,/,Susan,Mitchell Matson,susanmitchell8@hotmail.com,,6716 44th Ave E,,,Tacoma,WA,98443,United States,253-370-2768
Washington State Fair 8/30-9/22/19,Washington State Fair 8/30-9/22/19,Winston Melgar,120832,9/8/2019 6:36:03 PM,Thomas Clifton,WA,98374,Legacy 4,Demo Black,Demo,1,0.00,4000.00,4000.00,Synchrony,,,"5 years parts, 1 year labor (Free)","Legacy 4,",No,,Scheduled,,,"#88 Synchrony original verified. Credit available $4000. remaining balance $4000. Charge synchrony account upon delivery, have sales draft signed-erika 9/9/19 11:51am
9/10/19 Confirmed delivery schedule. - Hideo",WA,1,9.90,LGCY-4LGCY-4BL-DEMO,4000.00,,,6501723375317102,80887188,San Diego,36 months,Driver’s License,WA,05/2022,0.00,,,,,,,,,/,0.00,,,,,,,,,/,Thomas,Clifton,yrmyangels@q.com,,10301 188th St E,,,Puyallup,WA,98374,United States,253-266-0718
Washington State Fair 8/30-9/22/19,Washington State Fair 8/30-9/22/19,Neneth Finley,120833,9/8/2019 6:42:56 PM,Sarah Daggett,WA,98387,Legacy 4,Demo Choco,Demo,1,0.00,3800.00,3800.00,Synchrony,,,"5 years parts, 1 year labor (Free)","Legacy 4,",No,,Printed,,,"#89
Synchrony account verified. Credit available $7000. Remaining balance $3800. Charge synchrony account upon delivery, have sales draft signed-Erika 9/9/19 11:53am",WA,1,9.90,LGCY-4LGCY-4CH-DEMO,3800.00,,,6501723375317318,80890596,San Diego,48 months,Driver’s License,WA,05/2024,0.00,,,,,,,,,/,0.00,,,,,,,,,/,Sarah,Daggett,sacredmaiden@mail.com,,20103 47th Ave Ct E,,,Spanaway,WA,98387,United States,253-678-3250
Washington State Fair 8/30-9/22/19,Washington State Fair 8/30-9/22/19,Rolly San Jose,120834,9/8/2019 6:48:14 PM,Judy Laudon,WA,98178,PEGASUS 2 SMART,Demo Choco,Demo,1,0.00,5400.00,5400.00,Synchrony,,,"5 years parts, 1 year labor (Free)","PEGASUS 2 SMART,",No,,Printed,,,"#90
Synchrony account verified. Credit available $9000. Remaining balance $5400. Charge synchrony account upon delivery, have sales draft signed-Erika 9/9/19 11:55am",WA,1,9.90,PEGS-2PEGS-2-BR-DEMO,5400.00,,,6501723375317359,80891367,San Diego,48 months,Driver’s License,WA,04/2021,0.00,,,,,,,,,/,0.00,,,,,,,,,/,Judy,Laudon,joshjoaquinm@gmail.com,,13418 80th Ave S,,,Seattle,WA,98178,United States,425-457-4945
Washington State Fair 8/30-9/22/19,Washington State Fair 8/30-9/22/19,Scott Ishikawa,120837,9/8/2019 6:59:45 PM,Patti Acero,WA,98284,Legacy 4,New Black,New,1,0.00,3800.00,3800.00,Cash,COD,,"5 years parts, 1 year labor (Free)","Legacy 4,",No,,Printed,,,"#83
Hold order. Customer will ask the brother to come to the office to try and if it will be ok with him then they will pay the remaining balance. Original received. $20 deposit verified & signed by Scott. Remaining balance $3780. Collect COD @ delivery, per sales rep rq place on hold. Customer will inform us.-Erika 9/9/19 11:40am",WA,1,9.90,LGCY-4LGCY-4BL,20.00,,,,,,,,,/,3780.00,,,,,,,,,/,0.00,,,,,,,,,/,Patti,Acero,organicwalk@gmail.com,,26910 Panorama Ct,,,Sedro Woolley,WA,98284,United States,360-856-4242
Washington State Fair 8/30-9/22/19,Washington State Fair 8/30-9/22/19,Neneth Finley,120869,9/9/2019 11:13:36 AM,Krissy Ortega,WA,98366,Relax 2 Zero 3D,Demo Choco,Demo,1,0.00,3700.00,3700.00,Credit Card,,,"5 years parts, 1 year labor (Free)","Relax 2 Zero 3D,",No,,Printed,,,"#70
Sq amount verified $3,700-Cristina 09/09/19 11:15 am",WA,1,9.90,DWA-9060USJ-9060BR-DEMO,3700.00,#n4K4,,,,,,,,/,0.00,,,,,,,,,/,0.00,,,,,,,,,/,Krissy,Ortega,defaultmail@daiwamassage.com,,2812 SE Forest Villa Ct.,,,Port Orchard,WA,98366,United States,360-876-6621
Washington State Fair 8/30-9/22/19,Washington State Fair 8/30-9/22/19,Querubin Milanes,120879,9/9/2019 2:50:51 PM,Liz Young,WA,98367,PEGASUS 2 SMART,New Choco,New,1,0.00,6200.00,6200.00,Synchrony,,,"5 years parts, 1 year labor (Free)","PEGASUS 2 SMART,",No,,Scheduled,,,"Pegasus smart 2.0 new choco. Please deliver with vitality plate.
#91 Synchrony original verified(app key). Credit available $6900. Remaining balance $6200. Charge synchrony account upon delivery, have sales draft signed-Erika 9/10/19 8:50am
CC completed-Erika 9/10/19 11:06am
9/11/19 Confirmed delivery schedule. - Donald",WA,1,9.90,PEGS-2PEGS-2-BR,6200.00,,,6501172337538092,80924326,San Diego,48 months,Driver’s License,WA,02/2024,0.00,,,,,,,,,/,0.00,,,,,,,,,/,Liz,Young,lizalanyoung@msn.com,,546 SW Miller Rd,,,Port Orchard,WA,98367,United States,360-874-0218
Washington State Fair 8/30-9/22/19,Washington State Fair 8/30-9/22/19,Querubin Milanes,120885,9/9/2019 4:19:15 PM,Gary Allen,WA,98327,Hubble,Demo Black,Demo,1,0.00,5400.00,5400.00,Synchrony,,,"5 years parts, 1 year labor (Free)","Hubble,",No,,Printed,,,"Hubble demo black . Free second floor delivery
#92 Synchrony account verified. Credit available $6500. Remaining balance $5400. Charge synchrony account upon delivery, have sales draft signed-Erika 9/10/19 8:50am
courtesy call completed-Erika 9/10/19 11:30am",WA,1,9.90,HUBL-1HUBL-1BL-DEMO,5400.00,,,6501723375318423,80934740,San Diego,48 months,Driver’s License,WA,06/2020,0.00,,,,,,,,,/,0.00,,,,,,,,,/,Gary,Allen,gra629@yahoo.com,,2603 MacArthur St,,,Dupont,WA,98327,United States,253-219-4029
Washington State Fair 8/30-9/22/19,Washington State Fair 8/30-9/22/19,Neneth Finley,120889,9/9/2019 7:56:28 PM,Terry Mc Lean,WA,98391,Relax 2 Zero 3D,Demo Choco,Demo,1,0.00,4200.00,4200.00,Synchrony,,,"5 years parts, 1 year labor (Free)","Relax 2 Zero 3D,",No,,New,,,"Relax 3D brown demo. Account number to be called by the customer when the card arrives.
Couldn't find the customer's application/account on Synchrony business center. 9/11/19 Riho",Not Dispatched,1,9.90,DWA-9060USJ-9060BR-DEMO,4200.00,,,,80942671,San Diego,36 months,Driver’s License,WA,08/2021,0.00,,,,,,,,,/,0.00,,,,,,,,,/,Terry,Mc Lean,dumbok@yahoo.com,,12820 Prairie Circle E,,,Bonney lake,WA,98391,United States,360-897-2741
