﻿Original Event Name,Event Name,Sales Person,Order Number,Order Date,Customer Name,State,Zip,Product Name,Color,Product Status,QTY,Tax,Total Before Tax,Order Total,Primary Payment Method,Second Payment Method,Thirdl Payment Method,Warranty,Order Items,Pick up,Delivered On,Order Status,Chair Type,Order Notes,Private Note,Branch,No Tax,Actual Tax Rate,SKU,Primary Payment Balance,Primary Authorize Number,Primary Purchase Order Number,Primary Synchrony Account Number,Primary Synchrony Application Key,Primary Synchrony Account Info,Primary Synchrony Term,Second Payment Balance,Second Authorize Number,Second Purchase Order Number,Second Synchrony Account Number,Second Synchrony Application Key,Second Synchrony Account Info,Second SynchronyTerm,Third Payment Balance,Third Authorize Number,Third Purchase Order Number,Third Synchrony Account Number,Third Synchrony Application Key,Third Synchrony Account Info,Third Synchrony Term
Sam's Club #8297 Rockford 10/25-11/4/18 (IL),Sam's Club #8297 Rockford 10/25-11/4/18 (IL),Ilene Maynard,110639,10/25/2018 4:38:23 PM,Ali Haziz Ahmed,IL,61101,Foot Vibe Pro,,New,1,9.07,109.99,119.06,CreditCard,,,"2 years parts, 1 year labor for Small Items","Foot Vibe Pro,",YES,,Delivered,,Picked up,TC#9917 9923 9755 0123 5213 7,TX,0,8.25,USJ-871,0.00,TC# B554C4895210E673,,,,,,0.00,,,,,,,0.00,,,,,,
Sam's Club #8297 Rockford 10/25-11/4/18 (IL),Sam's Club #8297 Rockford 10/25-11/4/18 (IL),Ilene Maynard,110641,10/25/2018 6:27:31 PM,Maria Del Carmen Valencia,IL,61080,Foot Vibe Pro,,New,1,9.07,109.99,119.06,CreditCard,,,"2 years parts, 1 year labor for Small Items","Foot Vibe Pro,",YES,,Delivered,,,TC#6690 1677 7418 5997 6990 4,TX,0,8.25,USJ-871,0.00,TC# 0B36E82D9BCA9184,,,,,,0.00,,,,,,,0.00,,,,,,
Sam's Club #8297 Rockford 10/25-11/4/18 (IL),Sam's Club #8297 Rockford 10/25-11/4/18 (IL),Ilene Maynard,110651,10/26/2018 10:42:52 AM,Kelly Fagan,IL,61008,Relax 2 Zero 2.0 for Sam's,Demo Brown[-701],Demo,1,263.92,3199.00,3462.92,CreditCard,,,"3 years parts, 1 year labor (Free)","Relax 2 Zero 2.0 for Sam's,",No,,Scheduled,,,Deliver Mon. or Tues. 11/4 or 11/5,TX,0,8.25,USJ-9050USJ-9050BR-DEMO,0.00,TC# 5784 2517 2030 0646 2264 43,,,,,,0.00,,,,,,,0.00,,,,,,
Sam's Club #8297 Rockford 10/25-11/4/18 (IL),Sam's Club #8297 Rockford 10/25-11/4/18 (IL),Ilene Maynard,110707,10/28/2018 12:59:59 PM,David Nwoaha,IL,61103,Foot Vibe Pro,,New,1,9.07,109.99,119.06,CreditCard,,,"2 years parts, 1 year labor for Small Items","Foot Vibe Pro,",YES,,Delivered,,,Picked up,TX,0,8.25,USJ-871,0.00,TC# 1314 7110 7500 6432 7841 3,,,,,,0.00,,,,,,,0.00,,,,,,
Sam's Club #8297 Rockford 10/25-11/4/18 (IL),Sam's Club #8297 Rockford 10/25-11/4/18 (IL),Ilene Maynard,110772,10/30/2018 8:24:05 AM,Heide Johnson,IL,61052,Vitality Plate for Sam's,New,New,1,37.95,459.99,497.94,CreditCard,,,"2 years parts, 1 year labor for Small Items","Vitality Plate for Sam's,",YES,,Scheduled,,Please SHIP ASAP!  Contact customer with shipping information!,"NEED TO SHIP.  NONE IN STOCK AT SHOW!//June, Please arrange the shipment 10/30/18 Hitomi
Tracking # 773612802352 sent to customer 10/31/2018 - Tina",TX,0,8.25,USJ-849USJ-849,0.00,TC# 4377 9985 9805 0153 5316 7,,,,,,0.00,,,,,,,0.00,,,,,,
Sam's Club #8297 Rockford 10/25-11/4/18 (IL),Sam's Club #8297 Rockford 10/25-11/4/18 (IL),Ilene Maynard,110780,10/30/2018 10:32:21 AM,Keith Manley,IL,61108,Legacy for Sam's,Demo Choco[-700],Demo,1,0.00,3599.00,3599.00,PurchaseOrder,,,"3 years parts, 1 year labor (Free)","Legacy for Sam's,",No,11/8/2018 12:00:00 AM,Delivered,Demo,,"Tax Exemp
ID #E9989-9515
COURTESY CALL DONE 11/02/18 STEPHANY SPOKE TO CUSTOMER
11/5Maritza- Customer called thinking he would get his chair delivered after the show. I informed him the chair gets taken back to the warehouse to get cleaned and inspected before delivery. Customer leaves on vacation this Sunday 11/11. Needs delivery before then. Spoke with Mimi @ 2:20PM and will relay the message with June.",TX,1,8.25,DWA-9100DWA-9100CH-DEMO,0.00,TC# 1502 1624 4017 4784 6468 60,TC# 1502 1624 4017 4784 6468 60,,,,,0.00,,,,,,,0.00,,,,,,
Sam's Club #8297 Rockford 10/25-11/4/18 (IL),Sam's Club #8297 Rockford 10/25-11/4/18 (IL),Ilene Maynard,110784,10/30/2018 1:41:31 PM,James Hung,IL,61008,Pegasus for Sam's,New Black,New,1,453.59,5498.00,5951.59,CreditCard,,,"3 years parts, 1 year labor (Free)","Pegasus for Sam's,",No,11/13/2018 12:00:00 AM,Delivered,New,Please deliver BEFORE November 14th or AFTER November 20th!,COURTESY CALL DONE LEFT VM - 11/2/18 STEPHANY,TX,0,8.25,DWA-9400Pegasus-BL-NEW,0.00,TC# 3881 0345 6906 6978 8357 42,,,,,,0.00,,,,,,,0.00,,,,,,
Sam's Club #8297 Rockford 10/25-11/4/18 (IL),Sam's Club #8297 Rockford 10/25-11/4/18 (IL),Ilene Maynard,110785,10/30/2018 1:46:06 PM,Angie Zielinski,IL,61114,Pegasus for Sam's,New Choco,New,1,453.59,5498.00,5951.59,CreditCard,,,"3 years parts, 1 year labor (Free)","Pegasus for Sam's,",No,,Scheduled,,,COURTESY CALL DONE LEFT VM 11/2/18 STEPHANY,TX,0,8.25,DWA-9400Pegasus-BR-NEW,0.00,TC# 3840 2066 8928 8593 7339 64,,,,,,0.00,,,,,,,0.00,,,,,,
Sam's Club #8297 Rockford 10/25-11/4/18 (IL),Sam's Club #8297 Rockford 10/25-11/4/18 (IL),Ilene Maynard,110786,10/30/2018 1:53:21 PM,Steve Dahle,IL,61108,Relax 2 Zero 2.0 for Sam's,Demo Brown[-701],Demo,1,263.92,3199.00,3462.92,CreditCard,,,"3 years parts, 1 year labor (Free)","Relax 2 Zero 2.0 for Sam's,",No,11/8/2018 12:00:00 AM,Delivered,Demo,Please deliver AFTER November 7th!,COURTESY CALL DONE 11/2/18 LEFT VM STEPHANY,TX,0,8.25,USJ-9050USJ-9050BR-DEMO,0.00,TC# 8637 8292 5482 5017 3311 77,,,,,,0.00,,,,,,,0.00,,,,,,
Sam's Club #8297 Rockford 10/25-11/4/18 (IL),Sam's Club #8297 Rockford 10/25-11/4/18 (IL),Ilene Maynard,110831,11/1/2018 10:30:32 AM,John Keating,IL,61008,Foot Vibe Pro,,New,2,18.15,219.98,238.13,CreditCard,,,"2 years parts, 1 year labor (Free)","Foot Vibe Pro,",YES,,Delivered,,,,TX,0,8.25,USJ-871,0.00,TC# 2731 0446 0054 9708 4677 2,,,,,,0.00,,,,,,,0.00,,,,,,
Sam's Club #8297 Rockford 10/25-11/4/18 (IL),Sam's Club #8297 Rockford 10/25-11/4/18 (IL),Ilene Maynard,110860,11/2/2018 1:20:27 PM,Ahmed Saeed,IL,61107,Foot Vibe Pro,,New,1,0.00,109.99,109.99,CreditCard,,,"2 years parts, 1 year labor for Small Items","Foot Vibe Pro,",YES,,Delivered,,Picked up,"Tax Exempt
ID #40558029",TX,1,8.25,USJ-871,0.00,TC# 1484 0120 3560 6422 2742 3,,,,,,0.00,,,,,,,0.00,,,,,,
Sam's Club #8297 Rockford 10/25-11/4/18 (IL),Sam's Club #8297 Rockford 10/25-11/4/18 (IL),Ilene Maynard,110881,11/3/2018 1:59:17 PM,Marilyn Cardwell,IL,61103,Pegasus for Sam's,Demo Black[-700],Demo,1,395.84,4798.00,5193.84,CreditCard,,,"3 years parts, 1 year labor (Free)","Pegasus for Sam's,",No,11/8/2018 12:00:00 AM,Delivered,Demo,,11/5Maritza Courtesy messages sent to both numbers,TX,0,8.25,DWA-9400Pegasus-BL-DEMO,0.00,TC# 6546 2158 3872 3208 1060 79,,,,,,0.00,,,,,,,0.00,,,,,,
Sam's Club #8297 Rockford 10/25-11/4/18 (IL),Sam's Club #8297 Rockford 10/25-11/4/18 (IL),Ilene Maynard,110882,11/3/2018 2:07:33 PM,Dan Heath,IL,61065,Pegasus for Sam's,New Choco,New,1,453.59,5498.00,5951.59,CreditCard,,,"3 years parts, 1 year labor (Free)","Pegasus for Sam's,",No,,Scheduled,,"Deliver Foot Vibe Pro
FREE GIFT!",courtesy call done 11/05/18 left vm stephany,TX,0,8.25,DWA-9400Pegasus-BR-NEW,0.00,TC# 0919 3085 7947 7351 9015 66,,,,,,0.00,,,,,,,0.00,,,,,,
Sam's Club #8297 Rockford 10/25-11/4/18 (IL),Sam's Club #8297 Rockford 10/25-11/4/18 (IL),Ilene Maynard,110883,11/3/2018 2:11:20 PM,Ellen Credi,IL,61354,Foot Vibe Pro,,New,1,9.07,109.99,119.06,CreditCard,,,"2 years parts, 1 year labor for Small Items","Foot Vibe Pro,",YES,,Delivered,,Picked up,,IL,0,8.25,USJ-871,0.00,TC# 8739 8857 2437 3519 7059 6,,,,,,0.00,,,,,,,0.00,,,,,,
Sam's Club #8297 Rockford 10/25-11/4/18 (IL),Sam's Club #8297 Rockford 10/25-11/4/18 (IL),Ilene Maynard,110912,11/4/2018 11:53:54 AM,William Drogosz,IL,61111,Pegasus for Sam's,New Choco,New,1,453.59,5498.00,5951.59,CreditCard,,,"3 years parts, 1 year labor (Free)","Pegasus for Sam's,",No,11/18/2018 12:00:00 AM,Delivered,New,,"COURTESY CALL DONE LEFT VM - STEPHANY 11/05/18
11/13/18-Transferred to Tina item was out of stocked",TX,0,8.25,DWA-9400Pegasus-BR-NEW,0.00,TC# 0979 5089 7748 7359 9015 86,,,,,,0.00,,,,,,,0.00,,,,,,
Sam's Club #8297 Rockford 10/25-11/4/18 (IL),Sam's Club #8297 Rockford 10/25-11/4/18 (IL),Ilene Maynard,110913,11/4/2018 12:14:42 PM,Digvijah Patel,IL,61114,Shogun Neck & Back Massger,New,New,1,16.50,199.98,216.48,CreditCard,,,"2 years parts, 1 year labor for Small Items","Shogun Neck &amp; Back Massger,",YES,,Delivered,,Picked up,,IL,0,8.25,USJ-874USJ-874,0.00,TC# 9217 3925 5895 0113 3213 7,,,,,,0.00,,,,,,,0.00,,,,,,
Sam's Club #8297 Rockford 10/25-11/4/18 (IL),Sam's Club #8297 Rockford 10/25-11/4/18 (IL),Ilene Maynard,110914,11/4/2018 12:26:57 PM,Paul Maxwell,IL,61107,Pegasus for Sam's,New Choco,New,1,453.59,5498.00,5951.59,CreditCard,,,"3 years parts, 1 year labor (Free)","Pegasus for Sam's,",No,,Scheduled,,,COURTESY CALL DONE SPOKE TO CUSTOMER - 11/05/18 STEPHANY,TX,0,8.25,DWA-9400Pegasus-BR-NEW,0.00,TC# 9472 8228 4618 2780 6328 50,,,,,,0.00,,,,,,,0.00,,,,,,
Sam's Club #8297 Rockford 10/25-11/4/18 (IL),Sam's Club #8297 Rockford 10/25-11/4/18 (IL),Ilene Maynard,110916,11/4/2018 3:29:28 PM,Margaret Buhl,IL,61107,Pegasus for Sam's,Demo Black(Box)[-700],Demo,1,395.84,4798.00,5193.84,CreditCard,,,"3 years parts, 1 year labor (Free)","Pegasus for Sam's,",No,,Scheduled,,,"Deliver NEW chair
COURTESY CALL SPOKE TO CUSTOMER - 11/05/18 STEPHANY",TX,0,8.25,DWA-9400Pegasus-BL-BOX,0.00,TC# 1610 9760 8626 8590 7939 24,,,,,,0.00,,,,,,,0.00,,,,,,
