﻿Original Event Name,Event Name,Sales Person,Order Number,Order Date,Customer Name,State,Zip,Product Name,Color,Product Status,QTY,Tax,Total Before Tax,Order Total,Primary Payment Method,Second Payment Method,Thirdl Payment Method,Warranty,Order Items,Pick up,Delivered On,Order Status,Chair Type,Order Notes,Private Note,Branch,No Tax,Actual Tax Rate,SKU,Primary Payment Balance,Primary Authorize Number,Primary Purchase Order Number,Primary Synchrony Account Number,Primary Synchrony Application Key,Primary Synchrony Account Info,Primary Synchrony Term,Second Payment Balance,Second Authorize Number,Second Purchase Order Number,Second Synchrony Account Number,Second Synchrony Application Key,Second Synchrony Account Info,Second SynchronyTerm,Third Payment Balance,Third Authorize Number,Third Purchase Order Number,Third Synchrony Account Number,Third Synchrony Application Key,Third Synchrony Account Info,Third Synchrony Term
NADA Expo 3/23-25/18 (NV),NADA Expo 3/23-25/18 (NV),Rolly San Jose,104771,3/25/2018 10:35:46 PM,Keith Cogswell,AR,72802,Legacy 3D,New Black,New,1,0.00,4200.00,4200.00,CreditCard,,,"3 years parts, 1 year labor (Free)","Legacy 3D,",No,4/11/2018 12:00:00 AM,Delivered,,,"Confirmed $4,200 in Square. 3/26/18 Hitomi",TX,1,8.25,DWA-9150USJ-9150BL,4200.00,SQ# DDEI,,,,,,0.00,,,,,,,0.00,,,,,,
NADA Expo 3/23-25/18 (NV),NADA Expo 3/23-25/18 (NV),Rolly San Jose,104774,3/25/2018 11:01:43 PM,Ford direct c/o mike Jurecki,MI,48126,Legacy 3D,New Black,New,2,0.00,8400.00,8400.00,CreditCard,,,"3 years parts, 1 year labor (Free)","Legacy 3D,",No,4/23/2018 12:00:00 AM,Delivered,,,"Pls call tom thomas at 7342604005 for delivery appointment
Confirmed $8,400 in Square. 3/26/18 Hitomi",TX,1,8.25,DWA-9150USJ-9150BL,8400.00,SQ# QxLK,,,,,,0.00,,,,,,,0.00,,,,,,
NADA Expo 3/23-25/18 (NV),NADA Expo 3/23-25/18 (NV),Rodrigo Malabunga,104775,3/25/2018 11:14:58 PM,Ramon Horta,CA,92677,Legacy 3D,New Black,New,1,0.00,3900.00,3900.00,CreditCard,,,"3 years parts, 1 year labor (Free)","Legacy 3D,",No,4/6/2018 12:00:00 AM,Delivered,,,"Confirmed $3,900 in Square. 3/26/18 Hitomi
3/26- Maritza: Printed",CA,1,8.25,DWA-9150USJ-9150BL,3900.00,SQ# ClqW,,,,,,0.00,,,,,,,0.00,,,,,,
NADA Expo 3/23-25/18 (NV),NADA Expo 3/23-25/18 (NV),Rodrigo Malabunga,104776,3/25/2018 11:27:16 PM,Lyudmyla Remer,FL,32814,Legacy 3D,New Choco,New,1,0.00,4000.00,4000.00,CreditCard,,,"3 years parts, 1 year labor (Free)","Legacy 3D,",No,4/3/2018 12:00:00 AM,Delivered,,,"Confirmed $4,000 in Square. 3/26/18 Hitomi",FL,1,8.25,DWA-9150USJ-9150CH,4000.00,SQ# Oot4,,,,,,0.00,,,,,,,0.00,,,,,,
NADA Expo 3/23-25/18 (NV),NADA Expo 3/23-25/18 (NV),Rolly San Jose,104777,3/25/2018 11:47:34 PM,Triple B forwarders c/o brian Downey,CA,90745,Legacy 3D,New Black,New,1,0.00,4400.00,4400.00,CreditCard,,,"3 years parts, 1 year labor (Free)","Legacy 3D,",No,,Cancelled,,,"Pls put the. 3 boxes in one pallet and shrink wrapped. Drop ship only. Call bob Matthieu at 3106045840 for delivery appointment
Confirmed $4,400 in Square. 3/26/18 Hitomi
3/26-Maritza: Printed
Revised to 104793 under correct warranty 3/26/18 Hitomi",CA,1,8.25,DWA-9150USJ-9150BL,4400.00,SQ# AQqj,,,,,,0.00,,,,,,,0.00,,,,,,
NADA Expo 3/23-25/18 (NV),NADA Expo 3/23-25/18 (NV),Rodrigo Malabunga,104778,3/26/2018 12:05:29 AM,ML Dick Heimann,OR,97504,Legacy 3D,New Black,New,1,0.00,4050.00,4050.00,CreditCard,,,"3 years parts, 1 year labor (Free)","Legacy 3D,",No,5/2/2018 12:00:00 AM,Delivered,,,"Delivery end April. Pls call first before delivery
Confirmed $4,050 in Square. 3/26/18 Hitomi
Call back April 30th for schedule.",WA,1,8.25,DWA-9150USJ-9150BL,4050.00,SQ# XiEy,,,,,,0.00,,,,,,,0.00,,,,,,
NADA Expo 3/23-25/18 (NV),NADA Expo 3/23-25/18 (NV),Rolly San Jose,104779,3/26/2018 12:24:44 AM,Steven Couture,NY,10536,Pegasus,New Black,New,1,0.00,5200.00,5200.00,CreditCard,CreditCard,,"3 years parts, 1 year labor (Free)","Pegasus,",No,4/14/2018 12:00:00 AM,Delivered,,,"Steven to call rolly on Tuesday, march 27 to give balance payment
Confirmed $300 in Square.( $600 include  #104780) COD$4,900.3/26/18 Hitomi
4900 G6ig confirmed 04/20/18 stephany",TX,1,8.25,DWA-9400Pegasus-BL,300.00,SQ # w6Jp,,,,,,4900.00,G6ig,,,,,,0.00,,,,,,
NADA Expo 3/23-25/18 (NV),NADA Expo 3/23-25/18 (NV),Rolly San Jose,104780,3/26/2018 12:41:34 AM,Dealerdna c/o steven Couture,NY,10589,Pegasus,New Black,New,1,0.00,5200.00,5200.00,CreditCard,COD,,"3 years parts, 1 year labor (Free)","Pegasus,",No,,Hold,,,"Steven will call rolly on Tuesday, march 27 for balance payment and delivery date
//Confirmed $300 in Square.( $600 include  #104779) COD$4,900.3/26/18 Hitomi
unable to reach customer by cell number. Wait customer call sales for delivery date. 3/27/2018 June
Spoke with customer, they will available after June, 2018. 4/25/2018 June
Called customer at 6/5/2018, asking to hold until July. 6/5/2018 June
Customer wants to cancel. informed to sales person which ask to place the order under hold. June",TX,1,8.25,DWA-9400Pegasus-BL,300.00,SQ# w6Jp,,,,,,4900.00,,,,,,,0.00,,,,,,
NADA Expo 3/23-25/18 (NV),NADA Expo 3/23-25/18 (NV),Rolly San Jose,104781,3/26/2018 12:50:04 AM,Brian Chapman,MS,38654,Pegasus,New Choco,New,1,0.00,5200.00,5200.00,CreditCard,,,"3 years parts, 1 year labor (Free)","Pegasus,",No,4/7/2018 12:00:00 AM,Delivered,,,"Confirmed $5,200 in Square. 3/26/18 Hitomi",TX,1,8.25,DWA-9400Pegasus-BR,5200.00,SQ#ij2k,,,,,,0.00,,,,,,,0.00,,,,,,
NADA Expo 3/23-25/18 (NV),NADA Expo 3/23-25/18 (NV),Rolly San Jose,104793,3/26/2018 12:56:37 PM,Triple B forwarders c/o brian Downey,CA,90745,Legacy 3D,New Black,New,1,0.00,4400.00,4400.00,CreditCard,,,3 Years Parts (International),"Legacy 3D,",No,4/27/2018 12:00:00 AM,Delivered,,,"Pls put the. 3 boxes in one pallet and shrink wrapped. Drop ship only. Call bob Matthieu at 3106045840 for delivery appointment
Confirmed $4,400 in Square. 3/26/18 Hitomi
3/26-Maritza: Printed
Correction for 104777 under correct warranty .
3/30 Maritza- Due to no commercial invoice from Rolly the delivery had to be put on hold
Order is on hold due to multi. attempts to collect customers home address for the commercial invoice. Hoevery Rolly nor the customer has contacted us for this info .

Rollly tried to email but until now he have not heard back. -Cristina 04/05/18 1:02 pm",CA,1,8.25,DWA-9150USJ-9150BL,4400.00,SQ# AQqj,,,,,,0.00,,,,,,,0.00,,,,,,
NADA Expo 3/23-25/18 (NV),NADA Expo 3/23-25/18 (NV),Rodrigo Malabunga,104823,3/27/2018 12:59:06 AM,Trace Beck,SD,57501,Pegasus,New Choco,New,1,0.00,5000.00,5000.00,CreditCard,,,"3 years parts, 1 year labor (Free)","Pegasus,",No,,Delivered,,,"Pls add 1 tourmaline pad with the shipment
Confirmed $5,000 in Square. 3/27/18 Hitomi",CA,1,8.25,DWA-9400Pegasus-BR,5000.00,SQ# Zo5c,,,,,,0.00,,,,,,,0.00,,,,,,
