﻿Date,CustomerName,State,Zipcode,Description,productNo,Color,IsDemo,Net,ShippingFee,GiftPrice,FinancingProcessingFee,Gross,Pre_tax,Tax,Commission,Primary Payment Method,Primary Payment Balance,Primary Authorize Number,Primary Purchase Order Number,Primary Synchrony Account Number,Primary Synchrony Application Key,Primary Synchrony AccountInfo,Primary SynchronyTerm,Secondly Payment Method,Secondly Payment Balance,Secondly Authorize Number,Secondly Purchase Order Number,Secondly Synchrony Account Number,Secondly Synchrony Application Key,Secondly Synchrony AccountInfo,Secondly SynchronyTerm,Thirdly Payment Method,Thirdly Payment Balance,Thirdly Authorize Number,Thirdly Purchase Order Number,Thirdly Synchrony Account Number,Thirdly Synchrony Application Key,Thirdly Synchrony AccountInfo,Thirdly SynchronyTerm,DeliveryDate,Ispickup,Warranty,Status,Event Name,Synchrony Notes,Order Notes,Order number,Private Note,Branch,IsNoTax,ActualTaxRate
11/10/2017 2:01:37 PM,Harvey Lesure,AZ,85367,Legacy for Sam's,DWA-9100DWA-9100CH,Choco,New,,,,,3958.90,3599.00,359.90,Ilene Maynard,,0.00,510134,,,,,,,,,,,,,,,,,,,,,,,No,"3 years parts, 1 year labor (Free)",Scheduled,Sam's Club #4835 11/9-11/19 (WA),,,101785,,NV,,
11/10/2017 5:09:47 PM,Hank Wang,WA,98059,Relax2Zero 2.0 for Sam's,USJ-9050USJ-9050BR,Brown,New,,,,,3518.90,3199.00,319.90,Ilene Maynard,,0.00,05190B,,,,,,,,,,,,,,,,,,,,,,11/21/2017 12:00:00 AM,No,"3 years parts, 1 year labor (Free)",Delivered,Sam's Club #4835 11/9-11/19 (WA),,,101791,,WA,,
11/11/2017 9:16:19 AM,Raquelle Bassig,WA,98056,Ninja Leg Massager,,,New,,,,,416.90,379.00,37.90,Ilene Maynard,,0.00,04884D Visa,,,,,,,,,,,,,,,,,,,,,,,YES,"2 years parts, 1 year labor (Small Items)",Delivered,Sam's Club #4835 11/9-11/19 (WA),,,101794,,WA,,
11/11/2017 6:06:39 PM,Roman Kiryanov,WA,98011,Legacy for Sam's,DWA-9100DWA-9100CH,Choco,New,,,,,3958.90,3599.00,359.90,Ilene Maynard,,0.00,68027Z M/C,,,,,,,,,,,,,,,,,,,,,,11/27/2017 12:00:00 AM,No,"3 years parts, 1 year labor (Free)",Delivered,Sam's Club #4835 11/9-11/19 (WA),,,101800,,WA,,
11/11/2017 6:23:44 PM,Barbara Hamlett,WA,98032,Vitality Plate for Sam's,USJ-849USJ-849,New,New,,,,,856.89,778.99,77.90,Ilene Maynard,,0.00,881016 Amex,,,,,,,,,,,,,,,,,,,,,,,YES,"2 years parts, 1 year labor (Small Items)",Delivered,Sam's Club #4835 11/9-11/19 (WA),,NEW Vitality Plate for demo price,101802,,WA,,
11/11/2017 6:23:44 PM,Barbara Hamlett,WA,98032,Ninja Leg Massager,,,New,,,,,856.89,778.99,77.90,Ilene Maynard,,0.00,881016 Amex,,,,,,,,,,,,,,,,,,,,,,,YES,"2 years parts, 1 year labor (Small Items)",Delivered,Sam's Club #4835 11/9-11/19 (WA),,NEW Vitality Plate for demo price,101802,,WA,,
11/11/2017 7:29:22 PM,Micol Le,WA,98059,Ninja Leg Massager,,,New,,,,,416.90,379.00,37.90,Ilene Maynard,,0.00,001045 M/C,,,,,,,,,,,,,,,,,,,,,,,YES,"2 years parts, 1 year labor (Small Items)",Delivered,Sam's Club #4835 11/9-11/19 (WA),,Cust picked up,101803,,WA,,
11/13/2017 2:46:17 PM,Juan Arellano,WA,98166,Vitality Plate for Sam's,USJ-849USJ-849,New,New,,,,,505.99,459.99,46.00,Ilene Maynard,,0.00,,,,,,,,,,,,,,,,,,,,,,,,YES,"2 years parts, 1 year labor (Small Items)",Delivered,Sam's Club #4835 11/9-11/19 (WA),,Picked up,101857,,WA,,
11/13/2017 8:02:57 PM,Gloria Johnson,WA,98168,Ninja Leg Massager,,,New,,,,,416.90,379.00,37.90,Ilene Maynard,,0.00,000792 M/C,,,,,,,,,,,,,,,,,,,,,,,YES,"2 years parts, 1 year labor (Small Items)",Delivered,Sam's Club #4835 11/9-11/19 (WA),,Picked up,101868,,WA,0,10.00
11/17/2017 2:52:39 PM,Sangeun Cho,WA,98001,Legacy for Sam's,DWA-9100DWA-9100BL,Black,New,,,,,4375.80,3978.00,397.80,Ilene Maynard,,0.00,51877D Visa,,,,,,,,,,,,,,,,,,,,,,,No,"3 years parts, 1 year labor (Free)",Scheduled,Sam's Club #4835 11/9-11/19 (WA),,"Deliver NEW chair 
Picked up Ninja leg massager",101927,,WA,0,10.00
11/17/2017 2:52:39 PM,Sangeun Cho,WA,98001,Ninja Leg Massager,,,New,,,,,4375.80,3978.00,397.80,Ilene Maynard,,0.00,51877D Visa,,,,,,,,,,,,,,,,,,,,,,,No,"2 years parts, 1 year labor (Small Items)",Scheduled,Sam's Club #4835 11/9-11/19 (WA),,"Deliver NEW chair 
Picked up Ninja leg massager",101927,,WA,0,10.00
11/18/2017 1:53:46 PM,Elaine Gero,WA,98118,Vitality Plate for Sam's,USJ-849USJ-849,New,New,,,,,505.99,459.99,46.00,Ilene Maynard,,0.00,01861B,,,,,,,,,,,,,,,,,,,,,,,YES,"2 years parts, 1 year labor (Small Items)",Delivered,Sam's Club #4835 11/9-11/19 (WA),,Picked up,101939,,WA,0,10.00
11/18/2017 3:46:40 PM,Chong Kim,WA,98006,Relax2Zero 2.0 for Sam's,USJ-9050USJ-9050BL,Black,New,,,,,3518.90,3199.00,319.90,Ilene Maynard,,0.00,00515D,,,,,,,,,,,,,,,,,,,,,,12/8/2017 12:00:00 AM,No,"3 years parts, 2 years labor ($200)",Delivered,Sam's Club #4835 11/9-11/19 (WA),,Deliver NEW chair,101942,Added extra year warranty on labor,WA,0,10.00
11/18/2017 5:25:29 PM,Jacqueline Blackwell,WA,98023,Vitality Plate for Sam's,USJ-849USJ-849,New,New,,,,,505.99,459.99,46.00,Ilene Maynard,,0.00,001144,,,,,,,,,,,,,,,,,,,,,,,YES,"2 years parts, 1 year labor (Small Items)",Delivered,Sam's Club #4835 11/9-11/19 (WA),,Picked up,101944,,WA,0,10.00
11/18/2017 7:52:24 PM,Toan Nguyen,WA,98055,Legacy for Sam's,DWA-9100DWA-9100BL,Black,New,,,,,3958.90,3599.00,359.90,Ilene Maynard,,0.00,765439 Debit Card,,,,,,,,,,,,,,,,,,,,,,11/21/2017 12:00:00 AM,No,"3 years parts, 1 year labor (Free)",Delivered,Sam's Club #4835 11/9-11/19 (WA),,Deliver NEW chair,101949,"Put on delivery schedule for Tuesday, Nov. 21 per Scott.  Thank you!",WA,0,10.00
11/18/2017 7:59:07 PM,Kerry Carroll,WA,98503,Ninja Leg Massager,,,New,,,,,416.90,379.00,37.90,Ilene Maynard,,0.00,,,,,,,,,,,,,,,,,,,,,,,,YES,"2 years parts, 1 year labor (Small Items)",Delivered,Sam's Club #4835 11/9-11/19 (WA),,Picked up,101950,,WA,0,10.00
11/18/2017 8:16:20 PM,Gary Chinn,WA,98118,Relax2Zero 2.0 for Sam's,USJ-9050USJ-9050BL,Black,New,,,,,3518.90,3199.00,319.90,Ilene Maynard,,0.00,000978 M/C,,,,,,,,,,,,,,,,,,,,,,12/5/2017 12:00:00 AM,No,"3 years parts, 1 year labor (Free)",Delivered,Sam's Club #4835 11/9-11/19 (WA),,Deliver NEW  chair,101951,,WA,0,10.00
11/19/2017 4:25:21 PM,Steve Enzukewich,WA,98058,Relax2Zero 2.0 for Sam's,USJ-9050USJ-9050BR,Brown,New,,,,,3518.90,3199.00,319.90,Ilene Maynard,,0.00,019609 Visa,,,,,,,,,,,,,,,,,,,,,,,No,"3 years parts, 1 year labor (Free)",Scheduled,Sam's Club #4835 11/9-11/19 (WA),,Deliver NEW chair,101985,,WA,0,10.00
11/19/2017 5:45:39 PM,Vicky Muratalla,WA,98059,Legacy for Sam's,DWA-9100DWA-9100BL,Black,New,,,,,3958.90,3599.00,359.90,Ilene Maynard,,0.00,05269A Visa,,,,,,,,,,,,,,,,,,,,,,,No,"3 years parts, 1 year labor (Free)",Scheduled,Sam's Club #4835 11/9-11/19 (WA),,Deliver NEW chair,101987,,WA,0,10.00
