﻿Date,CustomerName,State,Zipcode,Description,productNo,Color,IsDemo,Net,ShippingFee,GiftPrice,FinancingProcessingFee,Gross,Pre_tax,Tax,Commission,Primary Payment Method,Primary Payment Balance,Primary Authorize Number,Primary Purchase Order Number,Primary Synchrony Account Number,Primary Synchrony Application Key,Primary Synchrony AccountInfo,Primary SynchronyTerm,Secondly Payment Method,Secondly Payment Balance,Secondly Authorize Number,Secondly Purchase Order Number,Secondly Synchrony Account Number,Secondly Synchrony Application Key,Secondly Synchrony AccountInfo,Secondly SynchronyTerm,Thirdly Payment Method,Thirdly Payment Balance,Thirdly Authorize Number,Thirdly Purchase Order Number,Thirdly Synchrony Account Number,Thirdly Synchrony Application Key,Thirdly Synchrony AccountInfo,Thirdly SynchronyTerm,DeliveryDate,Ispickup,Warranty,Status,Event Name,Synchrony Notes,Order Notes,Order number,Private Note,Branch,IsNoTax,ActualTaxRate
6/9/2018 10:23:41 AM,Xin Zhang,AR,72211,Vitality Plate for Sam's,USJ-849USJ-849,New,New,,,,,501.39,459.99,41.40,Phuoc Van,CreditCard,0.00,Tc# 871573168391728148243,,,,,,,0.00,,,,,,,,0.00,,,,,,,,No,"2 years parts, 1 year labor for Small Items",Cancelled,"Sam's Club #8104 Little Rock, AR (6/7-6/17/2018) TX",,Please ship product to customer address because we are out of tock at the store.,106632,revised to #106723. 6/11/18 Hitomi,Not Dispatched,0,9.00
6/11/2018 10:58:19 AM,Amit Agarwal,AR,72212,Vitality Plate for Sam's,USJ-849USJ-849,New,New,,,,,621.28,569.98,51.30,Phuoc Van,CreditCard,459.99,Tc# 504242495213386419822,,,,,,CreditCard,109.99,Tc# 248222154214386485862,,,,,,,0.00,,,,,,,,YES,"2 years parts, 1 year labor for Small Items",Scheduled,"Sam's Club #8104 Little Rock, AR (6/7-6/17/2018) TX",,Customer picked up the foodvibe but we need to ship the vitality plate asap. Preferred shipments arrived before 6/21/18 because they are out of town.,106722,"Please ship vitality plate. due to due to preferred arrival date , I dispatch to TX because it is closer. 6/11/18 Hitomi
Tracking number 7724 4853 0592. 6/11/2018 June",TX,0,9.00
6/11/2018 10:58:19 AM,Amit Agarwal,AR,72212,Foot Vibe Pro,USJ-871,,New,,,,,621.28,569.98,51.30,Phuoc Van,CreditCard,459.99,Tc# 504242495213386419822,,,,,,CreditCard,109.99,Tc# 248222154214386485862,,,,,,,0.00,,,,,,,,YES,"2 years parts, 1 year labor for Small Items",Scheduled,"Sam's Club #8104 Little Rock, AR (6/7-6/17/2018) TX",,Customer picked up the foodvibe but we need to ship the vitality plate asap. Preferred shipments arrived before 6/21/18 because they are out of town.,106722,"Please ship vitality plate. due to due to preferred arrival date , I dispatch to TX because it is closer. 6/11/18 Hitomi
Tracking number 7724 4853 0592. 6/11/2018 June",TX,0,9.00
6/11/2018 11:04:13 AM,Xin Zhang,AR,72211,Vitality Plate for Sam's,USJ-849USJ-849,New,New,,,,,501.39,459.99,41.40,Phuoc Van,CreditCard,0.00,Tc# 871573168391728148243,,,,,,,0.00,,,,,,,,0.00,,,,,,,,YES,"2 years parts, 1 year labor for Small Items",Assigned,"Sam's Club #8104 Little Rock, AR (6/7-6/17/2018) TX",,Need shipping to customer because we are out of stock in store,106723,passed it to order processing dept. 6/11/18 hitomi,CA,0,9.00
6/11/2018 11:11:26 AM,Leigh Bidewell,AR,72223,Legacy for Sam's,DWA-9100DWA-9100BL,New Blue,New,,,,,5187.30,4758.99,428.31,Phuoc Van,CreditCard,0.00,Tc# 1670696636688098823956,,,,,,,0.00,,,,,,,,0.00,,,,,,,,No,"3 years parts, 1 year labor (Free)",New,"Sam's Club #8104 Little Rock, AR (6/7-6/17/2018) TX",,"Please bring the vitality plate when delivery massage chair to customer.
Please Give customer an extra chair pad.",106724,,TX,0,9.00
6/11/2018 11:11:26 AM,Leigh Bidewell,AR,72223,Vitality Plate for Sam's,USJ-849USJ-849,New,New,,,,,5187.30,4758.99,428.31,Phuoc Van,CreditCard,0.00,Tc# 1670696636688098823956,,,,,,,0.00,,,,,,,,0.00,,,,,,,,No,"2 years parts, 1 year labor for Small Items",New,"Sam's Club #8104 Little Rock, AR (6/7-6/17/2018) TX",,"Please bring the vitality plate when delivery massage chair to customer.
Please Give customer an extra chair pad.",106724,,TX,0,9.00
6/11/2018 11:17:20 AM,Jane Roark,AR,72219,Legacy for Sam's,DWA-9100DWA-9100BL,New Black,New,,,,,4685.91,4299.00,386.91,Phuoc Van,CreditCard,0.00,Tc# 3992282499211382469852,,,,,,,0.00,,,,,,,,0.00,,,,,,,,No,"3 years parts, 1 year labor (Free)",New,"Sam's Club #8104 Little Rock, AR (6/7-6/17/2018) TX",,Please give customer an extra chair pad.,106725,,TX,0,9.00
6/11/2018 11:22:41 AM,Irvan Higgins,MI,48035,Shogun Neck & Back Massger,USJ-874USJ-874,New,New,,,,,217.98,199.98,18.00,Phuoc Van,CreditCard,0.00,Tc# 180300974004566241680,,,,,,,0.00,,,,,,,,0.00,,,,,,,,YES,"2 years parts, 1 year labor for Small Items",Delivered,"Sam's Club #8104 Little Rock, AR (6/7-6/17/2018) TX",,,106726,,TX,0,9.00
6/11/2018 11:26:46 AM,Terry Lee,AR,72206,Shogun Neck & Back Massger,USJ-874USJ-874,New,New,,,,,217.98,199.98,18.00,Phuoc Van,CreditCard,0.00,571563864340729173203,,,,,,,0.00,,,,,,,,0.00,,,,,,,,YES,"2 years parts, 1 year labor for Small Items",Delivered,"Sam's Club #8104 Little Rock, AR (6/7-6/17/2018) TX",,,106727,,TX,0,9.00
6/11/2018 11:32:34 AM,Dailean Scott,AR,71601,Shogun Neck & Back Massger,USJ-874USJ-874,New,New,,,,,217.98,199.98,18.00,Phuoc Van,CreditCard,0.00,Tc 102300774042566247680,,,,,,,0.00,,,,,,,,0.00,,,,,,,,YES,"2 years parts, 1 year labor for Small Items",Delivered,"Sam's Club #8104 Little Rock, AR (6/7-6/17/2018) TX",,,106729,,TX,0,9.00
6/11/2018 11:39:22 AM,Janeth Ponce,AR,72205,Foot Vibe Pro,USJ-871,,New,,,,,119.89,109.99,9.90,Phuoc Van,CreditCard,0.00,707827605769435912327,,,,,,,0.00,,,,,,,,0.00,,,,,,,,YES,"2 years parts, 1 year labor for Small Items",Delivered,"Sam's Club #8104 Little Rock, AR (6/7-6/17/2018) TX",,,106731,,TX,0,9.00
6/11/2018 11:44:58 AM,Firoz Bardai,AR,72211,Foot Vibe Pro,USJ-871,,New,,,,,337.87,309.97,27.90,Phuoc Van,CreditCard,0.00,Tc 899709027955613512109,,,,,,,0.00,,,,,,,,0.00,,,,,,,,YES,"2 years parts, 1 year labor for Small Items",Delivered,"Sam's Club #8104 Little Rock, AR (6/7-6/17/2018) TX",,,106734,,TX,0,9.00
6/11/2018 11:44:58 AM,Firoz Bardai,AR,72211,Shogun Neck & Back Massger,USJ-874USJ-874-DEMO,Demo,Demo,,,,,337.87,309.97,27.90,Phuoc Van,CreditCard,0.00,Tc 899709027955613512109,,,,,,,0.00,,,,,,,,0.00,,,,,,,,YES,"2 years parts, 1 year labor for Small Items",Delivered,"Sam's Club #8104 Little Rock, AR (6/7-6/17/2018) TX",,,106734,,TX,0,9.00
6/11/2018 11:49:47 AM,Morris Clegg,AR,72022,Foot Vibe Pro,USJ-871,,New,,,,,119.89,109.99,9.90,Phuoc Van,CreditCard,0.00,Tc 66595830285925879150,,,,,,,0.00,,,,,,,,0.00,,,,,,,,YES,"2 years parts, 1 year labor for Small Items",Delivered,"Sam's Club #8104 Little Rock, AR (6/7-6/17/2018) TX",,,106736,,TX,0,9.00
6/11/2018 12:03:03 PM,Mike Davis,AR,72223,Foot Vibe Pro,USJ-871,,New,,,,,119.89,109.99,9.90,Phuoc Van,CreditCard,0.00,Tc743827629769436912367,,,,,,,0.00,,,,,,,,0.00,,,,,,,,YES,"2 years parts, 1 year labor for Small Items",Delivered,"Sam's Club #8104 Little Rock, AR (6/7-6/17/2018) TX",,,106741,,TX,0,9.00
6/11/2018 12:12:11 PM,Stephen Johnsamson,AR,72076,Foot Vibe Pro,USJ-871,,New,,,,,119.89,109.99,9.90,Phuoc Van,CreditCard,0.00,042300978004564261640,,,,,,,0.00,,,,,,,,0.00,,,,,,,,YES,"2 years parts, 1 year labor for Small Items",Delivered,"Sam's Club #8104 Little Rock, AR (6/7-6/17/2018) TX",,,106744,,TX,0,9.00
6/11/2018 12:56:04 PM,Stephen Johnsamson,AR,72076,Vitality Plate for Sam's,USJ-849USJ-849,New,New,,,,,501.39,459.99,41.40,Phuoc Van,CreditCard,0.00,Tc# 019759823985619544169,,,,,,,0.00,,,,,,,,0.00,,,,,,,,YES,"2 years parts, 1 year labor for Small Items",New,"Sam's Club #8104 Little Rock, AR (6/7-6/17/2018) TX",,Please ship this product to customer asap because we are out of stock in store,106748,,Not Dispatched,0,9.00
