﻿Order Number,Order Date,Event Name,Salesperson,SKU,Product Name,Color,QTY,Warranty,Payment Details,Tax,Order Total,Gross,Primary Payment Method,Primary Payment Balance,Primary Authorize Number,Primary Purchase Order Number,Primary Synchrony Account Number,Primary Synchrony Application Key,Primary Synchrony AccountInfo,Primary SynchronyTerm,Secondly Payment Method,Secondly Payment Balance,Secondly Authorize Number,Secondly Purchase Order Number,Secondly Synchrony Account Number,Secondly Synchrony Application Key,Secondly Synchrony AccountInfo,Secondly SynchronyTerm,Thirdly Payment Method,Thirdly Payment Balance,Thirdly Authorize Number,Thirdly Purchase Order Number,Thirdly Synchrony Account Number,Thirdly Synchrony Application Key,Thirdly Synchrony AccountInfo,Thirdly SynchronyTerm,Actual Shipping Cost,CustomerName,Shipping Address,Delivered On,Serial Number (TO Be),Note,Branch,IsNoTax,ActualTaxRate
101187,10/9/2017 2:14:57 PM,JIS 10/8-10/11/17 (FL),Rodrigo Malabunga,DWA-9100DWA-9100BL,Legacy,Black,1,"3 years parts, 1 year labor (Free)",CreditCard ,183.00,3983.00,3983.00,,4000.00,FbdC,,,,,,,,,,,,,,,,,,,,,,350.00,Andrew Ansara,2484174415,10/25/2017 12:00:00 AM,,"Paid in full $4,000 (tax and white glove delivery included). No balance.",TX,,
101219,10/12/2017 7:34:46 AM,JIS 10/8-10/11/17 (FL),Mitch Valdes,DWA-9100DWA-9100CR-DEMO,Legacy,Demo Cream,1,"3 years parts, 1 year labor (Free)",Synchrony CreditCard,209.45,3700.25,3700.25,Synchrony,3500.00,,,6034610081566476,79534225,San Diego,24 months,CreditCard,200.00,IcF6,,,,,,,0.00,,,,,,,0.00,SYED AMJAD,832-713-4128,10/13/2017 12:00:00 AM,,"Balance COD $200
Synchrony (San Diego) $3,500",FL,,
