﻿Original Event Name,Event Name,Sales Person,Order Number,Order Date,Customer Name,State,Zip,Product Name,Color,Product Status,QTY,Tax,Total Before Tax,Order Total,Primary Payment Method,Second Payment Method,Thirdl Payment Method,Warranty,Order Items,Pick up,Delivered On,Order Status,Order Notes,Private Note,Branch,No Tax,Actual Tax Rate,SKU,Primary Payment Balance,Primary Authorize Number,Primary Purchase Order Number,Primary Synchrony Account Number,Primary Synchrony Application Key,Primary Synchrony Account Info,Primary Synchrony Term,Second Payment Balance,Second Authorize Number,Second Purchase Order Number,Second Synchrony Account Number,Second Synchrony Application Key,Second Synchrony Account Info,Second SynchronyTerm,Third Payment Balance,Third Authorize Number,Third Purchase Order Number,Third Synchrony Account Number,Third Synchrony Application Key,Third Synchrony Account Info,Third Synchrony Term,First Name,Last Name,Email,Shipping Company,Shipping Address1,Shipping Address2,Shipping Suite,Shipping City,Shipping State,Shipping Zip,Shipping Country,Shipping Phone
"GEORGIA NATIONAL FAIR 10/4-14/18 PERRY,GA (IL)","GEORGIA NATIONAL FAIR 10/4-14/18 PERRY,GA (FL)",Querubin Milanes,110065,10/4/2018 2:45:16 PM,Paul Harkness,GA,31028,Relax2Zero 3D,Demo Choco,Demo,1,0.00,4200.00,4200.00,Synchrony,,,"3 years parts, 1 year labor (Free)","Relax2Zero 3D,",No,,Scheduled,,"CC Josefina - 10/9/18 2:10pm
Confirmed SYNC($5,400) and original. ***Please charge $4,200 before delivery and sales draft signed.***10/8/18 Hitomi",FL,1,7.00,DWA-9060USJ-9060BR-DEMO,4200.00,,,6019170813172720,95260597,Las Vegas,36 months,0.00,,,,,,,0.00,,,,,,,Paul,Harkness,paul@paulharkness.com,,110 Willow Glen,,,Centerville,GA,31028,United States,478-922-0998
"GEORGIA NATIONAL FAIR 10/4-14/18 PERRY,GA (IL)","GEORGIA NATIONAL FAIR 10/4-14/18 PERRY,GA (FL)",Querubin Milanes,110075,10/4/2018 6:13:30 PM,Liz Goodroe,GA,39962,Relax2Zero 3D,Demo Choco,Demo,1,0.00,4200.00,4200.00,Synchrony,,,"5 years parts, 1 year labor (Free)","Relax2Zero 3D,",No,,Assigned,,"CC Josefina - 10/9/18 2:25pm

Confirmed SYNC($6,500) and original. ***Please charge $4,200 before delivery and sales draft signed. *** 10/8/18 Hitomi",FL,1,7.00,DWA-9060USJ-9060BR-DEMO,4200.00,,,6019170813173124,95269297,Las Vegas,36 months,0.00,,,,,,,0.00,,,,,,,Liz,Goodroe,lizgoodroe@bellsouth.net,,1543 Brookcliff Circle,,,Marietta,GA,39962,United States,770-833-8973
"GEORGIA NATIONAL FAIR 10/4-14/18 PERRY,GA (IL)","GEORGIA NATIONAL FAIR 10/4-14/18 PERRY,GA (FL)",Joseph Chan,110085,10/5/2018 1:11:12 PM,Joseph Kent,GA,31070,Legacy 3D,New Choco,New,1,0.00,4900.00,4900.00,Synchrony,,,"3 years parts, 1 year labor (Free)","Legacy 3D,",No,,Scheduled,,"CC Josefina - 10/9/18 2:10pm

COnfirmed SYNC($8,500) and original.***Please charge $4,900 before delivery and sales draft signed.***10/8/18 Hitomi",FL,1,7.00,DWA-9150USJ-9150CH,4900.00,,,6019170813173793,95294228,Las Vegas,36 months,0.00,,,,,,,0.00,,,,,,,Joseph,Kent,joe.kent60@gmail.com,,3435 Nellieville Rd,,,Pinehurst,GA,31070,United States,478-952-9764
"GEORGIA NATIONAL FAIR 10/4-14/18 PERRY,GA (IL)","GEORGIA NATIONAL FAIR 10/4-14/18 PERRY,GA (FL)",Ting Ritchie,110086,10/5/2018 1:33:22 PM,Douglas Smith,GA,30014,Symphony,Demo Black,Demo,1,314.93,5249.07,5564.00,Synchrony,CreditCard,,"3 years parts, 1 year labor (Free)","Symphony,",No,,Scheduled,,"CC Josefina - 10/9/18 4:35pm VM

Confirmed $1,064.00 in Square. SYNC($4,500) and original.***Please charge $4,500 before delivery and sales draft signed.*** 10/8/18 Hitomi",FL,0,7.00,USJ-9300Symphony-BL-DEMO,4500.00,,,6019170813173819,95294865,Las Vegas,48 months,1064.00,#RCXB,,,,,,0.00,,,,,,,Douglas,Smith,dsmith@infinitynetworks.net,,130 Alcovy Crossing Dr,,,Covington,GA,30014,United States,770-480-8190
"GEORGIA NATIONAL FAIR 10/4-14/18 PERRY,GA (IL)","GEORGIA NATIONAL FAIR 10/4-14/18 PERRY,GA (FL)",Ting Ritchie,110111,10/7/2018 6:38:59 AM,Jeremy Maples,GA,31088,Relax2Zero 3D,Demo Black,Demo,1,0.00,4140.00,4140.00,Synchrony,,,"3 years parts, 1 year labor (Free)","Relax2Zero 3D,",No,,Scheduled,,"CC Josefina - 10/9/18 VM
Confirmed SYNC($6,000) and original.***Please charge $4,140 before delivery and sales draft signed. ***10/8/18 Hitomi",FL,1,7.00,DWA-9060USJ-9060BL-DEMO,4140.00,,,6019170813177299,95362364,Las Vegas,36 months,0.00,,,,,,,0.00,,,,,,,Jeremy,Maples,jbmaples42183@gmail.com,,441 Granada Terrace,,,Warner Robins,GA,31088,United States,254-548-4475
"GEORGIA NATIONAL FAIR 10/4-14/18 PERRY,GA (IL)","GEORGIA NATIONAL FAIR 10/4-14/18 PERRY,GA (FL)",Joseph Chan,110129,10/7/2018 11:10:50 AM,Karl Senn,GA,30454,Relax2Zero 3D,New Choco,New,1,255.43,4399.07,4654.50,CreditCard,,,"3 years parts, 1 year labor (Free)","Relax2Zero 3D,",No,,Assigned,,"CC Josefina - 10/9/18 2:05pm

Confirmed $4,654.50 in Square.10/8/18 Hitomi",FL,0,7.00,DWA-9060USJ-9060BR,4654.50,#vFNt,,,,,,0.00,,,,,,,0.00,,,,,,,Karl,Senn,ksenn@dcc1945.com,,1295 Walk Wynn Rd,,,Rockledy,GA,30454,United States,478-484-1366
"GEORGIA NATIONAL FAIR 10/4-14/18 PERRY,GA (IL)","GEORGIA NATIONAL FAIR 10/4-14/18 PERRY,GA (FL)",Joseph Chan,110130,10/7/2018 11:18:04 AM,Debbie Guymon,GA,31404,Legacy 3D,New Choco,New,1,258.93,4449.07,4708.00,CreditCard,COD,,"3 years parts, 1 year labor (Free)","Legacy 3D,",No,,Assigned,"Customer is going for vacation for 10 days, balance of $4508 to be charged before delivery","CC Josefina - 10/9/18 2:00pm (Will be back Oct. 15th)

COnfirmed $200 in Square. COD$4,508.00. 10/8/18 Hitomi",FL,0,7.00,DWA-9150USJ-9150CH,200.00,#up3q,,,,,,4508.00,,,,,,,0.00,,,,,,,Debbie,Guymon,dguymon01@comcast.net,,3211 Vernon St,,,Savannah,GA,31404,United States,912-484-6009
"GEORGIA NATIONAL FAIR 10/4-14/18 PERRY,GA (IL)","GEORGIA NATIONAL FAIR 10/4-14/18 PERRY,GA (FL)",Ting Ritchie,110132,10/7/2018 11:35:15 AM,Ronnie Harlowe,GA,31088,Relax2Zero 3D,New Black,New,1,0.00,4800.00,4800.00,Synchrony,,,"5 years parts, 1 year labor (Free)","Relax2Zero 3D,",No,,Scheduled,,"CC Josefina - 10/9/18 2:00pm
Confirmed SYNC($8,500) and original.***Please charge $4,800 before delivery and sales draft signed.***10/8/18 Hitomi",FL,1,7.00,DWA-9060USJ-9060BL,4800.00,,,6019170813177794,95375663,Las Vegas,48 months,0.00,,,,,,,0.00,,,,,,,Ronnie,Harlowe,harlowe@houstoncountyga.org,,205 Knob Hill Rd,,,Warner Robins,GA,31088,United States,478-808-7984
"GEORGIA NATIONAL FAIR 10/4-14/18 PERRY,GA (IL)","GEORGIA NATIONAL FAIR 10/4-14/18 PERRY,GA (FL)",Ting Ritchie,110181,10/8/2018 9:15:21 AM,Eddie Wilson,GA,31032,Legacy 3D,New Black,New,1,0.00,4000.00,4000.00,CreditCard,,,"5 years parts, 1 year labor (Free)","Legacy 3D,",No,,Assigned,,"Buying 2 chairs, same receipt # for customer Marcus Birt #110182
10/8Maritza Confirmed 8000 on square. Courtesy call @ 11:38AM",FL,1,7.00,DWA-9150USJ-9150BL,4000.00,#FPSA,,,,,,0.00,,,,,,,0.00,,,,,,,Eddie,Wilson,defaultmail@daiwamassage.com,,117 Ross Ct,,,Gray,GA,31032,United States,678-920-7060
"GEORGIA NATIONAL FAIR 10/4-14/18 PERRY,GA (IL)","GEORGIA NATIONAL FAIR 10/4-14/18 PERRY,GA (FL)",Ting Ritchie,110182,10/8/2018 9:24:18 AM,Marcus Birt,GA,31032,Legacy 3D,New Black,New,1,0.00,4000.00,4000.00,CreditCard,,,"5 years parts, 1 year labor (Free)","Legacy 3D,",No,,Assigned,,"Same receipt as customer Eddie Wilson #110181
10/8Maritza Confirmed 8000 on square. Courtesy call @ 11:40AM",FL,1,7.00,DWA-9150USJ-9150BL,4000.00,#FPSA,,,,,,0.00,,,,,,,0.00,,,,,,,Marcus,Birt,mhbirt@yahoo.com,,147 Clinton Crossing Dr,,,Gray,GA,31032,United States,478-256-4533
"GEORGIA NATIONAL FAIR 10/4-14/18 PERRY,GA (IL)","GEORGIA NATIONAL FAIR 10/4-14/18 PERRY,GA (FL)",Joseph Chan,110183,10/8/2018 9:28:10 AM,Ronald Mills,GA,31787,Legacy 3D,New Choco,New,1,0.00,4000.00,4000.00,CreditCard,,,"3 years parts, 1 year labor (Free)","Legacy 3D,",No,,Assigned,,10/8Maritza- Confirmed 4000 on square. Courtesy call @ 11:42AM,FL,1,7.00,DWA-9150USJ-9150CH,4000.00,#IvBw,,,,,,0.00,,,,,,,0.00,,,,,,,Ronald,Mills,mrmills0723@gmail.com,,168 Mills Rd,,,Smithville,GA,31787,United States,229-846-4732
"GEORGIA NATIONAL FAIR 10/4-14/18 PERRY,GA (IL)","GEORGIA NATIONAL FAIR 10/4-14/18 PERRY,GA (FL)",Querubin Milanes,110196,10/8/2018 2:10:23 PM,Brad Barreth,GA,31211,Legacy 3D,New Black,New,1,0.00,4500.00,4500.00,CreditCard,,,"5 years parts, 1 year labor (Free)","Legacy 3D,",No,,Assigned,,"CC Josefina - 10/10/18 12:12pm VM (CORRECT # 478-235-1498

Per.Joseph, sales made by Ting.//Confirmed $4,500 in Square. 10/8/18 Hitomi",FL,1,7.00,DWA-9150USJ-9150BL,4500.00,#PRRa,,,,,,0.00,,,,,,,0.00,,,,,,,Brad,Barreth,fbattle77@icloud.com,,360 E Colonial Dr,,,Macon,GA,31211,United States,478-718-4338
"GEORGIA NATIONAL FAIR 10/4-14/18 PERRY,GA (IL)","GEORGIA NATIONAL FAIR 10/4-14/18 PERRY,GA (FL)",Querubin Milanes,110197,10/8/2018 2:14:58 PM,Tammy Bradford,GA,31064,Relax2Zero 3D,Demo Choco,Demo,1,0.00,4200.00,4200.00,Synchrony,,,"5 years parts, 1 year labor (Free)","Relax2Zero 3D,",No,,Scheduled,,"CC Josefina - 10/9/18 1:20pm

Confirmed SYNC($5,100) and original.***Please charge $4,200 before delivery and sales draft signed by TAMMY BRADFORD.  10/8/18 Hitomi",FL,1,7.00,DWA-9060USJ-9060BR-DEMO,4200.00,,,6019170813180525,95433602,Las Vegas,36 months,0.00,,,,,,,0.00,,,,,,,Tammy,Bradford,tbradford2092@live.com,,599 Smithboro Rd,,,Monyicello,GA,31064,United States,706-468-2092
"GEORGIA NATIONAL FAIR 10/4-14/18 PERRY,GA (IL)","GEORGIA NATIONAL FAIR 10/4-14/18 PERRY,GA (FL)",Ting Ritchie,110200,10/8/2018 5:36:28 PM,Ronald Cain,GA,30286,Legacy 3D,New Choco,New,1,0.00,4800.00,4800.00,Synchrony,,,"5 years parts, 1 year labor (Free)","Legacy 3D,",No,,Cancelled,,"Confirmed SYNC($6,500) . ORIGINAL NEEDS TO BE CONFIRMED . 10/9/18 Hitomi//According to Ting, due to there is no room to put the chair, they would like to cancel the order. Marked as cancelled. 10/9/18 Hitomi",Not Dispatched,1,7.00,DWA-9150USJ-9150CH,4800.00,,,6019170813181127,95443364,Las Vegas,48 months,0.00,,,,,,,0.00,,,,,,,Ronald,Cain,sdc56rkc54@gmail.com,,115 Slayden Dr,,,Thomaston,GA,30286,United States,706-656-4553
"GEORGIA NATIONAL FAIR 10/4-14/18 PERRY,GA (IL)","GEORGIA NATIONAL FAIR 10/4-14/18 PERRY,GA (FL)",Joseph Chan,110201,10/8/2018 5:43:48 PM,Donald Kless,GA,30253,Legacy 3D,New Black,New,1,293.93,4949.07,5243.00,Synchrony,,,"3 years parts, 1 year labor (Free)","Legacy 3D,",No,,Scheduled,,"CC Josefina - 10/12/18 9:35am VM

Please add Daiwa Blanket  (confirmed with Joseph)// Confirmed SYNC($6,000) . ORIGINAL NEEDS TO BE CONFIRMED . 10/9/18 Hitomi//confirmed original.***Please charge $5,243.00 before delivery and sales draft signed.***10/10/18 Hitomi",FL,0,7.00,DWA-9150USJ-9150BL,5243.00,,,6019170813181341,95447122,Las Vegas,48 months,0.00,,,,,,,0.00,,,,,,,Donald,Kless,defaultmail@daiwamassage.com,,350 Robin Ln,,,McDonough,GA,30253,United States,404-405-7164
"GEORGIA NATIONAL FAIR 10/4-14/18 PERRY,GA (IL)","GEORGIA NATIONAL FAIR 10/4-14/18 PERRY,GA (FL)",Querubin Milanes,110202,10/8/2018 5:49:06 PM,Melissa Gibbs,GA,31008,Relax2Zero 3D,New Choco,New,1,0.00,4300.00,4300.00,Synchrony,,,"3 years parts, 1 year labor (Free)","Relax2Zero 3D,",No,,Scheduled,,"CC Josefina - 10/12/18 10:20am TXT
Please add Daiwa Blanket  (confirmed with Joseph) //Confirmed SYNC($6,500) . ORIGINAL NEEDS TO BE CONFIRMED . 10/9/18 Hitomi//COnfirmed original. 10/10/18 Hitomi",FL,1,7.00,DWA-9060USJ-9060BR,4300.00,,,6019170813181416,95448248,Las Vegas,36 months,0.00,,,,,,,0.00,,,,,,,Melissa,Gibbs,melissacgibbs@gmail.com,,339 Ventura Dr,,,Byron,GA,31008,United States,478-228-2415
"GEORGIA NATIONAL FAIR 10/4-14/18 PERRY,GA (IL)","GEORGIA NATIONAL FAIR 10/4-14/18 PERRY,GA (FL)",Ting Ritchie,110210,10/9/2018 8:47:13 AM,Kimbekly Reeves,GA,31025,Symphony,New Black,New,1,0.00,5760.00,5760.00,Synchrony,,,"5 years parts, 1 year labor (Free)","Symphony,",No,,Scheduled,,"CC Josefina - 10/12/18 10:22am 
Due to selling price, I can not pick free White Glove Service but we offered this service.//Confirmed SYNC($6,300) . ORIGINAL NEEDS TO BE CONFIRMED . 10/9/18 Hitomi//Confirmed original. ***Please charge $5,760 before delivery and sales draft signed.***10/10/18 Hitomi",FL,1,7.00,USJ-9300Symphony-BL,5760.00,,,6019170813181465,95450465,Las Vegas,36 months,0.00,,,,,,,0.00,,,,,,,Kimbekly,Reeves,kdreeves70@gmail.com,,126 Pyles Rd,,,Ezko,GA,31025,United States,478-951-6437
"GEORGIA NATIONAL FAIR 10/4-14/18 PERRY,GA (IL)","GEORGIA NATIONAL FAIR 10/4-14/18 PERRY,GA (FL)",Ting Ritchie,110224,10/9/2018 4:00:05 PM,Teresa Stokes,GA,31750,Legacy 3D,Demo Black,Demo,1,0.00,4200.00,4200.00,CreditCard,COD,,"3 years parts, 1 year labor (Free)","Legacy 3D,",No,,Assigned,Balance of $3700. C.O.D.,"CC Josefina - 10/12/18 10:35am VM
Confirmed $500.00 in Square. *COD$3,700*.10/10/18 Hitomi",FL,1,7.00,DWA-9150USJ-9150BL-DEMO,500.00,#0H5D,,,,,,3700.00,,,,,,,0.00,,,,,,,Teresa,Stokes,tgstokes1@icloud.com,,112 Gettysburg Rd,,,Fitzgerald,GA,31750,United States,229-425-2731
"GEORGIA NATIONAL FAIR 10/4-14/18 PERRY,GA (IL)","GEORGIA NATIONAL FAIR 10/4-14/18 PERRY,GA (FL)",Querubin Milanes,110226,10/9/2018 4:03:54 PM,Leon Thompson,GA,31089,Relax2Zero 3D,New Choco,New,1,0.00,4300.00,4300.00,Synchrony,,,"5 years parts, 1 year labor (Free)","Relax2Zero 3D,",No,,Scheduled,,"CC Josefina - 10/12/18 10:45am
Confirmed SYNC($6,000) and original.***Please charge $4,300 before delivery and sales draft signed by Leon***10/10/18 Hitomi",FL,1,7.00,DWA-9060USJ-9060BR,4300.00,,,6019170813182075,95473831,Las Vegas,36 months,0.00,,,,,,,0.00,,,,,,,Leon,Thompson,sandravan123@gmail.com,,1574 Old Savannah Rd,,,Tennville,GA,31089,United States,478-553-1020
"GEORGIA NATIONAL FAIR 10/4-14/18 PERRY,GA (IL)","GEORGIA NATIONAL FAIR 10/4-14/18 PERRY,GA (FL)",Querubin Milanes,110227,10/9/2018 4:08:22 PM,Judy Youngblood,GA,31090,Relax2Zero 3D,New Choco,New,1,0.00,4300.00,4300.00,Synchrony,,,"5 years parts, 1 year labor (Free)","Relax2Zero 3D,",No,,Scheduled,,"CC Josefina - 10/12/18 10:50am VM

Confirmed SYNC($6,500) and original. ***Please charge $4,300 before delivery and sales draft signed by JUDY.***10/10/18 Hitomi",FL,1,7.00,DWA-9060USJ-9060BR,4300.00,,,6019170813182067,95473362,Las Vegas,36 months,0.00,,,,,,,0.00,,,,,,,Judy,Youngblood,judy310014@yahoo.com,,915 W Youngblood Rd,,,Toomsboro,GA,31090,United States,478-946-7194
"GEORGIA NATIONAL FAIR 10/4-14/18 PERRY,GA (IL)","GEORGIA NATIONAL FAIR 10/4-14/18 PERRY,GA (FL)",Querubin Milanes,110234,10/9/2018 8:20:00 PM,Michael Webb,GA,31047,Legacy 3D,New Black,New,1,0.00,4200.00,4200.00,Synchrony,,,"5 years parts, 1 year labor (Free)","Legacy 3D,",No,,Paid,,"Confirmed SYNC($5,500) and original.***Please charge $4,200 before delivery and sales draft signed.***10/10/18 Hitomi",FL,1,7.00,DWA-9150USJ-9150BL,4200.00,,,6019170813182885,95495107,Las Vegas,36 months,0.00,,,,,,,0.00,,,,,,,Michael,Webb,gospud@yahoo.com,,106 Whik Column Dr,,,Kathleen,GA,31047,United States,478-988-9132
"GEORGIA NATIONAL FAIR 10/4-14/18 PERRY,GA (IL)","GEORGIA NATIONAL FAIR 10/4-14/18 PERRY,GA (FL)",Querubin Milanes,110235,10/9/2018 8:23:52 PM,Ryan Monti,GA,31069,Relax2Zero 3D,New Choco,New,1,0.00,4200.00,4200.00,Synchrony,,,"5 years parts, 1 year labor (Free)","Relax2Zero 3D,",No,,Assigned,,"CC Josefina - 10/12/18 10:53am VM

COnfirmed ($6,500) and original.***Please charge $4,200 before delivery and sales draft signed.***10/10/18 Hitomi",FL,1,7.00,DWA-9060USJ-9060BR,4200.00,,,6019170813182836,95493971,Las Vegas,36 months,0.00,,,,,,,0.00,,,,,,,Ryan,Monti,zupom17@gmail.com,,1222 Deer Run Trail,,,Perry,GA,31069,United States,2014140411
"GEORGIA NATIONAL FAIR 10/4-14/18 PERRY,GA (IL)","GEORGIA NATIONAL FAIR 10/4-14/18 PERRY,GA (FL)",Querubin Milanes,110236,10/9/2018 8:34:42 PM,William Storey,GA,31824,Relax2Zero 3D,New Choco,New,1,0.00,4200.00,4200.00,Synchrony,,,"5 years parts, 1 year labor (Free)","Relax2Zero 3D,",No,,Scheduled,,"CC Josefina - 10/12/18 10:55am  (ryan monti friend - tues, wed, thurs delivery) 

Confirmed SYNC($6,000) and original.***Please charge $4,200 before delivery and sales draft signed.***10/10/18 Hitomi",FL,1,7.00,DWA-9060USJ-9060BR,4200.00,,,6019170813182828,95493942,Huston,36 months,0.00,,,,,,,0.00,,,,,,,William,Storey,clint31824@yahoo.com,,108 Spring Dr,,,Preston,GA,31824,United States,229-828-2074
"GEORGIA NATIONAL FAIR 10/4-14/18 PERRY,GA (IL)","GEORGIA NATIONAL FAIR 10/4-14/18 PERRY,GA (FL)",Querubin Milanes,110237,10/9/2018 8:42:56 PM,Eric Millette,GA,31030,Relax2Zero 3D,New Choco,New,1,0.00,4200.00,4200.00,Synchrony,Synchrony,COD,"5 years parts, 1 year labor (Free)","Relax2Zero 3D,",No,,Scheduled,Balance of $1800 to be C.O.D.,"CC Josefina - 10/12/18 10:58am
Confirmed SYNC approved for ERIC $1,200/SHIRLEY $1,200. **Please charge $2,400($1,200 each acct) and COD$1,800. SALES DRAFTS NEED TO BE SIGNED BY *BOTH*,ERIC AND SHIRLEY**10/10/18 Hitomi",FL,1,7.00,DWA-9060USJ-9060BR,1200.00,,,6019170813177265,95361971,Las Vegas,36 months,1200.00,,,6019170813177281,95362187,Las Vegas,36 months,1800.00,,,,,,,Eric,Millette,smillette1388@gmail.com,,219 Christopher Circle,,,Fort Valley,GA,31030,United States,478-955-3409
"GEORGIA NATIONAL FAIR 10/4-14/18 PERRY,GA (FL)","GEORGIA NATIONAL FAIR 10/4-14/18 PERRY,GA (FL)",Ting Ritchie,110251,10/11/2018 6:54:15 PM,Jonathan McNeal,GA,31047,Symphony,New Black,New,1,0.00,5280.00,5280.00,Synchrony,,,"5 years parts, 1 year labor (Free)","Symphony,",No,,Assigned,,"CC Josefina - 10/17/18 9:45am
Confirmed SYNC($6,500) and original.***Please charge $5,280 before delivery and sales draft signed.***10/16/18 Hitomi",FL,1,7.00,USJ-9300Symphony-BL,5280.00,,,6019170813185045,95570645,Las Vegas,48 months,0.00,,,,,,,0.00,,,,,,,Jonathan,McNeal,md2000@cox.net,,1828 Houston Lake Rd,,,Kathleen,GA,31047,United States,478-988-8278
"GEORGIA NATIONAL FAIR 10/4-14/18 PERRY,GA (FL)","GEORGIA NATIONAL FAIR 10/4-14/18 PERRY,GA (FL)",Ting Ritchie,110266,10/13/2018 6:42:52 AM,Wayne Martin,GA,31061,Symphony,Demo Choco,Demo,1,0.00,5000.00,5000.00,CreditCard,COD,,"5 years parts, 1 year labor (Free)","Symphony,",No,,Assigned,,"Confirmed $500 in Square. **COD $4,500** 10/15/18 Hitomi
10/15Maritza- email + message sent @ 12PM",FL,1,7.00,USJ-9300Symphony-BW-DEMO,500.00,#zU8R,,,,,,4500.00,,,,,,,0.00,,,,,,,Wayne,Martin,hayman1951@yahoo.com,,140 Salem Church Rd SW,,,Milledgeville,GA,31061,United States,478-456-6692
"GEORGIA NATIONAL FAIR 10/4-14/18 PERRY,GA (FL)","GEORGIA NATIONAL FAIR 10/4-14/18 PERRY,GA (FL)",Ting Ritchie,110292,10/14/2018 6:09:12 AM,Cynthia Martin,GA,31069,Legacy 3D,Demo Choco,Demo,1,0.00,4140.00,4140.00,Synchrony,,,"3 years parts, 1 year labor (Free)","Legacy 3D,",No,,Assigned,,"CC Josefina - 10/17/18 9:53am
Confirmed SYNC($5,500) and original.***Please charge $4,140 before delivery and sales draft signed.***10/16/18 Hitomi",FL,1,7.00,DWA-9150USJ-9150CH-DEMO,4140.00,,,6019170813189195,95662981,Las Vegas,36 months,0.00,,,,,,,0.00,,,,,,,Cynthia,Martin,cc.martin@outlook.com,,102 Ashley Dr,,,Perry,GA,31069,United States,478-987-7937
"GEORGIA NATIONAL FAIR 10/4-14/18 PERRY,GA (FL)","GEORGIA NATIONAL FAIR 10/4-14/18 PERRY,GA (FL)",Ting Ritchie,110293,10/14/2018 6:16:03 AM,Jennifer Howell,GA,31005,Symphony,New Black,New,1,0.00,5760.00,5760.00,Synchrony,,,"5 years parts, 1 year labor (Free)","Symphony,",No,,Assigned,,"CC Josefina - 10/17/18 9:55am (If call before the 25th call her husband, Dean : 850-797-7345. Jennifer's cell: 850-797-0983)
We provide Free White Glove service. However, due to the high selling price, I can not do that in daiwa space.//Confirmed SYNC($8,500) and original. ***Please charge $5,760 before delivery and sales draft signed.***10/16/18 Hitomi",FL,1,7.00,USJ-9300Symphony-BL,5760.00,,,6019170813189393,95665493,Las Vegas,36 months,0.00,,,,,,,0.00,,,,,,,Jennifer,Howell,jennie.howell3@gmail.com,,212 Adirondac Way,,,Bonaire,GA,31005,United States,860-797-0983
"GEORGIA NATIONAL FAIR 10/4-14/18 PERRY,GA (FL)","GEORGIA NATIONAL FAIR 10/4-14/18 PERRY,GA (FL)",Joseph Chan,110294,10/14/2018 6:23:40 AM,Ronda Price,GA,30354,Legacy 3D,New Black,New,1,0.00,4500.00,4500.00,Synchrony,,,"3 years parts, 1 year labor (Free)","Legacy 3D,",No,,Hold,"Had collected customer info except SS# for Synchrony application, customer need sometime to sort out other payment before we process her application, please hold as customer will call when she’s ready.",Hold till customer calls.,Not Dispatched,1,7.00,DWA-9150USJ-9150BL,0.00,,,,,,,0.00,,,,,,,0.00,,,,,,,Ronda,Price,rondap30@gmail.com,,493 Tuftan Trail,,,Atlanta,GA,30354,United States,404-84-8857
"GEORGIA NATIONAL FAIR 10/4-14/18 PERRY,GA (FL)","GEORGIA NATIONAL FAIR 10/4-14/18 PERRY,GA (FL)",Joseph Chan,110295,10/14/2018 8:21:23 AM,Lisa Hyman,FL,32818,Legacy 3D,New Black,New,1,0.00,4100.00,4100.00,CreditCard,PurchaseOrder,,"3 years parts, 1 year labor (Free)","Legacy 3D,",No,10/18/2018 12:00:00 AM,Delivered,Balance of $2100 to be pay by 12 payment of $175/month,"COnfirmed $2,000.00 in Square. will confirm LAYAWAY form. 10/15/18 Hitomi//**LAYAWAY form is confirmed and sent to Stephany via email. PLease send delivery confirmation to Stephany.***10/16/18 Hitomi
10/16Maritza Courtesy email + message sent @ 4PM Number ending in 1990 is her cell number.",FL,1,7.00,DWA-9150USJ-9150BL,2000.00,#bj2d,,,,,,2100.00,,LAYAWAY,,,,,0.00,,,,,,,Lisa,Hyman,lisa@windwardcruises.com,,7911 Kimbro Ln,,,Orlando,FL,32818,United States,321-689-1990
"GEORGIA NATIONAL FAIR 10/4-14/18 PERRY,GA (FL)","GEORGIA NATIONAL FAIR 10/4-14/18 PERRY,GA (FL)",Joseph Chan,110302,10/14/2018 11:11:38 AM,Bimu Liu,GA,31069,Legacy 3D,New Choco,New,1,0.00,4200.00,4200.00,Synchrony,,,"5 years parts, 1 year labor (Free)","Legacy 3D,",No,,Assigned,,"CC Josefina - 10/17/18 10:10am TXT
Confirmed chair model is Legacy 3D with Joseph since original stated Legacy chair. Confirmed SYNC($6,500) and original. ***Please charge $4,200 before delivery and sales draft signed.***10/16/18 Hitomi",FL,1,7.00,DWA-9150USJ-9150CH,4200.00,,,6019170813189709,95675482,Las Vegas,36 months,0.00,,,,,,,0.00,,,,,,,Bimu,Liu,mu8315@163.com,,110 Sutton Dr,,,Perry,GA,31069,United States,646-662-5808
"GEORGIA NATIONAL FAIR 10/4-14/18 PERRY,GA (FL)","GEORGIA NATIONAL FAIR 10/4-14/18 PERRY,GA (FL)",Joseph Chan,110309,10/14/2018 2:12:42 PM,Howard Stephens Jr,GA,31808,Legacy 3D,New Black,New,1,0.00,4500.00,4500.00,Synchrony,,,"3 years parts, 1 year labor (Free)","Legacy 3D,",No,,Cancelled,Please includ one extra fabric back pad on delivery,"Confirmed SYNC($8,500) and original. ***Please charge $4,500 before delivery and sales draft signed. *** 10/16/18 Hitomi
10/16Maritza Customer called to cancel. Forwarded her to sales rep. Can't continue with purchase because of medical reasons. Waiting on Joseph to follow up.
Joseph confirmed cancellation @ 1:14PM",FL,1,7.00,DWA-9150USJ-9150BL,4500.00,,,6019170813190045,95680914,Las Vegas,48 months,0.00,,,,,,,0.00,,,,,,,Howard,Stephens Jr,hsteph40@hotmail.com,,40 Elmwood Ct,,,Fortson,GA,31808,United States,706-324-2262
"GEORGIA NATIONAL FAIR 10/4-14/18 PERRY,GA (FL)","GEORGIA NATIONAL FAIR 10/4-14/18 PERRY,GA (FL)",Joseph Chan,110311,10/14/2018 5:03:16 PM,Thomas Lons,GA,31025,Legacy 3D,Demo Black,Demo,1,0.00,3600.00,3600.00,CreditCard,,,"5 years parts, 1 year labor (Free)","Legacy 3D,",No,,Assigned,,"Confirmed $3,600 in Square. 10/15/18 Hitomi
10/15Maritza Courtesy email + message sent @ 12:54PM (answered through number ending in 0440)",FL,1,7.00,DWA-9150USJ-9150BL-DEMO,3600.00,#Td92,,,,,,0.00,,,,,,,0.00,,,,,,,Thomas,Lons,tlonsppm@gmail.com,,155 Terrell Rd,,,Elko,GA,31025,United States,478-987-1913
"GEORGIA NATIONAL FAIR 10/4-14/18 PERRY,GA (FL)","GEORGIA NATIONAL FAIR 10/4-14/18 PERRY,GA (FL)",Joseph Chan,110312,10/14/2018 5:36:04 PM,Alan Helton,GA,31094,Legacy 3D,Demo Choco,Demo,1,0.00,3600.00,3600.00,CreditCard,,,"5 years parts, 1 year labor (Free)","Legacy 3D,",No,,Assigned,,"One family buying 2 chairs//COnfirmed $3,600 in Square. 10/15/18 Hitomi
10/15Maritza Courtesy email + text sent @ 12:37PM",FL,1,7.00,DWA-9150USJ-9150CH-DEMO,3600.00,#SzQc,,,,,,0.00,,,,,,,0.00,,,,,,,Alan,Helton,alanh@heltonelectric.com,,887 Stephen’s Creek Rd,,,Warthen,GA,31094,United States,478-232-0194
"GEORGIA NATIONAL FAIR 10/4-14/18 PERRY,GA (FL)","GEORGIA NATIONAL FAIR 10/4-14/18 PERRY,GA (FL)",Joseph Chan,110363,10/15/2018 1:12:27 PM,Paul Felty,CO,80138,Legacy 3D,New Black,New,1,0.00,4200.00,4200.00,Synchrony,,,"5 years parts, 1 year labor (Free)","Legacy 3D,",No,,Hold,"Has collected customer’s info for Synchrony except SS#, customer will call when he’s ready, please hold",,Not Dispatched,1,7.00,DWA-9150USJ-9150BL,0.00,,,,,,,0.00,,,,,,,0.00,,,,,,,Paul,Felty,defaultmail@daiwamassage.com,,9920 E Weather Van E Way,,,Parker,CO,80138,United States,720-260-3131
