﻿Date,CustomerName,State,Zipcode,Description,productNo,Color,IsDemo,Net,ShippingFee,GiftPrice,FinancingProcessingFee,Gross,Pre_tax,Tax,Commission,Primary Payment Method,Primary Payment Balance,Primary Authorize Number,Primary Purchase Order Number,Primary Synchrony Account Number,Primary Synchrony Application Key,Primary Synchrony AccountInfo,Primary SynchronyTerm,Secondly Payment Method,Secondly Payment Balance,Secondly Authorize Number,Secondly Purchase Order Number,Secondly Synchrony Account Number,Secondly Synchrony Application Key,Secondly Synchrony AccountInfo,Secondly SynchronyTerm,Thirdly Payment Method,Thirdly Payment Balance,Thirdly Authorize Number,Thirdly Purchase Order Number,Thirdly Synchrony Account Number,Thirdly Synchrony Application Key,Thirdly Synchrony AccountInfo,Thirdly SynchronyTerm,DeliveryDate,Ispickup,Warranty,Status,Event Name,Synchrony Notes,Order Notes,Order number,Private Note,Branch,IsNoTax,ActualTaxRate
3/4/2018 2:13:58 PM,Mon Who Jung,NM,88242,Foot Vibe Pro,USJ-871,,New,,,,,119.06,109.99,9.07,Chris Tavira,CreditCard,119.06,TC # 2961 0485 7674 6789 0474 2,,,,,,,0.00,,,,,,,,0.00,,,,,,,,YES,"2 years parts, 1 year labor for Small Items",Delivered,Sam's Club #8270 Lubbock  (TX),,Invoice # 0010346,104117,,TX,0,8.25
3/4/2018 2:20:11 PM,Sandra Jhonson,NM,88210,Foot Vibe Pro,USJ-871,,New,,,,,119.06,109.99,9.07,Chris Tavira,CreditCard,119.06,TC # 3404 4128 0040 0406 3645 3,,,,,,,0.00,,,,,,,,0.00,,,,,,,,YES,"2 years parts, 1 year labor for Small Items",Delivered,Sam's Club #8270 Lubbock  (TX),,Invoice # 0010345,104118,,TX,0,8.25
3/4/2018 2:32:21 PM,Linda Lewis,TX,79424,Shogun Neck & Back Massger,USJ-874USJ-874,New,New,,,,,216.48,199.98,16.50,Chris Tavira,CreditCard,216.48,TC # 9997 9790 2951 5518 0501 77,,,,,,,0.00,,,,,,,,0.00,,,,,,,,YES,"2 years parts, 1 year labor for Small Items",Delivered,Sam's Club #8270 Lubbock  (TX),,Invoice #0010348,104119,,TX,0,8.25
3/4/2018 3:11:26 PM,Scott Constante,TX,79329,Foot Vibe Pro,USJ-871,,New,,,,,119.06,109.99,9.07,Chris Tavira,CreditCard,119.06,TC # 5614 7188 6080 0426 4944 3,,,,,,,0.00,,,,,,,,0.00,,,,,,,,YES,"2 years parts, 1 year labor for Small Items",Delivered,Sam's Club #8270 Lubbock  (TX),,Invoice # 0010347,104121,,TX,0,8.25
3/4/2018 3:24:00 PM,Scott Constante,TX,79329,Shogun Neck & Back Massger,USJ-874USJ-874-DEMO,Demo,Demo,,,,,194.83,179.98,14.85,Chris Tavira,CreditCard,194.83,TC # 5614 7188 6080 0426 4944 3,,,,,,,0.00,,,,,,,,0.00,,,,,,,,YES,"2 years parts, 1 year labor for Small Items",Delivered,Sam's Club #8270 Lubbock  (TX),,,104123,,TX,0,8.25
3/4/2018 3:27:39 PM,Norma Valdez,AA,78664,Shogun Neck & Back Massger,USJ-874USJ-874,New,New,,,,,216.48,199.98,16.50,Chris Tavira,CreditCard,216.48,TC # 6069 6831 5707 7513 6055 6,,,,,,,0.00,,,,,,,,0.00,,,,,,,,YES,"2 years parts, 1 year labor for Small Items",Delivered,Sam's Club #8270 Lubbock  (TX),,Invoice # 0010349,104124,,TX,0,8.25
