﻿Date,CustomerName,State,Zipcode,Description,productNo,Color,IsDemo,Net,ShippingFee,GiftPrice,FinancingProcessingFee,Gross,Pre_tax,Tax,Commission,PaymentMethod,Primary Payment Balance,Secondary Payment Method,DeliveryDate,Ispickup,Warranty,Status,Event Name,Synchrony Account Number,Synchrony Application Key,Synchrony Account info,Synchrony Term,Synchrony Notes,Order Notes,Order number,Private Note,Branch,IsNoTax,ActualTaxRate
10/15/2017 1:38:33 PM,Ted Maxfield,UT,84015,Legacy,DWA-9100DWA-9100BL-DEMO,Demo Black,Demo,,,,,3500.00,3275.62,224.38,Laser Howell,CreditCard,3500.00,,,YES,"3 years parts, 1 year labor (Free)",Delivered,Deseret News Home Show 10/13-15 (LV),,,,,,Order Date: 10/13/2017,101291,WELLS FARGO $3500 CLEARED BY ALICIA 10.17.17,NV,,
10/15/2017 1:43:08 PM,Phillip Fernandez,UT,84404,Legacy,DWA-9100DWA-9100BL-DEMO,Demo Black,Demo,,,,,3500.00,3275.62,224.38,Kohei Uno,Synchrony,3500.00,,,YES,"3 years parts, 1 year labor (Free)",Delivered,Deseret News Home Show 10/13-15 (LV),6034610081572151,79686872,San Diego,36 months,,Order Date: 10/13/2017,101292,CHARGE $3500 BEFORE DELIVERY,NV,,
10/15/2017 2:15:26 PM,Jackie Rodat,UT,84123,Relax2Zero 2.0,USJ-9050USJ-9050BR-DEMO,Demo Brown,Demo,,,,,3700.22,3463.00,237.22,Kohei Uno,CreditCard,3700.00,,,YES,"3 years parts, 1 year labor (Free)",Delivered,Deseret News Home Show 10/13-15 (LV),,,,,,Offer Price is $3700 out the door including tax.,101297,WELLS FARGO CLEARED BY ALICIA 10.17.17,NV,,
10/15/2017 2:24:26 PM,Keith Urich,UT,84020,Legacy,DWA-9100DWA-9100CH,Choco Brown,New,,,,,4474.88,4188.00,286.88,Kohei Uno,CreditCard,4475.00,,,YES,"3 years parts, 1 year labor (Free)",Cancelled,Deseret News Home Show 10/13-15 (LV),,,,,,Offer Price  $4475.00 out the door including tax,101300,"VOID ORDER PER KOHEI, SEE #101306--ALICIA",NV,,
10/15/2017 2:41:24 PM,Louise Bott,UT,84088,Pegasus,DWA-9400Pegasus-BL,Black,New,,,,,5556.11,5248.00,308.11,Kohei Uno,CreditCard,5556.00,,10/27/2017 12:00:00 AM,No,"3 years parts, 1 year labor (Free)",Delivered,Deseret News Home Show 10/13-15 (LV),,,,,,Offer price is $5556.00 out the door including tax.,101302,WELLS FARGO CLEARED BY ALICIA 10.17.17,NV,,
10/15/2017 2:53:34 PM,Keith Urich,UT,84020,Legacy,DWA-9100DWA-9100CH,Choco Brown,New,,,,,4474.79,4236.00,238.79,Kohei Uno,CreditCard,4475.00,,,No,"3 years parts, 1 year labor (Free)",Cancelled,Deseret News Home Show 10/13-15 (LV),,,,,,"Please void previous order for this customer. #101300

Offer price $4475.00 out the door including tax",101306,"WELLS FARGO CLEARED 10.17.17
Cancel 10/18- incorrect customer name, must be re-entered with correct information.",NV,,
10/15/2017 4:07:25 PM,Teresa Robinson,UT,84010,Legacy,DWA-9100DWA-9100CH,Choco Brown,New,,,,,4487.61,4248.00,239.61,Kohei Uno,CreditCard,4487.00,,10/26/2017 12:00:00 AM,No,"3 years parts, 1 year labor (Free)",Delivered,Deseret News Home Show 10/13-15 (LV),,,,,,Offer Price $4487.00 out the door price including tax,101317,WELLS FARGO CLEARED BY ALICIA 10.17.17,NV,,
10/15/2017 4:16:29 PM,Crystal Lynch,UT,84020,Legacy,DWA-9100DWA-9100CH,Choco Brown,New,,,,,3899.94,3698.00,201.94,Kohei Uno,CreditCard,3900.00,,,No,"3 years parts, 1 year labor (Free)",Cancelled,Deseret News Home Show 10/13-15 (LV),,,,,,Offer Price $3900 out the door including tax,101319,"WELLS FARGO CLEARED BY ALICIA 10.17.17
Cancel 10/18- Incorrect customer name, must be re-entered.",NV,,
10/15/2017 4:23:40 PM,Will French,UT,84070,Relax2Zero 2.0,USJ-9050USJ-9050BL,Black,New,,,,,3500.41,3276.00,224.41,Kohei Uno,Synchrony,3500.00,,,YES,"3 years parts, 1 year labor (Free)",Cancelled,Deseret News Home Show 10/13-15 (LV),6034610081576566,79757982,San Diego,36 months,,Offer Price $3500 out the door including tax.  Please process the synchrony form to retrieve authorization code.,101322,"CHARGE BEFORE DELIVERY--ALICIA 10.17.17
Cancel 10/18- Incorrect customer name, must be re-entered",NV,,
10/15/2017 5:07:24 PM,Don Dixon,UT,84020,Pegasus,DWA-9400Pegasus-BR,Choco Brown,New,,,,,5200.00,4914.72,285.28,Rolly San Jose,CreditCard,5200.00,,10/27/2017 12:00:00 AM,No,"3 years parts, 1 year labor (Free)",Delivered,Deseret News Home Show 10/13-15 (LV),,,,,,Order Date: 10/13/2017,101329,WELLS FARGO CLEARED BY ALICIA 10.17.17,NV,,
10/15/2017 9:20:36 PM,Micah Green,UT,84037,Pegasus,DWA-9400Pegasus-BL,Black,New,,,,,4799.62,4540.00,259.62,Rolly San Jose,CreditCard,4800.00,,10/26/2017 12:00:00 AM,No,"3 years parts, 1 year labor (Free)",Delivered,Deseret News Home Show 10/13-15 (LV),,,,,,Offer price $4800 out the door including tax.,101338,"WELLS FARGO CLEARED BY ALICIA 10.17.17 
TOTAL IS $5100 WELLS FARGO, $4800 + $300 FOR 2ND CHAIR",NV,,
10/15/2017 9:32:29 PM,Don Schmidt,UT,84009,Relax2Zero 2.0,USJ-9050USJ-9050BR,Brown,New,,,,,4200.19,3979.00,221.19,Rolly San Jose,Synchrony,4200.00,,10/27/2017 12:00:00 AM,No,"3 years parts, 1 year labor (Free)",Delivered,Deseret News Home Show 10/13-15 (LV),6034610081575733,79749899,San Diego,36 months,,Offer Price $4200 out the door including tax. Please process synchrony to retrieve authorization code.,101339,"CHARGE BEFORE DELIVERY 10.17.17
CHARGED SYNCHORNY #030784 ACCOUNT UNDER CYNTHIA SCHMIDT - 10/30/17 STEPHANY",NV,,
10/15/2017 9:33:48 PM,Micah Green,UT,84010,Pegasus,DWA-9400Pegasus-BL,Black,New,,,,,7161.00,6750.00,411.00,Rolly San Jose,CreditCard,300.00,COD,,No,"3 years parts, 1 year labor (Free)",Cancelled,Deseret News Home Show 10/13-15 (LV),,,,,,"paid $300, balance $ 4500 COD customer to call once house us finished at given address",101340,"CHARGE BEFORE DELIVERY
Incorrect amount on invoice. Cancel l10/18",Not Dispatched,,
10/15/2017 9:41:58 PM,Micah Green,UT,84010,Pegasus,DWA-9400Pegasus-BL,Black,New,,,,,7161.00,6750.00,411.00,Rolly San Jose,CreditCard,300.00,COD,,No,"3 years parts, 1 year labor (Free)",Cancelled,Deseret News Home Show 10/13-15 (LV),,,,,,"paid $300 deposit, $4500 to pay after house is finished",101342,"WELLS FARGO CHARGED $5100, NEED TO TEXT ROLLY--ALICIA 10.17.17
Duplicate order of order #101340-cancel 10/18",Not Dispatched,,
10/15/2017 9:50:31 PM,Douglas Jackson,UT,84625,Legacy,DWA-9100DWA-9100CH,Choco Brown,New,,,,,3500.32,3324.00,176.32,Rolly San Jose,Synchrony,3500.00,,10/26/2017 12:00:00 AM,No,"3 years parts, 1 year labor (Free)",Delivered,Deseret News Home Show 10/13-15 (LV),6034610081573498,79714331,San Diego,36 months,,"Customer paid $700 deposit to make synchrony financing total $3500.
C.C. approval code: 282718
Offer Price is $4200 out the door including tax.
Please process synchrony to retrieve authorization code.",101343,"$700 CHARGED ON WELLS FARGO, CLEAR
$3500 TO BE CHARGED BEFORE DELIVERY--ALICIA 10.18.17
CHARGED SYNCHRONY $3500 - 10/30/17  STEPHANY AUTH #030902",NV,,
10/15/2017 9:56:56 PM,Peggy Baird,UT,84005,Legacy,DWA-9100DWA-9100CH,Choco Brown,New,,,,,4000.38,3792.00,208.38,Rolly San Jose,Synchrony,4000.00,,10/26/2017 12:00:00 AM,No,"3 years parts, 1 year labor (Free)",Delivered,Deseret News Home Show 10/13-15 (LV),6034610081574546,79728261,San Diego,36 months,,Offer Price is $4000 out the door including tax. Please process synchrony to retrieve authorization code.,101344,"CHARGE BEFORE DELIVERY--ALICIA 10.18.18
CHARGED SYNCHRONY $4000 - 10/30/17 STEPHANY AUTH #030354",NV,,
10/15/2017 9:57:22 PM,mike szlachetka,UT,84009,Relax2Zero 2.0,USJ-9050USJ-9050BR-DEMO,Demo Brown,Demo,,,,,3346.46,3180.00,166.46,Rolly San Jose,CreditCard,3500.00,,,No,"3 years parts, 1 year labor (Free)",Cancelled,Deseret News Home Show 10/13-15 (LV),,,,,,,101345,"$3500 PAID IN FULL, WELLS FARGO CLEAR BY ALICIA 10.18.17
THIS ORDER IS FOR MIKE SZLACHETKA

Incorrect Customer Name Assigned, cancel 10/18-needs to be re-entered correctly.",Not Dispatched,,
10/15/2017 10:25:31 PM,amy peterson,UT,84003,Legacy,DWA-9100DWA-9100CH-DEMO,Demo Choco Brown,Demo,,,,,750.00,750.00,0.00,Laser Howell,Synchrony,0.00,,,No,"3 years parts, 1 year labor (Free)",Cancelled,Deseret News Home Show 10/13-15 (LV),6034610081571682,79677500,San Diego,36 months,,paid $3500 out the door incl sales tax,101347,"SYNCHRONY CLEAR BY ALICIA 10.18.17
THIS ORDER IS FOR AMY PETERSON

Incorrect customer name, cancel 10/18- must be re-entered with correct information.",Not Dispatched,,
10/15/2017 10:40:21 PM,drew empey,UT,84004,Legacy,DWA-9100DWA-9100BL,Black,New,,,,,5558.25,5250.00,308.25,Rolly San Jose,COD,0.00,,,No,"3 years parts, 1 year labor (Free)",Cancelled,Deseret News Home Show 10/13-15 (LV),,,,,,customer to call for full payment of $4000 in the coming weeks,101349,"ORDER ON HOLD UNTIL CUSTOMER CALLS FOR PAYMENT
THIS ORDER IS FOR DREW EMPEY

Cancel 10/18- Incorrect customer name, must be re-entered with correct information.",Not Dispatched,,
10/18/2017 2:23:20 PM,Keith Uritch,UT,84020,Legacy,DWA-9100DWA-9100CH,Choco Brown,New,,,,,4475.00,4236.20,238.80,Kohei Uno,CreditCard,4475.00,,10/27/2017 12:00:00 AM,No,"3 years parts, 1 year labor (Free)",Delivered,Deseret News Home Show 10/13-15 (LV),,,,,,Order Date: 10/14/2017,101421,WELLS FARGO CLEAR BY ALICIA 10.18.17,NV,,
10/18/2017 2:35:32 PM,Crystal Lynch,UT,84020,Legacy,DWA-9100DWA-9100CH,Choco Brown,New,,,,,3900.00,3698.06,201.94,Kohei Uno,CreditCard,3900.00,,10/27/2017 12:00:00 AM,No,"3 years parts, 1 year labor (Free)",Delivered,Deseret News Home Show 10/13-15 (LV),,,,,,Order Date: 10/15/2017,101422,WELL FARGO CLEAR BY ALICIA 10.18.17,NV,,
10/18/2017 2:43:08 PM,Will French,UT,84070,Relax2Zero 2.0,USJ-9050USJ-9050BL-DEMO,Demo Black,Demo,,,,,3500.00,3275.62,224.38,Kohei Uno,Synchrony,3500.00,,,YES,"3 years parts, 1 year labor (Free)",Delivered,Deseret News Home Show 10/13-15 (LV),6034610081576566,79757982,,36 months,,Order Date: 10/15/2017,101424,"CHARGE BEFORE DELIVERY
SYNCHRONY CHARGED  AUTH # 010195 - 11/10/17 STEPHANY",NV,,
10/18/2017 2:49:42 PM,Mike Szlachetka,UT,84009,Relax2Zero 2.0,USJ-9050USJ-9050BR-DEMO,Demo Brown,Demo,,,,,3500.00,3275.62,224.38,Rolly San Jose,CreditCard,3500.00,,,YES,"3 years parts, 1 year labor (Free)",Delivered,Deseret News Home Show 10/13-15 (LV),,,,,,Order Date: 10/15/2017,101425,"WELLS FARGO CLEAR BY ALICIA 10.18.17
#06117Z",NV,,
10/18/2017 3:13:28 PM,Amy Peterson,UT,84003,Legacy,DWA-9100DWA-9100CH,Choco Brown,New,,,,,3500.00,3275.62,224.38,Laser Howell,Synchrony,3500.00,,,YES,"3 years parts, 1 year labor (Free)",Delivered,Deseret News Home Show 10/13-15 (LV),,,San Diego,36 months,,Order Date: 10/13/2017,101427,SYNCHRONY CLEAR BY ALICIA 10.18.17,NV,,
10/18/2017 3:31:17 PM,Drew Empey,UT,84004,Legacy,DWA-9100DWA-9100BL,Black,New,,,,,4000.00,3791.65,208.35,Rolly San Jose,COD,0.00,,,No,"3 years parts, 1 year labor (Free)",Hold,Deseret News Home Show 10/13-15 (LV),,,,,,"Order Date: 10/13/2017
Customer will call in upcoming weeks to pay for chair. Hold until house is finished.",101428,,NV,,
