﻿Original Event Name,Event Name,Sales Person,Order Number,Order Date,Customer Name,State,Zip,Product Name,Color,Product Status,QTY,Tax,Total Before Tax,Order Total,Primary Payment Method,Second Payment Method,Thirdl Payment Method,Warranty,Order Items,Pick up,Delivered On,Order Status,Chair Type,Order Notes,Private Note,Branch,No Tax,Actual Tax Rate,SKU,Primary Payment Balance,Primary Authorize Number,Primary Purchase Order Number,Primary Synchrony Account Number,Primary Synchrony Application Key,Primary Synchrony Account Info,Primary Synchrony Term,Primary Synchrony Primary ID,Primary Synchrony Issued State,Primary Synchrony Expiretion Date,Second Payment Balance,Second Authorize Number,Second Purchase Order Number,Second Synchrony Account Number,Second Synchrony Application Key,Second Synchrony Account Info,Second SynchronyTerm,Second Synchrony Primary ID,Second Synchrony Issued State,Second Synchrony Expiretion Date,Third Payment Balance,Third Authorize Number,Third Purchase Order Number,Third Synchrony Account Number,Third Synchrony Application Key,Third Synchrony Account Info,Third Synchrony Term,Third Synchrony Primary ID,Third Synchrony Issued State,Third Synchrony Expiretion Date
"Mitsuwa Chair Event 7/19-28/19 Arlington Heights, IL","Mitsuwa Chair Event 7/19-28/19 Arlington Heights, IL",Miku Yamaguchi,118796,7/20/2019 3:40:48 PM,Gyu Gang,IL,60137,Legacy,New Choco,New,1,0.00,4100.00,4100.00,Credit Card,,,"5 years parts, 1 year labor (Free)","Legacy,",No,,Scheduled,,,"Original received. SQ amount verified $4100 paid in full Erika 7/24/19 11:23am
7/25- Customer confirmed delivery for 7/30 4-8pm.-Karen",IL,1,10.00,DWA-9100DWA-9100BU,4100.00,#X9Vz,,,,,,,,/,0.00,,,,,,,,,/,0.00,,,,,,,,,/
"Mitsuwa Chair Event 7/19-28/19 Arlington Heights, IL","Mitsuwa Chair Event 7/19-28/19 Arlington Heights, IL",Miku Yamaguchi,118826,7/21/2019 6:09:46 PM,Tuyen Tran,IL,60160,Relax 2 Zero 3D,New Choco,New,1,0.00,4000.00,4000.00,Synchrony,,,"5 years parts, 1 year labor (Free)","Relax 2 Zero 3D,",No,,Scheduled,,,"Synchrony original verified. Credit available $4000. Remaining balance $4000. Pls charge synchrony acoount upon delivery, have sales draft sign. Erika 7/24/19 11:22am
7/25-CC; left VM-Karen
7/25-(4:20pm)-Customer confirmed delivery for 7/30 6-8pm.-Karen",IL,1,10.00,DWA-9060USJ-9060BR,4000.00,,,6501723375243712,78530217,Las Vegas,48 months,Driver’s License,IL,09/2021,0.00,,,,,,,,,/,0.00,,,,,,,,,/
"Mitsuwa Chair Event 7/19-28/19 Arlington Heights, IL","Mitsuwa Chair Event 7/19-28/19 Arlington Heights, IL",Miku Yamaguchi,118827,7/21/2019 6:21:48 PM,Karen Fong,IL,60605,Relax 2 Zero 3D,New Black,New,1,0.00,4800.00,4800.00,Synchrony,,,"5 years parts, 1 year labor (Free)","Relax 2 Zero 3D,",No,,Called,,,"Please include extra pad (one for legacy) and face mask 1box. 
Syncholony primary ID was ""global entry ID"" 
Customer want delivery on weekend. 
This is apartment 23floor. 
They have loading deck & elevator. 
Customer want us to sign warranty paper for floor or wall damage first.
--Synchrony original verified. Credit available $9000. Remaining balance $4800. Pls charge synchrony account upon delivery, have sales draft sign. Erika 7/24/19 11:19am
7/25-CC; left VM-Karen
7/29: CC left vm & text - Emily (3:30PM)",IL,1,10.00,DWA-9060USJ-9060BL,4800.00,,,6501723375243811,78531257,Las Vegas,48 months,State ID,NY,12/2023,0.00,,,,,,,,,/,0.00,,,,,,,,,/
"Mitsuwa Chair Event 7/19-28/19 Arlington Heights, IL","Mitsuwa Chair Event 7/19-28/19 Arlington Heights, IL",Miku Yamaguchi,118868,7/22/2019 2:42:46 PM,Joel Schwartz,IN,46368,Relax 2 Zero 3D,Demo Black,Demo,1,0.00,4000.00,4000.00,Synchrony,,,"5 years parts, 1 year labor (Free)","Relax 2 Zero 3D,",No,,Scheduled,,,"Synchrony original verified. Credit available $9000. Remaining balance $4000. Pls charge synchrony account upon delivery, have sales draft sign. Erika 7/24/19 11:31am
7/26- CC; LEFT VM-Karen
7/29: CC left vm & text - Emily (12:25PM)
7/29: Customer called back (2:47PM) scheduled for delivery August 11 [8-12PM] - Emily
7/29: (2:52PM) sucessfully charged synchrony account of 4K - Emily",IL,1,10.00,DWA-9060USJ-9060BL-DEMO,4000.00,,,6501723375244629,78566823,Las Vegas,48 months,Driver’s License,IN,09/2024,0.00,,,,,,,,,/,0.00,,,,,,,,,/
"Mitsuwa Chair Event 7/19-28/19 Arlington Heights, IL","Mitsuwa Chair Event 7/19-28/19 Arlington Heights, IL",Miku Yamaguchi,118915,7/24/2019 3:41:52 PM,Dthman Jibril,IL,60527,Relax 2 Zero 3D,New Choco,New,1,0.00,4500.00,4500.00,Credit Card,,,"5 years parts, 1 year labor (Free)","Relax 2 Zero 3D,",No,,Scheduled,,,"Original received. SQ amount verified $4500. Paid in full. Erika 7/24/19 4:34pm
7/25-CC; voicemail FULL; courtesy message sent.-Karen (2:16pm)
7/26-CC; VM FULL-(9:49am)-Karen
7/29: VV customer let me know next week would work better, will try to schedule something - Emily (11AM)
7/29: customer called back and set up delivery for 7/30 [2-6PM] - Emily (11:30AM)",IL,1,10.00,DWA-9060USJ-9060BR,4500.00,#JGqt,,,,,,,,/,0.00,,,,,,,,,/,0.00,,,,,,,,,/
"Mitsuwa Chair Event 7/19-28/19 Arlington Heights, IL","Mitsuwa Chair Event 7/19-28/19 Arlington Heights, IL",Billy Shea,118916,7/24/2019 3:49:39 PM,Yoshiko Yamaguchi,IL,60056,Orbit,Demo Choco,Demo,1,0.00,2800.00,2800.00,Cash,COD,,"5 years parts, 1 year labor (Free)","Orbit,",No,,Called,,,"Original received. $200 cash deposit received and signed off by Billy. Remaining balance $2600. collect COD (2600) @ delivery. Erika 7/25/19 10:26am
courtesy call completed. Erika 7/25/19 10:45am
7/26-CC Customer lost phone (Chicago Police Dept. Answered) Will try again later.-Karen.
7/29: Customer lost her phone, email customer: yoshikoyoiko@gmail.com - Emily",IL,1,10.00,ORBT-1ORBT-1CH-DEMO,200.00,,,,,,,,,/,2600.00,,,,,,,,,/,0.00,,,,,,,,,/
"Mitsuwa Chair Event 7/19-28/19 Arlington Heights, IL","Mitsuwa Chair Event 7/19-28/19 Arlington Heights, IL",Miku Yamaguchi,118917,7/24/2019 3:55:54 PM,Fu mon Tse,IL,60714,Relax 2 Zero 3D,New Black,New,1,0.00,4000.00,4000.00,Credit Card,COD,,"5 years parts, 1 year labor (Free)","Relax 2 Zero 3D,",No,,Scheduled,,,"Original received. SQ amount verified $500. Remaining balance $3500. Collect COD (3500) @ delivery. Erika 7/24/19 4:56pm
7/25(12:00pm- Customer confirmed delivery for 7/30 8:30am-12pm.-Karen",IL,1,10.00,DWA-9060USJ-9060BL,500.00,#k5Vo,,,,,,,,/,3500.00,,,,,,,,,/,0.00,,,,,,,,,/
"Mitsuwa Chair Event 7/19-28/19 Arlington Heights, IL","Mitsuwa Chair Event 7/19-28/19 Arlington Heights, IL",Miku Yamaguchi,118961,7/27/2019 8:45:27 AM,Barbara Harty,IL,60527,Relax 2 Zero 3D,New Black,New,1,0.00,4000.00,4000.00,Credit Card,COD,,"5 years parts, 1 year labor (Free)","Relax 2 Zero 3D,",No,,New,,,"Please bring extra leather legacy pad, 1 box of eye mask.
Pick up her previous chair when we deliver chair
-Original received. SQ amount verified $200. Remaining balance $3800. Pls collect COD (3800) @ delivery. Erika 7/29/19 10:05am",IL,1,10.00,DWA-9060USJ-9060BL,200.00,#x18V,,,,,,,,/,3800.00,,,,,,,,,/,0.00,,,,,,,,,/
"Mitsuwa Chair Event 7/19-28/19 Arlington Heights, IL","Mitsuwa Chair Event 7/19-28/19 Arlington Heights, IL",Miku Yamaguchi,118970,7/27/2019 4:05:49 PM,Kimberly Do,IL,60047,Orbit,New Choco,New,1,0.00,2900.00,2900.00,Credit Card,COD,,"5 years parts, 1 year labor (Free)","Orbit,",No,,New,,,"Bring 1 box eye mask 
Please on hold delivery until they will contact us. They are waiting Costco pick up their chair.",Not Dispatched,1,10.00,ORBT-1ORBT-1CH,200.00,#e94M,,,,,,,,/,2700.00,,,,,,,,,/,0.00,,,,,,,,,/
"Mitsuwa Chair Event 7/19-28/19 Arlington Heights, IL","Mitsuwa Chair Event 7/19-28/19 Arlington Heights, IL",Miku Yamaguchi,119006,7/28/2019 5:21:56 PM,Qixuan Wang,IL,60661,Legacy,New Choco,New,1,0.00,3600.00,3600.00,Credit Card,COD,,"5 years parts, 1 year labor (Free)","Legacy,",No,,New,,,Original received. SQ amount verified $200. Remaining balance $3400. Pls collect COD (3400) @ delivery. Erika 7/29/19 10:00am,IL,1,10.00,DWA-9100DWA-9100BU,200.00,#TpBW,,,,,,,,/,3400.00,,,,,,,,,/,0.00,,,,,,,,,/
"Mitsuwa Chair Event 7/19-28/19 Arlington Heights, IL","Mitsuwa Chair Event 7/19-28/19 Arlington Heights, IL",Miku Yamaguchi,119009,7/28/2019 5:29:25 PM,Jerrod Word,IN,46037,Legacy,Demo Choco,Demo,1,0.00,3600.00,3600.00,Synchrony,,,"5 years parts, 1 year labor (Free)","Legacy,",No,,New,,,"Synchrony original verified. Credit available $9000. Remaining balance $3600. Pls charge synchrony account upon delivery, have sales draft sign. Erika 7/29/19 9:55am
FREE DAIWA BLANKET***pls deliver with chair per sales rep request",IL,1,10.00,DWA-9100DWA-9100BU-DEMO,3600.00,,,6501723375252929,78834254,Las Vegas,36 months,Driver’s License,IN,01/2021,0.00,,,,,,,,,/,0.00,,,,,,,,,/
"Mitsuwa Chair Event 7/19-28/19 Arlington Heights, IL","Mitsuwa Chair Event 7/19-28/19 Arlington Heights, IL",Miku Yamaguchi,119010,7/28/2019 5:37:38 PM,John Kobayashi,IL,61107,Legacy 3D,New Black,New,1,0.00,3550.00,3550.00,Credit Card,,,"3 years parts, 1 year labor (Free)","Legacy 3D,",No,,New,,,,Not Dispatched,1,10.00,DWA-9150USJ-9150BL,3550.00,#phrt,,,,,,,,/,0.00,,,,,,,,,/,0.00,,,,,,,,,/
