﻿Original Event Name,Event Name,Sales Person,Order Number,Order Date,Customer Name,State,Zip,Product Name,Color,Product Status,QTY,Tax,Total Before Tax,Order Total,Primary Payment Method,Second Payment Method,Thirdl Payment Method,Warranty,Order Items,Pick up,Delivered On,Order Status,Chair Type,Order Notes,Private Note,Branch,No Tax,Actual Tax Rate,SKU,Primary Payment Balance,Primary Authorize Number,Primary Purchase Order Number,Primary Synchrony Account Number,Primary Synchrony Application Key,Primary Synchrony Account Info,Primary Synchrony Term,Second Payment Balance,Second Authorize Number,Second Purchase Order Number,Second Synchrony Account Number,Second Synchrony Application Key,Second Synchrony Account Info,Second SynchronyTerm,Third Payment Balance,Third Authorize Number,Third Purchase Order Number,Third Synchrony Account Number,Third Synchrony Application Key,Third Synchrony Account Info,Third Synchrony Term
MITSUWA CHAIR EVENT 4/12-21/19 ARLINGTON HTS (IL),MITSUWA CHAIR EVENT 4/12-21/19 ARLINGTON HTS (IL),May Kam,116635,4/13/2019 6:39:36 PM,Mr & Mrs Matthew Mitchell,IL,60047,Relax 2 Zero 3D,New Black,New,1,0.00,3580.00,3580.00,Credit Card,,,"3 years parts, 1 year labor (Free)","Relax 2 Zero 3D,Tourmaline Pad for Relax2Zero 3D,",No,6/11/2019 12:00:00 AM,Delivered,New,"Special discount for one family bought two chairs together, manager Approval 
Four years parts.","4/15/19-Confirmed $3,580.00 in SQ. (Receipt #5i5K_ $7,160.00 is for #116635 &#116636)  -Hitomi
4/16Maritza Courtesy message sent @ 11:32AM
4/17/2019 - Printed and sent courtesy message -Tina
5/1 - Alysa - Customer is not available until the beginning of June.
5/15Maritza- Re-dispatched to IL branch.
6/3-Customer confirmed for 6/11 3pm-6pm.-Karen
6/13Maritza- Customer said her free gifts were not delivered upon delivery of chair. Blanket and TOurmaline Pad requested. May confirmed Blanket. Illinois has received the request.
--Delivery conf. completed. Erika 6/13/19 4:15pm. Verified sq. amount.",IL,1,10.00,DWA-9060USJ-9060BL,3580.00,Receipt #5i5K,,,,,,0.00,,,,,,,0.00,,,,,,
MITSUWA CHAIR EVENT 4/12-21/19 ARLINGTON HTS (IL),MITSUWA CHAIR EVENT 4/12-21/19 ARLINGTON HTS (IL),May Kam,116636,4/13/2019 6:49:05 PM,Mrs Mara Estrada,IL,60047,Relax 2 Zero 3D,New Choco,New,1,0.00,3580.00,3580.00,Credit Card,,,"3 years parts, 1 year labor (Free)","Relax 2 Zero 3D,Tourmaline Pad for Relax2Zero 3D,",No,5/1/2019 12:00:00 AM,Scheduled,New,"With Order 116635 together, special discount for one family bought two chairs together, four years parts , manager approval","Name: Mrs Maria Estrada
4/15/19-Confirmed $3,580.00 in SQ. (Receipt #5i5K_ $7,160.00 is for #116635 &#116636)  -Hitomi
4/16Maritza- Courtesy message sent @ 11:34AM
4/17/2019 - Printed and sent courtesy message -Tina
5/1- Alysa - Customer confirmed with June delivery Wed 5/1 between 12-5PM

6/7/19 Verified product, payment and delivery status -Arisa 2:45pm",TX,1,10.00,DWA-9060USJ-9060BR,3580.00,Receipt #5i5K,,,,,,0.00,,,,,,,0.00,,,,,,
MITSUWA CHAIR EVENT 4/12-21/19 ARLINGTON HTS (IL),MITSUWA CHAIR EVENT 4/12-21/19 ARLINGTON HTS (IL),May Kam,116648,4/14/2019 8:55:44 AM,Mr & Mrs Hiep Le,IL,60423,Relax 2 Zero 3D,New Choco,New,1,0.00,3900.00,3900.00,Cash,Credit Card,,"3 years parts, 1 year labor (Free)","Relax 2 Zero 3D,Daiwa Blanket,Tourmaline Pad for Relax2Zero 3D,",No,4/30/2019 12:00:00 AM,Delivered,New,"Special discount for one time payment, 
Pls bring Daiwa 9060 flyer to the customer, thanks","Another phone # 708-465-6499
4/15/19-will confirm cash when May comes back. ****COD $3,700***-Hitomi
4/17/2019 - Printed and sent courtesy message -Tina
4/26/19 -Confirmed $200 Cash Confirmationsigned by MK -Riho

6/7/19 Verified product, payment and delivery status -Arisa 12:00pm",TX,1,10.00,DWA-9060USJ-9060BR,200.00,,,,,,,3700.00,Receipt #lrbh,,,,,,0.00,,,,,,
MITSUWA CHAIR EVENT 4/12-21/19 ARLINGTON HTS (IL),MITSUWA CHAIR EVENT 4/12-21/19 ARLINGTON HTS (IL),May Kam,116666,4/14/2019 12:32:52 PM,Mr Joselito Navarro,IN,46373,Legacy 3D,New Black,New,1,0.00,3950.00,3950.00,Credit Card,Credit Card,,"3 years parts, 1 year labor (Free)","Legacy 3D,Tourmaline Pad for Legacy 3D,",No,4/30/2019 12:00:00 AM,Delivered,New,"Special discount for one time payment, manager approval.","4/15/19-Confirmed $200.00 in SQ. ***COD $3,750*** -Hitomi
4/18Maritza- Courtesy message sent @ 8:44AM
4/20/2019 - Printed and Courtesy message sent - Tina
4/22/2019 - Schedule for April 30, 2019 1pm to 4pm - Tina

6/7/19 Verified product, payment and delivery status -Arisa 3:00pm",TX,1,10.00,DWA-9150USJ-9150BL,200.00,KgeG,,,,,,3750.00,Receipt #CBcL,,,,,,0.00,,,,,,
MITSUWA CHAIR EVENT 4/12-21/19 ARLINGTON HTS (IL),MITSUWA CHAIR EVENT 4/12-21/19 ARLINGTON HTS (IL),May Kam,116744,4/15/2019 8:52:43 PM,Mr Batchuluun Puntsag,IL,60004,Legacy 3D,Demo Black,Demo,1,0.00,4000.00,4000.00,Synchrony,,,"5 years parts, 1 year labor (Free)","Legacy 3D,Tourmaline Pad for Legacy 3D,",No,5/8/2019 12:00:00 AM,Delivered,Demo,"Pls make finance $4000 purchase, Thanks","4/16/19 Confirmed SYNC$7,000 and original. [DL: IL 03/21, CC: VISA 01/24]***Please charge $4,000/sales draft ***-Hitomi
4/18Maritza- Courtesy message sent @ 8:49AM Please text him delivery date/time
4/20/2019 - Printed and Courtesy message sent - Tina
Try to schedule the delivery; however no one pick up the call, since customer purchase by Synchrony,  have to take it out of the trip and add into the next trip. 4/29/2019 June
5/3 - Alysa - Customer confirmed delivery Wednesday 5/8 between 10-2PM.",TX,1,10.00,DWA-9150USJ-9150BL-DEMO,4000.00,,,6501723375106612,74086551,Las Vegas,36 months,0.00,,,,,,,0.00,,,,,,
MITSUWA CHAIR EVENT 4/12-21/19 ARLINGTON HTS (IL),MITSUWA CHAIR EVENT 4/12-21/19 ARLINGTON HTS (IL),May Kam,116745,4/15/2019 9:02:54 PM,Mr Reo Kusumoto,IL,60057,Legacy 3D,Demo Black,Demo,1,0.00,3780.00,3780.00,Synchrony,,,"5 years parts, 1 year labor (Free)","Legacy 3D,Tourmaline Pad for Legacy 3D,",No,,Cancelled,,"Pls hold this order to Jun, 2019; since the customer will moving to new place,","before delivery about Jun 2019, pls make finance $3780 purchase. Thanks",Not Dispatched,1,10.00,DWA-9150USJ-9150BL-DEMO,3780.00,,,6501723375106604,74086428,Las Vegas,36 months,0.00,,,,,,,0.00,,,,,,
MITSUWA CHAIR EVENT 4/12-21/19 ARLINGTON HTS (IL),MITSUWA CHAIR EVENT 4/12-21/19 ARLINGTON HTS (IL),May Kam,116759,4/16/2019 3:19:46 PM,Mr Reo Kusumoto,IL,60057,Legacy 3D,Demo Black,Demo,1,0.00,3780.00,3780.00,Synchrony,,,"5 years parts, 1 year labor (Free)","Legacy 3D,Tourmaline Pad for Legacy 3D,",No,6/12/2019 12:00:00 AM,Delivered,Demo,"Pls hold this order to Jun, 2019; since the customer will moving to new place,","before delivery about Jun 2019, pls make finance $3780 purchase. Thanks
4/16/19-Correction for #116745.  Confirmed SYNC 	$6,500 and original. [DL:IL 12/20, CC:VISA 10/19]***Please charge $3,780/sales draft*** - place on hold - Hitomi",IL,1,10.00,DWA-9150USJ-9150BL-DEMO,3780.00,,,6501723375106604,74086428,Las Vegas,36 months,0.00,,,,,,,0.00,,,,,,
MITSUWA CHAIR EVENT 4/12-21/19 ARLINGTON HTS (IL),MITSUWA CHAIR EVENT 4/12-21/19 ARLINGTON HTS (IL),May Kam,116879,4/20/2019 8:22:43 PM,Mr Jin Lai,IL,60067,Legacy 3D,New Black,New,1,0.00,3850.00,3850.00,Credit Card,Credit Card,,"5 years parts, 2 years labor ($200)","Legacy 3D,Tourmaline Pad for Legacy 3D,",No,5/1/2019 12:00:00 AM,Delivered,New,"Special discount for one time payment, manager approval","ANOTHER# 847-358-1762
4/22/19-Confirmed $200 in SQ. ***COD $3,650***-Hitomi
4/22Maritza Courtesy messages to both numbers
4/26/2019 Printed and courtesy message sent - Tina
5/1/2019, Wednesday	2-4PM. 4/29/2019 June",TX,1,10.00,DWA-9150USJ-9150BL,200.00,KDfb,,,,,,3650.00,Receipt #AzjE,,,,,,0.00,,,,,,
MITSUWA CHAIR EVENT 4/12-21/19 ARLINGTON HTS (IL),MITSUWA CHAIR EVENT 4/12-21/19 ARLINGTON HTS (IL),May Kam,116880,4/20/2019 8:34:21 PM,Mr Lewis Kok,IL,60008,Legacy 3D,New Choco,New,1,0.00,4032.00,4032.00,Synchrony,,,"5 years parts, 1 year labor (Free)","Legacy 3D,",No,5/10/2019 12:00:00 AM,Delivered,New,"Pls make finance $4032 purchase, thanks","4/22/19-Confirmed SYNC$9,000 and original. [DL:IL 06/22,CC: MASTER 02/22] ***Please charge $4,032/sales draft *** -Hitomi
4/22Maritza- Courtesy message sent @ 10:47AM
schedule to 5/1/2019 between 5-8PM, 4/25/2019 June
4/30 - (june) - Received a call from driver Adan that we do not have chair in inventory, informed customer we will have to reschedule. Refunded Synchrony. -Alysa
05/06/19- Mrs. Kok alt # (630)863-5921; Customer is upset and would like to speak to sales rep in regards to her experience and req a discount; advised the customer that I have no authority over discounts and would ask May to follow up -Cristina 4:19pm
5/10- (9:01A) Spoke to customer about delivering today; customer said they will check schedule and call back.
5-10 Spoke to customer will be delivering today @ 2:30-3:30pm.-Karen

Received delivery confirmation. serial # 0202002191752 *Bluetooth does not work. If it doesn't work in 2 days, deliver another chair* Maritza sent e-mail to IL--- 5/14/19 Asumi
According to Billy, ACU Palm was shipped from IL. Track#7752 1766 8994. 5/15/19 Riho

5/20- CC Follow Up (about bluetooth on chair) Customer informed me it is working and everything is fine. (9:20a)-Karen",IL,1,10.00,DWA-9150USJ-9150CH,4032.00,,,6501723375113113,74308282,Las Vegas,36 months,0.00,,,,,,,0.00,,,,,,
MITSUWA CHAIR EVENT 4/12-21/19 ARLINGTON HTS (IL),MITSUWA CHAIR EVENT 4/12-21/19 ARLINGTON HTS (IL),May Kam,116907,4/21/2019 9:36:46 PM,Mr Frances To,IL,60053,Legacy 3D,Demo Choco,Demo,1,0.00,3450.00,3450.00,Synchrony,,,"5 years parts, 1 year labor (Free)","Legacy 3D,Tourmaline Pad for Legacy 3D,",No,5/2/2019 12:00:00 AM,Delivered,Demo,"Special discount for 24 month payment, manager approval","Pls make finance $3450 purchase, Thanks/Another# 867-410-7407
4/22/19-Confirmed SYNC$7,000 and original. [DL:IL 01/23,CC:VISA 01/23]***Please charge $3,450/sales draft***-Hitomi
schedule to Tuesday, 4/30/2019 between 2-6PM. 4/25/2019 jUNE
4/22Maritza- Courtesy messages sent to both numbers @ 10:49AM
4/29Maritza- Customer called in asking for her ETA. She is only available M Th and Sundays. June will call back to verify date/time.
5/6Maritza- Customer texted saying that she got a Demo chair. All invoices say that a demo chair was sold. Will text May regarding this matter.

6/7/19 Verified product, payment and delivery status -Arisa 3:00pm",TX,1,10.00,DWA-9150USJ-9150CH-DEMO,3450.00,,,6501723375113774,74321844,Las Vegas,24 months,0.00,,,,,,,0.00,,,,,,
MITSUWA CHAIR EVENT 4/12-21/19 ARLINGTON HTS (IL),MITSUWA CHAIR EVENT 4/12-21/19 ARLINGTON HTS (IL),May Kam,116908,4/21/2019 10:34:04 PM,Mr & Mrs Paul Goodman,IL,60459,Relax 2 Zero 1.0,Demo Black,Demo,1,0.00,3450.00,3450.00,Credit Card,Credit Card,,"5 years parts, 1 year labor (Free)","Relax 2 Zero 1.0,Tourmaline Pad for Relax2Zero 1.0,",No,4/30/2019 12:00:00 AM,Delivered,Demo,"Special discount manager approval , 5 years parts, 2 years labor","Another#608-228-0562
4/22/19-Per.May, customer doesn't want displayed chair because of scrutch, please delivery another demo chair. (emailed Billy,June,Tina) Confirmed $200.00 in SQ. ***COD$3,250***-Hitomi
4/22Maritza- Courtesy messages sent to both numbers @ 10:51AM
4/26/2019 Printed and courtesy message sent - Tina
Confirmed $3,250-PiLH on SQ, updated delivery info. 5/22/19 Riho",TX,1,10.00,USJ-9000USJ-9000KU-DEMO,200.00,J011,,,,,,3250.00,Receipt #PiLH,,,,,,0.00,,,,,,
MITSUWA CHAIR EVENT 4/12-21/19 ARLINGTON HTS (IL),MITSUWA CHAIR EVENT 4/12-21/19 ARLINGTON HTS (IL),May Kam,116909,4/21/2019 10:43:37 PM,Vilai Chiemmongkoltip,IN,46311,Legacy 3D,Demo Black,Demo,1,0.00,3500.00,3500.00,Synchrony,,,"5 years parts, 1 year labor (Free)","Legacy 3D,Tourmaline Pad for Legacy 3D,",No,5/25/2019 12:00:00 AM,Delivered,Demo,"Senior discount , manager approval","4/22/19-Confirmed SYNC$7,000 and original. [DL:IL 01/20, CC:VISA 07/23]***Please charge $3,500/sales draft***-Hitomi
4/23Maritza- Courtesy message sent @ 9:3AM
4/26/2019 Printed and courtesy message sent - Tina
5/14Maritza- Redispatched to IL
5/16-Customer called and informed her that we are working on scheduling for the week of the 27th of May. Will be calling back for confirmation. -Karen
5/22- Customer confirmed delivery of 5/25 between 10am-2pm (customer wants closest to earliest time as possible).-Karen

6/11/19 Verified product, delivery and payment information - Arisa 9:04am",IL,1,10.00,DWA-9150USJ-9150BL-DEMO,3500.00,,,6501723375111380,74262587,Las Vegas,36 months,0.00,,,,,,,0.00,,,,,,
MITSUWA CHAIR EVENT 4/12-21/19 ARLINGTON HTS (IL),MITSUWA CHAIR EVENT 4/12-21/19 ARLINGTON HTS (IL),May Kam,116912,4/22/2019 10:32:38 AM,Yoonhee Lim,MI,48017,Ninja Leg Massager,,New,1,0.00,200.00,200.00,Credit Card,,,No Warranty,"Ninja Leg Massager,",YES,,Delivered,,DEMO,"Approved By Hide 04/21/19
Payment verified 04/22/19 (Cristina 0:34 am)",IL,1,10.00,,200.00,02Vo,,,,,,0.00,,,,,,,0.00,,,,,,
MITSUWA CHAIR EVENT 4/12-21/19 ARLINGTON HTS (IL),MITSUWA CHAIR EVENT 4/12-21/19 ARLINGTON HTS (IL),May Kam,116932,4/23/2019 12:51:55 PM,Mr RongCan Huang,WI,53211,Legacy 3D,New Black,New,1,0.00,3850.00,3850.00,Synchrony,Credit Card,Cash,"5 years parts, 1 year labor (Free)","Legacy 3D,Tourmaline Pad for Legacy 3D,",No,5/2/2019 12:00:00 AM,Delivered,New,"Special discount , manager approval .
Balance $725 will be paid as COD ( by CC) , another phone no is 4144912273","4/23/19-Confirmed SYNC$2,400 [DL:WI 09/2023,CC:VISA 06/2023] and $725.00 in SQ. ***ORIGINAL INVOICE AND SALES RECEIPT NEED BE SIGNED UPON THE DELIVERY***Please charge $2,400/sales draft /*COD$725*** -Hitomi
4/24/2019 Scheduled for Thurs May 2, 2019 12pm to 6pm - June

6/7/19 No signature on order form and SYNC application. Verified product, payment and delivery status -Arisa 12:00pm",TX,1,10.00,DWA-9150USJ-9150BL,2400.00,,,6501723375113782,74322514,Las Vegas,24 months,725.00,KpBG,,,,,,725.00,,,,,,
MITSUWA CHAIR EVENT 4/12-21/19 ARLINGTON HTS (IL),MITSUWA CHAIR EVENT 4/12-21/19 ARLINGTON HTS (IL),May Kam,116938,4/23/2019 4:47:06 PM,Mr & Mrs Jingru Li,IL,60608,Legacy 3D,Demo Choco,Demo,1,0.00,3888.00,3888.00,Synchrony,,,"5 years parts, 1 year labor (Free)","Legacy 3D,Tourmaline Pad for Legacy 3D,",No,,Hold,,"Pls hold about 6 month for moving big place ,  don’t purchasing now, thanks","4/23/19 Confirmed SYNC$6,800 under JING LI and original. [DL:IL 02/21,CC:A/E 05/22]***Please charge $3,888 / sales draft*** Please hold 6 months. - Hitomi",TX,1,10.00,DWA-9150USJ-9150CH-DEMO,3888.00,,,6501723375113758,74321527,Las Vegas,36 months,0.00,,,,,,,0.00,,,,,,
MITSUWA CHAIR EVENT 4/12-21/19 ARLINGTON HTS (IL),MITSUWA CHAIR EVENT 4/12-21/19 ARLINGTON HTS (IL),May Kam,116956,4/25/2019 4:57:07 PM,Mr & Mrs Sun Yoon Bora Nam,IL,60090,Legacy 3D,Demo Choco,Demo,1,0.00,3888.00,3888.00,Synchrony,,,"5 years parts, 1 year labor (Free)","Legacy 3D,",No,5/8/2019 12:00:00 AM,Delivered,Demo,"Pls make purchasing $3888, thanks","Another phone #213-219-9022
4/25/19-Approved Sync$5,500 under SUN YOON and original. [(1)SUN YOON [DL]CA 12/19/2023,[CC]VISA 01/23 (2)BORA NAM [DL]:IL 08/22/2022,[CC]VISA 06/23] ***Please charge $3,888 /sales draft***-Hitomi
4/26/2019 Printed and courtesy message sent - Tina
5/3 - Alysa - Customer confirmed delivery Wednesday 5/8 between 4-7PM.",TX,1,10.00,DWA-9150USJ-9150CH-DEMO,3888.00,,,6501723375117932,74408940,Las Vegas,36 months,0.00,,,,,,,0.00,,,,,,
MITSUWA CHAIR EVENT 4/12-21/19 ARLINGTON HTS (IL),MITSUWA CHAIR EVENT 4/12-21/19 ARLINGTON HTS (IL),May Kam,117201,5/6/2019 7:24:56 PM,Mrs Marianne Paynor,IL,60462,Relax 2 Zero 3D,New Choco,New,1,0.00,3730.00,3730.00,Credit Card,COD,,"3 years parts, 1 year labor (Free)","Relax 2 Zero 3D,Tourmaline Pad for Relax2Zero 3D,",No,5/22/2019 12:00:00 AM,Delivered,New,"Referral from Mitsiwa event, special discount manager approval","5/7/19-Confirmed $200.00 in SQ. ***COD $3,530***Please get signature on receipt*- Hitomi
Printed - Tina 5/8/2019
5/8Maritza- Courtesy message sent @ 8:50AM
5/14Maritza ReDispatched to IL.
5/15- (3:21p)CC- left vm and courtesy message.-Karen
5/15-Confirmed delivery for 5/22 (10am-2pm).-Karen

6/12 COD payment of $3,530 was cleared by Housecall Pro on 5/22/19 1:50pm. Verified delivery and payment status - Arisa 9:21am",IL,1,10.00,DWA-9060USJ-9060BR,200.00,32XK,,,,,,3530.00,,,,,,,0.00,,,,,,
MITSUWA CHAIR EVENT 4/12-21/19 ARLINGTON HTS (IL),MITSUWA CHAIR EVENT 4/12-21/19 ARLINGTON HTS (IL),May Kam,117407,5/16/2019 5:00:33 PM,Ms Debra Kobman,OH,45247,Relax 2 Zero 3D,New Black,New,1,0.00,3800.00,3800.00,Credit Card,,,"3 years parts, 1 year labor (Free)","Relax 2 Zero 3D,Daiwa Blanket,",No,,Delivered,,Special discount for referral of OH home show Mrs Debrah J Family,"Pls don’t show any invoice to Ms Debra Kobman , Thanks
Sq payment confirmed $3,800 ( Please create a Package slip, Don't show the Price per May's Req) -Cristina 05/17/19
5/21/2019: Courtesy call - Left voicemail - Noemi
5/29- Confirmed delivery for 6/7 2:30-6:30pm-Emily",IL,1,10.00,DWA-9060USJ-9060BL,3800.00,OQyb,,,,,,0.00,,,,,,,0.00,,,,,,
