﻿Original Event Name,Event Name,Sales Person,Order Number,Order Date,Customer Name,State,Zip,Product Name,Color,Product Status,QTY,Tax,Total Before Tax,Order Total,Primary Payment Method,Second Payment Method,Thirdl Payment Method,Warranty,Order Items,Pick up,Delivered On,Order Status,Chair Type,Order Notes,Private Note,Branch,No Tax,Actual Tax Rate,SKU,Primary Payment Balance,Primary Authorize Number,Primary Purchase Order Number,Primary Synchrony Account Number,Primary Synchrony Application Key,Primary Synchrony Account Info,Primary Synchrony Term,Primary Synchrony Primary ID,Primary Synchrony Issued State,Primary Synchrony Expiretion Date,Second Payment Balance,Second Authorize Number,Second Purchase Order Number,Second Synchrony Account Number,Second Synchrony Application Key,Second Synchrony Account Info,Second SynchronyTerm,Second Synchrony Primary ID,Second Synchrony Issued State,Second Synchrony Expiretion Date,Third Payment Balance,Third Authorize Number,Third Purchase Order Number,Third Synchrony Account Number,Third Synchrony Application Key,Third Synchrony Account Info,Third Synchrony Term,Third Synchrony Primary ID,Third Synchrony Issued State,Third Synchrony Expiretion Date,First Name,Last Name,Email,Shipping Company,Shipping Address1,Shipping Address2,Shipping Suite,Shipping City,Shipping State,Shipping Zip,Shipping Country,Shipping Phone
"Orlando Boat Show 8/16-18/19, Orlando, FL","Orlando Boat Show 8/16-18/19, Orlando, FL",Andres Soto,120395,8/20/2019 9:41:57 AM,Miguelina Mendez,FL,32829,Majesty,New Choco,New,1,106.81,2393.19,2500.00,Synchrony,,,"5 years parts, 1 year labor (Free)","Majesty,",No,,Printed,,24 months 0% interest financing,"Synchrony original verified. Credit available $6500. Remaining balance $2500. Charge synchrony account upon delivery, have sales draft signed-Erika 8/20/19 12:12pm",FL,0,6.50,MAJ-1010MAJ-1010-BR,2500.00,,,6501723375283924,79878535,Huston,24 months,Driver’s License,FL,09/2020,0.00,,,,,,,,,/,0.00,,,,,,,,,/,Miguelina,Mendez,defaultmail@daiwamassage.com,,3859 Covington Cove Way,,,Orlando,FL,32829,United States,407-721-3002
"Sams Club #4819 Bakersfield, CA","Sams Club #4819 Bakersfield, CA",Hiroko Hudson,120396,8/20/2019 12:30:16 PM,Yvette Mintero,CA,93389,Shogun Neck & Back Massger,New,New,1,16.50,199.98,216.48,Purchase Order,,,"2 years parts, 1 year labor for Small Items","Shogun Neck &amp; Back Massger,",YES,,Delivered,,,,CA,0,8.25,USJ-874USJ-874,0.00,,381461858322224140994,,,,,,,/,0.00,,,,,,,,,/,0.00,,,,,,,,,/,Yvette,Mintero,defaultmail@daiwamassage.com,,P.o. Box 11815,,,Bakersfield,CA,93389,United States,661-490-1792
"Sams Club #4825 Hot Springs, AR","Sams Club #4825 Hot Springs, AR",Ilene Maynard,120397,8/20/2019 12:43:09 PM,Terrye Lopez,AR,71901,Ninja Leg Massager 2,New,New,1,28.50,299.98,328.48,Credit Card,,,"2 years parts, 1 year labor for Small Items","Ninja Leg Massager 2,",YES,,Delivered,,Picked up,,TX,0,9.50,USJ-880,0.00,TC# 735553197591804558782,,,,,,,,/,0.00,,,,,,,,,/,0.00,,,,,,,,,/,Terrye,Lopez,defaultmail@daiwamassage.com,,120 Randy Ct,,,Hot Springs,AR,71901,United States,501-762-9145
