﻿Original Event Name,Event Name,Sales Person,Order Number,Order Date,Customer Name,State,Zip,Product Name,Color,Product Status,QTY,Tax,Total Before Tax,Order Total,Primary Payment Method,Second Payment Method,Thirdl Payment Method,Warranty,Order Items,Pick up,Delivered On,Order Status,Chair Type,Order Notes,Private Note,Branch,No Tax,Actual Tax Rate,SKU,Primary Payment Balance,Primary Authorize Number,Primary Purchase Order Number,Primary Synchrony Account Number,Primary Synchrony Application Key,Primary Synchrony Account Info,Primary Synchrony Term,Primary Synchrony Primary ID,Primary Synchrony Issued State,Primary Synchrony Expiretion Date,Second Payment Balance,Second Authorize Number,Second Purchase Order Number,Second Synchrony Account Number,Second Synchrony Application Key,Second Synchrony Account Info,Second SynchronyTerm,Second Synchrony Primary ID,Second Synchrony Issued State,Second Synchrony Expiretion Date,Third Payment Balance,Third Authorize Number,Third Purchase Order Number,Third Synchrony Account Number,Third Synchrony Application Key,Third Synchrony Account Info,Third Synchrony Term,Third Synchrony Primary ID,Third Synchrony Issued State,Third Synchrony Expiretion Date
"Sams Club #4772 Sarasota, FL","Sam's Club #4772 Sarasota, FL (FL)",Robert Shih,119094,8/5/2019 7:48:37 AM,Khue ( Karen ) Vo,NC,28079,Relax 2 Zero 2.0 for Sam's,New Black,New,1,279.86,3998.00,4277.86,Sam’s Club Synchrony,,,"3 years parts, 1 year labor (Free)","Relax 2 Zero 2.0 for Sam's,Daiwa Blanket,",No,8/28/2019 12:00:00 AM,Delivered,New,Synchrony 24 months 0% APR / Pls help customer to move their current massage-chair back to FL warehouse.  Customer's family from FL will pick it up their older chair .,"**Andres approved upgrade to 3D due to no stock of 2.0 in FL warehouse **
Synchrony 24 months 0% APR / Pls help customer to move their current massage-chair back to FL warehouse.  Customer's family from FL will pick it up their older chair .
Original received. Erika 8/5/19 2:51pm
CC, Jasmin Carrizales, 8/5/19, Av. Sundays/ Old chair we have to transport to other family member.
Old Chair goes to: 5551 Bentgrass Dr. #203, Sarasota, FL 34235/ Giam-440-590-0314

9/4Maritza- Delivery confirmation received. As stated above, R2Z 3D was delivered since no 2.0 in stock.
Tracking number is for Daiwa Blanket, JC",FL,0,7.00,USJ-9050USJ-9050BL,4277.86,,,,,,,,,/,0.00,,,,,,,,,/,0.00,,,,,,,,,/
"Sams Club #4772 Sarasota, FL","Sam's Club #4772 Sarasota, FL (FL)",Robert Shih,119095,8/5/2019 7:53:22 AM,Brady Peder,FL,34202,Relax 2 Zero 2.0 for Sam's,Demo Black[-500],Demo,1,244.86,3498.00,3742.86,Credit Card,,,"3 years parts, 1 year labor (Free)","Relax 2 Zero 2.0 for Sam's,",No,,Cancelled,,,"Original received. Pls collect customers sig. on invoice. Erika 8/5/19 3:18pm
CC, Jasmin Carrizales, 8/6/19, 5:08pm, Cancelled
-Per jasmin and sales rep, order has been canceled-Erika 8/7/19 9:11am",FL,0,7.00,USJ-9050USJ-9050BL-DEMO,3742.86,TC# 7296 6852 5699 3914 2068 92,,,,,,,,/,0.00,,,,,,,,,/,0.00,,,,,,,,,/
"Sams Club #4772 Sarasota, FL","Sam's Club #4772 Sarasota, FL (FL)",Robert Shih,119096,8/5/2019 7:58:08 AM,Janice Sit,FL,34233,Orbit for Sam's ,Demo Choco(Box)[-400],Demo,1,202.86,2898.00,3100.86,Credit Card,,,"3 years parts, 1 year labor (Free)","Orbit for Sam's ,",No,,Cancelled,,"The customer wants to confirm the space first , pls hold","Original received. Erika 8/5/19 3:06pm
CC, Jasmin Carrizales, 8/7/19, 10:12am, Cancelled
-Per jasmin and sales rep, order has been canceled-Erika 8/7/19 9:11am",FL,0,7.00,ORBT-1ORBT-1CH-BOX,3100.86,TC# 9375 8137 3855 1506 4287 14,,,,,,,,/,0.00,,,,,,,,,/,0.00,,,,,,,,,/
"Sams Club #4772 Sarasota, FL","Sam's Club #4772 Sarasota, FL (FL)",Robert Shih,119097,8/5/2019 8:02:39 AM,Paul & Joann Martello Fern,FL,34240,Legacy for Sam's,Demo Black[-500],Demo,1,272.86,3898.00,4170.86,Credit Card,,,"3 years parts, 1 year labor (Free)","Legacy for Sam's,",No,,Delivered,,Pls call the customer on 9/27 to schedule for the delivery due by moving.,"Pls call the customer on 9/27 to schedule for the delivery due by moving.
Original received. Erika 8/5/19 2:56pm
CC, Jasmin Carrizales, 8/6/19, 5:12pm, VM
Chair delivered on 10/1/19, delivery team did not get S/N, customer has been texted on 10/2/19 & 10/31/19, waiting on response - JD 11/15/19",FL,0,7.00,DWA-9100DWA-9100BL-DEMO,4170.86,TC# 6997 2098 9773 5732 0196 50,,,,,,,,/,0.00,,,,,,,,,/,0.00,,,,,,,,,/
"Sams Club #4772 Sarasota, FL","Sam's Club #4772 Sarasota, FL (FL)",Robert Shih,120119,8/6/2019 8:20:56 AM,Everett Dennison,FL,39235,Legacy for Sam's,Demo Black[-500],Demo,1,272.86,3898.00,4170.86,Sam’s Club Synchrony,,,"3 years parts, 1 year labor (Free)","Legacy for Sam's,",No,8/15/2019 12:00:00 AM,Delivered,Demo,Synchrony 24 months 0% APR / Pls check if we have demo black available if not pls ship the the demo choco .,"** DEMO Chair has no SN on it** S/N provided is for the remote
Synchrony 24 months 0% APR / Pls check if we have demo black available if not pls ship the the demo choco .
-Original received. Erika 8/6/19 11:07am
CC, jasmin Carrizales, 8/7/19, 9:59am/Av. Mon.-Fri. 4pm or later + 13th,19th+20th-Anytime

As the DEMO black Legacy did not have a serial number, the number for the remote controller was entered.
Verified delivery and payment, and passed complete invoice to Erika - Arisa 8/20/19  9:28am",FL,0,7.00,DWA-9100DWA-9100BL-DEMO,4170.86,,,,,,,,,/,0.00,,,,,,,,,/,0.00,,,,,,,,,/
"Sams Club #4772 Sarasota, FL","Sam's Club #4772 Sarasota, FL (FL)",Robert Shih,120124,8/6/2019 4:37:53 PM,Xiu Hui Chen,FL,34232,Legacy for Sam's,Demo Choco[-500],Demo,1,0.00,3898.00,3898.00,Sam’s Club Synchrony,,,"3 years parts, 1 year labor (Free)","Legacy for Sam's,Shogun Neck &amp; Back Massger,",No,8/13/2019 12:00:00 AM,Delivered,Demo,Synchrony 24 months 0% APR / Pls deliver with Shogun,"Original received. Erika 8/6/19 5:07pm
CC, Jasmin Carrizales, 8/7/19, 10:03am, VM-Not Set Up Yet
Verified delivery and payment, and passed complete invoice to Erika - Arisa 8/19/19 11:34am",FL,1,7.00,DWA-9100DWA-9100CH-DEMO,3898.00,,,,,,,,,/,0.00,,,,,,,,,/,0.00,,,,,,,,,/
"Sams Club #4772 Sarasota, FL","Sam's Club #4772 Sarasota, FL (FL)",Robert Shih,120124,8/6/2019 4:37:53 PM,Xiu Hui Chen,FL,34232,Shogun Neck & Back Massger,New,New,1,0.00,3898.00,3898.00,Sam’s Club Synchrony,,,"2 years parts, 1 year labor for Small Items","Legacy for Sam's,Shogun Neck &amp; Back Massger,",No,8/13/2019 12:00:00 AM,Delivered,Demo,Synchrony 24 months 0% APR / Pls deliver with Shogun,"Original received. Erika 8/6/19 5:07pm
CC, Jasmin Carrizales, 8/7/19, 10:03am, VM-Not Set Up Yet
Verified delivery and payment, and passed complete invoice to Erika - Arisa 8/19/19 11:34am",FL,1,7.00,USJ-874USJ-874,3898.00,,,,,,,,,/,0.00,,,,,,,,,/,0.00,,,,,,,,,/
"Sams Club #4772 Sarasota, FL","Sam's Club #4772 Sarasota, FL (FL)",Robert Shih,120141,8/9/2019 7:18:47 AM,Ron Smith,FL,34212,Ninja Leg Massager 2,New,New,1,33.60,479.96,513.56,Credit Card,,,"2 years parts, 1 year labor for Small Items","Ninja Leg Massager 2,Shogun Neck &amp; Back Massger,",YES,,Delivered,,,,FL,0,7.00,USJ-880,513.56,TC# 5042 2220 8014 0697 5531 7,,,,,,,,/,0.00,,,,,,,,,/,0.00,,,,,,,,,/
"Sams Club #4772 Sarasota, FL","Sam's Club #4772 Sarasota, FL (FL)",Robert Shih,120141,8/9/2019 7:18:47 AM,Ron Smith,FL,34212,Shogun Neck & Back Massger,Demo[-20],Demo,1,33.60,479.96,513.56,Credit Card,,,"2 years parts, 1 year labor for Small Items","Ninja Leg Massager 2,Shogun Neck &amp; Back Massger,",YES,,Delivered,,,,FL,0,7.00,USJ-874USJ-874-DEMO,513.56,TC# 5042 2220 8014 0697 5531 7,,,,,,,,/,0.00,,,,,,,,,/,0.00,,,,,,,,,/
"Sams Club #4772 Sarasota, FL","Sam's Club #4772 Sarasota, FL (FL)",Robert Shih,120156,8/10/2019 8:08:07 AM,Cynthia Meade,FL,34222,Relax 2 Zero 2.0 for Sam's,Demo Black[-500],Demo,1,244.86,3498.00,3742.86,Sam’s Club Synchrony,,,"3 years parts, 1 year labor (Free)","Relax 2 Zero 2.0 for Sam's,",No,8/16/2019 12:00:00 AM,Delivered,Demo,Synchrony 24 months 0% APR,"CC made on 8/13/19 12:49pm VM - JC
Original received-Erika 8/12/19 5:12pm
Verified delivery and payment, and passed complete invoice to Erika - Arisa 8/19/19 11:30am",FL,0,7.00,USJ-9050USJ-9050BL-DEMO,3742.86,,,,,,,,,/,0.00,,,,,,,,,/,0.00,,,,,,,,,/
"Sams Club #4772 Sarasota, FL","Sam's Club #4772 Sarasota, FL (FL)",Robert Shih,120182,8/11/2019 7:51:26 AM,Roy Anderson,FL,34241,Relax 2 Zero 2.0 for Sam's,Demo Brown[-500],Demo,1,244.86,3498.00,3742.86,Credit Card,,,"3 years parts, 1 year labor (Free)","Relax 2 Zero 2.0 for Sam's,",No,8/19/2019 12:00:00 AM,Delivered,Demo,,"Original received.-Erika 8/12/19 5:13pm
-(missing Sig) pls have customer sign on invoice
CC, Jasmin Carrizales, 8/13/19, 3:12pm/Av. Mon.-Fri after 10am-before 1pm

Confirmed customer signature on invoice. 
Verified delivery and payment, and passed complete invoice to Erika - Arisa 8/20/19 9:02am",FL,0,7.00,USJ-9050USJ-9050BR-DEMO,3742.86,TC# 5644 3217 3930 5327 6649 76,,,,,,,,/,0.00,,,,,,,,,/,0.00,,,,,,,,,/
"Sams Club #4772 Sarasota, FL","Sam's Club #4772 Sarasota, FL (FL)",Robert Shih,120208,8/11/2019 8:49:28 PM,Sandra L. Weaver,FL,34231,Relax 2 Zero 2.0 for Sam's,New Brown,New,1,279.86,3998.00,4277.86,Credit Card,,,"3 years parts, 1 year labor (Free)","Relax 2 Zero 2.0 for Sam's,",No,,Hold,,Pls hold the order to 9/25 due to remodeling.,"Original received. Per sales rep rq pls place on hold until  9/25 due to remodeling.--Erika 8/12/19 5:17pm
-(missing Sig) pls have customer sign on invoice
CC, Jasmin Carrizales ,8/13/19, 5:29pm, VM",FL,0,7.00,USJ-9050USJ-9050BR,4277.86,TC# 9334 3610 3030 0328 6489 66,,,,,,,,/,0.00,,,,,,,,,/,0.00,,,,,,,,,/
"Sams Club #4772 Sarasota, FL","Sam's Club #4772 Sarasota, FL (FL)",Robert Shih,120210,8/11/2019 8:53:47 PM,Dean Schmit,FL,34202,Relax 2 Zero 2.0 for Sam's,New Brown,New,1,279.86,3998.00,4277.86,Sam’s Club Synchrony,,,"3 years parts, 1 year labor (Free)","Relax 2 Zero 2.0 for Sam's,",No,8/19/2019 12:00:00 AM,Delivered,New,Synchrony 24 months 0% APR,"Original received-Erika 8/13/19 10:32am
-(missing Sig) pls have customer sign on invoice
CC, Jasmin Carrizales, 8/13/19, 5:08pm/Av. Mon.-Fri. After 6pm, all day Wed.

Confirmed customer signature on invoice. 
Verified delivery and payment, and passed complete invoice to Erika - Arisa 8/20/19  9:21am",FL,0,7.00,USJ-9050USJ-9050BR,4277.86,,,,,,,,,/,0.00,,,,,,,,,/,0.00,,,,,,,,,/
"Sams Club #4772 Sarasota, FL","Sam's Club #4772 Sarasota, FL (FL)",Robert Shih,120211,8/11/2019 9:00:14 PM,Dr. Edward Lee,FL,34240,Legacy for Sam's,Demo Black[-500],Demo,1,272.86,3898.00,4170.86,Purchase Order,,,"3 years parts, 1 year labor (Free)","Legacy for Sam's,",No,8/19/2019 12:00:00 AM,Delivered,New,,"Received NEW chair due to no DEMO in stock at FL warehouse
Original received-Erika 8/13/19 10:28am
-(missing Sig) pls have customer sign on invoice
CC, Jasmin Carrizales, 8/13/19, 5:12pm/Av. Mon., Thurs., +  Fri.-9am-3pm Not the 22nd.

Customer received an upgrade to Legacy 3D due to the container with the chairs arriving to FL warehouse later than expected. Approved by Andres.
​Verified delivery and payment, and passed complete invoice to Erika - Arisa 8/20/19 9:39am",FL,0,7.00,DWA-9100DWA-9100BL-DEMO,4170.86,TC# 2809 4389 6062 7691 3502 73,TC# 2809 4389 6062 7691 3502 73,,,,,,,/,0.00,,,,,,,,,/,0.00,,,,,,,,,/
"Sams Club #4772 Sarasota, FL","Sam's Club #4772 Sarasota, FL (FL)",Robert Shih,120213,8/11/2019 9:05:04 PM,Susan Taylor,FL,34232,Relax 2 Zero 2.0 for Sam's,Demo Brown[-500],Demo,1,244.86,3498.00,3742.86,Sam’s Club Synchrony,,,"3 years parts, 1 year labor (Free)","Relax 2 Zero 2.0 for Sam's,",No,8/19/2019 12:00:00 AM,Delivered,Demo,Synchrony 24 months 0% APR,"Original received.-Erika 8/13/19 10:23am
-(missing Sig) pls have customer sign on invoice
CC, Jasmin Carrizales, 8/13/19, 5:19pm/Av. Mon.-Fri.-After 3:30pm

Confirmed customer signature on invoice. 
Verified delivery and payment, and passed complete invoice to Erika - Arisa 8/20/19  9:18am",FL,0,7.00,USJ-9050USJ-9050BR-DEMO,3742.86,TC# 1742 1321 0703 4069 7853 07,,,,,,,,/,0.00,,,,,,,,,/,0.00,,,,,,,,,/
"Sams Club #4772 Sarasota, FL","Sam's Club #4772 Sarasota, FL (FL)",Robert Shih,120217,8/11/2019 9:15:00 PM,Palacios Irma,FL,34235,Shogun Neck & Back Massger,Demo[-20],Demo,1,44.80,639.97,684.77,Credit Card,,,"2 years parts, 1 year labor for Small Items","Shogun Neck &amp; Back Massger,Vitality Plate for Sam's,",No,,Delivered,,Vitialty plate pls ship.,Per sales rep Rq ship out vitality plate-Erika 8/13/19 2:39pm,FL,0,7.00,USJ-874USJ-874-DEMO,684.77,TC# 1669 5816 5967 6933 3122 3,,,,,,,,/,0.00,,,,,,,,,/,0.00,,,,,,,,,/
"Sams Club #4772 Sarasota, FL","Sam's Club #4772 Sarasota, FL (FL)",Robert Shih,120217,8/11/2019 9:15:00 PM,Palacios Irma,FL,34235,Vitality Plate for Sam's,New,New,1,44.80,639.97,684.77,Credit Card,,,"2 years parts, 1 year labor for Small Items","Shogun Neck &amp; Back Massger,Vitality Plate for Sam's,",No,,Delivered,,Vitialty plate pls ship.,Per sales rep Rq ship out vitality plate-Erika 8/13/19 2:39pm,FL,0,7.00,USJ-849USJ-849,684.77,TC# 1669 5816 5967 6933 3122 3,,,,,,,,/,0.00,,,,,,,,,/,0.00,,,,,,,,,/
"Sams Club #4772 Sarasota, FL","Sam's Club #4772 Sarasota, FL (FL)",Robert Shih,120218,8/11/2019 9:18:06 PM,Kevi Hayes,FL,34234,Shogun Neck & Back Massger,New,New,1,46.20,659.97,706.17,Credit Card,,,"2 years parts, 1 year labor for Small Items","Shogun Neck &amp; Back Massger,Vitality Plate for Sam's,",No,,Delivered,,Pls ship Vitality plate,"Per sales rep rq, ship out one vitaility plate-Erika 8/13/19 2:37pm",FL,0,7.00,USJ-874USJ-874,706.17,TC# 3049 7886 8677 6933 8121 3,,,,,,,,/,0.00,,,,,,,,,/,0.00,,,,,,,,,/
"Sams Club #4772 Sarasota, FL","Sam's Club #4772 Sarasota, FL (FL)",Robert Shih,120218,8/11/2019 9:18:06 PM,Kevi Hayes,FL,34234,Vitality Plate for Sam's,New,New,1,46.20,659.97,706.17,Credit Card,,,"2 years parts, 1 year labor for Small Items","Shogun Neck &amp; Back Massger,Vitality Plate for Sam's,",No,,Delivered,,Pls ship Vitality plate,"Per sales rep rq, ship out one vitaility plate-Erika 8/13/19 2:37pm",FL,0,7.00,USJ-849USJ-849,706.17,TC# 3049 7886 8677 6933 8121 3,,,,,,,,/,0.00,,,,,,,,,/,0.00,,,,,,,,,/
"Sam's Club #4772 Sarasota, FL (FL)","Sam's Club #4772 Sarasota, FL (FL)",Hunt Zhang,122876,12/6/2019 6:37:44 PM,Heather Chadwick,FL,34233,Relax 2 Zero 3D for Sam's,New Brown,New,1,335.86,4798.00,5133.86,Credit Card,,,"5 years parts, 1 year labor (Free)","Relax 2 Zero 3D for Sam's,",No,12/18/2019 12:00:00 AM,Delivered,New,,"She expects to receive the chair before Christmas. Please help me with that.
---Original received-Erika 12/9/19 10:56am
CC, Jasmin Carrizales, 12/11/19, VM
Delivery conf completed-Erika 12/19/19 2:45pm",FL,0,7.00,DWA-9060DWA-9060BR,5133.86,9003230959392147865538,,,,,,,,/,0.00,,,,,,,,,/,0.00,,,,,,,,,/
"Sam's Club #4772 Sarasota, FL (FL)","Sam's Club #4772 Sarasota, FL (FL)",Robert Shih,122922,12/9/2019 7:35:02 AM,Kelly Huynh,FL,34232,Foot Vibe Pro,,New,1,335.86,4798.00,5133.86,Credit Card,,,"2 years parts, 1 year labor for Small Items","Relax 2 Zero 3D for Sam's,Foot Vibe Pro,",No,12/18/2019 12:00:00 AM,Delivered,New,Pls ship footvibe on delivery.,"Original received-Erika 12/10/19 10:42am
Scheduled 12/18/19 between 2pm-5pm, JC 12/11/19
Delivery conf completed-Erika 12/19/19 2:46pm",FL,0,7.00,USJ-871,5133.86,TC# 0879 6480 2543 7691 3542 43,,,,,,,,/,0.00,,,,,,,,,/,0.00,,,,,,,,,/
"Sam's Club #4772 Sarasota, FL (FL)","Sam's Club #4772 Sarasota, FL (FL)",Robert Shih,122922,12/9/2019 7:35:02 AM,Kelly Huynh,FL,34232,Relax 2 Zero 3D for Sam's,New Black,New,1,335.86,4798.00,5133.86,Credit Card,,,"3 years parts, 1 year labor (Free)","Relax 2 Zero 3D for Sam's,Foot Vibe Pro,",No,12/18/2019 12:00:00 AM,Delivered,New,Pls ship footvibe on delivery.,"Original received-Erika 12/10/19 10:42am
Scheduled 12/18/19 between 2pm-5pm, JC 12/11/19
Delivery conf completed-Erika 12/19/19 2:46pm",FL,0,7.00,DWA-9060DWA-9060BL,5133.86,TC# 0879 6480 2543 7691 3542 43,,,,,,,,/,0.00,,,,,,,,,/,0.00,,,,,,,,,/
"Sam's Club #4772 Sarasota, FL (FL)","Sam's Club #4772 Sarasota, FL (FL)",Robert Shih,123000,12/13/2019 7:37:23 AM,Richard Robinson,FL,34237,Foot Vibe Pro,,New,1,8.40,119.98,128.38,Credit Card,,,"2 years parts, 1 year labor for Small Items","Foot Vibe Pro,",YES,,Delivered,,,,FL,0,7.00,USJ-871,128.38,TC# 1384 7169 4532 3246 6695 6,,,,,,,,/,0.00,,,,,,,,,/,0.00,,,,,,,,,/
"Sam's Club #4772 Sarasota, FL (FL)","Sam's Club #4772 Sarasota, FL (FL)",Robert Shih,123001,12/13/2019 7:42:42 AM,Michael Quinn,FL,34240,Ninja Leg Massager 2,New,New,1,21.00,299.98,320.98,Credit Card,,,"2 years parts, 1 year labor for Small Items","Ninja Leg Massager 2,",YES,,Delivered,,,,FL,0,7.00,USJ-880,320.98,TC# 1092 0263 8156 0697 6338 7,,,,,,,,/,0.00,,,,,,,,,/,0.00,,,,,,,,,/
"Sam's Club #4772 Sarasota, FL (FL)","Sam's Club #4772 Sarasota, FL (FL)",Robert Shih,123002,12/13/2019 7:50:08 AM,Dr. Vincent Carrol,AA,34235,Foot Vibe Pro,,New,1,8.40,119.98,128.38,Credit Card,,,"2 years parts, 1 year labor for Small Items","Foot Vibe Pro,",YES,,Delivered,,,,FL,0,7.00,USJ-871,128.38,TC# 5846 9588 0761 9102 7880 2,,,,,,,,/,0.00,,,,,,,,,/,0.00,,,,,,,,,/
"Sam's Club #4772 Sarasota, FL (FL)","Sam's Club #4772 Sarasota, FL (FL)",Robert Shih,123101,12/16/2019 9:18:42 AM,Darlene Mon,FL,34232,Shogun Neck & Back Massger,New,New,1,14.00,199.98,213.98,Credit Card,,,"2 years parts, 1 year labor for Small Items","Shogun Neck &amp; Back Massger,",YES,,Delivered,,,,FL,0,7.00,USJ-874USJ-874,213.98,TC# 8317 9926 9805 7390 2665 0,,,,,,,,/,0.00,,,,,,,,,/,0.00,,,,,,,,,/
"Sam's Club #4772 Sarasota, FL (FL)","Sam's Club #4772 Sarasota, FL (FL)",Robert Shih,123102,12/16/2019 9:25:32 AM,Sheri Kuntz,FL,34237,Foot Vibe Pro,,New,1,8.40,119.98,128.38,Credit Card,,,"2 years parts, 1 year labor for Small Items","Foot Vibe Pro,",YES,,Delivered,,,,FL,0,7.00,USJ-871,128.38,TC# 9717 7936 7805 7310 8661 0,,,,,,,,/,0.00,,,,,,,,,/,0.00,,,,,,,,,/
"Sam's Club #4772 Sarasota, FL (FL)","Sam's Club #4772 Sarasota, FL (FL)",Robert Shih,123104,12/16/2019 9:42:44 AM,Di Xua Feng,FL,34241,PEGASUS 2 SMART - Sam's,Demo Choco[-700],Demo,1,0.00,5998.00,5998.00,Credit Card,,,"3 years parts, 1 year labor (Free)","PEGASUS 2 SMART - Sam's,",No,,Cancelled,,Pls make sure if the demo is perfect condition before ship . The one I displayed has lot of scratches.,"Original received-Erika 12/16/19 10:19am
Please put on Hold, JC 12/17/19 10:45am/Wants to Cancel
Officially Cancelled 12/19/19 JC
12/19Maritza- Jasmin confirmed cancellation with sales rep. Will wait for Sam's to contact us and confirm.
12/20Maritza- Doug sams rep called to confirm cancellation. will send email as he requested to (brettcamp@sarasota4772.com) email didn't go through",FL,1,7.00,PEGS-2PEGS-2-BR-DEMO,5998.00,TC# 8065 0037 7894 1501 4177 24,,,,,,,,/,0.00,,,,,,,,,/,0.00,,,,,,,,,/
"Sam's Club #4772 Sarasota, FL (FL)","Sam's Club #4772 Sarasota, FL (FL)",Robert Shih,123106,12/16/2019 9:49:41 AM,Daryl Zook,FL,34232,Foot Vibe Pro,,New,1,300.86,4298.00,4598.86,Credit Card,,,"2 years parts, 1 year labor for Small Items","Relax 2 Zero 3D for Sam's,Foot Vibe Pro,",No,,Scheduled,,Pls make sure if the demo is perfect condition before ship . The one I displayed has lot of scratches.,"Original received-Erika 12/16/19 4:11pm
CC, Jasmin Carrizales, 12/19/19, 5:52pm/Av. Any day after 10am
Scheduled 1/2/20 between 1:30pm-4:30pm, JC 12/20/19",FL,0,7.00,USJ-871,4598.86,TC# 0190 7762 0025 8473 5900 95,,,,,,,,/,0.00,,,,,,,,,/,0.00,,,,,,,,,/
"Sam's Club #4772 Sarasota, FL (FL)","Sam's Club #4772 Sarasota, FL (FL)",Robert Shih,123106,12/16/2019 9:49:41 AM,Daryl Zook,FL,34232,Relax 2 Zero 3D for Sam's,Demo Brown[-500],Demo,1,300.86,4298.00,4598.86,Credit Card,,,"3 years parts, 1 year labor (Free)","Relax 2 Zero 3D for Sam's,Foot Vibe Pro,",No,,Scheduled,,Pls make sure if the demo is perfect condition before ship . The one I displayed has lot of scratches.,"Original received-Erika 12/16/19 4:11pm
CC, Jasmin Carrizales, 12/19/19, 5:52pm/Av. Any day after 10am
Scheduled 1/2/20 between 1:30pm-4:30pm, JC 12/20/19",FL,0,7.00,DWA-9060DWA-9060BR-DEMO,4598.86,TC# 0190 7762 0025 8473 5900 95,,,,,,,,/,0.00,,,,,,,,,/,0.00,,,,,,,,,/
"Sam's Club #4772 Sarasota, FL (FL)","Sam's Club #4772 Sarasota, FL (FL)",Robert Shih,123107,12/16/2019 9:55:50 AM,John Waish,FL,34232,Orbit for Sam's ,New Choco,New,1,230.86,3298.00,3528.86,Credit Card,,,"2 years parts, 1 year labor for Small Items","Orbit for Sam's ,Chair Pad for Legacy,",No,,Called,,Chair pad x1,"Original received-Erika 12/16/19 4:18pm
CC, Jasmin Carrizales, 12/19/19, 5:54pm, VM
Trying to schedule for, 1/2/20 between 11:30am-2:30pm, JC 12/20/19",FL,0,7.00,ORBT-1ORBT-1CH,3528.86,TC# 1582 8022 3719 3069 7893 87,,,,,,,,/,0.00,,,,,,,,,/,0.00,,,,,,,,,/
"Sam's Club #4772 Sarasota, FL (FL)","Sam's Club #4772 Sarasota, FL (FL)",Robert Shih,123109,12/16/2019 10:04:23 AM,Reid Kagihara,FL,34241,PEGASUS 2 SMART - Sam's,New Black,New,1,468.86,6698.00,7166.86,Sam’s Club Synchrony,,,"3 years parts, 1 year labor (Free)","PEGASUS 2 SMART - Sam's,",No,,Called,,,"Original received-Erika 12/16/19 4:27pm
CC, Jasmin Carrizales, 12/19/19, 5:59pm/ Not Av. Thursday week of the 6th  When charging his synchrony 24months.",FL,0,7.00,PEGS-2PEGS-2-BL,7166.86,,,,,,,,,/,0.00,,,,,,,,,/,0.00,,,,,,,,,/
