﻿Order Number,Order Date,Original Event Name,Event Name,Salesperson,SKU,Product Name,Color,QTY,Warranty,Payment Details,Tax,Order Total,Gross,Primary Payment Method,Primary Payment Balance,Primary Authorize Number,Primary Purchase Order Number,Primary Synchrony Account Number,Primary Synchrony Application Key,Primary Synchrony AccountInfo,Primary SynchronyTerm,Secondly Payment Method,Secondly Payment Balance,Secondly Authorize Number,Secondly Purchase Order Number,Secondly Synchrony Account Number,Secondly Synchrony Application Key,Secondly Synchrony AccountInfo,Secondly SynchronyTerm,Thirdly Payment Method,Thirdly Payment Balance,Thirdly Authorize Number,Thirdly Purchase Order Number,Thirdly Synchrony Account Number,Thirdly Synchrony Application Key,Thirdly Synchrony AccountInfo,Thirdly SynchronyTerm,Actual Shipping Cost,CustomerName,Shipping Address,Delivered On,Serial Number (TO Be),Note,Branch,IsNoTax,ActualTaxRate
108946,9/1/2018 10:27:26 AM,L.A. COUNTY FAIR 8/31-9/23/18 POMONA (CA),L.A. COUNTY FAIR 8/31-9/23/18 POMONA (CA),David Wang,DWA-9060USJ-9060BR-DEMO,Relax2Zero 3D,Demo Choco,1,"3 years parts, 1 year labor (Free)",CUSTOM ,0.00,4200.00,4200.00,Synchrony,4200.00,,,6019170813111330,93756134,San Diego,36 months,,0.00,,,,,,,,0.00,,,,,,,0.00,Amose Douge,909-546-2231,,,,CA,1,9.50
108946,9/1/2018 10:27:26 AM,L.A. COUNTY FAIR 8/31-9/23/18 POMONA (CA),L.A. COUNTY FAIR 8/31-9/23/18 POMONA (CA),David Wang,,Daiwa Blanket,,1,no warranty,CUSTOM ,0.00,4200.00,4200.00,Synchrony,4200.00,,,6019170813111330,93756134,San Diego,36 months,,0.00,,,,,,,,0.00,,,,,,,0.00,Amose Douge,909-546-2231,,,,CA,1,9.50
108947,9/1/2018 10:50:55 AM,L.A. COUNTY FAIR 8/31-9/23/18 POMONA (CA),L.A. COUNTY FAIR 8/31-9/23/18 POMONA (CA),Daisuke Ito,SOL-1,Solace,,1,"3 years parts, 1 year labor (Free)",CUSTOM ,295.93,4161.00,4161.00,CreditCard,4161.00,cftL,,,,,,,0.00,,,,,,,,0.00,,,,,,,0.00,Richard Lonsford,909-556-5159,9/14/2018 12:00:00 AM,,,CA,0,9.50
108952,9/1/2018 3:36:39 PM,L.A. COUNTY FAIR 8/31-9/23/18 POMONA (CA),L.A. COUNTY FAIR 8/31-9/23/18 POMONA (CA),David Wang,DWA-9060USJ-9060BR,Relax2Zero 3D,New Choco,1,"5 years parts, 1 year labor ($300)",CUSTOM ,0.00,4800.00,4800.00,Synchrony,4800.00,,,6019170813114326,93818343,San Diego,36 months,,0.00,,,,,,,,0.00,,,,,,,0.00,Patricia Plourde,714-774-3195,9/14/2018 12:00:00 AM,,,CA,1,9.50
109019,9/3/2018 10:46:56 AM,L.A. COUNTY FAIR 8/31-9/23/18 POMONA (CA),L.A. COUNTY FAIR 8/31-9/23/18 POMONA (CA),Daisuke Ito,DWA-9060USJ-9060BL,Relax2Zero 3D,New Black,1,"5 years parts, 1 year labor ($300)",CUSTOM ,0.00,4500.00,4500.00,CreditCard,4500.00,NLNr,,,,,,,0.00,,,,,,,,0.00,,,,,,,0.00,Francine Rizzio,760-927-5950,9/13/2018 12:00:00 AM,,,CA,1,9.50
109025,9/3/2018 6:34:32 PM,L.A. COUNTY FAIR 8/31-9/23/18 POMONA (CA),L.A. COUNTY FAIR 8/31-9/23/18 POMONA (CA),Daisuke Ito,SOL-1,Solace,,1,"5 years parts, 1 year labor ($300)",CUSTOM ,257.93,3723.00,3723.00,CreditCard,3723.00,08Qw,,,,,,,0.00,,,,,,,,0.00,,,,,,,0.00,Agnes Calvillo,951-789-7031,9/14/2018 12:00:00 AM,,,CA,0,9.50
109025,9/3/2018 6:34:32 PM,L.A. COUNTY FAIR 8/31-9/23/18 POMONA (CA),L.A. COUNTY FAIR 8/31-9/23/18 POMONA (CA),Daisuke Ito,,Daiwa Blanket,,1,no warranty,CUSTOM ,257.93,3723.00,3723.00,CreditCard,3723.00,08Qw,,,,,,,0.00,,,,,,,,0.00,,,,,,,0.00,Agnes Calvillo,951-789-7031,9/14/2018 12:00:00 AM,,,CA,0,9.50
109069,9/4/2018 4:41:15 PM,L.A. COUNTY FAIR 8/31-9/23/18 POMONA (CA),L.A. COUNTY FAIR 8/31-9/23/18 POMONA (CA),May Kam,DWA-9400Pegasus-BR,Pegasus,New Choco,1,"5 years parts, 1 year labor (Free)",CUSTOM ,0.00,6351.00,6351.00,Synchrony,6351.00,,,6019170813111629,93762823,Las Vegas,36 months,,0.00,,,,,,,,0.00,,,,,,,0.00,Daniel Aviles,909-437-9093,,,,CA,1,9.50
109069,9/4/2018 4:41:15 PM,L.A. COUNTY FAIR 8/31-9/23/18 POMONA (CA),L.A. COUNTY FAIR 8/31-9/23/18 POMONA (CA),May Kam,,Tourmaline Pad for Pegasus,,1,no warranty,CUSTOM ,0.00,6351.00,6351.00,Synchrony,6351.00,,,6019170813111629,93762823,Las Vegas,36 months,,0.00,,,,,,,,0.00,,,,,,,0.00,Daniel Aviles,909-437-9093,,,,CA,1,9.50
109073,9/4/2018 5:00:39 PM,L.A. COUNTY FAIR 8/31-9/23/18 POMONA (CA),L.A. COUNTY FAIR 8/31-9/23/18 POMONA (CA),May Kam,DWA-9150USJ-9150BL-DEMO,Legacy 3D,Demo Black,1,"5 years parts, 1 year labor (Free)",CUSTOM COD,0.00,3700.00,3700.00,CreditCard,100.00,Receipt #Nsze,,,,,,COD,1900.00,,,,,,,PurchaseOrder,1700.00,,LAYAWAY,,,,,0.00,Angelita Moya,626-641-3876,,,,CA,1,9.50
109073,9/4/2018 5:00:39 PM,L.A. COUNTY FAIR 8/31-9/23/18 POMONA (CA),L.A. COUNTY FAIR 8/31-9/23/18 POMONA (CA),May Kam,,Tourmaline Pad for Legacy 3D,,1,no warranty,CUSTOM COD,0.00,3700.00,3700.00,CreditCard,100.00,Receipt #Nsze,,,,,,COD,1900.00,,,,,,,PurchaseOrder,1700.00,,LAYAWAY,,,,,0.00,Angelita Moya,626-641-3876,,,,CA,1,9.50
109074,9/4/2018 5:09:26 PM,L.A. COUNTY FAIR 8/31-9/23/18 POMONA (CA),L.A. COUNTY FAIR 8/31-9/23/18 POMONA (CA),Stephany Higareda,DWA-9150USJ-9150BL-DEMO,Legacy 3D,Demo Black,1,"5 years parts, 1 year labor (Free)",CUSTOM COD,0.00,3900.00,3900.00,CreditCard,100.00,Receipt #fqkG,,,,,,COD,1900.00,,,,,,,PurchaseOrder,1900.00,,LAYAWAY,,,,,0.00,Chelise Gonzales,818-437-5493,,,,CA,1,9.50
109075,9/4/2018 5:17:57 PM,L.A. COUNTY FAIR 8/31-9/23/18 POMONA (CA),L.A. COUNTY FAIR 8/31-9/23/18 POMONA (CA),May Kam,SOL-1,Solace,,1,"5 years parts, 1 year labor (Free)",CUSTOM ,0.00,3300.00,3300.00,Synchrony,3300.00,,,6019170813111652,93767363,Las Vegas,36 months,,0.00,,,,,,,,0.00,,,,,,,0.00,CECILIA CASTRO,818-895-0905,9/8/2018 12:00:00 AM,,Solace New Choco,CA,1,9.50
109075,9/4/2018 5:17:57 PM,L.A. COUNTY FAIR 8/31-9/23/18 POMONA (CA),L.A. COUNTY FAIR 8/31-9/23/18 POMONA (CA),May Kam,,Tourmaline Pad for Solace,,1,no warranty,CUSTOM ,0.00,3300.00,3300.00,Synchrony,3300.00,,,6019170813111652,93767363,Las Vegas,36 months,,0.00,,,,,,,,0.00,,,,,,,0.00,CECILIA CASTRO,818-895-0905,9/8/2018 12:00:00 AM,,Solace New Choco,CA,1,9.50
109076,9/4/2018 5:24:50 PM,L.A. COUNTY FAIR 8/31-9/23/18 POMONA (CA),L.A. COUNTY FAIR 8/31-9/23/18 POMONA (CA),May Kam,DWA-9150USJ-9150CH,Legacy 3D,New Choco,1,"5 years parts, 1 year labor (Free)",CUSTOM ,0.00,4421.00,4421.00,Synchrony,4421.00,,,6019170813119010,93909283,Las Vegas,24 months,,0.00,,,,,,,,0.00,,,,,,,0.00,ROBERT OLIN,909-574-0108,9/21/2018 12:00:00 AM,,,CA,1,9.50
109076,9/4/2018 5:24:50 PM,L.A. COUNTY FAIR 8/31-9/23/18 POMONA (CA),L.A. COUNTY FAIR 8/31-9/23/18 POMONA (CA),May Kam,,Tourmaline Pad for Legacy 3D,,1,no warranty,CUSTOM ,0.00,4421.00,4421.00,Synchrony,4421.00,,,6019170813119010,93909283,Las Vegas,24 months,,0.00,,,,,,,,0.00,,,,,,,0.00,ROBERT OLIN,909-574-0108,9/21/2018 12:00:00 AM,,,CA,1,9.50
109077,9/4/2018 5:35:17 PM,L.A. COUNTY FAIR 8/31-9/23/18 POMONA (CA),L.A. COUNTY FAIR 8/31-9/23/18 POMONA (CA),Mikito Nakanishi,DWA-9100DWA-9100BL,Legacy,New Black,1,"3 years parts, 1 year labor (Free)",CUSTOM ,0.00,3600.00,3600.00,Synchrony,3600.00,,,6019170813119085,93910351,Las Vegas,24 months,,0.00,,,,,,,,0.00,,,,,,,0.00,JORGE GUZMAN,909-641-6355,9/12/2018 12:00:00 AM,,,CA,1,9.50
109082,9/5/2018 9:59:45 AM,L.A. COUNTY FAIR 8/31-9/23/18 POMONA (CA),L.A. COUNTY FAIR 8/31-9/23/18 POMONA (CA),Mikito Nakanishi,DWA-9100DWA-9100BU,Legacy,New Choco,1,"3 years parts, 1 year labor (Free)",CUSTOM ,0.00,3500.00,3500.00,Synchrony,3500.00,,,6019170813119127,93910872,Las Vegas,24 months,,0.00,,,,,,,,0.00,,,,,,,0.00,MARCO LAGUITAN,951-214-9081,9/7/2018 12:00:00 AM,,,CA,1,9.50
109085,9/5/2018 10:10:47 AM,L.A. COUNTY FAIR 8/31-9/23/18 POMONA (CA),L.A. COUNTY FAIR 8/31-9/23/18 POMONA (CA),May Kam,DWA-9400Pegasus-BR,Pegasus,New Choco,1,"5 years parts, 1 year labor (Free)",CUSTOM CreditCard,0.00,5450.00,5450.00,CreditCard,2725.00,Receipt #uiid,,,,,,CreditCard,2725.00,housecall pro,,,,,,,0.00,,,,,,,0.00,Vicki & Terence Keenan,909-230-0554,9/12/2018 12:00:00 AM,,,CA,1,9.50
109085,9/5/2018 10:10:47 AM,L.A. COUNTY FAIR 8/31-9/23/18 POMONA (CA),L.A. COUNTY FAIR 8/31-9/23/18 POMONA (CA),May Kam,,Tourmaline Pad for Pegasus,,1,no warranty,CUSTOM CreditCard,0.00,5450.00,5450.00,CreditCard,2725.00,Receipt #uiid,,,,,,CreditCard,2725.00,housecall pro,,,,,,,0.00,,,,,,,0.00,Vicki & Terence Keenan,909-230-0554,9/12/2018 12:00:00 AM,,,CA,1,9.50
109087,9/5/2018 10:19:44 AM,L.A. COUNTY FAIR 8/31-9/23/18 POMONA (CA),L.A. COUNTY FAIR 8/31-9/23/18 POMONA (CA),May Kam,SOL-1,Solace,,1,"5 years parts, 1 year labor (Free)",CUSTOM CreditCard,0.00,2700.00,2700.00,CreditCard,219.00,Receipt #Szn9,,,,,,CreditCard,2481.00,housecall pro,,,,,,,0.00,,,,,,,0.00,Yolanda Moreno,323-547-1598,9/13/2018 12:00:00 AM,,Solace DEMO Choco brown,CA,1,9.50
109090,9/5/2018 10:47:54 AM,L.A. COUNTY FAIR 8/31-9/23/18 POMONA (CA),L.A. COUNTY FAIR 8/31-9/23/18 POMONA (CA),Mikito Nakanishi,DWA-9400Pegasus-BL,Pegasus,New Black,1,"5 years parts, 1 year labor (Free)",CUSTOM ,0.00,5300.00,5300.00,CreditCard,5300.00,Receipt #zcEo,,,,,,,0.00,,,,,,,,0.00,,,,,,,0.00,Josh Brown,619-597-9443,9/11/2018 12:00:00 AM,,,CA,1,9.50
109095,9/5/2018 11:39:50 AM,L.A. COUNTY FAIR 8/31-9/23/18 POMONA (CA),L.A. COUNTY FAIR 8/31-9/23/18 POMONA (CA),May Kam,DWA-9100DWA-9100BU-DEMO,Legacy,Demo Choco,1,"5 years parts, 1 year labor (Free)",CUSTOM CreditCard,0.00,3550.00,3550.00,Synchrony,2000.00,,,6019170813118129,93890902,Las Vegas,24 months,CreditCard,1000.00,housecall pro,,,,,,CreditCard,550.00,housecall pro,,,,,,0.00,DIANE DUBOIS,909-648-9972,9/22/2018 12:00:00 AM,,,CA,1,9.50
109095,9/5/2018 11:39:50 AM,L.A. COUNTY FAIR 8/31-9/23/18 POMONA (CA),L.A. COUNTY FAIR 8/31-9/23/18 POMONA (CA),May Kam,,Tourmaline Pad for Legacy,,1,no warranty,CUSTOM CreditCard,0.00,3550.00,3550.00,Synchrony,2000.00,,,6019170813118129,93890902,Las Vegas,24 months,CreditCard,1000.00,housecall pro,,,,,,CreditCard,550.00,housecall pro,,,,,,0.00,DIANE DUBOIS,909-648-9972,9/22/2018 12:00:00 AM,,,CA,1,9.50
109098,9/5/2018 1:03:21 PM,L.A. COUNTY FAIR 8/31-9/23/18 POMONA (CA),L.A. COUNTY FAIR 8/31-9/23/18 POMONA (CA),May Kam,SOL-1,Solace,,1,"5 years parts, 1 year labor (Free)",CUSTOM ,0.00,3230.00,3230.00,Synchrony,3230.00,,,6019170813125199,94035064,Las Vegas,36 months,,0.00,,,,,,,,0.00,,,,,,,0.00,CARRIE CORDERO,909-996-2633,9/12/2018 12:00:00 AM,,Solace DEMO black,CA,1,9.50
109098,9/5/2018 1:03:21 PM,L.A. COUNTY FAIR 8/31-9/23/18 POMONA (CA),L.A. COUNTY FAIR 8/31-9/23/18 POMONA (CA),May Kam,,Tourmaline Pad for Solace,,1,no warranty,CUSTOM ,0.00,3230.00,3230.00,Synchrony,3230.00,,,6019170813125199,94035064,Las Vegas,36 months,,0.00,,,,,,,,0.00,,,,,,,0.00,CARRIE CORDERO,909-996-2633,9/12/2018 12:00:00 AM,,Solace DEMO black,CA,1,9.50
109102,9/5/2018 8:36:11 PM,L.A. COUNTY FAIR 8/31-9/23/18 POMONA (CA),L.A. COUNTY FAIR 8/31-9/23/18 POMONA (CA),Christoper Williams,USJ-9000USJ-9000CR-DEMO,Relax2Zero 1.0,Demo Beige,1,"5 years parts, 1 year labor (Free)",CUSTOM ,260.30,3400.30,3400.30,Synchrony,0.00,,,6019170813125942,94057663,San Diego,24 months,,0.00,,,,,,,,0.00,,,,,,,0.00,jason lucas,6262603446,,,sold for 3400,Not Dispatched,0,9.50
109103,9/5/2018 9:49:50 PM,L.A. COUNTY FAIR 8/31-9/23/18 POMONA (CA),L.A. COUNTY FAIR 8/31-9/23/18 POMONA (CA),May Kam,SOL-1,Solace,,1,"5 years parts, 1 year labor (Free)",CUSTOM CreditCard,0.00,3120.00,3120.00,CreditCard,200.00,YGAs,,,,,,CreditCard,2920.00,housecall pro,,,,,,,0.00,,,,,,,0.00,Mr & Mrs Scott Newsome,9099802826,9/12/2018 12:00:00 AM,,"Brown color, thanks
Special discount for senior day, balance $2920",CA,1,9.50
109103,9/5/2018 9:49:50 PM,L.A. COUNTY FAIR 8/31-9/23/18 POMONA (CA),L.A. COUNTY FAIR 8/31-9/23/18 POMONA (CA),May Kam,,Tourmaline Pad for Solace,,1,no warranty,CUSTOM CreditCard,0.00,3120.00,3120.00,CreditCard,200.00,YGAs,,,,,,CreditCard,2920.00,housecall pro,,,,,,,0.00,,,,,,,0.00,Mr & Mrs Scott Newsome,9099802826,9/12/2018 12:00:00 AM,,"Brown color, thanks
Special discount for senior day, balance $2920",CA,1,9.50
109104,9/5/2018 10:06:36 PM,L.A. COUNTY FAIR 8/31-9/23/18 POMONA (CA),L.A. COUNTY FAIR 8/31-9/23/18 POMONA (CA),May Kam,SOL-1,Solace,,1,"5 years parts, 1 year labor (Free)",CUSTOM ,0.00,3000.00,3000.00,Synchrony,3000.00,,,6019170813125959,94057863,Las Vegas,24 months,,0.00,,,,,,,,0.00,,,,,,,0.00,Mrs Tomasa Haverstick,9518582235,,,"Black color, special discount for senior day.another phone is 9515227068",CA,1,9.50
109104,9/5/2018 10:06:36 PM,L.A. COUNTY FAIR 8/31-9/23/18 POMONA (CA),L.A. COUNTY FAIR 8/31-9/23/18 POMONA (CA),May Kam,,Tourmaline Pad for Solace,,1,no warranty,CUSTOM ,0.00,3000.00,3000.00,Synchrony,3000.00,,,6019170813125959,94057863,Las Vegas,24 months,,0.00,,,,,,,,0.00,,,,,,,0.00,Mrs Tomasa Haverstick,9518582235,,,"Black color, special discount for senior day.another phone is 9515227068",CA,1,9.50
109107,9/6/2018 11:18:09 AM,L.A. COUNTY FAIR 8/31-9/23/18 POMONA (CA),L.A. COUNTY FAIR 8/31-9/23/18 POMONA (CA),May Kam,SOL-1SOL-1-BL,Solace,New Black,1,"5 years parts, 1 year labor (Free)",CUSTOM CreditCard,0.00,3650.00,3650.00,Synchrony,3000.00,,,6019193016323247,,San Diego,24 months,CreditCard,650.00,housecall pro,,,,,,,0.00,,,,,,,0.00,PAUL/MARITZA KLINEFELTER,562-292-5083,9/13/2018 12:00:00 AM,,,CA,1,9.50
109107,9/6/2018 11:18:09 AM,L.A. COUNTY FAIR 8/31-9/23/18 POMONA (CA),L.A. COUNTY FAIR 8/31-9/23/18 POMONA (CA),May Kam,,Tourmaline Pad for Solace,,1,no warranty,CUSTOM CreditCard,0.00,3650.00,3650.00,Synchrony,3000.00,,,6019193016323247,,San Diego,24 months,CreditCard,650.00,housecall pro,,,,,,,0.00,,,,,,,0.00,PAUL/MARITZA KLINEFELTER,562-292-5083,9/13/2018 12:00:00 AM,,,CA,1,9.50
109108,9/6/2018 11:57:30 AM,L.A. COUNTY FAIR 8/31-9/23/18 POMONA (CA),L.A. COUNTY FAIR 8/31-9/23/18 POMONA (CA),Christoper Williams,DWA-9100DWA-9100BU,Legacy,New Choco,1,"5 years parts, 1 year labor (Free)",CUSTOM ,325.38,4500.38,4500.38,Synchrony,0.00,,,6019170813126288,94079005,San Diego,36 months,,0.00,,,,,,,,0.00,,,,,,,0.00,Dionisio Garza,9092100840,,,sold for 4500,Not Dispatched,0,9.50
109116,9/6/2018 5:07:08 PM,L.A. COUNTY FAIR 8/31-9/23/18 POMONA (CA),L.A. COUNTY FAIR 8/31-9/23/18 POMONA (CA),Christoper Williams,USJ-9000USJ-9000CR-DEMO,Relax2Zero 1.0,Demo Beige,1,"5 years parts, 1 year labor (Free)",CUSTOM ,0.00,3400.00,3400.00,Synchrony,3400.00,,,6019170813125942,94057663,San Diego,24 months,,0.00,,,,,,,,0.00,,,,,,,0.00,JASON LUCAS,818-408-3193,9/12/2018 12:00:00 AM,,,CA,1,9.50
109118,9/6/2018 5:27:54 PM,L.A. COUNTY FAIR 8/31-9/23/18 POMONA (CA),L.A. COUNTY FAIR 8/31-9/23/18 POMONA (CA),Christoper Williams,DWA-9100DWA-9100BU,Legacy,New Choco,1,"5 years parts, 1 year labor (Free)",CUSTOM ,0.00,4500.00,4500.00,Synchrony,4500.00,,,6019170813126288,94079005,San Diego,36 months,,0.00,,,,,,,,0.00,,,,,,,0.00,DIONISIO GARZA,909-210-0840,9/12/2018 12:00:00 AM,,,CA,1,9.50
109144,9/8/2018 10:02:22 AM,L.A. COUNTY FAIR 8/31-9/23/18 POMONA (CA),L.A. COUNTY FAIR 8/31-9/23/18 POMONA (CA),David Wang,DWA-9060USJ-9060BL,Relax2Zero 3D,New Black,1,"5 years parts, 1 year labor (Free)",CUSTOM COD,0.00,4000.00,4000.00,CreditCard,500.00,1kSq,,,,,,COD,3500.00,,,,,,,,0.00,,,,,,,0.00,Thomas Drydon,213-880-6636,,,,CA,1,9.50
109168,9/8/2018 10:00:09 PM,L.A. COUNTY FAIR 8/31-9/23/18 POMONA (CA),L.A. COUNTY FAIR 8/31-9/23/18 POMONA (CA),Joseph Chan,DWA-9150USJ-9150CH,Legacy 3D,New Choco,1,"3 years parts, 1 year labor (Free)",CUSTOM ,0.00,4500.00,4500.00,Synchrony,4500.00,,,6019170813130173,94175596,Las Vegas,36 months,,0.00,,,,,,,,0.00,,,,,,,0.00,Alexander Montes,909-229-4654,9/19/2018 12:00:00 AM,,,CA,1,9.50
109171,9/8/2018 10:09:09 PM,L.A. COUNTY FAIR 8/31-9/23/18 POMONA (CA),L.A. COUNTY FAIR 8/31-9/23/18 POMONA (CA),Joseph Chan,DWA-9150USJ-9150BL,Legacy 3D,New Black,1,"3 years parts, 1 year labor (Free)",CUSTOM ,0.00,4800.00,4800.00,Synchrony,3000.00,,,6019170813131496,94191783,Las Vegas,36 months,,0.00,,,,,,,,0.00,,,,,,,0.00,Jesse Olivas,562-505-1606,,,"Due to technical issue from the bank, they can not increase customer’s credit line before he actually received the package, package should arrived in 10-14 days, please hold for the time being",CA,1,9.50
109182,9/9/2018 7:31:13 AM,L.A. COUNTY FAIR 8/31-9/23/18 POMONA (CA),L.A. COUNTY FAIR 8/31-9/23/18 POMONA (CA),Hiroko Hudson,DWA-9150USJ-9150CH,Legacy 3D,New Choco,1,"5 years parts, 1 year labor (Free)",CUSTOM ,0.00,3500.00,3500.00,CreditCard,3500.00,Receipt #q9LK,,,,,,,0.00,,,,,,,,0.00,,,,,,,0.00,Ramby Wong,6266166712,,,,CA,1,9.50
109183,9/9/2018 8:13:55 AM,L.A. COUNTY FAIR 8/31-9/23/18 POMONA (CA),L.A. COUNTY FAIR 8/31-9/23/18 POMONA (CA),Jessica Phung,DWA-9100DWA-9100BL,Legacy,New Black,1,"5 years parts, 1 year labor (Free)",CUSTOM ,0.00,3960.00,3960.00,Synchrony,3960.00,,,6019170813131528,94192409,Las Vegas,36 months,,0.00,,,,,,,,0.00,,,,,,,0.00,Jose Sandin,909-461-7250,,,,CA,1,9.50
109184,9/9/2018 10:31:51 AM,L.A. COUNTY FAIR 8/31-9/23/18 POMONA (CA),L.A. COUNTY FAIR 8/31-9/23/18 POMONA (CA),Paul Wnag,DWA-9150USJ-9150BL,Legacy 3D,New Black,1,"5 years parts, 1 year labor (Free)",CUSTOM ,0.00,4500.00,4500.00,Synchrony,4500.00,,,6019170813131338,94189349,Las Vegas,24 months,,0.00,,,,,,,,0.00,,,,,,,0.00,Summer Mendes,6268230120,9/17/2018 12:00:00 AM,,,CA,1,9.50
109185,9/9/2018 10:41:19 AM,L.A. COUNTY FAIR 8/31-9/23/18 POMONA (CA),L.A. COUNTY FAIR 8/31-9/23/18 POMONA (CA),May Kam,SOL-1SOL-1-CH-DEMO,Solace,Demo Choco,1,"5 years parts, 1 year labor (Free)",CUSTOM ,0.00,3230.00,3230.00,Synchrony,3230.00,,,6019170813131916,94200245,Las Vegas,36 months,,0.00,,,,,,,,0.00,,,,,,,0.00,Elsa Arellano,951-250-5336,9/19/2018 12:00:00 AM,,,CA,1,9.50
109186,9/9/2018 10:42:45 AM,L.A. COUNTY FAIR 8/31-9/23/18 POMONA (CA),L.A. COUNTY FAIR 8/31-9/23/18 POMONA (CA),Paul Wnag,SOL-1SOL-1-CH-DEMO,Solace,Demo Choco,1,"5 years parts, 1 year labor (Free)",CUSTOM ,0.00,3200.00,3200.00,Synchrony,3200.00,,,6019170813131502,94191686,Las Vegas,36 months,,0.00,,,,,,,,0.00,,,,,,,0.00,Rochelle Caldwell,9094387704,9/19/2018 12:00:00 AM,,,CA,1,9.50
109187,9/9/2018 11:14:29 AM,L.A. COUNTY FAIR 8/31-9/23/18 POMONA (CA),L.A. COUNTY FAIR 8/31-9/23/18 POMONA (CA),Christoper Williams,DWA-9060USJ-9060BL,Relax2Zero 3D,New Black,1,"5 years parts, 1 year labor (Free)",CUSTOM ,0.00,4200.00,4200.00,Synchrony,4200.00,,,6019170813131957,94200942,San Diego,36 months,,0.00,,,,,,,,0.00,,,,,,,0.00,john Herman,7144030653,,,,CA,1,9.50
109192,9/9/2018 11:44:36 AM,L.A. COUNTY FAIR 8/31-9/23/18 POMONA (CA),L.A. COUNTY FAIR 8/31-9/23/18 POMONA (CA),Christoper Williams,DWA-9060USJ-9060BL,Relax2Zero 3D,New Black,1,"5 years parts, 1 year labor (Free)",CUSTOM COD,0.00,4000.00,4000.00,CreditCard,100.00,OsM5,,,,,,COD,3900.00,,,,,,,,0.00,,,,,,,0.00,Gina Passan,6263885534,,,customer pay 100 deposit please see cod 3900,CA,1,9.50
109204,9/9/2018 8:03:22 PM,L.A. COUNTY FAIR 8/31-9/23/18 POMONA (CA),L.A. COUNTY FAIR 8/31-9/23/18 POMONA (CA),Joseph Chan,DWA-9100DWA-9100BL,Legacy,New Black,1,"3 years parts, 1 year labor (Free)",CUSTOM ,0.00,4000.00,4000.00,CreditCard,4000.00,#X02w,,,,,,,0.00,,,,,,,,0.00,,,,,,,0.00,Danny Lew,702-547-6979,9/17/2018 12:00:00 AM,,,NV,1,9.50
109206,9/9/2018 8:08:34 PM,L.A. COUNTY FAIR 8/31-9/23/18 POMONA (CA),L.A. COUNTY FAIR 8/31-9/23/18 POMONA (CA),Joseph Chan,DWA-9100DWA-9100BL,Legacy,New Black,1,"3 years parts, 1 year labor (Free)",CUSTOM ,0.00,4000.00,4000.00,Synchrony,4000.00,,,6019170813133391,94223077,Las Vegas,36 months,,0.00,,,,,,,,0.00,,,,,,,0.00,Armiclaudine Ramirez,310-989-7343,9/20/2018 12:00:00 AM,,,CA,1,9.50
109208,9/9/2018 8:17:31 PM,L.A. COUNTY FAIR 8/31-9/23/18 POMONA (CA),L.A. COUNTY FAIR 8/31-9/23/18 POMONA (CA),May Kam,SOL-1SOL-1-BL-DEMO,Solace,Demo Black,1,"5 years parts, 1 year labor (Free)",CUSTOM ,0.00,3230.00,3230.00,Synchrony,3230.00,,,6019170813125199,94035064,Las Vegas,36 months,,0.00,,,,,,,,0.00,,,,,,,0.00,Carrie Cordero,909-996-2633,9/12/2018 12:00:00 AM,,,Not Dispatched,1,9.50
109211,9/9/2018 8:27:15 PM,L.A. COUNTY FAIR 8/31-9/23/18 POMONA (CA),L.A. COUNTY FAIR 8/31-9/23/18 POMONA (CA),Jessica Phung,DWA-9100DWA-9100BU,Legacy,New Choco,1,"5 years parts, 1 year labor (Free)",CUSTOM ,0.00,4200.00,4200.00,Synchrony,4200.00,,,6019170813133201,94219971,Las Vegas,36 months,,0.00,,,,,,,,0.00,,,,,,,0.00,Danny Williams,951-243-0462,9/19/2018 12:00:00 AM,,Please add 2 fabric back pads and I remote holder with the delivery,CA,1,9.50
109215,9/9/2018 8:36:08 PM,L.A. COUNTY FAIR 8/31-9/23/18 POMONA (CA),L.A. COUNTY FAIR 8/31-9/23/18 POMONA (CA),May Kam,DWA-9150USJ-9150CH-DEMO,Legacy 3D,Demo Choco,1,"5 years parts, 1 year labor (Free)",CUSTOM CreditCard,0.00,3500.00,3500.00,CreditCard,200.00,#vARy,,,,,,CreditCard,3300.00,#LXeZ,,,,,,,0.00,,,,,,,0.00,Art Luczon,562-760-8378,9/21/2018 12:00:00 AM,,Please add 1 Tourmaline Pad with the delivery,CA,1,9.50
109217,9/9/2018 8:41:11 PM,L.A. COUNTY FAIR 8/31-9/23/18 POMONA (CA),L.A. COUNTY FAIR 8/31-9/23/18 POMONA (CA),May Kam,DWA-9150USJ-9150BL,Legacy 3D,New Black,1,"5 years parts, 1 year labor (Free)",CUSTOM ,0.00,4000.00,4000.00,Synchrony,1500.00,,,6019170813133433,94223931,Las Vegas,24 months,,0.00,,,,,,,,0.00,,,,,,,0.00,Kimberly Phillips,909-856-9904,,,Please add 1 Tourmaline pad with the delivery,Not Dispatched,1,9.50
109219,9/9/2018 8:46:04 PM,L.A. COUNTY FAIR 8/31-9/23/18 POMONA (CA),L.A. COUNTY FAIR 8/31-9/23/18 POMONA (CA),Hiroko Hudson,DWA-9150USJ-9150CH,Legacy 3D,New Choco,1,"5 years parts, 1 year labor (Free)",CUSTOM ,0.00,4200.00,4200.00,CreditCard,4200.00,w1Er,,,,,,,0.00,,,,,,,,0.00,,,,,,,0.00,Jose Montellano,9098024572,9/21/2018 12:00:00 AM,,,CA,1,9.50
109249,9/10/2018 3:39:36 PM,L.A. COUNTY FAIR 8/31-9/23/18 POMONA (CA),L.A. COUNTY FAIR 8/31-9/23/18 POMONA (CA),Jessica Phung,DWA-9100DWA-9100BL,Legacy,New Black,1,"5 years parts, 1 year labor (Free)",CUSTOM ,0.00,3500.00,3500.00,CreditCard,3500.00,zZgh,,,,,,,0.00,,,,,,,,0.00,,,,,,,0.00,Wenseslado Iniguez,310-270-7977,,,,CA,1,9.50
109249,9/10/2018 3:39:36 PM,L.A. COUNTY FAIR 8/31-9/23/18 POMONA (CA),L.A. COUNTY FAIR 8/31-9/23/18 POMONA (CA),Jessica Phung,,Tourmaline Pad for Legacy,,1,no warranty,CUSTOM ,0.00,3500.00,3500.00,CreditCard,3500.00,zZgh,,,,,,,0.00,,,,,,,,0.00,,,,,,,0.00,Wenseslado Iniguez,310-270-7977,,,,CA,1,9.50
109250,9/10/2018 3:49:12 PM,L.A. COUNTY FAIR 8/31-9/23/18 POMONA (CA),L.A. COUNTY FAIR 8/31-9/23/18 POMONA (CA),Jessica Phung,DWA-9100DWA-9100BU,Legacy,New Choco,1,"5 years parts, 1 year labor (Free)",CUSTOM ,0.00,4200.00,4200.00,Synchrony,4200.00,,,6019170813133201,94219971,Las Vegas,36 months,,0.00,,,,,,,,0.00,,,,,,,0.00,Danny Williams,951-243-0462,,,,Not Dispatched,1,9.50
109250,9/10/2018 3:49:12 PM,L.A. COUNTY FAIR 8/31-9/23/18 POMONA (CA),L.A. COUNTY FAIR 8/31-9/23/18 POMONA (CA),Jessica Phung,,Chair Pad for Legacy,,1,no warranty,CUSTOM ,0.00,4200.00,4200.00,Synchrony,4200.00,,,6019170813133201,94219971,Las Vegas,36 months,,0.00,,,,,,,,0.00,,,,,,,0.00,Danny Williams,951-243-0462,,,,Not Dispatched,1,9.50
109307,9/12/2018 4:42:19 PM,L.A. COUNTY FAIR 8/31-9/23/18 POMONA (CA),L.A. COUNTY FAIR 8/31-9/23/18 POMONA (CA),David Wang,DWA-9060USJ-9060BL,Relax2Zero 3D,New Black,1,"5 years parts, 1 year labor (Free)",CUSTOM ,0.00,4140.00,4140.00,Synchrony,4140.00,,,6019170813137269,94351366,San Diego,36 months,,0.00,,,,,,,,0.00,,,,,,,0.00,Jing Dong,6268613274,9/21/2018 12:00:00 AM,,,CA,1,9.50
109307,9/12/2018 4:42:19 PM,L.A. COUNTY FAIR 8/31-9/23/18 POMONA (CA),L.A. COUNTY FAIR 8/31-9/23/18 POMONA (CA),David Wang,,Daiwa Blanket,,1,no warranty,CUSTOM ,0.00,4140.00,4140.00,Synchrony,4140.00,,,6019170813137269,94351366,San Diego,36 months,,0.00,,,,,,,,0.00,,,,,,,0.00,Jing Dong,6268613274,9/21/2018 12:00:00 AM,,,CA,1,9.50
109309,9/12/2018 7:41:47 PM,L.A. COUNTY FAIR 8/31-9/23/18 POMONA (CA),L.A. COUNTY FAIR 8/31-9/23/18 POMONA (CA),Hiroko Hudson,DWA-9400Pegasus-BL,Pegasus,New Black,1,"5 years parts, 1 year labor (Free)",CUSTOM ,0.00,4900.00,4900.00,Synchrony,4900.00,,,6019170813137236,94350890,Las Vegas,36 months,,0.00,Receipt #Bdv5,,,,,,,0.00,,,,,,,0.00,James Ungashick,9094816859,9/20/2018 12:00:00 AM,,,CA,1,9.50
109310,9/12/2018 8:08:04 PM,L.A. COUNTY FAIR 8/31-9/23/18 POMONA (CA),L.A. COUNTY FAIR 8/31-9/23/18 POMONA (CA),Hiroko Hudson,DWA-9400Pegasus-BL,Pegasus,New Black,1,"5 years parts, 1 year labor (Free)",CUSTOM ,0.00,4900.00,4900.00,Synchrony,4900.00,,,6019170813137244,94351138,Las Vegas,36 months,,0.00,,,,,,,,0.00,,,,,,,0.00,Linda Gutierrez,9098639021,9/20/2018 12:00:00 AM,,,CA,1,9.50
109330,9/13/2018 11:53:54 AM,L.A. COUNTY FAIR 8/31-9/23/18 POMONA (CA),L.A. COUNTY FAIR 8/31-9/23/18 POMONA (CA),May Kam,SOL-1SOL-1-BL-DEMO,Solace,Demo Black,1,"5 years parts, 1 year labor (Free)",CUSTOM ,0.00,2579.82,2579.82,CreditCard,2579.82,Receipt #ZSCd,,,,,,,0.00,,,,,,,,0.00,,,,,,,0.00,Tenis Taing,760-780-6309,,,,CA,1,9.50
109330,9/13/2018 11:53:54 AM,L.A. COUNTY FAIR 8/31-9/23/18 POMONA (CA),L.A. COUNTY FAIR 8/31-9/23/18 POMONA (CA),May Kam,,Tourmaline Pad for Solace,,1,no warranty,CUSTOM ,0.00,2579.82,2579.82,CreditCard,2579.82,Receipt #ZSCd,,,,,,,0.00,,,,,,,,0.00,,,,,,,0.00,Tenis Taing,760-780-6309,,,,CA,1,9.50
109334,9/13/2018 12:30:45 PM,L.A. COUNTY FAIR 8/31-9/23/18 POMONA (CA),L.A. COUNTY FAIR 8/31-9/23/18 POMONA (CA),May Kam,SOL-1SOL-1-CH-DEMO,Solace,Demo Choco,1,"5 years parts, 1 year labor (Free)",CUSTOM COD,0.00,2580.00,2580.00,Cash,100.00,,,,,,,COD,2480.00,,,,,,,,0.00,,,,,,,0.00,Baian Thomas,562-572-3715,,,"COD$2,480",CA,1,9.50
109334,9/13/2018 12:30:45 PM,L.A. COUNTY FAIR 8/31-9/23/18 POMONA (CA),L.A. COUNTY FAIR 8/31-9/23/18 POMONA (CA),May Kam,,Tourmaline Pad for Solace,,1,no warranty,CUSTOM COD,0.00,2580.00,2580.00,Cash,100.00,,,,,,,COD,2480.00,,,,,,,,0.00,,,,,,,0.00,Baian Thomas,562-572-3715,,,"COD$2,480",CA,1,9.50
109337,9/13/2018 12:42:40 PM,L.A. COUNTY FAIR 8/31-9/23/18 POMONA (CA),L.A. COUNTY FAIR 8/31-9/23/18 POMONA (CA),May Kam,DWA-9150USJ-9150BL,Legacy 3D,New Black,1,"5 years parts, 1 year labor (Free)",CUSTOM COD,0.00,4215.00,4215.00,CreditCard,100.00,Receipt #WxnT,,,,,,COD,4115.00,,,,,,,,0.00,,,,,,,0.00,Leon Smith,323-365-0514,,,,CA,1,9.50
109337,9/13/2018 12:42:40 PM,L.A. COUNTY FAIR 8/31-9/23/18 POMONA (CA),L.A. COUNTY FAIR 8/31-9/23/18 POMONA (CA),May Kam,,Tourmaline Pad for Legacy 3D,,1,no warranty,CUSTOM COD,0.00,4215.00,4215.00,CreditCard,100.00,Receipt #WxnT,,,,,,COD,4115.00,,,,,,,,0.00,,,,,,,0.00,Leon Smith,323-365-0514,,,,CA,1,9.50
109351,9/14/2018 11:52:51 AM,L.A. COUNTY FAIR 8/31-9/23/18 POMONA (CA),L.A. COUNTY FAIR 8/31-9/23/18 POMONA (CA),Hiroko Hudson,DWA-9400Pegasus-BL,Pegasus,New Black,1,"5 years parts, 1 year labor (Free)",CUSTOM ,0.00,4280.00,4280.00,CreditCard,4280.00,Receipt #Pp0F,,,,,,,0.00,,,,,,,,0.00,,,,,,,0.00,Sean McEluy,9092976954,9/21/2018 12:00:00 AM,,,CA,1,9.50
109352,9/14/2018 12:03:05 PM,L.A. COUNTY FAIR 8/31-9/23/18 POMONA (CA),L.A. COUNTY FAIR 8/31-9/23/18 POMONA (CA),Hiroko Hudson,DWA-9400Pegasus-BL,Pegasus,New Black,1,"5 years parts, 1 year labor (Free)",CUSTOM ,0.00,4280.00,4280.00,CreditCard,4280.00,Receipt #yb6F,,,,,,,0.00,,,,,,,,0.00,,,,,,,0.00,David Scott,9094779471,9/21/2018 12:00:00 AM,,,CA,1,9.50
109365,9/14/2018 10:10:18 PM,L.A. COUNTY FAIR 8/31-9/23/18 POMONA (CA),L.A. COUNTY FAIR 8/31-9/23/18 POMONA (CA),May Kam,DWA-9400Pegasus-BR,Pegasus,New Choco,1,"5 years parts, 1 year labor (Free)",CUSTOM ,0.00,5800.00,5800.00,Synchrony,5800.00,,,6019170813140073,94433147,Las Vegas,48 months,,0.00,,,,,,,,0.00,,,,,,,0.00,Mr Manning Wheaton,3106726345,,,Another phone is 3109418231,CA,1,9.50
109379,9/15/2018 10:54:58 AM,L.A. COUNTY FAIR 8/31-9/23/18 POMONA (CA),L.A. COUNTY FAIR 8/31-9/23/18 POMONA (CA),Joseph Chan,DWA-9150USJ-9150BL,Legacy 3D,New Black,1,"3 years parts, 1 year labor (Free)",CUSTOM ,0.00,4200.00,4200.00,Synchrony,4200.00,,,6109170813130453,94439852,Las Vegas,48 months,,0.00,,,,,,,,0.00,,,,,,,0.00,Ethan Helenini,951-795-3548,,,,CA,1,9.50
109383,9/15/2018 1:48:58 PM,L.A. COUNTY FAIR 8/31-9/23/18 POMONA (CA),L.A. COUNTY FAIR 8/31-9/23/18 POMONA (CA),Christoper Williams,DWA-9060USJ-9060BR,Relax2Zero 3D,New Choco,1,"5 years parts, 1 year labor (Free)",CUSTOM ,0.00,3500.00,3500.00,Synchrony,3500.00,,,6019170813141808,94465070,San Diego,24 months,,0.00,,,,,,,,0.00,,,,,,,0.00,Coffi Hogbonouot,3233098444,,,,CA,1,9.50
109427,9/16/2018 6:30:02 AM,L.A. COUNTY FAIR 8/31-9/23/18 POMONA (CA),L.A. COUNTY FAIR 8/31-9/23/18 POMONA (CA),Jessica Phung,DWA-9150USJ-9150CH,Legacy 3D,New Choco,1,"5 years parts, 1 year labor (Free)",CUSTOM ,0.00,4248.00,4248.00,Synchrony,4248.00,,,6019170813141949,94467701,Las Vegas,36 months,,0.00,,,,,,,,0.00,,,,,,,0.00,Donald Miller,661-944-4782,,,,CA,1,9.50
109428,9/16/2018 6:35:49 AM,L.A. COUNTY FAIR 8/31-9/23/18 POMONA (CA),L.A. COUNTY FAIR 8/31-9/23/18 POMONA (CA),Jessica Phung,DWA-9400Pegasus-BR,Pegasus,New Choco,1,"5 years parts, 1 year labor (Free)",CUSTOM Synchrony,0.00,5760.00,5760.00,CreditCard,800.00,AJC3,,,,,,Synchrony,4960.00,,,6019170813142988,94481860,Las Vegas,36 months,,0.00,,,,,,,0.00,William Toney,909-441-7469,,,,CA,1,9.50
109433,9/16/2018 7:22:19 AM,L.A. COUNTY FAIR 8/31-9/23/18 POMONA (CA),L.A. COUNTY FAIR 8/31-9/23/18 POMONA (CA),May Kam,SOL-1SOL-1-BL,Solace,New Black,1,"5 years parts, 1 year labor (Free)",CUSTOM COD,0.00,3300.00,3300.00,CreditCard,50.00,#6N9X,,,,,,COD,1950.00,,,,,,,CreditCard,1300.00,Payment plan,,,,,,0.00,Ms Annette Olivarez,6266653026,,,"Hold a price a few month, will call us, thanks",Not Dispatched,1,9.50
109433,9/16/2018 7:22:19 AM,L.A. COUNTY FAIR 8/31-9/23/18 POMONA (CA),L.A. COUNTY FAIR 8/31-9/23/18 POMONA (CA),May Kam,,Tourmaline Pad for Solace,,1,no warranty,CUSTOM COD,0.00,3300.00,3300.00,CreditCard,50.00,#6N9X,,,,,,COD,1950.00,,,,,,,CreditCard,1300.00,Payment plan,,,,,,0.00,Ms Annette Olivarez,6266653026,,,"Hold a price a few month, will call us, thanks",Not Dispatched,1,9.50
109441,9/16/2018 10:02:15 AM,L.A. COUNTY FAIR 8/31-9/23/18 POMONA (CA),L.A. COUNTY FAIR 8/31-9/23/18 POMONA (CA),Joseph Chan,DWA-9150USJ-9150BL,Legacy 3D,New Black,1,"3 years parts, 1 year labor (Free)",CUSTOM ,0.00,4800.00,4800.00,Synchrony,4800.00,,,6019170813143028,94482279,Las Vegas,36 months,,0.00,,,,,,,,0.00,,,,,,,0.00,Michael Jeffries,951-677-4737,,,,CA,1,9.50
109444,9/16/2018 10:11:02 AM,L.A. COUNTY FAIR 8/31-9/23/18 POMONA (CA),L.A. COUNTY FAIR 8/31-9/23/18 POMONA (CA),Hiroko Hudson,DWA-9400Pegasus-BR,Pegasus,New Choco,1,"5 years parts, 1 year labor (Free)",CUSTOM ,0.00,5200.00,5200.00,Synchrony,5200.00,,,6019170813143010,94482204,Las Vegas,36 months,,0.00,,,,,,,,0.00,,,,,,,0.00,Kathleen Nava,9515203729,,,,CA,1,9.50
109447,9/16/2018 11:05:30 AM,L.A. COUNTY FAIR 8/31-9/23/18 POMONA (CA),L.A. COUNTY FAIR 8/31-9/23/18 POMONA (CA),May Kam,SOL-1SOL-1-BL,Solace,New Black,1,"5 years parts, 1 year labor (Free)",CUSTOM ,0.00,3000.00,3000.00,Check,3000.00,,,,,,,,0.00,,,,,,,,0.00,,,,,,,0.00,Mr & Mrs Sandra Mudry,9515755556,,,"Special discount for one time payment, manager approval , another phone 9519265656; check no # 469",CA,1,9.50
109447,9/16/2018 11:05:30 AM,L.A. COUNTY FAIR 8/31-9/23/18 POMONA (CA),L.A. COUNTY FAIR 8/31-9/23/18 POMONA (CA),May Kam,,Tourmaline Pad for Solace,,1,no warranty,CUSTOM ,0.00,3000.00,3000.00,Check,3000.00,,,,,,,,0.00,,,,,,,,0.00,,,,,,,0.00,Mr & Mrs Sandra Mudry,9515755556,,,"Special discount for one time payment, manager approval , another phone 9519265656; check no # 469",CA,1,9.50
109448,9/16/2018 11:07:04 AM,L.A. COUNTY FAIR 8/31-9/23/18 POMONA (CA),L.A. COUNTY FAIR 8/31-9/23/18 POMONA (CA),Li Chen,DWA-9060USJ-9060BR-DEMO,Relax2Zero 3D,Demo Choco,1,"5 years parts, 1 year labor (Free)",CUSTOM ,0.00,3600.00,3600.00,Synchrony,3600.00,,,6019170813143341,94490844,San Diego,36 months,,0.00,,,,,,,,0.00,,,,,,,0.00,Bernardo Lagman,6264939399,,,,CA,1,9.50
109449,9/16/2018 11:19:19 AM,L.A. COUNTY FAIR 8/31-9/23/18 POMONA (CA),L.A. COUNTY FAIR 8/31-9/23/18 POMONA (CA),May Kam,SOL-1SOL-1-CH,Solace,New Choco,1,"5 years parts, 1 year labor (Free)",CUSTOM ,0.00,3600.00,3600.00,Synchrony,3600.00,,,6019170813143036,94482436,Las Vegas,36 months,,0.00,,,,,,,,0.00,,,,,,,0.00,Mrs Deanna Noji,8186318571,,,"Pls hold this order about three month, thanks",Not Dispatched,1,9.50
109449,9/16/2018 11:19:19 AM,L.A. COUNTY FAIR 8/31-9/23/18 POMONA (CA),L.A. COUNTY FAIR 8/31-9/23/18 POMONA (CA),May Kam,,Tourmaline Pad for Solace,,1,no warranty,CUSTOM ,0.00,3600.00,3600.00,Synchrony,3600.00,,,6019170813143036,94482436,Las Vegas,36 months,,0.00,,,,,,,,0.00,,,,,,,0.00,Mrs Deanna Noji,8186318571,,,"Pls hold this order about three month, thanks",Not Dispatched,1,9.50
109450,9/16/2018 11:26:58 AM,L.A. COUNTY FAIR 8/31-9/23/18 POMONA (CA),L.A. COUNTY FAIR 8/31-9/23/18 POMONA (CA),Christoper Williams,DWA-9060USJ-9060BL,Relax2Zero 3D,New Black,1,"5 years parts, 1 year labor (Free)",CUSTOM ,0.00,3400.00,3400.00,CreditCard,3400.00,Iski,,,,,,,0.00,,,,,,,,0.00,,,,,,,0.00,Truc phuong thi Tran,6264549341,,,square number starts with an L or an i,CA,1,9.50
109452,9/16/2018 11:53:04 AM,L.A. COUNTY FAIR 8/31-9/23/18 POMONA (CA),L.A. COUNTY FAIR 8/31-9/23/18 POMONA (CA),Li Chen,DWA-9060USJ-9060BR-DEMO,Relax2Zero 3D,Demo Choco,1,"5 years parts, 1 year labor (Free)",CUSTOM ,0.00,3600.00,3600.00,Synchrony,3600.00,,,6019170813142897,94479696,San Diego,36 months,,0.00,,,,,,,,0.00,,,,,,,0.00,Raul Chavez,3233763023,,,,CA,1,9.50
109453,9/16/2018 12:12:40 PM,L.A. COUNTY FAIR 8/31-9/23/18 POMONA (CA),L.A. COUNTY FAIR 8/31-9/23/18 POMONA (CA),Christoper Williams,DWA-9060USJ-9060BR,Relax2Zero 3D,New Choco,1,"5 years parts, 1 year labor (Free)",CUSTOM ,0.00,4000.00,4000.00,CreditCard,4000.00,square Gkc9,,,,,,,0.00,,,,,,,,0.00,,,,,,,0.00,Caleb Moore,9093195690,,,confirm zip code,CA,1,9.50
109454,9/16/2018 12:38:31 PM,L.A. COUNTY FAIR 8/31-9/23/18 POMONA (CA),L.A. COUNTY FAIR 8/31-9/23/18 POMONA (CA),Christoper Williams,USJ-9050USJ-9050BR,Relax2Zero 2.0,New Brown,1,"5 years parts, 1 year labor (Free)",CUSTOM ,0.00,3500.00,3500.00,Synchrony,3500.00,,,6019170813142871,94479255,San Diego,36 months,,0.00,,,,,,,,0.00,,,,,,,0.00,Melissa Goodman,7606694456,,,,CA,1,9.50
109457,9/16/2018 1:53:01 PM,L.A. COUNTY FAIR 8/31-9/23/18 POMONA (CA),L.A. COUNTY FAIR 8/31-9/23/18 POMONA (CA),Li Chen,DWA-9060USJ-9060BL,Relax2Zero 3D,New Black,1,"5 years parts, 1 year labor (Free)",CUSTOM ,0.00,4000.00,4000.00,Synchrony,4000.00,,,6019170813143820,94499550,San Diego,36 months,,0.00,,,,,,,,0.00,,,,,,,0.00,Irma Duran,5628820833,,,,CA,1,9.50
109473,9/16/2018 9:05:36 PM,L.A. COUNTY FAIR 8/31-9/23/18 POMONA (CA),L.A. COUNTY FAIR 8/31-9/23/18 POMONA (CA),Joseph Chan,DWA-9150USJ-9150BL,Legacy 3D,New Black,1,"3 years parts, 1 year labor (Free)",CUSTOM ,0.00,4800.00,4800.00,Synchrony,4800.00,,,6019170813144851,94511802,Las Vegas,36 months,,0.00,,,,,,,,0.00,,,,,,,0.00,Robert Virgen,909-965-8295,,,,CA,1,9.50
109480,9/17/2018 8:14:22 AM,L.A. COUNTY FAIR 8/31-9/23/18 POMONA (CA),L.A. COUNTY FAIR 8/31-9/23/18 POMONA (CA),May Kam,SOL-1SOL-1-BL-DEMO,Solace,Demo Black,1,"5 years parts, 1 year labor (Free)",CUSTOM ,0.00,2580.00,2580.00,CreditCard,2579.82,#ZSCD,,,,,,,0.00,,,,,,,,0.00,,,,,,,0.00,Mr Tenis Taing,5626864290,9/21/2018 12:00:00 AM,,"Paid in full, thanks",CA,1,9.50
109482,9/17/2018 8:31:37 AM,L.A. COUNTY FAIR 8/31-9/23/18 POMONA (CA),L.A. COUNTY FAIR 8/31-9/23/18 POMONA (CA),May Kam,SOL-1SOL-1-CH-DEMO,Solace,Demo Choco,1,"3 years parts, 1 year labor (Free)",CUSTOM CreditCard,0.00,2580.00,2580.00,Cash,100.00,,,,,,,CreditCard,2480.00,housecall pro,,,,,,,0.00,,,,,,,0.00,Mr Brian Thomas,5625723715,9/21/2018 12:00:00 AM,,"COD $2480, Thanks with order No 109480 together",CA,1,9.50
109482,9/17/2018 8:31:37 AM,L.A. COUNTY FAIR 8/31-9/23/18 POMONA (CA),L.A. COUNTY FAIR 8/31-9/23/18 POMONA (CA),May Kam,,Tourmaline Pad for Solace,,1,no warranty,CUSTOM CreditCard,0.00,2580.00,2580.00,Cash,100.00,,,,,,,CreditCard,2480.00,housecall pro,,,,,,,0.00,,,,,,,0.00,Mr Brian Thomas,5625723715,9/21/2018 12:00:00 AM,,"COD $2480, Thanks with order No 109480 together",CA,1,9.50
109485,9/17/2018 8:42:11 AM,L.A. COUNTY FAIR 8/31-9/23/18 POMONA (CA),L.A. COUNTY FAIR 8/31-9/23/18 POMONA (CA),May Kam,DWA-9150USJ-9150BL,Legacy 3D,New Black,1,"5 years parts, 1 year labor (Free)",CUSTOM COD,0.00,4215.00,4215.00,CreditCard,100.00,#WXnt,,,,,,COD,4115.00,,,,,,,,0.00,,,,,,,0.00,Mr Leon Smith,3233650514,,,"Pls hold this old about 6 month for new place, thanks",CA,1,9.50
109485,9/17/2018 8:42:11 AM,L.A. COUNTY FAIR 8/31-9/23/18 POMONA (CA),L.A. COUNTY FAIR 8/31-9/23/18 POMONA (CA),May Kam,,Tourmaline Pad for Legacy 3D,,1,no warranty,CUSTOM COD,0.00,4215.00,4215.00,CreditCard,100.00,#WXnt,,,,,,COD,4115.00,,,,,,,,0.00,,,,,,,0.00,Mr Leon Smith,3233650514,,,"Pls hold this old about 6 month for new place, thanks",CA,1,9.50
109494,9/17/2018 10:24:21 AM,L.A. COUNTY FAIR 8/31-9/23/18 POMONA (CA),L.A. COUNTY FAIR 8/31-9/23/18 POMONA (CA),Jessica Phung,SOL-1SOL-1-BL,Solace,New Black,1,"5 years parts, 1 year labor (Free)",CUSTOM ,0.00,3000.00,3000.00,Synchrony,3000.00,,,6019170813144059,94501071,Las Vegas,36 months,,0.00,,,,,,,,0.00,,,,,,,0.00,Angi Thomas Enriquez,562-900-3634,,,,CA,1,9.50
109494,9/17/2018 10:24:21 AM,L.A. COUNTY FAIR 8/31-9/23/18 POMONA (CA),L.A. COUNTY FAIR 8/31-9/23/18 POMONA (CA),Jessica Phung,,Chair Pad for Solace,,1,no warranty,CUSTOM ,0.00,3000.00,3000.00,Synchrony,3000.00,,,6019170813144059,94501071,Las Vegas,36 months,,0.00,,,,,,,,0.00,,,,,,,0.00,Angi Thomas Enriquez,562-900-3634,,,,CA,1,9.50
109519,9/17/2018 1:25:59 PM,L.A. COUNTY FAIR 8/31-9/23/18 POMONA (CA),L.A. COUNTY FAIR 8/31-9/23/18 POMONA (CA),Li Chen,DWA-9060USJ-9060BR,Relax2Zero 3D,New Choco,1,"5 years parts, 1 year labor (Free)",CUSTOM ,0.00,3900.00,3900.00,CreditCard,3900.00,Square #MnYo,,,,,,,0.00,,,,,,,,0.00,,,,,,,0.00,Lydia Ramos,909-634-0844,,,,CA,1,9.50
109568,9/19/2018 12:32:20 PM,L.A. COUNTY FAIR 8/31-9/23/18 POMONA (CA),L.A. COUNTY FAIR 8/31-9/23/18 POMONA (CA),Hiroko Hudson,DWA-9100DWA-9100BU,Legacy,New Choco,1,5 years parts (International),CUSTOM Synchrony,0.00,3500.00,3500.00,CreditCard,50.00,Receipt #pKZ2,,,,,,Synchrony,0.00,Financing,,6019170813144869,94512152,Las Vegas,,,0.00,,,,,,,0.00,Jose Antonio Romero,3236168724,,,"Please hold by Oct. 26, 2018.
He pay$1.500 by credit card by 10/26/2018.
The remaining balance will  be followed up by Hiroko.",CA,1,9.50
109576,9/19/2018 11:48:33 PM,L.A. COUNTY FAIR 8/31-9/23/18 POMONA (CA),L.A. COUNTY FAIR 8/31-9/23/18 POMONA (CA),May Kam,DWA-9100DWA-9100BL,Legacy,New Black,1,"5 years parts, 1 year labor (Free)",CUSTOM ,0.00,3723.00,3723.00,Synchrony,3723.00,,,6019170813149132,94641906,Las Vegas,36 months,,0.00,,,,,,,,0.00,,,,,,,0.00,Mr & Mrs Jose Dominguez,5624476632,,,"Pls make finance $3723 purchase, thanks",CA,1,9.50
109576,9/19/2018 11:48:33 PM,L.A. COUNTY FAIR 8/31-9/23/18 POMONA (CA),L.A. COUNTY FAIR 8/31-9/23/18 POMONA (CA),May Kam,,Tourmaline Pad for Legacy,,1,no warranty,CUSTOM ,0.00,3723.00,3723.00,Synchrony,3723.00,,,6019170813149132,94641906,Las Vegas,36 months,,0.00,,,,,,,,0.00,,,,,,,0.00,Mr & Mrs Jose Dominguez,5624476632,,,"Pls make finance $3723 purchase, thanks",CA,1,9.50
109577,9/19/2018 11:59:07 PM,L.A. COUNTY FAIR 8/31-9/23/18 POMONA (CA),L.A. COUNTY FAIR 8/31-9/23/18 POMONA (CA),May Kam,DWA-9100DWA-9100BL,Legacy,New Black,1,"5 years parts, 1 year labor (Free)",CUSTOM COD,0.00,3500.00,3500.00,Cash,100.00,,,,,,,COD,3400.00,,,,,,,,0.00,,,,,,,0.00,Mr & Mrs Harris Rebecca Darrell,3233768445,,,"Pls hold this order for a few month , the customer will call us for delivery .Thanks",CA,1,9.50
109583,9/20/2018 12:03:11 PM,L.A. COUNTY FAIR 8/31-9/23/18 POMONA (CA),L.A. COUNTY FAIR 8/31-9/23/18 POMONA (CA),David Wang,DWA-9100DWA-9100BU,Legacy,New Choco,1,"5 years parts, 1 year labor (Free)",CUSTOM ,314.93,4380.00,4380.00,Synchrony,4380.00,,,6019170813149231,94645426,Las Vegas,48 months,,0.00,,,,,,,,0.00,,,,,,,0.00,Enrique Guzman,201-486-1462,,,,TX,0,9.50
109616,9/21/2018 7:09:07 AM,L.A. COUNTY FAIR 8/31-9/23/18 POMONA (CA),L.A. COUNTY FAIR 8/31-9/23/18 POMONA (CA),May Kam,DWA-9150USJ-9150BL-DEMO,Legacy 3D,Demo Black,1,"5 years parts, 1 year labor (Free)",CUSTOM COD,0.00,3550.00,3550.00,CreditCard,200.00,OUY8,,,,,,COD,3350.00,,,,,,,,0.00,,,,,,,0.00,Mr & Mrs Joanne Lilley,3107802586,,,"COD $3350, when we deliver chair, thanks; Special discount manager approval",CA,1,9.50
109616,9/21/2018 7:09:07 AM,L.A. COUNTY FAIR 8/31-9/23/18 POMONA (CA),L.A. COUNTY FAIR 8/31-9/23/18 POMONA (CA),May Kam,,Tourmaline Pad for Legacy 3D,,1,no warranty,CUSTOM COD,0.00,3550.00,3550.00,CreditCard,200.00,OUY8,,,,,,COD,3350.00,,,,,,,,0.00,,,,,,,0.00,Mr & Mrs Joanne Lilley,3107802586,,,"COD $3350, when we deliver chair, thanks; Special discount manager approval",CA,1,9.50
109617,9/21/2018 7:36:08 AM,L.A. COUNTY FAIR 8/31-9/23/18 POMONA (CA),L.A. COUNTY FAIR 8/31-9/23/18 POMONA (CA),May Kam,SOL-1SOL-1-BL,Solace,New Black,1,"5 years parts, 1 year labor (Free)",CUSTOM COD,0.00,3900.00,3900.00,CreditCard,100.00,#CvWK,,,,,,COD,3800.00,,,,,,,,0.00,,,,,,,0.00,Mr Frederich chung Lue,6263847979,,,"Hold a few month, since house modelling",CA,1,9.50
109617,9/21/2018 7:36:08 AM,L.A. COUNTY FAIR 8/31-9/23/18 POMONA (CA),L.A. COUNTY FAIR 8/31-9/23/18 POMONA (CA),May Kam,,Tourmaline Pad for Solace,,1,no warranty,CUSTOM COD,0.00,3900.00,3900.00,CreditCard,100.00,#CvWK,,,,,,COD,3800.00,,,,,,,,0.00,,,,,,,0.00,Mr Frederich chung Lue,6263847979,,,"Hold a few month, since house modelling",CA,1,9.50
109618,9/21/2018 7:48:33 AM,L.A. COUNTY FAIR 8/31-9/23/18 POMONA (CA),L.A. COUNTY FAIR 8/31-9/23/18 POMONA (CA),May Kam,DWA-9150USJ-9150CH,Legacy 3D,New Choco,1,"5 years parts, 1 year labor (Free)",CUSTOM COD,0.00,4000.00,4000.00,Cash,200.00,,,,,,,COD,3800.00,,,,,,,,0.00,,,,,,,0.00,Mr & Mrs Lisa Haskins,9517604126,,,"COD $3800, thanks",CA,1,9.50
109618,9/21/2018 7:48:33 AM,L.A. COUNTY FAIR 8/31-9/23/18 POMONA (CA),L.A. COUNTY FAIR 8/31-9/23/18 POMONA (CA),May Kam,,Tourmaline Pad for Legacy 3D,,1,no warranty,CUSTOM COD,0.00,4000.00,4000.00,Cash,200.00,,,,,,,COD,3800.00,,,,,,,,0.00,,,,,,,0.00,Mr & Mrs Lisa Haskins,9517604126,,,"COD $3800, thanks",CA,1,9.50
109619,9/21/2018 8:05:26 AM,L.A. COUNTY FAIR 8/31-9/23/18 POMONA (CA),L.A. COUNTY FAIR 8/31-9/23/18 POMONA (CA),May Kam,DWA-9150USJ-9150BL,Legacy 3D,New Black,1,"5 years parts, 1 year labor (Free)",CUSTOM COD,0.00,4200.00,4200.00,CreditCard,200.00,Receipt #BeT0,,,,,,COD,4000.00,,,,,,,,0.00,,,,,,,0.00,Mrs Karen Conrad,7142716592,,,"COD $4000, thanks
Special discount , manager approval",CA,1,9.50
109619,9/21/2018 8:05:26 AM,L.A. COUNTY FAIR 8/31-9/23/18 POMONA (CA),L.A. COUNTY FAIR 8/31-9/23/18 POMONA (CA),May Kam,,Tourmaline Pad for Legacy 3D,,1,no warranty,CUSTOM COD,0.00,4200.00,4200.00,CreditCard,200.00,Receipt #BeT0,,,,,,COD,4000.00,,,,,,,,0.00,,,,,,,0.00,Mrs Karen Conrad,7142716592,,,"COD $4000, thanks
Special discount , manager approval",CA,1,9.50
109622,9/21/2018 11:54:01 AM,L.A. COUNTY FAIR 8/31-9/23/18 POMONA (CA),L.A. COUNTY FAIR 8/31-9/23/18 POMONA (CA),Joseph Chan,DWA-9150USJ-9150CH,Legacy 3D,New Choco,1,"3 years parts, 1 year labor (Free)",CUSTOM Check,0.00,4200.00,4200.00,CreditCard,100.00,#c63G,,,,,,Check,2100.00,,,,,,,,0.00,,,,,,,0.00,Calvin Michael,661-492-3360,,,,CA,1,9.50
109623,9/21/2018 12:02:59 PM,L.A. COUNTY FAIR 8/31-9/23/18 POMONA (CA),L.A. COUNTY FAIR 8/31-9/23/18 POMONA (CA),Hiroko Hudson,SOL-1SOL-1-BL-DEMO,Solace,Demo Black,1,"5 years parts, 1 year labor (Free)",CUSTOM CreditCard,137.75,2337.75,2337.75,Synchrony,2000.00,,,6019170813150288,94685965,Las Vegas,36 months,CreditCard,100.00,Receipt #StKI,,,,,,,0.00,,,,,,,0.00,Olivia Teresa Franw,6267058172,,,"Received deposit $100( Square # StKI on 9/20/2018.
She will pay $50- on 10/15/2018 and 11/15/2018.
Hiroko follow up.",Not Dispatched,0,9.50
109624,9/21/2018 12:27:10 PM,L.A. COUNTY FAIR 8/31-9/23/18 POMONA (CA),L.A. COUNTY FAIR 8/31-9/23/18 POMONA (CA),David Wang,DWA-9100DWA-9100BU,Legacy,New Choco,1,"5 years parts, 1 year labor (Free)",CUSTOM Synchrony,0.00,3800.00,3800.00,CreditCard,2300.00,AWEd,,,,,,Synchrony,1500.00,,,6019170813150866,94707839,San Diego,24 months,,0.00,,,,,,,0.00,Sandy McFadden,661-618-5787,,,,CA,1,9.50
109626,9/21/2018 1:21:02 PM,L.A. COUNTY FAIR 8/31-9/23/18 POMONA (CA),L.A. COUNTY FAIR 8/31-9/23/18 POMONA (CA),Joseph Chan,DWA-9150USJ-9150CH-DEMO,Legacy 3D,Demo Choco,1,"3 years parts, 1 year labor (Free)",CUSTOM ,0.00,3600.00,3600.00,Synchrony,3600.00,,,6019170813151021,94711756,Las Vegas,36 months,,0.00,,,,,,,,0.00,,,,,,,0.00,Gabriel Ramirez,626-272-2146,,,,CA,1,9.50
109647,9/22/2018 9:36:12 AM,L.A. COUNTY FAIR 8/31-9/23/18 POMONA (CA),L.A. COUNTY FAIR 8/31-9/23/18 POMONA (CA),Hiroko Hudson,SOL-1SOL-1-BL,Solace,New Black,1,"5 years parts, 1 year labor (Free)",CUSTOM ,0.00,3800.00,3800.00,CreditCard,3800.00,Receipt #0f48,,,,,,,0.00,,,,,,,,0.00,,,,,,,0.00,Les Takasane,8086281865,,,,HI,1,9.50
109648,9/22/2018 10:14:10 AM,L.A. COUNTY FAIR 8/31-9/23/18 POMONA (CA),L.A. COUNTY FAIR 8/31-9/23/18 POMONA (CA),David Wang,DWA-9150USJ-9150CH,Legacy 3D,New Choco,1,"5 years parts, 1 year labor (Free)",CUSTOM COD,0.00,4200.00,4200.00,CreditCard,500.00,ufRP,,,,,,COD,3700.00,,,,,,,,0.00,,,,,,,0.00,George Nazaroff,626-945-5750,,,,CA,1,9.50
109650,9/22/2018 10:28:44 AM,L.A. COUNTY FAIR 8/31-9/23/18 POMONA (CA),L.A. COUNTY FAIR 8/31-9/23/18 POMONA (CA),David Wang,DWA-9100DWA-9100BL,Legacy,New Black,1,"5 years parts, 1 year labor (Free)",CUSTOM COD,0.00,3500.00,3500.00,CreditCard,500.00,RQGw,,,,,,COD,3000.00,,,,,,,,0.00,,,,,,,0.00,Samuel Park,714-553-0776,,,,CA,1,9.50
109651,9/22/2018 10:35:37 AM,L.A. COUNTY FAIR 8/31-9/23/18 POMONA (CA),L.A. COUNTY FAIR 8/31-9/23/18 POMONA (CA),David Wang,DWA-9100DWA-9100BL,Legacy,New Black,1,"5 years parts, 1 year labor (Free)",CUSTOM COD,0.00,3500.00,3500.00,CreditCard,500.00,RQGw,,,,,,COD,3000.00,,,,,,,,0.00,,,,,,,0.00,Samuel Park,714-553-0776,,,,CA,1,9.50
109655,9/22/2018 1:53:04 PM,L.A. COUNTY FAIR 8/31-9/23/18 POMONA (CA),L.A. COUNTY FAIR 8/31-9/23/18 POMONA (CA),Christoper Williams,DWA-9060USJ-9060BL,Relax2Zero 3D,New Black,1,"5 years parts, 1 year labor (Free)",CUSTOM ,0.00,3500.00,3500.00,Synchrony,3500.00,,,6019170813151146,94714754,San Diego,36 months,,0.00,,,,,,,,0.00,,,,,,,0.00,Oscar Garcia,9512057964,,,,CA,1,9.50
109681,9/23/2018 9:38:16 AM,L.A. COUNTY FAIR 8/31-9/23/18 POMONA (CA),L.A. COUNTY FAIR 8/31-9/23/18 POMONA (CA),Joseph Chan,DWA-9150USJ-9150CH,Legacy 3D,New Choco,1,"5 years parts, 1 year labor (Free)",CUSTOM ,0.00,4200.00,4200.00,CreditCard,4200.00,#o0zk,,,,,,,0.00,,,,,,,,0.00,,,,,,,0.00,Billy Murray,626-422-7407,,,,CA,1,9.50
109682,9/23/2018 9:38:54 AM,L.A. COUNTY FAIR 8/31-9/23/18 POMONA (CA),L.A. COUNTY FAIR 8/31-9/23/18 POMONA (CA),Jessica Phung,SOL-1SOL-1-CH,Solace,New Choco,1,"5 years parts, 1 year labor (Free)",CUSTOM ,0.00,3100.00,3100.00,Synchrony,3100.00,,,6019170813154280,94771964,Las Vegas,36 months,,0.00,,,,,,,,0.00,,,,,,,0.00,Annabel Knutson,760-671-4250,,,,CA,1,9.50
109682,9/23/2018 9:38:54 AM,L.A. COUNTY FAIR 8/31-9/23/18 POMONA (CA),L.A. COUNTY FAIR 8/31-9/23/18 POMONA (CA),Jessica Phung,,Daiwa Blanket,,1,no warranty,CUSTOM ,0.00,3100.00,3100.00,Synchrony,3100.00,,,6019170813154280,94771964,Las Vegas,36 months,,0.00,,,,,,,,0.00,,,,,,,0.00,Annabel Knutson,760-671-4250,,,,CA,1,9.50
109682,9/23/2018 9:38:54 AM,L.A. COUNTY FAIR 8/31-9/23/18 POMONA (CA),L.A. COUNTY FAIR 8/31-9/23/18 POMONA (CA),Jessica Phung,,Tourmaline Pad for Solace,,1,no warranty,CUSTOM ,0.00,3100.00,3100.00,Synchrony,3100.00,,,6019170813154280,94771964,Las Vegas,36 months,,0.00,,,,,,,,0.00,,,,,,,0.00,Annabel Knutson,760-671-4250,,,,CA,1,9.50
109685,9/23/2018 9:43:57 AM,L.A. COUNTY FAIR 8/31-9/23/18 POMONA (CA),L.A. COUNTY FAIR 8/31-9/23/18 POMONA (CA),Joseph Chan,DWA-9150USJ-9150CH,Legacy 3D,New Choco,1,"3 years parts, 1 year labor (Free)",CUSTOM COD,0.00,3800.00,3800.00,CreditCard,100.00,@umEr,,,,,,COD,3700.00,,,,,,,,0.00,,,,,,,0.00,Mario Avila,323-712-5764,,,"Refundable deposit, customer under re-financing, will call when ready, please hold",CA,1,9.50
109686,9/23/2018 9:49:34 AM,L.A. COUNTY FAIR 8/31-9/23/18 POMONA (CA),L.A. COUNTY FAIR 8/31-9/23/18 POMONA (CA),Jessica Phung,SOL-1SOL-1-BL,Solace,New Black,1,"5 years parts, 1 year labor (Free)",CUSTOM ,0.00,3000.00,3000.00,Synchrony,3000.00,,,6019170813154348,94773314,Las Vegas,36 months,,0.00,,,,,,,,0.00,,,,,,,0.00,Flor Silvestre,323-377-3821,,,,CA,1,9.50
109687,9/23/2018 9:50:26 AM,L.A. COUNTY FAIR 8/31-9/23/18 POMONA (CA),L.A. COUNTY FAIR 8/31-9/23/18 POMONA (CA),David Wang,DWA-9100DWA-9100BL,Legacy,New Black,1,"5 years parts, 1 year labor (Free)",CUSTOM ,0.00,3800.00,3800.00,Synchrony,3800.00,,,6019170813154355,94773443,Las Vegas,36 months,,0.00,,,,,,,,0.00,,,,,,,0.00,Margie Pierce,714-308-4225,,,,CA,1,9.50
109689,9/23/2018 9:53:33 AM,L.A. COUNTY FAIR 8/31-9/23/18 POMONA (CA),L.A. COUNTY FAIR 8/31-9/23/18 POMONA (CA),Joseph Chan,DWA-9150USJ-9150CH,Legacy 3D,New Choco,1,"5 years parts, 1 year labor (Free)",CUSTOM COD,0.00,4200.00,4200.00,CreditCard,200.00,#jZaD,,,,,,COD,4000.00,,,,,,,,0.00,,,,,,,0.00,James Detrick,541-480-8217,,,"Customer will call to update delivery address, please hold",TX,1,9.50
109691,9/23/2018 9:58:51 AM,L.A. COUNTY FAIR 8/31-9/23/18 POMONA (CA),L.A. COUNTY FAIR 8/31-9/23/18 POMONA (CA),Hiroko Hudson,DWA-9150USJ-9150BL,Legacy 3D,New Black,1,"5 years parts, 1 year labor (Free)",CUSTOM CreditCard,0.00,4200.00,4200.00,Check,3700.00,,,,,,,CreditCard,500.00,XjH4,,,,,,,0.00,,,,,,,0.00,Juan Morales,6262018236,,,"Received deposit $500- on Sep. 20, 2018 (VISA #XjH4).  Received money order $3,700 on 9/22/2018.(#690887).",CA,1,9.50
109694,9/23/2018 10:06:51 AM,L.A. COUNTY FAIR 8/31-9/23/18 POMONA (CA),L.A. COUNTY FAIR 8/31-9/23/18 POMONA (CA),Jessica Phung,SOL-1SOL-1-CH,Solace,New Choco,1,"5 years parts, 1 year labor (Free)",CUSTOM ,0.00,3000.00,3000.00,Synchrony,3000.00,,,6019170813154348,94773314,Las Vegas,36 months,,0.00,,,,,,,,0.00,,,,,,,0.00,Corina Barillas,801-674-5392,,,,CA,1,9.50
109697,9/23/2018 10:15:03 AM,L.A. COUNTY FAIR 8/31-9/23/18 POMONA (CA),L.A. COUNTY FAIR 8/31-9/23/18 POMONA (CA),Jessica Phung,DWA-9400Pegasus2.0-BL,Pegasus 2.0,New Black,1,"5 years parts, 1 year labor (Free)",CUSTOM PurchaseOrder,0.00,5500.00,5500.00,Synchrony,4000.00,,,6019170813154116,94769667,Las Vegas,36 months,PurchaseOrder,1500.00,,,,,,,,0.00,,,,,,,0.00,Harvey Leonard,909-428-2512,,,,Not Dispatched,1,9.50
109700,9/23/2018 10:20:55 AM,L.A. COUNTY FAIR 8/31-9/23/18 POMONA (CA),L.A. COUNTY FAIR 8/31-9/23/18 POMONA (CA),Jessica Phung,DWA-9100DWA-9100BL,Legacy,New Black,1,"5 years parts, 1 year labor (Free)",CUSTOM ,0.00,3600.00,3600.00,Synchrony,3600.00,,,6019170813152896,94752808,Las Vegas,36 months,,0.00,,,,,,,,0.00,,,,,,,0.00,Jorge R Rodriguez,909-239-9507,,,,CA,1,9.50
109745,9/23/2018 7:59:42 PM,L.A. COUNTY FAIR 8/31-9/23/18 POMONA (CA),L.A. COUNTY FAIR 8/31-9/23/18 POMONA (CA),Joseph Chan,DWA-9150USJ-9150BL,Legacy 3D,New Black,1,"3 years parts, 1 year labor (Free)",CUSTOM ,0.00,4800.00,4800.00,COD,0.00,,,,,,,,0.00,,,,,,,,0.00,,,,,,,0.00,Arivro Hermandez,310-869-2865,,,,CA,1,9.50
109752,9/23/2018 8:24:28 PM,L.A. COUNTY FAIR 8/31-9/23/18 POMONA (CA),L.A. COUNTY FAIR 8/31-9/23/18 POMONA (CA),David Wang,DWA-9100DWA-9100BL-DEMO,Legacy,Demo Black,1,"5 years parts, 1 year labor (Free)",CUSTOM PurchaseOrder,0.00,3600.00,3600.00,CreditCard,2000.00,UzJe,,,,,,PurchaseOrder,1600.00,,LAYAWAY,,,,,,0.00,,,,,,,0.00,Nancy Perez,323-617-2311,,,,CA,1,9.50
109763,9/23/2018 8:57:43 PM,L.A. COUNTY FAIR 8/31-9/23/18 POMONA (CA),L.A. COUNTY FAIR 8/31-9/23/18 POMONA (CA),David Wang,DWA-9100DWA-9100BL,Legacy,New Black,1,"5 years parts, 1 year labor (Free)",CUSTOM ,0.00,4000.00,4000.00,Synchrony,4000.00,,,6019170813155659,94796258,Las Vegas,48 months,,0.00,,,,,,,,0.00,,,,,,,0.00,Maria Diaz,909-622-3867,,,,CA,1,9.50
109772,9/23/2018 9:14:27 PM,L.A. COUNTY FAIR 8/31-9/23/18 POMONA (CA),L.A. COUNTY FAIR 8/31-9/23/18 POMONA (CA),Joseph Chan,DWA-9150USJ-9150BL,Legacy 3D,New Black,1,"3 years parts, 3 years labor ($400)",CUSTOM COD,0.00,4000.00,4000.00,CreditCard,500.00,#oT7F,,,,,,COD,3500.00,,,,,,,,0.00,,,,,,,0.00,Connie Henry,909-374-4463,,,"Customer will update with delivery address, please hold",CA,1,9.50
109777,9/23/2018 9:24:23 PM,L.A. COUNTY FAIR 8/31-9/23/18 POMONA (CA),L.A. COUNTY FAIR 8/31-9/23/18 POMONA (CA),Jessica Phung,DWA-9150USJ-9150CH,Legacy 3D,New Choco,1,"5 years parts, 1 year labor (Free)",CUSTOM ,0.00,4000.00,4000.00,CreditCard,4000.00,#udy4,,,,,,,0.00,,,,,,,,0.00,,,,,,,0.00,Beverly Vo,951-500-7550,,,,CA,1,9.50
109777,9/23/2018 9:24:23 PM,L.A. COUNTY FAIR 8/31-9/23/18 POMONA (CA),L.A. COUNTY FAIR 8/31-9/23/18 POMONA (CA),Jessica Phung,,Daiwa Blanket,,1,no warranty,CUSTOM ,0.00,4000.00,4000.00,CreditCard,4000.00,#udy4,,,,,,,0.00,,,,,,,,0.00,,,,,,,0.00,Beverly Vo,951-500-7550,,,,CA,1,9.50
109777,9/23/2018 9:24:23 PM,L.A. COUNTY FAIR 8/31-9/23/18 POMONA (CA),L.A. COUNTY FAIR 8/31-9/23/18 POMONA (CA),Jessica Phung,,Tourmaline Pad for Legacy 3D,,1,no warranty,CUSTOM ,0.00,4000.00,4000.00,CreditCard,4000.00,#udy4,,,,,,,0.00,,,,,,,,0.00,,,,,,,0.00,Beverly Vo,951-500-7550,,,,CA,1,9.50
109779,9/23/2018 9:29:58 PM,L.A. COUNTY FAIR 8/31-9/23/18 POMONA (CA),L.A. COUNTY FAIR 8/31-9/23/18 POMONA (CA),Jessica Phung,DWA-9150USJ-9150CH,Legacy 3D,New Choco,1,"5 years parts, 1 year labor (Free)",CUSTOM ,0.00,4200.00,4200.00,CreditCard,4200.00,#byEP,,,,,,,0.00,,,,,,,,0.00,,,,,,,0.00,Alice Xavier,626-289-5898,,,,CA,1,9.50
109785,9/23/2018 11:40:49 PM,L.A. COUNTY FAIR 8/31-9/23/18 POMONA (CA),L.A. COUNTY FAIR 8/31-9/23/18 POMONA (CA),May Kam,SOL-1SOL-1-BL,Solace,New Black,1,"5 years parts, 1 year labor (Free)",CUSTOM COD,0.00,3000.00,3000.00,CreditCard,200.00,#xnLL,,,,,,COD,2800.00,,,,,,,,0.00,,,,,,,0.00,Mrs Heidi Mcdearmon,7024808627,,,"Senior Special discount , manager approval; Balance $2800",NV,1,9.50
109785,9/23/2018 11:40:49 PM,L.A. COUNTY FAIR 8/31-9/23/18 POMONA (CA),L.A. COUNTY FAIR 8/31-9/23/18 POMONA (CA),May Kam,,Tourmaline Pad for Solace,,1,no warranty,CUSTOM COD,0.00,3000.00,3000.00,CreditCard,200.00,#xnLL,,,,,,COD,2800.00,,,,,,,,0.00,,,,,,,0.00,Mrs Heidi Mcdearmon,7024808627,,,"Senior Special discount , manager approval; Balance $2800",NV,1,9.50
109786,9/24/2018 12:17:03 AM,L.A. COUNTY FAIR 8/31-9/23/18 POMONA (CA),L.A. COUNTY FAIR 8/31-9/23/18 POMONA (CA),May Kam,DWA-9400Pegasus2.0-BR,Pegasus 2.0,New Choco,1,"5 years parts, 1 year labor (Free)",CUSTOM COD,0.00,5800.00,5800.00,CreditCard,200.00,4JG7,,,,,,COD,2000.00,,,,,,,CreditCard,3600.00,Payment plan,,,,,,0.00,Mr Paul Jimenez,6267863423,,,"Another phone is 626-918-5539,",CA,1,9.50
109786,9/24/2018 12:17:03 AM,L.A. COUNTY FAIR 8/31-9/23/18 POMONA (CA),L.A. COUNTY FAIR 8/31-9/23/18 POMONA (CA),May Kam,,Tourmaline Pad for Pegasus,,1,no warranty,CUSTOM COD,0.00,5800.00,5800.00,CreditCard,200.00,4JG7,,,,,,COD,2000.00,,,,,,,CreditCard,3600.00,Payment plan,,,,,,0.00,Mr Paul Jimenez,6267863423,,,"Another phone is 626-918-5539,",CA,1,9.50
109787,9/24/2018 6:54:07 AM,L.A. COUNTY FAIR 8/31-9/23/18 POMONA (CA),L.A. COUNTY FAIR 8/31-9/23/18 POMONA (CA),May Kam,DWA-9150USJ-9150CH-DEMO,Legacy 3D,Demo Choco,1,"5 years parts, 1 year labor (Free)",CUSTOM ,0.00,3300.00,3300.00,Cash,3300.00,,,,,,,,0.00,,,,,,,,0.00,,,,,,,0.00,Mr Paul Venegas,9094569380,,,"Special discount for cash price , paid in full , thanks",CA,1,9.50
109788,9/24/2018 7:02:17 AM,L.A. COUNTY FAIR 8/31-9/23/18 POMONA (CA),L.A. COUNTY FAIR 8/31-9/23/18 POMONA (CA),May Kam,SOL-1SOL-1-BL,Solace,New Black,1,"5 years parts, 1 year labor (Free)",CUSTOM COD,0.00,3800.00,3800.00,CreditCard,100.00,Receipt #0Kuv,,,,,,COD,3700.00,,,,,,,,0.00,,,,,,,0.00,Mrs Davis Caridao,9097826740,,,"Hold discount price , will call us , thanks. Manager approval",CA,1,9.50
109788,9/24/2018 7:02:17 AM,L.A. COUNTY FAIR 8/31-9/23/18 POMONA (CA),L.A. COUNTY FAIR 8/31-9/23/18 POMONA (CA),May Kam,,Tourmaline Pad for Solace,,1,no warranty,CUSTOM COD,0.00,3800.00,3800.00,CreditCard,100.00,Receipt #0Kuv,,,,,,COD,3700.00,,,,,,,,0.00,,,,,,,0.00,Mrs Davis Caridao,9097826740,,,"Hold discount price , will call us , thanks. Manager approval",CA,1,9.50
109789,9/24/2018 7:19:48 AM,L.A. COUNTY FAIR 8/31-9/23/18 POMONA (CA),L.A. COUNTY FAIR 8/31-9/23/18 POMONA (CA),May Kam,SOL-1SOL-1-CH,Solace,New Choco,1,"5 years parts, 1 year labor (Free)",CUSTOM COD,0.00,3500.00,3500.00,CreditCard,100.00,Mqyc,,,,,,COD,3350.00,,,,,,,,0.00,,,,,,,0.00,Mr Leonel Alcazar,6269686095,,,"Will ask son , hold about one month , thanks",CA,1,9.50
109790,9/24/2018 7:29:51 AM,L.A. COUNTY FAIR 8/31-9/23/18 POMONA (CA),L.A. COUNTY FAIR 8/31-9/23/18 POMONA (CA),May Kam,SOL-1SOL-1-BL,Solace,New Black,1,"5 years parts, 1 year labor (Free)",CUSTOM COD,0.00,3500.00,3500.00,CreditCard,200.00,Receipt #5jlW,,,,,,COD,3300.00,,,,,,,,0.00,,,,,,,0.00,Mrs Jolene Morita,3109011280,,,"Special discount for one time payment, balance $3300, manager approval",CA,1,9.50
109790,9/24/2018 7:29:51 AM,L.A. COUNTY FAIR 8/31-9/23/18 POMONA (CA),L.A. COUNTY FAIR 8/31-9/23/18 POMONA (CA),May Kam,,Tourmaline Pad for Solace,,1,no warranty,CUSTOM COD,0.00,3500.00,3500.00,CreditCard,200.00,Receipt #5jlW,,,,,,COD,3300.00,,,,,,,,0.00,,,,,,,0.00,Mrs Jolene Morita,3109011280,,,"Special discount for one time payment, balance $3300, manager approval",CA,1,9.50
109791,9/24/2018 7:47:39 AM,L.A. COUNTY FAIR 8/31-9/23/18 POMONA (CA),L.A. COUNTY FAIR 8/31-9/23/18 POMONA (CA),May Kam,SOL-1SOL-1-CH,Solace,New Choco,1,"5 years parts, 1 year labor (Free)",CUSTOM COD,0.00,2950.00,2950.00,Cash,100.00,,,,,,,COD,2850.00,,,,,,,,0.00,,,,,,,0.00,Jannette Cpalindo,6267056773,,,"Special discount for One family bought two chairs , request delivery Before Sep 28,2018 or After Oct 11,2018 , since vacation, thank you so much for arrangements",CA,1,9.50
109791,9/24/2018 7:47:39 AM,L.A. COUNTY FAIR 8/31-9/23/18 POMONA (CA),L.A. COUNTY FAIR 8/31-9/23/18 POMONA (CA),May Kam,,Tourmaline Pad for Solace,,1,no warranty,CUSTOM COD,0.00,2950.00,2950.00,Cash,100.00,,,,,,,COD,2850.00,,,,,,,,0.00,,,,,,,0.00,Jannette Cpalindo,6267056773,,,"Special discount for One family bought two chairs , request delivery Before Sep 28,2018 or After Oct 11,2018 , since vacation, thank you so much for arrangements",CA,1,9.50
109792,9/24/2018 8:31:52 AM,L.A. COUNTY FAIR 8/31-9/23/18 POMONA (CA),L.A. COUNTY FAIR 8/31-9/23/18 POMONA (CA),May Kam,SOL-1SOL-1-CH,Solace,New Choco,1,"5 years parts, 1 year labor (Free)",CUSTOM COD,0.00,2950.00,2950.00,Cash,100.00,,,,,,,COD,2850.00,,,,,,,,0.00,,,,,,,0.00,Mrs Lisa  M Pimentel,6263912149,,,"Special discount with order #109791 together, request delivery Before Sep 28, or After Oct 11,2018, since vacation, thanks",CA,1,9.50
109792,9/24/2018 8:31:52 AM,L.A. COUNTY FAIR 8/31-9/23/18 POMONA (CA),L.A. COUNTY FAIR 8/31-9/23/18 POMONA (CA),May Kam,,Tourmaline Pad for Solace,,1,no warranty,CUSTOM COD,0.00,2950.00,2950.00,Cash,100.00,,,,,,,COD,2850.00,,,,,,,,0.00,,,,,,,0.00,Mrs Lisa  M Pimentel,6263912149,,,"Special discount with order #109791 together, request delivery Before Sep 28, or After Oct 11,2018, since vacation, thanks",CA,1,9.50
109793,9/24/2018 8:53:04 AM,L.A. COUNTY FAIR 8/31-9/23/18 POMONA (CA),L.A. COUNTY FAIR 8/31-9/23/18 POMONA (CA),May Kam,DWA-9100DWA-9100BL,Legacy,New Black,1,"5 years parts, 1 year labor (Free)",CUSTOM COD,0.00,3800.00,3800.00,Cash,100.00,,,,,,,COD,3700.00,,,,,,,,0.00,,,,,,,0.00,Mr Josephine Cheatham,3107348267,,,"Special discount for one time payment, manager approval",CA,1,9.50
109793,9/24/2018 8:53:04 AM,L.A. COUNTY FAIR 8/31-9/23/18 POMONA (CA),L.A. COUNTY FAIR 8/31-9/23/18 POMONA (CA),May Kam,,Tourmaline Pad for Legacy,,1,no warranty,CUSTOM COD,0.00,3800.00,3800.00,Cash,100.00,,,,,,,COD,3700.00,,,,,,,,0.00,,,,,,,0.00,Mr Josephine Cheatham,3107348267,,,"Special discount for one time payment, manager approval",CA,1,9.50
109795,9/24/2018 9:01:35 AM,L.A. COUNTY FAIR 8/31-9/23/18 POMONA (CA),L.A. COUNTY FAIR 8/31-9/23/18 POMONA (CA),May Kam,DWA-9100DWA-9100BL,Legacy,New Black,1,"5 years parts, 1 year labor (Free)",CUSTOM COD,0.00,3800.00,3800.00,Cash,100.00,,,,,,,COD,3700.00,,,,,,,,0.00,,,,,,,0.00,Mr Jackie Grimble,9093741982,,,"Special discount for one time payment, manager approval",CA,1,9.50
109795,9/24/2018 9:01:35 AM,L.A. COUNTY FAIR 8/31-9/23/18 POMONA (CA),L.A. COUNTY FAIR 8/31-9/23/18 POMONA (CA),May Kam,,Tourmaline Pad for Legacy,,1,no warranty,CUSTOM COD,0.00,3800.00,3800.00,Cash,100.00,,,,,,,COD,3700.00,,,,,,,,0.00,,,,,,,0.00,Mr Jackie Grimble,9093741982,,,"Special discount for one time payment, manager approval",CA,1,9.50
109798,9/24/2018 9:17:00 AM,L.A. COUNTY FAIR 8/31-9/23/18 POMONA (CA),L.A. COUNTY FAIR 8/31-9/23/18 POMONA (CA),May Kam,DWA-9150USJ-9150CH,Legacy 3D,New Choco,1,"5 years parts, 1 year labor (Free)",CUSTOM COD,0.00,3800.00,3800.00,CreditCard,50.00,Receipt #9hQZ,,,,,,COD,3750.00,,,,,,,,0.00,,,,,,,0.00,Mr Dolores Gonzales,5622371572,,,"Need son go to office to try chair, thanks; Another phone is 5629420475",CA,1,9.50
109798,9/24/2018 9:17:00 AM,L.A. COUNTY FAIR 8/31-9/23/18 POMONA (CA),L.A. COUNTY FAIR 8/31-9/23/18 POMONA (CA),May Kam,,Tourmaline Pad for Legacy 3D,,1,no warranty,CUSTOM COD,0.00,3800.00,3800.00,CreditCard,50.00,Receipt #9hQZ,,,,,,COD,3750.00,,,,,,,,0.00,,,,,,,0.00,Mr Dolores Gonzales,5622371572,,,"Need son go to office to try chair, thanks; Another phone is 5629420475",CA,1,9.50
109806,9/24/2018 10:01:53 AM,L.A. COUNTY FAIR 8/31-9/23/18 POMONA (CA),L.A. COUNTY FAIR 8/31-9/23/18 POMONA (CA),May Kam,SOL-1SOL-1-BL,Solace,New Black,1,"5 years parts, 1 year labor (Free)",CUSTOM ,0.00,3450.00,3450.00,Synchrony,3450.00,,,6019170813156343,94817572,Las Vegas,36 months,,0.00,,,,,,,,0.00,,,,,,,0.00,Mrs Joanne Medina,5626521539,,,"Special discount, manager approval 
Pls make purchasing $3450 for finance",CA,1,9.50
109806,9/24/2018 10:01:53 AM,L.A. COUNTY FAIR 8/31-9/23/18 POMONA (CA),L.A. COUNTY FAIR 8/31-9/23/18 POMONA (CA),May Kam,,Tourmaline Pad for Solace,,1,no warranty,CUSTOM ,0.00,3450.00,3450.00,Synchrony,3450.00,,,6019170813156343,94817572,Las Vegas,36 months,,0.00,,,,,,,,0.00,,,,,,,0.00,Mrs Joanne Medina,5626521539,,,"Special discount, manager approval 
Pls make purchasing $3450 for finance",CA,1,9.50
109810,9/24/2018 12:18:13 PM,L.A. COUNTY FAIR 8/31-9/23/18 POMONA (CA),L.A. COUNTY FAIR 8/31-9/23/18 POMONA (CA),Joseph Chan,DWA-9150USJ-9150CH,Legacy 3D,New Choco,1,"3 years parts, 1 year labor (Free)",CUSTOM Synchrony,0.00,4600.00,4600.00,CreditCard,1000.00,#SBGJ,,,,,,Synchrony,3600.00,,,6019170813156590,94823659,Las Vegas,48 months,,0.00,,,,,,,0.00,Stacey Strickler,323-854-4009,,,,CA,1,9.50
109828,9/24/2018 3:26:39 PM,L.A. COUNTY FAIR 8/31-9/23/18 POMONA (CA),L.A. COUNTY FAIR 8/31-9/23/18 POMONA (CA),May Kam,SOL-1SOL-1-CH,Solace,New Choco,1,"5 years parts, 1 year labor (Free)",CUSTOM ,0.00,3100.00,3100.00,Synchrony,3100.00,,,6019170813157325,94839513,Las Vegas,36 months,,0.00,,,,,,,,0.00,,,,,,,0.00,Mr Daniel Mendez,5626926250,,,"Another phone is 5625473456, pls make finance $3100 purchase, thanks",CA,1,9.50
109828,9/24/2018 3:26:39 PM,L.A. COUNTY FAIR 8/31-9/23/18 POMONA (CA),L.A. COUNTY FAIR 8/31-9/23/18 POMONA (CA),May Kam,,Tourmaline Pad for Solace,,1,no warranty,CUSTOM ,0.00,3100.00,3100.00,Synchrony,3100.00,,,6019170813157325,94839513,Las Vegas,36 months,,0.00,,,,,,,,0.00,,,,,,,0.00,Mr Daniel Mendez,5626926250,,,"Another phone is 5625473456, pls make finance $3100 purchase, thanks",CA,1,9.50
109830,9/24/2018 3:35:40 PM,L.A. COUNTY FAIR 8/31-9/23/18 POMONA (CA),L.A. COUNTY FAIR 8/31-9/23/18 POMONA (CA),May Kam,SOL-1SOL-1-CH,Solace,New Choco,1,"5 years parts, 1 year labor (Free)",CUSTOM ,0.00,3450.00,3450.00,Synchrony,3450.00,,,6019170813157291,94838882,Las Vegas,36 months,,0.00,,,,,,,,0.00,,,,,,,0.00,Mrs Veronica Alderate,9097026430,,,"Pls hold this order to Dec-Jan 2019 , since house moving , or the customer may call us earlier, don’t make purchase now. Thanks",CA,1,9.50
109830,9/24/2018 3:35:40 PM,L.A. COUNTY FAIR 8/31-9/23/18 POMONA (CA),L.A. COUNTY FAIR 8/31-9/23/18 POMONA (CA),May Kam,,Tourmaline Pad for Solace,,1,no warranty,CUSTOM ,0.00,3450.00,3450.00,Synchrony,3450.00,,,6019170813157291,94838882,Las Vegas,36 months,,0.00,,,,,,,,0.00,,,,,,,0.00,Mrs Veronica Alderate,9097026430,,,"Pls hold this order to Dec-Jan 2019 , since house moving , or the customer may call us earlier, don’t make purchase now. Thanks",CA,1,9.50
109831,9/24/2018 3:44:04 PM,L.A. COUNTY FAIR 8/31-9/23/18 POMONA (CA),L.A. COUNTY FAIR 8/31-9/23/18 POMONA (CA),May Kam,DWA-9150USJ-9150BL,Legacy 3D,New Black,1,"5 years parts, 1 year labor (Free)",CUSTOM ,0.00,4215.00,4215.00,Synchrony,4215.00,,,6019170813157200,94837342,Las Vegas,36 months,,0.00,,,,,,,,0.00,,,,,,,0.00,Mr & Mrs Bessy Ortega,5628187248,,,"Special discount , manager approval al ; Pls make finance $4215 purchase, Thanks",CA,1,9.50
109831,9/24/2018 3:44:04 PM,L.A. COUNTY FAIR 8/31-9/23/18 POMONA (CA),L.A. COUNTY FAIR 8/31-9/23/18 POMONA (CA),May Kam,,Daiwa Blanket,,1,no warranty,CUSTOM ,0.00,4215.00,4215.00,Synchrony,4215.00,,,6019170813157200,94837342,Las Vegas,36 months,,0.00,,,,,,,,0.00,,,,,,,0.00,Mr & Mrs Bessy Ortega,5628187248,,,"Special discount , manager approval al ; Pls make finance $4215 purchase, Thanks",CA,1,9.50
109831,9/24/2018 3:44:04 PM,L.A. COUNTY FAIR 8/31-9/23/18 POMONA (CA),L.A. COUNTY FAIR 8/31-9/23/18 POMONA (CA),May Kam,,Tourmaline Pad for Legacy 3D,,1,no warranty,CUSTOM ,0.00,4215.00,4215.00,Synchrony,4215.00,,,6019170813157200,94837342,Las Vegas,36 months,,0.00,,,,,,,,0.00,,,,,,,0.00,Mr & Mrs Bessy Ortega,5628187248,,,"Special discount , manager approval al ; Pls make finance $4215 purchase, Thanks",CA,1,9.50
109832,9/24/2018 4:26:08 PM,L.A. COUNTY FAIR 8/31-9/23/18 POMONA (CA),L.A. COUNTY FAIR 8/31-9/23/18 POMONA (CA),Joseph Chan,DWA-9150USJ-9150CH,Legacy 3D,New Choco,1,"5 years parts, 1 year labor (Free)",CUSTOM CreditCard,0.00,3600.00,3600.00,CreditCard,1500.00,#9QzD,,,,,,CreditCard,100.00,#mcKu,,,,,,Synchrony,2000.00,,,6019170813157465,94842237,Las Vegas,36 months,0.00,Ruben Hernandez,818-472-7768,,,,CA,1,9.50
