﻿Date,CustomerName,State,Zipcode,Description,productNo,Color,IsDemo,Net,ShippingFee,GiftPrice,FinancingProcessingFee,Gross,Pre_tax,Tax,Commission,Primary Payment Method,Primary Payment Balance,Primary Authorize Number,Primary Purchase Order Number,Primary Synchrony Account Number,Primary Synchrony Application Key,Primary Synchrony AccountInfo,Primary SynchronyTerm,Secondly Payment Method,Secondly Payment Balance,Secondly Authorize Number,Secondly Purchase Order Number,Secondly Synchrony Account Number,Secondly Synchrony Application Key,Secondly Synchrony AccountInfo,Secondly SynchronyTerm,Thirdly Payment Method,Thirdly Payment Balance,Thirdly Authorize Number,Thirdly Purchase Order Number,Thirdly Synchrony Account Number,Thirdly Synchrony Application Key,Thirdly Synchrony AccountInfo,Thirdly SynchronyTerm,DeliveryDate,Ispickup,Warranty,Status,Event Name,Synchrony Notes,Order Notes,Order number,Private Note,Branch,IsNoTax,ActualTaxRate
2/22/2018 12:24:29 PM,Daiwa Massage,CA,90249,Foot Vibe Pro,USJ-871,,New,,,,,119.34,109.99,9.35,Michael Wang,CreditCard,118.51,Tc# 4101 4433 3664 2742 3257 5,,,,,,,0.00,,,,,,,,0.00,,,,,,,,YES,"2 years parts, 1 year labor (Small Items)",Delivered,Sam's Club #6622 2/22-3/4/18 (CA),,,103907,,CA,0,8.50
2/22/2018 1:16:40 PM,Daiwa Massage,CA,90249,Foot Vibe Pro,USJ-871,,New,,,,,119.34,109.99,9.35,Michael Wang,CreditCard,118.51,Tc# 0733 0049 9220 1601 9176 7,,,,,,,0.00,,,,,,,,0.00,,,,,,,,YES,"2 years parts, 1 year labor (Small Items)",Delivered,Sam's Club #6622 2/22-3/4/18 (CA),,,103909,,CA,0,8.50
2/23/2018 10:51:06 AM,Daiwa Massage,CA,90249,Vitality Plate for Sam's,USJ-849USJ-849,New,New,,,,,430.99,399.99,31.00,Michael Wang,CreditCard,430.99,Tc# 5512 3225 0444 0820 6994 9,,,,,,,0.00,,,,,,,,0.00,,,,,,,,YES,"2 years parts, 1 year labor (Small Items)",Delivered,Sam's Club #6622 2/22-3/4/18 (CA),,,103918,Gave new one for floor model price.,CA,0,7.75
2/23/2018 3:44:14 PM,Daiwa Massage,CA,90249,Foot Vibe Pro,USJ-871,,New,,,,,118.51,109.99,8.52,Michael Wang,CreditCard,118.51,,,,,,,,0.00,,,,,,,,0.00,,,,,,,,YES,"2 years parts, 1 year labor (Small Items)",Cancelled,Sam's Club #6622 2/22-3/4/18 (CA),,,103926,"Customer picked up foot vibe while I was away from the booth.Will email Riho the proof of purchase.
The number of sales doesn't match to sales report. Per Hide, cancelled. 3/2/18 Hitomi",Not Dispatched,0,7.75
2/24/2018 1:19:48 PM,Daiwa Massage,CA,90249,Foot Vibe Pro,USJ-871,,New,,,,,118.51,109.99,8.52,Michael Wang,CreditCard,118.51,,,,,,,,0.00,,,,,,,,0.00,,,,,,,,YES,"2 years parts, 1 year labor (Small Items)",Cancelled,Sam's Club #6622 2/22-3/4/18 (CA),,,103936,"Customer picked up while I was away from booth.Will email Riho proof of purchase.
The number of sales doesn't match to sales report. Per Hide, cancelled. 3/2/18 Hitomi",Not Dispatched,0,7.75
2/26/2018 8:46:04 AM,Aaron Han,CA,95831,Legacy for Sam's,DWA-9100DWA-9100CH,New Choco,New,,,,,3877.92,3599.00,278.92,Michael Wang,CreditCard,3877.92,Tc# 7076 6253 6039 5909 9174 24,,,,,,,0.00,,,,,,,,0.00,,,,,,,,No,"3 years parts, 1 year labor (Free)",Called,Sam's Club #6622 2/22-3/4/18 (CA),,,103988,"Give customer new chair.
02/27/18-printed",CA,0,7.75
2/26/2018 8:46:04 AM,Aaron Han,CA,95831,Daiwa Blanket,,,New,,,,,3877.92,3599.00,278.92,Michael Wang,CreditCard,3877.92,Tc# 7076 6253 6039 5909 9174 24,,,,,,,0.00,,,,,,,,0.00,,,,,,,,No,no warranty,Called,Sam's Club #6622 2/22-3/4/18 (CA),,,103988,"Give customer new chair.
02/27/18-printed",CA,0,7.75
2/26/2018 8:46:04 AM,Aaron Han,CA,95831,Chair Pad for Legacy,,,New,,,,,3877.92,3599.00,278.92,Michael Wang,CreditCard,3877.92,Tc# 7076 6253 6039 5909 9174 24,,,,,,,0.00,,,,,,,,0.00,,,,,,,,No,no warranty,Called,Sam's Club #6622 2/22-3/4/18 (CA),,,103988,"Give customer new chair.
02/27/18-printed",CA,0,7.75
2/26/2018 9:02:08 AM,Dennis Fong,CA,95831,Legacy for Sam's,DWA-9100DWA-9100BL,New Black,New,,,,,3877.92,3599.00,278.92,Michael Wang,CreditCard,3877.92,Tc# 2780 1766 1289 5490 4083 33,,,,,,,0.00,,,,,,,,0.00,,,,,,,,No,"3 years parts, 1 year labor (Free)",Cancelled,Sam's Club #6622 2/22-3/4/18 (CA),,,103989,"Give customer new chair.
Per Michael, this order was cancelled and the customer is gonna go to the store to get the refund. 2/26/18 Riho",CA,0,7.75
2/26/2018 9:02:08 AM,Dennis Fong,CA,95831,Daiwa Blanket,,,New,,,,,3877.92,3599.00,278.92,Michael Wang,CreditCard,3877.92,Tc# 2780 1766 1289 5490 4083 33,,,,,,,0.00,,,,,,,,0.00,,,,,,,,No,no warranty,Cancelled,Sam's Club #6622 2/22-3/4/18 (CA),,,103989,"Give customer new chair.
Per Michael, this order was cancelled and the customer is gonna go to the store to get the refund. 2/26/18 Riho",CA,0,7.75
2/26/2018 9:02:08 AM,Dennis Fong,CA,95831,Chair Pad for Legacy,,,New,,,,,3877.92,3599.00,278.92,Michael Wang,CreditCard,3877.92,Tc# 2780 1766 1289 5490 4083 33,,,,,,,0.00,,,,,,,,0.00,,,,,,,,No,no warranty,Cancelled,Sam's Club #6622 2/22-3/4/18 (CA),,,103989,"Give customer new chair.
Per Michael, this order was cancelled and the customer is gonna go to the store to get the refund. 2/26/18 Riho",CA,0,7.75
2/26/2018 9:08:40 AM,Socorro Pena,CA,95832,Legacy for Sam's,DWA-9100DWA-9100SB,New Sienna Brown,New,,,,,3877.92,3599.00,278.92,Michael Wang,CreditCard,3877.92,Tc# 2970 3560 1281 2494 4793 53,,,,,,,0.00,,,,,,,,0.00,,,,,,,,No,"3 years parts, 1 year labor (Free)",Called,Sam's Club #6622 2/22-3/4/18 (CA),,,103990,"Give customer new chair.
02/27/18-printed",CA,0,7.75
2/26/2018 9:08:40 AM,Socorro Pena,CA,95832,Daiwa Blanket,,,New,,,,,3877.92,3599.00,278.92,Michael Wang,CreditCard,3877.92,Tc# 2970 3560 1281 2494 4793 53,,,,,,,0.00,,,,,,,,0.00,,,,,,,,No,no warranty,Called,Sam's Club #6622 2/22-3/4/18 (CA),,,103990,"Give customer new chair.
02/27/18-printed",CA,0,7.75
2/26/2018 9:08:40 AM,Socorro Pena,CA,95832,Chair Pad for Legacy,,,New,,,,,3877.92,3599.00,278.92,Michael Wang,CreditCard,3877.92,Tc# 2970 3560 1281 2494 4793 53,,,,,,,0.00,,,,,,,,0.00,,,,,,,,No,no warranty,Called,Sam's Club #6622 2/22-3/4/18 (CA),,,103990,"Give customer new chair.
02/27/18-printed",CA,0,7.75
2/26/2018 9:34:16 AM,Daiwa Massage,CA,90249,Foot Vibe Pro,USJ-871,,New,,,,,355.54,329.97,25.57,Michael Wang,CreditCard,118.51,Tc# 2780 1766 1289 5490 4083 33,,,,,,CreditCard,118.51,Tc# 1774 1127 4031 3413 7584 8,,,,,,CreditCard,118.51,Tc# 7328 7712 5987 8378 2603 0,,,,,,,YES,"2 years parts, 1 year labor (Small Items)",Delivered,Sam's Club #6622 2/22-3/4/18 (CA),,,103991,,CA,0,7.75
2/26/2018 9:41:41 AM,Daiwa Massage,CA,90249,Foot Vibe Pro,USJ-871,,New,,,,,355.54,329.97,25.57,Michael Wang,CreditCard,118.51,Tc# 3065 3318 7143 5235 8362 6,,,,,,CreditCard,118.51,Tc# 6430 6611 0866 4964 1439 3,,,,,,CreditCard,118.51,Tc# 2092 2235 1451 0820 5898 9,,,,,,,YES,"2 years parts, 1 year labor (Small Items)",Delivered,Sam's Club #6622 2/22-3/4/18 (CA),,,103993,,CA,0,7.75
2/27/2018 1:58:26 PM,Daiwa Massage,CA,90249,Foot Vibe Pro,USJ-871,,New,,,,,118.51,109.99,8.52,Michael Wang,CreditCard,118.51,Tc# 5706 5506 7302 9059 6340 4,,,,,,,0.00,,,,,,,,0.00,,,,,,,,YES,"2 years parts, 1 year labor (Small Items)",Delivered,Sam's Club #6622 2/22-3/4/18 (CA),,,104050,,CA,0,7.75
2/28/2018 1:17:39 PM,Daiwa Massage,CA,90249,Foot Vibe Pro,USJ-871,,New,,,,,118.51,109.99,8.52,Michael Wang,CreditCard,118.51,Tc# 1870 6611 8896 4984 7630 3,,,,,,,0.00,,,,,,,,0.00,,,,,,,,YES,"2 years parts, 1 year labor (Small Items)",Delivered,Sam's Club #6622 2/22-3/4/18 (CA),,,104055,,CA,0,7.75
2/28/2018 3:10:38 PM,Daiwa Massage,CA,90249,Vitality Plate for Sam's,USJ-849USJ-849,New,New,,,,,430.99,399.99,31.00,Michael Wang,CreditCard,430.99,Tc# 8624 1127 2011 3433 5384 8,,,,,,,0.00,,,,,,,,0.00,,,,,,,,YES,"2 years parts, 1 year labor (Small Items)",Delivered,Sam's Club #6622 2/22-3/4/18 (CA),,,104058,Gave New one for floor model price.,CA,0,7.75
2/28/2018 3:44:32 PM,Daiwa Massage,CA,90249,Foot Vibe Pro,USJ-871,,New,,,,,118.51,109.99,8.52,Michael Wang,CreditCard,118.51,Tc# 0543 0009 2210 1601 9176 7,,,,,,,0.00,,,,,,,,0.00,,,,,,,,YES,"2 years parts, 1 year labor (Small Items)",Delivered,Sam's Club #6622 2/22-3/4/18 (CA),,,104059,,CA,0,7.75
3/1/2018 2:59:47 PM,Alfredo Merino,CA,95823,Legacy for Sam's,DWA-9100DWA-9100BL,New Black,New,,,,,3877.92,3599.00,278.92,Michael Wang,CreditCard,3877.92,Tc# 5454 0619 8303 1343 3238 68,,,,,,,0.00,,,,,,,,0.00,,,,,,,,No,"3 years parts, 1 year labor (Free)",Called,Sam's Club #6622 2/22-3/4/18 (CA),,,104062,"Please give customer new chair.Customer available most days between 8am to 2pm.Thursday customer is free most of the day.
printed",CA,0,7.75
3/1/2018 2:59:47 PM,Alfredo Merino,CA,95823,Daiwa Blanket,,,New,,,,,3877.92,3599.00,278.92,Michael Wang,CreditCard,3877.92,Tc# 5454 0619 8303 1343 3238 68,,,,,,,0.00,,,,,,,,0.00,,,,,,,,No,no warranty,Called,Sam's Club #6622 2/22-3/4/18 (CA),,,104062,"Please give customer new chair.Customer available most days between 8am to 2pm.Thursday customer is free most of the day.
printed",CA,0,7.75
3/1/2018 2:59:47 PM,Alfredo Merino,CA,95823,Chair Pad for Legacy,,,New,,,,,3877.92,3599.00,278.92,Michael Wang,CreditCard,3877.92,Tc# 5454 0619 8303 1343 3238 68,,,,,,,0.00,,,,,,,,0.00,,,,,,,,No,no warranty,Called,Sam's Club #6622 2/22-3/4/18 (CA),,,104062,"Please give customer new chair.Customer available most days between 8am to 2pm.Thursday customer is free most of the day.
printed",CA,0,7.75
3/1/2018 3:10:49 PM,Daiwa Massage,CA,90249,Foot Vibe Pro,USJ-871,,New,,,,,237.03,219.98,17.05,Michael Wang,CreditCard,118.51,Tc# 7604 1198 3031 3413 3385 8,,,,,,CreditCard,118.51,Tc# 3615 6376 5153 5255 8565 6,,,,,,,0.00,,,,,,,,YES,"2 years parts, 1 year labor (Small Items)",Delivered,Sam's Club #6622 2/22-3/4/18 (CA),,,104063,,CA,0,7.75
3/2/2018 6:22:42 PM,Daiwa Massage,CA,90249,Foot Vibe Pro,USJ-871,,New,,,,,118.51,109.99,8.52,Michael Wang,CreditCard,118.51,Tc# 6660 6683 3846 4964 1439 3,,,,,,,0.00,,,,,,,,0.00,,,,,,,,YES,"2 years parts, 1 year labor for Small Items",Delivered,Sam's Club #6622 2/22-3/4/18 (CA),,,104087,,CA,0,7.75
3/2/2018 8:23:34 PM,Daiwa Massage,CA,90249,Foot Vibe Pro,USJ-871,,New,,,,,237.03,219.98,17.05,Michael Wang,CreditCard,118.51,Tc# 4041 4455 7651 2742 3257 5,,,,,,CreditCard,118.51,Tc# 2489 3851 8794 6556 3112 1,,,,,,,0.00,,,,,,,,YES,"2 years parts, 1 year labor for Small Items",Delivered,Sam's Club #6622 2/22-3/4/18 (CA),,,104088,,CA,0,7.75
3/4/2018 10:37:23 PM,Daiwa Massage,CA,90249,Foot Vibe Pro,USJ-871,,New,,,,,355.54,329.97,25.57,Michael Wang,CreditCard,118.51,Tc# 1934 4118 2089 3403 3380 8,,,,,,CreditCard,118.51,Tc# 8369 8831 2753 6586 0715 1,,,,,,CreditCard,118.51,Tc# 6940 6613 9841 4964 1739 3,,,,,,,YES,"2 years parts, 1 year labor for Small Items",Delivered,Sam's Club #6622 2/22-3/4/18 (CA),,,104145,,CA,0,7.75
3/4/2018 10:55:51 PM,Daiwa Massage,CA,90249,Foot Vibe Pro,USJ-871,,New,,,,,237.03,219.98,17.05,Michael Wang,CreditCard,118.51,Tc# 9776 5594 4385 9079 0740 4,,,,,,CreditCard,118.51,Tc# 3493 3404 7926 8165 1527 77,,,,,,,0.00,,,,,,,,YES,"2 years parts, 1 year labor for Small Items",Delivered,Sam's Club #6622 2/22-3/4/18 (CA),,,104146,,CA,0,7.75
3/4/2018 11:08:29 PM,Daiwa Massage,CA,90249,Foot Vibe Pro,USJ-871,,New,,,,,237.03,219.98,17.05,Michael Wang,CreditCard,118.51,,,,,,,CreditCard,118.51,,,,,,,,0.00,,,,,,,,YES,"2 years parts, 1 year labor for Small Items",Delivered,Sam's Club #6622 2/22-3/4/18 (CA),,,104148,Foot vibes picked up and purchased based on Sam’s club sales record.No tc numbers available.,CA,0,7.75
3/4/2018 11:20:25 PM,Clyde Losasso,CA,95828,Legacy for Sam's,DWA-9100DWA-9100CH,New Choco,New,,,,,3877.92,3599.00,278.92,Michael Wang,CreditCard,3877.92,Tc# 3493 3404 7926 8165 1527 77,,,,,,,0.00,,,,,,,,0.00,,,,,,,,No,"3 years parts, 1 year labor (Free)",Called,Sam's Club #6622 2/22-3/4/18 (CA),,,104151,"Give customer new chair.
printed",CA,0,7.75
3/4/2018 11:20:25 PM,Clyde Losasso,CA,95828,Daiwa Blanket,,,New,,,,,3877.92,3599.00,278.92,Michael Wang,CreditCard,3877.92,Tc# 3493 3404 7926 8165 1527 77,,,,,,,0.00,,,,,,,,0.00,,,,,,,,No,no warranty,Called,Sam's Club #6622 2/22-3/4/18 (CA),,,104151,"Give customer new chair.
printed",CA,0,7.75
3/4/2018 11:20:25 PM,Clyde Losasso,CA,95828,Chair Pad for Legacy,,,New,,,,,3877.92,3599.00,278.92,Michael Wang,CreditCard,3877.92,Tc# 3493 3404 7926 8165 1527 77,,,,,,,0.00,,,,,,,,0.00,,,,,,,,No,no warranty,Called,Sam's Club #6622 2/22-3/4/18 (CA),,,104151,"Give customer new chair.
printed",CA,0,7.75
3/4/2018 11:36:14 PM,Hoa Ha,CA,95823,Legacy for Sam's,DWA-9100DWA-9100BL,New Black,New,,,,,3877.92,3599.00,278.92,Michael Wang,CreditCard,3877.92,Tc# 0771 0944 5465 0272 2875 95,,,,,,,0.00,,,,,,,,0.00,,,,,,,,No,"3 years parts, 1 year labor (Free)",Called,Sam's Club #6622 2/22-3/4/18 (CA),,,104156,"Give customer new chair.
printed",CA,0,7.75
3/4/2018 11:36:14 PM,Hoa Ha,CA,95823,Daiwa Blanket,,,New,,,,,3877.92,3599.00,278.92,Michael Wang,CreditCard,3877.92,Tc# 0771 0944 5465 0272 2875 95,,,,,,,0.00,,,,,,,,0.00,,,,,,,,No,no warranty,Called,Sam's Club #6622 2/22-3/4/18 (CA),,,104156,"Give customer new chair.
printed",CA,0,7.75
3/4/2018 11:36:14 PM,Hoa Ha,CA,95823,Chair Pad for Legacy,,,New,,,,,3877.92,3599.00,278.92,Michael Wang,CreditCard,3877.92,Tc# 0771 0944 5465 0272 2875 95,,,,,,,0.00,,,,,,,,0.00,,,,,,,,No,no warranty,Called,Sam's Club #6622 2/22-3/4/18 (CA),,,104156,"Give customer new chair.
printed",CA,0,7.75
