﻿Date,CustomerName,State,Zipcode,Description,productNo,Color,IsDemo,Net,ShippingFee,GiftPrice,FinancingProcessingFee,Gross,Pre_tax,Tax,Commission,Primary Payment Method,Primary Payment Balance,Primary Authorize Number,Primary Purchase Order Number,Primary Synchrony Account Number,Primary Synchrony Application Key,Primary Synchrony AccountInfo,Primary SynchronyTerm,Secondly Payment Method,Secondly Payment Balance,Secondly Authorize Number,Secondly Purchase Order Number,Secondly Synchrony Account Number,Secondly Synchrony Application Key,Secondly Synchrony AccountInfo,Secondly SynchronyTerm,Thirdly Payment Method,Thirdly Payment Balance,Thirdly Authorize Number,Thirdly Purchase Order Number,Thirdly Synchrony Account Number,Thirdly Synchrony Application Key,Thirdly Synchrony AccountInfo,Thirdly SynchronyTerm,DeliveryDate,Ispickup,Warranty,Status,Event Name,Synchrony Notes,Order Notes,Order number,Private Note,Branch,IsNoTax,ActualTaxRate
9/11/2017 11:06:48 AM,Mark Chu,TX,77072,Legacy,DWA-9100DWA-9100BL,Black,New,,,,,4322.25,4050.00,272.25,Yisha Yu,,1000.00,,,6034610081507041,78273795,Huston,24 months,CreditCard,,,,,,,,,,,,,,,,9/13/2017 12:00:00 AM,No,"3 years parts, 1 year labor (Free)",Delivered,Health and Wellness Houston Store 2017 (TX),,Sale with Lisa Zhou,100508,"SYNCHRONY CLEARED FOR $3500 BY ALICIA 9/13/17
PLS NOTE DOWN APPROVAL CODE FOR $1,000 PAYMENT BEFORE DELIVERY, CONTACT ALICIA EXT 138 IF QUESTIONS",TX,,
9/11/2017 11:06:48 AM,Mark Chu,TX,77072,Chair Pad for Legacy,,,New,,,,,4322.25,4050.00,272.25,Yisha Yu,,1000.00,,,6034610081507041,78273795,Huston,24 months,CreditCard,,,,,,,,,,,,,,,,9/13/2017 12:00:00 AM,No,no warranty,Delivered,Health and Wellness Houston Store 2017 (TX),,Sale with Lisa Zhou,100508,"SYNCHRONY CLEARED FOR $3500 BY ALICIA 9/13/17
PLS NOTE DOWN APPROVAL CODE FOR $1,000 PAYMENT BEFORE DELIVERY, CONTACT ALICIA EXT 138 IF QUESTIONS",TX,,
9/11/2017 11:06:48 AM,Mark Chu,TX,77072,Foot Pads for Legacy,,,New,,,,,4322.25,4050.00,272.25,Yisha Yu,,1000.00,,,6034610081507041,78273795,Huston,24 months,CreditCard,,,,,,,,,,,,,,,,9/13/2017 12:00:00 AM,No,no warranty,Delivered,Health and Wellness Houston Store 2017 (TX),,Sale with Lisa Zhou,100508,"SYNCHRONY CLEARED FOR $3500 BY ALICIA 9/13/17
PLS NOTE DOWN APPROVAL CODE FOR $1,000 PAYMENT BEFORE DELIVERY, CONTACT ALICIA EXT 138 IF QUESTIONS",TX,,
9/28/2017 9:35:42 PM,chunxi qiao,TX,77396,Legacy,DWA-9100DWA-9100CH,Choco Brown,New,,,,,3799.40,3567.00,232.40,Yichuang (Debbie) Yang,,3800.00,,,,,,,,,,,,,,,,,,,,,,,10/4/2017 12:00:00 AM,No,"3 years parts, 1 year labor (Free)",Delivered,Health and Wellness Houston Store 2017 (TX),,sales with Yisha Yu,100949,,TX,,
9/28/2017 9:35:42 PM,chunxi qiao,TX,77396,Chair Pad for Legacy,,,New,,,,,3799.40,3567.00,232.40,Yichuang (Debbie) Yang,,3800.00,,,,,,,,,,,,,,,,,,,,,,,10/4/2017 12:00:00 AM,No,no warranty,Delivered,Health and Wellness Houston Store 2017 (TX),,sales with Yisha Yu,100949,,TX,,
9/28/2017 9:35:42 PM,chunxi qiao,TX,77396,Foot Pads for Legacy,,,New,,,,,3799.40,3567.00,232.40,Yichuang (Debbie) Yang,,3800.00,,,,,,,,,,,,,,,,,,,,,,,10/4/2017 12:00:00 AM,No,no warranty,Delivered,Health and Wellness Houston Store 2017 (TX),,sales with Yisha Yu,100949,,TX,,
9/30/2017 9:57:59 AM,Chunxi Qiao,TX,77396,Legacy,DWA-9100DWA-9100CH,Choco Brown,New,,,,,3799.40,3567.00,232.40,Yichuang (Debbie) Yang,,3800.00,04539Z,,,,,,,,,,,,,,,,,,,,,,,No,"3 years parts, 1 year labor (Free)",Scheduled,Health and Wellness Houston Store 2017 (TX),,This order is recovery for order #100949 customer id71330 by payment type mistake ( credit card instead of cash),100983,,TX,,
9/30/2017 9:57:59 AM,Chunxi Qiao,TX,77396,Chair Pad for Legacy,,,New,,,,,3799.40,3567.00,232.40,Yichuang (Debbie) Yang,,3800.00,04539Z,,,,,,,,,,,,,,,,,,,,,,,No,no warranty,Scheduled,Health and Wellness Houston Store 2017 (TX),,This order is recovery for order #100949 customer id71330 by payment type mistake ( credit card instead of cash),100983,,TX,,
9/30/2017 9:57:59 AM,Chunxi Qiao,TX,77396,Foot Pads for Legacy,,,New,,,,,3799.40,3567.00,232.40,Yichuang (Debbie) Yang,,3800.00,04539Z,,,,,,,,,,,,,,,,,,,,,,,No,no warranty,Scheduled,Health and Wellness Houston Store 2017 (TX),,This order is recovery for order #100949 customer id71330 by payment type mistake ( credit card instead of cash),100983,,TX,,
10/4/2017 8:52:04 PM,Yi chuang Yang,TX,77064,Relax2Zero 2.0,USJ-9050USJ-9050BR-DEMO,Demo Brown,Demo,,,,,2699.58,2551.00,148.58,Yichuang (Debbie) Yang,,2700.00,01651C,,,,,,,,,,,,,,,,,,,,,,10/11/2017 12:00:00 AM,No,"3 years parts, 1 year labor (Free)",Delivered,Health and Wellness Houston Store 2017 (TX),,,101096,"I couldn't find the transaction. 10/5/17 Riho
LINDA OR JUNE, PLS FIND OUT ABOUT PAYMENT AND UPDATE SYSTEM--ALICIA",TX,,
10/4/2017 8:52:04 PM,Yi chuang Yang,TX,77064,Chair Pad for Relax2Zero 2.0,,,New,,,,,2699.58,2551.00,148.58,Yichuang (Debbie) Yang,,2700.00,01651C,,,,,,,,,,,,,,,,,,,,,,10/11/2017 12:00:00 AM,No,no warranty,Delivered,Health and Wellness Houston Store 2017 (TX),,,101096,"I couldn't find the transaction. 10/5/17 Riho
LINDA OR JUNE, PLS FIND OUT ABOUT PAYMENT AND UPDATE SYSTEM--ALICIA",TX,,
10/4/2017 8:52:04 PM,Yi chuang Yang,TX,77064,Foot Pads for Relax2Zero 2.0,,,New,,,,,2699.58,2551.00,148.58,Yichuang (Debbie) Yang,,2700.00,01651C,,,,,,,,,,,,,,,,,,,,,,10/11/2017 12:00:00 AM,No,no warranty,Delivered,Health and Wellness Houston Store 2017 (TX),,,101096,"I couldn't find the transaction. 10/5/17 Riho
LINDA OR JUNE, PLS FIND OUT ABOUT PAYMENT AND UPDATE SYSTEM--ALICIA",TX,,
10/15/2017 4:21:05 PM,Rene Bahamonde,TX,77450,Relax2Zero 3D,DWA-9060USJ-9060BR,Choco Brown,New,,,,,5000.00,4676.10,323.90,Lisa Zhou,,4700.00,,,6034610081576475,79757285,Huston,24 months,CreditCard,,,,,,,,,,,,,,,,10/26/2017 12:00:00 AM,No,"3 years parts, 1 year labor (Free)",Cancelled,Health and Wellness Houston Store 2017 (TX),,"2 lumbar support as gifts
$300 payed with credit card (Authorization code 01560Z)
Authorization for Synchrony #015630
Sales: Ji and Lisa",101321,"$4700 CHARGED ON SYNCHRONY, PAID IN FULL
$300 CHARGED ON WELLS FARGO ($300 OVER CHARGED??)
PLS CHECK WITH JI/LISA BEFORE DELIVERY.
CHARGED 10/16/17 AUTH 015630 - 11/15/17 STEPHANY",TX,,
10/22/2017 8:59:57 PM,ILYAS BAIG,TX,77478,Legacy,DWA-9100DWA-9100BL,Black,New,,,,,3599.14,3382.00,217.14,Yichuang (Debbie) Yang,,0.00,06532C,,,,,,,,,,,,,,,,,,,,,,11/7/2017 12:00:00 AM,No,"3 years parts, 1 year labor (Free)",Delivered,Health and Wellness Houston Store 2017 (TX),,This sales order is made with another sales person (Lisa Zhou ),101522,"SQUARE DEPOSIT $300, Receipt #OkZQ 
CLEARED BY ALICIA 10.31.17
App code: 05835c",TX,,
10/22/2017 8:59:57 PM,ILYAS BAIG,TX,77478,Chair Pad for Legacy,,,New,,,,,3599.14,3382.00,217.14,Yichuang (Debbie) Yang,,0.00,06532C,,,,,,,,,,,,,,,,,,,,,,11/7/2017 12:00:00 AM,No,no warranty,Delivered,Health and Wellness Houston Store 2017 (TX),,This sales order is made with another sales person (Lisa Zhou ),101522,"SQUARE DEPOSIT $300, Receipt #OkZQ 
CLEARED BY ALICIA 10.31.17
App code: 05835c",TX,,
10/22/2017 8:59:57 PM,ILYAS BAIG,TX,77478,Foot Pads for Legacy,,,New,,,,,3599.14,3382.00,217.14,Yichuang (Debbie) Yang,,0.00,06532C,,,,,,,,,,,,,,,,,,,,,,11/7/2017 12:00:00 AM,No,no warranty,Delivered,Health and Wellness Houston Store 2017 (TX),,This sales order is made with another sales person (Lisa Zhou ),101522,"SQUARE DEPOSIT $300, Receipt #OkZQ 
CLEARED BY ALICIA 10.31.17
App code: 05835c",TX,,
10/25/2017 10:44:33 AM,Tony Li,TX,77056,Legacy,DWA-9100DWA-9100BL,Black,New,,,,,3699.81,3475.00,224.81,Lisa Zhou,,300.00,,,,,,,,,,,,,,,,,,,,,,,9/26/2017 12:00:00 AM,No,"3 years parts, 1 year labor (Free)",Delivered,Health and Wellness Houston Store 2017 (TX),,,101559,"Need to confirm the Cash payment, emailed Linda to confirm it. 10/26/17 Riho
CASH COLLECTED THROUGH SQUARE, Receipt #dGG1",TX,,
10/25/2017 10:44:33 AM,Tony Li,TX,77056,Chair Pad for Legacy,,,New,,,,,3699.81,3475.00,224.81,Lisa Zhou,,300.00,,,,,,,,,,,,,,,,,,,,,,,9/26/2017 12:00:00 AM,No,no warranty,Delivered,Health and Wellness Houston Store 2017 (TX),,,101559,"Need to confirm the Cash payment, emailed Linda to confirm it. 10/26/17 Riho
CASH COLLECTED THROUGH SQUARE, Receipt #dGG1",TX,,
10/25/2017 10:44:33 AM,Tony Li,TX,77056,Foot Pads for Legacy,,,New,,,,,3699.81,3475.00,224.81,Lisa Zhou,,300.00,,,,,,,,,,,,,,,,,,,,,,,9/26/2017 12:00:00 AM,No,no warranty,Delivered,Health and Wellness Houston Store 2017 (TX),,,101559,"Need to confirm the Cash payment, emailed Linda to confirm it. 10/26/17 Riho
CASH COLLECTED THROUGH SQUARE, Receipt #dGG1",TX,,
10/27/2017 9:37:02 AM,Yali Zhai,TX,77024,Legacy,DWA-9100DWA-9100CH,Choco Brown,New,,,,,3600.01,3382.80,217.21,Lisa Zhou,,300.00,09959C,,,,,,,,,,,,,,,,,,,,,,11/7/2017 12:00:00 AM,No,"3 years parts, 1 year labor (Free)",Delivered,Health and Wellness Houston Store 2017 (TX),,,101577,"SQUARE $300 DEPOSIT, Receipt #gPrv 
ALICIA 10.31.17
App code:06125c",TX,,
10/27/2017 9:37:02 AM,Yali Zhai,TX,77024,Chair Pad for Legacy,,,New,,,,,3600.01,3382.80,217.21,Lisa Zhou,,300.00,09959C,,,,,,,,,,,,,,,,,,,,,,11/7/2017 12:00:00 AM,No,no warranty,Delivered,Health and Wellness Houston Store 2017 (TX),,,101577,"SQUARE $300 DEPOSIT, Receipt #gPrv 
ALICIA 10.31.17
App code:06125c",TX,,
10/27/2017 9:37:02 AM,Yali Zhai,TX,77024,Foot Pads for Legacy,,,New,,,,,3600.01,3382.80,217.21,Lisa Zhou,,300.00,09959C,,,,,,,,,,,,,,,,,,,,,,11/7/2017 12:00:00 AM,No,no warranty,Delivered,Health and Wellness Houston Store 2017 (TX),,,101577,"SQUARE $300 DEPOSIT, Receipt #gPrv 
ALICIA 10.31.17
App code:06125c",TX,,
10/27/2017 8:57:38 PM,Marisor Alberto,TX,77339,Legacy,DWA-9100DWA-9100CH,Choco Brown,New,,,,,4300.00,4029.45,270.55,Yichuang (Debbie) Yang,,300.00,,,6034610081597570,80274482,Huston,24 months,CreditCard,,,,,,,,,,,,,,,,11/8/2017 12:00:00 AM,No,"3 years parts, 1 year labor (Free)",Delivered,Health and Wellness Houston Store 2017 (TX),,This order made with another sales person  (Lisa Zhou ),101588,"Synchrony Cleared - Please charge before delivery 10/30/17 Stephany
Auth#001330",TX,,
10/27/2017 8:57:38 PM,Marisor Alberto,TX,77339,Chair Pad for Legacy,,,New,,,,,4300.00,4029.45,270.55,Yichuang (Debbie) Yang,,300.00,,,6034610081597570,80274482,Huston,24 months,CreditCard,,,,,,,,,,,,,,,,11/8/2017 12:00:00 AM,No,no warranty,Delivered,Health and Wellness Houston Store 2017 (TX),,This order made with another sales person  (Lisa Zhou ),101588,"Synchrony Cleared - Please charge before delivery 10/30/17 Stephany
Auth#001330",TX,,
10/27/2017 8:57:38 PM,Marisor Alberto,TX,77339,Foot Pads for Legacy,,,New,,,,,4300.00,4029.45,270.55,Yichuang (Debbie) Yang,,300.00,,,6034610081597570,80274482,Huston,24 months,CreditCard,,,,,,,,,,,,,,,,11/8/2017 12:00:00 AM,No,no warranty,Delivered,Health and Wellness Houston Store 2017 (TX),,This order made with another sales person  (Lisa Zhou ),101588,"Synchrony Cleared - Please charge before delivery 10/30/17 Stephany
Auth#001330",TX,,
10/29/2017 9:02:40 AM,William Yao,TX,77006,Relax2Zero 1.0,USJ-9000USJ-9000BR,Brown,New,,,,,2900.00,2736.14,163.86,Yichuang (Debbie) Yang,,2900.00,021041,,,,,,,,,,,,,,,,,,,,,,11/7/2017 12:00:00 AM,No,"3 years parts, 1 year labor (Free)",Delivered,Health and Wellness Houston Store 2017 (TX),,,101601,"SQUARE CLEARED BY ALICIA 10/31/17, Receipt #ISaw",TX,,
10/29/2017 9:02:40 AM,William Yao,TX,77006,Chair Pad for Relax2Zero 1.0,,,New,,,,,2900.00,2736.14,163.86,Yichuang (Debbie) Yang,,2900.00,021041,,,,,,,,,,,,,,,,,,,,,,11/7/2017 12:00:00 AM,No,no warranty,Delivered,Health and Wellness Houston Store 2017 (TX),,,101601,"SQUARE CLEARED BY ALICIA 10/31/17, Receipt #ISaw",TX,,
10/29/2017 9:02:40 AM,William Yao,TX,77006,Foot Pads for Relax2Zero 1.0,,,New,,,,,2900.00,2736.14,163.86,Yichuang (Debbie) Yang,,2900.00,021041,,,,,,,,,,,,,,,,,,,,,,11/7/2017 12:00:00 AM,No,no warranty,Delivered,Health and Wellness Houston Store 2017 (TX),,,101601,"SQUARE CLEARED BY ALICIA 10/31/17, Receipt #ISaw",TX,,
10/29/2017 11:07:48 AM,Beibei B Guo,TX,77450,Legacy,DWA-9100DWA-9100CH,Choco Brown,New,,,,,3800.00,3567.55,232.45,Yichuang (Debbie) Yang,,300.00,04010l,,,,,,,,,,,,,,,,,,,,,,11/8/2017 12:00:00 AM,No,"3 years parts, 1 year labor (Free)",Delivered,Health and Wellness Houston Store 2017 (TX),,,101603,"Confirmed $300 in Square (Receipt #NUb8) 10/31/17 Riho
**COD $3500**
App code: 03181c",TX,,
10/29/2017 11:07:48 AM,Beibei B Guo,TX,77450,Chair Pad for Legacy,,,New,,,,,3800.00,3567.55,232.45,Yichuang (Debbie) Yang,,300.00,04010l,,,,,,,,,,,,,,,,,,,,,,11/8/2017 12:00:00 AM,No,no warranty,Delivered,Health and Wellness Houston Store 2017 (TX),,,101603,"Confirmed $300 in Square (Receipt #NUb8) 10/31/17 Riho
**COD $3500**
App code: 03181c",TX,,
10/29/2017 11:07:48 AM,Beibei B Guo,TX,77450,Foot Pads for Legacy,,,New,,,,,3800.00,3567.55,232.45,Yichuang (Debbie) Yang,,300.00,04010l,,,,,,,,,,,,,,,,,,,,,,11/8/2017 12:00:00 AM,No,no warranty,Delivered,Health and Wellness Houston Store 2017 (TX),,,101603,"Confirmed $300 in Square (Receipt #NUb8) 10/31/17 Riho
**COD $3500**
App code: 03181c",TX,,
10/29/2017 4:24:39 PM,Frank H Gibbons,TX,77386,Relax2Zero 1.0,USJ-9000USJ-9000CR,Cream,New,,,,,3000.00,2828.52,171.48,Yichuang (Debbie) Yang,,300.00,09513G,,,,,,,,,,,,,,,,,,,,,,11/8/2017 12:00:00 AM,No,"3 years parts, 1 year labor (Free)",Delivered,Health and Wellness Houston Store 2017 (TX),,This sale made with another sales person ( Lisa Zhou),101612,"Confirmed $300 in Square (Receipt #9l2r) 10/31/17 Riho
**COD $2700**
App code: 08015G",TX,,
10/29/2017 4:24:39 PM,Frank H Gibbons,TX,77386,Chair Pad for Relax2Zero 1.0,,,New,,,,,3000.00,2828.52,171.48,Yichuang (Debbie) Yang,,300.00,09513G,,,,,,,,,,,,,,,,,,,,,,11/8/2017 12:00:00 AM,No,no warranty,Delivered,Health and Wellness Houston Store 2017 (TX),,This sale made with another sales person ( Lisa Zhou),101612,"Confirmed $300 in Square (Receipt #9l2r) 10/31/17 Riho
**COD $2700**
App code: 08015G",TX,,
10/29/2017 4:24:39 PM,Frank H Gibbons,TX,77386,Foot Pads for Relax2Zero 1.0,,,New,,,,,3000.00,2828.52,171.48,Yichuang (Debbie) Yang,,300.00,09513G,,,,,,,,,,,,,,,,,,,,,,11/8/2017 12:00:00 AM,No,no warranty,Delivered,Health and Wellness Houston Store 2017 (TX),,This sale made with another sales person ( Lisa Zhou),101612,"Confirmed $300 in Square (Receipt #9l2r) 10/31/17 Riho
**COD $2700**
App code: 08015G",TX,,
10/30/2017 9:40:10 AM,Tommy Geske,TX,77429,Relax2Zero 3D,DWA-9060USJ-9060BL,Black,New,,,,,4500.00,4214.20,285.80,Lisa Zhou,,300.00,687019,,,,,,,,,,,,,,,,,,,,,,11/10/2017 12:00:00 AM,No,"3 years parts, 1 year labor (Free)",Delivered,Health and Wellness Houston Store 2017 (TX),,This sales made With yi chuang(debbie)Yang,101627,"SQUARE DEPOSIT $300, Receipt #0mRn 
CLEARED BY ALICIA 10.31.17
App code:980996",TX,,
10/30/2017 9:40:10 AM,Tommy Geske,TX,77429,Chair Pad for Relax2Zero 3D,,,New,,,,,4500.00,4214.20,285.80,Lisa Zhou,,300.00,687019,,,,,,,,,,,,,,,,,,,,,,11/10/2017 12:00:00 AM,No,no warranty,Delivered,Health and Wellness Houston Store 2017 (TX),,This sales made With yi chuang(debbie)Yang,101627,"SQUARE DEPOSIT $300, Receipt #0mRn 
CLEARED BY ALICIA 10.31.17
App code:980996",TX,,
10/30/2017 9:40:10 AM,Tommy Geske,TX,77429,Foot Pads for Relax2Zero 3D,,,New,,,,,4500.00,4214.20,285.80,Lisa Zhou,,300.00,687019,,,,,,,,,,,,,,,,,,,,,,11/10/2017 12:00:00 AM,No,no warranty,Delivered,Health and Wellness Houston Store 2017 (TX),,This sales made With yi chuang(debbie)Yang,101627,"SQUARE DEPOSIT $300, Receipt #0mRn 
CLEARED BY ALICIA 10.31.17
App code:980996",TX,,
11/3/2017 10:28:06 AM,Samuel Robertson,TX,78382,Relax2Zero 2.0,USJ-9050USJ-9050BE,Beige,New,,,,,3462.92,3256.16,206.76,Xiongxiaojun Ji,,300.00,,,,,,,CreditCard,,,,,,,,,,,,,,,,11/15/2017 12:00:00 AM,No,"3 years parts, 1 year labor (Free)",Delivered,Health and Wellness Houston Store 2017 (TX),,,101672,"Deposit $300
Square #122311
Receipt #TiBr
Approval code: 90637B",TX,,
11/6/2017 8:38:50 AM,Phu Vo,TX,77040,Legacy,DWA-9100DWA-9100CH,Choco Brown,New,,,,,3800.00,3567.55,232.45,Lisa Zhou,,300.00,61WW,,,,,,,,,,,,,,,,,,,,,,,No,"3 years parts, 1 year labor (Free)",Cancelled,Health and Wellness Houston Store 2017 (TX),,"Customer has requier to be deliver after 12/23/2017,please call to confirm.thank you. This sale made with Yi Chuang Debbie yang and Ji .",101730,"This sale made with Lisa Zhou, Yi Chuang Debbie yang and ji, Change to Reddish brown, deliver on 12/23. a gift.
hold until 12/23/2017
SQUARE CLEARED BY ALICIA 11.6.17",Not Dispatched,,
11/6/2017 8:38:50 AM,Phu Vo,TX,77040,Chair Pad for Legacy,,,New,,,,,3800.00,3567.55,232.45,Lisa Zhou,,300.00,61WW,,,,,,,,,,,,,,,,,,,,,,,No,no warranty,Cancelled,Health and Wellness Houston Store 2017 (TX),,"Customer has requier to be deliver after 12/23/2017,please call to confirm.thank you. This sale made with Yi Chuang Debbie yang and Ji .",101730,"This sale made with Lisa Zhou, Yi Chuang Debbie yang and ji, Change to Reddish brown, deliver on 12/23. a gift.
hold until 12/23/2017
SQUARE CLEARED BY ALICIA 11.6.17",Not Dispatched,,
11/6/2017 8:38:50 AM,Phu Vo,TX,77040,Foot Pads for Legacy,,,New,,,,,3800.00,3567.55,232.45,Lisa Zhou,,300.00,61WW,,,,,,,,,,,,,,,,,,,,,,,No,no warranty,Cancelled,Health and Wellness Houston Store 2017 (TX),,"Customer has requier to be deliver after 12/23/2017,please call to confirm.thank you. This sale made with Yi Chuang Debbie yang and Ji .",101730,"This sale made with Lisa Zhou, Yi Chuang Debbie yang and ji, Change to Reddish brown, deliver on 12/23. a gift.
hold until 12/23/2017
SQUARE CLEARED BY ALICIA 11.6.17",Not Dispatched,,
11/8/2017 9:05:21 AM,ADL Enterprise ADL Enterprise,TX,77024,Legacy,DWA-9100DWA-9100BL,Black,New,,,,,3700.00,3475.17,224.83,Lisa Zhou,,300.00,8erq,,,,,,CreditCard,3400.00,07322G,,,,,,,0.00,,,,,,,11/14/2017 12:00:00 AM,No,"3 years parts, 1 year labor (Free)",Delivered,Health and Wellness Houston Store 2017 (TX),,,101761,"This order made with Lisa Zhou and yi chuang Debbie yang
$300 SQUARE CLEARED BY ALICIA 11.8.17, $3400 COD",TX,,
11/8/2017 9:05:21 AM,ADL Enterprise ADL Enterprise,TX,77024,Chair Pad for Legacy,,,New,,,,,3700.00,3475.17,224.83,Lisa Zhou,,300.00,8erq,,,,,,CreditCard,3400.00,07322G,,,,,,,0.00,,,,,,,11/14/2017 12:00:00 AM,No,no warranty,Delivered,Health and Wellness Houston Store 2017 (TX),,,101761,"This order made with Lisa Zhou and yi chuang Debbie yang
$300 SQUARE CLEARED BY ALICIA 11.8.17, $3400 COD",TX,,
11/8/2017 9:05:21 AM,ADL Enterprise ADL Enterprise,TX,77024,Foot Pads for Legacy,,,New,,,,,3700.00,3475.17,224.83,Lisa Zhou,,300.00,8erq,,,,,,CreditCard,3400.00,07322G,,,,,,,0.00,,,,,,,11/14/2017 12:00:00 AM,No,no warranty,Delivered,Health and Wellness Houston Store 2017 (TX),,,101761,"This order made with Lisa Zhou and yi chuang Debbie yang
$300 SQUARE CLEARED BY ALICIA 11.8.17, $3400 COD",TX,,
11/8/2017 1:49:59 PM,ADL Enterise,TX,77024,Legacy,DWA-9100DWA-9100BL,Black,New,,,,,3700.00,3475.17,224.83,Lisa Zhou,,300.00,,,,,,,CreditCard,,,,,,,,,,,,,,,,11/14/2017 12:00:00 AM,No,"3 years parts, 1 year labor (Free)",Delivered,Health and Wellness Houston Store 2017 (TX),,,101765,"Square receipt # 8erq
$300 CLEARED BY ALICIA 11.8.17, COD $3,400
App code:07322g",TX,,
11/8/2017 1:57:40 PM,Beei Chan,TX,77081,Legacy 3D,DWA-9150USJ-9150CH,Choco Brown,New,,,,,4871.25,4572.40,298.85,Xiongxiaojun Ji,,4871.25,YIOz,,,,,,,,,,,,,,,,,,,,,,11/14/2017 12:00:00 AM,No,"3 years parts, 3 years labor ($400)",Delivered,Health and Wellness Houston Store 2017 (TX),,,101766,"Salesperson: Ji and Debbie
Please help customer move one small sofa, so she can has the space to put our chair.
SQUARE CLEARED BY ALICIA 11.8.17, Receipt #YlOz",TX,,
11/26/2017 10:43:54 AM,Vi Truong,TX,77070,Relax2Zero 3D,DWA-9060USJ-9060BL,Black,New,,,,,5412.00,5056.70,355.30,Yichuang (Debbie) Yang,Synchrony,5400.00,,,6034610081663943,81693108,,,,0.00,,,,,,,,0.00,,,,,,,12/4/2017 12:00:00 AM,No,"3 years parts, 1 year labor (Free)",Delivered,Health and Wellness Houston Store 2017 (TX),,,102120,"pls charge texas synchrony before delivery - 11/27/17  Stephany
Auth#029551 - 11/30/2017 June",TX,0,8.25
11/29/2017 8:55:52 AM,Betty Pun,TX,77071,Legacy,DWA-9100DWA-9100CH,Choco Brown,New,,,,,3600.00,3600.00,0.00,Lisa Zhou,,300.00,,,,,,,CreditCard,3300.00,865914,,,,,,,0.00,,,,,,,12/19/2017 12:00:00 AM,No,"3 years parts, 1 year labor (Free)",Delivered,Health and Wellness Houston Store 2017 (TX),,,102183,"Sales person: Alan and Lisa
Customer changed chair color to black",TX,1,8.25
12/12/2017 1:46:13 PM,Shana Nguyen,TX,77077,Relax2Zero 1.0,USJ-9000USJ-9000KU,Black,New,,,,,3247.50,3057.16,190.34,Lisa Zhou,COD,300.00,,,,,,,CreditCard,2947.50,cJaV,,,,,,,0.00,,,,,,,12/22/2017 12:00:00 AM,No,"3 years parts, 1 year labor (Free)",Delivered,Health and Wellness Houston Store 2017 (TX),,,102421,"Sales person Lisa and Alan
Confirmed $300 in Square **COD $2947.50** 12/17/17 Riho
Receipt: cJaV",TX,0,8.25
12/12/2017 1:46:13 PM,Shana Nguyen,TX,77077,Chair Pad for Relax2Zero 1.0,,,New,,,,,3247.50,3057.16,190.34,Lisa Zhou,COD,300.00,,,,,,,CreditCard,2947.50,cJaV,,,,,,,0.00,,,,,,,12/22/2017 12:00:00 AM,No,no warranty,Delivered,Health and Wellness Houston Store 2017 (TX),,,102421,"Sales person Lisa and Alan
Confirmed $300 in Square **COD $2947.50** 12/17/17 Riho
Receipt: cJaV",TX,0,8.25
12/12/2017 1:46:13 PM,Shana Nguyen,TX,77077,Foot Pads for Relax2Zero 1.0,,,New,,,,,3247.50,3057.16,190.34,Lisa Zhou,COD,300.00,,,,,,,CreditCard,2947.50,cJaV,,,,,,,0.00,,,,,,,12/22/2017 12:00:00 AM,No,no warranty,Delivered,Health and Wellness Houston Store 2017 (TX),,,102421,"Sales person Lisa and Alan
Confirmed $300 in Square **COD $2947.50** 12/17/17 Riho
Receipt: cJaV",TX,0,8.25
12/17/2017 10:51:05 AM,Daniel Tran,TX,77406,Legacy,DWA-9100DWA-9100BL,Black,New,,,,,4330.00,4057.16,272.84,Yichuang (Debbie) Yang,CreditCard,300.00,i5S8,,,,,,CreditCard,4030.00,#00885B,,,,,,,0.00,,,,,,,1/5/2018 12:00:00 AM,No,"3 years parts, 1 year labor (Free)",Delivered,Health and Wellness Houston Store 2017 (TX),,1 dual tapper as free gift for customer,102538,"This sale made with yi chuang yang and Alan Zeng
confirmed $300 in Square. 12/18/17 Hitomi
$4030 cc paid through Patrick during delivery",TX,0,8.25
12/17/2017 10:51:05 AM,Daniel Tran,TX,77406,Chair Pad for Legacy,,,New,,,,,4330.00,4057.16,272.84,Yichuang (Debbie) Yang,CreditCard,300.00,i5S8,,,,,,CreditCard,4030.00,#00885B,,,,,,,0.00,,,,,,,1/5/2018 12:00:00 AM,No,no warranty,Delivered,Health and Wellness Houston Store 2017 (TX),,1 dual tapper as free gift for customer,102538,"This sale made with yi chuang yang and Alan Zeng
confirmed $300 in Square. 12/18/17 Hitomi
$4030 cc paid through Patrick during delivery",TX,0,8.25
12/17/2017 10:51:05 AM,Daniel Tran,TX,77406,Foot Pads for Legacy,,,New,,,,,4330.00,4057.16,272.84,Yichuang (Debbie) Yang,CreditCard,300.00,i5S8,,,,,,CreditCard,4030.00,#00885B,,,,,,,0.00,,,,,,,1/5/2018 12:00:00 AM,No,no warranty,Delivered,Health and Wellness Houston Store 2017 (TX),,1 dual tapper as free gift for customer,102538,"This sale made with yi chuang yang and Alan Zeng
confirmed $300 in Square. 12/18/17 Hitomi
$4030 cc paid through Patrick during delivery",TX,0,8.25
12/20/2017 10:03:12 AM,ILYAS BAIG,TX,77479,Legacy,DWA-9100DWA-9100CH,Choco Brown,New,,,,,3600.00,3600.00,0.00,Lisa Zhou,COD,300.00,,,,,,,,0.00,,,,,,,,0.00,,,,,,,,No,"3 years parts, 1 year labor (Free)",Cancelled,Health and Wellness Houston Store 2017 (TX),,,102597,"Sales by Alan and Lisa
need to double check with sales rep whether 1st payment was COD. 12/21/17 Hitomi",Not Dispatched,1,8.25
12/20/2017 10:14:49 AM,ILYAS BAIG,TX,77479,Legacy,DWA-9100DWA-9100CH,Choco Brown,New,,,,,3600.00,3600.00,0.00,Lisa Zhou,CreditCard,300.00,sgf9,,,,,,CreditCard,3300.00,#wpTt,,,,,,,0.00,,,,,,,1/3/2018 12:00:00 AM,No,"3 years parts, 1 year labor (Free)",Delivered,Health and Wellness Houston Store 2017 (TX),,,102599,"Sales person by Alan and Lisa
SQUARE $300 CLEARED BY ALICIA 12.21.17
$3300 paid by cc thorught Chris on square",TX,1,8.25
12/21/2017 1:09:05 PM,Thiem Le,TX,77478,Legacy,DWA-9100DWA-9100BL,Black,New,,,,,3500.00,3290.42,209.58,Lisa Zhou,CreditCard,300.00,frfU,,,,,,CreditCard,3200.00,#02522G,,,,,,,0.00,,,,,,,12/28/2017 12:00:00 AM,No,"3 years parts, 1 year labor (Free)",Delivered,Health and Wellness Houston Store 2017 (TX),,Price reduce because Mr Thien Le purchase 3 legacy chair in the same time .,102614,"This sales made from Lisa and yi chuang Debbie yang
ORDER #102616, #102615, #102614 PAID $300 DEPOSIT EACH, ONE TRANSACTION ON SQUARE FOR $900--ALICIA 12.21.17
Customer paid remaining balance during delivery for all 3 chairs( $9600 )",TX,0,8.25
12/21/2017 1:21:32 PM,Thuan (Thien Le) Nguyen,TX,77498,Legacy,DWA-9100DWA-9100BL,Black,New,,,,,3500.00,3290.42,209.58,Lisa Zhou,CreditCard,300.00,frfU,,,,,,CreditCard,3200.00,#02522G,,,,,,,0.00,,,,,,,12/28/2017 12:00:00 AM,No,"3 years parts, 1 year labor (Free)",Delivered,Health and Wellness Houston Store 2017 (TX),,This sale made with Lisa and yi chuang Debbie yang,102615,"This sales made with Lisa and Debbie yi chuang yang
ORDER #102616, #102615, #102614 PAID $300 DEPOSIT EACH, ONE TRANSACTION ON SQUARE FOR $900--ALICIA 12.21.17
Customer paid remaining balance during delivery for all 3 chairs( $9600 )",TX,0,8.25
12/21/2017 1:33:56 PM,Thong (Thien Le) Le,TX,77083,Legacy,DWA-9100DWA-9100BL,Black,New,,,,,3500.00,3290.42,209.58,Lisa Zhou,CreditCard,300.00,frfU,,,,,,CreditCard,3200.00,#02522G,,,,,,,0.00,,,,,,,12/28/2017 12:00:00 AM,No,"3 years parts, 1 year labor (Free)",Delivered,Health and Wellness Houston Store 2017 (TX),,This sales made with Lisa and yi chuang Debbie yang,102616,"''Tis sales made with Lisa and yi chuang Debbie yang
ORDER #102616, #102615, #102614 PAID $300 DEPOSIT EACH, ONE TRANSACTION ON SQUARE FOR $900--ALICIA 12.21.17
Customer paid remaining balance during delivery for all 3 chairs( $9600 )",TX,0,8.25
12/23/2017 12:21:18 PM,Pura Peralta,TX,77084,Legacy,DWA-9100DWA-9100CH,Choco Brown,New,,,,,4375.00,4098.73,276.27,Yichuang (Debbie) Yang,CreditCard,300.00,8sHR,,,,,,COD,0.00,,,,,,,,0.00,,,,,,,,No,"3 years parts, 1 year labor (Free)",Cancelled,Health and Wellness Houston Store 2017 (TX),,"Hot& cold pad for free
Oscillating massage belt for $45",102635,"Sales by Debbie and Alan, Lisa
confirmed $300 in Square. 12/26/17 Hitomi
Hold until 1/15/2017. June
01/17/18-Cristina noted- Per Tx June she has advised that 99 Ranch in Houston will issue refund for cancelled order as well as return gift given",TX,0,8.25
12/23/2017 5:46:21 PM,Jim Chen,TX,77096,Relax2Zero 1.0,USJ-9000USJ-9000BR,Brown,New,,,,,3247.50,3057.16,190.34,Alan Zeng,CreditCard,3247.50,NpoA,,,,,,,0.00,,,,,,,,0.00,,,,,,,12/28/2017 12:00:00 AM,No,"3 years parts, 1 year labor (Free)",Delivered,Health and Wellness Houston Store 2017 (TX),,,102643,"Sales by Alan, Lisa and Debbie
confirmed $3,247.50 in Square. 12/26/17 Hitomi",TX,0,8.25
12/28/2017 2:22:32 PM,Jesus Mejia,TX,77449,Relax2Zero 3D,DWA-9060USJ-9060BL,Black,New,,,,,4500.00,4214.20,285.80,Lisa Zhou,CreditCard,300.00,Rstd,,,,,,Cash,4200.00,,,,,,,,0.00,,,,,,,1/5/2018 12:00:00 AM,No,"3 years parts, 1 year labor (Free)",Delivered,Health and Wellness Houston Store 2017 (TX),,Sales made with Lisa zhou and yi chuang Debbie yang,102689,"Confirmed $300 in Square, *Please collect the remaining balance $4200* 12/29/17 Riho
$4200 Cash collected by Patrick",TX,0,8.25
12/29/2017 2:45:21 PM,Domin Liu,TX,77056,Legacy,DWA-9100DWA-9100BL,Black,New,,,,,3700.00,3475.17,224.83,Lisa Zhou,CreditCard,3700.00,daPD,,,,,,,0.00,,,,,,,,0.00,,,,,,,1/5/2018 12:00:00 AM,No,"3 years parts, 1 year labor (Free)",Delivered,Health and Wellness Houston Store 2017 (TX),,"This sales made with Lisa Zhou, yi chuang Debbie yang, Alan zen",102698,Confirmed $3700 in Square. 12/29/17 Riho,TX,0,8.25
1/5/2018 5:43:01 PM,Qichen Xu,TX,77449,Serenity,SSRT-1SSRT-1-BL-DEMO,Demo Black,Demo,,,,,3000.00,2828.52,171.48,Lisa Zhou,CreditCard,300.00,1Y28,,,,,,CreditCard,2700.00,009529,,,,,,,0.00,,,,,,,1/9/2018 12:00:00 AM,No,"3 years parts, 1 year labor (Free)",Delivered,Health and Wellness Houston Store 2017 (TX),,Open box with good condition please.,102741,"Sales made with Lisa Zhou and yi chuang Debbie yang
confirmed $300 in Square. 1/8/18 Hitomi",TX,0,8.25
1/6/2018 5:48:33 PM,Su Yi,TX,77494,Relax2Zero 3D,DWA-9060USJ-9060BR,Choco Brown,New,,,,,4300.00,4029.45,270.55,Lisa Zhou,CreditCard,300.00,0yj5,,,,,,CreditCard,4000.00,#01271D,,,,,,,0.00,,,,,,,1/6/2018 12:00:00 AM,No,"3 years parts, 1 year labor (Free)",Delivered,Health and Wellness Houston Store 2017 (TX),,1 figure trimmer as gift( already give to customer),102762,"Sales made with yi chuang yang , Lisa Zhou and Alan zen
confirmed $300 in Square. 1/8/18 Hitomi
$4000 cc paid through Patrick during delivery",TX,0,8.25
1/15/2018 2:12:55 PM,Ernesto Moran,TX,77429,Relax2Zero 1.0,USJ-9000USJ-9000BR,Brown,New,,,,,3000.00,2828.52,171.48,Yichuang (Debbie) Yang,CreditCard,300.00,tHpK,,,,,,Cash,2700.00,,,,,,,,0.00,,,,,,,2/2/2018 12:00:00 AM,No,"3 years parts, 1 year labor (Free)",Delivered,Health and Wellness Houston Store 2017 (TX),,Customer will pay remaining balance of $2700 in cash. Wave the charge for the second floor deliver.,103003,"confirmed $300 in Square. 1/15/18 Hitomi
$2,700 COD (Cash) Received by Mario. PerTX.2/15/18 Hitomi",TX,0,8.25
1/22/2018 10:53:52 AM,Thu dung Vo,TX,78736,Legacy,DWA-9100DWA-9100CH,Choco Brown,New,,,,,3500.00,3290.42,209.58,Yichuang (Debbie) Yang,CreditCard,3500.00,DWY4,,,,,,,0.00,,,,,,,,0.00,,,,,,,1/31/2018 12:00:00 AM,No,"3 years parts, 1 year labor (Free)",Delivered,Health and Wellness Houston Store 2017 (TX),,,103177,"This is match to sell (customer purchase with this price before )
confirmed $3,500 in Square. 1/22/18 Hitomi",TX,0,8.25
1/28/2018 1:45:39 PM,Xin Bing Feng,TX,77031,Serenity,SSRT-1SSRT-1-BL,Black,New,,,,,3500.00,3500.00,0.00,Lisa Zhou,CreditCard,300.00,jyja,,,,,,COD,3200.00,,,,,,,,0.00,,,,,,,2/7/2018 12:00:00 AM,No,"3 years parts, 1 year labor (Free)",Delivered,Health and Wellness Houston Store 2017 (TX),,,103330,"Sales by Alan, Debbie and Lisa
confirmed $300 in Square. 1/30/18 Hitomi",TX,1,8.25
2/8/2018 10:11:57 AM,Luis Morales,TX,77433,Relax2Zero 1.0,USJ-9000USJ-9000KU,Black,New,,,,,3000.00,2828.52,171.48,Yichuang (Debbie) Yang,CreditCard,300.00,d5A2,,,,,,Cash,0.00,,,,,,,,0.00,,,,,,,,No,"3 years parts, 1 year labor (Free)",Scheduled,Health and Wellness Houston Store 2017 (TX),,May change color before deliver,103537,"Customer will pay balance of $2700 in cash when deliver.
confirmed $300 in Square. 2/8/18 Hitomi
Change color from Black to brown.",TX,0,8.25
2/8/2018 2:43:31 PM,Raul Tulio,TX,77007,Relax2Zero 1.0,USJ-9000USJ-9000BR,Brown,New,,,,,3000.00,2828.52,171.48,Yichuang (Debbie) Yang,CreditCard,300.00,8udG,,,,,,Cash,2700.00,,,,,,,,0.00,,,,,,,,No,"3 years parts, 1 year labor (Free)",Scheduled,Health and Wellness Houston Store 2017 (TX),,,103541,"Sale made with yi chuang Debbie yang and Lisa Zhou
confirmed $300 in Square. 2/8/18 Hitomi",TX,0,8.25
2/10/2018 1:25:44 PM,Susan Suvaus,TX,77040,Relax2Zero 1.0,USJ-9000USJ-9000BR,Brown,New,,,,,3246.42,3056.16,190.26,Alan Zeng,CreditCard,300.00,#DmN3,,,,,,Cash,0.00,,,,,,,,0.00,,,,,,,,No,"3 years parts, 1 year labor (Free)",Scheduled,Health and Wellness Houston Store 2017 (TX),,,103573,"Sales by Alan and Lisa
confirmed $300 in Square. 2/12/18 Hitomi",TX,0,8.25
2/17/2018 1:28:35 PM,Vu Tran,TX,77546,Legacy,DWA-9100DWA-9100CH,Choco Brown,New,,,,,4330.00,4057.16,272.84,Alan Zeng,CreditCard,300.00,GJiz,,,,,,COD,0.00,,,,,,,,0.00,,,,,,,,No,"3 years parts, 1 year labor (Free)",Scheduled,Health and Wellness Houston Store 2017 (TX),,,103758,"Sale by Alan
confirmed $300 in Square. 2/19/18 Hitomi",TX,0,8.25
2/18/2018 2:36:27 PM,Nguyen Diep,TX,77068,Relax2Zero 1.0,USJ-9000USJ-9000CR,Cream,New,,,,,3000.00,3000.00,0.00,Yichuang (Debbie) Yang,CreditCard,3000.00,tsNz,,,,,,,0.00,,,,,,,,0.00,,,,,,,,No,"3 years parts, 1 year labor (Free)",Scheduled,Health and Wellness Houston Store 2017 (TX),,,103805,"Sales by Alan,Debbie and Lisa
confirmed $3,000 in Square.(cash). 2/19/18 Hitomi",TX,1,8.25
2/18/2018 3:30:51 PM,Phuong Le,TX,77066,Relax2Zero 1.0,USJ-9000USJ-9000CR,Cream,New,,,,,3000.00,3000.00,0.00,Yichuang (Debbie) Yang,CreditCard,3000.00,5K0u,,,,,,,0.00,,,,,,,,0.00,,,,,,,,No,"3 years parts, 1 year labor (Free)",Scheduled,Health and Wellness Houston Store 2017 (TX),,,103807,"Sales by Debbie, Alan and Lisa
confirmed $3,000 in Square. 2/19/18 Hitomi",TX,1,8.25
2/25/2018 11:24:49 AM,Joseph Trevino,CA,90723,Legacy,DWA-9100DWA-9100BU,New Choco,New,,,,,3897.00,3897.00,0.00,KHOA H,CreditCard,397.00,57rQ,,,,,,,0.00,,,,,,,,0.00,,,,,,,,No,"3 years parts, 1 year labor (Free)",Called,Health and Wellness Houston Store 2017 (TX),,"Customer paid deposit $397.
Ballance $3500 will be paid upon delivery.",103959,"birthday gift, to time sensitive
confirmed $397 in Square. COD$3,500. 2/26/18 Hitomi
02/27/18-printed",CA,1,8.25
