﻿Original Event Name,Event Name,Sales Person,Order Number,Order Date,Customer Name,State,Zip,Product Name,Color,Product Status,QTY,Tax,Total Before Tax,Order Total,Primary Payment Method,Second Payment Method,Thirdl Payment Method,Warranty,Order Items,Pick up,Delivered On,Order Status,Chair Type,Order Notes,Private Note,Branch,No Tax,Actual Tax Rate,SKU,Primary Payment Balance,Primary Authorize Number,Primary Purchase Order Number,Primary Synchrony Account Number,Primary Synchrony Application Key,Primary Synchrony Account Info,Primary Synchrony Term,Second Payment Balance,Second Authorize Number,Second Purchase Order Number,Second Synchrony Account Number,Second Synchrony Application Key,Second Synchrony Account Info,Second SynchronyTerm,Third Payment Balance,Third Authorize Number,Third Purchase Order Number,Third Synchrony Account Number,Third Synchrony Application Key,Third Synchrony Account Info,Third Synchrony Term
INT'L ESTHETICS COSMETICS & SPA 6/23-25/18 LAS VEGAS (NV),INT'L ESTHETICS COSMETICS & SPA 6/23-25/18 LAS VEGAS (NV),May Kam,106993,6/24/2018 6:56:13 AM,Erica Rowe,AZ,85298,Legacy 3D,New Black,New,1,0.00,3960.00,3960.00,Synchrony,,,"3 years parts, 1 year labor (Free)","Legacy 3D,Daiwa Blanket,Tourmaline Pad for Legacy 3D,",No,6/28/2018 12:00:00 AM,Delivered,,"Pls make finance purchasing $3960, Thanks","WARRANTY: 4 years parts, 1 year labor//Confirmed synchrony account ($5,500) and application was confirmed. ***Please charge before delivery and have sales draft signed. *** 6/25/18 Hitomi
CHARGED  # 026471 3960 STEPHANY - 06/26/18
COURTESY CALL DONE MAILBOX FULL - 06/27/18 STEPHANY",NV,1,8.25,DWA-9150USJ-9150BL,3960.00,,,6034610083347859,90681926,Huston,36 months,0.00,,,,,,,0.00,,,,,,
INT'L ESTHETICS COSMETICS & SPA 6/23-25/18 LAS VEGAS (NV),INT'L ESTHETICS COSMETICS & SPA 6/23-25/18 LAS VEGAS (NV),Kohei Uno,106994,6/24/2018 8:56:09 AM,Leland Vance,UT,84047,Pegasus,New Choco,New,1,0.00,5000.00,5000.00,Synchrony,,,"3 years parts, 3 years labor ($400)","Pegasus,Tourmaline Pad for Pegasus,",No,7/8/2018 12:00:00 AM,Delivered,,,"Confirmed synchrony account ($5,000) original needs to be confirmed. 6/25/18 Hitomi//original is confirmed. **Please charge before delivery and have sales draft signed. ***6/26/18 Hitomi
COURTESY CALL DONE LEFT VM - 06/27/18 STEPHANY
SYNCHRONY CHARGED # 003437 $5000 - 07/03/18 STEPHANY",NV,1,8.25,DWA-9400Pegasus-BR,5000.00,,,6034610083346653,90664350,San Diego,36 months,0.00,,,,,,,0.00,,,,,,
INT'L ESTHETICS COSMETICS & SPA 6/23-25/18 LAS VEGAS (NV),INT'L ESTHETICS COSMETICS & SPA 6/23-25/18 LAS VEGAS (NV),Kohei Uno,107008,6/24/2018 7:31:52 PM,Karen Rosett,CA,91301,Relax2Zero 3D,New Black,New,1,0.00,4200.00,4200.00,Synchrony,,,"3 years parts, 1 year labor (Free)","Relax2Zero 3D,Tourmaline Pad for Relax2Zero 3D,",No,7/13/2018 12:00:00 AM,Delivered,,,"Confirmed synchrony account ($8,500) original needs to be confirmed. 6/25/18 Hitomi//original is confirmed. ***Please charge before delivery and have sales draft signed. ***
6/29MaritzaPRINTED",CA,1,8.25,DWA-9060USJ-9060BL,4200.00,,,6034610083349277,90713418,Las Vegas,36 months,0.00,,,,,,,0.00,,,,,,
INT'L ESTHETICS COSMETICS & SPA 6/23-25/18 LAS VEGAS (NV),INT'L ESTHETICS COSMETICS & SPA 6/23-25/18 LAS VEGAS (NV),Kohei Uno,107009,6/24/2018 7:39:06 PM,Maria Garcia,TX,79935,Relax2Zero 3D,New Black,New,1,0.00,4000.00,4000.00,CreditCard,,,"3 years parts, 1 year labor (Free)","Relax2Zero 3D,Tourmaline Pad for Relax2Zero 3D,",No,7/5/2018 12:00:00 AM,Delivered,,,"Confirmed $4,000 in Square. 6/25/18 Hitomi
06/27/18- Courtesy call completed- Cristina- 4:32 pm",TX,1,8.25,DWA-9060USJ-9060BL,4000.00,Square# Olr4,,,,,,0.00,,,,,,,0.00,,,,,,
INT'L ESTHETICS COSMETICS & SPA 6/23-25/18 LAS VEGAS (NV),INT'L ESTHETICS COSMETICS & SPA 6/23-25/18 LAS VEGAS (NV),Kohei Uno,107010,6/24/2018 7:43:06 PM,Ageless Aesthetics,VA,22553,Pegasus,New Choco,New,1,0.00,5200.00,5200.00,CreditCard,,,"3 years parts, 1 year labor (Free)","Pegasus,Tourmaline Pad for Pegasus,",No,,Cancelled,,,"COnfirmed $5,200 in Square.  6/25/18 Hitomi
06/27/18- Courtesy call completed- Cristina 4:32pm",TX,1,8.25,DWA-9400Pegasus-BR,5200.00,Square# 9lUU,,,,,,0.00,,,,,,,0.00,,,,,,
INT'L ESTHETICS COSMETICS & SPA 6/23-25/18 LAS VEGAS (NV),INT'L ESTHETICS COSMETICS & SPA 6/23-25/18 LAS VEGAS (NV),Li Chen,107018,6/24/2018 9:06:41 PM,James Furvyama,HI,96825,Relax2Zero 3D,New Choco,New,1,0.00,3996.00,3996.00,Synchrony,,,"3 years parts, 1 year labor (Free)","Relax2Zero 3D,",No,,Cancelled,,,"will confirme detail and synchrony form.  6/25/18 Hitomi ///Confirmed synchrony account is under JONATHON  IIDA ($8,500) and original. James Furvyama is father in law of synchrony account is Jonatha.",Not Dispatched,1,8.25,DWA-9060USJ-9060BR,3996.00,,,6034610083348089,90691394,Las Vegas,36 months,0.00,,,,,,,0.00,,,,,,
INT'L ESTHETICS COSMETICS & SPA 6/23-25/18 LAS VEGAS (NV),INT'L ESTHETICS COSMETICS & SPA 6/23-25/18 LAS VEGAS (NV),Li Chen,107021,6/24/2018 9:30:35 PM,Jacob Bogatin,VA,20165,Relax2Zero 3D,New Choco,New,2,0.00,7000.00,7000.00,CreditCard,COD,,"3 years parts, 1 year labor (Free)","Relax2Zero 3D,",No,6/28/2018 12:00:00 AM,Delivered,,Please make best effort to deliver chairs before 07/01/2018 grand opening day of the business.,"COnfirmed $100 in Square. COD$6,900. 6/25/18 Hitomi
SECOND CHAIR SERIAL #0103002170390 DELIVERY DATE FOR BOTH CHAIRS IS JULY 6TH 2018!! - STEPHANY 07/17/18",TX,1,8.25,DWA-9060USJ-9060BR,100.00,Square# p4RP,,,,,,6900.00,,,,,,,0.00,,,,,,
INT'L ESTHETICS COSMETICS & SPA 6/23-25/18 LAS VEGAS (NV),INT'L ESTHETICS COSMETICS & SPA 6/23-25/18 LAS VEGAS (NV),May Kam,107024,6/24/2018 10:10:26 PM,Wendy Barshell,AZ,86406,Relax2Zero 3D,Demo Choco,Demo,1,0.00,3850.00,3850.00,CreditCard,COD,,"3 years parts, 1 year labor (Free)","Relax2Zero 3D,Tourmaline Pad for Relax2Zero 3D,Daiwa Blanket,",No,6/29/2018 12:00:00 AM,Delivered,,"Special discount for one time payment, Balance $3650 as COD; Good Condition Request and deep clean, Thanks","Confirmed $200 in Square. COD$3,650. 6/25/18 Hitomi
COURTESY CALL DONE LEFT VM - 06/27/18 STEPHANY 4:58PM",NV,1,8.25,DWA-9060USJ-9060BR-DEMO,200.00,#qHaq,,,,,,3650.00,,,,,,,0.00,,,,,,
INT'L ESTHETICS COSMETICS & SPA 6/23-25/18 LAS VEGAS (NV),INT'L ESTHETICS COSMETICS & SPA 6/23-25/18 LAS VEGAS (NV),Kohei Uno,107058,6/25/2018 9:51:53 PM,Sheila Delorenzo,CO,80907,Relax2Zero 3D,New Black,New,2,0.00,7300.00,7300.00,Synchrony,CreditCard,,"3 years parts, 1 year labor (Free)","Relax2Zero 3D,Tourmaline Pad for Relax2Zero 3D,",No,7/21/2018 12:00:00 AM,Delivered,,Remaining balance of $2800 (C.O.D),"Confirmed synchrony account ($4,500) and original. ***Please charge before delivery and sales draft signed. COD $2,800*** 6/26/18 Hitomi
COD $2,800 was paid by C.C. confirmed Approval#07089Z on WF. 7/26/18 Riho",TX,1,8.25,DWA-9060USJ-9060BL,4500.00,,,6034610083350069,90746576,Las Vegas,24 months,2800.00,07089Z,,,,,,0.00,,,,,,
INT'L ESTHETICS COSMETICS & SPA 6/23-25/18 LAS VEGAS (NV),INT'L ESTHETICS COSMETICS & SPA 6/23-25/18 LAS VEGAS (NV),Li Chen,107059,6/25/2018 10:02:22 PM,Elizabeth Holt,NV,89117,Relax2Zero 3D,Demo Choco,Demo,1,0.00,3500.00,3500.00,CreditCard,,,"3 years parts, 1 year labor (Free)","Relax2Zero 3D,",No,6/26/2018 12:00:00 AM,Delivered,,,"COnfirmed $3,500 in Square. 6/26/18 Hitomi
Delivered by Rex & Kohei 6/26/2018",NV,1,8.25,DWA-9060USJ-9060BR-DEMO,3500.00,Square# cmL4,,,,,,0.00,,,,,,,0.00,,,,,,
INT'L ESTHETICS COSMETICS & SPA 6/23-25/18 LAS VEGAS (NV),INT'L ESTHETICS COSMETICS & SPA 6/23-25/18 LAS VEGAS (NV),Kohei Uno,107060,6/25/2018 10:09:15 PM,Winston Keliikipi,HI,96707,Pegasus,New Black,New,1,0.00,5200.00,5200.00,CreditCard,,,"3 years parts, 1 year labor (Free)","Pegasus,Tourmaline Pad for Pegasus,Daiwa Blanket,",No,7/10/2018 12:00:00 AM,Delivered,,,"COnfirmed $5,200 in Square. 6/26/18 Hitomi
COURTESY CALL DONE LEFT VM - 06/27/18 STEPHANT 2:17PM",HI,1,8.25,DWA-9400Pegasus-BL,5200.00,Square# 8Z21,,,,,,0.00,,,,,,,0.00,,,,,,
INT'L ESTHETICS COSMETICS & SPA 6/23-25/18 LAS VEGAS (NV),INT'L ESTHETICS COSMETICS & SPA 6/23-25/18 LAS VEGAS (NV),Kohei Uno,107061,6/25/2018 10:13:24 PM,Shiloh Knight,AZ,85225,Relax2Zero 3D,New Black,New,1,0.00,4500.00,4500.00,CreditCard,Cash,,"3 years parts, 1 year labor (Free)","Relax2Zero 3D,Tourmaline Pad for Relax2Zero 3D,",No,6/28/2018 12:00:00 AM,Delivered,,Remaining balance of $2500 (C.O.D),"COnfirmed $2,000 in Square. COD$2,500. 6/26/18 Hitomi
06/27/18- Courtesy call completed- Cristina 5:02 pm
CASH RECEIVED BY REX 06/28/18 - STEPHANY 07/06/18
Hide confirmed $2,500 at LV office, received the confirmation. 7/25/18 Riho",NV,1,8.25,DWA-9060USJ-9060BL,2000.00,Square# uGET,,,,,,2500.00,,,,,,,0.00,,,,,,
INT'L ESTHETICS COSMETICS & SPA 6/23-25/18 LAS VEGAS (NV),INT'L ESTHETICS COSMETICS & SPA 6/23-25/18 LAS VEGAS (NV),May Kam,107062,6/26/2018 4:27:13 AM,Bonnie Young,CA,91792,Legacy 3D,Demo Black,Demo,1,0.00,3500.00,3500.00,CreditCard,CreditCard,,"3 years parts, 1 year labor (Free)","Legacy 3D,Daiwa Blanket,Tourmaline Pad for Legacy 3D,",No,7/12/2018 12:00:00 AM,Delivered,,"Special discount for one time payment, balance $3300 as COD ( by CC), Thanks","COnfirmed $200 in Square. COD$3,300. 6/26/18 Hitomi PRINTED
COD $3,300 was paid through Housecall Pro ($1300/$2000). 7/17/18 Riho",CA,1,8.25,DWA-9150USJ-9150BL-DEMO,200.00,#kQ98,,,,,,3300.00,housecall pro,,,,,,0.00,,,,,,
INT'L ESTHETICS COSMETICS & SPA 6/23-25/18 LAS VEGAS (NV),INT'L ESTHETICS COSMETICS & SPA 6/23-25/18 LAS VEGAS (NV),May Kam,107063,6/26/2018 4:35:24 AM,Namiyo Hemphill,CA,92677,Legacy 3D,New Black,New,1,0.00,3700.00,3700.00,CreditCard,CreditCard,,"3 years parts, 1 year labor (Free)","Legacy 3D,Daiwa Blanket,Tourmaline Pad for Legacy 3D,",No,7/6/2018 12:00:00 AM,Delivered,,"Bring old chair back as trading in , balance $3500, Thanks","Correction: Total amount is $4,000, per May.
Confirmed $200 in Square. COD$3,500. 6/26/18 Hitomi
We charged $3800 through square here at the office. SQ#9RF5",CA,1,8.25,DWA-9150USJ-9150BL,200.00,#5kJM,,,,,,3800.00,SQ# 9RF5,,,,,,0.00,,,,,,
INT'L ESTHETICS COSMETICS & SPA 6/23-25/18 LAS VEGAS (NV),INT'L ESTHETICS COSMETICS & SPA 6/23-25/18 LAS VEGAS (NV),May Kam,107064,6/26/2018 4:46:59 AM,Shawna Davidsmeier,ID,83709,Legacy 3D,Demo Black,Demo,1,0.00,3800.00,3800.00,Synchrony,,,"3 years parts, 1 year labor (Free)","Legacy 3D,Daiwa Blanket,Tourmaline Pad for Legacy 3D,",No,,Cancelled,,"Special discount for two chairs together; Pls make finance purchasing 
$3800, Thanks","Confirmed synchrony account ($8,500) and original form.***Please charge before delivery and have sales draft signed. *** 6/26/18 Hitomi
PER MAY PLEASE CANCEL - 06/27/18 STEPHANY",WA,1,8.25,DWA-9150USJ-9150BL-DEMO,3800.00,,,6034610083350655,90764492,Huston,36 months,0.00,,,,,,,0.00,,,,,,
INT'L ESTHETICS COSMETICS & SPA 6/23-25/18 LAS VEGAS (NV),INT'L ESTHETICS COSMETICS & SPA 6/23-25/18 LAS VEGAS (NV),May Kam,107065,6/26/2018 4:58:57 AM,Brenda Colson,ID,83709,Legacy 3D,Demo Black,Demo,1,0.00,3800.00,3800.00,Synchrony,,,"3 years parts, 1 year labor (Free)","Legacy 3D,Daiwa Blanket,Tourmaline Pad for Legacy 3D,",No,6/30/2018 12:00:00 AM,Delivered,,"Pls make finance purchase $3800, two chairs together special discount, Manager approval, Another Phone is 2086720213, Thanks","Confirmed synchrony account ($3,800) and original. ***Please charge before delivery and have sales draft signed. *** 6/26/18 Hitomi 
# 027072 AUTH $3800 - 06/27/18 STEPHANY",WA,1,8.25,DWA-9150USJ-9150BL-DEMO,3800.00,,,6034610083350648,90764340,Huston,36 months,0.00,,,,,,,0.00,,,,,,
INT'L ESTHETICS COSMETICS & SPA 6/23-25/18 LAS VEGAS (NV),INT'L ESTHETICS COSMETICS & SPA 6/23-25/18 LAS VEGAS (NV),May Kam,107066,6/26/2018 5:55:50 AM,Ida Albo,MB,R3C 1E5,Legacy 3D,New Choco,New,3,0.00,10590.00,10590.00,CreditCard,CreditCard,,3 Years Parts (International),"Legacy 3D,",No,,Cancelled,,"Pls see attached payment plan form for balance $4590; if duty fee over $200 per chair, we will pay half for it, Thanks
ZIP is R3C OR3
Since the customer will buy more Chair from us, as the 1st time, Tourmaline pad  and Blankets each one for per chair as gift free, President approval , thanks","Deposit $6,000 confirmed in Square. 6/26/18 Hitomi
07/31/18- Cristinan refunded once. threw sq. multiple orders",CA,1,8.25,DWA-9150USJ-9150CH,6000.00,#t6jm,,,,,,4590.00,Payment plan,,,,,,0.00,,,,,,
INT'L ESTHETICS COSMETICS & SPA 6/23-25/18 LAS VEGAS (NV),INT'L ESTHETICS COSMETICS & SPA 6/23-25/18 LAS VEGAS (NV),May Kam,107067,6/26/2018 6:18:04 AM,Ida Albo,MB,R3C 1E5,Legacy 3D,New Choco,New,3,0.00,10590.00,10590.00,CreditCard,CreditCard,,3 Years Parts (International),"Legacy 3D,Daiwa Blanket,Tourmaline Pad for Legacy 3D,",No,,Cancelled,,"If Duty fee over $200 per chair, we will pay half for the customer, President 
approval; with Order #107066 
together; Zip : R3M oR3;

Since the system can’t enter 2nd time the customer email address, pls email Daiwa space receipt to idaalbo222@gmail.com , thank u so much for your help!","Deposit $6,000 confirmed in Square. 6/26/18 Hitomi
07/31/18- Cristina issued refund on Sq. 12,000.00",CA,1,8.25,DWA-9150USJ-9150CH,6000.00,#t6jm,,,,,,4590.00,Payment plan,,,,,,0.00,,,,,,
INT'L ESTHETICS COSMETICS & SPA 6/23-25/18 LAS VEGAS (NV),INT'L ESTHETICS COSMETICS & SPA 6/23-25/18 LAS VEGAS (NV),May Kam,107068,6/26/2018 6:35:44 AM,Ida Albo,MB,R3M 0R3,Pegasus,New Choco,New,1,0.00,4050.00,4050.00,CreditCard,CreditCard,,3 Years Parts (International),"Pegasus,Tourmaline Pad for Pegasus,Daiwa Blanket,",No,,Cancelled,,"With Order 107066 -67 together; duty fee same condition, Thanks; Pls email the Daiwa space receipt to idaalbo222@gmail.com ,thank u so much for your help","Deposit $2,000 confirmed in Square. 6/26/18 Hitomi
07/31/18- Cristina Refunded Sq. $4,000.00 Deposit; Customer has asked to contact her late September to try sale again",CA,1,8.25,DWA-9400Pegasus-BR,2000.00,#hWCZ,,,,,,2050.00,Payment plan,,,,,,0.00,,,,,,
INT'L ESTHETICS COSMETICS & SPA 6/23-25/18 LAS VEGAS (NV),INT'L ESTHETICS COSMETICS & SPA 6/23-25/18 LAS VEGAS (NV),May Kam,107069,6/26/2018 8:00:35 AM,Ida Albo,MB,R3M 0R3,Pegasus,New Choco,New,1,0.00,4050.00,4050.00,CreditCard,CreditCard,,3 Years Parts (International),"Pegasus,Tourmaline Pad for Pegasus,Daiwa Blanket,",No,,Cancelled,,"With Order 107066,67,68 together; Dity fee same condition, President approval Thanks; Pls help email Daiwa space receipt to the customer email : idaalbo222@gmail.com","Deposit $2,000 confirmed in Square. 6/26/18 Hitomi
07/31/18-Cristina - refunded threw sq.  once multip. orders",CA,1,8.25,DWA-9400Pegasus-BR,2000.00,#hWCZ,,,,,,2050.00,Payment plan,,,,,,0.00,,,,,,
INT'L ESTHETICS COSMETICS & SPA 6/23-25/18 LAS VEGAS (NV),INT'L ESTHETICS COSMETICS & SPA 6/23-25/18 LAS VEGAS (NV),May Kam,107073,6/26/2018 8:51:29 AM,Amanda Brothers,WI,54157,Relax2Zero 3D,New Choco,New,1,0.00,4500.00,4500.00,Synchrony,,,"3 years parts, 1 year labor (Free)","Relax2Zero 3D,Tourmaline Pad for Relax2Zero 3D,Daiwa Blanket,",No,7/7/2018 12:00:00 AM,Delivered,,"Pls make finance $4500 purchase, Thanks","COnfirmed synchrony account ($5,400) and original. ***Please charge before delivery and have sales draft signed.*** 6/26/18 Hitomi
COURTESY CALL DONE LEFT VM - 06/26/18 STEPHANY 2:53PM",TX,1,8.25,DWA-9060USJ-9060BR,4500.00,,,6034610083347842,90681729,Huston,36 months,0.00,,,,,,,0.00,,,,,,
INT'L ESTHETICS COSMETICS & SPA 6/23-25/18 LAS VEGAS (NV),INT'L ESTHETICS COSMETICS & SPA 6/23-25/18 LAS VEGAS (NV),May Kam,107076,6/26/2018 10:18:21 AM,Regina Sanchez,TX,78634,Legacy 3D,New Black,New,1,0.00,4230.00,4230.00,Synchrony,CreditCard,,"3 years parts, 1 year labor (Free)","Legacy 3D,Daiwa Blanket,Tourmaline Pad for Legacy 3D,",No,6/30/2018 12:00:00 AM,Delivered,,"Pls make finance $3500 purchase only, balance $730 will be paid by COD , 
President approval. Another phone is 5126426591.","Confirmed synchrony account ($3,500) and original. ***Please charge $3,500 and COD$730(will pay in credit card), sign sales draft. *** 6/26/18 Hitomi
COURSTESY CALL DONE LEFT VM 2:03 PM - STEPHANY 06/26/18",TX,1,8.25,DWA-9150USJ-9150BL,3500.00,,,6034610083350663,90764597,Huston,24 months,730.00,012203,,,,,,0.00,,,,,,
INT'L ESTHETICS COSMETICS & SPA 6/23-25/18 LAS VEGAS (NV),INT'L ESTHETICS COSMETICS & SPA 6/23-25/18 LAS VEGAS (NV),May Kam,107077,6/26/2018 10:39:15 AM,Tara Gerrits,GA,30436,Legacy 3D,New Black,New,1,0.00,4500.00,4500.00,CreditCard,CreditCard,PurchaseOrder,"3 years parts, 1 year labor (Free)","Legacy 3D,Daiwa Blanket,Tourmaline Pad for Legacy 3D,",No,10/3/2018 12:00:00 AM,Delivered,,"Hold the price 1-2 month, the customer may make finance apply, take form already. Another phone is 9123888006","Customer Email: facepro101@yahoo.com
COnfirmed $100 in Square. Place on hold. 6/26/18 Hitomi//Please charge COD $1,900. Layaway $2,500. Layaway form is confirmed and passed it to Stephany. Please let Stephany know after the delivery. 9/25/18 Hitomi
10/9/18-Received delivery conf.",FL,1,8.25,DWA-9150USJ-9150BL,100.00,#ER9A,,,,,,1900.00,House call Pro #911,,,,,,2500.00,,LAYAWAY,,,,
INT'L ESTHETICS COSMETICS & SPA 6/23-25/18 LAS VEGAS (NV),INT'L ESTHETICS COSMETICS & SPA 6/23-25/18 LAS VEGAS (NV),May Kam,107078,6/26/2018 10:54:38 AM,Diana Cartaqena,AZ,85706,Relax2Zero 3D,New Black,New,1,0.00,4500.00,4500.00,CreditCard,COD,,"3 years parts, 1 year labor (Free)","Relax2Zero 3D,Tourmaline Pad for Relax2Zero 3D,Daiwa Blanket,",No,,Hold,,"The Customer daughter will make appointment at TX Dallas branch to try. Chair about Aug , 2018, color maybe change.","Confirmed $100 in Square. COD $4,400. 6/26/18 Hitomi",NV,1,8.25,DWA-9060USJ-9060BL,100.00,#OCy4,,,,,,4400.00,,,,,,,0.00,,,,,,
INT'L ESTHETICS COSMETICS & SPA 6/23-25/18 LAS VEGAS (NV),INT'L ESTHETICS COSMETICS & SPA 6/23-25/18 LAS VEGAS (NV),May Kam,107083,6/26/2018 3:13:48 PM,Mr & Mrs Kim & Brad Olson,MN,55744,Pegasus,New Black,New,1,0.00,4900.00,4900.00,CreditCard,CreditCard,,"3 years parts, 1 year labor (Free)","Pegasus,Tourmaline Pad for Pegasus,Daiwa Blanket,",No,7/7/2018 12:00:00 AM,Delivered,,Special discount for payment plan- 2 month for balance $2900,"Confirmed $2,000 in Square. 6/26/18 Hitomi
courtesy call done left vm 06/26*/18 stephany",TX,1,8.25,DWA-9400Pegasus-BL,2000.00,#zN00,,,,,,2900.00,Layaway,,,,,,0.00,,,,,,
INT'L ESTHETICS COSMETICS & SPA 6/23-25/18 LAS VEGAS (NV),INT'L ESTHETICS COSMETICS & SPA 6/23-25/18 LAS VEGAS (NV),Li Chen,107100,6/27/2018 12:26:08 PM,James Furvyama,HI,96825,Relax2Zero 3D,New Choco,New,1,0.00,4000.00,4000.00,Synchrony,,,"3 years parts, 1 year labor (Free)","Relax2Zero 3D,",No,7/13/2018 12:00:00 AM,Delivered,,,"correction for 107018 ///Confirmed synchrony account is under JONATHON  IIDA ($8,500) and original. (James Furvyama is father in law of Jonathan.)**Please charge before delivery and have sales draft signed. *** 6/27/18 Hitomi
COURTESY CALL DONE SPOKE WITH JONATHAN 06/27/18 STEPHANY
CHARGED SYNCHRONY AUTH  # 010410 $4000 STEPHANY 07/10/18",HI,1,8.25,DWA-9060USJ-9060BR,4000.00,,,6034610083348089,90691394,Las Vegas,36 months,0.00,,,,,,,0.00,,,,,,
