﻿Date,CustomerName,State,Zipcode,Description,productNo,Color,IsDemo,Net,ShippingFee,GiftPrice,FinancingProcessingFee,Gross,Pre_tax,Tax,Commission,Primary Payment Method,Primary Payment Balance,Primary Authorize Number,Primary Purchase Order Number,Primary Synchrony Account Number,Primary Synchrony Application Key,Primary Synchrony AccountInfo,Primary SynchronyTerm,Secondly Payment Method,Secondly Payment Balance,Secondly Authorize Number,Secondly Purchase Order Number,Secondly Synchrony Account Number,Secondly Synchrony Application Key,Secondly Synchrony AccountInfo,Secondly SynchronyTerm,Thirdly Payment Method,Thirdly Payment Balance,Thirdly Authorize Number,Thirdly Purchase Order Number,Thirdly Synchrony Account Number,Thirdly Synchrony Application Key,Thirdly Synchrony AccountInfo,Thirdly SynchronyTerm,DeliveryDate,Ispickup,Warranty,Status,Event Name,Synchrony Notes,Order Notes,Order number,Private Note,Branch,IsNoTax,ActualTaxRate
2/8/2018 10:11:57 AM,Luis Morales,TX,77433,Relax2Zero 1.0,USJ-9000USJ-9000KU,Black,New,,,,,3000.00,2828.52,171.48,Yichuang (Debbie) Yang,CreditCard,300.00,d5A2,,,,,,Cash,2700.00,,,,,,,,0.00,,,,,,,2/13/2018 12:00:00 AM,No,"3 years parts, 1 year labor (Free)",Delivered,Health and Wellness Houston Store 2017 (TX),,May change color before deliver,103537,"Customer will pay balance of $2700 in cash when deliver.
confirmed $300 in Square. 2/8/18 Hitomi
Change color from Black to brown.
Mario received COD $2,700 cash.received the confirmation. 3/5/18 Hitomi",TX,0,8.25
2/8/2018 2:43:31 PM,Raul Tulio,TX,77007,Relax2Zero 1.0,USJ-9000USJ-9000BR,Brown,New,,,,,3000.00,2828.52,171.48,Yichuang (Debbie) Yang,CreditCard,300.00,8udG,,,,,,Cash,2700.00,,,,,,,,0.00,,,,,,,2/13/2018 12:00:00 AM,No,"3 years parts, 1 year labor (Free)",Delivered,Health and Wellness Houston Store 2017 (TX),,,103541,"Sale made with yi chuang Debbie yang and Lisa Zhou
confirmed $300 in Square. 2/8/18 Hitomi
Mario received COD $2,700 cash.received the confirmation. 3/9/18 Hitomi",TX,0,8.25
2/10/2018 1:25:44 PM,Susan Suvaus,TX,77040,Relax2Zero 1.0,USJ-9000USJ-9000BR,Brown,New,,,,,3246.42,3056.16,190.26,Alan Zeng,CreditCard,300.00,#DmN3,,,,,,Cash,2946.42,,,,,,,,0.00,,,,,,,2/19/2018 12:00:00 AM,No,"3 years parts, 1 year labor (Free)",Delivered,Health and Wellness Houston Store 2017 (TX),,,103573,"Sales by Alan and Lisa
confirmed $300 in Square. 2/12/18 Hitomi
Mario received COD $2,946.42 cash.received the confirmation. 3/5/18 Hitomi",TX,0,8.25
2/17/2018 1:28:35 PM,Vu Tran,TX,77546,Legacy,DWA-9100DWA-9100CH,Choco Brown,New,,,,,4330.00,4057.16,272.84,Alan Zeng,CreditCard,300.00,GJiz,,,,,,COD,0.00,,,,,,,,0.00,,,,,,,,No,"3 years parts, 1 year labor (Free)",Scheduled,Health and Wellness Houston Store 2017 (TX),,,103758,"Sale by Alan
confirmed $300 in Square. 2/19/18 Hitomi",TX,0,8.25
2/18/2018 2:36:27 PM,Nguyen Diep,TX,77068,Relax2Zero 1.0,USJ-9000USJ-9000CR,Cream,New,,,,,3000.00,3000.00,0.00,Yichuang (Debbie) Yang,CreditCard,3000.00,tsNz,,,,,,,0.00,,,,,,,,0.00,,,,,,,,No,"3 years parts, 1 year labor (Free)",Scheduled,Health and Wellness Houston Store 2017 (TX),,,103805,"Sales by Alan,Debbie and Lisa
confirmed $3,000 in Square.(cash). 2/19/18 Hitomi",TX,1,8.25
2/18/2018 3:30:51 PM,Phuong Le,TX,77066,Relax2Zero 1.0,USJ-9000USJ-9000CR,Cream,New,,,,,3000.00,3000.00,0.00,Yichuang (Debbie) Yang,CreditCard,3000.00,5K0u,,,,,,,0.00,,,,,,,,0.00,,,,,,,,No,"3 years parts, 1 year labor (Free)",Scheduled,Health and Wellness Houston Store 2017 (TX),,,103807,"Sales by Debbie, Alan and Lisa
confirmed $3,000 in Square. 2/19/18 Hitomi",TX,1,8.25
2/25/2018 11:24:49 AM,Joseph Trevino,CA,90723,Legacy,DWA-9100DWA-9100BU,New Choco,New,,,,,3897.00,3897.00,0.00,KHOA H,CreditCard,397.00,57rQ,,,,,,,0.00,,,,,,,,0.00,,,,,,,,No,"3 years parts, 1 year labor (Free)",Called,Health and Wellness Houston Store 2017 (TX),,"Customer paid deposit $397.
Ballance $3500 will be paid upon delivery.",103959,"birthday gift, to time sensitive
confirmed $397 in Square. COD$3,500. 2/26/18 Hitomi
02/27/18-printed
After show Corpus Christy, TX Home & Garden show-Shiho",CA,1,8.25
