﻿Original Event Name,Event Name,Sales Person,Order Number,Order Date,Customer Name,State,Zip,Product Name,Color,Product Status,QTY,Tax,Total Before Tax,Order Total,Primary Payment Method,Second Payment Method,Thirdl Payment Method,Warranty,Order Items,Pick up,Delivered On,Order Status,Chair Type,Order Notes,Private Note,Branch,No Tax,Actual Tax Rate,SKU,Primary Payment Balance,Primary Authorize Number,Primary Purchase Order Number,Primary Synchrony Account Number,Primary Synchrony Application Key,Primary Synchrony Account Info,Primary Synchrony Term,Second Payment Balance,Second Authorize Number,Second Purchase Order Number,Second Synchrony Account Number,Second Synchrony Application Key,Second Synchrony Account Info,Second SynchronyTerm,Third Payment Balance,Third Authorize Number,Third Purchase Order Number,Third Synchrony Account Number,Third Synchrony Application Key,Third Synchrony Account Info,Third Synchrony Term
Greater Kansas Home Show (3/22-3/24/2019) TX,Greater Kansas Home Show (3/22-3/24/2019) TX,Winston Melgar,116048,3/23/2019 4:36:18 PM,Shawn Atkins,MI,48651,Relax 2 Zero 3D,New Choco,New,1,0.00,4200.00,4200.00,CreditCard,,,"5 years parts, 1 year labor (Free)","Relax 2 Zero 3D,",No,,Scheduled,,,"3/25/19-in SQ, $4,200 is transacted as cash. will confirm - Hitomi
3/26/19-Transaction didn't go thru , Hitomi contacted customer to charge $4,200. It went thru with SQ Receipt #6CPJ- Hitomi
3/29Maritza- Courtesy message and email sent @ 2PM
Customer Confirmed Schedule Delivery (4/16 9-1PM) - Alysa 4/4",TX,1,9.13,DWA-9060USJ-9060BR,4200.00,Receipt #6CPJ,,,,,,0.00,,,,,,,0.00,,,,,,
Greater Kansas Home Show (3/22-3/24/2019) TX,Greater Kansas Home Show (3/22-3/24/2019) TX,Mario Higareda,116049,3/23/2019 4:45:00 PM,Sandra Waller,MO,64155,Relax 2 Zero 3D,Demo Choco,Demo,1,0.00,3500.00,3500.00,Synchrony,,,"5 years parts, 1 year labor (Free)","Relax 2 Zero 3D,",No,,Called,,,"3/25/19-will confirm sync -Hitomi
3/28/19- Confirmed SYNC$5,500 and original. ***Please charge $3,500/sales draft***-Hitomi
3/29Maritza Courtesy message sent @ 2:23PM",TX,1,9.13,DWA-9060USJ-9060BR-DEMO,3500.00,,,6501723375071766,73048238,Huston,36 months,0.00,,,,,,,0.00,,,,,,
Greater Kansas Home Show (3/22-3/24/2019) TX,Greater Kansas Home Show (3/22-3/24/2019) TX,Winston Melgar,116050,3/23/2019 4:51:05 PM,Bryan Halterman,MN,64153,Legacy 3D,New Choco,New,1,0.00,5650.00,5650.00,Synchrony,,,"5 years parts, 1 year labor (Free)","Legacy 3D,",No,,Cancelled,,,"3/25/19-will confirm sync- Hitomi
3/28/19-State is MO. correct Total amount is $4,200. Revised to # 116228-Hitomi
3/29/19-REVISED TO 116228 -HITOMI",Not Dispatched,1,9.13,DWA-9150USJ-9150CH,4200.00,,,6501723375071857,73049359,Huston,36 months,0.00,,,,,,,0.00,,,,,,
Greater Kansas Home Show (3/22-3/24/2019) TX,Greater Kansas Home Show (3/22-3/24/2019) TX,Mario Higareda,116051,3/23/2019 4:53:49 PM,Stephen Herington,MO,64628,Relax 2 Zero 3D,New Choco,New,1,0.00,3500.00,3500.00,CreditCard,COD,,"5 years parts, 1 year labor (Free)","Relax 2 Zero 3D,",No,,Cancelled,,,"Customer will pay balance in cash is a cash deal
3/25/19-Confirmed $300 in SQ. ***COD $3,200***- Hitomi
3/28/19-Per.Mario & original . correct chair is Legacy 3D.  Revised the order to #116215 -Hitomi",Not Dispatched,1,9.13,DWA-9060USJ-9060BR,300.00,Qjos,,,,,,3200.00,,,,,,,0.00,,,,,,
Greater Kansas Home Show (3/22-3/24/2019) TX,Greater Kansas Home Show (3/22-3/24/2019) TX,Mario Higareda,116052,3/23/2019 5:01:01 PM,Eric Johnson,MO,64014,PEGASUS 2 SMART,New Black,New,1,0.00,5600.00,5600.00,CreditCard,COD,,"5 years parts, 1 year labor (Free)","PEGASUS 2 SMART,",No,,Cancelled,,,"3/25/19-Confirmed $500.00 in SQ. ***COD $5,100.***-Hitomi
3/28/19-receuived original , will confirm total amount .REVISED TO #116216-Htomi",Not Dispatched,1,9.13,PEGS-2PEGS-2-BL,500.00,F9de,,,,,,5100.00,,,,,,,0.00,,,,,,
Greater Kansas Home Show (3/22-3/24/2019) TX,Greater Kansas Home Show (3/22-3/24/2019) TX,Winston Melgar,116152,3/25/2019 9:45:41 AM,Denise Rids,AA,66112,Solace,Demo Choco,Demo,1,0.00,2500.00,2500.00,Synchrony,CreditCard,,"5 years parts, 1 year labor (Free)","Solace,",No,,Called,,,"Customer credit card 500
Synchrony  18 payments 2000
Total price 2500
Thanks
3/25/19- will confirm sync -Hitomi
3/28/19-Confirmed SYNC$4,000 and original. ***Please charge $2,000/sales draft***-Hitomi
3/29Maritza Courtesy message sent @ 3:05PM",TX,1,9.13,SOL-1SOL-1-CH-DEMO,2000.00,,,6501723375072267,73077326,Huston,18 months,500.00,Receipt #2GKl,,,,,,0.00,,,,,,
Greater Kansas Home Show (3/22-3/24/2019) TX,Greater Kansas Home Show (3/22-3/24/2019) TX,Mario Higareda,116215,3/28/2019 4:43:41 PM,Stephen Herington,MO,64628,Legacy 3D,New Choco,New,1,0.00,3500.00,3500.00,CreditCard,COD,,"5 years parts, 1 year labor (Free)","Legacy 3D,",No,,Scheduled,,,"Customer will pay balance in cash is a cash deal
3/28/19- corrected # 116051. Confirmed $300 in SQ. ***COD $3,200.**-Hitomi
3/29Maritza Courtesy message sent @ 4:31PM
4/5/2019 Scheduled for delivery on Saturday April 13, 2019 between 11am to 2om - Tina",TX,1,9.13,DWA-9150USJ-9150CH,300.00,Qjos,,,,,,3200.00,,,,,,,0.00,,,,,,
Greater Kansas Home Show (3/22-3/24/2019) TX,Greater Kansas Home Show (3/22-3/24/2019) TX,Mario Higareda,116216,3/28/2019 5:28:49 PM,Eric Johnson,MO,64014,PEGASUS 2 SMART,New Black,New,1,0.00,5500.00,5500.00,Credit Card,Credit Card,,"5 years parts, 1 year labor (Free)","PEGASUS 2 SMART,",No,4/13/2019 12:00:00 AM,Delivered,New,,"3/29/19- Correction for 116052 .Confirmed $500.00 in SQ. ***COD $5,000.***-Hitomi
3/29Maritza Courtesy message sent @ 4:33PM
4/5/2019 - Scheduled for April 13,2019 Saturday 3pm to 6pm - Tina
4/19Maritza- Delivery confirmation received. Confirmed COD $5000 on square",TX,1,9.13,PEGS-2PEGS-2-BL,500.00,F9de,,,,,,5000.00,#nszN,,,,,,0.00,,,,,,
Greater Kansas Home Show (3/22-3/24/2019) TX,Greater Kansas Home Show (3/22-3/24/2019) TX,Winston Melgar,116226,3/29/2019 9:22:58 AM,Bryan Halterman,MO,64153,Legacy 3D,New Choco,New,1,0.00,4200.00,4200.00,Synchrony,,,"5 years parts, 1 year labor (Free)","Legacy 3D,",No,,Cancelled,,,,Not Dispatched,1,9.13,DWA-9150USJ-9150CH,4200.00,,,6501723375071857,73049359,Huston,36 months,0.00,,,,,,,0.00,,,,,,
Greater Kansas Home Show (3/22-3/24/2019) TX,Greater Kansas Home Show (3/22-3/24/2019) TX,Winston Melgar,116228,3/29/2019 10:33:35 AM,Bryon Scott Halterman,MO,64153,Legacy 3D,New Choco,New,1,0.00,4200.00,4200.00,Synchrony,,,"5 years parts, 1 year labor (Free)","Legacy 3D,",No,4/13/2019 12:00:00 AM,Delivered,New,,"3/29/19-Correction for #116050. Confirmed SYNC$6,500 and original. (acct is under BRYON HAPPY LTERMAN and told Winston to contact the customer to fix their name) ***Please charge $4,200/sales draft***-Hitomi
3/29Maritza Courtesy message sent @ 4:51PM
4/5/2019 - Scheduled for April 13,2019 Saturday 5pm to 8pm -Tina
4/19Maritza- Delivery confirmation received with signed sales draft.",TX,1,9.13,DWA-9150USJ-9150CH,4200.00,,,6501723375071857,73049359,Huston,36 months,0.00,,,,,,,0.00,,,,,,
