﻿Date,CustomerName,State,Zipcode,Description,productNo,Color,IsDemo,Net,ShippingFee,GiftPrice,FinancingProcessingFee,Gross,Pre_tax,Tax,Commission,Primary Payment Method,Primary Payment Balance,Primary Authorize Number,Primary Purchase Order Number,Primary Synchrony Account Number,Primary Synchrony Application Key,Primary Synchrony AccountInfo,Primary SynchronyTerm,Secondly Payment Method,Secondly Payment Balance,Secondly Authorize Number,Secondly Purchase Order Number,Secondly Synchrony Account Number,Secondly Synchrony Application Key,Secondly Synchrony AccountInfo,Secondly SynchronyTerm,Thirdly Payment Method,Thirdly Payment Balance,Thirdly Authorize Number,Thirdly Purchase Order Number,Thirdly Synchrony Account Number,Thirdly Synchrony Application Key,Thirdly Synchrony AccountInfo,Thirdly SynchronyTerm,DeliveryDate,Ispickup,Warranty,Status,Event Name,Synchrony Notes,Order Notes,Order number,Private Note,Branch,IsNoTax,ActualTaxRate
6/11/2018 9:50:46 AM,Rumiko Motoyama,CA,90247,Legacy,DWA-9100DWA-9100BU-DEMO,Demo Choco,Demo,,,,,3000.00,3000.00,0.00,Mikito Nakanishi,Cash,50.00,,,,,,,COD,2950.00,,,,,,,,0.00,,,,,,,,No,"3 years parts, 1 year labor (Free)",Cancelled,MITSUWA TORRANCE 6/8-10/18 (CA),,,106718,"***PLEASE DISREGARD EXTRA GIFT. PRE NAKANISHI***$50 cash was received by Yumi-->Michael. COD$2,950. 6/12/18 Hitomi PRINTED///REVISED TO 106807",CA,1,9.50
6/11/2018 9:50:46 AM,Rumiko Motoyama,CA,90247,Daiwa Blanket,,,New,,,,,3000.00,3000.00,0.00,Mikito Nakanishi,Cash,50.00,,,,,,,COD,2950.00,,,,,,,,0.00,,,,,,,,No,no warranty,Cancelled,MITSUWA TORRANCE 6/8-10/18 (CA),,,106718,"***PLEASE DISREGARD EXTRA GIFT. PRE NAKANISHI***$50 cash was received by Yumi-->Michael. COD$2,950. 6/12/18 Hitomi PRINTED///REVISED TO 106807",CA,1,9.50
6/11/2018 9:50:46 AM,Rumiko Motoyama,CA,90247,Chair Pad for Legacy,,,New,,,,,3000.00,3000.00,0.00,Mikito Nakanishi,Cash,50.00,,,,,,,COD,2950.00,,,,,,,,0.00,,,,,,,,No,no warranty,Cancelled,MITSUWA TORRANCE 6/8-10/18 (CA),,,106718,"***PLEASE DISREGARD EXTRA GIFT. PRE NAKANISHI***$50 cash was received by Yumi-->Michael. COD$2,950. 6/12/18 Hitomi PRINTED///REVISED TO 106807",CA,1,9.50
6/11/2018 9:50:46 AM,Rumiko Motoyama,CA,90247,Foot Pads for Legacy,,,New,,,,,3000.00,3000.00,0.00,Mikito Nakanishi,Cash,50.00,,,,,,,COD,2950.00,,,,,,,,0.00,,,,,,,,No,no warranty,Cancelled,MITSUWA TORRANCE 6/8-10/18 (CA),,,106718,"***PLEASE DISREGARD EXTRA GIFT. PRE NAKANISHI***$50 cash was received by Yumi-->Michael. COD$2,950. 6/12/18 Hitomi PRINTED///REVISED TO 106807",CA,1,9.50
6/11/2018 10:03:04 AM,Koyuki Kolak,CA,90717,Legacy,DWA-9100DWA-9100BU,New Choco,New,,,,,3500.00,3500.00,0.00,Mikito Nakanishi,Cash,100.00,,,,,,,COD,3400.00,,,,,,,,0.00,,,,,,,,No,"3 years parts, 1 year labor (Free)",Cancelled,MITSUWA TORRANCE 6/8-10/18 (CA),,,106719,"***PLEASE DISREGARD EXTRA GIFT. PRE NAKANISHI***$100 cash was received by Yumi-->Michael. COD$3,400. 6/12/18 Hitomi PRINTED///REVISED to #106808",CA,1,9.50
6/11/2018 10:03:04 AM,Koyuki Kolak,CA,90717,Daiwa Blanket,,,New,,,,,3500.00,3500.00,0.00,Mikito Nakanishi,Cash,100.00,,,,,,,COD,3400.00,,,,,,,,0.00,,,,,,,,No,no warranty,Cancelled,MITSUWA TORRANCE 6/8-10/18 (CA),,,106719,"***PLEASE DISREGARD EXTRA GIFT. PRE NAKANISHI***$100 cash was received by Yumi-->Michael. COD$3,400. 6/12/18 Hitomi PRINTED///REVISED to #106808",CA,1,9.50
6/11/2018 10:03:04 AM,Koyuki Kolak,CA,90717,Chair Pad for Legacy,,,New,,,,,3500.00,3500.00,0.00,Mikito Nakanishi,Cash,100.00,,,,,,,COD,3400.00,,,,,,,,0.00,,,,,,,,No,no warranty,Cancelled,MITSUWA TORRANCE 6/8-10/18 (CA),,,106719,"***PLEASE DISREGARD EXTRA GIFT. PRE NAKANISHI***$100 cash was received by Yumi-->Michael. COD$3,400. 6/12/18 Hitomi PRINTED///REVISED to #106808",CA,1,9.50
6/11/2018 10:03:04 AM,Koyuki Kolak,CA,90717,Foot Pads for Legacy,,,New,,,,,3500.00,3500.00,0.00,Mikito Nakanishi,Cash,100.00,,,,,,,COD,3400.00,,,,,,,,0.00,,,,,,,,No,no warranty,Cancelled,MITSUWA TORRANCE 6/8-10/18 (CA),,,106719,"***PLEASE DISREGARD EXTRA GIFT. PRE NAKANISHI***$100 cash was received by Yumi-->Michael. COD$3,400. 6/12/18 Hitomi PRINTED///REVISED to #106808",CA,1,9.50
6/11/2018 11:57:21 AM,Montrii Kiatkulpiboone,CA,90805,Legacy 3D,DWA-9150USJ-9150BL,New Black,New,,,,,3500.00,3500.00,0.00,Mikito Nakanishi,Cash,50.00,,,,,,,COD,3450.00,,,,,,,,0.00,,,,,,,,No,"3 years parts, 1 year labor (Free)",Cancelled,MITSUWA TORRANCE 6/8-10/18 (CA),,,106739,,Not Dispatched,1,9.50
6/11/2018 11:57:21 AM,Montrii Kiatkulpiboone,CA,90805,Daiwa Blanket,,,New,,,,,3500.00,3500.00,0.00,Mikito Nakanishi,Cash,50.00,,,,,,,COD,3450.00,,,,,,,,0.00,,,,,,,,No,no warranty,Cancelled,MITSUWA TORRANCE 6/8-10/18 (CA),,,106739,,Not Dispatched,1,9.50
6/11/2018 11:57:21 AM,Montrii Kiatkulpiboone,CA,90805,Chair Pad for Legacy 3D,,,New,,,,,3500.00,3500.00,0.00,Mikito Nakanishi,Cash,50.00,,,,,,,COD,3450.00,,,,,,,,0.00,,,,,,,,No,no warranty,Cancelled,MITSUWA TORRANCE 6/8-10/18 (CA),,,106739,,Not Dispatched,1,9.50
6/11/2018 11:57:21 AM,Montrii Kiatkulpiboone,CA,90805,Foot Pads for Legacy 3D,,,New,,,,,3500.00,3500.00,0.00,Mikito Nakanishi,Cash,50.00,,,,,,,COD,3450.00,,,,,,,,0.00,,,,,,,,No,no warranty,Cancelled,MITSUWA TORRANCE 6/8-10/18 (CA),,,106739,,Not Dispatched,1,9.50
6/11/2018 12:27:25 PM,Keiko Nakamura,CA,90502,Legacy,DWA-9100DWA-9100BL,New Black,New,,,,,3700.00,3700.00,0.00,Mikito Nakanishi,Cash,100.00,,,,,,,COD,3600.00,,,,,,,,0.00,,,,,,,,No,"3 years parts, 1 year labor (Free)",Cancelled,MITSUWA TORRANCE 6/8-10/18 (CA),,,106747,"The customer is still thinking how to pay the remaining balance.//***PLEASE DISREGARD EXTRA GIFT. PRE NAKANISHI***$100 cash was received by Yumi-->Michael.  COD$3,600. 6/12/18 Hitomi Printed///REVISED TO 106809",CA,1,9.50
6/11/2018 12:27:25 PM,Keiko Nakamura,CA,90502,Daiwa Blanket,,,New,,,,,3700.00,3700.00,0.00,Mikito Nakanishi,Cash,100.00,,,,,,,COD,3600.00,,,,,,,,0.00,,,,,,,,No,no warranty,Cancelled,MITSUWA TORRANCE 6/8-10/18 (CA),,,106747,"The customer is still thinking how to pay the remaining balance.//***PLEASE DISREGARD EXTRA GIFT. PRE NAKANISHI***$100 cash was received by Yumi-->Michael.  COD$3,600. 6/12/18 Hitomi Printed///REVISED TO 106809",CA,1,9.50
6/11/2018 12:27:25 PM,Keiko Nakamura,CA,90502,Chair Pad for Legacy,,,New,,,,,3700.00,3700.00,0.00,Mikito Nakanishi,Cash,100.00,,,,,,,COD,3600.00,,,,,,,,0.00,,,,,,,,No,no warranty,Cancelled,MITSUWA TORRANCE 6/8-10/18 (CA),,,106747,"The customer is still thinking how to pay the remaining balance.//***PLEASE DISREGARD EXTRA GIFT. PRE NAKANISHI***$100 cash was received by Yumi-->Michael.  COD$3,600. 6/12/18 Hitomi Printed///REVISED TO 106809",CA,1,9.50
6/11/2018 12:27:25 PM,Keiko Nakamura,CA,90502,Foot Pads for Legacy,,,New,,,,,3700.00,3700.00,0.00,Mikito Nakanishi,Cash,100.00,,,,,,,COD,3600.00,,,,,,,,0.00,,,,,,,,No,no warranty,Cancelled,MITSUWA TORRANCE 6/8-10/18 (CA),,,106747,"The customer is still thinking how to pay the remaining balance.//***PLEASE DISREGARD EXTRA GIFT. PRE NAKANISHI***$100 cash was received by Yumi-->Michael.  COD$3,600. 6/12/18 Hitomi Printed///REVISED TO 106809",CA,1,9.50
6/11/2018 12:58:23 PM,Sayaka Shigeta,CA,90503,Legacy 3D,DWA-9150USJ-9150CH,New Choco,New,,,,,4000.00,4000.00,0.00,Mikito Nakanishi,Cash,50.00,,,,,,,COD,3950.00,,,,,,,,0.00,,,,,,,,No,"3 years parts, 1 year labor (Free)",Cancelled,MITSUWA TORRANCE 6/8-10/18 (CA),,Install the chair on the 2nd floor.,106749,"The customer is still thinking how to pay the remaining balance.//***PLEASE DISREGARD EXTRA GIFT. PRE NAKANISHI***$50 cash was received by Yumi-->Michael. ,COD$3,950. 6/12/18 Hitomi PRINTED///REVISED TO #106810",CA,1,9.50
6/11/2018 12:58:23 PM,Sayaka Shigeta,CA,90503,Daiwa Blanket,,,New,,,,,4000.00,4000.00,0.00,Mikito Nakanishi,Cash,50.00,,,,,,,COD,3950.00,,,,,,,,0.00,,,,,,,,No,no warranty,Cancelled,MITSUWA TORRANCE 6/8-10/18 (CA),,Install the chair on the 2nd floor.,106749,"The customer is still thinking how to pay the remaining balance.//***PLEASE DISREGARD EXTRA GIFT. PRE NAKANISHI***$50 cash was received by Yumi-->Michael. ,COD$3,950. 6/12/18 Hitomi PRINTED///REVISED TO #106810",CA,1,9.50
6/11/2018 12:58:23 PM,Sayaka Shigeta,CA,90503,Chair Pad for Legacy 3D,,,New,,,,,4000.00,4000.00,0.00,Mikito Nakanishi,Cash,50.00,,,,,,,COD,3950.00,,,,,,,,0.00,,,,,,,,No,no warranty,Cancelled,MITSUWA TORRANCE 6/8-10/18 (CA),,Install the chair on the 2nd floor.,106749,"The customer is still thinking how to pay the remaining balance.//***PLEASE DISREGARD EXTRA GIFT. PRE NAKANISHI***$50 cash was received by Yumi-->Michael. ,COD$3,950. 6/12/18 Hitomi PRINTED///REVISED TO #106810",CA,1,9.50
6/11/2018 12:58:23 PM,Sayaka Shigeta,CA,90503,Foot Pads for Legacy 3D,,,New,,,,,4000.00,4000.00,0.00,Mikito Nakanishi,Cash,50.00,,,,,,,COD,3950.00,,,,,,,,0.00,,,,,,,,No,no warranty,Cancelled,MITSUWA TORRANCE 6/8-10/18 (CA),,Install the chair on the 2nd floor.,106749,"The customer is still thinking how to pay the remaining balance.//***PLEASE DISREGARD EXTRA GIFT. PRE NAKANISHI***$50 cash was received by Yumi-->Michael. ,COD$3,950. 6/12/18 Hitomi PRINTED///REVISED TO #106810",CA,1,9.50
6/11/2018 4:54:57 PM,Nozomu Sekine,CA,90247,Daiwa Blanket,,,New,,,,,3200.00,3200.00,0.00,Mikito Nakanishi,CreditCard,3200.00,010479,,,,,,,0.00,,,,,,,,0.00,,,,,,,,No,no warranty,Cancelled,MITSUWA TORRANCE 6/8-10/18 (CA),,3rd Floor,106754,"***PLEASE DISREGARD EXTRA GIFT. PRE NAKANISHI***Confirmed $3,200 in Wells Fargo.  6/12/18 Hitomi///REVISED TO #106811",CA,1,9.50
6/11/2018 4:54:57 PM,Nozomu Sekine,CA,90247,Chair Pad for Legacy,,,New,,,,,3200.00,3200.00,0.00,Mikito Nakanishi,CreditCard,3200.00,010479,,,,,,,0.00,,,,,,,,0.00,,,,,,,,No,no warranty,Cancelled,MITSUWA TORRANCE 6/8-10/18 (CA),,3rd Floor,106754,"***PLEASE DISREGARD EXTRA GIFT. PRE NAKANISHI***Confirmed $3,200 in Wells Fargo.  6/12/18 Hitomi///REVISED TO #106811",CA,1,9.50
6/11/2018 4:54:57 PM,Nozomu Sekine,CA,90247,Foot Pads for Legacy,,,New,,,,,3200.00,3200.00,0.00,Mikito Nakanishi,CreditCard,3200.00,010479,,,,,,,0.00,,,,,,,,0.00,,,,,,,,No,no warranty,Cancelled,MITSUWA TORRANCE 6/8-10/18 (CA),,3rd Floor,106754,"***PLEASE DISREGARD EXTRA GIFT. PRE NAKANISHI***Confirmed $3,200 in Wells Fargo.  6/12/18 Hitomi///REVISED TO #106811",CA,1,9.50
6/11/2018 4:54:57 PM,Nozomu Sekine,CA,90247,Legacy,DWA-9100DWA-9100BU,New Choco,New,,,,,3200.00,3200.00,0.00,Mikito Nakanishi,CreditCard,3200.00,010479,,,,,,,0.00,,,,,,,,0.00,,,,,,,,No,"3 years parts, 1 year labor (Free)",Cancelled,MITSUWA TORRANCE 6/8-10/18 (CA),,3rd Floor,106754,"***PLEASE DISREGARD EXTRA GIFT. PRE NAKANISHI***Confirmed $3,200 in Wells Fargo.  6/12/18 Hitomi///REVISED TO #106811",CA,1,9.50
6/11/2018 5:21:48 PM,Montrii Kiatkulpiboone,CA,90805,Legacy 3D,DWA-9150USJ-9150BL,New Black,New,,,,,3500.00,3500.00,0.00,Mikito Nakanishi,Cash,50.00,,,,,,,COD,3450.00,,,,,,,,0.00,,,,,,,,No,"3 years parts, 1 year labor (Free)",Cancelled,MITSUWA TORRANCE 6/8-10/18 (CA),,This is the revised invoice due to wrong quantity of Order # 106739.,106755,"The customer is still thinking how to pay the remaining balance.//***PLEASE DISREGARD EXTRA GIFT. PRE NAKANISHI***$50 cash was received by Yumi-->Michael..COD $3,450. 6/12/18 Hitomi PRINTED//REVISED TO #106813",CA,1,9.50
6/11/2018 5:21:48 PM,Montrii Kiatkulpiboone,CA,90805,Daiwa Blanket,,,New,,,,,3500.00,3500.00,0.00,Mikito Nakanishi,Cash,50.00,,,,,,,COD,3450.00,,,,,,,,0.00,,,,,,,,No,no warranty,Cancelled,MITSUWA TORRANCE 6/8-10/18 (CA),,This is the revised invoice due to wrong quantity of Order # 106739.,106755,"The customer is still thinking how to pay the remaining balance.//***PLEASE DISREGARD EXTRA GIFT. PRE NAKANISHI***$50 cash was received by Yumi-->Michael..COD $3,450. 6/12/18 Hitomi PRINTED//REVISED TO #106813",CA,1,9.50
6/11/2018 5:21:48 PM,Montrii Kiatkulpiboone,CA,90805,Chair Pad for Legacy 3D,,,New,,,,,3500.00,3500.00,0.00,Mikito Nakanishi,Cash,50.00,,,,,,,COD,3450.00,,,,,,,,0.00,,,,,,,,No,no warranty,Cancelled,MITSUWA TORRANCE 6/8-10/18 (CA),,This is the revised invoice due to wrong quantity of Order # 106739.,106755,"The customer is still thinking how to pay the remaining balance.//***PLEASE DISREGARD EXTRA GIFT. PRE NAKANISHI***$50 cash was received by Yumi-->Michael..COD $3,450. 6/12/18 Hitomi PRINTED//REVISED TO #106813",CA,1,9.50
6/11/2018 5:21:48 PM,Montrii Kiatkulpiboone,CA,90805,Foot Pads for Legacy 3D,,,New,,,,,3500.00,3500.00,0.00,Mikito Nakanishi,Cash,50.00,,,,,,,COD,3450.00,,,,,,,,0.00,,,,,,,,No,no warranty,Cancelled,MITSUWA TORRANCE 6/8-10/18 (CA),,This is the revised invoice due to wrong quantity of Order # 106739.,106755,"The customer is still thinking how to pay the remaining balance.//***PLEASE DISREGARD EXTRA GIFT. PRE NAKANISHI***$50 cash was received by Yumi-->Michael..COD $3,450. 6/12/18 Hitomi PRINTED//REVISED TO #106813",CA,1,9.50
6/12/2018 12:48:23 PM,Kittichai Kwirasakaumpai,CA,91605,Legacy,DWA-9100DWA-9100SI,New Sienna,New,,,,,3000.00,3000.00,0.00,Mikito Nakanishi,Synchrony,3000.00,,,6034610083328032,90155769,San Diego,24 months,,0.00,,,,,,,,0.00,,,,,,,,No,"3 years parts, 1 year labor (Free)",Scheduled,MITSUWA TORRANCE 6/8-10/18 (CA),Authorization # 019819,,106766,"correct name : KITTICHAI WIRASAKAUMPAI///Confirmed synchrony account ($8500) and original form. ***Please charge before delivery and have sales draft signed. ***6/12/18 Hitomi
6/13PRINTED",CA,1,9.50
6/12/2018 1:01:21 PM,Joe Mizuno,CA,90275,Legacy 3D,DWA-9150USJ-9150BL,New Black,New,,,,,3900.00,3900.00,0.00,Mikito Nakanishi,CreditCard,3900.00,009310,,,,,,,0.00,,,,,,,,0.00,,,,,,,,No,"3 years parts, 1 year labor (Free)",Scheduled,MITSUWA TORRANCE 6/8-10/18 (CA),,,106768,"WF cleared for $3900 - Stephany 06/12/18
6/13PRINTED",CA,1,9.50
6/12/2018 1:16:00 PM,Kimberly Yoon,CA,90275,Legacy,DWA-9100DWA-9100BU,New Choco,New,,,,,3620.00,3620.00,0.00,Mikito Nakanishi,Synchrony,3620.00,,,6034610083328115,90157731,San Diego,24 months,,0.00,,,,,,,,0.00,,,,,,,,No,"3 years parts, 1 year labor (Free)",Scheduled,MITSUWA TORRANCE 6/8-10/18 (CA),Authorization # 019085,,106769,"2nd floor//Confirmed synchrony account ($6,000) and original form . ***Please charge before delivery and have sales draft signed.*** 6/12/18 Hitomi
6/13PRINTED",CA,1,9.50
6/12/2018 1:25:17 PM,Sakiko Calice,CA,90275,Legacy,DWA-9100DWA-9100BL,New Black,New,,,,,3200.00,3200.00,0.00,Mikito Nakanishi,Cash,50.00,,,,,,,COD,3150.00,,,,,,,,0.00,,,,,,,,No,"3 years parts, 1 year labor (Free)",Scheduled,MITSUWA TORRANCE 6/8-10/18 (CA),,,106770,"2nd floor delivery. ///$50 cash was received by Yumi-->Michael. COD $3,150. 6/12/18 Hitomi
6/13PRINTED",CA,1,9.50
6/12/2018 1:44:39 PM,Kaz Mitsuda,CA,90247,Legacy,DWA-9100DWA-9100BU,New Choco,New,,,,,3100.00,3100.00,0.00,Mikito Nakanishi,Cash,30.00,,,,,,,COD,3070.00,,,,,,,,0.00,,,,,,,,No,"3 years parts, 1 year labor (Free)",Scheduled,MITSUWA TORRANCE 6/8-10/18 (CA),,,106771,"$30 cash was received by Yumi-->Michael. COD $3,070. 6/12/18 Hitomi
6/13PRINTED",CA,1,9.50
6/12/2018 1:50:12 PM,Kaz Mitsuda,CA,90247,Legacy,DWA-9100DWA-9100BU,New Choco,New,,,,,3100.00,3100.00,0.00,Mikito Nakanishi,Cash,20.00,,,,,,,COD,3080.00,,,,,,,,0.00,,,,,,,,No,"3 years parts, 1 year labor (Free)",Scheduled,MITSUWA TORRANCE 6/8-10/18 (CA),,,106772,"$20 cash was received by Yumi-->Michael. COD$3,080. 6/12/18 Hitomi
6/13PRINTED",CA,1,9.50
6/12/2018 2:14:42 PM,Jesse Nakama,CA,90025,Legacy 3D,DWA-9150USJ-9150BL,New Black,New,,,,,3650.00,3650.00,0.00,Mikito Nakanishi,Cash,100.00,,,,,,,COD,3550.00,,,,,,,,0.00,,,,,,,,No,"3 years parts, 1 year labor (Free)",Scheduled,MITSUWA TORRANCE 6/8-10/18 (CA),,,106773,"$100 cash was received by Yumi-->Michael. COD $3,550. 6/12/18 Hitomi
6/13PRINTED",CA,1,9.50
6/12/2018 2:18:24 PM,Kaeko Saeki,CA,90275,Legacy 3D,DWA-9150USJ-9150BL,New Black,New,,,,,3500.00,3500.00,0.00,Mikito Nakanishi,Cash,100.00,,,,,,,COD,3400.00,,,,,,,,0.00,,,,,,,,No,"3 years parts, 1 year labor (Free)",Called,MITSUWA TORRANCE 6/8-10/18 (CA),,,106774,"request after 7/1/18///$100 cash was received by Yumi-->Michael. COD$3,400. 6/12/18 Hitomi
6/13PRINTED",CA,1,9.50
6/12/2018 2:43:52 PM,Jenny Lee,CA,90746,Majesty,MAJ-1010MAJ-1010-BR,New Choco,New,,,,,2800.00,2800.00,0.00,Mikito Nakanishi,Synchrony,2800.00,,,6034610083328073,90156856,San Diego,24 months,,0.00,,,,,,,,0.00,,,,,,,,No,"3 years parts, 1 year labor (Free)",Scheduled,MITSUWA TORRANCE 6/8-10/18 (CA),Authorization # 015832,,106775,"COnfirmed synchrony account ($3,500) and original form . ***PLease charge before delivery and have sales draft signed. *** 6/12/18 Hitomi
6/13PRINTED",CA,1,9.50
6/14/2018 10:48:04 AM,Rumiko Motoyama,CA,90247,Legacy,DWA-9100DWA-9100BU-DEMO,Demo Choco,Demo,,,,,3000.00,3000.00,0.00,Mikito Nakanishi,Cash,50.00,,,,,,,COD,2950.00,,,,,,,,0.00,,,,,,,,No,"3 years parts, 1 year labor (Free)",Scheduled,MITSUWA TORRANCE 6/8-10/18 (CA),,"COD $2,950",106807,"CORRECTION FOR #106718. ///$50 cash was received by Yumi-->Michael. COD$2,950. 6/12/18 Hitomi PRINTED",CA,1,9.50
6/14/2018 10:55:48 AM,Koyuki Kolak,CA,90717,Legacy,DWA-9100DWA-9100BU,New Choco,New,,,,,3500.00,3500.00,0.00,Mikito Nakanishi,Cash,100.00,,,,,,,COD,3400.00,,,,,,,,0.00,,,,,,,,No,"3 years parts, 1 year labor (Free)",Scheduled,MITSUWA TORRANCE 6/8-10/18 (CA),,"COD$3,400",106808,"CORRECTION FOR 106719///$100 cash was received by Yumi-->Michael. COD$3,400. 6/12/18 Hitomi PRINTED",CA,1,9.50
6/14/2018 11:02:19 AM,Keiko Nakamura,CA,90502,Legacy,DWA-9100DWA-9100BL,New Black,New,,,,,3700.00,3700.00,0.00,Mikito Nakanishi,Cash,100.00,,,,,,,COD,3600.00,,,,,,,,0.00,,,,,,,,No,"3 years parts, 1 year labor (Free)",Scheduled,MITSUWA TORRANCE 6/8-10/18 (CA),,"COD $3,600",106809,"CORRECTION FOR #106747///The customer is still thinking how to pay the remaining balance.//$100 cash was received by Yumi-->Michael.  COD$3,600. 6/12/18 Hitomi Printed",CA,1,9.50
6/14/2018 11:44:35 AM,Sayaka Shigeta,CA,90503,Legacy 3D,DWA-9150USJ-9150CH,New Choco,New,,,,,4000.00,4000.00,0.00,Mikito Nakanishi,Cash,50.00,,,,,,,COD,3950.00,,,,,,,,0.00,,,,,,,,No,"3 years parts, 1 year labor (Free)",Scheduled,MITSUWA TORRANCE 6/8-10/18 (CA),,"Install the chair on the 2nd floor.//COD$3,950",106810,"CORRECTION FOR #106749//The customer is still thinking how to //pay the remaining balance.//$50 cash was received by Yumi-->Michael. ,COD$3,950. 6/12/18 Hitomi PRINTED",CA,1,9.50
6/14/2018 11:51:45 AM,Nozomu Sekine,CA,90247,Legacy,DWA-9100DWA-9100BU,New Choco,New,,,,,3200.00,3200.00,0.00,Mikito Nakanishi,CreditCard,3200.00,010479,,,,,,,0.00,,,,,,,,0.00,,,,,,,,No,"3 years parts, 1 year labor (Free)",Scheduled,MITSUWA TORRANCE 6/8-10/18 (CA),,3rd Floor,106811,"CORRECTION FOR #106754//Confirmed $3,200 in Wells Fargo.  6/12/18 Hitomi",CA,1,9.50
6/14/2018 12:02:01 PM,Montrii Kiatkulpiboone,CA,90805,Legacy 3D,DWA-9150USJ-9150BL,New Black,New,,,,,3500.00,3500.00,0.00,Mikito Nakanishi,Cash,50.00,,,,,,,COD,3450.00,,,,,,,,0.00,,,,,,,,No,"3 years parts, 1 year labor (Free)",Scheduled,MITSUWA TORRANCE 6/8-10/18 (CA),,,106813,"CORRECTION FOR #106813//The customer is still thinking how to CORRECTION FOR #106755. pay the remaining balance.//$50 cash was received by Yumi-->Michael..COD $3,450. 6/12/18 Hitomi PRINTED",CA,1,9.50
6/18/2018 10:03:22 AM,Howard Lim,CA,90278,Legacy,DWA-9100DWA-9100BL,New Black,New,,,,,4050.00,4050.00,0.00,Mikito Nakanishi,Cash,100.00,,,,,,,COD,3950.00,,,,,,,,0.00,,,,,,,,No,"3 years parts, 1 year labor (Free)",Called,MITSUWA TORRANCE 6/8-10/18 (CA),,,106923,2nd floor delivery///$100 cash was received by Yumi. 6/18/18 Hitomi PRINTED,CA,1,9.50
