﻿Original Event Name,Event Name,Sales Person,Order Number,Order Date,Customer Name,State,Zip,Product Name,Color,Product Status,QTY,Tax,Total Before Tax,Order Total,Primary Payment Method,Second Payment Method,Thirdl Payment Method,Warranty,Order Items,Pick up,Delivered On,Order Status,Chair Type,Order Notes,Private Note,Branch,No Tax,Actual Tax Rate,SKU,Primary Payment Balance,Primary Authorize Number,Primary Purchase Order Number,Primary Synchrony Account Number,Primary Synchrony Application Key,Primary Synchrony Account Info,Primary Synchrony Term,Second Payment Balance,Second Authorize Number,Second Purchase Order Number,Second Synchrony Account Number,Second Synchrony Application Key,Second Synchrony Account Info,Second SynchronyTerm,Third Payment Balance,Third Authorize Number,Third Purchase Order Number,Third Synchrony Account Number,Third Synchrony Application Key,Third Synchrony Account Info,Third Synchrony Term
"Sam's Club #4780 Buford, GA 4/11-21/19 (FL)","Sam's Club #4780 Buford, GA 4/11-21/19 (FL)",Robert Shih,116756,4/16/2019 9:03:57 AM,Guihui Tan,GA,30656,Pegasus for Sam's,New Black,New,1,329.88,5498.00,5827.88,Credit Card,,,"3 years parts, 1 year labor (Free)","Pegasus for Sam's,",No,,Assigned,,,"CC, Jasmin Carrizales, 4/17/19, 9:39am, VM",FL,0,6.00,DWA-9400Pegasus-BL-NEW,5827.88,TC# 9623 9102 2103 3246 6675 88,,,,,,0.00,,,,,,,0.00,,,,,,
"Sam's Club #4780 Buford, GA 4/11-21/19 (FL)","Sam's Club #4780 Buford, GA 4/11-21/19 (FL)",Robert Shih,116898,4/21/2019 7:11:04 PM,Alice Smith,GA,30548,Relax 2 Zero 2.0 for Sam's,New Brown,New,1,234.00,3900.00,4134.00,Credit Card,,,"3 years parts, 1 year labor (Free)","Relax 2 Zero 2.0 for Sam's,",No,,Assigned,,,"CC, Jasmin Carrizales, 4/22/19, 1:02pm",FL,0,6.00,USJ-9050USJ-9050BR,4134.00,TC# 2839 9483 7189 7797 5722 23,,,,,,0.00,,,,,,,0.00,,,,,,
"Sam's Club #4780 Buford, GA 4/11-21/19 (FL)","Sam's Club #4780 Buford, GA 4/11-21/19 (FL)",Robert Shih,116899,4/21/2019 7:17:45 PM,James Finley,GA,30518,Relax 2 Zero 2.0 for Sam's,New Black,New,1,234.00,3900.00,4134.00,Credit Card,,,"3 years parts, 1 year labor (Free)","Relax 2 Zero 2.0 for Sam's,",No,,New,,"24 months 0% APR  / customer agreed the financing price pls count $4,299 + Tax",4/22/19-will confirm price - Hitomi,Not Dispatched,0,6.00,USJ-9050USJ-9050BL,4556.94,TC# 6447 3491 5698 8536 1326 20,,,,,,0.00,,,,,,,0.00,,,,,,
"Sam's Club #4780 Buford, GA 4/11-21/19 (FL)","Sam's Club #4780 Buford, GA 4/11-21/19 (FL)",Robert Shih,116900,4/21/2019 7:22:54 PM,Sandra & Don Bowers,GA,30680,Legacy for Sam's,Demo Choco[-700],Demo,1,215.94,3599.00,3814.94,Credit Card,,,"3 years parts, 1 year labor (Free)","Legacy for Sam's,Chair Pad for Legacy,Foot Vibe Pro,",No,,Assigned,,Foot vibe x 1  / Back pad x 1 ( Gift ),"CC, Jasmin Carrizales, 4/22/19, 12:58pm, No deliveries Monday, or thursday or 5/10/9.",FL,0,6.00,DWA-9100DWA-9100CH-DEMO,3814.94,TC# 2930 8667 6563 8870 9760 05,,,,,,0.00,,,,,,,0.00,,,,,,
"Sam's Club #4780 Buford, GA 4/11-21/19 (FL)","Sam's Club #4780 Buford, GA 4/11-21/19 (FL)",Robert Shih,116904,4/21/2019 7:40:27 PM,Jesus Malvaez,GA,30519,Vitality Plate for Sam's,New,New,1,27.60,459.99,487.59,Credit Card,,,"2 years parts, 1 year labor for Small Items","Vitality Plate for Sam's,",YES,,Delivered,,,,FL,0,6.00,USJ-849USJ-849,487.59,TC# 9961 3464 1466 6887 2013 9,,,,,,0.00,,,,,,,0.00,,,,,,
