﻿Original Event Name,Event Name,Sales Person,Order Number,Order Date,Customer Name,State,Zip,Product Name,Color,Product Status,QTY,Tax,Total Before Tax,Order Total,Primary Payment Method,Second Payment Method,Thirdl Payment Method,Warranty,Order Items,Pick up,Delivered On,Order Status,Chair Type,Order Notes,Private Note,Branch,No Tax,Actual Tax Rate,SKU,Primary Payment Balance,Primary Authorize Number,Primary Purchase Order Number,Primary Synchrony Account Number,Primary Synchrony Application Key,Primary Synchrony Account Info,Primary Synchrony Term,Primary Synchrony Primary ID,Primary Synchrony Issued State,Primary Synchrony Expiretion Date,Second Payment Balance,Second Authorize Number,Second Purchase Order Number,Second Synchrony Account Number,Second Synchrony Application Key,Second Synchrony Account Info,Second SynchronyTerm,Second Synchrony Primary ID,Second Synchrony Issued State,Second Synchrony Expiretion Date,Third Payment Balance,Third Authorize Number,Third Purchase Order Number,Third Synchrony Account Number,Third Synchrony Application Key,Third Synchrony Account Info,Third Synchrony Term,Third Synchrony Primary ID,Third Synchrony Issued State,Third Synchrony Expiretion Date
"Mitsuwa Chair Event 7/19-28/19 Plano, TX","Mitsuwa Chair Event 7/19-28/19 Plano, TX",Robert Shih,118850,7/22/2019 9:20:52 AM,Tammy Hinchee,IL,60098,Legend 2,New Black,New,1,0.00,3300.00,3300.00,Synchrony,,,"5 years parts, 1 year labor (Free)","Legend 2,",No,,Scheduled,,"Returned customer , 3rd unit discount / Synchrony 24 months 0% APR","Synchrony original verified. Credit available $9000. Remaining balance $3300. Pls charge synchrony account upon delivery, have sales draft sign. Erika 7/22/19 10:54am
7/22- Customer has confirmed delivery for 7/26 between 9am-1pm. -Karen",IL,1,8.25,DWA-9200DWA-9200-BL,3300.00,,,6501723375239207,78398155,Huston,24 months,Driver’s License,IL,06/2022,0.00,,,,,,,,,/,0.00,,,,,,,,,/
"Mitsuwa Chair Event 7/19-28/19 Plano, TX","Mitsuwa Chair Event 7/19-28/19 Plano, TX",Robert Shih,118852,7/22/2019 9:28:11 AM,Thanh B. Lam,FL,33031,Legacy,Demo Sienna,Demo,1,0.00,3500.00,3500.00,Credit Card,,,"5 years parts, 1 year labor (Free)","Legacy,",No,,Scheduled,,"C.O.D $3,000 / Pls also deliver Tapping Pro ( USJ-722 ) together  .","Per Roberts email customer is available to receive orders on Wednesdays after 5pm or Weekends -Cristina 07/22/19 11:52 am
Original received. SQ amount verified $500. Remaining balance $3000. Collect COD (3000) @ delivery. Erika 7/22/19 2:48pm
CC, Jasmin Carrizales, 7/22/19, 5:56pm, VM",FL,1,8.25,DWA-9100DWA-9100SI-DEMO,500.00,SQ# ChB6,,,,,,,,/,0.00,,,,,,,,,/,0.00,,,,,,,,,/
"Mitsuwa Chair Event 7/19-28/19 Plano, TX","Mitsuwa Chair Event 7/19-28/19 Plano, TX",Robert Shih,118904,7/24/2019 8:47:02 AM,Francine Geosits,TX,75013,Legacy 3D,Demo Black,Demo,1,371.25,4500.00,4871.25,Synchrony,,,"5 years parts, 1 year labor (Free)","Legacy 3D,",No,,Called,,Synchrony 36 months 0% APR / Second floor delivery / Pls replace the both scratch arms / Pls deliver before this Saturday if possible or after 8/5,"Synchrony original verified.  Credit available $6500. Remaining balance $4871.25. Pls charge synchrony account upon delivery, have sales draft sign. Erika 7/24/19 9:04am
courtesy call completed. Erika 7/24/19 1:49pm
print 7/25/2019June
Called customer and try to schedule delivery to Friday between 8-10pm for Mario. However, the customer think to cancel the order, informed to sales person. 7/25/2019 June
--Per sales rep request hold after one month. schedule after one month. Erika 7/29/19 3:37pm",TX,0,8.25,DWA-9150USJ-9150BL-DEMO,4871.25,,,6501723375246517,78628111,Huston,36 months,Driver’s License,TX,03/2023,0.00,,,,,,,,,/,0.00,,,,,,,,,/
"Mitsuwa Chair Event 7/19-28/19 Plano, TX","Mitsuwa Chair Event 7/19-28/19 Plano, TX",Robert Shih,118942,7/26/2019 8:58:04 AM,Harue Y. Abdelhadi,TX,75094,Legacy,Demo Black,Demo,1,0.00,3600.00,3600.00,Synchrony,,,"5 years parts, 1 year labor (Free)","Legacy,",No,,Cancelled,,Synchrony 24 months 0% APR ( Existing account from Rooms to go ),"Synchrony original verified. Credit available $6500. Remaining balance $3600. Pls charge synchrony account upon delivery, have sales draft sign. Erika 7/26/19 9:15am
Canceled order, wrong warranty. NEW ORDER# 118943",Not Dispatched,1,8.25,DWA-9100DWA-9100BL-DEMO,3600.00,,,6019191237502979,,Huston,24 months,Driver’s License,TX,08/2022,0.00,,,,,,,,,/,0.00,,,,,,,,,/
"Mitsuwa Chair Event 7/19-28/19 Plano, TX","Mitsuwa Chair Event 7/19-28/19 Plano, TX",Robert Shih,118943,7/26/2019 9:28:40 AM,Harue Yasmin Abdelhadi,TX,75094,Legacy,Demo Black,Demo,1,0.00,3600.00,3600.00,Synchrony,,,"5 years parts, 3 years labor ($400)","Legacy,",No,,Scheduled,,,"Synchrony original verified. Credit available $6500. Remaining balance $3600. Pls charge synchrony account upon delivery, have sales draft sign. Erika 7/26/19 9:15am
Printed - Tina 7/26/2019
COURTESY CALL/TEXT COMPLETED.Erika 7/26/19 11:12am
7/26 - Alysa - Customer confirmed delivery Tuesday 7/30 between 2-5PM. Synchrony Authorization Code
026497",TX,1,8.25,DWA-9100DWA-9100BL-DEMO,3600.00,,,6019191237502979,,Huston,24 months,Driver’s License,TX,08/2022,0.00,,,,,,,,,/,0.00,,,,,,,,,/
"Mitsuwa Chair Event 7/19-28/19 Plano, TX","Mitsuwa Chair Event 7/19-28/19 Plano, TX",Robert Shih,118990,7/28/2019 8:44:06 AM,Charlotte Larry,TX,76001,Legacy,Demo Black,Demo,1,0.00,3500.00,3500.00,Synchrony,COD,,"5 years parts, 1 year labor (Free)","Legacy,",No,,New,,"Existing account from Rooms to go / Synchrony 36 months 0% APR $2,700 / C.O.D $800","Synchrony original verified. Credit available $2718. Pls charge (2700) synchrony account upon delivery, have sales draft sign. Remaining balance $800. collect COD (800) @ delivery. Erika 7/29/19 3:29pm",TX,1,8.25,DWA-9100DWA-9100BL-DEMO,2700.00,,,6019191223772586,,Huston,36 months,Driver’s License,TX,08/2020,800.00,,,,,,,,,/,0.00,,,,,,,,,/
"Mitsuwa Chair Event 7/19-28/19 Plano, TX","Mitsuwa Chair Event 7/19-28/19 Plano, TX",Robert Shih,118991,7/28/2019 8:47:35 AM,Alice He,TX,75024,Legacy 3D,Demo Black,Demo,1,0.00,3900.00,3900.00,Credit Card,COD,,"5 years parts, 1 year labor (Free)","Legacy 3D,",No,,New,,"COD $3,600","Original received. SQ amount verified $300. Remaining balance $3600. Collect COD(3600) @ delivery. Erika 7/29/19 3:17pm
Ask for Brendam Kim or Alice",TX,1,8.25,DWA-9150USJ-9150BL-DEMO,300.00,SQ# RsYp,,,,,,,,/,3600.00,,,,,,,,,/,0.00,,,,,,,,,/
"Mitsuwa Chair Event 7/19-28/19 Plano, TX","Mitsuwa Chair Event 7/19-28/19 Plano, TX",Robert Shih,118993,7/28/2019 10:54:28 AM,Ailyn Misola,TX,75126,Legacy 3D,Demo Black,Demo,1,346.50,4200.00,4546.50,Synchrony,,,"5 years parts, 1 year labor (Free)","Legacy 3D,",No,,New,,Existing Synchrony account by Mattress firm / 36 months 0% APR,"Synchrony original verified.  Credit available $5000. Remaining balance $4546.50. Pls charge synchrony account upon delivery, have sales draft sign. Erika 7/29/19 3:09pm
FREE Daiwa Blanket with chair on delivery",TX,0,8.25,DWA-9150USJ-9150BL-DEMO,4546.50,,,6501722430255810,,Huston,36 months,Driver’s License,TX,06/2021,0.00,,,,,,,,,/,0.00,,,,,,,,,/
"Mitsuwa Chair Event 7/19-28/19 Plano, TX","Mitsuwa Chair Event 7/19-28/19 Plano, TX",Robert Shih,119003,7/28/2019 4:58:20 PM,Dr. Chris Tiu,TX,76248,Legacy 3D,Demo Black,Demo,1,0.00,3900.00,3900.00,Credit Card,,,"5 years parts, 1 year labor (Free)","Legacy 3D,",No,,New,,"Pls try to deliver before 8/7 , thank you so much.",Original received. SQ amount verified $3900. Paid in full. Erika 7/29/19 2:59pm,TX,1,8.25,DWA-9150USJ-9150BL-DEMO,3900.00,SQ# bXWt,,,,,,,,/,0.00,,,,,,,,,/,0.00,,,,,,,,,/
