﻿Original Event Name,Event Name,Sales Person,Order Number,Order Date,Customer Name,State,Zip,Product Name,Color,Product Status,QTY,Tax,Total Before Tax,Order Total,Primary Payment Method,Second Payment Method,Thirdl Payment Method,Warranty,Order Items,Pick up,Delivered On,Order Status,Chair Type,Order Notes,Private Note,Branch,No Tax,Actual Tax Rate,SKU,Primary Payment Balance,Primary Authorize Number,Primary Purchase Order Number,Primary Synchrony Account Number,Primary Synchrony Application Key,Primary Synchrony Account Info,Primary Synchrony Term,Second Payment Balance,Second Authorize Number,Second Purchase Order Number,Second Synchrony Account Number,Second Synchrony Application Key,Second Synchrony Account Info,Second SynchronyTerm,Third Payment Balance,Third Authorize Number,Third Purchase Order Number,Third Synchrony Account Number,Third Synchrony Application Key,Third Synchrony Account Info,Third Synchrony Term
"Sam's Club #6320 Hermantown, MN 5/23-6/2/19 (IL)","Sam's Club #6320 Hermantown, MN 5/23-6/2/19 (IL)",Gregory Hickey,117555,5/24/2019 9:08:38 PM,Ronald Larsen,WI,54873,Shogun Neck & Back Massger,Demo[-20],Demo,1,15.07,179.98,195.05,Credit Card,,,"2 years parts, 1 year labor for Small Items","Shogun Neck &amp; Back Massger,",YES,,Delivered,,Customer took item with,,IL,0,8.38,USJ-874USJ-874-DEMO,195.05,TC 9476 8578 3563 3119 3840 7,,,,,,0.00,,,,,,,0.00,,,,,,
"Sam's Club #6320 Hermantown, MN 5/23-6/2/19 (IL)","Sam's Club #6320 Hermantown, MN 5/23-6/2/19 (IL)",Gregory Hickey,117556,5/24/2019 9:19:22 PM,David Baldes,MN,55812,PEGASUS 2 SMART - Sam's,New Choco,New,1,519.17,6199.00,6718.17,Credit Card,,,"3 years parts, 1 year labor (Free)","PEGASUS 2 SMART - Sam's,",No,,New,,,,Not Dispatched,0,8.38,PEGS-2PEGS-2-BR,6718.17,TC 9752 3920 3924 4467 0129 91,,,,,,0.00,,,,,,,0.00,,,,,,
"Sam's Club #6320 Hermantown, MN 5/23-6/2/19 (IL)","Sam's Club #6320 Hermantown, MN 5/23-6/2/19 (IL)",Gregory Hickey,117573,5/25/2019 9:24:48 PM,Edward Flood,WI,54873,Legacy 3D - Sam's Club,New Black,New,1,393.54,4699.00,5092.54,Credit Card,,,"3 years parts, 1 year labor (Free)","Legacy 3D - Sam's Club,",No,,New,,,,Not Dispatched,0,8.38,DWA-9150DWA-9150BL,5092.54,TC 0739 0986 2582 7792 6001 64,,,,,,0.00,,,,,,,0.00,,,,,,
"Sam's Club #6320 Hermantown, MN 5/23-6/2/19 (IL)","Sam's Club #6320 Hermantown, MN 5/23-6/2/19 (IL)",Gregory Hickey,117618,5/27/2019 7:24:35 PM,Lloyd Nohl,MN,55720,PEGASUS 2 SMART - Sam's,Demo(Box) Black[-700],Demo,1,460.54,5499.00,5959.54,Credit Card,,,"3 years parts, 1 year labor (Free)","PEGASUS 2 SMART - Sam's,",No,,New,,,,Not Dispatched,0,8.38,PEGS-2PEGS-2-BL-DEMO(Box),0.00,TC 1749 3383 2180 7792 6621 54,,,,,,0.00,,,,,,,0.00,,,,,,
"Sam's Club #6320 Hermantown, MN 5/23-6/2/19 (IL)","Sam's Club #6320 Hermantown, MN 5/23-6/2/19 (IL)",Gregory Hickey,117620,5/27/2019 7:34:54 PM,Kelly Peterson,MN,55811,Shogun Neck & Back Massger,Demo[-20],Demo,1,15.07,179.98,195.05,Credit Card,,,"2 years parts, 1 year labor for Small Items","Shogun Neck &amp; Back Massger,",YES,,Delivered,,Customer took item with.,,IL,0,8.38,USJ-874USJ-874-DEMO,195.06,TC 3345 0367 1390 1085 1168 9,,,,,,0.00,,,,,,,0.00,,,,,,
