﻿Date,Customer Name,State,Zipcode,Description,Product Number,Color,Product Status,Net,Shipping Fee,Gift Price,Financing Processing Fee,Order Total,Total Before Tax,Tax,Commission,Primary Payment Method,Primary Payment Balance,Primary Authorize Number,Primary Purchase Order Number,Primary Synchrony Account Number,Primary Synchrony Application Key,Primary Synchrony Account Info,Primary Synchrony Term,Second Payment Method,Second Payment Balance,Second Authorize Number,Second Purchase Order Number,Second Synchrony Account Number,Second Synchrony Application Key,Second Synchrony Account Info,Second Synchrony Term,Third Payment Method,Third Payment Balance,Third Authorize Number,Third Purchase Order Number,Third Synchrony Account Number,Third Synchrony Application Key,Third Synchrony Account Info,Third Synchrony Term,Delivery Date,Pick up,Warranty,Status,Original Event Name,Event Name,Synchrony Notes,Order Notes,Order Number,Private Note,Branch,No Tax,Actual Tax Rate
9/15/2018 10:18:31 AM,Michael Urso,CT,06067,Pegasus,DWA-9400Pegasus-BR,New Choco,New,,,,,5900.00,5900.00,0.00,Rolly San Jose,CreditCard,5900.00,04139G,,,,,,,0.00,,,,,,,,0.00,,,,,,,,No,"3 years parts, 1 year labor (Free)",Scheduled,"THE BIG E STATE FAIR 9/14-30/18 West Springfield, MA (IL)","THE BIG E STATE FAIR 9/14-30/18 West Springfield, MA (IL)",,,109370,"Customer must receive on or before October 15 because of travel arrangements. Delivery is his office ground floor only///COnfirmed 5,900.00 in WF. 9/17/18 Hitomi
9/17Maritza- Courtesy text @ 9:55AM",TX,1,6.25
9/15/2018 3:24:49 PM,Maksud Shaikh,CT,06067,Legacy 3D,DWA-9150USJ-9150BL,New Black,New,,,,,4500.00,4500.00,0.00,Rolly San Jose,CreditCard,2000.00,164175,,6019170813142319,94472640,Huston,36 months,CreditCard,2500.00,167633,,,,,,,0.00,,,,,,,,No,"3 years parts, 1 year labor (Free)",Scheduled,"THE BIG E STATE FAIR 9/14-30/18 West Springfield, MA (IL)","THE BIG E STATE FAIR 9/14-30/18 West Springfield, MA (IL)",,,109388,"Pls deliver with Michael urso chair who lives same city, state and zip code 0n or before October 15
//Rolly informed payment method changed from Synchrony to WF. $4,500 is cleared with receipt. 9/17/18 Hitomi
9/17 Maritza Courtesy text sent @ 10:02AM",TX,1,6.25
9/15/2018 8:48:56 PM,Edwin Larrivee,CT,06461,Legacy 3D,DWA-9150USJ-9150BL,New Black,New,,,,,4900.00,4900.00,0.00,Billy Shea,Synchrony,4900.00,,,6019170813139059,94410448,Las Vegas,36 months,,0.00,,,,,,,,0.00,,,,,,,,No,"3 years parts, 1 year labor (Free)",Scheduled,"THE BIG E STATE FAIR 9/14-30/18 West Springfield, MA (IL)","THE BIG E STATE FAIR 9/14-30/18 West Springfield, MA (IL)",,,109405,"Deliver within 2 -3 weeks from sept 24
//COnfirmed synchrony account (6,300) and original. ***Please charge $4,900 before delivery and have sales draft signed. *** 9/17/18 Hitomi
9/18Maritza Courtesy text sent @ 8:49AM",TX,1,6.25
9/15/2018 8:57:17 PM,Dominick Cortese,MA,01001,Legacy 3D,DWA-9150USJ-9150BL,New Black,New,,,,,9000.00,9000.00,0.00,Rolly San Jose,Cash,200.00,,,,,,,CreditCard,8800.00,06418D,,,,,,,0.00,,,,,,,,No,"3 years parts, 1 year labor (Free)",Scheduled,"THE BIG E STATE FAIR 9/14-30/18 West Springfield, MA (IL)","THE BIG E STATE FAIR 9/14-30/18 West Springfield, MA (IL)",,,109406,"Pls deliver within 2-3 weeks from sept 24//$200 cash with Rolly. $8800 is cleared in WF. 9/17/18 Hitomi//Noni received $200 cash. received cash confirmation. 10/1/18 HItomi
9/18Maritza Courtesy text @ 8:51AM",TX,1,6.25
9/15/2018 9:33:02 PM,Keith Lambert,MA,02375,Relax2Zero 3D,DWA-9060USJ-9060BL,New Black,New,,,,,4200.00,4200.00,0.00,Winston Melgar,Cash,500.00,,,,,,,Cash,3700.00,,,,,,,,0.00,,,,,,,10/14/2018 12:00:00 AM,No,"3 years parts, 1 year labor (Free)",Delivered,"THE BIG E STATE FAIR 9/14-30/18 West Springfield, MA (IL)","THE BIG E STATE FAIR 9/14-30/18 West Springfield, MA (IL)",,,109415,"Balance payment $3700 will be paid before show ends.//$500 cash is with Rolly. COD $3.700. Per invoice, hold till fully paid. Rolly will inform us once they pay till end of the show.9/17/18 Hitomi
//Rolly informed $3,700 was paid in cash, which is with Rolly. He will fill up cash receipt for IL branch later. - 9/28/18 Hitomi//Noni received $500 & $3,700 cash. Received cash confirmation. 10/1/18 Hitomi",TX,1,6.25
9/15/2018 9:41:19 PM,Kandy Roy,NH,03037,Legacy 3D,DWA-9150USJ-9150CH,New Choco,New,,,,,4500.00,4500.00,0.00,Keith Kei,Synchrony,4500.00,,,6019193316391910,,,36 months,,0.00,,,,,,,,0.00,,,,,,,,No,"3 years parts, 1 year labor (Free)",Scheduled,"THE BIG E STATE FAIR 9/14-30/18 West Springfield, MA (IL)","THE BIG E STATE FAIR 9/14-30/18 West Springfield, MA (IL)","Authorization Code
026180
436",,109416,"Pls deliver within 2-3 weeks from sept 24//Customer already had synchrony account.available limit is $2.00 as of now. Rolly informed that they are waiting syncrony to put back the whole amount of $5998 into her account . once it is confirmed , I will assign this order.  9/17/18 Hitomi
9/20/18 - credit limit has not increased yet.- Hitomi
9/26Maritza Customer will call mattress firm to uplift the hold. funds are there but hold needs to be lifted. Kandy will call to confirm the funds. Need to deliver by October 8-9.",TX,1,6.25
9/15/2018 9:47:50 PM,David Youngstrom,MA,01752,Relax2Zero 3D,DWA-9060USJ-9060BL,New Black,New,,,,,5650.00,5650.00,0.00,Rolly San Jose,Synchrony,4900.00,,,6019170813140198,94435229,Huston,48 months,,0.00,,,,,,,,0.00,,,,,,,,No,"3 years parts, 1 year labor (Free)",Cancelled,"THE BIG E STATE FAIR 9/14-30/18 West Springfield, MA (IL)","THE BIG E STATE FAIR 9/14-30/18 West Springfield, MA (IL)",,,109417,"Pls deliver in NOVEMBER 2018. David will call rolly to give exact date 2 weeks before
///",Not Dispatched,1,6.25
9/15/2018 9:55:44 PM,Dianna Denne,CT,06611,Legacy 3D,DWA-9150USJ-9150BL-DEMO,Demo Black,Demo,,,,,4200.00,4200.00,0.00,Billy Shea,Synchrony,4200.00,,,6019170813140255,94435862,Las Vegas,36 months,,0.00,,,,,,,,0.00,,,,,,,,No,"3 years parts, 1 year labor (Free)",Called,"THE BIG E STATE FAIR 9/14-30/18 West Springfield, MA (IL)","THE BIG E STATE FAIR 9/14-30/18 West Springfield, MA (IL)",,,109418,"Pls deliver the week after sept 30. Pls add 2 more years on parts to make 5 years
//Confirmed synchrony account ($8,500) and original. ***Please charge $4,200 before delivery and have sales draft signed.*** 9/17/18 Hitomi
9/18Maritza Courtesy text sent @ 8:55AM",TX,1,6.25
9/15/2018 10:17:50 PM,Elsa Reyes,CT,06118,Relax2Zero 3D,DWA-9060USJ-9060BL-DEMO,Demo Black,Demo,,,,,4200.00,4200.00,0.00,Noni Ignacio,Synchrony,4200.00,,,6019170813141493,94460574,Huston,36 months,,0.00,,,,,,,,0.00,,,,,,,,No,"2 years parts, 1 year labor (Free)",Scheduled,"THE BIG E STATE FAIR 9/14-30/18 West Springfield, MA (IL)","THE BIG E STATE FAIR 9/14-30/18 West Springfield, MA (IL)","Authorization Code 
027217
charged by Tina 9/27/2018",,109419,"Pls deliver all demo chairs the week after sept 30.//Confirmed synchrony account ($6,000) and original. ***Please charge $4,200 before delivery and have sales draft signed. ***  9/17/18 Hitomi
9/18Maritza Courtesy text @ 9AM",TX,1,6.25
9/15/2018 10:30:15 PM,John Magowan,CT,06480,Legacy 3D,DWA-9150USJ-9150CH,New Choco,New,,,,,5206.00,5206.00,0.00,Keith Kei,Synchrony,5206.25,,,6019170813142210,94471423,Huston,36 months,,0.00,,,,,,,,0.00,,,,,,,,No,"3 years parts, 1 year labor (Free)",Cancelled,"THE BIG E STATE FAIR 9/14-30/18 West Springfield, MA (IL)","THE BIG E STATE FAIR 9/14-30/18 West Springfield, MA (IL)",,,109420,"Pls deliver 2-3 weeks from sept 24
//Confirmed synchrony account ($6,600) and original. will confirm total amount 9/17/18 Hitomi",Not Dispatched,1,6.25
9/15/2018 10:40:27 PM,Robert Simpkiss,MA,01069,Legacy 3D,DWA-9150USJ-9150BL-DEMO,Demo Black,Demo,,,,,4000.00,4000.00,0.00,Noni Ignacio,CreditCard,4000.00,805146,,,,,,,0.00,,,,,,,,0.00,,,,,,,,No,"3 years parts, 1 year labor (Free)",Called,"THE BIG E STATE FAIR 9/14-30/18 West Springfield, MA (IL)","THE BIG E STATE FAIR 9/14-30/18 West Springfield, MA (IL)",,,109421,"Pls deliver the week after sept 30
//COnfirmed $4,000 in WF. 9/17/18 Hitomi
9/18Maritza Courtesy text @ 9:06AM",TX,1,6.25
9/15/2018 10:50:43 PM,David Clayman,MA,01742,Relax2Zero 3D,DWA-9060USJ-9060BL,New Black,New,,,,,4500.00,4500.00,0.00,Winston Melgar,CreditCard,4500.00,06252G,,,,,,,0.00,,,,,,,,0.00,,,,,,,,No,"3 years parts, 1 year labor (Free)",Scheduled,"THE BIG E STATE FAIR 9/14-30/18 West Springfield, MA (IL)","THE BIG E STATE FAIR 9/14-30/18 West Springfield, MA (IL)",,,109422,"Pls deliver 2-3 weeks from sept 24
COnfirmed $4,500 in WF. 9/17/18 HItomi
9/18Maritza Courtesy Text @ 9:10AM",TX,1,6.25
9/15/2018 11:46:00 PM,Jennifer Dowling,VT,05352,Legacy 3D,DWA-9150USJ-9150BL-DEMO,Demo Black,Demo,,,,,4200.00,4200.00,0.00,Noni Ignacio,CreditCard,4200.00,05395Z,,,,,,,0.00,,,,,,,,0.00,,,,,,,,No,"3 years parts, 1 year labor (Free)",Called,"THE BIG E STATE FAIR 9/14-30/18 West Springfield, MA (IL)","THE BIG E STATE FAIR 9/14-30/18 West Springfield, MA (IL)",,,109423,"Pls deliver all demo chairs the week after sept 30
//Confirmed $4,200.00 in WF.  9/17/18 Hitomi
9/18Maritza Courtesy text sent to both numbers @ 9:14",TX,1,6.25
9/15/2018 11:53:23 PM,Vijay Subramaniam,CT,06042,Relax2Zero 3D,DWA-9060USJ-9060BR,New Choco,New,,,,,4200.00,4200.00,0.00,Keith Kei,Synchrony,4200.00,,,6019170813142814,94478753,Huston,48 months,,0.00,,,,,,,,0.00,,,,,,,,No,"3 years parts, 1 year labor (Free)",Scheduled,"THE BIG E STATE FAIR 9/14-30/18 West Springfield, MA (IL)","THE BIG E STATE FAIR 9/14-30/18 West Springfield, MA (IL)",,,109424,"COnfirmed synchrony account ($6,500) and original. ***Please charge $4,200 before delivery and have sales draft signed. *** 9/17/18 Hitomi
9/18Maritza Courtesy text to both numbers@ 9:18",TX,1,6.25
9/16/2018 5:03:19 PM,Catherine Twiss,MA,01256,Legacy 3D,DWA-9150USJ-9150CH,New Choco,New,,,,,4900.00,4900.00,0.00,Noni Ignacio,Synchrony,4900.00,,,6019170813143457,94492209,Las Vegas,36 months,,0.00,,,,,,,,0.00,,,,,,,,No,"5 years parts, 1 year labor (Free)",Scheduled,"THE BIG E STATE FAIR 9/14-30/18 West Springfield, MA (IL)","THE BIG E STATE FAIR 9/14-30/18 West Springfield, MA (IL)",,,109463,"Confirmed synchrony account ($8,500) and original. ***Please charge $4,900 before delivery and have sales draft signed. *** 9/17/18 Hitomi
9/18Maritza Courtesy text @ 9:37AM",TX,1,6.25
9/16/2018 5:12:41 PM,Santos Vega,CT,06118,Legacy 3D,DWA-9150USJ-9150CH,New Choco,New,,,,,4250.00,4250.00,0.00,Keith Kei,Synchrony,4250.00,,,6019170813143556,94494720,Huston,24 months,,0.00,,,,,,,,0.00,,,,,,,10/4/2018 12:00:00 AM,No,"5 years parts, 1 year labor (Free)",Delivered,"THE BIG E STATE FAIR 9/14-30/18 West Springfield, MA (IL)","THE BIG E STATE FAIR 9/14-30/18 West Springfield, MA (IL)","Authorization Code 
002725
charged by Tina 10/2/2018",,109464,"Please deliver within 2~3 weeks from September 24th
//Confirmed synchrony account ($6,500) and original. ***Please charge $4,250 before delivery and have sales draft signed. *** 9/17/18 Hitomi
9/18Maritza Courtesy text @ 9:46AM
9/18 Maritza-Tina texted to inform us that customer had already cancelled order. Will confirm with sales rep. Keith said to place on HOLD. Rolly will try to save the order. They will keep us updated.
10/1 Hitomi- Keith said the customer changed their mind , wants the chair. Please process the delivery.",TX,1,6.25
9/16/2018 5:20:28 PM,Kimberly Lavallee,MA,01569,Legacy 3D,DWA-9150USJ-9150CH-DEMO,Demo Choco,Demo,,,,,4200.00,4200.00,0.00,Rolly San Jose,CreditCard,1000.00,04223D,,,,,,Synchrony,3200.00,,,6019170813144620,94507796,Huston,36 months,,0.00,,,,,,,,No,"5 years parts, 1 year labor (Free)",Scheduled,"THE BIG E STATE FAIR 9/14-30/18 West Springfield, MA (IL)","THE BIG E STATE FAIR 9/14-30/18 West Springfield, MA (IL)","Authorization Code 
027898
charged by Tina 9/27/2018",,109465,"Please deliver within 2~3 weeks from 9/30
//COnfirmed $1,000 with WF receipt, synchrony account ($8,500) and original. ****Please charge $3200 and haves sales draft signed.*** 9/17/18 Hitomi
9/18Maritza Courtesy text @ 9:52AM",TX,1,6.25
9/16/2018 5:28:43 PM,Scott Nims,MA,01040,Relax2Zero 3D,DWA-9060USJ-9060BL,New Black,New,,,,,4500.00,4500.00,0.00,Rolly San Jose,CreditCard,4500.00,02415C,,,,,,,0.00,,,,,,,,0.00,,,,,,,,No,"3 years parts, 1 year labor (Free)",Scheduled,"THE BIG E STATE FAIR 9/14-30/18 West Springfield, MA (IL)","THE BIG E STATE FAIR 9/14-30/18 West Springfield, MA (IL)",,,109466,"Please deliver the week after 9/30
//Confirmed $4,500 with WF receipt. 9/17/18 Hitomi
9/18Maritza Courtesy text @ 10:06AM",TX,1,6.25
9/17/2018 11:28:31 AM,David Youngstrom,MA,01752,Relax2Zero 3D,DWA-9060USJ-9060BL,New Black,New,,,,,4900.00,4900.00,0.00,Rolly San Jose,Synchrony,4900.00,,,6019170813140198,94435229,Huston,48 months,,0.00,,,,,,,,0.00,,,,,,,,No,"3 years parts, 1 year labor (Free)",Hold,"THE BIG E STATE FAIR 9/14-30/18 West Springfield, MA (IL)","THE BIG E STATE FAIR 9/14-30/18 West Springfield, MA (IL)",,,109502,"Pls deliver in NOVEMBER 2018. David will call rolly to give exact date 2 weeks before
//Confirmed synchrony account ($8,500) and original. ***Please charge $4,900 before delivery and have sales draft signed.***  9/17/18 Hitomi
9/18Maritza Courtesy text sent @ 10:45AM Will call when ready.
Called and customer wants to cancel the order. 10/2/2018 June

10/03/18-House will be delayed. Pls deliver end dec 2018. Call first.
Thanks
Rolly",TX,1,6.25
9/17/2018 1:19:44 PM,Stephen Saulvier,MA,02052,Legacy 3D,DWA-9150USJ-9150CH,New Choco,New,,,,,4900.00,4900.00,0.00,Billy Shea,Synchrony,4900.00,,,6019170813145031,94523499,Huston,36 months,,0.00,,,,,,,,0.00,,,,,,,,No,"5 years parts, 1 year labor (Free)",Scheduled,"THE BIG E STATE FAIR 9/14-30/18 West Springfield, MA (IL)","THE BIG E STATE FAIR 9/14-30/18 West Springfield, MA (IL)",,,109518,"Please deliver 2~3 after 9/30
//Confirmed synchrony account ($6,500) and  original. ***Please charge $4,900 before delivery and have sales draft signed.*** 9/18/18 Hitomi
9/20Maritza Courtesy text @ 11:18AM",TX,1,6.25
9/17/2018 1:29:54 PM,Cory Larose,CT,06335,Relax2Zero 3D,DWA-9060USJ-9060BL-DEMO,Demo Black,Demo,,,,,4415.63,4200.00,215.63,Winston Melgar,Synchrony,0.00,,,6019170813145163,94528348,Huston,36 months,,0.00,,,,,,,,0.00,,,,,,,,No,"3 years parts, 1 year labor (Free)",Cancelled,"THE BIG E STATE FAIR 9/14-30/18 West Springfield, MA (IL)","THE BIG E STATE FAIR 9/14-30/18 West Springfield, MA (IL)",,,109520,"Chris is the main contact person .
Please deliver 1 week after 9/30
//will confirm total amount 9/18/18 Hitomi",Not Dispatched,0,6.25
9/17/2018 8:16:58 PM,Richard Fish,CT,06249,Legacy 3D,DWA-9150USJ-9150CH-DEMO,Demo Choco,Demo,,,,,4200.00,4200.00,0.00,Keith Kei,Synchrony,4200.00,,,6019170813145874,94546344,Huston,36 months,,0.00,,,,,,,,0.00,,,,,,,,No,"5 years parts, 1 year labor (Free)",Scheduled,"THE BIG E STATE FAIR 9/14-30/18 West Springfield, MA (IL)","THE BIG E STATE FAIR 9/14-30/18 West Springfield, MA (IL)","Authorization Code 
027127
charged by Tina 9/27/2018",,109526,"Demo chairs have to be delivered within 2 weeks from sept 24
//Confirmed synchrony form ($8,500) and original . ***Please charge $4,200 before delivery and have sales drat signed.*** 9/18/18 Hitomi

09/21/18-Courtesy call completed- Cristina- 1:01 pm",TX,1,6.25
9/17/2018 8:26:43 PM,Cory Liptak,MA,01085,Relax2Zero 3D,DWA-9060USJ-9060BR,New Choco,New,,,,,4462.00,4462.00,0.00,Rolly San Jose,CreditCard,4462.00,013568,,,,,,,0.00,,,,,,,,0.00,,,,,,,10/9/2018 12:00:00 AM,No,"3 years parts, 1 year labor (Free)",Delivered,"THE BIG E STATE FAIR 9/14-30/18 West Springfield, MA (IL)","THE BIG E STATE FAIR 9/14-30/18 West Springfield, MA (IL)",,,109527,"Confirmed $4,462 with WF receipt. 9/18/18 Hitomi
asking Friday 9/24/2018 june",TX,1,6.25
9/18/2018 10:11:24 AM,John Magowan,CT,06480,Legacy 3D,DWA-9150USJ-9150CH,New Choco,New,,,,,5206.25,5206.25,0.00,Keith Kei,Synchrony,5206.25,,,6019170813142210,94471423,Huston,36 months,,0.00,,,,,,,,0.00,,,,,,,,No,"3 years parts, 1 year labor (Free)",Scheduled,"THE BIG E STATE FAIR 9/14-30/18 West Springfield, MA (IL)","THE BIG E STATE FAIR 9/14-30/18 West Springfield, MA (IL)",,,109548,"Pls deliver 2-3 weeks from sept 24
//Confirmed synchrony account ($6,600) and original.**Please charge $5,206.25 before delivery and have sales draft signed. ***9/18/18 Hitomi
scheduled June 9/26/2018",TX,1,6.25
9/18/2018 11:47:53 AM,Cory Larose,CT,06335,Relax2Zero 3D,DWA-9060USJ-9060BL-DEMO,Demo Black,Demo,,,,,4462.00,4462.00,0.00,Winston Melgar,Synchrony,4462.00,,,6019170813145163,94528348,Huston,36 months,,0.00,,,,,,,,0.00,,,,,,,10/6/2018 12:00:00 AM,No,"3 years parts, 1 year labor (Free)",Delivered,"THE BIG E STATE FAIR 9/14-30/18 West Springfield, MA (IL)","THE BIG E STATE FAIR 9/14-30/18 West Springfield, MA (IL)","Authorization Code 
002130
charged by Tina 10/2/2018",,109551,"Chris(860-501-0377) is the main contact person .
Please deliver 1 week after 9/30
///Confirmed synchrony account ($8,500) and original. ***Please charge $4,462 before delivery and have sales draft signed.*** 9/18/18 Hitomi
wants chair delivered on Wednesday or Saturday. Customer said they leave noted on the invoice. 9/27/2018 June",TX,1,6.25
9/19/2018 8:39:58 PM,Brian Barrett,CT,06712,Relax2Zero 3D,DWA-9060USJ-9060BL-DEMO,Demo Black,Demo,,,,,4200.00,4200.00,0.00,Billy Shea,CreditCard,4200.00,07060C,,,,,,,0.00,,,,,,,,0.00,,,,,,,,No,"5 years parts, 1 year labor (Free)",Scheduled,"THE BIG E STATE FAIR 9/14-30/18 West Springfield, MA (IL)","THE BIG E STATE FAIR 9/14-30/18 West Springfield, MA (IL)",,,109575,"Deliver all demo chairs the week after sept 30//transaction has not been appeared 9/20/18 Hitomi//COnfirmed $4,200 in WF. 9/21/18 Hitomi
scheduled 9/26/2018 June",TX,1,6.25
9/20/2018 9:18:45 PM,Paul Lemieux,MA,01129,Relax2Zero 3D,DWA-9060USJ-9060BR-DEMO,Demo Choco,Demo,,,,,4200.00,4200.00,0.00,Winston Melgar,CreditCard,4200.00,281619,,,,,,,0.00,,,,,,,,0.00,,,,,,,9/21/2018 12:00:00 AM,No,"3 years parts, 1 year labor (Free)",Delivered,"THE BIG E STATE FAIR 9/14-30/18 West Springfield, MA (IL)","THE BIG E STATE FAIR 9/14-30/18 West Springfield, MA (IL)",,,109612,"Deliver all demo chairs the first week after sept 30//COnfirmed $4,200 in WF. 9/21/18 Hitomi",TX,1,6.25
9/20/2018 9:34:21 PM,Kelly Baldasaro,MA,01235,Relax2Zero 3D,DWA-9060USJ-9060BL,New Black,New,,,,,4900.00,4900.00,0.00,Rolly San Jose,Cash,1000.00,,,,,,,Synchrony,3900.00,,,6019170813149827,94674937,Huston,36 months,,0.00,,,,,,,,No,"3 years parts, 1 year labor (Free)",Scheduled,"THE BIG E STATE FAIR 9/14-30/18 West Springfield, MA (IL)","THE BIG E STATE FAIR 9/14-30/18 West Springfield, MA (IL)",,,109613,"Deliver all new chairs within 2-3 weeks from sept 30//$1,000 cash with Rolly. Confirmed synchrony account ($8,500) and original. ***PLease charge $3,900 before delivery and sales draft signed. ***9/21/18 Hitomi//Noni received $1,000 cash. received cash confirmation. 10/1/18 Hitomi 
09/24/18-  email sent req. synchrony info - cristina
scheduled 9/26/2018 June",TX,1,6.25
9/20/2018 9:40:28 PM,Linda Lee,CT,06082,Relax2Zero 3D,DWA-9060USJ-9060BL,New Black,New,,,,,4900.00,4900.00,0.00,Winston Melgar,CreditCard,4900.00,871820,,,,,,,0.00,,,,,,,,0.00,,,,,,,,No,"3 years parts, 1 year labor (Free)",Scheduled,"THE BIG E STATE FAIR 9/14-30/18 West Springfield, MA (IL)","THE BIG E STATE FAIR 9/14-30/18 West Springfield, MA (IL)",,,109614,"Deliver within 2-3 weeks from sept 30///$4,900 is cleared with WF receipt. 9/21/18 Hitomi
09/21/18- Courtesy call completed- Cristina- 1:57 pm",TX,1,6.25
9/20/2018 9:50:43 PM,Scott Colby,MA,01085,Legacy 3D,DWA-9150USJ-9150BL,New Black,New,,,,,4781.25,4781.25,0.00,Keith Kei,CreditCard,4781.25,Receipt #BaQl,,,,,,,0.00,,,,,,,,0.00,,,,,,,,No,"3 years parts, 1 year labor (Free)",Scheduled,"THE BIG E STATE FAIR 9/14-30/18 West Springfield, MA (IL)","THE BIG E STATE FAIR 9/14-30/18 West Springfield, MA (IL)",,,109615,"Deliver within 2-3 weeks from sept 30//Confirmed $4,781.25 in Square. 9/21/18 Hitomi
09/21/18- Courtesy call completed- Cristina- 1:40 pm",TX,1,6.25
9/21/2018 3:34:57 PM,Joseph La cascio,RI,02865,Relax2Zero 3D,DWA-9060USJ-9060BL,New Black,New,,,,,4500.00,4500.00,0.00,Winston Melgar,Synchrony,4500.00,,,6019170813150882,94708017,Huston,36 months,,0.00,,,,,,,,0.00,,,,,,,,No,"3 years parts, 1 year labor (Free)",Scheduled,"THE BIG E STATE FAIR 9/14-30/18 West Springfield, MA (IL)","THE BIG E STATE FAIR 9/14-30/18 West Springfield, MA (IL)",,,109632,"Deliver 2-3 weeks from sept 24//Confirmed SYNC acct ($8,500) and original.***Please charge $4,500 before delivery and sales draft signed.*** 9/24/18 Hitomi
9/24Maritza Courtesy text sent to both numbers @ 4:30PM",TX,1,6.25
9/21/2018 3:53:54 PM,John Egan,MA,01056,Legacy 3D,DWA-9150USJ-9150CH-DEMO,Demo Choco,Demo,,,,,4462.50,4462.50,0.00,Keith Kei,Synchrony,4462.50,,,6019193316399848,94637561,San Diego,48 months,,0.00,,,,,,,,0.00,,,,,,,,No,"5 years parts, 1 year labor (Free)",Scheduled,"THE BIG E STATE FAIR 9/14-30/18 West Springfield, MA (IL)","THE BIG E STATE FAIR 9/14-30/18 West Springfield, MA (IL)",,,109633,"This synchrony account# is mattress firm account. Pls deliver the week after sept 30///COnfirmed SYNC fund available $4,589.00.***Please charge $4,462.50 before delivery and have sales draft signed.***9/26/18 Hitomi
scheduled June",TX,1,6.25
9/21/2018 4:06:32 PM,Frank Santo,CT,06488,Legacy 3D,DWA-9150USJ-9150BL,New Black,New,,,,,4781.25,4781.25,0.00,Keith Kei,CreditCard,4781.25,SQ# UEOT,,,,,,,0.00,,,,,,,,0.00,,,,,,,,No,"5 years parts, 1 year labor (Free)",Scheduled,"THE BIG E STATE FAIR 9/14-30/18 West Springfield, MA (IL)","THE BIG E STATE FAIR 9/14-30/18 West Springfield, MA (IL)",,,109634,"Call Beth for delivery 2034053976.another tel#203-526-2933 Deliver 2-3 weeks from sept 24. //Confirmed $4,781.25 in Square. 9/21/18 Hitomi
9/24Maritza Courtesy text sent to Beth @ 4:33PM",TX,1,6.25
9/21/2018 4:14:50 PM,Suzanne Morrissey,CT,06355,Legacy 3D,DWA-9150USJ-9150BL,New Black,New,,,,,4500.00,4500.00,0.00,Billy Shea,CreditCard,4500.00,021286,,,,,,,0.00,,,,,,,,0.00,,,,,,,,No,"5 years parts, 1 year labor (Free)",Cancelled,"THE BIG E STATE FAIR 9/14-30/18 West Springfield, MA (IL)","THE BIG E STATE FAIR 9/14-30/18 West Springfield, MA (IL)",,,109635,"Confirmed $4,500 in WF 9/24/18 Hitomi
9/24Maritza Courtesy message sent @ 4:35PM
9/26/2018 Tina called to schedule appointment, customer said they already cancelled the chair 11:13AM
10/12/18 Billy confirmed cancellation. will issue the refund. Hitomi
10/15/18 Since customer is no longer  holding same credit card, Yumi issued check#16132 -Hitomi",TX,1,6.25
9/21/2018 4:23:29 PM,Merry Pridham,CT,06340,Legacy 3D,DWA-9150USJ-9150CH,New Choco,New,,,,,4500.00,4500.00,0.00,Billy Shea,Synchrony,4500.00,,,6019170813150890,94709278,Huston,36 months,,0.00,,,,,,,,0.00,,,,,,,,No,"5 years parts, 1 year labor (Free)",Cancelled,"THE BIG E STATE FAIR 9/14-30/18 West Springfield, MA (IL)","THE BIG E STATE FAIR 9/14-30/18 West Springfield, MA (IL)",,,109636,"Confirmed SYNC acct ($8,500) and original.***Please charge $4,500 before delivery and sales draft signed.*** 9/24/18 Hitomi
9/24Maritza Sent courtesy message @ 4:37PM",TX,1,6.25
9/21/2018 8:59:57 PM,William Martin,MA,01096,Relax2Zero 3D,DWA-9060USJ-9060BL,New Black,New,,,,,4700.00,4700.00,0.00,Rolly San Jose,Synchrony,4700.00,,,6019170813150965,94710685,Huston,36 months,,0.00,,,,,,,,0.00,,,,,,,10/7/2018 12:00:00 AM,No,"3 years parts, 1 year labor (Free)",Delivered,"THE BIG E STATE FAIR 9/14-30/18 West Springfield, MA (IL)","THE BIG E STATE FAIR 9/14-30/18 West Springfield, MA (IL)","Authorization Code 
002556
charged by Tina 10/2/2018",,109639,"Deliver 2-3 weeks after sept 30//Confirmed SYNC acct ($8,500) and original.***Please charge $4,700 before delivery and sales draft signed.*** 9/24/18 Hitomi
9/24Maritza Courtesy message sent at 4:39PM",TX,1,6.25
9/21/2018 9:30:55 PM,Paul Scoville,MA,01129,Pegasus,DWA-9400Pegasus-BL,New Black,New,,,,,5500.00,5500.00,0.00,Noni Ignacio,Synchrony,5500.00,,,6019170813151047,94712548,Huston,48 months,,0.00,,,,,,,,0.00,,,,,,,10/14/2018 12:00:00 AM,No,"5 years parts, 1 year labor (Free)",Delivered,"THE BIG E STATE FAIR 9/14-30/18 West Springfield, MA (IL)","THE BIG E STATE FAIR 9/14-30/18 West Springfield, MA (IL)",,,109640,"Confirmed SYNC acct ($8,500) and original. ***Please charge $5,500 before delivery and sales draft signed. *** 9/24/18 Hitomi
9/24Maritza Courtesy message sent at 4:43PM
SYNCHRONY CLEARED $5500 003270 - STEPHANY 10/19/18",TX,1,6.25
9/21/2018 9:42:32 PM,Robert Flade,CT,06053,Legacy 3D,DWA-9150USJ-9150BL,New Black,New,,,,,4900.00,4900.00,0.00,Noni Ignacio,Synchrony,4900.00,,,6019170813151187,94715251,Huston,36 months,,0.00,,,,,,,,0.00,,,,,,,,No,"5 years parts, 1 year labor (Free)",Scheduled,"THE BIG E STATE FAIR 9/14-30/18 West Springfield, MA (IL)","THE BIG E STATE FAIR 9/14-30/18 West Springfield, MA (IL)",,,109641,"Deliver 2-3 weeks after sept 24//Confirmed SYNC acct ($8,500) and original. ***Please charge $4,900 before delivery and sales draft signed.***9/24/18 Hitomi
9/24Maritza Courtesy text sent at 4:44PM",TX,1,6.25
9/21/2018 9:49:08 PM,Brenda Kantor,MA,01085,Legacy 3D,DWA-9150USJ-9150BL,New Black,New,,,,,4900.00,4900.00,0.00,Rolly San Jose,Synchrony,4900.00,,,6019170813151229,94715827,Huston,36 months,,0.00,,,,,,,,0.00,,,,,,,,No,"3 years parts, 1 year labor (Free)",Called,"THE BIG E STATE FAIR 9/14-30/18 West Springfield, MA (IL)","THE BIG E STATE FAIR 9/14-30/18 West Springfield, MA (IL)",,,109642,"Deliver 2-3 weeks after sept 24//Confirmed SYNC acct ($8,500) and original.***Please charge $4,900 before delivery and sales draft signed.*** 9/24/18 Hitomi
9/24Maritza Courtesy message sent at 4:46PM",TX,1,6.25
9/21/2018 9:56:29 PM,Elisabeth Nicoletti,CT,06013,Legacy 3D,DWA-9150USJ-9150CH,New Choco,New,,,,,4900.00,4900.00,0.00,Billy Shea,Synchrony,4900.00,,,6019170813151740,94724133,Huston,36 months,,0.00,,,,,,,,0.00,,,,,,,,No,"3 years parts, 1 year labor (Free)",Scheduled,"THE BIG E STATE FAIR 9/14-30/18 West Springfield, MA (IL)","THE BIG E STATE FAIR 9/14-30/18 West Springfield, MA (IL)","Authorization Code 
026499
charged by Tina -9/26/2018",,109643,"Deliver 2-3 weeks after sept 24//COnfirmed SYNC acct($6,500) and original.***Please charge $4,900 before delivery and sales draft signed.*** 9/24/18 Hitomi
9/24Maritza Courtesy message sent at 5PM",TX,1,6.25
9/21/2018 10:02:52 PM,Andrea Grant,CT,06095,Relax2Zero 3D,DWA-9060USJ-9060BR,New Choco,New,,,,,4900.00,4900.00,0.00,Noni Ignacio,Synchrony,4900.00,,,6019170813151867,94725425,Huston,36 months,,0.00,,,,,,,,0.00,,,,,,,,No,"3 years parts, 1 year labor (Free)",Cancelled,"THE BIG E STATE FAIR 9/14-30/18 West Springfield, MA (IL)","THE BIG E STATE FAIR 9/14-30/18 West Springfield, MA (IL)",,,109644,"Confirmed SYNC acct($6,500) and original. ***Please charge $4,900 before delivery and sales draft signed.*** 9/24/18 Hitomi
9/24Maritza Courtesy message sent at 5:03PM. Customer said Noni knows about cancellation. Will confirm with Noni.
9/26Maritza- Noni confirmed cancellation.",TX,1,6.25
9/21/2018 10:10:16 PM,John Njoroge,MA,01095,Legacy 3D,DWA-9150USJ-9150BL,New Black,New,,,,,5206.25,5206.25,0.00,Keith Kei,Synchrony,5206.25,,,6019170813151856,94728727,Huston,24 months,,0.00,,,,,,,,0.00,,,,,,,,No,"3 years parts, 1 year labor (Free)",Cancelled,"THE BIG E STATE FAIR 9/14-30/18 West Springfield, MA (IL)","THE BIG E STATE FAIR 9/14-30/18 West Springfield, MA (IL)",,,109645,"Deliver 2-3 weeks after sept 24//Per Rolly, Pls hold delivery. Customer is changing to another model. Will adv today. Synchrony needs to be confirmed 9/24/18 Hitomi
Per Keith, it's been cancelled. Synchrony wasn't charged. 9/28/18 Riho",Not Dispatched,1,6.25
9/22/2018 6:54:37 AM,Karhy Batrna,CT,06074,Legacy 3D,DWA-9150USJ-9150BL,New Black,New,,,,,4500.00,4500.00,0.00,Winston Melgar,Synchrony,4500.00,,,6019170813150981,94711229,Huston,36 months,,0.00,,,,,,,,0.00,,,,,,,,No,"3 years parts, 1 year labor (Free)",Delivered,"THE BIG E STATE FAIR 9/14-30/18 West Springfield, MA (IL)","THE BIG E STATE FAIR 9/14-30/18 West Springfield, MA (IL)",,,109646,"Deliver 2-3 weeks after sept 24//Confirmed SYNC acct($5,400) under STEPHANIE BANDAZZO and original. ***Please charge before delivery and sales draft signed.*** 9/24/18 Hitomi
9/24Maritza Courtesy text sent at 5:05PM
10/19/18 SYNCHRONY CLEARED $4500 026924 - STEPHANY
Chair pick up at 10/17/2018. Sales confirmed fully refund customer. However, since Houston Account under reviewing by Synchrony, we cannot do refund process. Customer already called synchrony to process the refund. Been told it will taking 2 payment period. 10/22/2018 June",TX,1,6.25
9/22/2018 5:10:22 PM,Matthew Strand,CT,06776,Legacy 3D,DWA-9150USJ-9150BL,New Black,New,,,,,5206.25,5206.25,0.00,Keith Kei,CreditCard,5206.25,Receipt #r8s9,,,,,,,0.00,,,,,,,,0.00,,,,,,,,No,"5 years parts, 1 year labor (Free)",Cancelled,"THE BIG E STATE FAIR 9/14-30/18 West Springfield, MA (IL)","THE BIG E STATE FAIR 9/14-30/18 West Springfield, MA (IL)",,,109658,"Deliver 2-3 weeks from sept 24//COnfirmed $5,206.25 in Square. 9/24/18 Hitomi
9/24Maritza Courtesy message sent at 5:16PM Customer asked to correct his last name. Will create new invoice and update notes.
9/25 Maritza- New invoice created with updated last name. #109842 Will cancel this old one.",TX,1,6.25
9/22/2018 5:17:17 PM,James Graham,MA,01030,Legacy 3D,DWA-9150USJ-9150CH,New Choco,New,,,,,4900.00,4900.00,0.00,Keith Kei,Synchrony,4900.00,,,6019170813153530,94762879,Huston,36 months,,0.00,,,,,,,,0.00,,,,,,,,No,"5 years parts, 1 year labor (Free)",Cancelled,"THE BIG E STATE FAIR 9/14-30/18 West Springfield, MA (IL)","THE BIG E STATE FAIR 9/14-30/18 West Springfield, MA (IL)",,,109659,"COnfirmed SYC acct ($8,500) and original. ***Please charge $4,900 before delivery and sales draft signed.*** 9/24/18 Hitomi
Print 9/26/2018 June
Customer requested CXL, placed on hold until the sales rep. confirm the CXL. 9/28/18 Riho/// Keith confirmed the cancellation will be in touch with the customer to inform that. 9/28/18 Riho",TX,1,6.25
9/23/2018 6:47:55 AM,Deborah Mitchell,CT,06516,Legacy 3D,DWA-9150USJ-9150BL,New Black,New,,,,,4900.00,4900.00,0.00,Billy Shea,Synchrony,4900.00,,,6019170813153282,94759231,Huston,36 months,,0.00,,,,,,,,0.00,,,,,,,,No,"5 years parts, 1 year labor (Free)",Scheduled,"THE BIG E STATE FAIR 9/14-30/18 West Springfield, MA (IL)","THE BIG E STATE FAIR 9/14-30/18 West Springfield, MA (IL)","Authorization Code 
025547
charged by Tina -9/25/2018",,109675,"COnfirmed SYNC acct ($6,000) and original. ***Please charge $4,900 before delivery and sales draft signed.*** 9/24/18 Hitomi
Customer has been contacted and confirmed for delivery - Tina 9/25/2018",TX,1,6.25
9/23/2018 6:54:47 AM,Cynthia Paterson,MA,01008,Relax2Zero 3D,DWA-9060USJ-9060BR-DEMO,Demo Choco,Demo,,,,,4200.00,4200.00,0.00,Winston Melgar,Synchrony,2000.00,,,6019170813152987,94754650,Huston,24 months,COD,2200.00,,Layaway,,,,,,0.00,,,,,,,,No,"3 years parts, 1 year labor (Free)",Called,"THE BIG E STATE FAIR 9/14-30/18 West Springfield, MA (IL)","THE BIG E STATE FAIR 9/14-30/18 West Springfield, MA (IL)",,,109676,"Synchrony $2000 and layaway $2200//It is not allowed to combine Synchrony and Layaway.  will followup with Rolly. 9/26/18 Hitomi//Per.ROlly, they will convince the customer to pay 2,200 in credit card or anything else. until Rolly informs, place on hold. 9/27/18 Hitomi//
10/1/ Rolly informed that remaining $2,200 is going to be COD. *PLease ask customer if we can charge before delivery* - Hitomi",TX,1,6.25
9/23/2018 7:00:30 AM,Rick Wisler,NH,03276,Relax2Zero 3D,DWA-9060USJ-9060BR,New Choco,New,,,,,4400.00,4400.00,0.00,Winston Melgar,Synchrony,4400.00,,,6019171813152516,94746218,Huston,36 months,,0.00,,,,,,,,0.00,,,,,,,9/27/2018 12:00:00 AM,No,"3 years parts, 1 year labor (Free)",Delivered,"THE BIG E STATE FAIR 9/14-30/18 West Springfield, MA (IL)","THE BIG E STATE FAIR 9/14-30/18 West Springfield, MA (IL)","Authorization Code 
025234
charged by Tina 9/25/2018
",,109677,"Confirmed SYNC acct ($8,500) and original. ***Please charge ($8,500) before delivery and sales draft signed.*** 9/24/18 Hitomi
Customer has been contacted and confirmed delivery time - Tina 9/25/2018
SYNCHRONY $4400 #025234 - STEPHANY 10/24/18",TX,1,6.25
9/23/2018 7:05:28 AM,Gary Clavette,CT,06705,Legacy 3D,DWA-9150USJ-9150CH,New Choco,New,,,,,4900.00,4900.00,0.00,Billy Shea,Synchrony,4900.00,,,6019170813152003,94733111,Huston,36 months,,0.00,,,,,,,,0.00,,,,,,,,No,"3 years parts, 1 year labor (Free)",Scheduled,"THE BIG E STATE FAIR 9/14-30/18 West Springfield, MA (IL)","THE BIG E STATE FAIR 9/14-30/18 West Springfield, MA (IL)","Authorization Code 
025318
charged by Tina 9/25/2018",,109678,"Confirmed SYNC acct($8,500) and original. ***Please charge $4,900 before delivery and sales draft signed. *** 9/24/18 Hitomi
Customer has been contacted and appointment for delivery has been confirmed - Tina 9/25/2018",TX,1,6.25
9/23/2018 7:10:48 AM,James Bradbury,FL,33914,Relax2Zero 3D,DWA-9060USJ-9060BR,New Choco,New,,,,,5206.00,5206.00,0.00,Billy Shea,Synchrony,5206.00,,,6019170813151336,94717102,Huston,36 months,,0.00,,,,,,,,0.00,,,,,,,10/2/2018 12:00:00 AM,No,"5 years parts, 1 year labor (Free)",Delivered,"THE BIG E STATE FAIR 9/14-30/18 West Springfield, MA (IL)","THE BIG E STATE FAIR 9/14-30/18 West Springfield, MA (IL)","Authorization Code
026797
Synchrony account charged $5,206 on 9/26/18 - Josefina",,109679,"CC Josefina - 9/25/18 12:22pm VM
COnfirmed SYNC act ($6,500) and original.***Please charge $5,206 before delivery and sales draft signed.*** 9/24/18 Hitomi",FL,1,6.25
9/23/2018 4:15:25 PM,Lynne Carlotto,MA,01201,Relax2Zero 3D,DWA-9060USJ-9060BL,New Black,New,,,,,4600.00,4600.00,0.00,Rolly San Jose,Synchrony,4600.00,,,6019170813154462,94777660,Huston,36 months,,0.00,,,,,,,,0.00,,,,,,,,No,"3 years parts, 1 year labor (Free)",Scheduled,"THE BIG E STATE FAIR 9/14-30/18 West Springfield, MA (IL)","THE BIG E STATE FAIR 9/14-30/18 West Springfield, MA (IL)",,,109723,"COnfirmed SYNC acct ($8,500) and original. ***Please charge $4,600 before delivery and sales draft signed.*** 9/24/18 Hitomi
called and scheduled 9/26/2018 June",TX,1,6.25
9/23/2018 4:31:00 PM,Bart Cole,CT,06776,Legacy 3D,DWA-9150USJ-9150CH,New Choco,New,,,,,9562.38,9044.00,518.38,Keith Kei,CreditCard,9562.50,Receipt #91Wb,,,,,,,0.00,,,,,,,,0.00,,,,,,,,No,"5 years parts, 1 year labor (Free)",Cancelled,"THE BIG E STATE FAIR 9/14-30/18 West Springfield, MA (IL)","THE BIG E STATE FAIR 9/14-30/18 West Springfield, MA (IL)",,,109725,"COnfirmed $9,562.50 in Square. will correct amount 9/24/18 Hitomi",Not Dispatched,0,6.25
9/23/2018 4:36:13 PM,Bonita Lusignan,MA,01524,Pegasus,DWA-9400Pegasus-BR,New Choco,New,,,,,5500.00,5500.00,0.00,Noni Ignacio,Synchrony,5500.00,,,6019170813154506,94778318,Huston,36 months,,0.00,,,,,,,,0.00,,,,,,,10/16/2018 12:00:00 AM,No,"5 years parts, 1 year labor (Free)",Delivered,"THE BIG E STATE FAIR 9/14-30/18 West Springfield, MA (IL)","THE BIG E STATE FAIR 9/14-30/18 West Springfield, MA (IL)",,,109726,"COnfirmed SYNC acct ($5,500).and original. ***PLease charge $5,500 before delivery and sales draft signed by BONITA. ***9/26/18  Hitomi
Per Noni, give a gift USJ 799. Please ship from CA warehouse. 10/2/2018 June
10/19/18 CHECKED SYNCHRONY CLEARED 003564 $5500 - STEPHANY",TX,1,6.25
9/23/2018 4:40:11 PM,Steve Downs,MA,01030,Legacy 3D,DWA-9150USJ-9150BL,New Black,New,,,,,4900.00,4900.00,0.00,Keith Kei,CreditCard,4900.00,wd8t,,,,,,,0.00,,,,,,,,0.00,,,,,,,,No,"3 years parts, 1 year labor (Free)",Scheduled,"THE BIG E STATE FAIR 9/14-30/18 West Springfield, MA (IL)","THE BIG E STATE FAIR 9/14-30/18 West Springfield, MA (IL)",,,109727,"Confirmed $4,900 in Square. 9/24/18 Hitomi
schedule 9/26/2018 June",TX,1,6.25
9/23/2018 4:48:55 PM,Pravin Iniyabothan,CT,06029,Relax2Zero 3D,DWA-9060USJ-9060BL,New Black,New,,,,,4600.00,4600.00,0.00,Rolly San Jose,Synchrony,4600.00,,,6019170813155261,94791325,Huston,36 months,,0.00,,,,,,,,0.00,,,,,,,10/7/2018 12:00:00 AM,No,"3 years parts, 1 year labor (Free)",Delivered,"THE BIG E STATE FAIR 9/14-30/18 West Springfield, MA (IL)","THE BIG E STATE FAIR 9/14-30/18 West Springfield, MA (IL)","Authorization Code 
002441
charged by Tina 10/2/2018",,109728,"Confirmed SYNC acct ($8,500) and original. ***Please charge $4,600 before delivery and sales draft signed by Pravin. ***   9/24/18 Hitomi",TX,1,6.25
9/23/2018 4:52:54 PM,Robert Levesque,CT,06790,Legacy 3D,DWA-9150USJ-9150CH,New Choco,New,,,,,4900.00,4900.00,0.00,Billy Shea,Synchrony,4900.00,,,6019170813155493,94792895,Huston,36 months,,0.00,,,,,,,,0.00,,,,,,,9/29/2018 12:00:00 AM,No,"5 years parts, 1 year labor (Free)",Delivered,"THE BIG E STATE FAIR 9/14-30/18 West Springfield, MA (IL)","THE BIG E STATE FAIR 9/14-30/18 West Springfield, MA (IL)","Authorization Code 
025470
charged by Tina 9/25/2018",,109729,"COnfirmed SYNC acct ($6,500) and original. ***Please charge $4,900 before delivery and sales draft signed. *** 9/24/18 Hitomi
Customer has been contacted and confirmed delivery appointment -Tina 9/25/2018
SYNCHRONY #025470 $4900 - STEPHANY 10/24/18",TX,1,6.25
9/23/2018 4:59:58 PM,Joseph Weems,CT,06513,Relax2Zero 3D,DWA-9060USJ-9060BL,New Black,New,,,,,4900.00,4900.00,0.00,Rolly San Jose,Synchrony,4900.00,,,6019170813155691,94796987,Huston,36 months,,0.00,,,,,,,,0.00,,,,,,,10/5/2018 12:00:00 AM,No,"3 years parts, 1 year labor (Free)",Delivered,"THE BIG E STATE FAIR 9/14-30/18 West Springfield, MA (IL)","THE BIG E STATE FAIR 9/14-30/18 West Springfield, MA (IL)","Authorization Code 
002798
charged by Tina 10/2/2018",,109730,"Confirmed SYNC acct ($4,900) under CHATAPHORN SRICHAROENTA. (wife) -***Please charge $4,900 before delivery and sales draft signed by  CHATAPHORN***9/26/18 Hitomi",TX,1,6.25
9/23/2018 8:59:04 PM,Mariah Saez,CT,06114,Legacy 3D,DWA-9150USJ-9150BL,New Black,New,,,,,4500.00,4500.00,0.00,Keith Kei,Cash,500.00,,,,,,,COD,4000.00,,,,,,,,0.00,,,,,,,,No,"3 years parts, 1 year labor (Free)",Scheduled,"THE BIG E STATE FAIR 9/14-30/18 West Springfield, MA (IL)","THE BIG E STATE FAIR 9/14-30/18 West Springfield, MA (IL)",,,109764,"Down payment $500, balance $4000 COD//$500 cash is with Rolly. COD$4,000.  9/24/18 Hitomi//Noni received $500 cash. received cash confirmation. 10/1/18 Hitomi 
scheduled 9/26/2018 June",TX,1,6.25
9/24/2018 12:54:24 PM,Bart Cole,CT,06776,Legacy 3D,DWA-9150USJ-9150CH,New Choco,New,,,,,9562.50,9562.50,0.00,Keith Kei,CreditCard,9562.50,Receipt #91Wb,,,,,,,0.00,,,,,,,,0.00,,,,,,,,No,"5 years parts, 1 year labor (Free)",Scheduled,"THE BIG E STATE FAIR 9/14-30/18 West Springfield, MA (IL)","THE BIG E STATE FAIR 9/14-30/18 West Springfield, MA (IL)",,,109813,"Need help to take out old furniture.//Confirmed $9,562.50 in Square.9/24/18 Hitomi
scheduled June 9/26/2018",TX,1,6.25
9/24/2018 3:06:20 PM,Karen Kingsley,CT,06447,Legacy 3D,DWA-9150USJ-9150CH,New Choco,New,,,,,4900.00,4900.00,0.00,Billy Shea,Synchrony,4900.00,,,6019170813156319,94815652,Huston,36 months,,0.00,,,,,,,,0.00,,,,,,,10/5/2018 12:00:00 AM,No,"5 years parts, 1 year labor (Free)",Delivered,"THE BIG E STATE FAIR 9/14-30/18 West Springfield, MA (IL)","THE BIG E STATE FAIR 9/14-30/18 West Springfield, MA (IL)","Authorization Code 
002729
charged by Tina 10/2/2018",,109823,"09/24/18- Synchrony available credit $8,500.00; Original needs to be cleared 5:12 pm Cristina//Confirmed synchrony original. ***Please charge $4,900 before delivery and sales draft signed.***9/25/18 Hitomi
print 9/27/2018",TX,1,6.25
9/24/2018 3:14:50 PM,Terrance Payton,CT,06483,Legacy 3D,DWA-9150USJ-9150CH,New Choco,New,,,,,5206.13,4944.00,262.13,Keith Kei,CreditCard,5206.25,Receipt #1ODu,,,,,,,0.00,,,,,,,,0.00,,,,,,,,No,"5 years parts, 1 year labor (Free)",Cancelled,"THE BIG E STATE FAIR 9/14-30/18 West Springfield, MA (IL)","THE BIG E STATE FAIR 9/14-30/18 West Springfield, MA (IL)",,,109825,"Confirmed $5,206.25 (total amount )  in Square. 9/24/18 Hitomi",TX,0,6.25
9/24/2018 3:20:57 PM,Luigi Fusco,CT,06410,Relax2Zero 3D,DWA-9060USJ-9060BR-DEMO,Demo Choco,Demo,,,,,4200.00,4200.00,0.00,Winston Melgar,CreditCard,4200.00,83666P,,,,,,,0.00,,,,,,,,0.00,,,,,,,,No,"3 years parts, 1 year labor (Free)",Scheduled,"THE BIG E STATE FAIR 9/14-30/18 West Springfield, MA (IL)","THE BIG E STATE FAIR 9/14-30/18 West Springfield, MA (IL)",,,109827,"09/24/18- Wells Fargo needs to be checked - Cristina 5:10 pm//WF is cleared with receipt. 9/25/18 Hitomi
9/27/2018 Customer has been contacted and confirmed for delivery - Tina",TX,1,6.25
9/24/2018 3:27:00 PM,John Minukas,CT,06071,Legacy 3D,DWA-9150USJ-9150CH,New Choco,New,,,,,5207.19,4945.00,262.19,Keith Kei,CreditCard,5206.25,FgoY,,,,,,,0.00,,,,,,,,0.00,,,,,,,,No,"5 years parts, 1 year labor (Free)",Cancelled,"THE BIG E STATE FAIR 9/14-30/18 West Springfield, MA (IL)","THE BIG E STATE FAIR 9/14-30/18 West Springfield, MA (IL)",,,109829,"COnfirmed $5,206.25 (total amount)  in Square. 9/24/18 Hitomi",TX,0,6.25
9/25/2018 6:59:13 AM,Elias Baron,CT,06351,Relax2Zero 3D,DWA-9060USJ-9060BL,New Black,New,,,,,5206.00,5206.00,0.00,Keith Kei,CreditCard,200.00,SQ# FRJ1,,,,,,Check,5006.00,,,,,,,,0.00,,,,,,,10/6/2018 12:00:00 AM,No,"5 years parts, 1 year labor (Free)",Delivered,"THE BIG E STATE FAIR 9/14-30/18 West Springfield, MA (IL)","THE BIG E STATE FAIR 9/14-30/18 West Springfield, MA (IL)",,,109839,"Down payment $200, bal payment COD or charge before delivery $5006//Confirmed $200 in Square. COD $5,006. 9/25/18 Hitomi
print 9/27/2018 june
COD $5,006 was paid in cashier's check(27464) 10/24/18 Masa",TX,1,6.25
9/25/2018 9:01:33 AM,Matthew Strano,CT,06776,Legacy 3D,DWA-9150USJ-9150BL,New Black,New,,,,,5206.25,5206.25,0.00,Keith Kei,CreditCard,5206.25,#r8s9,,,,,,,0.00,,,,,,,,0.00,,,,,,,,No,"5 years parts, 1 year labor (Free)",Scheduled,"THE BIG E STATE FAIR 9/14-30/18 West Springfield, MA (IL)","THE BIG E STATE FAIR 9/14-30/18 West Springfield, MA (IL)",,,109842,"Updated invoice from #109658. Customer's last name was spelled incorrectly.
Deliver 2-3 weeks from sept 24//COnfirmed $5,206.25 in Square. 9/24/18 Hitomi
9/24Maritza Courtesy message sent @ 5:16PM(He sends texts)",TX,1,6.25
9/25/2018 2:35:54 PM,Bradford Reynolds,MA,01027,Relax2Zero 3D,DWA-9060USJ-9060BR,New Choco,New,,,,,4600.00,4600.00,0.00,Winston Melgar,Synchrony,4600.00,,,6019170813157937,94861490,Huston,36 months,,0.00,,,,,,,,0.00,,,,,,,10/14/2018 12:00:00 AM,No,"3 years parts, 1 year labor (Free)",Delivered,"THE BIG E STATE FAIR 9/14-30/18 West Springfield, MA (IL)","THE BIG E STATE FAIR 9/14-30/18 West Springfield, MA (IL)",,,109853,"Confirmed SYNC($8,500) and original.***Please change $4,600 before delivery and sales draft signed.***9/26/18 Hitomi
print 9/27/2018 June
CHECKED SYNCHRONY $4600 003687 - STEPHANY 10/19/18",TX,1,6.25
9/25/2018 2:40:29 PM,Drew Smith,MA,01001,Relax2Zero 3D,DWA-9060USJ-9060BL,New Black,New,,,,,4600.00,4600.00,0.00,Winston Melgar,Synchrony,4600.00,,,6019170813157994,94864310,Huston,36 months,,0.00,,,,,,,,0.00,,,,,,,,No,"3 years parts, 1 year labor (Free)",Cancelled,"THE BIG E STATE FAIR 9/14-30/18 West Springfield, MA (IL)","THE BIG E STATE FAIR 9/14-30/18 West Springfield, MA (IL)",,,109855,"Confirmed SYNC ($6,000) and original. ***PLease charge $4,600 before delivery and sales draft signed.***9/26/18 Hitomi
print 9/27/2018 June
Spoke with customer, he said he cancel the order with Winston. 10/2/2018 June",TX,1,6.25
9/25/2018 2:44:12 PM,Steve Hall,CT,06026,Relax2Zero 3D,DWA-9060USJ-9060BR,New Choco,New,,,,,4600.00,4600.00,0.00,Rolly San Jose,Synchrony,4600.00,,,6019170813158281,94874392,Huston,36 months,,0.00,,,,,,,,0.00,,,,,,,10/4/2018 12:00:00 AM,No,"3 years parts, 1 year labor (Free)",Delivered,"THE BIG E STATE FAIR 9/14-30/18 West Springfield, MA (IL)","THE BIG E STATE FAIR 9/14-30/18 West Springfield, MA (IL)","Authorization Code 
002029
charged byTina 10/2/2018",,109856,"Confirmed SYNC ($8,500) and original.  ***PLease charge $4,600 before delivery and sales draft signed.***9/26/18 Hitomi
print 9/27/2018 June",TX,1,6.25
9/25/2018 4:16:49 PM,Terrance Payton,CT,06483,Legacy 3D,DWA-9150USJ-9150CH,New Choco,New,,,,,5206.25,5206.25,0.00,Keith Kei,CreditCard,5206.25,Receipt #1ODu,,,,,,,0.00,,,,,,,,0.00,,,,,,,10/6/2018 12:00:00 AM,No,"5 years parts, 1 year labor (Free)",Delivered,"THE BIG E STATE FAIR 9/14-30/18 West Springfield, MA (IL)","THE BIG E STATE FAIR 9/14-30/18 West Springfield, MA (IL)",,,109859,"Confirmed $5,206.25 (total amount )  in Square. 9/24/18 Hitomi
9/27/18 Masa, courtesy call completed and the number is not available. 2;29
print 9/27/2018 June",TX,1,6.25
9/25/2018 4:24:42 PM,John Minukas,CT,06071,Legacy 3D,DWA-9150USJ-9150CH,New Choco,New,,,,,5206.25,5206.25,0.00,Keith Kei,CreditCard,5206.25,FgoY,,,,,,,0.00,,,,,,,,0.00,,,,,,,,No,"5 years parts, 1 year labor (Free)",Cancelled,"THE BIG E STATE FAIR 9/14-30/18 West Springfield, MA (IL)","THE BIG E STATE FAIR 9/14-30/18 West Springfield, MA (IL)",,,109860,"COnfirmed $5,206.25 (total amount)  in Square. 9/24/18 Hitomi",TX,1,6.25
9/25/2018 5:14:18 PM,Kevin Nguyen,MA,01108,Legacy 3D,DWA-9150USJ-9150CH,New Choco,New,,,,,4250.00,4044.12,205.88,Keith Kei,CreditCard,4250.00,Square# Rzci,,,,,,,0.00,,,,,,,,0.00,,,,,,,10/15/2018 12:00:00 AM,No,"5 years parts, 1 year labor (Free)",Delivered,"THE BIG E STATE FAIR 9/14-30/18 West Springfield, MA (IL)","THE BIG E STATE FAIR 9/14-30/18 West Springfield, MA (IL)",,This is a bundle order,109864,"Confirmed $4,250.00 in Square. 9/26/18 Hitomi
print 9/27/2018 June",TX,0,6.25
9/25/2018 5:23:32 PM,Kevin Nguyen,MA,01089,Legacy 3D,DWA-9150USJ-9150CH,New Choco,New,,,,,4250.00,4044.12,205.88,Keith Kei,CreditCard,4250.00,Square # so4N,,,,,,,0.00,,,,,,,,0.00,,,,,,,10/7/2018 12:00:00 AM,No,"5 years parts, 1 year labor (Free)",Delivered,"THE BIG E STATE FAIR 9/14-30/18 West Springfield, MA (IL)","THE BIG E STATE FAIR 9/14-30/18 West Springfield, MA (IL)",,This is part of bundle order,109865,"Confirmed $4,250 in Square. 9/26/18 Hitomi
9/27/18 Masa, courtesy call competed. 2;24",TX,0,6.25
9/26/2018 8:34:50 PM,Shahid Iqbal,MA,01013,Relax2Zero 3D,DWA-9060USJ-9060BL,New Black,New,,,,,4900.00,4900.00,0.00,Rolly San Jose,Synchrony,4900.00,,,6019170813160089,94930697,Huston,36 months,,0.00,,,,,,,,0.00,,,,,,,10/7/2018 12:00:00 AM,No,"3 years parts, 1 year labor (Free)",Delivered,"THE BIG E STATE FAIR 9/14-30/18 West Springfield, MA (IL)","THE BIG E STATE FAIR 9/14-30/18 West Springfield, MA (IL)","Authorization Code 
002398
charged by Tina 10/2/2018",,109881,"COnfirmed sync($4,900) and original.***Please charge $4,900 before delivery and sales draft signed.***9/27/18 Hitomi
print 9/27/2018 June
//10/15/18 Customer reached out Rolly to inform return. Rolly will take care of it. -Hitomi
10/22/18 CUSTOMER CALLED WANTED TO CANCELLED CALLED ROLLY LET ME HIM KNOW HE SAID CHARGE 20% RESTOCKING FEE, pls CHARGE $980 NO SHIPPING FEE PER ROLLY- 10/22/18 STEPHANY
10/23/18 Customer called in asking ETA to pickup the chair . Per.Tina, they are estimating between 11/6-9. Tina will call customer and let them know.- Hitomi
Chair scheduled to be picked up on Nov. 8, 2018 - charged restocking fee: $980 Sq#10y0 -Tina 10/26/2018",TX,1,6.25
9/26/2018 8:41:00 PM,Joe Albano,MA,01351,Legacy 3D,DWA-9150USJ-9150BL,New Black,New,,,,,4900.00,4900.00,0.00,Keith Kei,Synchrony,4900.00,,,6019170813159966,94928250,Huston,48 months,,0.00,,,,,,,,0.00,,,,,,,10/16/2018 12:00:00 AM,No,"5 years parts, 1 year labor (Free)",Delivered,"THE BIG E STATE FAIR 9/14-30/18 West Springfield, MA (IL)","THE BIG E STATE FAIR 9/14-30/18 West Springfield, MA (IL)",,,109882,"Confirmed sync($4,900) unde ALBANO JOSEPH and original. ***Please charge $4,900 before delivery and have sales draft signed.*** 9/27/18 Hitomi
9/27/18 Masa , courtesy call completed 2;14
10/19/18 CHECKED SYNCHRONY $4900 003955 - STEPHANY 10/19/18",TX,1,6.25
9/26/2018 8:47:00 PM,Christine Ford,CT,06078,Relax2Zero 3D,DWA-9060USJ-9060BR,New Choco,New,,,,,4900.00,4900.00,0.00,Billy Shea,Synchrony,4900.00,,,6019170813159313,94913723,Huston,36 months,,0.00,,,,,,,,0.00,,,,,,,10/11/2018 12:00:00 AM,No,"5 years parts, 1 year labor (Free)",Delivered,"THE BIG E STATE FAIR 9/14-30/18 West Springfield, MA (IL)","THE BIG E STATE FAIR 9/14-30/18 West Springfield, MA (IL)","Authorization Code 
004666
charged by Tina 10/4/2018",,109883,"Confirmed SYNC acct ($8,500) and original.  ***Please charge $4,900 before delivery and have sales draft signed.***9/28/18 Hitomi",TX,1,6.25
9/26/2018 8:52:18 PM,Abdul Majidy,CT,06001,Legacy 3D,DWA-9150USJ-9150BL,New Black,New,,,,,4500.00,4500.00,0.00,Winston Melgar,Cash,200.00,,,,,,,CreditCard,4300.00,Square #TdqQ,,,,,,,0.00,,,,,,,10/4/2018 12:00:00 AM,No,"3 years parts, 1 year labor (Free)",Delivered,"THE BIG E STATE FAIR 9/14-30/18 West Springfield, MA (IL)","THE BIG E STATE FAIR 9/14-30/18 West Springfield, MA (IL)",,,109884,"$200 cash is with Rolly. COD $4,300. 9/27/18 Hitomi//Noni received $200 cash. received confirmation. 10/1/18 Hitomi
Confirmed COD $4,300 in Square 10/24/18 Masa
print 9/27/2018 June",TX,1,6.25
9/26/2018 9:28:33 PM,Robert Tronsky,CT,06076,Legacy 3D,DWA-9150USJ-9150BL,New Black,New,,,,,4900.00,4900.00,0.00,Billy Shea,CreditCard,2400.00,531616,,,,,,Synchrony,1200.00,,,6019170813154090,94769613,Huston,36 months,COD,1000.00,,,,,,,,No,"5 years parts, 1 year labor (Free)",Cancelled,"THE BIG E STATE FAIR 9/14-30/18 West Springfield, MA (IL)","THE BIG E STATE FAIR 9/14-30/18 West Springfield, MA (IL)",,,109885,"$1300 down in credit card, $1200 passed synchrony financing and bal $2400 to be paid in cash this week before Sunday sept 30//Confirmed 1,300 in WF and SYNC acct($1,200) .ORIGINAL NEEDS TO BE CONFIRMED. 9/27/18 Hitomi",Not Dispatched,1,6.25
9/27/2018 5:16:45 PM,Erik Vitogliano,CT,06477,Legacy 3D,DWA-9150USJ-9150BL,New Black,New,,,,,4734.38,4500.00,234.38,Noni Ignacio,CreditCard,0.00,027268,,,,,,,0.00,,,,,,,,0.00,,,,,,,,No,"3 years parts, 1 year labor (Free)",Cancelled,"THE BIG E STATE FAIR 9/14-30/18 West Springfield, MA (IL)","THE BIG E STATE FAIR 9/14-30/18 West Springfield, MA (IL)",,,109896,,Not Dispatched,0,6.25
9/27/2018 5:23:23 PM,Tammy Ronan,CT,06477,Legacy 3D,DWA-9150USJ-9150BL,New Black,New,,,,,4734.38,4500.00,234.38,Noni Ignacio,CreditCard,0.00,027268,,,,,,,0.00,,,,,,,,0.00,,,,,,,,No,"3 years parts, 1 year labor (Free)",Cancelled,"THE BIG E STATE FAIR 9/14-30/18 West Springfield, MA (IL)","THE BIG E STATE FAIR 9/14-30/18 West Springfield, MA (IL)",,,109897,,Not Dispatched,0,6.25
9/27/2018 5:28:08 PM,Peter Johnson,CT,06473,Legacy 3D,DWA-9150USJ-9150BL,New Black,New,,,,,4700.00,4700.00,0.00,Winston Melgar,CreditCard,4700.00,06190D,,,,,,,0.00,,,,,,,,0.00,,,,,,,10/13/2018 12:00:00 AM,No,"3 years parts, 1 year labor (Free)",Delivered,"THE BIG E STATE FAIR 9/14-30/18 West Springfield, MA (IL)","THE BIG E STATE FAIR 9/14-30/18 West Springfield, MA (IL)",,,109898,"**PLEASE CONFIRM CHAIR COLOR** Confirmed $4,700 in WF. 9/28/18 Hitomi",TX,1,6.25
9/27/2018 5:35:20 PM,Robert Robbins,MA,01057,Legacy 3D,DWA-9150USJ-9150BL,New Black,New,,,,,4781.13,4544.00,237.13,Noni Ignacio,Synchrony,4781.00,,,6019170813160550,94953772,Huston,48 months,,0.00,,,,,,,,0.00,,,,,,,,No,"3 years parts, 1 year labor (Free)",Cancelled,"THE BIG E STATE FAIR 9/14-30/18 West Springfield, MA (IL)","THE BIG E STATE FAIR 9/14-30/18 West Springfield, MA (IL)",,,109899,"*TOTAL AMOUNT $4,781.00* COnfirmed SYNC acct($6,500) and original. ***Please charge $4781 before delivery and have sales draft signed.***.9/28/18 Hitomi
CORRECT WARRANTY : 5 years parts, 1 year labor",TX,0,6.25
9/27/2018 5:40:24 PM,Ken Fontano,CT,06033,Legacy 3D,DWA-9150USJ-9150BL,New Black,New,,,,,4900.00,4900.00,0.00,Billy Shea,Synchrony,4900.00,,,6019170813160782,94958871,Huston,36 months,,0.00,,,,,,,,0.00,,,,,,,,No,"5 years parts, 1 year labor (Free)",Hold,"THE BIG E STATE FAIR 9/14-30/18 West Springfield, MA (IL)","THE BIG E STATE FAIR 9/14-30/18 West Springfield, MA (IL)",,,109900,"Since the customer was laid off from her job, this order is placed on hold for now. 9/28/18 Riho",Not Dispatched,1,6.25
9/27/2018 5:43:57 PM,Gregory Zgrodnik,MA,01038,Relax2Zero 3D,DWA-9060USJ-9060BL,New Black,New,,,,,4900.00,4900.00,0.00,Keith Kei,Synchrony,4900.00,,,6019170813160964,94962267,Huston,36 months,,0.00,,,,,,,,0.00,,,,,,,,No,"5 years parts, 1 year labor (Free)",Scheduled,"THE BIG E STATE FAIR 9/14-30/18 West Springfield, MA (IL)","THE BIG E STATE FAIR 9/14-30/18 West Springfield, MA (IL)",,,109901,"Confirmed SYNC acct ($6,000) and original.***Please charge $4,900 before delivery and sales draft signed.***9/28/18 Hitomi",TX,1,6.25
9/27/2018 5:50:58 PM,Michael Burns,MA,01085,Legacy 3D,DWA-9150USJ-9150BL,New Black,New,,,,,4900.00,4900.00,0.00,Billy Shea,Synchrony,4900.00,,,6019170813160980,94962789,Huston,36 months,,0.00,,,,,,,,0.00,,,,,,,10/14/2018 12:00:00 AM,No,"5 years parts, 1 year labor (Free)",Delivered,"THE BIG E STATE FAIR 9/14-30/18 West Springfield, MA (IL)","THE BIG E STATE FAIR 9/14-30/18 West Springfield, MA (IL)",,,109903,"COnfirmed SYNC acct($6,500) and original. ***Please charge $4,900 before delivery and have sales draft singed.***9/28/18 Hitomi
SYNCHRONY $4900 003428 CLEARED 10/19/18 STEPHANY",TX,1,6.25
9/27/2018 5:55:42 PM,Carmen Calderon,CT,06082,Relax2Zero 3D,DWA-9060USJ-9060BL,New Black,New,,,,,4700.00,4700.00,0.00,Winston Melgar,Synchrony,4700.00,,,6019170813161178,94966779,Huston,48 months,,0.00,,,,,,,,0.00,,,,,,,,No,"3 years parts, 1 year labor (Free)",Cancelled,"THE BIG E STATE FAIR 9/14-30/18 West Springfield, MA (IL)","THE BIG E STATE FAIR 9/14-30/18 West Springfield, MA (IL)",,,109904,"Confirmed SYNC acct ($5,500) and original. ***Please charge $4,700 before delivery and sales draft signed.*** 9/28/18 Hitomi",TX,1,6.25
9/27/2018 9:00:37 PM,Wayne Conant,MA,01007,Relax2Zero 3D,DWA-9060USJ-9060BR,New Choco,New,,,,,4900.00,4900.00,0.00,Winston Melgar,Synchrony,4900.00,,,6019170813161590,94973711,Huston,36 months,,0.00,,,,,,,,0.00,,,,,,,10/15/2018 12:00:00 AM,No,"3 years parts, 1 year labor (Free)",Delivered,"THE BIG E STATE FAIR 9/14-30/18 West Springfield, MA (IL)","THE BIG E STATE FAIR 9/14-30/18 West Springfield, MA (IL)",,,109908,"COnfirmed SYNC acct ($8,500) and original.***Please charge $4,900 before delivery and have sales draft signed. *** 9/28/18 Hitomi
CHECKED SYNCHRONY $4900 003954 10/19/18 STEPHANY",TX,1,6.25
9/27/2018 9:06:05 PM,Alvan Truong,MA,01118,Legacy 3D,DWA-9150USJ-9150CH,New Choco,New,,,,,4250.00,4250.00,0.00,Keith Kei,CreditCard,4250.00,SQ# my6C,,,,,,,0.00,,,,,,,,0.00,,,,,,,10/13/2018 12:00:00 AM,No,"5 years parts, 1 year labor (Free)",Delivered,"THE BIG E STATE FAIR 9/14-30/18 West Springfield, MA (IL)","THE BIG E STATE FAIR 9/14-30/18 West Springfield, MA (IL)",,,109909,"Confirmed $4,250 in Square. 9/28/18 Hitomi",TX,1,6.25
9/28/2018 9:24:54 AM,Erik Vitogliano,CT,06477,Legacy 3D,DWA-9150USJ-9150BL,New Black,New,,,,,4781.00,4781.00,0.00,Noni Ignacio,CreditCard,4781.00,027268,,,,,,,0.00,,,,,,,,0.00,,,,,,,10/5/2018 12:00:00 AM,No,"3 years parts, 1 year labor (Free)",Delivered,"THE BIG E STATE FAIR 9/14-30/18 West Springfield, MA (IL)","THE BIG E STATE FAIR 9/14-30/18 West Springfield, MA (IL)",,,109911,"Combine order with #109912.Confirmed $4,781.00 in WF. 9/28/18 Hitomi",TX,1,6.25
9/28/2018 9:33:49 AM,Tammy Ronan,CT,06477,Legacy 3D,DWA-9150USJ-9150BL,New Black,New,,,,,4781.00,4781.00,0.00,Noni Ignacio,CreditCard,4781.00,027268,,,,,,,0.00,,,,,,,,0.00,,,,,,,10/5/2018 12:00:00 AM,No,"3 years parts, 1 year labor (Free)",Delivered,"THE BIG E STATE FAIR 9/14-30/18 West Springfield, MA (IL)","THE BIG E STATE FAIR 9/14-30/18 West Springfield, MA (IL)",,,109912,"Combine order with #109911 deliver to Tammy Ronan.Confirmed $4,781.00 in WF. 9/28/18 Hitomi",TX,1,6.25
9/28/2018 9:28:27 PM,Vanessa Squeglia,CT,06473,Legacy 3D,DWA-9150USJ-9150BL,New Black,New,,,,,4500.00,4500.00,0.00,Winston Melgar,Synchrony,2000.00,,,6019170813161863,94991488,Huston,36 months,COD,2500.00,,,,,,,,0.00,,,,,,,,No,"3 years parts, 1 year labor (Free)",Hold,"THE BIG E STATE FAIR 9/14-30/18 West Springfield, MA (IL)","THE BIG E STATE FAIR 9/14-30/18 West Springfield, MA (IL)",,,109926,"Deliver in February 2019 on new house address to be given later by vanessa. Synchrony approved $2000,  bal payment COD for $2500//Confirmed SYNC ($2,000) and original. ***PLease charge $2,000 before delivery and sales draft signed. COD $2,500.***PLease follow up Feb,2019. Place on hold. 10/1/18 Hitomi",TX,1,6.25
9/28/2018 9:42:15 PM,Patricia Parks taylor,NH,03103,Legacy 3D,DWA-9150USJ-9150CH,New Choco,New,,,,,4200.00,4200.00,0.00,Winston Melgar,Synchrony,3000.00,,,6019170813145429,94536155,Huston,36 months,COD,1200.00,,,,,,,,0.00,,,,,,,,No,"3 years parts, 1 year labor (Free)",Hold,"THE BIG E STATE FAIR 9/14-30/18 West Springfield, MA (IL)","THE BIG E STATE FAIR 9/14-30/18 West Springfield, MA (IL)",,,109927,"Synchrony approved for $3000 and balance payment of $1200 to be paid thru COD//Confirmed SYNC ($3,000) and original.***Please charge $3,000 before delivery and COD $1,200. have sales draft signed. *** 10/1/18 Hitomi
10/3/2018- Contacted customer for delivery and she said she did not authorize to purchase the chair yet and that she was still deciding. - Tina",TX,1,6.25
9/28/2018 9:56:53 PM,Cheryl Funk,MA,01033,Relax2Zero 3D,DWA-9060USJ-9060BL,New Black,New,,,,,4500.00,4500.00,0.00,Rolly San Jose,CreditCard,4500.00,34936D,,,,,,,0.00,,,,,,,,0.00,,,,,,,,No,"3 years parts, 1 year labor (Free)",Scheduled,"THE BIG E STATE FAIR 9/14-30/18 West Springfield, MA (IL)","THE BIG E STATE FAIR 9/14-30/18 West Springfield, MA (IL)",,,109928,"Confirmed $4,500 in WF. 10/1/18 Hitomi",TX,1,6.25
9/29/2018 9:20:10 PM,Dao thi Nguyen,MA,01605,Legacy 3D,DWA-9150USJ-9150BL,New Black,New,,,,,4887.00,4887.00,0.00,Keith Kei,Synchrony,4887.00,,,6019170813163778,95038671,Huston,36 months,,0.00,,,,,,,,0.00,,,,,,,10/16/2018 12:00:00 AM,No,"5 years parts, 1 year labor (Free)",Delivered,"THE BIG E STATE FAIR 9/14-30/18 West Springfield, MA (IL)","THE BIG E STATE FAIR 9/14-30/18 West Springfield, MA (IL)",,,109941,"Confirmed SYNC ($8,500) and original.***Please charge $4,887 before delivery and have sales draft signed.*** 10/1/18 Hitomi
10/19/18  CHECKED SYNCHRONY $4887 003667 - STEPHANY",TX,1,6.25
9/29/2018 9:26:45 PM,Denby Miller,CT,06615,Relax2Zero 3D,DWA-9060USJ-9060BR,New Choco,New,,,,,4900.00,4900.00,0.00,Rolly San Jose,Synchrony,4900.00,,,6019170813163539,95033962,Huston,48 months,,0.00,,,,,,,,0.00,,,,,,,10/12/2018 12:00:00 AM,No,"3 years parts, 1 year labor (Free)",Delivered,"THE BIG E STATE FAIR 9/14-30/18 West Springfield, MA (IL)","THE BIG E STATE FAIR 9/14-30/18 West Springfield, MA (IL)","Authorization Code 
004448
charged by Tina 10/4/2018",,109942,"Confirmed SYNC($6,500) and original. ***Please charge $4,900 before delivery and have sales draft signed.*** 10/1/18 Hitomi",TX,1,6.25
9/29/2018 9:34:50 PM,Carol Tebbetts,MA,01752,Relax2Zero 3D,DWA-9060USJ-9060BR,New Choco,New,,,,,4900.00,4900.00,0.00,Winston Melgar,Synchrony,4900.00,,,6019170813163323,95030125,Huston,36 months,,0.00,,,,,,,,0.00,,,,,,,10/10/2018 12:00:00 AM,No,"3 years parts, 1 year labor (Free)",Delivered,"THE BIG E STATE FAIR 9/14-30/18 West Springfield, MA (IL)","THE BIG E STATE FAIR 9/14-30/18 West Springfield, MA (IL)","Authorization Code 
004844
charged by Tina 10/4/2018",,109943,"Confirmed SYNC($5,900) and original. ***Please charge $4,900 before delivery and have sales draft singed.****10/1/18 Hitomi",TX,1,6.25
9/29/2018 9:42:57 PM,Wesley Young,CT,06516,Relax2Zero 3D,DWA-9060USJ-9060BL,New Black,New,,,,,5206.00,5206.00,0.00,Keith Kei,Synchrony,5206.00,,,6019170813163257,95027980,Huston,36 months,,0.00,,,,,,,,0.00,,,,,,,,No,"5 years parts, 1 year labor (Free)",Scheduled,"THE BIG E STATE FAIR 9/14-30/18 West Springfield, MA (IL)","THE BIG E STATE FAIR 9/14-30/18 West Springfield, MA (IL)",,,109944,"Confirmed SYNC ($6,500) and original.  ***Please charge $5,206 before delivery and have sales draft signed.***10/1/18 Hitomi",TX,1,6.25
9/29/2018 9:50:07 PM,Luke Lessard,CT,06255,Legacy 3D,DWA-9150USJ-9150BL,New Black,New,,,,,4781.00,4781.00,0.00,Noni Ignacio,Synchrony,4781.00,,,6019170813163091,95024106,Huston,48 months,,0.00,,,,,,,,0.00,,,,,,,10/9/2018 12:00:00 AM,No,"5 years parts, 1 year labor (Free)",Delivered,"THE BIG E STATE FAIR 9/14-30/18 West Springfield, MA (IL)","THE BIG E STATE FAIR 9/14-30/18 West Springfield, MA (IL)","Authorization Code 
004099
charged by Tina 10/4/2018",,109945,"Confirmed SYNC ($6,500) and original. ****Please charge $4,781 before delivery and have sales draft signed.*** 10/1/18 Hitomi",TX,1,6.25
9/30/2018 9:51:14 PM,Graham Adam,MA,01569,Relax2Zero 3D,DWA-9060USJ-9060BL,New Black,New,,,,,4900.00,4900.00,0.00,Rolly San Jose,COD,4900.00,,,,,,,,0.00,,,,,,,,0.00,,,,,,,,No,"3 years parts, 1 year labor (Free)",Cancelled,"THE BIG E STATE FAIR 9/14-30/18 West Springfield, MA (IL)","THE BIG E STATE FAIR 9/14-30/18 West Springfield, MA (IL)",,,109972,"Per Rolly, they will ask full amount upon the delivery. *Please ask customer to charge before delivery*10/2/18 Hitomi
10/4Maritza Courtesy text sent @ 9:22AM",TX,1,6.25
9/30/2018 9:57:20 PM,Alan House,CT,06002,Legacy 3D,DWA-9150USJ-9150BL,New Black,New,,,,,4900.00,4900.00,0.00,Noni Ignacio,CreditCard,1000.00,808784,,,,,,Check,1000.00,,,,,,,PurchaseOrder,2900.00,,Layaway,,,,,10/24/2018 12:00:00 AM,No,"5 years parts, 1 year labor (Free)",Delivered,"THE BIG E STATE FAIR 9/14-30/18 West Springfield, MA (IL)","THE BIG E STATE FAIR 9/14-30/18 West Springfield, MA (IL)",,,109973,"$1000 credit card, $1000 check# 3779, $2900 layaway//Confirmed $1,000 in WF, layaway form. will confirm check transaction. 10/1/18 Hitomi//Confirmed with Yumi that $1,000 check was clear. sent LAYAWAY form to Stephany via email. **PLease send delivery confirmation to Stephany.***10/9/18 Hitomi//June sent delivery the delivery confirmation to Stephany. 10/25/18 Riho",TX,1,6.25
9/30/2018 10:01:52 PM,Kevin Nguyen,GA,30297,Legacy 3D,DWA-9150USJ-9150CH,New Choco,New,,,,,4200.00,4200.00,0.00,Keith Kei,CreditCard,4200.00,SQ# LQES,,,,,,,0.00,,,,,,,,0.00,,,,,,,10/10/2018 12:00:00 AM,No,"5 years parts, 1 year labor (Free)",Delivered,"THE BIG E STATE FAIR 9/14-30/18 West Springfield, MA (IL)","THE BIG E STATE FAIR 9/14-30/18 West Springfield, MA (IL)",,,109974,"CC Josefina - 10/1/18 2:00pm
Confirmed $4,200 in Square.10/1/18 Hitomi",FL,1,6.25
9/30/2018 10:06:29 PM,Frank Diliddo,MA,01507,Legacy 3D,DWA-9150USJ-9150CH,New Choco,New,,,,,4900.00,4900.00,0.00,Billy Shea,Synchrony,4900.00,,,6019170813166961,95086351,Huston,48 months,,0.00,,,,,,,,0.00,,,,,,,10/10/2018 12:00:00 AM,No,"5 years parts, 1 year labor (Free)",Delivered,"THE BIG E STATE FAIR 9/14-30/18 West Springfield, MA (IL)","THE BIG E STATE FAIR 9/14-30/18 West Springfield, MA (IL)","Authorization Code 
004854
charged by Tina 10/4/2018",,109975,"Confirmed SYNC($6,500) and original. ***Please charge $4,900 before delivery and have sales draft signed.*** 10/1/18 Hitomi",TX,1,6.25
9/30/2018 10:11:24 PM,Peter Elias,MA,01104,Relax2Zero 3D,DWA-9060USJ-9060BR,New Choco,New,,,,,4600.00,4600.00,0.00,Rolly San Jose,Synchrony,4600.00,,,6019170813167035,95087649,Huston,36 months,,0.00,,,,,,,,0.00,,,,,,,10/9/2018 12:00:00 AM,No,"3 years parts, 1 year labor (Free)",Delivered,"THE BIG E STATE FAIR 9/14-30/18 West Springfield, MA (IL)","THE BIG E STATE FAIR 9/14-30/18 West Springfield, MA (IL)","Authorization Code 
003404
charged by Tina 10/3/2018",,109976,"Confirmed SYNC($5,500) and original. ***PLease charge $4,600 before delivery and have sales draft signed. *** 10/1/18 Hitomi",TX,1,6.25
9/30/2018 10:17:44 PM,Jonathan Mclellan,MA,01075,Pegasus,DWA-9400Pegasus-BL,New Black,New,,,,,5000.00,5000.00,0.00,Keith Kei,CreditCard,5000.00,SQ# QrZw,,,,,,,0.00,,,,,,,,0.00,,,,,,,10/10/2018 12:00:00 AM,No,"5 years parts, 1 year labor (Free)",Delivered,"THE BIG E STATE FAIR 9/14-30/18 West Springfield, MA (IL)","THE BIG E STATE FAIR 9/14-30/18 West Springfield, MA (IL)",,,109977,"Confirmed $5,000 in Square. 10/01/18 Hitomi",TX,1,6.25
10/1/2018 10:25:50 AM,Robert Tronsky,CT,06076,Legacy 3D,DWA-9150USJ-9150BL,New Black,New,,,,,4600.00,4600.00,0.00,Billy Shea,CreditCard,2400.00,531616/918890,,,,,,Synchrony,1200.00,,,6019170813154090,94769613,Huston,36 months,CreditCard,1000.00,Square #Sn76,,,,,,10/9/2018 12:00:00 AM,No,"5 years parts, 1 year labor (Free)",Delivered,"THE BIG E STATE FAIR 9/14-30/18 West Springfield, MA (IL)","THE BIG E STATE FAIR 9/14-30/18 West Springfield, MA (IL)",Auth: 003186 -Tina 10/3/2018,,110001,"Lowered price for 109885.(4,900 to 4,600) Confirmed $2,400 (9/22-$1,300 Auth#531616&9/30-$1,100 Auth#918890) in WF,SYNC($1,200) and original.***Please charge $1,200 before delivery and COD $1,000.have sales draft signed.***10/1/18 Hitomi
Charged COD $1,000 in Square 10/24/18 Masa",TX,1,6.25
