﻿Original Event Name,Event Name,Sales Person,Order Number,Order Date,Customer Name,State,Zip,Product Name,Color,Product Status,QTY,Tax,Total Before Tax,Order Total,Primary Payment Method,Second Payment Method,Thirdl Payment Method,Warranty,Order Items,Pick up,Delivered On,Order Status,Chair Type,Order Notes,Private Note,Branch,No Tax,Actual Tax Rate,SKU,Primary Payment Balance,Primary Authorize Number,Primary Purchase Order Number,Primary Synchrony Account Number,Primary Synchrony Application Key,Primary Synchrony Account Info,Primary Synchrony Term,Second Payment Balance,Second Authorize Number,Second Purchase Order Number,Second Synchrony Account Number,Second Synchrony Application Key,Second Synchrony Account Info,Second SynchronyTerm,Third Payment Balance,Third Authorize Number,Third Purchase Order Number,Third Synchrony Account Number,Third Synchrony Application Key,Third Synchrony Account Info,Third Synchrony Term
"Minneapolis HM & GD Show 2/22-24/19 & 3/1-3/19 MINNEAPOLIS, MN (IL)","Minneapolis HM & GD Show 2/22-24/19 & 3/1-3/19 MINNEAPOLIS, MN (IL)",Xiongxiaojun Ji,115216,2/22/2019 6:14:12 PM,Steve Persons,MN,55341,PEGASUS 2 SMART,New Black,New,1,0.00,5401.00,5401.00,CreditCard,,,"5 years parts, 1 year labor (Free)","PEGASUS 2 SMART,",No,,Called,,,"Confirmed $5,401.00 in Square. -2/25/19 Hitomi
2/26Maritza Courtesy message sent @ 5:28PM",TX,1,8.03,PEGS-2PEGS-2-BL,5401.00,dltJ,,,,,,0.00,,,,,,,0.00,,,,,,
"Minneapolis HM & GD Show 2/22-24/19 & 3/1-3/19 MINNEAPOLIS, MN (IL)","Minneapolis HM & GD Show 2/22-24/19 & 3/1-3/19 MINNEAPOLIS, MN (IL)",Keith Kei,115217,2/22/2019 6:19:08 PM,Gordon Fischer,MN,55449,Relax 2 Zero 3D,New Black,New,1,314.63,4870.57,5185.20,CreditCard,,,"5 years parts, 1 year labor (Free)","Relax 2 Zero 3D,",No,,Called,,5 years warranty of parts and 1 year in home service labor.,"Confirmed $5,185.20 in Square. - 2/25/19 Hitomi
2/27Maritza- Courtesy message sent @ 8:43",TX,0,8.03,DWA-9060USJ-9060BL,5185.20,Square # dM4y,,,,,,0.00,,,,,,,0.00,,,,,,
"Minneapolis HM & GD Show 2/22-24/19 & 3/1-3/19 MINNEAPOLIS, MN (IL)","Minneapolis HM & GD Show 2/22-24/19 & 3/1-3/19 MINNEAPOLIS, MN (IL)",May Kam,115222,2/23/2019 7:11:26 AM,Mr & Mrs ED Martin,MN,55125,Legacy 3D,Demo Choco,Demo,1,0.00,3850.00,3850.00,CreditCard,COD,,"5 years parts, 1 year labor (Free)","Legacy 3D,",No,,Called,,Special discount for senior,"COnfirmed $200.00 in Square. ***COD$3,650.00***-2/25/19 Hitomi
2/27Maritza- Courtesy message sent @ 8:44",TX,1,8.03,DWA-9150USJ-9150CH-DEMO,200.00,#Ozey,,,,,,3650.00,,,,,,,0.00,,,,,,
"Minneapolis HM & GD Show 2/22-24/19 & 3/1-3/19 MINNEAPOLIS, MN (IL)","Minneapolis HM & GD Show 2/22-24/19 & 3/1-3/19 MINNEAPOLIS, MN (IL)",Keith Kei,115244,2/23/2019 5:46:26 PM,Tom Rowland,MN,55419,PEGASUS 2 SMART,New Black,New,1,369.61,5355.72,5725.33,CreditCard,,,"5 years parts, 1 year labor (Free)","PEGASUS 2 SMART,",No,,Called,,,"Confirmed $5,725.33 in SQ. -2/25/19 Hitomi
2/27Maritza Courtesy message sent @ 8:51AM",TX,0,8.03,PEGS-2PEGS-2-BL,5725.33,Square # Ecbp,,,,,,0.00,,,,,,,0.00,,,,,,
"Minneapolis HM & GD Show 2/22-24/19 & 3/1-3/19 MINNEAPOLIS, MN (IL)","Minneapolis HM & GD Show 2/22-24/19 & 3/1-3/19 MINNEAPOLIS, MN (IL)",Keith Kei,115246,2/23/2019 6:00:49 PM,Kandis L Pettis,MN,55347,Legacy 3D,Demo Choco,Demo,1,265.28,4055.72,4321.00,Synchrony,,,"5 years parts, 1 year labor (Free)","Legacy 3D,",No,,Called,,,"Confirmed SYNC$8,500 and original. ***Please charge $4,321 before delivery and sales draft signed.***-2/25/19 Hitomi
2/27Maritza Courtesy message sent @ 8:52
Customer is available weekends or weekday evenings after 5:30PM. She is off March 8th so she will be available.",TX,0,8.03,DWA-9150USJ-9150CH-DEMO,4321.00,,,6501723375027446,71729325,Huston,12 months,0.00,,,,,,,0.00,,,,,,
"Minneapolis HM & GD Show 2/22-24/19 & 3/1-3/19 MINNEAPOLIS, MN (IL)","Minneapolis HM & GD Show 2/22-24/19 & 3/1-3/19 MINNEAPOLIS, MN (IL)",May Kam,115247,2/23/2019 6:20:55 PM,Steven Lee Roberston,MN,55117,Relax 2 Zero 3D,Demo Black,Demo,1,235.79,3688.21,3924.00,CreditCard,Synchrony,,"5 years parts, 1 year labor (Free)","Relax 2 Zero 3D,",No,,Called,,,"Confirmed $200.00 in SQ and SYNC$6,000/original. ***Please charge $3724 before delivery and sales draft signed.***  - 2/25/19 Hitomi
2/27Maritza Courtesy message sent @ 8:54",TX,0,8.03,DWA-9060USJ-9060BL-DEMO,200.00,Square RSiK,,,,,,3724.00,,,6501723375027750,71735657,Huston,36 months,0.00,,,,,,
"Minneapolis HM & GD Show 2/22-24/19 & 3/1-3/19 MINNEAPOLIS, MN (IL)","Minneapolis HM & GD Show 2/22-24/19 & 3/1-3/19 MINNEAPOLIS, MN (IL)",May Kam,115248,2/23/2019 6:37:24 PM,William Gray,MN,55441,Relax 2 Zero 3D,Demo Black,Demo,1,237.72,3712.28,3950.00,CreditCard,COD,,"5 years parts, 1 year labor (Free)","Relax 2 Zero 3D,",No,,Called,,,"COnfirmed $200.00 in SQ. ***COD$3,750*** - 2/25/19 Hitomi
2/27Maritza Courtesy message sent @ 8:56",TX,0,8.03,DWA-9060USJ-9060BL-DEMO,200.00,Sq# cKH9,,,,,,3750.00,,,,,,,0.00,,,,,,
"Minneapolis HM & GD Show 2/22-24/19 & 3/1-3/19 MINNEAPOLIS, MN (IL)","Minneapolis HM & GD Show 2/22-24/19 & 3/1-3/19 MINNEAPOLIS, MN (IL)",Xiongxiaojun Ji,115249,2/23/2019 6:47:32 PM,Deb Puna,MN,55024,Relax 2 Zero 3D,New Black,New,1,237.72,3712.28,3950.00,CreditCard,COD,,"5 years parts, 1 year labor (Free)","Relax 2 Zero 3D,",No,,Called,,,"COnfirmed $200.00 in SQ. ***COD $3,750.*** -2/25/19 Hitomi
2/27Maritza Courtesy messages sent to both numbers @ 8:58",TX,0,8.03,DWA-9060USJ-9060BL,200.00,Square # ln10,,,,,,3750.00,,,,,,,0.00,,,,,,
"Minneapolis HM & GD Show 2/22-24/19 & 3/1-3/19 MINNEAPOLIS, MN (IL)","Minneapolis HM & GD Show 2/22-24/19 & 3/1-3/19 MINNEAPOLIS, MN (IL)",Noni Ignacio,115251,2/23/2019 6:53:32 PM,Bob McGrath,MN,55092,Legacy 3D,New Black,New,1,300.87,4499.13,4800.00,CreditCard,,,"5 years parts, 1 year labor (Free)","Legacy 3D,",No,,Called,,,"Confirmed $4,800.00 in SQ. **CHAIR COLOR CHANGED TO BROWN **- 2/25/19 Hitomi
2/27Maritza Courtesy messages sent to both numbers @ 9:01",TX,0,8.03,DWA-9150USJ-9150BL,4800.00,Sq# XNuz,,,,,,0.00,,,,,,,0.00,,,,,,
"Minneapolis HM & GD Show 2/22-24/19 & 3/1-3/19 MINNEAPOLIS, MN (IL)","Minneapolis HM & GD Show 2/22-24/19 & 3/1-3/19 MINNEAPOLIS, MN (IL)",May Kam,115253,2/23/2019 7:02:51 PM,Mr & Mrs Jay Miki Ellingboe,MN,55112,Legacy 3D,Demo Choco,Demo,1,0.00,3900.00,3900.00,CreditCard,COD,,"5 years parts, 1 year labor (Free)","Legacy 3D,Chair Pad for Legacy 3D,",No,,Called,,"Special discount for one time payment, manager approval","Confirmed $2,000 (SQ#Zjgw/cNHN) in SQ. ***COD$1,900.***-2/25/19 Hitomi
2/27Maritza Courtesy message and email sent @ 9:49",TX,1,8.03,DWA-9150USJ-9150CH-DEMO,2000.00,Zjgw cNHN,,,,,,1900.00,,,,,,,0.00,,,,,,
"Minneapolis HM & GD Show 2/22-24/19 & 3/1-3/19 MINNEAPOLIS, MN (IL)","Minneapolis HM & GD Show 2/22-24/19 & 3/1-3/19 MINNEAPOLIS, MN (IL)",Noni Ignacio,115338,2/26/2019 12:26:53 AM,Tom Hermson,WI,54304,Relax 2 Zero 3D,Demo Black,Demo,1,0.00,3900.00,3900.00,CreditCard,,,"5 years parts, 1 year labor (Free)","Relax 2 Zero 3D,",No,,Called,,,"Confirmed $3,900.00 in SQ-2/26/19 Hitomi
2/27Maritza Courtesy message sent @ 12:02PM",TX,1,8.03,DWA-9060USJ-9060BL-DEMO,3900.00,SQ# pcv2,,,,,,0.00,,,,,,,0.00,,,,,,
"Minneapolis HM & GD Show 2/22-24/19 & 3/1-3/19 MINNEAPOLIS, MN (IL)","Minneapolis HM & GD Show 2/22-24/19 & 3/1-3/19 MINNEAPOLIS, MN (IL)",May Kam,115418,3/2/2019 8:41:57 PM,Mrs Darcele Kies,MN,56001,Relax 2 Zero 3D,Demo Black,Demo,1,0.00,4212.00,4212.00,Synchrony,,,"5 years parts, 1 year labor (Free)","Relax 2 Zero 3D,",No,,Cancelled,,"Pls make finance purchase $4212, application address is 42470 Kerns Dr, North Mankato, MN 56001",3/4/19 Chair model is revised to Legacy 3D - Hitomi,Not Dispatched,1,8.03,DWA-9060USJ-9060BL-DEMO,4212.00,,,6501723375039292,72070598,Huston,36 months,0.00,,,,,,,0.00,,,,,,
"Minneapolis HM & GD Show 2/22-24/19 & 3/1-3/19 MINNEAPOLIS, MN (IL)","Minneapolis HM & GD Show 2/22-24/19 & 3/1-3/19 MINNEAPOLIS, MN (IL)",May Kam,115422,3/2/2019 8:52:59 PM,Mr Tim Bice,MN,55376,Relax 2 Zero 3D,Demo Choco,Demo,1,0.00,3900.00,3900.00,CreditCard,COD,,"5 years parts, 1 year labor (Free)","Relax 2 Zero 3D,Tourmaline Pad for Relax2Zero 3D,",No,,Assigned,,Special discount for one time payment . COD $1900,"Confirmed $2,000.00 in SQ. ***COD $1,900*** - 3/4/19 Hitomi
3/6Maritza- Courtesy message sent @ 12:39PM",TX,1,8.03,DWA-9060USJ-9060BR-DEMO,2000.00,#GF8d,,,,,,1900.00,,,,,,,0.00,,,,,,
"Minneapolis HM & GD Show 2/22-24/19 & 3/1-3/19 MINNEAPOLIS, MN (IL)","Minneapolis HM & GD Show 2/22-24/19 & 3/1-3/19 MINNEAPOLIS, MN (IL)",Kamille Gines,115434,3/3/2019 12:50:39 PM,Gabe Gilsrud,MN,55371,Legacy 3D,Demo Choco,Demo,1,0.00,4000.00,4000.00,Synchrony,,,"5 years parts, 1 year labor (Free)","Legacy 3D,",YES,3/3/2019 12:00:00 AM,Delivered,Demo,,"We already charged the account since its pick up. Authorization code is 003274
3/5/19 Account is under GABRIEL GREGORY GILSRUD.Received pickup confirmation. Confirmed synchrony is charged. sending sales draft. -Hitomi",TX,1,8.03,DWA-9150USJ-9150CH-DEMO,4000.00,,,6501723375040415,72093362,Huston,36 months,0.00,,,,,,,0.00,,,,,,
"Minneapolis HM & GD Show 2/22-24/19 & 3/1-3/19 MINNEAPOLIS, MN (IL)","Minneapolis HM & GD Show 2/22-24/19 & 3/1-3/19 MINNEAPOLIS, MN (IL)",May Kam,115442,3/3/2019 5:25:42 PM,Mr Ron Kind,WI,54603,Legacy 3D,Demo Choco,Demo,1,0.00,3900.00,3900.00,CreditCard,COD,,"5 years parts, 1 year labor (Free)","Legacy 3D,Tourmaline Pad for Legacy 3D,",No,,Called,,"Request delivery in Apr 2019, special discount for one time payment , manager Approval","**DELIVERY ADDRESS :N 2736 S Bucholz Rd, Ettrick, WI 54627.** Please double check delivery address. 
Confirmed $200.00 in SQ.  ***COD $3,700.*** - 3/4/19 Hitomi
3/6/19-Per.Mays email, customer request delivery on the following dates in April:  11, 12, 15, 16, 17, 18 -Hitomi
3/6Maritza Courtesy message sent @ 12:54PM",TX,1,8.03,DWA-9150USJ-9150CH-DEMO,200.00,#Rhiy,,,,,,3700.00,,,,,,,0.00,,,,,,
"Minneapolis HM & GD Show 2/22-24/19 & 3/1-3/19 MINNEAPOLIS, MN (IL)","Minneapolis HM & GD Show 2/22-24/19 & 3/1-3/19 MINNEAPOLIS, MN (IL)",May Kam,115488,3/4/2019 4:26:31 PM,Mrs Darcele Kies,MN,56001,Legacy 3D,Demo Black,Demo,1,0.00,4212.00,4212.00,Synchrony,,,"5 years parts, 1 year labor (Free)","Legacy 3D,",No,,New,,"Pls make finance purchase $4212, application address is 42470 Kerns Dr, North Mankato, MN 56001","Confirmed SYNC$5,500 and original. ***Please charge $4,212/sales draft *** 3/4/19 Hitomi",TX,1,8.03,DWA-9150USJ-9150BL-DEMO,4212.00,,,6501723375039292,72070598,Huston,36 months,0.00,,,,,,,0.00,,,,,,
