﻿Original Event Name,Event Name,Sales Person,Order Number,Order Date,Customer Name,State,Zip,Product Name,Color,Product Status,QTY,Tax,Total Before Tax,Order Total,Primary Payment Method,Second Payment Method,Thirdl Payment Method,Warranty,Order Items,Pick up,Delivered On,Order Status,Chair Type,Order Notes,Private Note,Branch,No Tax,Actual Tax Rate,SKU,Primary Payment Balance,Primary Authorize Number,Primary Purchase Order Number,Primary Synchrony Account Number,Primary Synchrony Application Key,Primary Synchrony Account Info,Primary Synchrony Term,Primary Synchrony Primary ID,Primary Synchrony Issued State,Primary Synchrony Expiretion Date,Second Payment Balance,Second Authorize Number,Second Purchase Order Number,Second Synchrony Account Number,Second Synchrony Application Key,Second Synchrony Account Info,Second SynchronyTerm,Second Synchrony Primary ID,Second Synchrony Issued State,Second Synchrony Expiretion Date,Third Payment Balance,Third Authorize Number,Third Purchase Order Number,Third Synchrony Account Number,Third Synchrony Application Key,Third Synchrony Account Info,Third Synchrony Term,Third Synchrony Primary ID,Third Synchrony Issued State,Third Synchrony Expiretion Date
"Sam's Club #6615 Fountain Valley, CA (CA)","Sam's Club #6615 Fountain Valley, CA (CA)",Hiroko Hudson,122887,12/7/2019 4:49:33 PM,Virem Shah,CA,92691,Legacy 3D - Sam's Club,Demo(Box) Choco[-500],Demo,1,376.08,4298.00,4674.08,Purchase Order,,,"3 years parts, 3 years labor ($400)","Legacy 3D - Sam's Club,",No,,Scheduled,,,"Tel: 949-215-9464
Cell: 949-812-8216
Please call them within 2 days.
Thank you.
--Original received-Erika 12/9/19 10:28am
12/9Printed
scheduled 12/12 2:30-4:30",CA,0,8.75,DWA-9150DWA-9150CH-Box,0.00,,6227909060885431952262,,,,,,,/,0.00,,,,,,,,,/,0.00,,,,,,,,,/
"Sam's Club #6615 Fountain Valley, CA (CA)","Sam's Club #6615 Fountain Valley, CA (CA)",Hiroko Hudson,122903,12/8/2019 11:46:52 AM,Elain Lopes,CA,92845,Shogun Neck & Back Massger,New,New,1,17.50,199.98,217.48,Purchase Order,,,"2 years parts, 1 year labor for Small Items","Shogun Neck &amp; Back Massger,",YES,,Delivered,,,,CA,0,8.75,USJ-874USJ-874,0.00,,709799660835431964202,,,,,,,/,0.00,,,,,,,,,/,0.00,,,,,,,,,/
"Sam's Club #6615 Fountain Valley, CA (CA)","Sam's Club #6615 Fountain Valley, CA (CA)",Hiroko Hudson,122954,12/10/2019 6:27:44 PM,Mary Nguyen,CA,92648,Vitality Plate for Sam's,New,New,3,105.00,1199.97,1304.97,Purchase Order,,,"2 years parts, 1 year labor for Small Items","Vitality Plate for Sam's,",YES,,Delivered,,,,CA,0,8.75,USJ-849USJ-849,0.00,,7858477641699252752090,,,,,,,/,0.00,,,,,,,,,/,0.00,,,,,,,,,/
"Sam's Club #6615 Fountain Valley, CA (CA)","Sam's Club #6615 Fountain Valley, CA (CA)",Hiroko Hudson,122956,12/10/2019 8:05:17 PM,Mary C. Nguymen,CA,92648,Vitality Plate for Sam's,New,New,1,35.00,399.99,434.99,Purchase Order,,,"2 years parts, 1 year labor for Small Items","Vitality Plate for Sam's,",YES,,Delivered,,,,CA,0,8.75,USJ-849USJ-849,0.00,,101114316068383484585,,,,,,,/,0.00,,,,,,,,,/,0.00,,,,,,,,,/
"Sam's Club #6615 Fountain Valley, CA (CA)","Sam's Club #6615 Fountain Valley, CA (CA)",Hiroko Hudson,123004,12/13/2019 10:33:39 AM,Tiffany Nguyen,CA,92683,Shogun Neck & Back Massger,New,New,1,17.50,199.98,217.48,Purchase Order,,,"2 years parts, 1 year labor for Small Items","Shogun Neck &amp; Back Massger,",YES,,Delivered,,,,CA,0,8.75,USJ-874USJ-874,0.00,,019232936116569264919,,,,,,,/,0.00,,,,,,,,,/,0.00,,,,,,,,,/
"Sam's Club #6615 Fountain Valley, CA (CA)","Sam's Club #6615 Fountain Valley, CA (CA)",Hiroko Hudson,123018,12/13/2019 6:54:01 PM,Amany Islander,CA,92683,Shogun Neck & Back Massger,New,New,1,17.50,199.98,217.48,Purchase Order,,,"2 years parts, 1 year labor for Small Items","Shogun Neck &amp; Back Massger,",YES,,Delivered,,,,CA,0,8.75,USJ-874USJ-874,0.00,,851827549685252758030,,,,,,,/,0.00,,,,,,,,,/,0.00,,,,,,,,,/
"Sam's Club #6615 Fountain Valley, CA (CA)","Sam's Club #6615 Fountain Valley, CA (CA)",Hiroko Hudson,123035,12/14/2019 5:04:44 PM,Erelyn O’Leary,CA,92683,Shogun Neck & Back Massger,New,New,1,17.50,199.98,217.48,Purchase Order,,,"2 years parts, 1 year labor for Small Items","Shogun Neck &amp; Back Massger,",YES,,Delivered,,,,CA,0,8.75,USJ-874USJ-874,0.00,,598292938194560239959,,,,,,,/,0.00,,,,,,,,,/,0.00,,,,,,,,,/
"Sam's Club #6615 Fountain Valley, CA (CA)","Sam's Club #6615 Fountain Valley, CA (CA)",Hiroko Hudson,123036,12/14/2019 5:28:13 PM,Richard Topete,CA,92707,Vitality Plate for Sam's,New,New,1,35.00,399.99,434.99,Purchase Order,,,"2 years parts, 1 year labor for Small Items","Vitality Plate for Sam's,",YES,,Delivered,,,,CA,0,8.75,USJ-849USJ-849,0.00,,934491990542721135888,,,,,,,/,0.00,,,,,,,,,/,0.00,,,,,,,,,/
