﻿Original Event Name,Event Name,Sales Person,Order Number,Order Date,Customer Name,State,Zip,Product Name,Color,Product Status,QTY,Tax,Total Before Tax,Order Total,Primary Payment Method,Second Payment Method,Thirdl Payment Method,Warranty,Order Items,Pick up,Delivered On,Order Status,Chair Type,Order Notes,Private Note,Branch,No Tax,Actual Tax Rate,SKU,Primary Payment Balance,Primary Authorize Number,Primary Purchase Order Number,Primary Synchrony Account Number,Primary Synchrony Application Key,Primary Synchrony Account Info,Primary Synchrony Term,Second Payment Balance,Second Authorize Number,Second Purchase Order Number,Second Synchrony Account Number,Second Synchrony Application Key,Second Synchrony Account Info,Second SynchronyTerm,Third Payment Balance,Third Authorize Number,Third Purchase Order Number,Third Synchrony Account Number,Third Synchrony Application Key,Third Synchrony Account Info,Third Synchrony Term
AAO 5/4-7/19 LOS ANGELES  (CA),AAO 5/4-7/19 LOS ANGELES  (CA),Ruben Cuatrona,117190,5/6/2019 9:46:03 AM,William Chen,CA,92620,Legacy 3D,Demo Black,Demo,1,0.00,3800.00,3800.00,Credit Card,,,"5 years parts, 1 year labor (Free)","Legacy 3D,",No,5/9/2019 12:00:00 AM,Delivered,New,,"5/6/19-Confirmed $3,800 in SQ. -Hitomi
5/6Maritza- Printed
5/7Scheduled 5/9 9:30-12:30
5/16Maritza- Delivery confirmation received. new due to no demo inventory.",CA,1,9.50,DWA-9150USJ-9150BL-DEMO,3800.00,#6r8X,,,,,,0.00,,,,,,,0.00,,,,,,
AAO 5/4-7/19 LOS ANGELES  (CA),AAO 5/4-7/19 LOS ANGELES  (CA),Joseph Chan,117191,5/6/2019 9:51:25 AM,Keri Harris,IL,62040,Legacy 3D,New Choco,New,1,400.43,4965.07,5365.50,Credit Card,,,"5 years parts, 2 years labor ($200)","Legacy 3D,",No,,Scheduled,,,"5/6/19-Confirmed $5,365.50 in SQ. - Hitomi
5/6/2019 Printed and courtesy message sent - Tina
5/14Maritza ReDispatched to IL.
5/15- Confirmation delivery date for 5/22 (5:30p-8:00p)-Karen",IL,0,9.50,DWA-9150USJ-9150CH,5365.50,#J8e9,,,,,,0.00,,,,,,,0.00,,,,,,
AAO 5/4-7/19 LOS ANGELES  (CA),AAO 5/4-7/19 LOS ANGELES  (CA),Ruben Cuatrona,117192,5/6/2019 9:56:26 AM,Cole Johnson,OR,97306,PEGASUS 2 SMART,New Choco,New,1,0.00,6000.00,6000.00,Credit Card,,,"5 years parts, 2 years labor ($200)","PEGASUS 2 SMART,",No,5/10/2019 12:00:00 AM,Delivered,New,,"5/6/19-Confirmed $6,000 in SQ. -Hitomi
5/6Maritza- Courtesy message sent @ 2:19PM
Scheduled May 10th 2019 3pm-5pm Scott",WA,1,9.50,PEGS-2PEGS-2-BR,6000.00,#7WKt,,,,,,0.00,,,,,,,0.00,,,,,,
AAO 5/4-7/19 LOS ANGELES  (CA),AAO 5/4-7/19 LOS ANGELES  (CA),Rodrigo Malabunga,117193,5/6/2019 10:00:59 AM,Kevin Curry,CA,91766,PEGASUS 2 SMART,New Black,New,1,0.00,6000.00,6000.00,Credit Card,COD,,"5 years parts, 2 years labor ($200)","PEGASUS 2 SMART,",No,5/10/2019 12:00:00 AM,Delivered,New,Balance of $5500 - C.O.D. By cash or cashier order,"5/6/19-$500 deposit was made on 12/5/2015 in WF and transferred from the order of Stateson(LV)'15 that has been on hold. ***COD $5,500/ONLY CASH OR CASHIER'S CHECK***per.Rod -HITOMI
5/6Maritza-Printed
5/7Scheduled 5/10 10-1
5/14Maritza- Delivery confirmation received and COD collected with cashiers check. Shoko has signed off for the COD.",CA,1,9.50,PEGS-2PEGS-2-BL,500.00,150138(12/05/2015),,,,,,5500.00,,,,,,,0.00,,,,,,
AAO 5/4-7/19 LOS ANGELES  (CA),AAO 5/4-7/19 LOS ANGELES  (CA),Ruben Cuatrona,117202,5/6/2019 8:25:27 PM,Daisy Song,NY,11021,PEGASUS 2 SMART,Demo Black,Demo,1,0.00,5500.00,5500.00,Credit Card,,,"5 years parts, 2 years labor ($200)","PEGASUS 2 SMART,",No,,Assigned,,,"5/7/19-Confirmed $5,500 in SQ. - Hitomi
5/8/2019 Printed - Tina
5/8Maritza- Courtesy message sent @ 8:57AM
5/14Maritza ReDispatched to IL.",IL,1,9.50,PEGS-2PEGS-2-BL-DEMO,5500.00,Receipt #Llhh,,,,,,0.00,,,,,,,0.00,,,,,,
AAO 5/4-7/19 LOS ANGELES  (CA),AAO 5/4-7/19 LOS ANGELES  (CA),Abagail Stirling,117203,5/6/2019 8:29:57 PM,Scott X,NM,87402,PEGASUS 2 SMART,New Black,New,1,0.00,5700.00,5700.00,Credit Card,,,"5 years parts, 1 year labor (Free)","PEGASUS 2 SMART,",No,,Assigned,,,"5/7Maritza- Confirmed $5700 on square. (""Scott Endrizzi"") 
5/8/2019 Printed - Tina
5/8Maritza- Courtesy message sent @ 9AM
5/8/19 Received shipping request from TX branch. will ship it out from CA. - Hitomi",CA,1,9.50,PEGS-2PEGS-2-BL,5700.00,#M4E5,,,,,,0.00,,,,,,,0.00,,,,,,
AAO 5/4-7/19 LOS ANGELES  (CA),AAO 5/4-7/19 LOS ANGELES  (CA),Ruben Cuatrona,117204,5/6/2019 8:33:53 PM,Ousama El-Hillal,AZ,85042,PEGASUS 2 SMART,New Black,New,1,0.00,5600.00,5600.00,Credit Card,,,"5 years parts, 1 year labor (Free)","PEGASUS 2 SMART,",No,,Assigned,,,"5/7/19-Confirmed $5,600.00 in SQ. -Hitomi",NV,1,9.50,PEGS-2PEGS-2-BL,5600.00,#Xicr,,,,,,0.00,,,,,,,0.00,,,,,,
AAO 5/4-7/19 LOS ANGELES  (CA),AAO 5/4-7/19 LOS ANGELES  (CA),Abagail Stirling,117213,5/7/2019 2:22:52 PM,Dr Rai Beirstein,CA,95403,Relax 2 Zero 3D,New Black,New,1,0.00,4900.00,4900.00,Credit Card,,,"5 years parts, 2 years labor ($200)","Relax 2 Zero 3D,Tourmaline Pad for Relax2Zero 3D,",No,,Called,,,"Pls Don’t Forget the Tourmaline pad
5/7/19-Confirmed $4,900 in SQ. - Hitomi
5/8Maritza- Printed. Spoke with customer. Offered 3rd party service but would prfer us going out to do the delivery. He is aware that we will be going last week of May.",CA,1,9.50,DWA-9060USJ-9060BL,4900.00,Receipt #WaK0,,,,,,0.00,,,,,,,0.00,,,,,,
AAO 5/4-7/19 LOS ANGELES  (CA),AAO 5/4-7/19 LOS ANGELES  (CA),Joseph Chan,117215,5/7/2019 3:26:43 PM,Richard Stenger,NE,68116,Legacy 3D,New Choco,New,1,0.00,4500.00,4500.00,Synchrony,,,"5 years parts, 1 year labor (Free)","Legacy 3D,",No,,New,,,"5/7/19-will confirm sync - Hitomi
5/8/19-COnfirmed SYNC$6,500 and original.[DL:NE 03/2023,CC:VISA 10/2019]***Please charge $4,500/sales draft*** Hitomi
5/13/0219 Printed - Tina
05/17 reassigned",IL,1,9.50,DWA-9150USJ-9150CH,4500.00,,,6501723375134960,75012075,Las Vegas,36 months,0.00,,,,,,,0.00,,,,,,
AAO 5/4-7/19 LOS ANGELES  (CA),AAO 5/4-7/19 LOS ANGELES  (CA),Abagail Stirling,117216,5/7/2019 3:32:37 PM,Amelia Nusik,CA,93532,Relax 2 Zero 3D,New Black,New,1,0.00,4350.00,4350.00,Synchrony,,,"3 years parts, 1 year labor (Free)","Relax 2 Zero 3D,",No,,Cancelled,,,"5/7/19-will confirm sync.- Hitomi
5/7/19 @4:35 - Abigail said that customer called in and electronic invoice has wrong warranty information.(correct : 5yrs parts/1 yr labor) I will revise it and mail revised invoice to customer - Hitomi
COnfirmed $7,200 in Sync. will revise it under new warranty - Hitomi",Not Dispatched,1,9.50,DWA-9060USJ-9060BL,4350.00,,,6501723375135207,75019867,Las Vegas,36 months,0.00,,,,,,,0.00,,,,,,
AAO 5/4-7/19 LOS ANGELES  (CA),AAO 5/4-7/19 LOS ANGELES  (CA),Abagail Stirling,117224,5/8/2019 11:07:26 AM,Amelia Nosik,CA,93532,Relax 2 Zero 3D,New Black,New,1,0.00,4350.00,4350.00,Synchrony,,,"5 years parts, 1 year labor (Free)","Relax 2 Zero 3D,",No,,Scheduled,,,"5/7/19-per.Abagail , warranty is upgraded to 5 yrs parys /1 yr labor, revised from# 117216. sent email with revised invoice. -Hitomi
Confirmed SYNC$7,200 adn original. [DL:CA 05/23, CC: MASTER 03/20]***Please charge $4,350/sales draft***-Hitomi
5/8Maritza- Printed. Will try to schedule for Monday 5/13. Scheduled for 5/15 W 11-2",CA,1,9.50,DWA-9060USJ-9060BL,4350.00,,,6501723375135207,75019867,Las Vegas,36 months,0.00,,,,,,,0.00,,,,,,
