﻿Order Number,Order Date,Event Name,Salesperson,SKU,Product Name,Color,QTY,Warranty,Payment Details,Tax,Order Total,Gross,Primary Payment Method,Primary Payment Balance,Primary Authorize Number,Primary Purchase Order Number,Primary Synchrony Account Number,Primary Synchrony Application Key,Primary Synchrony AccountInfo,Primary SynchronyTerm,Secondly Payment Method,Secondly Payment Balance,Secondly Authorize Number,Secondly Purchase Order Number,Secondly Synchrony Account Number,Secondly Synchrony Application Key,Secondly Synchrony AccountInfo,Secondly SynchronyTerm,Thirdly Payment Method,Thirdly Payment Balance,Thirdly Authorize Number,Thirdly Purchase Order Number,Thirdly Synchrony Account Number,Thirdly Synchrony Application Key,Thirdly Synchrony AccountInfo,Thirdly SynchronyTerm,Actual Shipping Cost,CustomerName,Shipping Address,Delivered On,Serial Number (TO Be),Note,Branch,IsNoTax,ActualTaxRate
103886,2/20/2018 9:55:23 AM,Baltimore Remodeling Expo 2/16-18/18 (IL),Harmony Daiwa,DWA-9060USJ-9060BR,Relax2Zero 3D,New Choco,1,"3 years parts, 1 year labor (Free)",CUSTOM ,0.00,4500.00,4500.00,Synchrony,4500.00,,,6034610083107501,85137201,Las Vegas,36 months,,0.00,,,,,,,,0.00,,,,,,,0.00,Jane Sih,4107853304,,,,TX,1,6.00
103887,2/20/2018 9:58:04 AM,Baltimore Remodeling Expo 2/16-18/18 (IL),Christoper Richard Williams,DWA-9060USJ-9060BR-DEMO,Relax2Zero 3D,Demo Choco,1,"3 years parts, 1 year labor (Free)",CUSTOM ,192.00,4142.00,4142.00,Synchrony,4000.00,,,6034610008310741,85135682,Las Vegas,36 months,,0.00,,,,,,,,0.00,,,,,,,0.00,Sabina Kang,2059107630,3/1/2018 12:00:00 AM,,Sold for 4000,TX,0,6.00
