﻿Order Number,Order Date,Event Name,Salesperson,SKU,Product Name,Color,QTY,Warranty,Payment Details,Tax,Order Total,Gross,Primary Payment Method,Primary Payment Balance,Primary Authorize Number,Primary Purchase Order Number,Primary Synchrony Account Number,Primary Synchrony Application Key,Primary Synchrony AccountInfo,Primary SynchronyTerm,Secondly Payment Method,Secondly Payment Balance,Secondly Authorize Number,Secondly Purchase Order Number,Secondly Synchrony Account Number,Secondly Synchrony Application Key,Secondly Synchrony AccountInfo,Secondly SynchronyTerm,Thirdly Payment Method,Thirdly Payment Balance,Thirdly Authorize Number,Thirdly Purchase Order Number,Thirdly Synchrony Account Number,Thirdly Synchrony Application Key,Thirdly Synchrony AccountInfo,Thirdly SynchronyTerm,Actual Shipping Cost,CustomerName,Shipping Address,Delivered On,Serial Number (TO Be),Note,Branch,IsNoTax,ActualTaxRate
104840,3/28/2018 9:09:52 AM,The OCK Home & Outdoor Living Show 3/23-25/18 (TX),Chris Tavira,DWA-9150USJ-9150CH,Legacy 3D,New Choco,1,"5 years parts, 1 year labor ($300)",CUSTOM ,0.00,4860.00,4860.00,Synchrony,4860.00,,,6034610083175789,86678236,Huston,36 months,,0.00,,,,,,,,0.00,,,,,,,0.00,Barbara Davis,4056080401,4/1/2018 12:00:00 AM,,,TX,1,8.63
104841,3/28/2018 9:14:56 AM,The OCK Home & Outdoor Living Show 3/23-25/18 (TX),Chris Tavira,DWA-9150USJ-9150BL,Legacy 3D,New Black,1,"5 years parts, 1 year labor ($300)",CUSTOM ,0.00,4860.00,4860.00,Synchrony,4860.00,,,6034610083175938,86680778,Huston,36 months,,0.00,,,,,,,,0.00,,,,,,,0.00,Jerry J. Stetler,405-408-0884,4/1/2018 12:00:00 AM,,,TX,1,8.63
104842,3/28/2018 9:32:37 AM,The OCK Home & Outdoor Living Show 3/23-25/18 (TX),David Wallace,DWA-9400Pegasus-BR,Pegasus,New Choco,1,"5 years parts, 1 year labor ($300)",CUSTOM ,0.00,4450.00,4450.00,Synchrony,4450.00,,,6034610083176167,86684566,Huston,36 months,,0.00,,,,,,,,0.00,,,,,,,0.00,Charles McEutire,405-312-9062,4/1/2018 12:00:00 AM,,,TX,1,8.63
104843,3/28/2018 9:36:52 AM,The OCK Home & Outdoor Living Show 3/23-25/18 (TX),Chris Tavira,SOL-1,Solace,,1,"3 years parts, 1 year labor (Free)",CUSTOM ,0.00,3000.00,3000.00,Synchrony,3000.00,,,6034610083182272,86788098,Huston,24 months,,0.00,,,,,,,,0.00,,,,,,,0.00,Stacy Jackson,405-990-1296,4/1/2018 12:00:00 AM,,Black Chair,TX,1,8.63
