﻿Original Event Name,Event Name,Sales Person,Order Number,Order Date,Customer Name,State,Zip,Product Name,Color,Product Status,QTY,Tax,Total Before Tax,Order Total,Primary Payment Method,Second Payment Method,Thirdl Payment Method,Warranty,Order Items,Pick up,Delivered On,Order Status,Chair Type,Order Notes,Private Note,Branch,No Tax,Actual Tax Rate,SKU,Primary Payment Balance,Primary Authorize Number,Primary Purchase Order Number,Primary Synchrony Account Number,Primary Synchrony Application Key,Primary Synchrony Account Info,Primary Synchrony Term,Second Payment Balance,Second Authorize Number,Second Purchase Order Number,Second Synchrony Account Number,Second Synchrony Application Key,Second Synchrony Account Info,Second SynchronyTerm,Third Payment Balance,Third Authorize Number,Third Purchase Order Number,Third Synchrony Account Number,Third Synchrony Application Key,Third Synchrony Account Info,Third Synchrony Term
"Sam's Club #6342 Tulsa, OK (5/30-6/9/2019) TX","Sam's Club #6342 Tulsa, OK (5/30-6/9/2019) TX",Patrick Khanh,117700,5/31/2019 2:27:01 PM,Samer Chaar,OK,74011,Ninja Leg Massager 2,Demo[-20.00],Demo,1,0.00,279.98,279.98,Credit Card,,,"2 years parts, 1 year labor for Small Items","Ninja Leg Massager 2,",YES,,Delivered,,,,TX,1,8.52,USJ-880-Demo,279.98,TC# 3960 8651 4628 4720 9332 2,,,,,,0.00,,,,,,,0.00,,,,,,
"Sam's Club #6342 Tulsa, OK (5/30-6/9/2019) TX","Sam's Club #6342 Tulsa, OK (5/30-6/9/2019) TX",Patrick Khanh,117715,6/1/2019 9:31:36 AM,Thinh Tu,OK,74133,Legacy for Sam's,Demo(Box) Choco[-700],Demo,1,306.53,3599.00,3905.53,Credit Card,,,"3 years parts, 1 year labor (Free)","Legacy for Sam's,",No,,Printed,,,"Original Received. Erika 6/3/19 11:25am
Courtesy Call completed. 6/3/19 4:41pm
Printed -Tina 6/4/2019",TX,0,8.52,DWA-9100DWA-9100CH-Box,3905.53,TC# 4969 6481 0587 4691 2211 24,,,,,,0.00,,,,,,,0.00,,,,,,
"Sam's Club #6342 Tulsa, OK (5/30-6/9/2019) TX","Sam's Club #6342 Tulsa, OK (5/30-6/9/2019) TX",Scott Tatum,117862,6/9/2019 10:36:14 AM,Vicky Peraskie,OK,74450,Vitality Plate for Sam's,New,New,1,39.18,459.99,499.17,Purchase Order,,,"2 years parts, 1 year labor for Small Items","Vitality Plate for Sam's,",YES,,New,,,,Not Dispatched,0,8.52,USJ-849USJ-849,0.00,,962473176190522824423,,,,,0.00,,,,,,,0.00,,,,,,
"Sam's Club #6342 Tulsa, OK (5/30-6/9/2019) TX","Sam's Club #6342 Tulsa, OK (5/30-6/9/2019) TX",Patrick Khanh,117872,6/9/2019 1:44:09 PM,Martin Jauregui,OK,74133,Orbit for Sam's ,New Choco,New,1,255.34,2998.00,3253.34,Credit Card,,,"3 years parts, 1 year labor (Free)","Orbit for Sam's ,",No,,New,,,Printed- Tina 6/10/2019,Not Dispatched,0,8.52,ORBT-1ORBT-1CH,3253.34,TC# 2460 8165 3566 2470 0233 22,,,,,,0.00,,,,,,,0.00,,,,,,
"Sam's Club #6342 Tulsa, OK (5/30-6/9/2019) TX","Sam's Club #6342 Tulsa, OK (5/30-6/9/2019) TX",Patrick Khanh,117895,6/9/2019 7:59:37 PM,Keko Broekman,OK,74134,PEGASUS 2 SMART - Sam's,Demo Choco,Demo,1,468.35,5499.00,5967.35,Credit Card,,,"3 years parts, 1 year labor (Free)","PEGASUS 2 SMART - Sam's,",YES,,New,,,"Demo chair does not automatically take off $700 so I adjusted it in the promotion section
Printed - Tina 6/10/2019",Not Dispatched,0,8.52,PEGS-2PEGS-2-BR-DEMO,5967.35,TC# 8064 0118 8619 5327 9568 35,,,,,,0.00,,,,,,,0.00,,,,,,
