﻿Date,Customer Name,State,Zipcode,Description,Product Number,Color,Product Status,Net,Shipping Fee,Gift Price,Financing Processing Fee,Order Total,Total Before Tax,Tax,Commission,Primary Payment Method,Primary Payment Balance,Primary Authorize Number,Primary Purchase Order Number,Primary Synchrony Account Number,Primary Synchrony Application Key,Primary Synchrony Account Info,Primary Synchrony Term,Second Payment Method,Second Payment Balance,Second Authorize Number,Second Purchase Order Number,Second Synchrony Account Number,Second Synchrony Application Key,Second Synchrony Account Info,Second Synchrony Term,Third Payment Method,Third Payment Balance,Third Authorize Number,Third Purchase Order Number,Third Synchrony Account Number,Third Synchrony Application Key,Third Synchrony Account Info,Third Synchrony Term,Delivery Date,Pick up,Warranty,Status,Chair Type,Original Event Name,Event Name,Synchrony Notes,Order Notes,Order Number,Private Note,Branch,No Tax,Actual Tax Rate
1/10/2018 5:14:53 PM,Grey Kubitz,AZ,85326,Legacy for Sam's,DWA-9100DWA-9100CH-DEMO,Demo Choco,Demo,,,,,3915.71,3659.66,256.05,David Wang,PurchaseOrder,3915.71,,5224011814060041562974,,,,,,0.00,,,,,,,,0.00,,,,,,,1/24/2018 12:00:00 AM,No,"3 years parts, 1 year labor (Free)",Delivered,,Sam's Club #4830 1/4-14/18 (CA),Sam's Club #4830 1/4-14/18 (CA),,,102832,"Please send the BRAND NEW DWA-9100 CHOCOLATE chair to the customer!!! Thank you so much!!!
01/11/17- Cristina _printed-
01/18/18-Cristina- re dispatched to LV per Hide's Request.",NV,0,8.80
1/10/2018 5:48:40 PM,Daiwa Massage,CA,90249,Ninja Leg Massager,,,New,,,,,412.35,379.00,33.35,David Wang,PurchaseOrder,412.35,,34922226404481157318,,,,,,0.00,,,,,,,,0.00,,,,,,,,YES,"2 years parts, 1 year labor (Small Items)",Delivered,,Sam's Club #4830 1/4-14/18 (CA),Sam's Club #4830 1/4-14/18 (CA),,,102834,customer's name Kristen Hinkle. store pick up.We do not need to ship!!!,CA,0,8.80
1/12/2018 9:57:55 AM,Daiwa Massage,CA,90249,Vitality Plate for Sam's,USJ-849USJ-849-DEMO,Demo,Demo,,,,,435.19,399.99,35.20,David Wang,PurchaseOrder,435.19,,584421206020042523924,,,,,,0.00,,,,,,,,0.00,,,,,,,,YES,"2 years parts, 1 year labor (Small Items)",Delivered,,Sam's Club #4830 1/4-14/18 (CA),Sam's Club #4830 1/4-14/18 (CA),,,102893,store pick up,CA,0,8.80
1/12/2018 10:01:15 AM,Daiwa Massage,CA,90249,Vitality Plate for Sam's,USJ-849USJ-849-DEMO,Demo,Demo,,,,,435.19,399.99,35.20,David Wang,PurchaseOrder,435.19,,491867998929935670423,,,,,,0.00,,,,,,,,0.00,,,,,,,,YES,"2 years parts, 1 year labor (Small Items)",Delivered,,Sam's Club #4830 1/4-14/18 (CA),Sam's Club #4830 1/4-14/18 (CA),,,102894,store pick up,CA,0,8.80
1/12/2018 10:06:04 AM,Daiwa Massage,CA,90249,Vitality Plate for Sam's,USJ-849USJ-849-DEMO,Demo,Demo,,,,,435.19,399.99,35.20,David Wang,PurchaseOrder,435.19,,829300325215266376596,,,,,,0.00,,,,,,,,0.00,,,,,,,,YES,"2 years parts, 1 year labor (Small Items)",Delivered,,Sam's Club #4830 1/4-14/18 (CA),Sam's Club #4830 1/4-14/18 (CA),,,102895,store pick up.,CA,0,8.80
1/14/2018 12:48:42 PM,Adam Fuentes,AZ,85392,Legacy for Sam's,DWA-9100DWA-9100CH-DEMO,Demo Choco,Demo,,,,,3915.71,3659.66,256.05,David Wang,PurchaseOrder,3915.71,,8357699699525519802641,,,,,,0.00,,,,,,,,0.00,,,,,,,1/24/2018 12:00:00 AM,No,"3 years parts, 1 year labor (Free)",Delivered,,Sam's Club #4830 1/4-14/18 (CA),Sam's Club #4830 1/4-14/18 (CA),,,102944,SERIAL NO# 0201002170270 INSTEAD SORRY I PUT WRONG ONE,NV,0,8.80
1/26/2018 11:50:20 AM,Jocelyn Lewis,AZ,85395,Vitality Plate for Sam's,USJ-849USJ-849,New,New,,,,,435.19,399.99,35.20,David Wang,PurchaseOrder,435.19,,TC# 5553 3030 8293 2643 0759 6,,,,,,0.00,,,,,,,,0.00,,,,,,,,YES,"2 years parts, 1 year labor (Small Items)",Delivered,,Sam's Club #4830 1/4-14/18 (CA),Sam's Club #4830 1/4-14/18 (CA),,,103263,,NV,0,8.80
1/26/2018 12:04:30 PM,Daiwa Massage,CA,90249,Foot Vibe Pro,USJ-871,,New,,,,,1555.70,1429.87,125.83,David Wang,PurchaseOrder,1555.70,,,,,,,,0.00,,,,,,,,0.00,,,,,,,,YES,"2 years parts, 1 year labor (Small Items)",Delivered,,Sam's Club #4830 1/4-14/18 (CA),Sam's Club #4830 1/4-14/18 (CA),,,103264,"TC#
1.
2.
3. #8293 0032 5215 2263 7659 6
4.
5.
6.#1216 4533 4363 3047 9489 0
7.
8.
9.#4260 3666 3818 7308 9
10.#1754 8171 7040 0415 0299 4
11.#4301 4444 9656 6790 5318 7 
12.# 9676 0505 3351 3027 2387 0
13.# 8848 8727 1939 9326 0540 3

confirmed all of invoices for 13 customers. 1/26/18 Hitomi",CA,0,8.80
