﻿Order Number,Order Date,Event Name,Salesperson,SKU,Product Name,Color,QTY,Warranty,Payment Details,Tax,Order Total,Gross,Primary Payment Method,Primary Payment Balance,Primary Authorize Number,Primary Purchase Order Number,Primary Synchrony Account Number,Primary Synchrony Application Key,Primary Synchrony AccountInfo,Primary SynchronyTerm,Secondly Payment Method,Secondly Payment Balance,Secondly Authorize Number,Secondly Purchase Order Number,Secondly Synchrony Account Number,Secondly Synchrony Application Key,Secondly Synchrony AccountInfo,Secondly SynchronyTerm,Thirdly Payment Method,Thirdly Payment Balance,Thirdly Authorize Number,Thirdly Purchase Order Number,Thirdly Synchrony Account Number,Thirdly Synchrony Application Key,Thirdly Synchrony AccountInfo,Thirdly SynchronyTerm,Actual Shipping Cost,CustomerName,Shipping Address,Delivered On,Serial Number (TO Be),Note,Branch,IsNoTax,ActualTaxRate
105115,4/8/2018 8:26:20 PM,St. Charles HM(4/6-8/18) (TX),Andres Soto,DWA-9150USJ-9150BL-DEMO,Legacy 3D,Demo Black,1,"3 years parts, 1 year labor (Free)",CUSTOM ,0.00,3800.00,3800.00,CreditCard,3800.00,00837R,,,,,,,0.00,,,,,,,,0.00,,,,,,,0.00,Mark Kerns,3149208464,4/8/2018 12:00:00 AM,,,TX,1,7.95
105119,4/8/2018 8:36:59 PM,St. Charles HM(4/6-8/18) (TX),Miku Yamaguchi,DWA-9060USJ-9060BR,Relax2Zero 3D,New Choco,1,"3 years parts, 1 year labor (Free)",CUSTOM ,0.00,4500.00,4500.00,CreditCard,4500.00,05102Z,,,,,,,0.00,,,,,,,,0.00,,,,,,,0.00,Wintner Hadley,3148625431,4/28/2018 12:00:00 AM,,,TX,1,7.95
105120,4/8/2018 8:45:06 PM,St. Charles HM(4/6-8/18) (TX),Miku Yamaguchi,DWA-9150USJ-9150CH-DEMO,Legacy 3D,Demo Choco,1,"3 years parts, 1 year labor (Free)",CUSTOM ,0.00,4200.00,4200.00,Synchrony,4200.00,,,6034610083206048,87343002,Las Vegas,36 months,,0.00,,,,,,,,0.00,,,,,,,0.00,Ashley Reclaim-kell,3145680607,4/8/2018 12:00:00 AM,,,TX,1,7.95
105158,4/10/2018 1:04:39 PM,St. Charles HM(4/6-8/18) (TX),Andres Soto,DWA-9150USJ-9150BL,Legacy 3D,New Black,1,"3 years parts, 1 year labor (Free)",CUSTOM Cash,0.00,4500.00,4500.00,Cash,500.00,,,,,,,Cash,4000.00,,,,,,,,0.00,,,,,,,0.00,David Majewski,6365440371,4/23/2018 12:00:00 AM,,,TX,1,7.95
