﻿Date,Customer Name,State,Zipcode,Description,Product Number,Color,Product Status,Net,Shipping Fee,Gift Price,Financing Processing Fee,Order Total,Total Before Tax,Tax,Commission,Primary Payment Method,Primary Payment Balance,Primary Authorize Number,Primary Purchase Order Number,Primary Synchrony Account Number,Primary Synchrony Application Key,Primary Synchrony Account Info,Primary Synchrony Term,Primary Synchrony Primary ID,Primary Synchrony Issued State,Primary Synchrony Expiretion Date,Second Payment Method,Second Payment Balance,Second Authorize Number,Second Purchase Order Number,Second Synchrony Account Number,Second Synchrony Application Key,Second Synchrony Account Info,Second Synchrony Term,Second Synchrony Primary ID,Second Synchrony Issued State,Second Synchrony Expiretion Date,Third Payment Method,Third Payment Balance,Third Authorize Number,Third Purchase Order Number,Third Synchrony Account Number,Third Synchrony Application Key,Third Synchrony Account Info,Third Synchrony Term,Third Synchrony Primary ID,Third Synchrony Issued State,Third Synchrony Expiretion Date,Delivery Date,Pick up,Warranty,Status,Chair Type,Original Event Name,Event Name,Synchrony Notes,Order Notes,Order Number,Private Note,Branch,No Tax,Actual Tax Rate
3/11/2019 9:06:41 PM,Donna Marie Beck,OK,74006,Relax 2 Zero 3D,DWA-9060USJ-9060BL,New Black,New,,,,,3800.00,3800.00,0.00,Xiongxiaojun Ji,CreditCard,3800.00,#N20N,,,,,,,,,,0.00,,,,,,,,,,,0.00,,,,,,,,,,4/9/2019 12:00:00 AM,No,"5 years parts, 1 year labor (Free)",Delivered,New,"Tulsa Home and Garden Show (Greater) (3/7-3/10/3019) Tulsa, OK","Tulsa Home and Garden Show (Greater) (3/7-3/10/3019) Tulsa, OK",,,115701,"Confirmed $3,800.00 in SQ. - 3/12/19 Hitomi
3/14Maritza Courtesy message sent @ 9:54AM
4/12Maritza- Delivery confirmation received.",TX,1,8.52
