﻿Original Event Name,Event Name,Sales Person,Order Number,Order Date,Customer Name,State,Zip,Product Name,Color,Product Status,QTY,Tax,Total Before Tax,Order Total,Primary Payment Method,Second Payment Method,Thirdl Payment Method,Warranty,Order Items,Pick up,Delivered On,Order Status,Chair Type,Order Notes,Private Note,Branch,No Tax,Actual Tax Rate,SKU,Primary Payment Balance,Primary Authorize Number,Primary Purchase Order Number,Primary Synchrony Account Number,Primary Synchrony Application Key,Primary Synchrony Account Info,Primary Synchrony Term,Second Payment Balance,Second Authorize Number,Second Purchase Order Number,Second Synchrony Account Number,Second Synchrony Application Key,Second Synchrony Account Info,Second SynchronyTerm,Third Payment Balance,Third Authorize Number,Third Purchase Order Number,Third Synchrony Account Number,Third Synchrony Application Key,Third Synchrony Account Info,Third Synchrony Term
"Sam's Club #6246 El Paso, TX 9/27-10/07/2018 (TX)","Sam's Club #6246 El Paso, TX 9/27-10/07/2018 (TX)",Tom Nguyen,109902,9/27/2018 5:49:16 PM,Lorenzo Aragon,TX,79912,Foot Vibe Pro,,New,1,9.07,109.99,119.06,CreditCard,,,"2 years parts, 1 year labor for Small Items","Foot Vibe Pro,",YES,,Delivered,,Customer already picked up the item,,TX,0,8.25,USJ-871,119.06,4461 4449 6248 5715 6258 2,,,,,,0.00,,,,,,,0.00,,,,,,
"Sam's Club #6246 El Paso, TX 9/27-10/07/2018 (TX)","Sam's Club #6246 El Paso, TX 9/27-10/07/2018 (TX)",Tom Nguyen,109922,9/28/2018 1:23:23 PM,Robin Bourdeau,TX,79934,Orbit for Sam's ,Demo Choco(Box)[-300],Demo,1,222.59,2698.00,2920.59,CreditCard,,,"3 years parts, 1 year labor (Free)","Orbit for Sam's ,",No,10/13/2018 12:00:00 AM,Delivered,,"1 free Shogun, customer already picked up small item 9/28/2018",Please give customer new chair,TX,0,8.25,ORBT-1ORBT-1CH-BOX,2920.59,6909 8680 3664 9159 2081 76,,,,,,0.00,,,,,,,0.00,,,,,,
"Sam's Club #6246 El Paso, TX 9/27-10/07/2018 (TX)","Sam's Club #6246 El Paso, TX 9/27-10/07/2018 (TX)",Tom Nguyen,109954,9/30/2018 12:11:13 PM,Cruz Adam,TX,79912,Foot Vibe Pro,,New,1,9.07,109.99,119.06,CreditCard,,,"2 years parts, 1 year labor (Free)","Foot Vibe Pro,",YES,,Delivered,,Picked up at Sams club,,TX,0,8.25,USJ-871,119.06,3795 3364 6590 6267 1360 5,,,,,,0.00,,,,,,,0.00,,,,,,
"Sam's Club #6246 El Paso, TX 9/27-10/07/2018 (TX)","Sam's Club #6246 El Paso, TX 9/27-10/07/2018 (TX)",Tom Nguyen,109999,10/1/2018 10:15:30 AM,Christina Charles,TX,79905,Legacy for Sam's,New Choco,New,1,354.67,4299.00,4653.67,CreditCard,,,"3 years parts, 1 year labor (Free)","Legacy for Sam's,",No,10/15/2018 12:00:00 AM,Delivered,,Gift 1 Vitality Plate ( Customer already Pick up)(09/30),,TX,0,8.25,DWA-9100DWA-9100CH,4653.67,1551 0345 9026 1579 1575 02,,,,,,0.00,,,,,,,0.00,,,,,,
"Sam's Club #6246 El Paso, TX 9/27-10/07/2018 (TX)","Sam's Club #6246 El Paso, TX 9/27-10/07/2018 (TX)",Tom Nguyen,110005,10/1/2018 2:38:18 PM,Daniel Swanson,NM,88310,Orbit for Sam's ,Demo Choco(Box)[-300],Demo,1,222.59,2698.00,2920.59,CreditCard,,,"3 years parts, 1 year labor (Free)","Orbit for Sam's ,",No,10/13/2018 12:00:00 AM,Delivered,,Please ship the chair on 10/23 or 10/24. Customer will not be home if not thats days,"10/08/18: REMOVE PREVIOUS MASSAGE CHAIR. (PER TOM N.)  place old massage chair in the garage.
-Cristina 11:28 am_",TX,0,8.25,ORBT-1ORBT-1CH-BOX,2920.59,4750 0461 5542 7397 0183 84,,,,,,0.00,,,,,,,0.00,,,,,,
"Sam's Club #6246 El Paso, TX 9/27-10/07/2018 (TX)","Sam's Club #6246 El Paso, TX 9/27-10/07/2018 (TX)",Tom Nguyen,110036,10/3/2018 1:54:27 PM,Maria Hernandez,TX,79903,Foot Vibe Pro,,New,1,9.07,109.99,119.06,CreditCard,,,"2 years parts, 1 year labor (Free)","Foot Vibe Pro,",YES,,Delivered,,Customer already picked up the item,,TX,0,8.25,USJ-871,119.06,1654 1196 7352 8489 0082 3,,,,,,0.00,,,,,,,0.00,,,,,,
"Sam's Club #6246 El Paso, TX 9/27-10/07/2018 (TX)","Sam's Club #6246 El Paso, TX 9/27-10/07/2018 (TX)",Tom Nguyen,110037,10/3/2018 2:00:05 PM,Lorenzo Jaimes,TX,79924,Symphony,Demo Choco,Demo,1,379.42,4599.00,4978.42,CreditCard,,,"3 years parts, 1 year labor (Free)","Symphony,",No,10/13/2018 12:00:00 AM,Delivered,,Please give free 1 tablet for Symphony,"10/4Maritza Courtesy Text @ 9:59AM
10/23Maritza- Customer called in upset that he has not yet received his tablet. On day of delivery, teablet was not delivered. Patrick spoke with either office or manager regarding this. It has been 10 days since and he hasn't received tablet. June will speak with Patrick.",TX,0,8.25,USJ-9300Symphony-BW-DEMO,4978.42,8126 8151 2697 7400 8604 59,,,,,,0.00,,,,,,,0.00,,,,,,
"Sam's Club #6246 El Paso, TX 9/27-10/07/2018 (TX)","Sam's Club #6246 El Paso, TX 9/27-10/07/2018 (TX)",Tom Nguyen,110108,10/6/2018 6:41:41 PM,Loeb Sachiko,TX,79924,Legacy for Sam's,Demo Choco[-700],Demo,1,296.92,3599.00,3895.92,CreditCard,,,"3 years parts, 1 year labor (Free)","Legacy for Sam's,",YES,10/7/2018 12:00:00 AM,Delivered,,"Pick Up on Sunday.
SN# 0201002181300",will confirm pickup confirmation 10/8/18 Hitomi//Received pickup confirmation. 10/9/18 Hitomi,TX,0,8.25,DWA-9100DWA-9100CH-DEMO,3895.92,4599 3984 3165 9156 2941 06,,,,,,0.00,,,,,,,0.00,,,,,,
"Sam's Club #6246 El Paso, TX 9/27-10/07/2018 (TX)","Sam's Club #6246 El Paso, TX 9/27-10/07/2018 (TX)",Tom Nguyen,110109,10/6/2018 6:50:35 PM,Hector Sakes,TX,79934,Legacy for Sam's,New Black,New,1,363.74,4408.99,4772.73,CreditCard,,,"3 years parts, 1 year labor (Free)","Legacy for Sam's,Foot Vibe Pro,",No,10/14/2018 12:00:00 AM,Delivered,,"Please Give Free 1 Vitality Plate(Delivery with the chair)
Customer already picked up the Foot Vibe",,TX,0,8.25,DWA-9100DWA-9100BL,4772.73,6157 3591 0076 3213 6452 27,,,,,,0.00,,,,,,,0.00,,,,,,
"Sam's Club #6246 El Paso, TX 9/27-10/07/2018 (TX)","Sam's Club #6246 El Paso, TX 9/27-10/07/2018 (TX)",Tom Nguyen,110109,10/6/2018 6:50:35 PM,Hector Sakes,TX,79934,Foot Vibe Pro,,New,1,363.74,4408.99,4772.73,CreditCard,,,"2 years parts, 1 year labor for Small Items","Legacy for Sam's,Foot Vibe Pro,",No,10/14/2018 12:00:00 AM,Delivered,,"Please Give Free 1 Vitality Plate(Delivery with the chair)
Customer already picked up the Foot Vibe",,TX,0,8.25,USJ-871,4772.73,6157 3591 0076 3213 6452 27,,,,,,0.00,,,,,,,0.00,,,,,,
"Sam's Club #6246 El Paso, TX 9/27-10/07/2018 (TX)","Sam's Club #6246 El Paso, TX 9/27-10/07/2018 (TX)",Tom Nguyen,110110,10/6/2018 6:57:27 PM,Bertha Saenz,TX,79904,Vitality Plate for Sam's,New,New,1,37.95,459.99,497.94,CreditCard,,,"2 years parts, 1 year labor for Small Items","Vitality Plate for Sam's,",No,,Scheduled,,Please Ship the Vitality for the customer,"**Please take care of shipment.**-10/8/18 Hitomi
FedEx: 773428861951",TX,0,8.25,USJ-849USJ-849,497.94,8516 1592 1933 4088 1042 9,,,,,,0.00,,,,,,,0.00,,,,,,
"Sam's Club #6246 El Paso, TX 9/27-10/07/2018 (TX)","Sam's Club #6246 El Paso, TX 9/27-10/07/2018 (TX)",Tom Nguyen,110163,10/8/2018 12:32:12 AM,Frank La Riva,TX,79904,Shogun Neck & Back Massger,Demo[-20],Demo,1,47.85,579.97,627.82,CreditCard,,,"2 years parts, 1 year labor for Small Items","Shogun Neck &amp; Back Massger,Vitality Plate for Sam's,",YES,,Scheduled,,"Customer already picked up the items.
Please ship the Bungee Cords for Vitality Plate to the customer. (Missing when pick up)","**Please take care of shipment of CORDS **-10/8/18 Hitomi
FedEx: 773428801360",TX,0,8.25,USJ-874USJ-874-DEMO,627.82,9142 0268 8073 9803 8997 0,,,,,,0.00,,,,,,,0.00,,,,,,
"Sam's Club #6246 El Paso, TX 9/27-10/07/2018 (TX)","Sam's Club #6246 El Paso, TX 9/27-10/07/2018 (TX)",Tom Nguyen,110163,10/8/2018 12:32:12 AM,Frank La Riva,TX,79904,Vitality Plate for Sam's,Demo[-60],Demo,1,47.85,579.97,627.82,CreditCard,,,"2 years parts, 1 year labor for Small Items","Shogun Neck &amp; Back Massger,Vitality Plate for Sam's,",YES,,Scheduled,,"Customer already picked up the items.
Please ship the Bungee Cords for Vitality Plate to the customer. (Missing when pick up)","**Please take care of shipment of CORDS **-10/8/18 Hitomi
FedEx: 773428801360",TX,0,8.25,USJ-849USJ-849-DEMO,627.82,9142 0268 8073 9803 8997 0,,,,,,0.00,,,,,,,0.00,,,,,,
"Sam's Club #6246 El Paso, TX 9/27-10/07/2018 (TX)","Sam's Club #6246 El Paso, TX 9/27-10/07/2018 (TX)",Tom Nguyen,110167,10/8/2018 12:52:57 AM,Pablo Davila,NM,88081,Foot Vibe Pro,,New,1,9.07,109.99,119.06,CreditCard,,,"2 years parts, 1 year labor for Small Items","Foot Vibe Pro,",YES,,Delivered,,Customer already picked up the Item,,TX,0,8.25,USJ-871,119.06,6380 6659 8417 3930 8837 4,,,,,,0.00,,,,,,,0.00,,,,,,
"Sam's Club #6246 El Paso, TX 9/27-10/07/2018 (TX)","Sam's Club #6246 El Paso, TX 9/27-10/07/2018 (TX)",Tom Nguyen,110168,10/8/2018 1:17:56 AM,Pablo Davila,NM,88081,Legacy for Sam's,New Choco,New,1,354.67,4299.00,4653.67,CreditCard,,,"3 years parts, 1 year labor (Free)","Legacy for Sam's,",No,10/29/2018 12:00:00 AM,Delivered,,Please gift free 1 Vitality plate (Ship with chair),,TX,0,8.25,DWA-9100DWA-9100CH,4653.67,5793 2908 6219 4768 5727 31,,,,,,0.00,,,,,,,0.00,,,,,,
"Sam's Club #6246 El Paso, TX 9/27-10/07/2018 (TX)","Sam's Club #6246 El Paso, TX 9/27-10/07/2018 (TX)",Tom Nguyen,110169,10/8/2018 1:22:15 AM,Kem Chang,TX,79912,Foot Vibe Pro,,New,1,0.00,109.99,109.99,CreditCard,,,"2 years parts, 1 year labor for Small Items","Foot Vibe Pro,",No,,Scheduled,,Please ship the Foot Vibe Pro to the customer,"**Please take care of shipment.**-10/8/18 Hitomi
FedEx: 773428701254",TX,1,8.25,USJ-871,109.99,0623 2026 2102 7645 4674 1,,,,,,0.00,,,,,,,0.00,,,,,,
"Sam's Club #6246 El Paso, TX 9/27-10/07/2018 (TX)","Sam's Club #6246 El Paso, TX 9/27-10/07/2018 (TX)",Tom Nguyen,110170,10/8/2018 1:24:31 AM,Kem Chang,TX,79912,Shogun Neck & Back Massger,New,New,1,0.00,199.98,199.98,CreditCard,,,"2 years parts, 1 year labor for Small Items","Shogun Neck &amp; Back Massger,",YES,,Delivered,,Customer already picked up the item,,TX,1,8.25,USJ-874USJ-874,199.98,4861 8467 6246 5771 8758 2,,,,,,0.00,,,,,,,0.00,,,,,,
"Sam's Club #6246 El Paso, TX 9/27-10/07/2018 (TX)","Sam's Club #6246 El Paso, TX 9/27-10/07/2018 (TX)",Tom Nguyen,110171,10/8/2018 1:29:21 AM,Chong Granberg,TX,79924,Foot Vibe Pro,,New,1,9.07,109.99,119.06,CreditCard,,,"2 years parts, 1 year labor for Small Items","Foot Vibe Pro,",No,,Scheduled,,Please ship the Foot Vibe to the customer,"**Please take care of shipment.**-10/8/18 Hitomi
FedEx: 773428670479",TX,0,8.25,USJ-871,119.06,9557 9991 5795 2126 5123 7,,,,,,0.00,,,,,,,0.00,,,,,,
"Sam's Club #6246 El Paso, TX 9/27-10/07/2018 (TX)","Sam's Club #6246 El Paso, TX 9/27-10/07/2018 (TX)",Tom Nguyen,110172,10/8/2018 1:32:24 AM,Juan Velasco,TX,79938,Shogun Neck & Back Massger,New,New,1,16.50,199.98,216.48,CreditCard,,,"2 years parts, 1 year labor for Small Items","Shogun Neck &amp; Back Massger,",YES,,Delivered,,Customer already picked up the item,,TX,0,8.25,USJ-874USJ-874,216.48,4060 6679 9428 3990 0533 4,,,,,,0.00,,,,,,,0.00,,,,,,
