﻿Order Number,Order Date,Original Event Name,Event Name,Salesperson,SKU,Product Name,Color,QTY,Warranty,Tax,Order Total,Primary Payment Method,Primary Payment Balance,Primary Authorize Number,Primary Purchase Order Number,Primary Synchrony Account Number,Primary Synchrony Application Key,Primary Synchrony AccountInfo,Primary SynchronyTerm,Secondly Payment Method,Secondly Payment Balance,Secondly Authorize Number,Secondly Purchase Order Number,Secondly Synchrony Account Number,Secondly Synchrony Application Key,Secondly Synchrony AccountInfo,Secondly SynchronyTerm,Thirdly Payment Method,Thirdly Payment Balance,Thirdly Authorize Number,Thirdly Purchase Order Number,Thirdly Synchrony Account Number,Thirdly Synchrony Application Key,Thirdly Synchrony AccountInfo,Thirdly SynchronyTerm,Actual Shipping Cost,CustomerName,Shipping Phone,Delivered On,Serial Number (TO Be),Note,Branch,No Tax,ActualTaxRate
109946,9/30/2018 7:57:23 AM,"VIRGINIA STATE FAIR 9/28-10/7/18 DOSWELL, VA (IL)","VIRGINIA STATE FAIR 9/28-10/7/18 DOSWELL, VA (IL)",Abagail Stirling,DWA-9150USJ-9150BL-DEMO,Legacy 3D,Demo Black,1,"5 years parts, 1 year labor (Free)",0.00,4200.00,Synchrony,4200.00,,,6019170813164776,95052005,San Diego,36 months,,0.00,,,,,,,,0.00,,,,,,,0.00,Aaron Haines Jr,7575675906,,,,FL,1,5.30
109947,9/30/2018 8:05:42 AM,"VIRGINIA STATE FAIR 9/28-10/7/18 DOSWELL, VA (IL)","VIRGINIA STATE FAIR 9/28-10/7/18 DOSWELL, VA (IL)",Abagail Stirling,DWA-9150USJ-9150BL-DEMO,Legacy 3D,Demo Black,1,"5 years parts, 1 year labor (Free)",0.00,4200.00,Synchrony,4200.00,,,6019170813162853,95015423,San Diego,36 months,,0.00,,,,,,,,0.00,,,,,,,0.00,Robert Forsyth,8046403816,,,,FL,1,5.30
109948,9/30/2018 8:11:55 AM,"VIRGINIA STATE FAIR 9/28-10/7/18 DOSWELL, VA (IL)","VIRGINIA STATE FAIR 9/28-10/7/18 DOSWELL, VA (IL)",Abagail Stirling,DWA-9150USJ-9150CH-DEMO,Legacy 3D,Demo Choco,1,"5 years parts, 1 year labor (Free)",0.00,4000.00,Synchrony,4000.00,,,6019170813162879,95015880,San Diego,36 months,,0.00,,,,,,,,0.00,,,,,,,0.00,Larry Atkins,4046908252,9/29/2018 12:00:00 AM,,Picked up,FL,1,5.30
109978,10/1/2018 7:35:33 AM,"VIRGINIA STATE FAIR 9/28-10/7/18 DOSWELL, VA (IL)","VIRGINIA STATE FAIR 9/28-10/7/18 DOSWELL, VA (IL)",Ilene Maynard,DWA-9060USJ-9060BL-DEMO,Relax2Zero 3D,Demo Black,1,"5 years parts, 1 year labor (Free)",0.00,3800.00,Synchrony,2000.00,,,6019170813165690,95067642,San Diego,24 months,CreditCard,1300.00,pqsr,,,,,,CreditCard,500.00,k0bU,,,,,,0.00,Regina Depriest,8042750494,,,,FL,1,5.30
109979,10/1/2018 7:47:05 AM,"VIRGINIA STATE FAIR 9/28-10/7/18 DOSWELL, VA (IL)","VIRGINIA STATE FAIR 9/28-10/7/18 DOSWELL, VA (IL)",Abagail Stirling,DWA-9060USJ-9060BR-DEMO,Relax2Zero 3D,Demo Choco,1,"5 years parts, 1 year labor (Free)",0.00,7200.00,Synchrony,0.00,,,6019170813166144,95075582,San Diego,36 months,,0.00,,,,,,,,0.00,,,,,,,0.00,Urgakhnaran Rice,7032322223,,,,Not Dispatched,1,5.30
109979,10/1/2018 7:47:05 AM,"VIRGINIA STATE FAIR 9/28-10/7/18 DOSWELL, VA (IL)","VIRGINIA STATE FAIR 9/28-10/7/18 DOSWELL, VA (IL)",Abagail Stirling,DWA-9060USJ-9060BL-DEMO,Relax2Zero 3D,Demo Black,1,"5 years parts, 1 year labor (Free)",0.00,7200.00,Synchrony,0.00,,,6019170813166144,95075582,San Diego,36 months,,0.00,,,,,,,,0.00,,,,,,,0.00,Urgakhnaran Rice,7032322223,,,,Not Dispatched,1,5.30
109980,10/1/2018 7:54:12 AM,"VIRGINIA STATE FAIR 9/28-10/7/18 DOSWELL, VA (IL)","VIRGINIA STATE FAIR 9/28-10/7/18 DOSWELL, VA (IL)",Abagail Stirling,DWA-9150USJ-9150BL,Legacy 3D,New Black,1,"5 years parts, 1 year labor (Free)",0.00,4700.00,Synchrony,4700.00,,,6019170813167514,95093020,San Diego,36 months,,0.00,,,,,,,,0.00,,,,,,,0.00,Paul Kuster,5403736797,,,,FL,1,5.30
109981,10/1/2018 7:58:49 AM,"VIRGINIA STATE FAIR 9/28-10/7/18 DOSWELL, VA (IL)","VIRGINIA STATE FAIR 9/28-10/7/18 DOSWELL, VA (IL)",Ilene Maynard,DWA-9060USJ-9060BL,Relax2Zero 3D,New Black,1,"5 years parts, 1 year labor (Free)",0.00,4900.00,CreditCard,4900.00,Sq #PzVH,,,,,,,0.00,,,,,,,,0.00,,,,,,,0.00,Kristin Aponte,7577714646,,,,FL,1,5.30
109982,10/1/2018 8:06:59 AM,"VIRGINIA STATE FAIR 9/28-10/7/18 DOSWELL, VA (IL)","VIRGINIA STATE FAIR 9/28-10/7/18 DOSWELL, VA (IL)",Ruben Cuatrona,DWA-9150USJ-9150CH,Legacy 3D,New Choco,1,"5 years parts, 1 year labor (Free)",0.00,4500.00,Synchrony,2000.00,,,6019170813167449,95092248,San Diego,36 months,COD,2500.00,,,,,,,,0.00,,,,,,,0.00,Natalie Fullerton,8043470236,,,,FL,1,5.30
109983,10/1/2018 8:18:21 AM,"VIRGINIA STATE FAIR 9/28-10/7/18 DOSWELL, VA (IL)","VIRGINIA STATE FAIR 9/28-10/7/18 DOSWELL, VA (IL)",Paul Wang,DWA-9150USJ-9150CH-DEMO,Legacy 3D,Demo Choco,1,"5 years parts, 1 year labor (Free)",0.00,4400.00,Synchrony,4400.00,,,6019170813167472,95092338,San Diego,36 months,,0.00,,,,,,,,0.00,,,,,,,0.00,Sean Dolan,8046252288,,,,FL,1,5.30
109986,10/1/2018 8:59:22 AM,"VIRGINIA STATE FAIR 9/28-10/7/18 DOSWELL, VA (IL)","VIRGINIA STATE FAIR 9/28-10/7/18 DOSWELL, VA (IL)",Ruben Cuatrona,DWA-9150USJ-9150CH,Legacy 3D,New Choco,1,"5 years parts, 1 year labor (Free)",0.00,4900.00,Synchrony,4900.00,,,6019170813167597,95067770,San Diego,36 months,,0.00,,,,,,,,0.00,,,,,,,0.00,Michael Bugg,8045121965,,,,FL,1,5.30
109989,10/1/2018 9:04:09 AM,"VIRGINIA STATE FAIR 9/28-10/7/18 DOSWELL, VA (IL)","VIRGINIA STATE FAIR 9/28-10/7/18 DOSWELL, VA (IL)",Ruben Cuatrona,DWA-9150USJ-9150CH-DEMO,Legacy 3D,Demo Choco,1,"5 years parts, 1 year labor (Free)",0.00,4200.00,Synchrony,4200.00,,,6019170813167092,95088295,San Diego,36 months,,0.00,,,,,,,,0.00,,,,,,,0.00,William Handy,8047234455,,,,FL,1,5.30
110008,10/1/2018 3:26:18 PM,"VIRGINIA STATE FAIR 9/28-10/7/18 DOSWELL, VA (IL)","VIRGINIA STATE FAIR 9/28-10/7/18 DOSWELL, VA (IL)",Ruben Cuatrona,DWA-9400Pegasus-BL,Pegasus,New Black,1,"5 years parts, 1 year labor (Free)",0.00,5000.00,CreditCard,5000.00,Sq# 76qz,,,,,,,0.00,,,,,,,,0.00,,,,,,,0.00,Brent Krawiecky,3606217107,,,,FL,1,5.30
110016,10/1/2018 5:25:41 PM,"VIRGINIA STATE FAIR 9/28-10/7/18 DOSWELL, VA (IL)","VIRGINIA STATE FAIR 9/28-10/7/18 DOSWELL, VA (IL)",Abagail Stirling,DWA-9150USJ-9150CH-DEMO,Legacy 3D,Demo Choco,1,"5 years parts, 1 year labor (Free)",0.00,4200.00,Synchrony,4200.00,,,6019170813169023,95136430,San Diego,36 months,,0.00,,,,,,,,0.00,,,,,,,0.00,Rachelle Needre,7576347347,,,,FL,1,5.30
110017,10/2/2018 7:28:11 AM,"VIRGINIA STATE FAIR 9/28-10/7/18 DOSWELL, VA (IL)","VIRGINIA STATE FAIR 9/28-10/7/18 DOSWELL, VA (IL)",Ruben Cuatrona,DWA-9400Pegasus-BR-DEMO,Pegasus,Demo Choco,1,"5 years parts, 1 year labor (Free)",0.00,4800.00,CreditCard,4800.00,Sq# DGfE,,,,,,,0.00,,,,,,,,0.00,,,,,,,0.00,Scottie Lowe,4233401290,,,,FL,1,5.30
110019,10/2/2018 12:15:05 PM,"VIRGINIA STATE FAIR 9/28-10/7/18 DOSWELL, VA (IL)","VIRGINIA STATE FAIR 9/28-10/7/18 DOSWELL, VA (IL)",Abagail Stirling,DWA-9150USJ-9150CH,Legacy 3D,New Choco,1,"5 years parts, 1 year labor (Free)",0.00,4000.00,CreditCard,4000.00,Sq# kHHB,,,,,,,0.00,,,,,,,,0.00,,,,,,,0.00,Andy Scott,5407869465,,,,FL,1,5.30
110030,10/2/2018 4:07:12 PM,"VIRGINIA STATE FAIR 9/28-10/7/18 DOSWELL, VA (IL)","VIRGINIA STATE FAIR 9/28-10/7/18 DOSWELL, VA (IL)",Abagail Stirling,DWA-9060USJ-9060BL-DEMO,Relax2Zero 3D,Demo Black,1,"5 years parts, 1 year labor (Free)",0.00,3500.00,CreditCard,3500.00,Sq# 2JTh,,,,,,,0.00,,,,,,,,0.00,,,,,,,0.00,Cory Moran,5733569717,10/2/2018 12:00:00 AM,,Cust. Pick up,FL,1,5.30
110031,10/2/2018 5:18:35 PM,"VIRGINIA STATE FAIR 9/28-10/7/18 DOSWELL, VA (IL)","VIRGINIA STATE FAIR 9/28-10/7/18 DOSWELL, VA (IL)",Paul Wang,DWA-9150USJ-9150CH,Legacy 3D,New Choco,1,"5 years parts, 1 year labor (Free)",0.00,3800.00,CreditCard,3800.00,Sq# 4KfQ,,,,,,,0.00,,,,,,,,0.00,,,,,,,0.00,Hung Nguyen,8046157345,,,,FL,1,5.30
110033,10/3/2018 12:13:11 PM,"VIRGINIA STATE FAIR 9/28-10/7/18 DOSWELL, VA (IL)","VIRGINIA STATE FAIR 9/28-10/7/18 DOSWELL, VA (IL)",Paul Wang,DWA-9150USJ-9150CH,Legacy 3D,New Choco,1,"5 years parts, 1 year labor (Free)",0.00,4500.00,CreditCard,4500.00,Sq# fecj,,,,,,,0.00,,,,,,,,0.00,,,,,,,0.00,Greg Buckley,8043504539,,,,FL,1,5.30
110034,10/3/2018 12:25:58 PM,"VIRGINIA STATE FAIR 9/28-10/7/18 DOSWELL, VA (IL)","VIRGINIA STATE FAIR 9/28-10/7/18 DOSWELL, VA (IL)",Ilene Maynard,DWA-9060USJ-9060BL,Relax2Zero 3D,New Black,1,"5 years parts, 1 year labor (Free)",0.00,4500.00,Synchrony,4500.00,,,6019170813171003,95208926,San Diego,36 months,,0.00,,,,,,,,0.00,,,,,,,0.00,Christopher & Bonita Earls,7571965,,,,FL,1,5.30
110038,10/3/2018 2:26:59 PM,"VIRGINIA STATE FAIR 9/28-10/7/18 DOSWELL, VA (IL)","VIRGINIA STATE FAIR 9/28-10/7/18 DOSWELL, VA (IL)",Ilene Maynard,DWA-9150USJ-9150BL,Legacy 3D,New Black,1,"5 years parts, 1 year labor (Free)",0.00,4900.00,CreditCard,2900.00,Sq# 1Czl,,,,,,Synchrony,2000.00,,,6019170813171250,95216131,San Diego,24 months,,0.00,,,,,,,0.00,Jim Spiess,8044625467,,,,FL,1,5.30
110056,10/4/2018 10:38:01 AM,"VIRGINIA STATE FAIR 9/28-10/7/18 DOSWELL, VA (IL)","VIRGINIA STATE FAIR 9/28-10/7/18 DOSWELL, VA (IL)",Abagail Stirling,DWA-9060USJ-9060BR-DEMO,Relax2Zero 3D,Demo Choco,1,"5 years parts, 1 year labor (Free)",0.00,7200.00,Synchrony,7200.00,,,6019170813166144,95075582,San Diego,36 months,,0.00,,,,,,,,0.00,,,,,,,0.00,Urgakhnaran Rice,7032322223,9/30/2018 12:00:00 AM,,"DEMO LEGACY 3D $3,600/DEMO RELAX 2 ZREO 2.0 $3,600",FL,1,5.30
110056,10/4/2018 10:38:01 AM,"VIRGINIA STATE FAIR 9/28-10/7/18 DOSWELL, VA (IL)","VIRGINIA STATE FAIR 9/28-10/7/18 DOSWELL, VA (IL)",Abagail Stirling,DWA-9150USJ-9150BL-DEMO,Legacy 3D,Demo Black,1,"5 years parts, 1 year labor (Free)",0.00,7200.00,Synchrony,7200.00,,,6019170813166144,95075582,San Diego,36 months,,0.00,,,,,,,,0.00,,,,,,,0.00,Urgakhnaran Rice,7032322223,9/30/2018 12:00:00 AM,,"DEMO LEGACY 3D $3,600/DEMO RELAX 2 ZREO 2.0 $3,600",FL,1,5.30
110059,10/4/2018 1:57:35 PM,"VIRGINIA STATE FAIR 9/28-10/7/18 DOSWELL, VA (IL)","VIRGINIA STATE FAIR 9/28-10/7/18 DOSWELL, VA (IL)",Ruben Cuatrona,DWA-9400Pegasus-BR,Pegasus,New Choco,1,"5 years parts, 1 year labor (Free)",0.00,5600.00,Synchrony,5600.00,,,6019170813172257,95253306,San Diego,48 months,,0.00,,,,,,,,0.00,,,,,,,0.00,Joy Morrison,7572542978,,,,FL,1,5.30
110060,10/4/2018 2:03:11 PM,"VIRGINIA STATE FAIR 9/28-10/7/18 DOSWELL, VA (IL)","VIRGINIA STATE FAIR 9/28-10/7/18 DOSWELL, VA (IL)",Abagail Stirling,DWA-9150USJ-9150BL-DEMO,Legacy 3D,Demo Black,1,"5 years parts, 1 year labor (Free)",0.00,4200.00,Synchrony,4200.00,,,6019170813172373,95253604,San Diego,36 months,,0.00,,,,,,,,0.00,,,,,,,0.00,Janet Ballard,8046396864,,,,FL,1,5.30
110061,10/4/2018 2:09:29 PM,"VIRGINIA STATE FAIR 9/28-10/7/18 DOSWELL, VA (IL)","VIRGINIA STATE FAIR 9/28-10/7/18 DOSWELL, VA (IL)",Ilene Maynard,DWA-9060USJ-9060BL-DEMO,Relax2Zero 3D,Demo Black,1,"5 years parts, 1 year labor (Free)",0.00,4200.00,Synchrony,4200.00,,,6019170813172381,95253851,San Diego,36 months,,0.00,,,,,,,,0.00,,,,,,,0.00,Dorothy Hites,8048769711,,,,FL,1,5.30
110062,10/4/2018 2:15:06 PM,"VIRGINIA STATE FAIR 9/28-10/7/18 DOSWELL, VA (IL)","VIRGINIA STATE FAIR 9/28-10/7/18 DOSWELL, VA (IL)",Abagail Stirling,DWA-9060USJ-9060BR,Relax2Zero 3D,New Choco,1,"5 years parts, 1 year labor (Free)",0.00,4200.00,Synchrony,4200.00,,,6019170813172548,95257302,San Diego,36 months,,0.00,,,,,,,,0.00,,,,,,,0.00,Melvin Bond,8043260810,,,,FL,1,5.30
110063,10/4/2018 2:31:52 PM,"VIRGINIA STATE FAIR 9/28-10/7/18 DOSWELL, VA (IL)","VIRGINIA STATE FAIR 9/28-10/7/18 DOSWELL, VA (IL)",Ruben Cuatrona,USJ-9000USJ-9000BR,Relax2Zero 1.0,New Brown,1,"5 years parts, 1 year labor (Free)",0.00,3000.00,CreditCard,3000.00,Sq #4rfb,,,,,,,0.00,,,,,,,,0.00,,,,,,,0.00,Randall Wegener,9098164955,,,,CA,1,5.30
110076,10/5/2018 7:50:01 AM,"VIRGINIA STATE FAIR 9/28-10/7/18 DOSWELL, VA (IL)","VIRGINIA STATE FAIR 9/28-10/7/18 DOSWELL, VA (IL)",Abagail Stirling,DWA-9100DWA-9100BL,Legacy,New Black,1,"5 years parts, 1 year labor (Free)",0.00,3000.00,CreditCard,50.00,Sq# cMRa,,,,,,COD,0.00,,,,,,,,0.00,,,,,,,0.00,Beverly Pugh,8042636332,,,,TX,1,5.30
110077,10/5/2018 7:57:09 AM,"VIRGINIA STATE FAIR 9/28-10/7/18 DOSWELL, VA (IL)","VIRGINIA STATE FAIR 9/28-10/7/18 DOSWELL, VA (IL)",Abagail Stirling,DWA-9150USJ-9150CH,Legacy 3D,New Choco,1,"5 years parts, 1 year labor (Free)",0.00,4700.00,Synchrony,4700.00,,,6019170813173025,95242694,San Diego,36 months,,0.00,,,,,,,,0.00,,,,,,,0.00,Abigayl Lai,5717233848,,,,FL,1,5.30
110078,10/5/2018 8:58:14 AM,"VIRGINIA STATE FAIR 9/28-10/7/18 DOSWELL, VA (IL)","VIRGINIA STATE FAIR 9/28-10/7/18 DOSWELL, VA (IL)",Darryl Garrett,DWA-9060USJ-9060BR-DEMO,Relax2Zero 3D,Demo Choco,1,"5 years parts, 1 year labor (Free)",0.00,4200.00,CreditCard,4200.00,Sq# F6Dg,,,,,,,0.00,,,,,,,,0.00,,,,,,,0.00,Ray Polcha,5403735751,,,"Serial #0103002180752
Deliver this chair to customer",FL,1,5.30
110081,10/5/2018 10:38:53 AM,"VIRGINIA STATE FAIR 9/28-10/7/18 DOSWELL, VA (IL)","VIRGINIA STATE FAIR 9/28-10/7/18 DOSWELL, VA (IL)",Ruben Cuatrona,DWA-9400Pegasus-BL-DEMO,Pegasus,Demo Black,1,"5 years parts, 1 year labor (Free)",0.00,5000.00,CreditCard,100.00,Sq# 59FC,,,,,,COD,4900.00,,,,,,,,0.00,,,,,,,0.00,John Landrum,8042413513,,,Please deliver BEFORE 10:00 am!,FL,1,5.30
110083,10/5/2018 11:46:11 AM,"VIRGINIA STATE FAIR 9/28-10/7/18 DOSWELL, VA (IL)","VIRGINIA STATE FAIR 9/28-10/7/18 DOSWELL, VA (IL)",Ruben Cuatrona,DWA-9060USJ-9060BL-DEMO,Relax2Zero 3D,Demo Black,1,"5 years parts, 1 year labor (Free)",0.00,4000.00,CreditCard,200.00,Sq# 5Zpi,,,,,,COD,0.00,,,,,,,,0.00,,,,,,,0.00,MaryAnne Sullivan,5408464808,,,Balance due COD $3800.00,FL,1,5.30
110090,10/5/2018 2:51:58 PM,"VIRGINIA STATE FAIR 9/28-10/7/18 DOSWELL, VA (IL)","VIRGINIA STATE FAIR 9/28-10/7/18 DOSWELL, VA (IL)",Ilene Maynard,DWA-9060USJ-9060BR,Relax2Zero 3D,New Choco,1,"5 years parts, 1 year labor (Free)",0.00,4900.00,Synchrony,4900.00,,,6019170813173975,95299637,San Diego,36 months,,0.00,,,,,,,,0.00,,,,,,,0.00,Robert Bryant,8048144128,,,,FL,1,5.30
110091,10/5/2018 2:58:27 PM,"VIRGINIA STATE FAIR 9/28-10/7/18 DOSWELL, VA (IL)","VIRGINIA STATE FAIR 9/28-10/7/18 DOSWELL, VA (IL)",Ruben Cuatrona,DWA-9400Pegasus-BR-DEMO,Pegasus,Demo Choco,1,"5 years parts, 1 year labor (Free)",0.00,5200.00,Synchrony,5200.00,,,6019170813173967,95299432,San Diego,36 months,,0.00,,,,,,,,0.00,,,,,,,0.00,Steven Franklin,4342298343,,,,FL,1,5.30
110092,10/5/2018 3:02:32 PM,"VIRGINIA STATE FAIR 9/28-10/7/18 DOSWELL, VA (IL)","VIRGINIA STATE FAIR 9/28-10/7/18 DOSWELL, VA (IL)",Ilene Maynard,DWA-9060USJ-9060BL,Relax2Zero 3D,New Black,1,"5 years parts, 1 year labor (Free)",0.00,4700.00,CreditCard,4700.00,Sq# yrEf,,,,,,,0.00,,,,,,,,0.00,,,,,,,0.00,Austin Smith,5408428780,,,,FL,1,5.30
110093,10/5/2018 3:28:53 PM,"VIRGINIA STATE FAIR 9/28-10/7/18 DOSWELL, VA (IL)","VIRGINIA STATE FAIR 9/28-10/7/18 DOSWELL, VA (IL)",Ruben Cuatrona,DWA-9150USJ-9150BL-DEMO,Legacy 3D,Demo Black,1,"5 years parts, 1 year labor (Free)",0.00,4200.00,CreditCard,4200.00,Sq# d4Vr,,,,,,,0.00,,,,,,,,0.00,,,,,,,0.00,Debra Desanto,7034054890,,,,FL,1,5.30
110112,10/7/2018 7:39:31 AM,"VIRGINIA STATE FAIR 9/28-10/7/18 DOSWELL, VA (IL)","VIRGINIA STATE FAIR 9/28-10/7/18 DOSWELL, VA (IL)",Abagail Stirling,DWA-9150USJ-9150CH,Legacy 3D,New Choco,1,"5 years parts, 1 year labor (Free)",0.00,4200.00,Synchrony,4200.00,,,6019170813176721,95354514,San Diego,36 months,,0.00,,,,,,,,0.00,,,,,,,0.00,Michael & Kimberly Burkholder,5406633632,,,,FL,1,5.30
110113,10/7/2018 7:45:38 AM,"VIRGINIA STATE FAIR 9/28-10/7/18 DOSWELL, VA (IL)","VIRGINIA STATE FAIR 9/28-10/7/18 DOSWELL, VA (IL)",Ilene Maynard,DWA-9150USJ-9150CH,Legacy 3D,New Choco,1,"5 years parts, 1 year labor (Free)",0.00,4700.00,Synchrony,4700.00,,,6019170813176846,95356446,San Diego,36 months,,0.00,,,,,,,,0.00,,,,,,,0.00,Sandra Dean,8047322017,,,,FL,1,5.30
110114,10/7/2018 7:49:40 AM,"VIRGINIA STATE FAIR 9/28-10/7/18 DOSWELL, VA (IL)","VIRGINIA STATE FAIR 9/28-10/7/18 DOSWELL, VA (IL)",Ilene Maynard,DWA-9060USJ-9060BR,Relax2Zero 3D,New Choco,1,"5 years parts, 1 year labor (Free)",0.00,4500.00,Synchrony,4500.00,,,6019170813176713,95354278,San Diego,36 months,,0.00,,,,,,,,0.00,,,,,,,0.00,Joseph Adams,8048522127,,,,FL,1,5.30
110115,10/7/2018 7:53:47 AM,"VIRGINIA STATE FAIR 9/28-10/7/18 DOSWELL, VA (IL)","VIRGINIA STATE FAIR 9/28-10/7/18 DOSWELL, VA (IL)",Ruben Cuatrona,DWA-9400Pegasus-BL,Pegasus,New Black,1,"5 years parts, 1 year labor (Free)",0.00,5400.00,CreditCard,5400.00,Sq# JHJS,,,,,,,0.00,,,,,,,,0.00,,,,,,,0.00,Cindy Carr,5404321385,,,,FL,1,5.30
110117,10/7/2018 8:05:33 AM,"VIRGINIA STATE FAIR 9/28-10/7/18 DOSWELL, VA (IL)","VIRGINIA STATE FAIR 9/28-10/7/18 DOSWELL, VA (IL)",Abagail Stirling,DWA-9150USJ-9150CH,Legacy 3D,New Choco,1,"5 years parts, 1 year labor (Free)",0.00,4300.00,Synchrony,4300.00,,,6019170813170955,95206920,San Diego,36 months,,0.00,,,,,,,,0.00,,,,,,,0.00,Patty Rogers,8049259458,,,,FL,1,5.30
110120,10/7/2018 8:10:27 AM,"VIRGINIA STATE FAIR 9/28-10/7/18 DOSWELL, VA (IL)","VIRGINIA STATE FAIR 9/28-10/7/18 DOSWELL, VA (IL)",Abagail Stirling,DWA-9150USJ-9150BL-DEMO,Legacy 3D,Demo Black,1,"5 years parts, 1 year labor (Free)",0.00,4000.00,Synchrony,4000.00,,,6019170813176903,95356960,San Diego,36 months,,0.00,,,,,,,,0.00,,,,,,,0.00,Kirk Kershaw,6318350858,,,,FL,1,5.30
110121,10/7/2018 8:14:45 AM,"VIRGINIA STATE FAIR 9/28-10/7/18 DOSWELL, VA (IL)","VIRGINIA STATE FAIR 9/28-10/7/18 DOSWELL, VA (IL)",Paul Wang,DWA-9150USJ-9150CH-DEMO,Legacy 3D,Demo Choco,1,"5 years parts, 1 year labor (Free)",0.00,4200.00,Synchrony,4200.00,,,6019170813176911,95357240,San Diego,36 months,,0.00,,,,,,,,0.00,,,,,,,0.00,Randy McDonald,8048699985,,,,FL,1,5.30
110122,10/7/2018 8:19:13 AM,"VIRGINIA STATE FAIR 9/28-10/7/18 DOSWELL, VA (IL)","VIRGINIA STATE FAIR 9/28-10/7/18 DOSWELL, VA (IL)",Ilene Maynard,DWA-9060USJ-9060BR,Relax2Zero 3D,New Choco,1,"5 years parts, 1 year labor (Free)",0.00,4500.00,Synchrony,4500.00,,,6019170813176945,95357513,San Diego,36 months,,0.00,,,,,,,,0.00,,,,,,,0.00,Corydon Wright,5408941270,,,,FL,1,5.30
110125,10/7/2018 8:24:53 AM,"VIRGINIA STATE FAIR 9/28-10/7/18 DOSWELL, VA (IL)","VIRGINIA STATE FAIR 9/28-10/7/18 DOSWELL, VA (IL)",Abagail Stirling,DWA-9150USJ-9150CH,Legacy 3D,New Choco,1,"5 years parts, 1 year labor (Free)",0.00,4500.00,Synchrony,4500.00,,,6019170813177364,95366929,San Diego,36 months,,0.00,,,,,,,,0.00,,,,,,,0.00,Natasha Wiley,4342589783,,,,FL,1,5.30
110126,10/7/2018 8:29:11 AM,"VIRGINIA STATE FAIR 9/28-10/7/18 DOSWELL, VA (IL)","VIRGINIA STATE FAIR 9/28-10/7/18 DOSWELL, VA (IL)",Darryl Garrett,DWA-9150USJ-9150BL,Legacy 3D,New Black,1,"5 years parts, 1 year labor (Free)",0.00,4900.00,Synchrony,4900.00,,,6019170813177372,95366984,San Diego,36 months,,0.00,,,,,,,,0.00,,,,,,,0.00,Christine Kerns,5408422041,,,,FL,1,5.30
110156,10/7/2018 6:08:42 PM,"VIRGINIA STATE FAIR 9/28-10/7/18 DOSWELL, VA (IL)","VIRGINIA STATE FAIR 9/28-10/7/18 DOSWELL, VA (IL)",Paul Wang,DWA-9150USJ-9150BL,Legacy 3D,New Black,1,"5 years parts, 1 year labor (Free)",0.00,4000.00,CreditCard,4000.00,Sq# ev1k,,,,,,,0.00,,,,,,,,0.00,,,,,,,0.00,Sophia Liu,8045191203,,,,FL,1,5.30
110158,10/7/2018 6:12:52 PM,"VIRGINIA STATE FAIR 9/28-10/7/18 DOSWELL, VA (IL)","VIRGINIA STATE FAIR 9/28-10/7/18 DOSWELL, VA (IL)",Ilene Maynard,DWA-9060USJ-9060BR,Relax2Zero 3D,New Choco,1,"5 years parts, 1 year labor (Free)",0.00,4700.00,Synchrony,4700.00,,,6019170813179162,95395713,San Diego,36 months,,0.00,,,,,,,,0.00,,,,,,,,Kenneth Moses,8043575686,,,,Not Dispatched,1,5.30
110159,10/7/2018 6:18:08 PM,"VIRGINIA STATE FAIR 9/28-10/7/18 DOSWELL, VA (IL)","VIRGINIA STATE FAIR 9/28-10/7/18 DOSWELL, VA (IL)",Ruben Cuatrona,DWA-9150USJ-9150CH,Legacy 3D,New Choco,1,"5 years parts, 1 year labor (Free)",0.00,4800.00,Synchrony,4800.00,,,6019170813179139,95395266,San Diego,48 months,,0.00,,,,,,,,0.00,,,,,,,,Misti Belle Migliore,8049292004,,,,Not Dispatched,1,5.30
