﻿Original Event Name,Event Name,Sales Person,Order Number,Order Date,Customer Name,State,Zip,Product Name,Color,Product Status,QTY,Tax,Total Before Tax,Order Total,Primary Payment Method,Second Payment Method,Thirdl Payment Method,Warranty,Order Items,Pick up,Delivered On,Order Status,Chair Type,Order Notes,Private Note,Branch,No Tax,Actual Tax Rate,SKU,Primary Payment Balance,Primary Authorize Number,Primary Purchase Order Number,Primary Synchrony Account Number,Primary Synchrony Application Key,Primary Synchrony Account Info,Primary Synchrony Term,Second Payment Balance,Second Authorize Number,Second Purchase Order Number,Second Synchrony Account Number,Second Synchrony Application Key,Second Synchrony Account Info,Second SynchronyTerm,Third Payment Balance,Third Authorize Number,Third Purchase Order Number,Third Synchrony Account Number,Third Synchrony Application Key,Third Synchrony Account Info,Third Synchrony Term
"Balloon Fiesta (10/6-10/14/2018) Albuquerque, NM","Balloon Fiesta (10/6-10/14/2018) Albuquerque, NM",Keith Kei,110207,10/9/2018 8:18:53 AM,Douglas L Jr. Arnett,OK,73008,Relax2Zero 3D,New Black,New,1,268.12,4154.76,4422.88,Synchrony,,,"5 years parts, 1 year labor (Free)","Relax2Zero 3D,",No,10/15/2018 12:00:00 AM,Delivered,,,"Please help recycle old chair.//Confirmed SYNC($6,500) and original.***Please charge $4,422.88 before delivery and sales draft signed.*** 10/9/18 Hitomi",TX,0,7.88,DWA-9060USJ-9060BL,4422.88,,,6019170813179279,95400633,Huston,36 months,0.00,,,,,,,0.00,,,,,,
"Balloon Fiesta (10/6-10/14/2018) Albuquerque, NM","Balloon Fiesta (10/6-10/14/2018) Albuquerque, NM",Mario Higareda,110208,10/9/2018 8:31:57 AM,Mila Stahl,AZ,86025,Orbit,New Black,New,1,197.19,3254.01,3451.20,Synchrony,,,"5 years parts, 1 year labor (Free)","Orbit,",No,10/25/2018 12:00:00 AM,Delivered,,,"Confirmed SYNC($6,500) and original.***Please charge $3,451.20 before delivery and sales draft signed.*** 10/9/18 Hitomi",NV,0,7.88,ORBT-1ORBT-1BL,3451.20,,,6019170813177356,95366705,Huston,48 months,0.00,,,,,,,0.00,,,,,,
"Balloon Fiesta (10/6-10/14/2018) Albuquerque, NM","Balloon Fiesta (10/6-10/14/2018) Albuquerque, NM",Keith Kei,110209,10/9/2018 8:40:03 AM,Mary Diane Ponce,TX,78414,Legacy 3D,New Choco,New,1,291.75,4454.75,4746.50,Synchrony,,,"3 years parts, 1 year labor (Free)","Legacy 3D,",No,,Cancelled,,,"Confirmed SYNC($8,500) and original. ***Please charge $4,746.50 before delivery and sales draft signed.*** 10/9/18 Hitomi",TX,0,7.88,DWA-9150USJ-9150CH,4746.50,,,6019170813174791,95324068,Huston,48 months,0.00,,,,,,,0.00,,,,,,
"Balloon Fiesta (10/6-10/14/2018) Albuquerque, NM","Balloon Fiesta (10/6-10/14/2018) Albuquerque, NM",Mario Higareda,110211,10/9/2018 8:48:40 AM,Audrey Ana-Christina Garcia,CO,80260,PEGASUS 2 SMART,Demo Choco,Demo,1,331.12,4954.76,5285.88,Synchrony,,,"5 years parts, 1 year labor (Free)","PEGASUS 2 SMART,",No,10/16/2018 12:00:00 AM,Delivered,,,"Confirmed SYNC($5,800)and original.***Please charge $5,285.88 before delivery and sales draft signed.*** 10/9/18 Hitomi
SYNCHRONY CLEARED #012021 $5,285.88 - STEPHANY 10/22/18",TX,0,7.88,PEGS-2PEGS-2-BR-DEMO,5285.88,,,6019170813174932,95326023,Huston,48 months,0.00,,,,,,,0.00,,,,,,
"Balloon Fiesta (10/6-10/14/2018) Albuquerque, NM","Balloon Fiesta (10/6-10/14/2018) Albuquerque, NM",Mario Higareda,110213,10/9/2018 8:58:47 AM,Judy Goldman,NM,87124,Legacy 3D,New Choco,New,1,299.54,4553.71,4853.25,Synchrony,,,"5 years parts, 1 year labor (Free)","Legacy 3D,",No,,Scheduled,,,"Confirmed SYNC($8,500) and original.***Please charge $4,853.25 before delivery and sales draft signed.*** 10/9/18 Hitomi",TX,0,7.88,DWA-9150USJ-9150CH,4853.25,,,6019170813175236,95331880,Huston,48 months,0.00,,,,,,,0.00,,,,,,
"Balloon Fiesta (10/6-10/14/2018) Albuquerque, NM","Balloon Fiesta (10/6-10/14/2018) Albuquerque, NM",Mario Higareda,110214,10/9/2018 9:07:50 AM,Ana Bueno,TX,78957,PEGASUS 2 SMART,Demo Choco,Demo,1,0.00,4500.00,4500.00,CreditCard,COD,,"5 years parts, 1 year labor (Free)","PEGASUS 2 SMART,",No,,Scheduled,,,"Confirmed $438.00 in Square. *COD $4,062.00* 10/9/18 Hitomi
Not available 10/26-10/29. 10/22/2018 June",TX,1,7.88,PEGS-2PEGS-2-BR-DEMO,438.00,Receipt #TSrD,,,,,,4062.00,,,,,,,0.00,,,,,,
"Balloon Fiesta (10/6-10/14/2018) Albuquerque, NM","Balloon Fiesta (10/6-10/14/2018) Albuquerque, NM",Mario Higareda,110215,10/9/2018 9:11:10 AM,Sean D Williamson,NM,87114,Legacy 3D,New Choco,New,1,0.00,4500.00,4500.00,Cash,COD,,"5 years parts, 1 year labor (Free)","Legacy 3D,",No,10/15/2018 12:00:00 AM,Delivered,,,"Mario received $300 cash. *COD$4,200*. 10/9/18 Hitomi
CLEARED COD $4200  #qGy7 - STEPHANY 10/19/18",TX,1,7.88,DWA-9150USJ-9150CH,300.00,,,,,,,4200.00,,,,,,,0.00,,,,,,
"Balloon Fiesta (10/6-10/14/2018) Albuquerque, NM","Balloon Fiesta (10/6-10/14/2018) Albuquerque, NM",Mario Higareda,110216,10/9/2018 9:41:09 AM,Azure R Schmidt,MN,56081,Legacy 3D,Demo Choco,Demo,1,268.05,4153.80,4421.85,Synchrony,,,"5 years parts, 1 year labor (Free)","Legacy 3D,",No,,Scheduled,,,"Confirmed SYNC($5,400) and original.***Please charge $4,421.85 before delivery and sales draft signed.***  10/9/18 Hitomi",TX,0,7.88,DWA-9150USJ-9150CH-DEMO,4421.85,,,6019170813177315,95362658,Huston,48 months,0.00,,,,,,,0.00,,,,,,
"Balloon Fiesta (10/6-10/14/2018) Albuquerque, NM","Balloon Fiesta (10/6-10/14/2018) Albuquerque, NM",Keith Kei,110217,10/9/2018 9:52:59 AM,Jeese L Stough,MO,65079,Legacy 3D,Demo Choco,Demo,1,268.12,4154.76,4422.88,Synchrony,,,"5 years parts, 1 year labor (Free)","Legacy 3D,",No,10/22/2018 12:00:00 AM,Delivered,,,"Confirmed SYNC($5,400) under JEESE STOUGH and original.***Please charge $4,422.88 before delivery and sales draft signed.***  10/9/18 Hitomi",TX,0,7.88,DWA-9150USJ-9150CH-DEMO,4422.88,,,6019170813179501,95412148,Huston,48 months,0.00,,,,,,,0.00,,,,,,
"Balloon Fiesta (10/6-10/14/2018) Albuquerque, NM","Balloon Fiesta (10/6-10/14/2018) Albuquerque, NM",Mario Higareda,110218,10/9/2018 9:57:13 AM,Wilima Dabrowski,WY,82636,Legacy 3D,New Choco,New,1,323.16,4853.64,5176.80,Synchrony,,,"5 years parts, 1 year labor (Free)","Legacy 3D,",No,10/17/2018 12:00:00 AM,Delivered,,,"Confirmed SYNC($8,500) under MICHAEL DABROWSKI and original.***Please charge $5,176.80 before delivery and have sales draft signed by MICHAEL DABROWSKI *** assigned to TX(talked to June, TX will take care of the delivery).  10/9/18 Hitomi
SYNCHRONY CLEARED $5176.80 #012790- STEPHANY 10/22/18",TX,0,7.88,DWA-9150USJ-9150CH,5176.80,,,6019170813179568,95412899,Huston,48 months,0.00,,,,,,,0.00,,,,,,
"Balloon Fiesta (10/6-10/14/2018) Albuquerque, NM","Balloon Fiesta (10/6-10/14/2018) Albuquerque, NM",Mario Higareda,110219,10/9/2018 10:04:20 AM,Hazem Issa,MN,55075,Legacy 3D,New Choco,New,1,323.25,4854.75,5178.00,Synchrony,,,"5 years parts, 1 year labor (Free)","Legacy 3D,",No,,Cancelled,,,"Confirmed SYNC($8,500) and original.***Please charge $5,178 before delivery and sales draft signed.*** 10/9/18 Hitomi",TX,0,7.88,DWA-9150USJ-9150CH,5178.00,,,6019170813179584,95413231,Huston,48 months,0.00,,,,,,,0.00,,,,,,
"Balloon Fiesta (10/6-10/14/2018) Albuquerque, NM","Balloon Fiesta (10/6-10/14/2018) Albuquerque, NM",Mario Higareda,110220,10/9/2018 10:11:07 AM,Donna Niederkehr,MN,55410,PEGASUS 2 SMART,New Black,New,1,401.89,5853.41,6255.30,CreditCard,COD,,"5 years parts, 1 year labor (Free)","PEGASUS 2 SMART,",No,,Called,,,"Confirmed $109.50 in Square. *COD $6,145.80* PLEASE CONFIRM CHAIR COLOR . 10/9/18 Hitomi
10/15/18-Courtesy call completed - customer mentioned she wanted her delivery in november/december 1:57 pm",TX,0,7.88,PEGS-2PEGS-2-BL,109.50,SqNd,,,,,,6145.80,,,,,,,0.00,,,,,,
"Balloon Fiesta (10/6-10/14/2018) Albuquerque, NM","Balloon Fiesta (10/6-10/14/2018) Albuquerque, NM",Xiongxiaojun Ji,110238,10/10/2018 8:31:56 AM,Lionel Chaltiel,NM,87108,Legacy 3D,New Black,New,1,323.25,4854.75,5178.00,CreditCard,,,"5 years parts, 1 year labor (Free)","Legacy 3D,",No,10/15/2018 12:00:00 AM,Delivered,,,"Confirmed $5,178.00 in Square. 10/10/18 Hitomi",TX,0,7.88,DWA-9150USJ-9150BL,5178.00,dlmo,,,,,,0.00,,,,,,,0.00,,,,,,
"Balloon Fiesta (10/6-10/14/2018) Albuquerque, NM","Balloon Fiesta (10/6-10/14/2018) Albuquerque, NM",Keith Kei,110239,10/10/2018 8:37:06 AM,Dana Gyiffin,FL,32570,Legacy 3D,Demo Choco,Demo,1,0.00,3900.00,3900.00,CreditCard,,,"5 years parts, 1 year labor (Free)","Legacy 3D,",No,10/22/2018 12:00:00 AM,Delivered,,,"CC Josefina - 10/12/18 11:00am VM // MQ t.t. 1pm -would like asap, told her to expect week of 10/22
Confirmed $3,900.00 in Square. 10/10/18 Hitomi",FL,1,7.88,DWA-9150USJ-9150CH-DEMO,3900.00,6i6q,,,,,,0.00,,,,,,,0.00,,,,,,
"Balloon Fiesta (10/6-10/14/2018) Albuquerque, NM","Balloon Fiesta (10/6-10/14/2018) Albuquerque, NM",Mario Higareda,110244,10/10/2018 4:20:45 PM,Hazem Issa,MN,55075,Legacy 3D,New Choco,New,1,0.00,5178.00,5178.00,Synchrony,,,"5 years parts, 1 year labor (Free)","Legacy 3D,",No,,Scheduled,,"Customer offered sale at $4,800 plus Tax $378.00  (Free White Glove Delivery) (Free Extended warranty 5 yrs parts 1 yr labor)",Linked to order # 110219,TX,1,7.88,DWA-9150USJ-9150CH,5178.00,,,6019170813179584,95413231,Huston,48 months,0.00,,,,,,,0.00,,,,,,
"Balloon Fiesta (10/6-10/14/2018) Albuquerque, NM","Balloon Fiesta (10/6-10/14/2018) Albuquerque, NM",Mario Higareda,110345,10/15/2018 8:25:02 AM,William Gazza,NV,89123,PEGASUS 2 SMART,New Choco,New,1,0.00,4800.00,4800.00,CreditCard,,,"5 years parts, 1 year labor (Free)","PEGASUS 2 SMART,Chair Pad for Pegasus,",No,10/23/2018 12:00:00 AM,Delivered,,,"will confirm SQ# 10/15/18 Hitomi//Confirmed $4,800 (Receipt #Dxzt) in Square. 10/16/18 Hitomi
CORRECT ADDRESS 8460 PALMADA DR, LAS VEGAS, NV 89123
PICK UP OLD CHAIR",NV,1,7.88,PEGS-2PEGS-2-BR,4800.00,Receipt #Dxzt,,,,,,0.00,,,,,,,0.00,,,,,,
"Balloon Fiesta (10/6-10/14/2018) Albuquerque, NM","Balloon Fiesta (10/6-10/14/2018) Albuquerque, NM",Xiongxiaojun Ji,110347,10/15/2018 8:33:07 AM,Manuel Sanchez,NM,87114,Orbit,Demo Choco,Demo,1,0.00,2912.62,2912.62,Synchrony,,,"5 years parts, 1 year labor (Free)","Orbit,",No,10/15/2018 12:00:00 AM,Delivered,,,"Confirmed SYNC($6,000) and original.***Please charge $2,912.62 before delivery and sales draft signed.***10/16/18 Hitomi
10/17Maritza Sent messages to both numbers at 9:20AM
SYNCHRONY WAS SIGNED BY WIFE EMAILED JUNE REGARDING THIS -  10/22/18 STEPHANY",TX,1,7.88,ORBT-1ORBT-1CH-DEMO,2912.62,,,6019170813189229,95663220,Huston,24 months,0.00,,,,,,,0.00,,,,,,
"Balloon Fiesta (10/6-10/14/2018) Albuquerque, NM","Balloon Fiesta (10/6-10/14/2018) Albuquerque, NM",Keith Kei,110348,10/15/2018 8:38:50 AM,Eric Donman,NH,03841,PEGASUS 2 SMART,New Choco,New,1,0.00,5500.00,5500.00,CreditCard,,,"5 years parts, 1 year labor (Free)","PEGASUS 2 SMART,",No,,Scheduled,,,"Confirmed $5,500 in Square. 10/15/18 Hitomi
10/15/18- Cristina- Courtesy call completed- 1:50 pm",TX,1,7.88,PEGS-2PEGS-2-BR,5500.00,3BQA,,,,,,0.00,,,,,,,0.00,,,,,,
"Balloon Fiesta (10/6-10/14/2018) Albuquerque, NM","Balloon Fiesta (10/6-10/14/2018) Albuquerque, NM",Keith Kei,110354,10/15/2018 9:14:22 AM,Joan Foglia,FL,34786,Legacy 3D,New Choco,New,1,222.65,3577.35,3800.00,CreditCard,,,"5 years parts, 1 year labor (Free)","Legacy 3D,",No,10/18/2018 12:00:00 AM,Delivered,,,"Confirmed $3,800 in Square. 10/15/18 Hitomi
10/15Maritza Courtesy messages sent to both numbers @1:03PM",FL,0,7.88,DWA-9150USJ-9150CH,3800.00,X0Mn,,,,,,0.00,,,,,,,0.00,,,,,,
