﻿Date,CustomerName,State,Zipcode,Description,productNo,Color,IsDemo,Net,ShippingFee,GiftPrice,FinancingProcessingFee,Gross,Pre_tax,Tax,Commission,Primary Payment Method,Primary Payment Balance,Primary Authorize Number,Primary Purchase Order Number,Primary Synchrony Account Number,Primary Synchrony Application Key,Primary Synchrony AccountInfo,Primary SynchronyTerm,Secondly Payment Method,Secondly Payment Balance,Secondly Authorize Number,Secondly Purchase Order Number,Secondly Synchrony Account Number,Secondly Synchrony Application Key,Secondly Synchrony AccountInfo,Secondly SynchronyTerm,Thirdly Payment Method,Thirdly Payment Balance,Thirdly Authorize Number,Thirdly Purchase Order Number,Thirdly Synchrony Account Number,Thirdly Synchrony Application Key,Thirdly Synchrony AccountInfo,Thirdly SynchronyTerm,DeliveryDate,Ispickup,Warranty,Status,Event Name,Synchrony Notes,Order Notes,Order number,Private Note,Branch,IsNoTax,ActualTaxRate
12/14/2017 10:20:25 AM,Tim Sher,AZ,72958,Legacy for Sam's,DWA-9100DWA-9100CH,Choco,New,,,,,4718.15,4299.00,419.15,Phuoc Van,CreditCard,4718.15,001571,,,,,,,0.00,,,,,,,,0.00,,,,,,,12/10/2017 12:00:00 AM,No,"3 years parts, 1 year labor (Free)",Delivered,"Sam's Club #8134 Fort Smith, AR 11/30-12/10/17 (TX)",,,102456,State is Arkansas.,TX,0,9.75
12/14/2017 10:26:45 AM,Teresa Smith,AZ,72916,Vitality Plate for Sam's,USJ-849USJ-849,New,New,,,,,504.84,459.99,44.85,Phuoc Van,CreditCard,504.84,001041,,,,,,,0.00,,,,,,,,0.00,,,,,,,,YES,"2 years parts, 1 year labor (Small Items)",Delivered,"Sam's Club #8134 Fort Smith, AR 11/30-12/10/17 (TX)",,,102457,State is Arkansas.,TX,0,9.75
12/14/2017 10:33:46 AM,Rene Velasco Flgveroa,AZ,72901,Vitality Plate for Sam's,USJ-849USJ-849,New,New,,,,,504.84,459.99,44.85,Phuoc Van,CreditCard,504.84,023655,,,,,,,0.00,,,,,,,,0.00,,,,,,,,YES,"2 years parts, 1 year labor (Small Items)",Delivered,"Sam's Club #8134 Fort Smith, AR 11/30-12/10/17 (TX)",,,102459,State is Arkansas.,TX,0,9.75
12/14/2017 10:39:08 AM,Tom McCormack,AZ,72903,Legacy for Sam's,DWA-9100DWA-9100CH,Choco,New,,,,,4718.15,4299.00,419.15,Phuoc Van,CreditCard,4718.15,57729S,,,,,,,0.00,,,,,,,,0.00,,,,,,,12/10/2017 12:00:00 AM,No,"3 years parts, 1 year labor (Free)",Delivered,"Sam's Club #8134 Fort Smith, AR 11/30-12/10/17 (TX)",,,102460,State is Arkansas.,TX,0,9.75
12/19/2017 7:55:47 AM,Paul Kuna,AR,72949,Relax2Zero 2.0 for Sam's,USJ-9050USJ-9050BR,Brown,New,,,,,4280.25,3900.00,380.25,Phuoc Van,CreditCard,4280.25,TC# 8976 7052 8479 3826 7950 35,,,,,,,0.00,,,,,,,,0.00,,,,,,,12/18/2017 12:00:00 AM,No,"3 years parts, 1 year labor (Free)",Delivered,"Sam's Club #8134 Fort Smith, AR 11/30-12/10/17 (TX)",,,102588,,TX,0,9.75
