﻿Date,CustomerName,State,Zipcode,Description,productNo,Color,IsDemo,Net,ShippingFee,GiftPrice,FinancingProcessingFee,Gross,Pre_tax,Tax,Commission,Primary Payment Method,Primary Payment Balance,Primary Authorize Number,Primary Purchase Order Number,Primary Synchrony Account Number,Primary Synchrony Application Key,Primary Synchrony AccountInfo,Primary SynchronyTerm,Secondly Payment Method,Secondly Payment Balance,Secondly Authorize Number,Secondly Purchase Order Number,Secondly Synchrony Account Number,Secondly Synchrony Application Key,Secondly Synchrony AccountInfo,Secondly SynchronyTerm,Thirdly Payment Method,Thirdly Payment Balance,Thirdly Authorize Number,Thirdly Purchase Order Number,Thirdly Synchrony Account Number,Thirdly Synchrony Application Key,Thirdly Synchrony AccountInfo,Thirdly SynchronyTerm,DeliveryDate,Ispickup,Warranty,Status,Event Name,Synchrony Notes,Order Notes,Order number,Private Note,Branch,IsNoTax,ActualTaxRate
2/26/2018 7:21:44 AM,Lori Jones,VA,20115,Relax2Zero 3D,DWA-9060USJ-9060BL,New Black,New,,,,,4800.00,4800.00,0.00,Winston Melgar,CreditCard,200.00,Sq #CRza,,,,,,Synchrony,0.00,,,,,,,,0.00,,,,,,,,No,"3 years parts, 2 years labor ($200)",Hold,Capital Remodeling & Garden Show 2/23-25/18 (IL),,,103987,“HOLD” do not deliver we still need to run the credit on last week of May or customer will advice us,Not Dispatched,1,6.00
2/26/2018 12:11:23 PM,John Joiner IV,VA,22193,Relax2Zero 3D,DWA-9060USJ-9060BL,New Black,New,,,,,3900.00,3900.00,0.00,Ruben Cuatrona,Synchrony,3900.00,,,6034610083123045,85480527,Las Vegas,36 months,,0.00,,,,,,,,0.00,,,,,,,,No,"3 years parts, 1 year labor (Free)",Called,Capital Remodeling & Garden Show 2/23-25/18 (IL),,,103998,"confirmed Synchrony form and the account ($8,500). *Please charge before delivery.*2/26/18 Hitomi
02/28/18-Cristina- Re-dispatched",FL,1,6.00
2/26/2018 12:25:05 PM,Zenaida Rivera,VA,22309,Legacy 3D,DWA-9150USJ-9150CH-DEMO,Demo Choco,Demo,,,,,3500.00,3500.00,0.00,Winston Melgar,CreditCard,3500.00,Sq #gDIX,,,,,,,0.00,,,,,,,,0.00,,,,,,,,No,"3 years parts, 1 year labor (Free)",Hold,Capital Remodeling & Garden Show 2/23-25/18 (IL),,,103999,“HOLD” customer will advice for delivery date,Not Dispatched,1,6.00
2/26/2018 12:34:36 PM,John Rusup,VA,20176,Legacy 3D,DWA-9150USJ-9150BL,New Black,New,,,,,3900.00,3900.00,0.00,Ruben Cuatrona,Synchrony,3900.00,,,6034610083117708,85384212,Las Vegas,36 months,,0.00,,,,,,,,0.00,,,,,,,,No,"3 years parts, 1 year labor (Free)",Called,Capital Remodeling & Garden Show 2/23-25/18 (IL),,,104000,"confirmed form and the account in Synchrony.($6,000)under ""FAY  RURUP"". *Please charge before delivery.* 2/26/18 Hitomi
02/28/18-Cristina- Re-dispatched",FL,1,6.00
2/26/2018 12:43:28 PM,Ryan Connors,VA,22314,Relax2Zero 3D,DWA-9060USJ-9060BR,New Choco,New,,,,,3900.00,3900.00,0.00,Winston Melgar,CreditCard,3900.00,Sq#8pZW,,,,,,,0.00,,,,,,,,0.00,,,,,,,,No,"3 years parts, 1 year labor (Free)",Called,Capital Remodeling & Garden Show 2/23-25/18 (IL),,,104001,"confirmed $3,900 in Square. 2/26/18 Hitomi
02/28/18-Cristina- Re-dispatched",FL,1,6.00
2/26/2018 12:52:41 PM,Pat Ligon,VA,22401,Legacy 3D,DWA-9150USJ-9150CH,New Choco,New,,,,,4300.00,4300.00,0.00,Winston Melgar,Synchrony,4300.00,,,6034610083119811,85428889,Las Vegas,36 months,,0.00,,,,,,,,0.00,,,,,,,,No,"3 years parts, 1 year labor (Free)",Called,Capital Remodeling & Garden Show 2/23-25/18 (IL),,,104002,"confirme Synchrony form and the account ($7,200) under ""LIGON, PATRICIO"". *Please charge before delivery.*2/26/18 Hitomi
02/28/18-Cristina- Re-dispatched",FL,1,6.00
2/26/2018 1:04:08 PM,Syed Mahmoud,VA,22181,Relax2Zero 3D,DWA-9060USJ-9060BR,New Choco,New,,,,,3500.00,3500.00,0.00,Winston Melgar,CreditCard,3500.00,Sq #djNR,,,,,,,0.00,,,,,,,,0.00,,,,,,,3/1/2018 12:00:00 AM,No,"3 years parts, 1 year labor (Free)",Delivered,Capital Remodeling & Garden Show 2/23-25/18 (IL),,,104003,"Pls make it deliver on 7 march 2018,repeat velivery on 07 march
confirmed $3,500 in Square. 2/26/18 Hitomi
SHIPPING 3RD PARTY 2/28/18
BTX PICKED UP 2/28/18 TRACKING INFO 2127019 SERIAL #0103002170341",FL,1,6.00
2/27/2018 9:43:00 AM,Diane Reiter,VA,20112,Relax2Zero 3D,DWA-9060USJ-9060BR-DEMO,Demo Choco,Demo,,,,,3900.00,3900.00,0.00,Winston Melgar,CreditCard,3700.00,Sq #IiGe,,,,,,,0.00,,,,,,,,0.00,,,,,,,2/25/2018 12:00:00 AM,YES,"3 years parts, 1 year labor (Free)",Delivered,Capital Remodeling & Garden Show 2/23-25/18 (IL),,,104045,"Picked up from convention
SR #0202002170258
confirmed $3,700 in Square.  will confirm confirmation for pick up and total amount. 2/28/18 Hitomi
Total amount is $3,700. confirmed with sales rep. received confirmation for pick up. 3/1/18 Hitomi",TX,1,6.00
2/27/2018 9:52:43 AM,Poovalai Jayachandran,VA,20120,Relax2Zero 3D,DWA-9060USJ-9060BR-DEMO,Demo Choco,Demo,,,,,3700.00,3700.00,0.00,Winston Melgar,Synchrony,3700.00,,,6034610083119191,85418694,Las Vegas,48 months,,0.00,,,,,,,,0.00,,,,,,,2/25/2018 12:00:00 AM,YES,"3 years parts, 1 year labor (Free)",Delivered,Capital Remodeling & Garden Show 2/23-25/18 (IL),"Authorization # 001275
charged $3,700 for 48 months. 3/1/18 Hitomi
",,104046,"Picked up from convention
SR #0103002170458
confirmed Synchrony form and the account ($8,500) will confirm confirmation for pick up. 2/28/18 Hitomi
Received confirmation for pick up. 3/1/18 hitomi",TX,1,6.00
2/27/2018 10:01:25 AM,Sonya Hopkins,VA,20198,Relax2Zero 3D,DWA-9060USJ-9060BR-DEMO,Demo Choco,Demo,,,,,3900.00,3900.00,0.00,Winston Melgar,Synchrony,3900.00,,,6034610083121353,85451756,Las Vegas,36 months,,0.00,,,,,,,,0.00,,,,,,,2/25/2018 12:00:00 AM,YES,"3 years parts, 1 year labor (Free)",Delivered,Capital Remodeling & Garden Show 2/23-25/18 (IL),"Authorization # 001757
charged $3,900 for 36 months. 3/1/18Hitomi",,104047,"Picked up from convention 
SR #01030021704
Confirmed Synchrony form and received confirmation for pick up. 3/1/18 Hitomi",TX,1,6.00
2/27/2018 10:11:42 AM,Karen Beitlell,VA,20143,Legacy 3D,DWA-9150USJ-9150BL-DEMO,Demo Black,Demo,,,,,3500.00,3500.00,0.00,Winston Melgar,CreditCard,1500.00,Sq #feT8,,,,,,CreditCard,2000.00,Sq #wt7V,,,,,,,0.00,,,,,,,2/26/2018 12:00:00 AM,YES,"3 years parts, 1 year labor (Free)",Delivered,Capital Remodeling & Garden Show 2/23-25/18 (IL),,,104048,"Picked up from convention
SR # 0202001170531/
confirmed $1,500 and $2,000 in Square. 2/28/18 Hitomi
Received confirmation for pick up. 2/28/18 Hitomi",TX,1,6.00
2/27/2018 10:39:56 AM,Roxann Maercklein,VA,20120,Relax2Zero 3D,DWA-9060USJ-9060BR,New Choco,New,,,,,3700.00,3700.00,0.00,Winston Melgar,CreditCard,3700.00,Sq #u1VT,,,,,,,0.00,,,,,,,,0.00,,,,,,,,No,"3 years parts, 1 year labor (Free)",Called,Capital Remodeling & Garden Show 2/23-25/18 (IL),,,104049,"confirmed $3,700 in Square. 2/27/18 Hitomi
02/28/18-Cristina- Re-dispatched",FL,1,6.00
