﻿Original Event Name,Event Name,Sales Person,Order Number,Order Date,Customer Name,State,Zip,Product Name,Color,Product Status,QTY,Tax,Total Before Tax,Order Total,Primary Payment Method,Second Payment Method,Thirdl Payment Method,Warranty,Order Items,Pick up,Delivered On,Order Status,Chair Type,Order Notes,Private Note,Branch,No Tax,Actual Tax Rate,SKU,Primary Payment Balance,Primary Authorize Number,Primary Purchase Order Number,Primary Synchrony Account Number,Primary Synchrony Application Key,Primary Synchrony Account Info,Primary Synchrony Term,Primary Synchrony Primary ID,Primary Synchrony Issued State,Primary Synchrony Expiretion Date,Second Payment Balance,Second Authorize Number,Second Purchase Order Number,Second Synchrony Account Number,Second Synchrony Application Key,Second Synchrony Account Info,Second SynchronyTerm,Second Synchrony Primary ID,Second Synchrony Issued State,Second Synchrony Expiretion Date,Third Payment Balance,Third Authorize Number,Third Purchase Order Number,Third Synchrony Account Number,Third Synchrony Application Key,Third Synchrony Account Info,Third Synchrony Term,Third Synchrony Primary ID,Third Synchrony Issued State,Third Synchrony Expiretion Date
Referral (Main Office),Referral (Main Office),Billy Shea,114812,2/6/2019 10:10:22 PM,Pam Brown,IN,47362,Legacy 3D,New Black,New,1,0.00,4000.00,4000.00,CreditCard,,,"5 years parts, 1 year labor (Free)","Legacy 3D,",No,3/5/2019 12:00:00 AM,Delivered,New,,"Confirmed $4,000.00 in squre. ---2/7/19 Asumi
2/7Maritza Courtesy message sent @ 12:15PM",TX,1,9.25,DWA-9150USJ-9150BL,4000.00,Cq7o,,,,,,,,,0.00,,,,,,,,,,0.00,,,,,,,,,
Referral (Main Office),Referral (Main Office),Michael Wang,114942,2/11/2019 1:12:27 PM,"U.S.  JACLEAN, INC.",CA,90249,Foot Vibe Pro,,New,1,10.17,109.99,120.16,CreditCard,,,"2 years parts, 1 year labor for Small Items","Foot Vibe Pro,",YES,,Delivered,,,Charged by Hitomi over the phone.Storage manager bought from me at Sacramento storage.Tax rate should be 9.5 percent for main office referral.,CA,0,9.25,USJ-871,120.44,#KJgO,,,,,,,,,0.00,,,,,,,,,,0.00,,,,,,,,,
Referral (Main Office),Referral (Main Office),Lex Gonzalez,115195,2/22/2019 9:35:20 AM,Khiet Nguyen,CA,95148,Legacy 3D,New Black,New,1,0.00,3900.00,3900.00,CreditCard,,,"3 years parts, 1 year labor (Free)","Legacy 3D,Daiwa Blanket,",No,3/12/2019 12:00:00 AM,Delivered,New,,"02/22/19- Printed and handed to Maritza- Cristina 10:25 am
2/25Maritza- Customer called @ 10:45 to change color of chair to Choco.
03/13/2019 - Customer called today and stated that he did not receive the Daiwa Blanket. I have shipped a Daiwa Blanket today. FedEx tracking number is 7860-1590-8996. Customer also expressed that he wants to purchase extended warranty (2 more years of labor for $400.00. I will guide the customer on the process of purchasing extended warranty. - Lex",CA,1,9.25,DWA-9150USJ-9150BL,3900.00,02546D,,,,,,,,,0.00,,,,,,,,,,0.00,,,,,,,,,
Referral (Main Office),Referral (Main Office),Michael Kogure,115205,2/22/2019 1:39:48 PM,Ken Inoue,CA,90505,Relax 2 Zero 1.0,Demo Brown,Demo,1,0.00,1150.00,1150.00,Cash,,,"1 year parts, 1 year labor","Relax 2 Zero 1.0,",No,2/27/2019 12:00:00 AM,Delivered,Demo,"Michael approved.
1)Refurbish chair 
2)Full amount of COD
3)Pick up old chair","The chair is in D Wearhouse. Please let Charles know the date of delivery.COD will be paid in cash  - 2/22/19 Hitomi
2/28Maritza- Michael signed off for the cash collected.",CA,1,9.25,USJ-9000USJ-9000BR-DEMO,1150.00,,,,,,,,,,0.00,,,,,,,,,,0.00,,,,,,,,,
Referral (Main Office),Referral (Main Office),Stephany Higareda,115762,3/15/2019 10:12:12 AM,Bill McCurry,CA,95405,Relax 2 Zero 3D,New Choco,New,1,0.00,4500.00,4500.00,Credit Card,,,"3 years parts, 1 year labor (Free)","Relax 2 Zero 3D,",No,4/4/2019 12:00:00 AM,Delivered,New,,"CUSTOMER PURCHASED AN ADDITIONAL 2 YEARS LABOR FOR $400 + TAX. - STEPHANY 05/17/19 PLEASE BE ADVISE CUSTOMER HAS 3 YEARS PARTS AND 3 YEARS LABOR.
PLEASE GIVE FREE TOURMALINE PAD GIFT. WAIVED 2ND FLOOR FEE IF CUSTOMER WOULD LIKE ON 2ND FLOOR. 
THIS IS FOLLOW UP FROM LA COUNTY FAIR 2018
3/15/19-Confirmed $4,500 in SQ. -Hitomi 
4/9Maritza Delivery confirmation received.",CA,1,9.25,DWA-9060USJ-9060BR,4500.00,#syhv,,,,,,,,,0.00,,,,,,,,,,0.00,,,,,,,,,
Referral (Main Office),Referral (Main Office),Charles Ishida,115769,3/15/2019 4:22:19 PM,DANIEL VAN,CA,91790,Relax 2 Zero 1.0,Demo Brown,Demo,1,0.00,1095.00,1095.00,CreditCard,CreditCard,,No Warranty,"Relax 2 Zero 1.0,",YES,,Cancelled,,90 DAY WARRANTY ONLY FOR PARTS AND LABOR,"CUSTOMER WILL PICK UP CHAIR AT WAREHOUSE D
3/18/19-Confirmed $1,095.00 in SQ. waiting for serial number to be updated -Hitomi
3/19/19 CUSTOMER PAID $500 FOR DELIVERY AND WHITEGLOVE PLEASE SCHEDULE CUSTOMER FOR DELIVERY HERE IS THE SQUARE Receipt #SvbZ",Not Dispatched,1,9.25,USJ-9000USJ-9000BR-DEMO,1095.00,Wyxr,,,,,,,,,500.00,Receipt #SvbZ,,,,,,,,,0.00,,,,,,,,,
Referral (Main Office),Referral (Main Office),Charles Ishida,115960,3/20/2019 11:40:49 AM,PABLO ARAKAKI,CA,90501,Legacy,Demo Sienna,Demo,1,0.00,1000.00,1000.00,CreditCard,,,No Warranty,"Legacy,",YES,3/20/2019 12:00:00 AM,Delivered,Demo,Customer picked up. paid by C/C,"Processed by square: 
#w8hA , 020527
3/21/19-Confirmed $1,000.00 in SQ. Per.Charles , Pre. Michael approved the price. will confirm pickup confirmation - Hitomi
3/28/19-Received pickup confirmation and serial number . (Models from 2014 will have serial numbers with this format) -Hitomi",CA,1,9.25,DWA-9100DWA-9100SI-DEMO,1000.00,Receipt #w8hA,,,,,,,,,0.00,,,,,,,,,,0.00,,,,,,,,,
Referral (Main Office),Referral (Main Office),Charles Ishida,116179,3/26/2019 9:24:45 AM,DANIEL VAN,CA,91790,Relax 2 Zero 1.0,Demo Brown,Demo,1,0.00,1595.00,1595.00,CreditCard,CreditCard,,No Warranty,"Relax 2 Zero 1.0,",No,3/28/2019 12:00:00 AM,Delivered,Demo,90 DAY WARRANTY ONLY FOR PARTS AND LABOR,"REVISED ORDER OF #115769.(SALES DATE : 3/15/2019)
3/26/19 Confirmed $1,595.00 inSQ. Per.Charles, Pre. Michael approved the price-Hitomi
3/29Maritza- Powercord, foot pads and chair pad were sent fedex.",CA,1,9.25,USJ-9000USJ-9000BR-DEMO,1095.00,Wyxr,,,,,,,,,500.00,Receipt #SvbZ,,,,,,,,,0.00,,,,,,,,,
Referral (Main Office),Referral (Main Office),Stephany Higareda,116227,3/29/2019 10:12:45 AM,Sabrina Porter,IN,47165,Relax 2 Zero 2.0,Demo Black,Demo,1,0.00,3199.00,3199.00,CreditCard,,,"3 years parts, 1 year labor (Free)","Relax 2 Zero 2.0,",No,4/19/2019 12:00:00 AM,Delivered,Demo,,"Customer paid in full #qFAM $3199.00 contacted me through Zendesk. Gave her Sam's Club price for Demo. Free white glove and delivery, warranty 3 years parts, 1 year labor.  - Stephany PLEASE DELIVER A DEMO IN GREAT CONDITION ALONG WITH A CHAIR PAD AND FOOT PADS. NO SCRATCHES OR DAMAGE TO THE CHAIR THANKS
3/29/19- Confirmed $3,199.00 in SQ. - Hitomi
3/29Maritza Courtesy message sent @ 4:53PM
4/5 Alysa - Customer confirmed schedule delivery Fri. 4/19 between 8-12PM",TX,1,9.25,USJ-9050USJ-9050BL-DEMO,3199.00,#qFAM,,,,,,,,,0.00,,,,,,,,,,0.00,,,,,,,,,
Referral (Main Office),Referral (Main Office),Bonnie Brooks,116919,4/22/2019 4:05:48 PM,Ronnie Stanfill,TN,38351,Pegasus,New Choco,New,1,0.00,4800.00,4800.00,Credit Card,,,"3 years parts, 1 year labor (Free)","Pegasus,",No,,Delivered,New,,"4/22Maritza- Choco Peg will be shipped from WA branch to TX branch. Chair is scheduled to arrive in TX around 4/30.
4/22/19-Confirmed $4,800.00 in SQ. -Hitomi
4/23Maritza Courtesy message sent @ 9:08AM
4/26/2019 Printed and courtesy message sent - Tina
05/14/19- Per Mario's request ship- cristina 5:17 pm
05/15- Shipped used ALG LAXP2529843 Picked up on 05/15/19 Cristina 3:38 pm",CA,1,9.25,DWA-9400Pegasus-BR,4800.00,#Rg3v,,,,,,,,,0.00,,,,,,,,,,0.00,,,,,,,,,
Referral (Main Office),Referral (Main Office),Billy Shea,117252,5/10/2019 8:31:21 AM,Jeanne Brown,IN,46131,PEGASUS 2 SMART,New Choco,New,1,0.00,5500.00,5500.00,Credit Card,,,"5 years parts, 1 year labor (Free)","PEGASUS 2 SMART,",No,5/23/2019 12:00:00 AM,Delivered,New,,"5/10/19 - Confirmed $5,500 in SQ. - Hitomi
Courtesy call /text completed- Cristina 05/13/19 Re assied from TX to IL 1:17 pm
5/15-Confirmation of delivery made for 5/23 (1pm-5pm).-Karen",IL,1,9.25,PEGS-2PEGS-2-BR,5500.00,13nN,,,,,,,,,0.00,,,,,,,,,,0.00,,,,,,,,,
Referral (Main Office),Referral (Main Office),Billy Shea,117362,5/15/2019 6:42:18 AM,Greg Hickey,IL,60714,Relax 2 Zero 3D,New Black,New,1,0.00,2500.00,2500.00,Credit Card,,,"5 years parts, 1 year labor (Free)","Relax 2 Zero 3D,",No,6/6/2019 12:00:00 AM,Delivered,New,,"Approved by Hide
SQ payment cleared for $2500 ; Will let Riho / Shiho know of empl. sale ; Original copy req. -Cristina 05/15/19
5/16Maritza- Courtesy message sent to both numbers
5/17-CC -Left VM-Karen
5/28- Customer confirmed delivery for 6/6 10am-2pm.-Emily
Delivery conf Completed. Verified SQ amount of 2500. Erika 6/26/19 11:26am",IL,1,9.25,DWA-9060USJ-9060BL,2500.00,O7d1,,,,,,,,,0.00,,,,,,,,,,0.00,,,,,,,,,
Referral (Main Office),Referral (Main Office),Joseph Chan,117392,5/15/2019 7:44:08 PM,Jill Foltz,PA,18960,Legacy 3D,New Choco,New,1,0.00,4800.00,4800.00,Credit Card,,,"3 years parts, 1 year labor (Free)","Legacy 3D,",No,6/14/2019 12:00:00 AM,Delivered,New,"Special offer for repeated customer from Americade 2018, please contact Jill to schedule delivery, her email : inspiredbyjill@gmail.com","SQ payment cleared for $4,800; Please collect signature on sales invoice since order was a phone order; Original req. from Joseph for our records- Cristina 05/15/19 8:20
5/21/2019: Courtesy call to Jill Foltz @ (267) 446-7038 (phone# obtained from Mr. Gary Brubaker) - Left voicemail -Noemi
5/30(1:25pm)-CC, Left VM; Email sent.-Customer called back confirmed delivery for 6/14 4:30pm-8:00pm.-Karen

Verified delivery and payment, marked as delivered and passed delivery confirmation to Riho.
*Could not find invoice - Arisa 7/5/19 10:04am",IL,1,9.25,DWA-9150USJ-9150CH,4800.00,#nHIR,,,,,,,,,0.00,,,,,,,,,,0.00,,,,,,,,,
Referral (Main Office),Referral (Main Office),Ruben Cuatrona,117639,5/28/2019 2:55:43 PM,Tam Nguyen / T. Tran,CA,92804,Relax 2 Zero 2.0,New Beige,New,1,0.00,3000.00,3000.00,Credit Card,,,"5 years parts, 1 year labor (Free)","Relax 2 Zero 2.0,",No,5/31/2019 12:00:00 AM,Delivered,New,,"Cristina charged $3000 on 05/24/19- Dispatched to CA -Cristina 05/28 2:57 pm
5/28Maritza- Courtesy call made today. Trying to schedule for 5/31
*This order is from Ruben's previous customers in San Diego fair 2 years ago*
6/4Maritza- Delivery confirmation received plus signature on original invoice.",CA,1,9.25,USJ-9050USJ-9050BE,3000.00,ic5K,,,,,,,,,0.00,,,,,,,,,,0.00,,,,,,,,,
Referral (Main Office),Referral (Main Office),Billy Shea,117698,5/31/2019 1:10:41 PM,Vivian Riddle,MI,48185,Legacy 3D,New Choco,New,1,0.00,3950.00,3950.00,Credit Card,,,"3 years parts, 1 year labor (Free)","Legacy 3D,",No,6/16/2019 12:00:00 AM,Delivered,New,,"Original Received. SQ amount verified of m$3950. Erika 5-31-19 2:30pm
Courtesy Call completed 6/3/19 5:17pm
6/4(5:05)pm- Customer confirmed delivery for 6/16-6:30pm-8pm.-Karen

Attached delivery confirmation to sales receipt, verified delivery and payment, marked as delivered and passed documents to Riho - Arisa 6/18 4:02pm

Received and confirmed the copy of originals and the delivery confirmation, there is no customer's signature on the invoice because it's phone order. Verified the SQ transaction. 7/1/19 Riho",IL,1,9.25,DWA-9150USJ-9150CH,3950.00,9x32,,,,,,,,,0.00,,,,,,,,,,0.00,,,,,,,,,
Referral (Main Office),Referral (Main Office),Mario Higareda,118315,6/26/2019 3:40:22 PM,Mike Yamaguchi,TX,79927,Solace,Demo Black,Demo,1,0.00,1750.00,1750.00,Cash,,,"3 years parts, 1 year labor (Free)","Solace,",No,6/15/2019 12:00:00 AM,Delivered,Demo,,"Driver Sean Lounthone sold to Mike Yamaguci as a family discount, therefore no commission is necessary. Selected Mario as sales person because Sean was not in the list. 

Delivery date: 6/15/19
Serial# 0801001170103
- Arisa 6/26/19 3:30pm

No signature for confirming the delivery, asked Tina to verify. 6/28/19 Riho",CA,1,9.25,SOL-1SOL-1-BL-DEMO,1750.00,,,,,,,,,/,0.00,,,,,,,,,/,0.00,,,,,,,,,/
Referral (Main Office),Referral (Main Office),Billy Shea,118595,7/10/2019 1:44:03 PM,Jodie Moran,MN,55115,PEGASUS 2 SMART,New Black,New,1,0.00,5500.00,5500.00,Credit Card,Credit Card,,"5 years parts, 1 year labor (Free)","PEGASUS 2 SMART,",No,7/15/2019 12:00:00 AM,Delivered,New,,"Original received. SQ amount verified of $4000& $1500. Paid in full. Pls collect customers signature on invoice. Erika 7/11/19 9:01am
-courtesy call completed.-Erika 7/11/19
7/11: CC left vm & text (1PM) - Emily 
7/12- Scheduled 7/15 1-5pm-Emily
Delivery conf. completed. Payment verified through SQ. paid in full. Erika 7/19/19 3:00pm",IL,1,9.25,PEGS-2PEGS-2-BL,4000.00,EkNr,,,,,,,,/,1500.00,jY0a,,,,,,,,/,0.00,,,,,,,,,/
Referral (Main Office),Referral (Main Office),Billy Shea,118752,7/17/2019 1:30:06 PM,Abdel Karim Shaban,IL,62269,Air Touch,,New,1,0.00,1550.00,1550.00,Credit Card,,,"3 years parts, 1 year labor (Free)","Air Touch,",No,,Cancelled,,,"Customer  paid $1600. Can we update the Price to $1600 in case the customer needs a receipt.
Cancled order. NEW order#118760-Erika 7/18/19 8:54am",Not Dispatched,1,9.25,USJ-1350,1600.00,UMbo,,,,,,,,/,0.00,,,,,,,,,/,0.00,,,,,,,,,/
Referral (Main Office),Referral (Main Office),Scott Ishikawa,118755,7/17/2019 4:41:40 PM,Regil Arcay,WA,98383,Legacy 3D,New Black,New,1,0.00,4000.00,4000.00,Credit Card,,,"3 years parts, 1 year labor (Free)","Legacy 3D,",No,7/21/2019 12:00:00 AM,Delivered,,2nd floor,"RQ. invoice, SQ. amount verified $4000. Paid in full. Erika 7/18/19 9:39am
Courtesy call completed- Cristina 07/19/19
Delivered 07/21/19 - Yoko",WA,1,9.25,DWA-9150USJ-9150BL,4000.00,nml1,,,,,,,,/,0.00,,,,,,,,,/,0.00,,,,,,,,,/
Referral (Main Office),Referral (Main Office),Billy Shea,118760,7/18/2019 8:53:35 AM,Abdel Karim Shaban Fade 48 Barber Shop,IL,62269,Air Touch,,New,1,0.00,1600.00,1600.00,Credit Card,,,"3 years parts, 1 year labor (Free)","Air Touch,",No,,Assigned,,,"Original received. SQ. amount verified of $1600. Paid in full. Erika 7/18/19 8:59am
courtesy call completed. Erika 7/18/19
7/19- Customer confirmed delivery for Aug. 5, 2019 between 1:30-5:30pm.-Karen",CA,1,9.25,USJ-1350,1600.00,UMbo,,,,,,,,/,0.00,,,,,,,,,/,0.00,,,,,,,,,/
Referral (Main Office),Referral (Main Office),Ruben Cuatrona,118784,7/19/2019 10:37:51 AM,Lea Palaepae,CA,90620,Legacy 3D,New Choco,New,1,0.00,3000.00,3000.00,COD,,,"5 years parts, 2 years labor ($200)","Legacy 3D,",No,,Scheduled,,,"Original received. Remaining balance $3000 (CASH DEAL). Approved by Hide. Collect COD @ delivery. Have customer sign invoice. Erika 7/19/19 10:39am
7/19Printed
scheduled 7/26 11-1",CA,1,9.25,DWA-9150USJ-9150CH,3000.00,,,,,,,,,/,0.00,,,,,,,,,/,0.00,,,,,,,,,/
