﻿Original Event Name,Event Name,Sales Person,Order Number,Order Date,Customer Name,State,Zip,Product Name,Color,Product Status,QTY,Tax,Total Before Tax,Order Total,Primary Payment Method,Second Payment Method,Thirdl Payment Method,Warranty,Order Items,Pick up,Delivered On,Order Status,Chair Type,Order Notes,Private Note,Branch,No Tax,Actual Tax Rate,SKU,Primary Payment Balance,Primary Authorize Number,Primary Purchase Order Number,Primary Synchrony Account Number,Primary Synchrony Application Key,Primary Synchrony Account Info,Primary Synchrony Term,Second Payment Balance,Second Authorize Number,Second Purchase Order Number,Second Synchrony Account Number,Second Synchrony Application Key,Second Synchrony Account Info,Second SynchronyTerm,Third Payment Balance,Third Authorize Number,Third Purchase Order Number,Third Synchrony Account Number,Third Synchrony Application Key,Third Synchrony Account Info,Third Synchrony Term
DAYTONA BEACH NEWS SPRING 3/22-24/19 DAYTONA BEACH (FL),DAYTONA BEACH NEWS SPRING 3/22-24/19 DAYTONA BEACH (FL),Rodrigo Malabunga,116038,3/23/2019 1:38:44 PM,Christine Weller,FL,32763,Legacy 3D,Demo Black,Demo,1,0.00,4504.50,4504.50,Synchrony,,,"5 years parts, 2 years labor ($200)","Legacy 3D,",No,4/8/2019 12:00:00 AM,Delivered,New,,"Received NEW due to no DEMO in FL warehouse
3/25/19-Confirmed SYNC$8,500 and original. ***Please charge $4,504.50/ sales draft***-Hitomi
CC, Jasmin Carrizales, 3/26/19, 9:36am",FL,1,6.50,DWA-9150USJ-9150BL-DEMO,4504.50,,,6501723375070222,73023326,Las Vegas,36 months,0.00,,,,,,,0.00,,,,,,
DAYTONA BEACH NEWS SPRING 3/22-24/19 DAYTONA BEACH (FL),DAYTONA BEACH NEWS SPRING 3/22-24/19 DAYTONA BEACH (FL),Ruben Cuatrona,116039,3/23/2019 1:45:09 PM,Don Gus Bok,FL,32119,Relax 2 Zero 3D,Demo Choco,Demo,1,0.00,3900.00,3900.00,Synchrony,,,"5 years parts, 1 year labor (Free)","Relax 2 Zero 3D,",No,4/8/2019 12:00:00 AM,Delivered,Demo,,"3/25/19-Confirmed SYNC$6,600 and original. ***Please charge $3,900/ sales draft***-Hitomi
CC, Jasmin Carrizales, 3/26/19, 9:39am 
*Deliver any day but Wednesday",FL,1,6.50,DWA-9060USJ-9060BR-DEMO,3900.00,,,6501723375068994,72991429,Las Vegas,36 months,0.00,,,,,,,0.00,,,,,,
DAYTONA BEACH NEWS SPRING 3/22-24/19 DAYTONA BEACH (FL),DAYTONA BEACH NEWS SPRING 3/22-24/19 DAYTONA BEACH (FL),Ruben Cuatrona,116040,3/23/2019 1:53:52 PM,Alan Kusseloff,FL,32174,Relax 2 Zero 3D,Demo Black,Demo,1,0.00,4000.00,4000.00,CreditCard,,,"5 years parts, 2 years labor ($200)","Relax 2 Zero 3D,",No,4/5/2019 12:00:00 AM,Delivered,New,,"4/4/19 JD - Customer was upgraded to a NEW chair at no additional cost due to scheduling conflict, Approved by Andres
4/3/19 JD - Customer Cancelled because he was promised delivery within a week, andres spoke with cust.
***CORRECT PH# 386-290-4188***
3/25/19-Confirmed $4,000 in SQ. -Hitomi
CC, Jasmin Carrizales,3/26/19, 9:45am
*customer was promised delivery in 1 week, very upset- MQ4/3/19",FL,1,6.50,DWA-9060USJ-9060BL-DEMO,4000.00,Receipt #LDOU,,,,,,0.00,,,,,,,0.00,,,,,,
DAYTONA BEACH NEWS SPRING 3/22-24/19 DAYTONA BEACH (FL),DAYTONA BEACH NEWS SPRING 3/22-24/19 DAYTONA BEACH (FL),Rodrigo Malabunga,116173,3/26/2019 8:18:45 AM,James Manning,FL,32124,Legacy 3D,New Choco,New,1,0.00,4200.00,4200.00,CreditCard,COD,,"5 years parts, 2 years labor ($200)","Legacy 3D,",No,,Hold,,,"HOLD for now the customer fixing the house wait for his advice
3/26/19-COnfirmed $200.00 in SQ. HOLD- Hitomi",Not Dispatched,1,6.50,DWA-9150USJ-9150CH,200.00,CIFp,,,,,,4000.00,,,,,,,0.00,,,,,,
DAYTONA BEACH NEWS SPRING 3/22-24/19 DAYTONA BEACH (FL),DAYTONA BEACH NEWS SPRING 3/22-24/19 DAYTONA BEACH (FL),Rodrigo Malabunga,116175,3/26/2019 8:26:28 AM,Katleen Raybun,FL,32176,PEGASUS 2 SMART,Demo Black,Demo,1,0.00,5000.00,5000.00,Synchrony,,,"5 years parts, 2 years labor ($200)","PEGASUS 2 SMART,",No,4/8/2019 12:00:00 AM,Delivered,Demo,,"3/27/19 JD - customer will be leaving town the 29th until April 8th
CC Josefina - 3/26/19 5:00pm VM
Pls make delivery before
29 March
3/26/19-Confirmed SYNC$8,500 and original. ***Please charge $5,000/sales draft*** -Hitomi",FL,1,6.50,PEGS-2PEGS-2-BL-DEMO,5000.00,,,6501723375072954,73072423,Las Vegas,36 months,0.00,,,,,,,0.00,,,,,,
DAYTONA BEACH NEWS SPRING 3/22-24/19 DAYTONA BEACH (FL),DAYTONA BEACH NEWS SPRING 3/22-24/19 DAYTONA BEACH (FL),Ruben Cuatrona,116178,3/26/2019 8:42:38 AM,Lorenzo Phan,FL,32174,Legacy 3D,New Choco,New,3,0.00,10200.00,10200.00,Cash,Check,CreditCard,"5 years parts, 2 years labor ($200)","Legacy 3D,",No,,Cancelled,,,"3 different address 2) 4524 Wellington farm, Chesternfields,Va 23831/ Tel # 386 212 9131
3) 5048 hawks hammock way, Sanford , Fl 32771/Tel # 321 274 5360
PLS DO NOT PUT THE PRICE/IN THE DELIVERY INVOICE

3/26/19- Confirmed $7,000.00 in SQ. Per.Rod, $100 cash will be passed to Andres, $3,100 check (#7013) was deposited on 3/26/19. Since those 3 chairs are going to different location ( will be taken care of 2 branches), will re-enter them into separate order -Hitomi",Not Dispatched,1,6.50,DWA-9150USJ-9150CH,100.00,,,,,,,3100.00,,,,,,,7000.00,u54h,,,,,
DAYTONA BEACH NEWS SPRING 3/22-24/19 DAYTONA BEACH (FL),DAYTONA BEACH NEWS SPRING 3/22-24/19 DAYTONA BEACH (FL),Rodrigo Malabunga,116181,3/26/2019 11:57:34 AM,Dr Price Price,FL,32130,Legacy 3D,New Black,New,1,0.00,4000.00,4000.00,CreditCard,CreditCard,,"5 years parts, 1 year labor (Free)","Legacy 3D,",No,4/8/2019 12:00:00 AM,Delivered,New,,"3/26/19 Confirmed $4,000 in SQ. - Hitomi
Deliver any day except for Thursday/also no calls on thursday.(wants old chair taking out)
CC, Jasmin Carrizales, 3/26/19, 4:34pm",FL,1,6.50,DWA-9150USJ-9150BL,3800.00,Receipt #rfWE,,,,,,200.00,958B,,,,,,0.00,,,,,,
DAYTONA BEACH NEWS SPRING 3/22-24/19 DAYTONA BEACH (FL),DAYTONA BEACH NEWS SPRING 3/22-24/19 DAYTONA BEACH (FL),Ruben Cuatrona,116199,3/27/2019 9:45:28 AM,Lorenzo Phan,FL,32174,Legacy 3D,New Choco,New,1,0.00,3400.00,3400.00,Cash,Check,CreditCard,"5 years parts, 2 years labor ($200)","Legacy 3D,",No,,Scheduled,,,"PLS DO NOT PUT THE PRICE/IN THE DELIVERY INVOICE
 *Order#116199 & #116200 & #116201 are paid in same customer, going to 3 locations.* (This is revised order of #116178.)
3/26/19- Confirmed $200 in SQ. (Total$7,000,for #116199 & #116200 & #116201 ) Per.Rod, $100 cash will be passed to Andres, $3,100 check (#7013) was deposited on 3/26/19. -Hitomi
4/2/19- Confirmed w/Yumi, check is cleared. Rod will pass $100 cash tonight. * Please send us confirmation.*  - Hitomi
CC, Jasmin Carrizales, 4/2/19, 4:07pm
4/4/19-Received confirmation of which Andres received $100 cash. -Hitomi",FL,1,6.50,DWA-9150USJ-9150CH,100.00,,,,,,,3100.00,,,,,,,200.00,"u54h(Total$7,000,for #116199 & #116200 & #116201 )",,,,,
DAYTONA BEACH NEWS SPRING 3/22-24/19 DAYTONA BEACH (FL),DAYTONA BEACH NEWS SPRING 3/22-24/19 DAYTONA BEACH (FL),Ruben Cuatrona,116200,3/27/2019 9:49:43 AM,Lorenzo Phan,VA,23831,Legacy 3D,New Choco,New,1,0.00,3400.00,3400.00,CreditCard,,,"5 years parts, 2 years labor ($200)","Legacy 3D,",No,,Called,,,"PLS DO NOT PUT THE PRICE/IN THE DELIVERY INVOICE
 *Order#116199 & #116200 & #116201 are paid in same customer, going to 3 locations.* (This is revised order of #116178.)
3/26/19- Confirmed $3,400.00 in SQ. (Total$7,000,for #116199 & #116200 & #116201 )
waiting for all of payments are cleared -Hitomi
4/2/19-4/2/19- Confirmed w/Yumi, check is cleared.   - Hitomi
4/3/2019 Print / Courtesy message done - Tina",TX,1,6.50,DWA-9150USJ-9150CH,3400.00,"u54h(Total$7,000,for #116199 & #116200 & #116201 )",,,,,,0.00,,,,,,,0.00,,,,,,
DAYTONA BEACH NEWS SPRING 3/22-24/19 DAYTONA BEACH (FL),DAYTONA BEACH NEWS SPRING 3/22-24/19 DAYTONA BEACH (FL),Ruben Cuatrona,116201,3/27/2019 9:52:40 AM,Lorenzo Phan,FL,32771,Legacy 3D,New Choco,New,1,0.00,3400.00,3400.00,CreditCard,,,"5 years parts, 2 years labor ($200)","Legacy 3D,",No,,Scheduled,,,"PLS DO NOT PUT THE PRICE/IN THE DELIVERY INVOICE
 *Order#116199 & #116200 & #116201 are paid in same customer, going to 3 locations.* (This is revised order of #116178.)
3/26/19- Confirmed $3,400.00 in SQ. (Total$7,000,for #116199 & #116200 & #116201 )-Hitomi
CC, Jasmin Carrizales, 3/27/19, 1:38pm",FL,1,6.50,DWA-9150USJ-9150CH,3400.00,"u54h(Total$7,000,for #116199 & #116200 & #116201 )",,,,,,0.00,,,,,,,0.00,,,,,,
