﻿Date,CustomerName,State,Zipcode,Description,productNo,Color,IsDemo,Net,ShippingFee,GiftPrice,FinancingProcessingFee,Gross,Pre_tax,Tax,Commission,Primary Payment Method,Primary Payment Balance,Primary Authorize Number,Primary Purchase Order Number,Primary Synchrony Account Number,Primary Synchrony Application Key,Primary Synchrony AccountInfo,Primary SynchronyTerm,Secondly Payment Method,Secondly Payment Balance,Secondly Authorize Number,Secondly Purchase Order Number,Secondly Synchrony Account Number,Secondly Synchrony Application Key,Secondly Synchrony AccountInfo,Secondly SynchronyTerm,Thirdly Payment Method,Thirdly Payment Balance,Thirdly Authorize Number,Thirdly Purchase Order Number,Thirdly Synchrony Account Number,Thirdly Synchrony Application Key,Thirdly Synchrony AccountInfo,Thirdly SynchronyTerm,DeliveryDate,Ispickup,Warranty,Status,Event Name,Synchrony Notes,Order Notes,Order number,Private Note,Branch,IsNoTax,ActualTaxRate
11/10/2017 1:52:16 PM,Samon Nhean,FL,34987,Legacy for Sam's,DWA-9100DWA-9100CH,Choco,New,,,,,3832.94,3599.00,233.94,Robert Shih,,3832.94,TC# 0771 1041 4006 6291 9881 28,,,,,,,,,,,,,,,,,,,,,,12/8/2017 12:00:00 AM,No,"2 years parts, 1 year labor (Small Items)",Delivered,Sam's Club #4972 11/9-11/19 (FL),,Thank you very much for your business with us in the Sam's club Port St. Lucie / Deliver 2 - 3 weeks / Pls deliver the NEW one to the customer,101784,,FL,,
11/10/2017 3:15:36 PM,Barbara Allen,FL,34949,Legacy for Sam's,DWA-9100DWA-9100CH,Choco,New,,,,,4578.44,4299.00,279.44,Robert Shih,,4578.44,TC# 4248 4172 7861 9814 1434 35,,,,,,,,,,,,,,,,,,,,,,11/21/2017 12:00:00 AM,No,"3 years parts, 1 year labor (Free)",Delivered,Sam's Club #4972 11/9-11/19 (FL),,Thank you very much for your business with us in the Sam's club Port St Lucie  / Deliver about 2 - 3 weeks,101787,,FL,,
11/10/2017 3:25:03 PM,Eileen Frank,FL,34986,Legacy for Sam's,DWA-9100DWA-9100GD,Gold,New,,,,,4578.44,4299.00,279.44,Robert Shih,,4578.44,TC# 2009 2380 8643 7632 3252 59,,,,,,,,,,,,,,,,,,,,,,11/21/2017 12:00:00 AM,No,"3 years parts, 1 year labor (Free)",Delivered,Sam's Club #4972 11/9-11/19 (FL),,Thank you very much for your business with us in the Sam's club Port St Lucie / Deliver about 2 - 3 weeks.,101788,,FL,,
11/10/2017 4:50:05 PM,Luz Tavera,FL,34953,Vitality Plate for Sam's,USJ-849USJ-849,New,New,,,,,489.89,459.99,29.90,Robert Shih,,489.89,TC# 7775 2353 7911 5404 2070 0,,,,,,,,,,,,,,,,,,,,,,,YES,"2 years parts, 1 year labor (Small Items)",Delivered,Sam's Club #4972 11/9-11/19 (FL),,Thank you very much for your business with us in the Sam's club Port St. Lucie / Picked up in store,101790,,FL,,
11/11/2017 5:50:27 PM,Yiu man Siu,FL,34983,Legacy for Sam's,DWA-9100DWA-9100CH,Choco,New,,,,,3832.94,3599.00,233.94,Robert Shih,,3832.94,TC# 9205 8932 3099 3547 4057 50,,,,,,,,,,,,,,,,,,,,,,,No,"3 years parts, 1 year labor (Free)",Hold,Sam's Club #4972 11/9-11/19 (FL),,Thank you very much for your business with us in the Sam's club Port St Lucie FL / Pls on hold the deliver about 2 months / Pls deliver the NEW chair to the customer.,101799,"1/2 MQ - Still not ready, call back mid Feb.",FL,,
11/12/2017 9:52:24 AM,Kabir Ahomed,FL,34953,Relax2Zero 2.0 for Sam's,USJ-9050USJ-9050BL,Black,New,,,,,3199.00,3003.76,195.24,Robert Shih,,3199.00,TC# 8937 2392 9680 5705 0516 33,,,,,,,,,,,,,,,,,,,,,,11/21/2017 12:00:00 AM,No,"2 years parts, 1 year labor (Small Items)",Delivered,Sam's Club #4972 11/9-11/19 (FL),,Thank you very much for your business with us in the Sam's club Port St Lucie FL / Pls deliver this order ASAP / Pls deliver the NEW one to the customer / Tax exempt,101808,,FL,,
11/12/2017 10:28:26 AM,Kabir Ahomed,FL,34953,Vitality Plate for Sam's,USJ-849USJ-849-DEMO,Deomo,New,,,,,399.99,375.58,24.41,Robert Shih,,399.99,TC# 9165 0343 7941 5404 0270 0,,,,,,,,,,,,,,,,,,,,,,,YES,"2 years parts, 1 year labor (Small Items)",Delivered,Sam's Club #4972 11/9-11/19 (FL),,Thank you very much for your business with us in the Sam's club Port St Lucie FL / Tax exempt / Picked in store,101809,,FL,,
11/15/2017 1:51:38 PM,Richard Rubenstein,FL,34986,Legacy for Sam's,DWA-9100DWA-9100BG,Beige,New,,,,,3832.94,3599.00,233.94,Robert Shih,,3832.94,TC# 8127 3895 9386 5706 0346 73,,,,,,,,,,,,,,,,,,,,,,11/21/2017 12:00:00 AM,No,"2 years parts, 1 year labor (Small Items)",Delivered,Sam's Club #4972 11/9-11/19 (FL),,Thank you very much for your business with us in the Sam's club Port St Lucie FL  / Deliver about 2 - 3 weeks / Second chair discount pls deliver the NEW one to the customer  /,101889,,FL,0,6.50
11/16/2017 12:18:37 PM,Evangeline R Shillingford,FL,34953,Legacy for Sam's,DWA-9100DWA-9100BG,Beige,New,,,,,3832.94,3599.00,233.94,Robert Shih,,3832.94,TC# 0771 6047 2709 6291 9811 28,,,,,,,,,,,,,,,,,,,,,,12/19/2017 12:00:00 AM,No,"2 years parts, 1 year labor (Small Items)",Delivered,Sam's Club #4972 11/9-11/19 (FL),,Thank you very much for your business with us in the Sam's club Port St Lucie FL / Pls schedule the deliver a week before X'mas,101899,CHANGE COLOR TO SIENNA 12/5,FL,0,6.50
11/18/2017 5:08:21 PM,Pankaj Patel,FL,34950,Relax2Zero 2.0 for Sam's,USJ-9050USJ-9050BL,Black,New,,,,,3406.94,3199.00,207.94,Robert Shih,,3406.94,TC# 5954 3011 3357 0369 6279 82,,,,,,,,,,,,,,,,,,,,,,11/21/2017 12:00:00 AM,No,"2 years parts, 1 year labor (Small Items)",Delivered,Sam's Club #4972 11/9-11/19 (FL),,Thank you very much for your business with us in the Sam's club Port St Lucie FL / Deliver about 2 weeks,101943,Pls replace the right arm has damage before deliver.,FL,0,6.50
11/19/2017 8:56:07 AM,Guangtong Li,FL,34654,Relax2Zero 2.0 for Sam's,USJ-9050USJ-9050BR,Brown,New,,,,,3900.00,3900.00,0.00,Robert Shih,,3900.00,,,,,,,,,,,,,,,,,,,,,,,12/7/2017 12:00:00 AM,No,"3 years parts, 1 year labor (Free)",Delivered,Sam's Club #4972 11/9-11/19 (FL),,Thank you very much for your business with us in the Sam's club New Port Richey FL / Deliver about 2 weeks / Tax exempt,101968,Customer purchased at New Port Richey FL store number #6448,FL,1,6.50
11/19/2017 2:51:27 PM,David Denmon,FL,34945,Legacy for Sam's,DWA-9100DWA-9100BL,Black,New,,,,,3832.94,3599.00,233.94,Robert Shih,,3832.94,TC# 8157 8891 7987 5706 0336 73,,,,,,,,,,,,,,,,,,,,,,11/21/2017 12:00:00 AM,No,"2 years parts, 1 year labor (Small Items)",Delivered,Sam's Club #4972 11/9-11/19 (FL),,Thank you very much for your business with us in the Sam's club Port St Lucie FL / Deliver about 2 weeks / Second floor deliver / Pls deliver the NEW one to the customer,101982,,FL,0,6.50
