﻿Order Number,Order Date,Original Event Name,Event Name,Salesperson,SKU,Product Name,Color,QTY,Warranty,Payment Details,Tax,Order Total,Gross,Primary Payment Method,Primary Payment Balance,Primary Authorize Number,Primary Purchase Order Number,Primary Synchrony Account Number,Primary Synchrony Application Key,Primary Synchrony AccountInfo,Primary SynchronyTerm,Secondly Payment Method,Secondly Payment Balance,Secondly Authorize Number,Secondly Purchase Order Number,Secondly Synchrony Account Number,Secondly Synchrony Application Key,Secondly Synchrony AccountInfo,Secondly SynchronyTerm,Thirdly Payment Method,Thirdly Payment Balance,Thirdly Authorize Number,Thirdly Purchase Order Number,Thirdly Synchrony Account Number,Thirdly Synchrony Application Key,Thirdly Synchrony AccountInfo,Thirdly SynchronyTerm,Actual Shipping Cost,CustomerName,Shipping Address,Delivered On,Serial Number (TO Be),Note,Branch,IsNoTax,ActualTaxRate
108735,8/24/2018 10:04:30 PM,"OREGON STATE FAIR 8/24-9/3/18 SALEM,OR (WA)","OREGON STATE FAIR 8/24-9/3/18 SALEM,OR (WA)",Joseph Chan,DWA-9400Pegasus-BR-DEMO,Pegasus,Demo Choco,1,"3 years parts, 1 year labor (Free)",CUSTOM ,0.00,4700.00,4700.00,CreditCard,4700.00,#tRze,,,,,,,0.00,,,,,,,,0.00,,,,,,,0.00,Steve Bowles,503-313-5493,9/3/2018 12:00:00 AM,,,WA,1,0.00
108806,8/26/2018 9:41:20 PM,"OREGON STATE FAIR 8/24-9/3/18 SALEM,OR (WA)","OREGON STATE FAIR 8/24-9/3/18 SALEM,OR (WA)",Joseph Chan,DWA-9150USJ-9150BL,Legacy 3D,New Black,1,"3 years parts, 1 year labor (Free)",CUSTOM ,0.00,4800.00,4800.00,Synchrony,4800.00,,,6019170813102370,93491960,Las Vegas,36 months,,0.00,,,,,,,,0.00,,,,,,,0.00,Sean Wilson,951-505-7510,9/10/2018 12:00:00 AM,,,WA,1,0.00
108840,8/27/2018 7:24:42 PM,"OREGON STATE FAIR 8/24-9/3/18 SALEM,OR (WA)","OREGON STATE FAIR 8/24-9/3/18 SALEM,OR (WA)",Joseph Chan,DWA-9150USJ-9150CH,Legacy 3D,New Choco,1,"3 years parts, 1 year labor (Free)",CUSTOM ,0.00,4800.00,4800.00,Synchrony,4800.00,,,6019170813104889,93551525,Las Vegas,36 months,,0.00,,,,,,,,0.00,,,,,,,0.00,Edger Orth,541-935-6820,,,,WA,1,0.00
108850,8/28/2018 11:48:48 AM,"OREGON STATE FAIR 8/24-9/3/18 SALEM,OR (WA)","OREGON STATE FAIR 8/24-9/3/18 SALEM,OR (WA)",Joseph Chan,DWA-9150USJ-9150CH,Legacy 3D,New Choco,1,"3 years parts, 1 year labor (Free)",CUSTOM ,0.00,4800.00,4800.00,CreditCard,4800.00,#ssZK,,,,,,,0.00,,,,,,,,0.00,,,,,,,0.00,Ann Lutz,503-999-4705,9/11/2018 12:00:00 AM,,,WA,0,0.00
108862,8/28/2018 9:22:09 PM,"OREGON STATE FAIR 8/24-9/3/18 SALEM,OR (WA)","OREGON STATE FAIR 8/24-9/3/18 SALEM,OR (WA)",Elijah Banania,DWA-9150USJ-9150BL,Legacy 3D,New Black,1,"3 years parts, 1 year labor (Free)",CUSTOM COD,0.00,4500.00,4500.00,CreditCard,50.00,#iT7I,,,,,,COD,4450.00,,,,,,,,0.00,,,,,,,0.00,Michael Cline,503-409-1204,,,"Customer remodeling their clinic, will call when ready, please hold",WA,0,0.00
108866,8/29/2018 12:57:59 PM,"OREGON STATE FAIR 8/24-9/3/18 SALEM,OR (WA)","OREGON STATE FAIR 8/24-9/3/18 SALEM,OR (WA)",Joseph Chan,DWA-9150USJ-9150CH,Legacy 3D,New Choco,1,"3 years parts, 1 year labor (Free)",CUSTOM ,0.00,3800.00,3800.00,CreditCard,3800.00,#Ur0X,,,,,,,0.00,,,,,,,,0.00,,,,,,,0.00,Doris Liang,503-610-1205,,,"Per customer’s request, please deliver between 9/17 - 9/21/18",WA,0,0.00
108867,8/29/2018 2:10:20 PM,"OREGON STATE FAIR 8/24-9/3/18 SALEM,OR (WA)","OREGON STATE FAIR 8/24-9/3/18 SALEM,OR (WA)",Joseph Chan,DWA-9150USJ-9150CH,Legacy 3D,New Choco,1,"3 years parts, 1 year labor (Free)",CUSTOM COD,0.00,4800.00,4800.00,CreditCard,1000.00,#bu5z,,,,,,COD,0.00,,,,,,,,0.00,,,,,,,0.00,James Diehl,541-961-2814,,,,WA,0,0.00
108913,8/30/2018 3:26:36 PM,"OREGON STATE FAIR 8/24-9/3/18 SALEM,OR (WA)","OREGON STATE FAIR 8/24-9/3/18 SALEM,OR (WA)",Joseph Chan,DWA-9150USJ-9150CH,Legacy 3D,New Choco,1,"3 years parts, 1 year labor (Free)",CUSTOM ,0.00,4800.00,4800.00,CreditCard,4800.00,#Kw7W,,,,,,,0.00,,,,,,,,0.00,,,,,,,0.00,George & Charlotte Hetu,503-758-0900,9/11/2018 12:00:00 AM,,,WA,0,0.00
108932,8/31/2018 10:01:40 PM,"OREGON STATE FAIR 8/24-9/3/18 SALEM,OR (WA)","OREGON STATE FAIR 8/24-9/3/18 SALEM,OR (WA)",Joseph Chan,DWA-9060USJ-9060BL,Relax2Zero 3D,New Black,1,"3 years parts, 1 year labor (Free)",CUSTOM COD,0.00,4200.00,4200.00,CreditCard,2100.00,#39He,,,,,,COD,2100.00,,,,,,,,0.00,,,,,,,0.00,Larry & Annette Konnie,541-935-1757,,,,WA,0,0.00
108933,8/31/2018 10:06:17 PM,"OREGON STATE FAIR 8/24-9/3/18 SALEM,OR (WA)","OREGON STATE FAIR 8/24-9/3/18 SALEM,OR (WA)",Joseph Chan,DWA-9060USJ-9060BR,Relax2Zero 3D,New Choco,1,"3 years parts, 1 year labor (Free)",CUSTOM ,0.00,4200.00,4200.00,Synchrony,4200.00,,,6019170813111595,93761549,Las Vegas,36 months,,0.00,,,,,,,,0.00,,,,,,,0.00,Larry Eaton,503-250-3284,9/11/2018 12:00:00 AM,,,WA,0,0.00
108953,9/1/2018 3:37:03 PM,"OREGON STATE FAIR 8/24-9/3/18 SALEM,OR (WA)","OREGON STATE FAIR 8/24-9/3/18 SALEM,OR (WA)",Joseph Chan,DWA-9060USJ-9060BL,Relax2Zero 3D,New Black,1,"3 years parts, 1 year labor (Free)",CUSTOM CreditCard,0.00,4800.00,4800.00,CreditCard,500.00,#6NRq,,,,,,CreditCard,4300.00,#zf9i,,,,,,,0.00,,,,,,,0.00,Hyun & Jason Burnim,503-330-0166,9/11/2018 12:00:00 AM,,,WA,0,0.00
108965,9/1/2018 7:05:11 PM,"OREGON STATE FAIR 8/24-9/3/18 SALEM,OR (WA)","OREGON STATE FAIR 8/24-9/3/18 SALEM,OR (WA)",Joseph Chan,DWA-9150USJ-9150CH,Legacy 3D,New Choco,1,"3 years parts, 1 year labor (Free)",CUSTOM ,0.00,4300.00,4300.00,Synchrony,4300.00,,,6019170813114557,93822297,Las Vegas,36 months,,0.00,,,,,,,,0.00,,,,,,,0.00,Hung Nguyen,503-258-7238,9/11/2018 12:00:00 AM,,,WA,0,0.00
108966,9/1/2018 7:18:30 PM,"OREGON STATE FAIR 8/24-9/3/18 SALEM,OR (WA)","OREGON STATE FAIR 8/24-9/3/18 SALEM,OR (WA)",Elijah Banania,DWA-9400Pegasus-BR,Pegasus,New Choco,1,"3 years parts, 1 year labor (Free)",CUSTOM COD,0.00,5200.00,5200.00,CreditCard,50.00,#iiFY,,,,,,COD,5150.00,,,,,,,,0.00,,,,,,,0.00,Joe Gruba,503-519-8968,,,"Customer’s house is under remodeling, will contact us when ready",WA,0,0.00
108967,9/1/2018 7:25:14 PM,"OREGON STATE FAIR 8/24-9/3/18 SALEM,OR (WA)","OREGON STATE FAIR 8/24-9/3/18 SALEM,OR (WA)",Joseph Chan,DWA-9150USJ-9150CH,Legacy 3D,New Choco,1,"3 years parts, 1 year labor (Free)",CUSTOM ,0.00,4200.00,4200.00,Synchrony,4200.00,,,6019170813114870,93827027,Las Vegas,48 months,,0.00,,,,,,,,0.00,,,,,,,0.00,Michelle Hope,971-273-6544,,,Please pick up customer’s existing massage chair on delivery,WA,0,0.00
108979,9/2/2018 1:02:50 PM,"OREGON STATE FAIR 8/24-9/3/18 SALEM,OR (WA)","OREGON STATE FAIR 8/24-9/3/18 SALEM,OR (WA)",Joseph Chan,DWA-9150USJ-9150CH,Legacy 3D,New Choco,1,"3 years parts, 1 year labor (Free)",CUSTOM ,0.00,4800.00,4800.00,CreditCard,4800.00,#RVOH,,,,,,,0.00,,,,,,,,0.00,,,,,,,0.00,Daniel Butler,503-437-9133,,,,WA,0,0.00
109029,9/3/2018 6:56:54 PM,"OREGON STATE FAIR 8/24-9/3/18 SALEM,OR (WA)","OREGON STATE FAIR 8/24-9/3/18 SALEM,OR (WA)",Elijah Banania,DWA-9400Pegasus-BR,Pegasus,New Choco,1,"3 years parts, 1 year labor (Free)",CUSTOM ,0.00,5100.00,5100.00,CreditCard,5100.00,#GARt,,,,,,,0.00,,,,,,,,0.00,,,,,,,0.00,Mike Dyer,503-302-3332,9/11/2018 12:00:00 AM,,,WA,0,0.00
109034,9/3/2018 8:38:03 PM,"OREGON STATE FAIR 8/24-9/3/18 SALEM,OR (WA)","OREGON STATE FAIR 8/24-9/3/18 SALEM,OR (WA)",Joseph Chan,DWA-9150USJ-9150CH,Legacy 3D,New Choco,1,"3 years parts, 1 year labor (Free)",CUSTOM COD,0.00,4200.00,4200.00,CreditCard,200.00,#KBuy,,,,,,COD,1900.00,,,,,,,PurchaseOrder,2100.00,,LAYAWAY,,,,,0.00,Timonthy Richards,503-901-8114,,,Customer needs time to make up the balance of down payment of $2100. Grand balance of $2100 to be paid off by 12 monthly payment of $175.00,WA,0,0.00
109035,9/3/2018 8:45:22 PM,"OREGON STATE FAIR 8/24-9/3/18 SALEM,OR (WA)","OREGON STATE FAIR 8/24-9/3/18 SALEM,OR (WA)",Joseph Chan,DWA-9150USJ-9150BL,Legacy 3D,New Black,1,"3 years parts, 1 year labor (Free)",CUSTOM Synchrony,0.00,4500.00,4500.00,Synchrony,2000.00,,,6019170813122758,93963070,Las Vegas,36 months,Synchrony,2000.00,,,6019170813122790,93963633,Las Vegas,36 months,COD,500.00,,,,,,,0.00,Gyrone Williams Sr,360-600-4377,,,Balance of $500 C.O.D.,WA,0,0.00
