﻿Original Event Name,Event Name,Sales Person,Order Number,Order Date,Customer Name,State,Zip,Product Name,Color,Product Status,QTY,Tax,Total Before Tax,Order Total,Primary Payment Method,Second Payment Method,Thirdl Payment Method,Warranty,Order Items,Pick up,Delivered On,Order Status,Chair Type,Order Notes,Private Note,Branch,No Tax,Actual Tax Rate,SKU,Primary Payment Balance,Primary Authorize Number,Primary Purchase Order Number,Primary Synchrony Account Number,Primary Synchrony Application Key,Primary Synchrony Account Info,Primary Synchrony Term,Primary Synchrony Primary ID,Primary Synchrony Issued State,Primary Synchrony Expiretion Date,Second Payment Balance,Second Authorize Number,Second Purchase Order Number,Second Synchrony Account Number,Second Synchrony Application Key,Second Synchrony Account Info,Second SynchronyTerm,Second Synchrony Primary ID,Second Synchrony Issued State,Second Synchrony Expiretion Date,Third Payment Balance,Third Authorize Number,Third Purchase Order Number,Third Synchrony Account Number,Third Synchrony Application Key,Third Synchrony Account Info,Third Synchrony Term,Third Synchrony Primary ID,Third Synchrony Issued State,Third Synchrony Expiretion Date
Balloon Fiesta 10/5-13/19,Balloon Fiesta 10/5-13/19,Jennifer Tran,121608,10/6/2019 4:02:32 AM,Abiola Shitta-Bey,FL,33304,Legacy 4,New Choco,New,1,0.00,4000.00,4000.00,Credit Card,,,"5 years parts, 1 year labor (Free)","Legacy 4,",No,,Called,,Deliver on OCT 25 or after,"Original received. $4000 verified on SQ. Paid in full-Erika 10/8/19 9:15am
CC, Jasmin Carrizales, 10/8/19, 3:11pm, VM",FL,1,7.88,LGCY-4LGCY-4CH,4000.00,#yUaZ,,,,,,,,/,0.00,,,,,,,,,/,0.00,,,,,,,,,/
Balloon Fiesta 10/5-13/19,Balloon Fiesta 10/5-13/19,Jennifer Tran,121609,10/6/2019 4:07:41 AM,Kristin Claridge,TX,78634,Orbit - 2,New Choco,New,2,0.00,6000.00,6000.00,Credit Card,,,"5 years parts, 1 year labor (Free)","Orbit - 2,",No,,Printed,,Deliver ASAP,"Original received. $6000 verified on SQ. Paid in full-Erika 10/8/19 9:20am
cc/text completed-Erika 10/8/19
Printed - Tina 10/9/2019
10/10 - Alysa - CC//TXT completed",TX,1,7.88,ORBT-1ORBT-2CH,6000.00,#GIrI,,,,,,,,/,0.00,,,,,,,,,/,0.00,,,,,,,,,/
Balloon Fiesta 10/5-13/19,Balloon Fiesta 10/5-13/19,Tom Nguyen,121610,10/6/2019 4:16:05 AM,Amy Montoya,NM,87112,Orbit - 2,Demo Choco,Demo,1,142.12,2554.75,2696.87,Credit Card,Synchrony,,"5 years parts, 1 year labor (Free)","Orbit - 2,",No,,Scheduled,,,"Total: $2,696.87 Deposit: $496.87(Card) Remaining: $2,200(Synchrony)
--- $496.87 verified by SQ. Synchrony original verified. Credit avail $2200. Charge sync acc (2200), have sales draft signed-Erika 10/8/19 9:30am
cc/text completed-Erika 10/8
Printed - Tina 10/9/2019
10/10 - Alysa - CC//TXT completed
10/21 - Alysa - Customer confirmed delivery Wed. 10/23 between 1-4PM. Synchrony Authorization Code
021644",TX,0,7.88,ORBT-1ORBT-2CH-DEMO,496.87,#X88x,,,,,,,,/,2200.00,,,6501723375353263,82068828,Huston,24 months,Driver’s License,NM,07/2023,0.00,,,,,,,,,/
Balloon Fiesta 10/5-13/19,Balloon Fiesta 10/5-13/19,Kristy Tran,121611,10/6/2019 4:32:44 AM,Lisa Pelofsky,MO,64064,Orbit - 3,New Choco,New,1,220.89,3554.91,3775.80,Synchrony,,,"5 years parts, 1 year labor (Free)","Orbit - 3,",No,,Printed,,,"*Orbit 3D remote*
Synchrony verified. Credit avail $9600. Remaining bal $3775.80. Charge sync acc, have sales draft signed-Erika 10/8/19 9:37am
cc/text completed-Erika 10/8
Printed - Tina 10/9/2019
10/10 - Alysa - CC//TXT completed",TX,0,7.88,ORBT-1ORBT-3CH,3775.80,,,6501723375353271,82068872,Huston,36 months,Driver’s License,MO,03/2020,0.00,,,,,,,,,/,0.00,,,,,,,,,/
Balloon Fiesta 10/5-13/19,Balloon Fiesta 10/5-13/19,Kristy Tran,121612,10/6/2019 4:42:12 AM,Rebecca Ulibarri,NM,87552,Orbit - 3,New Choco,New,1,205.14,3354.90,3560.04,Synchrony,,,"5 years parts, 1 year labor (Free)","Orbit - 3,",No,,Printed,,,"Orbit 3D Remote
-Sync acc verified. Credit avail $5000. Remaining bal $3560.04. Charge sync acc,have sales draft signed-Erika 10/8/19 9:42am
cc/text completed-Erika 10/8
Printed - Tina 10/9/2019
10/10 - Alysa - CC//TXT completed
10/21 v- Alysa - Tried to schedule customer Wed. 10/23 between 6-8PM. Customer will be out of town, requested next trip.",TX,0,7.88,ORBT-1ORBT-3CH,3560.04,,,6501723375355516,82112591,Huston,36 months,Driver’s License,NM,08/2025,0.00,,,,,,,,,/,0.00,,,,,,,,,/
Balloon Fiesta 10/5-13/19,Balloon Fiesta 10/5-13/19,Tom Nguyen,121647,10/6/2019 6:28:00 PM,Kimberly Nguyen,NM,87120,Relax 2 Zero 3D,Demo Black,Demo,1,0.00,4000.00,4000.00,Credit Card,COD,,"5 years parts, 1 year labor (Free)","Relax 2 Zero 3D,",No,,Scheduled,,,"Original received. $300 deposit verified by SQ. Remaining balance $3700. Collect COD @ delivery-Erika 10/8/19 9:50am
cc/text completed-Erika 10/8
Printed - Tina 10/9/2019
10/10 - Alysa - CC//TXT completed
10/21 - Alysa - Customer confirmed delivery Wed. 10/23 between 4-7PM.",TX,1,7.88,DWA-9060USJ-9060BL-DEMO,300.00,#6NlN,,,,,,,,/,0.00,,,,,,,,,/,0.00,,,,,,,,,/
Balloon Fiesta 10/5-13/19,Balloon Fiesta 10/5-13/19,Tom Nguyen,121648,10/6/2019 6:34:27 PM,Shannon Reichwein,MO,48323,Orbit - 3,New Black,New,1,181.51,3054.89,3236.40,Synchrony,,,"5 years parts, 1 year labor (Free)","Orbit - 3,",No,,Called,,,"Orbit 3D Remote
Synchrony original verified. Credit avail $4000. Remaining bal $3236.40. Charge sync acc, have sales draft signed-Erika 10/8/19 10:07am State is *MIchigan* Pls confirm address with customer
cc/text completed-Erika 10/8
10/09 - CC Customer to inform of order received - Karina",IL,0,7.88,ORBT-1ORBT-3BL,3236.40,,,6501723375355326,82106730,Huston,24 months,Driver’s License,MI,11/2020,0.00,,,,,,,,,/,0.00,,,,,,,,,/
Balloon Fiesta 10/5-13/19,Balloon Fiesta 10/5-13/19,Jennifer Tran,121649,10/6/2019 6:41:26 PM,Bernadette Martinez,NM,87121,Orbit - 2,New Choco,New,1,0.00,3000.00,3000.00,Synchrony,COD,,"5 years parts, 1 year labor (Free)","Orbit - 2,",No,,Scheduled,,,"Synchrony $1,500 for 24 months. Credit Card $1,500 on delivery.
-Synchrony original verified. Credit avail $1500. Charge sync acc(1500), have sales draft signed. Remaining balance $1500. Collect COD @ delivery-Erika 10/8/19 10:14am
cc/text completed-Erika 10/8/19
Printed - Tina 10/9/2019
10/10 - Alysa - CC//TXT completed
10/21 - Alysa - Customer confirmed delivery Wed. 10/23 between 3-6PM. Synchrony Authorization Code
021460",TX,1,7.88,ORBT-1ORBT-2CH,1500.00,,,6501723375355607,82116169,Huston,24 months,Driver’s License,NM,09/2022,0.00,,,,,,,,,/,0.00,,,,,,,,,/
Balloon Fiesta 10/5-13/19,Balloon Fiesta 10/5-13/19,Tom Nguyen,121650,10/6/2019 6:44:43 PM,Marc & Gwen McGranahan,NM,87043,PEGASUS 2 SMART,New Choco,New,1,0.00,6500.00,6500.00,Credit Card,,,"5 years parts, 1 year labor (Free)","PEGASUS 2 SMART,",No,,Printed,,,"Original received. $6500 verified by SQ. Paid in full-Erika 10/8/19 10:16am
cc/text completed-Erika 10/8
Printed - Tina 10/9/2019
10/10 - Alysa - CC//TXT completed
10/17 - Alysa - Customer called for ETA, informed shipment for chair will be arriving tomorrow (Fri. 10/18) and we will contact to schedule tomorrow or early next week.",TX,1,7.88,PEGS-2PEGS-2-BR,6500.00,#4tVZ,,,,,,,,/,0.00,,,,,,,,,/,0.00,,,,,,,,,/
Balloon Fiesta 10/5-13/19,Balloon Fiesta 10/5-13/19,Jennifer Tran,121688,10/8/2019 6:39:08 AM,Michael Berkeley,TX,77019,Legacy 4,Demo Choco,Demo,1,0.00,3500.00,3500.00,Credit Card,,,"5 years parts, 1 year labor (Free)","Legacy 4,",No,,Printed,,,"*Deliver Free Daiwa blanket with chair*
Original received. $3500 verified by SQ. Paid in full-Erika 10/8/19 10:18am
cc/text completed-Erika 10/8
Printed - Tina 10/9/2019
10/10 - Alysa - CC//TXT completed",TX,1,7.88,LGCY-4LGCY-4CH-DEMO,3500.00,#79mu,,,,,,,,/,0.00,,,,,,,,,/,0.00,,,,,,,,,/
Balloon Fiesta 10/5-13/19,Balloon Fiesta 10/5-13/19,Kristy Tran,121689,10/8/2019 6:52:21 AM,Valeria Cucchiarelli,CO,80238,Orbit - 3,New Choco,New,1,220.89,3554.91,3775.80,Synchrony,,,"5 years parts, 1 year labor (Free)","Orbit - 3,",No,,Scheduled,,Existing Synchrony Account,"Orbit 3D Remote
Sync original verified. Credit avail $4500. Remaining balance $3775.80. Charge sync acc, have sales draft signed-Erika 10/8/19 10:25am
cc/text completed-Erika 10/8
Printed - Tina 10/9/2019
10/10 - Alysa - CC//TXT completed
10/21 - Alysa - Customer confirmed delivery Fri. 10/25 between 8-11AM. Authorization Code
021169",TX,0,7.88,ORBT-1ORBT-3CH,3775.80,,,6034590038192628,,,24 months,Driver’s License,CO,03/2020,0.00,,,,,,,,,/,0.00,,,,,,,,,/
Balloon Fiesta 10/5-13/19,Balloon Fiesta 10/5-13/19,Kristy Tran,121690,10/8/2019 6:57:28 AM,Margaret Pino,NM,87120,Orbit - 3,New Choco,New,1,0.00,3500.00,3500.00,Credit Card,,,"5 years parts, 1 year labor (Free)","Orbit - 3,",No,,Scheduled,,PAID IN FULL,"Orbit 3D Remote
Original received. Sq amount verified $3500. Paid in full-Erika 10/8/19 10:31am
cc/text completed-Erika 10/8
Printed - Tina 10/9/2019
10/10 - Alysa - CC//TXT completed
10/21 - Alysa - Customer confirmed delivery Wed. 10/23 between 2-5PM.",TX,1,7.88,ORBT-1ORBT-3CH,3500.00,#7o4S,,,,,,,,/,0.00,,,,,,,,,/,0.00,,,,,,,,,/
Balloon Fiesta 10/5-13/19,Balloon Fiesta 10/5-13/19,Tom Nguyen,121691,10/8/2019 7:04:26 AM,Truong Hua,WA,98118,Legacy 4,New Black,New,1,0.00,3600.00,3600.00,Credit Card,,,"5 years parts, 1 year labor (Free)","Legacy 4,",No,,Printed,,"Schedule a day and time for customer to come out to Kent office to try chair with dad. 
Deposit is refundable after testing chair.
Package Deal.",Original received. SQ amount verified $500. Remaining bal $3100. Per sales rep schedule a day & time for customer to come to kent office and try the chair out-Erika 10/8/19 10:34am,WA,1,7.88,LGCY-4LGCY-4BL,500.00,#9lPp,,,,,,,,/,0.00,,,,,,,,,/,0.00,,,,,,,,,/
Balloon Fiesta 10/5-13/19,Balloon Fiesta 10/5-13/19,Tom Nguyen,121692,10/8/2019 7:07:48 AM,Emily Wong,WA,98125,Legacy 4,New Choco,New,1,0.00,3600.00,3600.00,Credit Card,,,"5 years parts, 1 year labor (Free)","Legacy 4,",No,,Printed,,"Schedule a day and time for customer to come out to Kent office to try chair with dad. 
Deposit is refundable after testing chair.
Package Deal.",Original received. SQ amount verified $200. Remaining bal $3400. Per sales rep schedule a day & time for customer to come to kent office and try the chair out-Erika 10/8/19 10:34am,WA,1,7.88,LGCY-4LGCY-4CH,200.00,#5ohF,,,,,,,,/,0.00,,,,,,,,,/,0.00,,,,,,,,,/
Balloon Fiesta 10/5-13/19,Balloon Fiesta 10/5-13/19,Tom Nguyen,121706,10/9/2019 8:49:58 AM,Carlos Carrillo,TX,75189,Legacy 4,Demo Black,Demo,1,260.26,4054.94,4315.20,Synchrony,,,"5 years parts, 1 year labor (Free)","Legacy 4,",No,,Scheduled,,,"Sync acc verified. Credit avail $6800. Remaining balance $4315.20. Charge sync acc, have sales draft signed-Erika 10/11/19 9:34am
cc/text completed-Erika 10/11
Scheduled for delivery Mon 0ct 21 1-3pm - Tina 10/21/2019",TX,0,7.88,LGCY-4LGCY-4BL-DEMO,4315.20,,,6501723375358486,82201219,Huston,48 months,Driver’s License,TX,03/2023,0.00,,,,,,,,,/,0.00,,,,,,,,,/
Balloon Fiesta 10/5-13/19,Balloon Fiesta 10/5-13/19,Jennifer Tran,121707,10/9/2019 8:54:27 AM,Patricia Wylie,NM,87120,PEGASUS 2 SMART,New Choco,New,1,0.00,6500.00,6500.00,Synchrony,,,"5 years parts, 1 year labor (Free)","PEGASUS 2 SMART,",No,,Printed,,,"Synchrony original verified. Credit avail $9000. Remaining balance $6500. Charge sync acc, have sales draft signed-Erika 10/11/19 9:30am
cc/text completed-Erika 10/11
Printed - Tina 10/18/2019",TX,1,7.88,PEGS-2PEGS-2-BR,6500.00,,,6501723375359716,82244997,Huston,36 months,Driver’s License,NM,10/2023,0.00,,,,,,,,,/,0.00,,,,,,,,,/
Balloon Fiesta 10/5-13/19,Balloon Fiesta 10/5-13/19,Jennifer Tran,121708,10/9/2019 9:03:43 AM,Alma Caraveo,NM,88210,Legacy 4,New Black,New,1,299.64,4554.96,4854.60,Synchrony,,,"5 years parts, 1 year labor (Free)","Legacy 4,",No,10/11/2019 12:00:00 AM,Cancelled,,,"cancel incorrect info-Erika 10/11
New order#121744",Not Dispatched,0,7.88,LGCY-4LGCY-4BL,0.00,,,6501723375359757,82250206,Huston,36 months,Driver’s License,NM,11/2025,0.00,,,,,,,,,/,0.00,,,,,,,,,/
Balloon Fiesta 10/5-13/19,Balloon Fiesta 10/5-13/19,Jennifer Tran,121744,10/11/2019 9:14:56 AM,Alma Caraveo,NM,88210,Legacy 4,New Black,New,1,0.00,4854.60,4854.60,Synchrony,,,"5 years parts, 1 year labor (Free)","Legacy 4,",No,,Scheduled,,,"Synchrony original verified. Credit avail $6800, remaining balance $4854.60. Charge sync acc, have sales draft signed-Erika 10/11/19 9:25am
cc/text completed-Erika 10/11
print 10/17/2019 June
10/21 - Alysa - Customer confirmed delivery Tues. 10/22 between 6-8PM. Synchrony Authorization Code
021448",TX,1,7.88,LGCY-4LGCY-4BL,4854.60,,,6501723375359757,82250206,Huston,36 months,Driver’s License,NM,11/2025,0.00,,,,,,,,,/,0.00,,,,,,,,,/
Balloon Fiesta 10/5-13/19,Balloon Fiesta 10/5-13/19,Tom Nguyen,121752,10/11/2019 5:32:59 PM,Bruce Rienzo,NM,87120,Orbit - 3,Demo Black,Demo,1,236.26,3000.14,3236.40,Synchrony,,,"5 years parts, 1 year labor (Free)","Orbit - 3,",YES,10/13/2019 12:00:00 AM,Delivered,Demo,,"Original received. Chair was delivered already and fully paid. Sales draft signed, auth#011831-Erika 10/15/19 1:45pm",TX,0,7.88,ORBT-1ORBT-3BL-DEMO,0.00,,,6501723375360920,82293458,Huston,36 months,Driver’s License,NM,02/2026,0.00,,,,,,,,,/,0.00,,,,,,,,,/
Balloon Fiesta 10/5-13/19,Balloon Fiesta 10/5-13/19,Jennifer Tran,121753,10/11/2019 5:40:14 PM,Brenda Moore,NM,79124,Legacy 4,Demo Black,Demo,1,0.00,3800.00,3800.00,Synchrony,,,"5 years parts, 1 year labor (Free)","Legacy 4,",YES,10/13/2019 12:00:00 AM,Delivered,Demo,,"Authorization #: 011111
Customer will pick up October 13th.
Serial #: 0203001180004
--Synchrony original verified. Acc has been charged already, sales draft signed. Auth#011111. Chair has been delivered already-Erika 10/15/19 11:10am",TX,1,7.88,LGCY-4LGCY-4BL-DEMO,3800.00,,,6501723375363064,82376972,Huston,36 months,Driver’s License,TX,01/2020,0.00,,,,,,,,,/,0.00,,,,,,,,,/
Balloon Fiesta 10/5-13/19,Balloon Fiesta 10/5-13/19,Kristy Tran,121760,10/12/2019 3:53:12 PM,Carmen Robinson,UT,84066,Legacy 4,New Black,New,1,0.00,3500.00,3500.00,Credit Card,,,"5 years parts, 1 year labor (Free)","Legacy 4,",No,,Cancelled,,,Canceled Per sales rep jennifer inputted wrong name new order#121762-Erika 10/14,Not Dispatched,1,7.88,LGCY-4LGCY-4BL,3500.00,#Vl6N,,,,,,,,/,0.00,,,,,,,,,/,0.00,,,,,,,,,/
Balloon Fiesta 10/5-13/19,Balloon Fiesta 10/5-13/19,Kristy Tran,121762,10/12/2019 4:00:08 PM,Carmen Robison,UT,84066,Legacy 4,New Black,New,1,0.00,3500.00,3500.00,Credit Card,,,"5 years parts, 1 year labor (Free)","Legacy 4,",No,,Printed,,,"Original received. $3500 verified on SQ. Paid in full-Erika 10/15/19 11:12am
cc/text completed-Erika 10/15",NV,1,7.88,LGCY-4LGCY-4BL,3500.00,#Vl6N,,,,,,,,/,0.00,,,,,,,,,/,0.00,,,,,,,,,/
Balloon Fiesta 10/5-13/19,Balloon Fiesta 10/5-13/19,Kristy Tran,121763,10/12/2019 4:27:20 PM,Randi Robison,UT,84121,Legacy 4,New Black,New,1,0.00,3500.00,3500.00,Credit Card,COD,,"5 years parts, 1 year labor (Free)","Legacy 4,",No,,Printed,,,"Original received. $200 verified by SQ. Remaining balance $3300. Collect COD @ delivery-Erika 10/15/19 12:04pm
cc/text completed-Erika 10/15",NV,1,7.88,LGCY-4LGCY-4BL,200.00,#tUej,,,,,,,,/,0.00,,,,,,,,,/,0.00,,,,,,,,,/
Balloon Fiesta 10/5-13/19,Balloon Fiesta 10/5-13/19,Tom Nguyen,121764,10/12/2019 4:39:12 PM,Rachael Harrington-Sanchez,NM,87413,Relax 2 Zero 3D,New Choco,New,2,0.00,9000.00,9000.00,Synchrony,,,"5 years parts, 1 year labor (Free)","Relax 2 Zero 3D,",No,,Scheduled,,,"Customer has existing Synchrony account with $9,900 available credit. Please charge $9000 for 36 months.
-Synchrony original verified. Credit avail $9900. Remaining balance $9000. Charge sync acc, have sales draft signed-Erika 10/15/19 12:17pm
cc/text completed-Erika 10/15
print 10/17/2019 June
10/21 - Alysa - customer confirmed delivery Thursday 10/24 between 10-2PM. Synchrony Authorization Code
021022",TX,1,7.88,DWA-9060USJ-9060BR,9000.00,,,6034623337270116,,,36 months,Driver’s License,NM,02/2027,0.00,,,,,,,,,/,0.00,,,,,,,,,/
Balloon Fiesta 10/5-13/19,Balloon Fiesta 10/5-13/19,Kristy Tran,121765,10/12/2019 4:48:12 PM,Austin Perkins,MN,56007,Relax 2 Zero 3D,New Black,New,1,0.00,4000.00,4000.00,Credit Card,,,"5 years parts, 1 year labor (Free)","Relax 2 Zero 3D,",No,,Scheduled,,,"Original received. SQ amount verified $4000. Paid in full-Erika 10/15/19 12:25pm
cc/text completed-Erika 10/15
10/17 CC Customer to inform of Oder Received LVM - Karina
10/17-Confirmed delivery for 11/7- 2:30pm-6:30pm-Karen",IL,1,7.88,DWA-9060USJ-9060BL,4000.00,#rFPE,,,,,,,,/,0.00,,,,,,,,,/,0.00,,,,,,,,,/
Balloon Fiesta 10/5-13/19,Balloon Fiesta 10/5-13/19,Tom Nguyen,121795,10/13/2019 10:15:36 AM,Jake Langeslag,MN,55021,Orbit - 3,New Black,New,1,0.00,3500.00,3500.00,Credit Card,,,"5 years parts, 2 years labor ($200)","Orbit - 3,",No,,Scheduled,,,"Original received. SQ amount verified $500. remaining balance $3000. Collect COD @ delivery-Erika 10/15 12:33pm
cc/text completed-Erika 10/15 
10/17 CC Customer to inform of Order Received LVM - Karina
10/17-Confirmed delivery for 11/7 4:30pm-8pm-Karen",IL,1,7.88,ORBT-1ORBT-3BL,500.00,#NOHz,,,,,,,,/,0.00,,,,,,,,,/,0.00,,,,,,,,,/
