﻿Original Event Name,Event Name,Sales Person,Order Number,Order Date,Customer Name,State,Zip,Product Name,Color,Product Status,QTY,Tax,Total Before Tax,Order Total,Primary Payment Method,Second Payment Method,Thirdl Payment Method,Warranty,Order Items,Pick up,Delivered On,Order Status,Chair Type,Order Notes,Private Note,Branch,No Tax,Actual Tax Rate,SKU,Primary Payment Balance,Primary Authorize Number,Primary Purchase Order Number,Primary Synchrony Account Number,Primary Synchrony Application Key,Primary Synchrony Account Info,Primary Synchrony Term,Second Payment Balance,Second Authorize Number,Second Purchase Order Number,Second Synchrony Account Number,Second Synchrony Application Key,Second Synchrony Account Info,Second SynchronyTerm,Third Payment Balance,Third Authorize Number,Third Purchase Order Number,Third Synchrony Account Number,Third Synchrony Application Key,Third Synchrony Account Info,Third Synchrony Term
"MARICOPA COUNTY HM & GD 5/3-5/19 SCOTTSDALE,AZ (NV)","MARICOPA COUNTY HM & GD 5/3-5/19 SCOTTSDALE,AZ (NV)",Querubin Milanes,117134,5/5/2019 10:36:35 AM,Demarie Wong,AZ,85249,Legacy 3D,New Black,New,1,0.00,4500.00,4500.00,Synchrony,,,"5 years parts, 1 year labor (Free)","Legacy 3D,",No,,Assigned,,,"Please deliver after June 20,2019
5/6/19 Confirmed SYNC$7,000 and original. [DL:AZ 12/2024, CC:VISA 09/22] ***Please charge $4,500/sales draft***-Hitomi
5/6Maritza- Courtesy message sent @ 1:37PM please deliver after June 20th.",NV,1,8.05,DWA-9150USJ-9150BL,4500.00,,,6501723375130521,74890857,Las Vegas,36 months,0.00,,,,,,,0.00,,,,,,
"MARICOPA COUNTY HM & GD 5/3-5/19 SCOTTSDALE,AZ (NV)","MARICOPA COUNTY HM & GD 5/3-5/19 SCOTTSDALE,AZ (NV)",Querubin Milanes,117136,5/5/2019 10:40:35 AM,Travis Bryce,AZ,85249,Relax 2 Zero 3D,New Black,New,1,0.00,4500.00,4500.00,Synchrony,,,"5 years parts, 1 year labor (Free)","Relax 2 Zero 3D,",No,5/15/2019 12:00:00 AM,Delivered,New,,"5/6/19 Confirmed SYNC$6,800 and original. [DL:AZ 07/2040, CC: MASTER 07/2020]***Please charge $4,500 / sales draft ***-Hitomi
5/6Maritza- Courtesy message sent @ 1:38PM",NV,1,8.05,DWA-9060USJ-9060BL,4500.00,,,6501723375130802,74895391,Las Vegas,36 months,0.00,,,,,,,0.00,,,,,,
"MARICOPA COUNTY HM & GD 5/3-5/19 SCOTTSDALE,AZ (NV)","MARICOPA COUNTY HM & GD 5/3-5/19 SCOTTSDALE,AZ (NV)",Querubin Milanes,117137,5/5/2019 10:47:58 AM,Karl Michel,AZ,85254,PEGASUS 2 SMART,New Black,New,1,0.00,5800.00,5800.00,Synchrony,,,"5 years parts, 1 year labor (Free)","PEGASUS 2 SMART,",No,,Assigned,,,"No synchrony payment til after chair received.
Please call the customer after JUNE 5th for delivery schedule
5/6/19 Confirmed SYNC$7,000 and original. [DL: AZ 07/2027, CC:MASTER 03/2022]***Please charge $5,800/sales draft signed***-Hitomi
5/6Maritza- Courtesy text sent @ 1:40PM Please deliver until June 5th",NV,1,8.05,PEGS-2PEGS-2-BL,5800.00,,,6501723375131578,74910089,Las Vegas,48 months,0.00,,,,,,,0.00,,,,,,
"MARICOPA COUNTY HM & GD 5/3-5/19 SCOTTSDALE,AZ (NV)","MARICOPA COUNTY HM & GD 5/3-5/19 SCOTTSDALE,AZ (NV)",Rolly San Jose,117177,5/5/2019 7:40:47 PM,Jamee Emens,AZ,85255,Relax 2 Zero 3D,Demo Choco,Demo,1,0.00,4200.00,4200.00,Synchrony,,,"5 years parts, 1 year labor (Free)","Relax 2 Zero 3D,",No,,Cancelled,,,"Pls deliver demo chair. Already placed sale order receipt copy underneath the chair. Pls clean and disinfect thoroughly before delivery.
5/6/19 Confirmed SYNC$9,000 and original. [DL:AZ 03/26, CC:VISA 12/23] ***Please charge $4,200/sales draft***- Hitomi
5/6Maritza- Courtesy message sent @ 1:57PM
5/7Maritza- Customer texted after business hours yesterday and wanted to cancel their order. I have sent them Rolly's number and informed them that card has not been charged.
5/13Maritza- Rolly has confirmed cancellation. Order is now officially cancelled.",NV,1,8.05,DWA-9060USJ-9060BR-DEMO,4200.00,,,6501723375132956,74937074,Las Vegas,36 months,0.00,,,,,,,0.00,,,,,,
"MARICOPA COUNTY HM & GD 5/3-5/19 SCOTTSDALE,AZ (NV)","MARICOPA COUNTY HM & GD 5/3-5/19 SCOTTSDALE,AZ (NV)",Rolly San Jose,117181,5/5/2019 7:56:03 PM,Daneen Walker,AZ,85340,Relax 2 Zero 3D,Demo Black,Demo,1,0.00,4200.00,4200.00,Credit Card,,,"5 years parts, 1 year labor (Free)","Relax 2 Zero 3D,",No,5/15/2019 12:00:00 AM,Delivered,Demo,,"Deliver demo chair strictly
5/6/19-Confirmed $4,200.00 in SQ. -Hitomi
5/6Maritza- Courtesy message sent @ 2PM",NV,1,8.05,DWA-9060USJ-9060BL-DEMO,4200.00,SQ# wVWa,,,,,,0.00,,,,,,,0.00,,,,,,
"MARICOPA COUNTY HM & GD 5/3-5/19 SCOTTSDALE,AZ (NV)","MARICOPA COUNTY HM & GD 5/3-5/19 SCOTTSDALE,AZ (NV)",Rolly San Jose,117195,5/6/2019 11:24:51 AM,Dan Sutton,AZ,85306,Relax 2 Zero 3D,Demo Choco,Demo,1,0.00,4200.00,4200.00,Credit Card,,,"5 years parts, 1 year labor (Free)","Relax 2 Zero 3D,",No,5/15/2019 12:00:00 AM,Delivered,Demo,,"Deliver demo chair only. The sales order receipt was placed underneath the chair. Pls deliver with rest of the orders within 2 weeks.
5/6/19-Confirmed $4,200.00 in SQ. -Hitomi
5/6Maritza- Courtesy message sent @ 2PM",NV,1,8.05,DWA-9060USJ-9060BR-DEMO,4200.00,SQ# RjeN,,,,,,0.00,,,,,,,0.00,,,,,,
"MARICOPA COUNTY HM & GD 5/3-5/19 SCOTTSDALE,AZ (NV)","MARICOPA COUNTY HM & GD 5/3-5/19 SCOTTSDALE,AZ (NV)",Rolly San Jose,117196,5/6/2019 11:31:53 AM,Grace Nolan,AZ,85339,Relax 2 Zero 3D,Demo Black,Demo,1,0.00,4200.00,4200.00,Synchrony,,,"5 years parts, 1 year labor (Free)","Relax 2 Zero 3D,",No,5/15/2019 12:00:00 AM,Delivered,Demo,,"Deliver demo chair only. Sales order receipt is underneath the chair. Pls clean and disinfect very well all demo chairs before delivery. Deliver within 2 weeks.
5/6/19-Confirmed SYNC$7,000 and original. [DL:AZ 1/2022, CC: DISCOVER 09/2020] ***Please charge $4,200/sales draft***-Hitomi
5/6Maritza- Courtesy message sent @ 2:02PM",NV,1,8.05,DWA-9060USJ-9060BL-DEMO,4200.00,,,6501723375133285,74940477,Las Vegas,36 months,0.00,,,,,,,0.00,,,,,,
