﻿Original Event Name,Event Name,Sales Person,Order Number,Order Date,Customer Name,State,Zip,Product Name,Color,Product Status,QTY,Tax,Total Before Tax,Order Total,Primary Payment Method,Second Payment Method,Thirdl Payment Method,Warranty,Order Items,Pick up,Delivered On,Order Status,Chair Type,Order Notes,Private Note,Branch,No Tax,Actual Tax Rate,SKU,Primary Payment Balance,Primary Authorize Number,Primary Purchase Order Number,Primary Synchrony Account Number,Primary Synchrony Application Key,Primary Synchrony Account Info,Primary Synchrony Term,Second Payment Balance,Second Authorize Number,Second Purchase Order Number,Second Synchrony Account Number,Second Synchrony Application Key,Second Synchrony Account Info,Second SynchronyTerm,Third Payment Balance,Third Authorize Number,Third Purchase Order Number,Third Synchrony Account Number,Third Synchrony Application Key,Third Synchrony Account Info,Third Synchrony Term,First Name,Last Name,Email,Shipping Company,Shipping Address1,Shipping Address2,Shipping Suite,Shipping City,Shipping State,Shipping Zip,Shipping Country,Shipping Phone
CES 1/8-11/19 LAS VEGAS (NV),CES 1/8-11/19 LAS VEGAS (NV),Rodrigo Malabunga,114029,1/9/2019 8:17:13 AM,Arturo Dela Cruz,TX,77339,PEGASUS 2 SMART,New Choco,New,1,0.00,4700.00,4700.00,CreditCard,CreditCard,,"5 years parts, 2 years labor ($200)","PEGASUS 2 SMART,",No,,Hold,,,"HOLD for now the customer not ready to receive the chair yet
$100.00 down
$4600 balanced 
Total $4700.00",Not Dispatched,1,8.25,PEGS-2PEGS-2-BR,100.00,Sq #HK1X,,,,,,4600.00,,,,,,,0.00,,,,,,,Arturo,Dela Cruz,artelsa@gmail.com,,1910 windy park dr,,,Kingwood,TX,77339,United States,281-312-2660
CES 1/8-11/19 LAS VEGAS (NV),CES 1/8-11/19 LAS VEGAS (NV),Rolly San Jose,114030,1/9/2019 8:27:07 AM,Benny Lee,GA,30062,Relax2Zero 3D,New Choco,New,1,0.00,3700.00,3700.00,Synchrony,,,"5 years parts, 2 years labor ($200)","Relax2Zero 3D,",No,1/24/2019 12:00:00 AM,Delivered,New,,"When Scheduling customer requested a color change to BLACK
* will include FootVibe upon delivery due to scheduling conflict *
Confirmed synchrony approved $8,500 under KOK LEE(confirmed with Rolly KOK is real name.). Need to confirm original. --- 1/9/19 Asumi
Confirmed original application form and invoice. Please charge $3,700.00 before delivery and sales draft have signed. --- 1/10/19 Asumi
courtesy call/text completed- Cristina 1:50 pm.",FL,1,8.25,DWA-9060USJ-9060BR,3700.00,,,6019170813331045,99531400,San Diego,12 months,0.00,,,,,,,0.00,,,,,,,Benny,Lee,bennyleedesign@gmail.com,,2200 spear point drive,,,Marietta,GA,30062,United States,678-464-4095
CES 1/8-11/19 LAS VEGAS (NV),CES 1/8-11/19 LAS VEGAS (NV),Rolly San Jose,114031,1/9/2019 8:27:49 AM,patrick ku,GA,30068,Relax2Zero 3D,New Choco,New,1,0.00,3700.00,3700.00,CreditCard,,,"5 years parts, 2 years labor ($200)","Relax2Zero 3D,",No,1/17/2019 12:00:00 AM,Delivered,New,,"CC Josefina - 1/10/19 VM
Confirmed $3,700 on square. --- 1/9/19 Asumi",FL,1,8.25,DWA-9060USJ-9060BR,3700.00,sq# SZkO,,,,,,0.00,,,,,,,0.00,,,,,,,patrick,ku,defaultmail@daiwamassage.com,,2667 weddington place ne,,,marietta,GA,30068,United States,678-641-3746
CES 1/8-11/19 LAS VEGAS (NV),CES 1/8-11/19 LAS VEGAS (NV),Ruben Cuatrona,114033,1/9/2019 8:44:16 AM,dave king,MA,01453,Relax2Zero 3D,Demo Choco,Demo,1,0.00,3500.00,3500.00,,COD,,"5 years parts, 1 year labor (Free)","Relax2Zero 3D,",No,,Scheduled,,,"1/9/19 - Transaction has not been found in Square. contacted to Ruben asked detail.--Hitomi
1/16/19-Per,Rod, Ruben is contacting the customer.  He will let us know once he finds out --Hitomi
01/21/19- Customers Deposit did not go thru, Possibly because of the service at the convention Per Ruben charge full amount at the delivery- Cristina 9:40 am ( info via text Sat 01/19/19 8:52 am)
1/22Chikasa will contact us with a delivery date/time.
01/22- Customer is aware of deposit glitch and is willing to pay upfront for the full chair once delivered ( Cikasa Please call Dav and provide him with delivery date and time- Thanks - Cristina 3:53 pm",TX,1,8.25,DWA-9060USJ-9060BR-DEMO,0.00,,,,,,,3500.00,,,,,,,0.00,,,,,,,dave,king,defaultmail@daiwamassage.com,,55 mead st,,,leominster,MA,01453,United States,978-580-7100
CES 1/8-11/19 LAS VEGAS (NV),CES 1/8-11/19 LAS VEGAS (NV),Rodrigo Malabunga,114043,1/10/2019 12:41:26 AM,Josh Siegel,IL,60302,PEGASUS 2 SMART,New Black,New,1,0.00,5100.00,5100.00,CreditCard,,,"5 years parts, 2 years labor ($200)","PEGASUS 2 SMART,",No,,Scheduled,,,"Confirmed $5,100 in square. --- 1/10/19 Asumi
1/11Maritza Courtesy messages sent @ 11:30AM",TX,1,8.25,PEGS-2PEGS-2-BL,5100.00,BP9X,,,,,,0.00,,,,,,,0.00,,,,,,,Josh,Siegel,defaultmail@daiwamassage.com,,1943 wood bin ave,,,Oak park,IL,60302,United States,708-934-7199
CES 1/8-11/19 LAS VEGAS (NV),CES 1/8-11/19 LAS VEGAS (NV),Rodrigo Malabunga,114044,1/10/2019 12:47:00 AM,Mike (yamaha) Venziano,IL,60441,PEGASUS 2 SMART,New Black,New,1,0.00,5100.00,5100.00,CreditCard,,,"5 years parts, 2 years labor ($200)","PEGASUS 2 SMART,",No,,Scheduled,,,"Confirmed $5,100.00 on square. ---1/10/18 Asumi
1/11Maritza- Courtesy messages sent @ 11:41AM",TX,1,8.25,PEGS-2PEGS-2-BL,5100.00,Sq#nf8h,,,,,,0.00,,,,,,,0.00,,,,,,,Mike (yamaha),Venziano,defaultmail@daiwamassage.com,,14354 s archer ave,,,Lockport,IL,60441,United States,815-838-8130
CES 1/8-11/19 LAS VEGAS (NV),CES 1/8-11/19 LAS VEGAS (NV),Rodrigo Malabunga,114045,1/10/2019 12:55:44 AM,Daryl Hidrosollo,NV,89178,Relax2Zero 3D,New Choco,New,1,0.00,3900.00,3900.00,Synchrony,,,"5 years parts, 2 years labor ($200)","Relax2Zero 3D,",No,1/19/2019 12:00:00 AM,Delivered,New,,"Confirmed synchrony approved $6,500.00.  Please deliver chair with a  Free Tourmaline Pad. (INVOICE : Leather pad is included as an accessorie of the chair originally. 5 years parts, 2 years labor is correct. )spoke to Rod--- 1/10/19 Asumi",NV,1,8.25,DWA-9060USJ-9060BR,3900.00,,,6019170813331342,99549205,Las Vegas,48 months,0.00,,,,,,,0.00,,,,,,,Daryl,Hidrosollo,defaultmail@daiwamassage.com,,7271 Ellesser ave,,,Las Vegas,NV,89178,United States,702-501-6901
CES 1/8-11/19 LAS VEGAS (NV),CES 1/8-11/19 LAS VEGAS (NV),Ruben Cuatrona,114049,1/10/2019 9:29:32 AM,Deb Frey,CO,80020,Relax2Zero 3D,Demo Black,Demo,1,0.00,3500.00,3500.00,Synchrony,,,"5 years parts, 1 year labor (Free)","Relax2Zero 3D,",No,,Scheduled,,,"Free tourmaline pad
Confirmed synchrony approved $5,000.00.  
 Confirmed from Rod  Debra L Frey  and Deb Frey is same person--- 1/14/19 Asumi
1/15Maritza- Courtesy message sent @ 10:54AM",TX,1,8.25,DWA-9060USJ-9060BL-DEMO,3500.00,,,6019170813332159,99577139,Las Vegas,36 months,0.00,,,,,,,0.00,,,,,,,Deb,Frey,debfrey1972@gmail.com,,1115 sage st,,,Broomfield,CO,80020,United States,303-304-9644
CES 1/8-11/19 LAS VEGAS (NV),CES 1/8-11/19 LAS VEGAS (NV),Ruben Cuatrona,114050,1/10/2019 9:35:47 AM,Elaine O Dell,CA,93230,Relax2Zero 3D,Demo Black,Demo,1,0.00,3500.00,3500.00,Synchrony,,,"5 years parts, 1 year labor (Free)","Relax2Zero 3D,",No,1/25/2019 12:00:00 AM,Delivered,New,,"Free tourmaline
Confirmed synchrony approved $6,000.00  Will confirm original. --- 1/10/19 Asumi
Elain and David are couple. He has two houses. Phone# on invoice is David's, Rod said we can contact either Elaine and David. --- 1/14/19 Asumi",CA,1,8.25,DWA-9060USJ-9060BL-DEMO,3500.00,,,6019170813332142,99577125,Las Vegas,36 months,0.00,,,,,,,0.00,,,,,,,Elaine,O Dell,defaultmail@daiwamassage.com,,879 w redwood st,,,Hanford,CA,93230,United States,559-410-6517
CES 1/8-11/19 LAS VEGAS (NV),CES 1/8-11/19 LAS VEGAS (NV),Keith Kei,114051,1/10/2019 9:38:33 AM,steve satoshi kawamura,CA,90211,PEGASUS 2 SMART,New Black,New,1,0.00,4000.00,4000.00,CreditCard,,,"5 years parts, 1 year labor (Free)","PEGASUS 2 SMART,Foot Pads for Pegasus,",No,,Scheduled,,"Trade in discounted, Must pick up the trade-in Relax2Zero 3D on delivery.","REMEMBER TO PICK UP PREVIOUS RELAX2ZERO 3D for trade in discount
Confirmed $4,000.00 in square. --- 1/10/10 Asumi",CA,1,8.25,PEGS-2PEGS-2-BL,4000.00,Square# JEAf,,,,,,0.00,,,,,,,0.00,,,,,,,steve satoshi,kawamura,kcskcskcskcs@hotmail.com,,443 s la peer dr,,,beverly hill,CA,90211,United States,310-714-2781
CES 1/8-11/19 LAS VEGAS (NV),CES 1/8-11/19 LAS VEGAS (NV),Keith Kei,114053,1/10/2019 9:42:06 AM,chris meyer,MO,63367,Relax2Zero 3D,Demo Choco,Demo,1,0.00,3800.00,3800.00,CreditCard,,,"5 years parts, 1 year labor (Free)","Relax2Zero 3D,",No,,Cancelled,,,"Confirmed $3,800 in square. --- 1/10/19 Asumi
1/11Maritza- Courtesy message sent @ 11:49AM
1/24Maritza- Received text from customer to cancel order and credit. Already spoke with Keith and sent him customers information. He will update me with further information
1/28Maritza Issued full refund through square @ 10:40AM",TX,1,8.25,DWA-9060USJ-9060BR-DEMO,3800.00,FnGn,,,,,,0.00,,,,,,,0.00,,,,,,,chris,meyer,defaultmail@daiwamassage.com,,78 rue grand dr,,,lake st. louis,MO,63367,United States,636-439-5051
CES 1/8-11/19 LAS VEGAS (NV),CES 1/8-11/19 LAS VEGAS (NV),Ruben Cuatrona,114054,1/10/2019 9:43:24 AM,Jenn Given,IL,60504,Relax2Zero 3D,Demo Choco,Demo,1,0.00,3500.00,3500.00,CreditCard,COD,,"5 years parts, 1 year labor (Free)","Relax2Zero 3D,",No,,Scheduled,,,"Down payment $200.00
Balanced COD $3300.00
Total priced $3500.00

Confirmed $200.00 in square. Please charge COD$3,300.00. --- 1/10/19 Asumi
1/11Maritza Courtesy message sent @ 12:24PM",TX,1,8.25,DWA-9060USJ-9060BR-DEMO,200.00,Sq #BP1m,,,,,,3300.00,,,,,,,0.00,,,,,,,Jenn,Given,defaultmail@daiwamassage.com,,3901 liberty st,,,Aurora,IL,60504,United States,630-338-7290
CES 1/8-11/19 LAS VEGAS (NV),CES 1/8-11/19 LAS VEGAS (NV),Keith Kei,114055,1/10/2019 9:47:44 AM,eric ryan,CA,93109,PEGASUS 2 SMART,Demo Choco,Demo,1,0.00,4700.00,4700.00,CreditCard,,,"5 years parts, 2 years labor ($200)","PEGASUS 2 SMART,Tourmaline Pad for Pegasus,",No,1/23/2019 12:00:00 AM,Delivered,New,,"Confirmed $4,700.00 on square. --- 1/10/19 Asumi",CA,1,8.25,PEGS-2PEGS-2-BR-DEMO,4700.00,Square #ID3h,,,,,,0.00,,,,,,,0.00,,,,,,,eric,ryan,defaultmail@daiwamassage.com,,1424 san miguel ave,,,santa barbara,CA,93109,United States,805-708-3906
CES 1/8-11/19 LAS VEGAS (NV),CES 1/8-11/19 LAS VEGAS (NV),Mario Higareda,114056,1/10/2019 9:49:19 AM,Rod Casas,FL,33315,Relax2Zero 3D,New Choco,New,1,0.00,4300.00,4300.00,CreditCard,,,"5 years parts, 1 year labor (Free)","Relax2Zero 3D,",No,1/17/2019 12:00:00 AM,Delivered,New,,"CC Josefina - 1/11/19 3:10pm VM
Confirmed $4,300.00 in square. --- 1/10/19 Asumi",FL,1,8.25,DWA-9060USJ-9060BR,4300.00,Sq #mmgx,,,,,,0.00,,,,,,,0.00,,,,,,,Rod,Casas,rob.casas@gmail.com,,921 sw 17th st,,,Fort lauderdale,FL,33315,United States,786-942-8526
CES 1/8-11/19 LAS VEGAS (NV),CES 1/8-11/19 LAS VEGAS (NV),Keith Kei,114057,1/10/2019 9:53:30 AM,elias daher,FL,33182,PEGASUS 2 SMART,New Choco,New,1,0.00,5500.00,5500.00,CreditCard,,,"5 years parts, 2 years labor ($200)","PEGASUS 2 SMART,Tourmaline Pad for Pegasus,",No,,Cancelled,,,"JD - 1/14/19 spoke to customer and he said he wanted to cancel, gave them salesperson phone and texted Keith customer info.
CC Josefina - 1/11/19 3:15pm
Confirmed $5,500 on square. Please deliver  the chair with Tourmaline Pad for Pegasus --- 1/10/ 19 Asumi",FL,1,8.25,PEGS-2PEGS-2-BR,5500.00,Receipt #8ZOx,,,,,,0.00,,,,,,,0.00,,,,,,,elias,daher,defaultmail@daiwamassage.com,,435 nw 128th ave,,,miami,FL,33182,United States,786-298-1555
CES 1/8-11/19 LAS VEGAS (NV),CES 1/8-11/19 LAS VEGAS (NV),Keith Kei,114082,1/10/2019 9:44:41 PM,Jeese Oveson,CT,06902,PEGASUS 2 SMART,New Black,New,1,0.00,5500.00,5500.00,Synchrony,,,"5 years parts, 1 year labor (Free)","PEGASUS 2 SMART,",No,,Called,,,"2nd floor delivery
Confirmed synchrony approved $6,600. Confirmed original application form and invoice.  --- 1/14/19 Asumi
1/15Maritza- Courtesy message sent @ 10:58AM",TX,1,8.25,PEGS-2PEGS-2-BL,5500.00,,,6019170813332845,99608671,Las Vegas,36 months,0.00,,,,,,,0.00,,,,,,,Jeese,Oveson,defaultmail@daiwamassage.com,,1611 Washington blvd,,30,Stanford,CT,06902,United States,310-699-1660
CES 1/8-11/19 LAS VEGAS (NV),CES 1/8-11/19 LAS VEGAS (NV),Ruben Cuatrona,114083,1/10/2019 10:07:23 PM,Jacob Benjamin,OH,43004,PEGASUS 2 SMART,Demo Black,Demo,1,0.00,4700.00,4700.00,Synchrony,,,"5 years parts, 1 year labor (Free)","PEGASUS 2 SMART,",No,,Called,,,"Confirmed synchrony approved $6,000.00 ( vegas account)  and original application form and invoice. Please charge $4700 before delivery and sales draft have signed. --- 1/15/19 Asumi
1/15Maritza Courtesy messages sent @ 11AM",TX,1,8.25,PEGS-2PEGS-2-BL-DEMO,4700.00,,,6019170813333165,99616702,Las Vegas,24 months,0.00,,,,,,,0.00,,,,,,,Jacob,Benjamin,defaultmail@daiwamassage.com,,6571 E Stateview dr S,,,Blacklick,OH,43004,United States,614-866-5898
CES 1/8-11/19 LAS VEGAS (NV),CES 1/8-11/19 LAS VEGAS (NV),Kohei Uno,114084,1/10/2019 10:20:17 PM,Chris Dischinga,KY,40223,Relax2Zero 3D,New Choco,New,1,0.00,3788.75,3788.75,CreditCard,,,"5 years parts, 1 year labor (Free)","Relax2Zero 3D,",No,,Scheduled,,,"Confirmed $3788.75 in square. --- 1/11/19 Asumi
1/11Maritza Courtesy messages sent @ 12:33PM",TX,1,8.25,DWA-9060USJ-9060BR,3788.75,Sq #85Ly,,,,,,0.00,,,,,,,0.00,,,,,,,Chris,Dischinga,defaultmail@daiwamassage.com,,111 Cambridge station,,,Louisville,KY,40223,United States,502-639-8046
CES 1/8-11/19 LAS VEGAS (NV),CES 1/8-11/19 LAS VEGAS (NV),Rolly San Jose,114085,1/10/2019 10:31:39 PM,Chad Carter,CO,80233,PEGASUS 2 SMART,New Black,New,1,0.00,5950.00,5950.00,CreditCard,,,"5 years parts, 2 years labor ($200)","PEGASUS 2 SMART,",No,,Cancelled,,,"Confirmed with Rolly  total amount is $5,940. Confirming about this. by e-mail --- 1/11/19 Asumi
Revised to #114265 --- 1/14/19 Asumi",Not Dispatched,1,8.25,PEGS-2PEGS-2-BL,5950.00,Sq #71HK,,,,,,0.00,,,,,,,0.00,,,,,,,Chad,Carter,chad.carter@highnoonsales.net,,10650 Irma dr,,Unit 32,North glenn,CO,80233,United States,303-323-5371
CES 1/8-11/19 LAS VEGAS (NV),CES 1/8-11/19 LAS VEGAS (NV),Rolly San Jose,114086,1/10/2019 10:45:28 PM,Bruce O silvie,CA,92603,PEGASUS 2 SMART,Demo Choco,Demo,1,0.00,5080.00,5080.00,CreditCard,,,"5 years parts, 2 years labor ($200)","PEGASUS 2 SMART,",No,1/22/2019 12:00:00 AM,Delivered,New,,1/11Maritza- Confirmed $5080 on square.,CA,1,8.25,PEGS-2PEGS-2-BR-DEMO,5080.00,Sq#8bin,,,,,,0.00,,,,,,,0.00,,,,,,,Bruce,O silvie,defaultmail@daiwamassage.com,,33 blue heron,,,Irvine,CA,92603,United States,949-275-3043
CES 1/8-11/19 LAS VEGAS (NV),CES 1/8-11/19 LAS VEGAS (NV),Kristy Tran,114087,1/10/2019 10:53:08 PM,Jim Kacmarcik,WI,53097,PEGASUS 2 SMART,New Black,New,1,0.00,5500.00,5500.00,CreditCard,,,"5 years parts, 1 year labor (Free)","PEGASUS 2 SMART,",No,,Scheduled,,,"Confirmed $5,500.00 in Square. --- 1/11/19 Asumi
1/11Maritza Courtesy message sent @ 12:35PM",TX,1,8.25,PEGS-2PEGS-2-BL,5500.00,Sq #JVM1,,,,,,0.00,,,,,,,0.00,,,,,,,Jim,Kacmarcik,defaultmail@daiwamassage.com,,13900 n pine bluff,,,Mequon,WI,53097,United States,414-418-7500
CES 1/8-11/19 LAS VEGAS (NV),CES 1/8-11/19 LAS VEGAS (NV),Kohei Uno,114088,1/10/2019 11:00:04 PM,Andy Hernandez,AL,35242,Relax2Zero 3D,Demo Choco,Demo,1,0.00,3500.00,3500.00,CreditCard,COD,,"5 years parts, 1 year labor (Free)","Relax2Zero 3D,",No,1/26/2019 12:00:00 AM,Delivered,Demo,,"CC Josefina - 1/11/19 3:55pm VM
Confirmed $300 in square. Please charge $3,200.00 at the timing of delivery. --- 1/11/19 Asumi",FL,1,8.25,DWA-9060USJ-9060BR-DEMO,300.00,Sq #5Z8x,,,,,,3200.00,,,,,,,0.00,,,,,,,Andy,Hernandez,Andy.hernandez@mf.com,,4333 kings mountain ridge,,,Birmingham,AL,35242,United States,205-968-6613
CES 1/8-11/19 LAS VEGAS (NV),CES 1/8-11/19 LAS VEGAS (NV),Rolly San Jose,114092,1/10/2019 11:41:11 PM,Joe Harb,WA,98072,PEGASUS 2 SMART,New Choco,New,1,0.00,4953.20,4953.20,Synchrony,,,"5 years parts, 2 years labor ($200)","PEGASUS 2 SMART,",No,1/15/2019 12:00:00 AM,Delivered,New,,"Confirmed synchrony approved $8500.00 under JOSEPH HARB in square.  Will confirm adress and name on synchrony application form.  --- 1/11/19 Asumi
Received delivery confirmation. Confirmed transaction in vegas account.--- 1/30/19 Asumi",WA,1,8.25,PEGS-2PEGS-2-BR,5300.00,,,6019170813332969,99611020,Las Vegas,36 months,0.00,,,,,,,0.00,,,,,,,Joe,Harb,joeharb@hotmail.com,,13321 village square dr,,#C405,Woodinille,WA,98072,United States,425-205-3678
CES 1/8-11/19 LAS VEGAS (NV),CES 1/8-11/19 LAS VEGAS (NV),Kristy Tran,114099,1/11/2019 9:23:43 AM,Jeffery Benson,CA,91701,PEGASUS 2 SMART,New Black,New,1,0.00,5500.00,5500.00,Synchrony,,,"5 years parts, 1 year labor (Free)","PEGASUS 2 SMART,",No,,Scheduled,,Please charge Synchrony,"Confirmed synchrony approved $8,500.00 . Will confirm original. -- 1/11/19 Asumi
//Confirmed original and Jeffery signed both of forms. ***Please charge $5,500 before delivery and have sales draft signed.***--1/14/19 Hitomi",CA,1,8.25,PEGS-2PEGS-2-BL,5500.00,,,6019170813333298,99626784,Las Vegas,36 months,0.00,,,,,,,0.00,,,,,,,Jeffery,Benson,defaultmail@daiwamassage.com,,11067 Charleston St,,,Alta Loma,CA,91701,United States,909-264-1636
CES 1/8-11/19 LAS VEGAS (NV),CES 1/8-11/19 LAS VEGAS (NV),Kohei Uno,114100,1/11/2019 9:26:16 AM,Andrew Rosen,CA,91367,Relax2Zero 3D,Demo Choco,Demo,1,231.59,3557.16,3788.75,Synchrony,,,"5 years parts, 1 year labor (Free)","Relax2Zero 3D,",No,,Scheduled,,,"COnfirmed synchrony approved $8,500. Will confirm original. --- 1/11/19 Asumi
//Confirmed original.***Please charge $3,788.75 before delivery and sales draft signed.***--1/14/19 Hitomi",CA,0,8.25,DWA-9060USJ-9060BR-DEMO,3788.75,,,6019170813333280,99616835,Las Vegas,36 months,0.00,,,,,,,0.00,,,,,,,Andrew,Rosen,tandarosen@gmail.com,,5438 Sale Ave,,,Woodland Hills,CA,91367,United States,818-451-3213
CES 1/8-11/19 LAS VEGAS (NV),CES 1/8-11/19 LAS VEGAS (NV),Rolly San Jose,114103,1/11/2019 9:49:18 AM,Marcus Lowell,FL,32738,PEGASUS 2 SMART,Demo Black,Demo,1,0.00,4700.00,4700.00,Synchrony,,,"5 years parts, 1 year labor (Free)","PEGASUS 2 SMART,",No,,Scheduled,,Please charge Synchrony,"CC Josefina - 1/15/19 11am TXT
Confirmed synchrony approved $5,700.00. Will confirm original. --- 1/11/19 Asumi
//Confirmed original. ***Please charge $4,700 before delivery and have sales draft signed.*** 1/14/19 Hitomi",FL,1,8.25,PEGS-2PEGS-2-BL-DEMO,4700.00,,,6019170813333314,99627287,Las Vegas,48 months,0.00,,,,,,,0.00,,,,,,,Marcus,Lowell,defaultmail@daiwamassage.com,,2147 Austin Ave,,,Deltona,FL,32738,United States,407-758-5035
CES 1/8-11/19 LAS VEGAS (NV),CES 1/8-11/19 LAS VEGAS (NV),Rolly San Jose,114205,1/13/2019 3:40:56 PM,Alex Haro,NV,89113,PEGASUS 2 SMART,New Black,New,1,0.00,5500.00,5500.00,CreditCard,,,"5 years parts, 1 year labor (Free)","PEGASUS 2 SMART,",No,1/17/2019 12:00:00 AM,Delivered,New,,"Sales by HIDE not Rolly!!! COnfirmed $5,500 in Square. 1/14/19 Hitomi
1/17Maritza Courtesy message sent @ 4:48PM
1/17-Delivered by Rex
Received delivery confirmation --- 1/18/19 Asumi",NV,1,8.25,PEGS-2PEGS-2-BL,5500.00,Sq #gp6a,,,,,,0.00,,,,,,,0.00,,,,,,,Alex,Haro,dinojenn@gmail.com,,8355 w cougar ave.,,,Las vegas,NV,89113,United States,714-331-9286
CES 1/8-11/19 LAS VEGAS (NV),CES 1/8-11/19 LAS VEGAS (NV),Kohei Uno,114206,1/13/2019 3:50:38 PM,Anthony Chan,NV,89158,Relax2Zero 3D,Demo Choco,Demo,1,0.00,3680.50,3680.50,CreditCard,,,"5 years parts, 1 year labor (Free)","Relax2Zero 3D,",No,1/17/2019 12:00:00 AM,Delivered,Demo,,"Confirmed $3,680.50 in Square. --1/14/19 Hitomi
1/17Maritza Courtesy message sent @ 4:49PM
1/17 - Delivered by Rex
Received delivery confirmation --- 1/18/19",NV,1,8.25,DWA-9060USJ-9060BR-DEMO,3680.50,Sq #OPp0,,,,,,0.00,,,,,,,0.00,,,,,,,Anthony,Chan,defaultmail@daiwamassage.com,,3726 Las Vegas blvd S,,Apt 3501 w,Las Vegas,NV,89158,United States,408-828-2283
CES 1/8-11/19 LAS VEGAS (NV),CES 1/8-11/19 LAS VEGAS (NV),Kohei Uno,114209,1/13/2019 3:58:43 PM,Ronald Gamit,CA,94565,Relax2Zero 3D,Demo Choco,Demo,1,0.00,3788.75,3788.75,CreditCard,,,"5 years parts, 1 year labor (Free)","Relax2Zero 3D,",No,,Scheduled,,,"Make sure the chair in good 
Condition pls.no scratche// Confirmed $3,788.75 in Square. ---1/14/19 Hitomi",CA,1,8.25,DWA-9060USJ-9060BR-DEMO,3788.75,Receipt #a1bY,,,,,,0.00,,,,,,,0.00,,,,,,,Ronald,Gamit,defaultmail@daiwamassage.com,,44 Oxford ct,,,Pittsburg,CA,94565,United States,925-427-6348
CES 1/8-11/19 LAS VEGAS (NV),CES 1/8-11/19 LAS VEGAS (NV),Kristy Tran,114212,1/13/2019 4:13:08 PM,Specialty ( Mark ) Electric,AZ,85365,PEGASUS 2 SMART,Demo Choco,Demo,1,0.00,4500.00,4500.00,CreditCard,,,"5 years parts, 1 year labor (Free)","PEGASUS 2 SMART,",No,1/22/2019 12:00:00 AM,Delivered,Demo,,"Confirmed $4,500.00 in Square. 1/14/19 Hitomi
1/17Maritza Courtesy email sent @ 4:51PM",NV,1,8.25,PEGS-2PEGS-2-BR-DEMO,4500.00,Sq #OPJj,,,,,,0.00,,,,,,,0.00,,,,,,,Specialty ( Mark ),Electric,mark@specialtyelectric.com,928 941 0187,2006 kennedy lane,,,Yuma,AZ,85365,United States,928-783-3086
CES 1/8-11/19 LAS VEGAS (NV),CES 1/8-11/19 LAS VEGAS (NV),Rodrigo Malabunga,114213,1/13/2019 4:18:07 PM,Michael Raffinello,NV,89123,PEGASUS 2 SMART,New Choco,New,1,0.00,4900.00,4900.00,CreditCard,COD,,"5 years parts, 2 years labor ($200)","PEGASUS 2 SMART,",No,1/19/2019 12:00:00 AM,Delivered,New,,"$3900.00 (COD)
//Confirmed $1,000.00 in Square.  **COD$3,900*** - 1/14/19 Hitomi
1/17Maritza Courtesy message sent @ 4:53PM
Received delivery confirmation --- 1/21/19 Asumi",NV,1,8.25,PEGS-2PEGS-2-BR,1000.00,Sq #rMJd,,,,,,3900.00,,,,,,,0.00,,,,,,,Michael,Raffinello,defaultmail@daiwamassage.com,,380 Autumn hue ave,,,Las Vegas,NV,89123,United States,702-743-4687
CES 1/8-11/19 LAS VEGAS (NV),CES 1/8-11/19 LAS VEGAS (NV),Rolly San Jose,114214,1/13/2019 4:25:02 PM,Paul Zia,FL,34711,PEGASUS 2 SMART,New Black,New,1,0.00,5500.00,5500.00,CreditCard,,,"5 years parts, 2 years labor ($200)","PEGASUS 2 SMART,",No,1/25/2019 12:00:00 AM,Delivered,New,,"CC Josefina - 1/15/19 11:23am TXT
2 weeks delivery after 14 Jan
//Confirmed $5,500.00 in Square. --1/14/19 Hitomi",FL,1,8.25,PEGS-2PEGS-2-BL,5500.00,Sq #cyNQ,,,,,,0.00,,,,,,,0.00,,,,,,,Paul,Zia,zcop@aol.com,,3516 chapel hill blvd,,,Clermont,FL,34711,United States,312-919-7509
CES 1/8-11/19 LAS VEGAS (NV),CES 1/8-11/19 LAS VEGAS (NV),Rolly San Jose,114215,1/13/2019 4:37:48 PM,Kent Green,MA,01742,Pegasus,New Black,New,1,0.00,5000.00,5000.00,CreditCard,,,"5 years parts, 2 years labor ($200)","Pegasus,",No,,Assigned,,,"Confirmed $5,000 in Square. --1/14/19 Hitomi
01/14/19-Rolly corrected the address-  41 Baker Ave. Concord, MA  01742******* (Cristina 11:03 am)
1/17/19 4:05pm Courtesy message sent -Noemi",TX,1,8.25,DWA-9400Pegasus-BL,5000.00,Sq #xvjA,,,,,,0.00,,,,,,,0.00,,,,,,,Kent,Green,vkentg@gmail.com,,41 baher ave,,,Concord,MA,01742,United States,978-369-2116
CES 1/8-11/19 LAS VEGAS (NV),CES 1/8-11/19 LAS VEGAS (NV),Rolly San Jose,114216,1/13/2019 4:43:26 PM,Adam Crysler,MI,48170,PEGASUS 2 SMART,New Black,New,1,0.00,5500.00,5500.00,CreditCard,,,"5 years parts, 2 years labor ($200)","PEGASUS 2 SMART,",No,,Assigned,,,"Confirmed $5,500 in Square.---1/14/19 Hitomi
1/18/2019	Friday	3-5PM scheduled
1/17/19 4:07 pm Courtesy message sent -Noemi",TX,1,8.25,PEGS-2PEGS-2-BL,5500.00,Sq #p26J,,,,,,0.00,,,,,,,0.00,,,,,,,Adam,Crysler,defaultmail@daiwamassage.com,,13628 Driftwood ct,,,Plymouth,MI,48170,United States,734-634-2319
CES 1/8-11/19 LAS VEGAS (NV),CES 1/8-11/19 LAS VEGAS (NV),Keith Kei,114217,1/13/2019 4:49:41 PM,John Dimitte,NV,89072,Relax2Zero 3D,Demo Choco,Demo,1,0.00,3800.00,3800.00,CreditCard,,,"5 years parts, 1 year labor (Free)","Relax2Zero 3D,",No,1/17/2019 12:00:00 AM,Delivered,Demo,,"Confirmed $3,800 in Square.--1/14/19 Hitomi
1/17Maritza- Courtesy message sent @ 4:54PM
1/17 - Delivered by Rex",NV,1,8.25,DWA-9060USJ-9060BR-DEMO,3800.00,Sq #uFH4,,,,,,0.00,,,,,,,0.00,,,,,,,John,Dimitte,defaultmail@daiwamassage.com,,1941 Coralino dr,,,Henderson,NV,89072,United States,702-290-8710
CES 1/8-11/19 LAS VEGAS (NV),CES 1/8-11/19 LAS VEGAS (NV),Kristy Tran,114256,1/14/2019 11:20:17 AM,Ben Choi,CA,94301,Relax2Zero 3D,Demo Black,Demo,1,0.00,3500.00,3500.00,CreditCard,,,"5 years parts, 1 year labor (Free)","Relax2Zero 3D,",No,1/23/2019 12:00:00 AM,Delivered,New,,1/14Maritza Confirmed $3500 on square.,CA,1,8.25,DWA-9060USJ-9060BL-DEMO,3500.00,lFdO,,,,,,0.00,,,,,,,0.00,,,,,,,Ben,Choi,benjichoi@gmail.com,,315 Melville Ave,,,Palo Alto,CA,94301,United States,650-380-5029
CES 1/8-11/19 LAS VEGAS (NV),CES 1/8-11/19 LAS VEGAS (NV),Rolly San Jose,114265,1/14/2019 1:28:02 PM,Chad Carter,CO,80233,PEGASUS 2 SMART,New Black,New,1,0.00,5940.00,5940.00,CreditCard,,,"5 years parts, 2 years labor ($200)","PEGASUS 2 SMART,",No,,Scheduled,,,"Confirmed $5940.00 in square. --- 1/11/19 Asumi
correction from #114085 --- 1/14/19 Asumi 
Although invoice states $5,950.00 it was charged only $5,940.00. Rolly advised to follow amount in $5,400.00 square.
1/17/19 4:15pm Courtesy message sent -Noemi",TX,1,8.25,PEGS-2PEGS-2-BL,5940.00,71HK,,,,,,0.00,,,,,,,0.00,,,,,,,Chad,Carter,chad.carter@highnoonsales.net,,10650 Irma dr Unit 32,,,North glenn,CO,80233,United States,303-323-5371
CES 1/8-11/19 LAS VEGAS (NV),CES 1/8-11/19 LAS VEGAS (NV),Ruben Cuatrona,114278,1/14/2019 3:55:04 PM,Joel Fohler,CA,94611,PEGASUS 2 SMART,New Black,New,1,0.00,5000.00,5000.00,Synchrony,,,"5 years parts, 2 years labor ($200)","PEGASUS 2 SMART,",No,,Scheduled,,,"Free tourmaline pad
The drive way is small 
( narrow ) big truck won’t fit

Confirmed synchrony approved $6,600.00 and original invoice and application form. Please charge $5,000.00 before delivery and have sales draft signed.*Free tourmaline pad* --- 1/15/19 Asumi",CA,1,8.25,PEGS-2PEGS-2-BL,5000.00,,,6019170813338164,99726723,Las Vegas,36 months,0.00,,,,,,,0.00,,,,,,,Joel,Fohler,defaultmail@daiwamassage.com,,6444 west over dr,,,Oakland,CA,94611,United States,510-747-8282
CES 1/8-11/19 LAS VEGAS (NV),CES 1/8-11/19 LAS VEGAS (NV),Keith Kei,114280,1/14/2019 4:04:30 PM,Mohamad Adul hak,MI,48105,PEGASUS 2 SMART,Demo Black,Demo,1,0.00,4000.00,4000.00,CreditCard,COD,,"5 years parts, 1 year labor (Free)","PEGASUS 2 SMART,",No,,Called,,,"Make sure they will deliver floor model and COD $3500 cash
Confirmed COD $500.00 in square. Please charge COD $3,500.00 when delivery. --- 1/15/19 Asumi
01/16/19-Courtesy call/text completed- Cristina- 12:38 pm",TX,1,8.25,PEGS-2PEGS-2-BL-DEMO,500.00,Sq #CBvD,,,,,,3500.00,,,,,,,0.00,,,,,,,Mohamad,Adul hak,defaultmail@daiwamassage.com,,3733 Prospect dr,,,Anarbor,MI,48105,United States,313-310-3210
CES 1/8-11/19 LAS VEGAS (NV),CES 1/8-11/19 LAS VEGAS (NV),Keith Kei,114298,1/15/2019 4:05:01 PM,Mike/Michael Davis,NV,89011,Relax2Zero 3D,Demo Choco,Demo,1,0.00,3500.00,3500.00,CreditCard,,,"5 years parts, 2 years labor ($200)","Relax2Zero 3D,",No,1/16/2019 12:00:00 AM,Delivered,Demo,"Free Shipping ONLY.
Warranty with 5 years part and 2 years of in home service labor.","please ship before the jan 27th
Confirmed $$3,500.00 in square. --- 1/15/19 Asumi",NV,1,8.25,DWA-9060USJ-9060BR-DEMO,3500.00,Square Receipt # gTWT,,,,,,0.00,,,,,,,0.00,,,,,,,Mike/Michael,Davis,kcskcskcskcs@hotmail.com,,689 Indian Row Ct.,,,Henderson,NV,89011,United States,714-222-4333
CES 1/8-11/19 LAS VEGAS (NV),CES 1/8-11/19 LAS VEGAS (NV),Ruben Cuatrona,114508,1/22/2019 1:39:45 PM,Jose Leyva,CA,94404,PEGASUS 2 SMART,New Black,New,1,0.00,4000.00,4000.00,COD,,,"5 years parts, 2 years labor ($200)","PEGASUS 2 SMART,Tourmaline Pad for Pegasus,",No,,Scheduled,,"Trade In special: Adako Chair -$1,500 Discount

One free tourmaline",,CA,1,8.25,PEGS-2PEGS-2-BL,4000.00,,,,,,,0.00,,,,,,,0.00,,,,,,,Jose,Leyva,turbojose@aol.com,,610 Brainbridge St.,,,Foster city,CA,94404,United States,650-341-6204
