﻿Original Event Name,Event Name,Sales Person,Order Number,Order Date,Customer Name,State,Zip,Product Name,Color,Product Status,QTY,Tax,Total Before Tax,Order Total,Primary Payment Method,Second Payment Method,Thirdl Payment Method,Warranty,Order Items,Pick up,Delivered On,Order Status,Chair Type,Order Notes,Private Note,Branch,No Tax,Actual Tax Rate,SKU,Primary Payment Balance,Primary Authorize Number,Primary Purchase Order Number,Primary Synchrony Account Number,Primary Synchrony Application Key,Primary Synchrony Account Info,Primary Synchrony Term,Primary Synchrony Primary ID,Primary Synchrony Issued State,Primary Synchrony Expiretion Date,Second Payment Balance,Second Authorize Number,Second Purchase Order Number,Second Synchrony Account Number,Second Synchrony Application Key,Second Synchrony Account Info,Second SynchronyTerm,Second Synchrony Primary ID,Second Synchrony Issued State,Second Synchrony Expiretion Date,Third Payment Balance,Third Authorize Number,Third Purchase Order Number,Third Synchrony Account Number,Third Synchrony Application Key,Third Synchrony Account Info,Third Synchrony Term,Third Synchrony Primary ID,Third Synchrony Issued State,Third Synchrony Expiretion Date
"Ohio State Fair 7/24-8/4/19 Columbus, OH","Ohio State Fair 7/24-8/4/19 Columbus, OH",Noni Ignacio,119053,7/30/2019 8:05:30 PM,James Moore,OH,45889,Legacy 3D,New Black,New,1,0.00,4300.00,4300.00,Synchrony,,,"5 years parts, 2 years labor ($200)","Legacy 3D,",No,8/27/2019 12:00:00 AM,Delivered,New,,"Synchrony original verified. Credit available  $9000. Remaining balance $4300. Pls charge synchrony account upon delivery, have sales draft sign. Erika 7/31/19 12:19pm
courtesy call completed. Erika 7/31/19 2:49pm
8/12- Confirmed delivery for 8/27 4:30p-8pm-Karen
8/29Maritza- Delivery confirmation received with sales draft.",IL,1,7.50,DWA-9150USJ-9150BL,4300.00,,,6501723375252077,78817498,Las Vegas,48 months,Driver’s License,OH,09/2021,0.00,,,,,,,,,/,0.00,,,,,,,,,/
"Ohio State Fair 7/24-8/4/19 Columbus, OH","Ohio State Fair 7/24-8/4/19 Columbus, OH",Noni Ignacio,119054,7/30/2019 8:13:34 PM,William Overturf,OH,43123,Legacy 3D,New Black,New,1,0.00,4300.00,4300.00,Synchrony,,,"5 years parts, 2 years labor ($200)","Legacy 3D,",No,,Cancelled,,,"Synchrony original verified. Credit available $5000. Remaining balance $4300. Pls charge synchrony account upon delivery, have sales draft sign. Erika 7/31/19 12:28pm
courtesy call completed. Erika 7/31/19 2:49pm
8/13-CONFIRMED delivery for 8/28 4-8pm-Karen",IL,1,7.50,DWA-9150USJ-9150BL,4300.00,,,6501723375254032,78865243,Las Vegas,48 months,Driver’s License,OH,07/2020,0.00,,,,,,,,,/,0.00,,,,,,,,,/
"Ohio State Fair 7/24-8/4/19 Columbus, OH","Ohio State Fair 7/24-8/4/19 Columbus, OH",Noni Ignacio,119055,7/30/2019 8:21:32 PM,Kahlil Byers,OH,43230,Legacy 3D,New Black,New,1,0.00,4300.00,4300.00,Synchrony,,,"5 years parts, 2 years labor ($200)","Legacy 3D,",No,,Called,,,"Synchrony original verified. Credit available $5500. Remaining balance $4300. Pls charge synchrony account upon delivery, have sales draft sign. Erika 7/31/19 12:32pm
courtesy call completed, Erika 7/31/19 2:50pm
8/13- Customer would like a later schedule ;beginning of september if possible will call back to reschedule for delivery-Karen",IL,1,7.50,DWA-9150USJ-9150BL,4300.00,,,6501723375254057,78865874,Las Vegas,48 months,Driver’s License,OH,01/2022,0.00,,,,,,,,,/,0.00,,,,,,,,,/
"Ohio State Fair 7/24-8/4/19 Columbus, OH","Ohio State Fair 7/24-8/4/19 Columbus, OH",Noni Ignacio,119056,7/30/2019 8:28:26 PM,Sheri Rostorfer,OH,43360,Legacy 3D,New Choco,New,1,0.00,4300.00,4300.00,Synchrony,,,"5 years parts, 2 years labor ($200)","Legacy 3D,",No,8/28/2019 12:00:00 AM,Delivered,New,,"Synchrony original verified.  Credit available $4300. Remaining balance $4300. Pls charge synchrony account upon delivery, have sales draft sign. Erika 7/31/19 1:57pm
courtesy call completed. Erika 7/31/19 2;51pm
8/9-Customer confirmed delivery for 8/28-12:00pm-4:00pm-Karen
8/29Maritza- Delivery confirmation received with sales draft but signature doesn't match. Have spoke with IL branch and they will reach out to customer.",IL,1,7.50,DWA-9150USJ-9150CH,4300.00,,,6501723375252069,78817460,Las Vegas,48 months,Driver’s License,OH,04/2023,0.00,,,,,,,,,/,0.00,,,,,,,,,/
"Ohio State Fair 7/24-8/4/19 Columbus, OH","Ohio State Fair 7/24-8/4/19 Columbus, OH",Noni Ignacio,119071,8/1/2019 8:35:27 PM,Kevin McCray,OH,43338,PEGASUS 2 SMART,New Black,New,1,0.00,5300.00,5300.00,Credit Card,,,"5 years parts, 2 years labor ($200)","PEGASUS 2 SMART,",No,8/28/2019 12:00:00 AM,Delivered,New,"2 to 3 weeks delivery 
For delivery schedule, please use # 419-946-1938 or email","Original received. SQ amount verified $5300. Paid in full. Erika 8/2/19 8:45am
courtesy call completed. Erika 8/2/19 1:36pm
8/9-Customer confirmed delivery for 8/28 9:30am-1:30pm-Karen
8/28Maritza- Wife called asking if she had to send in warranty slip. Told her she is covered and sent a copy of delivery  confirmation to husband's email.
8/29Maritza- Delivery confirmation received..",IL,1,7.50,PEGS-2PEGS-2-BL,5300.00,Square # 7Ns7,,,,,,,,/,0.00,,,,,,,,,/,0.00,,,,,,,,,/
"Ohio State Fair 7/24-8/4/19 Columbus, OH","Ohio State Fair 7/24-8/4/19 Columbus, OH",Noni Ignacio,119072,8/1/2019 8:43:54 PM,Trinna Lute,OH,43207,PEGASUS 2 SMART,Demo Choco,Demo,1,0.00,4500.00,4500.00,Credit Card,,,"5 years parts, 2 years labor ($200)","PEGASUS 2 SMART,",No,,Scheduled,,2 to 3 weeks delivery,"Original received. SQ amount verified $4500. Paid in full. Erika 8/2/19 8:51am
courtesy call completed. Erika 8/2/19 1:36pm
8/9-Courtesy Call completed-Karen
8-19-Customer called for uodate; will call customer back to schedule.-Karen
8/19(2:50pm)-Confirmed delivery for 9/2 6:30pm-8pm-Karen",IL,1,7.50,PEGS-2PEGS-2-BR-DEMO,0.00,Square #KpUJ,,,,,,,,/,0.00,,,,,,,,,/,0.00,,,,,,,,,/
"Ohio State Fair 7/24-8/4/19 Columbus, OH","Ohio State Fair 7/24-8/4/19 Columbus, OH",Noni Ignacio,119073,8/2/2019 6:54:03 AM,Thomas Polzin,OH,43229,Legacy 3D,New Black,New,1,0.00,4500.00,4500.00,Credit Card,Synchrony,,"5 years parts, 2 years labor ($200)","Legacy 3D,",No,8/28/2019 12:00:00 AM,Delivered,New,"2 to 3 weeks delivery 
Square payment for $1000
Synchrony for the balance","SQ amount verified $1000. Remaining balance $3500. Pls charge synchrony account upon delivery, have sales draft sign. Erika 8/2/19 8:48am
courtesy call completed. Erika 8/2/19 1:36pm
8/9-Courtesy call completed-Karen
8/19-Confirmed delivery for August 28 2pm-4:30pm-Karen
8/29Maritza- Delivery confirmation received with sales draft.",IL,1,7.50,DWA-9150USJ-9150BL,1000.00,Square# xrer ($1000),,,,,,,,/,3500.00,,,6501723375258298,79042219,Las Vegas,48 months,Driver’s License,OH,09/2021,0.00,,,,,,,,,/
"Ohio State Fair 7/24-8/4/19 Columbus, OH","Ohio State Fair 7/24-8/4/19 Columbus, OH",Noni Ignacio,120122,8/6/2019 1:20:34 PM,Angela Harris,OH,43147,Legacy 3D,New Black,New,1,0.00,3800.00,3800.00,Credit Card,,,"5 years parts, 1 year labor (Free)","Legacy 3D,",No,,Scheduled,,,"Original received. SQ amount verified $3800. Paid in full-Erika 8/8/19 9:00am
courtesy call completed-Erika 8/8/19 2:01pm
8/9- CC; Courtesy Call completed-Karen
8-19-Confirmed delivery for 8/28 4-6:30pm-Karen

New total: $3,420.00
10% discount $380
Approved by Noni due to Drivers cancelling route -Cristina 08/29/19 2:33 pm",IL,1,7.50,DWA-9150USJ-9150BL,3800.00,Square#62lS,,,,,,,,/,0.00,,,,,,,,,/,0.00,,,,,,,,,/
