﻿Date,Customer Name,State,Zipcode,Description,Product Number,Color,Product Status,Net,Shipping Fee,Gift Price,Financing Processing Fee,Order Total,Total Before Tax,Tax,Commission,Primary Payment Method,Primary Payment Balance,Primary Authorize Number,Primary Purchase Order Number,Primary Synchrony Account Number,Primary Synchrony Application Key,Primary Synchrony Account Info,Primary Synchrony Term,Second Payment Method,Second Payment Balance,Second Authorize Number,Second Purchase Order Number,Second Synchrony Account Number,Second Synchrony Application Key,Second Synchrony Account Info,Second Synchrony Term,Third Payment Method,Third Payment Balance,Third Authorize Number,Third Purchase Order Number,Third Synchrony Account Number,Third Synchrony Application Key,Third Synchrony Account Info,Third Synchrony Term,Delivery Date,Pick up,Warranty,Status,Chair Type,Original Event Name,Event Name,Synchrony Notes,Order Notes,Order Number,Private Note,Branch,No Tax,Actual Tax Rate
1/11/2019 12:58:26 PM,Linda Ekdahl,AZ,86323,Relax2Zero 3D,DWA-9060USJ-9060BR,New Choco,New,,,,,4600.00,4600.00,0.00,Harmony Williams,CreditCard,4600.00,DyUF,,,,,,,0.00,,,,,,,,0.00,,,,,,,,No,"5 years parts, 1 year labor (Free)",Assigned,,"MARICOPA COUNTY HM & GD 1/11-13/19 PHOENIX,AZ (NV)","MARICOPA COUNTY HM & GD 1/11-13/19 PHOENIX,AZ (NV)",,,114108,"01/15/19- Cristina Verified SQ payment $4,600-
Customer called in early morning to find out status- Cristina- 01/15/19 (2:14 pm)",NV,1,8.60
1/12/2019 4:57:01 PM,Gregory Phillips,AZ,85209,Legacy,DWA-9100DWA-9100BU,New Choco,New,,,,,3780.00,3780.00,0.00,David Wang,Synchrony,3780.00,,,6019170813335160,99676191,Las Vegas,36 months,,0.00,,,,,,,,0.00,,,,,,,,No,"3 years parts, 1 year labor (Free)",Assigned,,"MARICOPA COUNTY HM & GD 1/11-13/19 PHOENIX,AZ (NV)","MARICOPA COUNTY HM & GD 1/11-13/19 PHOENIX,AZ (NV)",,,114159,"Confirmed SYNC($5,500) and original. ***Please charge $3,780 before delivery and sales draft signed.*** 1/14/19 Hitomi
01/15/19- Courtesy call completed- Cristina 1:4 pm",NV,1,8.60
1/13/2019 9:29:52 AM,Jame Herr,AZ,85310,Legacy,DWA-9100DWA-9100BU,New Choco,New,,,,,3514.00,3514.00,0.00,Harmony Williams,CreditCard,3514.95,Receipt #oIjv,,,,,,,0.00,,,,,,,,0.00,,,,,,,,No,"5 years parts, 1 year labor (Free)",Assigned,,"MARICOPA COUNTY HM & GD 1/11-13/19 PHOENIX,AZ (NV)","MARICOPA COUNTY HM & GD 1/11-13/19 PHOENIX,AZ (NV)",,,114179,"It was suppose to be $3500 but the square would allow me..so I charged $3514.95 ..but I could add 95 cent on here.
Square receipt:#oljv
//Confirmed 3514.95 in Square. will speak to Harmony --1/14/19 Hitomi
-Courtesy call completed- Cristina 1:11 pm 01/15/19",NV,1,8.60
1/13/2019 10:22:00 AM,Michelle Bush,AZ,85142,Relax2Zero 3D,DWA-9060USJ-9060BR,New Choco,New,,,,,4300.00,4300.00,0.00,Christoper Williams,Synchrony,4300.00,,,6019170813334841,99671380,San Diego,36 months,,0.00,,,,,,,,0.00,,,,,,,,No,"5 years parts, 1 year labor (Free)",Assigned,,"MARICOPA COUNTY HM & GD 1/11-13/19 PHOENIX,AZ (NV)","MARICOPA COUNTY HM & GD 1/11-13/19 PHOENIX,AZ (NV)",,,114182,"01/15/18- Cristina - Verified Synchrony Credit of $6,500.00 and input Missing Synchrony information on order- Customer called in this morning (9am) req. order status customer is aware we had received but not dispatched to the branch yet) follow up message sent (1:24 pm)",NV,1,8.60
1/13/2019 10:59:48 AM,Craig Bishop,AZ,85120,Relax2Zero 3D,DWA-9060USJ-9060BL-DEMO,Demo Black,Demo,,,,,3900.00,3900.00,0.00,Harmony Williams,Synchrony,3900.00,,,6019170813337067,99708308,San Diego,24 months,,0.00,,,,,,,,0.00,,,,,,,,No,"5 years parts, 1 year labor (Free)",Assigned,,"MARICOPA COUNTY HM & GD 1/11-13/19 PHOENIX,AZ (NV)","MARICOPA COUNTY HM & GD 1/11-13/19 PHOENIX,AZ (NV)",,,114188,"Demo#0103001180782
01/15/19- Per Harmony its okay to deliver Demo chair from LV as long as the chair is in good working condition; Cristina also verified available credit $5500 Please make sure to charge and have sales draft signed. (original S. form confirmed.2:10 pm",NV,1,8.60
1/13/2019 9:16:13 PM,Stacy Johnson,AZ,85310,Legacy,DWA-9100DWA-9100BL-DEMO,Demo Black,Demo,,,,,3000.00,3000.00,0.00,David Wang,CreditCard,3000.00,0bvV,,,,,,,0.00,,,,,,,,0.00,,,,,,,1/13/2018 12:00:00 AM,YES,"3 years parts, 1 year labor (Free)",Delivered,Demo,"MARICOPA COUNTY HM & GD 1/11-13/19 PHOENIX,AZ (NV)","MARICOPA COUNTY HM & GD 1/11-13/19 PHOENIX,AZ (NV)",,,114222,"Picked up already!!!! DO NOT DELIVER!!!
Serial#0201001181012.
Confirmed $3000 in square.  Need pick up confirmation --- 1/15/19 Asumi
Received pick up confirmation --- 1/17/19 Asumi",CA,1,8.60
