﻿Original Event Name,Event Name,Sales Person,Order Number,Order Date,Customer Name,State,Zip,Product Name,Color,Product Status,QTY,Tax,Total Before Tax,Order Total,Primary Payment Method,Second Payment Method,Thirdl Payment Method,Warranty,Order Items,Pick up,Delivered On,Order Status,Chair Type,Order Notes,Private Note,Branch,No Tax,Actual Tax Rate,SKU,Primary Payment Balance,Primary Authorize Number,Primary Purchase Order Number,Primary Synchrony Account Number,Primary Synchrony Application Key,Primary Synchrony Account Info,Primary Synchrony Term,Second Payment Balance,Second Authorize Number,Second Purchase Order Number,Second Synchrony Account Number,Second Synchrony Application Key,Second Synchrony Account Info,Second SynchronyTerm,Third Payment Balance,Third Authorize Number,Third Purchase Order Number,Third Synchrony Account Number,Third Synchrony Application Key,Third Synchrony Account Info,Third Synchrony Term
TULSA STATE FAIR 9/27-10/07/2018 (TX),TULSA STATE FAIR 9/27-10/07/2018 (TX),Kamille Gines,110006,10/1/2018 2:40:31 PM,John Millea,CA,92677,Vitality Plate,New,New,1,0.00,400.00,400.00,CreditCard,,,"2 years parts, 1 year labor for Small Items","Vitality Plate,",No,10/2/2018 12:00:00 AM,Cancelled,,,Free delivery approved by Mario//COnfirmed $399.00 in Square. 10/1/18 Hitomi,Not Dispatched,1,8.52,USJ-849USJ-849,399.00,Sq# tAvk,,,,,,0.00,,,,,,,0.00,,,,,,
TULSA STATE FAIR 9/27-10/07/2018 (TX),TULSA STATE FAIR 9/27-10/07/2018 (TX),Hiroko Hudson,110116,10/7/2018 8:03:39 AM,Erin Blaine,CA,95603,Vitality Plate,New,New,1,0.00,400.00,400.00,CreditCard,,,"3 years parts, 1 year labor (Free)","Vitality Plate,",No,10/9/2018 12:00:00 AM,Delivered,,,"Please ship this item.
Mario approved.//Confirmed $399 in Square 10/8/18 Hitomi",CA,1,8.52,USJ-849USJ-849,399.00,Receipt #bSoh,,,,,,0.00,,,,,,,0.00,,,,,,
TULSA STATE FAIR 9/27-10/07/2018 (TX),TULSA STATE FAIR 9/27-10/07/2018 (TX),Hiroko Hudson,110119,10/7/2018 8:09:22 AM,Jennifer Giteser,CA,95811,Vitality Plate,New,New,1,0.00,400.00,400.00,CreditCard,,,"3 years parts, 1 year labor (Free)","Vitality Plate,",No,10/9/2018 12:00:00 AM,Delivered,,,"Please ship by UPS only.
Mario approved//Confirmed $399.00 in Square. 10/8/18 Hitomi",CA,1,8.52,USJ-849USJ-849,399.00,mLf4,,,,,,0.00,,,,,,,0.00,,,,,,
TULSA STATE FAIR 9/27-10/07/2018 (TX),TULSA STATE FAIR 9/27-10/07/2018 (TX),Carlos Jose,112034,11/7/2018 9:07:32 AM,999 999,AA,99999,Shogun Neck & Back Massger,New,New,1,0.00,199.00,199.00,CreditCard,,,"3 years parts, 1 year labor (Free)","Shogun Neck &amp; Back Massger,",YES,,Cancelled,,,,Not Dispatched,1,8.52,USJ-874USJ-874,199.00,Hcmm,,,,,,0.00,,,,,,,0.00,,,,,,
TULSA STATE FAIR 9/27-10/07/2018 (TX),TULSA STATE FAIR 9/27-10/07/2018 (TX),Carlos Jose,112035,11/7/2018 9:19:03 AM,999 999,AA,99999,Shogun Neck & Back Massger,New,New,1,0.00,290.00,290.00,CreditCard,,,"3 years parts, 1 year labor (Free)","Shogun Neck &amp; Back Massger,Foot Vibe Pro,",YES,,Cancelled,,,,Not Dispatched,1,8.52,USJ-874USJ-874,290.00,G7DD,,,,,,0.00,,,,,,,0.00,,,,,,
TULSA STATE FAIR 9/27-10/07/2018 (TX),TULSA STATE FAIR 9/27-10/07/2018 (TX),Carlos Jose,112035,11/7/2018 9:19:03 AM,999 999,AA,99999,Foot Vibe Pro,,New,1,0.00,290.00,290.00,CreditCard,,,"3 years parts, 1 year labor (Free)","Shogun Neck &amp; Back Massger,Foot Vibe Pro,",YES,,Cancelled,,,,Not Dispatched,1,8.52,USJ-871,290.00,G7DD,,,,,,0.00,,,,,,,0.00,,,,,,
TULSA STATE FAIR 9/27-10/07/2018 (TX),TULSA STATE FAIR 9/27-10/07/2018 (TX),Carlos Jose,112036,11/7/2018 9:24:21 AM,999 999,AA,99999,Foot Vibe Pro,,New,1,0.00,280.00,280.00,CreditCard,,,"3 years parts, 1 year labor (Free)","Foot Vibe Pro,Shogun Neck &amp; Back Massger,",YES,,Cancelled,,,,Not Dispatched,1,8.52,USJ-871,280.00,LyrO,,,,,,0.00,,,,,,,0.00,,,,,,
TULSA STATE FAIR 9/27-10/07/2018 (TX),TULSA STATE FAIR 9/27-10/07/2018 (TX),Carlos Jose,112036,11/7/2018 9:24:21 AM,999 999,AA,99999,Shogun Neck & Back Massger,New,New,1,0.00,280.00,280.00,CreditCard,,,"3 years parts, 1 year labor (Free)","Foot Vibe Pro,Shogun Neck &amp; Back Massger,",YES,,Cancelled,,,,Not Dispatched,1,8.52,USJ-874USJ-874,280.00,LyrO,,,,,,0.00,,,,,,,0.00,,,,,,
TULSA STATE FAIR 9/27-10/07/2018 (TX),TULSA STATE FAIR 9/27-10/07/2018 (TX),Carlos Jose,112037,11/7/2018 9:27:09 AM,999 999,AA,99999,Foot Vibe Pro,,New,1,0.00,99.00,99.00,Cash,,,"3 years parts, 1 year labor (Free)","Foot Vibe Pro,",YES,,Cancelled,,,,Not Dispatched,1,8.52,USJ-871,99.00,,,,,,,0.00,,,,,,,0.00,,,,,,
TULSA STATE FAIR 9/27-10/07/2018 (TX),TULSA STATE FAIR 9/27-10/07/2018 (TX),Carlos Jose,112038,11/7/2018 9:29:45 AM,999 999,AA,99999,Foot Vibe Pro,,New,1,0.00,99.00,99.00,Cash,,,"3 years parts, 1 year labor (Free)","Foot Vibe Pro,",YES,,Cancelled,,,,Not Dispatched,1,8.52,USJ-871,99.00,,,,,,,0.00,,,,,,,0.00,,,,,,
TULSA STATE FAIR 9/27-10/07/2018 (TX),TULSA STATE FAIR 9/27-10/07/2018 (TX),Hiroko Hudson,112040,11/7/2018 9:41:34 AM,9999 999,AA,99999,Foot Vibe Pro,,New,1,0.00,270.00,270.00,CreditCard,,,"3 years parts, 1 year labor (Free)","Foot Vibe Pro,Shogun Neck &amp; Back Massger,",YES,,Cancelled,,,,Not Dispatched,1,8.52,USJ-871,270.00,efL5,,,,,,0.00,,,,,,,0.00,,,,,,
TULSA STATE FAIR 9/27-10/07/2018 (TX),TULSA STATE FAIR 9/27-10/07/2018 (TX),Hiroko Hudson,112040,11/7/2018 9:41:34 AM,9999 999,AA,99999,Shogun Neck & Back Massger,New,New,1,0.00,270.00,270.00,CreditCard,,,"3 years parts, 1 year labor (Free)","Foot Vibe Pro,Shogun Neck &amp; Back Massger,",YES,,Cancelled,,,,Not Dispatched,1,8.52,USJ-874USJ-874,270.00,efL5,,,,,,0.00,,,,,,,0.00,,,,,,
TULSA STATE FAIR 9/27-10/07/2018 (TX),TULSA STATE FAIR 9/27-10/07/2018 (TX),Hiroko Hudson,112041,11/7/2018 9:43:45 AM,999 999,AA,99999,Shogun Neck & Back Massger,New,New,1,0.00,190.00,190.00,Cash,,,"3 years parts, 1 year labor (Free)","Shogun Neck &amp; Back Massger,",YES,,Cancelled,,,,Not Dispatched,1,8.52,USJ-874USJ-874,190.00,,,,,,,0.00,,,,,,,0.00,,,,,,
TULSA STATE FAIR 9/27-10/07/2018 (TX),TULSA STATE FAIR 9/27-10/07/2018 (TX),Hiroko Hudson,112042,11/7/2018 9:49:16 AM,99999 99999,AA,99999,Foot Vibe Pro,,New,1,0.00,99.00,99.00,Cash,,,"3 years parts, 1 year labor (Free)","Foot Vibe Pro,",YES,,Cancelled,,,,Not Dispatched,1,8.52,USJ-871,99.00,,,,,,,0.00,,,,,,,0.00,,,,,,
TULSA STATE FAIR 9/27-10/07/2018 (TX),TULSA STATE FAIR 9/27-10/07/2018 (TX),Hiroko Hudson,112043,11/7/2018 9:51:38 AM,99999 99999,AA,99999,Vitality Plate,New,New,1,0.00,375.00,375.00,CreditCard,,,"3 years parts, 1 year labor (Free)","Vitality Plate,",YES,,Cancelled,,,,Not Dispatched,1,8.52,USJ-849USJ-849,375.00,v4Yo,,,,,,0.00,,,,,,,0.00,,,,,,
TULSA STATE FAIR 9/27-10/07/2018 (TX),TULSA STATE FAIR 9/27-10/07/2018 (TX),Carlos Jose,112044,11/7/2018 10:15:23 AM,Debra Erid,OK,74301,Foot Vibe Pro,,New,1,0.00,280.00,280.00,CreditCard,,,"3 years parts, 1 year labor (Free)","Foot Vibe Pro,Shogun Neck &amp; Back Massger,",YES,,Delivered,,,"Actual sales was made on 10/3/18
///Confirmed in Square. $280.00/Oct. 3, 2018 1:05 pm/ Receipt #0f6Y - 11/7/18 Hitomi",TX,1,8.52,USJ-871,280.00,0f6Y,,,,,,0.00,,,,,,,0.00,,,,,,
TULSA STATE FAIR 9/27-10/07/2018 (TX),TULSA STATE FAIR 9/27-10/07/2018 (TX),Carlos Jose,112044,11/7/2018 10:15:23 AM,Debra Erid,OK,74301,Shogun Neck & Back Massger,New,New,1,0.00,280.00,280.00,CreditCard,,,"3 years parts, 1 year labor (Free)","Foot Vibe Pro,Shogun Neck &amp; Back Massger,",YES,,Delivered,,,"Actual sales was made on 10/3/18
///Confirmed in Square. $280.00/Oct. 3, 2018 1:05 pm/ Receipt #0f6Y - 11/7/18 Hitomi",TX,1,8.52,USJ-874USJ-874,280.00,0f6Y,,,,,,0.00,,,,,,,0.00,,,,,,
TULSA STATE FAIR 9/27-10/07/2018 (TX),TULSA STATE FAIR 9/27-10/07/2018 (TX),Carlos Jose,112071,11/9/2018 9:06:46 AM,"U.S. Jaclean, Inc.",CA,90249,Foot Vibe Pro,,New,1,0.00,99.00,99.00,CreditCard,,,"2 years parts, 1 year labor (Free)","Foot Vibe Pro,",YES,,Cancelled,,,"9/30/2018
Charles  Strinyo
171968 N 3030 Dr 
580-467-8572
//Confirmed in $99.00 SQ -Receipt #r47w 11/9/18 Hitomi",Not Dispatched,1,8.52,USJ-871,99.00,Receipt #r47w,,,,,,0.00,,,,,,,0.00,,,,,,
TULSA STATE FAIR 9/27-10/07/2018 (TX),TULSA STATE FAIR 9/27-10/07/2018 (TX),Carlos Jose,112072,11/9/2018 9:10:04 AM,"U.S. Jaclean, Inc.",CA,90249,Shogun Neck & Back Massger,New,New,1,0.00,199.00,199.00,CreditCard,,,"2 years parts, 1 year labor (Free)","Shogun Neck &amp; Back Massger,",YES,,Cancelled,,,"/9/30/2018
Tammy Dorland
10326 E Rose Glen Blvd, Clarmore, OK 74019
918-939-9188
//Confirmed in SQ- $199.00 /Sep. 30, 2018 11:43 am/Receipt #TFly - 11/9/18 Hitomi",Not Dispatched,1,8.52,USJ-874USJ-874,199.00,TFly,,,,,,0.00,,,,,,,0.00,,,,,,
TULSA STATE FAIR 9/27-10/07/2018 (TX),TULSA STATE FAIR 9/27-10/07/2018 (TX),Carlos Jose,112074,11/9/2018 9:16:10 AM,"U.S. Jaclean, Inc.",CA,90249,Foot Vibe Pro,,New,1,0.00,99.00,99.00,CreditCard,,,"2 years parts, 1 year labor (Free)","Foot Vibe Pro,",YES,,Cancelled,,,"9/30/2018
Barbara Riddle
8235 SO SWEQO AVE, TULSA, OK
9185190404
//Confirmed in SQ $99.00 / Sep. 30, 2018 11:24 am/ Receipt #9mUG---11/9/18 Hitomi",Not Dispatched,1,8.52,USJ-871,99.00,Receipt #9mUG,,,,,,0.00,,,,,,,0.00,,,,,,
TULSA STATE FAIR 9/27-10/07/2018 (TX),TULSA STATE FAIR 9/27-10/07/2018 (TX),Kamille Gines,112077,11/9/2018 9:41:08 AM,"U.S. Jaclean, Inc.",CA,90249,Vitality Plate,New,New,1,0.00,399.00,399.00,CreditCard,,,"3 years parts, 1 year labor (Free)","Vitality Plate,",YES,,Cancelled,,,"9/30/2018
Benny Scott
17107 W MURREL RD, TAHLEGUAH, OK 74464
9183528617
//11/9/18 Confirmed in SQ $399.00/Sep. 30, 2018 1:57 pm/Receipt #GvSS -Hitomi",Not Dispatched,1,8.52,USJ-849USJ-849,399.00,GvSS,,,,,,0.00,,,,,,,0.00,,,,,,
TULSA STATE FAIR 9/27-10/07/2018 (TX),TULSA STATE FAIR 9/27-10/07/2018 (TX),Mario Higareda,112079,11/9/2018 9:57:47 AM,"U.S. Jaclean, Inc.",CA,90249,Shogun Neck & Back Massger,New,New,1,0.00,320.00,320.00,CreditCard,,,"2 years parts, 1 year labor (Free)","Shogun Neck &amp; Back Massger,Foot Vibe Pro,EZ Reach DUO,",YES,,Cancelled,,,"Leanne C Vanorsdoc
Brown Arrow, OK
918-978-2128
Purchased 9/30/2018
//11/9/18 Confirmed $320.00/Sep. 30, 2018 3:19 pm/Receipt #R3GI - Hitomi",Not Dispatched,1,8.52,USJ-874USJ-874,320.00,Receipt #R3GI,,,,,,0.00,,,,,,,0.00,,,,,,
TULSA STATE FAIR 9/27-10/07/2018 (TX),TULSA STATE FAIR 9/27-10/07/2018 (TX),Mario Higareda,112079,11/9/2018 9:57:47 AM,"U.S. Jaclean, Inc.",CA,90249,Foot Vibe Pro,,New,1,0.00,320.00,320.00,CreditCard,,,"2 years parts, 1 year labor (Free)","Shogun Neck &amp; Back Massger,Foot Vibe Pro,EZ Reach DUO,",YES,,Cancelled,,,"Leanne C Vanorsdoc
Brown Arrow, OK
918-978-2128
Purchased 9/30/2018
//11/9/18 Confirmed $320.00/Sep. 30, 2018 3:19 pm/Receipt #R3GI - Hitomi",Not Dispatched,1,8.52,USJ-871,320.00,Receipt #R3GI,,,,,,0.00,,,,,,,0.00,,,,,,
TULSA STATE FAIR 9/27-10/07/2018 (TX),TULSA STATE FAIR 9/27-10/07/2018 (TX),Carlos Jose,112080,11/9/2018 10:06:40 AM,"U.S. Jaclean, Inc.",CA,90249,Foot Vibe Pro,,New,1,0.00,280.00,280.00,CreditCard,CreditCard,,"3 years parts, 1 year labor (Free)","Foot Vibe Pro,Shogun Neck &amp; Back Massger,",YES,,Cancelled,,,"Lindsey Neal Kuykendall
520 S Hudson Ave
Tulsa, OK 74112
918-851-3462
Purchases 9/30/18
//11/9/18 Confirmed in SQ. -- Hitomi
1)$190.00/Sep. 30, 2018 3:16 pm/Receipt #pRPv
2)$90.00/Sep. 30, 2018 3:14 pm/Receipt #7RJL",Not Dispatched,1,8.52,USJ-871,190.00,pRPv,,,,,,90.00,Receipt #7RJL,,,,,,0.00,,,,,,
TULSA STATE FAIR 9/27-10/07/2018 (TX),TULSA STATE FAIR 9/27-10/07/2018 (TX),Carlos Jose,112080,11/9/2018 10:06:40 AM,"U.S. Jaclean, Inc.",CA,90249,Shogun Neck & Back Massger,New,New,1,0.00,280.00,280.00,CreditCard,CreditCard,,"3 years parts, 1 year labor (Free)","Foot Vibe Pro,Shogun Neck &amp; Back Massger,",YES,,Cancelled,,,"Lindsey Neal Kuykendall
520 S Hudson Ave
Tulsa, OK 74112
918-851-3462
Purchases 9/30/18
//11/9/18 Confirmed in SQ. -- Hitomi
1)$190.00/Sep. 30, 2018 3:16 pm/Receipt #pRPv
2)$90.00/Sep. 30, 2018 3:14 pm/Receipt #7RJL",Not Dispatched,1,8.52,USJ-874USJ-874,190.00,pRPv,,,,,,90.00,Receipt #7RJL,,,,,,0.00,,,,,,
TULSA STATE FAIR 9/27-10/07/2018 (TX),TULSA STATE FAIR 9/27-10/07/2018 (TX),Carlos Jose,112083,11/9/2018 10:31:43 AM,"U.S. Jaclean, Inc.",CA,90249,Foot Vibe Pro,,New,1,0.00,280.00,280.00,CreditCard,,,"3 years parts, 1 year labor (Free)","Foot Vibe Pro,Shogun Neck &amp; Back Massger,",YES,,Cancelled,,,"Mayled Marrero
7179844244
Purchased 9/30/2018
//11/9/18 Confirmed in SQ. $280.00/Sep. 30, 2018 4:45 pm/Receipt #qcav---Hitomi",Not Dispatched,1,8.52,USJ-871,280.00,QCAV,,,,,,0.00,,,,,,,0.00,,,,,,
TULSA STATE FAIR 9/27-10/07/2018 (TX),TULSA STATE FAIR 9/27-10/07/2018 (TX),Carlos Jose,112083,11/9/2018 10:31:43 AM,"U.S. Jaclean, Inc.",CA,90249,Shogun Neck & Back Massger,New,New,1,0.00,280.00,280.00,CreditCard,,,"2 years parts, 1 year labor (Free)","Foot Vibe Pro,Shogun Neck &amp; Back Massger,",YES,,Cancelled,,,"Mayled Marrero
7179844244
Purchased 9/30/2018
//11/9/18 Confirmed in SQ. $280.00/Sep. 30, 2018 4:45 pm/Receipt #qcav---Hitomi",Not Dispatched,1,8.52,USJ-874USJ-874,280.00,QCAV,,,,,,0.00,,,,,,,0.00,,,,,,
TULSA STATE FAIR 9/27-10/07/2018 (TX),TULSA STATE FAIR 9/27-10/07/2018 (TX),Kamille Gines,112085,11/9/2018 10:40:56 AM,"U.S. Jaclean, Inc.",CA,90249,Vitality Plate,New,New,1,0.00,399.00,399.00,CreditCard,,,"3 years parts, 1 year labor (Free)","Vitality Plate,",YES,,Cancelled,,,"Harvey Rice
1008 South 6th St
Henryetta, OK
9187524805
Purchased on 9/30/2018
//11/9/18 Confirmed in SQ / $399.00/Sep. 30, 2018 4:52 pm/Receipt #p3IF -- Hitomi",Not Dispatched,1,8.52,USJ-849USJ-849,399.00,p3IF,,,,,,0.00,,,,,,,0.00,,,,,,
TULSA STATE FAIR 9/27-10/07/2018 (TX),TULSA STATE FAIR 9/27-10/07/2018 (TX),Mario Higareda,112086,11/9/2018 10:51:04 AM,"U.S. Jaclean, Inc.",CA,90249,Foot Vibe Pro,,New,1,0.00,280.00,280.00,Cash,,,"2 years parts, 1 year labor (Free)","Foot Vibe Pro,Shogun Neck &amp; Back Massger,",YES,,Cancelled,,,"/Elizabeth A De Montes
9188922892
Purchased on 9/30/2018
//already picked up. need to confirmed the cash. place this order under hold till confirm the cash  /11/9/18 Hitomi",Not Dispatched,1,8.52,USJ-871,280.00,,,,,,,0.00,,,,,,,0.00,,,,,,
TULSA STATE FAIR 9/27-10/07/2018 (TX),TULSA STATE FAIR 9/27-10/07/2018 (TX),Mario Higareda,112086,11/9/2018 10:51:04 AM,"U.S. Jaclean, Inc.",CA,90249,Shogun Neck & Back Massger,New,New,1,0.00,280.00,280.00,Cash,,,"2 years parts, 1 year labor (Free)","Foot Vibe Pro,Shogun Neck &amp; Back Massger,",YES,,Cancelled,,,"/Elizabeth A De Montes
9188922892
Purchased on 9/30/2018
//already picked up. need to confirmed the cash. place this order under hold till confirm the cash  /11/9/18 Hitomi",Not Dispatched,1,8.52,USJ-874USJ-874,280.00,,,,,,,0.00,,,,,,,0.00,,,,,,
TULSA STATE FAIR 9/27-10/07/2018 (TX),TULSA STATE FAIR 9/27-10/07/2018 (TX),Kamille Gines,112087,11/9/2018 11:05:16 AM,"U.S. Jaclean, Inc.",CA,90249,Vitality Plate,New,New,1,0.00,399.00,399.00,CreditCard,,,"3 years parts, 1 year labor (Free)","Vitality Plate,",YES,,Cancelled,,,"Elizabeth De Montes
19808 E 3rd Sr
Tulsa, OK 74108
91188922892
Purchased on 9/30/2018
//11/9/18 Confirmed in SQ. $399.00/Sep. 30, 2018 5:08 pm/Receipt #XIkv- Hitomi",Not Dispatched,1,8.52,USJ-849USJ-849,399.00,XIkv,,,,,,0.00,,,,,,,0.00,,,,,,
TULSA STATE FAIR 9/27-10/07/2018 (TX),TULSA STATE FAIR 9/27-10/07/2018 (TX),Carlos Jose,112088,11/9/2018 11:14:56 AM,"U.S. Jaclean, Inc.",CA,90249,Foot Vibe Pro,,New,1,0.00,90.00,90.00,Cash,,,"2 years parts, 1 year labor (Free)","Foot Vibe Pro,",YES,,Cancelled,,,"Jason L 7576479796
Purchased on 9/10/2018
////already picked up. need to confirmed the cash. place this order under hold till confirm the cash  /11/9/18 Hitomi",Not Dispatched,1,8.52,USJ-871,90.00,,,,,,,0.00,,,,,,,0.00,,,,,,
TULSA STATE FAIR 9/27-10/07/2018 (TX),TULSA STATE FAIR 9/27-10/07/2018 (TX),Mario Higareda,112091,11/9/2018 12:24:22 PM,"U.S. Jaclean, Inc.",CA,90249,Foot Vibe Pro,,New,1,0.00,89.00,89.00,CreditCard,,,"2 years parts, 1 year labor (Free)","Foot Vibe Pro,",YES,,Delivered,,,"purchased on 9/30/2018//
//11/9/18 Confirmed in SQ / $89.00/Sep. 30, 2018 7:43 pm/Receipt #MW31--- Hitomi",TX,1,8.52,USJ-871,89.00,MW31,,,,,,0.00,,,,,,,0.00,,,,,,
TULSA STATE FAIR 9/27-10/07/2018 (TX),TULSA STATE FAIR 9/27-10/07/2018 (TX),Kamille Gines,112093,11/9/2018 12:34:16 PM,"U.S. Jaclean, Inc.",CA,90249,Foot Vibe Pro,,New,2,0.00,200.00,200.00,CreditCard,,,"3 years parts, 1 year labor (Free)","Foot Vibe Pro,",YES,,Cancelled,,,"Shay Robinson
3212 Magnolia Dr
Sand Sprungs, OK 74063
Purchased 9/28/2018
//Confirmed in SQ. $200.00/Sep. 28, 2018 12:07 pm/Receipt #S39v  --- Hitomi",Not Dispatched,1,8.52,USJ-871,200.00,S39v,,,,,,0.00,,,,,,,0.00,,,,,,
TULSA STATE FAIR 9/27-10/07/2018 (TX),TULSA STATE FAIR 9/27-10/07/2018 (TX),Kamille Gines,112094,11/9/2018 12:39:12 PM,"U.S. Jaclean, Inc.",CA,90249,Foot Vibe Pro,,New,1,0.00,100.00,100.00,Cash,,,"3 years parts, 1 year labor (Free)","Foot Vibe Pro,",YES,,Cancelled,,,"Shoua Xiong
15909 N 141 St E Ave
Purchased 9/20/2018
////already picked up. need to confirmed the cash. place this order under hold till confirm the cash  /11/9/18 Hitomi",Not Dispatched,1,8.52,USJ-871,100.00,,,,,,,0.00,,,,,,,0.00,,,,,,
TULSA STATE FAIR 9/27-10/07/2018 (TX),TULSA STATE FAIR 9/27-10/07/2018 (TX),Kamille Gines,112096,11/9/2018 12:48:58 PM,"U.S. Jaclean, Inc.",CA,90249,Vitality Plate,New,New,1,0.00,420.00,420.00,CreditCard,,,"3 years parts, 1 year labor (Free)","Vitality Plate,",YES,,Cancelled,,,"Travis Guillory
2223 S Erie Pl
Tulsa, OK 
Purchased 9/28/2018
///11/9/18 Confirmed in SQ. $420.00/Sep. 28, 2018 4:34 pm/Receipt #9Izp---Hitomi",Not Dispatched,1,8.52,USJ-849USJ-849,420.00,Receipt #9Izp,,,,,,0.00,,,,,,,0.00,,,,,,
TULSA STATE FAIR 9/27-10/07/2018 (TX),TULSA STATE FAIR 9/27-10/07/2018 (TX),Hiroko Hudson,112097,11/9/2018 12:58:11 PM,"U.S. Jaclean, Inc.",CA,90249,Shogun Neck & Back Massger,New,New,1,0.00,180.00,180.00,CreditCard,,,"3 years parts, 1 year labor (Free)","Shogun Neck &amp; Back Massger,",YES,,Cancelled,,,"Lisa Pierce 
7557 Menally Rd,
eufaula OK
Purchased 9/27/2018
//11/9/18 Confirmed in SQ /$180.00/Sep. 27, 2018 7:00 pm/Receipt #baXi---Hitomi",Not Dispatched,1,8.52,USJ-874USJ-874,180.00,baXi,,,,,,0.00,,,,,,,0.00,,,,,,
TULSA STATE FAIR 9/27-10/07/2018 (TX),TULSA STATE FAIR 9/27-10/07/2018 (TX),Carlos Jose,112100,11/9/2018 1:04:05 PM,"U.S. Jaclean, Inc.",CA,90249,Shogun Neck & Back Massger,New,New,1,0.00,220.00,220.00,Cash,,,"2 years parts, 1 year labor (Free)","EZ Reach DUO,Shogun Neck &amp; Back Massger,",YES,,Hold,,,"sales 9/27/18
//already picked up. need to confirmed the cash. place this order under hold till confirm the cash  /11/9/18 Hitomi",TX,1,8.52,USJ-874USJ-874,220.00,,,,,,,0.00,,,,,,,0.00,,,,,,
TULSA STATE FAIR 9/27-10/07/2018 (TX),TULSA STATE FAIR 9/27-10/07/2018 (TX),Carlos Jose,112101,11/9/2018 1:14:32 PM,"U.S. Jaclean, Inc.",CA,90249,Foot Vibe Pro,,New,1,0.00,99.00,99.00,CreditCard,,,"3 years parts, 1 year labor (Free)","Foot Vibe Pro,",YES,,Cancelled,,,"LaDonna Koon
Purchased on 9/27/2018
//11/9/18 Confirmed in SQ . $99.00/Sep. 27, 2018 2:08 pm/Receipt #NRmH --- Hitomi",Not Dispatched,1,8.52,USJ-871,99.00,NRmH,,,,,,0.00,,,,,,,0.00,,,,,,
TULSA STATE FAIR 9/27-10/07/2018 (TX),TULSA STATE FAIR 9/27-10/07/2018 (TX),Carlos Jose,112102,11/9/2018 1:38:47 PM,"U.S. Jaclean, Inc.",CA,90249,Shogun Neck & Back Massger,New,New,1,0.00,199.00,199.00,CreditCard,,,"3 years parts, 1 year labor (Free)","Shogun Neck &amp; Back Massger,",YES,,Cancelled,,,"Kyle Skott
Purchased 9/27/18
//11/9/18 Confirmed $199.00/Sep. 29, 2018 6:40 pm/Receipt #skQv---Hitomi",Not Dispatched,1,8.52,USJ-874USJ-874,199.00,SKQV,,,,,,0.00,,,,,,,0.00,,,,,,
TULSA STATE FAIR 9/27-10/07/2018 (TX),TULSA STATE FAIR 9/27-10/07/2018 (TX),Carlos Jose,112104,11/9/2018 1:50:55 PM,Ashley Yang,OK,74134,Foot Vibe Pro,,New,1,0.00,99.00,99.00,Cash,,,"3 years parts, 1 year labor (Free)","Foot Vibe Pro,",YES,,Hold,,,"sales 9/28/18
//already picked up. need to confirmed the cash. place this order under hold till confirm the cash  /11/9/18 Hitomi",TX,1,8.52,USJ-871,99.00,,,,,,,0.00,,,,,,,0.00,,,,,,
TULSA STATE FAIR 9/27-10/07/2018 (TX),TULSA STATE FAIR 9/27-10/07/2018 (TX),Carlos Jose,112105,11/9/2018 2:04:43 PM,Steve Holly,OK,74447,Foot Vibe Pro,,New,1,8.43,99.00,107.43,Cash,,,"2 years parts, 1 year labor (Free)","Foot Vibe Pro,",YES,,Hold,,,"Paid in full, no remain balance.
//already picked up. need to confirmed the cash. place this order under hold till confirm the cash  /11/9/18 Hitomi",TX,0,8.52,USJ-871,99.00,,,,,,,0.00,,,,,,,0.00,,,,,,
TULSA STATE FAIR 9/27-10/07/2018 (TX),TULSA STATE FAIR 9/27-10/07/2018 (TX),Carlos Jose,112106,11/9/2018 2:14:47 PM,Keith Yang,OK,74128,Foot Vibe Pro,,New,1,0.00,99.00,99.00,CreditCard,,,"3 years parts, 1 year labor (Free)","Foot Vibe Pro,",YES,,Delivered,,,"sales 9/29/18
//11/9/18 Confirmed in SQ, $99.00/Sep. 29, 2018 4:24 pm/Receipt #y0WH---Hitomi",TX,1,8.52,USJ-871,99.00,Receipt #y0WH,,,,,,0.00,,,,,,,0.00,,,,,,
TULSA STATE FAIR 9/27-10/07/2018 (TX),TULSA STATE FAIR 9/27-10/07/2018 (TX),Carlos Jose,112108,11/9/2018 2:24:26 PM,Tim Archer,OK,74055,Shogun Neck & Back Massger,New,New,1,0.00,290.00,290.00,CreditCard,,,"3 years parts, 1 year labor (Free)","Shogun Neck &amp; Back Massger,Foot Vibe Pro,",YES,,Delivered,,,"sales 9/29/18
///11/9/18 Confirmed in SQ / $289.00/ Sep. 29, 2018 1:54 pm/Receipt #dFhf---Hitomi",TX,1,8.52,USJ-874USJ-874,289.00,Receipt #dFhf-,,,,,,0.00,,,,,,,0.00,,,,,,
TULSA STATE FAIR 9/27-10/07/2018 (TX),TULSA STATE FAIR 9/27-10/07/2018 (TX),Carlos Jose,112108,11/9/2018 2:24:26 PM,Tim Archer,OK,74055,Foot Vibe Pro,,New,1,0.00,290.00,290.00,CreditCard,,,"3 years parts, 1 year labor (Free)","Shogun Neck &amp; Back Massger,Foot Vibe Pro,",YES,,Delivered,,,"sales 9/29/18
///11/9/18 Confirmed in SQ / $289.00/ Sep. 29, 2018 1:54 pm/Receipt #dFhf---Hitomi",TX,1,8.52,USJ-871,289.00,Receipt #dFhf-,,,,,,0.00,,,,,,,0.00,,,,,,
TULSA STATE FAIR 9/27-10/07/2018 (TX),TULSA STATE FAIR 9/27-10/07/2018 (TX),Mario Higareda,112110,11/9/2018 2:45:52 PM,Bruce Shelley,OK,74052,Shogun Neck & Back Massger,New,New,1,0.00,199.00,199.00,CreditCard,,,"2 years parts, 1 year labor (Free)","EZ Reach DUO,Shogun Neck &amp; Back Massger,",YES,,Delivered,,,"sales 9/29/18
///11/9/18 Confirmed in Sq. $199.00/Sep. 29, 2018 5:07 pm/Receipt #WMJu--Hitomi",TX,1,8.52,USJ-874USJ-874,199.00,wmJu,,,,,,0.00,,,,,,,0.00,,,,,,
TULSA STATE FAIR 9/27-10/07/2018 (TX),TULSA STATE FAIR 9/27-10/07/2018 (TX),Carlos Jose,112112,11/9/2018 3:03:23 PM,Lynette Long,OK,74027,Shogun Neck & Back Massger,New,New,1,0.00,199.00,199.00,CreditCard,,,"3 years parts, 1 year labor (Free)","Shogun Neck &amp; Back Massger,",YES,,Delivered,,,"sales 9/29/18
//11/9/18 Confirmed in SQ. $199.00/Sep. 29, 2018 11:55 am/Receipt #15Ct ---Hitomi",TX,1,8.52,USJ-874USJ-874,199.00,15ct,,,,,,0.00,,,,,,,0.00,,,,,,
TULSA STATE FAIR 9/27-10/07/2018 (TX),TULSA STATE FAIR 9/27-10/07/2018 (TX),Hiroko Hudson,112115,11/9/2018 3:21:03 PM,Brian Goodman,OK,73069,Vitality Plate,New,New,1,0.00,399.00,399.00,Cash,,,"3 years parts, 1 year labor (Free)","Vitality Plate,",YES,,Hold,,,"sales 9/28/18
//already picked up. need to confirmed the cash. place this order under hold till confirm the cash  /11/9/18 Hitomi",TX,1,8.52,USJ-849USJ-849,399.00,,,,,,,0.00,,,,,,,0.00,,,,,,
TULSA STATE FAIR 9/27-10/07/2018 (TX),TULSA STATE FAIR 9/27-10/07/2018 (TX),Kamille Gines,112120,11/9/2018 3:50:20 PM,Chai Xiong,OK,74145,Shogun Neck & Back Massger,New,New,1,0.00,190.00,190.00,CreditCard,,,"3 years parts, 1 year labor (Free)","Shogun Neck &amp; Back Massger,",YES,,Delivered,,,"sales 9/27/18
//11/9/18 Confirmed in SQ. $190.00/Sep. 27, 2018 4:00 pm/Receipt #4oKv - Hitomi",TX,1,8.52,USJ-874USJ-874,190.00,Receipt #4oKv,,,,,,0.00,,,,,,,0.00,,,,,,
TULSA STATE FAIR 9/27-10/07/2018 (TX),TULSA STATE FAIR 9/27-10/07/2018 (TX),Kamille Gines,112121,11/9/2018 3:54:36 PM,Vinod Patel,OK,74019,Foot Vibe Pro,,New,1,0.00,99.00,99.00,Cash,,,"3 years parts, 1 year labor (Free)","Foot Vibe Pro,",YES,,Hold,,,"sales 9/27/18
//already picked up. need to confirmed the cash. place this order under hold till confirm the cash  /11/9/18 Hitomi",TX,1,8.52,USJ-871,99.00,,,,,,,0.00,,,,,,,0.00,,,,,,
TULSA STATE FAIR 9/27-10/07/2018 (TX),TULSA STATE FAIR 9/27-10/07/2018 (TX),Hiroko Hudson,112270,11/12/2018 12:01:50 PM,Nima Patel,OK,74012,Foot Vibe Pro,,New,1,0.00,99.00,99.00,Cash,,,"3 years parts, 1 year labor (Free)","Foot Vibe Pro,",YES,,Hold,,,"sales 9/29/18
//it was already picked up but place on hold until cash is confirmed. 11/12/18 Hitomi",TX,1,8.52,USJ-871,99.00,,,,,,,0.00,,,,,,,0.00,,,,,,
TULSA STATE FAIR 9/27-10/07/2018 (TX),TULSA STATE FAIR 9/27-10/07/2018 (TX),Hiroko Hudson,112271,11/12/2018 12:39:21 PM,Donnie Nabors,OK,74037,Vitality Plate,New,New,1,0.00,399.00,399.00,Cash,,,"3 years parts, 1 year labor (Free)","Vitality Plate,",YES,,Hold,,,"sales 9/29/18 
// it is already picked up but place on hold till cash is confirmed. 11/12/18 Hitomi",TX,1,8.52,USJ-849USJ-849,399.00,,,,,,,0.00,,,,,,,0.00,,,,,,
TULSA STATE FAIR 9/27-10/07/2018 (TX),TULSA STATE FAIR 9/27-10/07/2018 (TX),Hiroko Hudson,112278,11/12/2018 2:53:16 PM,Hector Carena,OK,74405,Vitality Plate,New,New,1,0.00,370.00,370.00,Cash,,,"3 years parts, 1 year labor (Free)","Vitality Plate,",YES,,Hold,,,"sales 9/29/18 /
// it is already picked up but place on hold till cash is confirmed. 11/12/18 Hitomi",TX,1,8.52,USJ-849USJ-849,370.00,,,,,,,0.00,,,,,,,0.00,,,,,,
TULSA STATE FAIR 9/27-10/07/2018 (TX),TULSA STATE FAIR 9/27-10/07/2018 (TX),Carlos Jose,112279,11/12/2018 2:57:20 PM,NA NA,CA,90249,Foot Vibe Pro,,New,1,0.00,90.00,90.00,Cash,,,"3 years parts, 1 year labor (Free)","Foot Vibe Pro,",YES,,Hold,,,"sales 9/30/18
//it was picked up but place on hold till cash is confirmed. 11/12/18 Hitomi",TX,1,8.52,USJ-871,90.00,,,,,,,0.00,,,,,,,0.00,,,,,,
TULSA STATE FAIR 9/27-10/07/2018 (TX),TULSA STATE FAIR 9/27-10/07/2018 (TX),Hiroko Hudson,112280,11/12/2018 3:22:05 PM,Shannon Keener,OK,74133,Shogun Neck & Back Massger,New,New,1,0.00,279.00,279.00,CreditCard,,,"3 years parts, 1 year labor (Free)","Shogun Neck &amp; Back Massger,Foot Vibe Pro,",YES,,Delivered,,,"sales 9/29/18
//11/12/18 COnfirmed in SQ. $279.00/Sep. 30, 2018 1:24 pm/Receipt #6p9I--Hitomi",TX,1,8.52,USJ-874USJ-874,279.00,Receipt #6p9I,,,,,,0.00,,,,,,,0.00,,,,,,
TULSA STATE FAIR 9/27-10/07/2018 (TX),TULSA STATE FAIR 9/27-10/07/2018 (TX),Hiroko Hudson,112280,11/12/2018 3:22:05 PM,Shannon Keener,OK,74133,Foot Vibe Pro,,New,1,0.00,279.00,279.00,CreditCard,,,"3 years parts, 1 year labor (Free)","Shogun Neck &amp; Back Massger,Foot Vibe Pro,",YES,,Delivered,,,"sales 9/29/18
//11/12/18 COnfirmed in SQ. $279.00/Sep. 30, 2018 1:24 pm/Receipt #6p9I--Hitomi",TX,1,8.52,USJ-871,279.00,Receipt #6p9I,,,,,,0.00,,,,,,,0.00,,,,,,
TULSA STATE FAIR 9/27-10/07/2018 (TX),TULSA STATE FAIR 9/27-10/07/2018 (TX),Hiroko Hudson,112282,11/12/2018 3:29:05 PM,Ashley Myers,OK,74361,Shogun Neck & Back Massger,New,New,1,0.00,279.00,279.00,Cash,,,"3 years parts, 1 year labor (Free)","Shogun Neck &amp; Back Massger,Foot Vibe Pro,",YES,,Hold,,,"sales 9/29/18
///it is already picked up but place on hold till cash is confirmed. 11/12/18 - Hitomi",TX,1,8.52,USJ-874USJ-874,279.00,,,,,,,0.00,,,,,,,0.00,,,,,,
TULSA STATE FAIR 9/27-10/07/2018 (TX),TULSA STATE FAIR 9/27-10/07/2018 (TX),Hiroko Hudson,112282,11/12/2018 3:29:05 PM,Ashley Myers,OK,74361,Foot Vibe Pro,,New,1,0.00,279.00,279.00,Cash,,,"3 years parts, 1 year labor (Free)","Shogun Neck &amp; Back Massger,Foot Vibe Pro,",YES,,Hold,,,"sales 9/29/18
///it is already picked up but place on hold till cash is confirmed. 11/12/18 - Hitomi",TX,1,8.52,USJ-871,279.00,,,,,,,0.00,,,,,,,0.00,,,,,,
TULSA STATE FAIR 9/27-10/07/2018 (TX),TULSA STATE FAIR 9/27-10/07/2018 (TX),Hiroko Hudson,112283,11/12/2018 3:33:38 PM,Roger Tucker,OK,74112,Shogun Neck & Back Massger,New,New,1,0.00,180.00,180.00,CreditCard,,,"3 years parts, 1 year labor (Free)","Shogun Neck &amp; Back Massger,",YES,,Delivered,,,"sales 9/30/18
//11/12/18 Confirmed in SQ. $180.00/Sep. 30, 2018 11:58 am/Receipt #Zwbq ---Hitomi",TX,1,8.52,USJ-874USJ-874,180.00,Zwbq,,,,,,0.00,,,,,,,0.00,,,,,,
TULSA STATE FAIR 9/27-10/07/2018 (TX),TULSA STATE FAIR 9/27-10/07/2018 (TX),Hiroko Hudson,112284,11/12/2018 3:38:38 PM,Robert Miwinston,OK,74012,Shogun Neck & Back Massger,New,New,1,0.00,270.00,270.00,CreditCard,,,"3 years parts, 1 year labor (Free)","Shogun Neck &amp; Back Massger,Foot Vibe Pro,",YES,,Delivered,,,"sales 9/29/18
//11/12/18 Confirmed in SQ. $270.00/Sep. 30, 2018 6:37 pm/Receipt #3vHZ---Hitomi",TX,1,8.52,USJ-874USJ-874,270.00,3vHZ,,,,,,0.00,,,,,,,0.00,,,,,,
TULSA STATE FAIR 9/27-10/07/2018 (TX),TULSA STATE FAIR 9/27-10/07/2018 (TX),Hiroko Hudson,112284,11/12/2018 3:38:38 PM,Robert Miwinston,OK,74012,Foot Vibe Pro,,New,1,0.00,270.00,270.00,CreditCard,,,"3 years parts, 1 year labor (Free)","Shogun Neck &amp; Back Massger,Foot Vibe Pro,",YES,,Delivered,,,"sales 9/29/18
//11/12/18 Confirmed in SQ. $270.00/Sep. 30, 2018 6:37 pm/Receipt #3vHZ---Hitomi",TX,1,8.52,USJ-871,270.00,3vHZ,,,,,,0.00,,,,,,,0.00,,,,,,
TULSA STATE FAIR 9/27-10/07/2018 (TX),TULSA STATE FAIR 9/27-10/07/2018 (TX),Carlos Jose,112347,11/16/2018 11:26:39 AM,Matthews Peschong,OK,74055,Shogun Neck & Back Massger,New,New,1,0.00,280.00,280.00,CreditCard,,,"3 years parts, 1 year labor (Free)","Shogun Neck &amp; Back Massger,Foot Vibe Pro,",YES,,Delivered,,,"sales 10/1/18 
//11/19/18 --COnfirmed in SQ./ $280.00/Oct. 1, 2018 5:32 pm/Receipt #qEc6--Hitomi",TX,1,8.52,USJ-874USJ-874,280.00,Receipt #qEc6,,,,,,0.00,,,,,,,0.00,,,,,,
TULSA STATE FAIR 9/27-10/07/2018 (TX),TULSA STATE FAIR 9/27-10/07/2018 (TX),Carlos Jose,112347,11/16/2018 11:26:39 AM,Matthews Peschong,OK,74055,Foot Vibe Pro,,New,1,0.00,280.00,280.00,CreditCard,,,"3 years parts, 1 year labor (Free)","Shogun Neck &amp; Back Massger,Foot Vibe Pro,",YES,,Delivered,,,"sales 10/1/18 
//11/19/18 --COnfirmed in SQ./ $280.00/Oct. 1, 2018 5:32 pm/Receipt #qEc6--Hitomi",TX,1,8.52,USJ-871,280.00,Receipt #qEc6,,,,,,0.00,,,,,,,0.00,,,,,,
TULSA STATE FAIR 9/27-10/07/2018 (TX),TULSA STATE FAIR 9/27-10/07/2018 (TX),Kamille Gines,112348,11/16/2018 11:29:17 AM,John Millea,CA,92677,Vitality Plate,New,New,1,0.00,399.00,399.00,CreditCard,,,"3 years parts, 1 year labor (Free)","Vitality Plate,EZ Reach DUO,",YES,10/2/2018 12:00:00 AM,Delivered,,,"CORRECTION for #110006/
sales 10/1/18
//Free delivery approved by Mario//COnfirmed $399.00 in Square. EZ DUO is already picked up at fair. Only Vitality plate is shipped out 10/1/18 Hitomi",CA,1,8.52,USJ-849USJ-849,399.00,tAvk,,,,,,0.00,,,,,,,0.00,,,,,,
TULSA STATE FAIR 9/27-10/07/2018 (TX),TULSA STATE FAIR 9/27-10/07/2018 (TX),Carlos Jose,112350,11/16/2018 11:32:43 AM,Amy Evans,NV,89011,Shogun Neck & Back Massger,New,New,1,0.00,180.00,180.00,CreditCard,,,"3 years parts, 1 year labor (Free)","Shogun Neck &amp; Back Massger,",YES,,Delivered,,,"sales 10/1/18 ///
11/19/18 Confirmed in SQ $180.00/Oct. 1, 2018 4:36 pm/Receipt #pfS8-Hitomi",TX,1,8.52,USJ-874USJ-874,180.00,pfS8,,,,,,0.00,,,,,,,0.00,,,,,,
TULSA STATE FAIR 9/27-10/07/2018 (TX),TULSA STATE FAIR 9/27-10/07/2018 (TX),Carlos Jose,112351,11/16/2018 11:35:47 AM,Carmen Qualls,OK,74137,Shogun Neck & Back Massger,New,New,1,0.00,180.00,180.00,CreditCard,,,"3 years parts, 1 year labor (Free)","Shogun Neck &amp; Back Massger,",YES,,Delivered,,,"sales 10/1/18 
///11/19/18 Confirmed in SQU. $180.00/Oct. 1, 2018 4:14 pm/Receipt #aTsG- Hitomi",TX,1,8.52,USJ-874USJ-874,180.00,Receipt #aTsG,,,,,,0.00,,,,,,,0.00,,,,,,
TULSA STATE FAIR 9/27-10/07/2018 (TX),TULSA STATE FAIR 9/27-10/07/2018 (TX),Hiroko Hudson,112352,11/16/2018 11:40:01 AM,Juan Villamic,CA,90249,Foot Vibe Pro,,New,1,0.00,90.00,90.00,Cash,,,"3 years parts, 1 year labor (Free)","Foot Vibe Pro,",YES,,Hold,,,"sales 10/1/18
///item already picked up.  until confirm cash , place on hold 11/19/18 Hitomi",TX,1,8.52,USJ-871,90.00,,,,,,,0.00,,,,,,,0.00,,,,,,
TULSA STATE FAIR 9/27-10/07/2018 (TX),TULSA STATE FAIR 9/27-10/07/2018 (TX),Hiroko Hudson,112353,11/16/2018 11:42:17 AM,Jacqueline Rhodes,OK,74127,Foot Vibe Pro,,New,1,0.00,99.00,99.00,CreditCard,,,"3 years parts, 1 year labor (Free)","Foot Vibe Pro,",YES,,Delivered,,,"sales 10/1/18
///11/19/18 - Confirmed in SQ. $99.00/Oct. 1, 2018 6:51 pm/Receipt #J4Dp-Hitomi",TX,1,8.52,USJ-871,99.00,J4Dp,,,,,,0.00,,,,,,,0.00,,,,,,
TULSA STATE FAIR 9/27-10/07/2018 (TX),TULSA STATE FAIR 9/27-10/07/2018 (TX),Kamille Gines,112354,11/16/2018 11:47:44 AM,Anne Beshara,OK,74116,Shogun Neck & Back Massger,Demo[-20],Demo,1,0.00,440.00,440.00,CreditCard,,,"3 years parts, 1 year labor (Free)","Shogun Neck &amp; Back Massger,Vitality Plate,",YES,,Delivered,,,"sale 10/7/18
///11/19/18 Confirmed in SQ. /$440.00/Visa 6817 $220.00/Oct. 7, 2018 12:24 pm/Receipt #NruJ/
Visa 5388 $220.00/Oct. 7, 2018 12:25 pm/Receipt #gMcY---Hitomi",TX,1,8.52,USJ-874USJ-874-DEMO,440.00,gMcY,,,,,,0.00,,,,,,,0.00,,,,,,
TULSA STATE FAIR 9/27-10/07/2018 (TX),TULSA STATE FAIR 9/27-10/07/2018 (TX),Kamille Gines,112354,11/16/2018 11:47:44 AM,Anne Beshara,OK,74116,Vitality Plate,Demo,Demo,1,0.00,440.00,440.00,CreditCard,,,"3 years parts, 1 year labor (Free)","Shogun Neck &amp; Back Massger,Vitality Plate,",YES,,Delivered,,,"sale 10/7/18
///11/19/18 Confirmed in SQ. /$440.00/Visa 6817 $220.00/Oct. 7, 2018 12:24 pm/Receipt #NruJ/
Visa 5388 $220.00/Oct. 7, 2018 12:25 pm/Receipt #gMcY---Hitomi",TX,1,8.52,USJ-849USJ-849-DEMO,440.00,gMcY,,,,,,0.00,,,,,,,0.00,,,,,,
TULSA STATE FAIR 9/27-10/07/2018 (TX),TULSA STATE FAIR 9/27-10/07/2018 (TX),Carlos Jose,112355,11/16/2018 11:50:49 AM,Valerie Taylor,OK,74361,Foot Vibe Pro,,New,1,0.00,70.00,70.00,CreditCard,,,"3 years parts, 1 year labor (Free)","Foot Vibe Pro,",YES,,Delivered,,,"sales 10/7/18 
///11/19/18 Confirmed in SQ. $70.00/Oct. 7, 2018 12:07 pm/Receipt #7Coj--Hitomi",TX,1,8.52,USJ-871,70.00,7Coj,,,,,,0.00,,,,,,,0.00,,,,,,
TULSA STATE FAIR 9/27-10/07/2018 (TX),TULSA STATE FAIR 9/27-10/07/2018 (TX),Carlos Jose,112356,11/16/2018 11:57:15 AM,Tuffy Sanders,OK,12234,Foot Vibe Pro,,New,1,0.00,80.00,80.00,Cash,,,"3 years parts, 1 year labor (Free)","Foot Vibe Pro,",YES,,Hold,,,"sales 10/7/18 
///item is already picked up. please on hold till cash is confirmed 11/19/18 Hitomi",TX,1,8.52,USJ-871,80.00,,,,,,,0.00,,,,,,,0.00,,,,,,
TULSA STATE FAIR 9/27-10/07/2018 (TX),TULSA STATE FAIR 9/27-10/07/2018 (TX),Carlos Jose,112359,11/16/2018 12:11:39 PM,Sondra Knight,OK,74008,Foot Vibe Pro,,New,1,0.00,99.00,99.00,CreditCard,,,"3 years parts, 1 year labor (Free)","Foot Vibe Pro,",YES,,Delivered,,,"sales 10/7/18
///11/19/18 COnfirmed in SQ. $99.00/Oct. 7, 2018 12:47 pm/Receipt #KrzW--Hitomi",TX,1,8.52,USJ-871,99.00,KrzW,,,,,,0.00,,,,,,,0.00,,,,,,
TULSA STATE FAIR 9/27-10/07/2018 (TX),TULSA STATE FAIR 9/27-10/07/2018 (TX),Hiroko Hudson,112486,11/19/2018 2:10:16 PM,Aretha Bias,OK,74012,Foot Vibe Pro,,New,1,0.00,90.00,90.00,Cash,,,"3 years parts, 1 year labor (Free)","Foot Vibe Pro,",YES,,Hold,,,"sales 10/5/18
//it was picked up. place on hold till cash is confirmed 11/19/18 Hitomi",TX,1,8.52,USJ-871,90.00,,,,,,,0.00,,,,,,,0.00,,,,,,
TULSA STATE FAIR 9/27-10/07/2018 (TX),TULSA STATE FAIR 9/27-10/07/2018 (TX),Hiroko Hudson,112487,11/19/2018 2:21:49 PM,Zach Nick,OK,74105,Shogun Neck & Back Massger,New,New,1,0.00,190.00,190.00,Cash,,,"3 years parts, 1 year labor (Free)","Shogun Neck &amp; Back Massger,",YES,,Hold,,,"sales 10/5/18
///item was picked up. place on hold until cash is confirmed. 11/19/18 Hitomi",TX,1,8.52,USJ-874USJ-874,190.00,,,,,,,0.00,,,,,,,0.00,,,,,,
TULSA STATE FAIR 9/27-10/07/2018 (TX),TULSA STATE FAIR 9/27-10/07/2018 (TX),Hiroko Hudson,112489,11/19/2018 2:40:09 PM,Pyasu Datel,OK,74192,Foot Vibe Pro,,New,1,0.00,90.00,90.00,Cash,,,"3 years parts, 1 year labor (Free)","Foot Vibe Pro,",YES,,Hold,,,"sale 10/5/18
//it was already picked up. place on hold till cash is confirmed 11/20/18 Hitomi",TX,1,8.52,USJ-871,90.00,,,,,,,0.00,,,,,,,0.00,,,,,,
TULSA STATE FAIR 9/27-10/07/2018 (TX),TULSA STATE FAIR 9/27-10/07/2018 (TX),Hiroko Hudson,112490,11/19/2018 2:45:12 PM,Dwane Otto,SC,12345,Shogun Neck & Back Massger,Demo[-20],Demo,1,0.00,150.00,150.00,CreditCard,,,"3 years parts, 1 year labor (Free)","Shogun Neck &amp; Back Massger,",YES,,Delivered,,,"sales 10/5/18
///11/20/18 Confirmed in SQ./$150.00/Oct. 5, 2018 4:56 pm/Receipt #5zSX--Hitomi",TX,1,8.52,USJ-874USJ-874-DEMO,150.00,5zSX,,,,,,0.00,,,,,,,0.00,,,,,,
TULSA STATE FAIR 9/27-10/07/2018 (TX),TULSA STATE FAIR 9/27-10/07/2018 (TX),Hiroko Hudson,112491,11/19/2018 2:50:52 PM,David Sorenspn,OK,74129,Foot Vibe Pro,,New,1,0.00,90.00,90.00,CreditCard,,,"3 years parts, 1 year labor (Free)","Foot Vibe Pro,",YES,,Delivered,,,"sales 10/7/18
///11/19/18 Confirmed in SQ.$90.00
American Express 9018 (D SORENSEN) $90.00
Oct. 7, 2018 5:52 pm
Receipt #IeWB",TX,1,8.52,USJ-871,90.00,Receipt #IeWB,,,,,,0.00,,,,,,,0.00,,,,,,
TULSA STATE FAIR 9/27-10/07/2018 (TX),TULSA STATE FAIR 9/27-10/07/2018 (TX),Hiroko Hudson,112492,11/19/2018 2:57:55 PM,Jeff Green,OK,75012,Shogun Neck & Back Massger,Demo[-20],Demo,1,0.00,190.00,190.00,Cash,,,"3 years parts, 1 year labor (Free)","Shogun Neck &amp; Back Massger,EZ Reach DUO,",YES,,Hold,,,"sales 10/7/18
///it was picked up already. place on hold until cash is confirmed 11/19/18 Hitomi",TX,1,8.52,USJ-874USJ-874-DEMO,190.00,,,,,,,0.00,,,,,,,0.00,,,,,,
TULSA STATE FAIR 9/27-10/07/2018 (TX),TULSA STATE FAIR 9/27-10/07/2018 (TX),Hiroko Hudson,112493,11/19/2018 3:01:33 PM,Tahlor Fugate,OK,74105,Shogun Neck & Back Massger,New,New,1,0.00,190.00,190.00,CreditCard,,,"3 years parts, 1 year labor (Free)","Shogun Neck &amp; Back Massger,",YES,,Delivered,,,"sales 10/7/18
//11/20/18 Confirmed in SQ. $190.00/Oct. 7, 2018 4:53 pm/Receipt #jTE7---Hitomi",TX,1,8.52,USJ-874USJ-874,190.00,#jTE7,,,,,,0.00,,,,,,,0.00,,,,,,
TULSA STATE FAIR 9/27-10/07/2018 (TX),TULSA STATE FAIR 9/27-10/07/2018 (TX),Hiroko Hudson,112494,11/19/2018 3:07:36 PM,Carl Downs,OK,75042,Foot Vibe Pro,,New,1,0.00,90.00,90.00,Cash,,,"3 years parts, 1 year labor (Free)","Foot Vibe Pro,",YES,,Hold,,,"sales 10/7/18
///it was already picked up. place on hold till cash is confirmed- 11/19/18 Hitomi",TX,1,8.52,USJ-871,90.00,,,,,,,0.00,,,,,,,0.00,,,,,,
TULSA STATE FAIR 9/27-10/07/2018 (TX),TULSA STATE FAIR 9/27-10/07/2018 (TX),Hiroko Hudson,112496,11/19/2018 3:22:22 PM,James Loerke,OK,74126,Shogun Neck & Back Massger,Demo[-20],Demo,1,0.00,240.00,240.00,CreditCard,,,"3 years parts, 1 year labor (Free)","Shogun Neck &amp; Back Massger,Foot Vibe Pro,",YES,,Delivered,,,"sales 10/7/18
//11/27/18-Confirmed 
1)Receipt #lpfT-- $150.00/Oct. 7, 2018 4:02 pm
2)Receipt #W69t--$90.00/Oct. 7, 2018 4:03 pm",TX,1,8.52,USJ-874USJ-874-DEMO,150.00,Receipt #lpfT,,,,,,0.00,,,,,,,0.00,,,,,,
TULSA STATE FAIR 9/27-10/07/2018 (TX),TULSA STATE FAIR 9/27-10/07/2018 (TX),Hiroko Hudson,112496,11/19/2018 3:22:22 PM,James Loerke,OK,74126,Foot Vibe Pro,,New,1,0.00,240.00,240.00,CreditCard,,,"3 years parts, 1 year labor (Free)","Shogun Neck &amp; Back Massger,Foot Vibe Pro,",YES,,Delivered,,,"sales 10/7/18
//11/27/18-Confirmed 
1)Receipt #lpfT-- $150.00/Oct. 7, 2018 4:02 pm
2)Receipt #W69t--$90.00/Oct. 7, 2018 4:03 pm",TX,1,8.52,USJ-871,150.00,Receipt #lpfT,,,,,,0.00,,,,,,,0.00,,,,,,
TULSA STATE FAIR 9/27-10/07/2018 (TX),TULSA STATE FAIR 9/27-10/07/2018 (TX),Hiroko Hudson,112497,11/19/2018 3:26:26 PM,Thomas Patterson,OK,74012,Shogun Neck & Back Massger,Demo[-20],Demo,1,0.00,240.00,240.00,CreditCard,,,"3 years parts, 1 year labor (Free)","Shogun Neck &amp; Back Massger,Foot Vibe Pro,",YES,,Delivered,,,"sales 10/7/18
///11/19/18 Confirmed in SQ. /$240.00/MasterCard 7973 (THOMAS PATTERSON) $240.00/Oct. 7, 2018 4:10 pm/Receipt #zMfj---Hitomi",TX,1,8.52,USJ-874USJ-874-DEMO,240.00,Receipt #zMfj,,,,,,0.00,leWB,,,,,,0.00,,,,,,
TULSA STATE FAIR 9/27-10/07/2018 (TX),TULSA STATE FAIR 9/27-10/07/2018 (TX),Hiroko Hudson,112497,11/19/2018 3:26:26 PM,Thomas Patterson,OK,74012,Foot Vibe Pro,,New,1,0.00,240.00,240.00,CreditCard,,,"3 years parts, 1 year labor (Free)","Shogun Neck &amp; Back Massger,Foot Vibe Pro,",YES,,Delivered,,,"sales 10/7/18
///11/19/18 Confirmed in SQ. /$240.00/MasterCard 7973 (THOMAS PATTERSON) $240.00/Oct. 7, 2018 4:10 pm/Receipt #zMfj---Hitomi",TX,1,8.52,USJ-871,240.00,Receipt #zMfj,,,,,,0.00,leWB,,,,,,0.00,,,,,,
TULSA STATE FAIR 9/27-10/07/2018 (TX),TULSA STATE FAIR 9/27-10/07/2018 (TX),Hiroko Hudson,112498,11/19/2018 3:31:18 PM,Mary Wassong,OK,74129,Vitality Plate,Demo,Demo,1,0.00,299.00,299.00,CreditCard,,,"3 years parts, 1 year labor (Free)","Vitality Plate,",YES,,Delivered,,,"sales 10/7/18 
///11/19/18 - Confirmed in SQ. $299.00/Oct. 7, 2018 1:19 pm/Receipt #4Rip--Hitomi",TX,1,8.52,USJ-849USJ-849-DEMO,299.00,4Rip,,,,,,0.00,,,,,,,0.00,,,,,,
TULSA STATE FAIR 9/27-10/07/2018 (TX),TULSA STATE FAIR 9/27-10/07/2018 (TX),Hiroko Hudson,112500,11/19/2018 3:33:28 PM,Melissa Fugate,OK,74048,Vitality Plate,Demo,Demo,2,0.00,598.00,598.00,CreditCard,,,"3 years parts, 1 year labor (Free)","Vitality Plate,",YES,,Delivered,,,"sales 10/7/18
///11/19/18 Confirmed in SQ. $598.00/Oct. 7, 2018 4:42 pm/Receipt #fj7J---Hitomi",TX,1,8.52,USJ-849USJ-849-DEMO,598.00,fj7J,,,,,,0.00,,,,,,,0.00,,,,,,
TULSA STATE FAIR 9/27-10/07/2018 (TX),TULSA STATE FAIR 9/27-10/07/2018 (TX),Hiroko Hudson,112501,11/19/2018 3:40:55 PM,Erin Blaine,CT,95603,Vitality Plate,New,New,1,0.00,399.00,399.00,CreditCard,,,"3 years parts, 1 year labor (Free)","Vitality Plate,",YES,,Cancelled,,,Duplicate for  #110116. cancel this one,Not Dispatched,1,8.52,USJ-849USJ-849,399.00,bSoh,,,,,,0.00,,,,,,,0.00,,,,,,
TULSA STATE FAIR 9/27-10/07/2018 (TX),TULSA STATE FAIR 9/27-10/07/2018 (TX),Hiroko Hudson,112502,11/19/2018 3:47:43 PM,Jennifer Griteser,OK,95811,Vitality Plate,New,New,1,0.00,399.00,399.00,CreditCard,,,"3 years parts, 1 year labor (Free)","Vitality Plate,",YES,,Cancelled,,,Duplicate for #110119 . cancel this one,Not Dispatched,1,8.52,USJ-849USJ-849,399.00,mLf4,,,,,,0.00,,,,,,,0.00,,,,,,
TULSA STATE FAIR 9/27-10/07/2018 (TX),TULSA STATE FAIR 9/27-10/07/2018 (TX),Hiroko Hudson,112503,11/19/2018 3:53:11 PM,Tul G,OK,74063,Shogun Neck & Back Massger,Demo[-20],Demo,1,0.00,150.00,150.00,CreditCard,,,"3 years parts, 1 year labor (Free)","Shogun Neck &amp; Back Massger,",YES,,Delivered,,,"sales 10/6/18
///11/19/18 Confirmed in SQ./ $150.00/Oct. 6, 2018 6:34 pm/Receipt #YrBL---Hitomi",TX,1,8.52,USJ-874USJ-874-DEMO,150.00,YrBL,,,,,,0.00,,,,,,,0.00,,,,,,
TULSA STATE FAIR 9/27-10/07/2018 (TX),TULSA STATE FAIR 9/27-10/07/2018 (TX),Kamille Gines,112526,11/20/2018 11:54:20 AM,Shay Robinson,OK,74063,Foot Vibe Pro,,New,2,0.00,200.00,200.00,CreditCard,,,"3 years parts, 1 year labor (Free)","Foot Vibe Pro,",YES,,Delivered,,,"Purchased 9/28/2018
//Confirmed in SQ. $200.00/Sep. 28, 2018 12:07 pm/Receipt #S39v  --- Hitomi",TX,1,8.52,USJ-871,200.00,S39v,,,,,,0.00,,,,,,,0.00,,,,,,
TULSA STATE FAIR 9/27-10/07/2018 (TX),TULSA STATE FAIR 9/27-10/07/2018 (TX),Kamille Gines,112527,11/20/2018 12:05:17 PM,Shoua Xiong,AA,99999,Foot Vibe Pro,,New,1,0.00,100.00,100.00,Cash,,,"3 years parts, 1 year labor (Free)","Foot Vibe Pro,",YES,,Hold,,,"Purchased 9/20/2018
////already picked up. need to confirmed the cash. place this order under hold till confirm the cash  /11/9/18 Hitomi",TX,1,8.52,USJ-871,100.00,,,,,,,0.00,,,,,,,0.00,,,,,,
TULSA STATE FAIR 9/27-10/07/2018 (TX),TULSA STATE FAIR 9/27-10/07/2018 (TX),Kamille Gines,112529,11/20/2018 12:24:09 PM,Travis Guillory,OK,74114,Vitality Plate,New,New,1,0.00,420.00,420.00,CreditCard,,,"3 years parts, 1 year labor (Free)","Vitality Plate,",YES,,Delivered,,,"Purchased 9/28/2018
///11/9/18 Confirmed in SQ. $420.00/Sep. 28, 2018 4:34 pm/Receipt #9Izp---Hitomi",TX,1,8.52,USJ-849USJ-849,420.00,Receipt #9Izp,,,,,,0.00,,,,,,,0.00,,,,,,
TULSA STATE FAIR 9/27-10/07/2018 (TX),TULSA STATE FAIR 9/27-10/07/2018 (TX),Hiroko Hudson,112530,11/20/2018 12:44:04 PM,Lisa Pierce,OK,74432,Shogun Neck & Back Massger,New,New,1,0.00,180.00,180.00,CreditCard,,,"3 years parts, 1 year labor (Free)","Shogun Neck &amp; Back Massger,",YES,,Delivered,,,"Purchased 9/27/2018
//11/9/18 Confirmed in SQ /$180.00/Sep. 27, 2018 7:00 pm/Receipt #baXi---Hitomi",TX,1,8.52,USJ-874USJ-874,180.00,baXi,,,,,,0.00,,,,,,,0.00,,,,,,
TULSA STATE FAIR 9/27-10/07/2018 (TX),TULSA STATE FAIR 9/27-10/07/2018 (TX),Carlos Jose,112531,11/20/2018 12:52:17 PM,LaDonna Koon,OK,73703,Foot Vibe Pro,,New,1,0.00,99.00,99.00,CreditCard,,,"3 years parts, 1 year labor (Free)","Foot Vibe Pro,",YES,,Delivered,,,"Purchased on 9/27/2018
//11/9/18 Confirmed in SQ . $99.00/Sep. 27, 2018 2:08 pm/Receipt #NRmH --- Hitomi",TX,1,8.52,USJ-871,99.00,NRmH,,,,,,0.00,,,,,,,0.00,,,,,,
TULSA STATE FAIR 9/27-10/07/2018 (TX),TULSA STATE FAIR 9/27-10/07/2018 (TX),Carlos Jose,112534,11/20/2018 3:07:20 PM,Kyle Scott,AA,99999,Shogun Neck & Back Massger,New,New,1,0.00,199.00,199.00,CreditCard,,,"3 years parts, 1 year labor (Free)","Shogun Neck &amp; Back Massger,",YES,,Delivered,,,"Purchased 9/29/18
//11/9/18 Confirmed $199.00/Sep. 29, 2018 6:40 pm/Receipt #skQv---Hitomi",TX,1,8.52,USJ-874USJ-874,199.00,SKQV,,,,,,0.00,,,,,,,0.00,,,,,,
TULSA STATE FAIR 9/27-10/07/2018 (TX),TULSA STATE FAIR 9/27-10/07/2018 (TX),Carlos Jose,112535,11/20/2018 4:11:35 PM,Tammy Dorland,OK,74019,Shogun Neck & Back Massger,New,New,1,0.00,199.00,199.00,CreditCard,,,"2 years parts, 1 year labor (Free)","Shogun Neck &amp; Back Massger,",YES,,Delivered,,,"sales 9/30/2018
//Confirmed in SQ- $199.00 /Sep. 30, 2018 11:43 am/Receipt #TFly - 11/9/18 Hitomi",TX,1,8.52,USJ-874USJ-874,199.00,TFly,,,,,,0.00,,,,,,,0.00,,,,,,
TULSA STATE FAIR 9/27-10/07/2018 (TX),TULSA STATE FAIR 9/27-10/07/2018 (TX),Carlos Jose,112536,11/20/2018 4:20:49 PM,Charles Strinyo,AA,99999,Foot Vibe Pro,,New,1,0.00,99.00,99.00,CreditCard,,,"2 years parts, 1 year labor (Free)","Foot Vibe Pro,",YES,,Delivered,,,"sales 9/30/18
//Confirmed in $99.00 SQ -Receipt #r47w 11/9/18 Hitomi",TX,1,8.52,USJ-871,99.00,Receipt #r47w,,,,,,0.00,,,,,,,0.00,,,,,,
TULSA STATE FAIR 9/27-10/07/2018 (TX),TULSA STATE FAIR 9/27-10/07/2018 (TX),Carlos Jose,112537,11/20/2018 4:30:57 PM,Barbara Riddle,OK,74137,Foot Vibe Pro,,New,1,0.00,99.00,99.00,CreditCard,,,"2 years parts, 1 year labor (Free)","Foot Vibe Pro,",YES,,Delivered,,,"sales 9/30/18
//Confirmed in SQ $99.00 / Sep. 30, 2018 11:24 am/ Receipt #9mUG---11/9/18 Hitomi",TX,1,8.52,USJ-871,99.00,Receipt #9mUG,,,,,,0.00,,,,,,,0.00,,,,,,
TULSA STATE FAIR 9/27-10/07/2018 (TX),TULSA STATE FAIR 9/27-10/07/2018 (TX),Kamille Gines,112538,11/20/2018 4:40:40 PM,Benny Scott,OK,74464,Vitality Plate,New,New,1,0.00,399.00,399.00,CreditCard,,,"3 years parts, 1 year labor (Free)","Vitality Plate,",YES,,Delivered,,,"sales 9/30/18
////11/9/18 Confirmed in SQ $399.00/Sep. 30, 2018 1:57 pm/Receipt #GvSS -Hitomi",TX,1,8.52,USJ-849USJ-849,399.00,GvSS,,,,,,0.00,,,,,,,0.00,,,,,,
TULSA STATE FAIR 9/27-10/07/2018 (TX),TULSA STATE FAIR 9/27-10/07/2018 (TX),Mario Higareda,112539,11/20/2018 4:51:51 PM,Leanne C Vanorsdoc,OK,99999,Foot Vibe Pro,,New,1,0.00,320.00,320.00,CreditCard,,,"2 years parts, 1 year labor (Free)","Foot Vibe Pro,Shogun Neck &amp; Back Massger,EZ Reach DUO,",YES,,Delivered,,,"Purchased 9/30/2018
//11/9/18 Confirmed $320.00/Sep. 30, 2018 3:19 pm/Receipt #R3GI - Hitomi",TX,1,8.52,USJ-871,320.00,Receipt #R3GI,,,,,,0.00,,,,,,,0.00,,,,,,
TULSA STATE FAIR 9/27-10/07/2018 (TX),TULSA STATE FAIR 9/27-10/07/2018 (TX),Mario Higareda,112539,11/20/2018 4:51:51 PM,Leanne C Vanorsdoc,OK,99999,Shogun Neck & Back Massger,New,New,1,0.00,320.00,320.00,CreditCard,,,"2 years parts, 1 year labor (Free)","Foot Vibe Pro,Shogun Neck &amp; Back Massger,EZ Reach DUO,",YES,,Delivered,,,"Purchased 9/30/2018
//11/9/18 Confirmed $320.00/Sep. 30, 2018 3:19 pm/Receipt #R3GI - Hitomi",TX,1,8.52,USJ-874USJ-874,320.00,Receipt #R3GI,,,,,,0.00,,,,,,,0.00,,,,,,
TULSA STATE FAIR 9/27-10/07/2018 (TX),TULSA STATE FAIR 9/27-10/07/2018 (TX),Carlos Jose,112540,11/20/2018 5:11:42 PM,Lindsey Neal Kuykendall,OK,74112,Shogun Neck & Back Massger,New,New,1,0.00,280.00,280.00,CreditCard,CreditCard,,"3 years parts, 1 year labor (Free)","Shogun Neck &amp; Back Massger,Foot Vibe Pro,",YES,,Delivered,,,"Purchases 9/30/18
//11/9/18 Confirmed in SQ. -- Hitomi
1)$190.00/Sep. 30, 2018 3:16 pm/Receipt #pRPv
2)$90.00/Sep. 30, 2018 3:14 pm/Receipt #7RJL",TX,1,8.52,USJ-874USJ-874,190.00,pRPv,,,,,,90.00,Receipt #7RJL,,,,,,0.00,,,,,,
TULSA STATE FAIR 9/27-10/07/2018 (TX),TULSA STATE FAIR 9/27-10/07/2018 (TX),Carlos Jose,112540,11/20/2018 5:11:42 PM,Lindsey Neal Kuykendall,OK,74112,Foot Vibe Pro,,New,1,0.00,280.00,280.00,CreditCard,CreditCard,,"3 years parts, 1 year labor (Free)","Shogun Neck &amp; Back Massger,Foot Vibe Pro,",YES,,Delivered,,,"Purchases 9/30/18
//11/9/18 Confirmed in SQ. -- Hitomi
1)$190.00/Sep. 30, 2018 3:16 pm/Receipt #pRPv
2)$90.00/Sep. 30, 2018 3:14 pm/Receipt #7RJL",TX,1,8.52,USJ-871,190.00,pRPv,,,,,,90.00,Receipt #7RJL,,,,,,0.00,,,,,,
TULSA STATE FAIR 9/27-10/07/2018 (TX),TULSA STATE FAIR 9/27-10/07/2018 (TX),Carlos Jose,112541,11/21/2018 9:24:18 AM,Mayled Marrero,AA,99999,Foot Vibe Pro,,New,1,0.00,280.00,280.00,CreditCard,,,"3 years parts, 1 year labor (Free)","Foot Vibe Pro,Shogun Neck &amp; Back Massger,",YES,,Delivered,,,"Purchased 9/30/2018
//11/9/18 Confirmed in SQ. $280.00/Sep. 30, 2018 4:45 pm/Receipt #qcav---Hitomi",TX,1,8.52,USJ-871,280.00,QCAV,,,,,,0.00,,,,,,,0.00,,,,,,
TULSA STATE FAIR 9/27-10/07/2018 (TX),TULSA STATE FAIR 9/27-10/07/2018 (TX),Carlos Jose,112541,11/21/2018 9:24:18 AM,Mayled Marrero,AA,99999,Shogun Neck & Back Massger,New,New,1,0.00,280.00,280.00,CreditCard,,,"3 years parts, 1 year labor (Free)","Foot Vibe Pro,Shogun Neck &amp; Back Massger,",YES,,Delivered,,,"Purchased 9/30/2018
//11/9/18 Confirmed in SQ. $280.00/Sep. 30, 2018 4:45 pm/Receipt #qcav---Hitomi",TX,1,8.52,USJ-874USJ-874,280.00,QCAV,,,,,,0.00,,,,,,,0.00,,,,,,
TULSA STATE FAIR 9/27-10/07/2018 (TX),TULSA STATE FAIR 9/27-10/07/2018 (TX),Kamille Gines,112543,11/21/2018 9:30:06 AM,Harvey Rice,OK,74437,Vitality Plate,New,New,1,0.00,399.00,399.00,CreditCard,,,"3 years parts, 1 year labor (Free)","Vitality Plate,",YES,,Delivered,,,"Purchased on 9/30/2018
//11/9/18 Confirmed in SQ / $399.00/Sep. 30, 2018 4:52 pm/Receipt #p3IF -- Hitomi",TX,1,8.52,USJ-849USJ-849,399.00,p3IF,,,,,,0.00,,,,,,,0.00,,,,,,
TULSA STATE FAIR 9/27-10/07/2018 (TX),TULSA STATE FAIR 9/27-10/07/2018 (TX),Mario Higareda,112544,11/21/2018 9:38:01 AM,Elizabeth A De Montes,AA,99999,Foot Vibe Pro,,New,1,0.00,280.00,280.00,Cash,,,"2 years parts, 1 year labor (Free)","Foot Vibe Pro,Shogun Neck &amp; Back Massger,",YES,,Hold,,,"Purchased on 9/30/2018
//already picked up. need to confirmed the cash. place this order under hold till confirm the cash  /11/9/18 Hitomi",TX,1,8.52,USJ-871,280.00,,,,,,,0.00,,,,,,,0.00,,,,,,
TULSA STATE FAIR 9/27-10/07/2018 (TX),TULSA STATE FAIR 9/27-10/07/2018 (TX),Mario Higareda,112544,11/21/2018 9:38:01 AM,Elizabeth A De Montes,AA,99999,Shogun Neck & Back Massger,New,New,1,0.00,280.00,280.00,Cash,,,"2 years parts, 1 year labor (Free)","Foot Vibe Pro,Shogun Neck &amp; Back Massger,",YES,,Hold,,,"Purchased on 9/30/2018
//already picked up. need to confirmed the cash. place this order under hold till confirm the cash  /11/9/18 Hitomi",TX,1,8.52,USJ-874USJ-874,280.00,,,,,,,0.00,,,,,,,0.00,,,,,,
TULSA STATE FAIR 9/27-10/07/2018 (TX),TULSA STATE FAIR 9/27-10/07/2018 (TX),Kamille Gines,112545,11/21/2018 9:45:22 AM,Elizabeth De Montes,OK,74108,Vitality Plate,New,New,1,0.00,399.00,399.00,CreditCard,,,"3 years parts, 1 year labor (Free)","Vitality Plate,",YES,,Delivered,,,"Purchased on 9/30/2018
//11/9/18 Confirmed in SQ. $399.00/Sep. 30, 2018 5:08 pm/Receipt #XIkv- Hitomi",TX,1,8.52,USJ-849USJ-849,399.00,Receipt #XIkv,,,,,,0.00,,,,,,,0.00,,,,,,
TULSA STATE FAIR 9/27-10/07/2018 (TX),TULSA STATE FAIR 9/27-10/07/2018 (TX),Carlos Jose,112546,11/21/2018 9:52:30 AM,Jason L. Eckert,AA,99999,Foot Vibe Pro,,New,1,0.00,90.00,90.00,Cash,,,"2 years parts, 1 year labor (Free)","Foot Vibe Pro,",YES,,Hold,,,"Purchased on 9/30/2018
////already picked up. need to confirmed the cash. place this order under hold till confirm the cash  /11/9/18 Hitomi",TX,1,8.52,USJ-871,90.00,,,,,,,0.00,,,,,,,0.00,,,,,,
TULSA STATE FAIR 9/27-10/07/2018 (TX),TULSA STATE FAIR 9/27-10/07/2018 (TX),Carlos Jose,112697,11/26/2018 8:39:31 AM,Tina Metton,OK,74129,Foot Vibe Pro,,New,1,0.00,99.00,99.00,CreditCard,,,"2 years parts, 1 year labor (Free)","Foot Vibe Pro,",YES,,Delivered,,,"sales 105/18
//11/26/18 Confirmed in SQ. /$99.00/Oct. 5, 2018 6:38 pm/Receipt #pPqm--Hitomi",TX,1,8.52,USJ-871,99.00,Receipt #pPqm,,,,,,0.00,,,,,,,0.00,,,,,,
TULSA STATE FAIR 9/27-10/07/2018 (TX),TULSA STATE FAIR 9/27-10/07/2018 (TX),Carlos Jose,112699,11/26/2018 8:42:53 AM,Russell Viealls,OK,74115,Foot Vibe Pro,,New,1,0.00,90.00,90.00,CreditCard,,,"3 years parts, 1 year labor (Free)","Foot Vibe Pro,",YES,,Delivered,,,"sales 10/5/18.
//11/26/18 Confirmed in SQ. /$90.00/Oct. 5, 2018 6:16 pm/Receipt #57Rh--Hitomi",TX,1,8.52,USJ-871,90.00,57Rh,,,,,,0.00,,,,,,,0.00,,,,,,
TULSA STATE FAIR 9/27-10/07/2018 (TX),TULSA STATE FAIR 9/27-10/07/2018 (TX),Carlos Jose,112703,11/26/2018 8:52:57 AM,Earl Fleming,OK,73010,Shogun Neck & Back Massger,New,New,1,0.00,280.00,280.00,CreditCard,,,"3 years parts, 1 year labor (Free)","Shogun Neck &amp; Back Massger,Foot Vibe Pro,",YES,,Delivered,,,"sales 10/5/18
///11/26/18 Confirmed in SQ. $280.00/Oct. 5, 2018 5:21 pm/Receipt #1Rax---Hitomi",TX,1,8.52,USJ-874USJ-874,280.00,1Rax,,,,,,0.00,,,,,,,0.00,,,,,,
TULSA STATE FAIR 9/27-10/07/2018 (TX),TULSA STATE FAIR 9/27-10/07/2018 (TX),Carlos Jose,112703,11/26/2018 8:52:57 AM,Earl Fleming,OK,73010,Foot Vibe Pro,,New,1,0.00,280.00,280.00,CreditCard,,,"3 years parts, 1 year labor (Free)","Shogun Neck &amp; Back Massger,Foot Vibe Pro,",YES,,Delivered,,,"sales 10/5/18
///11/26/18 Confirmed in SQ. $280.00/Oct. 5, 2018 5:21 pm/Receipt #1Rax---Hitomi",TX,1,8.52,USJ-871,280.00,1Rax,,,,,,0.00,,,,,,,0.00,,,,,,
TULSA STATE FAIR 9/27-10/07/2018 (TX),TULSA STATE FAIR 9/27-10/07/2018 (TX),Carlos Jose,112705,11/26/2018 8:57:03 AM,Neddi Badgett,OK,74434,Shogun Neck & Back Massger,New,New,1,0.00,199.00,199.00,CreditCard,,,"3 years parts, 1 year labor (Free)","Shogun Neck &amp; Back Massger,",YES,,Delivered,,,"sales 10/5/18
//11/26/18 COnfirmed in SQ.  $199.00/Oct. 5, 2018 3:42 pm/Receipt #Zh64--Hitomi",TX,1,8.52,USJ-874USJ-874,199.00,Zh64,,,,,,0.00,,,,,,,0.00,,,,,,
TULSA STATE FAIR 9/27-10/07/2018 (TX),TULSA STATE FAIR 9/27-10/07/2018 (TX),Carlos Jose,112708,11/26/2018 9:09:11 AM,Earl Williams,OK,74055,Foot Vibe Pro,,New,2,0.00,397.00,397.00,CreditCard,,,"3 years parts, 1 year labor (Free)","Foot Vibe Pro,Shogun Neck &amp; Back Massger,",YES,,Delivered,,,"sales 10/5/18
//11/26/18 Confirmed in SQ.$397.00/Oct. 5, 2018 2:10 pm/Receipt #C02V--Hitomi",TX,1,8.52,USJ-871,397.00,Receipt #C02V,,,,,,0.00,,,,,,,0.00,,,,,,
TULSA STATE FAIR 9/27-10/07/2018 (TX),TULSA STATE FAIR 9/27-10/07/2018 (TX),Carlos Jose,112708,11/26/2018 9:09:11 AM,Earl Williams,OK,74055,Shogun Neck & Back Massger,New,New,1,0.00,397.00,397.00,CreditCard,,,"3 years parts, 1 year labor (Free)","Foot Vibe Pro,Shogun Neck &amp; Back Massger,",YES,,Delivered,,,"sales 10/5/18
//11/26/18 Confirmed in SQ.$397.00/Oct. 5, 2018 2:10 pm/Receipt #C02V--Hitomi",TX,1,8.52,USJ-874USJ-874,397.00,Receipt #C02V,,,,,,0.00,,,,,,,0.00,,,,,,
TULSA STATE FAIR 9/27-10/07/2018 (TX),TULSA STATE FAIR 9/27-10/07/2018 (TX),Carlos Jose,112711,11/26/2018 9:15:37 AM,J Edward Smith,OK,74006,Foot Vibe Pro,,New,1,0.00,280.00,280.00,CreditCard,,,"3 years parts, 1 year labor (Free)","Foot Vibe Pro,Shogun Neck &amp; Back Massger,",YES,,Delivered,,,"sales 10/2/18
//COnfirmed in Square.  $280.00/Oct. 2, 2018 2:55 pm/Receipt #GzDD--Hitomi",TX,1,8.52,USJ-871,280.00,Receipt #GzDD,,,,,,0.00,,,,,,,0.00,,,,,,
TULSA STATE FAIR 9/27-10/07/2018 (TX),TULSA STATE FAIR 9/27-10/07/2018 (TX),Carlos Jose,112711,11/26/2018 9:15:37 AM,J Edward Smith,OK,74006,Shogun Neck & Back Massger,New,New,1,0.00,280.00,280.00,CreditCard,,,"3 years parts, 1 year labor (Free)","Foot Vibe Pro,Shogun Neck &amp; Back Massger,",YES,,Delivered,,,"sales 10/2/18
//COnfirmed in Square.  $280.00/Oct. 2, 2018 2:55 pm/Receipt #GzDD--Hitomi",TX,1,8.52,USJ-874USJ-874,280.00,Receipt #GzDD,,,,,,0.00,,,,,,,0.00,,,,,,
TULSA STATE FAIR 9/27-10/07/2018 (TX),TULSA STATE FAIR 9/27-10/07/2018 (TX),Carlos Jose,112712,11/26/2018 9:21:15 AM,Melanie Loucks,OK,74011,Shogun Neck & Back Massger,New,New,1,0.00,199.00,199.00,CreditCard,,,"3 years parts, 1 year labor (Free)","Shogun Neck &amp; Back Massger,",YES,,Delivered,,,"sales 10/2/18
//11/26/18 Confirmed in SQ.$199.00/Oct. 2, 2018 6:50 pm/Receipt #Hcmm---Hitomi",TX,1,8.52,USJ-874USJ-874,199.00,Hcmm,,,,,,0.00,,,,,,,0.00,,,,,,
TULSA STATE FAIR 9/27-10/07/2018 (TX),TULSA STATE FAIR 9/27-10/07/2018 (TX),Kamille Gines,112713,11/26/2018 9:22:31 AM,Pratik Patel,OK,74115,Vitality Plate,New,New,1,0.00,350.00,350.00,Cash,,,"3 years parts, 1 year labor (Free)","Vitality Plate,",YES,,Hold,,,"sales 10/6/18
//item was already picked up. place on hold till cash is confirmed. 11/26/18 Hitomi",TX,1,8.52,USJ-849USJ-849,350.00,,,,,,,0.00,,,,,,,0.00,,,,,,
TULSA STATE FAIR 9/27-10/07/2018 (TX),TULSA STATE FAIR 9/27-10/07/2018 (TX),Carlos Jose,112715,11/26/2018 9:28:56 AM,Leny Vice,OK,74014,Foot Vibe Pro,,New,1,0.00,130.00,130.00,Cash,,,"2 years parts, 1 year labor (Free)","Foot Vibe Pro,EZ Reach DUO,",YES,,Hold,,,"sales 10/6/18
//item was picked up already. place on hold till cash is confirmed 11/26/18 Hitomi",TX,1,8.52,USJ-871,130.00,,,,,,,0.00,,,,,,,0.00,,,,,,
TULSA STATE FAIR 9/27-10/07/2018 (TX),TULSA STATE FAIR 9/27-10/07/2018 (TX),Kamille Gines,112716,11/26/2018 9:32:34 AM,Julie Cox,CA,90249,Foot Vibe Pro,,New,1,0.00,99.00,99.00,Cash,,,"2 years parts, 1 year labor (Free)","Foot Vibe Pro,",YES,,Hold,,,"sales 10/6/18
//item was already picked up. place on hold till cash is confirmed. 11/26/18 Hitomi",TX,1,8.52,USJ-871,99.00,,,,,,,0.00,,,,,,,0.00,,,,,,
TULSA STATE FAIR 9/27-10/07/2018 (TX),TULSA STATE FAIR 9/27-10/07/2018 (TX),Kamille Gines,112718,11/26/2018 9:35:39 AM,Marlene Marquez,OK,74122,Vitality Plate,New,New,1,0.00,350.00,350.00,CreditCard,,,"3 years parts, 1 year labor (Free)","Vitality Plate,",YES,,Delivered,,,"sales 10/6/18
//11/26/18 COnfirmed in SQ.$350.00/Oct. 6, 2018 6:18 pm/Receipt #y08C--Hitomi",TX,1,8.52,USJ-849USJ-849,350.00,y08C,,,,,,0.00,,,,,,,0.00,,,,,,
TULSA STATE FAIR 9/27-10/07/2018 (TX),TULSA STATE FAIR 9/27-10/07/2018 (TX),Carlos Jose,112719,11/26/2018 9:36:16 AM,Choug Ashpy,CA,90249,Foot Vibe Pro,,New,1,0.00,99.00,99.00,Cash,,,"2 years parts, 1 year labor for Small Items","Foot Vibe Pro,",YES,,Hold,,,"sales 10/2/18
//item was already picked up. place on hold till cash is confirmed. 11/26/18 Hitomi",TX,1,8.52,USJ-871,99.00,,,,,,,0.00,,,,,,,0.00,,,,,,
TULSA STATE FAIR 9/27-10/07/2018 (TX),TULSA STATE FAIR 9/27-10/07/2018 (TX),Kamille Gines,112720,11/26/2018 9:38:34 AM,Edward Miker,OK,74467,Shogun Neck & Back Massger,New,New,1,0.00,190.00,190.00,CreditCard,,,"3 years parts, 1 year labor (Free)","Shogun Neck &amp; Back Massger,",YES,,Delivered,,,"sales 10/6/18
//11/26/18 Confirmed in SQ. $190.00/Oct. 6, 2018 6:42 pm/Receipt #MX3d--Hitomi",TX,1,8.52,USJ-874USJ-874,190.00,MX3d,,,,,,0.00,,,,,,,0.00,,,,,,
TULSA STATE FAIR 9/27-10/07/2018 (TX),TULSA STATE FAIR 9/27-10/07/2018 (TX),Carlos Jose,112721,11/26/2018 9:39:21 AM,Holly Mokales,CA,90249,Foot Vibe Pro,,New,1,0.00,99.00,99.00,Cash,,,"2 years parts, 1 year labor for Small Items","Foot Vibe Pro,",YES,,Hold,,,"sales 10/2/18
//item is already picked up. place on hold till cash is confirmed 11/26/18 Hitomi",TX,1,8.52,USJ-871,99.00,,,,,,,0.00,,,,,,,0.00,,,,,,
TULSA STATE FAIR 9/27-10/07/2018 (TX),TULSA STATE FAIR 9/27-10/07/2018 (TX),Carlos Jose,112722,11/26/2018 9:44:42 AM,Lara Koch,OK,74014,Foot Vibe Pro,,New,1,0.00,290.00,290.00,CreditCard,,,"3 years parts, 1 year labor (Free)","Foot Vibe Pro,Shogun Neck &amp; Back Massger,",YES,,Delivered,,,"sales 10/2/18
//11/26/18 Confirmed in SQ. $290.00/Oct. 2, 2018 12:03 pm/Receipt #LyrQ--Hitomi",TX,1,8.52,USJ-871,290.00,Receipt #LyrQ,,,,,,0.00,,,,,,,0.00,,,,,,
TULSA STATE FAIR 9/27-10/07/2018 (TX),TULSA STATE FAIR 9/27-10/07/2018 (TX),Carlos Jose,112722,11/26/2018 9:44:42 AM,Lara Koch,OK,74014,Shogun Neck & Back Massger,New,New,1,0.00,290.00,290.00,CreditCard,,,"3 years parts, 1 year labor (Free)","Foot Vibe Pro,Shogun Neck &amp; Back Massger,",YES,,Delivered,,,"sales 10/2/18
//11/26/18 Confirmed in SQ. $290.00/Oct. 2, 2018 12:03 pm/Receipt #LyrQ--Hitomi",TX,1,8.52,USJ-874USJ-874,290.00,Receipt #LyrQ,,,,,,0.00,,,,,,,0.00,,,,,,
TULSA STATE FAIR 9/27-10/07/2018 (TX),TULSA STATE FAIR 9/27-10/07/2018 (TX),Carlos Jose,112723,11/26/2018 9:51:13 AM,Cliff Wevek,CA,90249,Shogun Neck & Back Massger,New,New,1,0.00,190.00,190.00,CreditCard,,,"3 years parts, 1 year labor (Free)","Shogun Neck &amp; Back Massger,",YES,,Delivered,,,"sales 10/4/18
//11/26/18 Confirmed in SQ.  $190.00/Oct. 4, 2018 9:16 am/Receipt #Ukhf--Hitomi",TX,1,8.52,USJ-874USJ-874,190.00,Ukhf,,,,,,0.00,,,,,,,0.00,,,,,,
TULSA STATE FAIR 9/27-10/07/2018 (TX),TULSA STATE FAIR 9/27-10/07/2018 (TX),Kamille Gines,112724,11/26/2018 9:51:47 AM,Robert Smith,OK,74017,Shogun Neck & Back Massger,New,New,1,0.00,220.00,220.00,CreditCard,,,"3 years parts, 1 year labor (Free)","Shogun Neck &amp; Back Massger,Foot Vibe Pro,",YES,,Delivered,,,"sales 10/6/18
//11/26/18 Confirmed in SQ. $220.00/Oct. 6, 2018 7:13 pm/Receipt #Jwqo --Hitomi",TX,1,8.52,USJ-874USJ-874,220.00,JwqO,,,,,,0.00,,,,,,,0.00,,,,,,
TULSA STATE FAIR 9/27-10/07/2018 (TX),TULSA STATE FAIR 9/27-10/07/2018 (TX),Kamille Gines,112724,11/26/2018 9:51:47 AM,Robert Smith,OK,74017,Foot Vibe Pro,,New,1,0.00,220.00,220.00,CreditCard,,,"3 years parts, 1 year labor (Free)","Shogun Neck &amp; Back Massger,Foot Vibe Pro,",YES,,Delivered,,,"sales 10/6/18
//11/26/18 Confirmed in SQ. $220.00/Oct. 6, 2018 7:13 pm/Receipt #Jwqo --Hitomi",TX,1,8.52,USJ-871,220.00,JwqO,,,,,,0.00,,,,,,,0.00,,,,,,
TULSA STATE FAIR 9/27-10/07/2018 (TX),TULSA STATE FAIR 9/27-10/07/2018 (TX),Kamille Gines,112725,11/26/2018 9:54:01 AM,NA NA,CA,90249,Foot Vibe Pro,,New,1,0.00,99.00,99.00,CreditCard,,,"2 years parts, 1 year labor (Free)","Foot Vibe Pro,",YES,,Cancelled,,,,Not Dispatched,1,8.52,USJ-871,99.00,SF3R,,,,,,0.00,,,,,,,0.00,,,,,,
TULSA STATE FAIR 9/27-10/07/2018 (TX),TULSA STATE FAIR 9/27-10/07/2018 (TX),Carlos Jose,112726,11/26/2018 9:55:30 AM,Rosie Harris,OK,74055,Foot Vibe Pro,,New,1,0.00,90.00,90.00,CreditCard,,,"3 years parts, 1 year labor (Free)","Foot Vibe Pro,",YES,,Delivered,,,"sales 10/4/18
//11/26/18 Confirmed in SQ.$90.00/Oct. 4, 2018 2:59 pm/Receipt #hbUx--Hitomi",TX,1,8.52,USJ-871,90.00,hbUx,,,,,,0.00,,,,,,,0.00,,,,,,
TULSA STATE FAIR 9/27-10/07/2018 (TX),TULSA STATE FAIR 9/27-10/07/2018 (TX),Carlos Jose,112727,11/26/2018 9:56:46 AM,Shawn Weight,OK,74014,Foot Vibe Pro,,New,1,0.00,99.00,99.00,CreditCard,,,"2 years parts, 1 year labor (Free)","Foot Vibe Pro,",YES,,Delivered,,,"sales 10/6/18
//11/26/18 Confirmed in SQ. $99.00/Oct. 6, 2018 2:52 pm/Receipt #s229---Hitomi",TX,1,8.52,USJ-871,99.00,s229,,,,,,0.00,,,,,,,0.00,,,,,,
TULSA STATE FAIR 9/27-10/07/2018 (TX),TULSA STATE FAIR 9/27-10/07/2018 (TX),Carlos Jose,112728,11/26/2018 9:59:36 AM,Linda Dougles,OK,74053,Foot Vibe Pro,,New,1,0.00,90.00,90.00,CreditCard,,,"3 years parts, 1 year labor (Free)","Foot Vibe Pro,",YES,,Delivered,,,"sales 10/4/18 
//11/26/18 Confirmed in SQ. $90.00/Oct. 4, 2018 2:56 pm/Receipt #QiPi--Hitomi",TX,1,8.52,USJ-871,90.00,Receipt #QiPi,,,,,,0.00,,,,,,,0.00,,,,,,
TULSA STATE FAIR 9/27-10/07/2018 (TX),TULSA STATE FAIR 9/27-10/07/2018 (TX),Carlos Jose,112729,11/26/2018 10:01:35 AM,Richard Laxton,CA,90249,Foot Vibe Pro,,New,1,0.00,99.00,99.00,CreditCard,,,"2 years parts, 1 year labor (Free)","Foot Vibe Pro,",YES,,Delivered,,,"sales 10/6/18
//11/26/18 Confirmed in SQ. $99.00/Oct. 6, 2018 3:27 pm/Receipt #6wy9---Hitomi",TX,1,8.52,USJ-871,99.00,6wy9,,,,,,0.00,,,,,,,0.00,,,,,,
TULSA STATE FAIR 9/27-10/07/2018 (TX),TULSA STATE FAIR 9/27-10/07/2018 (TX),Carlos Jose,112731,11/26/2018 10:04:12 AM,Rose Shriven,CA,90249,Foot Vibe Pro,,New,1,0.00,90.00,90.00,CreditCard,,,"3 years parts, 1 year labor (Free)","Foot Vibe Pro,",YES,,Delivered,,,"sales 10/4/18
///Confirmed in SQ. $90.00/Oct. 4, 2018 5:37 pm/Receipt #01Og---Hitomi",TX,1,8.52,USJ-871,90.00,OlOg,,,,,,0.00,,,,,,,0.00,,,,,,
TULSA STATE FAIR 9/27-10/07/2018 (TX),TULSA STATE FAIR 9/27-10/07/2018 (TX),Hiroko Hudson,112732,11/26/2018 10:09:00 AM,Douglas Hunton,OK,74135,Vitality Plate,Demo,Demo,1,0.00,299.00,299.00,CreditCard,,,"3 years parts, 1 year labor (Free)","Vitality Plate,",YES,,Delivered,,,"sales 10/4/18
//11/26/18 Confirmed in SQ. $299.00/Oct. 4, 2018 5:50 pm/Receipt #vQiy---Hitomi",TX,1,8.52,USJ-849USJ-849-DEMO,299.00,vQiy,,,,,,0.00,,,,,,,0.00,,,,,,
TULSA STATE FAIR 9/27-10/07/2018 (TX),TULSA STATE FAIR 9/27-10/07/2018 (TX),Carlos Jose,112733,11/26/2018 10:11:20 AM,Jennifer Southard,OK,74114,Foot Vibe Pro,,New,1,0.00,280.00,280.00,CreditCard,,,"3 years parts, 1 year labor (Free)","Foot Vibe Pro,Shogun Neck &amp; Back Massger,",YES,,Delivered,,,"sales 10/6/18
//11/26/18 Confirmed in SQ. $280.00/Oct. 6, 2018 4:41 pm/Receipt #qGyc---Hitomi",TX,1,8.52,USJ-871,280.00,Receipt #qGyc,,,,,,0.00,,,,,,,0.00,,,,,,
TULSA STATE FAIR 9/27-10/07/2018 (TX),TULSA STATE FAIR 9/27-10/07/2018 (TX),Carlos Jose,112733,11/26/2018 10:11:20 AM,Jennifer Southard,OK,74114,Shogun Neck & Back Massger,New,New,1,0.00,280.00,280.00,CreditCard,,,"3 years parts, 1 year labor (Free)","Foot Vibe Pro,Shogun Neck &amp; Back Massger,",YES,,Delivered,,,"sales 10/6/18
//11/26/18 Confirmed in SQ. $280.00/Oct. 6, 2018 4:41 pm/Receipt #qGyc---Hitomi",TX,1,8.52,USJ-874USJ-874,280.00,Receipt #qGyc,,,,,,0.00,,,,,,,0.00,,,,,,
TULSA STATE FAIR 9/27-10/07/2018 (TX),TULSA STATE FAIR 9/27-10/07/2018 (TX),Hiroko Hudson,112734,11/26/2018 10:11:52 AM,Katherine Fream,OK,74012,Vitality Plate,New,New,1,0.00,399.00,399.00,CreditCard,,,"3 years parts, 1 year labor (Free)","Vitality Plate,",YES,,Delivered,,,"sales 10/4/18 
///11/26/18 Confirmed in SQ.$399.00/Oct. 4, 2018 12:45 pm/Receipt #Uglq--Hitomi",TX,1,8.52,USJ-849USJ-849,399.00,Receipt #Uglq,,,,,,0.00,,,,,,,0.00,,,,,,
TULSA STATE FAIR 9/27-10/07/2018 (TX),TULSA STATE FAIR 9/27-10/07/2018 (TX),Carlos Jose,112735,11/26/2018 10:24:55 AM,Lisa Walkingstick,CA,90249,Foot Vibe Pro,,New,1,0.00,139.00,139.00,CreditCard,,,"3 years parts, 1 year labor (Free)","EZ Reach DUO,Foot Vibe Pro,",YES,,Delivered,,,"sales 10/6/18 
//11/26/18 Confirmed in SQ. $139.00/Oct. 6, 2018 3:47 pm/Receipt #BSvW---Hitomi",TX,1,8.52,USJ-871,139.00,BsvW,,,,,,0.00,,,,,,,0.00,,,,,,
TULSA STATE FAIR 9/27-10/07/2018 (TX),TULSA STATE FAIR 9/27-10/07/2018 (TX),Carlos Jose,112737,11/26/2018 10:29:13 AM,Linda Oleaky,CA,90249,Shogun Neck & Back Massger,New,New,1,0.00,175.00,175.00,Cash,,,"2 years parts, 1 year labor for Small Items","Shogun Neck &amp; Back Massger,",YES,,Hold,,,"sales 10/3/18
//item was already picked up. place on hold till cash is confirmed. 11/26/18 Hitomi",TX,1,8.52,USJ-874USJ-874,175.00,,,,,,,0.00,,,,,,,0.00,,,,,,
TULSA STATE FAIR 9/27-10/07/2018 (TX),TULSA STATE FAIR 9/27-10/07/2018 (TX),Carlos Jose,112738,11/26/2018 10:34:35 AM,Allisa Russell,OK,74114,Shogun Neck & Back Massger,New,New,1,0.00,199.00,199.00,CreditCard,,,"3 years parts, 1 year labor (Free)","Shogun Neck &amp; Back Massger,",YES,,Delivered,,,"sales 10/6/18
//11/26/18 Confirmed in SQ. $199.00/Oct. 6, 2018 4:04 pm/Receipt #II3R---Hitomi",TX,1,8.52,USJ-874USJ-874,199.00,Receipt #II3R,,,,,,0.00,,,,,,,0.00,,,,,,
TULSA STATE FAIR 9/27-10/07/2018 (TX),TULSA STATE FAIR 9/27-10/07/2018 (TX),Carlos Jose,112739,11/26/2018 10:37:00 AM,Michael Tschacher,OK,74063,Shogun Neck & Back Massger,New,New,1,0.00,260.00,260.00,CreditCard,,,"3 years parts, 1 year labor (Free)","Shogun Neck &amp; Back Massger,Foot Vibe Pro,",YES,,Delivered,,,"sales 10/6/18
//11/26/18 Confirmed in SQ. $260.00/Oct. 6, 2018 4:52 pm/Receipt #So8Z---Hitomi",TX,1,8.52,USJ-874USJ-874,260.00,So8Z,,,,,,0.00,,,,,,,0.00,,,,,,
TULSA STATE FAIR 9/27-10/07/2018 (TX),TULSA STATE FAIR 9/27-10/07/2018 (TX),Carlos Jose,112739,11/26/2018 10:37:00 AM,Michael Tschacher,OK,74063,Foot Vibe Pro,,New,1,0.00,260.00,260.00,CreditCard,,,"3 years parts, 1 year labor (Free)","Shogun Neck &amp; Back Massger,Foot Vibe Pro,",YES,,Delivered,,,"sales 10/6/18
//11/26/18 Confirmed in SQ. $260.00/Oct. 6, 2018 4:52 pm/Receipt #So8Z---Hitomi",TX,1,8.52,USJ-871,260.00,So8Z,,,,,,0.00,,,,,,,0.00,,,,,,
TULSA STATE FAIR 9/27-10/07/2018 (TX),TULSA STATE FAIR 9/27-10/07/2018 (TX),Carlos Jose,112740,11/26/2018 10:43:51 AM,Joe Davis,OK,74429,Shogun Neck & Back Massger,New,New,1,0.00,260.00,260.00,CreditCard,,,"3 years parts, 1 year labor (Free)","Shogun Neck &amp; Back Massger,Foot Vibe Pro,",YES,,Delivered,,,"sales 10/6/18
//11/26/18 Confirmed in SQ. $260.00/Oct. 6, 2018 4:49 pm/Receipt #tZAn---Hitomi",TX,1,8.52,USJ-874USJ-874,260.00,tzAn,,,,,,0.00,,,,,,,0.00,,,,,,
TULSA STATE FAIR 9/27-10/07/2018 (TX),TULSA STATE FAIR 9/27-10/07/2018 (TX),Carlos Jose,112740,11/26/2018 10:43:51 AM,Joe Davis,OK,74429,Foot Vibe Pro,,New,1,0.00,260.00,260.00,CreditCard,,,"3 years parts, 1 year labor (Free)","Shogun Neck &amp; Back Massger,Foot Vibe Pro,",YES,,Delivered,,,"sales 10/6/18
//11/26/18 Confirmed in SQ. $260.00/Oct. 6, 2018 4:49 pm/Receipt #tZAn---Hitomi",TX,1,8.52,USJ-871,260.00,tzAn,,,,,,0.00,,,,,,,0.00,,,,,,
TULSA STATE FAIR 9/27-10/07/2018 (TX),TULSA STATE FAIR 9/27-10/07/2018 (TX),Carlos Jose,112742,11/26/2018 10:52:31 AM,Bocky Carton,OK,74011,Foot Vibe Pro,,New,1,0.00,90.00,90.00,CreditCard,,,"2 years parts, 1 year labor for Small Items","Foot Vibe Pro,",YES,,Delivered,,,"sales 10/3/18
//11/26/18 Confirmed in SQ. $90.00/Oct. 3, 2018 2:25 pm/Receipt #ewhy--Hitomi",TX,1,8.52,USJ-871,90.00,ewhy,,,,,,0.00,,,,,,,0.00,,,,,,
TULSA STATE FAIR 9/27-10/07/2018 (TX),TULSA STATE FAIR 9/27-10/07/2018 (TX),Carlos Jose,112743,11/26/2018 10:55:51 AM,Debra Eris,OK,74301,Foot Vibe Pro,,New,1,0.00,280.00,280.00,CreditCard,,,"3 years parts, 1 year labor (Free)","Foot Vibe Pro,Shogun Neck &amp; Back Massger,",YES,,Cancelled,,,duplicate for 112044,Not Dispatched,1,8.52,USJ-871,280.00,Of6Y,,,,,,0.00,,,,,,,0.00,,,,,,
TULSA STATE FAIR 9/27-10/07/2018 (TX),TULSA STATE FAIR 9/27-10/07/2018 (TX),Carlos Jose,112743,11/26/2018 10:55:51 AM,Debra Eris,OK,74301,Shogun Neck & Back Massger,New,New,1,0.00,280.00,280.00,CreditCard,,,"3 years parts, 1 year labor (Free)","Foot Vibe Pro,Shogun Neck &amp; Back Massger,",YES,,Cancelled,,,duplicate for 112044,Not Dispatched,1,8.52,USJ-874USJ-874,280.00,Of6Y,,,,,,0.00,,,,,,,0.00,,,,,,
TULSA STATE FAIR 9/27-10/07/2018 (TX),TULSA STATE FAIR 9/27-10/07/2018 (TX),Carlos Jose,112744,11/26/2018 10:58:34 AM,Mary Smith,CA,90249,Foot Vibe Pro,,New,1,0.00,99.00,99.00,CreditCard,,,"2 years parts, 1 year labor for Small Items","Foot Vibe Pro,",YES,,Delivered,,,"sales 10/3/18
//11/26/18 Confirmed in SQ. $99.00/Oct. 3, 2018 1:17 pm/Receipt #Lp0W---Hitomi",TX,1,8.52,USJ-871,99.00,Receipt #Lp0W,,,,,,0.00,,,,,,,0.00,,,,,,
TULSA STATE FAIR 9/27-10/07/2018 (TX),TULSA STATE FAIR 9/27-10/07/2018 (TX),Hiroko Hudson,112745,11/26/2018 11:02:22 AM,Aimee White,OK,73067,Shogun Neck & Back Massger,New,New,1,0.00,190.00,190.00,Cash,,,"3 years parts, 1 year labor (Free)","Shogun Neck &amp; Back Massger,",YES,,Hold,,,,TX,1,8.52,USJ-874USJ-874,190.00,,,,,,,0.00,,,,,,,0.00,,,,,,
TULSA STATE FAIR 9/27-10/07/2018 (TX),TULSA STATE FAIR 9/27-10/07/2018 (TX),Hiroko Hudson,112746,11/26/2018 11:05:33 AM,James Turner,OK,74012,Shogun Neck & Back Massger,New,New,1,0.00,270.00,270.00,CreditCard,,,"3 years parts, 1 year labor (Free)","Shogun Neck &amp; Back Massger,Foot Vibe Pro,",YES,,Delivered,,,"sales 10/2/18
//11/26/18 Confirmed in SQ. $270.00/Oct. 2, 2018 4:14 pm/Receipt #efL5--Hitomi",TX,1,8.52,USJ-874USJ-874,270.00,efL5,,,,,,0.00,,,,,,,0.00,,,,,,
TULSA STATE FAIR 9/27-10/07/2018 (TX),TULSA STATE FAIR 9/27-10/07/2018 (TX),Hiroko Hudson,112746,11/26/2018 11:05:33 AM,James Turner,OK,74012,Foot Vibe Pro,,New,1,0.00,270.00,270.00,CreditCard,,,"3 years parts, 1 year labor (Free)","Shogun Neck &amp; Back Massger,Foot Vibe Pro,",YES,,Delivered,,,"sales 10/2/18
//11/26/18 Confirmed in SQ. $270.00/Oct. 2, 2018 4:14 pm/Receipt #efL5--Hitomi",TX,1,8.52,USJ-871,270.00,efL5,,,,,,0.00,,,,,,,0.00,,,,,,
TULSA STATE FAIR 9/27-10/07/2018 (TX),TULSA STATE FAIR 9/27-10/07/2018 (TX),Hiroko Hudson,112747,11/26/2018 11:06:10 AM,Sandra Stadler,OK,74017,Foot Vibe Pro,,New,1,0.00,99.00,99.00,Cash,,,"3 years parts, 1 year labor (Free)","Foot Vibe Pro,",YES,,Hold,,,"sales 10/3/18
//item was picked up already. place on hold till cash is confirmed 11/26/18 Hitomi",TX,1,8.52,USJ-871,99.00,,,,,,,0.00,,,,,,,0.00,,,,,,
TULSA STATE FAIR 9/27-10/07/2018 (TX),TULSA STATE FAIR 9/27-10/07/2018 (TX),Hiroko Hudson,112748,11/26/2018 11:09:07 AM,Larry Bookout,OK,74114,Vitality Plate,New,New,1,0.00,375.00,375.00,CreditCard,,,"3 years parts, 1 year labor (Free)","Vitality Plate,",YES,,Delivered,,,"sales 10/3/18
//11/26/18 Confirmed in SQ. $375.00/Oct. 3, 2018 2:45 pm/Receipt #v4Yo--Hitomi",TX,1,8.52,USJ-849USJ-849,375.00,v4Yo,,,,,,0.00,,,,,,,0.00,,,,,,
TULSA STATE FAIR 9/27-10/07/2018 (TX),TULSA STATE FAIR 9/27-10/07/2018 (TX),Kamille Gines,112760,11/26/2018 4:15:10 PM,Nick Vlasck,AA,99999,Foot Vibe Pro,,New,1,0.00,99.00,99.00,CreditCard,,,"2 years parts, 1 year labor (Free)","Foot Vibe Pro,",YES,,Delivered,,,"sales 10/6/18 
//11/26/18 confirmed in SQ.$99.00/Oct. 6, 2018 12:23 pm/Receipt #SF3R---Hitomi",TX,1,8.52,USJ-871,99.00,SF3R,,,,,,0.00,,,,,,,0.00,,,,,,
