﻿Date,Customer Name,State,Zipcode,Description,Product Number,Color,Product Status,Net,Shipping Fee,Gift Price,Financing Processing Fee,Order Total,Total Before Tax,Tax,Commission,Primary Payment Method,Primary Payment Balance,Primary Authorize Number,Primary Purchase Order Number,Primary Synchrony Account Number,Primary Synchrony Application Key,Primary Synchrony Account Info,Primary Synchrony Term,Second Payment Method,Second Payment Balance,Second Authorize Number,Second Purchase Order Number,Second Synchrony Account Number,Second Synchrony Application Key,Second Synchrony Account Info,Second Synchrony Term,Third Payment Method,Third Payment Balance,Third Authorize Number,Third Purchase Order Number,Third Synchrony Account Number,Third Synchrony Application Key,Third Synchrony Account Info,Third Synchrony Term,Delivery Date,Pick up,Warranty,Status,Chair Type,Original Event Name,Event Name,Synchrony Notes,Order Notes,Order Number,Private Note,Branch,No Tax,Actual Tax Rate
9/16/2018 6:48:57 PM,Sammy Co,FL,33935,Legacy for Sam's,DWA-9100DWA-9100CH,New Choco,New,,,,,4299.00,4299.00,0.00,Daisuke Ito,CreditCard,4299.00,,,,,,,,0.00,,,,,,,,0.00,,,,,,,10/2/2018 12:00:00 AM,No,"3 years parts, 1 year labor (Free)",Delivered,,Sam's Club #8130 Ft. Myers 9/13-23/18 (FL),Sam's Club #8130 Ft. Myers 9/13-23/18 (FL),,,109467,"CC Josefina - 9/18/18 11:22 am
TC# 4888 3570 2384 9939 6903 57
Approval # N/A
The customer has Tax Exempt permit.",FL,1,6.00
9/16/2018 7:04:28 PM,US Jaclean Inc,CA,90249,Foot Vibe Pro,USJ-871,,New,,,,,116.59,109.99,6.60,Daisuke Ito,Cash,116.59,,,,,,,,0.00,,,,,,,,0.00,,,,,,,,YES,"2 years parts, 1 year labor for Small Items",Delivered,,Sam's Club #8130 Ft. Myers 9/13-23/18 (FL),Sam's Club #8130 Ft. Myers 9/13-23/18 (FL),,,109468,TC# 9607 9954 7755 5138 4612 9,CA,0,6.00
9/16/2018 7:11:46 PM,US Jaclean Inc,CA,90249,Shogun Neck & Back Massger,USJ-874USJ-874,New,New,,,,,211.98,199.98,12.00,Daisuke Ito,Cash,211.98,,,,,,,,0.00,,,,,,,,0.00,,,,,,,,YES,"2 years parts, 1 year labor for Small Items",Delivered,,Sam's Club #8130 Ft. Myers 9/13-23/18 (FL),Sam's Club #8130 Ft. Myers 9/13-23/18 (FL),,,109470,TC# 6906 3566 6983 3067 7706 5,CA,0,6.00
9/17/2018 8:01:05 PM,Jennifer Cook,VT,05061,Relax 2 Zero 2.0 for Sam's,USJ-9050USJ-9050BR-DEMO (Box),Demo (Box) Brown,Demo,,,,,3390.94,3199.00,191.94,Daisuke Ito,CreditCard,3390.94,TC# 5594 0219 8135 0049 5234 01,,,,,,,0.00,,,,,,,,0.00,,,,,,,10/13/2018 12:00:00 AM,No,"3 years parts, 1 year labor (Free)",Scheduled,,Sam's Club #8130 Ft. Myers 9/13-23/18 (FL),Sam's Club #8130 Ft. Myers 9/13-23/18 (FL),,,109525,"Order placed by Jeff Smith on 9/17/18 for his sister (Jennifer Cook) 

TC# 5594 0219 8135 0049 5234 01
Approval # 001570
9/20Maritza Courtesy text + email @ 11:21AM",TX,0,6.00
9/23/2018 6:22:42 PM,US Jaclean Inc,CA,90249,Foot Vibe Pro,USJ-871,,New,,,,,109.99,109.99,0.00,Daisuke Ito,PurchaseOrder,109.99,,,,,,,,0.00,,,,,,,,0.00,,,,,,,,YES,"2 years parts, 1 year labor for Small Items",Delivered,,Sam's Club #8130 Ft. Myers 9/13-23/18 (FL),Sam's Club #8130 Ft. Myers 9/13-23/18 (FL),,,109732,TC # 4541 6485 5215 6780 8678 4,CA,1,6.00
9/23/2018 6:26:37 PM,US Jaclean Inc,CA,90249,Foot Vibe Pro,USJ-871,,New,,,,,116.59,109.99,6.60,Daisuke Ito,PurchaseOrder,116.59,,,,,,,,0.00,,,,,,,,0.00,,,,,,,,YES,"2 years parts, 1 year labor for Small Items",Delivered,,Sam's Club #8130 Ft. Myers 9/13-23/18 (FL),Sam's Club #8130 Ft. Myers 9/13-23/18 (FL),,,109733,"TC # 0413 0027 8157 2643 9267 0
Approval # 000877",CA,0,6.00
9/23/2018 6:33:05 PM,US Jaclean Inc,CA,90249,Vitality Plate for Sam's,USJ-849USJ-849,New,New,,,,,423.99,399.99,24.00,Daisuke Ito,PurchaseOrder,423.99,,,,,,,,0.00,,,,,,,,0.00,,,,,,,,YES,"2 years parts, 1 year labor for Small Items",Delivered,,Sam's Club #8130 Ft. Myers 9/13-23/18 (FL),Sam's Club #8130 Ft. Myers 9/13-23/18 (FL),,,109734,TC # 3052 5289 5054 4871 3184 2,CA,0,6.00
