﻿Date,CustomerName,State,Zipcode,Description,productNo,Color,IsDemo,Net,ShippingFee,GiftPrice,FinancingProcessingFee,Gross,Pre_tax,Tax,Commission,Primary Payment Method,Primary Payment Balance,Primary Authorize Number,Primary Purchase Order Number,Primary Synchrony Account Number,Primary Synchrony Application Key,Primary Synchrony AccountInfo,Primary SynchronyTerm,Secondly Payment Method,Secondly Payment Balance,Secondly Authorize Number,Secondly Purchase Order Number,Secondly Synchrony Account Number,Secondly Synchrony Application Key,Secondly Synchrony AccountInfo,Secondly SynchronyTerm,Thirdly Payment Method,Thirdly Payment Balance,Thirdly Authorize Number,Thirdly Purchase Order Number,Thirdly Synchrony Account Number,Thirdly Synchrony Application Key,Thirdly Synchrony AccountInfo,Thirdly SynchronyTerm,DeliveryDate,Ispickup,Warranty,Status,Event Name,Synchrony Notes,Order Notes,Order number,Private Note,Branch,IsNoTax,ActualTaxRate
2/17/2018 8:03:50 PM,Mohammed Hossain,FL,33881,Ninja Leg Massager,,,New,,,,,379.00,379.00,0.00,Kamille Gines,CreditCard,379.00,TC# 516461998087940200926,,,,,,,0.00,,,,,,,,0.00,,,,,,,,YES,"2 years parts, 1 year labor (Small Items)",Delivered,Sam's Club #4794 2/15-2/25/18 (FL),,,103762,tax excempt,FL,1,7.00
2/17/2018 8:11:56 PM,Thomas Meade,FL,33830,Relax2Zero 2.0 for Sam's,USJ-9050USJ-9050BR,Brown,New,,,,,3422.93,3199.00,223.93,Kamille Gines,CreditCard,3422.93,TC# 8607179664540618335670,,,,,,,0.00,,,,,,,,0.00,,,,,,,2/22/2018 12:00:00 AM,No,"3 years parts, 1 year labor (Free)",Delivered,Sam's Club #4794 2/15-2/25/18 (FL),,,103763,"Deliver new Chair
Extra Pad",FL,0,7.00
2/19/2018 5:38:30 PM,Lawrence Chin,FL,33812,Legacy for Sam's,DWA-9100DWA-9100CH,New Choco,New,,,,,3850.93,3599.00,251.93,Kamille Gines,CreditCard,3850.93,TC# 6388927328969436554491,,,,,,,0.00,,,,,,,,0.00,,,,,,,2/22/2018 12:00:00 AM,No,"3 years parts, 1 year labor (Free)",Delivered,Sam's Club #4794 2/15-2/25/18 (FL),,,103881,"Deliver new chair
Deliver only Mondays",FL,0,7.00
2/19/2018 5:44:20 PM,Rodolph Dy,FL,33809,Ninja Leg Massager,,,New,,,,,405.53,379.00,26.53,Kamille Gines,CreditCard,405.53,TC# 863635166391807162862,,,,,,,0.00,,,,,,,,0.00,,,,,,,,No,"2 years parts, 1 year labor (Small Items)",Delivered,Sam's Club #4794 2/15-2/25/18 (FL),,,103882,,FL,0,7.00
2/20/2018 5:53:50 PM,Charles Michael East,FL,33812,Legacy for Sam's,DWA-9100DWA-9100CH,New Choco,New,,,,,3850.93,3599.00,251.93,Kamille Gines,CreditCard,3850.93,TC# 3663090890262563440528,,,,,,,0.00,,,,,,,,0.00,,,,,,,,No,"3 years parts, 1 year labor (Free)",Scheduled,Sam's Club #4794 2/15-2/25/18 (FL),,,103890,Please deliver new chair,FL,0,7.00
2/22/2018 11:04:35 AM,Uzi Talit,FL,33812,Ninja Leg Massager,,,New,,,,,405.53,379.00,26.53,Kamille Gines,CreditCard,405.53,Tc#160164836608170839139,,,,,,,0.00,,,,,,,,0.00,,,,,,,,YES,"2 years parts, 1 year labor (Small Items)",Delivered,Sam's Club #4794 2/15-2/25/18 (FL),,,103905,,FL,0,7.00
2/22/2018 3:11:02 PM,Rosa Demosthenes,FL,33880,Ninja Leg Massager,,,New,,,,,405.53,379.00,26.53,Kamille Gines,CreditCard,405.53,Tc#224978501777254906203,,,,,,,0.00,,,,,,,,0.00,,,,,,,,YES,"2 years parts, 1 year labor (Small Items)",Delivered,Sam's Club #4794 2/15-2/25/18 (FL),,,103910,,FL,0,7.00
2/23/2018 7:06:10 AM,Blake Strom,FL,33547,Legacy for Sam's,DWA-9100DWA-9100CH,New Choco,New,,,,,3850.93,3599.00,251.93,Kamille Gines,CreditCard,3850.93,Tc#2920016215888092774085,,,,,,,0.00,,,,,,,,0.00,,,,,,,,No,"3 years parts, 1 year labor (Free)",Assigned,Sam's Club #4794 2/15-2/25/18 (FL),,,103916,Deliver new chair.,FL,0,7.00
2/23/2018 11:36:38 AM,Scott Dunkel,MD,21108,Relax2Zero 2.0 for Sam's,USJ-9050USJ-9050BL,New Black,New,,,,,4173.00,3900.00,273.00,Kamille Gines,CreditCard,4173.00,Tc#8526825865393803137872,,,,,,,0.00,,,,,,,,0.00,,,,,,,,No,"3 years parts, 1 year labor (Free)",Called,Sam's Club #4794 2/15-2/25/18 (FL),,,103920,Deliver in the first week of May.,TX,0,7.00
2/24/2018 3:39:22 PM,Kari Coleman,FL,33803,Relax2Zero 2.0 for Sam's,USJ-9050USJ-9050BR,New Brown,New,,,,,4173.00,3900.00,273.00,Kamille Gines,CreditCard,4173.00,Tc#5033980699298562422538,,,,,,,0.00,,,,,,,,0.00,,,,,,,,No,"3 years parts, 1 year labor (Free)",Cancelled,Sam's Club #4794 2/15-2/25/18 (FL),,,103937,Order cancelled 3/5 per Camille,FL,0,7.00
2/24/2018 3:52:09 PM,Lorenzo Jones,FL,33881,Relax2Zero 2.0 for Sam's,USJ-9050USJ-9050BL-DEMO,Demo Black,Demo,,,,,3422.93,3199.00,223.93,Kamille Gines,CreditCard,3422.93,Tc#8607479144540618335670,,,,,,,0.00,,,,,,,,0.00,,,,,,,2/25/2018 12:00:00 AM,No,"3 years parts, 1 year labor (Free)",Delivered,Sam's Club #4794 2/15-2/25/18 (FL),,,103938,Deliver display model tomorrow after the show (2/25/18) Approved by Mitch Valdes.,FL,0,7.00
2/24/2018 3:59:15 PM,Stephen Breheney,FL,33813,Legacy for Sam's,DWA-9100DWA-9100CH,New Choco,New,,,,,3850.93,3599.00,251.93,Kamille Gines,CreditCard,3850.93,Tc#8187449849595618337650,,,,,,,0.00,,,,,,,,0.00,,,,,,,,No,"3 years parts, 1 year labor (Free)",Assigned,Sam's Club #4794 2/15-2/25/18 (FL),,,103939,Please deliver new chair.,FL,0,7.00
2/26/2018 1:25:52 PM,Joseph Viola,FL,33823,Legacy for Sam's,DWA-9100DWA-9100CH,New Choco,New,,,,,3850.93,3599.00,251.93,Kamille Gines,CreditCard,3850.93,Tc# 3633790499298563442528,,,,,,,0.00,,,,,,,,0.00,,,,,,,,No,"3 years parts, 1 year labor (Free)",Scheduled,Sam's Club #4794 2/15-2/25/18 (FL),,,104004,"Please deliver new chair. 
He will be out of the country on March 5. He is asking if we could deliver it on Friday",FL,0,7.00
