﻿Date,CustomerName,State,Zipcode,Description,productNo,Color,IsDemo,Net,ShippingFee,GiftPrice,FinancingProcessingFee,Gross,Pre_tax,Tax,Commission,Primary Payment Method,Primary Payment Balance,Primary Authorize Number,Primary Purchase Order Number,Primary Synchrony Account Number,Primary Synchrony Application Key,Primary Synchrony AccountInfo,Primary SynchronyTerm,Secondly Payment Method,Secondly Payment Balance,Secondly Authorize Number,Secondly Purchase Order Number,Secondly Synchrony Account Number,Secondly Synchrony Application Key,Secondly Synchrony AccountInfo,Secondly SynchronyTerm,Thirdly Payment Method,Thirdly Payment Balance,Thirdly Authorize Number,Thirdly Purchase Order Number,Thirdly Synchrony Account Number,Thirdly Synchrony Application Key,Thirdly Synchrony AccountInfo,Thirdly SynchronyTerm,DeliveryDate,Ispickup,Warranty,Status,Event Name,Synchrony Notes,Order Notes,Order number,Private Note,Branch,IsNoTax,ActualTaxRate
3/4/2018 12:34:12 PM,Colura Lindsey,GA,30606,Vitality Plate for Sam's,USJ-849USJ-849-DEMO,Demo,Demo,,,,,427.99,399.99,28.00,Jonathan Bhowani,CreditCard,427.99,TC# 0560 4643 6807 0977 7695 6,,,,,,,0.00,,,,,,,,0.00,,,,,,,,YES,"2 years parts, 1 year labor for Small Items",Delivered,"Sam's Club #8194 Athens, GA 3/1-3/4",,,104114,,FL,0,7.00
3/4/2018 12:38:41 PM,Anna Kinard,GA,30680,Vitality Plate for Sam's,USJ-849USJ-849-DEMO,Demo,Demo,,,,,427.99,399.99,28.00,Jonathan Bhowani,CreditCard,427.99,TC# 1421 2455 2614 1788 8479 4,,,,,,,0.00,,,,,,,,0.00,,,,,,,,YES,"2 years parts, 1 year labor for Small Items",Delivered,"Sam's Club #8194 Athens, GA 3/1-3/4",,,104115,Item given to customer upon purchase. Do not ship.,FL,0,7.00
3/4/2018 12:42:33 PM,Christina Smith,GA,30606,Vitality Plate for Sam's,USJ-849USJ-849-DEMO,Demo,Demo,,,,,427.99,399.99,28.00,Jonathan Bhowani,CreditCard,427.99,TC# 7055 5306 7170 7200 0324 3,,,,,,,0.00,,,,,,,,0.00,,,,,,,,YES,"2 years parts, 1 year labor for Small Items",Delivered,"Sam's Club #8194 Athens, GA 3/1-3/4",,,104116,Item given to customer upon purchase. Please do not ship.,FL,0,7.00
