﻿Original Event Name,Event Name,Sales Person,Order Number,Order Date,Customer Name,State,Zip,Product Name,Color,Product Status,QTY,Tax,Total Before Tax,Order Total,Primary Payment Method,Second Payment Method,Thirdl Payment Method,Warranty,Order Items,Pick up,Delivered On,Order Status,Chair Type,Order Notes,Private Note,Branch,No Tax,Actual Tax Rate,SKU,Primary Payment Balance,Primary Authorize Number,Primary Purchase Order Number,Primary Synchrony Account Number,Primary Synchrony Application Key,Primary Synchrony Account Info,Primary Synchrony Term,Primary Synchrony Primary ID,Primary Synchrony Issued State,Primary Synchrony Expiretion Date,Second Payment Balance,Second Authorize Number,Second Purchase Order Number,Second Synchrony Account Number,Second Synchrony Application Key,Second Synchrony Account Info,Second SynchronyTerm,Second Synchrony Primary ID,Second Synchrony Issued State,Second Synchrony Expiretion Date,Third Payment Balance,Third Authorize Number,Third Purchase Order Number,Third Synchrony Account Number,Third Synchrony Application Key,Third Synchrony Account Info,Third Synchrony Term,Third Synchrony Primary ID,Third Synchrony Issued State,Third Synchrony Expiretion Date
Windward Mall Fitness Show (062119-062219),Windward Mall Fitness Show (062119-062219),Shari Saiki,118277,6/24/2019 2:01:08 PM,WILFRED MORINAKA,HI,96734,Relax 2 Zero 3D - Hawaii,New Choco,New,1,0.00,5200.00,5200.00,Credit Card,,,"5 years parts, 1 year labor (Free)","Relax 2 Zero 3D - Hawaii,",No,,Hold,,,06/24/2019 - Customer is not ready to purchase chair. Anna,HI,1,4.71,DWA-9060USJ-9060BR,100.00,13122G,,,,,,,,/,0.00,,,,,,,,,/,0.00,,,,,,,,,/
Windward Mall Fitness Show (062119-062219),Windward Mall Fitness Show (062119-062219),Thomas Motooka,118287,6/24/2019 4:27:33 PM,DANFORD KEANU,HI,96734,Relax 2 Zero 3D - Hawaii,New Black,New,1,0.00,5000.00,5000.00,Synchrony,,,"5 years parts, 1 year labor (Free)","Relax 2 Zero 3D - Hawaii,",No,6/27/2019 12:00:00 AM,Delivered,,,,HI,1,4.71,DWA-9060USJ-9060BL,5000.00,,,6501723357116969,77140993,Hawaii,36 months,Driver’s License,HI,03/2020,0.00,,,,,,,,,/,0.00,,,,,,,,,/
Windward Mall Fitness Show (062119-062219),Windward Mall Fitness Show (062119-062219),Thomas Motooka,118288,6/24/2019 4:48:14 PM,KIM MCDANIEL,HI,96744,Legacy - Hawaii,New Gold,New,1,0.00,3700.00,3700.00,Credit Card,,,"5 years parts, 1 year labor (Free)","Legacy - Hawaii,",No,,Scheduled,,,,HI,1,4.71,DWA-9100DWA-9100GD,3700.00,KK3z,,,,,,,,/,0.00,,,,,,,,,/,0.00,,,,,,,,,/
Windward Mall Fitness Show (062119-062219),Windward Mall Fitness Show (062119-062219),KIMBERLY KAM,118290,6/24/2019 5:16:01 PM,ROBERTA UYEMURA,HI,96744,Relax 2 Zero 3D - Hawaii,Demo Black,Demo,1,0.00,5000.00,5000.00,Credit Card,,,"5 years parts, 1 year labor (Free)","Relax 2 Zero 3D - Hawaii,",No,,Scheduled,,,,HI,1,4.71,DWA-9060USJ-9060BL-DEMO,5000.00,TmxO,,,,,,,,/,0.00,,,,,,,,,/,0.00,,,,,,,,,/
Windward Mall Fitness Show (062119-062219),Windward Mall Fitness Show (062119-062219),Shari Saiki,118291,6/24/2019 5:42:46 PM,LAURIE LEE ZIDEK,HI,96744,Legacy - Hawaii,Demo Choco,Demo,1,0.00,3800.00,3800.00,Credit Card,,,"5 years parts, 1 year labor (Free)","Legacy - Hawaii,",No,,Hold,,,,HI,1,4.71,DWA-9100DWA-9100BU-DEMO,100.00,ZeXi,,,,,,,,/,0.00,,,,,,,,,/,0.00,,,,,,,,,/
Windward Mall Fitness Show (062119-062219),Windward Mall Fitness Show (062119-062219),Shari Saiki,118292,6/24/2019 5:56:49 PM,DANIEL KIMURA,HI,96734,Legacy - Hawaii,New Gold,New,1,0.00,3800.00,3800.00,Credit Card,,,"5 years parts, 1 year labor (Free)","Legacy - Hawaii,",No,7/1/2019 12:00:00 AM,Delivered,,,,HI,1,4.71,DWA-9100DWA-9100GD,3800.00,7Z0D,,,,,,,,/,0.00,,,,,,,,,/,0.00,,,,,,,,,/
Windward Mall Fitness Show (062119-062219),Windward Mall Fitness Show (062119-062219),Lillian Shu,118293,6/24/2019 6:09:28 PM,ALISON FUKUDA,HI,96744,Legacy - Hawaii,New Gold,New,1,0.00,3800.00,3800.00,Synchrony,,,"5 years parts, 1 year labor (Free)","Legacy - Hawaii,",No,,Scheduled,,,,HI,1,4.71,DWA-9100DWA-9100GD,3800.00,,,6501723357117827,77178225,Hawaii,36 months,Driver’s License,HI,06/2024,0.00,,,,,,,,,/,0.00,,,,,,,,,/
Windward Mall Fitness Show (062119-062219),Windward Mall Fitness Show (062119-062219),Shari Saiki,118302,6/25/2019 10:27:09 AM,DEBRA MORI,HI,96725,Majesty - Hawaii,New Black,New,1,0.00,4000.00,4000.00,Credit Card,,,"5 years parts, 1 year labor (Free)","Majesty - Hawaii,",No,,New,,,,HI,1,4.71,MAJ-1010MAJ-1010-BL,4000.00,0hZg,,,,,,,,/,0.00,,,,,,,,,/,0.00,,,,,,,,,/
