﻿Date,Customer Name,State,Zipcode,Description,Product Number,Color,Product Status,Net,Shipping Fee,Gift Price,Financing Processing Fee,Order Total,Total Before Tax,Tax,Commission,Primary Payment Method,Primary Payment Balance,Primary Authorize Number,Primary Purchase Order Number,Primary Synchrony Account Number,Primary Synchrony Application Key,Primary Synchrony Account Info,Primary Synchrony Term,Primary Synchrony Primary ID,Primary Synchrony Issued State,Primary Synchrony Expiretion Date,Second Payment Method,Second Payment Balance,Second Authorize Number,Second Purchase Order Number,Second Synchrony Account Number,Second Synchrony Application Key,Second Synchrony Account Info,Second Synchrony Term,Second Synchrony Primary ID,Second Synchrony Issued State,Second Synchrony Expiretion Date,Third Payment Method,Third Payment Balance,Third Authorize Number,Third Purchase Order Number,Third Synchrony Account Number,Third Synchrony Application Key,Third Synchrony Account Info,Third Synchrony Term,Third Synchrony Primary ID,Third Synchrony Issued State,Third Synchrony Expiretion Date,Delivery Date,Pick up,Warranty,Status,Chair Type,Original Event Name,Event Name,Synchrony Notes,Order Notes,Order Number,Private Note,Branch,No Tax,Actual Tax Rate
3/15/2018 6:33:38 AM,John Mcclure,FL,32174,Legacy 3D,DWA-9150USJ-9150BL-DEMO,Demo Black,Demo,,,,,3900.00,3900.00,0.00,Ting Ritchie,Synchrony,3900.00,,,6034610083158306,86254667,Huston,36 months,,,,,0.00,,,,,,,,,,,0.00,,,,,,,,,,4/3/2018 12:00:00 AM,No,"3 years parts, 1 year labor (Free)",Delivered,,Daytona Beach Bike 3/9-18/18 (FL),Daytona Beach Bike 3/9-18/18 (FL),Confirmed $3900/36 months/Auth#003546 in Synchrony HST. 5/3/18 Riho,,104517,"Confirmed synchrony form and the account ($6,000) ***Please charge before delivery.***3/15/18 Hitomi
AUTH # 003546 4/3 MAGGIE",FL,1,6.50
3/15/2018 9:39:12 AM,Mike Vo,CA,92336,Relax2Zero 3D,DWA-9060USJ-9060BR,New Choco,New,,,,,3750.00,3521.36,228.64,Yichuang (Debbie) Yang,CreditCard,3750.00,Jvpe,,,,,,,,,,0.00,,,,,,,,,,,0.00,,,,,,,,,,4/2/2018 12:00:00 AM,No,"2 years parts, 1 year labor (Free)",Delivered,,Health and Wellness Houston Store 2017 (TX),Health and Wellness Houston Store 2017 (TX),,,104518,"Returning customer
Confirmed on Square $3750, alicia 3/15/18
03/20/18-Cristina- Printed",CA,0,8.25
3/15/2018 10:01:04 AM,Howard Vo,CA,91739,Relax2Zero 3D,DWA-9060USJ-9060BR,New Choco,New,,,,,3750.00,3521.36,228.64,Yichuang (Debbie) Yang,CreditCard,3750.00,uHPC,,,,,,,,,,0.00,,,,,,,,,,,0.00,,,,,,,,,,4/2/2018 12:00:00 AM,No,"3 years parts, 1 year labor (Free)",Delivered,,Health and Wellness Houston Store 2017 (TX),Health and Wellness Houston Store 2017 (TX),,,104519,"Returning customer
Confirmed on Square $3750, alicia 3/15/18
03/20/18-cristina- printed",CA,0,8.25
3/15/2018 12:47:05 PM,Saeeda Javed,TX,79765,Legacy,DWA-9100DWA-9100SI,New Sienna,New,,,,,6800.00,6800.00,0.00,Laser Howell,CreditCard,4000.00,Sq #nVSg,,,,,,,,,CreditCard,2800.00,Layaway,,,,,,,,,,0.00,,,,,,,,,,3/30/2018 12:00:00 AM,No,"3 years parts, 1 year labor (Free)",Delivered,,ASD Show 3/11-14/18 (NV),ASD Show 3/11-14/18 (NV),,,104520,"The remaining balanced thru LAYAWAY $2800.00 for 10 months $280.00 per month.
Confirmed $4000 in Square *Please start Layaway  Payment after the delivery* 3/15/18 Riho
Layaway: Paid off on 1/15/19.  -Riho",TX,1,8.25
3/15/2018 12:53:09 PM,Muhammad Din,TX,79606,Legacy,DWA-9100DWA-9100SI,New Sienna,New,,,,,3400.00,3400.00,0.00,Laser Howell,CreditCard,2000.00,Sq #jo0y,,,,,,,,,CreditCard,1400.00,Layaway,,,,,,,,,,0.00,,,,,,,,,,3/29/2018 12:00:00 AM,No,"3 years parts, 1 year labor (Free)",Delivered,,ASD Show 3/11-14/18 (NV),ASD Show 3/11-14/18 (NV),,,104521,"The remaining balanced $1400.00 LAYAWAY 12 months to pay.
confirmed $2,000 in Square. 3/15/18 Hitomi",TX,1,8.25
3/15/2018 1:40:13 PM,Na Wang,TX,78741,Foot Vibe Pro,USJ-871,,New,,,,,219.98,219.98,0.00,Kristy Tran,CreditCard,219.98,TC 4786 3542 6313 3039 5489 2,,,,,,,,,,0.00,,,,,,,,,,,0.00,,,,,,,,,,,YES,"2 years parts, 1 year labor for Small Items",Delivered,,Sam's Club #4720 Austin (TX),Sam's Club #4720 Austin (TX),,"Customer picked up 3/15/2018
Customer is Tax Exempt",104522,,TX,1,8.25
3/15/2018 1:42:27 PM,Lourdes Godoy,TX,78747,Shogun Neck & Back Massger,USJ-874USJ-874,New,New,,,,,216.48,199.98,16.50,Tom Nguyen,CreditCard,216.48,D36122357CD11384,,,,,,,,,,0.00,,,,,,,,,,,0.00,,,,,,,,,,,YES,"2 years parts, 1 year labor for Small Items",Delivered,,Sam's Club #8259 Austin (TX),Sam's Club #8259 Austin (TX),,Customer already pick up the item,104523,,TX,0,8.25
3/15/2018 1:57:36 PM,David Pender,SC,29107,Legacy 3D,DWA-9150USJ-9150CH,New Choco,New,,,,,4500.00,4500.00,0.00,Ruben Cuatrona,CreditCard,200.00,rjsn,,,,,,,,,CreditCard,4300.00,P4x1,,,,,,,,,,0.00,,,,,,,,,,4/13/2018 12:00:00 AM,No,"3 years parts, 1 year labor (Free)",Delivered,,ASD Show 3/11-14/18 (NV),ASD Show 3/11-14/18 (NV),Confirmed COD $4300/#P4x1 on Square. 5/9/18 Riho,,104524,"$4500 payment cleared on Square by alicia 3/15/18(SQUARE#  Lnvu)
($4,500) REFUNDED 3/28 // CHARGED $200 DEPOSIT (SQ# rjsn) // COD $4,300//
(Before we deliver the chair he was upset about making payments full amount of the chair which he has not received. So we refunded and charged only a deposit until the chair was delivered.)",FL,1,8.25
3/15/2018 2:14:08 PM,Olga Rodriguez,FL,32834,Legacy 3D,DWA-9150USJ-9150CH,New Choco,New,,,,,3300.00,3300.00,0.00,Ruben Cuatrona,Synchrony,3300.00,,,,,,36 months,,,,,0.00,,,,,,,,,,,0.00,,,,,,,,,,,No,3 Years Parts (International),Hold,,ASD Show 3/11-14/18 (NV),ASD Show 3/11-14/18 (NV),,,104525,Synchrony pending Ruben advise customer to call synchrony for additional info to get approved. -Stephany 03/15/18,Not Dispatched,1,8.25
3/15/2018 2:25:13 PM,Jeff Brown,NC,28468,Legacy 3D,DWA-9150USJ-9150BL-DEMO,Demo Black,Demo,,,,,3900.00,3900.00,0.00,Ruben Cuatrona,CreditCard,3900.00,9mqE,,,,,,,,,,0.00,,,,,,,,,,,0.00,,,,,,,,,,5/1/2018 12:00:00 AM,No,"3 years parts, 1 year labor (Free)",Delivered,,ASD Show 3/11-14/18 (NV),ASD Show 3/11-14/18 (NV),"Confirmed $3,900.00 in Square. 5/11/18 Hitomi ",,104526,"Deliver after April 10th leaving town until then.
$3900 payment cleared on wells fargo by alicia 3/15/18
CUSTOMER DISPUTED CHARGE WITH BANK// DOES NOT WANT CHAIR ANYMORE
Was under the impression that they would put down a small deposit then decide at a later date but instead was charged full amount. Very upset with miscommunication/ misunderstanding. Gave her my info and told her to call back if she changes her mind. (4/13 Maggie)
4/18 Maggie - Spoke to customer, as long as they get their promised price & warranty (which I assured) they will remove dispute
Recharged customer full amount with new credit card // READY FOR DELIVERY",FL,1,8.25
3/15/2018 2:37:52 PM,Karie Molotchick,UT,84095,Legacy 3D,DWA-9150USJ-9150BL,New Black,New,,,,,4300.00,4300.00,0.00,Ruben Cuatrona,CreditCard,1000.00,397654,,,,,,,,,CreditCard,3300.00,u7QT,,,,,,,,,,0.00,,,,,,,,,,3/18/2018 12:00:00 AM,No,"3 years parts, 1 year labor (Free)",Delivered,,ASD Show 3/11-14/18 (NV),ASD Show 3/11-14/18 (NV),,Send extra Black chair pad,104527,"$1,000 deposit cleared by alicia 3/15/18 on wells fargo
$3300 COD
3/21 Confirmed on Square(3300) Square Receipt# u7QT - Maritza",NV,1,8.25
3/15/2018 2:37:52 PM,Karie Molotchick,UT,84095,Chair Pad for Legacy 3D,,,New,,,,,4300.00,4300.00,0.00,Ruben Cuatrona,CreditCard,1000.00,397654,,,,,,,,,CreditCard,3300.00,u7QT,,,,,,,,,,0.00,,,,,,,,,,3/18/2018 12:00:00 AM,No,no warranty,Delivered,,ASD Show 3/11-14/18 (NV),ASD Show 3/11-14/18 (NV),,Send extra Black chair pad,104527,"$1,000 deposit cleared by alicia 3/15/18 on wells fargo
$3300 COD
3/21 Confirmed on Square(3300) Square Receipt# u7QT - Maritza",NV,1,8.25
3/15/2018 2:48:26 PM,Paul Chapman,TX,77581,Legacy 3D,DWA-9150USJ-9150CH-DEMO,Demo Choco,Demo,,,,,3700.00,3700.00,0.00,Ruben Cuatrona,CreditCard,3700.00,01294R,,,,,,,,,,0.00,,,,,,,,,,,0.00,,,,,,,,,,3/26/2018 12:00:00 AM,No,"3 years parts, 1 year labor (Free)",Delivered,,ASD Show 3/11-14/18 (NV),ASD Show 3/11-14/18 (NV),,,104528,payment $3700 cleared by alicia 3/15/18 on wells fargo,TX,1,8.25
3/15/2018 3:13:36 PM,Elias Lozano,TX,64610,Legacy 3D,DWA-9150USJ-9150CH,New Choco,New,,,,,3500.00,3500.00,0.00,Ruben Cuatrona,COD,0.00,,,,,,,,,,,0.00,,,,,,,,,,,0.00,,,,,,,,,,,No,3 Years Parts (International),Hold,,ASD Show 3/11-14/18 (NV),ASD Show 3/11-14/18 (NV),,,104529,This customer will pay texas branch for massage chair.,Not Dispatched,1,8.25
3/15/2018 3:29:01 PM,Ekim Kaya,CA,90036,Legacy 3D,DWA-9150USJ-9150CH,New Choco,New,,,,,3200.00,3200.00,0.00,Ruben Cuatrona,CreditCard,3200.00,02782G,,,,,,,,,,0.00,,,,,,,,,,,0.00,,,,,,,,,,3/27/2018 12:00:00 AM,No,"3 years parts, 1 year labor (Free)",Delivered,,ASD Show 3/11-14/18 (NV),ASD Show 3/11-14/18 (NV),,(2)  Unit Discount,104530,"$3200 payment cleared on wells fargo by alicia, 3/15/18
03/20/18-Cristina- Printed",CA,1,8.25
3/15/2018 3:36:22 PM,Mark Gatherwright,OH,45202,Legacy 3D,DWA-9150USJ-9150CH,New Choco,New,,,,,3500.00,3500.00,0.00,Ruben Cuatrona,CreditCard,3500.00,03448G,,,,,,,,,,0.00,,,,,,,,,,,0.00,,,,,,,,,,3/24/2018 12:00:00 AM,No,"3 years parts, 1 year labor (Free)",Delivered,,ASD Show 3/11-14/18 (NV),ASD Show 3/11-14/18 (NV),,Floor Model Discount,104531,"$3500 payment cleared by alicia on wells fargo, 3/15/18",TX,1,8.25
3/15/2018 3:48:28 PM,Erica Cheramie,LA,70360,Legacy 3D,DWA-9150USJ-9150BL,New Black,New,,,,,4500.00,4500.00,0.00,Kamille Gines,Synchrony,4500.00,,,6034610083155021,86161192,Las Vegas,36 months,,,,,0.00,,,,,,,,,,,0.00,,,,,,,,,,3/29/2018 12:00:00 AM,No,"3 years parts, 1 year labor (Free)",Delivered,,ASD Show 3/11-14/18 (NV),ASD Show 3/11-14/18 (NV),"Confirmed transaction for $4,500/ 36 months/ Auth#019070 in Sync. LV 3/30/18 Riho",36 Months 0% Apr,104532,"Confirmed the account ($5,400)>***Please charge before delivery.***3/16/18 Hitomi",TX,1,8.25
3/15/2018 4:13:31 PM,Majdi Liqa,IL,60464,Legacy 3D,DWA-9150USJ-9150CH,New Choco,New,,,,,7000.00,7000.00,0.00,Ruben Cuatrona,Synchrony,7000.00,,,6034610083155237,86164099,Las Vegas,24 months,,,,,0.00,,,,,,,,,,,0.00,,,,,,,,,,3/21/2018 12:00:00 AM,No,"3 years parts, 3 years labor ($400)",Delivered,,ASD Show 3/11-14/18 (NV),ASD Show 3/11-14/18 (NV),,"(1) Chair going to Baker Rashid 
13071 Ridgewood Dr Palos Park, IL 60464",104533,"Confirm colors and confirm addresses.
Confirmed the account ($8,400). ***Please charge before delivery.***3/16/18 Hitomi
PLEASE HAVE CUSTOMERS SIGN ON INVOICE WHEN IT DELIVERS.",TX,1,8.25
3/15/2018 4:26:30 PM,Lawrence Dagada,TX,75022,Legacy 3D,DWA-9150USJ-9150CH,New Choco,New,,,,,4800.00,4800.00,0.00,Ruben Cuatrona,Synchrony,4800.00,,,6034610083154834,86158151,Las Vegas,48 months,,,,,0.00,,,,,,,,,,,0.00,,,,,,,,,,3/26/2018 12:00:00 AM,No,"3 years parts, 1 year labor (Free)",Delivered,,ASD Show 3/11-14/18 (NV),ASD Show 3/11-14/18 (NV),,48  Months 0% APR,104534,"Confirmed the account($5,500) under ""DAGADU, LAWRENCE"".***Please charge before delivery.***3/16/18 Hitomi
Authorization#	021556 Confirmed the Synchrony transaction for $4800/48months. 3/29/18 Riho",TX,1,8.25
3/15/2018 4:33:24 PM,Jason and Linnie Phelps,UT,84026,Legacy 3D,DWA-9150USJ-9150CH-DEMO,Demo Choco,Demo,,,,,3900.00,3900.00,0.00,Ruben Cuatrona,CreditCard,3900.00,01333G,,,,,,,,,,0.00,,,,,,,,,,,0.00,,,,,,,,,,3/19/2018 12:00:00 AM,No,"3 years parts, 1 year labor (Free)",Delivered,,ASD Show 3/11-14/18 (NV),ASD Show 3/11-14/18 (NV),,,104535,$3900 payment cleared on wells fargo by alicia 3/15/18,NV,1,8.25
3/15/2018 5:12:45 PM,John Orozco,CA,92081,Pegasus,DWA-9400Pegasus-BR,New Choco,New,,,,,4500.00,4500.00,0.00,Kamille Gines,CreditCard,4500.00,GeMI,,,,,,,,,,0.00,,,,,,,,,,,0.00,,,,,,,,,,,No,"3 years parts, 1 year labor (Free)",Cancelled,,ASD Show 3/11-14/18 (NV),ASD Show 3/11-14/18 (NV),,,104536,"paid in full, $4500 on Square, cleared by alicia 3/16/18
03/20/18-Cristina-printed.",CA,1,8.25
3/15/2018 7:08:18 PM,Daiwa Massage,CA,90249,Foot Vibe Pro,USJ-871,,New,,,,,119.56,109.99,9.57,Daisuke Ito,PurchaseOrder,0.00,,,,,,,,,,,0.00,,,,,,,,,,,0.00,,,,,,,,,,,YES,"2 years parts, 1 year labor for Small Items",Delivered,,Sam's Club #6692 3/15-25/18 (CA),Sam's Club #6692 3/15-25/18 (CA),,,104537,"TC#451144291616275837585
US Debit AID #A0000000980840 Pin Verified",CA,0,8.70
3/15/2018 8:36:07 PM,Dien Truong,CA,90242,Legacy for Sam's,DWA-9100DWA-9100SB,New Sienna Brown,New,,,,,3967.90,3599.00,368.90,Patricia Whipple,CreditCard,0.00,A#023000 TC#2470036554888298675353,,,,,,,,,,0.00,,,,,,,,,,,0.00,,,,,,,,,,4/4/2018 12:00:00 AM,No,"3 years parts, 1 year labor (Free)",Delivered,,Sam's Club Long Beach #6613 3/8- 3/17/18 (CA),Sam's Club Long Beach #6613 3/8- 3/17/18 (CA),,,104538,"03/20/18-Cristina- Printed
****3/26 Maritza: New Color CHOCO per customers request*****",CA,0,10.25
3/16/2018 6:39:13 AM,Regina Ramsey,FL,32750,Relax2Zero 3D,DWA-9060USJ-9060BR-DEMO,Demo Choco,Demo,,,,,3750.00,3750.00,0.00,Ting Ritchie,CreditCard,3750.00,9h1K,,,,,,,,,,0.00,,,,,,,,,,,0.00,,,,,,,,,,3/18/2018 12:00:00 AM,No,"3 years parts, 1 year labor (Free)",Delivered,,Daytona Beach Bike 3/9-18/18 (FL),Daytona Beach Bike 3/9-18/18 (FL),,Serial Number: 96170812D,104539,"Confirmed $3,750 in Square. 
Confirmed with Ting that The chair will be delivered on  3/18/18 by sales team. please send me the delivery confirmation. 3/16/18 HItomi",FL,1,6.50
3/16/2018 9:54:34 AM,Mohammad Amer,TN,37122,Legacy 3D,DWA-9150USJ-9150BL,New Black,New,,,,,3000.00,3000.00,0.00,Ruben Cuatrona,CreditCard,7000.00,#01309R #03202B,,,,,,,,,COD,14000.00,,,,,,,,,,,0.00,,,,,,,,,,,No,"3 years parts, 1 year labor (Free)",Cancelled,,ASD Show 3/11-14/18 (NV),ASD Show 3/11-14/18 (NV),,"Customer purchased 7 chairs, and paid it together ($21,000-$3,000/ea) But it has 3 different address.",104540,"Don't charge the remaining balance $14,000 for 5 chairs, customer will advise about that.
Confirmed $1000/#01309R and $6000/#03202B in Wells Fargo. 3/16/18 Riho",FL,1,8.25
3/16/2018 10:07:06 AM,Mohammad Amer,DE,19970,Legacy 3D,DWA-9150USJ-9150BL,New Black,New,,,,,3000.00,3000.00,0.00,Ruben Cuatrona,CreditCard,7000.00,#01309R #03202B,,,,,,,,,COD,14000.00,,,,,,,,,,,0.00,,,,,,,,,,,No,"3 years parts, 1 year labor (Free)",Cancelled,,ASD Show 3/11-14/18 (NV),ASD Show 3/11-14/18 (NV),,"Customer purchased 7 chairs, and paid it together (for $21,000-$3,000/ea) But it has 3 different address.",104541,"Don't charge the remaining balance $14,000 for 5 chairs, customer will advise about that.
Confirmed $1000/#01309R and $6000/#03202B in Wells Fargo. 3/16/18 Riho",TX,1,8.25
3/16/2018 10:08:14 AM,Jessica Welle,FL,33178,Legacy 3D,DWA-9150USJ-9150CH-DEMO,Demo Choco,Demo,,,,,3500.00,3500.00,0.00,Kamille Gines,Synchrony,2700.00,,,6034610083157597,86232796,Las Vegas,36 months,,,,CreditCard,800.00,sEZ8,,,,,,,,,,0.00,,,,,,,,,,3/23/2018 12:00:00 AM,No,"3 years parts, 1 year labor (Free)",Delivered,,ASD Show 3/11-14/18 (NV),ASD Show 3/11-14/18 (NV),,,104542,"$800 cleared on Square by alicia 3/16/18
Confirmed the account ($5,500).***Please charge before delivery.***3/16/18 Hitomi",FL,1,8.25
3/16/2018 10:21:34 AM,Omar Akhteri,CA,91325,Legacy 3D,DWA-9150USJ-9150BL-DEMO,Demo Black,Demo,,,,,3500.00,3500.00,0.00,Kamille Gines,Synchrony,3500.00,,,6034610083157589,86232298,Las Vegas,24 months,,,,,0.00,,,,,,,,,,,0.00,,,,,,,,,,4/3/2018 12:00:00 AM,No,"3 years parts, 1 year labor (Free)",Delivered,,ASD Show 3/11-14/18 (NV),ASD Show 3/11-14/18 (NV),,24 months 0% Apr,104543,"Confirmed the account ($6,500) uneder ""ARHTERI, OMAR'.***Please charge before delivery.***3/16/18 Hitomi
03/20/18-Cristina- Printed",CA,1,8.25
3/16/2018 10:21:54 AM,Mohammad Amer,TN,37211,Legacy 3D,DWA-9150USJ-9150BL,New Black,New,,,,,15000.00,15000.00,0.00,Ruben Cuatrona,CreditCard,7000.00,#01309R #03202B,,,,,,,,,COD,14000.00,,,,,,,,,,,0.00,,,,,,,,,,,No,"3 years parts, 1 year labor (Free)",Cancelled,,ASD Show 3/11-14/18 (NV),ASD Show 3/11-14/18 (NV),,"Customer purchased 7 chairs, and paid it together (for $21,000-$3,000/ea) But it has 3 different address.
Related with #104540, #104541",104544,"Hold until 1st and 2nd delivery are completed, customer will advise about this order and will pay the remaining balance $14,000.
Confirmed $1000/#01309R and $6000/#03202B in Wells Fargo. 3/16/18 Riho",FL,1,8.25
3/16/2018 10:56:12 AM,Hyung Kim,CA,91710,Relax2Zero 1.0,USJ-9000USJ-9000KU,New Black,New,,,,,4000.00,4000.00,0.00,Kamille Gines,CreditCard,4000.00,Kwvb,,,,,,,,,,0.00,,,,,,,,,,,0.00,,,,,,,,,,4/2/2018 12:00:00 AM,No,"2 years parts, 1 year labor (Free)",Delivered,,ASD Show 3/11-14/18 (NV),ASD Show 3/11-14/18 (NV),,"Please deliver within two weeks, customer will be going to China in 3 weeks.",104545,"Relax 2 Zero 9000
paid in full, $4000 on Square, cleared by alicia 3/16/18
03/20/18-Cristina- Printed",CA,1,8.25
3/16/2018 11:00:18 AM,Lisa Simon,CA,91977,Legacy 3D,DWA-9150USJ-9150CH,New Choco,New,,,,,3900.00,3900.00,0.00,Ruben Cuatrona,CreditCard,3900.00,BIU3,,,,,,,,,,0.00,,,,,,,,,,,0.00,,,,,,,,,,3/30/2018 12:00:00 AM,No,"3 years parts, 1 year labor (Free)",Delivered,,ASD Show 3/11-14/18 (NV),ASD Show 3/11-14/18 (NV),,,104546,"paid in full $3900 on Square, cleared by alicia 3/16/18
03/20/18-Cristina- printed",CA,1,8.25
3/16/2018 11:05:34 AM,Lisa and Robert Simon,MI,48601,Legacy 3D,DWA-9150USJ-9150CH,New Choco,New,,,,,3900.00,3900.00,0.00,Ruben Cuatrona,CreditCard,100.00,891298,,,,,,,,,CreditCard,3800.00,#y1Dy,,,,,,,,,,0.00,,,,,,,,,,4/2/2018 12:00:00 AM,No,"3 years parts, 1 year labor (Free)",Delivered,,ASD Show 3/11-14/18 (NV),ASD Show 3/11-14/18 (NV),,,104547,"$100 deposit cleared on WF by alicia 3/16/18
$3800 COD #y1Dy CONFIRMED - STEPHANY  04/11/18",TX,1,8.25
3/16/2018 11:10:03 AM,Brian Mrotek,MI,49120,Legacy 3D,DWA-9150USJ-9150BL,New Black,New,,,,,4000.00,4000.00,0.00,Ruben Cuatrona,CreditCard,200.00,861330,,,,,,,,,CreditCard,3800.00,E618,,,,,,,,,,0.00,,,,,,,,,,4/17/2018 12:00:00 AM,No,"3 years parts, 1 year labor (Free)",Delivered,,ASD Show 3/11-14/18 (NV),ASD Show 3/11-14/18 (NV),,Delivery request April 16th or 17th,104548,"$200 deposit cleared on WF by alicia 3/16/18
COD $3800 was paid through Square, confirmed the transaction #E618. 4/25/18 Riho",TX,1,8.25
3/16/2018 11:15:58 AM,Nicko Didgorodetskiy,KY,40353,Legacy 3D,DWA-9150USJ-9150CH,New Choco,New,,,,,3000.00,3000.00,0.00,Ruben Cuatrona,CreditCard,3000.00,LzlU,,,,,,,,,,0.00,,,,,,,,,,,0.00,,,,,,,,,,3/23/2018 12:00:00 AM,No,"3 years parts, 1 year labor (Free)",Delivered,,ASD Show 3/11-14/18 (NV),ASD Show 3/11-14/18 (NV),,5 unit discount. Drop Ship,104549,"paid in full $3000 on Square, cleared by alicia 3/16/18",TX,1,8.25
3/16/2018 11:47:50 AM,Okcha Hoak,WA,98541,Legacy,DWA-9100DWA-9100BU,New Choco,New,,,,,3500.00,3500.00,0.00,Kamille Gines,CreditCard,3500.00,00674G,,,,,,,,,,0.00,,,,,,,,,,,0.00,,,,,,,,,,,No,"3 years parts, 1 year labor (Free)",Cancelled,,ASD Show 3/11-14/18 (NV),ASD Show 3/11-14/18 (NV),,,104550,"paid in full, $3500 on WF cleared by alicia 3/16/18
Revised to #104619 under the correct chair model 3/19/18 Hitomi",WA,1,8.25
3/16/2018 1:36:49 PM,HENRY NGUYEN,TX,77043,Legacy 3D,DWA-9150USJ-9150BL,New Black,New,,,,,3800.00,3800.00,0.00,Ruben Cuatrona,CreditCard,3800.00,PxGq,,,,,,,,,,0.00,,,,,,,,,,,0.00,,,,,,,,,,3/23/2018 12:00:00 AM,No,"3 years parts, 1 year labor (Free)",Delivered,,ASD Show 3/11-14/18 (NV),ASD Show 3/11-14/18 (NV),,Company's Phone# 281-496-7026,104551,"cleared on Square $3800 by alicia 3/17/18
Per Ruben, change the color to BROWN.3/19/18 Hitomi",TX,1,8.25
3/16/2018 1:41:53 PM,Chris Hattenpach,FL,33326,Legacy 3D,DWA-9150USJ-9150BL,New Black,New,,,,,3726.88,3500.00,226.88,Ruben Cuatrona,CreditCard,3500.00,eGy5,,,,,,,,,,0.00,,,,,,,,,,,0.00,,,,,,,,,,3/23/2018 12:00:00 AM,No,"3 years parts, 1 year labor (Free)",Delivered,,ASD Show 3/11-14/18 (NV),ASD Show 3/11-14/18 (NV),,,104552,"paid in full $3500 on Square, cleared by alicia 3/16/18",FL,0,8.25
3/16/2018 1:59:42 PM,Charles C. Cook,WA,98541,Legacy 3D,DWA-9150USJ-9150CH,New Choco,New,,,,,3500.00,3500.00,0.00,Kamille Gines,Synchrony,3500.00,,,6034610083158447,86258374,Las Vegas,24 months,,,,,0.00,,,,,,,,,,,0.00,,,,,,,,,,3/20/2018 12:00:00 AM,No,"3 years parts, 1 year labor (Free)",Delivered,,ASD Show 3/11-14/18 (NV),ASD Show 3/11-14/18 (NV),,,104553,"Confirmed the account ($3,500.)***PLease charge before delivery.***3/16/18 Hitomi
Synchrony processed 3/20/2018 by Scott
24 month $3,500 Auth # 020871
Received delivery confirmation 3/20/18 Hitomi",WA,1,8.25
3/16/2018 2:08:39 PM,Ronen Zaguri,FL,33026,Legacy 3D,DWA-9150USJ-9150BL-DEMO,Demo Black,Demo,,,,,3500.00,3500.00,0.00,Elijah Banania,Synchrony,3500.00,,,6034610083157613,86233113,Las Vegas,24 months,,,,,0.00,,,,,,,,,,,0.00,,,,,,,,,,3/23/2018 12:00:00 AM,No,"3 years parts, 1 year labor (Free)",Delivered,,ASD Show 3/11-14/18 (NV),ASD Show 3/11-14/18 (NV),,,104554,"Confirmed the account ($6,500)***PLease charge before delivery.***3/16/18 Hitomi",FL,1,8.25
3/16/2018 2:23:15 PM,Johnny Ware,UT,84088,Relax2Zero 3D,DWA-9060USJ-9060BR-DEMO,Demo Choco,Demo,,,,,2500.00,2500.00,0.00,Abagail Stirling,CreditCard,2500.00,87ka,,,,,,,,,,0.00,,,,,,,,,,,0.00,,,,,,,,,,,YES,No Warranty,Delivered,,Salt Lake Home Show 3/9-11/18 (LV),Salt Lake Home Show 3/9-11/18 (LV),,"Sold as is, No Warranty.
Picked up at the show, but the Sales Rep forgot to get the serial# and P/U signature on the invoice.",104555,"Confirmed $2,500 in Square. 3/19/18 Hitomi",NV,1,6.85
3/16/2018 2:54:08 PM,Brenda Hill,TX,78735,Legacy for Sam's,DWA-9100DWA-9100CH-DEMO,Demo Choco,Demo,,,,,3895.92,3599.00,296.92,Kristy Tran,CreditCard,3895.92,TC 4599 0985 3379 7756 6912 03,,,,,,,,,,0.00,,,,,,,,,,,0.00,,,,,,,,,,3/31/2018 12:00:00 AM,No,"3 years parts, 1 year labor (Free)",Delivered,,Sam's Club #4720 Austin (TX),Sam's Club #4720 Austin (TX),,,104556,,TX,0,8.25
3/16/2018 3:12:26 PM,Jason Gaines,TX,78602,Shogun Neck & Back Massger,USJ-874USJ-874,New,New,,,,,216.48,199.98,16.50,Kristy Tran,CreditCard,216.48,TC 0452 1227 9486 4890 6137 7,,,,,,,,,,0.00,,,,,,,,,,,0.00,,,,,,,,,,,YES,"2 years parts, 1 year labor for Small Items",Delivered,,Sam's Club #4720 Austin (TX),Sam's Club #4720 Austin (TX),,Customer picked up 3/16/2018,104557,,Not Dispatched,0,8.25
3/16/2018 4:23:15 PM,Priscilla & Brian Berger,OH,43220,Pegasus,DWA-9400Pegasus-BL,New Black,New,,,,,4800.00,4800.00,0.00,May Kam,Synchrony,4800.00,,,6034610083161458,86346050,Las Vegas,24 months,,,,,0.00,,,,,,,,,,,0.00,,,,,,,,,,3/23/2018 12:00:00 AM,No,"3 years parts, 1 year labor (Free)",Delivered,,Natural Products Expo March 8-11 (CA),Natural Products Expo March 8-11 (CA),"Confirmed transaction for $4,800/24 months/Auth#023614 in Synchrony LV. 4/12/18 Riho",Synchrony Applicant is Priscilla Berger; it's approved $6000. Please charge $4800 before delivery.,104558,"Confirmed the account ($6,000).***Please charge before delivery.***",TX,1,7.75
3/16/2018 4:49:14 PM,Gary Sahni,GA,30097,Relax2Zero 3D,DWA-9060USJ-9060BR,New Choco,New,,,,,4000.00,4000.00,0.00,Mario Higareda,CreditCard,400.00,RXsZ,,,,,,,,,CreditCard,3600.00,KJtW,,,,,,,,,,0.00,,,,,,,,,,3/28/2018 12:00:00 AM,No,"5 years parts, 1 year labor ($300)",Delivered,,ASD Show 3/11-14/18 (NV),ASD Show 3/11-14/18 (NV),,,104559,"Corrected Warranty of #104489 
Confirmed $400 in Square. COD$3,600.  3/14/18 Hitomi
Confirmed $3,600 COD in Square. 4/12/18 Hitomi",FL,1,8.25
3/16/2018 5:56:26 PM,Jorge Garcia,TX,77018,Relax2Zero 1.0,USJ-9000USJ-9000KU,New Black,New,,,,,3000.00,2828.52,171.48,Lisa Zhou,Cash,0.00,,,,,,,,,,,0.00,,,,,,,,,,,0.00,,,,,,,,,,,No,"3 years parts, 1 year labor (Free)",Hold,,Health and Wellness Houston Store 2017 (TX),Health and Wellness Houston Store 2017 (TX),,,104560,"Please hold the chair, Will delivery when the payment is complete total $3000",Not Dispatched,0,8.25
3/16/2018 5:56:26 PM,Jorge Garcia,TX,77018,Chair Pad for Relax2Zero 1.0,,,New,,,,,3000.00,2828.52,171.48,Lisa Zhou,Cash,0.00,,,,,,,,,,,0.00,,,,,,,,,,,0.00,,,,,,,,,,,No,no warranty,Hold,,Health and Wellness Houston Store 2017 (TX),Health and Wellness Houston Store 2017 (TX),,,104560,"Please hold the chair, Will delivery when the payment is complete total $3000",Not Dispatched,0,8.25
3/16/2018 5:56:26 PM,Jorge Garcia,TX,77018,Foot Pads for Relax2Zero 1.0,,,New,,,,,3000.00,2828.52,171.48,Lisa Zhou,Cash,0.00,,,,,,,,,,,0.00,,,,,,,,,,,0.00,,,,,,,,,,,No,no warranty,Hold,,Health and Wellness Houston Store 2017 (TX),Health and Wellness Houston Store 2017 (TX),,,104560,"Please hold the chair, Will delivery when the payment is complete total $3000",Not Dispatched,0,8.25
3/16/2018 7:34:04 PM,Pheng Cing,OK,74133,Shogun Neck & Back Massger,USJ-874USJ-874,New,New,,,,,217.01,199.98,17.03,Gary Cyrlin,CreditCard,217.01,491036056827492013332,,,,,,,,,,0.00,,,,,,,,,,,0.00,,,,,,,,,,,YES,"2 years parts, 1 year labor (Free)",Delivered,,"Sam's Club #6342 Tulsa, OK (TX)","Sam's Club #6342 Tulsa, OK (TX)",,,104561,,TX,0,8.52
3/16/2018 7:38:22 PM,Miguel Arciga,OK,74011,Foot Vibe Pro,USJ-871,,New,,,,,119.36,109.99,9.37,Gary Cyrlin,CreditCard,119.36,403144090646275101580,,,,,,,,,,0.00,,,,,,,,,,,0.00,,,,,,,,,,,YES,"2 years parts, 1 year labor for Small Items",Delivered,,"Sam's Club #6342 Tulsa, OK (TX)","Sam's Club #6342 Tulsa, OK (TX)",,,104562,,TX,0,8.52
3/16/2018 9:49:17 PM,N/A N/A,CA,00000,Vitality Plate for Sam's,USJ-849USJ-849,New,New,,,,,503.69,459.99,43.70,Lori Daringer,CreditCard,0.00,A# 000717 TC # 080978437757559612141,,,,,,,,,,0.00,,,,,,,,,,,0.00,,,,,,,,,,,YES,"2 years parts, 1 year labor (Free)",Delivered,,Sam's Club #6628 3/15-25/18 (CA),Sam's Club #6628 3/15-25/18 (CA),,,104563,,CA,0,9.50
3/16/2018 10:53:52 PM,Diane Campbell,WI,53191,Relax2Zero 3D,DWA-9060USJ-9060BR,New Choco,New,,,,,4000.00,4000.00,0.00,Kohei Uno,CreditCard,4000.00,qTWT,,,,,,,,,,0.00,,,,,,,,,,,0.00,,,,,,,,,,4/16/2018 12:00:00 AM,No,"3 years parts, 1 year labor (Free)",Delivered,,ASD Show 3/11-14/18 (NV),ASD Show 3/11-14/18 (NV),,,104564,"Confirmed $4,000 in Square. 3/19/18 Hitomi
04/05/18- Per Kohie ship using 3rd party due to IL not having the chair in stock. and add a tourmaline pad as a gift due to the inconvenience.",TX,1,8.25
