﻿Date,CustomerName,State,Zipcode,Description,productNo,Color,IsDemo,Net,ShippingFee,GiftPrice,FinancingProcessingFee,Gross,Pre_tax,Tax,Commission,Primary Payment Method,Primary Payment Balance,Primary Authorize Number,Primary Purchase Order Number,Primary Synchrony Account Number,Primary Synchrony Application Key,Primary Synchrony AccountInfo,Primary SynchronyTerm,Secondly Payment Method,Secondly Payment Balance,Secondly Authorize Number,Secondly Purchase Order Number,Secondly Synchrony Account Number,Secondly Synchrony Application Key,Secondly Synchrony AccountInfo,Secondly SynchronyTerm,Thirdly Payment Method,Thirdly Payment Balance,Thirdly Authorize Number,Thirdly Purchase Order Number,Thirdly Synchrony Account Number,Thirdly Synchrony Application Key,Thirdly Synchrony AccountInfo,Thirdly SynchronyTerm,DeliveryDate,Ispickup,Warranty,Status,Event Name,Synchrony Notes,Order Notes,Order number,Private Note,Branch,IsNoTax,ActualTaxRate
1/28/2018 9:59:07 PM,Debi Ferguson,AZ,85085,Legacy for Sam's,DWA-9100DWA-9100CH-DEMO,Demo Choco,Demo,,,,,4298.43,3969.00,329.43,Christoper Richard Williams,CreditCard,0.00,TC# 6538 1974 8598 9337 9240 30,,,,,,,0.00,,,,,,,,0.00,,,,,,,1/30/2018 12:00:00 AM,YES,"3 years parts, 1 year labor (Free)",Delivered,"Sam's Club #6618 Phoenix, AZ 1/18-28/18 (CA)",,,103350,Demo price 3599 plus tax is 4299,CA,0,8.30
1/28/2018 10:06:45 PM,Shane McWilliams,AZ,85021,Legacy for Sam's,DWA-9100DWA-9100BL,Black,New,,,,,4298.43,3969.00,329.43,Christoper Richard Williams,CreditCard,0.00,Tc#9065 3138 5812 1223 1896 26,,,,,,,0.00,,,,,,,,0.00,,,,,,,1/29/2018 12:00:00 AM,YES,"3 years parts, 1 year labor (Free)",Delivered,"Sam's Club #6618 Phoenix, AZ 1/18-28/18 (CA)",,,103351,Sold demo for 3600 plus tax is 4299 do not need to send customer already picked up chair serial#91167769,NV,0,8.30
1/28/2018 10:12:51 PM,William Beenau,AZ,85053,Foot Vibe Pro,USJ-871,,New,,,,,617.29,569.98,47.31,Christoper Richard Williams,CreditCard,0.00,TC# 7723 0051 0202 6622 2074 7,,,,,,,0.00,,,,,,,,0.00,,,,,,,1/28/2018 12:00:00 AM,YES,"2 years parts, 1 year labor (Small Items)",Delivered,"Sam's Club #6618 Phoenix, AZ 1/18-28/18 (CA)",,,103352,Customer picked up items already,NV,0,8.30
1/28/2018 10:12:51 PM,William Beenau,AZ,85053,Vitality Plate for Sam's,USJ-849USJ-849,New,New,,,,,617.29,569.98,47.31,Christoper Richard Williams,CreditCard,0.00,TC# 7723 0051 0202 6622 2074 7,,,,,,,0.00,,,,,,,,0.00,,,,,,,1/28/2018 12:00:00 AM,YES,"2 years parts, 1 year labor (Small Items)",Delivered,"Sam's Club #6618 Phoenix, AZ 1/18-28/18 (CA)",,,103352,Customer picked up items already,NV,0,8.30
1/28/2018 10:22:12 PM,Juan Monendca,AA,85032,Foot Vibe Pro,USJ-871,,New,,,,,119.12,109.99,9.13,Christoper Richard Williams,CreditCard,0.00,Tc# 2462 4212 2484 8864 6196 9,,,,,,,0.00,,,,,,,,0.00,,,,,,,1/28/2018 12:00:00 AM,YES,"2 years parts, 1 year labor (Small Items)",Delivered,"Sam's Club #6618 Phoenix, AZ 1/18-28/18 (CA)",,,103353,,NV,0,8.30
