﻿Date,Customer Name,State,Zipcode,Description,Product Number,Color,Product Status,Net,Shipping Fee,Gift Price,Financing Processing Fee,Order Total,Total Before Tax,Tax,Commission,Primary Payment Method,Primary Payment Balance,Primary Authorize Number,Primary Purchase Order Number,Primary Synchrony Account Number,Primary Synchrony Application Key,Primary Synchrony Account Info,Primary Synchrony Term,Second Payment Method,Second Payment Balance,Second Authorize Number,Second Purchase Order Number,Second Synchrony Account Number,Second Synchrony Application Key,Second Synchrony Account Info,Second Synchrony Term,Third Payment Method,Third Payment Balance,Third Authorize Number,Third Purchase Order Number,Third Synchrony Account Number,Third Synchrony Application Key,Third Synchrony Account Info,Third Synchrony Term,Delivery Date,Pick up,Warranty,Status,Chair Type,Original Event Name,Event Name,Synchrony Notes,Order Notes,Order Number,Private Note,Branch,No Tax,Actual Tax Rate
10/13/2018 12:48:54 PM,Roxana Romero Castro,KS,66101,Foot Vibe Pro,USJ-871,,New,,,,,120.27,109.99,10.28,Ana Barrera,CreditCard,120.27,TC# 568695909945002397039,,,,,,,0.00,,,,,,,,0.00,,,,,,,,YES,"2 years parts, 1 year labor for Small Items",Delivered,,"Sam's Club #8208 Lenexa, KS (10/4-10/14/2018) TX","Sam's Club #8208 Lenexa, KS (10/4-10/14/2018) TX",,,110269,Invoice # 0030002,TX,0,9.35
10/13/2018 1:01:01 PM,Jim Smith,KS,66215,Foot Vibe Pro,USJ-871,,New,,,,,120.27,109.99,10.28,Ana Barrera,CreditCard,120.27,TC# 574695607931002395039,,,,,,,0.00,,,,,,,,0.00,,,,,,,,YES,"2 years parts, 1 year labor for Small Items",Delivered,,"Sam's Club #8208 Lenexa, KS (10/4-10/14/2018) TX","Sam's Club #8208 Lenexa, KS (10/4-10/14/2018) TX",,,110270,Invoice # 0030003,TX,0,9.35
10/13/2018 3:13:20 PM,Ann Garcia,KS,66106,Shogun Neck & Back Massger,USJ-874USJ-874,New,New,,,,,218.68,199.98,18.70,Ana Barrera,CreditCard,218.68,TC# 197300862134666273661,,,,,,,0.00,,,,,,,,0.00,,,,,,,,YES,"2 years parts, 1 year labor for Small Items",Delivered,,"Sam's Club #8208 Lenexa, KS (10/4-10/14/2018) TX","Sam's Club #8208 Lenexa, KS (10/4-10/14/2018) TX",,,110272,Invoice # 0030004,TX,0,9.35
10/14/2018 12:46:45 PM,Sandra Kueser,KS,66080,Shogun Neck & Back Massger,USJ-874USJ-874-DEMO,Demo[-20],Demo,,,,,196.81,179.98,16.83,Ana Barrera,CreditCard,196.81,TC# 741857139837337934308,,,,,,,0.00,,,,,,,,0.00,,,,,,,,YES,"2 years parts, 1 year labor for Small Items",Delivered,,"Sam's Club #8208 Lenexa, KS (10/4-10/14/2018) TX","Sam's Club #8208 Lenexa, KS (10/4-10/14/2018) TX",,,110306,Invoice # 0030005,TX,0,9.35
