﻿Original Event Name,Event Name,Sales Person,Order Number,Order Date,Customer Name,State,Zip,Product Name,Color,Product Status,QTY,Tax,Total Before Tax,Order Total,Primary Payment Method,Second Payment Method,Thirdl Payment Method,Warranty,Order Items,Pick up,Delivered On,Order Status,Chair Type,Order Notes,Private Note,Branch,No Tax,Actual Tax Rate,SKU,Primary Payment Balance,Primary Authorize Number,Primary Purchase Order Number,Primary Synchrony Account Number,Primary Synchrony Application Key,Primary Synchrony Account Info,Primary Synchrony Term,Second Payment Balance,Second Authorize Number,Second Purchase Order Number,Second Synchrony Account Number,Second Synchrony Application Key,Second Synchrony Account Info,Second SynchronyTerm,Third Payment Balance,Third Authorize Number,Third Purchase Order Number,Third Synchrony Account Number,Third Synchrony Application Key,Third Synchrony Account Info,Third Synchrony Term
"Sam's Club #8111 Jeffersontown, KY 11/29-12/9/18 (IL)","Sam's Club #8111 Jeffersontown, KY 11/29-12/9/18 (IL)",Winston Melgar,112810,11/30/2018 7:00:40 AM,Darryl Spaulding,KY,40223,Foot Vibe Pro,,New,1,6.60,109.99,116.59,CreditCard,,,"2 years parts, 1 year labor for Small Items","Foot Vibe Pro,",No,,Delivered,,,"Andress ship to the costumer address thanks,I called andress to ship for me from Florida..........
Footvibe shipped - 11/30 JD",FL,0,6.00,USJ-871,109.00,884968442497853822508,,,,,,0.00,,,,,,,0.00,,,,,,
"Sam's Club #8111 Jeffersontown, KY 11/29-12/9/18 (IL)","Sam's Club #8111 Jeffersontown, KY 11/29-12/9/18 (IL)",Winston Melgar,112821,11/30/2018 12:52:19 PM,Daniel Gonzalez,KY,40299,Orbit for Sam's ,Demo Choco(Box)[-300],Demo,1,161.88,2698.00,2859.88,CreditCard,,,"5 years parts, 1 year labor (Free)","Orbit for Sam's ,",No,,Called,,,11/30Maritza- Courtesy message and email sent @ 4:43PM,TX,0,6.00,ORBT-1ORBT-1CH-BOX,2859.88,5285783394901322327203,,,,,,0.00,,,,,,,0.00,,,,,,
"Sam's Club #8111 Jeffersontown, KY 11/29-12/9/18 (IL)","Sam's Club #8111 Jeffersontown, KY 11/29-12/9/18 (IL)",Winston Melgar,112936,12/6/2018 7:19:54 AM,Jerry Coluin,KY,40065,Foot Vibe Pro,,New,1,6.60,109.99,116.59,CreditCard,,,"2 years parts, 1 year labor (Free)","Foot Vibe Pro,",No,,Delivered,,,"I called andress in Florida he ship it for me for my costumer thanks
Shipped from FL branch - JD",FL,0,6.00,USJ-871,109.00,761685070763586504045,,,,,,0.00,,,,,,,0.00,,,,,,
"Sam's Club #8111 Jeffersontown, KY 11/29-12/9/18 (IL)","Sam's Club #8111 Jeffersontown, KY 11/29-12/9/18 (IL)",Winston Melgar,112937,12/6/2018 7:26:51 AM,Darryl Spaulding,KY,40223,Foot Vibe Pro,,New,1,6.60,109.99,116.59,CreditCard,,,"2 years parts, 1 year labor (Free)","Foot Vibe Pro,",No,,Delivered,,,"shipped from FL Branch - JD
I called andress to ship it for me thanks",FL,0,6.00,USJ-871,109.00,923799185815913949129,,,,,,0.00,,,,,,,0.00,,,,,,
"Sam's Club #8111 Jeffersontown, KY 11/29-12/9/18 (IL)","Sam's Club #8111 Jeffersontown, KY 11/29-12/9/18 (IL)",Winston Melgar,113018,12/8/2018 2:29:09 PM,Tao Lin,KY,40245,Relax 2 Zero 2.0 for Sam's,Demo (Box) Brown[-701],Demo,1,0.00,3199.00,3199.00,CreditCard,,,"3 years parts, 1 year labor (Free)","Relax 2 Zero 2.0 for Sam's,",No,,Assigned,,,"Printed -Tina 12/12/2018
12/12/18- Courtesy call completed- Cristina 1:37 pm",TX,1,6.00,USJ-9050USJ-9050BR-DEMO (Box),3200.00,6798857344609739790357,,,,,,0.00,,,,,,,0.00,,,,,,
"Sam's Club #8111 Jeffersontown, KY 11/29-12/9/18 (IL)","Sam's Club #8111 Jeffersontown, KY 11/29-12/9/18 (IL)",Winston Melgar,113058,12/9/2018 11:11:47 AM,Sean Walker,KY,40243,Relax 2 Zero 2.0 for Sam's,Demo (Box) Black[-701],Demo,1,203.94,3399.00,3602.94,CreditCard,,,"3 years parts, 2 years labor ($200)","Relax 2 Zero 2.0 for Sam's,",No,,Assigned,,,"Printed -Tina 12/12/2018
12/12Maritza Courtesy message sent @ 5:14PM",TX,0,6.00,USJ-9050USJ-9050BL-DEMO (Box),0.00,3353340452342065040620,,,,,,0.00,,,,,,,0.00,,,,,,
