﻿Order Number,Order Date,Event Name,Salesperson,SKU,Product Name,Color,QTY,Warranty,Payment Details,Tax,Order Total,Gross,Primary Payment Method,Primary Payment Balance,Primary Authorize Number,Primary Purchase Order Number,Primary Synchrony Account Number,Primary Synchrony Application Key,Primary Synchrony AccountInfo,Primary SynchronyTerm,Secondly Payment Method,Secondly Payment Balance,Secondly Authorize Number,Secondly Purchase Order Number,Secondly Synchrony Account Number,Secondly Synchrony Application Key,Secondly Synchrony AccountInfo,Secondly SynchronyTerm,Thirdly Payment Method,Thirdly Payment Balance,Thirdly Authorize Number,Thirdly Purchase Order Number,Thirdly Synchrony Account Number,Thirdly Synchrony Application Key,Thirdly Synchrony AccountInfo,Thirdly SynchronyTerm,Actual Shipping Cost,CustomerName,Shipping Address,Delivered On,Serial Number (TO Be),Note,Branch,IsNoTax,ActualTaxRate
101556,10/25/2017 8:18:44 AM,MedTrade 10/24-26 (FL),Rodrigo Malabunga,DWA-9150USJ-9150CH,Legacy 3D,Choco Brown,1,"3 years parts, 1 year labor (Free)",CreditCard COD,233.36,3900.36,3900.36,,1000.00,022801,,,,,,COD,,,,,,,,,,,,,,,,350.00,Deon Clabby,319 235 9992,11/10/2017 12:00:00 AM,,"Total priced is $3,900
Deposit $1,000
Balanced $2,900 COD",TX,,
101557,10/25/2017 8:40:51 AM,MedTrade 10/24-26 (FL),Ruben Cuatrona,DWA-9060USJ-9060BR,Relax2Zero 3D,Choco Brown,1,"3 years parts, 1 year labor (Free)",Synchrony ,233.34,3900.04,3900.04,,3900.00,,,6034610081592381,80130758,San Diego,36 months,,,,,,,,,,,,,,,,,350.00,Clarke Matthews jr,413 599 1483,11/3/2017 12:00:00 AM,,"Total priced $3,900 demo
Synchrony 36 months",TX,,
101573,10/26/2017 8:28:58 PM,MedTrade 10/24-26 (FL),Ruben Cuatrona,DWA-9060USJ-9060BR,Relax2Zero 3D,Choco Brown,2,"3 years parts, 1 year labor (Free)",CreditCard ,522.22,7800.02,7800.02,CreditCard,7800.00,848035,,,,,,,0.00,,,,,,,,0.00,,,,,,,0.00,Stan Meuser,561 252 8204,11/13/2017 12:00:00 AM,,"Total priced $7,800
ASAP pls customer for appt.",FL,,
101574,10/26/2017 8:51:51 PM,MedTrade 10/24-26 (FL),Rodrigo Malabunga,DWA-9150USJ-9150BL,Legacy 3D,Black,1,"3 years parts, 1 year labor (Free)",CreditCard ,259.20,3499.20,3499.20,,3500.00,115274/02578Z,,,,,,,,,,,,,,,,,,,,,,0.00,Christy Kennan,540 537 8957,10/26/2017 12:00:00 AM,,"Floor Model picked up from
Convention
SR # 0202001170120
$2,500 app # 115274
$1,000 app # 02578Z",Not Dispatched,,
101575,10/26/2017 9:49:57 PM,MedTrade 10/24-26 (FL),Ruben Cuatrona,DWA-9060USJ-9060BL-DEMO,Relax2Zero 3D,Demo Black,1,"3 years parts, 1 year labor (Free)",CreditCard ,211.12,3600.12,3600.12,,3600.00,04287G,,,,,,,,,,,,,,,,,,,,,,350.00,Kelly Roney,615 933 3331,11/9/2017 12:00:00 AM,,,TX,,
101576,10/26/2017 10:03:52 PM,MedTrade 10/24-26 (FL),Rodrigo Malabunga,DWA-9060USJ-9060BL,Relax2Zero 3D,Black,1,"3 years parts, 1 year labor (Free)",Synchrony ,233.36,3900.36,3900.36,,3900.00,,,6019170208034915,,San Diego,36 months,,,,,,,,,,,,,,,,,350.00,Asif Kidwai,317 985 0746,10/31/2017 12:00:00 AM,,"Total price $3,900
He has own account at synchony",TX,,
101578,10/27/2017 11:43:42 AM,MedTrade 10/24-26 (FL),Ruben Cuatrona,DWA-9060USJ-9060BL,Relax2Zero 3D,Black,1,"3 years parts, 1 year labor (Free)",CreditCard ,255.60,4200.60,4200.60,,4200.00,865658,,,,,,,,,,,,,,,,,,,,,,0.00,Tony Smith,901 831 8669,,,"Total price $4,200
Hold for now for delivery
2 months and pls call the customer before delivery",TX,,
