﻿Order Number,Order Date,Event Name,Salesperson,SKU,Product Name,Color,QTY,Warranty,Payment Details,Tax,Order Total,Gross,Primary Payment Method,Primary Payment Balance,Primary Authorize Number,Primary Purchase Order Number,Primary Synchrony Account Number,Primary Synchrony Application Key,Primary Synchrony AccountInfo,Primary SynchronyTerm,Secondly Payment Method,Secondly Payment Balance,Secondly Authorize Number,Secondly Purchase Order Number,Secondly Synchrony Account Number,Secondly Synchrony Application Key,Secondly Synchrony AccountInfo,Secondly SynchronyTerm,Thirdly Payment Method,Thirdly Payment Balance,Thirdly Authorize Number,Thirdly Purchase Order Number,Thirdly Synchrony Account Number,Thirdly Synchrony Application Key,Thirdly Synchrony AccountInfo,Thirdly SynchronyTerm,Actual Shipping Cost,CustomerName,Shipping Address,Delivered On,Serial Number (TO Be),Note,Branch,IsNoTax,ActualTaxRate
104995,4/3/2018 11:18:56 PM,Minneapolis Home & Garden Show 3/30-4/8/18 (IL),Noni Ignacio,DWA-9400Pegasus-BL-DEMO,Pegasus,Demo Black,1,"3 years parts, 1 year labor (Free)",CUSTOM ,0.00,4280.00,4280.00,Synchrony,4280.00,,,6034610083187420,86939695,Las Vegas,36 months,,0.00,,,,,,,,0.00,,,,,,,0.00,Madicke Seck,6124839138,,,,Not Dispatched,1,6.88
104996,4/3/2018 11:24:32 PM,Minneapolis Home & Garden Show 3/30-4/8/18 (IL),Noni Ignacio,DWA-9400Pegasus-BL-DEMO,Pegasus,Demo Black,1,"3 years parts, 1 year labor (Free)",CUSTOM ,0.00,4500.00,4500.00,CreditCard,4500.00,Sq# vQZu,,,,,,,0.00,,,,,,,,0.00,,,,,,,0.00,Donald Raleigh,6517751687,,,,TX,1,6.88
104997,4/3/2018 11:35:15 PM,Minneapolis Home & Garden Show 3/30-4/8/18 (IL),Noni Ignacio,DWA-9060USJ-9060BL-DEMO,Relax2Zero 3D,Demo Black,1,"3 years parts, 1 year labor (Free)",CUSTOM ,0.00,4000.00,4000.00,Synchrony,4000.00,,,6034610083190705,87004624,Las Vegas,36 months,,0.00,,,,,,,,0.00,,,,,,,0.00,Steve Ward,7632382934,,,,TX,1,6.88
104998,4/3/2018 11:45:46 PM,Minneapolis Home & Garden Show 3/30-4/8/18 (IL),Rodrigo Malabunga,DWA-9060USJ-9060BL,Relax2Zero 3D,New Black,1,"3 years parts, 1 year labor (Free)",CUSTOM CreditCard,0.00,3900.00,3900.00,CreditCard,1000.00,SQ# 0TT6,,,,,,CreditCard,2900.00,SQ # OBrv,,,,,,,0.00,,,,,,,0.00,Stephen Kleis,6517898050,,,,TX,1,6.88
104999,4/3/2018 11:55:41 PM,Minneapolis Home & Garden Show 3/30-4/8/18 (IL),Ruben Cuatrona,DWA-9060USJ-9060BL,Relax2Zero 3D,New Black,1,"3 years parts, 1 year labor (Free)",CUSTOM ,0.00,4173.00,4173.00,CreditCard,4173.00,SQ# 8aOg,,,,,,,0.00,,,,,,,,0.00,,,,,,,0.00,Jerry Smith,6129640496,,,,TX,1,6.88
105000,4/4/2018 12:04:40 AM,Minneapolis Home & Garden Show 3/30-4/8/18 (IL),Rodrigo Malabunga,DWA-9150USJ-9150BL-DEMO,Legacy 3D,Demo Black,1,"3 years parts, 1 year labor (Free)",CUSTOM ,0.00,4173.00,4173.00,Synchrony,4173.00,,,6034610083192735,87030900,Las Vegas,36 months,,0.00,,,,,,,,0.00,,,,,,,0.00,Douglas Maple,3303386669,,,,TX,1,6.88
105001,4/4/2018 12:19:38 AM,Minneapolis Home & Garden Show 3/30-4/8/18 (IL),Rodrigo Malabunga,DWA-9150USJ-9150CH-DEMO,Legacy 3D,Demo Choco,1,"3 years parts, 1 year labor (Free)",CUSTOM ,0.00,4173.00,4173.00,CreditCard,4173.00,SQ# 416g,,,,,,,0.00,,,,,,,,0.00,,,,,,,0.00,Frederick Costantin,6122013702,,,,Not Dispatched,1,6.88
105002,4/4/2018 12:28:21 AM,Minneapolis Home & Garden Show 3/30-4/8/18 (IL),Noni Ignacio,DWA-9150USJ-9150BL-DEMO,Legacy 3D,Demo Black,1,"3 years parts, 1 year labor (Free)",CUSTOM ,0.00,4173.00,4173.00,Synchrony,4173.00,,,6034610083192925,87031877,Las Vegas,36 months,,0.00,,,,,,,,0.00,,,,,,,0.00,Renee Renshaw,7633008199,,,,TX,1,6.88
105003,4/4/2018 12:40:49 AM,Minneapolis Home & Garden Show 3/30-4/8/18 (IL),Ruben Cuatrona,DWA-9150USJ-9150BL,Legacy 3D,New Black,1,"3 years parts, 1 year labor (Free)",CUSTOM ,0.00,4500.00,4500.00,Synchrony,4500.00,,,6019192902059063,,Las Vegas,36 months,,0.00,,,,,,,,0.00,,,,,,,0.00,Mai non Thao,6515581297,4/8/2018 12:00:00 AM,,,TX,1,6.88
105043,4/8/2018 5:18:53 AM,Minneapolis Home & Garden Show 3/30-4/8/18 (IL),Noni Ignacio,DWA-9150USJ-9150BL-DEMO,Legacy 3D,Demo Black,1,"3 years parts, 1 year labor (Free)",CUSTOM ,0.00,4173.00,4173.00,Synchrony,4173.00,,,6034610083200413,87254061,Las Vegas,36 months,,0.00,,,,,,,,0.00,,,,,,,0.00,Robin Edwards,6123270978,4/6/2018 12:00:00 AM,,,TX,1,6.88
105044,4/8/2018 5:24:20 AM,Minneapolis Home & Garden Show 3/30-4/8/18 (IL),Ruben Cuatrona,DWA-9150USJ-9150CH-DEMO,Legacy 3D,Demo Choco,1,"3 years parts, 1 year labor (Free)",CUSTOM ,0.00,3900.00,3900.00,CreditCard,3900.00,Sq# ikVH,,,,,,,0.00,,,,,,,,0.00,,,,,,,0.00,Norman Drews,7632679200,,,,TX,1,6.88
105045,4/8/2018 5:32:57 AM,Minneapolis Home & Garden Show 3/30-4/8/18 (IL),Ruben Cuatrona,DWA-9150USJ-9150BL-DEMO,Legacy 3D,Demo Black,1,"3 years parts, 1 year labor (Free)",CUSTOM ,0.00,3900.00,3900.00,CreditCard,3900.00,SQ# 4DjN,,,,,,,0.00,,,,,,,,0.00,,,,,,,0.00,Cheryl Ficocello,7637578838,,,,IL,1,6.88
105046,4/8/2018 5:41:40 AM,Minneapolis Home & Garden Show 3/30-4/8/18 (IL),Rodrigo Malabunga,DWA-9400Pegasus-BR-DEMO,Pegasus,Demo Choco,1,"3 years parts, 1 year labor (Free)",CUSTOM ,0.00,4800.00,4800.00,Synchrony,4800.00,,,6034610083203557,87305117,Las Vegas,48 months,,0.00,,,,,,,,0.00,,,,,,,0.00,Ed Belland,7634739209,,,,TX,1,6.88
105047,4/8/2018 5:47:39 AM,Minneapolis Home & Garden Show 3/30-4/8/18 (IL),Noni Ignacio,DWA-9400Pegasus-BL-DEMO,Pegasus,Demo Black,1,"3 years parts, 1 year labor (Free)",CUSTOM Synchrony,0.00,4600.00,4600.00,CreditCard,2000.00,SQ# t7jt,,,,,,Synchrony,2600.00,,,6034610083209422,87419199,Las Vegas,36 months,,0.00,,,,,,,0.00,Lee Moey,6122422033,,,,Not Dispatched,1,6.88
105048,4/8/2018 5:53:11 AM,Minneapolis Home & Garden Show 3/30-4/8/18 (IL),Rolly San Jose,DWA-9060USJ-9060BL,Relax2Zero 3D,New Black,1,"3 years parts, 1 year labor (Free)",CUSTOM ,0.00,4026.00,4026.00,CreditCard,4026.00,SQ# BL4k,,,,,,,0.00,,,,,,,,0.00,,,,,,,0.00,Carie Krogeh,6128067041,,,,TX,1,6.88
105049,4/8/2018 7:18:39 AM,Minneapolis Home & Garden Show 3/30-4/8/18 (IL),Rodrigo Malabunga,DWA-9060USJ-9060BR-DEMO,Relax2Zero 3D,Demo Choco,1,"3 years parts, 1 year labor (Free)",CUSTOM ,0.00,3900.00,3900.00,CreditCard,3900.00,SQ# 4So2,,,,,,,0.00,,,,,,,,0.00,,,,,,,0.00,Nancy Bartusch,6514521387,,,,TX,1,6.88
105050,4/8/2018 7:23:25 AM,Minneapolis Home & Garden Show 3/30-4/8/18 (IL),Ruben Cuatrona,DWA-9060USJ-9060BR-DEMO,Relax2Zero 3D,Demo Choco,1,"3 years parts, 1 year labor (Free)",CUSTOM ,0.00,3900.00,3900.00,CreditCard,3900.00,SQ# GHVM,,,,,,,0.00,,,,,,,,0.00,,,,,,,0.00,Staci Plum,4124961325,,,,TX,1,6.88
105051,4/8/2018 7:29:06 AM,Minneapolis Home & Garden Show 3/30-4/8/18 (IL),Ruben Cuatrona,DWA-9150USJ-9150CH,Legacy 3D,New Choco,1,"3 years parts, 1 year labor (Free)",CUSTOM ,0.00,3900.00,3900.00,Synchrony,3900.00,,,6034610083203086,87299997,Las Vegas,36 months,,0.00,,,,,,,,0.00,,,,,,,0.00,Mark Vogel,7636576354,,,,TX,1,6.88
105052,4/8/2018 7:33:54 AM,Minneapolis Home & Garden Show 3/30-4/8/18 (IL),Rodrigo Malabunga,DWA-9400Pegasus-BL-DEMO,Pegasus,Demo Black,1,"3 years parts, 1 year labor (Free)",CUSTOM COD,0.00,4800.00,4800.00,Cash,1000.00,,,,,,,COD,0.00,,,,,,,,0.00,,,,,,,0.00,Terrie Mau,7635741606,,,,Not Dispatched,1,6.88
105054,4/8/2018 7:43:00 AM,Minneapolis Home & Garden Show 3/30-4/8/18 (IL),Ruben Cuatrona,DWA-9150USJ-9150BL,Legacy 3D,New Black,1,"3 years parts, 3 years labor ($400)",CUSTOM ,0.00,4173.00,4173.00,Synchrony,4173.00,,,6034610083203045,87299606,Las Vegas,48 months,,0.00,,,,,,,,0.00,,,,,,,0.00,Robert Tomassoni,2184105729,,,,TX,1,6.88
105107,4/8/2018 6:05:56 PM,Minneapolis Home & Garden Show 3/30-4/8/18 (IL),Noni Ignacio,DWA-9150USJ-9150CH,Legacy 3D,New Choco,1,"3 years parts, 1 year labor (Free)",CUSTOM ,0.00,4800.00,4800.00,Synchrony,4800.00,,,6034610083204803,87326148,Las Vegas,48 months,,0.00,,,,,,,,0.00,,,,,,,0.00,Don Palm,7153770697,,,,TX,1,6.88
105131,4/9/2018 8:48:52 AM,Minneapolis Home & Garden Show 3/30-4/8/18 (IL),Rolly San Jose,DWA-9400Pegasus-BR-DEMO,Pegasus,Demo Choco,1,"2 years parts, 1 year labor (Free)",CUSTOM ,0.00,4200.00,4200.00,Check,4200.00,,,,,,,,0.00,,,,,,,,0.00,,,,,,,0.00,Ernie Delanghe,6127519367,,,,Not Dispatched,1,6.88
105134,4/9/2018 8:55:44 AM,Minneapolis Home & Garden Show 3/30-4/8/18 (IL),Ruben Cuatrona,DWA-9150USJ-9150BL-DEMO,Legacy 3D,Demo Black,1,"3 years parts, 1 year labor (Free)",CUSTOM ,0.00,4173.00,4173.00,Synchrony,4173.00,,,6034610083205735,87339643,Las Vegas,36 months,,0.00,,,,,,,,0.00,,,,,,,0.00,Paul Dahlseid,6128400631,,,,TX,1,6.88
105136,4/9/2018 9:03:14 AM,Minneapolis Home & Garden Show 3/30-4/8/18 (IL),Ruben Cuatrona,DWA-9150USJ-9150BL,Legacy 3D,New Black,1,"3 years parts, 1 year labor (Free)",CUSTOM ,0.00,4500.00,4500.00,Synchrony,4500.00,,,6034610083205784,87339949,Las Vegas,48 months,,0.00,,,,,,,,0.00,,,,,,,0.00,Mark allen Bixby,6124322720,,,,TX,1,6.88
