﻿Original Event Name,Event Name,Sales Person,Order Number,Order Date,Customer Name,State,Zip,Product Name,Color,Product Status,QTY,Tax,Total Before Tax,Order Total,Primary Payment Method,Second Payment Method,Thirdl Payment Method,Warranty,Order Items,Pick up,Delivered On,Order Status,Chair Type,Order Notes,Private Note,Branch,No Tax,Actual Tax Rate,SKU,Primary Payment Balance,Primary Authorize Number,Primary Purchase Order Number,Primary Synchrony Account Number,Primary Synchrony Application Key,Primary Synchrony Account Info,Primary Synchrony Term,Second Payment Balance,Second Authorize Number,Second Purchase Order Number,Second Synchrony Account Number,Second Synchrony Application Key,Second Synchrony Account Info,Second SynchronyTerm,Third Payment Balance,Third Authorize Number,Third Purchase Order Number,Third Synchrony Account Number,Third Synchrony Application Key,Third Synchrony Account Info,Third Synchrony Term
"INDIANA FLOWER AND PATIO SHOW 3/9-17/19 INDIANAPOLIS, IN (IL)","INDIANA FLOWER AND PATIO SHOW 3/9-17/19 INDIANAPOLIS, IN (IL)",Billy Shea,115590,3/9/2019 4:12:25 PM,Fairy Rahebi,IN,46037,Legacy 3D,New Choco,New,1,0.00,3900.00,3900.00,CreditCard,,,"5 years parts, 1 year labor (Free)","Legacy 3D,",No,3/26/2019 12:00:00 AM,Delivered,New,,"3/11/19 Confirmed $3,900 in SQ. - Hitomi
3/13/19-Courtesy text is sent - Hitomi
3/18/19-*Please get signature on invoice*- Hitomi
4/3/19 @ 12:20 PM -Customer called in requesting to return the chair due to children's health condition , she needs to money. I informed her that we will charge 20% fee but she denied. Hide requests Billy to negotiate w/customer to pay $350-$400 for trip fee. Billy will let us know. -Hitomi
4/5/19-Per.Billy.,the customer accepted the $400 charge for the pick up of the chair.Requested to June to schedule for pickup -Hitomi",TX,1,7.00,DWA-9150USJ-9150CH,3900.00,76m8,,,,,,0.00,,,,,,,0.00,,,,,,
"INDIANA FLOWER AND PATIO SHOW 3/9-17/19 INDIANAPOLIS, IN (IL)","INDIANA FLOWER AND PATIO SHOW 3/9-17/19 INDIANAPOLIS, IN (IL)",Kamille Gines,115591,3/9/2019 4:16:40 PM,Noreen Maduwuba,IN,46074,Relax 2 Zero 3D,New Black,New,1,0.00,4000.00,4000.00,Synchrony,,,"3 years parts, 1 year labor (Free)","Relax 2 Zero 3D,",No,3/26/2019 12:00:00 AM,Delivered,New,,"will confirm synchrony - 3/11/19 Hitomi
3/12/19 Confirmed SYNC$8,500 and original. ***Please charge $4,000/sales draft***-Hitomi
3/13/19-Courtesy text is sent -Hitomi",TX,1,7.00,DWA-9060USJ-9060BL,4000.00,,,6501723375050646,72400982,Huston,36 months,0.00,,,,,,,0.00,,,,,,
"INDIANA FLOWER AND PATIO SHOW 3/9-17/19 INDIANAPOLIS, IN (IL)","INDIANA FLOWER AND PATIO SHOW 3/9-17/19 INDIANAPOLIS, IN (IL)",Kamille Gines,115710,3/12/2019 4:10:20 PM,Mike La Londe,IN,46142,Legacy 3D,New Choco,New,1,0.00,4400.00,4400.00,CreditCard,,,"5 years parts, 1 year labor (Free)","Legacy 3D,",No,,Scheduled,,,"Confirmed $4,400 in SQ. - 3/12/19 Hitomi
Printed - Tina 3/14/2019
3/15Maritza- Courtesy message sent @ 12:25PM",TX,1,7.00,DWA-9150USJ-9150CH,4400.00,Sq# 4UC9,,,,,,0.00,,,,,,,0.00,,,,,,
"INDIANA FLOWER AND PATIO SHOW 3/9-17/19 INDIANAPOLIS, IN (IL)","INDIANA FLOWER AND PATIO SHOW 3/9-17/19 INDIANAPOLIS, IN (IL)",Kamille Gines,115743,3/14/2019 4:13:10 PM,Sylvia Ackles,IN,46226,Legacy 3D,Demo Black,Demo,1,0.00,4000.00,4000.00,Synchrony,,,"5 years parts, 1 year labor (Free)","Legacy 3D,",No,,Hold,,Basement,"Confirmed SYNC$6,000 and original. ***Please charge $4,000/sales draft*** 3/15/19 Hitomi
3/15Maritza- Courtesy messages sent to both numbers @ 12:44PM
3/18Maritza- Customer texted to cancel order. Sent a text to Kamille. Will place on hold until we get confirmation of the cancellation. Kamille spoke with customer and they decided to place order on hold. If customer goes through with sales please deliver NEW chair.",TX,1,7.00,DWA-9150USJ-9150BL-DEMO,4000.00,,,6501723375057427,72621183,Huston,36 months,0.00,,,,,,,0.00,,,,,,
"INDIANA FLOWER AND PATIO SHOW 3/9-17/19 INDIANAPOLIS, IN (IL)","INDIANA FLOWER AND PATIO SHOW 3/9-17/19 INDIANAPOLIS, IN (IL)",Kamille Gines,115744,3/14/2019 4:19:31 PM,Jay Grumme,IN,46033,Legacy 3D,New Black,New,1,0.00,4200.00,4200.00,CreditCard,,,"5 years parts, 1 year labor (Free)","Legacy 3D,",No,,Scheduled,,2nd floor,"3/14/19-SQ-$4,400.00-3/14/19 HITOMI
3/15/19-Confirmed w/Kamile, she overcharged. Pre.Kamile's request, I issued $200 refund. -Hitomi
3/15Maritza Courtesy message sent @ 12:46PM",TX,1,7.00,DWA-9150USJ-9150BL,4200.00,Sq#4UC9,,,,,,0.00,,,,,,,0.00,,,,,,
"INDIANA FLOWER AND PATIO SHOW 3/9-17/19 INDIANAPOLIS, IN (IL)","INDIANA FLOWER AND PATIO SHOW 3/9-17/19 INDIANAPOLIS, IN (IL)",Kamille Gines,115745,3/14/2019 4:24:23 PM,Samuel Hennessee,IN,46074,Legacy 3D,New Choco,New,1,0.00,4200.00,4200.00,CreditCard,,,"5 years parts, 1 year labor (Free)","Legacy 3D,",No,,Scheduled,,Basement,"3/14/19-Confirmed $4,200.00 in SQ-Hitomi
3/15Maritza- Courtesy message sent @ 12:51PM
3/26Maritza. Customer left voicemail asking for status. Sent email to TX branch
3/27/19 Riho -Customer emailed to me in regards to the delivery status, called June and waiting for her response.
4/5 - Alysa - Customer confirmed schedule delivery Thurs. 4/18  8-12PM",TX,1,7.00,DWA-9150USJ-9150CH,4200.00,Sq#FN23,,,,,,0.00,,,,,,,0.00,,,,,,
"INDIANA FLOWER AND PATIO SHOW 3/9-17/19 INDIANAPOLIS, IN (IL)","INDIANA FLOWER AND PATIO SHOW 3/9-17/19 INDIANAPOLIS, IN (IL)",Kamille Gines,115746,3/14/2019 4:46:46 PM,Greg Broady,IN,46034,Legacy 3D,New Choco,New,1,0.00,4500.00,4500.00,CreditCard,,,"5 years parts, 1 year labor (Free)","Legacy 3D,",No,,Scheduled,,,"Confirmed $4,500 in SQ. 3/15/19-Hitomi
3/15Maritza- Courtesy message sent @ 12:53PM
4/5 - Alysa - Customer confirmed schedule delivery Thurs. 4/18  12-4PM",TX,1,7.00,DWA-9150USJ-9150CH,4500.00,Sq# 3mxS,,,,,,0.00,,,,,,,0.00,,,,,,
"INDIANA FLOWER AND PATIO SHOW 3/9-17/19 INDIANAPOLIS, IN (IL)","INDIANA FLOWER AND PATIO SHOW 3/9-17/19 INDIANAPOLIS, IN (IL)",Kamille Gines,115796,3/16/2019 4:32:25 PM,Jeffrey Boester,IN,46256,Legacy 3D,Demo Choco,Demo,1,0.00,3800.00,3800.00,CreditCard,,,"5 years parts, 1 year labor (Free)","Legacy 3D,",No,,Scheduled,,Basement,"Confirmed $3,800 in SQ 3/18/19- Hitomi
3/20Maritza- Courtesy message sent @ 4:37PM",TX,1,7.00,DWA-9150USJ-9150CH-DEMO,3800.00,Sq# aP85,,,,,,0.00,,,,,,,0.00,,,,,,
"INDIANA FLOWER AND PATIO SHOW 3/9-17/19 INDIANAPOLIS, IN (IL)","INDIANA FLOWER AND PATIO SHOW 3/9-17/19 INDIANAPOLIS, IN (IL)",Noni Ignacio,115797,3/16/2019 4:39:24 PM,Vaughn Selvey,IN,46135,Legacy 3D,New Choco,New,1,0.00,4900.00,4900.00,Synchrony,,,"5 years parts, 1 year labor (Free)","Legacy 3D,",No,,Scheduled,,,"Confirmed SYNC$8,500 and original. ***Please charge $4,900/sales draft*** -3/18/19 Hitomi
3/20Maritza- Courtesy message sent @ 4:38PM
4/1Maritza Customer called asking for an ETA. Unfortunately had to hang up before getting all the details. He will call back again.
4/4Maritza- Customer called back. I gave him branch number. He is available everyday since he works from home.
4/4 - Alysa - Customer Confirmed schedule delivery Wed. 4/17/19 5-8PM",TX,1,7.00,DWA-9150USJ-9150CH,4900.00,,,6501723375060736,72717407,Huston,36 months,0.00,,,,,,,0.00,,,,,,
"INDIANA FLOWER AND PATIO SHOW 3/9-17/19 INDIANAPOLIS, IN (IL)","INDIANA FLOWER AND PATIO SHOW 3/9-17/19 INDIANAPOLIS, IN (IL)",Noni Ignacio,115909,3/19/2019 9:47:54 AM,Tracy Faust,IN,46158,Legacy 3D,New Choco,New,1,0.00,4500.00,4500.00,Synchrony,,,"5 years parts, 1 year labor (Free)","Legacy 3D,",No,,Hold,,,"Hold the delivery. Customer will call Noni when they are ready
3/19/19-Confirmed SYNC$6,500 and original. Place on hold. - Hitomi",Not Dispatched,1,7.00,DWA-9150USJ-9150CH,4500.00,,,6501723375062658,72758265,Huston,36 months,0.00,,,,,,,0.00,,,,,,
