﻿Date,CustomerName,State,Zipcode,Description,productNo,Color,IsDemo,Net,ShippingFee,GiftPrice,FinancingProcessingFee,Gross,Pre_tax,Tax,Commission,Primary Payment Method,Primary Payment Balance,Primary Authorize Number,Primary Purchase Order Number,Primary Synchrony Account Number,Primary Synchrony Application Key,Primary Synchrony AccountInfo,Primary SynchronyTerm,Secondly Payment Method,Secondly Payment Balance,Secondly Authorize Number,Secondly Purchase Order Number,Secondly Synchrony Account Number,Secondly Synchrony Application Key,Secondly Synchrony AccountInfo,Secondly SynchronyTerm,Thirdly Payment Method,Thirdly Payment Balance,Thirdly Authorize Number,Thirdly Purchase Order Number,Thirdly Synchrony Account Number,Thirdly Synchrony Application Key,Thirdly Synchrony AccountInfo,Thirdly SynchronyTerm,DeliveryDate,Ispickup,Warranty,Status,Event Name,Synchrony Notes,Order Notes,Order number,Private Note,Branch,IsNoTax,ActualTaxRate
12/7/2017 12:49:28 PM,Micheal Penrod,AZ,85120,Legacy for Sam's,DWA-9100DWA-9100BL-DEMO,Demo Black,Demo,,,,,3879.72,3599.00,280.72,Christoper Richard Williams,CreditCard,0.00,611851,,,,,,,0.00,,,,,,,,0.00,,,,,,,12/17/2017 12:00:00 AM,YES,"3 years parts, 1 year labor (Free)",Delivered,Sam's Club Gilbert #4829 12/7-17/17 (NV),,,102305,"TC#0781 4941 1300 6892 2951 87
12/12/17- Re-Assigned- Printed",CA,0,7.80
12/7/2017 1:09:46 PM,Paul Sinclair,AZ,85142,Ninja Leg Massager,,,New,,,,,408.56,379.00,29.56,Christoper Richard Williams,CreditCard,0.00,482266,,,,,,,0.00,,,,,,,,0.00,,,,,,,,YES,"2 years parts, 1 year labor (Small Items)",Delivered,Sam's Club Gilbert #4829 12/7-17/17 (NV),,,102306,TC#2989 5882 3437 9316 5922 5,NV,0,7.80
12/8/2017 8:22:52 AM,David Nevarez,AZ,85296,Foot Vibe Pro,USJ-871,,New,,,,,118.57,109.99,8.58,Christoper Richard Williams,CreditCard,0.00,TC# 9987 9936 3815 3007 4661 1,,,,,,,0.00,,,,,,,,0.00,,,,,,,,YES,"2 years parts, 1 year labor (Small Items)",Delivered,Sam's Club Gilbert #4829 12/7-17/17 (NV),,,102318,,NV,0,7.80
12/9/2017 9:04:23 AM,Holly Gilbert,AZ,85142,Foot Vibe Pro for Alaska,USJ-871,,New,,,,,118.57,109.99,8.58,Christoper Richard Williams,CreditCard,0.00,TC# 9277 9936 1865 3007 4061 1,,,,,,,0.00,,,,,,,,0.00,,,,,,,,YES,"2 years parts, 1 year labor (Small Items)",Delivered,Sam's Club Gilbert #4829 12/7-17/17 (NV),,,102336,,NV,0,7.80
12/10/2017 10:27:35 AM,Nicole Durkin,AZ,85297,Vitality Plate for Sam's,USJ-849USJ-849,New,New,,,,,495.87,459.99,35.88,Christoper Richard Williams,Cash,0.00,,,,,,,,0.00,,,,,,,,0.00,,,,,,,,YES,"2 years parts, 1 year labor (Small Items)",Delivered,Sam's Club Gilbert #4829 12/7-17/17 (NV),,,102367,TC# 0620 7600 0236 7554 9801 9,NV,0,7.80
12/10/2017 10:43:13 AM,Brain Walker,AZ,85297,Legacy for Sam's,DWA-9100DWA-9100BL,Black,New,,,,,4634.32,4299.00,335.32,Christoper Richard Williams,CreditCard,0.00,TC# 2129 4485 2241,,,,,,,0.00,,,,,,,,0.00,,,,,,,,No,"3 years parts, 1 year labor (Free)",Assigned,Sam's Club Gilbert #4829 12/7-17/17 (NV),,,102369,"They want a Chocolate Brown chair now a black chair.
12/12/17-Re-assigned- (Printed)",CA,0,7.80
12/11/2017 11:06:37 AM,Oscar Urrea,AZ,85296,Foot Vibe Pro,USJ-871,,New,,,,,118.57,109.99,8.58,Christoper Richard Williams,CreditCard,0.00,TC# 2132 2293 2134 6770 5938 8,,,,,,,0.00,,,,,,,,0.00,,,,,,,,YES,"2 years parts, 1 year labor (Small Items)",Delivered,Sam's Club Gilbert #4829 12/7-17/17 (NV),,,102405,,NV,0,7.80
12/14/2017 10:56:31 AM,Dallin Baum,AZ,85396,Legacy for Sam's,DWA-9100DWA-9100BG-DEMO,Demo Beige,Demo,,,,,3879.72,3599.00,280.72,Christoper Richard Williams,CreditCard,0.00,TC#2920 1564 0523 8754 4590 79,,,,,,,0.00,,,,,,,,0.00,,,,,,,12/17/2017 12:00:00 AM,YES,"3 years parts, 1 year labor (Free)",Delivered,Sam's Club Gilbert #4829 12/7-17/17 (NV),,,102462,"Sold for 3599 plus tax it was 3,879.27",CA,0,7.80
12/15/2017 11:06:11 AM,Neithard Foley,AZ,85297,Ninja Leg Massager,,,New,,,,,408.56,379.00,29.56,Christoper Richard Williams,CreditCard,0.00,Tc# 7445 1317 0981 0465 8972 2,,,,,,,0.00,,,,,,,,0.00,,,,,,,,YES,"2 years parts, 1 year labor (Small Items)",Delivered,Sam's Club Gilbert #4829 12/7-17/17 (NV),,,102473,,CA,0,7.80
12/17/2017 9:00:11 PM,Lillian Westrieh,AZ,85258,Relax2Zero 2.0 for Sam's,USJ-9050USJ-9050BR,Brown,New,,,,,3880.80,3600.00,280.80,Christoper Richard Williams,CreditCard,0.00,Tc# 9265 0432 7294 3045 5417 02,,,,,,,0.00,,,,,,,,0.00,,,,,,,,No,"3 years parts, 1 year labor (Free)",Called,Sam's Club Gilbert #4829 12/7-17/17 (NV),,,102565,"Sold for 3,879.27
12/18/17-cristina- printed
Receive a call from Sam's club. Customer ask to cancel. 12/15/2017 June",CA,0,7.80
12/17/2017 9:05:51 PM,Doug Fuller,AZ,85295,Ninja Leg Massager,,,New,,,,,408.56,379.00,29.56,Christoper Richard Williams,CreditCard,0.00,TC#5943 2095 1342  4871 9456 6,,,,,,,0.00,,,,,,,,0.00,,,,,,,,YES,"2 years parts, 1 year labor (Small Items)",Delivered,Sam's Club Gilbert #4829 12/7-17/17 (NV),,,102566,,NV,0,7.80
12/17/2017 9:12:43 PM,Karen Patterson,WY,82729,Foot Vibe Pro,USJ-871,,New,,,,,118.57,109.99,8.58,Christoper Richard Williams,CreditCard,0.00,TC# 7898 7702 0699 5118 2243 3,,,,,,,0.00,,,,,,,,0.00,,,,,,,,YES,"2 years parts, 1 year labor (Small Items)",Delivered,Sam's Club Gilbert #4829 12/7-17/17 (NV),,,102567,,NV,0,7.80
12/17/2017 9:19:52 PM,Scott Hinkle,AZ,85142,Foot Vibe Pro,USJ-871,,New,,,,,118.57,109.99,8.58,Christoper Richard Williams,CreditCard,0.00,TC#. 9457 9944 1824 3007 4361 1,,,,,,,0.00,,,,,,,,0.00,,,,,,,,YES,"2 years parts, 1 year labor (Small Items)",Delivered,Sam's Club Gilbert #4829 12/7-17/17 (NV),,,102568,,NV,0,7.80
12/17/2017 9:27:55 PM,Rick Watts,AZ,85295,Legacy for Sam's,DWA-9100DWA-9100BL,Black,New,,,,,4634.32,4299.00,335.32,Christoper Richard Williams,CreditCard,0.00,TC# 5733 0307 9337 2481 1335 56,,,,,,,0.00,,,,,,,,0.00,,,,,,,,No,"3 years parts, 1 year labor (Free)",Called,Sam's Club Gilbert #4829 12/7-17/17 (NV),,,102569,"Please add a extra back pad when packaging.
12/18/17- cristina printed",CA,0,7.80
12/17/2017 9:39:57 PM,Chris Dukin,AZ,85297,Ninja Leg Massager,,,New,,,,,343.88,319.00,24.88,Christoper Richard Williams,CreditCard,0.00,TC# 7056 4546 8723 1249 4080 0,,,,,,,0.00,,,,,,,,0.00,,,,,,,,YES,"2 years parts, 1 year labor (Small Items)",Delivered,Sam's Club Gilbert #4829 12/7-17/17 (NV),,,102570,Sold the floor model 343.57,NV,0,7.80
