﻿Original Event Name,Event Name,Sales Person,Order Number,Order Date,Customer Name,State,Zip,Product Name,Color,Product Status,QTY,Tax,Total Before Tax,Order Total,Primary Payment Method,Second Payment Method,Thirdl Payment Method,Warranty,Order Items,Pick up,Delivered On,Order Status,Chair Type,Order Notes,Private Note,Branch,No Tax,Actual Tax Rate,SKU,Primary Payment Balance,Primary Authorize Number,Primary Purchase Order Number,Primary Synchrony Account Number,Primary Synchrony Application Key,Primary Synchrony Account Info,Primary Synchrony Term,Primary Synchrony Primary ID,Primary Synchrony Issued State,Primary Synchrony Expiretion Date,Second Payment Balance,Second Authorize Number,Second Purchase Order Number,Second Synchrony Account Number,Second Synchrony Application Key,Second Synchrony Account Info,Second SynchronyTerm,Second Synchrony Primary ID,Second Synchrony Issued State,Second Synchrony Expiretion Date,Third Payment Balance,Third Authorize Number,Third Purchase Order Number,Third Synchrony Account Number,Third Synchrony Application Key,Third Synchrony Account Info,Third Synchrony Term,Third Synchrony Primary ID,Third Synchrony Issued State,Third Synchrony Expiretion Date
"New Mexico State Fair Albuquerque, NM 95/-15/19","New Mexico State Fair Albuquerque, NM 95/-15/19",Mario Higareda,120880,9/9/2019 3:09:29 PM,Jason Caldwell,NM,87121,Legacy 4,Demo Black,Demo,1,0.00,3800.00,3800.00,Synchrony,,,"5 years parts, 1 year labor (Free)","Legacy 4,",No,,Cancelled,,,Canceled due to incorrect name linked together-NEW order#120891-Erika 9/10/19,Not Dispatched,1,7.50,LGCY-4LGCY-4BL-DEMO,3800.00,,,6501723375315676,80855128,,36 months,Driver’s License,NM,01/2026,0.00,,,,,,,,,/,0.00,,,,,,,,,/
"New Mexico State Fair Albuquerque, NM 95/-15/19","New Mexico State Fair Albuquerque, NM 95/-15/19",Mario Higareda,120881,9/9/2019 3:12:05 PM,Richard Nenoff,TX,87104,PEGASUS 2 SMART,Demo Choco,Demo,1,0.00,4800.00,4800.00,Credit Card,,,"5 years parts, 1 year labor (Free)","PEGASUS 2 SMART,",No,,Called,,"COD $4,400 (Cash / Credit Card / Cashier's Check)","Original received. SQ amount verified $400. Remaining balance $4400. Collect COD @ delivery-Erika 9/9/19 4:46pm
CC completed-Erika 9/10/19 11:14am
Printed - Tina 9/11/2019
9/18/2019 June - Called, and customer said he will be out of town until 12/2/2019. Will reach out after when he come back.",TX,1,7.50,PEGS-2PEGS-2-BR-DEMO,400.00,Square #7ALo,,,,,,,,/,0.00,,,,,,,,,/,0.00,,,,,,,,,/
"New Mexico State Fair Albuquerque, NM 95/-15/19","New Mexico State Fair Albuquerque, NM 95/-15/19",Mario Higareda,120882,9/9/2019 3:16:05 PM,Carmella Herrera,NM,87110,Legacy 4,Demo Black,Demo,1,0.00,3800.00,3800.00,Synchrony,,,"5 years parts, 1 year labor (Free)","Legacy 4,",No,,Printed,,,"Synchrony original verified (application Key). Credit available $6800. Remaining balance $3800. Charge synchrony account upon delivery, have sales draft signed-Erika 9/9/19 5:00pm
CC completed-Erika 9/10/19 11:15am
Printed - Tina 9/11/2019",TX,1,7.50,LGCY-4LGCY-4BL-DEMO,3800.00,,,6501723379317839,80915544,Huston,36 months,Driver’s License,NM,08/2027,0.00,,,,,,,,,/,0.00,,,,,,,,,/
"New Mexico State Fair Albuquerque, NM 95/-15/19","New Mexico State Fair Albuquerque, NM 95/-15/19",Mario Higareda,120883,9/9/2019 3:25:09 PM,Jason Shirley,NM,88220,PEGASUS 2 SMART,Demo Black,Demo,1,0.00,5000.00,5000.00,Synchrony,,,"5 years parts, 1 year labor (Free)","PEGASUS 2 SMART,",No,,Printed,,"Charge $4,200 Synchrony for 48months COD $800 (Cash / Credit Card / Cashier's Check)","Synchrony original verified. Credit available $4200. Remaining balance $4200. Charge synchrony account (4200) upon delivery, have sales draft signed. Remaining balance $800. Collect COD (800) @ delivery-Erika 9/9/19 4:50pm
cc completed-Erika 9/10/19 11:42am
Printed - Tina 9/11/2019",TX,1,7.50,PEGS-2PEGS-2-BL-DEMO,4200.00,,,6501723375314570,80833672,Huston,48 months,Driver’s License,NM,06/2021,0.00,,,,,,,,,/,0.00,,,,,,,,,/
"New Mexico State Fair Albuquerque, NM 95/-15/19","New Mexico State Fair Albuquerque, NM 95/-15/19",Mario Higareda,120890,9/10/2019 7:54:58 AM,John Valoez,NM,87507,Legacy 4,Demo Choco,Demo,1,0.00,3800.00,3800.00,Synchrony,,,"5 years parts, 1 year labor (Free)","Legacy 4,",No,,Cancelled,,,"Synchrony original verified. Credit available $5000. Remaining balance $3800. Charge synchrony account upon delivery, have sales draft signed-Erika 9/10/19 8:55am
CC completed-Erika 9/10/19 11:43am
Printed - Tina 9/11/2019
9/17 - Alysa - Mario informed me customer is requesting to upgrade chair to Pegasus 2 Smart Demo Choco. Customer is aware of the price increase to $5,500. Canceled order and created new order #121072",TX,1,7.50,LGCY-4LGCY-4CH-DEMO,3800.00,,,6501723375318340,80932919,Huston,36 months,Driver’s License,NM,11/2025,0.00,,,,,,,,,/,0.00,,,,,,,,,/
"New Mexico State Fair Albuquerque, NM 95/-15/19","New Mexico State Fair Albuquerque, NM 95/-15/19",Mario Higareda,120891,9/10/2019 9:43:42 AM,Jason Caldwell,NM,87121,Legacy 4,Demo Black,Demo,1,0.00,3800.00,3800.00,Synchrony,,,"5 years parts, 1 year labor (Free)","Legacy 4,",No,,Printed,,,"Synchrony original verified. Credit available $6500. Remaining balance $3800. Charge synchrony account upon delivery, have sales draft signed-Erika 9/10/19 9:50am
cc completed-Erika 9/10/19 11:17am
Printed -Tina 9/11/2019",TX,1,7.50,LGCY-4LGCY-4BL-DEMO,3800.00,,,6501723375315676,80855128,Huston,36 months,Driver’s License,NM,01/2026,0.00,,,,,,,,,/,0.00,,,,,,,,,/
"New Mexico State Fair Albuquerque, NM 95/-15/19","New Mexico State Fair Albuquerque, NM 95/-15/19",Mario Higareda,120899,9/11/2019 12:39:06 PM,Jeane Heap,AZ,85936,Legacy 4,Demo Choco,Demo,1,0.00,3800.00,3800.00,Synchrony,,,"5 years parts, 1 year labor (Free)","Legacy 4,",No,,Assigned,,,"Synchrony original verified. Credit available $9000. Remaining balance $3800. Charge synchrony account upon delivery, have sales draft signed-Erika 9/11/19 2:16pm",NV,1,7.50,LGCY-4LGCY-4CH-DEMO,3800.00,,,6501723375319884,80986966,Huston,36 months,Driver’s License,AZ,12/2023,0.00,,,,,,,,,/,0.00,,,,,,,,,/
"New Mexico State Fair Albuquerque, NM 95/-15/19","New Mexico State Fair Albuquerque, NM 95/-15/19",Mario Higareda,121026,9/16/2019 8:46:51 AM,Julie Albert,NM,87124,PEGASUS 2 SMART,Demo Black,Demo,1,0.00,5000.00,5000.00,Synchrony,,,"5 years parts, 1 year labor (Free)","PEGASUS 2 SMART,",No,,Printed,,,"Synchrony original verified. credit available $9000. Remaining balance $5000. Charge synchrony account upon delivery,have sales draft signed-Erika 9/17/19 2:20pm
cc/text completed-Erika 9/17/19
9/17/2019 June - Printed",TX,1,7.50,PEGS-2PEGS-2-BL-DEMO,5000.00,,,6501723375326574,81200520,Huston,36 months,Driver’s License,NM,08/2030,0.00,,,,,,,,,/,0.00,,,,,,,,,/
"New Mexico State Fair Albuquerque, NM 95/-15/19","New Mexico State Fair Albuquerque, NM 95/-15/19",Mario Higareda,121041,9/16/2019 12:11:55 PM,Humberto Corrizales,NM,87105,Majesty,New Black,New,1,0.00,3255.00,3255.00,Synchrony,,,"5 years parts, 1 year labor (Free)","Majesty,",No,,Printed,,,"Synchrony original verified. Credit available $9000. Remaining balance $3255. Charge synchrony account upon delivery, have sales draft signed-Erika 9/17/19 2:40pm
cc completed/text-Erika 9/17/19 2:40pm
9/17/2019 June - Printed",TX,1,7.50,MAJ-1010MAJ-1010-BL,3255.00,,,6501723375326004,81190273,Huston,48 months,Driver’s License,NM,02/2025,0.00,,,,,,,,,/,0.00,,,,,,,,,/
"New Mexico State Fair Albuquerque, NM 95/-15/19","New Mexico State Fair Albuquerque, NM 95/-15/19",Mario Higareda,121072,9/17/2019 2:20:12 PM,John Vanloez,NM,87507,PEGASUS 2 SMART,Demo Choco,Demo,1,0.00,5500.00,5500.00,Synchrony,,,"5 years parts, 1 year labor (Free)","PEGASUS 2 SMART,",No,,New,,,"Customer originally ordered Legacy 4 Demo Choco (Order Number: 120890), he wanted to upgrade to Pegasus 2 Smart Demo Choco. Customer is aware of price increase.",Not Dispatched,1,7.50,PEGS-2PEGS-2-BR-DEMO,5500.00,,,6501723375318340,80932919,Huston,36 months,Driver’s License,NM,11/2025,0.00,,,,,,,,,/,0.00,,,,,,,,,/
