﻿Original Event Name,Event Name,Sales Person,Order Number,Order Date,Customer Name,State,Zip,Product Name,Color,Product Status,QTY,Tax,Total Before Tax,Order Total,Primary Payment Method,Second Payment Method,Thirdl Payment Method,Warranty,Order Items,Pick up,Delivered On,Order Status,Chair Type,Order Notes,Private Note,Branch,No Tax,Actual Tax Rate,SKU,Primary Payment Balance,Primary Authorize Number,Primary Purchase Order Number,Primary Synchrony Account Number,Primary Synchrony Application Key,Primary Synchrony Account Info,Primary Synchrony Term,Second Payment Balance,Second Authorize Number,Second Purchase Order Number,Second Synchrony Account Number,Second Synchrony Application Key,Second Synchrony Account Info,Second SynchronyTerm,Third Payment Balance,Third Authorize Number,Third Purchase Order Number,Third Synchrony Account Number,Third Synchrony Application Key,Third Synchrony Account Info,Third Synchrony Term
"Sam's Club #8153 El Paso, TX (2/28-3/10/2019)","Sam's Club #8153 El Paso, TX (2/28-3/10/2019)",Gregory Hickey,115426,3/2/2019 11:20:10 PM,Keith Johnson,TX,79912,Relax 2 Zero 3D for Sam's,New Brown,New,1,371.17,4499.00,4870.17,CreditCard,,,"3 years parts, 1 year labor (Free)","Relax 2 Zero 3D for Sam's,",No,3/30/2019 12:00:00 AM,Delivered,New,"Customer is excited and would like delivery ASAP, please.","3/6Maritza Courtesy message left @ 12:43PM
3/30Maritza- Delivery confirmation received",TX,0,8.25,DWA-9060DWA-9060BR,4870.17,TC 9214 1610 8903 0526 7154 01,,,,,,0.00,,,,,,,0.00,,,,,,
"Sam's Club #8153 El Paso, TX (2/28-3/10/2019)","Sam's Club #8153 El Paso, TX (2/28-3/10/2019)",Gregory Hickey,115514,3/5/2019 11:13:03 PM,Patrick Ofeliar,TX,79924,Shogun Neck & Back Massger,New,New,1,16.50,199.98,216.48,CreditCard,,,"2 years parts, 1 year labor for Small Items","Shogun Neck &amp; Back Massger,",YES,,Delivered,,Customer took with,,TX,0,8.25,USJ-874USJ-874,216.48,TC 9695 4326 5171 9048 5722 3,,,,,,0.00,,,,,,,0.00,,,,,,
"Sam's Club #8153 El Paso, TX (2/28-3/10/2019)","Sam's Club #8153 El Paso, TX (2/28-3/10/2019)",Gregory Hickey,115515,3/5/2019 11:27:23 PM,David Shimp,TX,79912,PEGASUS 2 SMART - Sam's,Demo(Box) Black[-700],Demo,1,453.67,5499.00,5952.67,CreditCard,,,"3 years parts, 1 year labor (Free)","PEGASUS 2 SMART - Sam's,",No,,Assigned,,Customer in pain.  Looking forward to chair!,"3/7Maritza Courtesy message sent @ 2:55PM
03/25/19- Cristina shipped using ALG 4:54 pm
3/29 Alysa-  Emailed customer tracking information.
4/8Maritza- ALG arrived with only one man and didn't know how to assemble. He had no tools. They will reschedule? I have provided the driver with repairs department number. I will contact ALG as well.
4/11Maritza- Tom Nguyen called saying David stopped by Sam's Club trying to return the chair. David mentioned that third party just dropped off the boxes and havn't called back with a white glove appointment. Tom will try to save the sale by offering to assemble the chair for him and we will also send a gift for the inconvenience. He will keep us updated. Tom was able to save the sale. He went to the customers home after Sam's to assemble the chair.
4/15Maritza- Will be shipping free gifts due to inconvenience. usj768 & usj796 tracking: 7749 7120 8314",CA,0,8.25,PEGS-2PEGS-2-BL-DEMO(Box),5952.67,TC 8014 5013 8403 0527 7854 01,,,,,,0.00,,,,,,,0.00,,,,,,
"Sam's Club #8153 El Paso, TX (2/28-3/10/2019)","Sam's Club #8153 El Paso, TX (2/28-3/10/2019)",Gregory Hickey,115595,3/9/2019 10:35:54 PM,Joe Vidales,TX,79932,Ninja Leg Massager 2,New,New,1,41.25,499.96,541.21,CreditCard,,,"2 years parts, 1 year labor for Small Items","Ninja Leg Massager 2,Shogun Neck &amp; Back Massger,",YES,,Delivered,,Customer Took both items with,,TX,0,8.25,USJ-880,541.21,TC 6706 8564 0371 7156 9405 5,,,,,,0.00,,,,,,,0.00,,,,,,
"Sam's Club #8153 El Paso, TX (2/28-3/10/2019)","Sam's Club #8153 El Paso, TX (2/28-3/10/2019)",Gregory Hickey,115595,3/9/2019 10:35:54 PM,Joe Vidales,TX,79932,Shogun Neck & Back Massger,New,New,1,41.25,499.96,541.21,CreditCard,,,"2 years parts, 1 year labor for Small Items","Ninja Leg Massager 2,Shogun Neck &amp; Back Massger,",YES,,Delivered,,Customer Took both items with,,TX,0,8.25,USJ-874USJ-874,541.21,TC 6706 8564 0371 7156 9405 5,,,,,,0.00,,,,,,,0.00,,,,,,
"Sam's Club #8153 El Paso, TX (2/28-3/10/2019)","Sam's Club #8153 El Paso, TX (2/28-3/10/2019)",Gregory Hickey,115596,3/9/2019 10:41:44 PM,Blanca Brighan,NM,88021,Legacy for Sam's,Demo(Box) Choco[-700],Demo,1,296.92,3599.00,3895.92,CreditCard,,,"3 years parts, 1 year labor (Free)","Legacy for Sam's,",No,,Cancelled,,Customer returned a chair to purchase ours.  Please give great service!  Make sure that the reset is ON when program is finished on chair.,"3/12Maritza- Courtesy call made but husband hung up. Will attempt to send message. @ 4:27PM4
4/1Maritza-  Do not contact number on file. That is the ex husbands number. She wants to cancel the order. (575)520-4427. I have sent her an email with proof that chair was never delivered.(CONFIRMED with Mario that chair wasn't delivered)",TX,0,8.25,DWA-9100DWA-9150CH-Box,3895.92,TC 6358 3579 0691 6658 2533 27,,,,,,0.00,,,,,,,0.00,,,,,,
"Sam's Club #8153 El Paso, TX (2/28-3/10/2019)","Sam's Club #8153 El Paso, TX (2/28-3/10/2019)",Gregory Hickey,115597,3/9/2019 10:45:20 PM,Jeffery Lucky,TX,79922,Vitality Plate for Sam's,Demo[-60],Demo,1,33.00,399.99,432.99,CreditCard,,,"2 years parts, 1 year labor for Small Items","Vitality Plate for Sam's,",YES,,Delivered,,Customer took item with,,TX,0,8.25,USJ-849USJ-849-DEMO,432.99,TC 3682 7239 1454 1665 8382 2,,,,,,0.00,,,,,,,0.00,,,,,,
"Sam's Club #8153 El Paso, TX (2/28-3/10/2019)","Sam's Club #8153 El Paso, TX (2/28-3/10/2019)",Gregory Hickey,115598,3/9/2019 10:48:52 PM,Magaly Macias,TX,79912,Vitality Plate for Sam's,Demo[-60],Demo,1,33.00,399.99,432.99,CreditCard,,,"2 years parts, 1 year labor for Small Items","Vitality Plate for Sam's,",YES,,Delivered,,Customer took item with,,TX,0,8.25,USJ-849USJ-849-DEMO,432.99,TC 2159 4871 5737 4990 9156 8,,,,,,0.00,,,,,,,0.00,,,,,,
"Sam's Club #8153 El Paso, TX (2/28-3/10/2019)","Sam's Club #8153 El Paso, TX (2/28-3/10/2019)",Gregory Hickey,115599,3/9/2019 10:53:10 PM,Angel Navarrete,NM,88008,Shogun Neck & Back Massger,New,New,1,16.50,199.98,216.48,CreditCard,,,"2 years parts, 1 year labor for Small Items","Shogun Neck &amp; Back Massger,",YES,,Delivered,,Customer took Item with,,TX,0,8.25,USJ-874USJ-874,216.48,TC 3013 6037 9272 3439 6962 0,,,,,,0.00,,,,,,,0.00,,,,,,
"Sam's Club #8153 El Paso, TX (2/28-3/10/2019)","Sam's Club #8153 El Paso, TX (2/28-3/10/2019)",Gregory Hickey,115638,3/10/2019 7:40:47 PM,Arturo Tovar,TX,88008,Vitality Plate for Sam's,Demo[-60],Demo,1,33.00,399.99,432.99,CreditCard,,,"2 years parts, 1 year labor for Small Items","Vitality Plate for Sam's,",YES,,Delivered,,Customer took item with,,TX,0,8.25,USJ-849USJ-849-DEMO,432.99,TC 3262 1219 4484 1665 6980 2,,,,,,0.00,,,,,,,0.00,,,,,,
"Sam's Club #8153 El Paso, TX (2/28-3/10/2019)","Sam's Club #8153 El Paso, TX (2/28-3/10/2019)",Gregory Hickey,115640,3/10/2019 7:46:25 PM,Antonia Soliz,TX,79930,Orbit for Sam's ,Demo Choco(Box)[-300],Demo,1,222.59,2698.00,2920.59,CreditCard,,,"3 years parts, 1 year labor (Free)","Orbit for Sam's ,",No,3/30/2019 12:00:00 AM,Delivered,New,,"3/13/19-Courtesy text is sent -Hitomi
4/12Maritza- Delivery confirmation received.",TX,0,8.25,ORBT-1ORBT-1CH-BOX,2920.59,TC 1413 4109 7226 2344 9976 20,,,,,,0.00,,,,,,,0.00,,,,,,
