﻿Date,CustomerName,State,Zipcode,Description,productNo,Color,IsDemo,Net,ShippingFee,GiftPrice,FinancingProcessingFee,Gross,Pre_tax,Tax,Commission,Primary Payment Method,Primary Payment Balance,Primary Authorize Number,Primary Purchase Order Number,Primary Synchrony Account Number,Primary Synchrony Application Key,Primary Synchrony AccountInfo,Primary SynchronyTerm,Secondly Payment Method,Secondly Payment Balance,Secondly Authorize Number,Secondly Purchase Order Number,Secondly Synchrony Account Number,Secondly Synchrony Application Key,Secondly Synchrony AccountInfo,Secondly SynchronyTerm,Thirdly Payment Method,Thirdly Payment Balance,Thirdly Authorize Number,Thirdly Purchase Order Number,Thirdly Synchrony Account Number,Thirdly Synchrony Application Key,Thirdly Synchrony AccountInfo,Thirdly SynchronyTerm,DeliveryDate,Ispickup,Warranty,Status,Event Name,Synchrony Notes,Order Notes,Order number,Private Note,Branch,IsNoTax,ActualTaxRate
11/18/2017 5:26:25 PM,Sophie Soares,FL,34787,Ninja Leg Massager,,,New,,,,,410.27,379.00,31.27,Chris Tavira,,410.27,879655895761622899439,,,,,,,,,,,,,,,,,,,,,,,YES,"2 years parts, 1 year labor (Small Items)",Delivered,Sam's Club #6245 11/16-26 (TX),,,101945,TC# 8796 5589 5761 6228 9943 9,FL,0,8.25
11/18/2017 5:39:26 PM,Jason Wing,TX,76549,Legacy for Sam's,DWA-9100DWA-9100CH,Choco,New,,,,,3834.04,3599.00,235.04,Chris Tavira,,3895.92,1802 0621 0912 2570 3649 50,,,,,,,,,,,,,,,,,,,,,,11/30/2017 12:00:00 AM,No,"3 years parts, 1 year labor (Free)",Delivered,Sam's Club #6245 11/16-26 (TX),,"Receipt # 20607
No scratches, no dents..",101946,TC# 1802 0621 0912 2570 3649 50,TX,0,8.25
11/22/2017 5:50:22 AM,Margaret Rossi,TX,76548,Ninja Leg Massager,,,New,,,,,410.27,379.00,31.27,Chris Tavira,,410.27,,,,,,,,,,,,,,,,,,,,,,,,YES,"2 years parts, 1 year labor (Small Items)",Delivered,Sam's Club #6245 11/16-26 (TX),,,102044,,TX,0,8.25
11/22/2017 5:59:02 AM,Ken Cox,TX,76548,Legacy for Sam's,DWA-9100DWA-9100CH,Choco,New,,,,,4653.67,4299.00,354.67,Chris Tavira,,4653.67,9844 7710 3658 0766 9828 53,,,,,,,,,,,,,,,,,,,,,,11/30/2017 12:00:00 AM,No,"3 years parts, 1 year labor (Free)",Delivered,Sam's Club #6245 11/16-26 (TX),,2-3 Week Delivery,102045,Sales Receipt #20602,TX,0,8.25
11/22/2017 5:13:25 PM,Chea Kim,TX,76548,Legacy for Sam's,DWA-9100DWA-9100BL,Black,New,,,,,3895.92,3599.00,296.92,Chris Tavira,,3895.92,7006 4155 9475 3629 8124 69,,,,,,,,,,,,,,,,,,,,,,11/30/2017 12:00:00 AM,No,"3 years parts, 1 year labor (Free)",Delivered,Sam's Club #6245 11/16-26 (TX),,Promo: New Chair,102051,Invoice Number: 20615,TX,0,8.25
11/24/2017 5:11:13 PM,Peola Green,TX,76549,Legacy for Sam's,DWA-9100DWA-9100BL,Black,New,,,,,3895.92,3599.00,296.92,Chris Tavira,,3895.92,9285 2030 5895 0845 7096 85,,,,,,,,,,,,,,,,,,,,,,11/30/2017 12:00:00 AM,No,"3 years parts, 1 year labor (Free)",Delivered,Sam's Club #6245 11/16-26 (TX),,,102078,will ship it to customer by FedEx.,TX,0,8.25
11/24/2017 5:20:20 PM,Clarence & Alcer Miller,TX,76522,Legacy for Sam's,DWA-9100DWA-9100BL,Black,New,,,,,3895.92,3599.00,296.92,Chris Tavira,,3895.92,3683 6407 1137 4981 5417 91,,,,,,,,,,,,,,,,,,,,,,12/1/2017 12:00:00 AM,No,"3 years parts, 1 year labor (Free)",Delivered,Sam's Club #6245 11/16-26 (TX),,Invoice # 20619,102079,,TX,0,8.25
11/24/2017 5:29:32 PM,Paul Clarke,TX,76542,Legacy for Sam's,DWA-9100DWA-9100CH,Choco,New,,,,,3895.92,3599.00,296.92,Chris Tavira,,3895.92,2429 8A5A 1230 090B,,,,,,,,,,,,,,,,,,,,,,12/1/2017 12:00:00 AM,No,"3 years parts, 1 year labor (Free)",Delivered,Sam's Club #6245 11/16-26 (TX),,Invoice # 20618,102081,,TX,0,8.25
11/26/2017 11:42:02 AM,Minda Kenworthy,TX,76548,Legacy for Sam's,DWA-9100DWA-9100CH,Choco,New,,,,,3895.92,3599.00,296.92,Chris Tavira,,3895.92,DB6DC3330540D727,,,,,,,,,,,,,,,,,,,,,,12/1/2017 12:00:00 AM,No,"3 years parts, 1 year labor (Free)",Delivered,Sam's Club #6245 11/16-26 (TX),,,102124,update to 3 year part warranty and 2 year labor  per sales Chris Tavira,TX,0,8.25
11/26/2017 11:47:55 AM,Minda Kenworthy,TX,76548,Ninja Leg Massager,,,New,,,,,410.27,379.00,31.27,Chris Tavira,,410.27,DB6DC3330540D727,,,,,,,,,,,,,,,,,,,,,,,YES,"2 years parts, 1 year labor (Small Items)",Delivered,Sam's Club #6245 11/16-26 (TX),,Picked up at store,102125,Invoice # 20612,TX,0,8.25
11/26/2017 11:59:54 AM,Hwa Garney,TX,76559,Legacy for Sam's,DWA-9100DWA-9100CH,Choco,New,,,,,3895.92,3599.00,296.92,Chris Tavira,,3895.92,,,,,,,,,,,,,,,,,,,,,,,12/1/2017 12:00:00 AM,No,"3 years parts, 1 year labor (Free)",Delivered,Sam's Club #6245 11/16-26 (TX),,,102129,Invoice #20623,TX,0,8.25
11/26/2017 1:45:30 PM,Kenneth Cline,TX,78642,Legacy for Sam's,DWA-9100DWA-9100CH,Choco,New,,,,,3895.92,3599.00,296.92,Chris Tavira,,3895.92,6449DDA41DF12536,,,,,,,,,,,,,,,,,,,,,,,No,"3 years parts, 1 year labor (Free)",Called,Sam's Club #6245 11/16-26 (TX),,Invoice #20622,102133,"Asking hold until Jan 27th, 2018 June",TX,0,8.25
11/26/2017 2:17:30 PM,Charles Trubee,TX,76522,Ninja Leg Massager,,,New,,,,,410.27,379.00,31.27,Chris Tavira,,410.27,6479977DC82E5FD1,,,,,,,,,,,,,,,,,,,,,,,YES,"2 years parts, 1 year labor (Small Items)",Delivered,Sam's Club #6245 11/16-26 (TX),,Picked up at store,102134,Invoice #20610,TX,0,8.25
11/26/2017 2:45:27 PM,Eva Ambat,TX,76542,Ninja Leg Massager,,,New,,,,,410.27,379.00,31.27,Chris Tavira,,410.27,,,,,,,,,,,,,,,,,,,,,,,,YES,"2 years parts, 1 year labor (Small Items)",Delivered,Sam's Club #6245 11/16-26 (TX),,,102136,,TX,0,8.25
11/26/2017 4:03:53 PM,Petra Kramer,TX,76539,Ninja Leg Massager,,,New,,,,,410.27,379.00,31.27,Chris Tavira,,410.27,336260A22F85D6A3,,,,,,,,,,,,,,,,,,,,,,,YES,"2 years parts, 1 year labor (Small Items)",Delivered,Sam's Club #6245 11/16-26 (TX),,,102139,Invoice # 20624,TX,0,8.25
