﻿Date,CustomerName,State,Zipcode,Description,productNo,Color,IsDemo,Net,ShippingFee,GiftPrice,FinancingProcessingFee,Gross,Pre_tax,Tax,Commission,Primary Payment Method,Primary Payment Balance,Primary Authorize Number,Primary Purchase Order Number,Primary Synchrony Account Number,Primary Synchrony Application Key,Primary Synchrony AccountInfo,Primary SynchronyTerm,Secondly Payment Method,Secondly Payment Balance,Secondly Authorize Number,Secondly Purchase Order Number,Secondly Synchrony Account Number,Secondly Synchrony Application Key,Secondly Synchrony AccountInfo,Secondly SynchronyTerm,Thirdly Payment Method,Thirdly Payment Balance,Thirdly Authorize Number,Thirdly Purchase Order Number,Thirdly Synchrony Account Number,Thirdly Synchrony Application Key,Thirdly Synchrony AccountInfo,Thirdly SynchronyTerm,DeliveryDate,Ispickup,Warranty,Status,Event Name,Synchrony Notes,Order Notes,Order number,Private Note,Branch,IsNoTax,ActualTaxRate
11/2/2017 3:12:45 PM,Wendy Raumaker,TX,78642,Legacy for Sam's,DWA-9100DWA-9100CH,Choco,New,,,,,4591.79,4299.00,292.79,Mijung Song,,0.00,268,,,,,,,,,,,,,,,,,,,,,,11/4/2017 12:00:00 AM,No,"3 years parts, 1 year labor (Free)",Delivered,Sam's Club #6188 Austin 10/19-10/29 (TX),,,101661,"Actually price is $4,299 plus tax $354.67, total is 4,653.67",TX,,
11/2/2017 3:30:15 PM,Suel Brown,TX,78717,Legacy for Sam's,DWA-9100DWA-9100GD,Gold,New,,,,,3834.04,3599.00,235.04,Mijung Song,,0.00,730000438240,,,,,,,,,,,,,,,,,,,,,,11/4/2017 12:00:00 AM,No,"3 years parts, 1 year labor (Free)",Delivered,Sam's Club #6188 Austin 10/19-10/29 (TX),,,101662,Actual total price is $3895.92,TX,,
11/2/2017 3:37:29 PM,Chong Joon Park,TX,78613,Legacy for Sam's,DWA-9100DWA-9100CH,Choco,New,,,,,4591.79,4299.00,292.79,Mijung Song,,0.00,019510,,,,,,,,,,,,,,,,,,,,,,11/4/2017 12:00:00 AM,No,"3 years parts, 1 year labor (Free)",Delivered,Sam's Club #6188 Austin 10/19-10/29 (TX),,,101663,"Actually total price including tax is $4,653.67",TX,,
11/2/2017 3:44:16 PM,Austin Klarich,TX,76034,Legacy for Sam's,DWA-9100DWA-9100CH,Choco,New,,,,,3600.22,3383.00,217.22,Rachelle Estanilla,,0.00,0012601,,,,,,,,,,,,,,,,,,,,,,,No,"3 years parts, 1 year labor (Free)",Cancelled,Sam's Club #6188 Austin 10/19-10/29 (TX),,,101664,,TX,,
11/2/2017 3:47:53 PM,James Jeon,TX,78717,Legacy for Sam's,DWA-9100DWA-9100BL,Black,New,,,,,4591.79,4299.00,292.79,Mijung Song,,0.00,055110,,,,,,,,,,,,,,,,,,,,,,11/5/2017 12:00:00 AM,No,"3 years parts, 1 year labor (Free)",Delivered,Sam's Club #6188 Austin 10/19-10/29 (TX),,,101665,Actual total price is $4653.67,TX,,
11/2/2017 3:51:06 PM,Tong Chong,TX,78613,Legacy for Sam's,DWA-9100DWA-9100BL,Black,New,,,,,4591.79,4299.00,292.79,Mijung Song,,0.00,001870,,,,,,,,,,,,,,,,,,,,,,11/5/2017 12:00:00 AM,No,"3 years parts, 1 year labor (Free)",Delivered,Sam's Club #6188 Austin 10/19-10/29 (TX),,,101666,Actual total price is $4604.96,TX,,
11/2/2017 3:53:47 PM,Soojo Chong,TX,78739,Legacy for Sam's,DWA-9100DWA-9100CH,Choco,New,,,,,4591.79,4299.00,292.79,Mijung Song,,0.00,00821C,,,,,,,,,,,,,,,,,,,,,,11/5/2017 12:00:00 AM,No,"3 years parts, 1 year labor (Free)",Delivered,Sam's Club #6188 Austin 10/19-10/29 (TX),,,101667,Actual total price is $4653.67,TX,,
11/8/2017 10:05:39 AM,Nithya Mandala,TX,78727,Ninja Leg Massager,,,New,,,,,410.27,379.00,31.27,Rachelle Estanilla,,0.00,# 02158D,,,,,,,,,,,,,,,,,,,,,,,YES,"2 years parts, 1 year labor (Small Items)",Delivered,Sam's Club #6188 Austin 10/19-10/29 (TX),,,101763,,TX,,
