﻿Original Event Name,Event Name,Sales Person,Order Number,Order Date,Customer Name,State,Zip,Product Name,Color,Product Status,QTY,Tax,Total Before Tax,Order Total,Primary Payment Method,Second Payment Method,Thirdl Payment Method,Warranty,Order Items,Pick up,Delivered On,Order Status,Chair Type,Order Notes,Private Note,Branch,No Tax,Actual Tax Rate,SKU,Primary Payment Balance,Primary Authorize Number,Primary Purchase Order Number,Primary Synchrony Account Number,Primary Synchrony Application Key,Primary Synchrony Account Info,Primary Synchrony Term,Second Payment Balance,Second Authorize Number,Second Purchase Order Number,Second Synchrony Account Number,Second Synchrony Application Key,Second Synchrony Account Info,Second SynchronyTerm,Third Payment Balance,Third Authorize Number,Third Purchase Order Number,Third Synchrony Account Number,Third Synchrony Application Key,Third Synchrony Account Info,Third Synchrony Term
Sam's Club #6257 Las Vegas 3/21-31/19 (NV),Sam's Club #6257 Las Vegas 3/21-31/19 (NV),Querubin Milanes,116020,3/22/2019 10:45:10 PM,Keith Pickford,NV,89129,Legacy for Sam's,Demo Black[-700],Demo,1,296.92,3599.00,3895.92,CreditCard,,,"3 years parts, 1 year labor (Free)","Legacy for Sam's,",No,3/28/2019 12:00:00 AM,Delivered,Demo,,Please Deliver Demo Black Legacy Chair. Thank You.,NV,0,8.25,DWA-9100DWA-9100BL-DEMO,3895.92,TC 6548 7279 3598 9155 2760 28,,,,,,0.00,,,,,,,0.00,,,,,,
Sam's Club #6257 Las Vegas 3/21-31/19 (NV),Sam's Club #6257 Las Vegas 3/21-31/19 (NV),Querubin Milanes,116021,3/22/2019 10:52:33 PM,Beatriz Parra,TX,76180,Pegasus for Sam's,Demo Black(Box)[-700],Demo,1,395.84,4798.00,5193.84,CreditCard,,,"3 years parts, 1 year labor (Free)","Pegasus for Sam's,",No,,Assigned,,,"Demo Price Please Deliver a New Black Pegasus Chair. Thank you.
***New delivery address***
3305 Fernbird Ln, North Las Vegas, NV 89084
3/27/19-Order was re-dispatched to NV by Kohei",NV,0,8.25,DWA-9400Pegasus-BL-BOX,5193.84,TC 1480 6964 9486 7574 1553 24,,,,,,0.00,,,,,,,0.00,,,,,,
Sam's Club #6257 Las Vegas 3/21-31/19 (NV),Sam's Club #6257 Las Vegas 3/21-31/19 (NV),Querubin Milanes,116142,3/24/2019 10:49:57 PM,David Rhonda Warren,NV,89149,Pegasus for Sam's,Demo Choco(Box)[-700],Demo,1,395.84,4798.00,5193.84,CreditCard,,,"3 years parts, 1 year labor (Free)","Pegasus for Sam's,",No,,Scheduled,,,"Demo Price Please Deliver a New Choco Pegasus Chair. Thank you.
4/4Maritza Customer called asking for delivery info. Per Kohei delivery is scheduled for today.",NV,0,8.25,DWA-9400Pegasus-BR-BOX,5193.84,TC 7934 5517 4406 2629 7608 13,,,,,,0.00,,,,,,,0.00,,,,,,
Sam's Club #6257 Las Vegas 3/21-31/19 (NV),Sam's Club #6257 Las Vegas 3/21-31/19 (NV),Querubin Milanes,116224,3/29/2019 8:39:25 AM,Corina Siguenza,NV,89149,Relax 2 Zero 2.0 for Sam's,Demo (Box) Black[-701],Demo,1,263.92,3199.00,3462.92,CreditCard,,,"3 years parts, 1 year labor (Free)","Relax 2 Zero 2.0 for Sam's,",No,,Assigned,,,Demo Price Please Deliver a New Relax 2 Zero 2.0 (Regular) Black Chair (USJ-9050),NV,0,8.25,USJ-9050USJ-9050BL-DEMO (Box),3462.92,TC 6438 2573 3091 9152 2720 18,,,,,,0.00,,,,,,,0.00,,,,,,
Sam's Club #6257 Las Vegas 3/21-31/19 (NV),Sam's Club #6257 Las Vegas 3/21-31/19 (NV),Joy Anne Torres,116225,3/29/2019 8:59:45 AM,Richard Williams,NV,89129,PEGASUS 2 SMART - Sam's,Demo(Box) Choco[-700],Demo,1,453.59,5498.00,5951.59,CreditCard,,,"3 years parts, 1 year labor (Free)","PEGASUS 2 SMART - Sam's,",No,,Assigned,,,"Demo Box Please Deliver a New Choco Pegasus 2.0 Smart Choco Chair. Thank you. We use the price of the Pegasus 1.0 New Chair for Sam's because the Item Number for PEGS-2 here still not working.
3/29/19- Asked Joy to contact Lex  in case the code is still not working -Hitomi",NV,0,8.25,PEGS-2PEGS-2-BR-DEMO(Box),5951.59,TC 9453 7909 6529 3844 9987 01,,,,,,0.00,,,,,,,0.00,,,,,,
Sam's Club #6257 Las Vegas 3/21-31/19 (NV),Sam's Club #6257 Las Vegas 3/21-31/19 (NV),Querubin Milanes,116354,4/1/2019 7:27:09 AM,Brenda Valdez,NV,89131,Legacy for Sam's,New Choco,New,1,354.67,4299.00,4653.67,CreditCard,,,"3 years parts, 1 year labor (Free)","Legacy for Sam's,",No,,Assigned,,,"Please Deliver a New Legacy Choco Chair. Thank you.
4/1/19-will confirm the chair model - Hitomi",NV,0,8.25,DWA-9100DWA-9100CH,4653.67,TC 3912 6524 8245 6767 5939 10,,,,,,0.00,,,,,,,0.00,,,,,,
