﻿Original Event Name,Event Name,Sales Person,Order Number,Order Date,Customer Name,State,Zip,Product Name,Color,Product Status,QTY,Tax,Total Before Tax,Order Total,Primary Payment Method,Second Payment Method,Thirdl Payment Method,Warranty,Order Items,Pick up,Delivered On,Order Status,Chair Type,Order Notes,Private Note,Branch,No Tax,Actual Tax Rate,SKU,Primary Payment Balance,Primary Authorize Number,Primary Purchase Order Number,Primary Synchrony Account Number,Primary Synchrony Application Key,Primary Synchrony Account Info,Primary Synchrony Term,Second Payment Balance,Second Authorize Number,Second Purchase Order Number,Second Synchrony Account Number,Second Synchrony Application Key,Second Synchrony Account Info,Second SynchronyTerm,Third Payment Balance,Third Authorize Number,Third Purchase Order Number,Third Synchrony Account Number,Third Synchrony Application Key,Third Synchrony Account Info,Third Synchrony Term
"Sam's Club #8280 El Paso, TX (4/4-4/14/2019) TX","Sam's Club #8280 El Paso, TX (4/4-4/14/2019) TX",Kristy Tran,116504,4/8/2019 1:47:59 PM,Ron Lopez,TX,79936,Ninja Leg Massager 2,New,New,1,24.75,299.98,324.73,CreditCard,,,"2 years parts, 1 year labor for Small Items","Ninja Leg Massager 2,",YES,,Delivered,,Customer picked up 04/05/2019,,TX,0,8.25,USJ-880,324.73,TC 4309 1889 3799 7935 4852 6,,,,,,0.00,,,,,,,0.00,,,,,,
"Sam's Club #8280 El Paso, TX (4/4-4/14/2019) TX","Sam's Club #8280 El Paso, TX (4/4-4/14/2019) TX",Kristy Tran,116505,4/8/2019 1:51:52 PM,Jacqueline Quinonez,TX,79936,Shogun Neck & Back Massger,New,New,1,16.50,199.98,216.48,CreditCard,,,"2 years parts, 1 year labor for Small Items","Shogun Neck &amp; Back Massger,",YES,,Delivered,,Customer picked up 04/06/2019,,TX,0,8.25,USJ-874USJ-874,216.48,TC 6019 8899 5757 7955 2651,,,,,,0.00,,,,,,,0.00,,,,,,
"Sam's Club #8280 El Paso, TX (4/4-4/14/2019) TX","Sam's Club #8280 El Paso, TX (4/4-4/14/2019) TX",Kristy Tran,116506,4/8/2019 1:58:51 PM,Iven Gonzalez,TX,79936,PEGASUS 2 SMART - Sam's,Demo Choco,Demo,1,453.67,5499.00,5952.67,CreditCard,,,"3 years parts, 1 year labor (Free)","PEGASUS 2 SMART - Sam's,",YES,,New,,"SN 1201002180087
Customer will pick up 04/14/2019","Warranty address: 12561 Setting Sun 
El Paso, TX 79938
4/8/19-will confirm pickup confirmation after they pickup -Hitomi
Per Kristy, customer did not pick up the chair but cancel the order, and got refund from Sam's Club. 4/16/2019 June",Not Dispatched,0,8.25,PEGS-2PEGS-2-BR-DEMO,5952.67,TC 9482 9024 6044 6468 8458 00,,,,,,0.00,,,,,,,0.00,,,,,,
"Sam's Club #8280 El Paso, TX (4/4-4/14/2019) TX","Sam's Club #8280 El Paso, TX (4/4-4/14/2019) TX",Kristy Tran,116507,4/8/2019 2:01:56 PM,Valerie Garcia,TX,79928,Shogun Neck & Back Massger,New,New,1,16.50,199.98,216.48,CreditCard,,,"2 years parts, 1 year labor for Small Items","Shogun Neck &amp; Back Massger,",YES,,Delivered,,Customer picked up 04/07/2019,,TX,0,8.25,USJ-874USJ-874,216.48,TC 1334 6214 2301 9021 4484 83,,,,,,0.00,,,,,,,0.00,,,,,,
"Sam's Club #8280 El Paso, TX (4/4-4/14/2019) TX","Sam's Club #8280 El Paso, TX (4/4-4/14/2019) TX",Kristy Tran,116508,4/8/2019 2:05:33 PM,Huemon Herrero,TX,79938,Shogun Neck & Back Massger,New,New,1,16.50,199.98,216.48,CreditCard,,,"2 years parts, 1 year labor for Small Items","Shogun Neck &amp; Back Massger,",YES,,Delivered,,Customer picked up 04/07/2019,,TX,0,8.25,USJ-874USJ-874,216.48,TC 6439 2879 4797 7965 2658 6,,,,,,0.00,,,,,,,0.00,,,,,,
"Sam's Club #8280 El Paso, TX (4/4-4/14/2019) TX","Sam's Club #8280 El Paso, TX (4/4-4/14/2019) TX",Kristy Tran,116653,4/14/2019 10:39:43 AM,Manuel Estrada,TX,00000,Shogun Neck & Back Massger,Demo[-20],Demo,1,37.95,459.96,497.91,Credit Card,,,"2 years parts, 1 year labor for Small Items","Shogun Neck &amp; Back Massger,Ninja Leg Massager 2,",YES,,Delivered,,Customer already picked up the items,,TX,0,8.25,USJ-874USJ-874-DEMO,497.91,9924 2182 4079 0214 2246 3,,,,,,0.00,,,,,,,0.00,,,,,,
"Sam's Club #8280 El Paso, TX (4/4-4/14/2019) TX","Sam's Club #8280 El Paso, TX (4/4-4/14/2019) TX",Kristy Tran,116653,4/14/2019 10:39:43 AM,Manuel Estrada,TX,00000,Ninja Leg Massager 2,Demo[-20.00],Demo,1,37.95,459.96,497.91,Credit Card,,,"2 years parts, 1 year labor for Small Items","Shogun Neck &amp; Back Massger,Ninja Leg Massager 2,",YES,,Delivered,,Customer already picked up the items,,TX,0,8.25,USJ-880-Demo,497.91,9924 2182 4079 0214 2246 3,,,,,,0.00,,,,,,,0.00,,,,,,
"Sam's Club #8280 El Paso, TX (4/4-4/14/2019) TX","Sam's Club #8280 El Paso, TX (4/4-4/14/2019) TX",Kristy Tran,116654,4/14/2019 10:44:44 AM,Velia Valencia,TX,79936,Vitality Plate for Sam's,Demo[-60],Demo,1,33.00,399.99,432.99,Credit Card,,,"2 years parts, 1 year labor for Small Items","Vitality Plate for Sam's,",YES,,Delivered,,Customer already picked up the items,,TX,0,8.25,USJ-849USJ-849-DEMO,432.99,5843 6054 8242 2486 9168 1,,,,,,0.00,,,,,,,0.00,,,,,,
"Sam's Club #8280 El Paso, TX (4/4-4/14/2019) TX","Sam's Club #8280 El Paso, TX (4/4-4/14/2019) TX",Kristy Tran,116655,4/14/2019 10:49:38 AM,Alejandro Bonjas,TX,79936,Ninja Leg Massager 2,New,New,1,39.60,479.96,519.56,Credit Card,,,"2 years parts, 1 year labor for Small Items","Ninja Leg Massager 2,Shogun Neck &amp; Back Massger,",YES,,Delivered,,customer already picked up the items,,TX,0,8.25,USJ-880,519.56,8715 4341 3311 1062 0720 5,,,,,,0.00,,,,,,,0.00,,,,,,
"Sam's Club #8280 El Paso, TX (4/4-4/14/2019) TX","Sam's Club #8280 El Paso, TX (4/4-4/14/2019) TX",Kristy Tran,116655,4/14/2019 10:49:38 AM,Alejandro Bonjas,TX,79936,Shogun Neck & Back Massger,Demo[-20],Demo,1,39.60,479.96,519.56,Credit Card,,,"2 years parts, 1 year labor for Small Items","Ninja Leg Massager 2,Shogun Neck &amp; Back Massger,",YES,,Delivered,,customer already picked up the items,,TX,0,8.25,USJ-874USJ-874-DEMO,519.56,8715 4341 3311 1062 0720 5,,,,,,0.00,,,,,,,0.00,,,,,,
"Sam's Club #8280 El Paso, TX (4/4-4/14/2019) TX","Sam's Club #8280 El Paso, TX (4/4-4/14/2019) TX",Kristy Tran,116657,4/14/2019 10:54:09 AM,Herminia Heminia,TX,79936,Ninja Leg Massager 2,New,New,1,24.75,299.98,324.73,Credit Card,,,"2 years parts, 1 year labor for Small Items","Ninja Leg Massager 2,",YES,,Delivered,,Customer already picked up the item,,TX,0,8.25,USJ-880,324.73,6598 8769 8719 9563 1034 8,,,,,,0.00,,,,,,,0.00,,,,,,
"Sam's Club #8280 El Paso, TX (4/4-4/14/2019) TX","Sam's Club #8280 El Paso, TX (4/4-4/14/2019) TX",Kristy Tran,116658,4/14/2019 10:57:32 AM,Lourdes Flores,TX,79903,Shogun Neck & Back Massger,New,New,1,16.50,199.98,216.48,Credit Card,,,"2 years parts, 1 year labor for Small Items","Shogun Neck &amp; Back Massger,",YES,,Delivered,,Customer already picked up the item,,TX,0,8.25,USJ-874USJ-874,216.48,2761 7496 4466 6827 7276 2,,,,,,0.00,,,,,,,0.00,,,,,,
"Sam's Club #8280 El Paso, TX (4/4-4/14/2019) TX","Sam's Club #8280 El Paso, TX (4/4-4/14/2019) TX",Kristy Tran,116659,4/14/2019 11:05:43 AM,Jenny& Hector Garcia,TX,79936,PEGASUS 2 SMART - Sam's,Demo(Box) Choco[-700],Demo,1,453.67,5499.00,5952.67,Credit Card,,,"3 years parts, 1 year labor (Free)","PEGASUS 2 SMART - Sam's,",No,,New,,,Please ship the chair after 05/15,TX,0,8.25,PEGS-2PEGS-2-BR-DEMO(Box),5952.67,1700 6167 8462 8877 9629 86,,,,,,0.00,,,,,,,0.00,,,,,,
"Sam's Club #8280 El Paso, TX (4/4-4/14/2019) TX","Sam's Club #8280 El Paso, TX (4/4-4/14/2019) TX",Kristy Tran,116661,4/14/2019 11:57:44 AM,Johnny Arellin,TX,79938,Orbit for Sam's ,Demo Choco[-300],Demo,1,222.59,2698.00,2920.59,Credit Card,,,"3 years parts, 1 year labor (Free)","Orbit for Sam's ,",YES,,New,,Customer already picked up the chair. On 04/14/2019,"SN# 1101002180098
4/15/19-will confirm pickup confirmation -Hitomi",Not Dispatched,0,8.25,ORBT-1ORBT-1CH-DEMO,2920.59,8568 8873 9076 6955 3233 98,,,,,,0.00,,,,,,,0.00,,,,,,
"Sam's Club #8280 El Paso, TX (4/4-4/14/2019) TX","Sam's Club #8280 El Paso, TX (4/4-4/14/2019) TX",Kristy Tran,116662,4/14/2019 12:01:25 PM,Marco Petez,TX,79836,Shogun Neck & Back Massger,New,New,1,16.50,199.98,216.48,Credit Card,,,"2 years parts, 1 year labor for Small Items","Shogun Neck &amp; Back Massger,",YES,,Delivered,,customer already picked up the item,,TX,0,8.25,USJ-874USJ-874,216.48,7476 6523 7551 3120 4701 9,,,,,,0.00,,,,,,,0.00,,,,,,
"Sam's Club #8280 El Paso, TX (4/4-4/14/2019) TX","Sam's Club #8280 El Paso, TX (4/4-4/14/2019) TX",Kristy Tran,116663,4/14/2019 12:04:16 PM,Rosa Ramirez,TX,79928,Shogun Neck & Back Massger,New,New,1,16.50,199.98,216.48,Credit Card,,,"2 years parts, 1 year labor for Small Items","Shogun Neck &amp; Back Massger,",YES,,Delivered,,customer already picked up the item,,TX,0,8.25,USJ-874USJ-874,216.48,1633 4052 3002 2406 3568 1,,,,,,0.00,,,,,,,0.00,,,,,,
"Sam's Club #8280 El Paso, TX (4/4-4/14/2019) TX","Sam's Club #8280 El Paso, TX (4/4-4/14/2019) TX",Kristy Tran,116664,4/14/2019 12:08:56 PM,HUgo Tinoco,TX,79936,Vitality Plate for Sam's,New,New,1,37.95,459.99,497.94,Credit Card,,,"2 years parts, 1 year labor for Small Items","Vitality Plate for Sam's,",No,,Assigned,,PLEASE SHIP THE VITALITY PLATE FOR THE CUSTOMER,4/15/19- item needs to be shipped out . will assign to TX- Hitomi,TX,0,8.25,USJ-849USJ-849,497.94,2268 4767 0772 9583 8537 8,,,,,,0.00,,,,,,,0.00,,,,,,
"Sam's Club #8280 El Paso, TX (4/4-4/14/2019) TX","Sam's Club #8280 El Paso, TX (4/4-4/14/2019) TX",Kristy Tran,116665,4/14/2019 12:21:35 PM,Rocio Gracia,TX,79927,Ninja Leg Massager 2,New,New,1,24.75,299.98,324.73,Credit Card,,,"2 years parts, 1 year labor for Small Items","Ninja Leg Massager 2,",YES,,Delivered,,customer already picked up the items,,TX,0,8.25,USJ-880,324.73,2020 9668 1668 8719 1092 4,,,,,,0.00,,,,,,,0.00,,,,,,
"Sam's Club #8280 El Paso, TX (4/4-4/14/2019) TX","Sam's Club #8280 El Paso, TX (4/4-4/14/2019) TX",Kristy Tran,116682,4/14/2019 4:14:37 PM,David Johnston,TX,79924,Vitality Plate for Sam's,Demo[-60],Demo,1,33.00,399.99,432.99,Credit Card,,,"2 years parts, 1 year labor for Small Items","Vitality Plate for Sam's,",No,,Assigned,,Please ship new asap,4/15/19-item needs to be shipped. will assign to TX -Hitomi,TX,0,8.25,USJ-849USJ-849-DEMO,432.99,TC 7375 9341 6338 1002 0025 5,,,,,,0.00,,,,,,,0.00,,,,,,
"Sam's Club #8280 El Paso, TX (4/4-4/14/2019) TX","Sam's Club #8280 El Paso, TX (4/4-4/14/2019) TX",Kristy Tran,116683,4/14/2019 4:19:33 PM,Israel Perez,TX,79924,Legacy for Sam's,New Sienna Brown,New,1,354.67,4299.00,4653.67,Credit Card,,,"3 years parts, 1 year labor (Free)","Legacy for Sam's,",No,,New,,**Customer prefers Thursday or Friday delivery.,,TX,0,8.25,DWA-9100DWA-9100SB,4653.67,TC 6217 6491 5199 5530 1261 87,,,,,,0.00,,,,,,,0.00,,,,,,
"Sam's Club #8280 El Paso, TX (4/4-4/14/2019) TX","Sam's Club #8280 El Paso, TX (4/4-4/14/2019) TX",Kristy Tran,116717,4/15/2019 10:23:22 AM,Laura Gonzalez,TX,79936,Ninja Leg Massager 2,Demo[-20.00],Demo,1,23.10,279.98,303.08,Credit Card,,,"2 years parts, 1 year labor for Small Items","Ninja Leg Massager 2,",YES,,Delivered,,Customer already picked up the item,,TX,0,8.25,USJ-880-Demo,303.08,7776 4553 2573 3110 1709 9,,,,,,0.00,,,,,,,0.00,,,,,,
