﻿Original Event Name,Event Name,Sales Person,Order Number,Order Date,Customer Name,State,Zip,Product Name,Color,Product Status,QTY,Tax,Total Before Tax,Order Total,Primary Payment Method,Second Payment Method,Thirdl Payment Method,Warranty,Order Items,Pick up,Delivered On,Order Status,Chair Type,Order Notes,Private Note,Branch,No Tax,Actual Tax Rate,SKU,Primary Payment Balance,Primary Authorize Number,Primary Purchase Order Number,Primary Synchrony Account Number,Primary Synchrony Application Key,Primary Synchrony Account Info,Primary Synchrony Term,Second Payment Balance,Second Authorize Number,Second Purchase Order Number,Second Synchrony Account Number,Second Synchrony Application Key,Second Synchrony Account Info,Second SynchronyTerm,Third Payment Balance,Third Authorize Number,Third Purchase Order Number,Third Synchrony Account Number,Third Synchrony Application Key,Third Synchrony Account Info,Third Synchrony Term,First Name,Last Name,Email,Shipping Company,Shipping Address1,Shipping Address2,Shipping Suite,Shipping City,Shipping State,Shipping Zip,Shipping Country,Shipping Phone
"Sam's Club #6664 Utica, MI 11/29-12/9/18 (IL)","Sam's Club #6664 Utica, MI 11/29-12/9/18 (IL)",Luis Flores,112888,12/4/2018 7:59:51 AM,Joe Grimm,MI,48044,Symphony,Demo (Box) Black,Demo,1,0.00,5085.88,5085.88,CreditCard,,,"3 years parts, 3 years labor ($400)","Symphony,",No,,Cancelled,,,"will confirm TC# 12/4/18 Hitomi
12/4/18 -  Per. Luis. Although customer tried Symphony, he processed overcharging as Pegasus and handed the customer Pegasus brochure.So I spoke to Andres letting me know solution after discussing  Hide.--Hitomi",Not Dispatched,1,6.00,USJ-9300Symphony-BW-DEMO,0.00,TC# 7074 9414 5255 2944 8498 78,,,,,,0.00,,,,,,,0.00,,,,,,,Joe,Grimm,defaultmail@daiwamassage.com,,19865 mapleton dr,,,Maromb,MI,48044,United States,586-838-7354
"Sam's Club #6664 Utica, MI 11/29-12/9/18 (IL)","Sam's Club #6664 Utica, MI 11/29-12/9/18 (IL)",Luis Flores,112891,12/4/2018 8:19:01 AM,Chun Sien,MI,48413,Legacy for Sam's,Demo(Box) Choco[-700],Demo,1,173.49,3641.45,3814.94,CreditCard,,,"3 years parts, 3 years labor ($400)","Legacy for Sam's,",No,,Cancelled,,,will confirm TC# and warranty 12/4/18 Hitomi,Not Dispatched,0,6.00,DWA-9100DWA-9100CH-Box,0.00,,,,,,,0.00,,,,,,,0.00,,,,,,,Joe,Grimm,chunsien@gmail.com,,1779 N hellems,,,Bad Axe,MI,48413,United States,734-585-6238
"Sam's Club #6664 Utica, MI 11/29-12/9/18 (IL)","Sam's Club #6664 Utica, MI 11/29-12/9/18 (IL)",Luis Flores,112894,12/4/2018 8:28:53 AM,C Vanneste,MI,48002,Symphony,Demo (Box) Black,Demo,1,0.00,5085.88,5085.88,Check,,,"3 years parts, 3 years labor ($400)","Symphony,",No,,Cancelled,,,"will confirm TC# 12/4/18 Hitomi
12/4/18 -  Per. Luis. Although customer tried Symphony, he processed overcharging as Pegasus and handed the customer Pegasus brochure.So I spoke to Andres letting me know solution after discussing  Hide.--Hitomi",Not Dispatched,1,6.00,USJ-9300Symphony-BW-DEMO,0.00,,,,,,,0.00,,,,,,,0.00,,,,,,,Joe,Grimm,chunsien@gmail.com,,1800 sparry rd,,,Allenton,MI,48002,United States,810-874-4555
"Sam's Club #6664 Utica, MI 11/29-12/9/18 (IL)","Sam's Club #6664 Utica, MI 11/29-12/9/18 (IL)",Luis Flores,112895,12/4/2018 8:38:13 AM,Tom Vranich,MI,48329,Symphony,Demo (Box) Black,Demo,1,0.00,5085.88,5085.88,CreditCard,,,"3 years parts, 2 years labor ($200)","Symphony,",No,,Cancelled,,,"12/4/18 -  Per. Luis. Although customer tried Symphony, he processed overcharging as Pegasus and handed the customer Pegasus brochure.So I spoke to Andres letting me know solution after discussing  Hide.--Hitomi",Not Dispatched,1,6.00,USJ-9300Symphony-BW-DEMO,0.00,,,,,,,0.00,,,,,,,0.00,,,,,,,Joe,Grimm,chunsien@gmail.com,,5620 hatchery,,,Warerford,MI,48329,United States,248-408-0311
"Sam's Club #6664 Utica, MI 11/29-12/9/18 (IL)","Sam's Club #6664 Utica, MI 11/29-12/9/18 (IL)",Luis Flores,112896,12/4/2018 8:45:56 AM,Greg Hofmann,MI,48309,Legacy for Sam's,New Choco,New,1,0.00,4604.55,4604.55,CreditCard,,,"3 years parts, 2 years labor ($200)","Legacy for Sam's,",No,,Cancelled,,,12/4Maritza Courtesy message and email sent @ 10:57AM,TX,1,6.00,DWA-9100DWA-9100CH,0.00,TC#5763 7207 3630 4569 7997 57,,,,,,0.00,,,,,,,0.00,,,,,,,Joe,Grimm,glhof123@yahoo.com,,175 manor way,,,Rochester hills,MI,48309,United States,248-462-8289
"Sam's Club #6664 Utica, MI 11/29-12/9/18 (IL)","Sam's Club #6664 Utica, MI 11/29-12/9/18 (IL)",Luis Flores,112897,12/4/2018 9:07:18 AM,Lixian Deng,MI,48044,Legacy for Sam's,New Choco,New,1,0.00,4556.94,4556.94,CreditCard,,,"3 years parts, 2 years labor ($200)","Legacy for Sam's,",No,,Cancelled,,,will confirm TC# and warranty 12/4/18 Hitomi,Not Dispatched,1,6.00,DWA-9100DWA-9100CH,0.00,,,,,,,0.00,,,,,,,0.00,,,,,,,Joe,Grimm,lixiandeng@yahoo.com,,47379,,,Macomb twp,MI,48044,United States,486-214-8218
"Sam's Club #6664 Utica, MI 11/29-12/9/18 (IL)","Sam's Club #6664 Utica, MI 11/29-12/9/18 (IL)",Luis Flores,112954,12/7/2018 6:22:17 AM,Lixian Deng,MI,48044,Legacy for Sam's,New Choco,New,1,243.34,4055.66,4299.00,CreditCard,,,"3 years parts, 1 year labor (Free)","Legacy for Sam's,",No,,Assigned,,,12/11/18- Courtesy call completed- Cristina order submitted date Thurs 12/6. 11:33 am- Cristina,TX,0,6.00,DWA-9100DWA-9100CH,4299.00,TC#6417249685833616238222,,,,,,0.00,,,,,,,0.00,,,,,,,Lixian,Deng,defaultmail@daiwamassage.com,,47379 Tilca Road,,,Macomb TWP,MI,48044,United States,586-214-8218
"Sam's Club #6664 Utica, MI 11/29-12/9/18 (IL)","Sam's Club #6664 Utica, MI 11/29-12/9/18 (IL)",Luis Flores,112955,12/7/2018 6:32:30 AM,Greg Hofmann,MI,48309,Legacy for Sam's,New Choco,New,1,257.94,4299.00,4556.94,CreditCard,,,"3 years parts, 1 year labor (Free)","Legacy for Sam's,",No,,Called,,,"Correction for #112896
12/4Maritza Courtesy message and email sent @ 10:57AM",TX,0,6.00,DWA-9100DWA-9100CH,4556.94,TC# 5763 7207 3630 4569 7997 57,,,,,,0.00,,,,,,,0.00,,,,,,,Greg,Hofmann,glhof123@yahoo.com,,175 Manor Way,,,Rochester Hills,MI,48309,United States,248-462-8289
"Sam's Club #6664 Utica, MI 11/29-12/9/18 (IL)","Sam's Club #6664 Utica, MI 11/29-12/9/18 (IL)",Luis Flores,112956,12/7/2018 6:46:36 AM,Chun Siev,MI,48413,Legacy for Sam's,Demo(Box) Choco[-700],Demo,1,215.94,3599.00,3814.94,CreditCard,,,"3 years parts, 1 year labor (Free)","Legacy for Sam's,",No,,Assigned,,,12/11/18-Courtesy call completed- Cristina 11:35 am,TX,0,6.00,DWA-9100DWA-9100CH-Box,3814.94,TC# 4529 0887 4641 9252 1911 21,,,,,,0.00,,,,,,,0.00,,,,,,,Chun,Siev,chunsiev@gmail.com,,1779 N Hellems,,,Bad Axe,MI,48413,United States,734-585-6238
"Sam's Club #6664 Utica, MI 11/29-12/9/18 (IL)","Sam's Club #6664 Utica, MI 11/29-12/9/18 (IL)",Luis Flores,112959,12/7/2018 7:06:56 AM,Joe Grimm,MI,48044,Symphony,Demo (Box) Black,Demo,1,287.88,4798.00,5085.88,CreditCard,,,"3 years parts, 1 year labor (Free)","Symphony,",No,,Called,,,"12/7/18  The customer tried Symphony however they paid as Pegasus Demo by sales rep's mistake.  Since the customer is not aware of that , Hide and Andres approved to deliver Symphony and will leave the payment as it is. If customer complains the payment , we will file the check. - Hitomi
12/07/18-courtesy call completed- 10:55 am",TX,0,6.00,USJ-9300Symphony-BW-DEMO,5085.88,TC# 7074 9414 5255 2944 8498 78,,,,,,0.00,,,,,,,0.00,,,,,,,Joe,Grimm,defaultmail@daiwamassage.com,,19865 Mapleton Drive,,,Maromb,MI,48044,United States,586-838-7354
"Sam's Club #6664 Utica, MI 11/29-12/9/18 (IL)","Sam's Club #6664 Utica, MI 11/29-12/9/18 (IL)",Luis Flores,112960,12/7/2018 7:13:49 AM,Tom Vranich,MI,48329,Symphony,Demo (Box) Black,Demo,1,287.88,4798.00,5085.88,CreditCard,,,"3 years parts, 1 year labor (Free)","Symphony,",No,,Called,,,"12/7/18  The customer tried Symphony however they paid as Pegasus Demo by sales rep's mistake.  Since the customer is not aware of that , Hide and Andres approved to deliver Symphony and will leave the payment as it is. If customer complains the payment , we will file the check. - Hitomi
12/07/18- Courtesy call completed - Cristina- 10:52 am",TX,0,6.00,USJ-9300Symphony-BW-DEMO,5085.88,TC# 0195 6235 9997 0722 6276 86,,,,,,0.00,,,,,,,0.00,,,,,,,Tom,Vranich,tjvranich@gmail.com,,5620 Hatchery Road,,,Waterford,MI,48329,United States,248-408-0311
"Sam's Club #6664 Utica, MI 11/29-12/9/18 (IL)","Sam's Club #6664 Utica, MI 11/29-12/9/18 (IL)",Luis Flores,112961,12/7/2018 7:17:43 AM,C Vanneste,MI,48002,Symphony,Demo (Box) Black,Demo,1,287.88,4798.00,5085.88,CreditCard,,,"3 years parts, 1 year labor (Free)","Symphony,",No,,Called,,,"CELL#CAN BE 810-874-4555
12/7/18  The customer tried Symphony however they paid as Pegasus Demo by sales rep's mistake.  Since the customer is not aware of that , Hide and Andres approved to deliver Symphony and will leave the payment as it is. If customer complains the payment , we will file the check. - Hitomi
12/07/18- Courtesy call completed- Cristina- 10:48 am",TX,0,6.00,USJ-9300Symphony-BW-DEMO,5085.88,TC# 0769 1580 4447 7255 1511 01,,,,,,0.00,,,,,,,0.00,,,,,,,C,Vanneste,glob3@live.com,,1800 Sperry Road,,,Allenton,MI,48002,United States,810-395-4552
"Sam's Club #6664 Utica, MI 11/29-12/9/18 (IL)","Sam's Club #6664 Utica, MI 11/29-12/9/18 (IL)",Luis Flores,112962,12/7/2018 7:38:58 AM,Frederick Heker,MI,48048,Symphony,New Choco,New,1,257.49,5041.51,5299.00,CreditCard,,,"3 years parts, 1 year labor (Free)","Symphony,",No,,Called,,,"12/07/18-courtesy call completed- Cristina 10:45 am
//12/7/18 Confirmed w/original.that this was processed as  NEW Symphony chair. --Hitomi",TX,0,6.00,USJ-9300Symphony-BW,5299.00,5962422432156383963999,,,,,,0.00,,,,,,,0.00,,,,,,,Frederick,Heker,defaultmail@daiwamassage.com,,59950 frost rd,,,Lenox,MI,48048,United States,586-749-3667
