﻿Original Event Name,Event Name,Sales Person,Order Number,Order Date,Customer Name,State,Zip,Product Name,Color,Product Status,QTY,Tax,Total Before Tax,Order Total,Primary Payment Method,Second Payment Method,Thirdl Payment Method,Warranty,Order Items,Pick up,Delivered On,Order Status,Chair Type,Order Notes,Private Note,Branch,No Tax,Actual Tax Rate,SKU,Primary Payment Balance,Primary Authorize Number,Primary Purchase Order Number,Primary Synchrony Account Number,Primary Synchrony Application Key,Primary Synchrony Account Info,Primary Synchrony Term,Second Payment Balance,Second Authorize Number,Second Purchase Order Number,Second Synchrony Account Number,Second Synchrony Application Key,Second Synchrony Account Info,Second SynchronyTerm,Third Payment Balance,Third Authorize Number,Third Purchase Order Number,Third Synchrony Account Number,Third Synchrony Application Key,Third Synchrony Account Info,Third Synchrony Term
"Sam's Club #6343 Richmond, VA 5/2-12/19 (FL)","Sam's Club #6343 Richmond, VA 5/2-12/19 (FL)",May Kam,117125,5/5/2019 6:50:00 AM,Debble Canard,VA,22546,Vitality Plate for Sam's,New,New,1,0.00,459.99,459.99,Credit Card,,,"2 years parts, 1 year labor for Small Items","Vitality Plate for Sam's,",YES,,Delivered,,Picked up in Sam club 6343 Already,,FL,1,5.30,USJ-849USJ-849,459.99,46883788771965146204 6,,,,,,0.00,,,,,,,0.00,,,,,,
"Sam's Club #6343 Richmond, VA 5/2-12/19 (FL)","Sam's Club #6343 Richmond, VA 5/2-12/19 (FL)",May Kam,117156,5/5/2019 3:55:56 PM,Mr & Mrs Ashish Patel,VA,23002,Vitality Plate for Sam's,New,New,1,24.38,459.99,484.37,Credit Card,,,"2 years parts, 1 year labor for Small Items","Vitality Plate for Sam's,",YES,,Delivered,,Picked up in Sum’s club store already,,FL,0,5.30,USJ-849USJ-849,459.99,03093866580949326618 4,,,,,,0.00,,,,,,,0.00,,,,,,
"Sam's Club #6343 Richmond, VA 5/2-12/19 (FL)","Sam's Club #6343 Richmond, VA 5/2-12/19 (FL)",May Kam,117163,5/5/2019 5:02:55 PM,Mrs Hui Li,VA,23060,Vitality Plate for Sam's,New,New,1,0.00,459.99,459.99,Credit Card,,,"2 years parts, 1 year labor for Small Items","Vitality Plate for Sam's,",YES,,Delivered,,Picked up already in store,,FL,1,5.30,USJ-849USJ-849,459.99,83664529654171181743 7,,,,,,0.00,,,,,,,0.00,,,,,,
"Sam's Club #6343 Richmond, VA 5/2-12/19 (FL)","Sam's Club #6343 Richmond, VA 5/2-12/19 (FL)",May Kam,117164,5/5/2019 5:10:43 PM,Mrs Tina Hoang,VA,23060,Vitality Plate for Sam's,New,New,1,0.00,459.99,459.99,Credit Card,,,"2 years parts, 1 year labor for Small Items","Vitality Plate for Sam's,",YES,,Delivered,,Picked up in store already,,FL,1,5.30,USJ-849USJ-849,459.99,511124825428083169570,,,,,,0.00,,,,,,,0.00,,,,,,
"Sam's Club #6343 Richmond, VA 5/2-12/19 (FL)","Sam's Club #6343 Richmond, VA 5/2-12/19 (FL)",May Kam,117165,5/5/2019 5:19:06 PM,Mr Kawaljit Singh,VA,22408,Vitality Plate for Sam's,New,New,1,0.00,459.99,459.99,Credit Card,,,"2 years parts, 1 year labor for Small Items","Vitality Plate for Sam's,",YES,,Delivered,,Picked up in store already,,FL,1,5.30,USJ-849USJ-849,459.99,88866509750671181541 7,,,,,,0.00,,,,,,,0.00,,,,,,
"Sam's Club #6343 Richmond, VA 5/2-12/19 (FL)","Sam's Club #6343 Richmond, VA 5/2-12/19 (FL)",May Kam,117167,5/5/2019 5:30:28 PM,Mrs Miliza Sulpquiz,VA,23841,Vitality Plate for Sam's,New,New,1,0.00,420.99,420.99,Credit Card,,,"2 years parts, 1 year labor for Small Items","Vitality Plate for Sam's,",YES,,Delivered,,"Picked up already in the store, Demo price but give her new",,FL,1,5.30,USJ-849USJ-849,421.19,49488778677265547507 6,,,,,,0.00,,,,,,,0.00,,,,,,
"Sam's Club #6343 Richmond, VA 5/2-12/19 (FL)","Sam's Club #6343 Richmond, VA 5/2-12/19 (FL)",May Kam,117170,5/5/2019 5:42:49 PM,Mr Nitin Kulkarni,VA,23059,Legacy 3D - Sam's Club,Demo Choco[-700],Demo,1,0.00,3999.00,3999.00,Credit Card,,,"3 years parts, 1 year labor (Free)","Legacy 3D - Sam's Club,Tourmaline Pad for Legacy 3D,",No,,Called,,,"5/6/19 Confirmed. FL - Hitomi
CC, Jasmin Carrizales, 5/7/19, 10:31am
Deliver before Mon May 20th or 2weeks after",FL,1,5.30,DWA-9150DWA-9150CH-DEMO,0.00,26792884668804902991 74,,,,,,0.00,,,,,,,0.00,,,,,,
"Sam's Club #6343 Richmond, VA 5/2-12/19 (FL)","Sam's Club #6343 Richmond, VA 5/2-12/19 (FL)",May Kam,117199,5/6/2019 3:26:39 PM,Mrs Betty Strother,VA,23223,Vitality Plate for Sam's,New,New,1,0.00,459.99,459.99,Credit Card,,,"2 years parts, 1 year labor for Small Items","Vitality Plate for Sam's,",No,,Delivered,,"Need shipping asap, since we don’t have enough stock in Store",5/6/19-will be shipped out from FL -Hitomi,FL,1,5.30,USJ-849USJ-849,484.37,57736081506234853175 3,,,,,,0.00,,,,,,,0.00,,,,,,
"Sam's Club #6343 Richmond, VA 5/2-12/19 (FL)","Sam's Club #6343 Richmond, VA 5/2-12/19 (FL)",May Kam,117200,5/6/2019 3:37:13 PM,Mrs Donna Darringten,VA,23060,Vitality Plate for Sam's,New,New,1,0.00,420.99,420.99,Credit Card,,,"2 years parts, 1 year labor for Small Items","Vitality Plate for Sam's,",No,,Delivered,,"Pls ship asap, since we don’t have inventory in store , thanks",5/6/19-will be shipped out from FL -Hitomi,FL,1,5.30,USJ-849USJ-849,421.19,36920200122516632692 1,,,,,,0.00,,,,,,,0.00,,,,,,
"Sam's Club #6343 Richmond, VA 5/2-12/19 (FL)","Sam's Club #6343 Richmond, VA 5/2-12/19 (FL)",May Kam,117241,5/9/2019 8:30:11 PM,Mr Jung Edward Richard,VA,23060,Vitality Plate for Sam's,New,New,1,0.00,420.99,420.99,Credit Card,,,"2 years parts, 1 year labor for Small Items","Vitality Plate for Sam's,",YES,,Delivered,,Special discount for pick up,,FL,1,5.30,USJ-849USJ-849,421.19,49588748778565547007 6,,,,,,0.00,,,,,,,0.00,,,,,,
"Sam's Club #6343 Richmond, VA 5/2-12/19 (FL)","Sam's Club #6343 Richmond, VA 5/2-12/19 (FL)",May Kam,117242,5/9/2019 8:36:42 PM,Mrs Courtney Ferrell,VA,23060,Vitality Plate for Sam's,New,New,1,0.00,420.99,420.99,Credit Card,,,"2 years parts, 1 year labor for Small Items","Vitality Plate for Sam's,",YES,,Delivered,,Special discount for pick up,,FL,1,5.30,USJ-849USJ-849,421.19,92243163117552291481 5,,,,,,0.00,,,,,,,0.00,,,,,,
"Sam's Club #6343 Richmond, VA 5/2-12/19 (FL)","Sam's Club #6343 Richmond, VA 5/2-12/19 (FL)",May Kam,117243,5/9/2019 8:44:31 PM,Mrs Meenna Chowdhury,VA,23229,Vitality Plate for Sam's,New,New,1,0.00,399.99,399.99,Credit Card,,,"2 years parts, 1 year labor for Small Items","Vitality Plate for Sam's,",YES,,Delivered,,Special discount for pick up,,FL,1,5.30,USJ-849USJ-849,399.99,90842116371475219418   05,,,,,,0.00,,,,,,,0.00,,,,,,
"Sam's Club #6343 Richmond, VA 5/2-12/19 (FL)","Sam's Club #6343 Richmond, VA 5/2-12/19 (FL)",May Kam,117336,5/13/2019 7:26:48 PM,Mr & Mrs Armaghan Jahangiri,VA,23233,Relax 2 Zero 2.0 for Sam's,Demo Black[-701],Demo,1,0.00,3199.00,3199.00,Credit Card,,,"3 years parts, 1 year labor (Free)","Relax 2 Zero 2.0 for Sam's,",No,,Cancelled,,Another phone is 8046774896,5/15Maritza- Will be re- entering order. Disregard this invoice. #117336,FL,1,5.30,USJ-9050USJ-9050BL-DEMO,3323.55,0001254704456083134570,,,,,,0.00,,,,,,,0.00,,,,,,
"Sam's Club #6343 Richmond, VA 5/2-12/19 (FL)","Sam's Club #6343 Richmond, VA 5/2-12/19 (FL)",May Kam,117339,5/13/2019 7:49:18 PM,Mr &Mrs Natasha Henley,VA,23228,Relax 2 Zero 2.0 for Sam's,Demo Black[-701],Demo,1,0.00,3199.00,3199.00,Credit Card,,,"3 years parts, 1 year labor (Free)","Relax 2 Zero 2.0 for Sam's,",No,,Cancelled,,"Pls deliver New chair to the customer , Thanks; another phone is 8046516178",5/15Maritza- Will be re-entering order. Disregard this invoice.,FL,1,5.30,USJ-9050USJ-9050BL-DEMO,3368.55,55843818551055279788  45,,,,,,0.00,,,,,,,0.00,,,,,,
"Sam's Club #6343 Richmond, VA 5/2-12/19 (FL)","Sam's Club #6343 Richmond, VA 5/2-12/19 (FL)",May Kam,117340,5/13/2019 8:18:42 PM,Mr David Nichols,VA,23116,Relax 2 Zero 2.0 for Sam's,Demo Black[-701],Demo,1,0.00,3199.00,3199.00,Credit Card,,,"3 years parts, 1 year labor (Free)","Relax 2 Zero 2.0 for Sam's,",No,,Cancelled,,Another phone is 8044122012,5/15Maritza- re-entered order due to tax remaining balance. New order #117368,FL,1,5.30,USJ-9050USJ-9050BL-DEMO,3368.55,66788070637496524240 36,,,,,,0.00,,,,,,,0.00,,,,,,
"Sam's Club #6343 Richmond, VA 5/2-12/19 (FL)","Sam's Club #6343 Richmond, VA 5/2-12/19 (FL)",May Kam,117368,5/15/2019 11:45:10 AM,David Nichols,VA,23116,Relax 2 Zero 2.0 for Sam's,Demo Black[-701],Demo,1,169.55,3199.00,3368.55,Credit Card,,,"3 years parts, 1 year labor (Free)","Relax 2 Zero 2.0 for Sam's,",No,5/21/2019 12:00:00 AM,Delivered,Demo,,"Alternative Number: (804)412-2012
5/15Maritza- Original date input was 5/13 (#117340) received copy of invoice.",FL,0,5.30,USJ-9050USJ-9050BL-DEMO,3368.55,TC# 6678 8070 6374 9652 4240 36,,,,,,0.00,,,,,,,0.00,,,,,,
"Sam's Club #6343 Richmond, VA 5/2-12/19 (FL)","Sam's Club #6343 Richmond, VA 5/2-12/19 (FL)",May Kam,117370,5/15/2019 12:14:15 PM,Natesha Henley,VA,23228,Relax 2 Zero 2.0 for Sam's,Demo (Box) Black[-701],Demo,1,169.55,3199.00,3368.55,Credit Card,,,"3 years parts, 1 year labor (Free)","Relax 2 Zero 2.0 for Sam's,",No,,Cancelled,,Free gift: 1 Tourmaline Pad,"Alternative Number: (804)651-6179
Disregard this order. Customer's name is spelled wrong.",CA,0,5.30,USJ-9050USJ-9050BL-DEMO (Box),3368.55,TC# 5584 3814,,,,,,0.00,,,,,,,0.00,,,,,,
"Sam's Club #6343 Richmond, VA 5/2-12/19 (FL)","Sam's Club #6343 Richmond, VA 5/2-12/19 (FL)",May Kam,117377,5/15/2019 1:32:16 PM,Natasha Henley,VA,23228,Relax 2 Zero 2.0 for Sam's,Demo (Box) Black[-701],Demo,1,169.55,3199.00,3368.55,Credit Card,,,"3 years parts, 1 year labor (Free)","Relax 2 Zero 2.0 for Sam's,",No,,Called,,Free Gift: 1 Tourmaline Pad,"Alternative Number: (804)651-6179
Order input on 5/13 Correction for #117339. Copy of invoice received.
CC, Jasmin Carrizales, 5/16/19, 9:39am, VM",FL,0,5.30,USJ-9050USJ-9050BL-DEMO (Box),3368.55,TC# 5584 3818 5510 5527 9788 45,,,,,,0.00,,,,,,,0.00,,,,,,
"Sam's Club #6343 Richmond, VA 5/2-12/19 (FL)","Sam's Club #6343 Richmond, VA 5/2-12/19 (FL)",May Kam,117379,5/15/2019 1:49:28 PM,Armaghan Jahangiri,VA,23233,Relax 2 Zero 2.0 for Sam's,Demo Black[-701],Demo,1,169.55,3199.00,3368.55,Credit Card,,,"3 years parts, 1 year labor (Free)","Relax 2 Zero 2.0 for Sam's,",No,5/22/2019 12:00:00 AM,Delivered,New,,"Balance of $45 remaining is due to Sam's Club Card Member discount applied at checkout. Please disregard.
5/15Maritza- Correction for #117336 which was input on 5/13. Copy of invoice recieved.",FL,0,5.30,USJ-9050USJ-9050BL-DEMO,3323.55,TC# 0001 2547 0445 6083 1345 70,,,,,,0.00,,,,,,,0.00,,,,,,
"Sam's Club #6343 Richmond, VA 5/2-12/19 (FL)","Sam's Club #6343 Richmond, VA 5/2-12/19 (FL)",May Kam,117380,5/15/2019 2:21:38 PM,Mr & Mrs Duong Debble Tran,VA,23608,Relax 2 Zero 2.0 for Sam's,Demo Brown[-701],Demo,1,0.00,3199.00,3199.00,Credit Card,,,"3 years parts, 1 year labor (Free)","Relax 2 Zero 2.0 for Sam's,",No,5/21/2019 12:00:00 AM,Delivered,New,,"5/15Maritza- Disregard the remaining balance. Tax is included in the total. Copy of invoice was collected.
CC, Jasmin Carrizales, 5/16/19, 9:20am, VM",FL,1,5.30,USJ-9050USJ-9050BR-DEMO,3368.55,22604360266782710143 92,,,,,,0.00,,,,,,,0.00,,,,,,
