﻿Original Event Name,Event Name,Salesperson,Order Number,Order Date,CustomerName,State,Zip,Product Name,Color,Product Status,QTY,Tax,Pre_tax,Order Total,Primary Payment Method,Secondly Payment Method,Thirdly Payment Method,Warranty,OrderItems,Pick up,Delivered On,OrderStatus,Order Notes,Private Note,Branch,No Tax,ActualTaxRate,SKU,Primary Payment Balance,Primary Authorize Number,Primary Purchase Order Number,Primary Synchrony Account Number,Primary Synchrony Application Key,Primary Synchrony AccountInfo,Primary SynchronyTerm,Secondly Payment Balance,Secondly Authorize Number,Secondly Purchase Order Number,Secondly Synchrony Account Number,Secondly Synchrony Application Key,Secondly Synchrony AccountInfo,Secondly SynchronyTerm,Thirdly Payment Balance,Thirdly Authorize Number,Thirdly Purchase Order Number,Thirdly Synchrony Account Number,Thirdly Synchrony Application Key,Thirdly Synchrony AccountInfo,Thirdly SynchronyTerm
"VIRGINIA STATE FAIR 9/28-10/7/18 DOSWELL, VA (IL)","VIRGINIA STATE FAIR 9/28-10/7/18 DOSWELL, VA (IL)",Abagail Stirling,109946,9/30/2018 7:57:23 AM,Aaron Haines Jr,VA,23434,Legacy 3D,Demo Black,Demo,1,0.00,4200.00,4200.00,Synchrony,,,"5 years parts, 1 year labor (Free)","Legacy 3D,",No,,Assigned,,"CC Josefina - 10/2/18 4:45pm TXT
Confirmed SYNC acct (5,100) and original. ***Please charge $4,200 before delivery and have sales draft signed.*** 10/2/18 Hitomi",FL,1,5.30,DWA-9150USJ-9150BL-DEMO,4200.00,,,6019170813164776,95052005,San Diego,36 months,0.00,,,,,,,0.00,,,,,,
"VIRGINIA STATE FAIR 9/28-10/7/18 DOSWELL, VA (IL)","VIRGINIA STATE FAIR 9/28-10/7/18 DOSWELL, VA (IL)",Abagail Stirling,109947,9/30/2018 8:05:42 AM,Robert Forsyth,VA,23015,Legacy 3D,Demo Black,Demo,1,0.00,4200.00,4200.00,Synchrony,,,"5 years parts, 1 year labor (Free)","Legacy 3D,",No,,Assigned,,"CC Josefina - 10/2/158 4:45pm TXT
SYNC acct($5,000) under ROBERT FARSYTH. Confirmed original. ***Please charge $4,200 before delivery and sales draft signed.***10/2/18 Hitomi",FL,1,5.30,DWA-9150USJ-9150BL-DEMO,4200.00,,,6019170813162853,95015423,San Diego,36 months,0.00,,,,,,,0.00,,,,,,
"VIRGINIA STATE FAIR 9/28-10/7/18 DOSWELL, VA (IL)","VIRGINIA STATE FAIR 9/28-10/7/18 DOSWELL, VA (IL)",Abagail Stirling,109948,9/30/2018 8:11:55 AM,Larry Atkins,VA,23231,Legacy 3D,Demo Choco,Demo,1,0.00,4000.00,4000.00,Synchrony,,,"5 years parts, 1 year labor (Free)","Legacy 3D,",No,9/29/2018 12:00:00 AM,Delivered,Picked up,"Serial# 0202002181030//COnfirmed SYNC ($8,500) and original. will confirm pick up. 10/2/18 HItomi//Received pickup confirmation. 10/4/18 Hitomi",FL,1,5.30,DWA-9150USJ-9150CH-DEMO,4000.00,,,6019170813162879,95015880,San Diego,36 months,0.00,,,,,,,0.00,,,,,,
"VIRGINIA STATE FAIR 9/28-10/7/18 DOSWELL, VA (IL)","VIRGINIA STATE FAIR 9/28-10/7/18 DOSWELL, VA (IL)",Ilene Maynard,109978,10/1/2018 7:35:33 AM,Regina Depriest,VA,23237,Relax2Zero 3D,Demo Black,Demo,1,0.00,3800.00,3800.00,Synchrony,CreditCard,CreditCard,"5 years parts, 1 year labor (Free)","Relax2Zero 3D,",No,,Scheduled,,"CC Josefina - 10/2/18 5:05pm (Please call CELL #: 804-387-3585)

Confirmed SYNC acct ($2,000) and original.  $1,800 ($1,300/$500) is cleared in SQ. *** Please charge $2,000 before delivery and sales draft signed.***10/2/18 Hitomi",FL,1,5.30,DWA-9060USJ-9060BL-DEMO,2000.00,,,6019170813165690,95067642,San Diego,24 months,1300.00,pqsr,,,,,,500.00,k0bU,,,,,
"VIRGINIA STATE FAIR 9/28-10/7/18 DOSWELL, VA (IL)","VIRGINIA STATE FAIR 9/28-10/7/18 DOSWELL, VA (IL)",Abagail Stirling,109979,10/1/2018 7:47:05 AM,Urgakhnaran Rice,VA,23024,Relax2Zero 3D,Demo Choco,Demo,1,0.00,7200.00,7200.00,Synchrony,,,"5 years parts, 1 year labor (Free)","Relax2Zero 3D,Relax2Zero 3D,",YES,,Cancelled,,"Vendor; Customer picked up
Serial #0103002180734; 
Serial #0202001170641
//confirmed SYNC $8,400. will confirme pickup and chair model. 10/2/18 HItomi",Not Dispatched,1,5.30,DWA-9060USJ-9060BR-DEMO,0.00,,,6019170813166144,95075582,San Diego,36 months,0.00,,,,,,,0.00,,,,,,
"VIRGINIA STATE FAIR 9/28-10/7/18 DOSWELL, VA (IL)","VIRGINIA STATE FAIR 9/28-10/7/18 DOSWELL, VA (IL)",Abagail Stirling,109979,10/1/2018 7:47:05 AM,Urgakhnaran Rice,VA,23024,Relax2Zero 3D,Demo Black,Demo,1,0.00,7200.00,7200.00,Synchrony,,,"5 years parts, 1 year labor (Free)","Relax2Zero 3D,Relax2Zero 3D,",YES,,Cancelled,,"Vendor; Customer picked up
Serial #0103002180734; 
Serial #0202001170641
//confirmed SYNC $8,400. will confirme pickup and chair model. 10/2/18 HItomi",Not Dispatched,1,5.30,DWA-9060USJ-9060BL-DEMO,0.00,,,6019170813166144,95075582,San Diego,36 months,0.00,,,,,,,0.00,,,,,,
"VIRGINIA STATE FAIR 9/28-10/7/18 DOSWELL, VA (IL)","VIRGINIA STATE FAIR 9/28-10/7/18 DOSWELL, VA (IL)",Abagail Stirling,109980,10/1/2018 7:54:12 AM,Paul Kuster,VA,22401,Legacy 3D,New Black,New,1,0.00,4700.00,4700.00,Synchrony,,,"5 years parts, 1 year labor (Free)","Legacy 3D,",No,,Scheduled,,"CC Josefina - 10/2/18 5:10pm
Confirmed SYNC($7,200) and original. ***PLease charge $4,700 before delivery and have sales draft signed. *** 10/2/18 Hitomi",FL,1,5.30,DWA-9150USJ-9150BL,4700.00,,,6019170813167514,95093020,San Diego,36 months,0.00,,,,,,,0.00,,,,,,
"VIRGINIA STATE FAIR 9/28-10/7/18 DOSWELL, VA (IL)","VIRGINIA STATE FAIR 9/28-10/7/18 DOSWELL, VA (IL)",Ilene Maynard,109981,10/1/2018 7:58:49 AM,Kristin Aponte,VA,23836,Relax2Zero 3D,New Black,New,1,0.00,4900.00,4900.00,CreditCard,,,"5 years parts, 1 year labor (Free)","Relax2Zero 3D,",No,,Assigned,,"COnfirmed $4,900 in Square. 10/1/18 Hitomi",FL,1,5.30,DWA-9060USJ-9060BL,4900.00,Sq #PzVH,,,,,,0.00,,,,,,,0.00,,,,,,
"VIRGINIA STATE FAIR 9/28-10/7/18 DOSWELL, VA (IL)","VIRGINIA STATE FAIR 9/28-10/7/18 DOSWELL, VA (IL)",Ruben Cuatrona,109982,10/1/2018 8:06:59 AM,Natalie Fullerton,VA,23112,Legacy 3D,New Choco,New,1,0.00,4500.00,4500.00,Synchrony,COD,,"5 years parts, 1 year labor (Free)","Legacy 3D,",No,,Cancelled,,"CC Josefina - 10/2/18 5:11pm VM

Confirmed SYNC($2,000) and original. ***Please charge $2,000 before delivery and sales draft signed. COD $2,500.***10/2/18/Hitomi
10/2Maritza Customer's husband called in needing to cancel order. Informed him i would put his order on hold. He would need to have to speak with Ruben. Will wait to receive confirmation from Ruben.
10/2Confirmed cancellation with Ruben.",FL,1,5.30,DWA-9150USJ-9150CH,2000.00,,,6019170813167449,95092248,San Diego,36 months,2500.00,,,,,,,0.00,,,,,,
"VIRGINIA STATE FAIR 9/28-10/7/18 DOSWELL, VA (IL)","VIRGINIA STATE FAIR 9/28-10/7/18 DOSWELL, VA (IL)",Paul Wang,109983,10/1/2018 8:18:21 AM,Sean Dolan,VA,23111,Legacy 3D,Demo Choco,Demo,1,0.00,4400.00,4400.00,Synchrony,,,"5 years parts, 1 year labor (Free)","Legacy 3D,",No,,Scheduled,,"CC Josefina - 10/2/18 5:15pm VM
Confirmed SYNC($7,200) and original. ***Please charge $4,400 before delivery and have sales draft signed.***10/2/18 Hitomi",FL,1,5.30,DWA-9150USJ-9150CH-DEMO,4400.00,,,6019170813167472,95092338,San Diego,36 months,0.00,,,,,,,0.00,,,,,,
"VIRGINIA STATE FAIR 9/28-10/7/18 DOSWELL, VA (IL)","VIRGINIA STATE FAIR 9/28-10/7/18 DOSWELL, VA (IL)",Ruben Cuatrona,109986,10/1/2018 8:59:22 AM,Michael Bugg,VA,23831,Legacy 3D,New Choco,New,1,0.00,4900.00,4900.00,Synchrony,,,"5 years parts, 1 year labor (Free)","Legacy 3D,",No,,Scheduled,,"CC Josefina - 10/2/18 5:15pm VM
Confirmed SYNC($6,500) and original.***PLease charge $4,900 before delivery and sales draft signed. *** 10/2/18 Hitomi",FL,1,5.30,DWA-9150USJ-9150CH,4900.00,,,6019170813167597,95067770,San Diego,36 months,0.00,,,,,,,0.00,,,,,,
"VIRGINIA STATE FAIR 9/28-10/7/18 DOSWELL, VA (IL)","VIRGINIA STATE FAIR 9/28-10/7/18 DOSWELL, VA (IL)",Ruben Cuatrona,109989,10/1/2018 9:04:09 AM,William Handy,VA,23116,Legacy 3D,Demo Choco,Demo,1,0.00,4200.00,4200.00,Synchrony,,,"5 years parts, 1 year labor (Free)","Legacy 3D,",No,,Scheduled,,"CC Josefina - 10/2/18 5:20pm VM
COnfirmed SYNC ($4,200) and original. ***Please charge $4,200 before delivery and have sales draft signed.***10/2/18 Hitomi",FL,1,5.30,DWA-9150USJ-9150CH-DEMO,4200.00,,,6019170813167092,95088295,San Diego,36 months,0.00,,,,,,,0.00,,,,,,
"VIRGINIA STATE FAIR 9/28-10/7/18 DOSWELL, VA (IL)","VIRGINIA STATE FAIR 9/28-10/7/18 DOSWELL, VA (IL)",Ruben Cuatrona,110008,10/1/2018 3:26:18 PM,Brent Krawiecky,VA,23462,Pegasus,New Black,New,1,0.00,5000.00,5000.00,CreditCard,,,"5 years parts, 1 year labor (Free)","Pegasus,",No,,Scheduled,,"CC Josefina - 10/2/18 5:20pm ( Please deliver before 10/10)
COnfirmed $5,000 in Square. 10/1/18  Hitomi",FL,1,5.30,DWA-9400Pegasus-BL,5000.00,Sq# 76qz,,,,,,0.00,,,,,,,0.00,,,,,,
"VIRGINIA STATE FAIR 9/28-10/7/18 DOSWELL, VA (IL)","VIRGINIA STATE FAIR 9/28-10/7/18 DOSWELL, VA (IL)",Abagail Stirling,110016,10/1/2018 5:25:41 PM,Rachelle Needre,VA,23089,Legacy 3D,Demo Choco,Demo,1,0.00,4200.00,4200.00,Synchrony,,,"5 years parts, 1 year labor (Free)","Legacy 3D,",No,,Assigned,,"CC Josefina - 10/4/18 10:00am VM

Confirmed SYNC($7,200). Per. Ruben, customer signed synchrony application form but not sales receipt.***Please charge $4,200 before delivery and have SALES RECEIPT and SALES DRAFT signed. ***10/2/18 Hitomi",FL,1,5.30,DWA-9150USJ-9150CH-DEMO,4200.00,,,6019170813169023,95136430,San Diego,36 months,0.00,,,,,,,0.00,,,,,,
"VIRGINIA STATE FAIR 9/28-10/7/18 DOSWELL, VA (IL)","VIRGINIA STATE FAIR 9/28-10/7/18 DOSWELL, VA (IL)",Ruben Cuatrona,110017,10/2/2018 7:28:11 AM,Scottie Lowe,VA,24202,Pegasus,Demo Choco,Demo,1,0.00,4800.00,4800.00,CreditCard,,,"5 years parts, 1 year labor (Free)","Pegasus,",No,,Scheduled,,"CC Josefina - 10/2/18 5:25pm
Confirmed $4,800 in Square. 10/2/18 Hitomi",FL,1,5.30,DWA-9400Pegasus-BR-DEMO,4800.00,Sq# DGfE,,,,,,0.00,,,,,,,0.00,,,,,,
"VIRGINIA STATE FAIR 9/28-10/7/18 DOSWELL, VA (IL)","VIRGINIA STATE FAIR 9/28-10/7/18 DOSWELL, VA (IL)",Abagail Stirling,110019,10/2/2018 12:15:05 PM,Andy Scott,VA,22407,Legacy 3D,New Choco,New,1,0.00,4000.00,4000.00,CreditCard,,,"5 years parts, 1 year labor (Free)","Legacy 3D,",No,,Scheduled,,"CC Josefina - 10/4/18 10:00am 

Confirmed $4,000 in Square. 10/2/18 Hitomi",FL,1,5.30,DWA-9150USJ-9150CH,4000.00,Sq# kHHB,,,,,,0.00,,,,,,,0.00,,,,,,
"VIRGINIA STATE FAIR 9/28-10/7/18 DOSWELL, VA (IL)","VIRGINIA STATE FAIR 9/28-10/7/18 DOSWELL, VA (IL)",Abagail Stirling,110030,10/2/2018 4:07:12 PM,Cory Moran,VA,23112,Relax2Zero 3D,Demo Black,Demo,1,0.00,3500.00,3500.00,CreditCard,,,"5 years parts, 1 year labor (Free)","Relax2Zero 3D,",YES,10/2/2018 12:00:00 AM,Delivered,Cust. Pick up,"Serial #0103001180567//Confirmed $3,500 in Square. received pickup confirmation. 10/2/18 Hitomi",FL,1,5.30,DWA-9060USJ-9060BL-DEMO,3500.00,Sq# 2JTh,,,,,,0.00,,,,,,,0.00,,,,,,
"VIRGINIA STATE FAIR 9/28-10/7/18 DOSWELL, VA (IL)","VIRGINIA STATE FAIR 9/28-10/7/18 DOSWELL, VA (IL)",Paul Wang,110031,10/2/2018 5:18:35 PM,Hung Nguyen,VA,23229,Legacy 3D,New Choco,New,1,0.00,3800.00,3800.00,CreditCard,,,"5 years parts, 1 year labor (Free)","Legacy 3D,",No,,Scheduled,,"CC Josefina - 10/4/18 10:10am 
COnfirmed $3,800 in Square. 10/2/18 Hitomi",FL,1,5.30,DWA-9150USJ-9150CH,3800.00,Sq# 4KfQ,,,,,,0.00,,,,,,,0.00,,,,,,
"VIRGINIA STATE FAIR 9/28-10/7/18 DOSWELL, VA (IL)","VIRGINIA STATE FAIR 9/28-10/7/18 DOSWELL, VA (IL)",Paul Wang,110033,10/3/2018 12:13:11 PM,Greg Buckley,VA,23059,Legacy 3D,New Choco,New,1,0.00,4500.00,4500.00,CreditCard,,,"5 years parts, 1 year labor (Free)","Legacy 3D,",No,,Scheduled,,"CC Josefina - 10/4/18 10:15am 

Confirmed $4,500 in Square.  10/3/18 Hitomi",FL,1,5.30,DWA-9150USJ-9150CH,4500.00,Sq# fecj,,,,,,0.00,,,,,,,0.00,,,,,,
"VIRGINIA STATE FAIR 9/28-10/7/18 DOSWELL, VA (IL)","VIRGINIA STATE FAIR 9/28-10/7/18 DOSWELL, VA (IL)",Ilene Maynard,110034,10/3/2018 12:25:58 PM,Christopher & Bonita Earls,VA,23944,Relax2Zero 3D,New Black,New,1,0.00,4500.00,4500.00,Synchrony,,,"5 years parts, 1 year labor (Free)","Relax2Zero 3D,",No,,Assigned,,"CC Josefina - 10/4/18 10:17am
Confirmed Synch($6,500) and original.***Please charge $4,500 before delivery and have sales draft signed.***10/3/18 Hitomi",FL,1,5.30,DWA-9060USJ-9060BL,4500.00,,,6019170813171003,95208926,San Diego,36 months,0.00,,,,,,,0.00,,,,,,
"VIRGINIA STATE FAIR 9/28-10/7/18 DOSWELL, VA (IL)","VIRGINIA STATE FAIR 9/28-10/7/18 DOSWELL, VA (IL)",Ilene Maynard,110038,10/3/2018 2:26:59 PM,Jim Spiess,VA,22503,Legacy 3D,New Black,New,1,0.00,4900.00,4900.00,CreditCard,Synchrony,,"5 years parts, 1 year labor (Free)","Legacy 3D,",No,,Scheduled,,"CC Josefina - 10/4/18 10:10am 
COnfirmed $2,900 in Square. Sync($2,000) under JAMES SPIESS and original. ***Please charge $2,000 before delivery and have sales draft signed. *** 10/3/18 Hitomi",FL,1,5.30,DWA-9150USJ-9150BL,2900.00,Sq# 1Czl,,,,,,2000.00,,,6019170813171250,95216131,San Diego,24 months,0.00,,,,,,
"VIRGINIA STATE FAIR 9/28-10/7/18 DOSWELL, VA (IL)","VIRGINIA STATE FAIR 9/28-10/7/18 DOSWELL, VA (IL)",Abagail Stirling,110056,10/4/2018 10:38:01 AM,Urgakhnaran Rice,VA,23024,Relax2Zero 3D,Demo Choco,Demo,1,0.00,7200.00,7200.00,Synchrony,,,"5 years parts, 1 year labor (Free)","Relax2Zero 3D,Legacy 3D,",YES,9/30/2018 12:00:00 AM,Delivered,"DEMO LEGACY 3D $3,600/DEMO RELAX 2 ZREO 2.0 $3,600","*CORRECTION FOR 109979 *
Vendor; Customer picked up
Serial #0103002180734; 
Serial #0202001170641
//confirmed SYNC $8,400. will confirme pickup and chair model. 10/2/18 HItomi//Confirmed pickup confirmation. 10/4/18 Hitomi",FL,1,5.30,DWA-9060USJ-9060BR-DEMO,7200.00,,,6019170813166144,95075582,San Diego,36 months,0.00,,,,,,,0.00,,,,,,
"VIRGINIA STATE FAIR 9/28-10/7/18 DOSWELL, VA (IL)","VIRGINIA STATE FAIR 9/28-10/7/18 DOSWELL, VA (IL)",Abagail Stirling,110056,10/4/2018 10:38:01 AM,Urgakhnaran Rice,VA,23024,Legacy 3D,Demo Black,Demo,1,0.00,7200.00,7200.00,Synchrony,,,"5 years parts, 1 year labor (Free)","Relax2Zero 3D,Legacy 3D,",YES,9/30/2018 12:00:00 AM,Delivered,"DEMO LEGACY 3D $3,600/DEMO RELAX 2 ZREO 2.0 $3,600","*CORRECTION FOR 109979 *
Vendor; Customer picked up
Serial #0103002180734; 
Serial #0202001170641
//confirmed SYNC $8,400. will confirme pickup and chair model. 10/2/18 HItomi//Confirmed pickup confirmation. 10/4/18 Hitomi",FL,1,5.30,DWA-9150USJ-9150BL-DEMO,7200.00,,,6019170813166144,95075582,San Diego,36 months,0.00,,,,,,,0.00,,,,,,
"VIRGINIA STATE FAIR 9/28-10/7/18 DOSWELL, VA (IL)","VIRGINIA STATE FAIR 9/28-10/7/18 DOSWELL, VA (IL)",Ruben Cuatrona,110059,10/4/2018 1:57:35 PM,Joy Morrison,VA,23188,Pegasus,New Choco,New,1,0.00,5600.00,5600.00,Synchrony,,,"5 years parts, 1 year labor (Free)","Pegasus,",No,,Scheduled,,"COnfirmed SYNC($7,200) and original.***Please charge $5,600 before delivery and have sales draft signed.***10/4/18 Hitomi",FL,1,5.30,DWA-9400Pegasus-BR,5600.00,,,6019170813172257,95253306,San Diego,48 months,0.00,,,,,,,0.00,,,,,,
"VIRGINIA STATE FAIR 9/28-10/7/18 DOSWELL, VA (IL)","VIRGINIA STATE FAIR 9/28-10/7/18 DOSWELL, VA (IL)",Abagail Stirling,110060,10/4/2018 2:03:11 PM,Janet Ballard,VA,23832,Legacy 3D,Demo Black,Demo,1,0.00,4200.00,4200.00,Synchrony,,,"5 years parts, 1 year labor (Free)","Legacy 3D,",No,,Scheduled,,"Confirmed SYNC($8,500) and original.***Please charge $4,200 before delivery and sales draft signed.***10/4/18 Hitomi",FL,1,5.30,DWA-9150USJ-9150BL-DEMO,4200.00,,,6019170813172373,95253604,San Diego,36 months,0.00,,,,,,,0.00,,,,,,
"VIRGINIA STATE FAIR 9/28-10/7/18 DOSWELL, VA (IL)","VIRGINIA STATE FAIR 9/28-10/7/18 DOSWELL, VA (IL)",Ilene Maynard,110061,10/4/2018 2:09:29 PM,Dorothy Hites,VA,23047,Relax2Zero 3D,Demo Black,Demo,1,0.00,4200.00,4200.00,Synchrony,,,"5 years parts, 1 year labor (Free)","Relax2Zero 3D,",No,,Assigned,,"Confirmed SYNC($5,100) and original.***Please charge $4,200 before delivery and sales draft signed.***10/4/18 Hitomi",FL,1,5.30,DWA-9060USJ-9060BL-DEMO,4200.00,,,6019170813172381,95253851,San Diego,36 months,0.00,,,,,,,0.00,,,,,,
"VIRGINIA STATE FAIR 9/28-10/7/18 DOSWELL, VA (IL)","VIRGINIA STATE FAIR 9/28-10/7/18 DOSWELL, VA (IL)",Abagail Stirling,110062,10/4/2018 2:15:06 PM,Melvin Bond,VA,23075,Relax2Zero 3D,New Choco,New,1,0.00,4200.00,4200.00,Synchrony,,,"5 years parts, 1 year labor (Free)","Relax2Zero 3D,",No,,Scheduled,,"Confirmed SYNC($8,500) and original.***Please charge $4,200 before delivery and have sales draft signed.***10/4/18 Hitomi",FL,1,5.30,DWA-9060USJ-9060BR,4200.00,,,6019170813172548,95257302,San Diego,36 months,0.00,,,,,,,0.00,,,,,,
"VIRGINIA STATE FAIR 9/28-10/7/18 DOSWELL, VA (IL)","VIRGINIA STATE FAIR 9/28-10/7/18 DOSWELL, VA (IL)",Ruben Cuatrona,110063,10/4/2018 2:31:52 PM,Randall Wegener,CA,92028,Relax2Zero 1.0,New Brown,New,1,0.00,3000.00,3000.00,CreditCard,,,"5 years parts, 1 year labor (Free)","Relax2Zero 1.0,",No,,Called,,"Deliver ASAP
10/4Maritza Confirmed 3000 on square.
10/4 Tried to call but phone number doesn't go through. Text doesn't send either. Email sent but as of 10/5 no response. Will contact Ruben.
Ruben said doctor will call him with the customers information. Just waiting on that call.",CA,1,5.30,USJ-9000USJ-9000BR,3000.00,Sq #4rfb,,,,,,0.00,,,,,,,0.00,,,,,,
"VIRGINIA STATE FAIR 9/28-10/7/18 DOSWELL, VA (IL)","VIRGINIA STATE FAIR 9/28-10/7/18 DOSWELL, VA (IL)",Abagail Stirling,110076,10/5/2018 7:50:01 AM,Beverly Pugh,PA,19050,Legacy,New Black,New,1,0.00,3000.00,3000.00,CreditCard,COD,,"5 years parts, 1 year labor (Free)","Legacy,",No,,Hold,,"Balance is on layaway.  Customer will call to set up payments.
//Confirmed $50 in Square. will hold until customer advise downpayment. will confirm LAYAWAY form 10/5/18 Hitomi",TX,1,5.30,DWA-9100DWA-9100BL,50.00,Sq# cMRa,,,,,,0.00,,,,,,,0.00,,,,,,
"VIRGINIA STATE FAIR 9/28-10/7/18 DOSWELL, VA (IL)","VIRGINIA STATE FAIR 9/28-10/7/18 DOSWELL, VA (IL)",Abagail Stirling,110077,10/5/2018 7:57:09 AM,Abigayl Lai,VA,22556,Legacy 3D,New Choco,New,1,0.00,4700.00,4700.00,Synchrony,,,"5 years parts, 1 year labor (Free)","Legacy 3D,",No,,Scheduled,,"Confirmed SYNC($4,700) and original.***Please charge $4,700 before delivery and have sales draft signed.***10/5/18 Hitomi",FL,1,5.30,DWA-9150USJ-9150CH,4700.00,,,6019170813173025,95242694,San Diego,36 months,0.00,,,,,,,0.00,,,,,,
"VIRGINIA STATE FAIR 9/28-10/7/18 DOSWELL, VA (IL)","VIRGINIA STATE FAIR 9/28-10/7/18 DOSWELL, VA (IL)",Darryl Garrett,110078,10/5/2018 8:58:14 AM,Ray Polcha,VA,22405,Relax2Zero 3D,Demo Choco,Demo,1,0.00,4200.00,4200.00,CreditCard,,,"5 years parts, 1 year labor (Free)","Relax2Zero 3D,",No,,Scheduled,"Serial #0103002180752
Deliver this chair to customer","Confirmed $4,200 in Square. 10/5/18 Hitomi",FL,1,5.30,DWA-9060USJ-9060BR-DEMO,4200.00,Sq# F6Dg,,,,,,0.00,,,,,,,0.00,,,,,,
"VIRGINIA STATE FAIR 9/28-10/7/18 DOSWELL, VA (IL)","VIRGINIA STATE FAIR 9/28-10/7/18 DOSWELL, VA (IL)",Ruben Cuatrona,110081,10/5/2018 10:38:53 AM,John Landrum,VA,23231,Pegasus,Demo Black,Demo,1,0.00,5000.00,5000.00,CreditCard,COD,,"5 years parts, 1 year labor (Free)","Pegasus,",No,,Scheduled,Please deliver BEFORE 10:00 am!,"Confirmed $100 in Square. COD $4,900. 10/5/18 Hitomi",FL,1,5.30,DWA-9400Pegasus-BL-DEMO,100.00,Sq# 59FC,,,,,,4900.00,,,,,,,0.00,,,,,,
"VIRGINIA STATE FAIR 9/28-10/7/18 DOSWELL, VA (IL)","VIRGINIA STATE FAIR 9/28-10/7/18 DOSWELL, VA (IL)",Ruben Cuatrona,110083,10/5/2018 11:46:11 AM,MaryAnne Sullivan,VA,22408,Relax2Zero 3D,Demo Black,Demo,1,0.00,4000.00,4000.00,CreditCard,COD,,"5 years parts, 1 year labor (Free)","Relax2Zero 3D,",No,,Scheduled,Balance due COD $3800.00,"Serial #0103001170174//Confirmed $200 in Square, COD $3,800. 10/5/18 Hitomi",FL,1,5.30,DWA-9060USJ-9060BL-DEMO,200.00,Sq# 5Zpi,,,,,,0.00,,,,,,,0.00,,,,,,
"VIRGINIA STATE FAIR 9/28-10/7/18 DOSWELL, VA (IL)","VIRGINIA STATE FAIR 9/28-10/7/18 DOSWELL, VA (IL)",Ilene Maynard,110090,10/5/2018 2:51:58 PM,Robert Bryant,VA,23113,Relax2Zero 3D,New Choco,New,1,0.00,4900.00,4900.00,Synchrony,,,"5 years parts, 1 year labor (Free)","Relax2Zero 3D,",No,,Paid,,"Confirmed SYNC ($8,500) and original.***Please charge $4,900 before delivery and sales draft signed.***10/8/18 Hitomi",FL,1,5.30,DWA-9060USJ-9060BR,4900.00,,,6019170813173975,95299637,San Diego,36 months,0.00,,,,,,,0.00,,,,,,
"VIRGINIA STATE FAIR 9/28-10/7/18 DOSWELL, VA (IL)","VIRGINIA STATE FAIR 9/28-10/7/18 DOSWELL, VA (IL)",Ruben Cuatrona,110091,10/5/2018 2:58:27 PM,Steven Franklin,VA,24504,Pegasus,Demo Choco,Demo,1,0.00,5200.00,5200.00,Synchrony,,,"5 years parts, 1 year labor (Free)","Pegasus,",No,,Scheduled,,"Confirmed SYNC($8,500) and original. ***Please charge $5,200 before delivery and sales draft signed.*** 10/8/18 Hitomi",FL,1,5.30,DWA-9400Pegasus-BR-DEMO,5200.00,,,6019170813173967,95299432,San Diego,36 months,0.00,,,,,,,0.00,,,,,,
"VIRGINIA STATE FAIR 9/28-10/7/18 DOSWELL, VA (IL)","VIRGINIA STATE FAIR 9/28-10/7/18 DOSWELL, VA (IL)",Ilene Maynard,110092,10/5/2018 3:02:32 PM,Austin Smith,VA,22554,Relax2Zero 3D,New Black,New,1,0.00,4700.00,4700.00,CreditCard,,,"5 years parts, 1 year labor (Free)","Relax2Zero 3D,",No,,Paid,,"10/8Maritza-Confirmed 4700 on square.
10/8Maritza-Courtesy call made @ 10:34AM (If he doesn't pick up please leave a voicemail and text message. He will get back to you asap)",FL,1,5.30,DWA-9060USJ-9060BL,4700.00,Sq# yrEf,,,,,,0.00,,,,,,,0.00,,,,,,
"VIRGINIA STATE FAIR 9/28-10/7/18 DOSWELL, VA (IL)","VIRGINIA STATE FAIR 9/28-10/7/18 DOSWELL, VA (IL)",Ruben Cuatrona,110093,10/5/2018 3:28:53 PM,Debra Desanto,VA,22508,Legacy 3D,Demo Black,Demo,1,0.00,4200.00,4200.00,CreditCard,,,"5 years parts, 1 year labor (Free)","Legacy 3D,",No,,Scheduled,,"Serial #0202001170588
Deliver monday/tuesday - THIS chair.
//Confirmed $4,200 in Square. 10/5/18 Hitomi",FL,1,5.30,DWA-9150USJ-9150BL-DEMO,4200.00,Sq# d4Vr,,,,,,0.00,,,,,,,0.00,,,,,,
"VIRGINIA STATE FAIR 9/28-10/7/18 DOSWELL, VA (IL)","VIRGINIA STATE FAIR 9/28-10/7/18 DOSWELL, VA (IL)",Abagail Stirling,110112,10/7/2018 7:39:31 AM,Michael & Kimberly Burkholder,VA,22485,Legacy 3D,New Choco,New,1,0.00,4200.00,4200.00,Synchrony,,,"5 years parts, 1 year labor (Free)","Legacy 3D,",No,,Paid,,"Confirmed SYNC($8,500) under MICHAEL BUCKHOLDER and original. *** PLease charge $4,200 before delivery and sales draft signed.*** 10/8/18 Hitomi",FL,1,5.30,DWA-9150USJ-9150CH,4200.00,,,6019170813176721,95354514,San Diego,36 months,0.00,,,,,,,0.00,,,,,,
"VIRGINIA STATE FAIR 9/28-10/7/18 DOSWELL, VA (IL)","VIRGINIA STATE FAIR 9/28-10/7/18 DOSWELL, VA (IL)",Ilene Maynard,110113,10/7/2018 7:45:38 AM,Sandra Dean,VA,23805,Legacy 3D,New Choco,New,1,0.00,4700.00,4700.00,Synchrony,,,"5 years parts, 1 year labor (Free)","Legacy 3D,",No,,Paid,,"Confirmed SYNC($8,500) and original.***Please charge $4,700 before delivery and sales draft signed.*** 10/8/18 Hitomi",FL,1,5.30,DWA-9150USJ-9150CH,4700.00,,,6019170813176846,95356446,San Diego,36 months,0.00,,,,,,,0.00,,,,,,
"VIRGINIA STATE FAIR 9/28-10/7/18 DOSWELL, VA (IL)","VIRGINIA STATE FAIR 9/28-10/7/18 DOSWELL, VA (IL)",Ilene Maynard,110114,10/7/2018 7:49:40 AM,Joseph Adams,VA,23834,Relax2Zero 3D,New Choco,New,1,0.00,4500.00,4500.00,Synchrony,,,"5 years parts, 1 year labor (Free)","Relax2Zero 3D,",No,,Paid,,"Confirmed SYNC($5,400) and original. ***Please charge $4,500 before delivery and sales draft signed.***10/8/18 Hitomi",FL,1,5.30,DWA-9060USJ-9060BR,4500.00,,,6019170813176713,95354278,San Diego,36 months,0.00,,,,,,,0.00,,,,,,
"VIRGINIA STATE FAIR 9/28-10/7/18 DOSWELL, VA (IL)","VIRGINIA STATE FAIR 9/28-10/7/18 DOSWELL, VA (IL)",Ruben Cuatrona,110115,10/7/2018 7:53:47 AM,Cindy Carr,VA,22802,Pegasus,New Black,New,1,0.00,5400.00,5400.00,CreditCard,,,"5 years parts, 1 year labor (Free)","Pegasus,",No,,Paid,,"Confirmed $5,400 in Square. 10/8/18 Hitomi",FL,1,5.30,DWA-9400Pegasus-BL,5400.00,Sq# JHJS,,,,,,0.00,,,,,,,0.00,,,,,,
"VIRGINIA STATE FAIR 9/28-10/7/18 DOSWELL, VA (IL)","VIRGINIA STATE FAIR 9/28-10/7/18 DOSWELL, VA (IL)",Abagail Stirling,110117,10/7/2018 8:05:33 AM,Patty Rogers,VA,23005,Legacy 3D,New Choco,New,1,0.00,4300.00,4300.00,Synchrony,,,"5 years parts, 1 year labor (Free)","Legacy 3D,",No,,Paid,,"Confirmed SYNC($5,100) and original. ***Please charge $4,300 before delivery and sales draft signed. *** 10/8/18 Hitomi",FL,1,5.30,DWA-9150USJ-9150CH,4300.00,,,6019170813170955,95206920,San Diego,36 months,0.00,,,,,,,0.00,,,,,,
"VIRGINIA STATE FAIR 9/28-10/7/18 DOSWELL, VA (IL)","VIRGINIA STATE FAIR 9/28-10/7/18 DOSWELL, VA (IL)",Abagail Stirling,110120,10/7/2018 8:10:27 AM,Kirk Kershaw,VA,23113,Legacy 3D,Demo Black,Demo,1,0.00,4000.00,4000.00,Synchrony,,,"5 years parts, 1 year labor (Free)","Legacy 3D,",No,,Scheduled,,"Deliver Serial#0202001170655//Confirmed SYNC($6,500) and original. ***Please charge $4,000 before delivery and sales draft signed.*** 10/8/18 Hitomi",FL,1,5.30,DWA-9150USJ-9150BL-DEMO,4000.00,,,6019170813176903,95356960,San Diego,36 months,0.00,,,,,,,0.00,,,,,,
"VIRGINIA STATE FAIR 9/28-10/7/18 DOSWELL, VA (IL)","VIRGINIA STATE FAIR 9/28-10/7/18 DOSWELL, VA (IL)",Paul Wang,110121,10/7/2018 8:14:45 AM,Randy McDonald,VA,23120,Legacy 3D,Demo Choco,Demo,1,0.00,4200.00,4200.00,Synchrony,,,"5 years parts, 1 year labor (Free)","Legacy 3D,",No,,Assigned,,"Confirmed SYNC($8,500) under RANDY MCDONALD. sales receipt was signed by wife.  ***PLEASE MAKE SURE TO HAVE RANDY TO SIGN ON SALES DRAFT***10/8/18 Hitomi",FL,1,5.30,DWA-9150USJ-9150CH-DEMO,4200.00,,,6019170813176911,95357240,San Diego,36 months,0.00,,,,,,,0.00,,,,,,
"VIRGINIA STATE FAIR 9/28-10/7/18 DOSWELL, VA (IL)","VIRGINIA STATE FAIR 9/28-10/7/18 DOSWELL, VA (IL)",Ilene Maynard,110122,10/7/2018 8:19:13 AM,Corydon Wright,VA,23065,Relax2Zero 3D,New Choco,New,1,0.00,4500.00,4500.00,Synchrony,,,"5 years parts, 1 year labor (Free)","Relax2Zero 3D,",No,,Paid,,"COnfirmed SYNC($8,500) and original. ***Please charge $4,500 before delivery and sales draft signed.***10/8/18 Hitomi",FL,1,5.30,DWA-9060USJ-9060BR,4500.00,,,6019170813176945,95357513,San Diego,36 months,0.00,,,,,,,0.00,,,,,,
"VIRGINIA STATE FAIR 9/28-10/7/18 DOSWELL, VA (IL)","VIRGINIA STATE FAIR 9/28-10/7/18 DOSWELL, VA (IL)",Abagail Stirling,110125,10/7/2018 8:24:53 AM,Natasha Wiley,VA,23958,Legacy 3D,New Choco,New,1,0.00,4500.00,4500.00,Synchrony,,,"5 years parts, 1 year labor (Free)","Legacy 3D,",No,,Paid,,"COnfirmed SYNC($5,400) and original. ***Please charge $4,500 before delivery and sales draft signed.*** 10/8/18 Hitomi",FL,1,5.30,DWA-9150USJ-9150CH,4500.00,,,6019170813177364,95366929,San Diego,36 months,0.00,,,,,,,0.00,,,,,,
"VIRGINIA STATE FAIR 9/28-10/7/18 DOSWELL, VA (IL)","VIRGINIA STATE FAIR 9/28-10/7/18 DOSWELL, VA (IL)",Darryl Garrett,110126,10/7/2018 8:29:11 AM,Christine Kerns,VA,22407,Legacy 3D,New Black,New,1,0.00,4900.00,4900.00,Synchrony,,,"5 years parts, 1 year labor (Free)","Legacy 3D,",No,,Paid,,"COnfirmed SYNC under ($6,000) CHRISTINE KEARNS, ***Please charge $4,900 before delivery and sales draft signed.*** 10/8/18 Hitomi",FL,1,5.30,DWA-9150USJ-9150BL,4900.00,,,6019170813177372,95366984,San Diego,36 months,0.00,,,,,,,0.00,,,,,,
"VIRGINIA STATE FAIR 9/28-10/7/18 DOSWELL, VA (IL)","VIRGINIA STATE FAIR 9/28-10/7/18 DOSWELL, VA (IL)",Paul Wang,110156,10/7/2018 6:08:42 PM,Sophia Liu,VA,23233,Legacy 3D,New Black,New,1,0.00,4000.00,4000.00,CreditCard,,,"5 years parts, 1 year labor (Free)","Legacy 3D,",No,,Paid,,"Confirmed $4,000 in Square. 10/8/18 Hitomi",FL,1,5.30,DWA-9150USJ-9150BL,4000.00,Sq# ev1k,,,,,,0.00,,,,,,,0.00,,,,,,
"VIRGINIA STATE FAIR 9/28-10/7/18 DOSWELL, VA (IL)","VIRGINIA STATE FAIR 9/28-10/7/18 DOSWELL, VA (IL)",Ilene Maynard,110158,10/7/2018 6:12:52 PM,Kenneth Moses,VA,23059,Relax2Zero 3D,New Choco,New,1,0.00,4700.00,4700.00,Synchrony,,,"5 years parts, 1 year labor (Free)","Relax2Zero 3D,",No,,New,,,Not Dispatched,1,5.30,DWA-9060USJ-9060BR,4700.00,,,6019170813179162,95395713,San Diego,36 months,0.00,,,,,,,0.00,,,,,,
"VIRGINIA STATE FAIR 9/28-10/7/18 DOSWELL, VA (IL)","VIRGINIA STATE FAIR 9/28-10/7/18 DOSWELL, VA (IL)",Ruben Cuatrona,110159,10/7/2018 6:18:08 PM,Misti Belle Migliore,VA,23111,Legacy 3D,New Choco,New,1,0.00,4800.00,4800.00,Synchrony,,,"5 years parts, 1 year labor (Free)","Legacy 3D,",No,,New,,,Not Dispatched,1,5.30,DWA-9150USJ-9150CH,4800.00,,,6019170813179139,95395266,San Diego,48 months,0.00,,,,,,,0.00,,,,,,
