﻿Order Number,Order Date,Original Event Name,Event Name,Salesperson,SKU,Product Name,Color,QTY,Warranty,Payment Details,Tax,Order Total,Gross,Primary Payment Method,Primary Payment Balance,Primary Authorize Number,Primary Purchase Order Number,Primary Synchrony Account Number,Primary Synchrony Application Key,Primary Synchrony AccountInfo,Primary SynchronyTerm,Secondly Payment Method,Secondly Payment Balance,Secondly Authorize Number,Secondly Purchase Order Number,Secondly Synchrony Account Number,Secondly Synchrony Application Key,Secondly Synchrony AccountInfo,Secondly SynchronyTerm,Thirdly Payment Method,Thirdly Payment Balance,Thirdly Authorize Number,Thirdly Purchase Order Number,Thirdly Synchrony Account Number,Thirdly Synchrony Application Key,Thirdly Synchrony AccountInfo,Thirdly SynchronyTerm,Actual Shipping Cost,CustomerName,Shipping Address,Delivered On,Serial Number (TO Be),Note,Branch,IsNoTax,ActualTaxRate
104421,3/12/2018 5:55:52 AM,Orlando Home Show 3/10-3/11,Orlando Home Show 3/10-3/11,Mitch Valdes,DWA-9100DWA-9100CH-DEMO,Legacy,Demo Beige,1,"3 years parts, 1 year labor (Free)",CUSTOM ,149.53,3200.00,3200.00,CreditCard,3200.00,88b5,,,,,,,0.00,,,,,,,,0.00,,,,,,,0.00,Elizabeth Dquendo,4072305530,3/11/2018 12:00:00 AM,,,FL,0,6.50
104422,3/12/2018 6:08:04 AM,Orlando Home Show 3/10-3/11,Orlando Home Show 3/10-3/11,Mitch Valdes,DWA-9100DWA-9100CH,Legacy,New Beige,1,"3 years parts, 1 year labor (Free)",CUSTOM ,198.36,4000.00,4000.00,CreditCard,4000.00,3llm,,,,,,,0.00,,,,,,,,0.00,,,,,,,0.00,Hildegarde Jones,407-671-7712,3/21/2018 12:00:00 AM,,"White glove; 3 year parts, 1 year labor warranty",FL,0,6.50
104423,3/12/2018 6:13:06 AM,Orlando Home Show 3/10-3/11,Orlando Home Show 3/10-3/11,Mitch Valdes,DWA-9100DWA-9100CH,Legacy,New Beige,1,"3 years parts, 1 year labor (Free)",CUSTOM ,198.36,4000.00,4000.00,CreditCard,4000.00,7qvx,,,,,,,0.00,,,,,,,,0.00,,,,,,,0.00,Dan McGowin,407-310-0593,3/28/2018 12:00:00 AM,,,FL,0,6.50
104424,3/12/2018 6:18:52 AM,Orlando Home Show 3/10-3/11,Orlando Home Show 3/10-3/11,Mitch Valdes,DWA-9150USJ-9150CH,Legacy 3D,New Choco,1,"3 years parts, 1 year labor (Free)",CUSTOM ,167.84,3500.00,3500.00,CreditCard,3500.00,dbSu,,,,,,,0.00,,,,,,,,0.00,,,,,,,0.00,Amy Tseng,407-973-3231,3/14/2018 12:00:00 AM,,,FL,0,6.50
104425,3/12/2018 6:24:31 AM,Orlando Home Show 3/10-3/11,Orlando Home Show 3/10-3/11,Mitch Valdes,DWA-9100DWA-9100BU,Legacy,New Choco,1,"3 years parts, 1 year labor (Free)",CUSTOM ,155.63,3300.00,3300.00,CreditCard,3300.00,IYQy,,,,,,,0.00,,,,,,,,0.00,,,,,,,0.00,Janell Gargano,407-408-2423,3/14/2018 12:00:00 AM,,"White glove delivery; 3 yr parts, 1 yr labor warranty",FL,0,6.50
104426,3/12/2018 6:40:38 AM,Orlando Home Show 3/10-3/11,Orlando Home Show 3/10-3/11,Mitch Valdes,DWA-9150USJ-9150BL-DEMO,Legacy 3D,Demo Black,1,"3 years parts, 1 year labor (Free)",CUSTOM ,167.84,3500.00,3500.00,Synchrony,3500.00,,,6034610083152184,86111583,Huston,24 months,,0.00,,,,,,,,0.00,,,,,,,0.00,Francis Kibuiya,407-575-0812,,,"Synchrony 0% APR 24 months
Warranty 3 yrs parts, 1 yr labor",Not Dispatched,0,6.50
104427,3/12/2018 6:44:59 AM,Orlando Home Show 3/10-3/11,Orlando Home Show 3/10-3/11,Jonathan Bhowani,DWA-9150USJ-9150BL-DEMO,Legacy 3D,Demo Black,1,"3 years parts, 1 year labor (Free)",CUSTOM ,167.84,3500.00,3500.00,Synchrony,3500.00,,,6034610083152184,86111583,Huston,24 months,,0.00,,,,,,,,0.00,,,,,,,0.00,Francis Kibuiya,407-575-0812,,,"Synchrony 0% APR 24 months
Warranty 3 yr parts, 1 yr labor",FL,0,6.50
104429,3/12/2018 7:16:41 AM,Orlando Home Show 3/10-3/11,Orlando Home Show 3/10-3/11,Jonathan Bhowani,DWA-9150USJ-9150CH-DEMO,Legacy 3D,Demo Choco,1,"3 years parts, 1 year labor (Free)",CUSTOM ,195.52,4153.50,4153.50,CreditCard,4153.50,KAlf,,,,,,,0.00,,,,,,,,0.00,,,,,,,0.00,Luis Guzman,732-433-5390,3/12/2018 12:00:00 AM,,"White glove, 2nd floor delivery",FL,0,6.50
104434,3/12/2018 7:39:33 AM,Orlando Home Show 3/10-3/11,Orlando Home Show 3/10-3/11,Mitch Valdes,DWA-9100DWA-9100CH,Legacy,New Beige,1,"3 years parts, 1 year labor (Free)",CUSTOM ,173.94,3600.00,3600.00,CreditCard,3600.00,5hoF,,,,,,,0.00,,,,,,,,0.00,,,,,,,0.00,Francine Murphy,709-640-1883,3/12/2018 12:00:00 AM,,"Paid in full, White glove delivery
Warranty 3 yrs parts, 1 yr labor",FL,0,6.50
104434,3/12/2018 7:39:33 AM,Orlando Home Show 3/10-3/11,Orlando Home Show 3/10-3/11,Mitch Valdes,,Chair Pad for Legacy,,1,No Warranty,CUSTOM ,173.94,3600.00,3600.00,CreditCard,3600.00,5hoF,,,,,,,0.00,,,,,,,,0.00,,,,,,,0.00,Francine Murphy,709-640-1883,3/12/2018 12:00:00 AM,,"Paid in full, White glove delivery
Warranty 3 yrs parts, 1 yr labor",FL,0,6.50
104434,3/12/2018 7:39:33 AM,Orlando Home Show 3/10-3/11,Orlando Home Show 3/10-3/11,Mitch Valdes,,Foot Pads for Legacy,,1,No Warranty,CUSTOM ,173.94,3600.00,3600.00,CreditCard,3600.00,5hoF,,,,,,,0.00,,,,,,,,0.00,,,,,,,0.00,Francine Murphy,709-640-1883,3/12/2018 12:00:00 AM,,"Paid in full, White glove delivery
Warranty 3 yrs parts, 1 yr labor",FL,0,6.50
104439,3/12/2018 8:00:06 AM,Orlando Home Show 3/10-3/11,Orlando Home Show 3/10-3/11,Jonathan Bhowani,DWA-9150USJ-9150CH,Legacy 3D,New Choco,1,"3 years parts, 1 year labor (Free)",CUSTOM ,228.87,4500.00,4500.00,Synchrony,4500.00,,,6034610083152119,86110964,Huston,12 months,,0.00,,,,,,,,0.00,,,,,,,0.00,Roya Beyk,407-463-0607,3/21/2018 12:00:00 AM,,"Synchrony 0% APR 12 months
Warranty 3 yrs parts, 1 yr labor in home service",FL,0,6.50
