﻿Order Number,Order Date,Event Name,Salesperson,SKU,Product Name,Color,QTY,Warranty,Payment Details,Tax,Order Total,Gross,Primary Payment Method,Primary Payment Balance,Primary Authorize Number,Primary Purchase Order Number,Primary Synchrony Account Number,Primary Synchrony Application Key,Primary Synchrony AccountInfo,Primary SynchronyTerm,Secondly Payment Method,Secondly Payment Balance,Secondly Authorize Number,Secondly Purchase Order Number,Secondly Synchrony Account Number,Secondly Synchrony Application Key,Secondly Synchrony AccountInfo,Secondly SynchronyTerm,Thirdly Payment Method,Thirdly Payment Balance,Thirdly Authorize Number,Thirdly Purchase Order Number,Thirdly Synchrony Account Number,Thirdly Synchrony Application Key,Thirdly Synchrony AccountInfo,Thirdly SynchronyTerm,Actual Shipping Cost,CustomerName,Shipping Address,Delivered On,Serial Number (TO Be),Note,Branch,IsNoTax,ActualTaxRate
106240,5/19/2018 2:03:50 PM,Sam's Club #6218 5/17-21/18 (FL),Jonathan Bhowani,USJ-849USJ-849,Vitality Plate for Sam's,New,1,"2 years parts, 1 year labor for Small Items",CUSTOM ,29.90,489.89,489.89,CreditCard,489.89,TC# 9124 4155 6190 4421 4882 3,,,,,,,0.00,,,,,,,,0.00,,,,,,,0.00,Gary Ware,4074041527,,,,FL,0,6.50
106241,5/19/2018 2:11:11 PM,Sam's Club #6218 5/17-21/18 (FL),Jonathan Bhowani,USJ-9050USJ-9050BR-DEMO (Box),Relax 2 Zero 2.0 for Sam's,Demo (Box) Brown,1,"3 years parts, 1 year labor (Free)",CUSTOM ,207.94,3406.94,3406.94,CreditCard,3406.94,TC# 2010 7863 2760 8990 6713 34,,,,,,,0.00,,,,,,,,0.00,,,,,,,0.00,Elizabeth Munoz,4075059874,,,Delivery: 2-3 weeks (standard),FL,0,6.50
106242,5/19/2018 2:20:53 PM,Sam's Club #6218 5/17-21/18 (FL),Jonathan Bhowani,USJ-849USJ-849,Vitality Plate for Sam's,New,1,"2 years parts, 1 year labor (Free)",CUSTOM ,29.90,489.89,489.89,CreditCard,489.89,TC# 5143 6083 3082 6640 6874 1,,,,,,,0.00,,,,,,,,0.00,,,,,,,0.00,Danielle Movey,3214397993,,,,FL,0,6.50
106243,5/19/2018 2:48:27 PM,Sam's Club #6218 5/17-21/18 (FL),Jonathan Bhowani,USJ-871,Foot Vibe Pro,,1,"2 years parts, 1 year labor for Small Items",CUSTOM ,7.15,117.14,117.14,CreditCard,117.94,TC# 6350 6602 4686 9906 6435 4,,,,,,,0.00,,,,,,,,0.00,,,,,,,0.00,Venette Zielor,4077311503,,,,FL,0,6.50
106244,5/19/2018 2:52:11 PM,Sam's Club #6218 5/17-21/18 (FL),Jonathan Bhowani,USJ-871,Foot Vibe Pro,,1,"2 years parts, 1 year labor for Small Items",CUSTOM ,7.15,117.14,117.14,CreditCard,117.14,TC# 0063 3063 7064 6620 8072 1,,,,,,,0.00,,,,,,,,0.00,,,,,,,0.00,Gustavo Rojas,4072224745,,,,FL,0,6.50
