﻿Order Number,Order Date,Original Event Name,Event Name,Salesperson,SKU,Product Name,Color,QTY,Warranty,Tax,Order Total,Primary Payment Method,Primary Payment Balance,Primary Authorize Number,Primary Purchase Order Number,Primary Synchrony Account Number,Primary Synchrony Application Key,Primary Synchrony AccountInfo,Primary SynchronyTerm,Secondly Payment Method,Secondly Payment Balance,Secondly Authorize Number,Secondly Purchase Order Number,Secondly Synchrony Account Number,Secondly Synchrony Application Key,Secondly Synchrony AccountInfo,Secondly SynchronyTerm,Thirdly Payment Method,Thirdly Payment Balance,Thirdly Authorize Number,Thirdly Purchase Order Number,Thirdly Synchrony Account Number,Thirdly Synchrony Application Key,Thirdly Synchrony AccountInfo,Thirdly SynchronyTerm,Actual Shipping Cost,CustomerName,Shipping Phone,Delivered On,Serial Number (TO Be),Note,Branch,No Tax,ActualTaxRate
108743,8/25/2018 6:22:39 PM,"CHAMPLAIN VALLEY FAIR 8/24-9/2/18 VERMONT, VT (IL)","CHAMPLAIN VALLEY FAIR 8/24-9/2/18 VERMONT, VT (IL)",Rolly San Jose,DWA-9150USJ-9150CH-DEMO,Legacy 3D,Demo Choco,1,"3 years parts, 1 year labor (Free)",0.00,4452.00,Synchrony,4452.00,,,6019170813098420,93404461,San Diego,36 months,,0.00,,,,,,,,0.00,,,,,,,0.00,Dylan Morgan,8028814996,9/16/2018 12:00:00 AM,,,TX,1,6.00
108744,8/25/2018 6:29:28 PM,"CHAMPLAIN VALLEY FAIR 8/24-9/2/18 VERMONT, VT (IL)","CHAMPLAIN VALLEY FAIR 8/24-9/2/18 VERMONT, VT (IL)",Ilene Maynard,DWA-9150USJ-9150BL,Legacy 3D,New Black,1,"3 years parts, 1 year labor (Free)",0.00,4900.00,Synchrony,4900.00,,,6019170813099147,93428481,San Diego,36 months,,0.00,,,,,,,,0.00,,,,,,,0.00,Russell and laurie Sabens,8028936842,9/16/2018 12:00:00 AM,,,TX,1,6.00
108745,8/25/2018 6:53:35 PM,"CHAMPLAIN VALLEY FAIR 8/24-9/2/18 VERMONT, VT (IL)","CHAMPLAIN VALLEY FAIR 8/24-9/2/18 VERMONT, VT (IL)",Ilene Maynard,DWA-9150USJ-9150BL,Legacy 3D,New Black,1,"3 years parts, 1 year labor (Free)",0.00,4900.00,Synchrony,4900.00,,,6019170813100267,93451508,San Diego,36 months,,0.00,,,,,,,,0.00,,,,,,,0.00,Terry St dennis,5185780067,,,,TX,1,6.00
108768,8/26/2018 9:07:25 AM,"CHAMPLAIN VALLEY FAIR 8/24-9/2/18 VERMONT, VT (IL)","CHAMPLAIN VALLEY FAIR 8/24-9/2/18 VERMONT, VT (IL)",Abagail Stirling,DWA-9150USJ-9150CH-DEMO,Legacy 3D,Demo Choco,1,"3 years parts, 1 year labor (Free)",0.00,4000.00,Synchrony,3500.00,,,6019170813099931,93444733,San Diego,36 months,CreditCard,500.00,187866,,,,,,,0.00,,,,,,,0.00,Sara Terry,8023737549,9/16/2018 12:00:00 AM,,,TX,1,6.00
108781,8/26/2018 5:20:06 PM,"CHAMPLAIN VALLEY FAIR 8/24-9/2/18 VERMONT, VT (IL)","CHAMPLAIN VALLEY FAIR 8/24-9/2/18 VERMONT, VT (IL)",Abagail Stirling,DWA-9150USJ-9150BL-DEMO,Legacy 3D,Demo Black,1,"3 years parts, 1 year labor (Free)",0.00,4000.00,CreditCard,2000.00,632850,,,,,,CreditCard,2000.00,023610,,,,,,,0.00,,,,,,,0.00,Kathy Longworth,8023637337,9/17/2018 12:00:00 AM,,,TX,1,6.00
108784,8/26/2018 5:29:28 PM,"CHAMPLAIN VALLEY FAIR 8/24-9/2/18 VERMONT, VT (IL)","CHAMPLAIN VALLEY FAIR 8/24-9/2/18 VERMONT, VT (IL)",Ilene Maynard,DWA-9150USJ-9150BL,Legacy 3D,New Black,1,"3 years parts, 1 year labor (Free)",0.00,4900.00,Synchrony,3500.00,,,6019170813101737,93482700,Las Vegas,36 months,Synchrony,1400.00,,,6019170813101794,93483920,Las Vegas,36 months,,0.00,,,,,,,0.00,Lisa ann Bowdish,8023987335,,,,TX,1,6.00
108844,8/28/2018 9:04:24 AM,"CHAMPLAIN VALLEY FAIR 8/24-9/2/18 VERMONT, VT (IL)","CHAMPLAIN VALLEY FAIR 8/24-9/2/18 VERMONT, VT (IL)",Abagail Stirling,DWA-9150USJ-9150BL-DEMO,Legacy 3D,Demo Black,1,"3 years parts, 1 year labor (Free)",0.00,4200.00,CreditCard,1500.00,044372,,,,,,PurchaseOrder,2700.00,,Layaway plan,,,,,,0.00,,,,,,,0.00,Lisa Chandler,8023188240,8/27/2018 12:00:00 AM,,,TX,1,6.00
108845,8/28/2018 9:11:02 AM,"CHAMPLAIN VALLEY FAIR 8/24-9/2/18 VERMONT, VT (IL)","CHAMPLAIN VALLEY FAIR 8/24-9/2/18 VERMONT, VT (IL)",Rolly San Jose,DWA-9060USJ-9060BL-DEMO,Relax2Zero 3D,Demo Black,1,"3 years parts, 1 year labor (Free)",0.00,4900.00,CreditCard,4452.00,04408D,,,,,,,0.00,,,,,,,,0.00,,,,,,,0.00,Diana Wardell,5186451930,,,,Not Dispatched,1,6.00
108847,8/28/2018 10:07:24 AM,"CHAMPLAIN VALLEY FAIR 8/24-9/2/18 VERMONT, VT (IL)","CHAMPLAIN VALLEY FAIR 8/24-9/2/18 VERMONT, VT (IL)",Rolly San Jose,DWA-9060USJ-9060BL-DEMO,Relax2Zero 3D,Demo Black,1,"3 years parts, 1 year labor (Free)",0.00,4452.00,CreditCard,4452.00,04408D,,,,,,,0.00,,,,,,,,0.00,,,,,,,0.00,Diana Wardell,5186451930,9/2/2018 12:00:00 AM,,,TX,1,6.00
108851,8/28/2018 1:33:32 PM,"CHAMPLAIN VALLEY FAIR 8/24-9/2/18 VERMONT, VT (IL)","CHAMPLAIN VALLEY FAIR 8/24-9/2/18 VERMONT, VT (IL)",Winston Melgar,DWA-9060USJ-9060BL-DEMO,Relax2Zero 3D,Demo Black,1,"3 years parts, 1 year labor (Free)",0.00,4200.00,Synchrony,4200.00,,,6019170813105530,93580535,Las Vegas,36 months,,0.00,,,,,,,,0.00,,,,,,,0.00,Steve Groleau,8023558329,8/31/2018 12:00:00 AM,,,TX,1,6.00
108868,8/29/2018 2:11:20 PM,"CHAMPLAIN VALLEY FAIR 8/24-9/2/18 VERMONT, VT (IL)","CHAMPLAIN VALLEY FAIR 8/24-9/2/18 VERMONT, VT (IL)",Abagail Stirling,DWA-9150USJ-9150BL-DEMO,Legacy 3D,Demo Black,1,"3 years parts, 1 year labor (Free)",0.00,4200.00,CreditCard,4200.00,01803C,,,,,,,0.00,,,,,,,,0.00,,,,,,,0.00,Robert E Foss,8137154029,9/6/2018 12:00:00 AM,,,FL,1,6.00
108889,8/30/2018 9:04:24 AM,"CHAMPLAIN VALLEY FAIR 8/24-9/2/18 VERMONT, VT (IL)","CHAMPLAIN VALLEY FAIR 8/24-9/2/18 VERMONT, VT (IL)",Rolly San Jose,DWA-9060USJ-9060BL-DEMO,Relax2Zero 3D,Demo Black,1,"3 years parts, 1 year labor (Free)",0.00,4200.00,Check,4200.00,,,,,,,,0.00,,,,,,,,0.00,,,,,,,0.00,Murry Thompson,8029223868,9/18/2018 12:00:00 AM,,,TX,1,6.00
108896,8/30/2018 12:05:49 PM,"CHAMPLAIN VALLEY FAIR 8/24-9/2/18 VERMONT, VT (IL)","CHAMPLAIN VALLEY FAIR 8/24-9/2/18 VERMONT, VT (IL)",Winston Melgar,DWA-9150USJ-9150BL-DEMO,Legacy 3D,Demo Black,1,"3 years parts, 1 year labor (Free)",0.00,4000.00,Synchrony,4000.00,,,6019170813108369,93676704,San Diego,36 months,,0.00,,,,,,,,0.00,,,,,,,0.00,Joy Dubuque,8024977387,8/31/2018 12:00:00 AM,,,TX,1,6.00
108900,8/30/2018 12:36:50 PM,"CHAMPLAIN VALLEY FAIR 8/24-9/2/18 VERMONT, VT (IL)","CHAMPLAIN VALLEY FAIR 8/24-9/2/18 VERMONT, VT (IL)",Winston Melgar,DWA-9150USJ-9150BL-DEMO,Legacy 3D,Demo Black,1,"3 years parts, 1 year labor (Free)",0.00,4000.00,Synchrony,4000.00,,,6019170813108393,93677243,San Diego,36 months,,0.00,,,,,,,,0.00,,,,,,,0.00,Cheryl Williams,8027344486,9/1/2018 12:00:00 AM,,,TX,1,6.00
108924,8/31/2018 12:02:29 PM,"CHAMPLAIN VALLEY FAIR 8/24-9/2/18 VERMONT, VT (IL)","CHAMPLAIN VALLEY FAIR 8/24-9/2/18 VERMONT, VT (IL)",Abagail Stirling,DWA-9060USJ-9060BL-DEMO,Relax2Zero 3D,Demo Black,1,"3 years parts, 1 year labor (Free)",0.00,4000.00,Synchrony,1500.00,,,6019170813109813,93719791,San Diego,12 months,CreditCard,1000.00,582068,,,,,,COD,1500.00,,,,,,,0.00,Melinda White,8023939196,,,Chicago must have another demo to d,TX,1,6.00
108926,8/31/2018 3:10:49 PM,"CHAMPLAIN VALLEY FAIR 8/24-9/2/18 VERMONT, VT (IL)","CHAMPLAIN VALLEY FAIR 8/24-9/2/18 VERMONT, VT (IL)",Ilene Maynard,DWA-9150USJ-9150CH,Legacy 3D,New Choco,1,"3 years parts, 1 year labor (Free)",0.00,4900.00,Synchrony,4900.00,,,6019170813110894,93747320,San Diego,36 months,,0.00,,,,,,,,0.00,,,,,,,0.00,Martha Gardner,5184831936,,,,TX,1,6.00
108940,9/1/2018 7:18:24 AM,"CHAMPLAIN VALLEY FAIR 8/24-9/2/18 VERMONT, VT (IL)","CHAMPLAIN VALLEY FAIR 8/24-9/2/18 VERMONT, VT (IL)",Ilene Maynard,DWA-9060USJ-9060BL,Relax2Zero 3D,New Black,1,"3 years parts, 1 year labor (Free)",0.00,4900.00,Synchrony,4900.00,,,6019170813111413,93757893,San Diego,36 months,,0.00,,,,,,,,0.00,,,,,,,0.00,Brian Blow,8028790680,,,,TX,1,6.00
108941,9/1/2018 8:30:11 AM,"CHAMPLAIN VALLEY FAIR 8/24-9/2/18 VERMONT, VT (IL)","CHAMPLAIN VALLEY FAIR 8/24-9/2/18 VERMONT, VT (IL)",Ilene Maynard,DWA-9150USJ-9150BL,Legacy 3D,New Black,1,"3 years parts, 1 year labor (Free)",0.00,4900.00,CreditCard,4900.00,50965P,,,,,,,0.00,,,,,,,,0.00,,,,,,,0.00,Christine Boera,8028996852,9/18/2018 12:00:00 AM,,,TX,1,6.00
108942,9/1/2018 8:36:24 AM,"CHAMPLAIN VALLEY FAIR 8/24-9/2/18 VERMONT, VT (IL)","CHAMPLAIN VALLEY FAIR 8/24-9/2/18 VERMONT, VT (IL)",Rolly San Jose,DWA-9060USJ-9060BL,Relax2Zero 3D,New Black,1,"3 years parts, 1 year labor (Free)",0.00,4900.00,Synchrony,4900.00,,,6019170813111728,93771074,San Diego,36 months,,0.00,,,,,,,,0.00,,,,,,,0.00,RAYMOND BATHALON,8027442493,9/17/2018 12:00:00 AM,,,TX,1,6.00
108950,9/1/2018 2:50:50 PM,"CHAMPLAIN VALLEY FAIR 8/24-9/2/18 VERMONT, VT (IL)","CHAMPLAIN VALLEY FAIR 8/24-9/2/18 VERMONT, VT (IL)",Rolly San Jose,DWA-9060USJ-9060BR,Relax2Zero 3D,New Choco,1,"3 years parts, 1 year labor (Free)",0.00,4900.00,CreditCard,4900.00,09134G,,,,,,,0.00,,,,,,,,0.00,,,,,,,0.00,Anita Licata,802658862,9/16/2018 12:00:00 AM,,,TX,1,6.00
108956,9/1/2018 4:14:42 PM,"CHAMPLAIN VALLEY FAIR 8/24-9/2/18 VERMONT, VT (IL)","CHAMPLAIN VALLEY FAIR 8/24-9/2/18 VERMONT, VT (IL)",Abagail Stirling,DWA-9400Pegasus-BR-DEMO,Pegasus,Demo Choco,1,"3 years parts, 1 year labor (Free)",0.00,4900.00,Synchrony,4900.00,,,6019170813114565,93822335,San Diego,48 months,,0.00,,,,,,,,0.00,,,,,,,0.00,Michael Lamontagne,8026555860,,,,TX,1,6.00
108957,9/1/2018 4:20:32 PM,"CHAMPLAIN VALLEY FAIR 8/24-9/2/18 VERMONT, VT (IL)","CHAMPLAIN VALLEY FAIR 8/24-9/2/18 VERMONT, VT (IL)",Ilene Maynard,DWA-9060USJ-9060BR,Relax2Zero 3D,New Choco,1,"3 years parts, 1 year labor (Free)",0.00,4500.00,Synchrony,4500.00,,,6019170813114508,93821805,San Diego,36 months,,0.00,,,,,,,,0.00,,,,,,,0.00,Randall Raner,8027779156,9/16/2018 12:00:00 AM,,,TX,1,6.00
108958,9/1/2018 4:28:04 PM,"CHAMPLAIN VALLEY FAIR 8/24-9/2/18 VERMONT, VT (IL)","CHAMPLAIN VALLEY FAIR 8/24-9/2/18 VERMONT, VT (IL)",Ilene Maynard,DWA-9060USJ-9060BR,Relax2Zero 3D,New Choco,1,"3 years parts, 1 year labor (Free)",0.00,4500.00,Synchrony,4500.00,,,6019170813114508,93821805,San Diego,36 months,,0.00,,,,,,,,0.00,,,,,,,0.00,Randall Raner,8027779156,9/10/2018 12:00:00 AM,,,FL,1,6.00
108978,9/2/2018 12:56:34 PM,"CHAMPLAIN VALLEY FAIR 8/24-9/2/18 VERMONT, VT (IL)","CHAMPLAIN VALLEY FAIR 8/24-9/2/18 VERMONT, VT (IL)",Ilene Maynard,DWA-9150USJ-9150CH-DEMO,Legacy 3D,Demo Choco,1,"3 years parts, 1 year labor (Free)",0.00,4000.00,Synchrony,4000.00,,,6019170813115570,93846569,San Diego,36 months,,0.00,,,,,,,,0.00,,,,,,,0.00,Christina Churchill,8029338508,9/2/2018 12:00:00 AM,,,TX,1,6.00
108986,9/2/2018 2:42:36 PM,"CHAMPLAIN VALLEY FAIR 8/24-9/2/18 VERMONT, VT (IL)","CHAMPLAIN VALLEY FAIR 8/24-9/2/18 VERMONT, VT (IL)",Rolly San Jose,DWA-9060USJ-9060BR,Relax2Zero 3D,New Choco,1,"3 years parts, 1 year labor (Free)",0.00,4900.00,Synchrony,4900.00,,,6019170813117220,93871290,San Diego,48 months,,0.00,,,,,,,,0.00,,,,,,,0.00,Melissa Boomhower,8023700670,9/17/2018 12:00:00 AM,,,TX,1,6.00
108990,9/2/2018 6:29:53 PM,"CHAMPLAIN VALLEY FAIR 8/24-9/2/18 VERMONT, VT (IL)","CHAMPLAIN VALLEY FAIR 8/24-9/2/18 VERMONT, VT (IL)",Rolly San Jose,DWA-9150USJ-9150BL,Legacy 3D,New Black,1,"3 years parts, 1 year labor (Free)",0.00,4600.00,Synchrony,4600.00,,,6019170813117980,93884279,San Diego,36 months,,0.00,,,,,,,,0.00,,,,,,,0.00,Serina Phuong,8023553979,9/16/2018 12:00:00 AM,,,TX,1,6.00
108993,9/2/2018 9:01:51 PM,"CHAMPLAIN VALLEY FAIR 8/24-9/2/18 VERMONT, VT (IL)","CHAMPLAIN VALLEY FAIR 8/24-9/2/18 VERMONT, VT (IL)",Rolly San Jose,DWA-9060USJ-9060BR,Relax2Zero 3D,New Choco,1,"3 years parts, 1 year labor (Free)",0.00,4900.00,CreditCard,200.00,371945,,,,,,COD,4700.00,,,,,,,,0.00,,,,,,,0.00,Carrie Cook,8057030641,,,,CA,1,6.00
109002,9/3/2018 1:44:36 AM,"CHAMPLAIN VALLEY FAIR 8/24-9/2/18 VERMONT, VT (IL)","CHAMPLAIN VALLEY FAIR 8/24-9/2/18 VERMONT, VT (IL)",Abagail Stirling,DWA-9150USJ-9150BL-DEMO,Legacy 3D,Demo Black,1,"3 years parts, 1 year labor (Free)",0.00,4200.00,COD,4200.00,,,,,,,,0.00,,,,,,,,0.00,,,,,,,0.00,James Cochran,27303795,,,,TX,1,6.00
109003,9/3/2018 1:51:02 AM,"CHAMPLAIN VALLEY FAIR 8/24-9/2/18 VERMONT, VT (IL)","CHAMPLAIN VALLEY FAIR 8/24-9/2/18 VERMONT, VT (IL)",Ilene Maynard,DWA-9150USJ-9150BL,Legacy 3D,New Black,1,"3 years parts, 1 year labor (Free)",0.00,4900.00,Synchrony,3500.00,,,6019170813102255,93489901,Las Vegas,36 months,COD,1400.00,,,,,,,,0.00,,,,,,,0.00,Shawn Miller,8027304775,,,,TX,1,6.00
109004,9/3/2018 1:59:38 AM,"CHAMPLAIN VALLEY FAIR 8/24-9/2/18 VERMONT, VT (IL)","CHAMPLAIN VALLEY FAIR 8/24-9/2/18 VERMONT, VT (IL)",Rolly San Jose,DWA-9060USJ-9060BL,Relax2Zero 3D,New Black,1,"3 years parts, 1 year labor (Free)",0.00,4900.00,CreditCard,200.00,00130Z,,,,,,Synchrony,4700.00,,,,,,,,0.00,,,,,,,0.00,Nadihusska Marin,8027309022,,,,TX,1,6.00
