﻿Date,CustomerName,State,Zipcode,Description,productNo,Color,IsDemo,Net,ShippingFee,GiftPrice,FinancingProcessingFee,Gross,Pre_tax,Tax,Commission,Primary Payment Method,Primary Payment Balance,Primary Authorize Number,Primary Purchase Order Number,Primary Synchrony Account Number,Primary Synchrony Application Key,Primary Synchrony AccountInfo,Primary SynchronyTerm,Secondly Payment Method,Secondly Payment Balance,Secondly Authorize Number,Secondly Purchase Order Number,Secondly Synchrony Account Number,Secondly Synchrony Application Key,Secondly Synchrony AccountInfo,Secondly SynchronyTerm,Thirdly Payment Method,Thirdly Payment Balance,Thirdly Authorize Number,Thirdly Purchase Order Number,Thirdly Synchrony Account Number,Thirdly Synchrony Application Key,Thirdly Synchrony AccountInfo,Thirdly SynchronyTerm,DeliveryDate,Ispickup,Warranty,Status,Event Name,Synchrony Notes,Order Notes,Order number,Private Note,Branch,IsNoTax,ActualTaxRate
1/14/2018 8:36:21 AM,Javier Marmanillo,NV,89044,Pegasus,DWA-9400Pegasus-BL,Black,New,,,,,4000.00,4000.00,0.00,Jonathan Bhowani,CreditCard,4000.00,Square receipt #Wa8Z,,,,,,,0.00,,,,,,,,0.00,,,,,,,,No,"3 years parts, 1 year labor (Free)",Assigned,Atlanta Int'l Gift Show 1/11-15/18 (FL),,,102939,confirmed $4000 in Square. 1/15/18 Hitomi,NV,1,8.00
1/14/2018 10:02:37 AM,Cathy Yang,CA,91748,Legacy,DWA-9100DWA-9100SI-DEMO,Demo Sienna Brown,Demo,,,,,2800.00,2800.00,0.00,May Kam,Cash,200.00,,,,,,,COD,2600.00,,,,,,,,0.00,,,,,,,,No,"3 years parts, 1 year labor (Free)",Called,Asian American Expo 1/13-14/18 (CA),,,102940,"01/15/18-Cristina- Printed
May provided cash to pres. Michael",CA,1,9.25
1/14/2018 10:02:37 AM,Cathy Yang,CA,91748,Daiwa Blanket,,,New,,,,,2800.00,2800.00,0.00,May Kam,Cash,200.00,,,,,,,COD,2600.00,,,,,,,,0.00,,,,,,,,No,no warranty,Called,Asian American Expo 1/13-14/18 (CA),,,102940,"01/15/18-Cristina- Printed
May provided cash to pres. Michael",CA,1,9.25
1/14/2018 10:10:37 AM,Wanjien Chen,FL,32308,Legacy,DWA-9100DWA-9100BU,Blue,New,,,,,3500.00,3500.00,0.00,Alex Brackelsberg,CreditCard,0.00,Lcrm,,,,,,,0.00,,,,,,,,0.00,,,,,,,,No,"3 years parts, 1 year labor (Free)",Called,Referral (Main Office),,,102941,confirmed $3500 in Square. 1/15/18 Hitomi,FL,1,9.25
1/14/2018 10:55:07 AM,Cathy Lee,CA,91803,Legacy 3D,DWA-9150USJ-9150CH,Choco Brown,New,,,,,3750.00,3750.00,0.00,Mikito Nakanishi,Synchrony,3750.00,,,6034610083047459,83686419,San Diego,24 months,,0.00,,,,,,,,0.00,,,,,,,,No,"3 years parts, 1 year labor (Free)",Called,Asian American Expo 1/13-14/18 (CA),,Extended warranty: 4yrs parts 2yrs Labor,102942,"Synchrony approved ($8500), please charge $3750 before delivery. 1/14/18 Riho",CA,1,9.25
1/14/2018 10:56:32 AM,Merlyn Neel,AR,71909,Legacy for Sam's,DWA-9100DWA-9100SB,Sienna Brown,New,,,,,3940.91,3599.00,341.91,David Wallace,CreditCard,0.00,Tc#1642132623412582060348,,,,,,,0.00,,,,,,,,0.00,,,,,,,,No,"3 years parts, 1 year labor (Free)",Called,"Sam's Club #4825 Hot Springs, AR 1/11-21/18",,"Gated community 
Send NEW sienna brown",102943,,TX,0,9.50
1/14/2018 12:48:42 PM,Adam Fuentes,AZ,85392,Legacy for Sam's,DWA-9100DWA-9100CH-DEMO,Demo Choco,Demo,,,,,3915.71,3659.66,256.05,David Wang,PurchaseOrder,3915.71,,8357699699525519802641,,,,,,0.00,,,,,,,,0.00,,,,,,,,No,"3 years parts, 1 year labor (Free)",Assigned,Sam's Club #4830 1/4-14/18 (CA),,,102944,Please send the BRAND NEW (DWA-9100)CHOCO legacy chair to the customer.Thank you.,NV,0,8.80
1/14/2018 12:48:48 PM,Dorothy Abrams,GA,31705,Legacy for Sam's,DWA-9100DWA-9100BL,Blue,New,,,,,3599.00,3599.00,0.00,Alex Brackelsberg,CreditCard,0.00,76968150593733039350,,,,,,,0.00,,,,,,,,0.00,,,,,,,,No,"3 years parts, 1 year labor (Free)",Assigned,"Sam's Club #8120 Tallahassee, Fl 1/11-1/21",,Blue legacy new,102945,Before Vday,FL,1,7.50
1/14/2018 2:23:10 PM,Daiwa Massage,CA,90249,Foot Vibe Pro,USJ-871,,New,,,,,119.08,109.99,9.09,Michael Wang,CreditCard,119.08,Tc# 3475 3323 9133 2226 1170 4,,,,,,,0.00,,,,,,,,0.00,,,,,,,,YES,"2 years parts, 1 year labor (Small Items)",Delivered,Sam's Club #4768 Reno  1/11-21/18 (NV),,,102946,,CA,0,8.27
1/14/2018 2:35:20 PM,Mike Brunner,TX,78731,Relax2Zero 3D,DWA-9060USJ-9060BL,Black,New,,,,,4200.00,4200.00,0.00,Tom Nguyen,CreditCard,4200.00,Square #1Dzx,,,,,,,0.00,,,,,,,,0.00,,,,,,,,No,"3 years parts, 1 year labor (Free)",Called,AUSTIN HOME & GD #706 1/12-14/18 (TX),,,102947,confirmed $4200 in Square. 1/15/18 Hitomi,TX,1,8.25
1/14/2018 2:39:11 PM,Yue Liang,TX,75068,Legacy 3D,DWA-9150USJ-9150CH,Choco Brown,New,,,,,3500.00,3500.00,0.00,Jennifer Tran,CreditCard,300.00,Square #qJhG,,,,,,Cash,0.00,,,,,,,,0.00,,,,,,,,No,"3 years parts, 1 year labor (Free)",Cancelled,AUSTIN HOME & GD #706 1/12-14/18 (TX),,"Hold Delivery for 6 months
CASH on Delivery
No cards or checks",102948,,Not Dispatched,1,8.25
1/14/2018 2:42:57 PM,Zhong Ying Zhu,TX,78730,Legacy 3D,DWA-9150USJ-9150CH,Choco Brown,New,,,,,3500.00,3500.00,0.00,Jennifer Tran,Cash,1000.00,,,,,,,Cash,0.00,,,,,,,,0.00,,,,,,,,No,"3 years parts, 1 year labor (Free)",Cancelled,AUSTIN HOME & GD #706 1/12-14/18 (TX),,"CASH on Delivery
No cards or checks",102949,,Not Dispatched,1,8.25
1/14/2018 2:51:17 PM,Yue Liang,TX,75068,Relax2Zero 3D,DWA-9060USJ-9060BR,Choco Brown,New,,,,,3500.00,3500.00,0.00,Jennifer Tran,CreditCard,300.00,Square #qJhG,,,,,,Cash,0.00,,,,,,,,0.00,,,,,,,,No,"3 years parts, 1 year labor (Free)",Hold,AUSTIN HOME & GD #706 1/12-14/18 (TX),,"CASH on Delivery 
No checks or cards
HOLD Delivery for 6 months
Please disregard other invoice",102950,confirmed $300 in Square. 1/15/18 Hitomi,TX,1,8.25
1/14/2018 2:54:30 PM,Zhong Ying Zhu,TX,78730,Relax2Zero 3D,DWA-9060USJ-9060BR,Choco Brown,New,,,,,3500.00,3500.00,0.00,Jennifer Tran,Cash,1000.00,,,,,,,Cash,0.00,,,,,,,,0.00,,,,,,,,No,"3 years parts, 1 year labor (Free)",New,AUSTIN HOME & GD #706 1/12-14/18 (TX),,"CASH on Delivery
No cards or checks
Please disregard other invoice",102951,,Not Dispatched,1,8.25
1/14/2018 2:59:53 PM,Paul Finn,TX,78653,Relax2Zero 3D,DWA-9060USJ-9060BL,Black,New,,,,,3700.00,3700.00,0.00,Chris Tavira,CreditCard,100.00,Square #OBrz,,,,,,Synchrony,3600.00,,,6034610083047558,83687608,Huston,36 months,,0.00,,,,,,,,No,"3 years parts, 1 year labor (Free)",Called,AUSTIN HOME & GD #706 1/12-14/18 (TX),,Please proceed with Synchrony sale,102952,"confirmed $100 in Square. confirmed the account in Synchrony.( $5,500) *Please charge $3600 before delivery.* 1/15/18 Hitomi",TX,1,8.25
1/14/2018 3:04:20 PM,Daniel Rothwell,TX,78745,Relax2Zero 3D,DWA-9060USJ-9060BL,Black,New,,,,,4000.00,4000.00,0.00,Tom Nguyen,Synchrony,4000.00,,,6034610083047772,83691540,Huston,36 months,,0.00,,,,,,,,0.00,,,,,,,,No,"3 years parts, 1 year labor (Free)",Called,AUSTIN HOME & GD #706 1/12-14/18 (TX),,"Please proceed with Synchrony sale
Deliver before February",102953,confirmed the account in Synchrony.($8500) *Please charge before delivery. * 1/15/18 Hitomi,TX,1,8.25
1/14/2018 3:08:31 PM,Lance Giambelluca,TX,78750,Relax2Zero 3D,DWA-9060USJ-9060BR-DEMO,Demo Choco Brown,Demo,,,,,3500.00,3500.00,0.00,Jennifer Tran,CreditCard,3500.00,Square #I54g,,,,,,,0.00,,,,,,,,0.00,,,,,,,,YES,"3 years parts, 1 year labor (Free)",New,AUSTIN HOME & GD #706 1/12-14/18 (TX),,"SN# 96160223D
Customer picked up 1/14/2018",102954,"confirmed $3,500 in Square. 1/15/18",TX,1,8.25
1/14/2018 3:12:09 PM,Simone Houlihan,TX,78681,Pegasus,DWA-9400Pegasus-BR-DEMO,Demo Choco Brown,Demo,,,,,4000.00,4000.00,0.00,Tom Nguyen,CreditCard,4000.00,Square #TiDa,,,,,,,0.00,,,,,,,,0.00,,,,,,,,YES,"3 years parts, 1 year labor (Free)",New,AUSTIN HOME & GD #706 1/12-14/18 (TX),,"SN# 0501002170162
Customer picked up 1/14/2018",102955,"confirmed $4,000 in Square. 1/15/18 Hitomi",TX,1,8.25
1/14/2018 3:15:31 PM,Marilyn Nichols,TX,78759,Pegasus,DWA-9400Pegasus-BR-DEMO,Demo Choco Brown,Demo,,,,,4100.00,4100.00,0.00,Tom Nguyen,CreditCard,300.00,Square #wCM1,,,,,,,0.00,,,,,,,,0.00,,,,,,,,No,"3 years parts, 1 year labor (Free)",Called,AUSTIN HOME & GD #706 1/12-14/18 (TX),,,102956,confirmed $300 in Square. 1/15/18 Hitomi,TX,1,8.25
1/14/2018 3:20:01 PM,Melissa Fanning,TX,78665,Relax2Zero 3D,DWA-9060USJ-9060BL-DEMO,Demo Black,Demo,,,,,3500.00,3500.00,0.00,Kristy Tran,CreditCard,100.00,Square #a3HG,,,,,,,0.00,,,,,,,,0.00,,,,,,,,YES,"3 years parts, 1 year labor (Free)",Cancelled,AUSTIN HOME & GD #706 1/12-14/18 (TX),,,102957,,Not Dispatched,1,8.25
1/14/2018 3:35:02 PM,Kira Haynes,TX,77040,Legacy for Sam's,DWA-9100DWA-9100BL,Black,New,,,,,3834.04,3599.00,235.04,KHOA H,CreditCard,3895.92,TC # 4559 2982 8275 4256 3955 06,,,,,,,0.00,,,,,,,,0.00,,,,,,,,No,"3 years parts, 1 year labor (Free)",Called,"Sam's Club #8274 Houston, TX 1/4-14/18",,,102958,,TX,0,8.25
1/14/2018 3:35:02 PM,Kira Haynes,TX,77040,Daiwa Blanket,,,New,,,,,3834.04,3599.00,235.04,KHOA H,CreditCard,3895.92,TC # 4559 2982 8275 4256 3955 06,,,,,,,0.00,,,,,,,,0.00,,,,,,,,No,no warranty,Called,"Sam's Club #8274 Houston, TX 1/4-14/18",,,102958,,TX,0,8.25
1/14/2018 3:47:31 PM,Lonnie Woodson,TX,77084,Foot Vibe Pro,USJ-871,,New,,,,,119.06,109.99,9.07,KHOA H,CreditCard,119.06,TC # 8888 8757 7929 4341 9435 8,,,,,,,0.00,,,,,,,,0.00,,,,,,,,YES,"2 years parts, 1 year labor (Small Items)",Delivered,"Sam's Club #8274 Houston, TX 1/4-14/18",,Customer picked up the product.,102959,,TX,0,8.25
1/14/2018 4:09:20 PM,Daiwa Massage,CA,90249,Vitality Plate for Sam's,USJ-849USJ-849-DEMO,Demo,Demo,,,,,432.99,399.99,33.00,Jovylyn Florea,CreditCard,432.99,001086,,,,,,,0.00,,,,,,,,0.00,,,,,,,,YES,"2 years parts, 1 year labor (Small Items)",New,Sam's Club #6382 Las Vegas (NV),,,102960,,Not Dispatched,0,8.25
1/14/2018 4:58:00 PM,David Norton,TX,76028,Legacy for Sam's,DWA-9100DWA-9100CH,Choco,New,,,,,3895.92,3599.00,296.92,Kamille Gines,CreditCard,3895.92,TC# 0791084549666672480732,,,,,,,0.00,,,,,,,,0.00,,,,,,,,No,"3 years parts, 1 year labor (Free)",Called,"Sam's Club #8210 Burleson, TX 1/4-14/18",,,102961,Please deliver new chair,TX,0,8.25
1/14/2018 5:04:41 PM,Charlotte Apodaca,TX,76119,Relax2Zero 2.0 for Sam's,USJ-9050USJ-9050BR,Brown,New,,,,,3462.92,3199.00,263.92,Kamille Gines,CreditCard,3462.92,TC# 9745963439164125301255,,,,,,,0.00,,,,,,,,0.00,,,,,,,,No,"3 years parts, 1 year labor (Free)",Called,"Sam's Club #8210 Burleson, TX 1/4-14/18",,,102962,Please deliver new chair,TX,0,8.25
1/14/2018 5:09:08 PM,Dameshia Mosley,TX,76028,Relax2Zero 2.0 for Sam's,USJ-9050USJ-9050BL,Black,New,,,,,3462.92,3199.00,263.92,Kamille Gines,CreditCard,3462.92,TC# 7836845054383309518099,,,,,,,0.00,,,,,,,,0.00,,,,,,,,No,"3 years parts, 1 year labor (Free)",Called,"Sam's Club #8210 Burleson, TX 1/4-14/18",,,102963,"Please deliver new chair
2nd Floor",TX,0,8.25
1/14/2018 5:13:48 PM,Tracy Cable,TX,76028,Relax2Zero 2.0 for Sam's,USJ-9050USJ-9050BL-DEMO,Demo Black,Demo,,,,,3462.92,3199.00,263.92,Kamille Gines,CreditCard,3462.92,TC# 2000036460835894678944,,,,,,,0.00,,,,,,,,0.00,,,,,,,,No,"3 years parts, 1 year labor (Free)",Called,"Sam's Club #8210 Burleson, TX 1/4-14/18",,,102964,Deliver the Demo Chair,TX,0,8.25
1/14/2018 6:38:37 PM,Beth Glenn,CA,96080,Relax2Zero 2.0 for Sam's,USJ-9050USJ-9050BR,Brown,New,,,,,3199.00,3199.00,0.00,Michael Wang,CreditCard,3199.00,Tc# 8687 6399 9952 5118 2286 70,,,,,,,0.00,,,,,,,,0.00,,,,,,,,No,"3 years parts, 1 year labor (Free)",Called,Sam's Club #4768 Reno  1/11-21/18 (NV),,Give customer new chair.Give 2 total free chair pads 1 free Daiwa blanket.Give 1 free usb flash drive with music.Customer bought for business so no sales tax.Please ignore what is on the order summary for tax included.,102965,"Give customer new chair.Told customer 2 to 3 weeks delivery time but since Red Bluff is 2 hours north of Sacramento and rural, can they get it faster if we use 3rd party freight company? Business purchase so no tax.",CA,1,8.27
1/14/2018 8:49:21 PM,Nick Pajic,AZ,85266,Legacy,DWA-9100DWA-9100SI,Sienna Brown,New,,,,,4561.20,4259.39,301.81,Bryan Albert,Synchrony,3561.20,,,6034610083047954,83693462,Huston,36 months,CreditCard,1000.00,#4ksO,,,,,,,0.00,,,,,,,,No,"3 years parts, 1 year labor (Free)",Assigned,Maricopa County Home Show 1/12-14/18 (NV),,,102966,"confirmed $1,000 in Square. confirmed the account in Synchrony ($8,500) . *Please charge $3561.20 before delivery.* 1/15/18 Hitomi",NV,0,8.60
1/14/2018 8:53:39 PM,Lorne Ross,AZ,85203,Legacy,DWA-9100DWA-9100CH,Choco Brown,New,,,,,4200.00,4200.00,0.00,Ilene Maynard,CreditCard,4200.00,#gtK2,,,,,,,0.00,,,,,,,,0.00,,,,,,,,No,"3 years parts, 1 year labor (Free)",Assigned,Maricopa County Home Show 1/12-14/18 (NV),,,102967,"confirmed $4,200 in Square. 1/15/18 Hitomi",NV,1,8.60
1/14/2018 9:00:31 PM,Jeree Harris,IL,60639,Legacy,DWA-9100DWA-9100SI,Sienna Brown,New,,,,,4200.00,4200.00,0.00,Joseph Chan,Synchrony,3500.00,,,6034610083048135,83695991,San Diego,,COD,700.00,,,,,,,,0.00,,,,,,,,No,"3 years parts, 1 year labor (Free)",Hold,Maricopa County Home Show 1/12-14/18 (NV),,"Customer just mover to AZ, will call to advice the delivery address, please hold.",102968,"confirmed the account in Synchrony.($3,500)",NV,1,8.60
1/14/2018 9:05:26 PM,Patricia Harper,AZ,85234,Legacy,DWA-9100DWA-9100SI,Sienna Brown,New,,,,,4200.00,4200.00,0.00,Ilene Maynard,CreditCard,4200.00,#anOO,,,,,,,0.00,,,,,,,,0.00,,,,,,,,No,"3 years parts, 1 year labor (Free)",Assigned,Maricopa County Home Show 1/12-14/18 (NV),,,102969,"confirmed $4,200 in Square. 1/15/18 Hitomi",NV,1,8.60
1/14/2018 10:44:50 PM,Daiwa Massage,CA,90249,Vitality Plate for Sam's,USJ-849USJ-849,New,New,,,,,497.94,459.99,37.95,Jovylyn Florea,CreditCard,497.94,000844,,,,,,,0.00,,,,,,,,0.00,,,,,,,,YES,"2 years parts, 1 year labor (Small Items)",New,Sam's Club #6382 Las Vegas (NV),,,102970,,Not Dispatched,0,8.25
1/14/2018 11:15:49 PM,Maria Navarro,NV,89103,Relax2Zero 2.0 for Sam's,USJ-9050USJ-9050BR-DEMO,Demo Brown,Demo,,,,,3198.79,2955.00,243.79,Jovylyn Florea,CreditCard,3199.00,000852,,,,,,,0.00,,,,,,,,0.00,,,,,,,,YES,"3 years parts, 1 year labor (Free)",Assigned,Sam's Club #6382 Las Vegas (NV),,Deliver it New,102971,TC# 6408 4077 7695 9838 3580 86,NV,0,8.25
1/14/2018 11:41:50 PM,Chun Jo Lim,AA,89146,Legacy for Sam's,DWA-9100DWA-9100BL-DEMO,Demo Black,Demo,,,,,3709.73,3427.00,282.73,Jovylyn Florea,CreditCard,3709.67,000819,,,,,,,0.00,,,,,,,,0.00,,,,,,,,No,"3 years parts, 1 year labor (Free)",Assigned,Sam's Club #6382 Las Vegas (NV),,,102972,TC # 5293 5502 0320 2164 6687 73,NV,0,8.25
1/14/2018 11:56:15 PM,Martha Aguilar,AA,89103,Legacy for Sam's,DWA-9100DWA-9100BL-DEMO,Demo Blue,Demo,,,,,3895.92,3599.00,296.92,Jovylyn Florea,CreditCard,3895.92,001031,,,,,,,0.00,,,,,,,,0.00,,,,,,,,No,"3 years parts, 1 year labor (Free)",Assigned,Sam's Club #6382 Las Vegas (NV),,,102973,TC 7046 8155 5831 3909 0194 67,NV,0,8.25
1/15/2018 7:39:57 AM,Grace Schroeder,IN,46818,Relax2Zero 3D,DWA-9060USJ-9060BR,Choco Brown,New,,,,,4500.00,4500.00,0.00,Jonathan Bhowani,Synchrony,0.00,,,6034610083046402,83666815,Huston,36 months,,0.00,,,,,,,,0.00,,,,,,,,No,"3 years parts, 1 year labor (Free)",Called,Atlanta Int'l Gift Show 1/11-15/18 (FL),,,102974,"confirmed the account in Synchrony. ($8,500) *Please charge before delivery.* 1/15/18 Hitomi",TX,1,8.00
1/15/2018 7:46:56 AM,Susan & Sid Nelson,AL,35460,Legacy 3D,DWA-9150USJ-9150CH,Choco Brown,New,,,,,3900.00,3900.00,0.00,Jonathan Bhowani,CreditCard,3900.00,Square receipt #hTnV,,,,,,,0.00,,,,,,,,0.00,,,,,,,,No,"3 years parts, 1 year labor (Free)",Assigned,Atlanta Int'l Gift Show 1/11-15/18 (FL),,Delivery estimated: 2-3 weeks,102975,"confirmed $3,900 in Square. 1/15/18 Hitomi",FL,1,8.00
1/15/2018 7:54:17 AM,Tyshawn Moore,FL,30034,Relax2Zero 3D,DWA-9060USJ-9060BL-DEMO,Demo Black,Demo,,,,,3600.00,3600.00,0.00,Jonathan Bhowani,CreditCard,0.00,0000,,,,,,,0.00,,,,,,,,0.00,,,,,,,,No,"3 years parts, 1 year labor (Free)",New,Atlanta Int'l Gift Show 1/11-15/18 (FL),,Delivery after payment of $2400 is completed.,102976,"Customer will make payments over 5 months to total the amount of $2400, then use synchrony for remaining balance.
will confirm the payment info. 1/15/18/ Hitomi",Not Dispatched,1,8.00
1/15/2018 9:59:46 AM,jing wei,CA,92886,Relax2Zero 2.0,USJ-9050USJ-9050BR,Brown,New,,,,,2800.00,2800.00,0.00,May Kam,Cash,100.00,,,,,,,COD,2700.00,,,,,,,,0.00,,,,,,,,No,"3 years parts, 1 year labor (Free)",Called,Asian American Expo 1/13-14/18 (CA),,"one family bought two chairs, special discount, COD $2700",102978,"01/15/18-Cristina- Printed
May provided cash to pres. Michael",CA,1,9.25
1/15/2018 10:16:34 AM,Yang Wei,CA,91701,Relax2Zero 2.0,USJ-9050USJ-9050BR,Brown,New,,,,,2800.00,2800.00,0.00,May Kam,Cash,100.00,,,,,,,COD,2700.00,,,,,,,,0.00,,,,,,,,No,"3 years parts, 1 year labor (Free)",Called,Asian American Expo 1/13-14/18 (CA),,"With order 102978 together, special discount. COD $2700",102979,"01/15/18-Cristina- Printed
May provided cash to pres. Michael",CA,1,9.25
1/15/2018 10:28:23 AM,Xiao Jiang,CA,91784,Legacy,DWA-9100DWA-9100CH-DEMO,Demo Choco Brown,Demo,,,,,2875.00,2875.00,0.00,Mikito Nakanishi,CreditCard,2875.00,01490B  and 01434B,,,,,,,0.00,,,,,,,,0.00,,,,,,,,No,"3 years parts, 1 year labor (Free)",Called,Asian American Expo 1/13-14/18 (CA),,Paid off; another phone : 909 660 9553,102980,"confirmed $2,800/$75 in Wells Fargo. 1/15/18 Hitomi
01/15/18-Cristina- Printed",CA,1,9.25
1/15/2018 10:31:32 AM,Scott Wehrli,TX,60540,Legacy 3D,DWA-9150USJ-9150CH,Choco Brown,New,,,,,4300.00,4300.00,0.00,Andres Soto,CreditCard,4300.00,78258P,,,,,,,0.00,,,,,,,,0.00,,,,,,,,No,"3 years parts, 1 year labor (Free)",New,Health&Wellness H Mart Illinois,,,102981,"Naperville, IL 60540 (correct address)
Chair has also been delivered by Andres on 1/9/2018
Payment was collected over the phone by Stephany.
SN#0202002170266",TX,1,8.50
1/15/2018 10:39:37 AM,Michael Jordan,TX,76148,Legacy 3D,DWA-9150USJ-9150CH,Choco Brown,New,,,,,3900.00,3900.00,0.00,Mijung Song,CreditCard,3900.00,c4A9,,,,,,,0.00,,,,,,,,0.00,,,,,,,,No,"3 years parts, 1 year labor (Free)",Called,LAS COLINAS HM SHOW  #318 1/13-14/18 (TX),,,102982,"confirmed $3,900 in Square. 1/15/18 Hitomi",TX,1,8.25
1/15/2018 10:52:40 AM,Lin Chih,CA,91748,Legacy,DWA-9100DWA-9100BL,Black,New,,,,,3300.00,3300.00,0.00,Riho Kanazawa,CreditCard,200.00,08594C,,,,,,CreditCard,3100.00,,,,,,,,0.00,,,,,,,,No,"3 years parts, 1 year labor (Free)",Called,Asian American Expo 1/13-14/18 (CA),,"COD $3100, Chinese Manual request, when we deliver chair, pls bring to the customer, Thanks",102983,"confirmed $200 in Wells Fargo. 1/15/18 Hitomi
01/15/18-Cristina- Printed",CA,1,9.25
1/15/2018 10:52:40 AM,Lin Chih,CA,91748,Chair Pad for Legacy,,,New,,,,,3300.00,3300.00,0.00,Riho Kanazawa,CreditCard,200.00,08594C,,,,,,CreditCard,3100.00,,,,,,,,0.00,,,,,,,,No,no warranty,Called,Asian American Expo 1/13-14/18 (CA),,"COD $3100, Chinese Manual request, when we deliver chair, pls bring to the customer, Thanks",102983,"confirmed $200 in Wells Fargo. 1/15/18 Hitomi
01/15/18-Cristina- Printed",CA,1,9.25
1/15/2018 11:00:59 AM,Ling Sheue,CA,91748,Legacy 3D,DWA-9150USJ-9150CH,Choco Brown,New,,,,,3650.00,3650.00,0.00,Mikito Nakanishi,CreditCard,3650.00,86858D,,,,,,,0.00,,,,,,,,0.00,,,,,,,,No,"3 years parts, 1 year labor (Free)",Called,Asian American Expo 1/13-14/18 (CA),,Paid in Full,102984,"confirmed $3,650 in Wells Fargo. 1/15/18 Hitomi
01/15/18-Cristina- Printed",CA,1,9.25
1/15/2018 11:03:58 AM,Sheila Jesgar,FL,32563,Legacy for Sam's,DWA-9100DWA-9100SB,Sienna Brown,New,,,,,4621.43,4299.00,322.43,Michael Cuatrona,PurchaseOrder,4621.43,,9894 5310 1703 0245 1984 11,,,,,,0.00,,,,,,,,0.00,,,,,,,,No,"3 years parts, 2 years labor ($200)",Assigned,Sam's Club #8119  Pensacola  1/4-1/14(FL),,3 year warranty for the parts and 2 years for the labor (extra year added by Michael - no extra charge),102985,#09,FL,0,7.50
1/15/2018 11:12:22 AM,Jim Maurice,FL,32571,Relax2Zero 2.0 for Sam's,USJ-9050USJ-9050BR,Brown,New,,,,,3438.93,3199.00,239.93,Michael Cuatrona,PurchaseOrder,3438.93,,7816 7759 5639 3107 5140 05,,,,,,0.00,,,,,,,,0.00,,,,,,,,No,"3 years parts, 1 year labor (Free)",Assigned,Sam's Club #8119  Pensacola  1/4-1/14(FL),,MIL - upgrade to a brand new unit as per Michael (no extra charge),102986,MIL - upgrade to a brand new unit as per Michael (no extra charge),FL,0,7.50
1/15/2018 11:19:31 AM,Christine Pereira,FL,32505,Relax2Zero 2.0 for Sam's,USJ-9050USJ-9050BR,Brown,New,,,,,4192.50,3900.00,292.50,Michael Cuatrona,PurchaseOrder,4192.50,,4758 4575 7994 95397233 87,,,,,,0.00,,,,,,,,0.00,,,,,,,,No,"3 years parts, 2 years labor ($200)",Hold,Sam's Club #8119  Pensacola  1/4-1/14(FL),,"Standard warranty (3 years parts, 1 year labor) + an extra 1 year labor warranty as per Michael (no extra charge)",102987,(HOLD) don't schedule the delivery until after 02-05-18,Not Dispatched,0,7.50
1/15/2018 11:21:13 AM,Trung Nguyen,CA,91763,Relax2Zero 2.0,USJ-9050USJ-9050BR,Brown,New,,,,,3000.00,3000.00,0.00,May Kam,Cash,200.00,,,,,,,COD,2800.00,,,,,,,,0.00,,,,,,,,No,"3 years parts, 1 year labor (Free)",Called,Asian American Expo 1/13-14/18 (CA),,"COD $2800, another phone no is 9093199110",102988,"01/15/18-Cristina- Printed
May provided cash to pres. Michael",CA,1,9.25
1/15/2018 11:30:36 AM,Ann Ho,CA,91755,Majesty,DWA-8000DWA-8000-BL,Black,New,,,,,3000.00,3000.00,0.00,Mikito Nakanishi,CreditCard,200.00,09147C,,,,,,CreditCard,2800.00,COD,,,,,,,0.00,,,,,,,,No,"3 years parts, 1 year labor (Free)",Hold,Asian American Expo 1/13-14/18 (CA),,"COD $2800, sales person : Mikito and May",102989,customer hasn't decide which chair to get. She will let Mikito know on 1/18/18.-1/15/18 Hitomi,CA,1,9.25
1/15/2018 11:30:43 AM,Steven Lenga,FL,32503,Relax2Zero 2.0 for Sam's,USJ-9050USJ-9050BR,Brown,New,,,,,3438.93,3199.00,239.93,Michael Cuatrona,PurchaseOrder,3438.93,,9744 7939 3112 1029 3042 23,,,,,,0.00,,,,,,,,0.00,,,,,,,,No,"3 years parts, 1 year labor (Free)",Assigned,Sam's Club #8119  Pensacola  1/4-1/14(FL),,MIL - upgrade the order to a brand new unit as per Michael at no extra cost,102990,Please send new unit,FL,0,7.50
1/15/2018 11:36:40 AM,Steve Irvwin,FL,32507,Relax2Zero 2.0 for Sam's,USJ-9050USJ-9050BL,Black,New,,,,,3438.93,3199.00,239.93,Michael Cuatrona,PurchaseOrder,3438.93,,5994 9510 1707 9245 1264 41,,,,,,0.00,,,,,,,,0.00,,,,,,,,No,"3 years parts, 1 year labor (Free)",Assigned,Sam's Club #8119  Pensacola  1/4-1/14(FL),,ERR - color change (upgrade to a brand new unit as per Michael at no extra cost),102991,#14 - please send brand new unit,FL,0,7.50
1/15/2018 11:39:10 AM,Deborah Mccaffrey,FL,32327,Vitality Plate for Sam's,USJ-849USJ-849-DEMO,Demo,Demo,,,,,429.99,399.99,30.00,Alex Brackelsberg,CreditCard,0.00,60477929858551373913,,,,,,,0.00,,,,,,,,0.00,,,,,,,,YES,"2 years parts, 1 year labor (Small Items)",Delivered,"Sam's Club #8120 Tallahassee, Fl 1/11-1/21",,Customer picked,102992,,FL,0,7.50
1/15/2018 11:44:04 AM,John Chung,FL,32506,Legacy for Sam's,DWA-9100DWA-9100BL,Blue,New,,,,,3868.93,3599.00,269.93,Michael Cuatrona,PurchaseOrder,3868.93,,8187 6292 9355 6318 9321 19,,,,,,0.00,,,,,,,,0.00,,,,,,,,No,"3 years parts, 1 year labor (Free)",Assigned,Sam's Club #8119  Pensacola  1/4-1/14(FL),,EXT - customer paid for DEMO but Michael upgraded the order to a brand new unit at no extra cost. Please send a brand new unit (blue),102993,#15 - please send a new unit,FL,0,7.50
1/15/2018 11:51:38 AM,Hai Lai,CA,91770,Relax2Zero 2.0,USJ-9050USJ-9050BR,Brown,New,,,,,3300.00,3300.00,0.00,May Kam,Cash,200.00,,,,,,,CreditCard,3100.00,COD,,,,,,,0.00,,,,,,,,No,"3 years parts, 1 year labor (Free)",Called,Asian American Expo 1/13-14/18 (CA),,"COD $3100 in cash .  Request bring Chinese Manual with chair together ,
 Thanks ; another phone is 626 643 1698",102994,"01/15/18-Cristina- Printed 
May provided cash to pres. Michael",CA,1,9.25
1/15/2018 12:15:11 PM,Michael Slowinski,FL,32571,Relax2Zero 2.0 for Sam's,USJ-9050USJ-9050BL,Black,New,,,,,3438.93,3199.00,239.93,Michael Cuatrona,PurchaseOrder,3438.93,,3518 5300 0929 5463 0486 60,,,,,,0.00,,,,,,,,0.00,,,,,,,,No,"3 years parts, 1 year labor (Free)",Assigned,Sam's Club #8119  Pensacola  1/4-1/14(FL),,MIL - order upgraded to a brand new unit as per Michael  at no extra cost (Black),102995,#16 - please send a brand new unit (black),FL,0,7.50
1/15/2018 12:16:58 PM,Shu Yang,CA,91702,Daiwa Blanket,,,New,,,,,3800.00,3800.00,0.00,May Kam,CreditCard,200.00,03031C,,,,,,CreditCard,3600.00,COD,,,,,,,0.00,,,,,,,,No,no warranty,Called,Asian American Expo 1/13-14/18 (CA),,"COD $3600, Thanks",102996,"confirmed $200 in Wells Fargo. 1/15/18 Hitomi
01/15/18-Cristina- Printed-",CA,1,9.25
1/15/2018 12:16:58 PM,Shu Yang,CA,91702,Relax2Zero 2.0,USJ-9050USJ-9050BL,Black,New,,,,,3800.00,3800.00,0.00,May Kam,CreditCard,200.00,03031C,,,,,,CreditCard,3600.00,COD,,,,,,,0.00,,,,,,,,No,"3 years parts, 1 year labor (Free)",Called,Asian American Expo 1/13-14/18 (CA),,"COD $3600, Thanks",102996,"confirmed $200 in Wells Fargo. 1/15/18 Hitomi
01/15/18-Cristina- Printed-",CA,1,9.25
1/15/2018 12:26:44 PM,Nina Jo Campbell,FL,32502,Ninja Leg Massager,,,New,,,,,407.43,379.00,28.43,Michael Cuatrona,PurchaseOrder,407.43,,0700 8656 4858 7926 0095 6,,,,,,0.00,,,,,,,,0.00,,,,,,,,No,"2 years parts, 1 year labor (Small Items)",Delivered,Sam's Club #8119  Pensacola  1/4-1/14(FL),,Free shipping,102997,Please ship,FL,0,7.50
1/15/2018 1:35:05 PM,Aluyn Haywood,NJ,08628,Relax2Zero 3D,DWA-9060USJ-9060BL,Black,New,,,,,4000.00,4000.00,0.00,Winston Melgar,Synchrony,4000.00,,,6034610083050321,83732942,,36 months,,0.00,,,,,,,,0.00,,,,,,,,No,"3 years parts, 1 year labor (Free)",Called,Philadelphia Home Show 1/12-21/18 (IL),,,102998,"confirmed the account in Synchrony. ($6,000) *Please charge before delivery.* 1/15/18 Hitomi",TX,1,8.00
1/15/2018 1:42:04 PM,Nicole Lemanski,PA,19123,Legacy 3D,DWA-9150USJ-9150BL,Black,New,,,,,4050.00,4050.00,0.00,Winston Melgar,Synchrony,4000.00,,,,,,,,0.00,,,,,,,,0.00,,,,,,,,No,"3 years parts, 1 year labor (Free)",New,Philadelphia Home Show 1/12-21/18 (IL),,,102999,,Not Dispatched,1,8.00
1/15/2018 1:42:11 PM,Ron Hart,NV,89501,Legacy for Sam's,DWA-9100DWA-9100BL,Black,New,,,,,3896.46,3599.00,297.46,Michael Wang,CreditCard,3896.46,Tc# 3603 9401 0822 0667 7505 78,,,,,,,0.00,,,,,,,,0.00,,,,,,,,No,"3 years parts, 1 year labor (Free)",Assigned,Sam's Club #4768 Reno  1/11-21/18 (NV),,"Give customer new chair, 2 total free chair pads, 1 free Daiwa blanket.",103000,Customer will be out of town after next week so customer will be available the week of Feb 12th for delivery.Customer lives on 13th floor penthouse suite so use freight elevator to access 13th floor.,NV,0,8.27
1/15/2018 1:51:48 PM,Kenneth Toler,PA,19144,Relax2Zero 3D,DWA-9060USJ-9060BR,Choco Brown,New,,,,,4200.00,4200.00,0.00,Abagail Stirling,Synchrony,4200.00,,,6034610083049596,83719886,Las Vegas,48 months,,0.00,,,,,,,,0.00,,,,,,,,No,"3 years parts, 1 year labor (Free)",New,Philadelphia Home Show 1/12-21/18 (IL),,,103001,confirm the account Synchrony ($2000) under KENNETH R TOLER. will confirm with sales rep. 1/15/18 Hitomi,Not Dispatched,1,8.00
1/15/2018 1:57:00 PM,Daiwa Massage,CA,90249,Foot Vibe Pro,USJ-871,,New,,,,,238.16,219.98,18.18,Michael Wang,CreditCard,119.08,Tc# 4431 4404 9664 7775 6418 9,,,,,,CreditCard,119.08,Tc# 9147 9929 3545 1112 5663 0,,,,,,,0.00,,,,,,,,YES,"2 years parts, 1 year labor (Small Items)",Delivered,Sam's Club #4768 Reno  1/11-21/18 (NV),,,103002,Sales order 4 and 5.,CA,0,8.27
1/15/2018 2:12:55 PM,Ernesto Moran,TX,77429,Relax2Zero 1.0,USJ-9000USJ-9000BR,Brown,New,,,,,3000.00,2828.52,171.48,Yichuang (Debbie) Yang,CreditCard,300.00,tHpK,,,,,,Cash,0.00,,,,,,,,0.00,,,,,,,,No,"3 years parts, 1 year labor (Free)",Called,Health and Wellness Houston Store 2017 (TX),,Customer will pay remaining balance of $2700 in cash. Wave the charge for the second floor deliver.,103003,confirmed $300 in Square. 1/15/18 Hitomi,TX,0,8.25
1/15/2018 2:18:19 PM,Tyrone Harley,PA,19320,Relax2Zero 3D,DWA-9060USJ-9060BL,Black,New,,,,,5550.00,5550.00,0.00,Winston Melgar,Synchrony,4200.00,,,6034610083049661,83721171,Las Vegas,48 months,,0.00,,,,,,,,0.00,,,,,,,,No,"3 years parts, 1 year labor (Free)",Called,Philadelphia Home Show 1/12-21/18 (IL),,,103004,"confirmed the account in Synchrony under TYRONE E HARLEY ($8,500). *Please Charge before delivery.* 1/15/18 Hitomi",TX,1,8.00
1/15/2018 2:24:54 PM,Leigh Ann Dan Ripp,PA,19008,Relax2Zero 3D,DWA-9060USJ-9060BL,Black,New,,,,,4000.00,4000.00,0.00,Abagail Stirling,CreditCard,4000.00,,,,,,,,0.00,,,,,,,,0.00,,,,,,,,No,"3 years parts, 1 year labor (Free)",New,Philadelphia Home Show 1/12-21/18 (IL),,,103005,will confirmed Credit Card Authorize Number with sales rep 1/15/18 Hitomi,Not Dispatched,1,8.00
1/15/2018 3:46:45 PM,ROLANDO BUENCONSEJO,NV,89141,Legacy,DWA-9100DWA-9100BL,Black,New,,,,,3000.00,3000.00,0.00,Carlos Jose,CreditCard,3000.00,CHdq,,,,,,,0.00,,,,,,,,0.00,,,,,,,,No,"3 years parts, 1 year labor (Free)",Assigned,Las Vegas 99 Ranch (NV),,,103006,"PAYMENT CONFIRMED $3,000 - STEPHANY 1/15/18",NV,1,8.15
1/15/2018 5:21:46 PM,Windi Hsu Wang,CA,92882,Legacy,DWA-9100DWA-9100CR,Cream,New,,,,,3800.00,3800.00,0.00,Mikito Nakanishi,Synchrony,3800.00,,,6034610083051378,83754308,San Diego,36 months,,0.00,,,,,,,,0.00,,,,,,,,No,"3 years parts, 1 year labor (Free)",Called,Asian American Expo 1/13-14/18 (CA),,Synchrony approved ($3800). 1/15/18 Riho,103007,Please charge $3800 before delivery. 1/15/18 Riho,CA,1,9.25
1/15/2018 5:29:17 PM,YAN WANG,CA,91709,Legacy,DWA-9100DWA-9100CH,Choco Brown,New,,,,,2800.00,2800.00,0.00,May Kam,Cash,100.00,,,,,,,COD,0.00,,,,,,,,0.00,,,,,,,,No,"3 years parts, 1 year labor (Free)",New,Asian American Expo 1/13-14/18 (CA),,,103008,,Not Dispatched,1,9.25
1/15/2018 5:32:11 PM,TAO SHIN PU,CA,91214,Relax2Zero 2.0,USJ-9050USJ-9050BR,Brown,New,,,,,3000.00,3000.00,0.00,May Kam,COD,500.00,,,,,,,COD,0.00,,,,,,,,0.00,,,,,,,,No,"3 years parts, 1 year labor (Free)",New,Asian American Expo 1/13-14/18 (CA),,,103009,,Not Dispatched,1,9.25
1/15/2018 5:39:36 PM,Amy Tran,CA,91706,Relax2Zero 2.0,USJ-9050USJ-9050BR,Brown,New,,,,,3816.00,3816.00,0.00,May Kam,CreditCard,100.00,013508,,,,,,,0.00,,,,,,,,0.00,,,,,,,,No,"3 years parts, 1 year labor (Free)",Hold,Asian American Expo 1/13-14/18 (CA),,Customer will go to CA office to try the chair.,103010,"Confirmed the credit transaction, May will update this Synchrony information. 1/15/18 Riho",CA,1,9.25
