﻿Original Event Name,Event Name,Sales Person,Order Number,Order Date,Customer Name,State,Zip,Product Name,Color,Product Status,QTY,Tax,Total Before Tax,Order Total,Primary Payment Method,Second Payment Method,Thirdl Payment Method,Warranty,Order Items,Pick up,Delivered On,Order Status,Chair Type,Order Notes,Private Note,Branch,No Tax,Actual Tax Rate,SKU,Primary Payment Balance,Primary Authorize Number,Primary Purchase Order Number,Primary Synchrony Account Number,Primary Synchrony Application Key,Primary Synchrony Account Info,Primary Synchrony Term,Primary Synchrony Primary ID,Primary Synchrony Issued State,Primary Synchrony Expiretion Date,Second Payment Balance,Second Authorize Number,Second Purchase Order Number,Second Synchrony Account Number,Second Synchrony Application Key,Second Synchrony Account Info,Second SynchronyTerm,Second Synchrony Primary ID,Second Synchrony Issued State,Second Synchrony Expiretion Date,Third Payment Balance,Third Authorize Number,Third Purchase Order Number,Third Synchrony Account Number,Third Synchrony Application Key,Third Synchrony Account Info,Third Synchrony Term,Third Synchrony Primary ID,Third Synchrony Issued State,Third Synchrony Expiretion Date
National Peanut Festival 11/1-10/19 (AL),National Peanut Festival 11/1-10/19 (AL),Ruben Cuatrona,122269,11/4/2019 3:09:37 PM,Patricia Lindsey,FL,32008,Relax 2 Zero 3D,Demo Black,Demo,1,0.00,3800.00,3800.00,Synchrony,COD,,"5 years parts, 1 year labor (Free)","Relax 2 Zero 3D,",No,,Cancelled,,,"Synchrony original verified. Credit avail $2200. Charge sync acct (2200), have sales draft signed. Remaining bal $1600. Collect COD @ delivery-Erika 11/5/19 3:57pm
CC, Jasmin Carrizales, customer would like to cancel, does not have enough money, emailed sales rep. to confirm 11/25/19
CC, Jasmin Carrizales, 11/7/19, 5:12pm, VM
11/26Maritza- Jasmin spoke with customer but customer would like to cancel order since she can't afford it. Sales rep confirmed.
11/27/19 Cristina confirmed. cancellation per Jasmin's email",FL,1,9.00,DWA-9060USJ-9060BL-DEMO,2200.00,,,,83342096,San Diego,36 months,Driver’s License,FL,09/2026,0.00,,,,,,,,,/,0.00,,,,,,,,,/
National Peanut Festival 11/1-10/19 (AL),National Peanut Festival 11/1-10/19 (AL),Ruben Cuatrona,122271,11/4/2019 3:20:12 PM,Brenda Love,FL,32438,PEGASUS 2 SMART,New Black,New,1,0.00,5500.00,5500.00,Synchrony,,,"5 years parts, 2 years labor ($200)","PEGASUS 2 SMART,",No,11/22/2019 12:00:00 AM,Delivered,New,,"Synchrony original verified. Credit avail $6600. Remaining bal $5500. Charge sync acct, have sales draft signed-Erika 11/5/19 4:00pm
CC, Jasmin Carrizales, 11/7/19, 5:18pm/Av. Mon.-Fri Mornings week of the 18th
Delivery conf completed, sales draft signed.-Erika 11/29/19",FL,1,9.00,PEGS-2PEGS-2-BL,5500.00,,,,83370493,San Diego,48 months,Driver’s License,FL,01/2027,0.00,,,,,,,,,/,0.00,,,,,,,,,/
National Peanut Festival 11/1-10/19 (AL),National Peanut Festival 11/1-10/19 (AL),Ruben Cuatrona,122272,11/4/2019 3:28:16 PM,Jana Collins,FL,32442,PEGASUS 2 SMART,New Choco,New,1,0.00,6500.00,6500.00,Synchrony,,,"5 years parts, 2 years labor ($200)","PEGASUS 2 SMART,",No,,Scheduled,,,"Synchrony original verified. Credit avail $6800. Remaining bal $6500. Charge sync acct, have sales draft signed-Erika 11/5/19 4:46pm",FL,1,9.00,PEGS-2PEGS-2-BR,6500.00,,,6501723375394606,83366360,San Diego,36 months,Driver’s License,FL,01/2025,0.00,,,,,,,,,/,0.00,,,,,,,,,/
National Peanut Festival 11/1-10/19 (AL),National Peanut Festival 11/1-10/19 (AL),Scott Black,122274,11/4/2019 3:41:55 PM,Lindsey Elkins,FL,32547,Hubble,Demo Choco,Demo,1,0.00,4500.00,4500.00,Credit Card,Credit Card,,"5 years parts, 1 year labor (Free)","Hubble,",No,,Called,,4300 COD by credit card,"Collect 4300 COD by credit card
Original received. $200 verified on SQ. Remaining bal $4300. Collect COD @ delivery-Erika 11/5/19 4:40pm
Av. Mon.-Fri. After 3pm",FL,1,9.00,HUBL-1HUBL-1CH-DEMO,200.00,K4B3,,,,,,,,/,0.00,,,,,,,,,/,0.00,,,,,,,,,/
National Peanut Festival 11/1-10/19 (AL),National Peanut Festival 11/1-10/19 (AL),Scott Black,122275,11/4/2019 3:49:09 PM,Betty Ritter,AL,36330,PEGASUS 2 SMART,New Black,New,1,0.00,5500.00,5500.00,Synchrony,,,"5 years parts, 1 year labor (Free)","PEGASUS 2 SMART,",No,,Scheduled,,,"Synchrony original verified. credit avail $9000. Remaining bal $5500. Charge sync acct, have sales draft signed-Erika 11/5/19 4:55pm
11/5- Alysa - Printed
11/6 - Alysa - Customer confirmed delivery Wed. 11/13 between 8-11AM. Customer will be receiving her chair then following driver's to customer Douglas Schwart (Order Number 12227) - He will be out of town and approved for Betty Ritter to receive massage chair. I will email Douglas his Synchrony Sales Draft and have him sign before delivery. Synchrony Authorization Code 007652
11/7Maritza- Per Maggie and TX branch, TX will take care of this order since they had already added them to their schedule.",TX,1,9.00,PEGS-2PEGS-2-BL,5500.00,,,,83408249,San Diego,48 months,Driver’s License,AL,02/2022,0.00,,,,,,,,,/,0.00,,,,,,,,,/
National Peanut Festival 11/1-10/19 (AL),National Peanut Festival 11/1-10/19 (AL),Scott Black,122277,11/4/2019 4:35:19 PM,Douglas Schwart,AL,36303,PEGASUS 2 SMART,New Black,New,1,0.00,5500.00,5500.00,Synchrony,,,"5 years parts, 1 year labor (Free)","PEGASUS 2 SMART,",No,,Scheduled,,,"Synchrony original verified. Credit avail $9000. Remaining bal $5500. charge sync acct, have sales draft signed-Erika 11/5/19 4:23pm
11/5 - Alysa - Printed
11/6 - Alysa - Customer confirmed delivery Wed. 11/13 between 11-2PM, He will be out of town and approved for Betty Ritter (Order Number 122275)  to receive massage chair. I will email Douglas his Synchrony Sales Draft and have him sign before delivery. Betty will be receiving her chair then following drivers to Douglas's residence to have them deliver chair. Synchrony Authorization Code 007238
11/7Maritza- Per Maggie and TX branch, TX will take care of this order since they had already added them to their schedule.",TX,1,9.00,PEGS-2PEGS-2-BL,5500.00,,,,83408163,San Diego,48 months,Driver’s License,AL,10/2022,0.00,,,,,,,,,/,0.00,,,,,,,,,/
National Peanut Festival 11/1-10/19 (AL),National Peanut Festival 11/1-10/19 (AL),Scott Black,122278,11/4/2019 6:11:01 PM,Latoya Bishop,AL,35124,PEGASUS 2 SMART,New Choco,New,1,0.00,6500.00,6500.00,Credit Card,COD,,"5 years parts, 1 year labor (Free)","PEGASUS 2 SMART,",No,,Cancelled,,,"$1000 verified on SQ. Remaining bal $5500. Collect COD @ delivery-Erika 11/5/19 4:26pm
Canceled sales rep gave them $500 discount with 2 years labor. Created a new order # 122324-Erika 11/6",FL,1,9.00,PEGS-2PEGS-2-BR,1000.00,4mvf,,,,,,,,/,0.00,,,,,,,,,/,0.00,,,,,,,,,/
National Peanut Festival 11/1-10/19 (AL),National Peanut Festival 11/1-10/19 (AL),Ruben Cuatrona,122290,11/5/2019 1:49:36 PM,Maria Nichols,AL,36330,Relax 2 Zero 3D,New Choco,New,1,0.00,4000.00,4000.00,Credit Card,Credit Card,,"5 years parts, 2 years labor ($200)","Relax 2 Zero 3D,",No,11/21/2019 12:00:00 AM,Delivered,New,,"Original received. $2000 verified on SQ. Remaining bal $2000. collect COD @ delivery-Erika 11/5/19 4:51pm
Delivery conf completed COD of $2000 verified on housecall, paid by credit card-Erika 11/27/19 4:51pm",FL,1,9.00,DWA-9060USJ-9060BR,2000.00,XKHh,,,,,,,,/,2000.00,House call Pro,,,,,,,,/,0.00,,,,,,,,,/
National Peanut Festival 11/1-10/19 (AL),National Peanut Festival 11/1-10/19 (AL),Ruben Cuatrona,122291,11/5/2019 1:55:25 PM,Gary Haddock,FL,32462,Relax 2 Zero 3D,Demo Choco,Demo,1,0.00,3800.00,3800.00,Credit Card,,,"5 years parts, 1 year labor (Free)","Relax 2 Zero 3D,",No,,Scheduled,,,"Original received. $3800 verified on SQ. Paid in full-Erika 11/5/19 4:58pm
Av. 11/26-12/2-Anytime.",FL,1,9.00,DWA-9060USJ-9060BR-DEMO,3800.00,o8L1,,,,,,,,/,0.00,,,,,,,,,/,0.00,,,,,,,,,/
National Peanut Festival 11/1-10/19 (AL),National Peanut Festival 11/1-10/19 (AL),Ruben Cuatrona,122292,11/5/2019 2:02:25 PM,Roslyn Horton,AL,36353,Hubble,Demo Choco,Demo,1,274.50,3800.00,4074.50,Cash,COD,,"5 years parts, 1 year labor (Free)","Hubble,",No,,Cancelled,,,Canceled incorrect amount-Erika new order#122303,Not Dispatched,0,9.00,HUBL-1HUBL-1CH-DEMO,200.00,,,,,,,,,/,0.00,,,,,,,,,/,0.00,,,,,,,,,/
National Peanut Festival 11/1-10/19 (AL),National Peanut Festival 11/1-10/19 (AL),Ruben Cuatrona,122303,11/5/2019 5:03:55 PM,Roslyn Horton,AL,36353,Hubble,Demo Choco,Demo,1,0.00,3800.00,3800.00,Cash,Credit Card,,"5 years parts, 1 year labor (Free)","Hubble,",No,11/21/2019 12:00:00 AM,Delivered,New,,"Original received. $200 cash verified by Ruben. Remaining bal $3600. Collect COD @ delivery-erika 11/5/19 5:05pm
Delivery conf completed, COD of $3600 verified on housecall. Paid by credit card-Erika 11/27/19 4:55pm",FL,1,9.00,HUBL-1HUBL-1CH-DEMO,200.00,,,,,,,,,/,3600.00,House call Pro,,,,,,,,/,0.00,,,,,,,,,/
National Peanut Festival 11/1-10/19 (AL),National Peanut Festival 11/1-10/19 (AL),Scott Black,122324,11/6/2019 5:14:42 PM,LaToya R. Bishop,AL,35124,PEGASUS 2 SMART,New Choco,New,1,0.00,6000.00,6000.00,Credit Card,COD,,"5 years parts, 2 years labor ($200)","PEGASUS 2 SMART,",No,11/20/2019 12:00:00 AM,Delivered,New,,"$1000 verified on SQ. Remaining bal $5500. Collect COD @ delivery-Erika 11/5/19 4:26pm
Delivery conf completed. COD of $5000 was verified on Housecall. Paid by credit card-Erika 11/27/19 4:57pm",FL,1,9.00,PEGS-2PEGS-2-BR,1000.00,4mvf,,,,,,,,/,5000.00,,,,,,,,,/,0.00,,,,,,,,,/
National Peanut Festival 11/1-10/19 (AL),National Peanut Festival 11/1-10/19 (AL),Ruben Cuatrona,122327,11/6/2019 7:27:07 PM,Lori Cox,TN,38501,PEGASUS 2 SMART,Demo Black,Demo,1,0.00,5800.00,5800.00,Synchrony,,,"5 years parts, 2 years labor ($200)","PEGASUS 2 SMART,",No,,Scheduled,,,"Sync account verified. Credit avail $5800. Remaining bal $5800. Charge sync acct, have sales draft signed-Erika 11/7/19 11:18am
CC, Jasmin Carrizales, 11/11/19, 4:31pm/Out of town 11/17-11/25",FL,1,9.00,PEGS-2PEGS-2-BL-DEMO,5800.00,,,,83505733,San Diego,36 months,Driver’s License,TN,03/2023,0.00,,,,,,,,,/,0.00,,,,,,,,,/
National Peanut Festival 11/1-10/19 (AL),National Peanut Festival 11/1-10/19 (AL),Ruben Cuatrona,122329,11/6/2019 7:32:43 PM,Raina Wood,FL,32440,PEGASUS 2 SMART,New Choco,New,1,0.00,6000.00,6000.00,Synchrony,,,"5 years parts, 2 years labor ($200)","PEGASUS 2 SMART,",No,11/21/2019 12:00:00 AM,Delivered,New,,"Synchrony original verified. Credit avail $7800. Remaining bal $6000. Charge sync acct, have sales draft signed-Erika 11/7/19 11:16 AM
Delivery conf completed,  sales draft signed-Erika 11/29/19",FL,1,9.00,PEGS-2PEGS-2-BR,6000.00,,,,83498455,San Diego,48 months,Driver’s License,FL,04/2025,0.00,,,,,,,,,/,0.00,,,,,,,,,/
National Peanut Festival 11/1-10/19 (AL),National Peanut Festival 11/1-10/19 (AL),Ruben Cuatrona,122330,11/6/2019 7:37:17 PM,Larry Turner,AL,36567,PEGASUS 2 SMART,New Black,New,1,0.00,6000.00,6000.00,Credit Card,,,"5 years parts, 2 years labor ($200)","PEGASUS 2 SMART,",No,11/19/2019 12:00:00 AM,Delivered,New,,"Original received. $6000 verified on SQ. Paid in full-Erika 11/7
Delivery conf completed-Erika 11/29/19 2:31pm",FL,1,9.00,PEGS-2PEGS-2-BL,6000.00,IIYw,,,,,,,,/,0.00,,,,,,,,,/,0.00,,,,,,,,,/
National Peanut Festival 11/1-10/19 (AL),National Peanut Festival 11/1-10/19 (AL),Scott Black,122331,11/6/2019 7:42:12 PM,Debby Mcpherson,AL,36321,Hubble,Demo Choco,Demo,1,0.00,5200.00,5200.00,Synchrony,,,"5 years parts, 1 year labor (Free)","Hubble,",No,11/20/2019 12:00:00 AM,Delivered,New,,"Synchrony original verified. Credit avail $7000. Remaining bal $5200. Charge sync acct, have sales draft signed-Erika 11/7/19 10:36am
Delivery conf completed, sales draft signed-Erika 11/29/19",FL,1,9.00,HUBL-1HUBL-1CH-DEMO,5200.00,,,,83552947,San Diego,48 months,Driver’s License,MT,12/2025,0.00,,,,,,,,,/,0.00,,,,,,,,,/
National Peanut Festival 11/1-10/19 (AL),National Peanut Festival 11/1-10/19 (AL),Ruben Cuatrona,122338,11/7/2019 3:28:41 PM,Jamie Dunaway,AL,35543,Relax 2 Zero 3D,Demo Choco,Demo,1,0.00,3500.00,3500.00,Cash,,,"5 years parts, 1 year labor (Free)","Relax 2 Zero 3D,",YES,,Delivered,,,"Original received. Customer pick up chair at show, $3500 paid in cash verified by Ruben C.-Erika 11/8/19 9:40am
*Did not pickup, NEEDS TO BE DELIVERED after show(per Ruben) - 11/11/19 MQ
Per Maggie, Chair needs to be delivered, $3500 will be turned in by Ruben C to office -Erika 11/11
11/12/19 JD - Jasmin confirmed with customer that they picked up the chair.
11/14/19 JC - Texted and emailed customer to get SN & Signature, waiting on response.",FL,1,9.00,DWA-9060USJ-9060BR-DEMO,3500.00,,,,,,,,,/,0.00,,,,,,,,,/,0.00,,,,,,,,,/
National Peanut Festival 11/1-10/19 (AL),National Peanut Festival 11/1-10/19 (AL),Scott Black,122339,11/7/2019 6:47:29 PM,Aaron Dansby,AL,36310,PEGASUS 2 SMART,Demo Choco,Demo,1,0.00,5500.00,5500.00,Credit Card,,,"5 years parts, 1 year labor (Free)","PEGASUS 2 SMART,",YES,11/11/2019 12:00:00 AM,Delivered,Demo,,"Original received. Customer will pick up chair on sunday 11/10/19-Erika 11/8/19 9:38am
$5500 verified on SQ. Paid in full-Erika 11/8/19 9:38am
Chair was delivered after show/picked up-Erika 11/11/19 12:05pm
Shipped Pegs2Smart- Manual + List of Voice Commands 11/18/19 JC",FL,1,9.00,PEGS-2PEGS-2-BR-DEMO,5500.00,FDap,,,,,,,,/,0.00,,,,,,,,,/,0.00,,,,,,,,,/
National Peanut Festival 11/1-10/19 (AL),National Peanut Festival 11/1-10/19 (AL),Ruben Cuatrona,122340,11/7/2019 7:51:50 PM,Brian and Amber Andress,AL,36375,PEGASUS 2 SMART,New Choco,New,2,0.00,9000.00,9000.00,Check,Check,,"5 years parts, 5 years labor ($800)","PEGASUS 2 SMART,",No,11/21/2019 12:00:00 AM,Delivered,New,,"Waiting for paycheck to clear & be deposited
Check was deposited today 11/12 by Ruben C. waiting for paycheck to clear-Erika 11/12 12:17pm
Original received. Check has been cleared for the amount of $1000. Remaining bal $8000. Collect COD @ delivery-Erika 11/19/19 11:58am
Delivery conf completed. COD of $8000 was payed by cashiers check. Yumi has confirmed its clear-Erika 11/29/19",FL,1,9.00,PEGS-2PEGS-2-BR,1000.00,,,,,,,,,/,8000.00,,,,,,,,,/,0.00,,,,,,,,,/
National Peanut Festival 11/1-10/19 (AL),National Peanut Festival 11/1-10/19 (AL),Scott Black,122373,11/10/2019 10:28:23 AM,Robert Lankford,GA,30047,Hubble,Demo Choco,Demo,1,0.00,5200.00,5200.00,Credit Card,,,"5 years parts, 1 year labor (Free)","Hubble,",No,11/21/2019 12:00:00 AM,Delivered,New,,"Original received. $5200 verified on SQ. Paid in full-Erika 11/11/19 12:20pm
CC, Jasmin Carrizales, 11/11/19, 5:16pm, VM
Delivery conf completed-Erika 11/27/19",FL,1,9.00,HUBL-1HUBL-1CH-DEMO,5200.00,UQgc,,,,,,,,/,0.00,,,,,,,,,/,0.00,,,,,,,,,/
National Peanut Festival 11/1-10/19 (AL),National Peanut Festival 11/1-10/19 (AL),Scott Black,122374,11/10/2019 10:33:13 AM,Derly Phillips,AL,32421,Hubble,New Choco,New,1,0.00,4500.00,4500.00,Synchrony,,,"5 years parts, 1 year labor (Free)","Hubble,",No,11/22/2019 12:00:00 AM,Delivered,New,,"Synchrony original verified. Credit avail $6500. Remaining bal $4500. Charge sync acct, have sales draft signed. -Erika 11/11/19 1:56pm
Delivery conf completed, sales draft signed-Erika 11/19/19",FL,1,9.00,HUBL-1HUBL-1CH,4500.00,,,,83712910,San Diego,36 months,Driver’s License,FL,04/2020,0.00,,,,,,,,,/,0.00,,,,,,,,,/
National Peanut Festival 11/1-10/19 (AL),National Peanut Festival 11/1-10/19 (AL),Scott Black,122375,11/10/2019 10:37:22 AM,Amanda Balistreri,AL,36301,PEGASUS 2 SMART,New Choco,New,1,0.00,5500.00,5500.00,Synchrony,,,"5 years parts, 1 year labor (Free)","PEGASUS 2 SMART,",No,11/20/2019 12:00:00 AM,Delivered,New,,"Synchrony original verified. credit avail $6600. Remaining bal $5500. Charge sync acct, have sales draft signed-Erika 11/11/19 2:11pm
Delivery conf completed, sales draft signed-Erika 11/29/19",FL,1,9.00,PEGS-2PEGS-2-BR,5500.00,,,,83707636,San Diego,36 months,Driver’s License,AL,06/2021,0.00,,,,,,,,,/,0.00,,,,,,,,,/
National Peanut Festival 11/1-10/19 (AL),National Peanut Festival 11/1-10/19 (AL),Ruben Cuatrona,122376,11/10/2019 10:45:31 AM,Kathy Hunter,AL,36320,PEGASUS 2 SMART,Demo Black,Demo,1,292.50,4000.00,4292.50,Credit Card,,,"5 years parts, 1 year labor (Free)","PEGASUS 2 SMART,",No,,Cancelled,,Weekend delivery request,"Weekend delivery only
Per Sales Rep. Customer is Cancelling. 11/11/19, JC 11:13am
Seems like this order has been canceled. Fl has given a refund to customer-Erika 11/11/19 2:08pm",Not Dispatched,0,9.00,PEGS-2PEGS-2-BL-DEMO,4000.00,pMJ2,,,,,,,,/,0.00,,,,,,,,,/,0.00,,,,,,,,,/
National Peanut Festival 11/1-10/19 (AL),National Peanut Festival 11/1-10/19 (AL),Ruben Cuatrona,122377,11/10/2019 10:51:14 AM,Scott Turvin,AL,36301,Hubble,New Choco,New,1,0.00,4800.00,4800.00,Credit Card,,,"5 years parts, 1 year labor (Free)","Hubble,",No,11/20/2019 12:00:00 AM,Delivered,New,,"Original received. $4800 verified on SQ. Paid in full-Erika 11/11/19 2:01pm
Delivery conf completed-Erika 11/29/19 2:30pm",FL,1,9.00,HUBL-1HUBL-1CH,4800.00,gjvF,,,,,,,,/,0.00,,,,,,,,,/,0.00,,,,,,,,,/
National Peanut Festival 11/1-10/19 (AL),National Peanut Festival 11/1-10/19 (AL),Ruben Cuatrona,122379,11/10/2019 10:57:22 AM,Jason Strickland,AL,36375,PEGASUS 2 SMART,New Choco,New,1,0.00,4500.00,4500.00,Credit Card,Check,,"5 years parts, 5 years labor ($800)","PEGASUS 2 SMART,",No,11/20/2019 12:00:00 AM,Delivered,New,Collect balance $4000,"COD $4000
Original received. $500 verified on SQ. Remaining bal $4000. collect COD @ delivery-Erika 11/11/19 12:29pm
Delivery conf completed, cashiers check has been confirmed by Yumi-Erika 11/29/19",FL,1,9.00,PEGS-2PEGS-2-BR,500.00,4Kz5,,,,,,,,/,4000.00,,,,,,,,,/,0.00,,,,,,,,,/
National Peanut Festival 11/1-10/19 (AL),National Peanut Festival 11/1-10/19 (AL),Scott Black,122380,11/10/2019 11:02:59 AM,Matt Layfield,FL,32430,Hubble,New Choco,New,1,0.00,4500.00,4500.00,Synchrony,COD,,"5 years parts, 1 year labor (Free)","Hubble,",No,,Called,,"Hold and wait for customer advise
December delivery","Hold december delivery
Pls place on hold. credit avail $3000. charge sync bal $3000. Remaining bal $1500. COD @ delivery-Erika 11/11
CC, Jasmin CArrizales, 11/13/19, 5:21pm, VM-Full",FL,1,9.00,HUBL-1HUBL-1CH,3000.00,,,,83699210,,36 months,Driver’s License,FL,03/2022,0.00,,,,,,,,,/,0.00,,,,,,,,,/
