﻿Original Event Name,Event Name,Sales Person,Order Number,Order Date,Customer Name,State,Zip,Product Name,Color,Product Status,QTY,Tax,Total Before Tax,Order Total,Primary Payment Method,Second Payment Method,Thirdl Payment Method,Warranty,Order Items,Pick up,Delivered On,Order Status,Chair Type,Order Notes,Private Note,Branch,No Tax,Actual Tax Rate,SKU,Primary Payment Balance,Primary Authorize Number,Primary Purchase Order Number,Primary Synchrony Account Number,Primary Synchrony Application Key,Primary Synchrony Account Info,Primary Synchrony Term,Primary Synchrony Primary ID,Primary Synchrony Issued State,Primary Synchrony Expiretion Date,Second Payment Balance,Second Authorize Number,Second Purchase Order Number,Second Synchrony Account Number,Second Synchrony Application Key,Second Synchrony Account Info,Second SynchronyTerm,Second Synchrony Primary ID,Second Synchrony Issued State,Second Synchrony Expiretion Date,Third Payment Balance,Third Authorize Number,Third Purchase Order Number,Third Synchrony Account Number,Third Synchrony Application Key,Third Synchrony Account Info,Third Synchrony Term,Third Synchrony Primary ID,Third Synchrony Issued State,Third Synchrony Expiretion Date
"Sams Club #6675 Erie, PA","Sams Club #6675 Erie, PA",Michael Cuatrona,118718,7/15/2019 2:01:47 PM,Gerald Anderson,PA,16404,Relax 2 Zero 3D for Sam's,New Brown,New,1,269.94,4499.00,4768.94,Sam’s Club Synchrony,,,"3 years parts, 2 years labor ($200)","Relax 2 Zero 3D for Sam's,",No,,New,,"[MC upgrade see notes] -- as per Michael's call, give an additional 1 year of labor warranty at no extra cost. Please apply a code to balance the order","3 years parts and 2 years labor
Customer will be going out of the country 7/19, would like a Courtesy Call before that.  He won't be coming back until August 6.  Please work around that per Michael - Emily",Not Dispatched,0,6.00,DWA-9060DWA-9060BR,4768.94,,,,,,,,,/,0.00,,,,,,,,,/,0.00,,,,,,,,,/
