﻿Original Event Name,Event Name,Sales Person,Order Number,Order Date,Customer Name,State,Zip,Product Name,Color,Product Status,QTY,Tax,Total Before Tax,Order Total,Primary Payment Method,Second Payment Method,Thirdl Payment Method,Warranty,Order Items,Pick up,Delivered On,Order Status,Chair Type,Order Notes,Private Note,Branch,No Tax,Actual Tax Rate,SKU,Primary Payment Balance,Primary Authorize Number,Primary Purchase Order Number,Primary Synchrony Account Number,Primary Synchrony Application Key,Primary Synchrony Account Info,Primary Synchrony Term,Second Payment Balance,Second Authorize Number,Second Purchase Order Number,Second Synchrony Account Number,Second Synchrony Application Key,Second Synchrony Account Info,Second SynchronyTerm,Third Payment Balance,Third Authorize Number,Third Purchase Order Number,Third Synchrony Account Number,Third Synchrony Application Key,Third Synchrony Account Info,Third Synchrony Term
"Sam's Club #6254 Maple Grove, MN","Sam's Club #6254 Maple Grove, MN",Chris Tavira,117890,6/9/2019 7:33:30 PM,Vege Bharat,MN,55447,Ninja Leg Massager 2,Demo[-20.00],Demo,1,51.17,679.97,731.14,Credit Card,,,"2 years parts, 1 year labor for Small Items","Vitality Plate for Sam's,Ninja Leg Massager 2,",YES,,Delivered,,"Invoice # S0014726
Invoice # S0014717",,IL,0,7.53,USJ-880-Demo,731.14,TC # 145867827709454274078,,,,,,0.00,,,,,,,0.00,,,,,,
"Sam's Club #6254 Maple Grove, MN","Sam's Club #6254 Maple Grove, MN",Chris Tavira,117890,6/9/2019 7:33:30 PM,Vege Bharat,MN,55447,Vitality Plate for Sam's,Demo[-60],Demo,1,51.17,679.97,731.14,Credit Card,,,"2 years parts, 1 year labor for Small Items","Vitality Plate for Sam's,Ninja Leg Massager 2,",YES,,Delivered,,"Invoice # S0014726
Invoice # S0014717",,IL,0,7.53,USJ-849USJ-849-DEMO,731.14,TC # 145867827709454274078,,,,,,0.00,,,,,,,0.00,,,,,,
"Sam's Club #6254 Maple Grove, MN","Sam's Club #6254 Maple Grove, MN",Chris Tavira,117891,6/9/2019 7:44:07 PM,Carmela Ramos,MN,55429,Ninja Leg Massager 2,Demo[-20.00],Demo,1,21.07,279.98,301.05,Credit Card,,,"2 years parts, 1 year labor for Small Items","Ninja Leg Massager 2,",YES,,Delivered,,Invoice # S0014690,,IL,0,7.53,USJ-880-Demo,301.05,TC # 166242650266365547920,,,,,,0.00,,,,,,,0.00,,,,,,
"Sam's Club #6254 Maple Grove, MN","Sam's Club #6254 Maple Grove, MN",Chris Tavira,117892,6/9/2019 7:48:37 PM,Luis Paucar,MN,55407,Shogun Neck & Back Massger,Demo[-20],Demo,1,13.54,179.98,193.52,Credit Card,,,"2 years parts, 1 year labor for Small Items","Shogun Neck &amp; Back Massger,",YES,,Delivered,,Invoice # S0014691,,IL,0,7.53,USJ-874USJ-874-DEMO,193.52,TC # 581503961301701809675,,,,,,0.00,,,,,,,0.00,,,,,,
"Sam's Club #6254 Maple Grove, MN","Sam's Club #6254 Maple Grove, MN",Chris Tavira,117893,6/9/2019 7:52:49 PM,Neomi Tequah,MN,55369,Shogun Neck & Back Massger,Demo[-20],Demo,1,13.54,179.98,193.52,Credit Card,,,"2 years parts, 1 year labor for Small Items","Shogun Neck &amp; Back Massger,",YES,,Delivered,,Invoice # S0014718,,IL,0,7.53,USJ-874USJ-874-DEMO,193.52,TC # 945739120983637445287,,,,,,0.00,,,,,,,0.00,,,,,,
"Sam's Club #6254 Maple Grove, MN","Sam's Club #6254 Maple Grove, MN",Chris Tavira,117894,6/9/2019 7:57:59 PM,Jason Mutscle,MN,55430,Relax 2 Zero 3D for Sam's,Demo (Box) Black[-700],Demo,1,285.87,3799.00,4084.87,Credit Card,,,"3 years parts, 1 year labor (Free)","Relax 2 Zero 3D for Sam's,",No,,New,,Invoice # S0014685,Original received. Erika 6/10/19 11:09am,IL,0,7.53,DWA-9060DWA-9060BL-DEMO (Box),4084.87,TC # 5123260677012542931721,,,,,,0.00,,,,,,,0.00,,,,,,
"Sam's Club #6254 Maple Grove, MN","Sam's Club #6254 Maple Grove, MN",Chris Tavira,117896,6/9/2019 8:03:55 PM,Felipe Lavios,MN,55321,Shogun Neck & Back Massger,Demo[-20],Demo,1,13.54,179.98,193.52,Credit Card,,,"2 years parts, 1 year labor for Small Items","Shogun Neck &amp; Back Massger,",YES,,Delivered,,Invoice # S0014676,,IL,0,7.53,USJ-874USJ-874-DEMO,193.52,TC # 759857408709452824060,,,,,,0.00,,,,,,,0.00,,,,,,
"Sam's Club #6254 Maple Grove, MN","Sam's Club #6254 Maple Grove, MN",Chris Tavira,117897,6/9/2019 8:08:46 PM,Andrea Wolf,MN,55376,Relax 2 Zero 3D for Sam's,Demo (Box) Brown[-700],Demo,1,285.87,3799.00,4084.87,Credit Card,,,"3 years parts, 1 year labor (Free)","Relax 2 Zero 3D for Sam's,",No,,New,,Invoice # S 0014678,Original received. Erika 6/10/19 11:04am,IL,0,7.53,DWA-9060DWA-9060BR-DEMO (Box),4084.87,TC # 9004041080172926741893,,,,,,0.00,,,,,,,0.00,,,,,,
"Sam's Club #6254 Maple Grove, MN","Sam's Club #6254 Maple Grove, MN",Chris Tavira,117898,6/9/2019 8:13:18 PM,Mike Saffold,MN,55443,PEGASUS 2 SMART - Sam's,Demo(Box) Black[-700],Demo,1,413.80,5499.00,5912.80,Credit Card,,,"3 years parts, 1 year labor (Free)","PEGASUS 2 SMART - Sam's,",No,,New,,Invoice # S0014415,Original received. Erika 6/10/19 11:01pm,IL,0,7.53,PEGS-2PEGS-2-BL-DEMO(Box),5912.80,TC # 7284011185180920749833,,,,,,0.00,,,,,,,0.00,,,,,,
"Sam's Club #6254 Maple Grove, MN","Sam's Club #6254 Maple Grove, MN",Chris Tavira,117931,6/10/2019 2:30:40 PM,Steve Abel,MN,55304,Vitality Plate for Sam's,Demo[-60],Demo,1,30.10,399.99,430.09,Credit Card,,,"2 years parts, 1 year labor for Small Items","Vitality Plate for Sam's,",YES,,Delivered,,Invoice # S0014681,Membership # 10142210499914323,IL,0,7.53,USJ-849USJ-849-DEMO,430.09,TC # 322212191266366549940,,,,,,0.00,,,,,,,0.00,,,,,,
