﻿Order Number,Order Date,Event Name,Salesperson,SKU,Product Name,Color,QTY,Warranty,Payment Details,Tax,Order Total,Gross,Primary Payment Method,Primary Payment Balance,Primary Authorize Number,Primary Purchase Order Number,Primary Synchrony Account Number,Primary Synchrony Application Key,Primary Synchrony AccountInfo,Primary SynchronyTerm,Secondly Payment Method,Secondly Payment Balance,Secondly Authorize Number,Secondly Purchase Order Number,Secondly Synchrony Account Number,Secondly Synchrony Application Key,Secondly Synchrony AccountInfo,Secondly SynchronyTerm,Thirdly Payment Method,Thirdly Payment Balance,Thirdly Authorize Number,Thirdly Purchase Order Number,Thirdly Synchrony Account Number,Thirdly Synchrony Application Key,Thirdly Synchrony AccountInfo,Thirdly SynchronyTerm,Actual Shipping Cost,CustomerName,Shipping Address,Delivered On,Serial Number (TO Be),Note,Branch,IsNoTax,ActualTaxRate
105648,4/30/2018 8:56:54 AM,Sam's Club #8151 4/26-5/6/18 (FL),Michael Cuatrona,USJ-9050USJ-9050BE,Relax 2 Zero 2.0 for Sam's,New Beige,1,"3 years parts, 2 years labor ($200)",CUSTOM ,234.00,4134.00,4134.00,PurchaseOrder,4212.00,,4848 0777 7175 9739 2903 87,,,,,,0.00,,,,,,,,0.00,,,,,,,0.00,Tammy Gabel,8507051204,,,"[Warranty Upgrade - MC] - upgraded from (3 years parts and 1 year labor) to (3 years parts, 2 years labor) at no extra cost as per Michael ; please adjust the tax (8%)",FL,0,6.00
105659,4/30/2018 10:35:23 AM,Sam's Club #8151 4/26-5/6/18 (FL),Michael Cuatrona,USJ-9050USJ-9050BR,Relax 2 Zero 2.0 for Sam's,New Brown,1,"3 years parts, 2 years labor ($200)",CUSTOM ,234.00,4134.00,4134.00,PurchaseOrder,4212.00,,5103 6004 0409 2062 9296 10,,,,,,0.00,,,,,,,,0.00,,,,,,,0.00,Terry Suggs,8503794018,,,"[Warranty Upgrade - MC] - upgraded from (3 years parts and 1 year labor) to (3 years parts, 2 years labor) at no extra cost courtesy of Michael ; please adjust the tax (8%)",FL,0,6.00
105754,5/4/2018 7:20:25 AM,Sam's Club #8151 4/26-5/6/18 (FL),Michael Cuatrona,DWA-9100DWA-9100CH,Legacy for Sam's,New Choco,1,"3 years parts, 3 years labor ($400)",CUSTOM ,343.92,4642.92,4642.92,PurchaseOrder,4642.92,,6217 8699 7290 5917 4391 79,,,,,,0.00,,,,,,,,0.00,,,,,,,0.00,Jiayan (Jenny) Cui,8502525353,,,"[Warranty upgraded] - from (3 years parts, 1 year labor) to ( 3 years parts, 3 years labor) at no extra charge - $400 disc applied by Michael",Not Dispatched,0,8.00
105755,5/4/2018 7:27:44 AM,Sam's Club #8151 4/26-5/6/18 (FL),Michael Cuatrona,DWA-9100DWA-9100BL,Legacy for Sam's,New Black,1,"3 years parts, 1 year labor (Free)",CUSTOM ,287.92,3886.92,3886.92,PurchaseOrder,3886.92,,7056 7055 9858 3509 6180 45,,,,,,0.00,,,,,,,,0.00,,,,,,,0.00,Maria Granger,8506919587,,,[MED - MC] - floor model order upgraded to a brand new Legacy Unit (black) at no extra cost as per Michael; **IMPORTANT** please add 2 extra back pads **IMPORTANT**,Not Dispatched,0,8.00
105886,5/7/2018 8:33:10 AM,Sam's Club #8151 4/26-5/6/18 (FL),Michael Cuatrona,DWA-9100DWA-9100BL,Legacy for Sam's,New Black,1,"3 years parts, 1 year labor (Free)",CUSTOM ,287.92,3886.92,3886.92,PurchaseOrder,3886.92,,9235 8233 5936 9325 8022 63,,,,,,0.00,,,,,,,,0.00,,,,,,,0.00,Joseph Bonono,5044816135,,,[MKTNG OVRD MC] - upgrade demo order as per Michael at no extra cost- Deliver new unit; approx delivery time : 2 weeks,FL,0,8.00
105887,5/7/2018 8:38:50 AM,Sam's Club #8151 4/26-5/6/18 (FL),Michael Cuatrona,USJ-9050USJ-9050BL,Relax 2 Zero 2.0 for Sam's,New Black,1,"3 years parts, 1 year labor (Free)",CUSTOM ,255.92,3454.92,3454.92,PurchaseOrder,3454.92,,0381 5642 2244 6473 3457 54,,,,,,0.00,,,,,,,,0.00,,,,,,,0.00,Ben Golden,3346363122,,,[UPG - MC] - please fulfill and upgrade the order to a new unit as per Michael,FL,0,8.00
105888,5/7/2018 8:43:05 AM,Sam's Club #8151 4/26-5/6/18 (FL),Michael Cuatrona,USJ-9050USJ-9050BR,Relax 2 Zero 2.0 for Sam's,New Brown,1,"3 years parts, 1 year labor (Free)",CUSTOM ,255.92,3454.92,3454.92,PurchaseOrder,3454.92,,5934 8719 3316 0143 7274 91,,,,,,0.00,,,,,,,,0.00,,,,,,,0.00,Wayne Henderson,8502588517,,,[UPG MC] please fulfill and upgrade the order to a brand new unit as per Michael (no extra cost),FL,0,8.00
