﻿Original Event Name,Event Name,Sales Person,Order Number,Order Date,Customer Name,State,Zip,Product Name,Color,Product Status,QTY,Tax,Total Before Tax,Order Total,Primary Payment Method,Second Payment Method,Thirdl Payment Method,Warranty,Order Items,Pick up,Delivered On,Order Status,Chair Type,Order Notes,Private Note,Branch,No Tax,Actual Tax Rate,SKU,Primary Payment Balance,Primary Authorize Number,Primary Purchase Order Number,Primary Synchrony Account Number,Primary Synchrony Application Key,Primary Synchrony Account Info,Primary Synchrony Term,Second Payment Balance,Second Authorize Number,Second Purchase Order Number,Second Synchrony Account Number,Second Synchrony Application Key,Second Synchrony Account Info,Second SynchronyTerm,Third Payment Balance,Third Authorize Number,Third Purchase Order Number,Third Synchrony Account Number,Third Synchrony Application Key,Third Synchrony Account Info,Third Synchrony Term
Sam's Club #6420 Clearwater 5/23-6/2/19 (FL),Sam's Club #6420 Clearwater 5/23-6/2/19 (FL),Neneth Finley,117626,5/28/2019 4:58:55 AM,Mairaj Uddin,FL,33772,Pegasus for Sam's,Demo Black[-700],Demo,1,0.00,4798.00,4798.00,Credit Card,,,"3 years parts, 1 year labor (Free)","Pegasus for Sam's,",No,,Called,,,"Updated Delivery  Address: 
3340 Hibiscus Dr W
Belleair Beach, FL 33786
Original received. Erika 6/3/19 1:50pm",FL,1,7.00,DWA-9400Pegasus-BL-DEMO,0.00,9163 8404 5103 2247 1307 35,,,,,,0.00,,,,,,,0.00,,,,,,
Sam's Club #6420 Clearwater 5/23-6/2/19 (FL),Sam's Club #6420 Clearwater 5/23-6/2/19 (FL),Neneth Finley,117738,6/2/2019 3:49:56 AM,Scott Davis,FL,34685,Legacy for Sam's,New Black,New,1,0.00,4299.00,4299.00,Credit Card,,,"3 years parts, 1 year labor (Free)","Legacy for Sam's,",No,,Called,,,"Original received. 6/3/19 11:40am Erika
CC, Jasmin Carrizales, 6/3/19, 2:47pm/ Surprise for wifes B-Day",FL,1,7.00,DWA-9100DWA-9100BL,0.00,0570 4861 1768 7870 4783 80,,,,,,0.00,,,,,,,0.00,,,,,,
Sam's Club #6420 Clearwater 5/23-6/2/19 (FL),Sam's Club #6420 Clearwater 5/23-6/2/19 (FL),Neneth Finley,117739,6/2/2019 4:03:44 AM,Este ssam Guirguis,FL,34677,Foot Vibe Pro,,New,1,0.00,309.97,309.97,Credit Card,,,"2 years parts, 1 year labor for Small Items","Foot Vibe Pro,Shogun Neck &amp; Back Massger,",No,,Delivered,,,picked up at show.,FL,1,7.00,USJ-871,0.00,0991 5451 7423 6812 8451 1,,,,,,0.00,,,,,,,0.00,,,,,,
Sam's Club #6420 Clearwater 5/23-6/2/19 (FL),Sam's Club #6420 Clearwater 5/23-6/2/19 (FL),Neneth Finley,117739,6/2/2019 4:03:44 AM,Este ssam Guirguis,FL,34677,Shogun Neck & Back Massger,New,New,1,0.00,309.97,309.97,Credit Card,,,"2 years parts, 1 year labor for Small Items","Foot Vibe Pro,Shogun Neck &amp; Back Massger,",No,,Delivered,,,picked up at show.,FL,1,7.00,USJ-874USJ-874,0.00,0991 5451 7423 6812 8451 1,,,,,,0.00,,,,,,,0.00,,,,,,
Sam's Club #6420 Clearwater 5/23-6/2/19 (FL),Sam's Club #6420 Clearwater 5/23-6/2/19 (FL),Neneth Finley,117740,6/2/2019 4:08:31 AM,James Johnson,FL,33771,Foot Vibe Pro,,New,1,0.00,309.97,309.97,Credit Card,,,"2 years parts, 1 year labor for Small Items","Shogun Neck &amp; Back Massger,Foot Vibe Pro,",YES,,Delivered,,,picked up at show.,FL,1,7.00,USJ-871,0.00,2239 7832 4837 7996 6610 2,,,,,,0.00,,,,,,,0.00,,,,,,
Sam's Club #6420 Clearwater 5/23-6/2/19 (FL),Sam's Club #6420 Clearwater 5/23-6/2/19 (FL),Neneth Finley,117740,6/2/2019 4:08:31 AM,James Johnson,FL,33771,Shogun Neck & Back Massger,New,New,1,0.00,309.97,309.97,Credit Card,,,"2 years parts, 1 year labor for Small Items","Shogun Neck &amp; Back Massger,Foot Vibe Pro,",YES,,Delivered,,,picked up at show.,FL,1,7.00,USJ-874USJ-874,0.00,2239 7832 4837 7996 6610 2,,,,,,0.00,,,,,,,0.00,,,,,,
Sam's Club #6420 Clearwater 5/23-6/2/19 (FL),Sam's Club #6420 Clearwater 5/23-6/2/19 (FL),Neneth Finley,117741,6/2/2019 4:13:47 AM,Yolanda Francisco,FL,33767,Vitality Plate for Sam's,Demo[-60],Demo,1,0.00,399.99,399.99,Credit Card,,,"2 years parts, 1 year labor for Small Items","Vitality Plate for Sam's,",YES,,Delivered,,,Picked up at show.,FL,1,7.00,USJ-849USJ-849-DEMO,0.00,3202 3245 5234 4620 3296 3,,,,,,0.00,,,,,,,0.00,,,,,,
Sam's Club #6420 Clearwater 5/23-6/2/19 (FL),Sam's Club #6420 Clearwater 5/23-6/2/19 (FL),Neneth Finley,117760,6/2/2019 1:09:10 PM,Thuns Gonzales,FL,33765,Vitality Plate for Sam's,Demo[-60],Demo,1,0.00,399.99,399.99,Credit Card,,,"2 years parts, 1 year labor for Small Items","Vitality Plate for Sam's,",YES,,Delivered,,,picked up at show.,FL,1,7.00,USJ-849USJ-849-DEMO,0.00,2023 5423 4325 2064 3296 4,,,,,,0.00,,,,,,,0.00,,,,,,
Sam's Club #6420 Clearwater 5/23-6/2/19 (FL),Sam's Club #6420 Clearwater 5/23-6/2/19 (FL),Neneth Finley,117779,6/3/2019 8:36:24 AM,John Mahan,FL,34695,Vitality Plate for Sam's,Demo[-60],Demo,1,0.00,399.99,399.99,Credit Card,,,"2 years parts, 1 year labor for Small Items","Vitality Plate for Sam's,",YES,,Delivered,,,,FL,1,7.00,USJ-849USJ-849-DEMO,0.00,0120 2611 4647 8714 7137 0,,,,,,0.00,,,,,,,0.00,,,,,,
