﻿Date,Customer Name,State,Zipcode,Description,Product Number,Color,Product Status,Net,Shipping Fee,Gift Price,Financing Processing Fee,Order Total,Total Before Tax,Tax,Commission,Primary Payment Method,Primary Payment Balance,Primary Authorize Number,Primary Purchase Order Number,Primary Synchrony Account Number,Primary Synchrony Application Key,Primary Synchrony Account Info,Primary Synchrony Term,Primary Synchrony Primary ID,Primary Synchrony Issued State,Primary Synchrony Expiretion Date,Second Payment Method,Second Payment Balance,Second Authorize Number,Second Purchase Order Number,Second Synchrony Account Number,Second Synchrony Application Key,Second Synchrony Account Info,Second Synchrony Term,Second Synchrony Primary ID,Second Synchrony Issued State,Second Synchrony Expiretion Date,Third Payment Method,Third Payment Balance,Third Authorize Number,Third Purchase Order Number,Third Synchrony Account Number,Third Synchrony Application Key,Third Synchrony Account Info,Third Synchrony Term,Third Synchrony Primary ID,Third Synchrony Issued State,Third Synchrony Expiretion Date,Delivery Date,Pick up,Warranty,Status,Chair Type,Original Event Name,Event Name,Synchrony Notes,Order Notes,Order Number,Private Note,Branch,No Tax,Actual Tax Rate
6/1/2019 8:23:10 PM,Shelly Allsup,CA,92102,PEGASUS 2 SMART,PEGS-2PEGS-2-BL-DEMO,Demo Black,Demo,,,,,5500.00,5500.00,0.00,Rolly San Jose,Synchrony,5000.00,,,5046620188256272,76339546,,36 months,,,,,0.00,,,,,,,,,,,0.00,,,,,,,,,,,No,"5 years parts, 1 year labor (Free)",Cancelled,,SAN DIEGO COUNTY FAIR 5/31-7/4/19 DEL MAR(CA),SAN DIEGO COUNTY FAIR 5/31-7/4/19 DEL MAR(CA),"Authorization Code 6/5
005919
PC:436
REFUNDED 6/10 (Chair had a malfunction. no chair delivered. She wants to place order on hold. Maybe in the future she will go through with sale.)",,117728,"Customer already has Synchrony account.  Limit is $8942
DL State: CA
Exp:  11/2019
scheduled 6/10 10-1
6/4Maritza- Received copy of invoice. Approved for 6500.
Price Change from $5,500.00 to $5,000.00 Per Kristy 06/03/19 8:46 am -Cristina
Because someone stated ""CANCEL 6/10/19"" on the invoice, I marked this order as cancelled. Informed Charles and Yuki about the malfunction, they'll follow up with the factory. 6/24/19 Riho",CA,1,7.75
6/1/2019 8:33:01 PM,Mr & Mrs Barb Savage,CA,92071,Legacy 3D,DWA-9150USJ-9150CH,New Choco,New,,,,,4250.00,4250.00,0.00,May Kam,Credit Card,250.00,D4KJ,,,,,,,,,Credit Card,4000.00,housecall,,,,,,,,,,0.00,,,,,,,,,,6/7/2019 12:00:00 AM,No,"5 years parts, 1 year labor (Free)",Delivered,New,SAN DIEGO COUNTY FAIR 5/31-7/4/19 DEL MAR(CA),SAN DIEGO COUNTY FAIR 5/31-7/4/19 DEL MAR(CA),,"Special Military and Senior discount , manager approval, home phone no is 
6192581478",117730,"6/3 Maritza- Confirmed $250 on square collect COD 4000 upon delivery.
scheduled 6/7 12-3
6/11 Maritza- Delivery confirmation received. COD collected through house call
Confirmed $4,000 on HCP. 6/14/19 Riho",CA,1,7.75
6/1/2019 8:42:02 PM,Mr & Mrs Linda Turner,CA,92532,Legacy 3D,DWA-9150USJ-9150CH,New Choco,New,,,,,4700.00,4700.00,0.00,May Kam,Cash,200.00,,,,,,,,,,Cash,4500.00,,,,,,,,,,,0.00,,,,,,,,,,6/5/2019 12:00:00 AM,No,"5 years parts, 1 year labor (Free)",Delivered,New,SAN DIEGO COUNTY FAIR 5/31-7/4/19 DEL MAR(CA),SAN DIEGO COUNTY FAIR 5/31-7/4/19 DEL MAR(CA),,"Special cash price discount , manager approval ; Pls arrange to deliver chair before Jun 13,2019, Thanks",117731,"*Need to Confirm deposit: $200 cash*
6/3Maritza- Copy of invoice received. COD cash 4500 upon delivery.
scheduled for 6/5 12-3
6/12Maritza- Delivery confirmation received. Cash COD $4,500 signed off by Pres Michael 6/7",CA,1,7.75
6/2/2019 10:13:51 AM,Mr & Mrs Morgann Sides,CA,92054,Legacy 3D,DWA-9150USJ-9150CH-DEMO,Demo Choco,Demo,,,,,4078.00,4078.00,0.00,May Kam,Synchrony,4078.00,,,6501723375172929,76254378,Huston,36 months,,,,,0.00,,,,,,,,,,,0.00,,,,,,,,,,6/10/2019 12:00:00 AM,No,"5 years parts, 1 year labor (Free)",Delivered,New,SAN DIEGO COUNTY FAIR 5/31-7/4/19 DEL MAR(CA),SAN DIEGO COUNTY FAIR 5/31-7/4/19 DEL MAR(CA),"Authorization Code
006111
PC:436
Confirmed transaction: $4078 on Sync-TX. 6/14/19 Riho","Special military discount , pls make finance $4078 purchase, thanks",117751,"6/3Maritza- Copy of invoice and Synchrony application received. Approved for $9000. Collect signature on sales draft.
scheduled 6/10 8-10
6/11 Maritza- Delivery confirmation received with sales draft. New chair due to no demo in stock",CA,1,7.75
6/2/2019 10:13:51 AM,Mr & Mrs Morgann Sides,CA,92054,Tourmaline Pad for Legacy 3D,,,New,,,,,4078.00,4078.00,0.00,May Kam,Synchrony,4078.00,,,6501723375172929,76254378,Huston,36 months,,,,,0.00,,,,,,,,,,,0.00,,,,,,,,,,6/10/2019 12:00:00 AM,No,no warranty,Delivered,New,SAN DIEGO COUNTY FAIR 5/31-7/4/19 DEL MAR(CA),SAN DIEGO COUNTY FAIR 5/31-7/4/19 DEL MAR(CA),"Authorization Code
006111
PC:436
Confirmed transaction: $4078 on Sync-TX. 6/14/19 Riho","Special military discount , pls make finance $4078 purchase, thanks",117751,"6/3Maritza- Copy of invoice and Synchrony application received. Approved for $9000. Collect signature on sales draft.
scheduled 6/10 8-10
6/11 Maritza- Delivery confirmation received with sales draft. New chair due to no demo in stock",CA,1,7.75
6/2/2019 5:25:27 PM,Leon Kamins,CA,91942,PEGASUS 2 SMART,PEGS-2PEGS-2-BR-DEMO,Demo Choco,Demo,,,,,6000.00,6000.00,0.00,Ruben Cuatrona,Synchrony,6000.00,,,6501723375174529,76289276,San Diego,36 months,,,,,0.00,,,,,,,,,,,0.00,,,,,,,,,,,No,"5 years parts, 2 years labor ($200)",Cancelled,,SAN DIEGO COUNTY FAIR 5/31-7/4/19 DEL MAR(CA),SAN DIEGO COUNTY FAIR 5/31-7/4/19 DEL MAR(CA),"Authorization Code 6/3
003620
PC: 436",,117766,"Bring both Synchrony Form and Sales Order for customer’s signature.
6/3Maritza- Received copies of order. Need signatures on all papers. Collect signature on sales draft.
Scheduled for 6/7 9-12",CA,1,7.75
6/2/2019 5:55:34 PM,Larry Threadgill,CA,91977,Relax 2 Zero 3D,DWA-9060USJ-9060BR,New Choco,New,,,,,4000.00,4000.00,0.00,Querubin Milanes,Credit Card,2000.00,Sq #JRIG,,,,,,,,,Credit Card,2000.00,Sq #baoq,,,,,,,,,,0.00,,,,,,,,,,6/10/2019 12:00:00 AM,No,"5 years parts, 1 year labor (Free)",Delivered,New,SAN DIEGO COUNTY FAIR 5/31-7/4/19 DEL MAR(CA),SAN DIEGO COUNTY FAIR 5/31-7/4/19 DEL MAR(CA),,,117767,"SQ.amount both verified. Total of $4000. Erika 6/4/19 12:17pm
Originals Pending,
scheduled 6/10 8:30-11:30
6/11 Maritza- Delivery confirmation received.",CA,1,7.75
6/2/2019 6:03:02 PM,Leticia Love,CA,91977,Relax 2 Zero 3D,DWA-9060USJ-9060BR,New Choco,New,,,,,4200.00,4200.00,0.00,Rodrigo Malabunga,Synchrony,4200.00,,,6501723375173125,76258897,San Diego,36 months,,,,,0.00,,,,,,,,,,,0.00,,,,,,,,,,6/10/2019 12:00:00 AM,No,"5 years parts, 2 years labor ($200)",Delivered,New,SAN DIEGO COUNTY FAIR 5/31-7/4/19 DEL MAR(CA),SAN DIEGO COUNTY FAIR 5/31-7/4/19 DEL MAR(CA),"Authorization Code 6/5
005361
PC:436
Confirmed transaction for $4,200 on Synch-SD. 6/14/19 Riho",,117768,"Free tourmaline pad 
Pls bring the tourmaline pad if
You deliver the chair

Synchrony Verified Credit available $9000. Pending Original and Synchrony application. Erika 6/4/19 12:33pm
Scheduled 6/10 9-12
6/11 Maritza- Delivery confirmation received and signed sales draft.",CA,1,7.75
6/2/2019 6:10:34 PM,Steve Montgomery,CA,92054,Relax 2 Zero 3D,DWA-9060USJ-9060BL,New Black,New,,,,,4500.00,4500.00,0.00,Querubin Milanes,Credit Card,300.00,Sq #suoe,,,,,,,,,Synchrony,4200.00,,,6501723375174412,76287604,San Diego,36 months,,,,,0.00,,,,,,,,,,6/11/2019 12:00:00 AM,No,"5 years parts, 2 years labor ($200)",Delivered,New,SAN DIEGO COUNTY FAIR 5/31-7/4/19 DEL MAR(CA),SAN DIEGO COUNTY FAIR 5/31-7/4/19 DEL MAR(CA),"Authorization Code 6/6
006087
PC:436
Confirmed transaction for $4,200 in Synchrony-CA. 6/18/19 Riho",,117769,"Sq. amount verified. $300.
Synchrony account credit available $4200. Original and Synchrony application Pending. Erika 6/4/19 12:28pm
6/4Maritza Approved for 4200. Need copy of invoice and synchrony application.
scheduled 6/11 8:30-10:30
Delivery confirmation received with signed sales draft Maritza 6/14",CA,1,7.75
6/2/2019 6:45:22 PM,Genaline Paglingayen,CA,92123,Relax 2 Zero 3D,DWA-9060USJ-9060BL,New Black,New,,,,,4500.00,4500.00,0.00,Querubin Milanes,Credit Card,2300.00,Sq #2gth,,,,,,,,,Synchrony,2200.00,,,6501723375174572,76288783,San Diego,24 months,,,,,0.00,,,,,,,,,,,No,"5 years parts, 2 years labor ($200)",Cancelled,,SAN DIEGO COUNTY FAIR 5/31-7/4/19 DEL MAR(CA),SAN DIEGO COUNTY FAIR 5/31-7/4/19 DEL MAR(CA),"Authorization Code 6/6
006940
424
6/10REFUNDED both Synchrony and Credit Card",,117770,"$2300.00 credit card
$2200.00 syncrony
----Verified SQ. amount of $2300.
Verified Synchrony  $2200. note Originals and Synchrony application pending, 
Synchrony account # incorrect. Erika 6/4/19 12:24pm
scheduled 6/10 12-3
6/10Maritza- Customer refused to sign any paperwork. No chair was delivered. Customer called in to cancel order and get refund. Synchrony and square refunded today.",CA,1,7.75
6/2/2019 7:24:50 PM,Monette Karr,CA,92110,Relax 2 Zero 3D,DWA-9060USJ-9060BR,New Choco,New,,,,,4500.00,4500.00,0.00,Joseph Chan,Credit Card,500.00,#dP2O,,,,,,,,,Credit Card,4000.00,housecall pro,,,,,,,,,,0.00,,,,,,,,,,6/12/2019 12:00:00 AM,No,"5 years parts, 2 years labor ($200)",Delivered,New,SAN DIEGO COUNTY FAIR 5/31-7/4/19 DEL MAR(CA),SAN DIEGO COUNTY FAIR 5/31-7/4/19 DEL MAR(CA),,Balance of $4000 - C.O.D.,117771,"Verified SQ. amount $500-Erika 6/4/19
Pls note we have yet not received Originals.
6/6Maritza- Copy of invoice received.
scheduled 6/12 9:30-12:30
6/17Maritza- Delivery confirmation received and confirmed cod on housecall",CA,1,7.75
6/2/2019 9:54:34 PM,Clarinet Ramirez,CA,92026,PEGASUS 2 SMART,PEGS-2PEGS-2-BL,New Black,New,,,,,5800.00,5800.00,0.00,Ruben Cuatrona,Credit Card,300.00,Square #nVlz,,,,,,,,,COD,5200.00,,,,,,,,,,,0.00,,,,,,,,,,,No,"5 years parts, 2 years labor ($200)",Cancelled,,SAN DIEGO COUNTY FAIR 5/31-7/4/19 DEL MAR(CA),SAN DIEGO COUNTY FAIR 5/31-7/4/19 DEL MAR(CA),,,117778,"6/3Maritza- Total amount was $5500. Customer gave 300 deposit confirmed on square. Remaining balance of 5200 upon delivery.
6/4Maritza- Per Ruben customer cancelled and req1uested refund 300 @ 9:16AM",CA,1,7.75
6/3/2019 10:35:00 AM,Mrs Guille Amezcua,CA,92021,Legacy 3D,DWA-9150USJ-9150BL-DEMO,Demo Black,Demo,,,,,4000.00,4000.00,0.00,May Kam,Synchrony,4000.00,,,6501723375174594,76293046,Huston,36 months,,,,,0.00,,,,,,,,,,,0.00,,,,,,,,,,6/7/2019 12:00:00 AM,No,"5 years parts, 1 year labor (Free)",Delivered,New,SAN DIEGO COUNTY FAIR 5/31-7/4/19 DEL MAR(CA),SAN DIEGO COUNTY FAIR 5/31-7/4/19 DEL MAR(CA),"Authorization Code 6/4
004280
PC:436
Confirmed transaction for $4,000 on Synch-TX. 6/14/19 Riho","Pls make finance $4000 purchase, thanks",117781,"Synchrony Available Credit $7,000
6/3Maritza- Recieved copy invoice and synchrony application. Signature on sales draft.
Sceduled 6/7 11-2
6/11 Maritza- Delivery confirmation received with sales draft. New chair received due to no demo in stock.",CA,1,7.75
6/3/2019 10:35:00 AM,Mrs Guille Amezcua,CA,92021,Tourmaline Pad for Legacy 3D,,,New,,,,,4000.00,4000.00,0.00,May Kam,Synchrony,4000.00,,,6501723375174594,76293046,Huston,36 months,,,,,0.00,,,,,,,,,,,0.00,,,,,,,,,,6/7/2019 12:00:00 AM,No,no warranty,Delivered,New,SAN DIEGO COUNTY FAIR 5/31-7/4/19 DEL MAR(CA),SAN DIEGO COUNTY FAIR 5/31-7/4/19 DEL MAR(CA),"Authorization Code 6/4
004280
PC:436
Confirmed transaction for $4,000 on Synch-TX. 6/14/19 Riho","Pls make finance $4000 purchase, thanks",117781,"Synchrony Available Credit $7,000
6/3Maritza- Recieved copy invoice and synchrony application. Signature on sales draft.
Sceduled 6/7 11-2
6/11 Maritza- Delivery confirmation received with sales draft. New chair received due to no demo in stock.",CA,1,7.75
6/3/2019 10:55:42 AM,Mr & Mrs Elizabeth DelFrate,NM,87120,Legacy 3D,DWA-9150USJ-9150CH,New Choco,New,,,,,4860.00,4860.00,0.00,May Kam,Synchrony,4860.00,,,6501723375174438,76287947,Huston,36 months,,,,,0.00,,,,,,,,,,,0.00,,,,,,,,,,6/15/2019 12:00:00 AM,No,"5 years parts, 1 year labor (Free)",Delivered,New,SAN DIEGO COUNTY FAIR 5/31-7/4/19 DEL MAR(CA),SAN DIEGO COUNTY FAIR 5/31-7/4/19 DEL MAR(CA),"Authorization code # 013956 -Cristina $4,860 36 mths. ","Manager approval Special discount , free delivery and assembly.pls make finance $4860 purchase, thanks",117782,"Synchrony Available Credit $9,000
6/3Maritza- Received copy of invoice and synchrony application. Collect signature on sales draft.
Courtesy Text completed, per customer request she preferred email but email was incorrect. We asked for a correct email. Erika 6-3/19 5:00pm
If needed to be contact # is active.
6/12 - Alysa - Customer confirmed delivery Saturday 6/15 between 5-7PM.
- Synchrony Authorization Code 013956
delivery confirmation received 06/20 cristina",TX,1,7.75
6/3/2019 10:55:42 AM,Mr & Mrs Elizabeth DelFrate,NM,87120,Tourmaline Pad for Legacy 3D,,,New,,,,,4860.00,4860.00,0.00,May Kam,Synchrony,4860.00,,,6501723375174438,76287947,Huston,36 months,,,,,0.00,,,,,,,,,,,0.00,,,,,,,,,,6/15/2019 12:00:00 AM,No,no warranty,Delivered,New,SAN DIEGO COUNTY FAIR 5/31-7/4/19 DEL MAR(CA),SAN DIEGO COUNTY FAIR 5/31-7/4/19 DEL MAR(CA),"Authorization code # 013956 -Cristina $4,860 36 mths. ","Manager approval Special discount , free delivery and assembly.pls make finance $4860 purchase, thanks",117782,"Synchrony Available Credit $9,000
6/3Maritza- Received copy of invoice and synchrony application. Collect signature on sales draft.
Courtesy Text completed, per customer request she preferred email but email was incorrect. We asked for a correct email. Erika 6-3/19 5:00pm
If needed to be contact # is active.
6/12 - Alysa - Customer confirmed delivery Saturday 6/15 between 5-7PM.
- Synchrony Authorization Code 013956
delivery confirmation received 06/20 cristina",TX,1,7.75
6/3/2019 11:08:55 AM,Margaret Razo,CA,91902,Legacy,DWA-9100DWA-9100BU,New Choco,New,,,,,3900.00,3900.00,0.00,Charles Ishida,Synchrony,3900.00,,,6501723375174263,76284856,Huston,36 months,,,,,0.00,,,,,,,,,,,0.00,,,,,,,,,,,No,"3 years parts, 1 year labor (Free)",Hold,,SAN DIEGO COUNTY FAIR 5/31-7/4/19 DEL MAR(CA),SAN DIEGO COUNTY FAIR 5/31-7/4/19 DEL MAR(CA),,"Pls see attached synchrony form about special request , thanks",117784,"Synchrony credit Line approved for $9,000
6/3Maritza- Customer approved for 9000. Received invoice and synchrony application.per customer Will place on hold since customer has to receive their card first.",CA,1,7.75
6/3/2019 11:08:55 AM,Margaret Razo,CA,91902,Chair Pad for Legacy,,,New,,,,,3900.00,3900.00,0.00,Charles Ishida,Synchrony,3900.00,,,6501723375174263,76284856,Huston,36 months,,,,,0.00,,,,,,,,,,,0.00,,,,,,,,,,,No,no warranty,Hold,,SAN DIEGO COUNTY FAIR 5/31-7/4/19 DEL MAR(CA),SAN DIEGO COUNTY FAIR 5/31-7/4/19 DEL MAR(CA),,"Pls see attached synchrony form about special request , thanks",117784,"Synchrony credit Line approved for $9,000
6/3Maritza- Customer approved for 9000. Received invoice and synchrony application.per customer Will place on hold since customer has to receive their card first.",CA,1,7.75
6/3/2019 11:08:55 AM,Margaret Razo,CA,91902,Foot Pads for Legacy,,,New,,,,,3900.00,3900.00,0.00,Charles Ishida,Synchrony,3900.00,,,6501723375174263,76284856,Huston,36 months,,,,,0.00,,,,,,,,,,,0.00,,,,,,,,,,,No,no warranty,Hold,,SAN DIEGO COUNTY FAIR 5/31-7/4/19 DEL MAR(CA),SAN DIEGO COUNTY FAIR 5/31-7/4/19 DEL MAR(CA),,"Pls see attached synchrony form about special request , thanks",117784,"Synchrony credit Line approved for $9,000
6/3Maritza- Customer approved for 9000. Received invoice and synchrony application.per customer Will place on hold since customer has to receive their card first.",CA,1,7.75
6/4/2019 8:58:06 AM,Leon Kamins,CA,91942,PEGASUS 2 SMART,PEGS-2PEGS-2-BR,New Choco,New,,,,,6000.00,6000.00,0.00,Ruben Cuatrona,Synchrony,6000.00,,,6501723375174529,76289276,San Diego,36 months,,,,,0.00,,,,,,,,,,,0.00,,,,,,,,,,6/7/2019 12:00:00 AM,No,"5 years parts, 2 years labor ($200)",Delivered,New,SAN DIEGO COUNTY FAIR 5/31-7/4/19 DEL MAR(CA),SAN DIEGO COUNTY FAIR 5/31-7/4/19 DEL MAR(CA),"Authorization Code 6/3
003620
PC: 436",,117797,"Updated from (117766)
Bring both Synchrony Form and Sales Order for customer’s signature.
6/3Maritza- Received copies of order. Need signatures on all papers. Collect signature on sales draft.
Scheduled for 6/7 9-12
6/11 Maritza- Delivery confirmation received with sales draft",CA,1,7.75
6/5/2019 5:31:45 PM,Nick Ruiz,CA,92127,PEGASUS 2 SMART,PEGS-2PEGS-2-BR-DEMO,Demo Choco,Demo,,,,,5000.00,5000.00,0.00,Rolly San Jose,Check,5000.00,,,,,,,,,,,0.00,,,,,,,,,,,0.00,,,,,,,,,,6/14/2019 12:00:00 AM,No,"5 years parts, 1 year labor (Free)",Delivered,Demo,SAN DIEGO COUNTY FAIR 5/31-7/4/19 DEL MAR(CA),SAN DIEGO COUNTY FAIR 5/31-7/4/19 DEL MAR(CA),,,117810,"Pls deliver next week.purchase date jun 5
6/6Maritza- Copy of invoice and confirmation of deposit of check received. Will wait for Shoko to move forward with delivery.
6/6Courtesy call made and message sent @ 2:20PM
Erika spoke to Shoko in regards to the issued check order should be cleared by 06/07/19 10:18 am Cristina
6/10Maritza-Printed.
6/13Receved signature from Shoko and Yumi.
scheduled 6/14 10-12
6/19Maritza- Delivery confirmation received. Mailed out manual today.",CA,1,7.75
6/6/2019 11:02:50 AM,Janet Yumen,CA,91914,Hubble,HUBL-1HUBL-1BL,New Black,New,,,,,6525.00,6000.00,525.00,Robert Shih,Synchrony,6525.00,,,6501723375177522,76414257,Huston,36 months,,,,,0.00,,,,,,,,,,,0.00,,,,,,,,,,,No,"5 years parts, 1 year labor (Free)",Scheduled,,SAN DIEGO COUNTY FAIR 5/31-7/4/19 DEL MAR(CA),SAN DIEGO COUNTY FAIR 5/31-7/4/19 DEL MAR(CA),"Authorization Code 6/24
024972
PC:436",36 months 0 % APR @ TX,117817,"6/6Maritza- Received copy of invoice. Confirmed credit for 7800. Collect signature on sales draft upon delivery.
scheduled 6/25 9:30-12:30",CA,0,8.75
6/6/2019 4:04:21 PM,Mike & Diane Dudgeon,CA,92011,PEGASUS 2 SMART,PEGS-2PEGS-2-BR,New Choco,New,,,,,4948.13,4610.35,337.78,Kristy Tran,Credit Card,500.00,Square #x09c,,,,,,,,,Credit Card,4448.13,housecall pro,,,,,,,,,,0.00,,,,,,,,,,6/11/2019 12:00:00 AM,No,"5 years parts, 2 years labor ($200)",Delivered,New,SAN DIEGO COUNTY FAIR 5/31-7/4/19 DEL MAR(CA),SAN DIEGO COUNTY FAIR 5/31-7/4/19 DEL MAR(CA),,,117824,"Customer set up chair delivery appointment with Maritza on Tuesday.  Please confirm.
6/6Maritza- Received copy of invoice confirmed $500 deposit on square Collect COD 4448.13 upon delivery.
scheduled 6/11 9-12
9/14Maritza- Delivery confirmation received. COD paid through housecall.",CA,0,8.75
6/6/2019 4:12:41 PM,Alice Casper,CA,92019,PEGASUS 2 SMART,PEGS-2PEGS-2-BR-DEMO,Demo Choco,Demo,,,,,5300.00,5300.00,0.00,Rolly San Jose,Credit Card,5300.00,Sq# fvNF,,,,,,,,,,0.00,,,,,,,,,,,0.00,,,,,,,,,,6/12/2019 12:00:00 AM,No,"5 years parts, 1 year labor (Free)",Delivered,New,SAN DIEGO COUNTY FAIR 5/31-7/4/19 DEL MAR(CA),SAN DIEGO COUNTY FAIR 5/31-7/4/19 DEL MAR(CA),,,117825,"DELIVER NEXT WEEK FROM TODAY, JUN 6
6/6Maritza- Received copy of invoice. Confirmed full amount on square.
scheduled 6/12 12:30-3:30
6/17Maritza- Delivery confirmation received.",CA,1,8.75
6/6/2019 8:14:23 PM,Marsi Bronson,CA,91914,PEGASUS 2 SMART,PEGS-2PEGS-2-BR,New Choco,New,,,,,5000.00,5000.00,0.00,Jennifer Tran,Credit Card,5000.00,Square# 1lhq,,,,,,,,,,0.00,,,,,,,,,,,0.00,,,,,,,,,,6/12/2019 12:00:00 AM,No,"5 years parts, 3 years labor ($400)",Delivered,New,SAN DIEGO COUNTY FAIR 5/31-7/4/19 DEL MAR(CA),SAN DIEGO COUNTY FAIR 5/31-7/4/19 DEL MAR(CA),,*Not Available For Delivery June 19th & 25th*,117829,"6/7Maritza- Received copy of invoice. Confirmed 5000 on square.
scheduled 6/12 10:30-1:30
6/17Maritza- Confirmed delivery confirmation received.",CA,1,8.75
6/7/2019 7:09:46 AM,Mr & Mrs Richard C Lange,CA,92026,Legacy 3D,DWA-9150USJ-9150CH-DEMO,Demo Choco,Demo,,,,,3800.00,3800.00,0.00,May Kam,Synchrony,3800.00,,,6501723375179353,76485334,Las Vegas,36 months,,,,,0.00,,,,,,,,,,,0.00,,,,,,,,,,6/12/2019 12:00:00 AM,No,"5 years parts, 1 year labor (Free)",Delivered,New,SAN DIEGO COUNTY FAIR 5/31-7/4/19 DEL MAR(CA),SAN DIEGO COUNTY FAIR 5/31-7/4/19 DEL MAR(CA),"Authorization Code 6/7
007902
PC: 436","Special discount manager approval, pls purchase finance $3800",117830,"6/7Maritza- Received copy of invoice and Synch application. Approved for 5500. collect signature on sales draft. scheduled 6/12 2-5
6/17Maritza- Devilry confirmation received with signed sales draft.",CA,1,8.75
6/7/2019 7:09:46 AM,Mr & Mrs Richard C Lange,CA,92026,Tourmaline Pad for Legacy 3D,,,New,,,,,3800.00,3800.00,0.00,May Kam,Synchrony,3800.00,,,6501723375179353,76485334,Las Vegas,36 months,,,,,0.00,,,,,,,,,,,0.00,,,,,,,,,,6/12/2019 12:00:00 AM,No,no warranty,Delivered,New,SAN DIEGO COUNTY FAIR 5/31-7/4/19 DEL MAR(CA),SAN DIEGO COUNTY FAIR 5/31-7/4/19 DEL MAR(CA),"Authorization Code 6/7
007902
PC: 436","Special discount manager approval, pls purchase finance $3800",117830,"6/7Maritza- Received copy of invoice and Synch application. Approved for 5500. collect signature on sales draft. scheduled 6/12 2-5
6/17Maritza- Devilry confirmation received with signed sales draft.",CA,1,8.75
6/7/2019 6:05:54 PM,Cheryl Keller,CA,91932,Majesty,MAJ-1010MAJ-1010-BR,New Choco,New,,,,,2350.00,2350.00,0.00,Jennifer Tran,Credit Card,2350.00,#0XQ3,,,,,,,,,,0.00,,,,,,,,,,,0.00,,,,,,,,,,,No,"5 years parts, 1 year labor (Free)",Scheduled,,SAN DIEGO COUNTY FAIR 5/31-7/4/19 DEL MAR(CA),SAN DIEGO COUNTY FAIR 5/31-7/4/19 DEL MAR(CA),,Free EZ Reach Duo,117837,"Please bring 1 EZ Reach Duo when delivering the chair
6/10Maritza- Confirmed 2350 on square. Received copy of invoice.
Scheduled 6/22 9-11",CA,1,8.75
6/8/2019 7:26:51 AM,Mr & Mrs Ethan Wood,CA,92010,Legacy 3D,DWA-9150USJ-9150BL,New Black,New,,,,,4184.00,4184.00,0.00,May Kam,Credit Card,100.00,aXrn,,,,,,,,,COD,4083.75,,,,,,,,,,,0.00,,,,,,,,,,,No,"5 years parts, 1 year labor (Free)",Hold,,SAN DIEGO COUNTY FAIR 5/31-7/4/19 DEL MAR(CA),SAN DIEGO COUNTY FAIR 5/31-7/4/19 DEL MAR(CA),,"Special military discount , manager approval ; delivery by Sep 1st,2019",117846,6/10Maritza- confirmed 100 on square remaing cod will be collected upon delivery on Sep. 1st,CA,1,8.75
6/8/2019 7:26:51 AM,Mr & Mrs Ethan Wood,CA,92010,Tourmaline Pad for Legacy 3D,,,New,,,,,4184.00,4184.00,0.00,May Kam,Credit Card,100.00,aXrn,,,,,,,,,COD,4083.75,,,,,,,,,,,0.00,,,,,,,,,,,No,no warranty,Hold,,SAN DIEGO COUNTY FAIR 5/31-7/4/19 DEL MAR(CA),SAN DIEGO COUNTY FAIR 5/31-7/4/19 DEL MAR(CA),,"Special military discount , manager approval ; delivery by Sep 1st,2019",117846,6/10Maritza- confirmed 100 on square remaing cod will be collected upon delivery on Sep. 1st,CA,1,8.75
6/8/2019 11:00:47 AM,Carol Gray,CA,92014,Legacy,DWA-9100DWA-9100BL-DEMO,Demo Black,Demo,,,,,2580.00,2580.00,0.00,Robert Shih,Cash,180.00,,,,,,,,,,Cash,2400.00,,,,,,,,,,,0.00,,,,,,,,,,6/12/2019 12:00:00 AM,No,"5 years parts, 1 year labor (Free)",Delivered,New,SAN DIEGO COUNTY FAIR 5/31-7/4/19 DEL MAR(CA),SAN DIEGO COUNTY FAIR 5/31-7/4/19 DEL MAR(CA),,"Two chairs & Cash discount approved by Mei San. / COD $2,400 ( CASH )",117847,"6/10Maritza- Received copy of invoice. May will hand accounting money. COD 2400 cash.
scheduled 6/12 7-9
6/14Maritza- Delivery confirmation received Cod paid cash signed by Yumi. NEW chair was delivered
Confirmed Yumi's signature for the cash $2,400, waiting for the another confirmation for the cash $200 from May. 6/20/19 Riho",CA,1,8.75
6/8/2019 11:05:28 AM,Lesley Boyce,--,23060,Legacy,DWA-9100DWA-9100BL-DEMO,Demo Black,Demo,,,,,2580.00,2580.00,0.00,Tom Nguyen,Cash,200.00,,,,,,,,,,Cash,2380.00,,,,,,,,,,,0.00,,,,,,,,,,6/12/2019 12:00:00 AM,No,5 years parts (International),Delivered,New,SAN DIEGO COUNTY FAIR 5/31-7/4/19 DEL MAR(CA),SAN DIEGO COUNTY FAIR 5/31-7/4/19 DEL MAR(CA),,"Package deal 
Please Ship ASAP. Tuesday afternoon 6/11/2019 or Wednesday before 8AM 6/12/2019. Customer will go back to Mexico. 
Please ship to this address: 216 21st St  Del Mar  CA  92014.",117848,"6/10Maritza- Received copy of invoice. COD will be cash upon delivery. May will submit cash deposit to accounting.
scheduled 6/12 7-9
6/14Maritza- Delivery confirmation received. cash cod received by Yumi NEW chair delivered.
Confirmed Yumi's signature for $2,380 cash, still waiting for the confirmation for the deposit $200 cash. 6/20/19 Riho",CA,1,8.75
6/8/2019 11:05:28 AM,Lesley Boyce,--,23060,Daiwa Blanket,,,New,,,,,2580.00,2580.00,0.00,Tom Nguyen,Cash,200.00,,,,,,,,,,Cash,2380.00,,,,,,,,,,,0.00,,,,,,,,,,6/12/2019 12:00:00 AM,No,no warranty,Delivered,New,SAN DIEGO COUNTY FAIR 5/31-7/4/19 DEL MAR(CA),SAN DIEGO COUNTY FAIR 5/31-7/4/19 DEL MAR(CA),,"Package deal 
Please Ship ASAP. Tuesday afternoon 6/11/2019 or Wednesday before 8AM 6/12/2019. Customer will go back to Mexico. 
Please ship to this address: 216 21st St  Del Mar  CA  92014.",117848,"6/10Maritza- Received copy of invoice. COD will be cash upon delivery. May will submit cash deposit to accounting.
scheduled 6/12 7-9
6/14Maritza- Delivery confirmation received. cash cod received by Yumi NEW chair delivered.
Confirmed Yumi's signature for $2,380 cash, still waiting for the confirmation for the deposit $200 cash. 6/20/19 Riho",CA,1,8.75
6/8/2019 12:43:12 PM,Cassandra Heil,CA,92071,Relax 2 Zero 3D,DWA-9060USJ-9060BR,New Choco,New,,,,,4450.00,4450.00,0.00,Joseph Chan,Synchrony,4450.00,,,6501723375180435,76524265,San Diego,36 months,,,,,0.00,,,,,,,,,,,0.00,,,,,,,,,,6/14/2019 12:00:00 AM,No,"5 years parts, 3 years labor ($400)",Delivered,New,SAN DIEGO COUNTY FAIR 5/31-7/4/19 DEL MAR(CA),SAN DIEGO COUNTY FAIR 5/31-7/4/19 DEL MAR(CA),"Authorization Code 6/13
013196
PC: 436",,117849,"6/10Maritza Printed
6/11Maritza- Received invoice and synch app. Approved for 9000 credit
scheduled 6/14 9:30-11:30
6/17Maritza- Customer sent me a text saying she submitted an email to customer service to cancel her order.
6/19Maritza Delivery confirmation received with signed sales draft. Will schedule for pickup.",CA,1,8.75
6/8/2019 6:49:44 PM,Jaime Colorina,CA,92139,Majesty,MAJ-1010MAJ-1010-BR,New Choco,New,,,,,2800.00,2800.00,0.00,Ruben Cuatrona,Credit Card,2800.00,Sq# 0gvy,,,,,,,,,,0.00,,,,,,,,,,,0.00,,,,,,,,,,6/12/2019 12:00:00 AM,No,"5 years parts, 2 years labor ($200)",Delivered,New,SAN DIEGO COUNTY FAIR 5/31-7/4/19 DEL MAR(CA),SAN DIEGO COUNTY FAIR 5/31-7/4/19 DEL MAR(CA),,,117852,"Deliver within 2 weeks from jun 8
6/10Maritza Confirmed 2800 on square. Received copy of invoice.
scheduled 6/12 9-12
6/14Maritza- Delivery confirmation received.",CA,1,8.75
6/8/2019 6:56:22 PM,Lynn Speckhard,CA,92021,PEGASUS 2 SMART,PEGS-2PEGS-2-BR-DEMO,Demo Choco,Demo,,,,,5300.00,5300.00,0.00,Rolly San Jose,Synchrony,5300.00,,,6501723375181474,76552941,San Diego,48 months,,,,,0.00,,,,,,,,,,,0.00,,,,,,,,,,6/13/2019 12:00:00 AM,No,"5 years parts, 1 year labor (Free)",Delivered,New,SAN DIEGO COUNTY FAIR 5/31-7/4/19 DEL MAR(CA),SAN DIEGO COUNTY FAIR 5/31-7/4/19 DEL MAR(CA),"Authorization Code 6/12
012930
PC:448
Confirmed transaction for $5,300 under the card holder name 'LORILYNN SPECKHARD' on Synchrony-SD. 6/21/19 Riho",,117854,"Deliver 1 week from June 10
6/10Maritza- Received copy of invoice and synch application. Approved for 6800
scheduled 6/13 11:30-2:30
6/18Maritza- Delivery confirmation received with signed sales draft.",CA,1,8.75
6/8/2019 7:01:07 PM,Christopher Burt,CA,92082,PEGASUS 2 SMART,PEGS-2PEGS-2-BR-DEMO,Demo Choco,Demo,,,,,5500.00,5500.00,0.00,Rolly San Jose,Synchrony,5500.00,,,6501723375181938,76560211,San Diego,48 months,,,,,0.00,,,,,,,,,,,0.00,,,,,,,,,,6/14/2019 12:00:00 AM,No,"5 years parts, 1 year labor (Free)",Delivered,Demo,SAN DIEGO COUNTY FAIR 5/31-7/4/19 DEL MAR(CA),SAN DIEGO COUNTY FAIR 5/31-7/4/19 DEL MAR(CA),"Authorization Code 6/13
013300
PC: 448
Confirmed transaction for $5,500 on Synchrony-SD. 6/21/19 Riho",,117855,"Deliver 1 week from jun 10
6/10Maritza- Received copy of invoice and synch application. Approved for 9000
6/13 12:30-3:30
6/19Maritza- Delivery confirmation received. Sales draft signed Manual mailed out today.",CA,1,8.75
6/8/2019 7:06:32 PM,Gene Sulpacio,CA,91914,PEGASUS 2 SMART,PEGS-2PEGS-2-BR,New Choco,New,,,,,5900.00,5900.00,0.00,Jennifer Tran,Credit Card,300.00,Sq# OAR4,,,,,,,,,Cash,5600.00,,,,,,,,,,,0.00,,,,,,,,,,6/14/2019 12:00:00 AM,No,"5 years parts, 1 year labor (Free)",Delivered,New,SAN DIEGO COUNTY FAIR 5/31-7/4/19 DEL MAR(CA),SAN DIEGO COUNTY FAIR 5/31-7/4/19 DEL MAR(CA),,,117856,"DELIVER WITHIN 2 WEEKS FROM JUN 8
6/10Maritza- Received copy of invoice. Confirmed 300 on square. COD 5600 cash.
scheduled 6/14 9:30-12:30
6/19Maritza- Delivery confirmation received. COD paid cash signed by Yumi.
Confirmed Yumi's signature for $5,600 cash on the delivery confirmation. 6/21/19 Riho",CA,1,8.75
6/8/2019 7:35:55 PM,Myhanh Nguyen,CA,92126,Relax 2 Zero 3D,DWA-9060USJ-9060BL-DEMO,Demo Black,Demo,,,,,3800.00,3800.00,0.00,Tom Nguyen,Credit Card,3800.00,#WLGL,,,,,,,,,,0.00,,,,,,,,,,,0.00,,,,,,,,,,6/14/2019 12:00:00 AM,No,"5 years parts, 1 year labor (Free)",Delivered,New,SAN DIEGO COUNTY FAIR 5/31-7/4/19 DEL MAR(CA),SAN DIEGO COUNTY FAIR 5/31-7/4/19 DEL MAR(CA),,,117860,"6/10MaritzaPrinted
6/11Maritza Received copy of invoice and confirmed payment on square.
scheduled 6/14 9-12
6/19Maritza- Delivery confirmation received. NEW chair given since none in stock",CA,1,8.75
6/8/2019 7:40:58 PM,Alejandro Mendoza,CA,91915,Relax 2 Zero 3D,DWA-9060USJ-9060BR,New Choco,New,,,,,4200.00,4200.00,0.00,Querubin Milanes,Synchrony,4200.00,,,6501723375181995,76561548,San Diego,36 months,,,,,0.00,,,,,,,,,,,0.00,,,,,,,,,,6/13/2019 12:00:00 AM,No,"5 years parts, 2 years labor ($200)",Delivered,New,SAN DIEGO COUNTY FAIR 5/31-7/4/19 DEL MAR(CA),SAN DIEGO COUNTY FAIR 5/31-7/4/19 DEL MAR(CA),"Authorization Code 6/11
011265
PC:436
Confirmed transaction for $4,200 on Synchrony-SD. 6/21/19 Riho",,117861,"6/10Maritza- Printed
6/11Maritza- Received copy of invoice and synch applic. Approved for 9000 credit.
scheduled 6/13 9:30-11:30
6/18Maritza- Delivery confirmation received with sales draft.",CA,1,8.75
6/9/2019 10:53:21 AM,Douglas Nance,CA,92117,Legacy,DWA-9100DWA-9100BU-DEMO,Demo Choco,Demo,,,,,3480.00,3200.00,280.00,Robert Shih,Synchrony,3480.00,,,6501723375181979,76560805,Huston,36 months,,,,,0.00,,,,,,,,,,,0.00,,,,,,,,,,6/12/2019 12:00:00 AM,No,"5 years parts, 1 year labor (Free)",Delivered,New,SAN DIEGO COUNTY FAIR 5/31-7/4/19 DEL MAR(CA),SAN DIEGO COUNTY FAIR 5/31-7/4/19 DEL MAR(CA),"Authorization Code 6/11
011095
PC:436",36 months 0% APR.,117863,"6/10Maritza- Approved for 9000 credit. Received copy of invoice and synch applic
scheduled 6/12 11-2
6/14Maritza- Delivery confirmation received with signed sales draft.",CA,0,8.75
6/9/2019 11:05:15 AM,Nga-Tracy Nguyen,CA,92026,Legacy,DWA-9100DWA-9100BU-DEMO,Demo Choco,Demo,,,,,3070.00,3070.00,0.00,Tom Nguyen,Credit Card,100.00,Square #OcIJ,,,,,,,,,Credit Card,2970.00,housecall pro,,,,,,,,,,0.00,,,,,,,,,,6/14/2019 12:00:00 AM,No,"3 years parts, 1 year labor (Free)",Delivered,Demo,SAN DIEGO COUNTY FAIR 5/31-7/4/19 DEL MAR(CA),SAN DIEGO COUNTY FAIR 5/31-7/4/19 DEL MAR(CA),,Please gift free 1 Ninja Leg Massager 2 USJ 880 when delivery.,117864,"6/10Maritza-Printed
Original received. SQ amount verified $100.  Remaining balance of $2,970.00. Collect COD @ delivery. Erika 6/10/19 4:22pm
scheduled 6/14 12-3
6/19Maritza- Delivery confirmation received COD confirmed in housecall. Manual and ninja 2 shipped out today.",CA,1,8.75
6/9/2019 11:11:42 AM,Nathan Norman,CA,92008,Legacy 3D,DWA-9150USJ-9150BL,New Black,New,,,,,4900.00,4900.00,0.00,Tom Nguyen,Synchrony,4900.00,,,6501723375182316,76569549,San Diego,36 months,,,,,0.00,,,,,,,,,,,0.00,,,,,,,,,,6/13/2019 12:00:00 AM,No,"5 years parts, 1 year labor (Free)",Delivered,New,SAN DIEGO COUNTY FAIR 5/31-7/4/19 DEL MAR(CA),SAN DIEGO COUNTY FAIR 5/31-7/4/19 DEL MAR(CA),"Authorization Code 6/12
012546
PC:436
Confirmed Synchrony transaction for $4,900 on SD acc. 6/13/19 Riho",,117865,"6/10Maritza-Printed
Synchrony Original received. Credit available of $7000. please charge $4900 on synchrony account before delivery, have sales draft signed. Erika 6/10/19 4:17pm
scheduled 6/13 8-11
6/18Maritza- Delivery confirmation received with signature on sales draft.",CA,1,8.75
6/9/2019 11:18:03 AM,Liza Sosa,CA,91910,Legacy 3D,DWA-9150USJ-9150CH,New Choco,New,,,,,4501.88,4200.00,301.88,Tom Nguyen,Synchrony,4200.00,,,6501723375182035,76561818,Huston,36 months,,,,,0.00,,,,,,,,,,,0.00,,,,,,,,,,,No,"5 years parts, 1 year labor (Free)",Hold,,SAN DIEGO COUNTY FAIR 5/31-7/4/19 DEL MAR(CA),SAN DIEGO COUNTY FAIR 5/31-7/4/19 DEL MAR(CA),,,117867,"Customer need to call back when she activate her synchrony bank.
6/10Maritza-Printed
Original received, note we did not receive a copy of Synchrony application. Erika 4:23pm 6/10/19
6/11Maritza Received copy of invoice and synchrony form",CA,0,8.75
6/9/2019 2:30:54 PM,Rishi Patel,IL,60423,Relax 2 Zero 3D,DWA-9060USJ-9060BR,New Choco,New,,,,,3900.00,3900.00,0.00,Rolly San Jose,Credit Card,3900.00,Sq# IHyk,,,,,,,,,,0.00,,,,,,,,,,,0.00,,,,,,,,,,6/12/2019 12:00:00 AM,No,"5 years parts, 1 year labor (Free)",Delivered,New,SAN DIEGO COUNTY FAIR 5/31-7/4/19 DEL MAR(CA),SAN DIEGO COUNTY FAIR 5/31-7/4/19 DEL MAR(CA),,,117873,"PLS DELIVER ON OR BEFORE SAT, JUNE 15 AS FATHERS DAY PRESENT. PHONE IN HERE IS HIS WIFE KINJAL
6/10: CC (10AM)  schedules for delivery 6/12 1-4PM - Emily

--Original received. SQ amount verified of $3900. Erika 6/10/19 9:44am
--Delivery conf. completed. Verified sq amount. Paid in full $3900-Erika 6/12/19 4:50pm",IL,1,8.75
6/9/2019 7:05:24 PM,ROY BROOKS,CA,91941,PEGASUS 2 SMART,PEGS-2PEGS-2-BR-DEMO,Demo Choco,Demo,,,,,5300.00,5300.00,0.00,Rolly San Jose,Synchrony,5300.00,,,6501723375183520,76592926,San Diego,48 months,,,,,0.00,,,,,,,,,,,0.00,,,,,,,,,,,No,"5 years parts, 1 year labor (Free)",Printed,,SAN DIEGO COUNTY FAIR 5/31-7/4/19 DEL MAR(CA),SAN DIEGO COUNTY FAIR 5/31-7/4/19 DEL MAR(CA),,,117886,"*Customer on Vacation and will return on July 1st. Please call to schedule delivery on July 1st or 2nd.*
6/10Maritza- Received copy of invoice and synch application. 9000 available credit.",CA,1,8.75
6/9/2019 7:09:04 PM,Gary E. Smith,CA,92021,Majesty,MAJ-1010MAJ-1010-BR,New Choco,New,,,,,2750.00,2750.00,0.00,Jennifer Tran,Credit Card,2750.00,Square #UWqC,,,,,,,,,,0.00,,,,,,,,,,,0.00,,,,,,,,,,6/13/2019 12:00:00 AM,No,"5 years parts, 1 year labor (Free)",Delivered,New,SAN DIEGO COUNTY FAIR 5/31-7/4/19 DEL MAR(CA),SAN DIEGO COUNTY FAIR 5/31-7/4/19 DEL MAR(CA),,*Remove old Chair*,117887,"6/10Maritza- Confirmed 2750 on square. Received copy of invoice.
scheduled 6/13 12-3
6/18Maritza- Delivery confirmation received.",CA,1,8.75
6/9/2019 7:12:56 PM,DeRail L. McNair,CA,92056,PEGASUS 2 SMART,PEGS-2PEGS-2-BL,New Black,New,,,,,5500.00,5500.00,0.00,Jennifer Tran,Synchrony,0.00,,,6501722456059526,,,36 months,,,,,0.00,,,,,,,,,,,0.00,,,,,,,,,,,No,"5 years parts, 1 year labor (Free)",Scheduled,,SAN DIEGO COUNTY FAIR 5/31-7/4/19 DEL MAR(CA),SAN DIEGO COUNTY FAIR 5/31-7/4/19 DEL MAR(CA),"Authorization Code CA 6/18
018820
PC:436",,117888,"Customer cancelled with FurnitureFIRM to buy from us.  Synchrony is processing their refund and we will use the account to buy our chair.  They were approved for 11k.
6/10Maritza- Received copy of invoice and synchrony application. Confirmed credit on Synchrony but only has a balance of $2,558.00
6/17Maritza- Synchrony account has finally been cleared. Funds had not yet been refunded to his account until this past weekend. Will schedule asap
Scheduled 6/19 9-11",CA,1,8.75
6/9/2019 7:16:46 PM,Steven Word,NV,89081,PEGASUS 2 SMART,PEGS-2PEGS-2-BR-DEMO,Demo Choco,Demo,,,,,5500.00,5500.00,0.00,Jennifer Tran,Synchrony,5500.00,,,6501723375183868,76598112,San Diego,36 months,Driver’s License,CA,03/2022,Purchase Order,0.00,,,,,,,,,/,,0.00,,,,,,,,,/,6/19/2019 12:00:00 AM,No,"5 years parts, 1 year labor (Free)",Delivered,Demo,SAN DIEGO COUNTY FAIR 5/31-7/4/19 DEL MAR(CA),SAN DIEGO COUNTY FAIR 5/31-7/4/19 DEL MAR(CA),"Account charged; Autho #014287
For total: $5,500.00
06/14/19 

Per Synchrony check between 24-48 hours to print our sales draft. _cristina 06/14/19 at 12:28 pm  
cristina received delivery confirmation -06/20/19 10:02 am",,117889,"Scheduled to be delivered June 19th - Per Laura Vargas
--Original Synchrony verified, Available credit 6,600. Please charge synchrony account of $5500 upon delivery and have sales draft signed. Erika 6/10/19 11:13am",NV,1,8.75
6/9/2019 9:19:16 PM,Sherry Mallari,CA,92114,Legacy,DWA-9100DWA-9100BU,New Choco,New,,,,,3500.00,3500.00,0.00,Robert Shih,Credit Card,200.00,SQ# FxAu,,,,,,,,,Cash,3300.00,,,,,,,,,,,0.00,,,,,,,,,,6/12/2019 12:00:00 AM,No,"5 years parts, 1 year labor (Free)",Delivered,New,SAN DIEGO COUNTY FAIR 5/31-7/4/19 DEL MAR(CA),SAN DIEGO COUNTY FAIR 5/31-7/4/19 DEL MAR(CA),,"Cash discount / COD $3,300 ( CASH )",117900,"6/10Maritza- Confirmed 200 on square. Need to collect COD cash upon delivery.
scheduled 6/12 9:30-12:30
6/14Maritza- Delivery confirmation received with signed original invoice. COD paid cash signed by Yumi
6/19Maritza- Customer called saying right arm airbag is not inflating properly. Passed to repairs.
Confirmed Yumi's signature for $3,300 cash. 6/20/19 Riho",CA,1,8.75
6/10/2019 10:01:30 AM,Mr &Mrs William Rodriguz,CA,92114,Legacy 3D,DWA-9150USJ-9150BL-DEMO,Demo Black,Demo,,,,,4241.00,4241.00,0.00,May Kam,Credit Card,4241.00,N8f0,,,,,,,,,,0.00,,,,,,,,,,,0.00,,,,,,,,,,6/12/2019 12:00:00 AM,No,"5 years parts, 1 year labor (Free)",Delivered,New,SAN DIEGO COUNTY FAIR 5/31-7/4/19 DEL MAR(CA),SAN DIEGO COUNTY FAIR 5/31-7/4/19 DEL MAR(CA),,"Special discount for demo chair , one time pay .Another phone is 6192132832",117912,"6/10Maritza- Confirmed 4241 on square. Received copy of invoice.
scheduled 6/12 10:30-1:30
6/14Maritza- Delivery confirmation received. New chair received.",CA,1,8.75
6/10/2019 10:10:44 AM,Mrs Margarita Lim Wilby,CA,92122,Legacy 3D,DWA-9150USJ-9150CH-DEMO,Demo Choco,Demo,,,,,3700.00,3700.00,0.00,May Kam,Credit Card,200.00,WTiM,,,,,,,,,COD,3500.00,,,,,,,,,,,0.00,,,,,,,,,,,No,"5 years parts, 1 year labor (Free)",Scheduled,,SAN DIEGO COUNTY FAIR 5/31-7/4/19 DEL MAR(CA),SAN DIEGO COUNTY FAIR 5/31-7/4/19 DEL MAR(CA),,"Vendor special discount , manager approval",117914,"6/10Maritza- Confirmed 200 on square. Received copy of invoice. Will collect COD upon delivery.
scheduled 6/14 8:30-11:30",CA,1,8.75
6/11/2019 3:48:06 PM,Mr Tedd Darby,CA,92120,Legacy 3D,DWA-9150USJ-9150CH-DEMO,Demo Choco,Demo,,,,,3800.00,3800.00,0.00,May Kam,Synchrony,3800.00,,,6501723375186267,76685366,Las Vegas,36 months,,,,,0.00,,,,,,,,,,,0.00,,,,,,,,,,,No,"5 years parts, 1 year labor (Free)",Hold,,SAN DIEGO COUNTY FAIR 5/31-7/4/19 DEL MAR(CA),SAN DIEGO COUNTY FAIR 5/31-7/4/19 DEL MAR(CA),,"Pls arrange delivery after Jul 6,2019",117957,Synchrony original verified. Credit available $5000. Remaining balance $3800. Please charge synchrony account upon delivery and have sales draft signed. Erika 10:08am 6/12/19,CA,1,8.75
6/11/2019 3:48:06 PM,Mr Tedd Darby,CA,92120,Tourmaline Pad for Legacy 3D,,,New,,,,,3800.00,3800.00,0.00,May Kam,Synchrony,3800.00,,,6501723375186267,76685366,Las Vegas,36 months,,,,,0.00,,,,,,,,,,,0.00,,,,,,,,,,,No,no warranty,Hold,,SAN DIEGO COUNTY FAIR 5/31-7/4/19 DEL MAR(CA),SAN DIEGO COUNTY FAIR 5/31-7/4/19 DEL MAR(CA),,"Pls arrange delivery after Jul 6,2019",117957,Synchrony original verified. Credit available $5000. Remaining balance $3800. Please charge synchrony account upon delivery and have sales draft signed. Erika 10:08am 6/12/19,CA,1,8.75
6/11/2019 4:19:41 PM,Nghia Quach,CA,92111,Legacy 3D,DWA-9150USJ-9150CH,New Choco,New,,,,,3280.00,3280.00,0.00,Tom Nguyen,Credit Card,280.00,Square #LXB0,,,,,,,,,COD,0.00,,,,,,,,,,,0.00,,,,,,,,,,,No,"3 years parts, 1 year labor (Free)",Cancelled,,SAN DIEGO COUNTY FAIR 5/31-7/4/19 DEL MAR(CA),SAN DIEGO COUNTY FAIR 5/31-7/4/19 DEL MAR(CA),,"Cash Deal, Package Deal",117960,Corrected invoice 117967 due to deposit error.will cancel this order now.,CA,1,8.75
6/11/2019 4:24:24 PM,Tim Quach,CA,92024,Legacy 3D,DWA-9150USJ-9150BL,New Black,New,,,,,3000.00,3000.00,0.00,Tom Nguyen,Purchase Order,0.00,,,,,,,,,,,0.00,,,,,,,,,,,0.00,,,,,,,,,,,No,"3 years parts, 1 year labor (Free)",Cancelled,,SAN DIEGO COUNTY FAIR 5/31-7/4/19 DEL MAR(CA),SAN DIEGO COUNTY FAIR 5/31-7/4/19 DEL MAR(CA),,Customer will pay cash when delivery.,117961,Corrected order #117961 will cancel this one out due to deposit error,Not Dispatched,1,8.75
6/11/2019 4:48:57 PM,Maria Alvares De Los Cobos,CA,91913,Legacy 3D,DWA-9150USJ-9150CH,New Choco,New,,,,,4200.00,4200.00,0.00,Tom Nguyen,Synchrony,4200.00,,,6501723375183330,76590169,Huston,36 months,,,,,0.00,,,,,,,,,,,0.00,,,,,,,,,,,No,"5 years parts, 1 year labor (Free)",Scheduled,,SAN DIEGO COUNTY FAIR 5/31-7/4/19 DEL MAR(CA),SAN DIEGO COUNTY FAIR 5/31-7/4/19 DEL MAR(CA),"Authorization Code 6/20
020173
PC:436","Please pick up their old chair. 
Please gift free 1 Daiwa Blanket",117962,"--Synchrony original received. Credit available of  $5500. Remaining balance of $4200. Please charge synchrony account upon delivery and have sales draft sign. Erika 6/12/19 4:40pm
scheduled 6/21 10-1",CA,1,8.75
6/12/2019 11:47:35 AM,Nghia Quach,CA,92111,Legacy 3D,DWA-9150USJ-9150CH,New Choco,New,,,,,3140.00,2947.70,192.30,Tom Nguyen,Credit Card,140.00,#LXB0,,,,,,,,,Cash,3000.00,,,,,,,,,,,0.00,,,,,,,,,,6/13/2019 12:00:00 AM,No,"3 years parts, 1 year labor (Free)",Delivered,New,SAN DIEGO COUNTY FAIR 5/31-7/4/19 DEL MAR(CA),SAN DIEGO COUNTY FAIR 5/31-7/4/19 DEL MAR(CA),,"Cash Deal, Package Deal",117967,"Correction for (#117960) deposit was split in half with Tim Quach
6/12Mariitza- Confirmed total of $280 on square. Deposit is split in half. Remaining balance of $3000 on delivery.  Received copy of invoice.
scheduled 6/13 8-11
6/18Maritza- Delivery confirmation received. COD paid by Cash signed by Yumi.
6/21/19 Confirmed Yumi's signature for cash $3,000 paid upon the delivery. 6/20/19 Riho",CA,0,8.75
6/12/2019 11:56:11 AM,Tim Quach,CA,92024,Legacy 3D,DWA-9150USJ-9150BL,New Black,New,,,,,3140.00,2947.70,192.30,Tom Nguyen,Credit Card,140.00,#LXB0,,,,,,,,,COD,0.00,,,,,,,,,,,0.00,,,,,,,,,,,No,"3 years parts, 1 year labor (Free)",Scheduled,,SAN DIEGO COUNTY FAIR 5/31-7/4/19 DEL MAR(CA),SAN DIEGO COUNTY FAIR 5/31-7/4/19 DEL MAR(CA),,Customer will pay cash upon delivery,117968,"Correction for (#117961) Deposit shared with Nghia Quach.
6/12Mariitza- Confirmed total of $280 on square. Deposit is split in half. Remaining balance of $3000 on delivery.  Received copy of invoice.
scheduled 6/20 8-10",CA,0,8.75
6/12/2019 3:46:56 PM,Emendation Burrows,CA,92106,Relax 2 Zero 3D,DWA-9060USJ-9060BR,New Choco,New,,,,,4200.00,4200.00,0.00,Querubin Milanes,Credit Card,200.00,#bbXs,,,,,,,,,,0.00,,,,,,,,,,,0.00,,,,,,,,,,,No,"5 years parts, 1 year labor (Free)",Hold,,SAN DIEGO COUNTY FAIR 5/31-7/4/19 DEL MAR(CA),SAN DIEGO COUNTY FAIR 5/31-7/4/19 DEL MAR(CA),,"Chair will be deliver to customer’s new house in Texas sometime in August, customer will call to update address, please hold, balance of $4000 to be charged before delivery",117978,"Original received. Sq. amount verified. Hold order per rep sales request.(Querubin).  Please note they will be delivering chair to TX sometime in august. Therefore will dispatch to texas branch. Erika 11:30am 6/14/19
Courtesy call completed; VM left advising that order is on hold- Cristina 06/14/19 5:23 pm 
Printed, noted on HOLD - Tina 6/14/2019",TX,1,8.75
6/12/2019 5:44:37 PM,Jo Dizon Sargeant,CA,92084,Relax 2 Zero 3D,DWA-9060USJ-9060BR,New Choco,New,,,,,4500.00,4500.00,0.00,Querubin Milanes,Synchrony,1500.00,,,6501723375183777,76595981,San Diego,36 months,,,,,0.00,,,,,,,,,,,0.00,,,,,,,,,,,No,"5 years parts, 2 years labor ($200)",Hold,,SAN DIEGO COUNTY FAIR 5/31-7/4/19 DEL MAR(CA),SAN DIEGO COUNTY FAIR 5/31-7/4/19 DEL MAR(CA),CA/ 2/20,,117981,"HOLD for customer advice
Customer will call us or Querubin
---Synchrony Original received. Credit available of $1500. please charge 1500 on synchrony account before delivery and have sales draft sign. COD $3000 @ delivery.  Erika 6/17/19",CA,1,8.75
6/12/2019 7:32:52 PM,Tam Nguyen,CA,92841,Relax 2 Zero 2.0,USJ-9050USJ-9050BE,New Beige,New,,,,,3000.00,3000.00,0.00,Ruben Cuatrona,Credit Card,3000.00,Square #CSZb,,,,,,,,,,0.00,,,,,,,,,,,0.00,,,,,,,,,,,No,"5 years parts, 1 year labor (Free)",Called,,SAN DIEGO COUNTY FAIR 5/31-7/4/19 DEL MAR(CA),SAN DIEGO COUNTY FAIR 5/31-7/4/19 DEL MAR(CA),,,117983,"Original received. Verified sq amount $3000. Erika 6/13/19 10:58
6/13Maritza Printed
CText 06/17@3:31pm",CA,1,8.75
6/12/2019 7:36:15 PM,Debora Greene,CA,92107,PEGASUS 2 SMART,PEGS-2PEGS-2-BL,New Black,New,,,,,5500.00,5500.00,0.00,Ruben Cuatrona,Credit Card,5500.00,Square #AOyp,,,,,,,,,,0.00,,,,,,,,,,,0.00,,,,,,,,,,,No,"5 years parts, 5 years labor ($800)",Cancelled,,SAN DIEGO COUNTY FAIR 5/31-7/4/19 DEL MAR(CA),SAN DIEGO COUNTY FAIR 5/31-7/4/19 DEL MAR(CA),,,117984,"*Deliver ASAP* 
Show customer how to use.
Original received. Verified Sq. amount $5500. Erika 6/13/19 11:02am
6/13MaritzaPrinted
Discount given of $700 New amount is $4800.Erika 6/21/19
Revised copy : #118271 will cancel this order now. (MARITZA) 6/24",CA,1,8.75
6/12/2019 8:26:25 PM,Azeret Lopez,CA,91950,Legacy,DWA-9100DWA-9100BL,New Black,New,,,,,3500.00,3500.00,0.00,Robert Shih,Synchrony,3500.00,,,6501723375187828,76740774,Huston,36 months,,,,,0.00,,,,,,,,,,,0.00,,,,,,,,,,6/14/2019 12:00:00 AM,No,"5 years parts, 1 year labor (Free)",Delivered,New,SAN DIEGO COUNTY FAIR 5/31-7/4/19 DEL MAR(CA),SAN DIEGO COUNTY FAIR 5/31-7/4/19 DEL MAR(CA),"Authorization Code 6/13
013765
PC: 436
Confirmed the transaction for $3,500 in Synchrony-TX. 6/20/19 Riho",36 months 0% APR / Please deliver ASAP,117985,"Synchrony verified. Credit available $4000. Remaining balance of $3500. Please charge synchrony account upon delivery and have sales draft signed. Erika 6/13/19 10:35am
6/13Printed
scheduled 6/14 12:30-3:30PM
6/19Maritza- Delivery confirmation received. Sales draft signed.",CA,1,8.75
6/12/2019 8:26:25 PM,Azeret Lopez,CA,91950,Daiwa Blanket,,,New,,,,,3500.00,3500.00,0.00,Robert Shih,Synchrony,3500.00,,,6501723375187828,76740774,Huston,36 months,,,,,0.00,,,,,,,,,,,0.00,,,,,,,,,,6/14/2019 12:00:00 AM,No,no warranty,Delivered,New,SAN DIEGO COUNTY FAIR 5/31-7/4/19 DEL MAR(CA),SAN DIEGO COUNTY FAIR 5/31-7/4/19 DEL MAR(CA),"Authorization Code 6/13
013765
PC: 436
Confirmed the transaction for $3,500 in Synchrony-TX. 6/20/19 Riho",36 months 0% APR / Please deliver ASAP,117985,"Synchrony verified. Credit available $4000. Remaining balance of $3500. Please charge synchrony account upon delivery and have sales draft signed. Erika 6/13/19 10:35am
6/13Printed
scheduled 6/14 12:30-3:30PM
6/19Maritza- Delivery confirmation received. Sales draft signed.",CA,1,8.75
6/12/2019 8:51:05 PM,Mr & Mrs Ernesto Arce,CA,91911,Legacy 3D,DWA-9150USJ-9150CH-DEMO,Demo Choco,Demo,,,,,3840.00,3840.00,0.00,May Kam,Credit Card,3840.00,qnnW,,,,,,,,,,0.00,,,,,,,,,,,0.00,,,,,,,,,,,No,"5 years parts, 1 year labor (Free)",Scheduled,,SAN DIEGO COUNTY FAIR 5/31-7/4/19 DEL MAR(CA),SAN DIEGO COUNTY FAIR 5/31-7/4/19 DEL MAR(CA),,"Special discount for one time payment, manager approval",117986,"Original received. SQ. amount verified of $3400. Erika 6/13/19 9:00am
6/13Printed
scheduled 6/21 9-11",CA,1,8.75
6/14/2019 1:13:29 AM,Mrs Amanda Wood,MS,38632,Legacy 3D,DWA-9150USJ-9150BL,New Black,New,,,,,4800.00,4800.00,0.00,May Kam,Synchrony,4800.00,,,6501723375189014,76788021,Huston,12 months,,,,,0.00,,,,,,,,,,,0.00,,,,,,,,,,,No,"5 years parts, 1 year labor (Free)",Scheduled,,SAN DIEGO COUNTY FAIR 5/31-7/4/19 DEL MAR(CA),SAN DIEGO COUNTY FAIR 5/31-7/4/19 DEL MAR(CA),,"Special discount , manager approval ; 
Free delivery and assembly; Another phone is 6623800512;",118011,"Pls make $4800 finance purchase
--Synchrony original verified. Credit available $6500. Remaining balance $4800. Please charge synchrony account upon delivery and have sales draft sign. Erika 6/14/19 9:01 am
Courtesy call completed- cristina 06/14/19 10:37am
6/17 - Alysa - Customer confirmed delivery Fri. 6/21 between 10-1PM.
-Synchrony Authorization Code 017687",TX,1,8.75
6/14/2019 6:29:25 AM,Mr & Mrs Terry Della Russell,CA,92083,PEGASUS 2 SMART,PEGS-2PEGS-2-BL,New Black,New,,,,,4800.00,4800.00,0.00,May Kam,Credit Card,200.00,CrZC,,,,,,,,/,COD,0.00,,,,,,,,,/,,0.00,,,,,,,,,/,,No,"5 years parts, 2 years labor ($200)",Scheduled,,SAN DIEGO COUNTY FAIR 5/31-7/4/19 DEL MAR(CA),SAN DIEGO COUNTY FAIR 5/31-7/4/19 DEL MAR(CA),,"Special discount for one family bought two chairs together, ( #24642)",118012,"Original received. Sq. amount verified. Collect Cod @delivery. Erika 6/14/19 8:42am
Printed
C.text 06/17@3:22-(CR)
scheduled 6/25 12:30-3:30",CA,1,8.75
6/14/2019 6:29:25 AM,Mr & Mrs Terry Della Russell,CA,92083,Tourmaline Pad for Pegasus,,,New,,,,,4800.00,4800.00,0.00,May Kam,Credit Card,200.00,CrZC,,,,,,,,/,COD,0.00,,,,,,,,,/,,0.00,,,,,,,,,/,,No,no warranty,Scheduled,,SAN DIEGO COUNTY FAIR 5/31-7/4/19 DEL MAR(CA),SAN DIEGO COUNTY FAIR 5/31-7/4/19 DEL MAR(CA),,"Special discount for one family bought two chairs together, ( #24642)",118012,"Original received. Sq. amount verified. Collect Cod @delivery. Erika 6/14/19 8:42am
Printed
C.text 06/17@3:22-(CR)
scheduled 6/25 12:30-3:30",CA,1,8.75
6/14/2019 6:42:51 AM,Mr & Mrs Rosalie Lveson,CA,92056,Tourmaline Pad for Pegasus,,,New,,,,,4800.00,4800.00,0.00,May Kam,Credit Card,4800.00,tMYW,,,,,,,,,,0.00,,,,,,,,,,,0.00,,,,,,,,,,,No,no warranty,Scheduled,,SAN DIEGO COUNTY FAIR 5/31-7/4/19 DEL MAR(CA),SAN DIEGO COUNTY FAIR 5/31-7/4/19 DEL MAR(CA),,"Special discount for one family bought two chairs together ( #118012), Another phone is 7608039716",118013,"Original received. SQ. amount verified. Erika 6/14/19 8:46am
Printed
Scheduled 1-3 6/20",CA,1,8.75
6/14/2019 6:42:51 AM,Mr & Mrs Rosalie Lveson,CA,92056,PEGASUS 2 SMART,PEGS-2PEGS-2-BL,New Black,New,,,,,4800.00,4800.00,0.00,May Kam,Credit Card,4800.00,tMYW,,,,,,,,,,0.00,,,,,,,,,,,0.00,,,,,,,,,,,No,"5 years parts, 2 years labor ($200)",Scheduled,,SAN DIEGO COUNTY FAIR 5/31-7/4/19 DEL MAR(CA),SAN DIEGO COUNTY FAIR 5/31-7/4/19 DEL MAR(CA),,"Special discount for one family bought two chairs together ( #118012), Another phone is 7608039716",118013,"Original received. SQ. amount verified. Erika 6/14/19 8:46am
Printed
Scheduled 1-3 6/20",CA,1,8.75
6/14/2019 8:58:28 AM,Jennifer Manalo,CA,92139,PEGASUS 2 SMART,PEGS-2PEGS-2-BL,New Black,New,,,,,5300.00,5300.00,0.00,Ruben Cuatrona,Synchrony,5300.00,,,6501723375188941,76784473,San Diego,36 months,,,,,0.00,,,,,,,,,,,0.00,,,,,,,,,,,No,"5 years parts, 1 year labor (Free)",Called,,SAN DIEGO COUNTY FAIR 5/31-7/4/19 DEL MAR(CA),SAN DIEGO COUNTY FAIR 5/31-7/4/19 DEL MAR(CA),,,118014,"Pls deliver within 2 weeks from jun13,2019
--Synchrony original verified. Credit available $6600. Remaining balance $5300. Please charge synchrony account before delivery, have sales draft sign. Erika 6/14/19 2:33pm
6/17Printed
Ctext 06/17 @3:25 pm (CR)",CA,1,8.75
6/14/2019 11:01:53 AM,Stilson Scott,CA,92084,Legacy,DWA-9100DWA-9100BU-DEMO,Demo Choco,Demo,,,,,3000.00,3000.00,0.00,Robert Shih,Credit Card,3000.00,SQ# oeji,,,,,,,,,,0.00,,,,,,,,,,,0.00,,,,,,,,,,,No,"5 years parts, 1 year labor (Free)",Scheduled,,SAN DIEGO COUNTY FAIR 5/31-7/4/19 DEL MAR(CA),SAN DIEGO COUNTY FAIR 5/31-7/4/19 DEL MAR(CA),,,118017,"Original received. Sq. amount verified. Erika 6/14/19 11:20am
6/17Printed
Ctext 06/17 @3:24 pm (CR)
scheduled 6/19 8:30-10:30",CA,1,8.75
6/14/2019 11:09:28 AM,J Stevan Kemp,CA,92069,Legacy 3D,DWA-9150USJ-9150CH,New Choco,New,,,,,5263.13,4900.00,363.13,Tom Nguyen,Synchrony,5300.00,,,6501723375188909,76783467,Huston,48 months,,,,,0.00,,,,,,,,,,,0.00,,,,,,,,,,,No,"5 years parts, 1 year labor (Free)",Scheduled,,SAN DIEGO COUNTY FAIR 5/31-7/4/19 DEL MAR(CA),SAN DIEGO COUNTY FAIR 5/31-7/4/19 DEL MAR(CA),"Authorization Code 6/18
018566
PC:448",,118018,"Total Price $5300 for 48 months no interest.
(760)212-7413- (Sara) wife.
6/17Printed
---Synchrony original verified. Credit available $7000. Remaining balance $5300. Please charge synchrony account upon delivery, have sales draft sign. Erika 6/17/19 4:25pm
Scheduled 6/19 8-11",CA,0,8.75
6/14/2019 11:09:55 AM,Patricia Rios,CA,91911,Relax 2 Zero 3D,DWA-9060USJ-9060BR,New Choco,New,,,,,4400.00,4400.00,0.00,Querubin Milanes,Synchrony,4400.00,,,6019193016590050,,San Diego,36 months,,,,,0.00,,,,,,,,,,,0.00,,,,,,,,,,,No,"5 years parts, 2 years labor ($200)",Scheduled,,SAN DIEGO COUNTY FAIR 5/31-7/4/19 DEL MAR(CA),SAN DIEGO COUNTY FAIR 5/31-7/4/19 DEL MAR(CA),"Authorization Code 6/20
020210
PC: 436",,118019,"Synchrony original received. Credit available $4770. Remaining balance of $4400. Please charge synchrony account before delivery and have sales draft sign. Erika 6/14/19 11:37am (customer has account thru Ashley furniture
6/17Printed
scheduled for 6/21 10-12",CA,1,8.75
6/14/2019 11:16:19 AM,Leticia McCormack,CA,91977,Relax 2 Zero 3D,DWA-9060USJ-9060BL,New Black,New,,,,,4200.00,4200.00,0.00,Joseph Chan,Credit Card,4200.00,#cBev,,,,,,,,,,0.00,,,,,,,,,,,0.00,,,,,,,,,,,No,"5 years parts, 2 years labor ($200)",Scheduled,,SAN DIEGO COUNTY FAIR 5/31-7/4/19 DEL MAR(CA),SAN DIEGO COUNTY FAIR 5/31-7/4/19 DEL MAR(CA),,,118020,"Original received. Sq. amount verified. Erika 11:42am 6/14/19
6/17Printed
scheduled 6/26 1-3",CA,1,8.75
6/14/2019 7:48:31 PM,Bernadette Matsunaga,CA,91910,PEGASUS 2 SMART,PEGS-2PEGS-2-BL,New Black,New,,,,,5000.00,5000.00,0.00,Rodrigo Malabunga,Synchrony,5000.00,,,6501723375190392,76829857,San Diego,36 months,,,,,0.00,,,,,,,,,,,0.00,,,,,,,,,,,No,"5 years parts, 1 year labor (Free)",Scheduled,,SAN DIEGO COUNTY FAIR 5/31-7/4/19 DEL MAR(CA),SAN DIEGO COUNTY FAIR 5/31-7/4/19 DEL MAR(CA),"Authorization Code 6/25
025944
PC: 436",,118034,"Synchrony original received. Credit available $7000. Remaining balance $5000. Please charge synchrony account upon delivery, have sales draft sign. Erika 6/17/19 9:23am
6/17Printed wants wednesday delivery after 9:30
scheduled 6/26 12:30-3:30",CA,1,8.75
6/14/2019 7:51:54 PM,Efren S. Ballestamon Jr.,CA,91913,PEGASUS 2 SMART,PEGS-2PEGS-2-BL,New Black,New,,,,,5000.00,5000.00,0.00,Rodrigo Malabunga,Synchrony,5000.00,,,6501723375190376,76829762,San Diego,36 months,,,,,0.00,,,,,,,,,,,0.00,,,,,,,,,,,No,"5 years parts, 1 year labor (Free)",Scheduled,,SAN DIEGO COUNTY FAIR 5/31-7/4/19 DEL MAR(CA),SAN DIEGO COUNTY FAIR 5/31-7/4/19 DEL MAR(CA),"Authorization Code 6/20
020420
PC: 436",,118035,"Synchrony original verified. Credit available $9000. Remaining balance $5000. Please charge synchrony account upon delivery and have sales draft sign. Erika 6/17/19 9:19am
6/17Printed
scheduled 6/21 8:30-11:30",CA,1,8.75
6/14/2019 7:58:25 PM,Brian Hamilton,CA,92072,PEGASUS 2 SMART,PEGS-2PEGS-2-BL,New Black,New,,,,,5000.00,5000.00,0.00,Ruben Cuatrona,Credit Card,100.00,Square #BHlv,,,,,,,,,,0.00,,,,,,,,,,,0.00,,,,,,,,,,,No,"5 years parts, 2 years labor ($200)",Hold,,SAN DIEGO COUNTY FAIR 5/31-7/4/19 DEL MAR(CA),SAN DIEGO COUNTY FAIR 5/31-7/4/19 DEL MAR(CA),,,118036,"Customer will provide actual address for delivery in 2 months
----Original  received. Sq. amount verified. Remaining balance $4900. COD @ delivery. Erika 6/17/19 9:25am",CA,1,8.75
6/14/2019 8:59:19 PM,Noel Trias,CA,92029,Relax 2 Zero 3D,DWA-9060USJ-9060BR,New Choco,New,,,,,3900.00,3900.00,0.00,Joseph Chan,Credit Card,3900.00,#emWG,,,,,,,,,,0.00,,,,,,,,,,,0.00,,,,,,,,,,,No,"5 years parts, 2 years labor ($200)",Scheduled,,SAN DIEGO COUNTY FAIR 5/31-7/4/19 DEL MAR(CA),SAN DIEGO COUNTY FAIR 5/31-7/4/19 DEL MAR(CA),,,118039,"6/17Printed
Sq. amount verified. $3900. Paid in full. Erika 6/17/19 1:49pm
scheduled 6/20 9:30-12:30",CA,1,8.75
6/15/2019 12:19:18 AM,Mr & Mrs Zachary Harry,CA,91915,Hubble,HUBL-1HUBL-1CH,New Choco,New,,,,,5040.00,5040.00,0.00,May Kam,Synchrony,5040.00,,,6501723375190459,76831026,Huston,36 months,,,,,0.00,,,,,,,,,,,0.00,,,,,,,,,,,No,"5 years parts, 1 year labor (Free)",Scheduled,,SAN DIEGO COUNTY FAIR 5/31-7/4/19 DEL MAR(CA),SAN DIEGO COUNTY FAIR 5/31-7/4/19 DEL MAR(CA),"Authorization Code 6/21
021806
PC:436","Special military discount, manager approval , thanks pls arrange deliver 
one tourmaline chair pad as gift",118040,"Pls make $5040 finance purchase
--Synchrony original verified. Credit available $7000. Remaining balance $5040. Please charge synchrony account upon delivery and have sales draft sign. Erika 6/17/19 9:31am
scheduled 6/24 9:30-12:30",CA,1,8.75
6/15/2019 12:30:24 AM,Mrs Patricia Burninghan,CA,92101,Legacy,DWA-9100DWA-9100BU,New Choco,New,,,,,2900.00,2900.00,0.00,May Kam,Credit Card,100.00,YhQ9,,,,,,,,,COD,2800.00,,,,,,,,,,,0.00,,,,,,,,,,,No,"3 years parts, 1 year labor (Free)",Hold,,SAN DIEGO COUNTY FAIR 5/31-7/4/19 DEL MAR(CA),SAN DIEGO COUNTY FAIR 5/31-7/4/19 DEL MAR(CA),,Special discount for the  customer buy 2nd chair From us. COD $2800,118041,"Verified. SQ. amount. Remaining balance $2800. Cod @ delivery. Erika 6/17/19 9:33am
6/17Printed
6/18Maritza- Spoke with customer, would like delivery until after August 18th.",CA,1,8.75
6/15/2019 12:30:24 AM,Mrs Patricia Burninghan,CA,92101,Tourmaline Pad for Legacy,,,New,,,,,2900.00,2900.00,0.00,May Kam,Credit Card,100.00,YhQ9,,,,,,,,,COD,2800.00,,,,,,,,,,,0.00,,,,,,,,,,,No,no warranty,Hold,,SAN DIEGO COUNTY FAIR 5/31-7/4/19 DEL MAR(CA),SAN DIEGO COUNTY FAIR 5/31-7/4/19 DEL MAR(CA),,Special discount for the  customer buy 2nd chair From us. COD $2800,118041,"Verified. SQ. amount. Remaining balance $2800. Cod @ delivery. Erika 6/17/19 9:33am
6/17Printed
6/18Maritza- Spoke with customer, would like delivery until after August 18th.",CA,1,8.75
6/15/2019 10:53:39 AM,Ashley Migliori,CA,92585,PEGASUS 2 SMART,PEGS-2PEGS-2-BR-DEMO,Demo Choco,Demo,,,,,4500.00,4500.00,0.00,Robert Shih,Credit Card,200.00,SQ#1JLb,,,,,,,,,,0.00,,,,,,,,,,,0.00,,,,,,,,,,,No,"5 years parts, 1 year labor (Free)",Scheduled,,SAN DIEGO COUNTY FAIR 5/31-7/4/19 DEL MAR(CA),SAN DIEGO COUNTY FAIR 5/31-7/4/19 DEL MAR(CA),,CASH DISCOUNT APPROVED BY RUBEN / SECOND FLOOR DELIVERY,118043,"-Original received. Sq amount verified. Remaining balance $4300.  COD @ delivery. Erika 6/17/19 9:27am
Scheduled 6/22 7:30-9:30",CA,1,8.75
6/15/2019 6:26:38 PM,Scott Nicholson,CA,92021,Relax 2 Zero 3D,DWA-9060USJ-9060BR,New Choco,New,,,,,4900.00,4900.00,0.00,Joseph Chan,Credit Card,4900.00,#O7O5,,,,,,,,,,0.00,,,,,,,,,,,0.00,,,,,,,,,,,No,"5 years parts, 2 years labor ($200)",Scheduled,,SAN DIEGO COUNTY FAIR 5/31-7/4/19 DEL MAR(CA),SAN DIEGO COUNTY FAIR 5/31-7/4/19 DEL MAR(CA),,,118055,"6/17Printed
Original received. SQ amount verified of $4900. Paid in full. Erika 6/17/19 1:45pm
scheduled 6/24 10-12",CA,1,8.75
6/15/2019 9:58:25 PM,James Williamson,CA,92131,Legacy,DWA-9100DWA-9100BU,New Choco,New,,,,,3900.00,3900.00,0.00,Tom Nguyen,Synchrony,3900.00,,,6501723375192174,76875035,Huston,36 months,,,,,0.00,,,,,,,,,,,0.00,,,,,,,,,,,No,"5 years parts, 1 year labor (Free)",Hold,,SAN DIEGO COUNTY FAIR 5/31-7/4/19 DEL MAR(CA),SAN DIEGO COUNTY FAIR 5/31-7/4/19 DEL MAR(CA),"Authorization Code 6/20
020288
PC:436
REFUNDED 6/21",,118060,"Synchrony original verified. Credit available of $6800. Remaining balance of $3900. Please charge account upon delivery and have sales draft sign. Erika 6/17/19 9:16am
6/17Printed
c Text 06/17 @ 3:26 pm (CR)
6/20Maritza- scheduled 6/21 11-1
6/20Maritza- Customer was refunded because his wife might want another type of chair. Tom will contact back",CA,1,8.75
6/15/2019 10:01:16 PM,Annette Cernius,NM,87002,Legacy,DWA-9100DWA-9100BL,New Black,New,,,,,3900.00,3900.00,0.00,Tom Nguyen,Synchrony,3900.00,,,6501723375191739,76864360,Huston,36 months,,,,,0.00,,,,,,,,,,,0.00,,,,,,,,,,,No,"5 years parts, 1 year labor (Free)",Printed,,SAN DIEGO COUNTY FAIR 5/31-7/4/19 DEL MAR(CA),SAN DIEGO COUNTY FAIR 5/31-7/4/19 DEL MAR(CA),Nm/ Ex. date 3/21,,118061,"Synchrony original received. Credit available $9000. Remaining balance $3900. Please charge synchrony account upon delivery and have sales draft sign. Erika 6/17/19 12:17pm
Printed - Tina 6/17/2019
courtesy call completed. Erika 6/18/19 4:19pm",TX,1,8.75
6/16/2019 11:49:29 AM,Thomas Medigovich,CA,92026,PEGASUS 2 SMART,PEGS-2PEGS-2-BR,New Choco,New,,,,,4500.00,4500.00,0.00,Kristy Tran,Synchrony,0.00,,,6501723375192034,76871998,San Diego,36 months,,,,,0.00,,,,,,,,,,,0.00,,,,,,,,,,,No,"5 years parts, 2 years labor ($200)",Hold,,SAN DIEGO COUNTY FAIR 5/31-7/4/19 DEL MAR(CA),SAN DIEGO COUNTY FAIR 5/31-7/4/19 DEL MAR(CA),CA. Ex. date 03/21,*Trade-in Old Legacy Model*,118068,"6/17Printed
Synchrony original received. Credit available $9000. Remaining balance $4500. Please charge synchrony account upon delivery and have sales draft sign. Erika 6/17/19 4:17pm
6/17Printed
6/20Maritza- Tried to schedule customer but he would like to hold off on it for now. Informed Kristy and she will contact him back. Place on hold for now.",CA,1,8.75
6/16/2019 11:57:38 AM,Tom Prince,CA,92103,PEGASUS 2 SMART,PEGS-2PEGS-2-BL,New Black,New,,,,,4900.00,4900.00,0.00,Ruben Cuatrona,Credit Card,500.00,Square #NW9w,,,,,,,,,COD,0.00,,,,,,,,,,,0.00,,,,,,,,,,,No,"5 years parts, 3 years labor ($400)",Called,,SAN DIEGO COUNTY FAIR 5/31-7/4/19 DEL MAR(CA),SAN DIEGO COUNTY FAIR 5/31-7/4/19 DEL MAR(CA),,,118069,"6/17Printed
-Original received. SQ amount verified verified. Remaining balance $4400. Collect Cod @ delivery. 
Erika 6/18/19 10:53am",CA,1,8.75
6/16/2019 12:30:15 PM,Barbara ONeill,CA,92009,Majesty,MAJ-1010MAJ-1010-BR,New Choco,New,,,,,2500.00,2500.00,0.00,Jennifer Tran,Credit Card,500.00,Square #iTDZ,,,,,,,,,,0.00,,,,,,,,,,,0.00,,,,,,,,,,,No,"5 years parts, 1 year labor (Free)",Scheduled,,SAN DIEGO COUNTY FAIR 5/31-7/4/19 DEL MAR(CA),SAN DIEGO COUNTY FAIR 5/31-7/4/19 DEL MAR(CA),,"*Color: BEIGE chair*
Call 760-703-0846 for Evenings & Weekends or Work Mobile 760-650-5586 for Mon-Fri 8-5:30 

Bulk Discount",118072,"6/17Printed
Original received. SQ amount verified $500. Remaining balance $2000. COD@ Delivery. Erika 6/18/19 3:45pm
scheduled 6/22 11-1",CA,1,8.75
6/16/2019 12:33:20 PM,Linda & David Litzau,CA,92116,Majesty,MAJ-1010MAJ-1010-BR,New Choco,New,,,,,2500.00,2500.00,0.00,Jennifer Tran,Credit Card,500.00,Square #kYP0,,,,,,,,,,0.00,,,,,,,,,,,0.00,,,,,,,,,,,No,"5 years parts, 1 year labor (Free)",Scheduled,,SAN DIEGO COUNTY FAIR 5/31-7/4/19 DEL MAR(CA),SAN DIEGO COUNTY FAIR 5/31-7/4/19 DEL MAR(CA),,"*Color: BEIGE chair*

Bulk Discount",118073,"6/17Printed
Original received.  SQ. amount verified. $500. Remaining balance is $2000. Collect COD @ delivery.
Please note Color is beige . Erika 6/18/19 10:50am
scheduled 9-12",CA,1,8.75
6/16/2019 1:17:04 PM,Natalie Jefferson,CA,92057,Relax 2 Zero 3D,DWA-9060USJ-9060BR,New Choco,New,,,,,4100.00,4100.00,0.00,Rodrigo Malabunga,Credit Card,2000.00,#XOvL,,,,,,,,,Synchrony,2100.00,,,6501723375192224,76876691,San Diego,24 months,,,,,0.00,,,,,,,,,,,No,"5 years parts, 2 years labor ($200)",Scheduled,,SAN DIEGO COUNTY FAIR 5/31-7/4/19 DEL MAR(CA),SAN DIEGO COUNTY FAIR 5/31-7/4/19 DEL MAR(CA),"Ca/ Ex. date 9/21 
Authorization Code 6/19
019330
PC: 424",,118075,"6/17Printed
Note make sure 2.0 version
--Sq. amount verified. Synchrony original verified. Credit available  $6500. Remaining balance $2100. Please charge synchrony account upon delivery and have sales draft sign. Erika 6/17/19 1:42pm
Scheduled 6/21 8-11",CA,1,8.75
6/16/2019 6:58:06 PM,Alvin Abiva,CA,92139,Relax 2 Zero 3D,DWA-9060USJ-9060BL,New Black,New,,,,,4500.00,4500.00,0.00,Querubin Milanes,Synchrony,4500.00,,,6501723375193016,76895861,San Diego,36 months,,,,,0.00,,,,,,,,,,,0.00,,,,,,,,,,,No,"5 years parts, 3 years labor ($400)",Scheduled,,SAN DIEGO COUNTY FAIR 5/31-7/4/19 DEL MAR(CA),SAN DIEGO COUNTY FAIR 5/31-7/4/19 DEL MAR(CA),"CA/EX. date 9/21
Authorization Code 6/18
019606
PC:436",,118090,"6/17Printed
Synchrony original verified. Credit available $6500. Remaining balance $4500. Please charge synchrony account upon delivery and have sales draft sign. Erika 6/17/19 1:36pm
Scheduled 11:30-1:30PM",CA,1,8.75
6/16/2019 9:08:23 PM,Wayne Lasel,CA,92075,Legacy 3D,DWA-9150USJ-9150BL-DEMO,Demo Black,Demo,,,,,4200.00,4200.00,0.00,Tom Nguyen,Credit Card,200.00,Square #eA19,,,,,,,,,Credit Card,0.00,,,,,,,,,,,0.00,,,,,,,,,,,No,"5 years parts, 1 year labor (Free)",Scheduled,,SAN DIEGO COUNTY FAIR 5/31-7/4/19 DEL MAR(CA),SAN DIEGO COUNTY FAIR 5/31-7/4/19 DEL MAR(CA),,,118098,"Please pick up their old chair
Original received. SQ. amount verified. Remaining balance. $4000. COD@ delivery. Erika 6/17/19 9:03am
6/17Printed
Ctext 06/17 @3:29 pm (CR)
scheduled 6/19 10-12
6/20Maritza- When delivering, demo chair was extremely dirty. Customer was upgraded to new chair (Hide approval) and given a blanket as gift. Will go back 6/21 9:30-11:30",CA,1,8.75
6/16/2019 9:09:23 PM,Rojia Toma,CA,92028,Hubble,HUBL-1HUBL-1CH,New Choco,New,,,,,5300.00,5300.00,0.00,Robert Shih,Credit Card,2500.00,SQ# WyOa,,,,,,,,,,0.00,,,,,,,,,,,0.00,,,,,,,,,,,No,"5 years parts, 1 year labor (Free)",Scheduled,,SAN DIEGO COUNTY FAIR 5/31-7/4/19 DEL MAR(CA),SAN DIEGO COUNTY FAIR 5/31-7/4/19 DEL MAR(CA),,"CASH DISCOUNT  / COD $ 2,800",118099,"Original received. SQ. amount verified. Remaining balance $2800. COD @ delivery. Erika 6/17/19 9:06am
6/17Printed
scheduled 6/25 8-11",CA,1,8.75
6/16/2019 9:13:53 PM,Mr & Mrs Daniel Pauline Condrick,CA,92075,Legacy 3D,DWA-9150USJ-9150CH,New Choco,New,,,,,3500.00,3500.00,0.00,May Kam,Credit Card,200.00,haf2,,,,,,,,,COD,0.00,,,,,,,,,,,0.00,,,,,,,,,,,No,"5 years parts, 1 year labor (Free)",Cancelled,,SAN DIEGO COUNTY FAIR 5/31-7/4/19 DEL MAR(CA),SAN DIEGO COUNTY FAIR 5/31-7/4/19 DEL MAR(CA),,"Special discount for the customer bought 2nd chair, Manager Approval .",118100,"Original received. Sq. amount verified. Remaining balance $3300 COD @ Delivery. Erika 6/17/19 9:00am
6/17Printed
cText 06/17 @ 3:28 pm (CR)
6/18Maritza- Tried to schedule but customer might not have enough room. Informed them to contact sales rep.
6/20Maritza- Per May issue refund and cancel. Refunded @ 5:30
Confirmed the refund transaction fro the deposit $200/#haf2 on SQ. 6/20/19 Riho",CA,1,8.75
6/16/2019 9:13:53 PM,Mr & Mrs Daniel Pauline Condrick,CA,92075,Tourmaline Pad for Legacy 3D,,,New,,,,,3500.00,3500.00,0.00,May Kam,Credit Card,200.00,haf2,,,,,,,,,COD,0.00,,,,,,,,,,,0.00,,,,,,,,,,,No,no warranty,Cancelled,,SAN DIEGO COUNTY FAIR 5/31-7/4/19 DEL MAR(CA),SAN DIEGO COUNTY FAIR 5/31-7/4/19 DEL MAR(CA),,"Special discount for the customer bought 2nd chair, Manager Approval .",118100,"Original received. Sq. amount verified. Remaining balance $3300 COD @ Delivery. Erika 6/17/19 9:00am
6/17Printed
cText 06/17 @ 3:28 pm (CR)
6/18Maritza- Tried to schedule but customer might not have enough room. Informed them to contact sales rep.
6/20Maritza- Per May issue refund and cancel. Refunded @ 5:30
Confirmed the refund transaction fro the deposit $200/#haf2 on SQ. 6/20/19 Riho",CA,1,8.75
6/18/2019 12:15:27 PM,Christina Lynn Thursby,CA,92563,PEGASUS 2 SMART,PEGS-2PEGS-2-BL,New Black,New,,,,,6500.00,6500.00,0.00,Juan Ochoa,Synchrony,0.00,,,6501723375193511,76904955,San Diego,48 months,,,,,0.00,,,,,,,,,,,0.00,,,,,,,,,,,No,"5 years parts, 2 years labor ($200)",Scheduled,,SAN DIEGO COUNTY FAIR 5/31-7/4/19 DEL MAR(CA),SAN DIEGO COUNTY FAIR 5/31-7/4/19 DEL MAR(CA),"Authorization Code 6/24
024158
PC:448",,118125,"Synchrony original received. Credit available $7800. Remaining balance $6500. Please charge synchrony account upon delivery, haves sales draft sign. Erika 6/18/19 1:39pm
6/18Printed
Scheduled 6/25 10-1",CA,1,8.75
6/19/2019 11:08:53 AM,Patricia McConnell,CA,92062,PEGASUS 2 SMART,PEGS-2PEGS-2-BR,New Choco,New,,,,,4500.00,4500.00,0.00,Ruben Cuatrona,Check,0.00,,,,,,,,,,,0.00,,,,,,,,,,,0.00,,,,,,,,,,,No,"5 years parts, 2 years labor ($200)",New,,SAN DIEGO COUNTY FAIR 5/31-7/4/19 DEL MAR(CA),SAN DIEGO COUNTY FAIR 5/31-7/4/19 DEL MAR(CA),,"Text only 
*Deliver after July 4th Only Monday or Tuesday*",118131,-Waiting for check to clear. Erika 6/20/19 2:30pm,Not Dispatched,1,8.75
6/19/2019 8:06:04 PM,Jean Cram,CA,91916,PEGASUS 2 SMART,PEGS-2PEGS-2-BR-DEMO,Demo Choco,Demo,,,,,5000.00,5000.00,0.00,Rolly San Jose,Synchrony,5000.00,,,6501723375197256,77043659,San Diego,36 months,Driver’s License,CA,09/2023,,0.00,,,,,,,,,/,,0.00,,,,,,,,,/,,No,"5 years parts, 1 year labor (Free)",Scheduled,,SAN DIEGO COUNTY FAIR 5/31-7/4/19 DEL MAR(CA),SAN DIEGO COUNTY FAIR 5/31-7/4/19 DEL MAR(CA),"Authorization Code 6/21
021674
PC: 436",,118140,"Pls deliver next week from today jun 19
Synchrony Original verified. Credit available  $9000. Remaining balance $5000. Please charge synchrony account upon delivery and have sales draft sign. Erika 6/20/19 8:43am
6/20Printed.
scheduled 6/24 9-11
rescheduled for 6/25 12-3",CA,1,8.75
6/19/2019 8:12:03 PM,Sandra Coler,CA,92037,Majesty,MAJ-1010MAJ-1010-BR,New Choco,New,,,,,2800.00,2800.00,0.00,Kristy Tran,Synchrony,2800.00,,,6501723375197272,77044147,San Diego,24 months,Driver’s License,CA,04/2023,,0.00,,,,,,,,,/,,0.00,,,,,,,,,/,,No,"5 years parts, 2 years labor ($200)",Called,,SAN DIEGO COUNTY FAIR 5/31-7/4/19 DEL MAR(CA),SAN DIEGO COUNTY FAIR 5/31-7/4/19 DEL MAR(CA),,,118141,"Pls deliver within 2 weeks from jun 19
Synchrony original verified. Credit available $9000. Remaining balance $2800. Please charge synchrony account upon delivery, haves sales draft sign. Erika 6/20/19 8:45am
6/20Printed.",CA,1,8.75
6/19/2019 8:20:19 PM,Laszlo Peterfai,CA,92067,PEGASUS 2 SMART,PEGS-2PEGS-2-BR,New Choco,New,,,,,4900.00,4900.00,0.00,Ruben Cuatrona,Cash,4900.00,,,,,,,,,/,,0.00,,,,,,,,,/,,0.00,,,,,,,,,/,,No,"5 years parts, 2 years labor ($200)",Called,,SAN DIEGO COUNTY FAIR 5/31-7/4/19 DEL MAR(CA),SAN DIEGO COUNTY FAIR 5/31-7/4/19 DEL MAR(CA),,,118142,"Pls deliver within 2 weeks from jun 19
Original received. This Order is linked to #118144 & 118143. Fully paid in cash $14700, Ruben will take the money to the office on 6/24/19. -Erika 6/20/19 9:40am
6/20Printed.",CA,1,8.75
6/19/2019 8:29:38 PM,Laszlo Peterfai,CA,91390,PEGASUS 2 SMART,PEGS-2PEGS-2-BR,New Choco,New,,,,,4900.00,4900.00,0.00,Ruben Cuatrona,Cash,4900.00,,,,,,,,,/,,0.00,,,,,,,,,/,,0.00,,,,,,,,,/,,No,"5 years parts, 2 years labor ($200)",Called,,SAN DIEGO COUNTY FAIR 5/31-7/4/19 DEL MAR(CA),SAN DIEGO COUNTY FAIR 5/31-7/4/19 DEL MAR(CA),,,118143,"Pls add tourmaline pad and gray blanket for each of the 3 chairs under peterfai order. Pls deliver within 2 weeks from jun 19
Original received. This Order is linked to #118142 & 118144. Fully paid in cash $14700, Ruben will take the money to the office on 6/24/19. Erika 6/20/19 9:40am
6/20Printed.",CA,1,8.75
6/19/2019 8:34:32 PM,Laszlo Peterfai,CA,93510,PEGASUS 2 SMART,PEGS-2PEGS-2-BR,New Choco,New,,,,,4900.00,4900.00,0.00,Ruben Cuatrona,Cash,4900.00,,,,,,,,,/,,0.00,,,,,,,,,/,,0.00,,,,,,,,,/,,No,"5 years parts, 2 years labor ($200)",Called,,SAN DIEGO COUNTY FAIR 5/31-7/4/19 DEL MAR(CA),SAN DIEGO COUNTY FAIR 5/31-7/4/19 DEL MAR(CA),,,118144,"Pls provide free tourmaline pad and gray blanket for each of the 3 chairs peterfai orders. Pls deliver within 2 weeks from jun 19
Original received. This Order is linked to #118142 & 118143. Fully paid in cash $14700, Ruben will take the money to the office on 6/24/19. --Erika 6/20/19 9:36am
6/20Printed.",CA,1,8.75
6/19/2019 9:54:13 PM,Ronald Snyder,CA,92129,Legacy,DWA-9100DWA-9100BL,New Black,New,,,,,3900.00,3900.00,0.00,Tom Nguyen,Synchrony,3900.00,,,6501723375196837,77029557,Huston,36 months,Driver’s License,CA,10/2023,,0.00,,,,,,,,,/,,0.00,,,,,,,,,/,,No,"5 years parts, 1 year labor (Free)",Scheduled,,SAN DIEGO COUNTY FAIR 5/31-7/4/19 DEL MAR(CA),SAN DIEGO COUNTY FAIR 5/31-7/4/19 DEL MAR(CA),"Authorization Code 6/24
024021
PC:436",,118145,"Upstairs delivery.
Please take away their old chair. 1 chair pad & 1 Foot pads.
Synchrony original verified.  Credit available $9000. Remaining balance $3900. Please charge synchrony account upon delivery, haves sales draft sign. Erika 6/20/19 10:01am
6/20Printed.
scheduled 6/25 1:30-4:30",CA,1,8.75
6/19/2019 9:59:55 PM,Mr Chad Sanfilippo,CA,92071,Legacy,DWA-9100DWA-9100BL,New Black,New,,,,,4212.00,4212.00,0.00,May Kam,Synchrony,4212.00,,,6501723375197322,77045496,Huston,36 months,Driver’s License,CA,05/2021,,0.00,,,,,,,,,/,,0.00,,,,,,,,,/,,No,"5 years parts, 1 year labor (Free)",Scheduled,,SAN DIEGO COUNTY FAIR 5/31-7/4/19 DEL MAR(CA),SAN DIEGO COUNTY FAIR 5/31-7/4/19 DEL MAR(CA),"Authorization Code 6/24
024132
PC: 436","Special discount, manager approval ; Pls make $4212 finance purchase, thanks",118146,"Synchrony Original verified. Credit available $9000. Remaining balance $4212. Please charge synchrony account upon delivery and haves sales draft sign. Erika 6/20/19 9:01am
6/20Printed.
scheduled 6/26 8:30-11:30",CA,1,8.75
6/20/2019 11:09:09 AM,Azahar Lopez,CA,92705,Majesty,MAJ-1010MAJ-1010-BG,New Beige,New,,,,,2800.00,2800.00,0.00,Kristy Tran,Synchrony,2800.00,,,6501723375197504,77051654,San Diego,24 months,Driver’s License,CA,08/2023,,0.00,,,,,,,,,/,,0.00,,,,,,,,,/,,No,"5 years parts, 1 year labor (Free)",Called,,SAN DIEGO COUNTY FAIR 5/31-7/4/19 DEL MAR(CA),SAN DIEGO COUNTY FAIR 5/31-7/4/19 DEL MAR(CA),,*Deliver with Small Van because customer’s house is up a very steep hill.  It’s only a 1-way so you will not able to U-Turn either.,118148,"Synchrony original verified. Credit available $9000. Remaining balance $2800. Please charge synchrony account upon delivery, have sales draft sign. Erika 6/20/19 11:17am
6/20Printed.",CA,1,8.75
6/20/2019 9:05:48 PM,Thomas Greene,CA,92078,PEGASUS 2 SMART,PEGS-2PEGS-2-BR,New Choco,New,,,,,4800.00,4800.00,0.00,Ruben Cuatrona,Credit Card,4800.00,#FiTg,,,,,,,,/,,0.00,,,,,,,,,/,,0.00,,,,,,,,,/,,No,"5 years parts, 5 years labor ($800)",Called,,SAN DIEGO COUNTY FAIR 5/31-7/4/19 DEL MAR(CA),SAN DIEGO COUNTY FAIR 5/31-7/4/19 DEL MAR(CA),,,118157,"Gate Code # 9789
Original received. Sq amount verified $4800. Paid  -Erika 6/21/19 8:44am
9/21Printed.",CA,1,8.75
6/20/2019 9:09:53 PM,Kieran Betts,CA,92130,Majesty,MAJ-1010MAJ-1010-BG,New Beige,New,,,,,2500.00,2500.00,0.00,Jennifer Tran,Credit Card,2500.00,#VdRi,,,,,,,,/,,0.00,,,,,,,,,/,,0.00,,,,,,,,,/,,No,"5 years parts, 1 year labor (Free)",Scheduled,,SAN DIEGO COUNTY FAIR 5/31-7/4/19 DEL MAR(CA),SAN DIEGO COUNTY FAIR 5/31-7/4/19 DEL MAR(CA),,,118158,"Please Deliver ASAP,  within a week if possible
---Original received. Sq amount verified $2500. Erika 6/21/19 8:49am
9/21Printed.
scheduled 6/25 2-5",CA,1,8.75
6/20/2019 9:20:18 PM,Alejandro Balvaneda,CA,91902,PEGASUS 2 SMART,PEGS-2PEGS-2-BR-DEMO,Demo Choco,Demo,,,,,5300.00,5300.00,0.00,Rolly San Jose,Synchrony,5300.00,,,6501723375198742,77094960,San Diego,36 months,Driver’s License,CA,05/2020,,0.00,,,,,,,,,/,,0.00,,,,,,,,,/,,No,"5 years parts, 1 year labor (Free)",Printed,,SAN DIEGO COUNTY FAIR 5/31-7/4/19 DEL MAR(CA),SAN DIEGO COUNTY FAIR 5/31-7/4/19 DEL MAR(CA),,,118159,"His dad bought legacy 9100 and its not working. Pls schedule repair visit for free to Agustin Perez at 2785 subplot ct, San Diego, ca 92154. Pls deliver this order next week from jun 20. They leave 10 minutes apart. Do delivery and repair at same day. Thanks
----Synchrony original verified. Credit available $9000. Remaining balance $5300. Pls charge synchrony account upon deliveries, have sales draft sign.-Erika 6/21/19 8:47am
9/21Printed.",CA,1,8.75
6/21/2019 7:25:22 AM,Mr & Mrs Ellis,CA,92003,Legacy 3D,DWA-9150USJ-9150BL,New Black,New,,,,,4650.00,4650.00,0.00,May Kam,Credit Card,2000.00,HWAX,,,,,,,,/,COD,0.00,,,,,,,,,/,,0.00,,,,,,,,,/,,No,"5 years parts, 1 year labor (Free)",Scheduled,,SAN DIEGO COUNTY FAIR 5/31-7/4/19 DEL MAR(CA),SAN DIEGO COUNTY FAIR 5/31-7/4/19 DEL MAR(CA),,"Special discount for one time payment, manager approval",118172,"--Original received. SQ amount verified $2000. Remaining balance $2650. Collect COD @ delivery. Erika 6/21/19 9:03am
9/21Printed.
scheduled 6/24 8-10",CA,1,8.75
6/21/2019 7:35:13 AM,Mrs Gloria Seaman,CA,91977,Legacy,DWA-9100DWA-9100BU,New Choco,New,,,,,3153.00,3153.00,0.00,May Kam,Credit Card,200.00,UNq6,,,,,,,,/,COD,0.00,,,,,,,,,/,,0.00,,,,,,,,,/,,No,"5 years parts, 1 year labor (Free)",Scheduled,,SAN DIEGO COUNTY FAIR 5/31-7/4/19 DEL MAR(CA),SAN DIEGO COUNTY FAIR 5/31-7/4/19 DEL MAR(CA),,"Special discount, manager approval",118173,"Original received. Sq amount verified $200. Remaining balance $2953. Collect COD @ delivery.--Erika 6/21/19 8:52am
Must call 30 min.
6/21Maritza- Printed
scheduled 6/24 11:30-1:30",CA,1,8.75
6/21/2019 7:44:20 AM,Mr & Mrs Joshawa Elsas,CA,91915,Legacy 3D,DWA-9150USJ-9150BL-DEMO,Demo Black,Demo,,,,,3900.00,3900.00,0.00,May Kam,Credit Card,500.00,6zSt,,,,,,,,/,COD,3400.00,,,,,,,,,/,,0.00,,,,,,,,,/,,No,"5 years parts, 1 year labor (Free)",Printed,,SAN DIEGO COUNTY FAIR 5/31-7/4/19 DEL MAR(CA),SAN DIEGO COUNTY FAIR 5/31-7/4/19 DEL MAR(CA),,"Special discount for one time payment, manager approval",118174,"--1 chair pad
Original received. Sq amount verified $500. Remaining balance $3400. Collect COD @ delivery. Erika 6/21/19 9:00am
9/21Printed.",CA,1,8.75
6/21/2019 7:44:20 AM,Mr & Mrs Joshawa Elsas,CA,91915,Chair Pad for Legacy 3D,,,New,,,,,3900.00,3900.00,0.00,May Kam,Credit Card,500.00,6zSt,,,,,,,,/,COD,3400.00,,,,,,,,,/,,0.00,,,,,,,,,/,,No,no warranty,Printed,,SAN DIEGO COUNTY FAIR 5/31-7/4/19 DEL MAR(CA),SAN DIEGO COUNTY FAIR 5/31-7/4/19 DEL MAR(CA),,"Special discount for one time payment, manager approval",118174,"--1 chair pad
Original received. Sq amount verified $500. Remaining balance $3400. Collect COD @ delivery. Erika 6/21/19 9:00am
9/21Printed.",CA,1,8.75
6/21/2019 8:05:34 AM,Mr & Mrs Elizabeth Brandon Matey,CA,92118,Legacy,DWA-9100DWA-9100SI-DEMO,Demo Sienna,Demo,,,,,2900.00,2900.00,0.00,May Kam,Credit Card,200.00,aPx8,,,,,,,,/,COD,2700.00,,,,,,,,,/,,0.00,,,,,,,,,/,,No,"5 years parts, 1 year labor (Free)",Scheduled,,SAN DIEGO COUNTY FAIR 5/31-7/4/19 DEL MAR(CA),SAN DIEGO COUNTY FAIR 5/31-7/4/19 DEL MAR(CA),,"Special discount for cash pay , manager approval",118175,"Original received. Sq amount verified $200. Remaining balance $2700. Collect COD @ delivery.  Erika 6/21/19 8:57am
9/21Printed.
scheduled 6/26 10:30AM-12:30PM",CA,1,8.75
6/21/2019 11:07:02 AM,Jerome Alba,CA,91915,Relax 2 Zero 3D,DWA-9060USJ-9060BR,New Choco,New,,,,,4800.00,4800.00,0.00,Querubin Milanes,Synchrony,4800.00,,,6501723370132107,,San Diego,48 months,Driver’s License,CA,06/2020,,0.00,,,,,,,,,/,,0.00,,,,,,,,,/,,No,"5 years parts, 2 years labor ($200)",Called,,SAN DIEGO COUNTY FAIR 5/31-7/4/19 DEL MAR(CA),SAN DIEGO COUNTY FAIR 5/31-7/4/19 DEL MAR(CA),,,118183,"Original Synchrony verified. Credit available $6000. Remaining balance $4800. Please charge synchrony account upon delivery, have sales draft sign. Erika 6/21/19 2:38pm
6/21MaritzaPrinted",CA,1,8.75
6/21/2019 11:08:07 AM,Bill Van Hoy,CA,92057,Legacy,DWA-9100DWA-9100BU,New Choco,New,,,,,4241.25,3900.00,341.25,Robert Shih,Synchrony,4241.25,,,6034611309328095,,,36 months,Driver’s License,CA,05/2020,,0.00,,,,,,,,,/,,0.00,,,,,,,,,/,,No,"5 years parts, 1 year labor (Free)",Scheduled,,SAN DIEGO COUNTY FAIR 5/31-7/4/19 DEL MAR(CA),SAN DIEGO COUNTY FAIR 5/31-7/4/19 DEL MAR(CA),"Authorization Code 6/24
024695
PC:436",Synchrony 36 months 0% APR ( Living Space store ),118184,"Synchrony original verified. Credit available $5500. Remaining balance $4241.25. Please charge synchrony account upon delivery, have sales draft sign.Erika 6/21/19 11:53am
6/21Printed
scheduled 6/25 12:30-3:30",CA,0,8.75
6/21/2019 11:13:34 AM,Joyce Thomas,CA,92105,Legacy,DWA-9100DWA-9100BL-DEMO,Demo Black,Demo,,,,,2900.00,2900.00,0.00,Robert Shih,Synchrony,2000.00,,,6501723375198544,75088225,Huston,24 months,Driver’s License,CA,09/2019,Credit Card,200.00,SQ#vYnE,,,,,,,,/,,0.00,,,,,,,,,/,,No,"5 years parts, 1 year labor (Free)",Hold,,SAN DIEGO COUNTY FAIR 5/31-7/4/19 DEL MAR(CA),SAN DIEGO COUNTY FAIR 5/31-7/4/19 DEL MAR(CA),,COD $700 / Synchrony 24 months 0% APR  / Delivery after July,118185,"--SQ. amount verified $200. Synchrony original verified. Credit available $2000. Remaining balance 2700. Please charge $2000 on synchrony account and have sales draft sign. Collect ($700) COD@ Delivery.Erika 6/21/19 11:44am 
6/21Printed and on hold until late July early august",CA,1,8.75
6/21/2019 11:13:35 AM,Gina Cole,CA,91977,Legacy 3D,DWA-9150USJ-9150CH,New Choco,New,,,,,4400.00,4400.00,0.00,Tom Nguyen,Synchrony,2400.00,,,6501723375198791,77096224,Huston,12 months,Driver’s License,CA,06/2023,Credit Card,0.00,,,,,,,,,/,,0.00,,,,,,,,,/,,No,"5 years parts, 1 year labor (Free)",Called,,SAN DIEGO COUNTY FAIR 5/31-7/4/19 DEL MAR(CA),SAN DIEGO COUNTY FAIR 5/31-7/4/19 DEL MAR(CA),,,118186,"Please Charge $2400 for 12 months no interest on Houston Acc. Balance $2000 will pay on Credit Card when delivery
--Synchrony original received. Credit available $9000. Please charge $2400 on synchrony account and have sales draft sign. The remaining balance $2000 will be charge @ delivery by credit card. Erika 6/21/19 12:05pm
6/21Maritza- Printed",CA,1,8.75
6/21/2019 8:51:10 PM,Wayne Chang,CA,92677,Relax 2 Zero 3D,DWA-9060USJ-9060BL,New Black,New,,,,,4400.00,4400.00,0.00,Joseph Chan,Credit Card,4400.00,#IQss,,,,,,,,/,,0.00,,,,,,,,,/,,0.00,,,,,,,,,/,,No,"5 years parts, 2 years labor ($200)",Printed,,SAN DIEGO COUNTY FAIR 5/31-7/4/19 DEL MAR(CA),SAN DIEGO COUNTY FAIR 5/31-7/4/19 DEL MAR(CA),,,118195,"Original received. SQ. amount verified of $4400. Erika 6/24/19 9:25am
6/24Printed",CA,1,8.75
6/21/2019 9:45:41 PM,Mrs Razan Nissan,CA,92027,Legacy,DWA-9100DWA-9100BU-DEMO,Demo Choco,Demo,,,,,2936.00,2936.00,0.00,May Kam,Synchrony,2936.00,,,6501723375200191,77140308,Huston,36 months,Driver’s License,CA,12/2022,,0.00,,,,,,,,,/,,0.00,,,,,,,,,/,,No,"5 years parts, 1 year labor (Free)",Printed,,SAN DIEGO COUNTY FAIR 5/31-7/4/19 DEL MAR(CA),SAN DIEGO COUNTY FAIR 5/31-7/4/19 DEL MAR(CA),,Pls make finance $2936 purchase,118196,"Available credit $9,000;Both sales draft + synchrony form have been verified. Please charge $2,936.00 thru Synchrony and have sales draft signed. -Cristina 06/24/19 9:06 am
6/24Printed",CA,1,8.75
6/22/2019 10:56:45 AM,Joanne M. Hoxie,CA,91935,Legacy 3D,DWA-9150USJ-9150CH-DEMO,Demo Choco,Demo,,,,,3800.00,3800.00,0.00,Robert Shih,Credit Card,3800.00,SQ# qQpp,,,,,,,,/,,0.00,,,,,,,,,/,,0.00,,,,,,,,,/,,No,"5 years parts, 1 year labor (Free)",New,,SAN DIEGO COUNTY FAIR 5/31-7/4/19 DEL MAR(CA),SAN DIEGO COUNTY FAIR 5/31-7/4/19 DEL MAR(CA),,,118205,Customer spoke to Alicia in regards to a cancellation; Text has been sent to Robert in efforts to save the sale- cristina 06/24 9:52 pm,CA,1,8.75
6/22/2019 10:59:47 AM,Laura Lee,CA,92009,Legacy,DWA-9100DWA-9100BU-DEMO,Demo Choco,Demo,,,,,3000.00,3000.00,0.00,Robert Shih,Synchrony,3000.00,,,6501723375200225,77141429,Huston,36 months,Driver’s License,CA,12/2019,,0.00,,,,,,,,,/,,0.00,,,,,,,,,/,,No,"5 years parts, 1 year labor (Free)",Printed,,SAN DIEGO COUNTY FAIR 5/31-7/4/19 DEL MAR(CA),SAN DIEGO COUNTY FAIR 5/31-7/4/19 DEL MAR(CA),,Synchrony 36 months 0% APR,118206,"Synchrony original verified. Credit available $9000. Remaining balance $3000. Please charge synchrony account upon delivery, have sales draft sign. Erika 6/24/19 11:14am
6/24Printed",CA,1,8.75
6/22/2019 11:04:02 AM,Holly Black,CA,92123,Relax 2 Zero 3D,DWA-9060USJ-9060BR,New Choco,New,,,,,4500.00,4500.00,0.00,Querubin Milanes,Synchrony,4500.00,,,6501723375200241,77142365,San Diego,48 months,Driver’s License,CA,03/2021,,0.00,,,,,,,,,/,,0.00,,,,,,,,,/,,No,"5 years parts, 2 years labor ($200)",Printed,,SAN DIEGO COUNTY FAIR 5/31-7/4/19 DEL MAR(CA),SAN DIEGO COUNTY FAIR 5/31-7/4/19 DEL MAR(CA),,,118207,"Synchrony original received. Credit available of $9000. Remaining balance $4500. Please charge synchrony account upon delivery, have sales draft sign. Erika 6/24/19 9:28am
6/24Printed",CA,1,8.75
6/22/2019 11:31:38 AM,Keith Ball,CA,92078,PEGASUS 2 SMART,PEGS-2PEGS-2-BR-DEMO,Demo Choco,Demo,,,,,5300.00,5300.00,0.00,Rolly San Jose,Synchrony,5300.00,,,6501723375200233,77142138,San Diego,48 months,Driver’s License,CA,08/2023,,0.00,,,,,,,,,/,,0.00,,,,,,,,,/,,No,"5 years parts, 1 year labor (Free)",Printed,,SAN DIEGO COUNTY FAIR 5/31-7/4/19 DEL MAR(CA),SAN DIEGO COUNTY FAIR 5/31-7/4/19 DEL MAR(CA),,,118212,"Pls deliver the week after jun 21. Thanks
Synchrony original verified. Credit available $6800. Remaining balance $5300. Please charge synchrony account upon delivery, have sales draft sign. Erika 6/24/19 9:49am
6/24Printed",CA,1,8.75
6/22/2019 11:42:40 AM,Guy Chandler,CA,92026,PEGASUS 2 SMART,PEGS-2PEGS-2-BL,New Black,New,,,,,3500.00,3500.00,0.00,Ruben Cuatrona,Synchrony,3500.00,,,6501723375200084,77137197,San Diego,24 months,Driver’s License,CA,09/2023,,0.00,,,,,,,,,/,,0.00,,,,,,,,,/,,No,"5 years parts, 3 years labor ($400)",Printed,,SAN DIEGO COUNTY FAIR 5/31-7/4/19 DEL MAR(CA),SAN DIEGO COUNTY FAIR 5/31-7/4/19 DEL MAR(CA),,,118213,"Pull out his 2018 Relax2Zero 3D as trade in paid for $3000.  Pls deliver a free tourmaline pad with the chair within 2 weeks from jun 21.
Synchrony original received. Credit available of $9000. Remaining balance $3500. Please charge synchrony account upon delivery, have sales draft sign. Erika 6/24/19 9:47am
6/24Printed",CA,1,8.75
6/22/2019 11:51:56 AM,Dripdoctors Anthony,CA,94123,Majesty,MAJ-1010MAJ-1010-BR,New Choco,New,,,,,10000.00,10000.00,0.00,Ruben Cuatrona,Check,5000.00,,,,,,,,,/,,0.00,,,,,,,,,/,,0.00,,,,,,,,,/,,No,"5 years parts, 2 years labor ($200)",New,,SAN DIEGO COUNTY FAIR 5/31-7/4/19 DEL MAR(CA),SAN DIEGO COUNTY FAIR 5/31-7/4/19 DEL MAR(CA),,,118214,"Will come to bring check. Pls deliver within 2 weeks from date paid. Will adv
Original received. QTY is only 2. Waiting form of payment by Ruben C. Pls note invoice needs customers signature--Erika 6/24/19 10:30am",CA,1,8.75
6/22/2019 8:27:28 PM,Michael Dong,NY,10591,Relax 2 Zero 3D,DWA-9060USJ-9060BL,New Black,New,,,,,3500.00,3500.00,0.00,Joseph Chan,Credit Card,3500.00,#ILsk,,,,,,,,/,,0.00,,,,,,,,,/,,0.00,,,,,,,,,/,,No,"5 years parts, 2 years labor ($200)",New,,SAN DIEGO COUNTY FAIR 5/31-7/4/19 DEL MAR(CA),SAN DIEGO COUNTY FAIR 5/31-7/4/19 DEL MAR(CA),,,118219,"Family buying 4 chairs
Original received. SQ amount verified $3500. Erika 6/24/19 12:23pm",IL,1,8.75
6/22/2019 8:31:47 PM,Tommy Lau,CA,92126,Relax 2 Zero 3D,DWA-9060USJ-9060BR,New Choco,New,,,,,3500.00,3500.00,0.00,Querubin Milanes,Credit Card,3500.00,#GdD9,,,,,,,,/,,0.00,,,,,,,,,/,,0.00,,,,,,,,,/,,No,"5 years parts, 2 years labor ($200)",Printed,,SAN DIEGO COUNTY FAIR 5/31-7/4/19 DEL MAR(CA),SAN DIEGO COUNTY FAIR 5/31-7/4/19 DEL MAR(CA),,,118220,"Family buying 4 chairs
Original received. SQ. amount verified of $3500. Erika 6/24/19 9:33am
6/24Printed",CA,1,8.75
6/22/2019 8:39:46 PM,Paul Kochun,CA,92064,Relax 2 Zero 3D,DWA-9060USJ-9060BR,New Choco,New,,,,,3500.00,3500.00,0.00,Joseph Chan,Credit Card,3500.00,#qIVi,,,,,,,,/,,0.00,,,,,,,,,/,,0.00,,,,,,,,,/,,No,"5 years parts, 2 years labor ($200)",Printed,,SAN DIEGO COUNTY FAIR 5/31-7/4/19 DEL MAR(CA),SAN DIEGO COUNTY FAIR 5/31-7/4/19 DEL MAR(CA),,,118221,"Family buying 4 chairs
Original received. SQ amount verified of $3500. Erika 6/24/19 9:40am
6/24Printed",CA,1,8.75
6/22/2019 8:43:53 PM,David Dong,NY,10301,Relax 2 Zero 3D,DWA-9060USJ-9060BR,New Choco,New,,,,,3500.00,3500.00,0.00,Querubin Milanes,Credit Card,3500.00,#DsXH,,,,,,,,/,,0.00,,,,,,,,,/,,0.00,,,,,,,,,/,,No,"5 years parts, 2 years labor ($200)",New,,SAN DIEGO COUNTY FAIR 5/31-7/4/19 DEL MAR(CA),SAN DIEGO COUNTY FAIR 5/31-7/4/19 DEL MAR(CA),,,118222,"Family buying 4 chairs
Original received. SQ amount verified of $3500. Erika 6/24/19 12:07pm",IL,1,8.75
6/22/2019 9:18:19 PM,Charles Harisfield,CA,91902,PEGASUS 2 SMART,PEGS-2PEGS-2-BR,New Choco,New,,,,,5000.00,5000.00,0.00,Ruben Cuatrona,Credit Card,5000.00,Square #IQcQ,,,,,,,,/,,0.00,,,,,,,,,/,,0.00,,,,,,,,,/,,No,"5 years parts, 3 years labor ($400)",Printed,,SAN DIEGO COUNTY FAIR 5/31-7/4/19 DEL MAR(CA),SAN DIEGO COUNTY FAIR 5/31-7/4/19 DEL MAR(CA),,,118223,"Original received. SQ amount verified of $5000. Erika 6/24/19 9:51am
6/24Printed",CA,1,8.75
6/22/2019 9:22:19 PM,Brian del Poso,CA,92129,PEGASUS 2 SMART,PEGS-2PEGS-2-BL-DEMO,Demo Black,Demo,,,,,5000.00,5000.00,0.00,Ruben Cuatrona,Synchrony,0.00,,,6501723375202544,77189298,San Diego,48 months,Driver’s License,CA,11/2023,,0.00,,,,,,,,,/,,0.00,,,,,,,,,/,,No,"5 years parts, 3 years labor ($400)",Printed,,SAN DIEGO COUNTY FAIR 5/31-7/4/19 DEL MAR(CA),SAN DIEGO COUNTY FAIR 5/31-7/4/19 DEL MAR(CA),,,118224,"Synchrony original verified. Credit available $9000. Remaining balance $5000. Please charge synchrony account upon delivery, have sales draft sign. Erika 6/24/19 9:58am
6/24Printed",CA,1,8.75
6/23/2019 7:30:38 AM,Dr Eric Onell,CA,91910,Legacy,DWA-9100DWA-9100SI-DEMO,Demo Sienna,Demo,,,,,2700.00,2700.00,0.00,May Kam,Credit Card,2700.00,dQ3S,,,,,,,,/,,0.00,,,,,,,,,/,,0.00,,,,,,,,,/,,No,"5 years parts, 1 year labor (Free)",Printed,,SAN DIEGO COUNTY FAIR 5/31-7/4/19 DEL MAR(CA),SAN DIEGO COUNTY FAIR 5/31-7/4/19 DEL MAR(CA),,"Special military discount, manager approval",118228,"Square amount has been verified for $2,700 - Cristina 06/24/19 @9:09 am
6/24Printed",CA,1,8.75
6/23/2019 11:24:18 AM,Edgar Trenaado,CA,92503,Relax 2 Zero 3D,DWA-9060USJ-9060BR,New Choco,New,,,,,3000.00,3000.00,0.00,Querubin Milanes,Synchrony,3000.00,,,6019193024048752,,,36 months,Driver’s License,CA,10/2019,COD,0.00,,,,,,,,,/,,0.00,,,,,,,,,/,,No,"5 years parts, 2 years labor ($200)",Cancelled,,SAN DIEGO COUNTY FAIR 5/31-7/4/19 DEL MAR(CA),SAN DIEGO COUNTY FAIR 5/31-7/4/19 DEL MAR(CA),,Customer using their own Synchrony A/C,118232,"Original synchrony verified. Full Balance $4000. Credit available $3500. Please charge $3000 on synchrony account upon delivery, haves sales draft sign. Collect COD ($1000) @ delivery. Erika 6/24/19 10:38am
Balance was incorrect canceled order. New order#118296",CA,1,8.75
6/23/2019 11:30:18 AM,Chin Rath,CA,92532,Majesty,MAJ-1010MAJ-1010-BR,New Choco,New,,,,,3000.00,3000.00,0.00,Jennifer Tran,Synchrony,3000.00,,,6501723709375883,,,24 months,Driver’s License,CA,05/2022,,0.00,,,,,,,,,/,,0.00,,,,,,,,,/,,No,"5 years parts, 1 year labor (Free)",Printed,,SAN DIEGO COUNTY FAIR 5/31-7/4/19 DEL MAR(CA),SAN DIEGO COUNTY FAIR 5/31-7/4/19 DEL MAR(CA),,,118233,"Customer Currently Has Synchrony Home Account With Remaining LImit of $4,203. We will charge $3,000 for 24 months with 0% Interest. (exisiting account with jeromes)
Original synchrony verified. Credit available $4203. Remaining balance $3000. Please charge synchrony account upon delivery, have sales draft sign. Erika 6/24/19 9:55am
6/24Printed",CA,1,8.75
6/23/2019 6:39:23 PM,Demetrius Caesar,CA,91977,Relax 2 Zero 3D,DWA-9060USJ-9060BR,New Choco,New,,,,,4200.00,4200.00,0.00,Rodrigo Malabunga,Synchrony,4200.00,,,6507723375203872,77218489,San Diego,36 months,Driver’s License,CA,03/2023,,0.00,,,,,,,,,/,,0.00,,,,,,,,,/,,No,"5 years parts, 2 years labor ($200)",Printed,,SAN DIEGO COUNTY FAIR 5/31-7/4/19 DEL MAR(CA),SAN DIEGO COUNTY FAIR 5/31-7/4/19 DEL MAR(CA),,,118245,"synchrony original verified.(application Key) Credit available $5000. Remaining balance $4200. Please charge synchrony account upon delivery, have sales draft sign. Erika 6/24/19 10:14am
6/24Printed",CA,1,8.75
6/23/2019 8:24:18 PM,Ernesto Diaz,CA,92111,Relax 2 Zero 3D,DWA-9060USJ-9060BL,New Black,New,,,,,3900.00,3900.00,0.00,Joseph Chan,Synchrony,3900.00,,,6501723375203922,77220043,San Diego,36 months,Driver’s License,CA,05/2020,,0.00,,,,,,,,,/,,0.00,,,,,,,,,/,,No,"5 years parts, 2 years labor ($200)",Printed,,SAN DIEGO COUNTY FAIR 5/31-7/4/19 DEL MAR(CA),SAN DIEGO COUNTY FAIR 5/31-7/4/19 DEL MAR(CA),,"$1000 special trade-in discount, please pick up the USJ-9000 from customer on delivery",118246,"Please update with Extend 2.0 software
Synchrony original verified. Credit available $9000. Remaining balance $3900. Please charge synchrony account upon delivery, have sales draft sign, Erika 6/24/19 1:46pm
6/24Printed",CA,1,8.75
6/23/2019 8:28:48 PM,Theresa Navarro,CA,92040,Majesty,MAJ-1010MAJ-1010-BR-DEMO,Demo Choco,Demo,,,,,3000.00,3000.00,0.00,Rolly San Jose,Synchrony,3000.00,,,6501723375203443,77210783,San Diego,24 months,Driver’s License,CA,01/2020,,0.00,,,,,,,,,/,,0.00,,,,,,,,,/,,No,"3 years parts, 1 year labor (Free)",Printed,,SAN DIEGO COUNTY FAIR 5/31-7/4/19 DEL MAR(CA),SAN DIEGO COUNTY FAIR 5/31-7/4/19 DEL MAR(CA),,,118247,"Synchrony original received, Credit available $5500. Remaining balance $3000. Please charge synchrony account upon delivery,have sales draft sign. Erika 6/24/19 10:18am
6/24Printed",CA,1,8.75
6/23/2019 8:37:02 PM,Brendalie Cabacungan,CA,92139,PEGASUS 2 SMART,PEGS-2PEGS-2-BR,New Choco,New,,,,,5000.00,5000.00,0.00,Kristy Tran,Synchrony,5000.00,,,6501723375203575,77211785,San Diego,48 months,Driver’s License,CA,04/2020,,0.00,,,,,,,,,/,,0.00,,,,,,,,,/,,No,"5 years parts, 1 year labor (Free)",Printed,,SAN DIEGO COUNTY FAIR 5/31-7/4/19 DEL MAR(CA),SAN DIEGO COUNTY FAIR 5/31-7/4/19 DEL MAR(CA),,,118248,"Pls deliver within 2 weeks from jun 22
Synchrony original received. Credit available $9000. Remaining balance $5000. Please charge synchrony account upon delivery, have sales draft sign. Erika 6/24/19 10:21am
6/24Printed",CA,1,8.75
6/23/2019 8:43:44 PM,Mike Barry,CA,92028,PEGASUS 2 SMART,PEGS-2PEGS-2-BL-DEMO,Demo Black,Demo,,,,,5500.00,5500.00,0.00,Rolly San Jose,Synchrony,5500.00,,,6501723375203807,77216642,San Diego,48 months,Driver’s License,CA,08/2023,,0.00,,,,,,,,,/,,0.00,,,,,,,,,/,,No,"5 years parts, 1 year labor (Free)",Printed,,SAN DIEGO COUNTY FAIR 5/31-7/4/19 DEL MAR(CA),SAN DIEGO COUNTY FAIR 5/31-7/4/19 DEL MAR(CA),,,118249,"Pls deliver next week from jun 22
synchrony original verified. Credit available $6800. Remaining balance $5500. Please charge synchrony account upon delivery, have sales draft sign. Erika 6/24/19 10:23am
6/24Printed",CA,1,8.75
6/23/2019 8:58:51 PM,Jose Enoc Piedra,CA,94508,PEGASUS 2 SMART,PEGS-2PEGS-2-BL,New Black,New,,,,,6200.00,6200.00,0.00,Kristy Tran,Synchrony,0.00,,,6501722456069988,77214915,San Diego,48 months,Driver’s License,CA,07/2021,,0.00,,,,,,,,,/,,0.00,,,,,,,,,/,,No,"5 years parts, 5 years labor ($800)",Printed,,SAN DIEGO COUNTY FAIR 5/31-7/4/19 DEL MAR(CA),SAN DIEGO COUNTY FAIR 5/31-7/4/19 DEL MAR(CA),,,118250,"Customer originally ordered through Furniture Firm which they have cancelled already.  We will use their Synchrony account to charge for this chair. (account through Mattress Firm)
---Synchrony original received. Credit available of $8796. Remaining balance $6200. Please charge synchrony account upon delivery, haves sales draft sign. Erika 6/24/19 9:21am
6/24Printed",CA,1,8.75
6/23/2019 9:15:05 PM,Philip A. Butler,CA,92130,Legacy 3D,DWA-9150USJ-9150CH-DEMO,Demo Choco,Demo,,,,,3900.00,3900.00,0.00,Robert Shih,Credit Card,3900.00,SQ# R02g,,,,,,,,/,,0.00,,,,,,,,,/,,0.00,,,,,,,,,/,,No,"5 years parts, 1 year labor (Free)",Printed,,SAN DIEGO COUNTY FAIR 5/31-7/4/19 DEL MAR(CA),SAN DIEGO COUNTY FAIR 5/31-7/4/19 DEL MAR(CA),,Pls ask for gate entry code.,118251,"Original received. SQ amount verified $3900. Erika 6/24/19 11:17am
6/24Printed",CA,1,8.75
6/23/2019 9:18:36 PM,Darian & Erica Brooks,CA,91911,Legacy 3D,DWA-9150USJ-9150BL,New Black,New,,,,,4900.00,4900.00,0.00,Robert Shih,Credit Card,300.00,SQ# VsGl,,,,,,,,/,,0.00,,,,,,,,,/,,0.00,,,,,,,,,/,,No,"5 years parts, 1 year labor (Free)",Hold,,SAN DIEGO COUNTY FAIR 5/31-7/4/19 DEL MAR(CA),SAN DIEGO COUNTY FAIR 5/31-7/4/19 DEL MAR(CA),,"Customer will call after closed the house. / Synchrony 36 months for $4,600",118252,original received. SQ amount verified. $300. ON HOLD. Erika 6/24/19 11:23am,CA,1,8.75
6/23/2019 9:19:44 PM,Trung Tran,CA,92027,Legacy,DWA-9100DWA-9100BU-DEMO,Demo Choco,Demo,,,,,2800.00,2800.00,0.00,Tom Nguyen,Credit Card,200.00,Square #QVQa,,,,,,,,/,Credit Card,0.00,,,,,,,,,/,,0.00,,,,,,,,,/,,No,"3 years parts, 1 year labor (Free)",New,,SAN DIEGO COUNTY FAIR 5/31-7/4/19 DEL MAR(CA),SAN DIEGO COUNTY FAIR 5/31-7/4/19 DEL MAR(CA),,,118253,Please gift free 1 Felicity Neck And Shoulder Massage(USJ 799) when delivery,Not Dispatched,1,8.75
6/23/2019 9:23:40 PM,Pedro Cardona,CA,93257,Legacy,DWA-9100DWA-9100BU,New Choco,New,,,,,3500.00,3500.00,0.00,Robert Shih,Synchrony,3500.00,,,6501723375203898,77218514,San Diego,36 months,Driver’s License,CA,04/2021,,0.00,,,,,,,,,/,,0.00,,,,,,,,,/,,No,"5 years parts, 1 year labor (Free)",New,,SAN DIEGO COUNTY FAIR 5/31-7/4/19 DEL MAR(CA),SAN DIEGO COUNTY FAIR 5/31-7/4/19 DEL MAR(CA),,Downstairs delivery / Synchrony 36 months 0% APR,118254,"Synchrony original received. Credit available $6800. Remaining balance $3500. Please charge synchrony account upon delivery, have sales draft sign. Erika 6/24/19 11:31am",CA,1,8.75
6/24/2019 9:41:55 AM,Mr & Mrs Dayan He,CA,92058,Legacy,DWA-9100DWA-9100BU,New Choco,New,,,,,3500.00,3500.00,0.00,May Kam,Credit Card,200.00,8j38,,,,,,,,/,COD,3300.00,,,,,,,,,/,,0.00,,,,,,,,,/,,No,"5 years parts, 1 year labor (Free)",Printed,,SAN DIEGO COUNTY FAIR 5/31-7/4/19 DEL MAR(CA),SAN DIEGO COUNTY FAIR 5/31-7/4/19 DEL MAR(CA),,"Special discount for one time payment, 
Chinese speaker, pls ask Shoko san to help call delivery schedule , thanks",118259,"Original received, SQ amount verified Of $200. Remaining balance $3300. Collect COD @ delivery. Erika 6/24/19 11:03am
6/24Printed",CA,1,8.75
6/24/2019 9:41:55 AM,Mr & Mrs Dayan He,CA,92058,Tourmaline Pad for Legacy,,,New,,,,,3500.00,3500.00,0.00,May Kam,Credit Card,200.00,8j38,,,,,,,,/,COD,3300.00,,,,,,,,,/,,0.00,,,,,,,,,/,,No,no warranty,Printed,,SAN DIEGO COUNTY FAIR 5/31-7/4/19 DEL MAR(CA),SAN DIEGO COUNTY FAIR 5/31-7/4/19 DEL MAR(CA),,"Special discount for one time payment, 
Chinese speaker, pls ask Shoko san to help call delivery schedule , thanks",118259,"Original received, SQ amount verified Of $200. Remaining balance $3300. Collect COD @ delivery. Erika 6/24/19 11:03am
6/24Printed",CA,1,8.75
6/24/2019 10:04:04 AM,Mr & Mrs Terri Martin,CA,92119,Legacy 3D,DWA-9150USJ-9150CH,New Choco,New,,,,,3850.00,3850.00,0.00,May Kam,Credit Card,500.00,qwEB,,,,,,,,/,COD,3350.00,,,,,,,,,/,,0.00,,,,,,,,,/,,No,"5 years parts, 1 year labor (Free)",Printed,,SAN DIEGO COUNTY FAIR 5/31-7/4/19 DEL MAR(CA),SAN DIEGO COUNTY FAIR 5/31-7/4/19 DEL MAR(CA),,"Special discount for one time payment, Manager Approval .",118261,"Original received. SQ amount verified $500. Remaining balance $3350.  Collect COD @ delivery. Erika 6/24/19 11:01am
6/24Printed",CA,1,8.75
6/24/2019 10:29:49 AM,Mr Clifford Addis,CA,92057,Legacy,DWA-9100DWA-9100BL,New Black,New,,,,,3900.00,3900.00,0.00,May Kam,Synchrony,3300.00,,,6501722456068402,11111111,Huston,36 months,Driver’s License,CA,03/2021,COD,600.00,,,,,,,,,/,,0.00,,,,,,,,,/,,No,"5 years parts, 1 year labor (Free)",New,,SAN DIEGO COUNTY FAIR 5/31-7/4/19 DEL MAR(CA),SAN DIEGO COUNTY FAIR 5/31-7/4/19 DEL MAR(CA),,"Pls make finance purchase $3300 , COD $600; it is special case , pls see attached paper work . Thanks",118264,"The customer love our chair  than Competitor , give all info , so pls directly use his account and change $3300
--Synchrony original received. Credit available $3300. Remaining balance $3300. Please charge synchrony account upon delivery, have sales draft sign. Collect ($600) COD@ delivery. Erika 6/25/19 10:22am",CA,1,8.75
6/24/2019 11:19:42 AM,Debora Greene,CA,92107,PEGASUS 2 SMART,PEGS-2PEGS-2-BL,New Black,New,,,,,4800.00,4474.14,325.86,Ruben Cuatrona,Credit Card,4800.00,#AOyp,,,,,,,,/,,0.00,,,,,,,,,/,,0.00,,,,,,,,,/,,No,"5 years parts, 5 years labor ($800)",Scheduled,,SAN DIEGO COUNTY FAIR 5/31-7/4/19 DEL MAR(CA),SAN DIEGO COUNTY FAIR 5/31-7/4/19 DEL MAR(CA),,,118271,"*Deliver ASAP* 
Show customer how to use.
(Revision for #117984)
Reason for revision: Customer originally paid 5500 but later got a discount of 700 for referring her parents. Refund was given on 6/20 by Kristy. 
Following was copy pasted from previous order by me (MARITZA)
Original received. Verified Sq. amount $5500. Erika 6/13/19 11:02am
6/13MaritzaPrinted
Discount given of $700 New amount is $4800.Erika 6/21/19
scheduled 6/25 8:30-11:30",CA,0,8.75
