﻿Original Event Name,Event Name,Sales Person,Order Number,Order Date,Customer Name,State,Zip,Product Name,Color,Product Status,QTY,Tax,Total Before Tax,Order Total,Primary Payment Method,Second Payment Method,Thirdl Payment Method,Warranty,Order Items,Pick up,Delivered On,Order Status,Chair Type,Order Notes,Private Note,Branch,No Tax,Actual Tax Rate,SKU,Primary Payment Balance,Primary Authorize Number,Primary Purchase Order Number,Primary Synchrony Account Number,Primary Synchrony Application Key,Primary Synchrony Account Info,Primary Synchrony Term,Second Payment Balance,Second Authorize Number,Second Purchase Order Number,Second Synchrony Account Number,Second Synchrony Application Key,Second Synchrony Account Info,Second SynchronyTerm,Third Payment Balance,Third Authorize Number,Third Purchase Order Number,Third Synchrony Account Number,Third Synchrony Application Key,Third Synchrony Account Info,Third Synchrony Term
Las Vegas SF Market (NV),Las Vegas SF Market (NV),Li Chen,103089,1/19/2018 4:39:57 PM,Ya Bo Yu,NV,89014,AGM Kawasaki,,New,1,0.00,999.00,999.00,Cash,,,"3 years parts, 1 year labor (Free)","AGM Kawasaki,",No,2/1/2018 12:00:00 AM,Delivered,,Receipt #ugoW,"Demo black color
confirmed $999 in Square. 1/23/18 Hitomi",NV,1,8.15,USJ-6000,999.00,,,,,,,0.00,,,,,,,0.00,,,,,,
Las Vegas SF Market (NV),Las Vegas SF Market (NV),Zhao Ziqing,103246,1/25/2018 5:39:34 PM,Ron R Sisseck,NV,89146,SF Market Legacy 3D,Choco Brown,New,1,0.00,4400.00,4400.00,CreditCard,,,"3 years parts, 1 year labor (Free)","SF Market Legacy 3D,",No,2/1/2018 12:00:00 AM,Delivered,,Customer paid off for credit card Receipt #Ccbu,"confirmed $4,400 in Square.*square Receipt #Ccbu* 1/26/18",NV,1,8.15,DWA-9150USJ-9150CH,4400.00,4400665579311893,,,,,,0.00,,,,,,,0.00,,,,,,
Las Vegas SF Market (NV),Las Vegas SF Market (NV),Meiyan Yu,103247,1/25/2018 5:57:06 PM,Dennis Sisseck,OR,97051,SF Market Legacy 3D,Choco Brown,New,1,0.00,4400.00,4400.00,CreditCard,,,"3 years parts, 1 year labor (Free)","SF Market Legacy 3D,",No,2/3/2018 12:00:00 AM,Delivered,,The customer one time paid off use credit card Receipt #2PwS,"For delivery afternoon better .
confirmed $4,400 in Square. *Square Receipt #2PwS* 1/26/18 Hitomi",WA,1,8.15,DWA-9150USJ-9150CH,4400.00,4400665579311893,,,,,,0.00,,,,,,,0.00,,,,,,
Las Vegas SF Market (NV),Las Vegas SF Market (NV),Li Chen,103404,1/31/2018 1:02:20 PM,Samuel Shin,NV,89147,SF Market Legacy 3D,Black,New,1,0.00,4400.00,4400.00,CreditCard,Cash,,"3 years parts, 1 year labor (Free)","SF Market Legacy 3D,",No,2/1/2018 12:00:00 AM,Delivered,,"Paid $500 deposit in store ( deposit receipt # kbeP ) with COD balance of $3,900p in cash.","Confirmed the deposit $500 in Square. 2/28/18 Riho
Natsu received cash $3900, and it was transferred to CA office by Hide. 3/1/18 Riho",NV,1,8.15,DWA-9150USJ-9150BL,500.00,kbeP,,,,,,3900.00,,,,,,,0.00,,,,,,
Las Vegas SF Market (NV),Las Vegas SF Market (NV),Jovylyn Florea,103748,2/16/2018 4:54:07 PM,Rosa Ortiz,NV,89149,Legacy 3D,Black,New,1,0.00,4900.00,4900.00,Synchrony,,,"3 years parts, 1 year labor (Free)","Legacy 3D,",No,2/20/2018 12:00:00 AM,Delivered,,,"Please Delivery it before Feb 22. She will be out of town
confirmed the account in Synchrony.($5,900)  **correct account# 6034610083102338**
will confirm the Synchrony form. 2/19/18 Hitomi",NV,1,8.15,DWA-9150USJ-9150BL,4900.00,,,6011000340782170,85035972,Las Vegas,24 months,0.00,,,,,,,0.00,,,,,,
Las Vegas SF Market (NV),Las Vegas SF Market (NV),Jovylyn Florea,103967,2/25/2018 2:45:05 PM,Paul J Manion,NV,89052,Legacy 3D,New Black,New,1,0.00,4800.00,4800.00,CreditCard,,,"3 years parts, 1 year labor (Free)","Legacy 3D,",No,2/28/2018 12:00:00 AM,Delivered,,,"confirmed $4,800 in Square. 2/28/18 Hitomi",NV,1,8.15,DWA-9150USJ-9150BL,4800.00,x4sJ,,,,,,0.00,,,,,,,0.00,,,,,,
Las Vegas SF Market (NV),Las Vegas SF Market (NV),Meiyan Yu,104210,3/5/2018 3:44:57 PM,Rui Hua Wang,NV,89113,SF Market Legacy,New Choco,New,1,0.00,3200.00,3200.00,CreditCard,,,"3 years parts, 1 year labor (Free)","SF Market Legacy,",No,3/6/2018 12:00:00 AM,Delivered,,,"confirmed $3,200 in Square. 3/5/18 Hitomi",NV,1,8.15,DWA-9100DWA-9100BU,3200.00,Pet3,,,,,,0.00,,,,,,,0.00,,,,,,
Las Vegas SF Market (NV),Las Vegas SF Market (NV),Jovylyn Florea,104888,3/30/2018 3:01:12 PM,Juan Casas,NV,89118,Majesty,New Choco,New,1,0.00,3000.00,3000.00,Synchrony,,,"3 years parts, 1 year labor (Free)","Majesty,",No,4/3/2018 12:00:00 AM,Delivered,,"As much as possible, please deliver any Tuesday Mornings.","sent sales rep said will send synchrony application form on Wed. 4/2/18 Hitomi
CHARGED SYNCHRONY $3000 003141 - STEPHANY 04/03/18
Confirmed synchrony application form  4/4/18 Hitomi.",NV,1,8.15,MAJ-1010MAJ-1010-BR,3000.00,,,6034610083187776,86946423,Las Vegas,24 months,0.00,,,,,,,0.00,,,,,,
Las Vegas SF Market (NV),Las Vegas SF Market (NV),Rex Quirimit,105230,4/14/2018 10:33:44 AM,Ajay Gupta,NM,87111,Legacy,New Black,New,1,0.00,4450.00,4450.00,CreditCard,,,"3 years parts, 1 year labor (Free)","Legacy,",No,4/30/2018 12:00:00 AM,Delivered,,,"Confirmed that actual total amount is $3,700 however $3,699.99 in Square. 4/16/18 Hitomi
4/16Maritza- Courtesy call @5:15PM
Going out of the country May 9-13. Deliver before that date.
Confirmed by Rex the total order price is $3700. Not COD need to collected. 5/2/218 June",TX,1,8.15,DWA-9100DWA-9100BL,3699.99,Square#MLca,,,,,,0.00,,,,,,,0.00,,,,,,
Las Vegas SF Market (NV),Las Vegas SF Market (NV),Jovylyn Florea,105322,4/16/2018 11:39:34 AM,Ke Liu,NV,89149,Majesty,Demo Choco,Demo,1,0.00,2700.00,2700.00,Cash,,,"3 years parts, 1 year labor (Free)","Majesty,",YES,4/16/2018 12:00:00 AM,Delivered,,,"4/16 Maritza- Need serial# and date of pickup. Will contact  sales rep.
Confirmed delivery.",NV,1,8.15,MAJ-1010MAJ-1010-BR-DEMO,0.00,,,,,,,0.00,,,,,,,0.00,,,,,,
Las Vegas SF Market (NV),Las Vegas SF Market (NV),Jovylyn Florea,105449,4/22/2018 5:33:23 PM,Nolita Poliarco,NV,89122,Legacy 3D,New Black,New,1,0.00,4000.00,4000.00,CreditCard,,,"3 years parts, 1 year labor (Free)","Legacy 3D,",No,4/27/2018 12:00:00 AM,Delivered,,,"Carlos Jose///Confirmed $4,000 in Square 4/24/18 Hitomi
4/24Maritza Courtesy call @12:21PM They said it would be delivered 4/27",NV,1,8.15,DWA-9150USJ-9150BL,4000.00,Receipt #3Oed,,,,,,0.00,,,,,,,0.00,,,,,,
Las Vegas SF Market (NV),Las Vegas SF Market (NV),Jovylyn Florea,106122,5/14/2018 4:17:31 PM,Hong Minh Phu,NV,89178,Majesty,New Black,New,1,0.00,2800.00,2800.00,Synchrony,,,"3 years parts, 1 year labor (Free)","Majesty,",No,5/15/2018 12:00:00 AM,Delivered,,,"it seems to be delivered. will confirm . 5/15/18 Hitomi
charged synchrony # 025778 $2800 - stephany 05/25/18",NV,1,8.15,MAJ-1010MAJ-1010-BL,2800.00,,,6034610083272180,88883567,Las Vegas,24 months,0.00,,,,,,,0.00,,,,,,
Las Vegas SF Market (NV),Las Vegas SF Market (NV),Jovylyn Florea,106438,5/26/2018 7:21:00 PM,James Pimentel,NV,89145,Majesty,New Black,New,1,0.00,3000.00,3000.00,Synchrony,,,"3 years parts, 1 year labor (Free)","Majesty,",No,6/1/2018 12:00:00 AM,Delivered,,,"Confirmed synchrony form and the account($3,000)***Please charge before delivery and have sales draft signed.*** 5/30/18 Hitomi
CHARGED $3000 # 021450 06/21/18 STEPHANY",NV,1,8.15,MAJ-1010MAJ-1010-BL,3000.00,,,6034610083295918,89458378,Las Vegas,24 months,0.00,,,,,,,0.00,,,,,,
Las Vegas SF Market (NV),Las Vegas SF Market (NV),Kohei Uno,107847,7/26/2018 10:35:19 PM,Lyam Kiim,TX,75022,Pegasus,New Choco,New,1,0.00,4500.00,4500.00,Synchrony,,,"3 years parts, 1 year labor (Free)","Pegasus,",No,7/31/2018 12:00:00 AM,Delivered,,,"***Referral Order***//Confirmed synchrony account ($6,000) . ORIGINAL NEEDS TO BE CONFIRMED-7/27/18 HITOMI//Confirmed original. ***Please charge before delivery and have sales draft signed. ***7/30/18 Hitomi
7/30Maritza Courtesy call @ 12:01PM **CUSTOMER NEEDS IT ASAP**",TX,1,8.15,DWA-9400Pegasus-BR,4500.00,,,6019170813051718,92152212,Las Vegas,24 months,0.00,,,,,,,0.00,,,,,,
Las Vegas SF Market (NV),Las Vegas SF Market (NV),Kohei Uno,107848,7/26/2018 10:43:09 PM,Andy Kim,NV,89138,Pegasus,New Choco,New,1,0.00,4500.00,4500.00,CreditCard,Synchrony,,"3 years parts, 1 year labor (Free)","Pegasus,",No,8/3/2018 12:00:00 AM,Delivered,,,"***Referral Order***///Confirmed $1,000 in Square/synchrony account ($3,500) under KIM RAN.  (his wife )ORIGINAL NEEDS TO BE CONFIRMED-7/27/18 HITOMI///Confirmed original. **PLease charge before delivery and have sales draft signed. ***7/30/18 Hitomi
Delivered by Li & Kohei on 8/3/2018
SYNCHRONY CLEARED $3500 #031030 - STEPHANY 08/07/18",NV,1,8.15,DWA-9400Pegasus-BR,1000.00,Square# zZY8,,,,,,3500.00,,,6019170813051759,92152748,Las Vegas,48 months,0.00,,,,,,
Las Vegas SF Market (NV),Las Vegas SF Market (NV),Kohei Uno,107874,7/27/2018 6:48:56 PM,Robert Sigal,CA,92119,Legacy,New Black,New,1,0.00,3500.00,3500.00,CreditCard,,,"3 years parts, 1 year labor (Free)","Legacy,",No,8/15/2018 12:00:00 AM,Delivered,,,"Confirmed $3,500 in Square 7/30/18 Hitomi",CA,1,8.15,DWA-9100DWA-9100BL,3500.00,Square# uFNP,,,,,,0.00,,,,,,,0.00,,,,,,
Las Vegas SF Market (NV),Las Vegas SF Market (NV),Jovylyn Florea,108162,8/6/2018 1:37:28 PM,Bernadette Jackson,NV,89147,Legacy,New Choco,New,1,0.00,4200.00,4200.00,Synchrony,,,"3 years parts, 1 year labor (Free)","Legacy,",No,8/10/2018 12:00:00 AM,Delivered,,,"COnfirmed synchrony account ($6,500).  ORIGINAL NEEDS TO BE CONFIRMED 8/6/18 Hitomi//Confirmed original. ***Please charge before delivery and have sales draft signed. *** 8/7/18 Hitomi
COURTESY CALL LEFT VM 08/07/18 1:16PM - STEPHANY
CHARGED SYNCHRONY $4200 AUTH  010909 - STEPHANY 08/10/18",NV,1,8.15,DWA-9100DWA-9100BU,4200.00,,,6019170813064513,92500801,Las Vegas,24 months,0.00,,,,,,,0.00,,,,,,
Las Vegas SF Market (NV),Las Vegas SF Market (NV),Laser Howell,108407,8/12/2018 5:49:57 PM,Frank Nguyen,NV,89052,Legacy 3D,New Choco,New,1,0.00,4300.00,4300.00,CreditCard,,,"3 years parts, 1 year labor (Free)","Legacy 3D,",No,8/17/2018 12:00:00 AM,Delivered,,Please give 2 daiwa blanket,"COnfirmed $4,300 in Square. 8/13/18 Hitomi
Leg-rest had been replaced on 9/12/18 by LV branch. Riho",NV,1,8.15,DWA-9150USJ-9150CH,4300.00,Receipt #G4SQ,,,,,,0.00,,,,,,,0.00,,,,,,
Las Vegas SF Market (NV),Las Vegas SF Market (NV),Jovylyn Florea,108491,8/14/2018 12:03:16 PM,Dong Mei Dai,NV,89147,Legacy 3D,New Choco,New,1,0.00,4200.00,4200.00,Synchrony,,,"3 years parts, 1 year labor (Free)","Legacy 3D,",No,8/18/2018 12:00:00 AM,Delivered,,,"COnfirmed synchrony account  ($4500) and original. ***Please charge $4,200 before delivery and have sales draft signed. *** 8/14/18 Hitomi PLEASE CHANGE COLOR TO BLACK - 08/15/18 STEPHANY
courtesy call done 08/15/18 9am stephany
CHARGED SYNCHRONY $4200 # 016471 - STEPHANY 08/16/18",NV,1,8.15,DWA-9150USJ-9150CH,4200.00,,,6019170813081863,92928461,Las Vegas,12 months,0.00,,,,,,,0.00,,,,,,
Las Vegas SF Market (NV),Las Vegas SF Market (NV),Jovylyn Florea,108492,8/14/2018 12:40:08 PM,He Mei Hua,NV,89117,Legacy 3D,New Choco,New,1,0.00,4200.00,4200.00,Synchrony,,,"3 years parts, 1 year labor (Free)","Legacy 3D,",No,8/18/2018 12:00:00 AM,Delivered,,,"Confirmed synchrony account ($6000) and original. ***Please charge $4,200 before delivery and have sales draft signed. *** 8/14/18 Hitomi PLEASE CHANGE COLOR TO BLACK - STEPHANY 08/15/18
CHARGED SYNCHRONY $4200  # 016836 - STEPHANY 08/16/18",NV,1,8.15,DWA-9150USJ-9150CH,4200.00,,,6019170813081947,92929126,Las Vegas,12 months,0.00,,,,,,,0.00,,,,,,
Las Vegas SF Market (NV),Las Vegas SF Market (NV),Jovylyn Florea,109251,9/10/2018 4:27:49 PM,Boubacar Djallah,NV,89031,Legacy 3D,New Black,New,1,0.00,4500.00,4500.00,Synchrony,,,"3 years parts, 1 year labor (Free)","Legacy 3D,",No,9/11/2018 12:00:00 AM,Delivered,,,"Synchrony 8,500/ under NG, WAI YEE(wife,Per.Rex) .Talked to Rex, he already asked wife to have signed on sales draft. SSN is missing on synchrony application form. Rex will ask Jovylyn . - CONFIRMED SSN 9/11/18 Hitomi
per rex customer wants choco - stephany 09/11/18",NV,1,8.15,DWA-9150USJ-9150BL,4500.00,,,6019170813133383,94223063,Las Vegas,24 months,0.00,,,,,,,0.00,,,,,,
Las Vegas SF Market (NV),Las Vegas SF Market (NV),Jovylyn Florea,110222,10/9/2018 1:08:51 PM,Luis Ramirez,UT,84770,Legacy 3D,New Choco,New,1,0.00,4300.00,4300.00,Cash,,,"3 years parts, 1 year labor (Free)","Legacy 3D,",YES,10/9/2018 12:00:00 AM,Delivered,,,"10/10/18-Confirmed Kohei received $4,300 cash .(received confirmation). Kohei confirmed customer picked up in LV warehouse.-Hitomi",NV,1,8.15,DWA-9150USJ-9150CH,4300.00,,,,,,,0.00,,,,,,,0.00,,,,,,
Las Vegas SF Market (NV),Las Vegas SF Market (NV),Jovylyn Florea,110233,10/9/2018 6:12:09 PM,Meng Yuan Zhang,NV,89102,Majesty,New Black,New,1,0.00,3300.00,3300.00,Synchrony,,,"3 years parts, 1 year labor (Free)","Majesty,",No,10/17/2018 12:00:00 AM,Delivered,,,"Confirmed SYNC($5,000) and original. ***PLease charge $3,300 before delivery and sales draft signed. ***10/10/18 Hitomi
Synchrony charged #016525 by Kohei Uno 10/16/2018",NV,1,8.15,MAJ-1010MAJ-1010-BL,3300.00,,,6019170813182596,95488254,Las Vegas,6 months,0.00,,,,,,,0.00,,,,,,
Las Vegas SF Market (NV),Las Vegas SF Market (NV),Jovylyn Florea,112908,12/4/2018 4:41:34 PM,Yang Chenglong,NV,89103,PEGASUS 2 SMART,New Choco,New,1,0.00,7200.00,7200.00,Synchrony,,,"3 years parts, 1 year labor (Free)","PEGASUS 2 SMART,",No,,Cancelled,,,"Synchrony approved only $1,500. I will confirm the situation. 12/5/18 Hitomi
Jovylyn informed to cancel . - 12/5/18 @11:10 Hitomi",Not Dispatched,1,8.15,PEGS-2PEGS-2-BR,7200.00,,,6019170813281711,98116904,Las Vegas,36 months,0.00,,,,,,,0.00,,,,,,
Las Vegas SF Market (NV),Las Vegas SF Market (NV),Joy Anne Torres,112951,12/6/2018 4:51:15 PM,Trinidad Ganir,NV,89139,Kawasaki Massage Lounger,Black Armrest,New,1,0.00,1000.00,1000.00,CreditCard,,,"3 years parts, 1 year labor (Free)","Kawasaki Massage Lounger,",No,12/7/2018 12:00:00 AM,Delivered,New,,"Confirmed 	Square#yzCs-$1,000 (Auth code: 006926) , Kohei is aware of this order and approved to process -12/7/18 Hitomi
12/11/18 courtesy call completed- cristina 11:30
12/7 Delivered by Rex Q",NV,1,8.15,USJ-6000USJ-6000KU,1000.00,Receipt #yzCs,,,,,,0.00,,,,,,,0.00,,,,,,
Las Vegas SF Market (NV),Las Vegas SF Market (NV),Jovylyn Florea,113019,12/8/2018 2:44:10 PM,Ann Caday,NV,89142,Majesty,New Choco,New,1,0.00,3000.00,3000.00,Synchrony,,,"3 years parts, 1 year labor (Free)","Majesty,",No,12/13/2018 12:00:00 AM,Delivered,New,,"Please deliver ASAP thank you
//COnfirmed SYNC($3,000) and original. ***Please charge $3,000 before delivery and sales draft signed.*** 12/10/18 Hitomi
12/13-Delivered by Rex",NV,1,8.15,MAJ-1010MAJ-1010-BR,3000.00,,,6019170813287437,98285531,Las Vegas,24 months,0.00,,,,,,,0.00,,,,,,
Las Vegas SF Market (NV),Las Vegas SF Market (NV),Jovylyn Florea,113474,12/18/2018 8:45:34 PM,Nam Hoang,WA,98408,PEGASUS 2 SMART,New Black,New,1,0.00,6700.00,6700.00,Synchrony,,,"3 years parts, 1 year labor (Free)","PEGASUS 2 SMART,",No,12/31/2018 12:00:00 AM,Delivered,New,,"COnfirmed SYNC($8,500) and original.***Please charge $6,700 before delivery and sales draft signed.*** 12/19/18 Hitomi
12/20/18- Courtesy call/text completed- Cristina 10:19 am
Scheduled Dec 31st 8am to 10am
1/8Maritza- Delivery confirmation received with sales draft.",WA,1,8.15,PEGS-2PEGS-2-BL,6700.00,,,6019170813303093,98723331,Las Vegas,36 months,0.00,,,,,,,0.00,,,,,,
