﻿Original Event Name,Event Name,Sales Person,Order Number,Order Date,Customer Name,State,Zip,Product Name,Color,Product Status,QTY,Tax,Total Before Tax,Order Total,Primary Payment Method,Second Payment Method,Thirdl Payment Method,Warranty,Order Items,Pick up,Delivered On,Order Status,Chair Type,Order Notes,Private Note,Branch,No Tax,Actual Tax Rate,SKU,Primary Payment Balance,Primary Authorize Number,Primary Purchase Order Number,Primary Synchrony Account Number,Primary Synchrony Application Key,Primary Synchrony Account Info,Primary Synchrony Term,Second Payment Balance,Second Authorize Number,Second Purchase Order Number,Second Synchrony Account Number,Second Synchrony Application Key,Second Synchrony Account Info,Second SynchronyTerm,Third Payment Balance,Third Authorize Number,Third Purchase Order Number,Third Synchrony Account Number,Third Synchrony Application Key,Third Synchrony Account Info,Third Synchrony Term
"Sam's Club #6608 Phoenix,AZ 2/14-24/19(NV)","Sam's Club #6608 Phoenix,AZ 2/14-24/19(NV)",Ariel Milanes,115146,2/19/2019 10:26:11 PM,Gloria Taque,AZ,85051,Shogun Neck & Back Massger,New,New,1,26.66,309.97,336.63,CreditCard,,,"2 years parts, 1 year labor for Small Items","Foot Vibe Pro,Shogun Neck &amp; Back Massger,",YES,,Delivered,,,Confirm pickup,NV,0,8.60,USJ-874USJ-874,336.63,TC# 5993-8085-9252-6452-8576-7,,,,,,0.00,,,,,,,0.00,,,,,,
"Sam's Club #6608 Phoenix,AZ 2/14-24/19(NV)","Sam's Club #6608 Phoenix,AZ 2/14-24/19(NV)",Ariel Milanes,115147,2/19/2019 10:39:20 PM,Jovita Salgado,AZ,85051,Shogun Neck & Back Massger,New,New,1,26.66,309.97,336.63,CreditCard,,,"2 years parts, 1 year labor for Small Items","Foot Vibe Pro,Shogun Neck &amp; Back Massger,",YES,,Delivered,,,Confirm pickup,NV,0,8.60,USJ-874USJ-874,336.63,TC# 2490-2690-5807-9728-3033-3,,,,,,0.00,,,,,,,0.00,,,,,,
"Sam's Club #6608 Phoenix,AZ 2/14-24/19(NV)","Sam's Club #6608 Phoenix,AZ 2/14-24/19(NV)",Ariel Milanes,115149,2/19/2019 11:10:32 PM,Veronica Heun,AZ,85024,Vitality Plate for Sam's,Demo[-60],Demo,1,34.40,399.99,434.39,CreditCard,,,"2 years parts, 1 year labor for Small Items","Vitality Plate for Sam's,",YES,,Delivered,,,Confirmed pickup,NV,0,8.60,USJ-849USJ-849-DEMO,434.39,TC# 4758-1754-7959-3579-4604-0,,,,,,0.00,,,,,,,0.00,,,,,,
"Sam's Club #6608 Phoenix,AZ 2/14-24/19(NV)","Sam's Club #6608 Phoenix,AZ 2/14-24/19(NV)",Ariel Milanes,115218,2/22/2019 9:35:20 PM,Karen Workman,AZ,85053,Vitality Plate for Sam's,New,New,1,39.56,459.99,499.55,CreditCard,,,"2 years parts, 1 year labor for Small Items","Vitality Plate for Sam's,",YES,,Delivered,,,,NV,0,8.60,USJ-849USJ-849,499.55,TC# 8655-3358-0160-2031-8369-6,,,,,,0.00,,,,,,,0.00,,,,,,
"Sam's Club #6608 Phoenix,AZ 2/14-24/19(NV)","Sam's Club #6608 Phoenix,AZ 2/14-24/19(NV)",Ariel Milanes,115219,2/22/2019 9:49:30 PM,Johnny Love,AZ,85025,Shogun Neck & Back Massger,New,New,1,26.66,309.97,336.63,CreditCard,,,"2 years parts, 1 year labor for Small Items","Foot Vibe Pro,Shogun Neck &amp; Back Massger,",YES,,Delivered,,,,NV,0,8.60,USJ-874USJ-874,336.63,TC# 5014-5187-1052-4250-8888-8,,,,,,0.00,,,,,,,0.00,,,,,,
"Sam's Club #6608 Phoenix,AZ 2/14-24/19(NV)","Sam's Club #6608 Phoenix,AZ 2/14-24/19(NV)",Ariel Milanes,115220,2/22/2019 10:06:29 PM,Holley Miranda,AZ,85019,Shogun Neck & Back Massger,New,New,1,26.66,309.97,336.63,CreditCard,,,"2 years parts, 1 year labor for Small Items","Foot Vibe Pro,Shogun Neck &amp; Back Massger,",YES,,Delivered,,,,NV,0,8.60,USJ-874USJ-874,336.63,TC# 5741-2463-7658-7846-7450-5,,,,,,0.00,,,,,,,0.00,,,,,,
"Sam's Club #6608 Phoenix,AZ 2/14-24/19(NV)","Sam's Club #6608 Phoenix,AZ 2/14-24/19(NV)",Ariel Milanes,115221,2/22/2019 10:18:07 PM,Tina Miranda Flores,AZ,85019,Shogun Neck & Back Massger,New,New,1,17.20,199.98,217.18,CreditCard,,,"2 years parts, 1 year labor for Small Items","Shogun Neck &amp; Back Massger,",YES,,Delivered,,,,NV,0,8.60,USJ-874USJ-874,217.18,TC# 5741-2463-7658-7846-7450-5,,,,,,0.00,,,,,,,0.00,,,,,,
"Sam's Club #6608 Phoenix,AZ 2/14-24/19(NV)","Sam's Club #6608 Phoenix,AZ 2/14-24/19(NV)",Ariel Milanes,115307,2/24/2019 9:34:37 PM,Larry Nissen,AZ,85029,Legacy for Sam's,Demo(Box) Sienna Brown[-700],Demo,1,309.51,3599.00,3908.51,CreditCard,,,"3 years parts, 1 year labor (Free)","Legacy for Sam's,",No,,Called,,,"Demo price, Please Deliver a Brand New One Legacy Massage Chair. Thank You.
03/05/19 - Re-Dispatched to CA- Cristina- Printed- 5:22 pm",CA,0,8.60,DWA-9100DWA-9150SB-Box,3908.51,TC# 2780-1868-1086-8976-8143-93,,,,,,0.00,,,,,,,0.00,,,,,,
"Sam's Club #6608 Phoenix,AZ 2/14-24/19(NV)","Sam's Club #6608 Phoenix,AZ 2/14-24/19(NV)",Ariel Milanes,115308,2/24/2019 9:48:40 PM,"U.S.  JACLEAN, INC.",CA,90249,Shogun Neck & Back Massger,New,New,1,26.66,309.97,336.63,CreditCard,,,"2 years parts, 1 year labor for Small Items","Foot Vibe Pro,Shogun Neck &amp; Back Massger,",YES,,Delivered,,,,CA,0,8.60,USJ-874USJ-874,336.63,TC# 9560-9601-5878-9728-8131-3,,,,,,0.00,,,,,,,0.00,,,,,,
"Sam's Club #6608 Phoenix,AZ 2/14-24/19(NV)","Sam's Club #6608 Phoenix,AZ 2/14-24/19(NV)",Ariel Milanes,115309,2/24/2019 9:57:20 PM,Liza Bergeron,AZ,85022,Shogun Neck & Back Massger,New,New,1,17.20,199.98,217.18,CreditCard,,,"2 years parts, 1 year labor for Small Items","Shogun Neck &amp; Back Massger,",YES,,Delivered,,,,NV,0,8.60,USJ-874USJ-874,217.18,TC# 7747-8974-6595-1325-5720-2,,,,,,0.00,,,,,,,0.00,,,,,,
"Sam's Club #6608 Phoenix,AZ 2/14-24/19(NV)","Sam's Club #6608 Phoenix,AZ 2/14-24/19(NV)",Ariel Milanes,115310,2/24/2019 10:06:27 PM,Ron&Jen Torres,AZ,85053,Shogun Neck & Back Massger,New,New,1,17.20,199.98,217.18,CreditCard,,,"2 years parts, 1 year labor for Small Items","Shogun Neck &amp; Back Massger,",YES,,Delivered,,,,NV,0,8.60,USJ-874USJ-874,217.18,TC# 1393-4099-3202-6422-9178-7,,,,,,0.00,,,,,,,0.00,,,,,,
"Sam's Club #6608 Phoenix,AZ 2/14-24/19(NV)","Sam's Club #6608 Phoenix,AZ 2/14-24/19(NV)",Ariel Milanes,115311,2/24/2019 10:14:54 PM,Ashley Mitchell,AZ,85029,Shogun Neck & Back Massger,New,New,1,17.20,199.98,217.18,CreditCard,,,"2 years parts, 1 year labor for Small Items","Shogun Neck &amp; Back Massger,",YES,,Delivered,,,,NV,0,8.60,USJ-874USJ-874,217.18,5275-7398-5141-2061-4766-6,,,,,,0.00,,,,,,,0.00,,,,,,
