﻿Original Event Name,Event Name,Sales Person,Order Number,Order Date,Customer Name,State,Zip,Product Name,Color,Product Status,QTY,Tax,Total Before Tax,Order Total,Primary Payment Method,Second Payment Method,Thirdl Payment Method,Warranty,Order Items,Pick up,Delivered On,Order Status,Chair Type,Order Notes,Private Note,Branch,No Tax,Actual Tax Rate,SKU,Primary Payment Balance,Primary Authorize Number,Primary Purchase Order Number,Primary Synchrony Account Number,Primary Synchrony Application Key,Primary Synchrony Account Info,Primary Synchrony Term,Second Payment Balance,Second Authorize Number,Second Purchase Order Number,Second Synchrony Account Number,Second Synchrony Application Key,Second Synchrony Account Info,Second SynchronyTerm,Third Payment Balance,Third Authorize Number,Third Purchase Order Number,Third Synchrony Account Number,Third Synchrony Application Key,Third Synchrony Account Info,Third Synchrony Term
Sam's Club #6613 Long Beach 2/14-24/19 (CA),Sam's Club #6613 Long Beach 2/14-24/19 (CA),David Wang,115010,2/16/2019 4:21:37 PM,Sulie Pena,CA,90660,Foot Vibe Pro,,New,1,11.27,109.99,121.26,CreditCard,,,"2 years parts, 1 year labor for Small Items","Foot Vibe Pro,",YES,,Delivered,,,,CA,0,10.25,USJ-871,121.26,9527 7916 1563 8329 7429 2,,,,,,0.00,,,,,,,0.00,,,,,,
Sam's Club #6613 Long Beach 2/14-24/19 (CA),Sam's Club #6613 Long Beach 2/14-24/19 (CA),David Wang,115011,2/16/2019 4:26:11 PM,Keyla Estrada,CA,90805,Shogun Neck & Back Massger,New,New,1,20.50,199.98,220.48,CreditCard,,,"2 years parts, 1 year labor for Small Items","Shogun Neck &amp; Back Massger,",YES,,Delivered,,,,CA,0,10.25,USJ-874USJ-874,220.48,3084 5139 2030 5221 1588 8,,,,,,0.00,,,,,,,0.00,,,,,,
Sam's Club #6613 Long Beach 2/14-24/19 (CA),Sam's Club #6613 Long Beach 2/14-24/19 (CA),David Wang,115020,2/16/2019 8:14:52 PM,Angel Romero,CA,90715,Symphony,Demo (Box) Choco,Demo,1,471.40,4599.00,5070.40,CreditCard,,,"3 years parts, 1 year labor (Free)","Symphony,Daiwa Blanket,",No,,Scheduled,,,Free Daiwa Blanket when we delivery!!!,CA,0,10.25,USJ-9300Symphony-BW-DEMOBX,5070.40,0789 3386 2274 7497 8241 71,,,,,,0.00,,,,,,,0.00,,,,,,
Sam's Club #6613 Long Beach 2/14-24/19 (CA),Sam's Club #6613 Long Beach 2/14-24/19 (CA),David Wang,115021,2/16/2019 8:21:19 PM,Javien Valle,CA,90280,Foot Vibe Pro,,New,1,11.27,109.99,121.26,CreditCard,,,"2 years parts, 1 year labor for Small Items","Foot Vibe Pro,",YES,,Delivered,,,,CA,0,10.25,USJ-871,121.26,0472 5293 1402 1672 1996 9,,,,,,0.00,,,,,,,0.00,,,,,,
Sam's Club #6613 Long Beach 2/14-24/19 (CA),Sam's Club #6613 Long Beach 2/14-24/19 (CA),David Wang,115117,2/18/2019 5:42:54 PM,mario awarez,CA,90713,Ninja Leg Massager 2,Demo[-20.00],Demo,1,28.70,279.98,308.68,CreditCard,,,"2 years parts, 1 year labor for Small Items","Ninja Leg Massager 2,",YES,,Delivered,,,confirm pickup ---2/18/19 Asumi,CA,0,10.25,USJ-880-Demo,308.68,4499 7872 3767 4958 1615 1,,,,,,0.00,,,,,,,0.00,,,,,,
Sam's Club #6613 Long Beach 2/14-24/19 (CA),Sam's Club #6613 Long Beach 2/14-24/19 (CA),David Wang,115120,2/18/2019 6:15:18 PM,Trung Hoang,CA,91745,Ninja Leg Massager 2,New,New,1,30.75,299.98,330.73,CreditCard,,,"2 years parts, 1 year labor for Small Items","Ninja Leg Massager 2,",YES,,Delivered,,,Confirmed pickup --- 2/19/19/ Asumi,CA,0,10.25,USJ-880,330.73,4599 4812 1707 4948 3117 1,,,,,,0.00,,,,,,,0.00,,,,,,
Sam's Club #6613 Long Beach 2/14-24/19 (CA),Sam's Club #6613 Long Beach 2/14-24/19 (CA),David Wang,115121,2/18/2019 6:57:12 PM,javien valle,CA,90280,Ninja Leg Massager 2,New,New,1,30.75,299.98,330.73,CreditCard,,,"2 years parts, 1 year labor for Small Items","Ninja Leg Massager 2,",YES,,Delivered,,,Confirmed pickup --- 2/19/19/ Asumi,CA,0,10.25,USJ-880,330.73,4799 1852 3767 4988 1617 1,,,,,,0.00,,,,,,,0.00,,,,,,
Sam's Club #6613 Long Beach 2/14-24/19 (CA),Sam's Club #6613 Long Beach 2/14-24/19 (CA),David Wang,115127,2/19/2019 12:41:37 PM,Johnnie Sanford,CA,90808,Orbit for Sam's ,Demo Choco(Box)[-300],Demo,1,276.55,2698.00,2974.55,CreditCard,,,"3 years parts, 1 year labor (Free)","Orbit for Sam's ,",No,,Scheduled,,,,CA,0,10.25,ORBT-1ORBT-1CH-BOX,2974.55,0652 4726 5641 4165 2519 39,,,,,,0.00,,,,,,,0.00,,,,,,
Sam's Club #6613 Long Beach 2/14-24/19 (CA),Sam's Club #6613 Long Beach 2/14-24/19 (CA),Kamille Gines,115202,2/22/2019 10:16:40 AM,Sargon Danous,CA,90630,Foot Vibe Pro,,New,1,11.27,109.99,121.26,PurchaseOrder,,,"2 years parts, 1 year labor for Small Items","Foot Vibe Pro,",YES,,Delivered,,,confirm pickup,CA,0,10.25,USJ-871,121.26,,Tc# 8469682097491860181,,,,,0.00,,,,,,,0.00,,,,,,
Sam's Club #6613 Long Beach 2/14-24/19 (CA),Sam's Club #6613 Long Beach 2/14-24/19 (CA),Kamille Gines,115226,2/23/2019 10:30:27 AM,Nanette Fowler-Jang,CA,90703,Foot Vibe Pro,,New,1,11.27,109.99,121.26,PurchaseOrder,,,"2 years parts, 1 year labor for Small Items","Foot Vibe Pro,",YES,,Delivered,,,,CA,0,10.25,USJ-871,121.26,,Tfc#385553488100906357636,,,,,0.00,,,,,,,0.00,,,,,,
Sam's Club #6613 Long Beach 2/14-24/19 (CA),Sam's Club #6613 Long Beach 2/14-24/19 (CA),Kamille Gines,115227,2/23/2019 10:32:34 AM,Nanette Fowler-Jang,CA,90703,Ninja Leg Massager 2,Demo[-20.00],Demo,1,28.70,279.98,308.68,PurchaseOrder,,,"2 years parts, 1 year labor for Small Items","Ninja Leg Massager 2,",YES,,Delivered,,,,CA,0,10.25,USJ-880-Demo,308.68,,Tc# 535401974060524189848,,,,,0.00,,,,,,,0.00,,,,,,
Sam's Club #6613 Long Beach 2/14-24/19 (CA),Sam's Club #6613 Long Beach 2/14-24/19 (CA),Kamille Gines,115288,2/24/2019 3:29:37 PM,Charlotte Garrison,CA,90706,Foot Vibe Pro,,New,1,11.27,109.99,121.26,PurchaseOrder,,,"2 years parts, 1 year labor for Small Items","Foot Vibe Pro,",YES,,Delivered,,,,CA,0,10.25,USJ-871,121.26,,Tc# 81099890475749581210,,,,,0.00,,,,,,,0.00,,,,,,
Sam's Club #6613 Long Beach 2/14-24/19 (CA),Sam's Club #6613 Long Beach 2/14-24/19 (CA),Kamille Gines,115289,2/24/2019 3:35:50 PM,Roger Bennett,CA,90740,Orbit for Sam's ,New Choco,New,1,307.30,2998.00,3305.30,PurchaseOrder,,,"3 years parts, 1 year labor (Free)","Orbit for Sam's ,",No,,Called,,,,CA,0,10.25,ORBT-1ORBT-1CH,3305.30,,Tc# 4499078506781497840101,,,,,0.00,,,,,,,0.00,,,,,,
