﻿Original Event Name,Event Name,Sales Person,Order Number,Order Date,Customer Name,State,Zip,Product Name,Color,Product Status,QTY,Tax,Total Before Tax,Order Total,Primary Payment Method,Second Payment Method,Thirdl Payment Method,Warranty,Order Items,Pick up,Delivered On,Order Status,Chair Type,Order Notes,Private Note,Branch,No Tax,Actual Tax Rate,SKU,Primary Payment Balance,Primary Authorize Number,Primary Purchase Order Number,Primary Synchrony Account Number,Primary Synchrony Application Key,Primary Synchrony Account Info,Primary Synchrony Term,Second Payment Balance,Second Authorize Number,Second Purchase Order Number,Second Synchrony Account Number,Second Synchrony Application Key,Second Synchrony Account Info,Second SynchronyTerm,Third Payment Balance,Third Authorize Number,Third Purchase Order Number,Third Synchrony Account Number,Third Synchrony Application Key,Third Synchrony Account Info,Third Synchrony Term
"Sam's Club #6692 Tucson, AZ 1/31-2/10/19 (NV)","Sam's Club #6692 Tucson, AZ 1/31-2/10/19 (NV)",Querubin Milanes,114820,2/7/2019 10:11:02 AM,Kenny Lee,AZ,85745,Legacy for Sam's,Demo(Box) Choco[-700],Demo,1,313.11,3599.00,3912.11,PurchaseOrder,,,"3 years parts, 1 year labor (Free)","Legacy for Sam's,",No,2/10/2019 12:00:00 AM,Delivered,New,,Demo Price Please deliver a New Legacy Choco Chair. Thank you.,NV,0,8.70,DWA-9100DWA-9150CH-Box,3912.11,TC 8317 2990 8556 5739 3992 72,TC 8317 2990 8556 5739 3992 72,,,,,0.00,,,,,,,0.00,,,,,,
"Sam's Club #6692 Tucson, AZ 1/31-2/10/19 (NV)","Sam's Club #6692 Tucson, AZ 1/31-2/10/19 (NV)",Querubin Milanes,114821,2/7/2019 10:22:35 AM,Sheila Rios,AZ,85718,Pegasus for Sam's,Demo Choco(Box)[-700],Demo,1,417.43,4798.00,5215.43,CreditCard,,,"3 years parts, 1 year labor (Free)","Pegasus for Sam's,",No,2/10/2019 12:00:00 AM,Delivered,New,,Demo Price please deliver a New Pegasus Choco Chair. Thank you.,NV,0,8.70,DWA-9400Pegasus-BR-BOX,5215.43,TC 8505 8336 9210 0509 0736 86,,,,,,0.00,,,,,,,0.00,,,,,,
"Sam's Club #6692 Tucson, AZ 1/31-2/10/19 (NV)","Sam's Club #6692 Tucson, AZ 1/31-2/10/19 (NV)",Querubin Milanes,114822,2/7/2019 10:28:57 AM,"U.S.  JACLEAN, INC.",CA,90249,Vitality Plate for Sam's,Demo[-60],Demo,1,34.80,399.99,434.79,CreditCard,,,"2 years parts, 1 year labor for Small Items","Vitality Plate for Sam's,",YES,,Delivered,,,Customer pick up @ Sam's Club,CA,0,8.70,USJ-849USJ-849-DEMO,434.79,TC 2049 4814 3721 6999 3712 1,,,,,,0.00,,,,,,,0.00,,,,,,
"Sam's Club #6692 Tucson, AZ 1/31-2/10/19 (NV)","Sam's Club #6692 Tucson, AZ 1/31-2/10/19 (NV)",Querubin Milanes,114823,2/7/2019 10:34:32 AM,"U.S.  JACLEAN, INC.",CA,90249,Shogun Neck & Back Massger,Demo[-20],Demo,1,15.66,179.98,195.64,CreditCard,,,"2 years parts, 1 year labor for Small Items","Shogun Neck &amp; Back Massger,",YES,,Delivered,,,Customer pick-up @ Sam's Club,CA,0,8.70,USJ-874USJ-874-DEMO,195.64,TC 7477 9978 7585 7323 9421 2,,,,,,0.00,,,,,,,0.00,,,,,,
"Sam's Club #6692 Tucson, AZ 1/31-2/10/19 (NV)","Sam's Club #6692 Tucson, AZ 1/31-2/10/19 (NV)",Querubin Milanes,114824,2/7/2019 10:38:37 AM,"U.S.  JACLEAN, INC.",CA,90249,Foot Vibe Pro,,New,1,9.57,109.99,119.56,CreditCard,,,"2 years parts, 1 year labor for Small Items","Foot Vibe Pro,",YES,,Delivered,,,Customer pick-up @ Sam's Club,CA,0,8.70,USJ-871,119.56,TC 7327 9988 0555 7343 8825 2,,,,,,0.00,,,,,,,0.00,,,,,,
"Sam's Club #6692 Tucson, AZ 1/31-2/10/19 (NV)","Sam's Club #6692 Tucson, AZ 1/31-2/10/19 (NV)",Querubin Milanes,114825,2/7/2019 10:41:47 AM,"U.S.  JACLEAN, INC.",CA,90249,Foot Vibe Pro,,New,1,9.57,109.99,119.56,CreditCard,,,"2 years parts, 1 year labor for Small Items","Foot Vibe Pro,",YES,,Delivered,,,Customer pick-up @ Sam's Club,CA,0,8.70,USJ-871,119.56,TC 0883 9013 4232 1484 5977 7,,,,,,0.00,,,,,,,0.00,,,,,,
"Sam's Club #6692 Tucson, AZ 1/31-2/10/19 (NV)","Sam's Club #6692 Tucson, AZ 1/31-2/10/19 (NV)",Querubin Milanes,114827,2/7/2019 10:45:32 AM,"U.S.  JACLEAN, INC.",CA,90249,Foot Vibe Pro,,New,1,9.57,109.99,119.56,CreditCard,,,"2 years parts, 1 year labor for Small Items","Foot Vibe Pro,",YES,,Delivered,,,Customer pick-up @ Sam's Club,CA,0,8.70,USJ-871,119.56,TC 5455 3399 7130 5000 5689 6,,,,,,0.00,,,,,,,0.00,,,,,,
"Sam's Club #6692 Tucson, AZ 1/31-2/10/19 (NV)","Sam's Club #6692 Tucson, AZ 1/31-2/10/19 (NV)",Querubin Milanes,114828,2/7/2019 10:48:29 AM,"U.S.  JACLEAN, INC.",CA,90249,Foot Vibe Pro,,New,1,9.57,109.99,119.56,CreditCard,,,"2 years parts, 1 year labor for Small Items","Foot Vibe Pro,",YES,,Delivered,,,Customer pick-up @ Sam's Club,CA,0,8.70,USJ-871,119.56,TC 0292 4211 9444 0646 8195 9,,,,,,0.00,,,,,,,0.00,,,,,,
"Sam's Club #6692 Tucson, AZ 1/31-2/10/19 (NV)","Sam's Club #6692 Tucson, AZ 1/31-2/10/19 (NV)",Querubin Milanes,114836,2/7/2019 4:22:09 PM,Tania Barrenche,AZ,85706,Legacy for Sam's,Demo Choco[-700],Demo,1,313.11,3599.00,3912.11,CreditCard,,,"3 years parts, 1 year labor (Free)","Legacy for Sam's,",No,,New,,,Demo Price please DELIVER a DEMO Choco Legacy Chair. Thank you.,NV,0,8.70,DWA-9100DWA-9150CH-DEMO,3912.11,TC 8397 1997 8156 2739 3952 72,,,,,,0.00,,,,,,,0.00,,,,,,
"Sam's Club #6692 Tucson, AZ 1/31-2/10/19 (NV)","Sam's Club #6692 Tucson, AZ 1/31-2/10/19 (NV)",Querubin Milanes,114837,2/7/2019 5:15:52 PM,Lenny Rohlik,AZ,85745,Pegasus for Sam's,Demo Choco(Box)[-700],Demo,1,417.43,4798.00,5215.43,CreditCard,,,"3 years parts, 1 year labor (Free)","Pegasus for Sam's,",No,,New,,,Demo Price Please Deliver a NEW Pegasus Choco Chair. Thank you.,NV,0,8.70,DWA-9400Pegasus-BR-BOX,5215.43,TC 2868 3178 6394 0853 5290 40,,,,,,0.00,,,,,,,0.00,,,,,,
"Sam's Club #6692 Tucson, AZ 1/31-2/10/19 (NV)","Sam's Club #6692 Tucson, AZ 1/31-2/10/19 (NV)",Querubin Milanes,114912,2/10/2019 4:20:49 PM,"U.S.  JACLEAN, INC.",CA,90249,Foot Vibe Pro,,New,1,44.37,509.98,554.35,CreditCard,,,"2 years parts, 1 year labor for Small Items","Foot Vibe Pro,Vitality Plate for Sam's,",YES,,Delivered,,,Customer pick-up @ Sam's Club,CA,0,8.70,USJ-871,554.35,TC 8735 8397 3171 5080 9767 6,,,,,,0.00,,,,,,,0.00,,,,,,
"Sam's Club #6692 Tucson, AZ 1/31-2/10/19 (NV)","Sam's Club #6692 Tucson, AZ 1/31-2/10/19 (NV)",Querubin Milanes,114912,2/10/2019 4:20:49 PM,"U.S.  JACLEAN, INC.",CA,90249,Vitality Plate for Sam's,Demo[-60],Demo,1,44.37,509.98,554.35,CreditCard,,,"2 years parts, 1 year labor for Small Items","Foot Vibe Pro,Vitality Plate for Sam's,",YES,,Delivered,,,Customer pick-up @ Sam's Club,CA,0,8.70,USJ-849USJ-849-DEMO,554.35,TC 8735 8397 3171 5080 9767 6,,,,,,0.00,,,,,,,0.00,,,,,,
"Sam's Club #6692 Tucson, AZ 1/31-2/10/19 (NV)","Sam's Club #6692 Tucson, AZ 1/31-2/10/19 (NV)",Querubin Milanes,114913,2/10/2019 4:30:30 PM,Cindy Green,AZ,85736,Pegasus for Sam's,Demo Choco[-700],Demo,1,417.43,4798.00,5215.43,CreditCard,,,"3 years parts, 1 year labor (Free)","Pegasus for Sam's,",No,,New,,,"Demo Chair, I will deliver this on Monday, February 11, 2019 before I drive to Vegas along with the other Legacy Demo Chair.",NV,0,8.70,DWA-9400Pegasus-BR-DEMO,5215.43,TC 1490 6669 0681 8478 7033 33,,,,,,0.00,,,,,,,0.00,,,,,,
"Sam's Club #6692 Tucson, AZ 1/31-2/10/19 (NV)","Sam's Club #6692 Tucson, AZ 1/31-2/10/19 (NV)",Querubin Milanes,114926,2/10/2019 9:44:31 PM,"U.S.  JACLEAN, INC.",CA,90249,Shogun Neck & Back Massger,Demo[-20],Demo,1,15.66,179.98,195.64,CreditCard,,,"2 years parts, 1 year labor for Small Items","Shogun Neck &amp; Back Massger,",YES,,Delivered,,,Customer pick-up @ Sam's Club,CA,0,8.70,USJ-874USJ-874-DEMO,195.64,TC 7378 5774 7935 8545 0102 0,,,,,,0.00,,,,,,,0.00,,,,,,
