﻿Original Event Name,Event Name,Sales Person,Order Number,Order Date,Customer Name,State,Zip,Product Name,Color,Product Status,QTY,Tax,Total Before Tax,Order Total,Primary Payment Method,Second Payment Method,Thirdl Payment Method,Warranty,Order Items,Pick up,Delivered On,Order Status,Chair Type,Order Notes,Private Note,Branch,No Tax,Actual Tax Rate,SKU,Primary Payment Balance,Primary Authorize Number,Primary Purchase Order Number,Primary Synchrony Account Number,Primary Synchrony Application Key,Primary Synchrony Account Info,Primary Synchrony Term,Second Payment Balance,Second Authorize Number,Second Purchase Order Number,Second Synchrony Account Number,Second Synchrony Application Key,Second Synchrony Account Info,Second SynchronyTerm,Third Payment Balance,Third Authorize Number,Third Purchase Order Number,Third Synchrony Account Number,Third Synchrony Application Key,Third Synchrony Account Info,Third Synchrony Term
Anti-Aging Show Las Vegas (NV),Anti-Aging Show Las Vegas (NV),Kristy Tran,102515,12/16/2017 10:49:31 PM,Mudit Arora,PA,19146,Legacy 3D,Choco Brown,New,1,236.26,3613.74,3850.00,CreditCard,CreditCard,,"3 years parts, 1 year labor (Free)","Legacy 3D,",No,1/16/2018 12:00:00 AM,Delivered,,Deposit $100. Please Call for Balance when We Are ready to ship.,"Please ship the chair as soon as possible after we collect  the balance $3750
WF DEPOSIT CLEARED 100 - 12/18/17 STEPHANY
05921I AUTH COD 3750 - STEPHANY 2/1/18",TX,0,8.25,DWA-9150USJ-9150CH,100.00,E491D8E4C1B5B051,,,,,,3750.00,05921I,,,,,,0.00,,,,,,
Anti-Aging Show Las Vegas (NV),Anti-Aging Show Las Vegas (NV),Kristy Tran,102516,12/16/2017 11:04:29 PM,James Schaan,AZ,85714,Relax2Zero 3D,Choco Brown,New,1,274.36,4075.63,4349.99,CreditCard,,,"3 years parts, 1 year labor (Free)","Relax2Zero 3D,Tourmaline Pad for Relax2Zero 3D,",No,12/20/2017 12:00:00 AM,Delivered,,Paid In Full. Please Give them Free Tourmaline Pad,12/18/17- Cristina- printed-,CA,0,8.25,DWA-9060USJ-9060BR,4350.00,1243FC70699BD197,,,,,,0.00,,,,,,,0.00,,,,,,
Anti-Aging Show Las Vegas (NV),Anti-Aging Show Las Vegas (NV),Kristy Tran,102517,12/16/2017 11:10:47 PM,Alexandra Oleinik,FL,33181,Legacy 3D,Black,New,1,232.45,3567.55,3800.00,CreditCard,,,"3 years parts, 1 year labor (Free)","Legacy 3D,",No,1/5/2018 12:00:00 AM,Delivered,,Paid in full.,"WF CLEARED 3800 - STEPHANY 12/18/17
12/19/17-Cristina- Per Kristy customer is not ready for delivery until the 1st week of Jan.",FL,0,8.25,DWA-9150USJ-9150BL,3800.00,06040E,,,,,,0.00,,,,,,,0.00,,,,,,
Anti-Aging Show Las Vegas (NV),Anti-Aging Show Las Vegas (NV),Tom Nguyen,102518,12/16/2017 11:18:29 PM,Margo Emami,CA,92130,Legacy 3D,Demo Choco Brown,Demo,1,232.45,3567.55,3800.00,CreditCard,CreditCard,,"3 years parts, 1 year labor (Free)","Legacy 3D,",No,12/21/2017 12:00:00 AM,Delivered,,Paid In Full. Please ship As soon As Possible. Please Call for schedule before 12/20.,Confirmed $100 and $3700 in Daiwa Space. 12/19/17 Riho,CA,0,8.25,DWA-9150USJ-9150CH-DEMO,100.00,07016G,,,,,,3700.00,05649G,,,,,,0.00,,,,,,
Anti-Aging Show Las Vegas (NV),Anti-Aging Show Las Vegas (NV),Tom Nguyen,102519,12/16/2017 11:22:55 PM,James Lyons,AZ,85255,Legacy 3D,Black,New,1,270.55,4029.45,4300.00,CreditCard,,,"3 years parts, 1 year labor (Free)","Legacy 3D,Tourmaline Pad for Legacy 3D,",No,12/21/2017 12:00:00 AM,Delivered,,Paid In full. Please Give them Free Tourmaline Pad.,"12/18/17/- check for receipt from Tom
approval code #532200",CA,0,8.25,DWA-9150USJ-9150BL,4300.00,C9549A4A08A14466,,,,,,0.00,,,,,,,0.00,,,,,,
Anti-Aging Show Las Vegas (NV),Anti-Aging Show Las Vegas (NV),Tom Nguyen,102520,12/16/2017 11:41:46 PM,Marla Gibbs,FL,33166,Legacy 3D,Black,New,1,0.00,4000.00,4000.00,CreditCard,,,"3 years parts, 1 year labor (Free)","Legacy 3D,",No,12/28/2017 12:00:00 AM,Delivered,,"Please call for her before drop off. If we use trucking company, please send her the tracking #.  her emal: newlands@candw.ky","Customer Address: 
PO Box 490  
City :Grand Cayman
State : Cayman Island  Zip: KYI-1502
Warranty: 3 years Parts only.",FL,1,8.25,DWA-9150USJ-9150BL,4000.00,015103,,,,,,0.00,,,,,,,0.00,,,,,,
Anti-Aging Show Las Vegas (NV),Anti-Aging Show Las Vegas (NV),Kristy Tran,102521,12/16/2017 11:50:56 PM,Tariq Mirza,CA,94587,Relax2Zero 3D,Black,New,1,209.58,3290.42,3500.00,CreditCard,,,"3 years parts, 1 year labor (Free)","Relax2Zero 3D,",No,12/20/2017 12:00:00 AM,Delivered,,Paid In full.,Possible customer may buy 6 in future.,CA,0,8.25,DWA-9060USJ-9060BL,3500.00,CDCD4B0096D636C5,,,,,,0.00,,,,,,,0.00,,,,,,
Anti-Aging Show Las Vegas (NV),Anti-Aging Show Las Vegas (NV),Tom Nguyen,102522,12/16/2017 11:57:16 PM,Dr. Stepher Rath,NM,88345,Relax2Zero 3D,Demo Black,Demo,1,232.45,3567.55,3800.00,CreditCard,,,"3 years parts, 1 year labor (Free)","Relax2Zero 3D,",No,1/4/2018 12:00:00 AM,Delivered,,Paid In Full. Please Pick Up their Old Chair and Throw Away.,WF CLEARED FOR 3800 - 12/18/17 STEPHANY AUTH 821304,TX,0,8.25,DWA-9060USJ-9060BL-DEMO,3800.00,B3C7B247B975A792,,,,,,0.00,,,,,,,0.00,,,,,,
Anti-Aging Show Las Vegas (NV),Anti-Aging Show Las Vegas (NV),Tom Nguyen,102523,12/17/2017 12:05:26 AM,Abdalmajid Katranji,MI,48823,Relax2Zero 3D,Demo Choco Brown,Demo,1,232.45,3567.55,3800.00,CreditCard,,,"3 years parts, 1 year labor (Free)","Relax2Zero 3D,",No,,Cancelled,,"Deposit $100, Customer will call back for balance on next week.","Cancelled and revised, new one is #102632 (Per Tom Nguyen) 12/22/17 Riho",TX,0,8.25,DWA-9060USJ-9060BR-DEMO,100.00,24F07CBDB31E14B4,,,,,,0.00,,,,,,,0.00,,,,,,
Anti-Aging Show Las Vegas (NV),Anti-Aging Show Las Vegas (NV),Tom Nguyen,102524,12/17/2017 12:12:29 AM,Joseph Leano,AZ,85704,Relax2Zero 3D,Black,New,1,274.36,3725.63,3999.99,CreditCard,,,"3 years parts, 1 year labor (Free)","Relax2Zero 3D,",No,12/20/2017 12:00:00 AM,Delivered,,Paid In Full,12/18/17-cristina- printed,CA,0,8.25,DWA-9060USJ-9060BL,4000.00,C0DCC3EC2FA4D7A3,,,,,,0.00,,,,,,,0.00,,,,,,
Anti-Aging Show Las Vegas (NV),Anti-Aging Show Las Vegas (NV),Kristy Tran,102525,12/17/2017 12:20:01 AM,Steven Parnell,MN,56031,Relax2Zero 3D,Choco Brown,New,1,247.69,3752.31,4000.00,CreditCard,,,"3 years parts, 1 year labor (Free)","Relax2Zero 3D,",No,1/10/2018 12:00:00 AM,Delivered,,Paid In Full.,"WF CLEARED FOR 4000 - 12/18/17 STEPHANY
Maybe the Auth# is #00595Z",TX,0,8.25,DWA-9060USJ-9060BR,4000.00,DCAD5576FFC0AF37,,,,,,0.00,,,,,,,0.00,,,,,,
Anti-Aging Show Las Vegas (NV),Anti-Aging Show Las Vegas (NV),Tom Nguyen,102527,12/17/2017 12:31:45 AM,Khanh Pham,NV,89131,Relax2Zero 3D,Black,New,1,217.21,3382.79,3600.00,Synchrony,,,"3 years parts, 1 year labor (Free)","Relax2Zero 3D,",No,1/8/2018 12:00:00 AM,Delivered,,Please Charge $3600/36 months on Synchrony Las Vegas Account.,"CHARGE SYNCHRONY BEFORE DELIVER 3600- 12/18/17 STEPHANY
Confirmed the transaction of $3600, Auth#008018. 1/11/18 Riho",NV,0,8.25,DWA-9060USJ-9060BL,3600.00,,,6034610083005192,82609172,Las Vegas,36 months,0.00,,,,,,,0.00,,,,,,
Anti-Aging Show Las Vegas (NV),Anti-Aging Show Las Vegas (NV),Tom Nguyen,102528,12/17/2017 12:37:16 AM,Erin Amato,MT,59102,Relax2Zero 3D,Black,New,1,274.36,3725.63,3999.99,Synchrony,,,"3 years parts, 1 year labor (Free)","Relax2Zero 3D,",No,12/18/2017 12:00:00 AM,Delivered,,"Drop Off Delivery.
Please charge $4000/36 months on Synchrony Las Vegas Account.","confirmed the account ($6,500), charged $4,000 through Synchrony. 
Stephany is scheduling for delivery. 12/18/17 Hitomi
ELITE CARGO 90029",CA,0,8.25,DWA-9060USJ-9060BL,4000.00,,,6034610083005218,82609366,Las Vegas,36 months,0.00,,,,,,,0.00,,,,,,
Anti-Aging Show Las Vegas (NV),Anti-Aging Show Las Vegas (NV),Kristy Tran,102529,12/17/2017 12:44:07 AM,Jessica + David Mitchell,GA,30058,Relax2Zero 3D,Black,New,1,274.36,4075.63,4349.99,CreditCard,,,"3 years parts, 1 year labor (Free)","Relax2Zero 3D,",No,12/22/2017 12:00:00 AM,Delivered,,Paid In full.,WF CLEARED 4350 - 12/18/17 STEPHANY,FL,0,8.25,DWA-9060USJ-9060BL,4350.00,015512,,,,,,0.00,,,,,,,0.00,,,,,,
Anti-Aging Show Las Vegas (NV),Anti-Aging Show Las Vegas (NV),May Kam,102549,12/17/2017 4:17:14 PM,Kevin Conners,MN,55042,Legacy 3D,Choco Brown,New,1,0.00,3700.00,3700.00,CreditCard,,,"3 years parts, 1 year labor (Free)","Legacy 3D,Daiwa Blanket,Tourmaline Pad for Legacy 3D,",No,1/6/2018 12:00:00 AM,Delivered,,"Paid off, shipping only","confirmed $3,700 in Wells Fargo. 12/18/17 Hitomi",TX,1,8.25,DWA-9150USJ-9150CH,3700.00,811984,,,,,,0.00,,,,,,,0.00,,,,,,
Anti-Aging Show Las Vegas (NV),Anti-Aging Show Las Vegas (NV),May Kam,102550,12/17/2017 4:36:23 PM,Kevin Conners,MN,55082,Legacy 3D,Choco Brown,New,1,0.00,4000.00,4000.00,CreditCard,,,"3 years parts, 1 year labor (Free)","Legacy 3D,Daiwa Blanket,Tourmaline Pad for Legacy 3D,",No,1/6/2018 12:00:00 AM,Delivered,,"Paid off , shipping only","confirmed $4,000 in Wells Fargo. 12/18/17 Hitomi",TX,1,8.25,DWA-9150USJ-9150CH,4000.00,823904,,,,,,0.00,,,,,,,0.00,,,,,,
Anti-Aging Show Las Vegas (NV),Anti-Aging Show Las Vegas (NV),May Kam,102551,12/17/2017 4:45:22 PM,Natalya Marchelli,ID,83814,Legacy 3D,Choco Brown,New,1,0.00,4350.00,4350.00,Synchrony,,,"3 years parts, 1 year labor (Free)","Legacy 3D,",No,12/26/2017 12:00:00 AM,Delivered,,"Pls make $4350 finance purchase, Thanks","confirmed the account ($ 4,800) in Synchrony. *Please charge before delivery.* 12/18/17 Hitomi
scheduled on dec 22 fri 1pm-4pm
SYNCHRONY CHARGED $4350 -Jiajia 12/26/2017 Authorization # 026826",WA,1,8.25,DWA-9150USJ-9150CH,4350.00,,,6034610083001118,82524727,San Diego,24 months,0.00,,,,,,,0.00,,,,,,
Anti-Aging Show Las Vegas (NV),Anti-Aging Show Las Vegas (NV),May Kam,102553,12/17/2017 5:24:51 PM,Tricia Nelson,CA,90049,Legacy 3D,Demo Choco Brown,Demo,1,0.00,3850.00,3850.00,CreditCard,CreditCard,,"3 years parts, 1 year labor (Free)","Legacy 3D,Chair Pad for Legacy 3D,Foot Pads for Legacy 3D,",No,12/27/2017 12:00:00 AM,Delivered,,"Extra 1 each for chair back and foot pad , COD $3650","12/18/17- cristina _ printed
Customer would like delivery 12/28/17 if possible -  12/18/17 STEPHANY
Confirmed $3650 in Square. 1/17/18 Riho",CA,1,8.25,DWA-9150USJ-9150CH-DEMO,200.00,833323,,,,,,3650.00,3sNJ,,,,,,0.00,,,,,,
Anti-Aging Show Las Vegas (NV),Anti-Aging Show Las Vegas (NV),May Kam,102571,12/18/2017 6:21:35 AM,Nicole Bergstrom,NV,89706,Legacy 3D,Demo Black,Demo,1,0.00,3550.00,3550.00,CreditCard,,,"3 years parts, 1 year labor (Free)","Legacy 3D,",YES,12/16/2017 12:00:00 AM,Delivered,,"Picked up at Show place, paid off","confirmed $3,550 in Wells Fargo. 12/18/17 Hitomi
Received the confirmation from May. 12/18/17 Riho",NV,1,8.25,DWA-9150USJ-9150BL-DEMO,3550.00,824203,,,,,,0.00,,,,,,,0.00,,,,,,
Anti-Aging Show Las Vegas (NV),Anti-Aging Show Las Vegas (NV),May Kam,102573,12/18/2017 7:10:15 AM,Larry Andrew,UT,84651,Legacy 3D,Black,New,1,0.00,4350.00,4350.00,CreditCard,CreditCard,,"3 years parts, 1 year labor (Free)","Legacy 3D,Tourmaline Pad for Legacy 3D,",No,12/21/2017 12:00:00 AM,Delivered,,COD $2350,"confirmed $2,000 in Wells Fargo.  12/18/17 Hitomi",NV,1,8.25,DWA-9150USJ-9150BL,2000.00,09677D,,,,,,2350.00,COD,,,,,,0.00,,,,,,
Anti-Aging Show Las Vegas (NV),Anti-Aging Show Las Vegas (NV),May Kam,102579,12/18/2017 10:03:28 AM,Gordana Bowerfind,OH,44122,Legacy 3D,Black,New,1,0.00,3850.00,3850.00,Synchrony,,,"3 years parts, 1 year labor (Free)","Legacy 3D,",No,1/16/2018 12:00:00 AM,Delivered,,"Pls make $ 3850 finance purchase, thanks","PLEASE CHARGE SYNCHRONY BEFORE DELIVERY - 12/18/17 STEPHANY
Auth#010059 CLEARED FOR $3850 - STEPHANY 1/19/18
TOURMALINE PAD SHIPPED ON 3/2/18 THROUGH FED EX, TRACKING #7309 7700 8627 (AMNT $16.43)",TX,1,8.25,DWA-9150USJ-9150BL,3850.00,,,6034610083002892,82575298,Las Vegas,24 months,0.00,,,,,,,0.00,,,,,,
Anti-Aging Show Las Vegas (NV),Anti-Aging Show Las Vegas (NV),May Kam,102581,12/18/2017 10:28:59 AM,Robert Phillips,CA,92562,Legacy 3D,Demo Choco Brown,Demo,1,0.00,3750.00,3750.00,CreditCard,CreditCard,,"3 years parts, 1 year labor (Free)","Legacy 3D,",No,12/21/2017 12:00:00 AM,Delivered,,COD $3550,"WF CLEARED FOR 200 DEPOSIT  - 12/18/17 STEPHANY 
Confirmed $3550 in Wells Fargo. 1/17/18 Riho",CA,1,8.25,DWA-9150USJ-9150CH-DEMO,200.00,00271C,,,,,,3550.00,111075,,,,,,0.00,,,,,,
Anti-Aging Show Las Vegas (NV),Anti-Aging Show Las Vegas (NV),May Kam,102582,12/18/2017 12:58:53 PM,Faustina Kwok,BC,V7C5N5,Legacy 3D,Black,New,1,0.00,3950.00,3950.00,CreditCard,,,"3 years parts, 1 year labor (Free)","Legacy 3D,Tourmaline Pad for Legacy 3D,",No,12/20/2017 12:00:00 AM,Delivered,,"Only 3 year parts warranty , since Daiwa space can’t select","confirmed $3,950 in Wells Fargo.(Debit Transaction) 12/19/17 Hitomi
ELITE CARGO #90180 - STEPHANY 12/20/17 CORRECT SERIAL NUM #0202001170337",CA,1,8.25,DWA-9150USJ-9150BL,3950.00,172341,,,,,,0.00,,,,,,,0.00,,,,,,
Anti-Aging Show Las Vegas (NV),Anti-Aging Show Las Vegas (NV),May Kam,102583,12/18/2017 1:22:47 PM,William Clark,CA,95366,Legacy 3D,Choco Brown,New,1,0.00,3900.00,3900.00,Check,Check,,"3 years parts, 1 year labor (Free)","Legacy 3D,Tourmaline Pad for Legacy 3D,",No,1/9/2018 12:00:00 AM,Delivered,,Paid by check #3180 ; COD $1950,"Confirmed the check payment ($1950), it was paid with the order #102585. 12/27/17 Riho
1/11/18- cristina- customer paid by cashiers check #1002615019",CA,1,8.25,DWA-9150USJ-9150CH,1950.00,,,,,,,1950.00,COD,,,,,,0.00,,,,,,
Anti-Aging Show Las Vegas (NV),Anti-Aging Show Las Vegas (NV),May Kam,102585,12/18/2017 1:37:12 PM,William Clark,CA,95366,Relax2Zero 3D,Choco Brown,New,2,0.00,7800.00,7800.00,Check,Check,,"3 years parts, 1 year labor (Free)","Tourmaline Pad for Relax2Zero 3D,Relax2Zero 3D,",No,1/9/2018 12:00:00 AM,Delivered,,"Paid by check $3900 with order 102583
 together, pls deliver one Relax 2 Zero 3 D first,  COD $3900 . Pls hold another Relax 2 Zero 3D 
about one month later to deliver New place .","Confirmed the check payment ($3900), it was paid with order #102583. 12/27/17 Riho

01/12/18- cristina full amount of $5850.00 was paid threw cashiers check  #1002615019",CA,1,8.25,DWA-9060USJ-9060BR,3900.00,,,,,,,3900.00,COD,,,,,,0.00,,,,,,
Anti-Aging Show Las Vegas (NV),Anti-Aging Show Las Vegas (NV),May Kam,102595,12/20/2017 9:23:08 AM,Lyne Souligny,ON,K0B 1K0,Legacy 3D,Black,New,1,0.00,3900.00,3900.00,CreditCard,,,3 Years Parts (International),"Legacy 3D,Tourmaline Pad for Legacy 3D,",No,12/20/2017 12:00:00 AM,Delivered,,"Paid off, Pls ship request delivery after Jan 4,2018, ( special discount approved by President)",,CA,1,8.25,DWA-9150USJ-9150BL,3900.00,222460 and 211594,,,,,,0.00,,,,,,,0.00,,,,,,
Anti-Aging Show Las Vegas (NV),Anti-Aging Show Las Vegas (NV),Tom Nguyen,102632,12/22/2017 2:07:55 PM,Abdalmajid Katranji,MI,48823,Relax2Zero 3D,Demo Choco Brown,Demo,1,0.00,3800.00,3800.00,Check,,,"3 years parts, 1 year labor (Free)","Relax2Zero 3D,",No,2/26/2018 12:00:00 AM,Delivered,,100% Prefunding Required,"Deposited the check#26231-$3800 by Shoko. 2/2/18 Riho
Check payment was cleared. confirmed with Shoko. 2/12/18 Hitomi",TX,1,8.25,DWA-9060USJ-9060BR-DEMO,3800.00,,,,,,,0.00,,,,,,,0.00,,,,,,
