﻿Date,CustomerName,State,Zipcode,Description,productNo,Color,IsDemo,Net,ShippingFee,GiftPrice,FinancingProcessingFee,Gross,Pre_tax,Tax,Commission,Primary Payment Method,Primary Payment Balance,Primary Authorize Number,Primary Purchase Order Number,Primary Synchrony Account Number,Primary Synchrony Application Key,Primary Synchrony AccountInfo,Primary SynchronyTerm,Secondly Payment Method,Secondly Payment Balance,Secondly Authorize Number,Secondly Purchase Order Number,Secondly Synchrony Account Number,Secondly Synchrony Application Key,Secondly Synchrony AccountInfo,Secondly SynchronyTerm,Thirdly Payment Method,Thirdly Payment Balance,Thirdly Authorize Number,Thirdly Purchase Order Number,Thirdly Synchrony Account Number,Thirdly Synchrony Application Key,Thirdly Synchrony AccountInfo,Thirdly SynchronyTerm,DeliveryDate,Ispickup,Warranty,Status,Event Name,Synchrony Notes,Order Notes,Order number,Private Note,Branch,IsNoTax,ActualTaxRate
11/16/2017 10:12:41 PM,Thomas Eldridge,CA,90810,Relax2Zero 2.0 for Sam's,USJ-9050USJ-9050BL,Black,New,,,,,3503.65,3207.00,296.65,Kamille Gines,,3502.91,834120,,,,,,,,,,,,,,,,,,,,,,11/22/2017 12:00:00 AM,No,"3 years parts, 1 year labor (Free)",Delivered,Sam's Club #6628  11/16-11/26 (CA),,,101910,11/17/17 cristina - printed,CA,0,9.25
11/16/2017 10:21:28 PM,Charles Henderson,CA,90732,Legacy for Sam's,DWA-9100DWA-9100CH,Choco,New,,,,,3941.74,3608.00,333.74,Kamille Gines,,3940.91,32429B,,,,,,,,,,,,,,,,,,,,,,11/22/2017 12:00:00 AM,No,"3 years parts, 1 year labor (Free)",Delivered,Sam's Club #6628  11/16-11/26 (CA),,,101911,11/17/17- cristina Printed,CA,0,9.25
11/18/2017 9:16:13 PM,David Linder,CA,91325,Legacy for Sam's,DWA-9100DWA-9100SB,Sienna Brown,New,,,,,3940.94,3607.27,333.67,Kamille Gines,,3940.91,00059D,,,,,,,,,,,,,,,,,,,,,,11/27/2017 12:00:00 AM,No,"3 years parts, 1 year labor (Free)",Delivered,Sam's Club #6628  11/16-11/26 (CA),,"#3 
Please deliver new chair
Add Extra pad",101953,11/20/17-Cristina- printed-,CA,0,9.25
11/22/2017 2:03:16 PM,Avadhesh Agarwal,CA,90274,Legacy for Sam's,DWA-9100DWA-9100GD,Gold,New,,,,,3940.92,3670.75,270.17,Kamille Gines,,3940.91,001550,,,,,,,,,,,,,,,,,,,,,,12/1/2017 12:00:00 AM,No,"3 years parts, 1 year labor (Free)",Delivered,Sam's Club #6628  11/16-11/26 (CA),,,102048,"Total priced $3,940.91 from Sam’s club at Torrance 
Pls Ship new chair and delivery before 05 Dec 17 as per customer request.thank you very much",CA,0,9.25
11/22/2017 9:41:37 PM,Ken Lee,AA,90504,Legacy for Sam's,DWA-9100DWA-9100CH,Choco,New,,,,,3940.98,3607.30,333.68,Kamille Gines,,0.00,,TC# 0831514622034794284565,,,,,,,,,,,,,,,,,,,,,12/13/2017 12:00:00 AM,No,"3 years parts, 1 year labor (Free)",Delivered,Sam's Club #6628  11/16-11/26 (CA),,,102054,"Total price: 3,940.91 including Tax
Ship New Chair
11/24/17-cristina- printed",CA,0,9.25
11/25/2017 9:57:22 PM,Kono Sumiko,CA,90501,Legacy for Sam's,DWA-9100DWA-9100CH,Choco,New,,,,,3940.98,3607.30,333.68,Kamille Gines,,0.00,,TC# 7106185897793025918434,,,,,,,,,,,,,,,,,,,,,12/1/2017 12:00:00 AM,No,"3 years parts, 1 year labor (Free)",Delivered,Sam's Club #6628  11/16-11/26 (CA),,,102109,"TOTAL: $3940.91
Please deliver new Chair
11/27/17-cristina- printed",CA,0,9.25
11/26/2017 4:39:57 PM,Barry Levine,CA,90505,Legacy for Sam's,DWA-9100DWA-9100BL,Black,New,,,,,4707.54,4389.40,318.14,Kamille Gines,,0.00,,3722 4427 1316 0872 0349 79,,,,,,,,,,,,,,,,,,,,,12/3/2017 12:00:00 AM,No,"3 years parts, 1 year labor (Free)",Delivered,Sam's Club #6628  11/16-11/26 (CA),,,102141,"Priced $4,299.00
Tax.     $.  408.41
Total priced $4,707.41
Pls deliver on Sunday that’s the only day there are available and I ask permission from Rod and Ruben and they said ok thank you very much",CA,0,9.25
11/26/2017 8:55:29 PM,George Olivo,CA,90275,Relax2Zero 2.0 for Sam's,USJ-9050USJ-9050BR,Brown,New,,,,,3502.92,3206.33,296.59,Kamille Gines,,0.00,,TC# 6228997567609317852080,,,,,,,,,,,,,,,,,,,,,12/1/2017 12:00:00 AM,No,"3 years parts, 1 year labor (Free)",Delivered,Sam's Club #6628  11/16-11/26 (CA),,,102144,"Total payment: $3,502.91
Deliver new chair",CA,0,9.25
