﻿Date,CustomerName,State,Description,productNo,Color,IsDemo,Net,Tax,ShippingFee,GiftPrice,FinancingProcessingFee,Gross,Commission,PaymentMethod,Primary Payment Balance,Secondary Payment Method,DeliveryDate,Ispickup,Warranty,Status
7/24/2017 12:00:00 AM,ROCK HARVEY,GA,Relax2Zero 3D,,BLACK,New,,0.00,,,,4000.00,TEAM,See OrderNotes,,,,No,"3years Parts, 3years Labor",Delivered
7/26/2017 12:00:00 AM,DARNLANG ROO,WI,Legacy,,?,New,,0.00,,,,4000.00,TEAM,See OrderNotes,,,,No,"3years Parts, 3years Labor",Delivered
7/26/2017 12:00:00 AM,HANZAWA GEORGE,HI,Legacy 3D,,BLACK,New,,0.00,,,,4500.00,TEAM,See OrderNotes,,,,No,"3years Parts, 3years Labor",Delivered
7/2/2017 12:00:00 AM,NGUYEN MYRA HONG,GA,Legacy,,CHOCO,New,,0.00,,,,4500.00,ROBERT,See OrderNotes,,,,No,"3 years parts, 1 year labor ",Delivered
7/16/2017 12:00:00 AM,AVILES ELVIRO,FL,Relax2Zero 3D,,CHOCO,New,,0.00,,,,4200.00,MITCH,See OrderNotes,,,,No,"3 years parts, 1 year labor ",Delivered
7/6/2017 12:00:00 AM,JOSEPH MAVEC,FL,DAIWA LEGACY 3D,,,New,,0.00,,,,4500.00,MITCH,See OrderNotes,,,,No,"3 years parts, 1 year labor ",Delivered
6/26/2017 12:00:00 AM,CHRISTOPHER BONHAM,FL,RELAX 2 ZERO 3D,,BLACK,New,,0.00,,,,4200.00,MITCH ,See OrderNotes,,,,No,"3 years parts, 1 year labor ",Delivered
7/10/2017 12:00:00 AM,TIM TIRALOSI,FL,RELAX 2 ZERO 3D,,DEMO CHOCO,New,,0.00,,,,4200.00,CHRIS,See OrderNotes,,,,No,"3 years parts, 1 year labor ",Delivered
6/26/2017 12:00:00 AM,CHARLES DAVIS,FL,DAIWA LEGACY 3D,,BLACK,New,,0.00,,,,4500.00,MITCH,See OrderNotes,,,,No,"3 years parts, 1 year labor ",Delivered
7/2/2017 12:00:00 AM,LUANGSOMBATH PHOUVONG,GA,Legacy,,SIENNA,New,,0.00,,,,3600.00,ROBERT,See OrderNotes,,,,No,"3 years parts, 1 year labor ",Delivered
6/29/2017 12:00:00 AM,HOANG CINDY,GA,Legacy,,SIENNA,New,,0.00,,,,4000.00,ROBERT,See OrderNotes,,,,No,"3 years parts, 1 year labor ",Delivered
6/30/2017 12:00:00 AM,TRAN NHAN THANH,GA,Legacy,,CHOCO,New,,0.00,,,,4500.00,ROBERT,See OrderNotes,,,,No,"3 years parts, 1 year labor ",Delivered
7/2/2017 12:00:00 AM,HUYNH HANG C,GA,Legacy,,CHOCO,New,,0.00,,,,4000.00,ROBERT,See OrderNotes,,,,No,"3 years parts, 1 year labor ",Delivered
7/2/2017 12:00:00 AM,TRUONG CUONG C,GA,Legacy,,BLACK,New,,0.00,,,,3500.00,ROBERT,See OrderNotes,,,,No,"3 years parts, 1 year labor ",Delivered
7/2/2017 12:00:00 AM,NGUYEN THANH T,GA,Legacy,,CHOCO,New,,0.00,,,,3500.00,ROBERT,See OrderNotes,,,,No,"3 years parts, 1 year labor ",Delivered
7/2/2017 12:00:00 AM,BAUTISTA JOSESIMO,CO,Relax2Zero 3D,,BLACK,New,,0.00,,,,3800.00,MITCH,See OrderNotes,,,,No,"3 years parts, 1 year labor ",Delivered
7/5/2017 12:00:00 AM,CHIONG AIDA,NV,Legacy,,DEMO BEIGE,New,,0.00,,,,3000.00,DAVID S.,See OrderNotes,,,,No,"3 years parts, 1 year labor ",Delivered
7/15/2017 12:00:00 AM,SCHROEDER PATRICIA,AZ,Legacy 3D,,BLACK,New,,0.00,,,,3900.00,TEAM,See OrderNotes,,,,No,"3 years parts, 1 year labor ",Delivered
7/19/2017 12:00:00 AM,BYRNE DON,TX,Relax2Zero 2.0,,DEMO BROWN,New,,0.00,,,,3500.00,TEAM,See OrderNotes,,,,No,"3years Parts, 3years Labor",Delivered
7/20/2017 12:00:00 AM,ANDERSON NEVIN,TX,Relax2Zero 2.0,,BROWN,New,,0.00,,,,4200.00,TEAM,See OrderNotes,,,,No,"3years Parts, 3years Labor",Delivered
7/27/2017 12:00:00 AM,HOFELDT JADE,WI,Legacy,,CHOCO,New,,0.00,,,,3500.00,TEAM,See OrderNotes,,,,No,"3years Parts, 3years Labor",Delivered
7/22/2017 12:00:00 AM,BURKE GARY,CO,Legacy,,SIENNA,New,,0.00,,,,4000.00,TEAM,See OrderNotes,,,,No,"3years Parts, 3years Labor",Delivered
7/14/2017 12:00:00 AM,TAM WYNNSON,CA,DAIWA LEGACY 3D,,BLACK,New,,0.00,,,,4356.00,ROD,See OrderNotes,,,,No,"3 years parts, 1 year labor ",Delivered
7/28/2017 12:00:00 AM,POMMERENKE PAMELA,MN,Relax2Zero 3D,,BROWN,New,,0.00,,,,4200.00,TEAM,See OrderNotes,,,,No,"3years Parts, 3years Labor",Delivered
7/28/2017 12:00:00 AM,BUSE REBECCA,MN,Relax2Zero 3D,,BLACK,New,,0.00,,,,4200.00,TEAM,See OrderNotes,,,,No,"3years Parts, 3years Labor",Delivered
7/16/2017 12:00:00 AM,TANGEMAN DIANNE,AZ,Legacy 3D,,DEMO CHOCO,New,,0.00,,,,4200.00,TEAM,See OrderNotes,,,,No,"3 years parts, 1 year labor ",Delivered
7/19/2017 12:00:00 AM,SMITH STEVEN J.,NC,Legacy,,CHOCO,New,,0.00,,,,4000.00,TEAM,See OrderNotes,,,,No,"3years Parts, 3years Labor",Delivered
7/19/2017 12:00:00 AM,SULICH EWELINA,NY,Relax2Zero 2.0,,BROWN,New,,0.00,,,,4892.00,TEAM,See OrderNotes,,,,No,"3years Parts, 3years Labor",Delivered
7/25/2017 12:00:00 AM,HILL DAVID S.,WA,Legacy,,CHOCO,New,,0.00,,,,4000.00,"ROD, RUBEN, ROLLY",See OrderNotes,,,,No,"3years Parts, 2years Labor",Delivered
7/20/2017 12:00:00 AM,DAVIS NICK,NV,Legacy,,DEMO CHOCO,New,,0.00,,,,3600.00,TEAM,See OrderNotes,,,,No,,Delivered
7/20/2017 12:00:00 AM,TOLLI JANET C .,CA,Legacy,,CHOCO,New,,0.00,,,,3700.00,TEAM,See OrderNotes,,,,No,"3years Parts, 3years Labor",Delivered
7/21/2017 12:00:00 AM,ANDERSON CHUCK,SD,Legacy,,CHOCO,New,,0.00,,,,4000.00,TEAM,See OrderNotes,,,,No,"3years Parts, 3years Labor",Delivered
7/21/2017 12:00:00 AM,ELLIOTS BRIAN,TX,Legacy,,CHOCO,New,,0.00,,,,3900.00,TEAM,See OrderNotes,,,,No,"3years Parts, 3years Labor",Delivered
7/21/2017 12:00:00 AM,THOMPSON LESLIE,UT,Relax2Zero 2.0,,BROWN,New,,0.00,,,,4200.00,TEAM,See OrderNotes,,,,No,"3 years parts, 1 year labor ",Delivered
7/21/2017 12:00:00 AM,COBIAN JESUS,CA,Relax2Zero 2.0,,BROWN,New,,0.00,,,,3700.00,TEAM,See OrderNotes,,,,No,"3years Parts, 3years Labor",Delivered
7/21/2017 12:00:00 AM,IMUS DAVID,CA,Relax2Zero 2.0,,BROWN,New,,0.00,,,,4000.00,TEAM,See OrderNotes,,,,No,"3 years parts, 1 year labor ",Delivered
7/21/2017 12:00:00 AM,FRANKLIN KEN & MELANIE,CA,Relax2Zero 2.0,,BLACK,New,,0.00,,,,4200.00,TEAM,See OrderNotes,,,,No,"3 years parts, 1 year labor ",Delivered
7/21/2017 12:00:00 AM,GALLUP JIM,NC,Legacy 3D,,CHOCO,New,,0.00,,,,4900.00,TEAM,See OrderNotes,,,,No,"3years Parts, 3years Labor",Delivered
7/21/2017 12:00:00 AM,VANPATT JOHN R.,CA,Relax2Zero 2.0,,BEIGE,New,,0.00,,,,4542.00,TEAM,See OrderNotes,,,,No,"3 years parts, 1 year labor ",Delivered
7/21/2017 12:00:00 AM,MORGAN MITCH,LA,Legacy 3D,,CHOCO,New,,0.00,,,,4500.00,TEAM,See OrderNotes,,,,No,"3 years parts, 1 year labor ",Delivered
7/22/2017 12:00:00 AM,SATOMI HOKAMA,NV,Relax2Zero 2.0,,BLACK,New,,0.00,,,,4340.00,TEAM,See OrderNotes,,,,No,"3years Parts, 3years Labor",Delivered
7/20/2017 12:00:00 AM,CONAS TIM,TX,Legacy,,BLACK,New,,0.00,,,,4000.00,TEAM,See OrderNotes,,,,No,"3years Parts, 3years Labor",Delivered
7/20/2017 12:00:00 AM,MCDORMAN TOM,CA,Legacy,,BEIGE,New,,0.00,,,,3700.00,TEAM,See OrderNotes,,,,No,"3years Parts, 3years Labor",Delivered
7/20/2017 12:00:00 AM,BUSHERY LEIGH ANNE,AZ,Relax2Zero 2.0,,BLACK,New,,0.00,,,,4542.00,TEAM,See OrderNotes,,,,No,"3years Parts, 3years Labor",Delivered
7/20/2017 12:00:00 AM,JONES TODD,TX,Legacy,,CHOCO,New,,0.00,,,,3700.00,TEAM,See OrderNotes,,,,No,"3years Parts, 3years Labor",Delivered
7/20/2017 12:00:00 AM,CROSS PATRICIA,TN,Legacy,,,New,,0.00,,,,0.00,TEAM,See OrderNotes,,,,No,"3 years parts, 1 year labor ",Delivered
7/20/2017 12:00:00 AM,FAREYNA YURIY,UT,Relax2Zero 2.0,,BLACK,New,,0.00,,,,3500.00,TEAM,See OrderNotes,,,,No,"3years Parts, 3years Labor",Delivered
7/20/2017 12:00:00 AM,MAYSE DAVID,TN,Relax2Zero 2.0,,BROWN,New,,0.00,,,,4542.00,TEAM,See OrderNotes,,,,No,"3years Parts, 3years Labor",Delivered
7/20/2017 12:00:00 AM,ALKUT HASAN,FL,Legacy,,BLACK,New,,0.00,,,,3500.00,TEAM,See OrderNotes,,,,No,"3years Parts, 3years Labor",Delivered
7/22/2017 12:00:00 AM,KENSLEY ALLEN,AZ,Relax2Zero 2.0,,DEMO BROWN,New,,0.00,,,,3500.00,TEAM,See OrderNotes,,,,No,"3 years parts, 1 year labor ",Delivered
7/22/2017 12:00:00 AM,ALLEN PETER,PA,Legacy,,DEMO CHOCO,New,,0.00,,,,3700.00,TEAM,See OrderNotes,,,,No,"3years Parts, 3years Labor",Delivered
7/22/2017 12:00:00 AM,HUEY RANDY,MI,Legacy,,SIENNA,New,,0.00,,,,4000.00,TEAM,See OrderNotes,,,,No,"3years Parts, 3years Labor",Delivered
7/22/2017 12:00:00 AM,SCMID KEN ALBERT,MD,Relax2Zero 2.0,,BROWN,New,,0.00,,,,4200.00,TEAM,See OrderNotes,,,,No,"3years Parts, 3years Labor",Delivered
7/22/2017 12:00:00 AM,CAPATI EDWIN B.,NV,Legacy 3D,,BLACK,New,,0.00,,,,4300.00,TEAM,See OrderNotes,,,,No,"3years Parts, 3years Labor",Delivered
7/22/2017 12:00:00 AM,PATEL NARENDRA,FL,Relax2Zero 2.0,,BROWN,New,,0.00,,,,3920.00,TEAM,See OrderNotes,,,,No,"3years Parts, 3years Labor",Delivered
7/14/2017 12:00:00 AM,TERRY BRIANN,AZ,Pegasus,,CHOCO,New,,0.00,,,,5000.00,TEAM,See OrderNotes,,,,No,"3 years parts, 1 year labor ",Delivered
7/19/2017 12:00:00 AM,MCINTYRE KRISTY,OR,Legacy 3D,,BROWN,New,,0.00,,,,4500.00,TEAM,See OrderNotes,,,,No,"3years Parts, 3years Labor",Delivered
7/20/2017 12:00:00 AM,GONDOS LES,CA,Legacy,,BLACK,New,,0.00,,,,0.00,TEAM,See OrderNotes,,,,No,"3years Parts, 3years Labor",Delivered
7/22/2017 12:00:00 AM,SERVICES MILLWORK,TX,Relax2Zero 2.0,,DEMO BLACK,New,,0.00,,,,3500.00,TEAM,See OrderNotes,,,,No,"3years Parts, 3years Labor",Delivered
7/22/2017 12:00:00 AM,ROJUS MIRIAM,CA,Legacy,,DEMO BLACK,New,,0.00,,,,3600.00,TEAM,See OrderNotes,,,,No,"3 years parts, 1 year labor ",Delivered
7/22/2017 12:00:00 AM,WASHBURN WILLIAM,CA,Legacy,,,New,,0.00,,,,4000.00,TEAM,See OrderNotes,,,,No,"3years Parts, 3years Labor",Delivered
7/22/2017 12:00:00 AM,DE OCAMPO MARIO,NV,Legacy 3D,,,New,,0.00,,,,4000.00,TEAM,See OrderNotes,,,,No,"3years Parts, 3years Labor",Delivered
6/25/2017 12:00:00 AM,DIANE DIAZ DE LEON,TX,DAIWA LEGACY 3D,,BLACK,New,,0.00,,,,4500.00,DAVID/ TEAM,See OrderNotes,,,,No,"3 years parts, 1 year labor ",Delivered
6/24/2017 12:00:00 AM,TOM WYNNSON,CA,DAIWA LEGACY 3D,,BLACK,New,,0.00,,,,4000.00,TEAM,See OrderNotes,,,,No,"3 years parts, 1 year labor ",Delivered
6/25/2017 12:00:00 AM,BRYANT BAXTER,UT,RELAX 2 ZERO 3D,,BLACK,New,,0.00,,,,3700.00,TEAM,See OrderNotes,,,,No,"3 years parts, 1 year labor ",Delivered
6/24/2017 12:00:00 AM,LEE GALE,CA,RELAX 2 ZERO 3D,,BLACK,New,,0.00,,,,4866.75,TEAM,See OrderNotes,,,,No,"3 years parts, 1 year labor ",Delivered
6/25/2017 12:00:00 AM,LUCIA BAGHERNYAD,TX,DAIWA LEGACY 3D,,DEMO BLACK,New,,0.00,,,,3700.00,TEAM,See OrderNotes,,,,No,"3 years parts, 1 year labor ",Delivered
6/25/2017 12:00:00 AM,JON TRUESDELL,MN,RELAX 2 ZERO 3D,,BLACK,New,,0.00,,,,4500.00,,See OrderNotes,,,,No,"3 years parts, 1 year labor ",Delivered
6/25/2017 12:00:00 AM,SUMMER BROWN,HI,DAIWA LEGACY 3D,,CHOCO,New,,0.00,,,,4866.75,,See OrderNotes,,,,No,"3 years parts, 1 year labor ",Delivered
6/26/2017 12:00:00 AM,NIKI KINOSHITA,HI,DAIWA LEGACY 3D,,BLACK,New,,0.00,,,,4866.75,,See OrderNotes,,,,No,"3 years parts, 1 year labor ",Delivered
6/26/2017 12:00:00 AM,KYLA VANDERWALL,NJ,RELAX 2 ZERO 3D,,BLACK,New,,0.00,,,,4500.00,,See OrderNotes,,,,No,"3 years parts, 1 year labor ",Delivered
6/25/2017 12:00:00 AM,ARMANDO GONZALEZ,NV,DAIWA LEGACY 3D,,CHOCO,New,,0.00,,,,4000.00,,See OrderNotes,,,,No,"3 years parts, 1 year labor ",Delivered
6/26/2017 12:00:00 AM,HEATHER TACKETT,TN,,,BLACK,New,,0.00,,,,9000.00,,See OrderNotes,,,,No,"3 years parts, 1 year labor ",Delivered
6/26/2017 12:00:00 AM,STEVIE ABRUSCI,NV,DAIWA LEGACY 3D,,DEMO BLACK,New,,0.00,,,,4326.00,TEAM,See OrderNotes,,,,No,"3 years parts, 1 year labor ",Delivered
6/25/2017 12:00:00 AM,RODERICK GUTIERREZ,CA,DAIWA LEGACY 3D,,BLACK,New,,0.00,,,,4000.00,,See OrderNotes,,,,No,"3 years parts, 1 year labor ",Delivered
6/26/2017 12:00:00 AM,CINDY CALLAHAN,WA,DAIWA LEGACY 3D,,BLACK,New,,0.00,,,,4000.00,,See OrderNotes,,,,No,"3 years parts, 1 year labor ",Delivered
6/26/2017 12:00:00 AM,SILIYAN KARAPET,CA,RELAX 2 ZERO 3D,,BLACK,New,,0.00,,,,4500.00,TEAM,See OrderNotes,,,,No,"3 years parts, 1 year labor ",Delivered
6/26/2017 12:00:00 AM,ELLIE HOOSHMANDAN,CA,RELAX 2 ZERO 3D,,BLACK,New,,0.00,,,,4000.00,,See OrderNotes,,,,No,"3 years parts, 1 year labor ",Delivered
7/17/2017 12:00:00 AM,LAYSON MARITES/ROLANDO,NV,Legacy,,BLACK,New,,0.00,,,,4000.00,ROLLY,See OrderNotes,,,,No,"3 years parts, 1 year labor ",Delivered
7/14/2017 12:00:00 AM,CHAVEZ RENATO,NV,Legacy,,DEMO CHOCO,New,,0.00,,,,3677.00,ROLLY,See OrderNotes,,,,No,"3 years parts, 1 year labor ",Delivered
7/16/2017 12:00:00 AM,ANTONIO PAZ DI,NV,Legacy,,BLUE,New,,0.00,,,,3677.00,ROLLY,See OrderNotes,,,,No,"3 years parts, 1 year labor ",Delivered
7/15/2017 12:00:00 AM,DELACRUZ ZENAIDA,NV,Legacy,,BLACK,New,,0.00,,,,3677.00,ROLLY,See OrderNotes,,,,No,"3 years parts, 1 year labor ",Delivered
7/24/2017 12:00:00 AM,SPANN CARLA,TX,Relax2Zero 3D,,DEMO BROWN,New,,0.00,,,,3500.00,MARIO,See OrderNotes,,,,No,"3 years parts, 1 year labor ",Delivered
7/30/2017 12:00:00 AM,KNORR JERRY & KORA,AZ,Legacy 3D,,BLACK,New,,0.00,,,,4500.00,TEAM,See OrderNotes,,,,No,"3 years parts, 1 year labor ",Delivered
7/16/2017 12:00:00 AM,QUIGLEY MICHAEL,AZ,Relax2Zero 3D,,DEMO CHOCO,New,,0.00,,,,4699.80,TEAM,See OrderNotes,,,,No,"3 years parts, 1 year labor ",Delivered
7/14/2017 12:00:00 AM,KALTER JAY,AZ,Relax2Zero 3D,,BLACK,New,,0.00,,,,5321.40,TEAM,See OrderNotes,,,,No,"3 years parts, 1 year labor ",Delivered
7/14/2017 12:00:00 AM,WHITE TAKAKO,AZ,Relax2Zero 3D,,CHOCO,New,,0.00,,,,3800.00,TEAM,See OrderNotes,,,,No,"3 years parts, 1 year labor ",Delivered
7/14/2017 12:00:00 AM,ABNER ARABIA,AZ,Relax2Zero 3D,,CHOCO,New,,0.00,,,,5321.40,TEAM,See OrderNotes,,,,No,"3 years parts, 1 year labor ",Delivered
7/15/2017 12:00:00 AM,DICENZI TRACY,AZ,Relax2Zero 3D,,DEMO BLACK,New,,0.00,,,,3800.00,TEAM,See OrderNotes,,,,No,"3 years parts, 1 year labor ",Delivered
7/16/2017 12:00:00 AM,WIRICH JACK,SD,Relax2Zero 3D,,BLACK,New,,0.00,,,,5321.40,TEAM,See OrderNotes,,,,No,"3 years parts, 1 year labor ",Delivered
7/19/2017 12:00:00 AM,GALVAN NICOLE,TX,Legacy,,CHOCO,New,,0.00,,,,4000.00,TEAM,See OrderNotes,,,,No,"3years Parts, 3years Labor",Delivered
7/19/2017 12:00:00 AM,RUSCONI DOREEN,CA,Pegasus,,DEMO BROWN,New,,0.00,,,,5387.50,KOHEI,See OrderNotes,,,,No,"3 years parts, 1 year labor ",Delivered
7/20/2017 12:00:00 AM,CLEUR GARY,CA,Legacy 3D,,DEMO BLACK,New,,0.00,,,,4300.00,KOHEI,See OrderNotes,,,,No,"3 years parts, 1 year labor ",Delivered
7/21/2017 12:00:00 AM,SPEER MEAGAN,CA,Legacy 3D,,BROWN,New,,0.00,,,,4800.00,TEAM,See OrderNotes,,,,No,"3 years parts, 1 year labor ",Delivered
7/22/2017 12:00:00 AM,BOGARDUS LILA JEAN,CA,Relax2Zero 3D,,BLACK,New,,0.00,,,,5172.00,TEAM,See OrderNotes,,,,No,"3 years parts, 1 year labor ",Delivered
7/22/2017 12:00:00 AM,DAVIS BRET R.,CA,Relax2Zero,,BLACK,New,,0.00,,,,3500.00,TEAM,See OrderNotes,,,,No,"3 years parts, 1 year labor ",Delivered
7/23/2017 12:00:00 AM,SMITH PATRICIA,CA,Relax2Zero 3D,,BROWN,New,,0.00,,,,5172.00,TEAM,See OrderNotes,,,,No,"3 years parts, 1 year labor ",Delivered
7/29/2017 12:00:00 AM,HIGH STEVE S.,CA,Legacy 3D,,BROWN,New,,0.00,,,,4800.00,KOHEI,See OrderNotes,,,,No,"3 years parts, 1 year labor ",Delivered
7/24/2017 12:00:00 AM,SMITH GREGORY,CA,Relax2Zero 3D,,DEMO BLACK,New,,0.00,,,,4310.00,TEAM,See OrderNotes,,,,No,"3 years parts, 1 year labor ",Delivered
7/24/2017 12:00:00 AM,DURAN NANCY,CA,Relax2Zero 3D,,DEMO BROWN,New,,0.00,,,,4300.00,KOHEI,See OrderNotes,,,,No,"3 years parts, 1 year labor ",Delivered
7/24/2017 12:00:00 AM,RACCA JOCELYN,CA,Relax2Zero 3D,,BROWN,New,,0.00,,,,4800.00,KOHEI,See OrderNotes,,,,No,"3years Parts, 3years Labor",Delivered
7/11/2017 12:00:00 AM,LAMAR SCOT,FL,Relax2Zero 3D,,CHOCO,New,,0.00,,,,4990.00,TEAM,See OrderNotes,,,,No,"3years Parts, 3years Labor",Delivered
7/11/2017 12:00:00 AM,ANDERSON KARL,CA,Relax2Zero 3D,,CHOCO,New,,0.00,,,,4990.00,TEAM,See OrderNotes,,,,No,"3years Parts, 3years Labor",Delivered
7/11/2017 12:00:00 AM,ROSADO JOSUE,CA,Legacy 3D,,DEMO BLACK,New,,0.00,,,,4400.00,TEAM,See OrderNotes,,,,No,"3 years parts, 1 year labor ",Delivered
7/11/2017 12:00:00 AM,HUANG LIN,CA,Relax2Zero 3D,,BLACK,New,,0.00,,,,4990.00,TEAM,See OrderNotes,,,,No,"3 years parts, 1 year labor ",Delivered
7/12/2017 12:00:00 AM,GRUMBER CINDY,NJ,Relax2Zero 3D,,BLACK,New,,0.00,,,,4600.00,TEAM,See OrderNotes,,,,No,"3 years parts, 1 year labor ",Delivered
6/27/2017 12:00:00 AM,CODY SNIDER,NY,SERENITY,,BLACK,New,,0.00,,,,4088.80,TEAM,See OrderNotes,,,,No,"3 years parts, 1 year labor ",Delivered
6/27/2017 12:00:00 AM,BART DIDDEN,NY,RELAX 2 ZERO 3D,,BLACK,New,,0.00,,,,4900.00,TEAM,See OrderNotes,,,,No,"3 years parts, 1 year labor ",Delivered
6/25/2017 12:00:00 AM,ELIZABETH FALCON,IL,SERENITY,,BLACK,New,,0.00,,,,3800.00,DAVID W.,See OrderNotes,,,,No,"3 years parts, 1 year labor ",Delivered
6/27/2017 12:00:00 AM,BUTCH CONWAY,GA,RELAX 2 ZERO 3D,,BROWN,New,,0.00,,,,5096.00,TEAM,See OrderNotes,,,,No,"3 years parts, 1 year labor ",Delivered
7/12/2017 12:00:00 AM,TSANG STEPHEN,CA,Legacy 3D,,BLACK,New,,0.00,,,,4200.00,TEAM,See OrderNotes,,,,No,"3 years parts, 1 year labor ",Delivered
7/13/2017 12:00:00 AM,ESPINOZA OSCAR,CA,Relax2Zero 3D,,CHOCO,New,,0.00,,,,4200.00,TEAM,See OrderNotes,,,,No,"3 years parts, 1 year labor ",Delivered
7/13/2017 12:00:00 AM,DANNER JOHN HENRY,CA,Relax2Zero 3D,,BLACK,New,,0.00,,,,4200.00,TEAM,See OrderNotes,,,,No,"3 years parts, 1 year labor ",Delivered
7/13/2017 12:00:00 AM,DILLER DAVID,CA,Legacy 3D,,BLACK,New,,0.00,,,,4400.00,TEAM,See OrderNotes,,,,No,"3 years parts, 1 year labor ",Delivered
7/13/2017 12:00:00 AM,CHANG YOUNGHWA,CA,Legacy 3D,,BLACK,New,,0.00,,,,4400.00,TEAM,See OrderNotes,,,,No,"3 years parts, 1 year labor ",Delivered
7/13/2017 12:00:00 AM,YING XIU XIAN,CA,Legacy 3D,,DEMO BLACK,New,,0.00,,,,3200.00,TEAM,See OrderNotes,,,,No,"3 years parts, 1 year labor ",Delivered
7/24/2017 12:00:00 AM,GOBLER CAROL,CA,Legacy 3D,,BROWN,New,,0.00,,,,5172.00,KOHEI,See OrderNotes,,,,No,"3 years parts, 1 year labor ",Delivered
7/27/2017 12:00:00 AM,GAMBRIL RICK,CA,Legacy 3D,,DEMO BLACK,New,,0.00,,,,4633.25,KOHEI,See OrderNotes,,,,No,"3 years parts, 1 year labor ",Delivered
7/29/2017 12:00:00 AM,SMITH JUANITA,CA,Relax2Zero 3D,,BLACK,New,,0.00,,,,5172.00,MICHAEL C.,See OrderNotes,,,,No,"3 years parts, 1 year labor ",Delivered
7/29/2017 12:00:00 AM,GRENCIUS NORM,CA,Relax2Zero,,DEMO BROWN,New,,0.00,,,,3232.50,KOHEI,See OrderNotes,,,,No,"3 years parts, 1 year labor ",Delivered
7/29/2017 12:00:00 AM,TORRES RODOLFO B.,CA,Relax2Zero 3D,,DEMO BROWN,New,,0.00,,,,4000.00,KOHEI,See OrderNotes,,,,No,"3 years parts, 1 year labor ",Delivered
7/24/2017 12:00:00 AM,PAPP RICK,OH,Legacy 3D,,CHOCO,New,,0.00,,,,4200.00,TEAM,See OrderNotes,,,,No,"3years Parts, 3years Labor",Delivered
7/24/2017 12:00:00 AM,MAROHN MATT,MN,Legacy,,BEIGE,New,,0.00,,,,4200.00,TEAM,See OrderNotes,,,,No,"3years Parts, 3years Labor",Delivered
7/24/2017 12:00:00 AM,TARTABINI RAY,OH,Legacy 3D,,CHOCO,New,,0.00,,,,4500.00,TEAM,See OrderNotes,,,,No,"3years Parts, 3years Labor",Delivered
7/24/2017 12:00:00 AM,EATON STEVE,OK,Legacy 3D,,CHOCO,New,,0.00,,,,4200.00,TEAM,See OrderNotes,,,,No,"3years Parts, 3years Labor",Delivered
7/24/2017 12:00:00 AM,HUTCHINSON MATTHEW,IA,Legacy,,CHOCO,New,,0.00,,,,4200.00,TEAM,See OrderNotes,,,,No,"3years Parts, 3years Labor",Delivered
7/24/2017 12:00:00 AM,KULAGA CAROL,WI,Legacy,,BEIGE,New,,0.00,,,,4200.00,TEAM,See OrderNotes,,,,No,"3years Parts, 3years Labor",Delivered
7/26/2017 12:00:00 AM,WELCH TROY,TX,Legacy,,BLACK,New,,0.00,,,,4200.00,TEAM,See OrderNotes,,,,No,"3years Parts, 3years Labor",Delivered
7/26/2017 12:00:00 AM,COREN STEVEN,PA,Legacy,,BLACK,New,,0.00,,,,4000.00,TEAM,See OrderNotes,,,,No,"3years Parts, 3years Labor",Delivered
7/25/2017 12:00:00 AM,CLANCY MARK,MI,Legacy,,BLACK,New,,0.00,,,,4000.00,TEAM,See OrderNotes,,,,No,"3years Parts, 3years Labor",Delivered
7/25/2017 12:00:00 AM,SWEET MURRAY,ONTARIO,Legacy,,CHOCO,New,,0.00,,,,3500.00,TEAM,See OrderNotes,,,,No,"3 years parts, 1 year labor ",Delivered
7/26/2017 12:00:00 AM,MCCASLAND BRENT,TX,Legacy,,CHOCO,New,,0.00,,,,4500.00,TEAM,See OrderNotes,,,,No,"3years Parts, 3years Labor",Delivered
7/24/2017 12:00:00 AM,MALLETT SUSAN,AL,Legacy,,BEIGE,New,,0.00,,,,3500.00,TEAM,See OrderNotes,,,,No,"3years Parts, 3years Labor",Delivered
7/25/2017 12:00:00 AM,GOSMAN JOHN,KY,Legacy,,BLACK,New,,0.00,,,,4200.00,TEAM,See OrderNotes,,,,No,"3years Parts, 3years Labor",Delivered
7/26/2017 12:00:00 AM,ALBANY TONY,AZ,Legacy 3D,,CHOCO,New,,0.00,,,,4000.00,TEAM,See OrderNotes,,,,No,"3years Parts, 3years Labor",Delivered
7/29/2017 12:00:00 AM,MCKELVEY JIM,MO,Legacy,,BLACK,New,,0.00,,,,3900.00,TEAM,See OrderNotes,,,,No,"3years Parts, 3years Labor",Delivered
7/29/2017 12:00:00 AM,FLEMING TRACY,WI,Legacy,,BLACK,New,,0.00,,,,3900.00,TEAM,See OrderNotes,,,,No,"3years Parts, 3years Labor",Delivered
7/29/2017 12:00:00 AM,CHACON MICHAEL A,TX,Legacy,,BEIGE,New,,0.00,,,,3500.00,TEAM,See OrderNotes,,,,No,"3years Parts, 3years Labor",Delivered
7/26/2017 12:00:00 AM,ELLIOT JAMES,NC,Legacy,,DEMO BLACK,New,,0.00,,,,3700.00,TEAM,See OrderNotes,,,,No,"3years Parts, 3years Labor",Delivered
7/29/2017 12:00:00 AM,TIMMONS LLOYD JAMES,TX,Legacy,,CHOCO,New,,0.00,,,,4000.00,TEAM,See OrderNotes,,,,No,"3years Parts, 3years Labor",Delivered
7/27/2017 12:00:00 AM,KIRK KENNETH,IA,Legacy,,SIENNA,New,,0.00,,,,4200.00,TEAM,See OrderNotes,,,,No,"3years Parts, 3years Labor",Delivered
7/28/2017 12:00:00 AM,LUEDEKE ART,WI,Legacy,,CHOCO,New,,0.00,,,,0.00,TEAM,See OrderNotes,,,,No,"3years Parts, 3years Labor",Delivered
7/27/2017 12:00:00 AM,ONETO RUDY,CA,Legacy,,CHOCO,New,,0.00,,,,8000.00,TEAM,See OrderNotes,,,,No,"3 years parts, 1 year labor ",Delivered
7/27/2017 12:00:00 AM, NESTER FALLS FLY-IN OUTPOSTS,,Legacy,,,New,,0.00,,,,4200.00,TEAM,See OrderNotes,,,,No,"3 years parts, 1 year labor ",Delivered
7/27/2017 12:00:00 AM,MILLER MIKE,WI,Legacy,,CHOCO,New,,0.00,,,,4200.00,TEAM,See OrderNotes,,,,No,"3years Parts, 3years Labor",Delivered
7/29/2017 12:00:00 AM,DEER NANCY,CA,Legacy,,SIENNA,New,,0.00,,,,4000.00,TEAM,See OrderNotes,,,,No,"3years Parts, 3years Labor",Delivered
7/30/2017 12:00:00 AM,CHRISTOFFERSON TIM,UT,Legacy,,BLACK,New,,0.00,,,,3600.00,TEAM,See OrderNotes,,,,No,"3years Parts, 3years Labor",Delivered
7/29/2017 12:00:00 AM,RIDGEWAY JASON,IL,Legacy,,CHOCO,New,,0.00,,,,3900.00,TEAM,See OrderNotes,,,,No,"3years Parts, 3years Labor",Delivered
7/30/2017 12:00:00 AM,COZIK KEVIN,IN,Legacy,,BLACK,New,,0.00,,,,3500.00,TEAM,See OrderNotes,,,,No,"3years Parts, 3years Labor",Delivered
7/30/2017 12:00:00 AM,SPENCER BURT,IL,Legacy,,BLACK,New,,0.00,,,,3900.00,TEAM,See OrderNotes,,,,No,"3years Parts, 3years Labor",Delivered
7/29/2017 12:00:00 AM,PRYBYLIRSKI MICHAEL THOMAS,NC,Pegasus,,CHOCO,New,,0.00,,,,5300.00,TEAM,See OrderNotes,,,,No,"3years Parts, 3years Labor",Delivered
7/29/2017 12:00:00 AM,BASIAGO JACK,PA,Legacy,,DEMO CHOCO,New,,0.00,,,,0.00,TEAM,See OrderNotes,,,,No,"3years Parts, 3years Labor",Delivered
7/24/2017 12:00:00 AM,EDWARDS JEFFREY,FL,Relax2Zero 3D,,BLACK,New,,0.00,,,,3900.00,TEAM,See OrderNotes,,,,No,"3years Parts, 3years Labor",Delivered
7/27/2017 12:00:00 AM,(JULLIE SMITH) AIH COMPLEMENTARY MEDICINE,IL,Relax2Zero 3D,,BROWN,New,,0.00,,,,4500.00,TEAM,See OrderNotes,,,,No,"3years Parts, 3years Labor",Delivered
7/24/2017 12:00:00 AM,ROCK WINSTON,WI,Relax2Zero 3D,,DEMO BLACK,New,,0.00,,,,7600.00,TEAM,See OrderNotes,,,,No,"3years Parts, 3years Labor",Delivered
7/22/2017 12:00:00 AM,THOMAS KENNETH,CA,Relax2Zero 3D,,BROWN,New,,0.00,,,,4715.00,"ROD, RUBEN, ROLLY",See OrderNotes,,,,No,"3years Parts, 3years Labor",Delivered
7/25/2017 12:00:00 AM,SOMBKE DEAN,NE,Relax2Zero 3D,,DEMO BROWN,New,,0.00,,,,3700.00,TEAM,See OrderNotes,,,,No,"3years Parts, 3years Labor",Delivered
7/25/2017 12:00:00 AM,COLVIN JAIME,,Relax2Zero 3D,,BROWN,New,,0.00,,,,4200.00,TEAM,See OrderNotes,,,,No,"3 years parts, 1 year labor ",Delivered
7/25/2017 12:00:00 AM,CHARLEI VINCENT,LA,Relax2Zero 3D,,BROWN,New,,0.00,,,,4500.00,TEAM,See OrderNotes,,,,No,"3years Parts, 3years Labor",Delivered
7/25/2017 12:00:00 AM,FRYER MILLIAM R.,OH,Pegasus,,BLACK,New,,0.00,,,,5500.00,TEAM,See OrderNotes,,,,No,"3years Parts, 3years Labor",Delivered
7/25/2017 12:00:00 AM,LITTLETON CHERYL,AZ,Relax2Zero 2.0,,BROWN,New,,0.00,,,,3700.00,TEAM,See OrderNotes,,,,No,"3years Parts, 3years Labor",Delivered
7/27/2017 12:00:00 AM,ZORN MERRILL S.,NY,Relax2Zero 3D,,BROWN,New,,0.00,,,,4500.00,TEAM,See OrderNotes,,,,No,"3years Parts, 3years Labor",Delivered
7/27/2017 12:00:00 AM,NEISINGH ORVILLE & SHEILA,MO,Relax2Zero 3D,,BLACK,New,,0.00,,,,4000.00,TEAM,See OrderNotes,,,,No,"3years Parts, 3years Labor",Delivered
7/28/2017 12:00:00 AM,SEGIEDA ART,IL,Relax2Zero 3D,,BROWN,New,,0.00,,,,4000.00,TEAM,See OrderNotes,,,,No,"3years Parts, 3years Labor",Delivered
7/29/2017 12:00:00 AM,JACKSON ZAUNDRA,TX,Relax2Zero 3D,,BROWN,New,,0.00,,,,4500.00,TEAM,See OrderNotes,,,,No,"3years Parts, 3years Labor",Delivered
7/29/2017 12:00:00 AM,CHASE DOMINIQUE,IL,Relax2Zero 3D,,CHOCO,New,,0.00,,,,4500.00,TEAM,See OrderNotes,,,,No,"3years Parts, 3years Labor",Delivered
7/29/2017 12:00:00 AM,LOCKHART JOHN,AZ,Relax2Zero 3D,,BLACK,New,,0.00,,,,4200.00,TEAM,See OrderNotes,,,,No,"3 years parts, 1 year labor ",Delivered
7/28/2017 12:00:00 AM,PATER SUNIL,ONTARIO,Relax2Zero 3D,,BROWN,New,,0.00,,,,4300.00,TEAM,See OrderNotes,,,,No,"3 years parts, 1 year labor ",Delivered
7/28/2017 12:00:00 AM,MOORE RUSSEL,TX,Relax2Zero 3D,,BLACK,New,,0.00,,,,4500.00,TEAM,See OrderNotes,,,,No,"3years Parts, 3years Labor",Delivered
7/29/2017 12:00:00 AM,TIMM ANN,MI,Legacy,,BLACK,New,,0.00,,,,4420.00,TEAM,See OrderNotes,,,,No,"3years Parts, 3years Labor",Delivered
7/29/2017 12:00:00 AM,FOSTER RICK,ONTARIO,Relax2Zero 3D,,BROWN,New,,0.00,,,,4500.00,TEAM,See OrderNotes,,,,No,"3 years parts, 1 year labor ",Delivered
7/30/2017 12:00:00 AM,FITZPATRICK TIM,OH,Relax2Zero 3D,,BLACK,New,,0.00,,,,4500.00,TEAM,See OrderNotes,,,,No,"3years Parts, 3years Labor",Delivered
7/30/2017 12:00:00 AM,ROCK TINA,WI,Relax2Zero 3D,,BLACK,New,,0.00,,,,3800.00,TEAM,See OrderNotes,,,,No,"3years Parts, 3years Labor",Delivered
7/30/2017 12:00:00 AM,DOMBROSH FRANTZ,NJ,Relax2Zero 3D,,BLACK,New,,0.00,,,,4000.00,TEAM,See OrderNotes,,,,No,"3years Parts, 3years Labor",Delivered
7/30/2017 12:00:00 AM,PERMAN MICHAEL,FL,Relax2Zero 3D,,,New,,0.00,,,,4100.00,TEAM,See OrderNotes,,,,No,"3years Parts, 3years Labor",Delivered
6/21/2017 10:28:39 PM,DANIEL PARK,NY,DAIWA LEGACY,DWA-9100DWA-9100BL,Black,New,,612.50,,,,7962.50,Kaz Ohashi,Cash,,,7/11/2017 12:00:00 AM,No,"3 years parts, 1 year labor ($150)",Delivered
6/21/2017 10:28:39 PM,DANIEL PARK,NY,DAIWA LEGACY,DWA-9100DWA-9100BU,Blue,New,,612.50,,,,7962.50,Kaz Ohashi,Cash,,,7/11/2017 12:00:00 AM,No,"3 years parts, 1 year labor ($150)",Delivered
6/27/2017 4:14:49 PM,HILARY QUATINETZ,CA,Daiwa Legacy,DWA-9100DWA-9100CH,Chocolate,New,,292.50,,,,3892.50,Kaz Ohashi,Synchrony,,,6/30/2017 12:00:00 AM,No,"3 years parts, 1 year labor",Delivered
6/29/2017 6:19:48 PM,Kaz Ohashi,CA,Serenity,DWA-8000DWA-8000-BR,Choco Brown,New,,360.00,,,,4710.00,Kaz Ohashi,Cash,,,,No,"3 years parts, 2 year labor ($200)",Dispatched / Shipped
6/29/2017 6:19:48 PM,Kaz Ohashi,CA,Daiwa Blanket,,,New,,360.00,,,,4710.00,Kaz Ohashi,Cash,,,,No,no warranty,Dispatched / Shipped
6/29/2017 6:19:48 PM,Kaz Ohashi,CA,Chair Pad for Majesty,,,New,,360.00,,,,4710.00,Kaz Ohashi,Cash,,,,No,no warranty,Dispatched / Shipped
6/29/2017 6:19:48 PM,Kaz Ohashi,CA,Foot Pads for Serenity,,,New,,360.00,,,,4710.00,Kaz Ohashi,Cash,,,,No,no warranty,Dispatched / Shipped
6/29/2017 6:19:48 PM,Kaz Ohashi,CA,Tourmaline Pad for Serenity,,,New,,360.00,,,,4710.00,Kaz Ohashi,Cash,,,,No,no warranty,Dispatched / Shipped
7/10/2017 5:02:35 AM,Kiyoshi Suruki,CA,Legacy 3D,USJ-9150USJ-9150BL,Black,New,,291.38,,,,4191.38,Kaz Ohashi,COD,,,8/26/2017 12:00:00 AM,No,"3 years parts, 1 year labor",Delivered
7/10/2017 5:18:06 AM,Satoshi Kamiya,CA,Legacy,DWA-9100DWA-9100CH,Choco Brown,New,,156.33,,,,2796.33,Kaz Ohashi,COD,,,7/21/2017 12:00:00 AM,No,"3 years parts, 1 year labor",Delivered
7/10/2017 5:30:12 AM,Kyoko Otani,CA,Majesty,DWA-8000DWA-8000-BR,Choco Brown,New,,206.28,,,,3186.28,Kaz Ohashi,COD,,,7/31/2017 12:00:00 AM,No,"3 years parts, 1 year labor",Delivered
7/10/2017 5:30:12 AM,Kyoko Otani,CA,Tourmaline Pad for Serenity,,,New,,206.28,,,,3186.28,Kaz Ohashi,COD,,,7/31/2017 12:00:00 AM,No,no warranty,Delivered
7/17/2017 5:04:24 PM,Ellie Hooshmandan,CA,Relax2Zero 3D,DWA-9060USJ-9060BL,Black,New,,274.73,,,,3994.73,Rodrigo Malabunga,CreditCard,,,,No,"3 years parts, 1 year labor",Hold
7/20/2017 10:31:32 PM,test test,CA,Legacy,DWA-9100DWA-9100SI-DEMO,Demo Sienna Brown,New,,1480.00,,,,18430.00,Ana Barrera,Cash,,,8/10/2017 12:00:00 AM,No,"3 years parts, 1 year labor",Delivered
7/20/2017 10:31:32 PM,test test,CA,Legacy,DWA-9100DWA-9100BL,Black,New,,1480.00,,,,18430.00,Ana Barrera,Cash,,,8/10/2017 12:00:00 AM,No,no warranty,Delivered
8/7/2017 11:58:39 PM,SEONGSIK KIM,NY,Legacy,DWA-9100DWA-9100BL,Black,New,,259.00,,,,3809.00,Kaz Ohashi,CreditCard,,,,No,"3 years parts, 1 year labor (Free)",Delivered
8/9/2017 7:53:55 PM,Cynthia Susser,CO,Legacy for Sam's,DWA-9100DWA-9100BL-DEMO,Demo Black,New,,225.07,,,,3824.07,Tom Nguyen,CreditCard,,,8/13/2017 12:00:00 AM,No,"3 years parts, 1 year labor (Free)",Delivered
8/9/2017 8:39:46 PM,Atulkymar Amin,CO,Legacy for Sam's,DWA-9100DWA-9100CH-DEMO,Demo Choco,New,,225.07,,,,3824.07,Tom Nguyen,CreditCard,,,8/14/2017 12:00:00 AM,No,"3 years parts, 1 year labor (Free)",Delivered
8/9/2017 9:13:21 PM,Kelly Lyons,FL,Legacy for Sam's,DWA-9100DWA-9100SB-DEMO,Demo Sienna Brown,New,,185.19,,,,3784.19,Michael Cuatrona,CreditCard,,,8/18/2017 12:00:00 AM,No,"3 years parts, 1 year labor (Free)",Delivered
8/9/2017 9:28:46 PM,Dharmen Patel,FL,Legacy for Sam's,DWA-9100DWA-9100BL,Black,New,,230.69,,,,4529.69,Tom Nguyen,CreditCard,,,8/10/2017 12:00:00 AM,No,"3 years parts, 2 years labor ($200)",Delivered
8/9/2017 9:33:07 PM,Scott Akins Kim,FL,Legacy for Sam's,DWA-9100DWA-9100CH,Choco,New,,230.69,,,,4529.69,Michael Cuatrona,CreditCard,,,8/10/2017 12:00:00 AM,No,"3 years parts, 1 year labor (Free)",Delivered
8/9/2017 9:42:15 PM,Timothy D Lamonda,CO,Legacy for Sam's,DWA-9100DWA-9100CH-DEMO,Demo Choco,New,,225.07,,,,3824.07,Tom Nguyen,CreditCard,,,8/13/2017 12:00:00 AM,No,"3 years parts, 1 year labor (Free)",Delivered
8/9/2017 11:25:42 PM,Marc Zayas,TX,Relax2Zero 2.0 for Sam's,USJ-9050USJ-9050BL-DEMO,Demo Black,New,,202.04,,,,3401.04,Michael Wang,CreditCard,,,8/16/2017 12:00:00 AM,No,"3 years parts, 1 year labor (Free)",Delivered
8/9/2017 11:25:42 PM,Marc Zayas,TX,Chair Pad for Relax2Zero 2.0,,,New,,202.04,,,,3401.04,Michael Wang,CreditCard,,,8/16/2017 12:00:00 AM,No,no warranty,Delivered
8/9/2017 11:25:42 PM,Marc Zayas,TX,Daiwa Blanket,,,New,,202.04,,,,3401.04,Michael Wang,CreditCard,,,8/16/2017 12:00:00 AM,No,no warranty,Delivered
8/10/2017 12:28:40 AM,Theodore Kazmer,CO,Legacy for Sam's,DWA-9100DWA-9100CH-DEMO,Demo Choco,New,,293.32,,,,3892.32,Keith Kei,CreditCard,,,,No,"3 years parts, 1 year labor (Free)",Cancelled
8/10/2017 12:38:36 AM,Fred Linneman,CO,Legacy for Sam's,DWA-9100DWA-9100BL-DEMO,Demo Blue,New,,293.32,,,,3892.32,Keith Kei,CreditCard,,,9/2/2017 12:00:00 AM,No,"3 years parts, 1 year labor (Free)",Delivered
8/10/2017 12:55:19 AM,Todd Collman,TX,Legacy for Sam's,DWA-9100DWA-9100BG-DEMO,Demo Beige,New,,296.92,,,,3895.92,Gary Cyrlin,CreditCard,,,8/16/2017 12:00:00 AM,No,"3 years parts, 1 year labor (Free)",Delivered
8/10/2017 12:55:19 AM,Todd Collman,TX,Chair Pad for Lagacy,,,New,,296.92,,,,3895.92,Gary Cyrlin,CreditCard,,,8/16/2017 12:00:00 AM,No,no warranty,Delivered
8/10/2017 12:55:19 AM,Todd Collman,TX,Daiwa Blanket,,,New,,296.92,,,,3895.92,Gary Cyrlin,CreditCard,,,8/16/2017 12:00:00 AM,No,no warranty,Delivered
8/10/2017 1:12:27 AM,Evelyn Crump,TN,Legacy for Sam's,DWA-9100DWA-9100CH,Choco,New,,419.15,,,,4718.15,phuoc Van,CreditCard,,,8/13/2017 12:00:00 AM,No,"3 years parts, 1 year labor (Free)",Delivered
8/10/2017 1:12:27 AM,Evelyn Crump,TN,Chair Pad for Lagacy,,,New,,419.15,,,,4718.15,phuoc Van,CreditCard,,,8/13/2017 12:00:00 AM,No,no warranty,Delivered
8/10/2017 1:18:38 AM,Rex Bobbitt,TN,Legacy for Sam's,DWA-9100DWA-9100SB,Sienna Brown,New,,419.15,,,,4718.15,phuoc Van,CreditCard,,,8/13/2017 12:00:00 AM,No,"3 years parts, 1 year labor (Free)",Delivered
8/10/2017 1:18:38 AM,Rex Bobbitt,TN,Chair Pad for Lagacy,,,New,,419.15,,,,4718.15,phuoc Van,CreditCard,,,8/13/2017 12:00:00 AM,No,no warranty,Delivered
8/10/2017 1:37:45 AM,Kamal Mohammed,FL,Legacy for Sam's,DWA-9100DWA-9100CH-DEMO,Demo Choco,New,,233.94,,,,3832.94,Michael Cuatrona,CreditCard,,,,No,"3 years parts, 1 year labor (Free)",Dispatched / Shipped
8/10/2017 1:42:16 AM,Kelly Powess,FL,Legacy for Sam's,DWA-9100DWA-9100BG-DEMO,Demo Beige,New,,233.94,,,,3832.94,Michael Cuatrona,CreditCard,,,8/18/2017 12:00:00 AM,No,"3 years parts, 1 year labor (Free)",Delivered
8/10/2017 1:53:21 AM,Joseph Brizzi,FL,Legacy for Sam's,DWA-9100DWA-9100CH,Choco,New,,233.94,,,,3832.94,Michael Cuatrona,CreditCard,,,8/18/2017 12:00:00 AM,No,"3 years parts, 1 year labor (Free)",Delivered
8/10/2017 4:38:31 PM,Thany Yu,FL,Relax2Zero 2.0 for Sam's,USJ-9050USJ-9050BL-DEMO,Demo Black,New,,223.93,,,,3422.93,Christopher Spina,CreditCard,,,8/10/2017 12:00:00 AM,No,"3 years parts, 1 year labor (Free)",Delivered
8/10/2017 4:47:55 PM,Corey Coberly,TN,Relax2Zero 2.0 for Sam's,USJ-9050USJ-9050BL,Black,New,,380.25,,,,4280.25,Phuoc Van,CreditCard,,,8/13/2017 12:00:00 AM,No,"3 years parts, 1 year labor (Free)",Delivered
8/10/2017 4:57:27 PM,Gloria W Cox,AA,Relax2Zero 2.0 for Sam's,USJ-9050USJ-9050BR,Brown,New,,380.25,,,,4280.25,Phuoc Van,CreditCard,,,8/14/2017 12:00:00 AM,No,"3 years parts, 1 year labor (Free)",Delivered
8/10/2017 5:26:18 PM,Terri Holt,CO,Legacy for Sam's,DWA-9100DWA-9100BL,Blue,New,,293.32,,,,3892.32,Keith Kei,CreditCard,,,8/13/2017 12:00:00 AM,No,"3 years parts, 1 year labor (Free)",Delivered
8/11/2017 1:12:42 AM,Micheal Man,CA,Legacy for Sam's,DWA-9100DWA-9100CH-DEMO,Demo Choco,New,,278.92,,,,3877.92,Kamille Krizzia,CreditCard,,,8/22/2017 12:00:00 AM,No,"3 years parts, 1 year labor (Free)",Delivered
8/11/2017 1:12:42 AM,Micheal Man,CA,Chair Pad for Lagacy,,,New,,278.92,,,,3877.92,Kamille Krizzia,CreditCard,,,8/22/2017 12:00:00 AM,No,no warranty,Delivered
8/11/2017 8:30:29 PM,Smita Gandhi,FL,Legacy for Sam's,DWA-9100DWA-9100BG-DEMO,Demo Beige,New,,233.94,,,,3832.94,Michael Cuatrona,CreditCard,,,8/18/2017 12:00:00 AM,No,"3 years parts, 1 year labor (Free)",Delivered
8/12/2017 7:14:18 PM,Joey Escalante,CA,Legacy for Sam's,DWA-9100DWA-9100SB-DEMO,Demo Sienna Brown,New,,220.80,,,,3819.80,Kohei Uno,CreditCard,,,,No,"3 years parts, 1 year labor (Free)",Dispatched / Shipped
8/12/2017 7:14:18 PM,Joey Escalante,CA,Chair Pad for Lagacy,,,New,,220.80,,,,3819.80,Kohei Uno,CreditCard,,,,No,no warranty,Dispatched / Shipped
8/12/2017 7:14:18 PM,Joey Escalante,CA,Daiwa Blanket,,,New,,220.80,,,,3819.80,Kohei Uno,CreditCard,,,,No,no warranty,Dispatched / Shipped
8/12/2017 7:14:18 PM,Joey Escalante,CA,Foot Pads for Lagacy,,,New,,220.80,,,,3819.80,Kohei Uno,CreditCard,,,,No,no warranty,Dispatched / Shipped
8/14/2017 6:24:39 PM,Thomas Ekelly,CA,Legacy for Sam's,DWA-9100DWA-9100BL-DEMO,Demo Black,New,,278.92,,,,3877.92,Kamille Gines,CreditCard,0.00,,8/13/2017 12:00:00 AM,No,"3 years parts, 1 year labor (Free)",Delivered
8/14/2017 6:42:44 PM,Jose Venegas,CA,Relax2Zero 2.0 for Sam's,USJ-9050USJ-9050BR,Brown,New,,247.92,,,,3446.92,Kamille Gines,CreditCard,0.00,,8/22/2017 12:00:00 AM,No,"3 years parts, 1 year labor (Free)",Delivered
8/14/2017 7:04:18 PM,Charles Richardson,TN,Vitality Plate,USJ-849USJ-849,New,New,,44.85,,,,504.84,Phuoc Van,CreditCard,0.00,,,No,"2 years parts, 1 year labor (Small Items)",Dispatched / Shipped
8/15/2017 2:12:05 AM,Tracy Beaver,TN,Legacy for Sam's,DWA-9100DWA-9100BL,Black,New,,419.15,,,,4718.15,Phuoc Van,CreditCard,0.00,,8/29/2017 12:00:00 AM,No,"3 years parts, 1 year labor (Free)",Delivered
8/16/2017 6:26:33 PM,Tammy Coleman,FL,Legacy for Sam's,DWA-9100DWA-9100SB-DEMO,Demo Sienna Brown,New,,233.94,,,,3832.94,Michael Cuatrona,CreditCard,0.00,,,YES,"3 years parts, 1 year labor (Free)",Cancelled
8/16/2017 6:34:09 PM,Kimberly Dobbs,FL,Legacy for Sam's,DWA-9100DWA-9100SB,Sienna Brown,New,,233.94,,,,3832.94,Michael Cuatrona,CreditCard,0.00,,,No,"3 years parts, 1 year labor (Free)",Cancelled
8/16/2017 7:03:07 PM,Kimberly Dobbs,FL,Legacy for Sam's,DWA-9100DWA-9100SB,Sienna Brown,New,,233.94,,,,3832.94,Michael Cuatrona,CreditCard,0.00,,8/13/2017 12:00:00 AM,No,"3 years parts, 1 year labor (Free)",Delivered
8/17/2017 7:14:31 PM,Test Order,FL,Relax2Zero 2.0 for Sam's,USJ-9050USJ-9050BL,Black,New,,273.00,,,,4173.00,Jonathan Bhowani,CreditCard,0.00,,,No,"3 years parts, 1 year labor (Free)",Cancelled
8/17/2017 9:42:37 PM,Kristen Yorton,FL,Legacy for Sam's,DWA-9100DWA-9100CH,Choco,New,,300.93,,,,4599.93,Jonathan Bhowani,CreditCard,0.00,,9/1/2017 12:00:00 AM,No,"3 years parts, 1 year labor (Free)",Delivered
8/17/2017 9:42:37 PM,Kristen Yorton,FL,Chair Pad for Lagacy,,,New,,300.93,,,,4599.93,Jonathan Bhowani,CreditCard,0.00,,9/1/2017 12:00:00 AM,No,no warranty,Delivered
8/17/2017 11:29:35 PM,Richard Heitmeyer,FL,Foot Vides Pro,USJ-871,,New,,7.70,,,,117.69,Robert Shih,Cash,117.69,,8/17/2017 12:00:00 AM,No,"2 years parts, 1 year labor (Small Items)",Delivered
8/18/2017 6:41:36 PM,Don Fril,FL,Ninja Leg Massager,,,New,,26.53,,,,405.53,Jonathan Bhowani,CreditCard,0.00,,8/18/2017 12:00:00 AM,YES,"2 years parts, 1 year labor (Small Items)",Delivered
8/18/2017 7:47:16 PM,Margaret Taylor,FL,Ninja Leg Massager,,,New,,26.53,,,,405.53,Jonathan Bhowani,CreditCard,0.00,,,YES,"2 years parts, 1 year labor (Small Items)",Delivered
8/18/2017 8:58:27 PM,Bob Hatcher,FL,Legacy for Sam's,DWA-9100DWA-9100BL,Black,New,,300.93,,,,4599.93,Robert Shih,CreditCard,4599.93,,9/1/2017 12:00:00 AM,No,"3 years parts, 1 year labor (Free)",Delivered
8/18/2017 11:59:09 PM,Zhou Zhu,FL,Legacy for Sam's,DWA-9100DWA-9100BL,Black,New,,251.93,,,,3850.93,Robert Shih,CreditCard,0.00,,9/1/2017 12:00:00 AM,No,"2 years parts, 1 year labor (Small Items)",Delivered
8/19/2017 2:17:46 AM,Marcia Wilcox,CO,Legacy for Sam's,DWA-9100DWA-9100CH-DEMO,Demo Choco,New,,305.92,,,,3904.92,Kristy Tran,CreditCard,0.00,,,No,"3 years parts, 1 year labor (Free)",Cancelled
8/19/2017 2:17:46 AM,Marcia Wilcox,CO,Chair Pad for Lagacy,,,New,,305.92,,,,3904.92,Kristy Tran,CreditCard,0.00,,,No,no warranty,Cancelled
8/19/2017 4:40:52 PM,Stephen Curry,FL,Legacy for Sam's,DWA-9100DWA-9100CH,Choco,New,,251.93,,,,3850.93,Robert Shih,CreditCard,0.00,,9/1/2017 12:00:00 AM,No,"2 years parts, 1 year labor (Small Items)",Delivered
8/19/2017 4:42:52 PM,Marcia Wilcox,CO,Legacy for Sam's,DWA-9100DWA-9100CH,Choco,New,,305.92,,,,3904.92,Kristy Tran,CreditCard,0.00,,,No,"3 years parts, 1 year labor (Free)",Dispatched / Shipped
8/19/2017 4:57:25 PM,Evalee Winkler,CO,Foot Vibe Pro,USJ-871,,New,,9.35,,,,119.34,Kristy Tran,CreditCard,0.00,,,YES,"2 years parts, 1 year labor (Small Items)",Dispatched / Shipped
8/19/2017 4:58:02 PM,David Verhegge,FL,Legacy for Sam's,DWA-9100DWA-9100SB,Sienna Brown,New,,300.93,,,,4599.93,Jonathan Bhowani,CreditCard,0.00,,8/31/2017 12:00:00 AM,No,"3 years parts, 1 year labor (Free)",Delivered
8/19/2017 4:58:59 PM,Richard Heitmeyer,FL,Ninja Leg Massager,,,New,,26.53,,,,405.53,Robert Shih,Cash,0.00,,8/19/2017 12:00:00 AM,YES,"2 years parts, 1 year labor (Small Items)",Delivered
8/19/2017 5:23:17 PM,Mario Higareda,TX,Legacy for Sam's,DWA-9100DWA-9100BL,Blue,New,,1360.00,,,,17760.00,Mario Higareda,CreditCard,0.00,,,No,"3 years parts, 1 year labor (Free)",Hold
8/19/2017 5:51:07 PM,Raymond Leyba,CA,Legacy for Sam's,DWA-9100DWA-9100CH,Choco,New,,333.17,,,,4632.17,Kohei Uno,CreditCard,0.00,,,No,"3 years parts, 3 years labor ($400)",Dispatched / Shipped
8/19/2017 5:51:07 PM,Raymond Leyba,CA,Chair Pad for Lagacy,,,New,,333.17,,,,4632.17,Kohei Uno,CreditCard,0.00,,,No,no warranty,Dispatched / Shipped
8/19/2017 5:51:07 PM,Raymond Leyba,CA,Daiwa Blanket,,,New,,333.17,,,,4632.17,Kohei Uno,CreditCard,0.00,,,No,no warranty,Dispatched / Shipped
8/19/2017 5:56:38 PM,Patrick Dios,FL,Foot Vibe Pro,USJ-871,,New,,7.70,,,,117.69,Robert Shih,CreditCard,0.00,,8/19/2017 12:00:00 AM,YES,"2 years parts, 1 year labor (Small Items)",Delivered
8/19/2017 7:19:36 PM,Dianne Doane-Bustetter,FL,Legacy for Sam's,DWA-9100DWA-9100SB,Sienna Brown,New,,300.93,,,,4599.93,Robert Shih,CreditCard,0.00,,9/1/2017 12:00:00 AM,No,"3 years parts, 1 year labor (Free)",Delivered
8/19/2017 8:06:47 PM,Oscar Rivera,FL,Relax2Zero 2.0 for Sam's,USJ-9050USJ-9050BR,Brown,New,,273.00,,,,4173.00,Robert Shih,CreditCard,0.00,,,No,"3 years parts, 1 year labor (Free)",Cancelled
8/19/2017 8:12:51 PM,Alice Dexter,FL,Foot Vibe Pro,USJ-871,,New,,7.70,,,,117.69,Robert Shih,CreditCard,0.00,,8/19/2017 12:00:00 AM,YES,"2 years parts, 1 year labor (Small Items)",Delivered
8/19/2017 11:05:17 PM,Chan Ju Christy Lee,CO,Legacy for Sam's,DWA-9100DWA-9100CH,Choco,New,,365.42,,,,4664.42,Kristy Tran,CreditCard,0.00,,,No,"3 years parts, 1 year labor (Free)",Dispatched / Shipped
8/19/2017 11:15:47 PM,Jane Stephens,CO,Foot Vibe Pro,USJ-871,,New,,9.35,,,,119.34,Kristy Tran,CreditCard,0.00,,,YES,"2 years parts, 1 year labor (Small Items)",Dispatched / Shipped
8/19/2017 11:26:41 PM,Barbara Vallejos,CO,Legacy for Sam's,DWA-9100DWA-9100CH,Choco,New,,345.01,,,,4404.00,Kristy Tran,CreditCard,0.00,,,No,"3 years parts, 1 year labor (Free)",Dispatched / Shipped
8/19/2017 11:26:41 PM,Barbara Vallejos,CO,Vitality Plate,USJ-849USJ-849,New,New,,345.01,,,,4404.00,Kristy Tran,CreditCard,0.00,,,No,"2 years parts, 1 year labor (Small Items)",Dispatched / Shipped
8/20/2017 1:08:08 AM,Barbara Vallejos,CO,Legacy for Sam's,DWA-9100DWA-9100CH-DEMO,Demo Choco,New,,305.92,,,,3904.92,Kristy Tran,CreditCard,0.00,,,No,"3 years parts, 1 year labor (Free)",Cancelled
8/20/2017 5:24:54 PM,Anthony Nguyen,CA,Legacy for Sam's,DWA-9100DWA-9100SB-DEMO,Demo Sienna Brown,New,,278.92,,,,3877.92,Kohei Uno,CreditCard,0.00,,,No,"3 years parts, 3 years labor ($400)",Dispatched / Shipped
8/20/2017 5:24:54 PM,Anthony Nguyen,CA,Chair Pad for Lagacy,,,New,,278.92,,,,3877.92,Kohei Uno,CreditCard,0.00,,,No,no warranty,Dispatched / Shipped
8/20/2017 5:57:44 PM,Anthony Nguyen,CA,Legacy for Sam's,DWA-9100DWA-9100SB-DEMO,Demo Sienna Brown,New,,278.92,,,,3877.92,Kohei Uno,CreditCard,0.00,,,No,"3 years parts, 3 years labor ($400)",Dispatched / Shipped
8/20/2017 5:57:44 PM,Anthony Nguyen,CA,Chair Pad for Lagacy,,,New,,278.92,,,,3877.92,Kohei Uno,CreditCard,0.00,,,No,no warranty,Dispatched / Shipped
8/20/2017 6:14:47 PM,Nina Geltz,FL,Foot Vibe Pro,USJ-871,,New,,7.70,,,,117.69,Jonathan Bhowani,CreditCard,0.00,,8/20/2017 12:00:00 AM,YES,"2 years parts, 1 year labor (Small Items)",Delivered
8/20/2017 7:28:13 PM,Mohammad Imran,CA,Relax2Zero 3D,DWA-9060USJ-9060BL,Black,New,,184.88,,,,3484.88,Kaz Ohashi,Cash,100.00,,,No,"3 years parts, 1 year labor (Free)",Dispatched / Shipped
8/20/2017 7:29:42 PM,Richard Kalback,FL,Legacy for Sam's,DWA-9100DWA-9100SB,Sienna Brown,New,,251.93,,,,3850.93,Robert Shih,CreditCard,0.00,,9/5/2017 12:00:00 AM,No,"2 years parts, 1 year labor (Small Items)",Delivered
8/20/2017 7:59:14 PM,Ted Robson,FL,Ninja Leg Massager,,,New,,26.53,,,,405.53,Jonathan Bhowani,CreditCard,0.00,,,YES,"2 years parts, 1 year labor (Small Items)",Delivered
8/21/2017 3:26:10 PM,Maria & Jhon Terela,CO,Legacy for Sam's,DWA-9100DWA-9100CH-DEMO,Demo Choco,New,,297.28,,,,3896.28,Tom Nguyen,CreditCard,0.00,,,No,"3 years parts, 1 year labor (Free)",Dispatched / Shipped
8/21/2017 3:54:03 PM,Cargle McManas,CO,Legacy for Sam's,DWA-9100DWA-9100CH-DEMO,Demo Choco,New,,297.28,,,,3896.28,Tom Nguyen,CreditCard,0.00,,,No,"3 years parts, 1 year labor (Free)",Dispatched / Shipped
8/21/2017 4:38:59 PM,Oscar Rivera,FL,Relax2Zero 2.0 for Sam's,USJ-9050USJ-9050BR,Brown,New,,273.00,,,,4173.00,Robert Shih,CreditCard,0.00,,9/1/2017 12:00:00 AM,No,"3 years parts, 1 year labor (Free)",Delivered
8/21/2017 4:58:25 PM,Vivi Serena,FL,Relax2Zero 2.0 for Sam's,USJ-9050USJ-9050BR,Brown,New,,273.00,,,,4173.00,Robert Shih,CreditCard,0.00,,,No,"3 years parts, 1 year labor (Free)",Dispatched / Shipped
8/21/2017 5:26:55 PM,Sandra Lara,CA,Relax2Zero 2.0 for Sam's,USJ-9050USJ-9050BR,Brown,New,,302.25,,,,4202.25,Kohei Uno,CreditCard,0.00,,,No,"3 years parts, 3 years labor ($400)",Dispatched / Shipped
8/21/2017 5:26:55 PM,Sandra Lara,CA,Chair Pad for Relax2Zero 2.0,,,New,,302.25,,,,4202.25,Kohei Uno,CreditCard,0.00,,,No,no warranty,Dispatched / Shipped
8/21/2017 5:26:55 PM,Sandra Lara,CA,Daiwa Blanket,,,New,,302.25,,,,4202.25,Kohei Uno,CreditCard,0.00,,,No,no warranty,Dispatched / Shipped
8/21/2017 9:00:02 PM,James Massey,FL,Foot Vibe Pro,USJ-871,,New,,7.70,,,,117.69,Robert Shih,CreditCard,0.00,,8/21/2017 12:00:00 AM,YES,"2 years parts, 1 year labor (Small Items)",Delivered
8/22/2017 3:58:22 PM,Keum S Chen,CO,Legacy for Sam's,DWA-9100DWA-9100BL,Black,New,,305.92,,,,3904.92,Kristy Tran,CreditCard,0.00,,,No,"3 years parts, 1 year labor (Free)",Dispatched / Shipped
8/22/2017 4:24:20 PM,Charles Singuefield,TX,Legacy for Sam's,DWA-9100DWA-9100CH,Choco,New,,354.67,,,,4653.67,Ana Barrera,CreditCard,0.00,,,No,"3 years parts, 1 year labor (Free)",Dispatched / Shipped
8/22/2017 5:48:25 PM,Wayne Wilcox,FL,Foot Vibe Pro,USJ-871,,New,,7.70,,,,117.69,Jonathan Bhowani,CreditCard,0.00,,,YES,"2 years parts, 1 year labor (Small Items)",Delivered
8/22/2017 6:08:42 PM,Molly Quillin,FL,Legacy for Sam's,DWA-9100DWA-9100CH,Choco,New,,300.93,,,,4599.93,Jonathan Bhowani,CreditCard,0.00,,9/1/2017 12:00:00 AM,No,"3 years parts, 1 year labor (Free)",Delivered
8/22/2017 6:08:42 PM,Molly Quillin,FL,Daiwa Blanket,,,New,,300.93,,,,4599.93,Jonathan Bhowani,CreditCard,0.00,,9/1/2017 12:00:00 AM,No,no warranty,Delivered
8/23/2017 5:29:15 PM,John Sith,CA,Pegasus,DWA-9400Pegasus-BL,Black,New,,316.80,,,,4786.80,Joseph Chan,CreditCard,200.00,Cash,,No,"3 years parts, 1 year labor (Free)",Hold
8/23/2017 6:53:20 PM,Delio Rodriguez,FL,Foot Vibe Pro,USJ-871,,New,,7.70,,,,117.69,Jonathan Bhowani,CreditCard,0.00,,,YES,"2 years parts, 1 year labor (Small Items)",Delivered
8/23/2017 7:57:25 PM,Stacey Johlman,FL,Legacy for Sam's,DWA-9100DWA-9100CH,Choco,New,,300.93,,,,4599.93,Robert Shih,CreditCard,0.00,,,No,"3 years parts, 1 year labor (Free)",Hold
8/24/2017 12:22:52 AM,Ramanbhai Patel,FL,Legacy for Sam's,DWA-9100DWA-9100CH,Choco,New,,251.93,,,,3850.93,Robert Shih,CreditCard,0.00,,9/1/2017 12:00:00 AM,No,"2 years parts, 1 year labor (Small Items)",Delivered
8/24/2017 9:15:02 PM,Rajesh Gupta,FL,Ninja Leg Massager,,,New,,26.53,,,,405.53,Jonathan Bhowani,CreditCard,0.00,,,YES,"2 years parts, 1 year labor (Small Items)",Delivered
8/25/2017 12:14:52 AM,Barbara Vallejos,CO,Legacy for Sam's,DWA-9100DWA-9100CH,Choco,New,,345.01,,,,4404.00,Kristy Tran,CreditCard,0.00,,,No,"3 years parts, 1 year labor (Free)",Dispatched / Shipped
8/25/2017 12:14:52 AM,Barbara Vallejos,CO,Vitality Plate,USJ-849USJ-849,New,New,,345.01,,,,4404.00,Kristy Tran,CreditCard,0.00,,,No,"2 years parts, 1 year labor (Small Items)",Dispatched / Shipped
8/26/2017 8:06:06 PM,Tom Malinak,FL,Legacy for Sam's,DWA-9100DWA-9100SB-DEMO,Demo Sienna Brown,New,,251.93,,,,3850.93,Jonathan Bhowani,CreditCard,0.00,,9/1/2017 12:00:00 AM,No,"3 years parts, 1 year labor (Free)",Delivered
8/26/2017 11:16:52 PM,Timothy Staub,FL,Foot Vibe Pro,USJ-871,,New,,7.70,,,,117.69,Robert Shih,CreditCard,0.00,,,YES,"2 years parts, 1 year labor (Small Items)",Delivered
8/27/2017 1:24:38 AM,Naser Saghafi,TX,Legacy for Sam's,DWA-9100DWA-9100CH-DEMO,Demo Choco,New,,296.92,,,,3895.92,Chris Tavira,CreditCard,0.00,,,No,"3 years parts, 1 year labor (Free)",Dispatched / Shipped
8/27/2017 1:44:33 AM,Theresa Erol,IL,Legacy for Sam's,DWA-9100DWA-9100BL-DEMO,Demo Black,New,,287.92,,,,3886.92,Emily Dow,CreditCard,0.00,,,No,"3 years parts, 1 year labor (Free)",Dispatched / Shipped
8/27/2017 1:59:32 AM,Leorard Adams,TX,Legacy for Sam's,DWA-9100DWA-9100GD-DEMO,Demo Gold,New,,296.92,,,,3895.92,Chris Tavira,CreditCard,0.00,,,No,"3 years parts, 1 year labor (Free)",Dispatched / Shipped
8/27/2017 2:10:49 AM,Andy Hieckman,TX,Legacy for Sam's,DWA-9100DWA-9100SB-DEMO,Demo Sienna Brown,New,,296.92,,,,3895.92,Chris Tavira,CreditCard,0.00,,,No,"3 years parts, 1 year labor (Free)",Dispatched / Shipped
8/27/2017 2:17:40 AM,Tameria Patzer,WA,Legacy,DWA-9100DWA-9100BL-DEMO,Demo Black,New,,331.20,,,,3931.20,Joseph Chan,Synchrony,431.20,CreditCard,,YES,"3 years parts, 3 years labor ($400)",Dispatched / Shipped
8/27/2017 5:02:02 AM,Robert Clarke,TX,Legacy for Sam's,DWA-9100DWA-9100CH,Choco,New,,354.67,,,,4653.67,Chris Tavira,CreditCard,0.00,,,No,"3 years parts, 1 year labor (Free)",Dispatched / Shipped
8/27/2017 5:26:37 AM,Nancy Cersonsky,OK,Legacy for Sam's,DWA-9100DWA-9100BG,Beige,New,,301.42,,,,3900.42,Gary Cyrlin,CreditCard,0.00,,9/1/2017 12:00:00 AM,No,"3 years parts, 1 year labor (Free)",Delivered
8/27/2017 5:26:37 AM,Nancy Cersonsky,OK,Chair Pad for Lagacy,,,New,,301.42,,,,3900.42,Gary Cyrlin,CreditCard,0.00,,9/1/2017 12:00:00 AM,No,no warranty,Delivered
8/27/2017 5:26:37 AM,Nancy Cersonsky,OK,Daiwa Blanket,,,New,,301.42,,,,3900.42,Gary Cyrlin,CreditCard,0.00,,9/1/2017 12:00:00 AM,No,no warranty,Delivered
8/27/2017 5:37:14 AM,Nan P. Ferguson,TX,Legacy for Sam's,DWA-9100DWA-9100BL,Black,New,,354.67,,,,4653.67,Chris Tavira,CreditCard,0.00,,,No,"3 years parts, 1 year labor (Free)",Dispatched / Shipped
8/27/2017 5:50:27 AM,Kevin Rutland,OK,Legacy for Sam's,DWA-9100DWA-9100CH,Choco,New,,360.04,,,,4659.04,Gary Cyrlin,CreditCard,0.00,,9/1/2017 12:00:00 AM,No,"3 years parts, 1 year labor (Free)",Delivered
8/27/2017 5:50:27 AM,Kevin Rutland,OK,Chair Pad for Lagacy,,,New,,360.04,,,,4659.04,Gary Cyrlin,CreditCard,0.00,,9/1/2017 12:00:00 AM,No,no warranty,Delivered
8/27/2017 5:50:27 AM,Kevin Rutland,OK,Daiwa Blanket,,,New,,360.04,,,,4659.04,Gary Cyrlin,CreditCard,0.00,,9/1/2017 12:00:00 AM,No,no warranty,Delivered
8/27/2017 2:39:42 PM,Joe Janette,FL,Foot Vibe Pro,USJ-871,,New,,7.70,,,,117.69,Jonathan Bhowani,CreditCard,0.00,,,YES,"2 years parts, 1 year labor (Small Items)",Delivered
8/27/2017 4:53:50 PM,James Haynes,FL,Relax2Zero 3D,DWA-9060USJ-9060BL-DEMO,Demo Black,New,,243.38,,,,3943.38,Ting Ritchie,Synchrony,0.00,,8/28/2017 12:00:00 AM,No,"3 years parts, 1 year labor (Free)",Delivered
8/27/2017 5:20:30 PM,Kyle Roddy,TX,Legacy for Sam's,DWA-9100DWA-9100CH,Choco,New,,354.67,,,,4653.67,Chris Tavira,CreditCard,0.00,,,No,"3 years parts, 1 year labor (Free)",Dispatched / Shipped
8/28/2017 6:15:50 AM,Michael Tipping,WA,Pegasus,DWA-9400Pegasus-BR-DEMO,Demo Choco Brown,New,,372.60,,,,5172.60,Joseph Chan,CreditCard,5241.60,,,No,"3 years parts, 3 years labor ($400)",Dispatched / Shipped
8/28/2017 6:23:08 AM,David Peccalaio,WA,Relax2Zero 3D,DWA-9060USJ-9060BL,Black,New,,375.36,,,,5205.36,Joseph Chan,Synchrony,4560.00,,,No,"3 years parts, 3 years labor ($400)",Dispatched / Shipped
8/28/2017 7:35:30 PM,Manoner Gandham,IL,Legacy for Sam's,DWA-9100DWA-9100CH-DEMO,Demo Choco,New,,287.92,,,,3886.92,Emily Dow,CreditCard,3886.92,,,No,"3 years parts, 1 year labor (Free)",Dispatched / Shipped
8/28/2017 7:45:27 PM,Maria Raminez,IL,Legacy for Sam's,DWA-9100DWA-9100BL,Black,New,,343.92,,,,4642.92,Emily Dow,CreditCard,4642.92,,,No,"3 years parts, 3 years labor ($400)",Dispatched / Shipped
8/28/2017 9:55:05 PM,James Exendine,CO,Legacy for Sam's,DWA-9100DWA-9100BL,Black,New,,297.28,,,,3896.28,Tom Nguyen,CreditCard,3896.28,,9/3/2017 12:00:00 AM,No,"3 years parts, 1 year labor (Free)",Delivered
8/28/2017 10:01:33 PM,Sharon Whitmore,CO,Legacy for Sam's,DWA-9100DWA-9100CH-DEMO,Demo Choco,New,,297.28,,,,3896.28,Tom Nguyen,CreditCard,3896.28,,9/2/2017 12:00:00 AM,No,"3 years parts, 1 year labor (Free)",Delivered
8/28/2017 10:10:48 PM,Dorene Tadehara,CO,Relax2Zero 2.0 for Sam's,USJ-9050USJ-9050BR,Brown,New,,331.50,,,,4231.50,Kristy Tran,CreditCard,4231.60,,9/2/2017 12:00:00 AM,No,"3 years parts, 1 year labor (Free)",Dispatched / Shipped
8/28/2017 10:19:44 PM,Mile High Pallet,AA,Relax2Zero 2.0 for Sam's,USJ-9050USJ-9050BL-DEMO,Demo Black,New,,271.92,,,,3470.92,Kristy Tran,CreditCard,3470.92,,,No,"3 years parts, 1 year labor (Free)",Dispatched / Shipped
8/29/2017 7:09:58 PM,Henry Helton,FL,Foot Vibe Pro,USJ-871,,New,,7.70,,,,117.69,Alex Brackelsberg,CreditCard,0.00,,,YES,"2 years parts, 1 year labor (Small Items)",Delivered
8/29/2017 9:39:17 PM,Aaron Barnhardt,CA,Relax2Zero 3D,DWA-9060USJ-9060BL,Black,New,,240.50,,,,3590.50,Kaz Ohashi,CreditCard,3590.50,,,No,"3 years parts, 3 years labor ($400)",Dispatched / Shipped
8/29/2017 9:39:17 PM,Aaron Barnhardt,CA,Daiwa Blanket,,,New,,240.50,,,,3590.50,Kaz Ohashi,CreditCard,3590.50,,,No,no warranty,Dispatched / Shipped
8/29/2017 9:46:18 PM,Ibe Chan Leung,CA,Relax2Zero 3D,DWA-9060USJ-9060BL,Black,New,,240.50,,,,3590.50,Kaz Ohashi,CreditCard,3590.50,,,No,"3 years parts, 3 years labor ($400)",Dispatched / Shipped
8/29/2017 9:46:18 PM,Ibe Chan Leung,CA,Daiwa Blanket,,,New,,240.50,,,,3590.50,Kaz Ohashi,CreditCard,3590.50,,,No,no warranty,Dispatched / Shipped
8/29/2017 10:40:07 PM,Tina Dang,CA,Relax2Zero 3D,DWA-9060USJ-9060BL,Black,New,,240.50,,,,3590.50,Kaz Ohashi,CreditCard,3590.50,,,No,"3 years parts, 3 years labor ($400)",Dispatched / Shipped
8/29/2017 10:40:07 PM,Tina Dang,CA,Chair Pad for Relax2Zero 3D,,,New,,240.50,,,,3590.50,Kaz Ohashi,CreditCard,3590.50,,,No,no warranty,Dispatched / Shipped
8/29/2017 10:59:15 PM,Liching Ulrey,CA,Relax2Zero 3D,DWA-9060USJ-9060BL,Black,New,,240.50,,,,3590.50,Kaz Ohashi,CreditCard,3590.50,,,No,"3 years parts, 3 years labor ($400)",Dispatched / Shipped
8/30/2017 9:41:35 PM,Carol Deegan,TX,Legacy for Sam's,DWA-9100DWA-9100CH,Choco,New,,365.42,,,,4664.42,Kristy Tran,PURCHASEORDER,0.00,,9/6/2017 12:00:00 AM,No,"3 years parts, 1 year labor (Free)",Dispatched / Shipped
8/31/2017 6:43:56 PM,Jessica Phung,CA,Legacy 3D,DWA-9150USJ-9150BL,Black,New,,319.38,,,,4719.38,Jessica Phung,PURCHASEORDER,0.00,,,No,"3 years parts, 1 year labor (Free)",Cancelled
8/31/2017 6:43:56 PM,Jessica Phung,CA,Chair Pad for Lagacy 3D,,,New,,319.38,,,,4719.38,Jessica Phung,PURCHASEORDER,0.00,,,No,no warranty,Cancelled
8/31/2017 6:43:56 PM,Jessica Phung,CA,Daiwa Blanket,,,New,,319.38,,,,4719.38,Jessica Phung,PURCHASEORDER,0.00,,,No,no warranty,Cancelled
8/31/2017 6:43:56 PM,Jessica Phung,CA,Foot Pads for Lagacy 3D,,,New,,319.38,,,,4719.38,Jessica Phung,PURCHASEORDER,0.00,,,No,no warranty,Cancelled
8/31/2017 10:58:17 PM,Troy Coffman,FL,Relax2Zero 2.0 for Sam's,USJ-9050USJ-9050BL-DEMO,Demo Black,New,,223.93,,,,3422.93,Jonathan Bhowani,CreditCard,3422.93,,,No,"3 years parts, 1 year labor (Free)",Dispatched / Shipped
9/1/2017 2:09:27 PM,Tae Lee,GA,Legacy,DWA-9100DWA-9100BL,Black,New,,294.15,,,,4224.15,Mitch Valdes,CreditCard,4222.00,,9/6/2017 12:00:00 AM,No,"3 years parts, 1 year labor (Free)",Delivered
9/1/2017 5:15:48 PM,Clarence Fox,FL,Legacy for Sam's,DWA-9100DWA-9100CH-DEMO,Demo Choco,New,,251.93,,,,3850.93,Jonathan Bhowani,CreditCard,0.00,,,No,"3 years parts, 1 year labor (Free)",Dispatched / Shipped
9/1/2017 5:15:48 PM,Clarence Fox,FL,Daiwa Blanket,,,New,,251.93,,,,3850.93,Jonathan Bhowani,CreditCard,0.00,,,No,No Warranty,Dispatched / Shipped
9/1/2017 11:26:27 PM,Randy Costales,AA,Legacy,DWA-9100DWA-9100CH-DEMO,Demo Choco Brown,New,,198.88,,,,3098.88,David Wang,CreditCard,0.00,,,No,"3 years parts, 1 year labor (Free)",Dispatched / Shipped
9/2/2017 1:17:43 AM,NADINE ZARRINKOUH,CA,Legacy,DWA-9100DWA-9100CH-DEMO,Demo Choco Brown,New,,208.13,,,,3208.13,Mei Kang,Synchrony,3208.13,,,No,"3 years parts, 1 year labor (Free)",Dispatched / Shipped
9/2/2017 4:23:39 PM,Geri Cooper,WA,Legacy 3D,DWA-9150USJ-9150CH-DEMO,Demo Choco Brown,New,,267.90,,,,3867.90,Kristy Tran,COD,500.00,CreditCard,,No,"5 years parts, 3 years labor ($700)",Dispatched / Shipped
9/2/2017 4:34:08 PM,Lucinda Bryant,WA,Legacy 3D,DWA-9150USJ-9150CH-DEMO,Demo Choco Brown,New,,305.50,,,,4305.50,Tom Nguyen,Synchrony,4000.00,,,No,"5 years parts, 3 years labor ($700)",Dispatched / Shipped
9/2/2017 4:41:31 PM,Tom Weber,WA,Legacy 3D,DWA-9150USJ-9150BL-DEMO,Demo Black,New,,305.50,,,,4305.50,Ruben Cuatrona,COD,1000.00,CreditCard,,No,"5 years parts, 3 years labor ($700)",Dispatched / Shipped
9/2/2017 4:52:20 PM,Jane Schultz,WA,Legacy 3D,DWA-9150USJ-9150BL,Black,New,,361.90,,,,4961.90,Christoper Richard Williams,CreditCard,5055.40,,,No,"5 years parts, 3 years labor ($700)",Dispatched / Shipped
9/2/2017 4:52:20 PM,Jane Schultz,WA,Tourmaline Pad for Lagacy 3D,,,New,,361.90,,,,4961.90,Christoper Richard Williams,CreditCard,5055.40,,,No,no warranty,Dispatched / Shipped
9/2/2017 4:58:44 PM,Barb Sankey,WA,Legacy,DWA-9100DWA-9100CH-DEMO,Demo Choco Brown,New,,262.20,,,,3862.20,Joseph Chan,CreditCard,3931.00,,,No,"3 years parts, 3 years labor ($400)",Dispatched / Shipped
9/2/2017 5:04:04 PM,Brian Nokes,WA,Legacy 3D,DWA-9150USJ-9150BL,Black,New,,361.90,,,,4961.90,Phuoc Van,COD,300.00,CreditCard,,No,"5 years parts, 3 years labor ($700)",Dispatched / Shipped
9/2/2017 5:21:20 PM,Sam Hankins,WA,Relax2Zero 3D,DWA-9060USJ-9060BR-DEMO,Demo Choco Brown,New,,305.50,,,,4305.50,Laser Howell,Synchrony,4000.00,,,No,"5 years parts, 3 years labor ($700)",Dispatched / Shipped
9/2/2017 5:36:23 PM,Test Test,CA,Legacy,DWA-9100DWA-9100CH,Choco Brown,New,,263.63,,,,3863.63,Mei Kang,CreditCard,100.00,COD,,No,"3 years parts, 1 year labor (Free)",Cancelled
9/2/2017 5:36:23 PM,Test Test,CA,Tourmaline Pad for Lagacy,,,New,,263.63,,,,3863.63,Mei Kang,CreditCard,100.00,COD,,No,no warranty,Cancelled
9/2/2017 5:50:06 PM,Richard Callaham,WA,Relax2Zero 3D,DWA-9060USJ-9060BR-DEMO,Demo Choco Brown,New,,286.70,,,,4086.70,Tom Nguyen,Synchrony,3500.00,CreditCard,,No,"5 years parts, 3 years labor ($700)",Dispatched / Shipped
9/2/2017 7:18:40 PM,Cuc Nguyen,FL,Legacy 3D,DWA-9150USJ-9150BL,Black,New,,319.38,,,,4719.38,Jessica Phung,Synchrony,0.00,,,No,"3 years parts, 1 year labor (Free)",Dispatched / Shipped
9/2/2017 7:18:40 PM,Cuc Nguyen,FL,Chair Pad for Lagacy 3D,,,New,,319.38,,,,4719.38,Jessica Phung,Synchrony,0.00,,,No,no warranty,Dispatched / Shipped
9/2/2017 7:18:40 PM,Cuc Nguyen,FL,Daiwa Blanket,,,New,,319.38,,,,4719.38,Jessica Phung,Synchrony,0.00,,,No,no warranty,Dispatched / Shipped
9/2/2017 7:18:40 PM,Cuc Nguyen,FL,Foot Pads for Lagacy 3D,,,New,,319.38,,,,4719.38,Jessica Phung,Synchrony,0.00,,,No,no warranty,Dispatched / Shipped
9/2/2017 8:21:04 PM,Sau Coc Thong,CA,Legacy 3D,DWA-9150USJ-9150CH,Choco Brown,New,,319.38,,,,4719.38,Jessica Phung,Synchrony,0.00,,,No,"3 years parts, 1 year labor (Free)",Cancelled
9/2/2017 8:21:04 PM,Sau Coc Thong,CA,Chair Pad for Lagacy 3D,,,New,,319.38,,,,4719.38,Jessica Phung,Synchrony,0.00,,,No,no warranty,Cancelled
9/2/2017 8:21:04 PM,Sau Coc Thong,CA,Foot Pads for Lagacy 3D,,,New,,319.38,,,,4719.38,Jessica Phung,Synchrony,0.00,,,No,no warranty,Cancelled
9/2/2017 9:13:25 PM,Jimmy Retana,CA,Legacy,DWA-9100DWA-9100CH-DEMO,Demo Choco Brown,New,,207.20,,,,3197.20,Kaz Ohashi,CreditCard,100.00,,,No,"3 years parts, 1 year labor (Free)",Cancelled
9/2/2017 9:17:46 PM,Claudia Dodel,WA,Relax2Zero 3D,DWA-9060USJ-9060BL-DEMO,Demo Black,New,,267.72,,,,3927.72,Joseph Chan,CreditCard,4000.00,,,No,"3 years parts, 3 years labor ($400)",Dispatched / Shipped
9/2/2017 10:23:32 PM,John Smith,CA,Legacy 3D,DWA-9150USJ-9150CH,Choco Brown,New,,319.38,,,,4719.38,Jessica Phung,COD,0.00,,,No,"3 years parts, 1 year labor (Free)",Cancelled
9/2/2017 10:23:32 PM,John Smith,CA,Chair Pad for Lagacy 3D,,,New,,319.38,,,,4719.38,Jessica Phung,COD,0.00,,,No,no warranty,Cancelled
9/3/2017 4:11:55 PM,Mary Miller,WA,Legacy 3D,DWA-9150USJ-9150CH-DEMO,Demo Choco Brown,New,,305.50,,,,4305.50,Ruben Cuatrona,Synchrony,4000.00,,,No,"5 years parts, 3 years labor ($700)",Dispatched / Shipped
9/3/2017 4:19:47 PM,Terri Vaughn,WA,Legacy 3D,DWA-9150USJ-9150CH,Choco Brown,New,,324.30,,,,4524.30,Tom Nguyen,CreditCard,500.00,COD,,No,"5 years parts, 3 years labor ($700)",Dispatched / Shipped
9/3/2017 4:34:06 PM,Ronald & Pamela Greene,WA,Legacy 3D,DWA-9150USJ-9150BL,Black,New,,333.70,,,,4633.70,Kristy Tran,Synchrony,4300.00,,,No,"5 years parts, 3 years labor ($700)",Dispatched / Shipped
9/3/2017 4:41:22 PM,Robert Breynaert,WA,Legacy 3D,DWA-9150USJ-9150BL,Black,New,,305.50,,,,4305.50,Ruben Cuatrona,CreditCard,4000.00,,,No,"5 years parts, 3 years labor ($700)",Dispatched / Shipped
9/3/2017 4:47:51 PM,Tara Kleca,WA,Relax2Zero 3D,DWA-9060USJ-9060BR,Choco Brown,New,,305.50,,,,4305.50,Larhonda Ingram,CreditCard,500.00,COD,,No,"5 years parts, 3 years labor ($700)",Dispatched / Shipped
9/3/2017 5:03:48 PM,James Young,WA,Relax2Zero 3D,DWA-9060USJ-9060BL,Black,New,,361.90,,,,4961.90,Scott Ishikawa,CreditCard,100.00,COD,,No,"5 years parts, 3 years labor ($700)",Dispatched / Shipped
9/3/2017 5:12:52 PM,Susan Dones,WA,Relax2Zero 3D,DWA-9060USJ-9060BR,Choco Brown,New,,305.50,,,,4305.50,Laser Howell,CreditCard,400.00,COD,,No,"5 years parts, 3 years labor ($700)",Dispatched / Shipped
9/3/2017 5:21:39 PM,George Hernandez,CA,Relax2Zero 1.0,USJ-9000USJ-9000KU,Black,New,,254.38,,,,3754.38,Kohei Uno,Synchrony,0.00,,,No,"3 years parts, 1 year labor (Free)",Dispatched / Shipped
9/3/2017 5:21:39 PM,George Hernandez,CA,Daiwa Blanket,,,New,,254.38,,,,3754.38,Kohei Uno,Synchrony,0.00,,,No,no warranty,Dispatched / Shipped
9/3/2017 5:21:39 PM,George Hernandez,CA,Chair Pad for Relax2Zero 1.0,,,New,,254.38,,,,3754.38,Kohei Uno,Synchrony,0.00,,,No,no warranty,Dispatched / Shipped
9/3/2017 5:21:39 PM,George Hernandez,CA,Foot Pads for Relax2Zero 1.0,,,New,,254.38,,,,3754.38,Kohei Uno,Synchrony,0.00,,,No,no warranty,Dispatched / Shipped
9/3/2017 6:37:02 PM,Joe Cruz,FL,Relax2Zero 2.0 for Sam's,USJ-9050USJ-9050BR,Brown,New,,223.93,,,,3422.93,Fnu Pierce Wusilong,CreditCard,0.00,,,YES,"3 years parts, 1 year labor (Free)",Dispatched / Shipped
9/3/2017 9:02:11 PM,Juam Rodriguez,CA,Legacy,DWA-9100DWA-9100CR-DEMO,Demo Cream,New,,223.85,,,,3393.85,Ting Ritchie,CreditCard,3393.85,,,No,"3 years parts, 1 year labor (Free)",Dispatched / Shipped
9/3/2017 9:06:53 PM,Laurie Werk,CA,Pegasus,DWA-9400Pegasus-BR-DEMO,Demo Choco Brown,New,,304.33,,,,4344.33,David Wang,Synchrony,0.00,,,No,"3 years parts, 1 year labor (Free)",New
9/3/2017 9:43:30 PM,Hoa Huynh,CA,Chair Pad for Relax2Zero 1.0,,,New,,166.25,,,,2816.25,Jessica Phung,Cash,1316.25,,,No,no warranty,New
9/3/2017 9:43:30 PM,Hoa Huynh,CA,Foot Pads for Relax2Zero 1.0,,,New,,166.25,,,,2816.25,Jessica Phung,Cash,1316.25,,,No,no warranty,New
9/3/2017 9:43:30 PM,Hoa Huynh,CA,Relax2Zero 1.0,USJ-9000USJ-9000CR,Cream,New,,166.25,,,,2816.25,Jessica Phung,Cash,1316.25,,,No,"3 years parts, 1 year labor (Free)",New
9/4/2017 2:06:06 AM,Cathy Yoel,CA,Legacy,DWA-9100DWA-9100CH-DEMO,Demo Choco Brown,New,,223.85,,,,3393.85,David Wang,Synchrony,0.00,,,No,"3 years parts, 1 year labor (Free)",Dispatched / Shipped
9/4/2017 2:06:06 AM,Cathy Yoel,CA,Foot Pads for Lagacy,,,New,,223.85,,,,3393.85,David Wang,Synchrony,0.00,,,No,no warranty,Dispatched / Shipped
9/4/2017 3:31:28 AM,Giselle Zarrinkouh,CA,Legacy,DWA-9100DWA-9100CH-DEMO,Demo Choco Brown,New,,208.13,,,,3208.13,Mei Kang,Synchrony,0.00,,,No,"3 years parts, 1 year labor (Free)",Cancelled
9/4/2017 3:42:36 AM,Lucas Blankenship,CA,Legacy,DWA-9100DWA-9100BL,Black,New,,218.30,,,,3328.30,Mei Kang,Synchrony,0.00,,,No,"3 years parts, 1 year labor (Free)",Dispatched / Shipped
9/4/2017 4:18:34 AM,Amy Gray,CA,Legacy 3D,DWA-9150USJ-9150BL,Black,New,,263.63,,,,3863.63,Ting Ritchie,Synchrony,0.00,,,No,"3 years parts, 1 year labor (Free)",Dispatched / Shipped
9/4/2017 4:49:31 PM,Ken Hebert,WA,Legacy 3D,DWA-9150USJ-9150CH,Choco Brown,New,,361.90,,,,4961.90,Kristy Tran,CreditCard,4961.90,,,No,"5 years parts, 3 years labor ($700)",Dispatched / Shipped
9/4/2017 4:58:18 PM,Nathalie Watsek,WA,Legacy 3D,DWA-9150USJ-9150CH,Choco Brown,New,,361.90,,,,4961.90,Kristy Tran,Synchrony,4962.00,,,No,"5 years parts, 3 years labor ($700)",Dispatched / Shipped
9/4/2017 5:12:18 PM,Charlie Megia,WA,Legacy 3D,DWA-9150USJ-9150BL,Black,New,,305.50,,,,4305.50,Kamille Gines,Synchrony,4000.00,,,No,"5 years parts, 3 years labor ($700)",Dispatched / Shipped
9/4/2017 5:12:18 PM,Charlie Megia,WA,Tourmaline Pad for Lagacy 3D,,,New,,305.50,,,,4305.50,Kamille Gines,Synchrony,4000.00,,,No,no warranty,Dispatched / Shipped
9/4/2017 5:20:14 PM,Marnie Gonzales,WA,Legacy 3D,DWA-9150USJ-9150BL,Black,New,,305.50,,,,4305.50,Kamille Gines,Synchrony,4000.00,,,No,"5 years parts, 3 years labor ($700)",Dispatched / Shipped
9/4/2017 5:20:14 PM,Marnie Gonzales,WA,Tourmaline Pad for Lagacy 3D,,,New,,305.50,,,,4305.50,Kamille Gines,Synchrony,4000.00,,,No,no warranty,Dispatched / Shipped
9/4/2017 5:25:26 PM,Brian Baltierra,WA,Legacy,DWA-9100DWA-9100BL-DEMO,Demo Black,New,,211.50,,,,3211.50,Tom Nguyen,CreditCard,3000.00,,,No,"5 years parts, 3 years labor ($700)",Delivered
9/4/2017 5:39:21 PM,Meredith Blache,WA,Legacy 3D,DWA-9150USJ-9150BL,Black,New,,361.90,,,,4961.90,Alex Brackelsberg,Synchrony,0.00,CreditCard,,No,"5 years parts, 3 years labor ($700)",Hold
9/4/2017 5:50:10 PM,Connie Ryerson,WA,Legacy 3D,DWA-9150USJ-9150CH-DEMO,Demo Choco Brown,New,,305.50,,,,4305.50,Jennifer Tran,Synchrony,4300.00,,,No,"5 years parts, 3 years labor ($700)",Dispatched / Shipped
9/4/2017 5:56:13 PM,Daniel Kirby,WA,Legacy 3D,DWA-9150USJ-9150BL,Black,New,,385.40,,,,5235.40,Christoper Richard Williams,CreditCard,4850.00,,,No,"5 years parts, 3 years labor ($700)",Dispatched / Shipped
9/4/2017 6:02:25 PM,Bernard Tagalan,WA,Legacy 3D,DWA-9150USJ-9150CH,Choco Brown,New,,324.30,,,,4524.30,Kristy Tran,CreditCard,500.00,COD,,No,"5 years parts, 3 years labor ($700)",Dispatched / Shipped
9/4/2017 6:13:31 PM,Desert Green Farms Inc. Mianecki,WA,Legacy 3D,DWA-9150USJ-9150BL,Black,New,,531.10,,,,6931.10,Jennifer Tran,CreditCard,6400.00,,,No,"5 years parts, 3 years labor ($700)",Dispatched / Shipped
9/4/2017 6:16:53 PM,Natalie Dick,CA,Relax2Zero 1.0,USJ-9000USJ-9000KU,Black,New,,254.38,,,,3754.38,Kohei Uno,Synchrony,3754.38,,,No,"3 years parts, 1 year labor (Free)",Dispatched / Shipped
9/4/2017 6:22:04 PM,Dennis Fischer,WA,Legacy 3D,DWA-9150USJ-9150BL,Black,New,,230.30,,,,3430.30,Jennifer Tran,CreditCard,3200.00,,,No,"5 years parts, 3 years labor ($700)",Dispatched / Shipped
9/4/2017 6:33:17 PM,Brian Klein,WA,Legacy 3D,DWA-9150USJ-9150BL,Black,New,,333.70,,,,4633.70,Ruben Cuatrona,Synchrony,4300.00,,,No,"5 years parts, 3 years labor ($700)",Dispatched / Shipped
9/4/2017 6:40:12 PM,James Bliss,WA,Legacy 3D,DWA-9150USJ-9150CH,Choco Brown,New,,361.90,,,,4961.90,Christoper Richard Williams,CreditCard,500.00,COD,,No,"5 years parts, 3 years labor ($700)",Hold
9/4/2017 6:46:22 PM,Adam Pegum,WA,Legacy 3D,DWA-9150USJ-9150CH-DEMO,Demo Choco Brown,New,,258.50,,,,3758.50,Kristy Tran,Synchrony,3500.00,,,No,"5 years parts, 3 years labor ($700)",Dispatched / Shipped
9/4/2017 6:56:32 PM,John Lucier III,WA,Pegasus,DWA-9400Pegasus-BL,Black,New,,390.10,,,,5290.10,Kamille Gines,Synchrony,1500.00,CreditCard,,No,"5 years parts, 3 years labor ($700)",Hold
9/4/2017 7:01:25 PM,Roman Gonzales,WA,Legacy 3D,DWA-9150USJ-9150CH,Choco Brown,New,,333.70,,,,4633.70,Kamille Gines,Synchrony,4300.00,,,No,"5 years parts, 3 years labor ($700)",Dispatched / Shipped
9/4/2017 7:10:29 PM,Vitaily Topal,WA,Legacy 3D,DWA-9150USJ-9150BL,Black,New,,338.40,,,,4338.40,Kristy Tran,CreditCard,4000.00,,,No,"5 years parts, 3 years labor ($700)",Dispatched / Shipped
9/4/2017 7:23:47 PM,Robert Mina,WA,Legacy,DWA-9100DWA-9100BL,Black,New,,230.30,,,,3430.30,Jennifer Tran,CreditCard,3200.00,,,No,"5 years parts, 3 years labor ($700)",Dispatched / Shipped
9/4/2017 7:29:14 PM,Aleta Gehrke,WA,Pegasus,DWA-9400Pegasus-BL,Black,New,,380.70,,,,5180.70,Kamille Gines,Synchrony,4800.00,,,No,"5 years parts, 3 years labor ($700)",Dispatched / Shipped
9/4/2017 7:42:11 PM,Christeli Brunder,CT,Relax2Zero 3D,DWA-9060USJ-9060BL,Black,New,,371.30,,,,5071.30,Rodrigo Malabunga,CreditCard,4998.00,,,No,"3 years parts, 2 years labor ($200)",Dispatched / Shipped
9/4/2017 7:49:10 PM,Jeff Mucha,WA,Relax2Zero 2.0,USJ-9050USJ-9050BL,Black,New,,211.50,,,,3211.50,Rodrigo Malabunga,CreditCard,500.00,COD,,No,"5 years parts, 3 years labor ($700)",Dispatched / Shipped
9/4/2017 7:59:50 PM,Sam Canfield,WA,Relax2Zero 3D,DWA-9060USJ-9060BL,Black,New,,361.90,,,,4961.90,Scott Ishikawa,Cash,20.00,CreditCard,,No,"5 years parts, 3 years labor ($700)",Hold
9/4/2017 8:07:28 PM,Cathy Bennett,WA,Legacy 3D,DWA-9150USJ-9150CH,Choco Brown,New,,333.70,,,,4633.70,Larhonda Ingram,Synchrony,4300.00,,,No,"5 years parts, 3 years labor ($700)",Dispatched / Shipped
9/4/2017 8:12:13 PM,Clifford Cox,WA,Relax2Zero 3D,DWA-9060USJ-9060BR-DEMO,Demo Choco Brown,New,,305.50,,,,4305.50,Kamille Gines,Synchrony,4000.00,,,No,"5 years parts, 3 years labor ($700)",Dispatched / Shipped
9/4/2017 8:17:56 PM,Jan Miller,WA,Legacy 3D,DWA-9150USJ-9150BL-DEMO,Demo Black,New,,267.90,,,,3867.90,Jennifer Tran,CreditCard,3600.00,,,No,"5 years parts, 3 years labor ($700)",Dispatched / Shipped
9/4/2017 8:23:13 PM,Debbie Tateishi,WA,Legacy 3D,DWA-9150USJ-9150BL-DEMO,Demo Black,New,,277.30,,,,3977.30,Jennifer Tran,Synchrony,3700.00,,,No,"5 years parts, 3 years labor ($700)",Dispatched / Shipped
9/4/2017 8:27:53 PM,Richard and Charlene Spring,WA,Legacy 3D,DWA-9150USJ-9150CH,Choco Brown,New,,343.10,,,,4743.10,Kamille Gines,CreditCard,4400.00,,,No,"5 years parts, 3 years labor ($700)",Dispatched / Shipped
9/4/2017 11:57:21 PM,Tuyen Thanh Phan,CA,Legacy 3D,DWA-9150USJ-9150CH,Choco Brown,New,,301.88,,,,4501.88,Jessica Phung,PURCHASEORDER,0.00,,,No,"3 years parts, 1 year labor (Free)",New
9/4/2017 11:57:21 PM,Tuyen Thanh Phan,CA,Chair Pad for Lagacy 3D,,,New,,301.88,,,,4501.88,Jessica Phung,PURCHASEORDER,0.00,,,No,no warranty,New
9/4/2017 11:57:21 PM,Tuyen Thanh Phan,CA,Foot Pads for Lagacy 3D,,,New,,301.88,,,,4501.88,Jessica Phung,PURCHASEORDER,0.00,,,No,no warranty,New
9/5/2017 12:33:01 AM,Luong Thi,CA,Legacy 3D,DWA-9150USJ-9150CH,Choco Brown,New,,301.88,,,,4501.88,Jessica Phung,CreditCard,0.00,,,No,"3 years parts, 1 year labor (Free)",New
9/5/2017 12:33:01 AM,Luong Thi,CA,Chair Pad for Lagacy 3D,,,New,,301.88,,,,4501.88,Jessica Phung,CreditCard,0.00,,,No,no warranty,New
9/5/2017 12:33:01 AM,Luong Thi,CA,Foot Pads for Lagacy 3D,,,New,,301.88,,,,4501.88,Jessica Phung,CreditCard,0.00,,,No,no warranty,New
9/5/2017 3:09:35 AM,Carl Levinger,CA,Legacy,DWA-9100DWA-9100CH-DEMO,Demo Choco Brown,New,,207.20,,,,3197.20,Ting Ritchie,CreditCard,0.00,,,No,"3 years parts, 1 year labor (Free)",Dispatched / Shipped
9/5/2017 3:18:17 AM,George Close,WA,Legacy 3D,DWA-9150USJ-9150CH,Choco Brown,New,,361.90,,,,4961.90,Christoper Richard Williams,Synchrony,4600.00,,,No,"5 years parts, 3 years labor ($700)",Dispatched / Shipped
9/5/2017 3:23:44 AM,Jose Martinez,WA,Legacy,DWA-9100DWA-9100BL,Black,New,,267.90,,,,3867.90,Tom Nguyen,Synchrony,3600.00,,,No,"5 years parts, 3 years labor ($700)",Dispatched / Shipped
9/5/2017 3:30:05 AM,Eric Daniels,WA,Pegasus,DWA-9400Pegasus-BL-DEMO,Demo Black,New,,380.70,,,,5180.70,Kristy Tran,Synchrony,4800.00,,,No,"5 years parts, 3 years labor ($700)",Dispatched / Shipped
9/5/2017 3:34:59 AM,Bryce VanDevender,WA,Legacy 3D,DWA-9150USJ-9150CH,Choco Brown,New,,305.50,,,,4305.50,Kristy Tran,CreditCard,4000.00,,,No,"5 years parts, 1 year labor ($300)",Dispatched / Shipped
9/5/2017 3:40:52 AM,Dale Anderson,WA,Legacy 3D,DWA-9150USJ-9150CH,Choco Brown,New,,305.50,,,,4305.50,Tom Nguyen,Synchrony,3500.00,CreditCard,,No,"5 years parts, 3 years labor ($700)",Dispatched / Shipped
9/5/2017 3:44:37 AM,Jennifer Dean,WA,Legacy 3D,DWA-9150USJ-9150BL-DEMO,Demo Black,New,,305.50,,,,4305.50,Phuoc Van,CreditCard,4000.00,,,No,"5 years parts, 3 years labor ($700)",Dispatched / Shipped
9/5/2017 3:50:21 AM,Jerry Thatcher,WA,Legacy 3D,DWA-9150USJ-9150CH,Choco Brown,New,,343.10,,,,4743.10,Kamille Gines,CreditCard,4400.00,,,No,"5 years parts, 3 years labor ($700)",Dispatched / Shipped
9/5/2017 3:57:55 AM,Elsa Kilburn,WA,Pegasus,DWA-9400Pegasus-BR,Choco Brown,New,,399.50,,,,5399.50,Ruben Cuatrona,Synchrony,5000.00,,,No,"5 years parts, 3 years labor ($700)",Dispatched / Shipped
9/5/2017 4:02:17 AM,Janet Bernert,WA,Legacy 3D,DWA-9150USJ-9150BL,Black,New,,333.70,,,,4633.70,Phuoc Van,Synchrony,4300.00,,,No,"5 years parts, 3 years labor ($700)",Dispatched / Shipped
9/5/2017 4:06:36 AM,Jay Hall,WA,Legacy 3D,DWA-9150USJ-9150CH,Choco Brown,New,,333.70,,,,4633.70,Ruben Cuatrona,Synchrony,4300.00,,,No,"5 years parts, 3 years labor ($700)",Dispatched / Shipped
9/5/2017 4:24:38 AM,Robert and Yeonsun Park,WA,Relax2Zero 3D,DWA-9060USJ-9060BR,Choco Brown,New,,324.30,,,,4524.30,Rodrigo Malabunga,Synchrony,4200.00,,,No,"5 years parts, 3 years labor ($700)",Dispatched / Shipped
9/5/2017 4:34:30 AM,Aung Aung,WA,Relax2Zero 3D,DWA-9060USJ-9060BL,Black,New,,582.80,,,,7532.80,Scott Ishikawa,Synchrony,6950.00,,,No,"5 years parts, 3 years labor ($700)",Dispatched / Shipped
9/5/2017 4:11:19 PM,Agustin Caudillo,CA,Relax2Zero 1.0,USJ-9000USJ-9000KU,Black,New,,208.13,,,,3208.13,Kohei Uno,Synchrony,3208.13,,,No,"3 years parts, 1 year labor (Free)",Dispatched / Shipped
9/5/2017 4:23:53 PM,Javier Romero,CA,Relax2Zero 1.0,USJ-9000USJ-9000KU,Black,New,,190.55,,,,3000.55,Kohei Uno,Synchrony,3000.55,,,No,"3 years parts, 1 year labor (Free)",Dispatched / Shipped
9/5/2017 4:23:53 PM,Javier Romero,CA,Daiwa Blanket,,,New,,190.55,,,,3000.55,Kohei Uno,Synchrony,3000.55,,,No,no warranty,Dispatched / Shipped
9/5/2017 4:32:24 PM,Stuart Sam,CA,Relax2Zero 1.0,USJ-9000USJ-9000BR,Brown,New,,254.38,,,,3754.38,Kohei Uno,CreditCard,0.00,,,No,"3 years parts, 3 years labor ($400)",Dispatched / Shipped
9/5/2017 6:44:56 PM,Jeanne Tso,CA,Legacy,DWA-9100DWA-9100BL-DEMO,Demo Black,New,,208.13,,,,3408.13,Mei Kang,Synchrony,0.00,,,No,"3 years parts, 1 year labor (Free)",Dispatched / Shipped
9/5/2017 7:04:44 PM,Lee Luong,TX,Legacy,DWA-9100DWA-9100BU,Blue,New,,209.55,,,,3499.55,Mario Higareda,CreditCard,0.00,,,No,"3 years parts, 1 year labor (Free)",Hold
9/5/2017 7:14:44 PM,Victor Ontiveros,CA,Legacy,DWA-9100DWA-9100BL,Black,New,,277.50,,,,4227.50,Mei Kang,Synchrony,351.00,CreditCard,,No,"3 years parts, 1 year labor (Free)",Dispatched / Shipped
9/5/2017 7:37:49 PM,Carl Levinger,CA,Legacy,DWA-9100DWA-9100CH-DEMO,Demo Choco Brown,New,,231.25,,,,3481.25,Ting Ritchie,CreditCard,0.00,,,No,"3 years parts, 1 year labor (Free)",Dispatched / Shipped
9/5/2017 1:21:05 PM,Willi Xiang,TX,Relax2Zero 3D,DWA-9060USJ-9060BR,Choco Brown,New,,396.00,,,,5946.00,Tangyu Jin,Synchrony,4000.00,,,No,"3 years parts, 1 year labor (Free)",Dispatched / Shipped
9/5/2017 2:30:51 PM,NGOc Trinh,TX,Relax2Zero 3D,DWA-9060USJ-9060BR,Choco Brown,New,,243.38,,,,3943.38,Molly Zhao,CreditCard,0.00,,,No,"3 years parts, 1 year labor (Free)",Dispatched / Shipped
9/5/2017 2:41:58 PM,Wayne Luster,NV,Pegasus,DWA-9400Pegasus-BL-DEMO,Demo Black,New,,304.33,,,,4344.33,Mei Kang,CreditCard,2000.00,COD,,No,"3 years parts, 1 year labor (Free)",Dispatched / Shipped
9/5/2017 2:41:58 PM,Wayne Luster,NV,Daiwa Blanket,,,New,,304.33,,,,4344.33,Mei Kang,CreditCard,2000.00,COD,,No,no warranty,Dispatched / Shipped
9/5/2017 5:24:00 PM,Sau Coc Thong,CA,Legacy 3D,DWA-9150USJ-9150CH,Choco Brown,New,,319.38,,,,4719.38,Jessica Phung,Synchrony,0.00,,,No,"3 years parts, 1 year labor (Free)",New
9/5/2017 5:24:00 PM,Sau Coc Thong,CA,Chair Pad for Lagacy 3D,,,New,,319.38,,,,4719.38,Jessica Phung,Synchrony,0.00,,,No,no warranty,New
9/5/2017 5:24:00 PM,Sau Coc Thong,CA,Foot Pads for Lagacy 3D,,,New,,319.38,,,,4719.38,Jessica Phung,Synchrony,0.00,,,No,no warranty,New
9/6/2017 10:35:10 AM,Candance Robles,WA,Relax2Zero 3D,DWA-9060USJ-9060BR,Choco Brown,New,,350.52,,,,4910.52,Joseph Chan,COD,0.00,,,No,"3 years parts, 3 years labor ($400)",Hold
9/6/2017 10:42:01 AM,David & Cheryl Travis,WA,Relax2Zero 3D,DWA-9060USJ-9060BL,Black,New,,350.52,,,,4910.52,Joseph Chan,CreditCard,200.00,Synchrony,,No,"3 years parts, 3 years labor ($400)",New
9/6/2017 10:47:40 AM,Sandy Koch,WA,Relax2Zero 3D,DWA-9060USJ-9060BR-DEMO,Demo Choco Brown,New,,286.12,,,,4146.12,Joseph Chan,Synchrony,4149.60,,,No,"3 years parts, 3 years labor ($400)",New
9/6/2017 10:54:03 AM,Kirk Fisher,WA,Legacy,DWA-9100DWA-9100CH,Choco Brown,New,,256.68,,,,3796.68,Joseph Chan,CreditCard,100.00,COD,,No,"3 years parts, 3 years labor ($400)",New
9/6/2017 6:02:06 PM,Robert Gursslin,CA,Serenity,SSRT-1SSRT-1-BR,Choco Brown,New,,226.63,,,,3426.63,Kohei Uno,CreditCard,0.00,,,No,"3 years parts, 3 years labor ($400)",New
9/6/2017 6:06:02 PM,Sharee Moore,CA,Serenity,SSRT-1SSRT-1-BL,Black,New,,254.38,,,,3754.38,Kohei Uno,CreditCard,0.00,,,No,"3 years parts, 3 years labor ($400)",New
9/6/2017 6:06:02 PM,Sharee Moore,CA,Daiwa Blanket,,,New,,254.38,,,,3754.38,Kohei Uno,CreditCard,0.00,,,No,no warranty,New
9/6/2017 9:03:14 PM,Troy Abbott,CA,Legacy,DWA-9100DWA-9100CH,Choco Brown,New,,266.40,,,,3896.40,Ting Ritchie,Synchrony,0.00,,,No,"3 years parts, 3 years labor ($400)",New
