﻿Date,Customer Name,State,Zipcode,Description,Product Number,Color,Product Status,Net,Shipping Fee,Gift Price,Financing Processing Fee,Order Total,Total Before Tax,Tax,Commission,Primary Payment Method,Primary Payment Balance,Primary Authorize Number,Primary Purchase Order Number,Primary Synchrony Account Number,Primary Synchrony Application Key,Primary Synchrony Account Info,Primary Synchrony Term,Second Payment Method,Second Payment Balance,Second Authorize Number,Second Purchase Order Number,Second Synchrony Account Number,Second Synchrony Application Key,Second Synchrony Account Info,Second Synchrony Term,Third Payment Method,Third Payment Balance,Third Authorize Number,Third Purchase Order Number,Third Synchrony Account Number,Third Synchrony Application Key,Third Synchrony Account Info,Third Synchrony Term,Delivery Date,Pick up,Warranty,Status,Chair Type,Original Event Name,Event Name,Synchrony Notes,Order Notes,Order Number,Private Note,Branch,No Tax,Actual Tax Rate
9/25/2018 5:50:57 AM,Edward Nickerson,VA,22191,Relax2Zero 3D,DWA-9060USJ-9060BR,New Choco,New,,,,,4900.00,4900.00,0.00,Daniel Ritchie,Synchrony,4600.00,,,6019170813154801,94784443,Huston,36 months,,0.00,,,,,,,,0.00,,,,,,,,No,"5 years parts, 1 year labor (Free)",Cancelled,,"CAPITAL HOME SHOW 9/21-23/18 CHANTILLY, VA (IL)","CAPITAL HOME SHOW 9/21-23/18 CHANTILLY, VA (IL)",,36 month synchrony financing,109833,"$4600 / Synchrony 36 momths 0% APR / No Remaining Balance//Confirmed Sync acct($5,600) and original.***Please charge $4,600 before delivery and have sales draft signed.",Not Dispatched,1,6.00
9/25/2018 6:08:04 AM,Charles Lyles,VA,22302,Relax2Zero 3D,DWA-9060USJ-9060BR,New Choco,New,,,,,4300.00,4300.00,0.00,Daniel Ritchie,CreditCard,200.00,Sq#E4Zm,,,,,,CreditCard,4100.00,Sq #K8Vt,,,,,,,0.00,,,,,,,10/2/2018 12:00:00 AM,No,"5 years parts, 1 year labor (Free)",Delivered,,"CAPITAL HOME SHOW 9/21-23/18 CHANTILLY, VA (IL)","CAPITAL HOME SHOW 9/21-23/18 CHANTILLY, VA (IL)",,"COD: 4100
Please remove old massage chair",109834,"Confirmed $200 in Square. COD$4,100. 9/25/18 Hitomi
schedule 9/27/2018 June
Confirmed COD $4,100 in Square 10/11/18 Masa",TX,1,6.00
9/25/2018 6:18:33 AM,Charlie Hargett,NC,27358,Relax2Zero 3D,DWA-9060USJ-9060BR-DEMO,Demo Choco,Demo,,,,,3500.00,3500.00,0.00,Darryl Garrett,CreditCard,3500.00,Sq#vsHp,,,,,,,0.00,,,,,,,,0.00,,,,,,,10/13/2018 12:00:00 AM,No,"5 years parts, 1 year labor (Free)",Delivered,,"CAPITAL HOME SHOW 9/21-23/18 CHANTILLY, VA (IL)","CAPITAL HOME SHOW 9/21-23/18 CHANTILLY, VA (IL)",,,109835,"CC Josefina - 9/25/18 12:30pm (Will be out of the country until October 9, can do delivery 9th or 10th, can't on 11th but after that is OK)
Darryl customer over phone//COnfirmed $3,500 in Square. 9/25/18 Hitomi",FL,1,6.00
9/25/2018 6:39:55 AM,Jennifer Kao,VA,22124,Relax2Zero 3D,DWA-9060USJ-9060BR,New Choco,New,,,,,4000.00,4000.00,0.00,Darryl Garrett,CreditCard,4000.00,Sq#co03,,,,,,,0.00,,,,,,,,0.00,,,,,,,10/2/2018 12:00:00 AM,No,"5 years parts, 1 year labor (Free)",Delivered,,"CAPITAL HOME SHOW 9/21-23/18 CHANTILLY, VA (IL)","CAPITAL HOME SHOW 9/21-23/18 CHANTILLY, VA (IL)",,,109836,"Call 703-597-6908 and speak with Jennifer to arrange delivery.  Thank you!//Confirmed $4,000 in Square. 9/25/18 Hitomi
Print 9/27/2018 June",TX,1,6.00
9/25/2018 6:56:35 AM,John Payyapilli,NY,11218,Relax2Zero 3D,DWA-9060USJ-9060BL,New Black,New,,,,,4000.00,4000.00,0.00,Daniel Ritchie,Synchrony,4000.00,,,6019170813156640,94825501,Huston,36 months,,0.00,,,,,,,,0.00,,,,,,,10/25/2018 12:00:00 AM,No,"5 years parts, 1 year labor (Free)",Delivered,,"CAPITAL HOME SHOW 9/21-23/18 CHANTILLY, VA (IL)","CAPITAL HOME SHOW 9/21-23/18 CHANTILLY, VA (IL)",Auth#023432,,109838,"Please try to make delivery before Oct. 15th.  Thank you!///CONfirmed SYNC acct ($6,500) and original.***Please charge $4,000 before delivery and have sales draft signed.***9/27/18 Hitomi
Print 9/27/2018 June",TX,1,6.00
9/25/2018 7:19:40 AM,Dan David,VA,20136,Relax2Zero 3D,DWA-9060USJ-9060BL,New Black,New,,,,,4000.00,4000.00,0.00,Darryl Garrett,Synchrony,4000.00,,,6019170813156491,94821746,Huston,36 months,,0.00,,,,,,,,0.00,,,,,,,10/2/2018 12:00:00 AM,No,"5 years parts, 1 year labor (Free)",Delivered,,"CAPITAL HOME SHOW 9/21-23/18 CHANTILLY, VA (IL)","CAPITAL HOME SHOW 9/21-23/18 CHANTILLY, VA (IL)","Charged $4,000 / 36 months - code 436 / Auth # 028473 n Synchrony TX 10/11/18 Masa",Military Discount!  Thank you for your service!!!,109840,"Confirmed sync acct ($6,000) and original. ***Please charge $4,000 before delivery and have sales draft signed.***9/27/18 Hitomi
print 9/27/2018 june",TX,1,6.00
9/25/2018 7:27:22 AM,Carolyn Holmes,VA,23434,Legacy 3D,DWA-9150USJ-9150BL,New Black,New,,,,,4300.00,4300.00,0.00,Darryl Garrett,CreditCard,4300.00,Sq#dK6o,,,,,,,0.00,,,,,,,,0.00,,,,,,,10/3/2018 12:00:00 AM,No,"5 years parts, 1 year labor (Free)",Delivered,,"CAPITAL HOME SHOW 9/21-23/18 CHANTILLY, VA (IL)","CAPITAL HOME SHOW 9/21-23/18 CHANTILLY, VA (IL)",,,109841,"Square app notes says chocolate legacy 3d please ignore and deliver black Legacy 3d//Confirmed $4,300 in Square.9/25/18 Hitomi
print 9/27/2018 June",TX,1,6.00
9/27/2018 9:10:23 AM,Edward Nickerson,VA,22191,Relax2Zero 3D,DWA-9060USJ-9060BR,New Choco,New,,,,,4600.00,4600.00,0.00,Daniel Ritchie,Synchrony,4600.00,,,6019170813154801,94784443,Huston,36 months,,0.00,,,,,,,,0.00,,,,,,,10/11/2018 12:00:00 AM,No,"5 years parts, 1 year labor (Free)",Delivered,,"CAPITAL HOME SHOW 9/21-23/18 CHANTILLY, VA (IL)","CAPITAL HOME SHOW 9/21-23/18 CHANTILLY, VA (IL)","Charged $4,600 / 36 months - code 436 / Auth# 001701 in Synchrony TX 10/11/18 Masa",36 month synchrony financing,109891,"$4600 / Synchrony 36 momths 0% APR / No Remaining Balance//Confirmed Sync acct($5,600) and original.***Please charge $4,600 before delivery and have sales draft signed.***9/27/18 Hitomi

09/27/18 - courtesy call completes- cristina 2:10 pm",TX,1,6.00
