﻿Original Event Name,Event Name,Sales Person,Order Number,Order Date,Customer Name,State,Zip,Product Name,Color,Product Status,QTY,Tax,Total Before Tax,Order Total,Primary Payment Method,Second Payment Method,Thirdl Payment Method,Warranty,Order Items,Pick up,Delivered On,Order Status,Chair Type,Order Notes,Private Note,Branch,No Tax,Actual Tax Rate,SKU,Primary Payment Balance,Primary Authorize Number,Primary Purchase Order Number,Primary Synchrony Account Number,Primary Synchrony Application Key,Primary Synchrony Account Info,Primary Synchrony Term,Second Payment Balance,Second Authorize Number,Second Purchase Order Number,Second Synchrony Account Number,Second Synchrony Application Key,Second Synchrony Account Info,Second SynchronyTerm,Third Payment Balance,Third Authorize Number,Third Purchase Order Number,Third Synchrony Account Number,Third Synchrony Application Key,Third Synchrony Account Info,Third Synchrony Term
PPAI EXPO 1/15-17/19 LAS VEGAS (NV),PPAI EXPO 1/15-17/19 LAS VEGAS (NV),Rodrigo Malabunga,114321,1/16/2019 8:13:59 PM,Jeff McClure,MI,49221,Relax2Zero 3D,New Black,New,1,0.00,4000.00,4000.00,CreditCard,CreditCard,CreditCard,"5 years parts, 2 years labor ($200)","Relax2Zero 3D,",No,2/5/2019 12:00:00 AM,Delivered,New,,"Confirmed $500 in square. Please charge COD $3,500. --- 1/17/19 Asumi
1/17/19 4:22pm Courtesy message sent -Noemi
1/17/19 5:19pm Received a text from customer stating his is currently traveling and will prefer for his chair to be delivered between 1/27 and 2/02 -Noemi",TX,1,8.25,DWA-9060USJ-9060BL,500.00,SQ# 7CZu,,,,,,1500.00,Receipt #EYmy,,,,,,2000.00,Receipt #0PEz,,,,,
PPAI EXPO 1/15-17/19 LAS VEGAS (NV),PPAI EXPO 1/15-17/19 LAS VEGAS (NV),Ruben Cuatrona,114322,1/16/2019 9:09:53 PM,Paul Cincinello,IL,60137,PEGASUS 2 SMART,New Black,New,1,0.00,5500.00,5500.00,Cash,COD,,"5 years parts, 1 year labor (Free)","PEGASUS 2 SMART,",No,,Cancelled,,,"need to ask who have cash now -- 1/17/19 Asum
Per Ruben, Rolly has the cash and all invoices. Emailed Kohei to inform the situation, and we'll be waiting for the cash confirmation from LV. 1/18/19 Riho
1/21Maritza Courtesy message sent @ 12:58PM
1/23/19-Yumi received $100 cash. signed paper. --Hitomi
1/24Maritza- Will cancel this order number. It has been updated to new invoice number #114541",TX,1,8.25,PEGS-2PEGS-2-BL,100.00,,,,,,,5400.00,,,,,,,0.00,,,,,,
PPAI EXPO 1/15-17/19 LAS VEGAS (NV),PPAI EXPO 1/15-17/19 LAS VEGAS (NV),Rolly San Jose,114323,1/16/2019 9:18:56 PM,Sheila Haff,AR,72404,PEGASUS 2 SMART,Demo Choco,Demo,1,0.00,5900.00,5900.00,Synchrony,,,"5 years parts, 1 year labor (Free)","PEGASUS 2 SMART,",No,2/9/2019 12:00:00 AM,Delivered,Demo,,"Confirmed synchrony approved $8,500.00 Please charge $5,900.00 before delivery and have sales draft signed. --- 1/17/19 Asumi
1/17/19 4:24pm Courtesy message sent -Noemi
Received delivery confirmation and sales draft --- 2/25/19 Asumi",TX,1,8.25,PEGS-2PEGS-2-BR-DEMO,5900.00,,,6019170813340418,70030224,Las Vegas,48 months,0.00,,,,,,,0.00,,,,,,
PPAI EXPO 1/15-17/19 LAS VEGAS (NV),PPAI EXPO 1/15-17/19 LAS VEGAS (NV),Rolly San Jose,114324,1/16/2019 9:30:44 PM,Keith Williams,GA,30143,PEGASUS 2 SMART,Demo Choco,Demo,1,0.00,5900.00,5900.00,Synchrony,,,"5 years parts, 1 year labor (Free)","PEGASUS 2 SMART,",No,2/1/2019 12:00:00 AM,Delivered,Demo,,"CC Josefina - 1/28/19 4:33pm
Confirmed synchrony approved $8,500.00. Please charge $5,900.00 before delivery and have sales draft signed.--- 1/17/19 Asumi",FL,1,8.25,PEGS-2PEGS-2-BR-DEMO,5900.00,,,6019170813340608,70034549,Las Vegas,48 months,0.00,,,,,,,0.00,,,,,,
PPAI EXPO 1/15-17/19 LAS VEGAS (NV),PPAI EXPO 1/15-17/19 LAS VEGAS (NV),Rolly San Jose,114325,1/16/2019 9:39:20 PM,Joe Eberz,OH,44312,Relax2Zero 3D,Demo Black,Demo,1,0.00,4200.00,4200.00,Synchrony,,,"5 years parts, 1 year labor (Free)","Relax2Zero 3D,",No,2/12/2019 12:00:00 AM,Delivered,New,,"Confirmed synchrony approved $5,500.00 and original invoice and application form. Please charge $4,200.00 before delivery and have sales draft signed. --- 1/17/19 Asumi
1/17/19 4:25pm Courtesy message sent -Noemi
Received delivery confirmation and sales draft --- 2/25/19 Asumi",TX,1,8.25,DWA-9060USJ-9060BL-DEMO,4200.00,,,6019170813340988,70056739,Las Vegas,36 months,0.00,,,,,,,0.00,,,,,,
PPAI EXPO 1/15-17/19 LAS VEGAS (NV),PPAI EXPO 1/15-17/19 LAS VEGAS (NV),Ruben Cuatrona,114326,1/16/2019 9:53:12 PM,Lawrence Werner,NV,89149,PEGASUS 2 SMART,Demo Choco,Demo,1,0.00,5500.00,5500.00,Synchrony,,,"5 years parts, 1 year labor (Free)","PEGASUS 2 SMART,",No,1/28/2019 12:00:00 AM,Delivered,Demo,,"Confirmed synchrony approved $6,600.00 in texas account. Please charge $5,500.00 before delivery and have sales draft signed. sent mail to  Ruben that we cannot accept moving. --- 1/17/19 Asumi
Confirmed with Rolly. Las vegas will handle this moving. Sent e-mail to Kohei about this and he confirmed. --- 1/18/19 Asumi
Received delivery confirmation --- 2/7/19 Asumi",NV,1,8.25,PEGS-2PEGS-2-BR-DEMO,5500.00,,,6019170813341705,70083627,Huston,36 months,0.00,,,,,,,0.00,,,,,,
PPAI EXPO 1/15-17/19 LAS VEGAS (NV),PPAI EXPO 1/15-17/19 LAS VEGAS (NV),Rodrigo Malabunga,114327,1/16/2019 10:00:45 PM,Toni Kavaky,CA,92585,Relax2Zero 3D,New Choco,New,1,0.00,4900.00,4900.00,Synchrony,,,"5 years parts, 2 years labor ($200)","Relax2Zero 3D,",No,2/1/2019 12:00:00 AM,Delivered,New,,"Pls add 1 more pair of foot pads and 1 black foam back pad
Confirmed synchrony approved $8,500.00  need to confirm about the customer's name. --- 1/17/19 Asumi
Confirmed with Rod,  Toni Kavaky is Annette Kavaky's nickname. Please charge $4,900.00 before delivery and have sales draft signed.  --- 1/17/19 Asumi",CA,1,8.25,DWA-9060USJ-9060BR,4900.00,,,6019170813341341,70070310,Las Vegas,36 months,0.00,,,,,,,0.00,,,,,,
PPAI EXPO 1/15-17/19 LAS VEGAS (NV),PPAI EXPO 1/15-17/19 LAS VEGAS (NV),Ruben Cuatrona,114328,1/16/2019 10:08:32 PM,Lori Moore,CA,92131,Relax2Zero 3D,Demo Choco,Demo,1,0.00,3800.00,3800.00,CreditCard,,,"5 years parts, 1 year labor (Free)","Relax2Zero 3D,",No,1/22/2019 12:00:00 AM,Delivered,New,,"Pls add 1 more pair of footpads, and 1 more black back pad
Confirmed transaction $3,800.00 in square. Please deliver  2 foot pads and 2 back pads with chair --- 1/17/19 Asumi
1/18Maritza- Customer called in asking for ETA on delivery. Per customer, sales rep said delivery would be within a week.",CA,1,8.25,DWA-9060USJ-9060BR-DEMO,3800.00,SQ# flEz,,,,,,0.00,,,,,,,0.00,,,,,,
PPAI EXPO 1/15-17/19 LAS VEGAS (NV),PPAI EXPO 1/15-17/19 LAS VEGAS (NV),Rodrigo Malabunga,114329,1/16/2019 10:15:11 PM,Wendy Elrod,KY,42029,Relax2Zero 3D,New Choco,New,1,0.00,4000.00,4000.00,Synchrony,,,"5 years parts, 2 years labor ($200)","Relax2Zero 3D,",No,2/8/2019 12:00:00 AM,Delivered,New,,"Confirmed synchrony approved $7,200.00 and original invoice and application form. Please charge $4,000.00 before delivery and have sales draft signed. --- 1/17/19 Asumi
1/17/19 4:26pm Courtesy message sent -Noemi",TX,1,8.25,DWA-9060USJ-9060BR,4000.00,,,6019170813341283,70066340,Las Vegas,36 months,0.00,,,,,,,0.00,,,,,,
PPAI EXPO 1/15-17/19 LAS VEGAS (NV),PPAI EXPO 1/15-17/19 LAS VEGAS (NV),Rolly San Jose,114330,1/16/2019 10:27:51 PM,Fred Sturm,CA,93033,Relax2Zero 3D,New Choco,New,4,0.00,16800.00,16800.00,CreditCard,,,"5 years parts, 2 years labor ($200)","Relax2Zero 3D,",No,,Delivered,,,"The other 3 addresses will be given later. All 4 chairs need to be delivered 4 separate different addresses
Confirmed approved $16,800.00 IN SQUARE.  --- 1/16/19 Asumi
Need to confirm rest 3 chair's shipping address. ---1/17/19 Asumi
1/21/19- Pre.Rolly, we need to wait to deliver any of them until all of addresses are confirmed. Rolly will let us know.Place on hold --Hitomi
01/21/19- Rolly s Req a rush on CA & NC delivery he stated customer will be providing the other two locations later on.- Cristina 9:48 am
1/26Maritza- Both califonia chairs delivered on 1/26 Oxnard Serial# 0103002181073,  Camarillo Serial#: 0103002181074",FL,1,8.25,DWA-9060USJ-9060BR,16800.00,SQ# b2yl,,,,,,0.00,,,,,,,0.00,,,,,,
PPAI EXPO 1/15-17/19 LAS VEGAS (NV),PPAI EXPO 1/15-17/19 LAS VEGAS (NV),Ruben Cuatrona,114331,1/16/2019 10:32:48 PM,Dale/nicole Baraks,IA,52806,Relax2Zero 3D,Demo Black,Demo,1,0.00,4000.00,4000.00,CreditCard,,,"5 years parts, 1 year labor (Free)","Relax2Zero 3D,",No,1/26/2019 12:00:00 AM,Delivered,Demo,,"Confirmed $4,000.00 in square. ---- 1/17/19 Asumi
1/17/19 4:29pm Courtesy message sent -Noemi
2/11/19-Confirmed delivery confirmation -Hitomi",TX,1,8.25,DWA-9060USJ-9060BL-DEMO,4000.00,SQ # YJEj,,,,,,0.00,,,,,,,0.00,,,,,,
PPAI EXPO 1/15-17/19 LAS VEGAS (NV),PPAI EXPO 1/15-17/19 LAS VEGAS (NV),Rolly San Jose,114342,1/17/2019 4:21:11 PM,Merrell Owen,IN,46902,PEGASUS 2 SMART,Demo Black,Demo,1,0.00,5900.00,5900.00,CreditCard,,,"5 years parts, 2 years labor ($200)","PEGASUS 2 SMART,",No,2/13/2019 12:00:00 AM,Delivered,Demo,,"Confirmed $5,900.00 in square. --- 1/17/19 Asumi
1/21Maritza Courtesy messages sent @ 1PM
No demo chair inventory, delivered new chair. 2/11/2019 June

Received delivery confirmation --- 2/25/19 Asumi",TX,1,8.25,PEGS-2PEGS-2-BL-DEMO,5900.00,SQ# ldnH,,,,,,0.00,,,,,,,0.00,,,,,,
PPAI EXPO 1/15-17/19 LAS VEGAS (NV),PPAI EXPO 1/15-17/19 LAS VEGAS (NV),Ruben Cuatrona,114343,1/17/2019 4:30:00 PM,Lawrence Bluestone,IL,60015,Relax2Zero 3D,Demo Choco,Demo,1,0.00,3500.00,3500.00,CreditCard,,,"5 years parts, 1 year labor (Free)","Relax2Zero 3D,",No,,Cancelled,,,"Confirmed $3,500.00 in square. --- 1/17/19 Asumi
1/21Maritza Courtesy message sent @ 1:13PM
01/28/19- Per Ruben Customer Upgraded chair will be creating a new invoice-Cristina 5:05pm
New invoice created #114682 - Cristina-",TX,1,8.25,DWA-9060USJ-9060BR-DEMO,3500.00,SQ# swaJ,,,,,,0.00,,,,,,,0.00,,,,,,
PPAI EXPO 1/15-17/19 LAS VEGAS (NV),PPAI EXPO 1/15-17/19 LAS VEGAS (NV),Rolly San Jose,114344,1/17/2019 4:37:04 PM,Yitzchak Freund,NY,11559,Relax2Zero 3D,New Black,New,1,0.00,4200.00,4200.00,CreditCard,,,"5 years parts, 1 year labor (Free)","Relax2Zero 3D,",No,,Scheduled,,,"Confirmed $4,200.00 in square. * pls add one more pair of foot pads to make 2 pairs foot pads*--- 1/17/19 Asumi
1/21Maritza Courtesy message sent @ 1:14PM",TX,1,8.25,DWA-9060USJ-9060BL,4200.00,SQ# 9mBu,,,,,,0.00,,,,,,,0.00,,,,,,
PPAI EXPO 1/15-17/19 LAS VEGAS (NV),PPAI EXPO 1/15-17/19 LAS VEGAS (NV),Ruben Cuatrona,114345,1/17/2019 4:53:32 PM,Shawn Chen,CA,91790,Relax2Zero 3D,Demo Choco,Demo,1,0.00,4000.00,4000.00,CreditCard,CreditCard,,"5 years parts, 1 year labor (Free)","Relax2Zero 3D,",No,1/28/2019 12:00:00 AM,Delivered,New,,Confirmed  $500.00 in square. Pleace charge COD $3500 at the timing of delivery. --- 1/17/19 Asumi,CA,1,8.25,DWA-9060USJ-9060BR-DEMO,500.00,SQ# my4a,,,,,,3500.00,housecall pro,,,,,,0.00,,,,,,
PPAI EXPO 1/15-17/19 LAS VEGAS (NV),PPAI EXPO 1/15-17/19 LAS VEGAS (NV),Ruben Cuatrona,114346,1/17/2019 5:02:48 PM,Mike and kearcy Hahn,WA,98226,Relax2Zero 3D,Demo Choco,Demo,1,0.00,4000.00,4000.00,CreditCard,COD,,"5 years parts, 1 year labor (Free)","Relax2Zero 3D,",No,1/17/2019 12:00:00 AM,Delivered,Demo,,"Confirmed $1,000.00 in square. Please charge COD$ 3000.00 at the timing of delivery --- 1/17/19 Asumi
Courtesy call completed - Flexible with sched- Correct address:  inputted: 4325 Saddlestone Dr.
Received delivery confirmation and confirmed COD $3,000.00  in square. (receipt nmQF)--- 1/30/19 Asumi",WA,1,8.25,DWA-9060USJ-9060BR-DEMO,1000.00,SQ# liLN,,,,,,3000.00,,,,,,,0.00,,,,,,
PPAI EXPO 1/15-17/19 LAS VEGAS (NV),PPAI EXPO 1/15-17/19 LAS VEGAS (NV),Rolly San Jose,114347,1/17/2019 5:08:41 PM,Don Pettrow,CO,80915,PEGASUS 2 SMART,New Black,New,1,0.00,5900.00,5900.00,Synchrony,,,"5 years parts, 1 year labor (Free)","PEGASUS 2 SMART,",No,,Scheduled,,,"Confirmed synchrony approved $7,100.00 and original application form and have sales draft signed.Please charge $5,900.00 before delivery and have sales draft signed. --- 1/18/19 Asumi
1/21Maritza Courtesy message sent @ 2:17PM",TX,1,8.25,PEGS-2PEGS-2-BL,5900.00,,,6019170813342315,70112055,San Diego,48 months,0.00,,,,,,,0.00,,,,,,
PPAI EXPO 1/15-17/19 LAS VEGAS (NV),PPAI EXPO 1/15-17/19 LAS VEGAS (NV),Rolly San Jose,114363,1/18/2019 3:01:26 PM,Scott Darter,AR,72758,Ninja Leg Massager,,New,1,0.00,269.00,269.00,CreditCard,,,2 Years Parts / No labor (Vending),"Ninja Leg Massager,",YES,,Delivered,,,"Confirmed SQUARE transaction $269 . --- 1/18/19 Asumi
Customer Emailed showsales@usjaclean.com to inform that the Massager hasn't delivered (neither picked up) for now. Per Ruben and Rolly it need to be delivered, so emailed TX to ask them to ship it. 2/14/19 Riho
TX Tina followed up the shipment, track#7744 8574 5039. 2/15/19 Riho",TX,1,8.25,,269.00,d7Rf,,,,,,0.00,,,,,,,0.00,,,,,,
PPAI EXPO 1/15-17/19 LAS VEGAS (NV),PPAI EXPO 1/15-17/19 LAS VEGAS (NV),Ruben Cuatrona,114541,1/24/2019 10:55:43 AM,Paul Cincinello,IL,60137,PEGASUS 2 SMART,New Black,New,1,0.00,4900.00,4900.00,Cash,Cash,,"5 years parts, 1 year labor (Free)","PEGASUS 2 SMART,",No,1/26/2019 12:00:00 AM,Delivered,New,,"Correction for invoice#114322. Price drop confirmed by Ruben. Sale was originally $5500 but now will be $4900
need to ask who have cash now -- 1/17/19 Asum
Per Ruben, Rolly has the cash and all invoices. Emailed Kohei to inform the situation, and we'll be waiting for the cash confirmation from LV. 1/18/19 Riho
1/21Maritza Courtesy message sent @ 12:58PM
1/23/19-Yumi received $100 cash. signed paper. --Hitomi
1/24Emailed customer new sales invoice. cbcpac@hotmail.com",TX,1,8.25,PEGS-2PEGS-2-BL,100.00,,,,,,,4800.00,,,,,,,0.00,,,,,,
PPAI EXPO 1/15-17/19 LAS VEGAS (NV),PPAI EXPO 1/15-17/19 LAS VEGAS (NV),Ruben Cuatrona,114680,1/28/2019 5:19:28 PM,Larry (Lawrence) Bluestone,IL,60015,PEGASUS 2 SMART,New Choco,New,1,0.00,5500.00,5500.00,CreditCard,COD,,"5 years parts, 1 year labor (Free)","PEGASUS 2 SMART,",No,,Cancelled,,"COD: $1,000",01/28/19-  TX Branch Please contact customer ASAP customer already tried to cancel once due to chair not fitting; Customers previous order is #114343- Cristina resubmitted order per Ruben's request- 5:20 pm,TX,1,8.25,PEGS-2PEGS-2-BR,3500.00,swaJ,,,,,,1000.00,,,,,,,0.00,,,,,,
PPAI EXPO 1/15-17/19 LAS VEGAS (NV),PPAI EXPO 1/15-17/19 LAS VEGAS (NV),Ruben Cuatrona,114682,1/28/2019 5:27:26 PM,Larry Bluestone,IL,60015,PEGASUS 2 SMART,New Choco,New,1,0.00,4500.00,4500.00,CreditCard,CreditCard,,"5 years parts, 1 year labor (Free)","PEGASUS 2 SMART,",No,2/3/2019 12:00:00 AM,Delivered,New,COD $1000,TX Branch please call customer ASAP to avoid cancellation customer wanted to cancel once due to chair not fitting.#114343/114680- Cristina resubmitted order per Ruben's request- 5:20 pm,TX,1,8.25,PEGS-2PEGS-2-BR,3500.00,swaJ,,,,,,1000.00,Receipt #QBUA,,,,,,0.00,,,,,,
