﻿Date,CustomerName,State,Zipcode,Description,productNo,Color,IsDemo,Net,ShippingFee,GiftPrice,FinancingProcessingFee,Gross,Pre_tax,Tax,Commission,Primary Payment Method,Primary Payment Balance,Primary Authorize Number,Primary Purchase Order Number,Primary Synchrony Account Number,Primary Synchrony Application Key,Primary Synchrony AccountInfo,Primary SynchronyTerm,Secondly Payment Method,Secondly Payment Balance,Secondly Authorize Number,Secondly Purchase Order Number,Secondly Synchrony Account Number,Secondly Synchrony Application Key,Secondly Synchrony AccountInfo,Secondly SynchronyTerm,Thirdly Payment Method,Thirdly Payment Balance,Thirdly Authorize Number,Thirdly Purchase Order Number,Thirdly Synchrony Account Number,Thirdly Synchrony Application Key,Thirdly Synchrony AccountInfo,Thirdly SynchronyTerm,DeliveryDate,Ispickup,Warranty,Status,Event Name,Synchrony Notes,Order Notes,Order number,Private Note,Branch,IsNoTax,ActualTaxRate
12/16/2017 9:22:15 PM,Cindy Ortiz,NV,89081,Legacy for Sam's,DWA-9100DWA-9100CH,Choco,New,,,,,4653.67,4299.00,354.67,Rachelle Estanilla,Cash,4653.67,,,,,,,,0.00,,,,,,,,0.00,,,,,,,12/19/2017 12:00:00 AM,No,"3 years parts, 1 year labor (Free)",Delivered,Sam's Club #4974 NORTH LAS VEGAS (NV),,,102514,"TC# 2179 7087 0048 4233 3152 49, 12/18/17 Riho",NV,0,8.25
12/17/2017 5:48:41 PM,Renee Lipscomb,NV,89081,Vitality Plate for Sam's,USJ-849USJ-849-DEMO,Deomo,New,,,,,432.99,399.99,33.00,Kristy Tran,CreditCard,432.99,TC 322212651114376763306,,,,,,,0.00,,,,,,,,0.00,,,,,,,12/17/2017 12:00:00 AM,YES,"2 years parts, 1 year labor (Small Items)",Delivered,Sam's Club #4974 NORTH LAS VEGAS (NV),,Customer picked up 12/17/2017,102554,,NV,0,8.25
12/17/2017 5:59:59 PM,Robert Morris,NV,89081,Relax2Zero 2.0 for Sam's,USJ-9050USJ-9050BL,Black,New,,,,,4221.75,3900.00,321.75,Kristy Tran,CreditCard,4221.75,TC 4838787629649412116475,,,,,,,0.00,,,,,,,,0.00,,,,,,,12/19/2017 12:00:00 AM,No,"3 years parts, 1 year labor (Free)",Delivered,Sam's Club #4974 NORTH LAS VEGAS (NV),,,102556,,NV,0,8.25
