﻿Date,CustomerName,State,Zipcode,Description,productNo,Color,IsDemo,Net,ShippingFee,GiftPrice,FinancingProcessingFee,Gross,Pre_tax,Tax,Commission,Primary Payment Method,Primary Payment Balance,Primary Authorize Number,Primary Purchase Order Number,Primary Synchrony Account Number,Primary Synchrony Application Key,Primary Synchrony AccountInfo,Primary SynchronyTerm,Secondly Payment Method,Secondly Payment Balance,Secondly Authorize Number,Secondly Purchase Order Number,Secondly Synchrony Account Number,Secondly Synchrony Application Key,Secondly Synchrony AccountInfo,Secondly SynchronyTerm,Thirdly Payment Method,Thirdly Payment Balance,Thirdly Authorize Number,Thirdly Purchase Order Number,Thirdly Synchrony Account Number,Thirdly Synchrony Application Key,Thirdly Synchrony AccountInfo,Thirdly SynchronyTerm,DeliveryDate,Ispickup,Warranty,Status,Event Name,Synchrony Notes,Order Notes,Order number,Private Note,Branch,IsNoTax,ActualTaxRate
3/19/2018 10:16:44 AM,Matthew Bohn,OH,45434,Pegasus,DWA-9400Pegasus-BL-DEMO,Demo Black,Demo,,,,,4600.00,4600.00,0.00,Noni Ignacio,Synchrony,3000.00,,,6034610083165004,86406687,Las Vegas,36 months,COD,800.00,,,,,,,,0.00,,,,,,,,No,"3 years parts, 1 year labor (Free)",Called,Dayton Home and Garden Show 3/16-18/18 (IL),,Customer will pay by credit card when the message chair is delivered.,104615,"Total amount is $3,800. Confirmed synchrony form and the account ($3,000).***Please charge $3,000 and COD $800.***3/19/18 Hitomi",TX,1,7.25
3/19/2018 10:33:23 AM,Sergio Elizalde,OH,45385,Legacy 3D,DWA-9150USJ-9150BL,New Black,New,,,,,4000.00,4000.00,0.00,Noni Ignacio,Synchrony,0.00,,,6034610083165020,86407064,Las Vegas,36 months,COD,1000.00,,,,,,,,0.00,,,,,,,,No,"3 years parts, 1 year labor (Free)",Hold,Dayton Home and Garden Show 3/16-18/18 (IL),,HOLD DELIVERY IN 6 MONTHS. CUSTOMER WILL CALL. COD FOR THE BALANCE,104616,"Confirmed Synchrony form and the account ($3,000).***Please charge $3,000 and COD $1,000.***3/19/18Hitomi",TX,1,7.25
3/19/2018 10:41:01 AM,Sharma Anupindi,TX,77479,Legacy,DWA-9100DWA-9100BL,New Black,New,,,,,3400.00,3400.00,0.00,Noni Ignacio,Cash,3400.00,,,,,,,,0.00,,,,,,,,0.00,,,,,,,,No,"3 years parts, 1 year labor (Free)",Assigned,Dayton Home and Garden Show 3/16-18/18 (IL),,Delivery within 2 weeks,104617,"Cash received by Noni
will confirm cash",TX,1,7.25
