﻿Original Event Name,Event Name,Sales Person,Order Number,Order Date,Customer Name,State,Zip,Product Name,Color,Product Status,QTY,Tax,Total Before Tax,Order Total,Primary Payment Method,Second Payment Method,Thirdl Payment Method,Warranty,Order Items,Pick up,Delivered On,Order Status,Chair Type,Order Notes,Private Note,Branch,No Tax,Actual Tax Rate,SKU,Primary Payment Balance,Primary Authorize Number,Primary Purchase Order Number,Primary Synchrony Account Number,Primary Synchrony Application Key,Primary Synchrony Account Info,Primary Synchrony Term,Second Payment Balance,Second Authorize Number,Second Purchase Order Number,Second Synchrony Account Number,Second Synchrony Application Key,Second Synchrony Account Info,Second SynchronyTerm,Third Payment Balance,Third Authorize Number,Third Purchase Order Number,Third Synchrony Account Number,Third Synchrony Application Key,Third Synchrony Account Info,Third Synchrony Term
LAUGHLIN RIVER RUN 4/24-28/19 LAUGHLIN (NV),LAUGHLIN RIVER RUN 4/24-28/19 LAUGHLIN (NV),Joseph Chan,117032,4/28/2019 10:34:31 PM,Alan Huttmann,CA,94526,PEGASUS 2 SMART,New Choco,New,1,0.00,6500.00,6500.00,Credit Card,,,"3 years parts, 1 year labor (Free)","PEGASUS 2 SMART,",No,5/1/2019 12:00:00 AM,Delivered,New,,"4/29/19-Confirmed $6,500 in SQ. - Hitomi
4/29Maritza- Printed scheduled for 5/1 3-6pm
5/7Maritza- Delivery confirmation received.",CA,1,8.25,PEGS-2PEGS-2-BR,6500.00,#0AHc,,,,,,0.00,,,,,,,0.00,,,,,,
LAUGHLIN RIVER RUN 4/24-28/19 LAUGHLIN (NV),LAUGHLIN RIVER RUN 4/24-28/19 LAUGHLIN (NV),Joseph Chan,117033,4/28/2019 10:40:26 PM,Jim Bilbery,CA,92530,PEGASUS 2 SMART,New Choco,New,1,0.00,6500.00,6500.00,COD,,,"3 years parts, 1 year labor (Free)","PEGASUS 2 SMART,",No,,Hold,,,"Bought together with Alan Huttmann, needs wife to come in the office to try before making payment, please hold
***NEED SIGNATURE ON SALES RECEIPT***-4/30/19HITOMI",Not Dispatched,1,8.25,PEGS-2PEGS-2-BR,0.00,,,,,,,0.00,,,,,,,0.00,,,,,,
LAUGHLIN RIVER RUN 4/24-28/19 LAUGHLIN (NV),LAUGHLIN RIVER RUN 4/24-28/19 LAUGHLIN (NV),Joy Anne Torres,117034,4/28/2019 10:45:47 PM,Jeremiah Day,NV,89445,PEGASUS 2 SMART,New Black,New,1,0.00,6500.00,6500.00,Synchrony,,,"3 years parts, 1 year labor (Free)","PEGASUS 2 SMART,",No,,Assigned,,,"4/29/19-Confirmed SYNC$7,200 and original. [DL:NV 07/26, CC:VISA 11/19] ***Please charge $6,500/sales draft***-Hitomi
4/30Maritza- Requested quote from 3rd party
5/1Maritza- Courtesy call made + text at 4:55PM (Left a voicemail and requested a call back since I have further info on his delivery) Customer is okay with using a third party. Dispatched to CA.
5/7Maritza- Customer sent in sales draft until 5/4 so chair had to leave until Monday (5/6) Will be in route (3-5 business days) will update once I have a POD.",CA,1,8.25,PEGS-2PEGS-2-BL,6500.00,,,6501723375118575,74507335,Las Vegas,36 months,0.00,,,,,,,0.00,,,,,,
LAUGHLIN RIVER RUN 4/24-28/19 LAUGHLIN (NV),LAUGHLIN RIVER RUN 4/24-28/19 LAUGHLIN (NV),Querubin Milanes,117035,4/28/2019 10:53:02 PM,Pablo Trevino,CA,92508,PEGASUS 2 SMART,New Black,New,1,0.00,6200.00,6200.00,Synchrony,COD,,"5 years parts, 1 year labor (Free)","PEGASUS 2 SMART,",No,,Hold,,,"Please hold, customer need sometime to make up he balance
4/30/19 SYNC approved $1,500. *sales receipt needs to be signed* will confirm synchrony term since original says 36 months - Hitomi",Not Dispatched,1,8.25,PEGS-2PEGS-2-BL,1200.00,,,6501723375118864,74523791,Las Vegas,36 months,5000.00,,,,,,,0.00,,,,,,
LAUGHLIN RIVER RUN 4/24-28/19 LAUGHLIN (NV),LAUGHLIN RIVER RUN 4/24-28/19 LAUGHLIN (NV),Joy Anne Torres,117036,4/28/2019 10:57:59 PM,Stephen Kuburich,AZ,85138,Legacy,New Choco,New,1,0.00,4200.00,4200.00,Synchrony,,,"3 years parts, 1 year labor (Free)","Legacy,",No,,Assigned,,,"4/29/19-Confirmed SYNC$7,000 and original. [DL:AZ 07/15/25, CC:VISA 01/23] ***Please charge $4,200/sales draft ***-Hitomi",NV,1,8.25,DWA-9100DWA-9100BU,4200.00,,,6501723375119599,74541613,Las Vegas,36 months,0.00,,,,,,,0.00,,,,,,
LAUGHLIN RIVER RUN 4/24-28/19 LAUGHLIN (NV),LAUGHLIN RIVER RUN 4/24-28/19 LAUGHLIN (NV),Joy Anne Torres,117037,4/28/2019 11:03:51 PM,Donald & Yvonne Matalka,NE,68601,Relax 2 Zero 3D,New Black,New,1,0.00,4300.00,4300.00,Cash,COD,,"3 years parts, 1 year labor (Free)","Relax 2 Zero 3D,",No,,Scheduled,,Balance of $4100-C.O.D.,"4/29/19-will confirm cash - Hitomi
4/30/19-$200 cash was passed to Yumi. Pre.Michael signed on invoice. ***COD$4,100*** - Hitomi
5/1Maritza- Courtesy message sent @ 10:41AM
5/1/2019 Printed and courtesy message sent - Tina
5/7 - Alysa - Customer confirmed delivery Tuesday 5/21 between 5-8PM",TX,1,8.25,DWA-9060USJ-9060BL,200.00,,,,,,,4100.00,,,,,,,0.00,,,,,,
LAUGHLIN RIVER RUN 4/24-28/19 LAUGHLIN (NV),LAUGHLIN RIVER RUN 4/24-28/19 LAUGHLIN (NV),Joseph Chan,117038,4/28/2019 11:07:59 PM,Mike Sullivan,AZ,86442,PEGASUS 2 SMART,Demo Choco,Demo,1,0.00,5800.00,5800.00,Synchrony,,,"3 years parts, 1 year labor (Free)","PEGASUS 2 SMART,",YES,4/28/2019 12:00:00 AM,Delivered,Demo,,"4/29/19-will confirm sync and pickup - Hitomi
4/30/19-Confirmed SYNC$9,000 and original. Confirmed pickup confirmation and charged synchrony -Hitomi",NV,1,8.25,PEGS-2PEGS-2-BR-DEMO,5800.00,,,6501723375119078,74531539,Las Vegas,48 months,0.00,,,,,,,0.00,,,,,,
LAUGHLIN RIVER RUN 4/24-28/19 LAUGHLIN (NV),LAUGHLIN RIVER RUN 4/24-28/19 LAUGHLIN (NV),Joy Anne Torres,117039,4/28/2019 11:14:38 PM,Hipple Patel,FL,33025,Relax 2 Zero 3D,Demo Black,Demo,1,0.00,4000.00,4000.00,Synchrony,,,"3 years parts, 1 year labor (Free)","Relax 2 Zero 3D,",No,,Cancelled,,,"Please deliver to FL address
4/29/19-Confirmed SYNC$6,800 and original. [DL: NJ 03/21,CC: VISA 04/22]***Please charge $4,000/ sales draft ***-Hitomi
CC, Jasmin Carrizales, 4/30/19, 4:23pm, VM
Joy Ann informed that the customer cancelled the order. 4/30/19 Riho",FL,1,8.25,DWA-9060USJ-9060BL-DEMO,4000.00,,,6501723375119730,74545583,Las Vegas,24 months,0.00,,,,,,,0.00,,,,,,
LAUGHLIN RIVER RUN 4/24-28/19 LAUGHLIN (NV),LAUGHLIN RIVER RUN 4/24-28/19 LAUGHLIN (NV),Joseph Chan,117040,4/28/2019 11:19:01 PM,Richard Fisher,CA,91901,Relax 2 Zero 3D,New Choco,New,1,0.00,4900.00,4900.00,Synchrony,,,"3 years parts, 1 year labor (Free)","Relax 2 Zero 3D,",No,5/8/2019 12:00:00 AM,Delivered,New,,"4/30/19-Confirmed SYNC$6,500 and original. [ DL:CA 07/23,CC:MC 11/21]***PLease charge $4,900/sales draft***-Hitomi
4/30Maritza- Printed.
5/1Maritza- Scheduled for 5/8 1-4
5/14Maritza- Delivery confirmation received with signed sales order",CA,1,8.25,DWA-9060USJ-9060BR,4900.00,,,6501723375120787,74576004,Las Vegas,36 months,0.00,,,,,,,0.00,,,,,,
LAUGHLIN RIVER RUN 4/24-28/19 LAUGHLIN (NV),LAUGHLIN RIVER RUN 4/24-28/19 LAUGHLIN (NV),Querubin Milanes,117041,4/28/2019 11:23:40 PM,Jill Whitney,CA,91350,PEGASUS 2 SMART,New Choco,New,1,0.00,6200.00,6200.00,Synchrony,,,"5 years parts, 1 year labor (Free)","PEGASUS 2 SMART,",No,5/6/2019 12:00:00 AM,Delivered,New,,"4/30/19-Confirmed SYNC$9,000 and original. [DL:CA 12/19, CC:VISA 11/23] ***Please charge $6,200/sales draft***-Hitomi
4/30Maritza-Printed
4/30Maritza- Scheduled 5/6 10-12
5/7Maritza- Delivery confirmation received including sales draft.
5/14Maritza- Called asking about billing statement. Told her it takes between 2-4 weeks after the card was charged for the first statement to come.",CA,1,8.25,PEGS-2PEGS-2-BR,6200.00,,,6501723375120860,74578638,Las Vegas,36 months,0.00,,,,,,,0.00,,,,,,
LAUGHLIN RIVER RUN 4/24-28/19 LAUGHLIN (NV),LAUGHLIN RIVER RUN 4/24-28/19 LAUGHLIN (NV),Joy Anne Torres,117042,4/28/2019 11:30:20 PM,Carolina Mongarro,CA,92251,Legacy,Demo Black,Demo,1,0.00,3500.00,3500.00,Synchrony,,,"5 years parts, 1 year labor (Free)","Legacy,",No,5/8/2019 12:00:00 AM,Delivered,New,,"4/30/19-Confirmed SYNC$6,500 and original. [DL:CA 07/11/19, CC:VISA 08/21] ***Please charge $3,500/sales draft***-Hitomi
4/30Maritza- Printed
5/1Maritza- Scheduled for 5/8 10-1
5/16Maritza- Delivery confirmation and sales draft received. new due to no demo inventory.",CA,1,8.25,DWA-9100DWA-9100BL-DEMO,3500.00,,,6501723375120795,74576036,Las Vegas,24 months,0.00,,,,,,,0.00,,,,,,
LAUGHLIN RIVER RUN 4/24-28/19 LAUGHLIN (NV),LAUGHLIN RIVER RUN 4/24-28/19 LAUGHLIN (NV),Joy Anne Torres,117043,4/28/2019 11:35:32 PM,Tina Schmidt,AZ,86413,Relax 2 Zero 3D,Demo Choco,Demo,1,0.00,4200.00,4200.00,Credit Card,Synchrony,COD,"5 years parts, 1 year labor (Free)","Relax 2 Zero 3D,",No,,Assigned,,Balance of $1500 - C.O.D.,"4/29/19-COnfirmed $1,500 in SQ. will confirm sync -Hitomi
4/30/19-Confirmed SYNC $1,200 and original. [DL:AZ 12/30, CC: VISA 01/22] ***Please charge $1,200/*sales draft/*COD$1,500.***-Hitomi",NV,1,8.25,DWA-9060USJ-9060BR-DEMO,1500.00,Receipt #TWMi,,,,,,1200.00,,,6501723375128936,74579923,Las Vegas,12 months,1500.00,,,,,,
LAUGHLIN RIVER RUN 4/24-28/19 LAUGHLIN (NV),LAUGHLIN RIVER RUN 4/24-28/19 LAUGHLIN (NV),Querubin Milanes,117044,4/28/2019 11:40:18 PM,Michael Schnell,IL,60452,PEGASUS 2 SMART,New Choco,New,1,0.00,5800.00,5800.00,Credit Card,COD,,"5 years parts, 1 year labor (Free)","PEGASUS 2 SMART,",No,,Scheduled,,Balance of $5300 - C.O.D.,"4/29/19-COnfirmed $500.00 in SQ.***COD $5,300.00***-Hitomi
4/30Maritza- Courtesy message sent @ 10:13AM
4/30/19-Per.Joseph, please hold the delivery as customer is re-modeling his house, will call when ready - Hitomi
5/8/2019 Customer called to let us know that they are ready for their massage chair and went ahead to pay the remaining balance over the phone (Tina's Square, #Nq7l $5,300) - Alysa
5/8/2019 Scheduled for Mon 5.13.2019 2pm to 6pm - Tina",TX,1,8.25,PEGS-2PEGS-2-BR,500.00,#Sx7K,,,,,,5300.00,,,,,,,0.00,,,,,,
LAUGHLIN RIVER RUN 4/24-28/19 LAUGHLIN (NV),LAUGHLIN RIVER RUN 4/24-28/19 LAUGHLIN (NV),Querubin Milanes,117045,4/28/2019 11:44:06 PM,David Schnell,IL,60452,PEGASUS 2 SMART,New Choco,New,1,0.00,5800.00,5800.00,Synchrony,,,"5 years parts, 1 year labor (Free)","PEGASUS 2 SMART,",No,,Cancelled,,,"4/30/19- Confirmed SYNC$7,000 and original. [DL: IL 02/21, CC:Master 10/20] ***Please charge $5,800/sales draft***-Hitomi
5/1Maritza- Courtesy message sent @ 10:43AM
5/1 - Alysa- Printed
5/1/19 Querubin informed me that this order was cancelled by the customer. -Riho",TX,1,8.25,PEGS-2PEGS-2-BR,5800.00,,,6501723375122197,74600028,Las Vegas,36 months,0.00,,,,,,,0.00,,,,,,
LAUGHLIN RIVER RUN 4/24-28/19 LAUGHLIN (NV),LAUGHLIN RIVER RUN 4/24-28/19 LAUGHLIN (NV),Joseph Chan,117046,4/28/2019 11:51:55 PM,Brad Rutledge,NV,89029,Legacy,Demo Choco,Demo,1,247.50,3000.00,3247.50,Credit Card,,,"5 years parts, 1 year labor (Free)","Legacy,",YES,4/28/2019 12:00:00 AM,Delivered,Demo,,"Same customer buying 2 chairs
4/29/19-Confirmed $3,247.50 in SQ. will confirm pickup -Hitomi
4/29/19-Confirmed pick up confirmation - Hitomi",NV,0,8.25,DWA-9100DWA-9100BU-DEMO,3247.50,Receipt #087E,,,,,,0.00,,,,,,,0.00,,,,,,
LAUGHLIN RIVER RUN 4/24-28/19 LAUGHLIN (NV),LAUGHLIN RIVER RUN 4/24-28/19 LAUGHLIN (NV),Joseph Chan,117047,4/28/2019 11:56:35 PM,Brad Rutledge,NV,89029,Legacy,Demo Black,Demo,1,247.50,3000.00,3247.50,Credit Card,,,"5 years parts, 1 year labor (Free)","Legacy,",YES,4/28/2019 12:00:00 AM,Delivered,Demo,,"4/29/19-COnfirmed $3,247.50 in SQ. will confirm pickup - Hitomi
4/30/19-Received pickup confirmation - Hitomi",NV,0,8.25,DWA-9100DWA-9100BL-DEMO,3247.50,#kZUi,,,,,,0.00,,,,,,,0.00,,,,,,
LAUGHLIN RIVER RUN 4/24-28/19 LAUGHLIN (NV),LAUGHLIN RIVER RUN 4/24-28/19 LAUGHLIN (NV),Joy Anne Torres,117048,4/29/2019 12:00:02 AM,Patrick Coker,AZ,86429,Legacy,Demo Choco,Demo,1,0.00,3200.00,3200.00,Credit Card,,,"5 years parts, 1 year labor (Free)","Legacy,",YES,4/28/2019 12:00:00 AM,Delivered,Demo,,"4/29/19-Confirmed $3,200.00 in SQ. will confirm pickup -Hitomi
4/30/19-Confirmed pickup confirmation - Hitomi",NV,1,8.25,DWA-9100DWA-9100BU-DEMO,3200.00,#p8q6,,,,,,0.00,,,,,,,0.00,,,,,,
