﻿Original Event Name,Event Name,Sales Person,Order Number,Order Date,Customer Name,State,Zip,Product Name,Color,Product Status,QTY,Tax,Total Before Tax,Order Total,Primary Payment Method,Second Payment Method,Thirdl Payment Method,Warranty,Order Items,Pick up,Delivered On,Order Status,Chair Type,Order Notes,Private Note,Branch,No Tax,Actual Tax Rate,SKU,Primary Payment Balance,Primary Authorize Number,Primary Purchase Order Number,Primary Synchrony Account Number,Primary Synchrony Application Key,Primary Synchrony Account Info,Primary Synchrony Term,Primary Synchrony Primary ID,Primary Synchrony Issued State,Primary Synchrony Expiretion Date,Second Payment Balance,Second Authorize Number,Second Purchase Order Number,Second Synchrony Account Number,Second Synchrony Application Key,Second Synchrony Account Info,Second SynchronyTerm,Second Synchrony Primary ID,Second Synchrony Issued State,Second Synchrony Expiretion Date,Third Payment Balance,Third Authorize Number,Third Purchase Order Number,Third Synchrony Account Number,Third Synchrony Application Key,Third Synchrony Account Info,Third Synchrony Term,Third Synchrony Primary ID,Third Synchrony Issued State,Third Synchrony Expiretion Date
"Sams Club #8288 Midland, TX","Sams Club #8288 Midland, TX",Chris Tavira,120542,8/30/2019 9:32:47 AM,Jose Morales,TX,79701,Shogun Neck & Back Massger,Demo[-20],Demo,1,14.40,179.98,194.38,Credit Card,,,"2 years parts, 1 year labor for Small Items","Shogun Neck &amp; Back Massger,",YES,,Delivered,,Invoice # 00011276,,TX,0,8.00,USJ-874USJ-874-DEMO,194.38,TC # 879799962703130146177,,,,,,,,/,0.00,,,,,,,,,/,0.00,,,,,,,,,/
"Sams Club #8288 Midland, TX","Sams Club #8288 Midland, TX",Chris Tavira,120543,8/30/2019 9:38:18 AM,Valeria Orozco,TX,79703,Shogun Neck & Back Massger,Demo[-20],Demo,1,14.40,179.98,194.38,Credit Card,,,"2 years parts, 1 year labor for Small Items","Shogun Neck &amp; Back Massger,",YES,,Delivered,,Invoice # 00011271,,TX,0,8.00,USJ-874USJ-874-DEMO,194.38,TC # 120350255142641667621,,,,,,,,/,0.00,,,,,,,,,/,0.00,,,,,,,,,/
"Sams Club #8288 Midland, TX","Sams Club #8288 Midland, TX",Chris Tavira,120550,8/30/2019 5:44:08 PM,Lennox Sam,TX,79707,Legacy for Sam's,Demo(Box) Choco[-500],Demo,1,311.84,3898.00,4209.84,Credit Card,,,"3 years parts, 1 year labor (Free)","Legacy for Sam's,",No,,Printed,,Invoice # 0011188,"Original received-Erika 9/3/19 2:39pm
courtesy  call completed-Erika 9/4/19 4:30pm
Printed - Tina 9.6.2019",TX,0,8.00,DWA-9100DWA-9100CH-Box,4209.84,TC#1001204415286789775722,,,,,,,,/,0.00,,,,,,,,,/,0.00,,,,,,,,,/
"Sams Club #8288 Midland, TX","Sams Club #8288 Midland, TX",Chris Tavira,120551,8/30/2019 5:49:42 PM,Maria Soto,TX,79705,Orbit for Sam's ,Demo Choco(Box)[-400],Demo,1,231.84,2898.00,3129.84,Credit Card,,,"3 years parts, 1 year labor (Free)","Orbit for Sam's ,",No,,Printed,,Invoice # 0011178,"Original received-Erika 9/3/19 2:38pm
courtesy call completed-Erika 9/4/19 4:31pm
Printed - Tina 9/6/2019",TX,0,8.00,ORBT-1ORBT-1CH-BOX,3129.84,TC # 8787799862735133182187,,,,,,,,/,0.00,,,,,,,,,/,0.00,,,,,,,,,/
"Sams Club #8288 Midland, TX","Sams Club #8288 Midland, TX",Chris Tavira,120552,8/30/2019 5:53:26 PM,Maria Soto,TX,79705,Ninja Leg Massager 2,Demo[-20.00],Demo,1,22.40,279.98,302.38,Credit Card,,,"2 years parts, 1 year labor for Small Items","Ninja Leg Massager 2,",YES,,Delivered,,Invoice # 0011180,,TX,0,8.00,USJ-880-Demo,302.38,TC # 426978421697595541566,,,,,,,,/,0.00,,,,,,,,,/,0.00,,,,,,,,,/
"Sams Club #8288 Midland, TX","Sams Club #8288 Midland, TX",Chris Tavira,120553,8/30/2019 6:01:24 PM,Janet Niblett,TX,79707,Shogun Neck & Back Massger,Demo[-20],Demo,1,14.40,179.98,194.38,Credit Card,,,"2 years parts, 1 year labor for Small Items","Shogun Neck &amp; Back Massger,",YES,,Delivered,,Invoice # 0011270,,TX,0,8.00,USJ-874USJ-874-DEMO,194.38,TC # 26026283707686881380,,,,,,,,/,0.00,,,,,,,,,/,0.00,,,,,,,,,/
"Sams Club #8288 Midland, TX","Sams Club #8288 Midland, TX",Chris Tavira,120554,8/30/2019 6:06:09 PM,Sherrie McCorlie,TX,79744,Shogun Neck & Back Massger,Demo[-20],Demo,1,14.40,179.98,194.38,Credit Card,,,"2 years parts, 1 year labor for Small Items","Shogun Neck &amp; Back Massger,",YES,,Delivered,,Invoice # 0011269,,TX,0,8.00,USJ-874USJ-874-DEMO,194.38,TC # 77920828809490943458,,,,,,,,/,0.00,,,,,,,,,/,0.00,,,,,,,,,/
"Sams Club #8288 Midland, TX","Sams Club #8288 Midland, TX",Chris Tavira,120721,9/3/2019 10:59:53 AM,Janet Niblett,TX,79707,Foot Vibe Pro,,New,1,9.60,119.98,129.58,Credit Card,,,"2 years parts, 1 year labor for Small Items","Foot Vibe Pro,",YES,,Delivered,,Invoice # 0011173,,TX,0,8.00,USJ-871,129.58,TC # 523330458124649643661,,,,,,,,/,0.00,,,,,,,,,/,0.00,,,,,,,,,/
"Sams Club #8288 Midland, TX","Sams Club #8288 Midland, TX",Chris Tavira,120722,9/3/2019 11:05:27 AM,Teah Palacio,TX,79762,Ninja Leg Massager 2,Demo[-20.00],Demo,1,22.40,279.98,302.38,Credit Card,,,"2 years parts, 1 year labor for Small Items","Ninja Leg Massager 2,",YES,,Delivered,,Invoice # 0011152,,TX,0,8.00,USJ-880-Demo,302.38,TC # 322230954145643637681,,,,,,,,/,0.00,,,,,,,,,/,0.00,,,,,,,,,/
"Sams Club #8288 Midland, TX","Sams Club #8288 Midland, TX",Chris Tavira,120723,9/3/2019 11:49:45 AM,Joy Stacy,TX,79706,Vitality Plate for Sam's,Demo[-60],Demo,1,32.00,399.99,431.99,Credit Card,,,"2 years parts, 1 year labor for Small Items","Vitality Plate for Sam's,",YES,,Delivered,,Invoice # 0037228,,TX,0,8.00,USJ-849USJ-849-DEMO,431.99,TC # 725222930004862823880,,,,,,,,/,0.00,,,,,,,,,/,0.00,,,,,,,,,/
"Sams Club #8288 Midland, TX","Sams Club #8288 Midland, TX",Chris Tavira,120724,9/3/2019 11:53:40 AM,Laura Aleman,TX,79701,Foot Vibe Pro,,New,1,9.60,119.98,129.58,Credit Card,,,"2 years parts, 1 year labor for Small Items","Foot Vibe Pro,",YES,,Delivered,,Invoice # 0011172,,TX,0,8.00,USJ-871,129.58,TC # 483124712226787731782,,,,,,,,/,0.00,,,,,,,,,/,0.00,,,,,,,,,/
"Sams Club #8288 Midland, TX","Sams Club #8288 Midland, TX",Chris Tavira,120725,9/3/2019 11:57:54 AM,Noe Montañez,TX,79705,Ninja Leg Massager 2,Demo[-20.00],Demo,1,22.40,279.98,302.38,Credit Card,,,"2 years parts, 1 year labor for Small Items","Ninja Leg Massager 2,",YES,,Delivered,,Invoice # 0011153,,TX,0,8.00,USJ-880-Demo,302.38,TC # 918573379551209277205,,,,,,,,/,0.00,,,,,,,,,/,0.00,,,,,,,,,/
"Sams Club #8288 Midland, TX","Sams Club #8288 Midland, TX",Chris Tavira,120726,9/3/2019 12:04:40 PM,Rosendo Castaneda,TX,79705,Shogun Neck & Back Massger,Demo[-20],Demo,1,14.40,179.98,194.38,Credit Card,,,"2 years parts, 1 year labor for Small Items","Shogun Neck &amp; Back Massger,",YES,,Delivered,,Invoice # 0011268,,TX,0,8.00,USJ-874USJ-874-DEMO,194.38,TC # 379320153114640660601,,,,,,,,/,0.00,,,,,,,,,/,0.00,,,,,,,,,/
"Sams Club #8288 Midland, TX","Sams Club #8288 Midland, TX",Chris Tavira,120772,9/5/2019 5:43:16 PM,Cristina Ramirez,TX,79706,Shogun Neck & Back Massger,New,New,1,16.00,199.98,215.98,Credit Card,,,"2 years parts, 1 year labor for Small Items","Shogun Neck &amp; Back Massger,",YES,,Delivered,,Invoice # 0037283,,TX,0,8.00,USJ-874USJ-874,215.98,TC # 565134417266781775742,,,,,,,,/,0.00,,,,,,,,,/,0.00,,,,,,,,,/
"Sams Club #8288 Midland, TX","Sams Club #8288 Midland, TX",Chris Tavira,120773,9/5/2019 5:47:24 PM,Arnel Guazo,TX,79705,Shogun Neck & Back Massger,Demo[-20],Demo,1,14.40,179.98,194.38,Credit Card,,,"2 years parts, 1 year labor for Small Items","Shogun Neck &amp; Back Massger,",YES,,Delivered,,Invoice # 0037284,,TX,0,8.00,USJ-874USJ-874-DEMO,194.38,TC # 078340555154646637651,,,,,,,,/,0.00,,,,,,,,,/,0.00,,,,,,,,,/
"Sams Club #8288 Midland, TX","Sams Club #8288 Midland, TX",Chris Tavira,120774,9/5/2019 5:52:10 PM,Ashley Loya,TX,79703,Ninja Leg Massager 2,Demo[-20.00],Demo,1,22.40,279.98,302.38,Credit Card,,,"2 years parts, 1 year labor for Small Items","Ninja Leg Massager 2,",YES,,Delivered,,Invoice # 0011150,,TX,0,8.00,USJ-880-Demo,302.38,TC # 255086903447979926944,,,,,,,,/,0.00,,,,,,,,,/,0.00,,,,,,,,,/
"Sams Club #8288 Midland, TX","Sams Club #8288 Midland, TX",Chris Tavira,120778,9/6/2019 9:45:51 AM,Todd Thompson,TX,79706,Ninja Leg Massager 2,Demo[-20.00],Demo,1,22.40,279.98,302.38,Credit Card,,,"2 years parts, 1 year labor for Small Items","Ninja Leg Massager 2,",YES,,Delivered,,Invoice # 0037288,,TX,0,8.00,USJ-880-Demo,302.38,TC # 58441189631242845541,,,,,,,,/,0.00,,,,,,,,,/,0.00,,,,,,,,,/
