﻿Original Event Name,Event Name,Sales Person,Order Number,Order Date,Customer Name,State,Zip,Product Name,Color,Product Status,QTY,Tax,Total Before Tax,Order Total,Primary Payment Method,Second Payment Method,Thirdl Payment Method,Warranty,Order Items,Pick up,Delivered On,Order Status,Chair Type,Order Notes,Private Note,Branch,No Tax,Actual Tax Rate,SKU,Primary Payment Balance,Primary Authorize Number,Primary Purchase Order Number,Primary Synchrony Account Number,Primary Synchrony Application Key,Primary Synchrony Account Info,Primary Synchrony Term,Primary Synchrony Primary ID,Primary Synchrony Issued State,Primary Synchrony Expiretion Date,Second Payment Balance,Second Authorize Number,Second Purchase Order Number,Second Synchrony Account Number,Second Synchrony Application Key,Second Synchrony Account Info,Second SynchronyTerm,Second Synchrony Primary ID,Second Synchrony Issued State,Second Synchrony Expiretion Date,Third Payment Balance,Third Authorize Number,Third Purchase Order Number,Third Synchrony Account Number,Third Synchrony Application Key,Third Synchrony Account Info,Third Synchrony Term,Third Synchrony Primary ID,Third Synchrony Issued State,Third Synchrony Expiretion Date
"Sam's Club #6582 Bluffton(HILTON HEAD ISLAND), SC 3/14-24/19 (FL)","Sam's Club #6582 Hilton Beach, SC",Norimasa Sato,115795,3/16/2019 4:10:30 PM,Katalin Foxx,SC,29926,Relax 2 Zero 2.0 for Sam's,New Black,New,1,234.00,3900.00,4134.00,CreditCard,,,"3 years parts, 1 year labor (Free)","Relax 2 Zero 2.0 for Sam's,",No,3/29/2019 12:00:00 AM,Delivered,New,,They will tell you when to deliver when we call.,FL,0,6.00,USJ-9050USJ-9050BL,0.00,1491 3042 9662 8286 7695 13,,,,,,,,,0.00,,,,,,,,,,0.00,,,,,,,,,
"Sam's Club #6582 Bluffton(HILTON HEAD ISLAND), SC 3/14-24/19 (FL)","Sam's Club #6582 Hilton Beach, SC",Norimasa Sato,115831,3/17/2019 12:44:04 PM,Sam Johal,SC,29928,Shogun Neck & Back Massger,New,New,1,12.00,199.98,211.98,CreditCard,,,"2 years parts, 1 year labor (Free)","Shogun Neck &amp; Back Massger,",YES,,Delivered,,,,FL,0,6.00,USJ-874USJ-874,0.00,0630 1695 7838 4779 5332 1,,,,,,,,,0.00,,,,,,,,,,0.00,,,,,,,,,
"Sam's Club #6582 Bluffton(HILTON HEAD ISLAND), SC 3/14-24/19 (FL)","Sam's Club #6582 Hilton Beach, SC",Norimasa Sato,116031,3/23/2019 11:07:14 AM,Anita Pappas,SC,29910,Shogun Neck & Back Massger,New,New,1,12.00,199.98,211.98,CreditCard,,,"2 years parts, 1 year labor (Free)","Shogun Neck &amp; Back Massger,",YES,,Delivered,,,,FL,0,6.00,USJ-874USJ-874,0.00,3934 1154 8062 3244 2381 7,,,,,,,,,0.00,,,,,,,,,,0.00,,,,,,,,,
"Sam's Club #6582 Bluffton(HILTON HEAD ISLAND), SC 3/14-24/19 (FL)","Sam's Club #6582 Hilton Beach, SC",Norimasa Sato,116036,3/23/2019 12:52:13 PM,Ken Rose,SC,29936,Shogun Neck & Back Massger,New,New,1,12.00,199.98,211.98,CreditCard,,,"2 years parts, 1 year labor (Free)","Shogun Neck &amp; Back Massger,",YES,,Delivered,,,,FL,0,6.00,USJ-874USJ-874,0.00,3534 1144 3080 3244 2581 7,,,,,,,,,0.00,,,,,,,,,,0.00,,,,,,,,,
"Sam's Club #6582 Hilton Beach, SC","Sam's Club #6582 Hilton Beach, SC",Edwin Jacome,118740,7/17/2019 7:49:21 AM,Dave Gustovich,SC,29910,Ninja Leg Massager 2,New,New,1,332.99,5549.87,5882.86,Credit Card,,,"2 years parts, 1 year labor for Small Items","Pegasus for Sam's,Ninja Leg Massager 2,",No,,Called,,"Hold till September week 1
Customer will be out of town until then","Free Ninja Legs 2, possible 2nd chair(second home in PA) will stay in touch myself
Original received. Per sales rep request, pls hold until Sept. Erika 7/17/19 9:25am
CC, Jasmin Carrizales, 7/19/19, 10:28am/Busy tone",FL,0,6.00,USJ-880,5882.86,3701-1742-8147-8285-7795-23,,,,,,,,/,0.00,,,,,,,,,/,0.00,,,,,,,,,/
"Sam's Club #6582 Hilton Beach, SC","Sam's Club #6582 Hilton Beach, SC",Edwin Jacome,118740,7/17/2019 7:49:21 AM,Dave Gustovich,SC,29910,Pegasus for Sam's,New Black,New,1,332.99,5549.87,5882.86,Credit Card,,,"3 years parts, 1 year labor (Free)","Pegasus for Sam's,Ninja Leg Massager 2,",No,,Called,,"Hold till September week 1
Customer will be out of town until then","Free Ninja Legs 2, possible 2nd chair(second home in PA) will stay in touch myself
Original received. Per sales rep request, pls hold until Sept. Erika 7/17/19 9:25am
CC, Jasmin Carrizales, 7/19/19, 10:28am/Busy tone",FL,0,6.00,DWA-9400Pegasus-BL-NEW,5882.86,3701-1742-8147-8285-7795-23,,,,,,,,/,0.00,,,,,,,,,/,0.00,,,,,,,,,/
"Sam's Club #6582 Hilton Beach, SC","Sam's Club #6582 Hilton Beach, SC",Edwin Jacome,118781,7/19/2019 7:47:00 AM,Louis Ramsey,SC,29945,Ninja Leg Massager 2,New,New,1,18.00,299.98,317.98,Credit Card,,,"2 years parts, 1 year labor for Small Items","Ninja Leg Massager 2,",YES,,Delivered,,Picked up at Sams on 7-18-19,"Customer took home when purchased
Tax rate is 7%",FL,0,6.00,USJ-880,320.98,6058-8755-9784-8533-5009-2,,,,,,,,/,0.00,,,,,,,,,/,0.00,,,,,,,,,/
"Sam's Club #6582 Hilton Beach, SC","Sam's Club #6582 Hilton Beach, SC",Edwin Jacome,118807,7/21/2019 7:58:32 AM,Dorethea Kennedy,SC,29910,Foot Vibe Pro,,New,1,206.92,2955.94,3162.86,Sam’s Club Synchrony,,,"2 years parts, 1 year labor (Free)","Orbit for Sam's ,Foot Vibe Pro,",No,,New,,Free footvibe pro with purchase,"-Make sure it’s Orbit 2(all black look) 
-Customer will ask a lot of questions
-$45 dollars off for signing up for credit card",Not Dispatched,0,7.00,USJ-871,3162.86,,,,,,,,,/,0.00,,,,,,,,,/,0.00,,,,,,,,,/
"Sam's Club #6582 Hilton Beach, SC","Sam's Club #6582 Hilton Beach, SC",Edwin Jacome,118807,7/21/2019 7:58:32 AM,Dorethea Kennedy,SC,29910,Orbit for Sam's ,New Black,New,1,206.92,2955.94,3162.86,Sam’s Club Synchrony,,,"3 years parts, 1 year labor (Free)","Orbit for Sam's ,Foot Vibe Pro,",No,,New,,Free footvibe pro with purchase,"-Make sure it’s Orbit 2(all black look) 
-Customer will ask a lot of questions
-$45 dollars off for signing up for credit card",Not Dispatched,0,7.00,ORBT-1ORBT-1BL,3162.86,,,,,,,,,/,0.00,,,,,,,,,/,0.00,,,,,,,,,/
"Sam's Club #6582 Hilton Beach, SC","Sam's Club #6582 Hilton Beach, SC",Edwin Jacome,118810,7/21/2019 8:11:35 AM,Raul Chaves,SC,29927,Ninja Leg Massager 2,New,New,1,21.00,299.98,320.98,Credit Card,,,"2 years parts, 1 year labor (Free)","Ninja Leg Massager 2,",YES,,Delivered,,Picked up at Sams club,,FL,0,7.00,USJ-880,320.98,8157-7935-9733-7311-3025-4,,,,,,,,/,0.00,,,,,,,,,/,0.00,,,,,,,,,/
"Sam's Club #6582 Hilton Beach, SC","Sam's Club #6582 Hilton Beach, SC",Edwin Jacome,118811,7/21/2019 8:18:47 AM,Norma Cedeño,SC,29906,Ninja Leg Massager 2,New,New,1,21.00,299.98,320.98,Credit Card,,,"2 years parts, 1 year labor (Free)","Ninja Leg Massager 2,",YES,,Delivered,,Picked up at Sams club,,FL,0,7.00,USJ-880,320.98,1522-0274-1066-0688-6794-5,,,,,,,,/,0.00,,,,,,,,,/,0.00,,,,,,,,,/
