﻿Original Event Name,Event Name,Sales Person,Order Number,Order Date,Customer Name,State,Zip,Product Name,Color,Product Status,QTY,Tax,Total Before Tax,Order Total,Primary Payment Method,Second Payment Method,Thirdl Payment Method,Warranty,Order Items,Pick up,Delivered On,Order Status,Chair Type,Order Notes,Private Note,Branch,No Tax,Actual Tax Rate,SKU,Primary Payment Balance,Primary Authorize Number,Primary Purchase Order Number,Primary Synchrony Account Number,Primary Synchrony Application Key,Primary Synchrony Account Info,Primary Synchrony Term,Second Payment Balance,Second Authorize Number,Second Purchase Order Number,Second Synchrony Account Number,Second Synchrony Application Key,Second Synchrony Account Info,Second SynchronyTerm,Third Payment Balance,Third Authorize Number,Third Purchase Order Number,Third Synchrony Account Number,Third Synchrony Application Key,Third Synchrony Account Info,Third Synchrony Term
"Sam's Club #6343 Richmond, VA 5/2-12/19 (FL)","Sam's Club #6343 Richmond, VA 5/2-12/19 (FL)",May Kam,117125,5/5/2019 6:50:00 AM,Debble Canard,VA,22546,Vitality Plate for Sam's,New,New,1,0.00,459.99,459.99,Credit Card,,,"2 years parts, 1 year labor for Small Items","Vitality Plate for Sam's,",YES,,Delivered,,Picked up in Sam club 6343 Already,,FL,1,5.30,USJ-849USJ-849,459.99,46883788771965146204 6,,,,,,0.00,,,,,,,0.00,,,,,,
"Sam's Club #6343 Richmond, VA 5/2-12/19 (FL)","Sam's Club #6343 Richmond, VA 5/2-12/19 (FL)",May Kam,117156,5/5/2019 3:55:56 PM,Mr & Mrs Ashish Patel,VA,23002,Vitality Plate for Sam's,New,New,1,24.38,459.99,484.37,Credit Card,,,"2 years parts, 1 year labor for Small Items","Vitality Plate for Sam's,",YES,,Delivered,,Picked up in Sum’s club store already,,FL,0,5.30,USJ-849USJ-849,459.99,03093866580949326618 4,,,,,,0.00,,,,,,,0.00,,,,,,
"Sam's Club #6343 Richmond, VA 5/2-12/19 (FL)","Sam's Club #6343 Richmond, VA 5/2-12/19 (FL)",May Kam,117163,5/5/2019 5:02:55 PM,Mrs Hui Li,VA,23060,Vitality Plate for Sam's,New,New,1,0.00,459.99,459.99,Credit Card,,,"2 years parts, 1 year labor for Small Items","Vitality Plate for Sam's,",YES,,Delivered,,Picked up already in store,,FL,1,5.30,USJ-849USJ-849,459.99,83664529654171181743 7,,,,,,0.00,,,,,,,0.00,,,,,,
"Sam's Club #6343 Richmond, VA 5/2-12/19 (FL)","Sam's Club #6343 Richmond, VA 5/2-12/19 (FL)",May Kam,117164,5/5/2019 5:10:43 PM,Mrs Tina Hoang,VA,23060,Vitality Plate for Sam's,New,New,1,0.00,459.99,459.99,Credit Card,,,"2 years parts, 1 year labor for Small Items","Vitality Plate for Sam's,",YES,,Delivered,,Picked up in store already,,FL,1,5.30,USJ-849USJ-849,459.99,511124825428083169570,,,,,,0.00,,,,,,,0.00,,,,,,
"Sam's Club #6343 Richmond, VA 5/2-12/19 (FL)","Sam's Club #6343 Richmond, VA 5/2-12/19 (FL)",May Kam,117165,5/5/2019 5:19:06 PM,Mr Kawaljit Singh,VA,22408,Vitality Plate for Sam's,New,New,1,0.00,459.99,459.99,Credit Card,,,"2 years parts, 1 year labor for Small Items","Vitality Plate for Sam's,",YES,,Delivered,,Picked up in store already,,FL,1,5.30,USJ-849USJ-849,459.99,88866509750671181541 7,,,,,,0.00,,,,,,,0.00,,,,,,
"Sam's Club #6343 Richmond, VA 5/2-12/19 (FL)","Sam's Club #6343 Richmond, VA 5/2-12/19 (FL)",May Kam,117167,5/5/2019 5:30:28 PM,Mrs Miliza Sulpquiz,VA,23841,Vitality Plate for Sam's,New,New,1,0.00,420.99,420.99,Credit Card,,,"2 years parts, 1 year labor for Small Items","Vitality Plate for Sam's,",YES,,Delivered,,"Picked up already in the store, Demo price but give her new",,FL,1,5.30,USJ-849USJ-849,421.19,49488778677265547507 6,,,,,,0.00,,,,,,,0.00,,,,,,
"Sam's Club #6343 Richmond, VA 5/2-12/19 (FL)","Sam's Club #6343 Richmond, VA 5/2-12/19 (FL)",May Kam,117170,5/5/2019 5:42:49 PM,Mr Nitin Kulkarni,VA,23059,Legacy 3D - Sam's Club,Demo Choco[-700],Demo,1,0.00,3999.00,3999.00,Credit Card,,,"3 years parts, 1 year labor (Free)","Legacy 3D - Sam's Club,Tourmaline Pad for Legacy 3D,",No,,Assigned,,,"5/6/19 Confirmed. FL - Hitomi
CC, Jasmin Carrizales, 5/7/19, 10:31am
Deliver before Mon May 20th or 2weeks after",FL,1,5.30,DWA-9150DWA-9150CH-DEMO,0.00,26792884668804902991 74,,,,,,0.00,,,,,,,0.00,,,,,,
"Sam's Club #6343 Richmond, VA 5/2-12/19 (FL)","Sam's Club #6343 Richmond, VA 5/2-12/19 (FL)",May Kam,117199,5/6/2019 3:26:39 PM,Mrs Betty Strother,VA,23223,Vitality Plate for Sam's,New,New,1,0.00,459.99,459.99,Credit Card,,,"2 years parts, 1 year labor for Small Items","Vitality Plate for Sam's,",No,,Delivered,,"Need shipping asap, since we don’t have enough stock in Store",5/6/19-will be shipped out from FL -Hitomi,FL,1,5.30,USJ-849USJ-849,484.37,57736081506234853175 3,,,,,,0.00,,,,,,,0.00,,,,,,
"Sam's Club #6343 Richmond, VA 5/2-12/19 (FL)","Sam's Club #6343 Richmond, VA 5/2-12/19 (FL)",May Kam,117200,5/6/2019 3:37:13 PM,Mrs Donna Darringten,VA,23060,Vitality Plate for Sam's,New,New,1,0.00,420.99,420.99,Credit Card,,,"2 years parts, 1 year labor for Small Items","Vitality Plate for Sam's,",No,,Delivered,,"Pls ship asap, since we don’t have inventory in store , thanks",5/6/19-will be shipped out from FL -Hitomi,FL,1,5.30,USJ-849USJ-849,421.19,36920200122516632692 1,,,,,,0.00,,,,,,,0.00,,,,,,
