﻿Date,CustomerName,State,Zipcode,Description,productNo,Color,IsDemo,Net,ShippingFee,GiftPrice,FinancingProcessingFee,Gross,Pre_tax,Tax,Commission,Primary Payment Method,Primary Payment Balance,Primary Authorize Number,Primary Purchase Order Number,Primary Synchrony Account Number,Primary Synchrony Application Key,Primary Synchrony AccountInfo,Primary SynchronyTerm,Secondly Payment Method,Secondly Payment Balance,Secondly Authorize Number,Secondly Purchase Order Number,Secondly Synchrony Account Number,Secondly Synchrony Application Key,Secondly Synchrony AccountInfo,Secondly SynchronyTerm,Thirdly Payment Method,Thirdly Payment Balance,Thirdly Authorize Number,Thirdly Purchase Order Number,Thirdly Synchrony Account Number,Thirdly Synchrony Application Key,Thirdly Synchrony AccountInfo,Thirdly SynchronyTerm,DeliveryDate,Ispickup,Warranty,Status,Event Name,Synchrony Notes,Order Notes,Order number,Private Note,Branch,IsNoTax,ActualTaxRate
12/7/2017 1:14:24 PM,Cheryl Link,VA,24450,Legacy 3D,DWA-9150USJ-9150CH,Choco Brown,New,,,,,4267.00,3998.96,268.04,Ruben Cuatrona,CreditCard,0.00,Approval #35008D,,,,,,,0.00,,,,,,,,0.00,,,,,,,1/15/2018 12:00:00 AM,No,"3 years parts, 1 year labor (Free)",Scheduled,Stetson Country Christmas 12/7-17/17 (NV),,,102307,"*January Delivery*
Confirmed $4267 in Wells Fargo.  12/8/17 Hitomi",TX,0,8.25
12/7/2017 10:30:59 PM,Marchel Newman,UT,84096,Pegasus,DWA-9400Pegasus-BR,Choco Brown,New,,,,,5948.00,5948.00,0.00,Patricia Whipple,CreditCard,5948.25,864206,,,,,,,0.00,,,,,,,,0.00,,,,,,,12/21/2017 12:00:00 AM,No,"3 years parts, 1 year labor (Free)",Delivered,Stetson Country Christmas 12/7-17/17 (NV),,,102313,confirmed $5948.25  in Wells Fargo. (extra $0.25 are charged) 12/8/17 Hitomi,NV,1,8.25
12/7/2017 10:37:57 PM,Kelby Bond,CO,81022,Legacy 3D,DWA-9150USJ-9150CH,Choco Brown,New,,,,,4330.00,4330.00,0.00,Rolly San Jose,CreditCard,4330.00,007980,,,,,,,0.00,,,,,,,,0.00,,,,,,,12/12/2017 12:00:00 AM,No,"3 years parts, 1 year labor (Free)",Delivered,Stetson Country Christmas 12/7-17/17 (NV),,,102314,"Confirmed $4330 in Wells Fargo. 12/8/17 Hitomi
**Correction: it's DROP SHIP**",TX,1,8.25
12/8/2017 10:30:40 AM,Lynnette Goodson,ID,83843,Relax2Zero 3D,DWA-9060USJ-9060BR,Choco Brown,New,,,,,4600.00,4600.00,0.00,Abagail Stirling,CreditCard,4600.00,05483G,,,,,,,0.00,,,,,,,,0.00,,,,,,,12/26/2017 12:00:00 AM,No,"2 years parts, 1 year labor (Small Items)",Delivered,Stetson Country Christmas 12/7-17/17 (NV),,,102323,"confirmed $4,600 in Wells Fargo. 12/8/17 Hitomi
SCHEDULED ON DEC 21ST 6PM-8PM THUR",WA,1,8.25
12/8/2017 10:47:05 AM,Shiann Panetta,WY,82801,Relax2Zero 3D,DWA-9060USJ-9060BR,Choco Brown,New,,,,,4500.00,4500.00,0.00,Ilene Maynard,Synchrony,4500.00,,,6034610081687322,82223572,San Diego,36 months,,0.00,,,,,,,,0.00,,,,,,,12/15/2017 12:00:00 AM,No,"3 years parts, 1 year labor (Free)",Delivered,Stetson Country Christmas 12/7-17/17 (NV),,,102324,"Confirm the account in Synchrony **Please Charge $4500/36months Before Delivery** 12/8/17 Hitomi
ELITE CARGO 90131
CHARGED SYNCHRONY $4500 # 015536 - STEPHANY 12/14/17",NV,1,8.25
12/8/2017 10:53:04 AM,Cory Gill,CO,80521,Relax2Zero 3D,DWA-9060USJ-9060BR,Choco Brown,New,,,,,3900.00,3900.00,0.00,Ilene Maynard,CreditCard,3900.00,007545,,,,,,,0.00,,,,,,,,0.00,,,,,,,12/12/2017 12:00:00 AM,No,"3 years parts, 1 year labor (Free)",Delivered,Stetson Country Christmas 12/7-17/17 (NV),,,102325,"Drop ship only.
confirmed $3,900 in Wells Fargo. 12/8/17 Hitomi
Customer ask for blanket, so we give he one. 12/12/2017 June",TX,1,8.25
12/8/2017 9:58:15 PM,William Hodge,TX,77459,Legacy 3D,DWA-9150USJ-9150BL,Black,New,,,,,4547.00,4547.00,0.00,Gail Kerns,CreditCard,0.00,045417,,,,,,,0.00,,,,,,,,0.00,,,,,,,12/19/2017 12:00:00 AM,No,"3 years parts, 1 year labor (Free)",Delivered,Stetson Country Christmas 12/7-17/17 (NV),,,102332,"confirmed $4,547 in Wells Fargo. 12/11/17 Hitomi",TX,1,8.25
12/9/2017 9:04:12 PM,Lynn Austin,CA,93611,Pegasus,DWA-9400Pegasus-BR,Choco Brown,New,,,,,5304.00,5304.00,0.00,Rolly San Jose,CreditCard,0.00,05676d,,,,,,,0.00,,,,,,,,0.00,,,,,,,12/21/2017 12:00:00 AM,No,"3 years parts, 1 year labor (Free)",Delivered,Stetson Country Christmas 12/7-17/17 (NV),,,102354,"PAID IN FULL, WF TRANS CLEARED BY ALICIA, 12.11.17",CA,1,8.25
12/9/2017 9:27:44 PM,David Flom,MN,55018,Legacy 3D,DWA-9150USJ-9150CH-DEMO,Demo Choco Brown,Demo,,,,,4221.00,4221.00,0.00,Ruben Cuatrona,Synchrony,0.00,,,6034610081691530,82310916,San Diego,36 months,,0.00,,,,,,,,0.00,,,,,,,12/16/2017 12:00:00 AM,No,"3 years parts, 1 year labor (Free)",Delivered,Stetson Country Christmas 12/7-17/17 (NV),,,102356,"confirmed the account in Synchrony. *Please charge before delivery.*
Auth# 015050. 12/14/2017June",TX,1,8.25
12/9/2017 9:37:46 PM,Lisa Morris,LA,71291,Legacy 3D,DWA-9150USJ-9150CH,Choco Brown,New,,,,,4000.00,4000.00,0.00,Ruben Cuatrona,Synchrony,0.00,,,6034610081090664,82298757,San Diego,24 months,,0.00,,,,,,,,0.00,,,,,,,12/15/2017 12:00:00 AM,No,"3 years parts, 1 year labor (Free)",Delivered,Stetson Country Christmas 12/7-17/17 (NV),,,102358,"CHARGE BEFORE DELIVERY AND UPDATE W/ AUTH# --ALICIA 12.11.17
AUTH#011040",TX,1,8.25
12/9/2017 9:55:52 PM,Lawrence Ford,OK,73044,Pegasus,DWA-9400Pegasus-BR,Choco Brown,New,,,,,5629.00,5629.00,0.00,Rolly San Jose,Synchrony,0.00,,,6034610081691605,82411428,San Diego,48 months,,0.00,,,,,,,,0.00,,,,,,,12/16/2017 12:00:00 AM,No,"3 years parts, 1 year labor (Free)",Delivered,Stetson Country Christmas 12/7-17/17 (NV),Auth#012224,,102359,confirmed the account in Synchrony. *Please charge before delivery** 12/11/17 Hitomi,TX,1,8.25
12/9/2017 9:55:52 PM,Lawrence Ford,OK,73044,Chair Pad for Pegasus,,,New,,,,,5629.00,5629.00,0.00,Rolly San Jose,Synchrony,0.00,,,6034610081691605,82411428,San Diego,48 months,,0.00,,,,,,,,0.00,,,,,,,12/16/2017 12:00:00 AM,No,no warranty,Delivered,Stetson Country Christmas 12/7-17/17 (NV),Auth#012224,,102359,confirmed the account in Synchrony. *Please charge before delivery** 12/11/17 Hitomi,TX,1,8.25
12/9/2017 10:16:16 PM,Floyd Simmers,NV,89408,Pegasus,DWA-9400Pegasus-BR,Choco Brown,New,,,,,5304.00,5304.00,0.00,Ruben Cuatrona,CreditCard,1000.00,00449b,,,,,,COD,4300.00,,,,,,,,0.00,,,,,,,12/19/2017 12:00:00 AM,No,"3 years parts, 1 year labor (Free)",Delivered,Stetson Country Christmas 12/7-17/17 (NV),,,102360,"confirmed $1,000 in Wells Fargo.   12/11/17 Hitomi
12/14/17- Cristina- Printed-re- dispatched
COD COLLECTED 4300 AUTH #511096 - STEPHANY 12/19/17 Wells Fargo",CA,1,8.25
12/9/2017 10:36:53 PM,Debra Moses,CO,80107,Legacy 3D,DWA-9150USJ-9150CH,Choco Brown,New,,,,,4500.00,4500.00,0.00,Rolly San Jose,CreditCard,4500.00,00980b,,,,,,,0.00,,,,,,,,0.00,,,,,,,12/13/2017 12:00:00 AM,No,"3 years parts, 1 year labor (Free)",Delivered,Stetson Country Christmas 12/7-17/17 (NV),,,102361,"confirmed $4,500 in Wells Fargo. 12/11/17 Hitomi",TX,1,8.25
12/9/2017 10:45:12 PM,Kelly Rakowitz,TX,78023,Legacy 3D,DWA-9150USJ-9150CH,Choco Brown,New,,,,,4000.00,4000.00,0.00,Ruben Cuatrona,Synchrony,3500.00,,,6034610081691761,82313734,San Diego,48 months,CreditCard,500.00,024966,,,,,,,0.00,,,,,,,1/24/2018 12:00:00 AM,No,"3 years parts, 1 year labor (Free)",Delivered,Stetson Country Christmas 12/7-17/17 (NV),"Auth# 018967
confirmed it was charged for 48 months. 1/31/18 Hitomi",,102362,"SYNCHRONY ONLY APPROVE 3500, PLEASE CHARGE BEFORE DELIVERY AND CHARGE COD $500 - 12/11/17 STEPHANY
Not working number. 12/11/2017 June 210-705-4180 correct number 12/12/17 Stephany
confirmed COD $500 in WF. 1/31/18 Hitomi",TX,1,8.25
12/10/2017 9:23:45 PM,Louann Sanders,KY,40601,Legacy 3D,DWA-9150USJ-9150BL,Black,New,,,,,4000.00,4000.00,0.00,Rolly San Jose,Synchrony,0.00,,,6034610081688627,82258150,San Diego,36 months,COD,0.00,,,,,,,,0.00,,,,,,,12/17/2017 12:00:00 AM,No,"3 years parts, 1 year labor (Free)",Delivered,Stetson Country Christmas 12/7-17/17 (NV),,,102389,"SYNCHRONY ONLY APPROVED $3500, pls charge before delivery and collect COD $500 - 12/11/ 17 Stephany
AUTH #011457 June",TX,1,8.25
12/11/2017 10:28:08 AM,Jason Kindle,MO,65301,Relax2Zero 3D,DWA-9060USJ-9060BR,Choco Brown,New,,,,,8600.00,8600.00,0.00,Ilene Maynard,Synchrony,8600.00,,,6034610081691076,82304192,San Diego,36 months,,0.00,,,,,,,,0.00,,,,,,,12/13/2017 12:00:00 AM,No,"3 years parts, 1 year labor (Free)",Delivered,Stetson Country Christmas 12/7-17/17 (NV),,,102400,"PLS CHARGE SYNCHRONY BEFORE DELIVERY - 12/11/11 STEPHANY
SYNCHRONY AUTH#012270 - 12/12/2017 June",TX,1,8.25
12/11/2017 10:37:15 AM,Jonathan Perez,CA,93907,Relax2Zero 3D,DWA-9060USJ-9060BR,Choco Brown,New,,,,,3900.00,3900.00,0.00,Ilene Maynard,Synchrony,3000.00,,,6034610081691399,82308387,San Diego,36 months,COD,900.00,,,,,,,,0.00,,,,,,,12/21/2017 12:00:00 AM,No,"3 years parts, 1 year labor (Free)",Delivered,Stetson Country Christmas 12/7-17/17 (NV),,,102401,"Synchrony for 36 months
San Diego amount $3000.00, pls charge synchrony before delivery -12/11/17 Stephany 
Balanced $900.00 COD",CA,1,8.25
12/11/2017 10:43:37 AM,Christine and peter Schueler,FL,32224,Relax2Zero 3D,DWA-9060USJ-9060BR,Choco Brown,New,,,,,4500.00,4500.00,0.00,Abagail Stirling,CreditCard,4500.00,66636D,,,,,,,0.00,,,,,,,,0.00,,,,,,,12/20/2017 12:00:00 AM,No,"3 years parts, 1 year labor (Free)",Delivered,Stetson Country Christmas 12/7-17/17 (NV),,,102402,"confirmed $4,500 in Wells Fargo. 12/11/17 Hitomi
~3 year parts, 2 year labor warranty (per Abigail)~",FL,1,8.25
12/11/2017 10:50:27 AM,Randy Killam,TX,76028,Legacy 3D,DWA-9150USJ-9150CH,Choco Brown,New,,,,,4300.00,4300.00,0.00,Abagail Stirling,CreditCard,4300.00,808426,,,,,,,0.00,,,,,,,,0.00,,,,,,,12/19/2017 12:00:00 AM,No,"3 years parts, 1 year labor (Free)",Delivered,Stetson Country Christmas 12/7-17/17 (NV),,,102403,"confirmed $4,300 in Wells Fargo.  12/11/17 Hitomi",TX,1,8.25
12/11/2017 10:57:11 AM,Steve Brockus,CA,93015,Relax2Zero 3D,DWA-9060USJ-9060BR,Choco Brown,New,,,,,3700.00,3700.00,0.00,Ilene Maynard,CreditCard,3700.00,01033R,,,,,,,0.00,,,,,,,,0.00,,,,,,,,YES,"3 years parts, 1 year labor (Free)",Delivered,Stetson Country Christmas 12/7-17/17 (NV),,,102404,"Customer picked up at the convention *Serial #96160674D*
The transaction wasn't showed up yet. 12/11/17 Riho
12/12/17-cristina- payment cleared threw Wells Fargo",CA,1,8.25
12/12/2017 1:59:38 PM,Kent Meshishnek,ID,83501,Legacy 3D,DWA-9150USJ-9150CH,Choco Brown,New,,,,,4871.00,4871.00,0.00,Rolly San Jose,CreditCard,4871.00,411100,,,,,,,0.00,,,,,,,,0.00,,,,,,,12/26/2017 12:00:00 AM,No,"3 years parts, 1 year labor (Free)",Delivered,Stetson Country Christmas 12/7-17/17 (NV),,,102423,"confirmed $4,871 in Wells Fargo. 12/13/17 Hitomi
scheduled on dec22 fri 9am-12pm",WA,1,8.25
12/12/2017 2:50:14 PM,Don Bowles,TX,79720,Legacy 3D,DWA-9150USJ-9150CH,Choco Brown,New,,,,,3900.00,3900.00,0.00,Ruben Cuatrona,CreditCard,3900.00,097552,,,,,,,0.00,,,,,,,,0.00,,,,,,,1/3/2018 12:00:00 AM,No,"3 years parts, 1 year labor (Free)",Delivered,Stetson Country Christmas 12/7-17/17 (NV),,,102424,"Customer requests January delivery. Pls call 1st week January to set up appt
confirmed $3,900 in Wells Fargo. 12/13/17 Hitomi",TX,1,8.25
12/12/2017 2:58:13 PM,Steve Wolf,TX,79511,Pegasus,DWA-9400Pegasus-BL,Black,New,,,,,4900.00,4900.00,0.00,Rolly San Jose,CreditCard,0.00,01738c,,,,,,,0.00,,,,,,,,0.00,,,,,,,1/3/2018 12:00:00 AM,No,"3 years parts, 1 year labor (Free)",Delivered,Stetson Country Christmas 12/7-17/17 (NV),,,102425,"Schedule January delivery together with don Bowles sales order Daiwa space # 102424.
Call 1st week January to set up appt.
confirmed $4,900 in Wells Fargo. 12/13/17 Hitomi",TX,1,8.25
12/12/2017 3:57:54 PM,Lisa Colby,IN,47274,Legacy 3D,DWA-9150USJ-9150CH,Choco Brown,New,,,,,4500.00,4500.00,0.00,Ruben Cuatrona,Synchrony,4500.00,,,6034610081697313,82433579,San Diego,36 months,,0.00,,,,,,,,0.00,,,,,,,,No,"3 years parts, 1 year labor (Free)",Scheduled,Stetson Country Christmas 12/7-17/17 (NV),Auth# 018489,,102429,"If we can deliver before Christmas no promises
confirmed the account in Synchrony. *Please charge before delivery* 12/13/17 Hitomi",TX,1,8.25
12/12/2017 4:05:23 PM,Gregory Sutphin,IN,46147,Legacy 3D,DWA-9150USJ-9150CH,Choco Brown,New,,,,,4500.00,4500.00,0.00,Ruben Cuatrona,Synchrony,4500.00,,,6034610081697339,82433839,San Diego,36 months,,0.00,,,,,,,,0.00,,,,,,,,No,"3 years parts, 1 year labor (Free)",Scheduled,Stetson Country Christmas 12/7-17/17 (NV),Auth#018925,,102431,"If he can receive the chair before Christmas but no promises
confirmed the account in Synchrony. *Please charge before delivery* 12/13/17 Hitomi",TX,1,8.25
12/12/2017 4:14:03 PM,Cheryl Medeiros,HI,96790,Legacy 3D,DWA-9150USJ-9150CH,Choco Brown,New,,,,,4800.00,4800.00,0.00,Ruben Cuatrona,Synchrony,4800.00,,,6034610081697388,82434107,San Diego,48 months,,0.00,,,,,,,,0.00,,,,,,,,No,"3 years parts, 1 year labor (Free)",Delivered,Stetson Country Christmas 12/7-17/17 (NV),,,102432,"confirmed the account in Synchrony.  *Please charge before delivery* 12/13/17 Hitomi
Charged $4800 through Syncrony SD (Authorization # 025075). 1/25/18 Riho",HI,1,8.25
12/12/2017 4:30:48 PM,Allan Tucker,NM,88201,Legacy 3D,DWA-9150USJ-9150CH,Choco Brown,New,,,,,3900.00,3900.00,0.00,Ruben Cuatrona,CreditCard,3900.00,05271C,,,,,,,0.00,,,,,,,,0.00,,,,,,,12/21/2017 12:00:00 AM,No,"3 years parts, 1 year labor (Free)",Delivered,Stetson Country Christmas 12/7-17/17 (NV),,,102433,"Pls send also 1 tens unit
confirmed $3,900 in Wells Fargo. 12/13/17 Hitomi",TX,1,8.25
12/12/2017 4:30:48 PM,Allan Tucker,NM,88201,Tourmaline Pad for Legacy 3D,,,New,,,,,3900.00,3900.00,0.00,Ruben Cuatrona,CreditCard,3900.00,05271C,,,,,,,0.00,,,,,,,,0.00,,,,,,,12/21/2017 12:00:00 AM,No,no warranty,Delivered,Stetson Country Christmas 12/7-17/17 (NV),,,102433,"Pls send also 1 tens unit
confirmed $3,900 in Wells Fargo. 12/13/17 Hitomi",TX,1,8.25
12/12/2017 4:42:47 PM,Bruce Biffert,ND,58601,Pegasus,DWA-9400Pegasus-BR,Choco Brown,New,,,,,7500.00,7500.00,0.00,Ruben Cuatrona,CreditCard,7500.00,220248,,,,,,,0.00,,,,,,,,0.00,,,,,,,12/14/2017 12:00:00 AM,No,"3 years parts, 1 year labor (Free)",Delivered,Stetson Country Christmas 12/7-17/17 (NV),,,102434,"1st address
Bruce Biffert
10852 40th st SW
Dickinson ND 58601
2nd address
Dennis Flemmer
6450 CTY 26
Zap ND 58580
Tel. 701 870 0870
confirmed $7,500 in Wells Fargo. 12/13/17 Hitomi
2ND CHAIR S#0501002170129 -ELITE TRACKING 90132 - 12/14/17 STEPHANY",CA,1,8.25
12/12/2017 4:48:00 PM,Steve Brend,KS,67052,Legacy 3D,DWA-9150USJ-9150CH,Choco Brown,New,,,,,4200.00,4200.00,0.00,Patricia Whipple,CreditCard,4200.00,07290Z,,,,,,,0.00,,,,,,,,0.00,,,,,,,12/28/2017 12:00:00 AM,No,"3 years parts, 1 year labor (Free)",Delivered,Stetson Country Christmas 12/7-17/17 (NV),,,102435,"confirmed $4,200 in Wells Fargo. 12/13/17 Hitomi",TX,1,8.25
12/13/2017 10:40:00 AM,Stand Rowlan,UT,84050,Pegasus,DWA-9400Pegasus-BL,Black,New,,,,,4800.00,4800.00,0.00,Abagail Stirling,CreditCard,4800.00,824520,,,,,,,0.00,,,,,,,,0.00,,,,,,,12/20/2017 12:00:00 AM,YES,"3 years parts, 1 year labor (Free)",Delivered,Stetson Country Christmas 12/7-17/17 (NV),,,102448,"( do not ship ) customer will pick up at the Las Vegas office next week
Confirmed $4800 in WF.  12/14/17 Riho",NV,1,8.25
12/13/2017 9:12:47 PM,Melody Bowar,WY,82604,Legacy 3D,DWA-9150USJ-9150CH,Choco Brown,New,,,,,4871.00,4871.00,0.00,Patricia Whipple,CreditCard,4871.00,01111c,,,,,,,0.00,,,,,,,,0.00,,,,,,,12/14/2017 12:00:00 AM,No,"3 years parts, 1 year labor (Free)",Delivered,Stetson Country Christmas 12/7-17/17 (NV),,,102452,"Deliver before christmas
Confirmed $4871 in Wells Fargo. 12/14/17 Riho",CA,1,8.25
12/13/2017 9:50:56 PM,Debra Russell,WY,82633,Pegasus,DWA-9400Pegasus-BR,Choco Brown,New,,,,,5954.00,5954.00,0.00,Bonnie Brooks,Synchrony,5954.00,,,6034610081698550,82472492,San Diego,36 months,,0.00,,,,,,,,0.00,,,,,,,12/14/2017 12:00:00 AM,No,"3 years parts, 1 year labor (Free)",Delivered,Stetson Country Christmas 12/7-17/17 (NV),,,102453,"Deliver before Christmas
Charged $5954 through Synchrony, Auth#014489. 12/14/17 Riho",CA,1,8.25
12/13/2017 9:57:30 PM,Howard Click,OK,74037,Pegasus,DWA-9400Pegasus-BR,Choco Brown,New,,,,,5304.00,5304.00,0.00,Rolly San Jose,CreditCard,5304.00,02833z,,,,,,,0.00,,,,,,,,0.00,,,,,,,12/17/2017 12:00:00 AM,No,"3 years parts, 1 year labor (Free)",Delivered,Stetson Country Christmas 12/7-17/17 (NV),,,102454,Confirmed $5304 in Wells Fargo. 12/14/17 Riho,TX,1,8.25
12/14/2017 10:33:43 AM,Lisa Brooks,GA,31791,Relax2Zero 3D,DWA-9060USJ-9060BL,Black,New,,,,,4400.00,4400.00,0.00,Ilene Maynard,CreditCard,4500.00,033579,,,,,,,0.00,,,,,,,,0.00,,,,,,,1/4/2018 12:00:00 AM,No,"3 years parts, 1 year labor (Free)",Delivered,Stetson Country Christmas 12/7-17/17 (NV),,,102458,Confirmed $4500 in Wells Fargo. 12/14/17 Riho,FL,1,8.25
12/14/2017 11:20:23 PM,Ron Maddux,TX,78624,Legacy 3D,DWA-9150USJ-9150CH-DEMO,Demo Choco Brown,Demo,,,,,4222.00,4222.00,0.00,Bonnie Brooks,CreditCard,0.00,863223,,,,,,,0.00,,,,,,,,0.00,,,,,,,12/22/2017 12:00:00 AM,No,"3 years parts, 1 year labor (Free)",Delivered,Stetson Country Christmas 12/7-17/17 (NV),,,102468,"confirmed $4,222 in Wells Fargo.  12/15/17 Hitomi",TX,1,8.25
12/14/2017 11:28:05 PM,Josh Palmer,TX,75770,Legacy 3D,DWA-9150USJ-9150CH-DEMO,Demo Choco Brown,Demo,,,,,3700.00,3700.00,0.00,Ruben Cuatrona,CreditCard,0.00,888173,,,,,,,0.00,,,,,,,,0.00,,,,,,,12/23/2017 12:00:00 AM,No,"3 years parts, 1 year labor (Free)",Delivered,Stetson Country Christmas 12/7-17/17 (NV),,,102469,"confirmed $3,700 in Wells Fargo. 12/15/17 Hitomi",TX,1,8.25
12/14/2017 11:35:01 PM,Amy Pippinger,CA,92220,Pegasus,DWA-9400Pegasus-BR,Choco Brown,New,,,,,4800.00,4800.00,0.00,Ruben Cuatrona,Synchrony,0.00,,,6034610083000516,82512672,San Diego,48 months,,0.00,,,,,,,,0.00,,,,,,,12/22/2017 12:00:00 AM,No,"3 years parts, 1 year labor (Free)",Delivered,Stetson Country Christmas 12/7-17/17 (NV),,,102470,"confirmed account in the Synchrony. (Credit Limit:$5,800)*Please charge before delivery* 12/15/17 Hitomi
12/26/17 AUTH #026528 4800 - STEPHANY",CA,1,8.25
12/15/2017 3:09:01 PM,Thomas Olson,MN,55923,Legacy 3D,DWA-9150USJ-9150CH,Choco Brown,New,,,,,4871.00,4871.00,0.00,Rolly San Jose,Synchrony,4871.00,,,6034610083002082,82551054,San Diego,36 months,,0.00,,,,,,,,0.00,,,,,,,12/22/2017 12:00:00 AM,No,"3 years parts, 1 year labor (Free)",Delivered,Stetson Country Christmas 12/7-17/17 (NV),Auth#019701,,102479,"Delivery before Christmas
Please charge synchrony before delivery $4871 - 12/14/17 STEPHANY",TX,1,8.25
12/15/2017 3:16:23 PM,Chels Johnson,ID,83660,Legacy 3D,DWA-9150USJ-9150BL,Black,New,,,,,4222.00,4222.00,0.00,Rolly San Jose,Synchrony,4222.00,,,6034610083002116,82551401,San Diego,36 months,,0.00,,,,,,,,0.00,,,,,,,12/22/2017 12:00:00 AM,No,"3 years parts, 1 year labor (Free)",Delivered,Stetson Country Christmas 12/7-17/17 (NV),,,102480,"Delivery before Christmas
charge synchrony before delivery, rex please let me know when you schedule this - 12/14/17 Stephany",NV,1,8.25
12/15/2017 3:23:05 PM,Karen Walker,AZ,85602,Legacy 3D,DWA-9150USJ-9150CH-DEMO,Demo Choco Brown,Demo,,,,,3500.00,3500.00,0.00,Ruben Cuatrona,Synchrony,3500.00,,,6034610083002223,82554018,San Diego,36 months,,0.00,,,,,,,,0.00,,,,,,,12/20/2017 12:00:00 AM,No,"3 years parts, 1 year labor (Free)",Delivered,Stetson Country Christmas 12/7-17/17 (NV),,,102481,"Delivery before Christmas
CHARGE SYNCHRONY BEFORE DELIVERY 12/14/17 STEPHANY
12/20/17-Cristina- Charged Synchrony 36 months A#020445",CA,1,8.25
12/15/2017 3:29:26 PM,Matt Kalmar,UT,84651,Legacy 3D,DWA-9150USJ-9150CH,Choco Brown,New,,,,,3900.00,3900.00,0.00,Lori Daringer,CreditCard,3900.00,08758G,,,,,,,0.00,,,,,,,,0.00,,,,,,,12/21/2017 12:00:00 AM,No,"3 years parts, 1 year labor (Free)",Delivered,Stetson Country Christmas 12/7-17/17 (NV),,,102482,"Delivery before Christmas
WF CLEARED FOR 3900- 12/18/17 STEPHANY",NV,1,8.25
12/16/2017 4:32:09 PM,Herman Mitchell,NM,87417,Relax2Zero 3D,DWA-9060USJ-9060BL,Black,New,,,,,3900.00,3900.00,0.00,Abagail Stirling,Synchrony,3900.00,,,6034610083004740,82604619,San Diego,36 months,,0.00,,,,,,,,0.00,,,,,,,1/4/2018 12:00:00 AM,No,"3 years parts, 1 year labor (Free)",Delivered,Stetson Country Christmas 12/7-17/17 (NV),,,102498,"They don’t have physical address,pls call them for instruction to their address
Herman tel 505 860 5811
Alberta tel 505 258 2901
PLEASE CHARGE SYNCHRONY BEFORE DELIVERY 3900- 12/18/17 STEPHANY
AUTH#022795. 12/22/2017 June",TX,1,8.25
12/16/2017 4:38:09 PM,Suzanne Wiczek,CA,90631,Relax2Zero 3D,DWA-9060USJ-9060BR,Choco Brown,New,,,,,4200.00,4200.00,0.00,Abagail Stirling,Synchrony,4200.00,,,6034610083004328,82599790,San Diego,36 months,,0.00,,,,,,,,0.00,,,,,,,12/22/2017 12:00:00 AM,No,"3 years parts, 1 year labor (Free)",Delivered,Stetson Country Christmas 12/7-17/17 (NV),,,102499,,CA,1,8.25
12/16/2017 4:43:15 PM,Melissa Park,UT,84096,Legacy 3D,DWA-9150USJ-9150CH,Choco Brown,New,,,,,3600.00,3600.00,0.00,Ruben Cuatrona,CreditCard,3600.00,094383,,,,,,,0.00,,,,,,,,0.00,,,,,,,12/21/2017 12:00:00 AM,No,"3 years parts, 1 year labor (Free)",Delivered,Stetson Country Christmas 12/7-17/17 (NV),,,102500,"Before Christmas delivery
Confirmed $3600 in Wells Fargo. 12/19/17 Riho",NV,1,8.25
12/16/2017 4:45:43 PM,Teresa Oliver,OK,73742,Relax2Zero 3D,DWA-9060USJ-9060BR,Choco Brown,New,,,,,4500.00,4500.00,0.00,Ilene Maynard,Synchrony,2000.00,,,6034610083003320,82584007,San Diego,36 months,CreditCard,2500.00,862054,,,,,,,0.00,,,,,,,12/27/2017 12:00:00 AM,No,"3 years parts, 1 year labor (Free)",Delivered,Stetson Country Christmas 12/7-17/17 (NV),Auth#020431,,102501,"Synchrony $2,000.00 - PLEASE CHARGE SYNCHRONY 2000 BEFORE DELIVER - 12/18/17 STEPHANY 
Credit card $2,500.00",TX,1,8.25
12/16/2017 4:50:53 PM,Brandon Lawrence,UT,84074,Legacy 3D,DWA-9150USJ-9150CH,Choco Brown,New,,,,,3600.00,3600.00,0.00,Ruben Cuatrona,CreditCard,3600.00,64024A,,,,,,,0.00,,,,,,,,0.00,,,,,,,12/21/2017 12:00:00 AM,No,"3 years parts, 1 year labor (Free)",Delivered,Stetson Country Christmas 12/7-17/17 (NV),,,102502,"Before Christmas delivery
WF CLEARED FOR 3600 - 12/18/17 STEPHANY",NV,1,8.25
12/16/2017 4:51:27 PM,Rhonda Jantzen,OK,73718,Relax2Zero 3D,DWA-9060USJ-9060BL,Black,New,,,,,4500.00,4500.00,0.00,Ilene Maynard,Synchrony,4500.00,,,6034610083003262,82583599,San Diego,36 months,,0.00,,,,,,,,0.00,,,,,,,1/2/2018 12:00:00 AM,No,"3 years parts, 1 year labor (Free)",Delivered,Stetson Country Christmas 12/7-17/17 (NV),Auth#020191,,102503,"PLEASE CHARGE SYNCHRONY BEFORE DELIVERY - 12/18/178 STEPHANY
Delivered on 12/28/2017",TX,1,8.25
12/16/2017 4:56:57 PM,Neil and Jill Kayser,WA,98613,Legacy 3D,DWA-9150USJ-9150CH,Choco Brown,New,,,,,3900.00,3900.00,0.00,Ruben Cuatrona,CreditCard,3900.00,07614D,,,,,,,0.00,,,,,,,,0.00,,,,,,,1/8/2018 12:00:00 AM,No,"3 years parts, 1 year labor (Free)",Delivered,Stetson Country Christmas 12/7-17/17 (NV),,,102504,"Delivery before Christmas
WF CLEARED FOR 3900 - 12/18/17  STEPHANY
SCHEDULED 01/5/18 12:30PM-2:30PM - STEPHANY",WA,1,8.25
12/16/2017 5:04:56 PM,Gary Sampson,CO,80538,Legacy 3D,DWA-9150USJ-9150CH-DEMO,Demo Choco Brown,Demo,,,,,3789.00,3789.00,0.00,Bonnie Brooks,Synchrony,3789.00,,,6034610083004930,82606526,San Diego,36 months,,0.00,,,,,,,,0.00,,,,,,,,No,"3 years parts, 1 year labor (Free)",Scheduled,Stetson Country Christmas 12/7-17/17 (NV),Auth#022766,,102505,"PLEASE CHARGE SYNCHRONY BEFORE DELIVERY - 12/18/17 STEPHANY
Auth #022766
REPLACEMENT SHIPPED OUT ON 1/11/18 BY TX REQUEST, BODY ONLY",TX,1,8.25
12/16/2017 5:10:28 PM,Don Kosheba,MI,49461,Pegasus,DWA-9400Pegasus-BR,Choco Brown,New,,,,,5304.00,5304.00,0.00,Rolly San Jose,CreditCard,5304.00,801570,,,,,,,0.00,,,,,,,,0.00,,,,,,,,No,"3 years parts, 1 year labor (Free)",Scheduled,Stetson Country Christmas 12/7-17/17 (NV),,,102506,"Deliver after Jan 1st
WF CLEARED FOR 5304 - 12/18/17 STEPHANY",TX,1,8.25
12/16/2017 5:15:08 PM,Tom Marshall,IL,61348,Legacy 3D,DWA-9150USJ-9150CH,Choco Brown,New,,,,,3900.00,3900.00,0.00,Ruben Cuatrona,Synchrony,3900.00,,,6034610083004906,82606079,San Diego,36 months,,0.00,,,,,,,,0.00,,,,,,,12/20/2017 12:00:00 AM,No,"3 years parts, 1 year labor (Free)",Delivered,Stetson Country Christmas 12/7-17/17 (NV),,,102508,"Before Christmas delivery
PLEASE CHARGE SYNCHRONY BEFORE DELIVER  COD 3900 - 12/18/17 STEPHANY
Auth#019330 - 12/19/2017 June",TX,1,8.25
12/17/2017 1:35:00 AM,Sonya Saadati,TN,37620,Legacy 3D,DWA-9150USJ-9150CH,Choco Brown,New,,,,,4871.00,4871.00,0.00,Rolly San Jose,Synchrony,0.00,,,6034610083005036,82607072,San Diego,36 months,,0.00,,,,,,,,0.00,,,,,,,,No,"3 years parts, 1 year labor (Free)",Delivered,Stetson Country Christmas 12/7-17/17 (NV),,,102530,"Deliver after Christmas before Jan 1, 2018
confirmed the account ($8,500) in Synchrony. *Please charge before delivery.*12/18/17 Hitomi
Please ship this chair to customer. 12/19/2017 June
Authorization # 020471 --$4871 CHARGED IN FULL BY ALICIA 12/20/17",CA,1,8.25
12/17/2017 10:10:07 AM,Brad Johnson,OR,97914,Pegasus,DWA-9400Pegasus-BR,Choco Brown,New,,,,,4900.00,4900.00,0.00,Rolly San Jose,COD,0.00,,,,,,,,0.00,,,,,,,,0.00,,,,,,,12/22/2017 12:00:00 AM,No,"3 years parts, 1 year labor (Free)",Delivered,Stetson Country Christmas 12/7-17/17 (NV),,,102534,"Call for full payment before delivery.
COD-CHECK $4900 was confirmed by Yumi on 1/4/18 (The check is under the company name NCR PROPERTIES). 1/4/18 Riho",NV,1,8.25
12/17/2017 10:21:10 AM,Lee Cervantes,TX,78003,Pegasus,DWA-9400Pegasus-BR,Choco Brown,New,,,,,5404.00,5404.00,0.00,Rolly San Jose,Synchrony,1500.00,,,6034610081691563,82311200,San Diego,48 months,,0.00,,,,,,,,0.00,,,,,,,,No,"3 years parts, 1 year labor (Free)",Cancelled,Stetson Country Christmas 12/7-17/17 (NV),,,102536,"Cancelled per Rolly. 12/17/17 Riho
COD $3904",TX,1,8.25
12/17/2017 4:09:03 PM,Nancy O ja,NV,89128,Relax2Zero 3D,DWA-9060USJ-9060BR,Choco Brown,New,,,,,3500.00,3500.00,0.00,Abagail Stirling,Synchrony,3500.00,,,6034610083006604,82638143,San Diego,36 months,,0.00,,,,,,,,0.00,,,,,,,12/18/2017 12:00:00 AM,YES,"3 years parts, 1 year labor (Free)",Delivered,Stetson Country Christmas 12/7-17/17 (NV),,,102548,"Picked up at the convention ctr, S#96160676D
confirmed the account ($5,000) in Synchrony.   12/18/17 Hitomi
Charged $3500 through Synchrony, Authorization # 018186. 12/18/17 Hitomi",NV,1,8.25
12/18/2017 4:52:52 PM,CLIFFORD LAMPING,ID,83467,Pegasus,DWA-9400Pegasus-BR,Choco Brown,New,,,,,3900.00,3900.00,0.00,Rolly San Jose,CreditCard,3900.00,01409D,,,,,,,0.00,,,,,,,,0.00,,,,,,,12/19/2017 12:00:00 AM,YES,"3 years parts, 1 year labor (Free)",Delivered,Stetson Country Christmas 12/7-17/17 (NV),,,102587,"Confirmed $3900 in WF. 1/8/18 Riho
WILL BE PICKED UP IN LV BRANCH 12/19- 12/18/17 STEPHANY
20 -993-0079 correct number.",NV,1,8.25
