﻿Original Event Name,Event Name,Sales Person,Order Number,Order Date,Customer Name,State,Zip,Product Name,Color,Product Status,QTY,Tax,Total Before Tax,Order Total,Primary Payment Method,Second Payment Method,Thirdl Payment Method,Warranty,Order Items,Pick up,Delivered On,Order Status,Chair Type,Order Notes,Private Note,Branch,No Tax,Actual Tax Rate,SKU,Primary Payment Balance,Primary Authorize Number,Primary Purchase Order Number,Primary Synchrony Account Number,Primary Synchrony Application Key,Primary Synchrony Account Info,Primary Synchrony Term,Second Payment Balance,Second Authorize Number,Second Purchase Order Number,Second Synchrony Account Number,Second Synchrony Application Key,Second Synchrony Account Info,Second SynchronyTerm,Third Payment Balance,Third Authorize Number,Third Purchase Order Number,Third Synchrony Account Number,Third Synchrony Application Key,Third Synchrony Account Info,Third Synchrony Term
"Sam's Club #4736 Apple Valley, MN 5/23-6/2/19 (IL)","Sam's Club #4736 Apple Valley, MN 5/23-6/2/19 (IL)",Chris Tavira,117588,5/26/2019 3:08:56 PM,LeTrice Grant,MN,55124,Relax 2 Zero 3D for Sam's,Demo (Box) Black[-700],Demo,1,270.68,3799.00,4069.68,Credit Card,,,"3 years parts, 1 year labor (Free)","Relax 2 Zero 3D for Sam's,",No,,Assigned,,Invoice # S0014710,"Original Received. Erika 5/28/19 3:00pm
Courtesy call/ text completed- Cristina 05/29",IL,0,7.13,DWA-9060DWA-9060BL-DEMO (Box),4069.68,TC # 9034881097192824580926,,,,,,0.00,,,,,,,0.00,,,,,,
