﻿Date,Customer Name,State,Zipcode,Description,Product Number,Color,Product Status,Net,Shipping Fee,Gift Price,Financing Processing Fee,Order Total,Total Before Tax,Tax,Commission,Primary Payment Method,Primary Payment Balance,Primary Authorize Number,Primary Purchase Order Number,Primary Synchrony Account Number,Primary Synchrony Application Key,Primary Synchrony Account Info,Primary Synchrony Term,Second Payment Method,Second Payment Balance,Second Authorize Number,Second Purchase Order Number,Second Synchrony Account Number,Second Synchrony Application Key,Second Synchrony Account Info,Second Synchrony Term,Third Payment Method,Third Payment Balance,Third Authorize Number,Third Purchase Order Number,Third Synchrony Account Number,Third Synchrony Application Key,Third Synchrony Account Info,Third Synchrony Term,Delivery Date,Pick up,Warranty,Status,Chair Type,Original Event Name,Event Name,Synchrony Notes,Order Notes,Order Number,Private Note,Branch,No Tax,Actual Tax Rate
1/21/2019 5:05:39 PM,Bruce Didion,IN,46142,PEGASUS 2 SMART,PEGS-2PEGS-2-BR-DEMO,Demo Choco,Demo,,,,,5200.00,5200.00,0.00,Noni Ignacio,Synchrony,4800.00,,,6019170813348668,70268917,Las Vegas,48 months,Check,400.00,,,,,,,,0.00,,,,,,,2/16/2019 12:00:00 AM,No,"5 years parts, 1 year labor (Free)",Delivered,Demo,"INDIANAPOLIS HOME SHOW 1/18-27/19 INDIANAPOLIS, IN (IL)","INDIANAPOLIS HOME SHOW 1/18-27/19 INDIANAPOLIS, IN (IL)","Confirmed synchrony transaction --- 2/26/19 Asumi
Authorization Code 
008732
promotion/Tran Code
436
----------------------------------------------
CORRECTED SYNCHRONY INFO: 03/15/19 -Cristina
------------------------------------------------
Authorization Code
015317
Account Number
••••••••••••8668

Tran/Promo Code
448 : 48 MONTH EQUAL PAYMENT NO INTEREST
",,114493,"Confirmed 	$8,500.00 approved in SYNC. need to check and synchrony original - 1/22/19 Hitomi
1/23/19-Confirmed synchrony and original. Per.Billy, check will be deposited on 1/25/19 Fri. -Hitomi
Confirmed with Noni : The checks would be deposited on Monday.Once have deposited, he will provide the office of the picture of the receipt to the office. ---1/25/19 Asumi
Will confirm if it is cleared 2/5/19---1/29/19 Asumi
Confirmed with Yumi check is cleared  --- 2/4/19 Asumi
2/6Maritza Courtesy message sent @ 1:15PM",TX,1,7.00
1/21/2019 5:10:57 PM,Amanda Stout,IN,46112,Legacy 3D,DWA-9150USJ-9150BL-DEMO,Demo Black,Demo,,,,,4000.00,4000.00,0.00,Noni Ignacio,Synchrony,4000.00,,,6019170813347355,70229712,Las Vegas,36 months,,0.00,,,,,,,,0.00,,,,,,,,YES,"5 years parts, 1 year labor (Free)",Cancelled,,"INDIANAPOLIS HOME SHOW 1/18-27/19 INDIANAPOLIS, IN (IL)","INDIANAPOLIS HOME SHOW 1/18-27/19 INDIANAPOLIS, IN (IL)",,,114494,"Pick up from show. No delivery
//Confirmed SYNC ($6,000) and original. Per.Billy, they will pick up on 1/27. -- 1/22/19 Hitomi

Customer change chair to PEGASUS2 SMART
Revise to 114690",Not Dispatched,1,7.00
1/21/2019 5:14:26 PM,Richard Ross,IN,46168,PEGASUS 2 SMART,PEGS-2PEGS-2-BR,New Choco,New,,,,,5000.00,5000.00,0.00,Noni Ignacio,Check,5000.00,,,,,,,,0.00,,,,,,,,0.00,,,,,,,,No,"5 years parts, 1 year labor (Free)",Scheduled,,"INDIANAPOLIS HOME SHOW 1/18-27/19 INDIANAPOLIS, IN (IL)","INDIANAPOLIS HOME SHOW 1/18-27/19 INDIANAPOLIS, IN (IL)",,,114495,"need to confirm check - 1/22/19 Hitomi
1/23/19-Per Billy, check will be deposited on 1/25/19 Hitomi
Confirmed with Noni : The checks would be deposited on Monday.Once have deposited, he will provide the office of the picture of the receipt to the office. ---1/25/19 Asumi
Will check if it is cleared 2/5/19 --- 1/29/19 Asumi
Confirmed with Yumi.  check is cleared --- 2/4/19 Asumi
2/6Maritza- Courtesy message sent @ 1:16PM",TX,1,7.00
1/21/2019 5:18:23 PM,Sarah James,IN,46123,Relax2Zero 3D,DWA-9060USJ-9060BR-DEMO,Demo Choco,Demo,,,,,4000.00,4000.00,0.00,Abagail Stirling,CreditCard,4000.00,6yTu,,,,,,,0.00,,,,,,,,0.00,,,,,,,2/21/2019 12:00:00 AM,No,"5 years parts, 1 year labor (Free)",Delivered,Demo,"INDIANAPOLIS HOME SHOW 1/18-27/19 INDIANAPOLIS, IN (IL)","INDIANAPOLIS HOME SHOW 1/18-27/19 INDIANAPOLIS, IN (IL)",,,114496,"Confirmed $4,000 in Square. 1/22/19 Hitomi
1/23/19-Confirmed correct chair is 3D with Billy since original states 2.0.  --Hitomi
Courtesy call/text completed- Cristina 01/23/19 12:35 pm
2/25 Customer called in for repair/exchange update. Texas called and left VM with update.
Received delivery confirmation",TX,1,7.00
1/21/2019 5:23:26 PM,Edward Ziaty,IN,46055,Relax2Zero 3D,DWA-9060USJ-9060BR-DEMO,Demo Choco,Demo,,,,,3990.00,3990.00,0.00,Abagail Stirling,CreditCard,1400.00,DNIR,,,,,,CreditCard,1600.00,tTKZ,,,,,,CreditCard,990.00,3Twu,,,,,,1/21/2019 12:00:00 AM,YES,"5 years parts, 1 year labor (Free)",Delivered,Demo,"INDIANAPOLIS HOME SHOW 1/18-27/19 INDIANAPOLIS, IN (IL)","INDIANAPOLIS HOME SHOW 1/18-27/19 INDIANAPOLIS, IN (IL)",,,114497,"Pick up at show. No delivery
//Confirmed $3,990 in Square. need to confirm pickup confirmation 1/22/19 Hitomi
Received pick up confirmation. --- 1/25/19 Asumi",TX,1,7.00
1/25/2019 7:22:13 AM,Kathleen Thiessen,IN,46157,Legacy 3D,DWA-9150USJ-9150CH,New Choco,New,,,,,4200.00,4200.00,0.00,Abagail Stirling,CreditCard,4200.00,kyxi,,,,,,,0.00,,,,,,,,0.00,,,,,,,2/15/2019 12:00:00 AM,No,"5 years parts, 1 year labor (Free)",Delivered,New,"INDIANAPOLIS HOME SHOW 1/18-27/19 INDIANAPOLIS, IN (IL)","INDIANAPOLIS HOME SHOW 1/18-27/19 INDIANAPOLIS, IN (IL)",,,114560,"Confirmed $4,200.00 in square --- 1/25/19 Asumi
1/25Maritza Courtesy message sent @ 3:15PM
Received delivery confirmation ---- 2/125/19 Asumi",TX,1,7.00
1/25/2019 7:26:39 AM,David Mangas,IN,46016,Legacy 3D,DWA-9150USJ-9150CH,New Choco,New,,,,,4500.00,4500.00,0.00,Noni Ignacio,Synchrony,4500.00,,,6019170813351688,70402161,Las Vegas,36 months,,0.00,,,,,,,,0.00,,,,,,,2/14/2019 12:00:00 AM,No,"5 years parts, 1 year labor (Free)",Delivered,New,"INDIANAPOLIS HOME SHOW 1/18-27/19 INDIANAPOLIS, IN (IL)","INDIANAPOLIS HOME SHOW 1/18-27/19 INDIANAPOLIS, IN (IL)","Confirmed synchrony transacton --- 2/26/19 Asumi
Transaction Amount
$4,500.00

Authorization Code 
008168

Promotion/Tran Code
436

",,114561,"Confirmed synchrony approved $6,000.00 and original invoice and application form. Please charge $4,500.00 before delivery and have sales draft signed. --- 1/25/19 Asumi
Printed 1/30/2019 - Tina
//Courtesy text message is sent- 1/30/19 @11:44 AM Hitomi
Received delivery confiramtion --- 2/25/19 Asumi",TX,1,7.00
1/25/2019 7:30:01 AM,James Grabowski,IN,46062-9154,Legacy 3D,DWA-9150USJ-9150BL,New Black,New,,,,,4200.00,4200.00,0.00,Billy Shea,CreditCard,4200.00,AAqK,,,,,,,0.00,,,,,,,,0.00,,,,,,,2/14/2019 12:00:00 AM,No,"5 years parts, 1 year labor (Free)",Delivered,New,"INDIANAPOLIS HOME SHOW 1/18-27/19 INDIANAPOLIS, IN (IL)","INDIANAPOLIS HOME SHOW 1/18-27/19 INDIANAPOLIS, IN (IL)",,,114562,"Confirmed  $4,200.00  in square. ---1/25/19 Asumi
Printed 1/30/2019 - Tina
//Courtesy text message is sent - 1/30/19 @12:07 PM Hitomi

Received delivery confirmation --- 2/25/19 Asumi",TX,1,7.00
1/25/2019 7:33:47 AM,Raquel Johnson,IN,47933,Legacy 3D,DWA-9150USJ-9150BL,New Black,New,,,,,4200.00,4200.00,0.00,Abagail Stirling,CreditCard,4200.00,ICUY,,,,,,,0.00,,,,,,,,0.00,,,,,,,,No,"5 years parts, 1 year labor (Free)",Called,,"INDIANAPOLIS HOME SHOW 1/18-27/19 INDIANAPOLIS, IN (IL)","INDIANAPOLIS HOME SHOW 1/18-27/19 INDIANAPOLIS, IN (IL)",,,114563,"Customer wil call when ready
/Confirmed $4,200.00 in square. --- 1/25/19 Asumi
3/12/19-May informed that the customer is ready to receive the chair. -Hitomi",TX,1,7.00
1/25/2019 7:37:29 AM,Lesa Bruns,IN,46074,Relax2Zero 3D,DWA-9060USJ-9060BL,New Black,New,,,,,4300.00,4300.00,0.00,Abagail Stirling,CreditCard,4300.00,VxtB,,,,,,,0.00,,,,,,,,0.00,,,,,,,2/14/2019 12:00:00 AM,No,"5 years parts, 1 year labor (Free)",Delivered,New,"INDIANAPOLIS HOME SHOW 1/18-27/19 INDIANAPOLIS, IN (IL)","INDIANAPOLIS HOME SHOW 1/18-27/19 INDIANAPOLIS, IN (IL)",,,114564,"Confirmed $4,300.00 in square. --- 1/25/19 Asumi
Printed 1/30/2019 - Tina
//Courtesy call is done - 1/30/19 @12:13 PM Hitomi
Received delivery confirmation --- 2/25/19 Asumi",TX,1,7.00
1/25/2019 7:41:56 AM,Mary Stuerenberg,IN,47240,PEGASUS 2 SMART,PEGS-2PEGS-2-BR-DEMO,Demo Choco,Demo,,,,,5000.00,5000.00,0.00,Noni Ignacio,Cash,100.00,,,,,,,Cash,2900.00,,,,,,,Check,2000.00,,,,,,,1/25/2019 12:00:00 AM,No,"5 years parts, 1 year labor (Free)",Delivered,Demo,"INDIANAPOLIS HOME SHOW 1/18-27/19 INDIANAPOLIS, IN (IL)","INDIANAPOLIS HOME SHOW 1/18-27/19 INDIANAPOLIS, IN (IL)",,,114565,"Noni has cash $100 and he will bring it to IL branch on Sunday (1/27/19) Confirmed Mario to process.  Please charge COD 4900.00 upon delivery.--- 1/25/19 Asumi
01/28/19- Courtesy call/ text completed- Cristina 5:01 pm
2/7/19-Confirmed delivery schedule 2/16/19 @5-8PM. She informed that GPS would sometimes lead wrong location , so she would like to have a call before delivery team arrives. COD will paid in cash. -Hitomi
Received $100 cash confirmation from Miku --- 2/12/19 Asumi
Received delivery confirmation and cash confirmation $ 2,900.00 by Noni--- 2/25/19 Asumi
Confirmed with Yumi, COD Check $2000 is cleared --- 2/26/19 Asumi",TX,1,7.00
1/25/2019 7:45:40 AM,David Williams,TN,37772,Relax2Zero 3D,DWA-9060USJ-9060BR,New Choco,New,,,,,4000.00,4000.00,0.00,Billy Shea,Synchrony,4000.00,,,6019170813349385,70306619,Las Vegas,36 months,,0.00,,,,,,,,0.00,,,,,,,1/31/2019 12:00:00 AM,No,"5 years parts, 1 year labor (Free)",Delivered,New,"INDIANAPOLIS HOME SHOW 1/18-27/19 INDIANAPOLIS, IN (IL)","INDIANAPOLIS HOME SHOW 1/18-27/19 INDIANAPOLIS, IN (IL)","Authorization Code
029390
Synchrony Account charged $4,000 on 1/29/19 byJosefina",,114566,"Received Gift Box for writing Amazon review FedEx: 774446707063
CC Josefina - 1/28/19 5:11pm
TN order. Confirmed synchrony approved $4,500.00 and application form and invoice.  Please charge $4,000.00  before delivery and have sales draft signed. --- 1/25/19 Asumi",FL,1,7.00
1/26/2019 6:46:40 AM,Lisa Bippus,IN,46143,Legacy 3D,DWA-9150USJ-9150BL-DEMO,Demo Black,Demo,,,,,4000.00,4000.00,0.00,Billy Shea,CreditCard,2000.00,TY16,,,,,,Synchrony,2000.00,,,6019170813352900,70444933,Las Vegas,36 months,,0.00,,,,,,,2/16/2019 12:00:00 AM,No,"5 years parts, 1 year labor (Free)",Delivered,Demo,"INDIANAPOLIS HOME SHOW 1/18-27/19 INDIANAPOLIS, IN (IL)","INDIANAPOLIS HOME SHOW 1/18-27/19 INDIANAPOLIS, IN (IL)","Confirmed synchrony transaction --- 2/26/19 Asumi
Authorization Code 
008782
Promotion/Tran Code
436
Transaction Amount
$2,000.00",,114588,"Condirmed $2,000.00 in square and synchrony approved $2,000.00 and original application form and invoice. Please charge $2000.00 before delivery and have sales draft signed. --- 1/28/19 Asumi
Printed 1/30/2019 - Tina
//Courtesy text message is sent  - 1/30/19 @ 12:48 PM Hitomi
Received delivery confirmation --- 2/16/19 Asumi",TX,1,7.00
1/26/2019 6:51:14 AM,Rea Gray,IN,46142,Legacy 3D,DWA-9150USJ-9150BL-DEMO,Demo Black,Demo,,,,,4000.00,4000.00,0.00,Billy Shea,Synchrony,4000.00,,,6019170813352934,70445370,Las Vegas,36 months,,0.00,,,,,,,,0.00,,,,,,,2/16/2019 12:00:00 AM,No,"5 years parts, 1 year labor (Free)",Delivered,Demo,"INDIANAPOLIS HOME SHOW 1/18-27/19 INDIANAPOLIS, IN (IL)","INDIANAPOLIS HOME SHOW 1/18-27/19 INDIANAPOLIS, IN (IL)","Confirmed synchrony transaction $4000 --- 2/26/19 Asumi
Authorization Code 
008787
Promotion/Tran Code
436

",,114589,"Confirmed synchrony approved $5,500.00  and original application form and invoice. Please charge $4,000.00 before delivery and have sales draft signed. --- 1/28/19 Asumi
Printed 1/30/2019 - Tina
//Courtesy text message is sent - 1/30/19 @ 12:50 PM Hitomi
Received delivery confirmation and salesdraft --- 2/2519 Asumi",TX,1,7.00
1/26/2019 6:55:05 AM,Tim Shields,IN,46143,PEGASUS 2 SMART,PEGS-2PEGS-2-BR,New Choco,New,,,,,5200.00,5200.00,0.00,Abagail Stirling,Synchrony,5200.00,,,6019170813352389,70433495,Las Vegas,36 months,,0.00,,,,,,,,0.00,,,,,,,,No,"5 years parts, 1 year labor (Free)",Delivered,,"INDIANAPOLIS HOME SHOW 1/18-27/19 INDIANAPOLIS, IN (IL)","INDIANAPOLIS HOME SHOW 1/18-27/19 INDIANAPOLIS, IN (IL)","
Confirmed synchrony transaction---2/26/19 Asumi
Authorization Code 
008871
omotion/Tran Code
436",,114590,"Confirmed synchrony approved $6,600.00 and original application form and invoice. Please charge $5,200.00 before delivery and have sales draft signed. --- 1/28/19 Asumi
Printed 1/30/2019 - Tina
//Courtesy text message is sent - 1/30/19 @12:53 PM Hitomi",TX,1,7.00
1/26/2019 6:58:01 AM,Ann Herrman,IN,47374,Legacy 3D,DWA-9150USJ-9150BL,New Black,New,,,,,4200.00,4200.00,0.00,Billy Shea,CreditCard,4200.00,Ip9M,,,,,,,0.00,,,,,,,,0.00,,,,,,,,No,"5 years parts, 1 year labor (Free)",Scheduled,,"INDIANAPOLIS HOME SHOW 1/18-27/19 INDIANAPOLIS, IN (IL)","INDIANAPOLIS HOME SHOW 1/18-27/19 INDIANAPOLIS, IN (IL)",,,114591,"Confirmed $4,200.00 in square 1/28/19 --- Asumi
Printed 1/30/2019 - Tina
//Courtesy text message is sent - 1/30/19 @12:54PM Hitomi
//Customer informed that she will be out of town till mid March. Please arrange delivery after that. - 2/1/19 Hitomi",TX,1,7.00
1/26/2019 7:01:39 AM,Thomas Ray,IN,47334,Relax2Zero 3D,DWA-9060USJ-9060BR,New Choco,New,,,,,4300.00,4300.00,0.00,Billy Shea,CreditCard,4300.00,PwXf,,,,,,,0.00,,,,,,,,0.00,,,,,,,1/26/2019 12:00:00 AM,No,"5 years parts, 1 year labor (Free)",Delivered,New,"INDIANAPOLIS HOME SHOW 1/18-27/19 INDIANAPOLIS, IN (IL)","INDIANAPOLIS HOME SHOW 1/18-27/19 INDIANAPOLIS, IN (IL)",,,114592,"Confirmed $4,300.00 in square. --- 1/28/19 Asumi
Printed 1/30/2019 - Tina
//Courtesy text message is sent - 1/30/19 @12:56 PM Hitomi

Received delivery confirmation --- 2/13/19 Asumi",TX,1,7.00
1/27/2019 6:57:22 PM,Philip Commins,IN,46077,PEGASUS 2 SMART,PEGS-2PEGS-2-BR,New Choco,New,,,,,5200.00,5200.00,0.00,Noni Ignacio,CreditCard,5200.00,s3HU,,,,,,,0.00,,,,,,,,0.00,,,,,,,2/14/2019 12:00:00 AM,No,"5 years parts, 2 years labor ($200)",Delivered,New,"INDIANAPOLIS HOME SHOW 1/18-27/19 INDIANAPOLIS, IN (IL)","INDIANAPOLIS HOME SHOW 1/18-27/19 INDIANAPOLIS, IN (IL)",,,114626,"Confirmed $5,200.00 in square. --- 1/28/19 Asumi
//Courtesy text message is sent - 1/30/19 @3:19 PM Hitomi
Received delivery confirmation.--- 2/25/19 Asu mi",TX,1,7.00
1/27/2019 7:07:26 PM,Jeam Coffman,IN,47201,Legacy 3D,DWA-9150USJ-9150BL-DEMO,Demo Black,Demo,,,,,4000.00,4000.00,0.00,Noni Ignacio,Synchrony,4000.00,,,6019180813355465,70509037,Las Vegas,36 months,,0.00,,,,,,,,0.00,,,,,,,2/17/2019 12:00:00 AM,No,"5 years parts, 1 year labor (Free)",Delivered,Demo,"INDIANAPOLIS HOME SHOW 1/18-27/19 INDIANAPOLIS, IN (IL)","INDIANAPOLIS HOME SHOW 1/18-27/19 INDIANAPOLIS, IN (IL)","Confirmed square transaction --- 2/26/19 Asumi

Authorization Code 
008409
Promotion/Tran Code
436
Transaction Amount
$4,000.00",,114627,"Confirmed synchrony approved $8,500.00 and original application form and invoice. Please charge $4000.00 before delivery and have sales draft signed. --- 1/28/19 Asumi
//Courtesy text message is sent - 1/30/19 @3:21 PM Hitomi

Received delivery confirmation 
Serial number 0202001181074
---2/25/19 Asumi",TX,1,7.00
1/27/2019 7:11:25 PM,Niles Pauley,IN,46158,PEGASUS 2 SMART,PEGS-2PEGS-2-BL-DEMO,Demo Black,Demo,,,,,5000.00,5000.00,0.00,Noni Ignacio,Synchrony,5000.00,,,6019170813355424,70508593,Las Vegas,36 months,,0.00,,,,,,,,0.00,,,,,,,2/16/2019 12:00:00 AM,No,"5 years parts, 1 year labor (Free)",Delivered,Demo,"INDIANAPOLIS HOME SHOW 1/18-27/19 INDIANAPOLIS, IN (IL)","INDIANAPOLIS HOME SHOW 1/18-27/19 INDIANAPOLIS, IN (IL)","Confirmed synchrony transaction --- 2/26/19 Asumi
Transaction Amount
$5,000.00
Promotion/Tran Code
436
Authorization Code 
008807",,114628,"Confirmed synchrony approved $6,600.00 and original  synchrony application form and invoice. 
Please charge $5,000 before delivery. Please deliver after Feb.11.2019 --- 1/28/19 Asumi
//Courtesy text message is sent - 1/30/19 @3:24PM Hitomi
Received delivery confirmation --- 2/24/19 Asumi",TX,1,7.00
1/27/2019 7:20:14 PM,Keith Gaston,IN,46112,PEGASUS 2 SMART,PEGS-2PEGS-2-BR,New Choco,New,,,,,5300.00,5300.00,0.00,Abagail Stirling,CreditCard,5300.00,FuTG,,,,,,,0.00,,,,,,,,0.00,,,,,,,,No,"5 years parts, 1 year labor (Free)",Scheduled,,"INDIANAPOLIS HOME SHOW 1/18-27/19 INDIANAPOLIS, IN (IL)","INDIANAPOLIS HOME SHOW 1/18-27/19 INDIANAPOLIS, IN (IL)",,,114629,"Confirmed $5,300.00 in square. ---1/28/19 Asumi
//Courtesy text message is sent - 1/30/19 @3:25 PM Hitomi",TX,1,7.00
1/27/2019 7:25:26 PM,Darlene Wilhoit,IN,46218,PEGASUS 2 SMART,PEGS-2PEGS-2-BR,New Choco,New,,,,,5700.00,5700.00,0.00,Noni Ignacio,Check,300.00,,,,,,,CreditCard,4940.00,008560,,,,,,COD,460.00,,,,,,,,No,"5 years parts, 1 year labor (Free)",Called,,"INDIANAPOLIS HOME SHOW 1/18-27/19 INDIANAPOLIS, IN (IL)","INDIANAPOLIS HOME SHOW 1/18-27/19 INDIANAPOLIS, IN (IL)",,,114630,"Do not call customer. They are remodeling and will call sales person to inform when to begin delivery process.
Check was deposited this afternoon. Will confirm Feb4 --- 1/28/19  Asumi
Confirmed with Yumi, Check $300 was cleared .*Please charge COD $5,400 upon delivery*--- 2/4/19 Asumi
The customer paid $4,940 (App#008560)through WF today, need to confirm the transaction on 3/11/19. The remaining balance is $460. -Riho",TX,1,7.00
1/27/2019 7:29:07 PM,Mark Morse,IN,47446,Legacy 3D,DWA-9150USJ-9150BL,New Black,New,,,,,4300.00,4300.00,0.00,Billy Shea,CreditCard,4300.00,Receipt #YmLl,,,,,,,0.00,,,,,,,,0.00,,,,,,,,No,"5 years parts, 1 year labor (Free)",Scheduled,,"INDIANAPOLIS HOME SHOW 1/18-27/19 INDIANAPOLIS, IN (IL)","INDIANAPOLIS HOME SHOW 1/18-27/19 INDIANAPOLIS, IN (IL)",,,114631,"Confirmed $4,300.00 payment in square. --- 1/28/19 Asumi
//Courtesy text message is sent - 1/30/19 @3:27PM Hitomi",TX,1,7.00
1/28/2019 7:40:31 AM,Michael Wharff,IN,46172,Relax2Zero 3D,DWA-9060USJ-9060BR,New Choco,New,,,,,4400.00,4400.00,0.00,Abagail Stirling,Synchrony,4400.00,,,6019170803355275,70504814,Las Vegas,36 months,,0.00,,,,,,,,0.00,,,,,,,2/14/2019 12:00:00 AM,No,"5 years parts, 1 year labor (Free)",Delivered,New,"INDIANAPOLIS HOME SHOW 1/18-27/19 INDIANAPOLIS, IN (IL)","INDIANAPOLIS HOME SHOW 1/18-27/19 INDIANAPOLIS, IN (IL)","Authorization Code 
008747

Promotion/Tran Code
436",,114652,"Confirmed synchrony approved $6,000.00 and original application form and invoice. Please charge $4400.00 before delivery and have sales draft signed--- 1/28/19 Asumi
//Courtesy text message is sent - 1/30/19 @3:35PM Hitomi
Received delivery confirmation and sales draft--- 2/25/19 Asumi",TX,1,7.00
1/29/2019 9:40:17 AM,Amanda Stout,IN,46112,PEGASUS 2 SMART,PEGS-2PEGS-2-BR,New Choco,New,,,,,5300.00,5300.00,0.00,Noni Ignacio,Synchrony,5300.00,,,6019170813347355,70229712,Las Vegas,36 months,,0.00,,,,,,,,0.00,,,,,,,,No,"5 years parts, 2 years labor ($200)",Scheduled,,"INDIANAPOLIS HOME SHOW 1/18-27/19 INDIANAPOLIS, IN (IL)","INDIANAPOLIS HOME SHOW 1/18-27/19 INDIANAPOLIS, IN (IL)","Authorization Code
018167 - Tina 2/18/2019",,114690,"correction from 114494.
Confirmed synchrony approved $6,000.00 and original application form and invoice. Please charge $5300.00 before delivery and have sales draft signed.   --- 1/29/19 Asumi
//Courtesy text message is sent - 1/30/19 @3:54PM Hitomi",TX,1,7.00
