﻿Date,Customer Name,State,Zipcode,Description,Product Number,Color,Product Status,Net,Shipping Fee,Gift Price,Financing Processing Fee,Order Total,Total Before Tax,Tax,Commission,Primary Payment Method,Primary Payment Balance,Primary Authorize Number,Primary Purchase Order Number,Primary Synchrony Account Number,Primary Synchrony Application Key,Primary Synchrony Account Info,Primary Synchrony Term,Second Payment Method,Second Payment Balance,Second Authorize Number,Second Purchase Order Number,Second Synchrony Account Number,Second Synchrony Application Key,Second Synchrony Account Info,Second Synchrony Term,Third Payment Method,Third Payment Balance,Third Authorize Number,Third Purchase Order Number,Third Synchrony Account Number,Third Synchrony Application Key,Third Synchrony Account Info,Third Synchrony Term,Delivery Date,Pick up,Warranty,Status,Chair Type,Original Event Name,Event Name,Synchrony Notes,Order Notes,Order Number,Private Note,Branch,No Tax,Actual Tax Rate
11/16/2018 7:37:16 PM,Dung Nguyen,OK,73170,Relax 2 Zero 2.0 for Sam's,USJ-9050USJ-9050BL-DEMO (Box),Demo (Box) Black[-701],Demo,,,,,3199.00,3199.00,0.00,Michael Rowe,PurchaseOrder,3199.00,,TC#8637509577888317031250,,,,,,0.00,,,,,,,,0.00,,,,,,,12/7/2018 12:00:00 AM,No,"3 years parts, 1 year labor (Free)",Delivered,New,"Sam's Club #6188 Austin, TX (11/15-11/25/2018) TX","Sam's Club #6188 Austin, TX (11/15-11/25/2018) TX",,,112377,"11/19Maritza Courtesy message and email sent @ 2:59PM
12/20Maritza Deliver confirmation received.",TX,1,8.25
11/19/2018 9:31:06 AM,U.S. JACLEAN INC.,CA,90249,Shogun Neck & Back Massger,USJ-874USJ-874,New,New,,,,,199.98,199.98,0.00,Michael Rowe,PurchaseOrder,199.89,,TC#313491032582443437881,,,,,,0.00,,,,,,,,0.00,,,,,,,,YES,"2 years parts, 1 year labor (Free)",Delivered,,"Sam's Club #6188 Austin, TX (11/15-11/25/2018) TX","Sam's Club #6188 Austin, TX (11/15-11/25/2018) TX",,,112470,,CA,1,8.25
11/23/2018 4:50:09 PM,Younghee Khang,TX,78717,Symphony,USJ-9300Symphony-BW-DEMO,Demo (Box) Black,Demo,,,,,4599.00,4599.00,0.00,Michael Rowe,PurchaseOrder,4599.00,,TC#1810526846207994910376,,,,,,0.00,,,,,,,,0.00,,,,,,,12/9/2018 12:00:00 AM,YES,"3 years parts, 1 year labor (Free)",Delivered,New,"Sam's Club #6188 Austin, TX (11/15-11/25/2018) TX","Sam's Club #6188 Austin, TX (11/15-11/25/2018) TX",,,112578,"NOT PICKUP ***NEED DELIVERY***confirmed w/MIke - 11/27/18 Hitomi
Customer has been contacted and confirmed for delivery on (12/9/2018) - Tina 12/9/2018
12/20Maritza Deliver confirmation received.",TX,1,8.25
11/23/2018 4:53:59 PM,Rainer Willingham,WA,98498,Shogun Neck & Back Massger,USJ-874USJ-874,New,New,,,,,199.98,199.98,0.00,Michael Rowe,PurchaseOrder,199.98,,TC#8418773826963333430007,,,,,,0.00,,,,,,,,0.00,,,,,,,,YES,"2 years parts, 1 year labor for Small Items",Delivered,,"Sam's Club #6188 Austin, TX (11/15-11/25/2018) TX","Sam's Club #6188 Austin, TX (11/15-11/25/2018) TX",,,112579,,WA,1,8.25
11/24/2018 11:55:53 AM,Stephanie Troyer,TX,78641,Chair Pad for Relax2Zero 2.0,,,New,,,,,3199.00,3199.00,0.00,Michael Rowe,PurchaseOrder,3199.00,,tc#8677129676813117199219,,,,,,0.00,,,,,,,,0.00,,,,,,,12/9/2018 12:00:00 AM,No,No Warranty,Delivered,New,"Sam's Club #6188 Austin, TX (11/15-11/25/2018) TX","Sam's Club #6188 Austin, TX (11/15-11/25/2018) TX",,,112597,"Customer has been contacted and scheduled for delivery on (12/9/2018) -Tina 11/28/2018
12/20Maritza Deliver confirmation received.",TX,1,8.25
11/24/2018 11:55:53 AM,Stephanie Troyer,TX,78641,Relax 2 Zero 2.0 for Sam's,USJ-9050USJ-9050BR-DEMO (Box),Demo (Box) Brown[-701],Demo,,,,,3199.00,3199.00,0.00,Michael Rowe,PurchaseOrder,3199.00,,tc#8677129676813117199219,,,,,,0.00,,,,,,,,0.00,,,,,,,12/9/2018 12:00:00 AM,No,"3 years parts, 1 year labor (Free)",Delivered,New,"Sam's Club #6188 Austin, TX (11/15-11/25/2018) TX","Sam's Club #6188 Austin, TX (11/15-11/25/2018) TX",,,112597,"Customer has been contacted and scheduled for delivery on (12/9/2018) -Tina 11/28/2018
12/20Maritza Deliver confirmation received.",TX,1,8.25
11/24/2018 2:41:14 PM,Rainer Willingham,WA,98498,Shogun Neck & Back Massger,USJ-874USJ-874,New,New,,,,,199.98,199.98,0.00,Michael Rowe,PurchaseOrder,199.98,,TC#429016543257990921306,,,,,,0.00,,,,,,,,0.00,,,,,,,,YES,"2 years parts, 1 year labor for Small Items",Delivered,,"Sam's Club #6188 Austin, TX (11/15-11/25/2018) TX","Sam's Club #6188 Austin, TX (11/15-11/25/2018) TX",,,112605,,WA,1,8.25
11/25/2018 9:53:22 AM,QING LI,TX,78750,Relax 2 Zero 2.0 for Sam's,USJ-9050USJ-9050BR-DEMO (Box),Demo (Box) Brown[-701],Demo,,,,,3199.00,3199.00,0.00,Michael Rowe,PurchaseOrder,3199.00,,TC#3563470618302661647710,,,,,,0.00,,,,,,,,0.00,,,,,,,12/9/2018 12:00:00 AM,No,"3 years parts, 1 year labor (Free)",Delivered,New,"Sam's Club #6188 Austin, TX (11/15-11/25/2018) TX","Sam's Club #6188 Austin, TX (11/15-11/25/2018) TX",,New chair -700 off Black Friday special second floor delivery,112629,"Second floor delivery
Customer has been contacted and confirmed for delivery on (12/9/2018) - Tina 11/28/2018
12/20Maritza Deliver confirmation received.",TX,1,8.25
11/25/2018 9:53:22 AM,QING LI,TX,78750,Daiwa Blanket,,,New,,,,,3199.00,3199.00,0.00,Michael Rowe,PurchaseOrder,3199.00,,TC#3563470618302661647710,,,,,,0.00,,,,,,,,0.00,,,,,,,12/9/2018 12:00:00 AM,No,No Warranty,Delivered,New,"Sam's Club #6188 Austin, TX (11/15-11/25/2018) TX","Sam's Club #6188 Austin, TX (11/15-11/25/2018) TX",,New chair -700 off Black Friday special second floor delivery,112629,"Second floor delivery
Customer has been contacted and confirmed for delivery on (12/9/2018) - Tina 11/28/2018
12/20Maritza Deliver confirmation received.",TX,1,8.25
11/25/2018 9:53:22 AM,QING LI,TX,78750,Chair Pad for Relax2Zero 2.0,,,New,,,,,3199.00,3199.00,0.00,Michael Rowe,PurchaseOrder,3199.00,,TC#3563470618302661647710,,,,,,0.00,,,,,,,,0.00,,,,,,,12/9/2018 12:00:00 AM,No,No Warranty,Delivered,New,"Sam's Club #6188 Austin, TX (11/15-11/25/2018) TX","Sam's Club #6188 Austin, TX (11/15-11/25/2018) TX",,New chair -700 off Black Friday special second floor delivery,112629,"Second floor delivery
Customer has been contacted and confirmed for delivery on (12/9/2018) - Tina 11/28/2018
12/20Maritza Deliver confirmation received.",TX,1,8.25
11/25/2018 9:53:22 AM,QING LI,TX,78750,Foot Pads for Relax2Zero 2.0,,,New,,,,,3199.00,3199.00,0.00,Michael Rowe,PurchaseOrder,3199.00,,TC#3563470618302661647710,,,,,,0.00,,,,,,,,0.00,,,,,,,12/9/2018 12:00:00 AM,No,No Warranty,Delivered,New,"Sam's Club #6188 Austin, TX (11/15-11/25/2018) TX","Sam's Club #6188 Austin, TX (11/15-11/25/2018) TX",,New chair -700 off Black Friday special second floor delivery,112629,"Second floor delivery
Customer has been contacted and confirmed for delivery on (12/9/2018) - Tina 11/28/2018
12/20Maritza Deliver confirmation received.",TX,1,8.25
11/25/2018 2:12:19 PM,Leticia Gutierrez,TX,78750,Legacy for Sam's,DWA-9100DWA-9100CH-Box,Demo(Box) Choco[-700],Demo,,,,,3599.00,3599.00,0.00,Michael Rowe,PurchaseOrder,3599.00,,TC#6358557888619338350027,,,,,,0.00,,,,,,,,0.00,,,,,,,12/9/2018 12:00:00 AM,No,"3 years parts, 1 year labor (Free)",Delivered,New,"Sam's Club #6188 Austin, TX (11/15-11/25/2018) TX","Sam's Club #6188 Austin, TX (11/15-11/25/2018) TX",,,112667,"Customer has been contacted and confirmed for delivery on (12/9/2018) - Tina 11/28/2018
12/20Maritza Deliver confirmation received.
1/7/19- sales rep Mike informed to ship free Shogun to the customer. will take care of the shipment.-Hitomi",TX,1,8.25
11/25/2018 2:59:58 PM,Angelo Fernandez,TX,78665,Relax 2 Zero 2.0 for Sam's,USJ-9050USJ-9050BR-DEMO (Box),Demo (Box) Brown[-701],Demo,,,,,3199.00,3199.00,0.00,Michael Rowe,PurchaseOrder,3199.00,,TC#5924221437542442431891,,,,,,0.00,,,,,,,,0.00,,,,,,,12/8/2018 12:00:00 AM,No,"3 years parts, 1 year labor (Free)",Delivered,New,"Sam's Club #6188 Austin, TX (11/15-11/25/2018) TX","Sam's Club #6188 Austin, TX (11/15-11/25/2018) TX",,,112674,"Customer has already been contacted and scheduled for delivery on (12/8/2018) - Tina 11/28/2018
12/20Maritza Deliver confirmation received.",TX,1,8.25
11/25/2018 2:59:58 PM,Angelo Fernandez,TX,78665,Daiwa Blanket,,,New,,,,,3199.00,3199.00,0.00,Michael Rowe,PurchaseOrder,3199.00,,TC#5924221437542442431891,,,,,,0.00,,,,,,,,0.00,,,,,,,12/8/2018 12:00:00 AM,No,No Warranty,Delivered,New,"Sam's Club #6188 Austin, TX (11/15-11/25/2018) TX","Sam's Club #6188 Austin, TX (11/15-11/25/2018) TX",,,112674,"Customer has already been contacted and scheduled for delivery on (12/8/2018) - Tina 11/28/2018
12/20Maritza Deliver confirmation received.",TX,1,8.25
11/25/2018 2:59:58 PM,Angelo Fernandez,TX,78665,Chair Pad for Relax2Zero 2.0,,,New,,,,,3199.00,3199.00,0.00,Michael Rowe,PurchaseOrder,3199.00,,TC#5924221437542442431891,,,,,,0.00,,,,,,,,0.00,,,,,,,12/8/2018 12:00:00 AM,No,No Warranty,Delivered,New,"Sam's Club #6188 Austin, TX (11/15-11/25/2018) TX","Sam's Club #6188 Austin, TX (11/15-11/25/2018) TX",,,112674,"Customer has already been contacted and scheduled for delivery on (12/8/2018) - Tina 11/28/2018
12/20Maritza Deliver confirmation received.",TX,1,8.25
11/25/2018 2:59:58 PM,Angelo Fernandez,TX,78665,Foot Pads for Relax2Zero 2.0,,,New,,,,,3199.00,3199.00,0.00,Michael Rowe,PurchaseOrder,3199.00,,TC#5924221437542442431891,,,,,,0.00,,,,,,,,0.00,,,,,,,12/8/2018 12:00:00 AM,No,No Warranty,Delivered,New,"Sam's Club #6188 Austin, TX (11/15-11/25/2018) TX","Sam's Club #6188 Austin, TX (11/15-11/25/2018) TX",,,112674,"Customer has already been contacted and scheduled for delivery on (12/8/2018) - Tina 11/28/2018
12/20Maritza Deliver confirmation received.",TX,1,8.25
11/25/2018 3:21:35 PM,Rainer Willingham,WA,98498,Shogun Neck & Back Massger,USJ-874USJ-874,New,New,,,,,199.98,199.98,0.00,Michael Rowe,PurchaseOrder,199.98,,,,,,,,0.00,,,,,,,,0.00,,,,,,,,YES,"2 years parts, 1 year labor for Small Items",Delivered,,"Sam's Club #6188 Austin, TX (11/15-11/25/2018) TX","Sam's Club #6188 Austin, TX (11/15-11/25/2018) TX",,,112677,No TC number customer left with giving me one. Sorry,WA,1,8.25
11/25/2018 7:23:13 PM,Parshoiam savalia,TX,78613,Relax 2 Zero 2.0 for Sam's,USJ-9050USJ-9050BR-DEMO (Box),Demo (Box) Brown[-701],Demo,,,,,3199.00,3199.00,0.00,Michael Rowe,PurchaseOrder,3199.00,,TC#6025053555920227225683,,,,,,0.00,,,,,,,,0.00,,,,,,,12/9/2018 12:00:00 AM,No,"3 years parts, 1 year labor (Free)",Delivered,New,"Sam's Club #6188 Austin, TX (11/15-11/25/2018) TX","Sam's Club #6188 Austin, TX (11/15-11/25/2018) TX",,,112686,"11/29Maritza Courtesy message and email sent @ 12:30PM
12/20Maritza Deliver confirmation received.",TX,1,8.25
11/25/2018 7:30:15 PM,mishara Shashi,TX,78745,Relax 2 Zero 2.0 for Sam's,USJ-9050USJ-9050BR-DEMO (Box),Demo (Box) Brown[-701],Demo,,,,,3199.00,3199.00,0.00,Michael Rowe,PurchaseOrder,3199.00,,TC#6025053555920227225683,,,,,,0.00,,,,,,,,0.00,,,,,,,12/9/2018 12:00:00 AM,No,"3 years parts, 1 year labor (Free)",Delivered,New,"Sam's Club #6188 Austin, TX (11/15-11/25/2018) TX","Sam's Club #6188 Austin, TX (11/15-11/25/2018) TX",,,112687,"11/26Maritza Courtesy email sent @ 2:21PM phone number is correct. She also updated her address. It is located under driver's instructions.
12/20Maritza Deliver confirmation received.",TX,1,8.25
