﻿Original Event Name,Event Name,Sales Person,Order Number,Order Date,Customer Name,State,Zip,Product Name,Color,Product Status,QTY,Tax,Total Before Tax,Order Total,Primary Payment Method,Second Payment Method,Thirdl Payment Method,Warranty,Order Items,Pick up,Delivered On,Order Status,Chair Type,Order Notes,Private Note,Branch,No Tax,Actual Tax Rate,SKU,Primary Payment Balance,Primary Authorize Number,Primary Purchase Order Number,Primary Synchrony Account Number,Primary Synchrony Application Key,Primary Synchrony Account Info,Primary Synchrony Term,Second Payment Balance,Second Authorize Number,Second Purchase Order Number,Second Synchrony Account Number,Second Synchrony Application Key,Second Synchrony Account Info,Second SynchronyTerm,Third Payment Balance,Third Authorize Number,Third Purchase Order Number,Third Synchrony Account Number,Third Synchrony Application Key,Third Synchrony Account Info,Third Synchrony Term
Sam's Club #4998 LADY LAKE 1/17-1/27/19 (FL),Sam's Club #4998 LADY LAKE 1/17-1/27/19 (FL),Rebecca Miller,114422,1/20/2019 7:48:27 AM,Nhi Ngo,FL,34484,Relax 2 Zero 2.0 for Sam's,New Beige,New,1,273.00,3900.00,4173.00,CreditCard,,,"3 years parts, 1 year labor (Free)","Relax 2 Zero 2.0 for Sam's,",No,,Paid,,"Please contact customer and make it convenient for her on the delivery. She works everyday until 6 p.m. thank you, Rebecca",,FL,0,7.00,USJ-9050USJ-9050BE,4173.00,8576 1 2 5 6 5232 7013 134 871,,,,,,0.00,,,,,,,0.00,,,,,,
Sam's Club #4998 LADY LAKE 1/17-1/27/19 (FL),Sam's Club #4998 LADY LAKE 1/17-1/27/19 (FL),Rebecca Miller,114479,1/21/2019 9:26:25 AM,Joan Refling,FL,34491,Foot Vibe Pro,,New,1,7.70,109.99,117.69,CreditCard,,,"2 years parts, 1 year labor for Small Items","Foot Vibe Pro,",YES,,Delivered,,"Customer picked up at time of purchase refused to give an email address. Thank you, Rebecca",,FL,0,7.00,USJ-871,117.69,31459 323 1 1 5 2 2020 09770,,,,,,0.00,,,,,,,0.00,,,,,,
Sam's Club #4998 LADY LAKE 1/17-1/27/19 (FL),Sam's Club #4998 LADY LAKE 1/17-1/27/19 (FL),Rebecca Miller,114499,1/22/2019 12:51:51 AM,Frank Zsilavetz,FL,32159,Orbit for Sam's ,Demo Black[-300],Demo,1,188.86,2698.00,2886.86,CreditCard,,,"3 years parts, 1 year labor (Free)","Orbit for Sam's ,",No,,Paid,,"Lives in Gated community. Thank you, Rebecca",,FL,0,7.00,ORBT-1ORBT-1BL-DEMO,2886.86,4900696948820973793037,,,,,,0.00,,,,,,,0.00,,,,,,
Sam's Club #4998 LADY LAKE 1/17-1/27/19 (FL),Sam's Club #4998 LADY LAKE 1/17-1/27/19 (FL),Rebecca Miller,114500,1/22/2019 1:00:07 AM,Nick Mulidore,FL,32162,Legacy for Sam's,Demo Choco[-700],Demo,1,251.93,3599.00,3850.93,CreditCard,,,"3 years parts, 1 year labor (Free)","Legacy for Sam's,",No,,Paid,,,,FL,0,7.00,DWA-9100DWA-9100CH-DEMO,3850.93,6308327278986356553496,,,,,,0.00,,,,,,,0.00,,,,,,
Sam's Club #4998 LADY LAKE 1/17-1/27/19 (FL),Sam's Club #4998 LADY LAKE 1/17-1/27/19 (FL),Rebecca Miller,114501,1/22/2019 1:09:51 AM,Teresa Lynn Moore,FL,34788,Legacy for Sam's,Demo Choco[-700],Demo,1,251.93,3599.00,3850.93,CreditCard,,,"3 years parts, 1 year labor (Free)","Legacy for Sam's,",No,,Paid,,,,FL,0,7.00,DWA-9100DWA-9100CH-DEMO,3850.93,5444471918065425228902,,,,,,0.00,,,,,,,0.00,,,,,,
Sam's Club #4998 LADY LAKE 1/17-1/27/19 (FL),Sam's Club #4998 LADY LAKE 1/17-1/27/19 (FL),Rebecca Miller,114502,1/22/2019 1:16:17 AM,Shirley Starr,FL,32162,Orbit for Sam's ,New Black,New,1,209.86,2998.00,3207.86,CreditCard,,,"3 years parts, 1 year labor (Free)","Orbit for Sam's ,",No,,New,,,"CC Josefina - 1/22/19 11:02am (customer wanted to know when her delivery will be, informed her I would call her back by Fri. with a time)",FL,0,7.00,ORBT-1ORBT-1BL,3207.86,9585113351197206026740,,,,,,0.00,,,,,,,0.00,,,,,,
Sam's Club #4998 LADY LAKE 1/17-1/27/19 (FL),Sam's Club #4998 LADY LAKE 1/17-1/27/19 (FL),Rebecca Miller,114503,1/22/2019 1:23:43 AM,Jeremy Souza,FL,32519,Relax 2 Zero 2.0 for Sam's,Demo Black[-701],Demo,1,223.93,3199.00,3422.93,CreditCard,,,"3 years parts, 1 year labor (Free)","Relax 2 Zero 2.0 for Sam's,",No,,Paid,,,,FL,0,7.00,USJ-9050USJ-9050BL-DEMO,3422.93,0141624423620780887128,,,,,,0.00,,,,,,,0.00,,,,,,
Sam's Club #4998 LADY LAKE 1/17-1/27/19 (FL),Sam's Club #4998 LADY LAKE 1/17-1/27/19 (FL),Hunt Zhang,114534,1/23/2019 8:04:30 PM,Lee Hughes,FL,32162,Foot Vibe Pro,,New,1,7.70,109.99,117.69,CreditCard,,,"2 years parts, 1 year labor for Small Items","Foot Vibe Pro,",YES,,New,,,,Not Dispatched,0,7.00,USJ-871,117.69,389533457151200069740,,,,,,0.00,,,,,,,0.00,,,,,,
Sam's Club #4998 LADY LAKE 1/17-1/27/19 (FL),Sam's Club #4998 LADY LAKE 1/17-1/27/19 (FL),Hunt Zhang,114535,1/23/2019 8:09:09 PM,Tien Mac,FL,30022,Foot Vibe Pro,,New,1,0.00,109.99,109.99,CreditCard,,,"2 years parts, 1 year labor for Small Items","Foot Vibe Pro,",YES,,New,,,,Not Dispatched,1,7.00,USJ-871,109.99,185401438040422228922,,,,,,0.00,,,,,,,0.00,,,,,,
Sam's Club #4998 LADY LAKE 1/17-1/27/19 (FL),Sam's Club #4998 LADY LAKE 1/17-1/27/19 (FL),Hunt Zhang,114536,1/23/2019 8:12:12 PM,James Garrett,FL,32159,Foot Vibe Pro,,New,1,7.70,109.99,117.69,CreditCard,,,"2 years parts, 1 year labor for Small Items","Foot Vibe Pro,",YES,,New,,,,Not Dispatched,0,7.00,USJ-871,117.69,420144923626788850198,,,,,,0.00,,,,,,,0.00,,,,,,
Sam's Club #4998 LADY LAKE 1/17-1/27/19 (FL),Sam's Club #4998 LADY LAKE 1/17-1/27/19 (FL),Hunt Zhang,114537,1/23/2019 8:15:41 PM,Richard Dynn,FL,34479,Foot Vibe Pro,,New,1,7.70,109.99,117.69,CreditCard,,,"2 years parts, 1 year labor for Small Items","Foot Vibe Pro,",YES,,New,,,,Not Dispatched,0,7.00,USJ-871,117.69,587655398363011148821,,,,,,0.00,,,,,,,0.00,,,,,,
Sam's Club #4998 LADY LAKE 1/17-1/27/19 (FL),Sam's Club #4998 LADY LAKE 1/17-1/27/19 (FL),Hunt Zhang,114538,1/23/2019 8:23:20 PM,Robert Rhode,FL,32162,Legacy for Sam's,Demo(Box) Choco[-700],Demo,1,251.93,3599.00,3850.93,CreditCard,,,"3 years parts, 1 year labor (Free)","Legacy for Sam's,",No,,New,,,Sam's club charged the customer for renewing the plus membership on the same receipt. That's where the remaining balance $100 came from. We don't need to take any money from the customer.,Not Dispatched,0,7.00,DWA-9100DWA-9100CH-Box,3950.93,0861033429626780880168,,,,,,0.00,,,,,,,0.00,,,,,,
