﻿Date,CustomerName,State,Zipcode,Description,productNo,Color,Product Status,Net,ShippingFee,GiftPrice,FinancingProcessingFee,Order Total,Pre_tax,Tax,Commission,Primary Payment Method,Primary Payment Balance,Primary Authorize Number,Primary Purchase Order Number,Primary Synchrony Account Number,Primary Synchrony Application Key,Primary Synchrony AccountInfo,Primary SynchronyTerm,Secondly Payment Method,Secondly Payment Balance,Secondly Authorize Number,Secondly Purchase Order Number,Secondly Synchrony Account Number,Secondly Synchrony Application Key,Secondly Synchrony AccountInfo,Secondly SynchronyTerm,Thirdly Payment Method,Thirdly Payment Balance,Thirdly Authorize Number,Thirdly Purchase Order Number,Thirdly Synchrony Account Number,Thirdly Synchrony Application Key,Thirdly Synchrony AccountInfo,Thirdly SynchronyTerm,DeliveryDate,Pick up,Warranty,Status,Original Event Name,Event Name,Synchrony Notes,Order Notes,Order number,Private Note,Branch,No Tax,ActualTaxRate
10/9/2017 6:54:01 PM,Kristine Cyr,PA,18353,Relax2Zero 3D,DWA-9060USJ-9060BR,Choco Brown,New,,,,,4982.28,4687.00,295.28,Keith Kei,,4982.00,03806G. And 09401G,,,,,,,,,,,,,,,,,,,,,,10/17/2017 12:00:00 AM,No,"3 years parts, 1 year labor (Free)",Delivered,Balloon Fiesta Albuquerque 10/7-10/15 (TX),Balloon Fiesta Albuquerque 10/7-10/15 (TX),,,101194,BOTH WELLS FARGO TRANSACTIONS CLEARED BY ALICIA 10.11.17,TX,,
10/13/2017 10:16:29 PM,Phouthasenh Chaleunphonh,NM,87123,Legacy 3D,DWA-9150USJ-9150BL,Black,New,,,,,4000.00,3773.26,226.74,Keith Kei,,4000.00,,,6034610081570757,79653739,Huston,36 months,,,,,,,,,,,,,,,,,10/21/2017 12:00:00 AM,No,"3 years parts, 1 year labor (Free)",Delivered,Balloon Fiesta Albuquerque 10/7-10/15 (TX),Balloon Fiesta Albuquerque 10/7-10/15 (TX),,"Invoice # 14
Please process synchrony financing
key # 79653739 for $4000.00 for 36 months
Remaining Balance $0",101258,"CHARGE $4000 BEFORE DELIVERY
CHARGED 10/25/17 AUTH 024223 - 11/15/17 STEPHANY
9/17Maritza called needing repairs chair wont turn on. transferred to kim.
9/18Maritza Customer called back for an update.",TX,,
10/13/2017 11:55:57 PM,Dr. Joshua Berka,CA,92008,Relax2Zero 3D,DWA-9060USJ-9060BR,Choco Brown,New,,,,,4000.00,3773.26,226.74,Keith Kei,,4000.00,827307,,,,,,,,,,,,,,,,,,,,,,11/2/2017 12:00:00 AM,No,"3 years parts, 1 year labor (Free)",Delivered,Balloon Fiesta Albuquerque 10/7-10/15 (TX),Balloon Fiesta Albuquerque 10/7-10/15 (TX),,"Invoice # 16
Customer Paid in Full.
Call prior to delivery, the customer will be out of the country for a trip, but his office will answer and receive the chair.",101259,"10/16/17 cristina wellsfargo payment cleared
printed",CA,,
10/14/2017 10:21:12 PM,Tim Nelson,CA,95683,Relax2Zero 3D,DWA-9060USJ-9060BR,Choco Brown,New,,,,,4000.00,3773.26,226.74,Keith Kei,,4000.00,,,6034610081572144,79686484,Huston,24 months,,,,,,,,,,,,,,,,,11/1/2017 12:00:00 AM,No,"3 years parts, 1 year labor (Free)",Delivered,Balloon Fiesta Albuquerque 10/7-10/15 (TX),Balloon Fiesta Albuquerque 10/7-10/15 (TX),,"Invoice #21
Please process synchrony financing sales order.
Total $4000 financing.
Remaining Balance: $0
24 months financing 0% interest rate.",101273,11/01/17,CA,,
10/15/2017 12:29:38 AM,Amy Kettleson,NM,87114,Relax2Zero 3D,DWA-9060USJ-9060BR,Choco Brown,New,,,,,5052.50,4752.33,300.17,Keith Kei,,5052.50,,,6034610081574280,79725391,Huston,24 months,,,,,,,,,,,,,,,,,10/20/2017 12:00:00 AM,No,"3 years parts, 1 year labor (Free)",Delivered,Balloon Fiesta Albuquerque 10/7-10/15 (TX),Balloon Fiesta Albuquerque 10/7-10/15 (TX),,"Invoice # 22.
Please process synchrony sales order.
Total $5052.5 finance 24 months 0% interest rate
Remaining Balance $0.",101274,"CHARGE  $5052.5 BEFORE DELIVERY
SYNCHRONY CHARGED  014267 AUTH - STEPHANY 11/14/17",TX,,
