﻿Date,CustomerName,State,Zipcode,Description,productNo,Color,IsDemo,Net,ShippingFee,GiftPrice,FinancingProcessingFee,Gross,Pre_tax,Tax,Commission,Primary Payment Method,Primary Payment Balance,Primary Authorize Number,Primary Purchase Order Number,Primary Synchrony Account Number,Primary Synchrony Application Key,Primary Synchrony AccountInfo,Primary SynchronyTerm,Secondly Payment Method,Secondly Payment Balance,Secondly Authorize Number,Secondly Purchase Order Number,Secondly Synchrony Account Number,Secondly Synchrony Application Key,Secondly Synchrony AccountInfo,Secondly SynchronyTerm,Thirdly Payment Method,Thirdly Payment Balance,Thirdly Authorize Number,Thirdly Purchase Order Number,Thirdly Synchrony Account Number,Thirdly Synchrony Application Key,Thirdly Synchrony AccountInfo,Thirdly SynchronyTerm,DeliveryDate,Ispickup,Warranty,Status,Event Name,Synchrony Notes,Order Notes,Order number,Private Note,Branch,IsNoTax,ActualTaxRate
1/19/2018 10:20:14 AM,Dianne Berman,CA,92270,Foot Vibe Pro,USJ-871,,New,,,,,118.51,109.99,8.52,Ilene Maynard,CreditCard,0.00,A0000000980840,,,,,,,0.00,,,,,,,,0.00,,,,,,,,YES,"2 years parts, 1 year labor (Small Items)",Delivered,Sam's club #6609 Palm Desert 1/18-1/28/18 (CA),,,103080,"Picked up
TC#1444 5121 9032 2450 4384 8",CA,0,7.75
1/19/2018 10:23:54 AM,Isreal Martinez,CA,92240,Foot Vibe Pro,USJ-871,,New,,,,,118.51,109.99,8.52,Ilene Maynard,CreditCard,0.00,A01803R,,,,,,,0.00,,,,,,,,0.00,,,,,,,,YES,"2 years parts, 1 year labor (Small Items)",Delivered,Sam's club #6609 Palm Desert 1/18-1/28/18 (CA),,,103082,"Picked up
TC# 7938 7727 1947 5379 2803 0",CA,0,7.75
1/19/2018 10:27:06 AM,Dan Huber,CA,92284,Foot Vibe Pro,USJ-871,,New,,,,,118.51,109.99,8.52,Ilene Maynard,CreditCard,0.00,A072121,,,,,,,0.00,,,,,,,,0.00,,,,,,,,YES,"2 years parts, 1 year labor (Small Items)",Delivered,Sam's club #6609 Palm Desert 1/18-1/28/18 (CA),,,103083,"Picked up
TC#1863 2060 2212 4652 8774 7",CA,0,7.75
1/20/2018 10:45:49 AM,Claudia Cendejas,CA,92203,Legacy for Sam's,DWA-9100DWA-9100CH,Choco,New,,,,,4632.17,4299.00,333.17,Ilene Maynard,CreditCard,0.00,06074C,,,,,,,0.00,,,,,,,,0.00,,,,,,,2/12/2018 12:00:00 AM,No,"3 years parts, 1 year labor (Free)",Delivered,Sam's club #6609 Palm Desert 1/18-1/28/18 (CA),,,103094,TC# 3992 4128 0449 6687 4229 09,CA,0,7.75
1/21/2018 5:41:40 PM,Joseph Gatus,CA,92234,Legacy for Sam's,DWA-9100DWA-9100CH,Choco,New,,,,,3877.92,3599.00,278.92,Ilene Maynard,CreditCard,0.00,A001318,,,,,,,0.00,,,,,,,,0.00,,,,,,,2/9/2018 12:00:00 AM,No,"3 years parts, 1 year labor (Free)",Delivered,Sam's club #6609 Palm Desert 1/18-1/28/18 (CA),,Deliver NEW Chair,103126,TC# 7086 5258 9736 5109 3194 24,CA,0,7.75
1/24/2018 11:22:25 AM,Carolyn Wilson,CA,92240,Legacy for Sam's,DWA-9100DWA-9100BL,Blue,New,,,,,3877.92,3599.00,278.92,Ilene Maynard,CreditCard,0.00,552557,,,,,,,0.00,,,,,,,,0.00,,,,,,,2/9/2018 12:00:00 AM,No,"3 years parts, 1 year labor (Free)",Scheduled,Sam's club #6609 Palm Desert 1/18-1/28/18 (CA),,Deliver Demo Chair - Blue,103225,"TC# 8147 6093 7654 5317 5302 02
01/26/18-printed",CA,0,7.75
1/26/2018 8:09:33 PM,Maria Castillo,CA,92241,Legacy for Sam's,DWA-9100DWA-9100CH,Choco,New,,,,,3877.92,3599.00,278.92,Ilene Maynard,CreditCard,0.00,98505p,,,,,,,0.00,,,,,,,,0.00,,,,,,,2/9/2018 12:00:00 AM,No,"3 years parts, 1 year labor (Free)",Delivered,Sam's club #6609 Palm Desert 1/18-1/28/18 (CA),,Deliver NEW Chair,103278,"TC# 4599 1381 6970 8956 7961 31
01/30/18-cristina printed",CA,0,7.75
1/27/2018 10:55:06 AM,Octavian Popaluca,CA,92270,Foot Vibe Pro,USJ-871,,New,,,,,118.51,109.99,8.52,Ilene Maynard,CreditCard,0.00,830983,,,,,,,0.00,,,,,,,,0.00,,,,,,,,YES,"2 years parts, 1 year labor (Small Items)",Delivered,Sam's club #6609 Palm Desert 1/18-1/28/18 (CA),,Picked up,103287,TC# 5426 5579 3345 1053 6940 4,CA,0,7.75
1/27/2018 5:45:42 PM,Brian Rennie,CA,92234,Relax2Zero 2.0 for Sam's,USJ-9050USJ-9050BR,Brown,New,,,,,4202.25,3900.00,302.25,Ilene Maynard,Cash,3000.00,,,,,,,CreditCard,1202.25,917243,,,,,,,0.00,,,,,,,,No,"3 years parts, 1 year labor (Free)",Called,Sam's club #6609 Palm Desert 1/18-1/28/18 (CA),,Make sure to bring operation manual or he will cancel!,103291,"TC# 7525 4139 5116 1028 1546 56
01/30/18-cristina printed",CA,0,7.75
1/27/2018 5:48:26 PM,Brian Rennie,CA,92234,Relax2Zero 2.0 for Sam's,USJ-9050USJ-9050BR,Brown,New,,,,,4202.25,3900.00,302.25,Ilene Maynard,Cash,3000.00,,,,,,,CreditCard,1202.25,917243,,,,,,,0.00,,,,,,,2/9/2018 12:00:00 AM,No,"3 years parts, 1 year labor (Free)",Delivered,Sam's club #6609 Palm Desert 1/18-1/28/18 (CA),,Make sure to bring operation manual or he will cancel!,103292,"TC# 7525 4139 5116 1028 1546 56
01/30/18-cristina printed",CA,0,7.75
1/28/2018 12:12:20 PM,William Sewell,CA,92257,Legacy for Sam's,DWA-9100DWA-9100BG,Beige,New,,,,,3877.92,3599.00,278.92,Ilene Maynard,CreditCard,0.00,001326,,,,,,,0.00,,,,,,,,0.00,,,,,,,12/12/2018 12:00:00 AM,No,"3 years parts, 1 year labor (Free)",Delivered,Sam's club #6609 Palm Desert 1/18-1/28/18 (CA),,Deliver NEW chair,103326,"TC# 7086 0254 9532 1109 3154 24
01/30/18- cristina printed",CA,0,7.75
1/28/2018 12:16:57 PM,Faye Clerget,WA,98093,Foot Vibe Pro,USJ-871,,New,,,,,118.51,109.99,8.52,Ilene Maynard,CreditCard,0.00,000461,,,,,,,0.00,,,,,,,,0.00,,,,,,,,YES,"2 years parts, 1 year labor (Small Items)",Delivered,Sam's club #6609 Palm Desert 1/18-1/28/18 (CA),,Picked up,103327,TC# 9617 9987 6519 3195 4621 2,WA,0,7.75
1/28/2018 12:21:50 PM,Socorro Escalante,CA,92231,Vitality Plate for Sam's,USJ-849USJ-849,New,New,,,,,495.64,459.99,35.65,Ilene Maynard,Cash,0.00,,,,,,,,0.00,,,,,,,,0.00,,,,,,,,YES,"2 years parts, 1 year labor (Small Items)",Delivered,Sam's club #6609 Palm Desert 1/18-1/28/18 (CA),,Picked up,103328,TC# 4038 5768 4999 5349 0402 0,CA,0,7.75
1/28/2018 2:14:19 PM,Bhavesh Bhakta,CA,92201,Legacy for Sam's,DWA-9100DWA-9100BL,Black,New,,,,,3877.92,3599.00,278.92,Ilene Maynard,CreditCard,0.00,07435C,,,,,,,0.00,,,,,,,,0.00,,,,,,,2/12/2018 12:00:00 AM,No,"3 years parts, 1 year labor (Free)",Delivered,Sam's club #6609 Palm Desert 1/18-1/28/18 (CA),,Deliver NEW chair,103335,"TC# 6388 3171 8496 5538 9560 10
01/30/18-cristina printed",CA,0,7.75
