﻿Date,CustomerName,State,Zipcode,Description,productNo,Color,IsDemo,Net,ShippingFee,GiftPrice,FinancingProcessingFee,Gross,Pre_tax,Tax,Commission,Primary Payment Method,Primary Payment Balance,Primary Authorize Number,Primary Purchase Order Number,Primary Synchrony Account Number,Primary Synchrony Application Key,Primary Synchrony AccountInfo,Primary SynchronyTerm,Secondly Payment Method,Secondly Payment Balance,Secondly Authorize Number,Secondly Purchase Order Number,Secondly Synchrony Account Number,Secondly Synchrony Application Key,Secondly Synchrony AccountInfo,Secondly SynchronyTerm,Thirdly Payment Method,Thirdly Payment Balance,Thirdly Authorize Number,Thirdly Purchase Order Number,Thirdly Synchrony Account Number,Thirdly Synchrony Application Key,Thirdly Synchrony AccountInfo,Thirdly SynchronyTerm,DeliveryDate,Ispickup,Warranty,Status,Event Name,Synchrony Notes,Order Notes,Order number,Private Note,Branch,IsNoTax,ActualTaxRate
3/19/2018 2:07:38 AM,Sostenes Baez,FL,33065,Shogun Neck & Back Massger,USJ-874USJ-874,New,New,,,,,211.98,199.98,12.00,Jonathan Bhowani,CreditCard,211.98,Tc# 7107 9900 1583 0118 3829 2,,,,,,,0.00,,,,,,,,0.00,,,,,,,,YES,"2 years parts, 1 year labor for Small Items",Delivered,Sam's Club #6637 3/15-18/18 (FL),,,104611,Item given to customer upon purchase. Please do not ship,FL,0,6.00
3/19/2018 2:11:29 AM,Anand Varma,FL,33068,Shogun Neck & Back Massger,USJ-874USJ-874,New,New,,,,,211.98,199.98,12.00,Jonathan Bhowani,CreditCard,211.98,TC# 0752 2227 2444 7881 6192 9,,,,,,,0.00,,,,,,,,0.00,,,,,,,,YES,"2 years parts, 1 year labor for Small Items",Delivered,Sam's Club #6637 3/15-18/18 (FL),,,104612,Item given to customer upon purchase. Please do not ship.,FL,0,6.00
