﻿Date,CustomerName,State,Zipcode,Description,productNo,Color,Product Status,Net,ShippingFee,GiftPrice,FinancingProcessingFee,Order Total,Pre_tax,Tax,Commission,Primary Payment Method,Primary Payment Balance,Primary Authorize Number,Primary Purchase Order Number,Primary Synchrony Account Number,Primary Synchrony Application Key,Primary Synchrony AccountInfo,Primary SynchronyTerm,Secondly Payment Method,Secondly Payment Balance,Secondly Authorize Number,Secondly Purchase Order Number,Secondly Synchrony Account Number,Secondly Synchrony Application Key,Secondly Synchrony AccountInfo,Secondly SynchronyTerm,Thirdly Payment Method,Thirdly Payment Balance,Thirdly Authorize Number,Thirdly Purchase Order Number,Thirdly Synchrony Account Number,Thirdly Synchrony Application Key,Thirdly Synchrony AccountInfo,Thirdly SynchronyTerm,DeliveryDate,Pick up,Warranty,Status,Original Event Name,Event Name,Synchrony Notes,Order Notes,Order number,Private Note,Branch,No Tax,ActualTaxRate
10/4/2018 3:37:07 PM,Marie Lucien,FL,33319,Foot Vibe Pro,USJ-871,,New,,,,,116.59,109.99,6.60,Rebecca Miller,Cash,116.59,,,,,,,,0.00,,,,,,,,0.00,,,,,,,,YES,"2 years parts, 1 year labor (Free)",Delivered,Sam's Club #6341 Sunrise 10/4-14/18 (FL),Sam's Club #6341 Sunrise 10/4-14/18 (FL),,Picked up in store,110069,will confirm TC# 10/4/18 Hitomi//TC#1964 1196 2370 1429 7988 5,FL,0,6.00
10/7/2018 8:20:38 AM,Tammie Taylor,FL,33076,Shogun Neck & Back Massger,USJ-874USJ-874,New,New,,,,,211.98,199.98,12.00,Rebecca Miller,CreditCard,211.98,122300167164066542703,,,,,,,0.00,,,,,,,,0.00,,,,,,,,YES,"2 years parts, 1 year labor (Free)",Delivered,Sam's Club #6341 Sunrise 10/4-14/18 (FL),Sam's Club #6341 Sunrise 10/4-14/18 (FL),,,110123,,FL,0,6.00
10/7/2018 8:30:52 AM,Raul Villa,FL,33327,Shogun Neck & Back Massger,USJ-874USJ-874,New,New,,,,,211.98,199.98,12.00,Rebecca Miller,CreditCard,211.98,9816 5512 1903 5008 1445 7,,,,,,,0.00,,,,,,,,0.00,,,,,,,,YES,"2 years parts, 1 year labor for Small Items",Delivered,Sam's Club #6341 Sunrise 10/4-14/18 (FL),Sam's Club #6341 Sunrise 10/4-14/18 (FL),,Customer purchased and picked up at Sam's Club in Sunrise Florida,110127,Very unlegible handwriting I asked him to write it very clearly. Not sure if email address but did the best I could. Customer did not speak English well. Thank you,FL,0,6.00
10/8/2018 12:45:19 PM,Zi Tan,FL,33024,Legacy for Sam's,DWA-9100DWA-9100CH-Box,Demo(Box) Choco[-700],Demo,,,,,3814.94,3599.00,215.94,Rebecca Miller,CreditCard,3814.94,1852422187081283366 931,,,,,,,0.00,,,,,,,,0.00,,,,,,,,No,"3 years parts, 1 year labor (Free)",Assigned,Sam's Club #6341 Sunrise 10/4-14/18 (FL),Sam's Club #6341 Sunrise 10/4-14/18 (FL),,Manager approved new one for demo price.,110190,CC Josefina - 10/9/18 1:30pm,FL,0,6.00
10/8/2018 12:56:44 PM,Jose Garcia,FL,33310,Foot Vibe Pro,USJ-871,,New,,,,,116.59,109.99,6.60,Rebecca Miller,CreditCard,116.59,868988659689859208114,,,,,,,0.00,,,,,,,,0.00,,,,,,,,YES,"2 years parts, 1 year labor (Free)",Delivered,Sam's Club #6341 Sunrise 10/4-14/18 (FL),Sam's Club #6341 Sunrise 10/4-14/18 (FL),,,110191,,FL,0,6.00
10/15/2018 12:33:43 PM,Constance Wade,FL,33015,Legacy for Sam's,DWA-9100DWA-9100CH-DEMO,Demo Choco[-700],Demo,,,,,3814.94,3599.00,215.94,Rebecca Miller,CreditCard,3814.94,3633800866153065546753,,,,,,,0.00,,,,,,,,0.00,,,,,,,,No,"3 years parts, 1 year labor (Free)",New,Sam's Club #6341 Sunrise 10/4-14/18 (FL),Sam's Club #6341 Sunrise 10/4-14/18 (FL),,,110362,,FL,0,6.00
10/15/2018 1:44:15 PM,David Hagan,FL,33312,Vitality Plate for Sam's,USJ-849USJ-849-DEMO,Demo[-60],Demo,,,,,423.99,399.99,24.00,Rebecca Miller,CreditCard,423.99,387212585066287384961,,,,,,,0.00,,,,,,,,0.00,,,,,,,,YES,"2 years parts, 1 year labor for Small Items",Delivered,Sam's Club #6341 Sunrise 10/4-14/18 (FL),Sam's Club #6341 Sunrise 10/4-14/18 (FL),,,110365,,FL,0,6.00
10/15/2018 1:53:28 PM,Tina Piciu,FL,33328,Vitality Plate for Sam's,USJ-849USJ-849-DEMO,Demo[-60],Demo,,,,,423.99,399.99,24.00,Rebecca Miller,CreditCard,423.99,784553625509320700699,,,,,,,0.00,,,,,,,,0.00,,,,,,,,YES,"2 years parts, 1 year labor for Small Items",Delivered,Sam's Club #6341 Sunrise 10/4-14/18 (FL),Sam's Club #6341 Sunrise 10/4-14/18 (FL),,Customer picked up at time of purchase. Thank you,110366,,FL,0,6.00
10/15/2018 2:01:52 PM,Hubert Russell,FL,33020,Vitality Plate for Sam's,USJ-849USJ-849,New,New,,,,,487.59,459.99,27.60,Rebecca Miller,CreditCard,487.59,719623027577320786649,,,,,,,0.00,,,,,,,,0.00,,,,,,,,YES,"2 years parts, 1 year labor for Small Items",Delivered,Sam's Club #6341 Sunrise 10/4-14/18 (FL),Sam's Club #6341 Sunrise 10/4-14/18 (FL),,Customer picked up at time of purchase. Thank you,110367,,FL,0,6.00
