﻿Original Event Name,Event Name,Sales Person,Order Number,Order Date,Customer Name,State,Zip,Product Name,Color,Product Status,QTY,Tax,Total Before Tax,Order Total,Primary Payment Method,Second Payment Method,Thirdl Payment Method,Warranty,Order Items,Pick up,Delivered On,Order Status,Chair Type,Order Notes,Private Note,Branch,No Tax,Actual Tax Rate,SKU,Primary Payment Balance,Primary Authorize Number,Primary Purchase Order Number,Primary Synchrony Account Number,Primary Synchrony Application Key,Primary Synchrony Account Info,Primary Synchrony Term,Second Payment Balance,Second Authorize Number,Second Purchase Order Number,Second Synchrony Account Number,Second Synchrony Application Key,Second Synchrony Account Info,Second SynchronyTerm,Third Payment Balance,Third Authorize Number,Third Purchase Order Number,Third Synchrony Account Number,Third Synchrony Application Key,Third Synchrony Account Info,Third Synchrony Term
Sam's Club #4801 Riverview 4/25-5/5/19 (FL),Sam's Club #4801 Riverview 4/25-5/5/19 (FL),Robert Shih,116968,4/26/2019 7:29:25 AM,Vonzett George,FL,33579,Relax 2 Zero 2.0 for Sam's,Demo Brown[-701],Demo,1,271.92,3199.00,3470.92,Credit Card,,,"3 years parts, 1 year labor (Free)","Relax 2 Zero 2.0 for Sam's,",No,5/17/2019 12:00:00 AM,Delivered,New,Royalty customer discount.,"CUSTOMER WILL RECEIVE NEW, did not have a brown demo at the show only black and no demo available at warehouse. -5/7 JD
CC, Jasmin Carrizales, 4/26/19, 1:05pm, VM",FL,0,8.50,USJ-9050USJ-9050BR-DEMO,3470.92,TC# 8657 4098 9398 8937 5326 51,,,,,,0.00,,,,,,,0.00,,,,,,
Sam's Club #4801 Riverview 4/25-5/5/19 (FL),Sam's Club #4801 Riverview 4/25-5/5/19 (FL),Robert Shih,116969,4/26/2019 7:35:44 AM,Huyen Nguyen,FL,33547,Relax 2 Zero 2.0 for Sam's,New Brown,New,1,331.50,3900.00,4231.50,Credit Card,,,"3 years parts, 1 year labor (Free)","Relax 2 Zero 2.0 for Sam's,",No,5/10/2019 12:00:00 AM,Delivered,New,,"CC, Jasmin Carrizales, 4/26/19, 12:51pm
Av. Tuesdays, Thursdays or Saturdays for delivery
Email Address: Carlalert66@yahoo.com
Cell # 813-466-0380 Text.",FL,0,8.50,USJ-9050USJ-9050BR,4231.50,TC# 3022 5126 2821 1264 4593 28,,,,,,0.00,,,,,,,0.00,,,,,,
Sam's Club #4801 Riverview 4/25-5/5/19 (FL),Sam's Club #4801 Riverview 4/25-5/5/19 (FL),Robert Shih,116990,4/27/2019 7:38:51 AM,John Bertalsen,AR,67005,Relax 2 Zero 2.0 for Sam's,New Black,New,1,331.50,3900.00,4231.50,Credit Card,,,"3 years parts, 3 years labor ($400)","Relax 2 Zero 2.0 for Sam's,",No,,Called,,,"5/1Maritza- Courtesy messages sent to both numbers @ 8:45AM
5/6 - Alysa - Tried to schedule customer, called 3 times, texted as well. Going to put in trip and see if customer answers when the drivers call to deliver. If not- we will reschedule.",TX,0,8.50,USJ-9050USJ-9050BL,4231.50,TC# 4898 0671 7878 6759 9234 73,,,,,,0.00,,,,,,,0.00,,,,,,
Sam's Club #4801 Riverview 4/25-5/5/19 (FL),Sam's Club #4801 Riverview 4/25-5/5/19 (FL),Robert Shih,116991,4/27/2019 7:42:10 AM,Benito Osuna,FL,33598,Foot Vibe Pro,,New,1,9.35,109.99,119.34,Credit Card,,,"2 years parts, 1 year labor for Small Items","Foot Vibe Pro,",YES,,Delivered,,,,FL,0,8.50,USJ-871,119.34,TC# 8219 3808 6847 8972 5621 5,,,,,,0.00,,,,,,,0.00,,,,,,
Sam's Club #4801 Riverview 4/25-5/5/19 (FL),Sam's Club #4801 Riverview 4/25-5/5/19 (FL),Robert Shih,117007,4/28/2019 7:12:26 AM,Phodjanee Howard,FL,33598,Foot Vibe Pro,,New,1,9.35,109.99,119.34,Credit Card,,,"2 years parts, 1 year labor for Small Items","Foot Vibe Pro,",YES,,Delivered,,,,FL,0,8.50,USJ-871,119.34,TC# 4491 4414 5446 4816 0518 7,,,,,,0.00,,,,,,,0.00,,,,,,
Sam's Club #4801 Riverview 4/25-5/5/19 (FL),Sam's Club #4801 Riverview 4/25-5/5/19 (FL),Alex Brackelsberg,117095,5/3/2019 7:18:35 AM,Maria Celestine,FL,33534,Relax 2 Zero 3D for Sam's,Demo (Box) Black[-700],Demo,1,322.92,3799.00,4121.92,Sam’s Club Synchrony,,,"3 years parts, 3 years labor ($400)","Relax 2 Zero 3D for Sam's,",No,5/10/2019 12:00:00 AM,Delivered,New,Military discount.,"CC, Jasmin Carrizales, 5/3/19, 12:04pm,VM
*BRING BROCHURE FOR RELAX 3D*",FL,0,8.50,DWA-9060DWA-9060BL-DEMO (Box),0.00,,,,,,,0.00,,,,,,,0.00,,,,,,
Sam's Club #4801 Riverview 4/25-5/5/19 (FL),Sam's Club #4801 Riverview 4/25-5/5/19 (FL),Alex Brackelsberg,117104,5/4/2019 8:44:00 AM,Tom Vena,FL,33578,Legacy for Sam's,Demo Choco[-700],Demo,1,305.92,3599.00,3904.92,Sam’s Club Synchrony,,,"3 years parts, 3 years labor ($400)","Legacy for Sam's,",No,,Cancelled,,Extra back pad included,"DEMO BOX
CC, Jasmin Carrizales, 5/7/19, 10:20am, 
**Morning delivery perferred**",FL,0,8.50,DWA-9100DWA-9100CH-DEMO,0.00,,,,,,,0.00,,,,,,,0.00,,,,,,
Sam's Club #4801 Riverview 4/25-5/5/19 (FL),Sam's Club #4801 Riverview 4/25-5/5/19 (FL),Alex Brackelsberg,117105,5/4/2019 8:49:14 AM,Brett Scoccia,FL,33572,Legacy for Sam's,Demo Black[-700],Demo,1,305.92,3599.00,3904.92,Credit Card,,,"3 years parts, 3 years labor ($400)","Legacy for Sam's,",No,5/3/2019 12:00:00 AM,Delivered,Demo,Alex delivered after show.,5/6/19 Received delivery confirmation - Hitomi,FL,0,8.50,DWA-9100DWA-9100BL-DEMO,0.00,3463320017034041241556,,,,,,0.00,,,,,,,0.00,,,,,,
Sam's Club #4801 Riverview 4/25-5/5/19 (FL),Sam's Club #4801 Riverview 4/25-5/5/19 (FL),Alex Brackelsberg,117123,5/5/2019 5:50:32 AM,Brady Hall,FL,33572,Relax 2 Zero 2.0 for Sam's,Demo (Box) Black[-701],Demo,1,271.92,3199.00,3470.92,Credit Card,,,"3 years parts, 3 years labor ($400)","Relax 2 Zero 2.0 for Sam's,",No,5/10/2019 12:00:00 AM,Delivered,New,,"CC, Jasmin Carrizales, 5/7/19, 10:28am, VM
5/7Maritza- Customer called in asking to remove the extra warranty he purchased at Sam's Club. Informed him to call his sales rep Alex.
5/8/19-Customer called in asking ETA.Transferred to FL.(ph#6144321237)-Hitomi",FL,0,8.50,USJ-9050USJ-9050BL-DEMO (Box),0.00,3583580117062041243526,,,,,,0.00,,,,,,,0.00,,,,,,
Sam's Club #4801 Riverview 4/25-5/5/19 (FL),Sam's Club #4801 Riverview 4/25-5/5/19 (FL),Alex Brackelsberg,117124,5/5/2019 5:57:32 AM,Linda Bess,FL,33534,Foot Vibe Pro,,New,1,9.35,109.99,119.34,Credit Card,,,"2 years parts, 1 year labor for Small Items","Foot Vibe Pro,",No,,Delivered,,Customer picked up,"5/6/19 Confirmed w/Alex, it was picked up -Hitomi",FL,0,8.50,USJ-871,0.00,812988366827892746295,,,,,,0.00,,,,,,,0.00,,,,,,
Sam's Club #4801 Riverview 4/25-5/5/19 (FL),Sam's Club #4801 Riverview 4/25-5/5/19 (FL),Alex Brackelsberg,117144,5/5/2019 2:24:31 PM,Raj Jariwala,FL,33579,Legacy for Sam's,Demo(Box) Choco[-700],Demo,1,305.92,3599.00,3904.92,Sam’s Club Synchrony,,,"3 years parts, 3 years labor ($400)","Legacy for Sam's,",No,5/10/2019 12:00:00 AM,Delivered,New,Free vitality plate.,"CC, Jasmin Carrizales, 5/6/19, 5:58pm, VM-Full",FL,0,8.50,DWA-9100DWA-9100CH-Box,0.00,,,,,,,0.00,,,,,,,0.00,,,,,,
Sam's Club #4801 Riverview 4/25-5/5/19 (FL),Sam's Club #4801 Riverview 4/25-5/5/19 (FL),Alex Brackelsberg,117146,5/5/2019 2:32:59 PM,Rebeca Seibel,FL,33579,Relax 2 Zero 2.0 for Sam's,Demo (Box) Black[-701],Demo,1,271.92,3199.00,3470.92,Credit Card,,,"3 years parts, 3 years labor ($400)","Relax 2 Zero 2.0 for Sam's,",No,5/10/2019 12:00:00 AM,Delivered,New,Military discount. Second floor delivery.,"CC, Jasmin Carrizales, 5/6/19, 5:55pm
13th before 12pm,15th Afternoon,16th afternoon, 17th Any time",FL,0,8.50,USJ-9050USJ-9050BL-DEMO (Box),0.00,7826625598583519319830,,,,,,0.00,,,,,,,0.00,,,,,,
Sam's Club #4801 Riverview 4/25-5/5/19 (FL),Sam's Club #4801 Riverview 4/25-5/5/19 (FL),Alex Brackelsberg,117209,5/7/2019 12:03:00 PM,Tom Vena,FL,33578,Legacy for Sam's,Demo(Box) Choco[-700],Demo,1,313.29,3685.71,3999.00,Purchase Order,,,"3 years parts, 3 years labor ($400)","Legacy for Sam's,",No,5/10/2019 12:00:00 AM,Delivered,New,,"Re-Entered Order #117104
CC, Jasmin Carrizales, 5/7/19, 10:20am, 
**Morning delivery perferred**",FL,0,8.50,DWA-9100DWA-9100CH-Box,3999.00,,TC# 8367659875988937531661,,,,,0.00,,,,,,,0.00,,,,,,
