﻿Original Event Name,Event Name,Sales Person,Order Number,Order Date,Customer Name,State,Zip,Product Name,Color,Product Status,QTY,Tax,Total Before Tax,Order Total,Primary Payment Method,Second Payment Method,Thirdl Payment Method,Warranty,Order Items,Pick up,Delivered On,Order Status,Chair Type,Order Notes,Private Note,Branch,No Tax,Actual Tax Rate,SKU,Primary Payment Balance,Primary Authorize Number,Primary Purchase Order Number,Primary Synchrony Account Number,Primary Synchrony Application Key,Primary Synchrony Account Info,Primary Synchrony Term,Primary Synchrony Primary ID,Primary Synchrony Issued State,Primary Synchrony Expiretion Date,Second Payment Balance,Second Authorize Number,Second Purchase Order Number,Second Synchrony Account Number,Second Synchrony Application Key,Second Synchrony Account Info,Second SynchronyTerm,Second Synchrony Primary ID,Second Synchrony Issued State,Second Synchrony Expiretion Date,Third Payment Balance,Third Authorize Number,Third Purchase Order Number,Third Synchrony Account Number,Third Synchrony Application Key,Third Synchrony Account Info,Third Synchrony Term,Third Synchrony Primary ID,Third Synchrony Issued State,Third Synchrony Expiretion Date
HI Auto Show 3/29/19-3/31/19,HI Auto Show 3/29/19-3/31/19,Thomas Motooka,116234,3/29/2019 11:36:03 PM,Geoffrey Lee,HI,96825,Legacy 3D - Hawaii,New Choco,New,1,0.00,4800.00,4800.00,CreditCard,,,"5 years parts, 1 year labor (Free)","Legacy 3D - Hawaii,",No,,Scheduled,,Free Gift (Tourmaline Chair Pad-already received),"Thomas, Irene, Kim, Shari, Mike, Ruben",HI,1,4.71,DWA-9150USJ-9150CH,4800.00,ZgTt,,,,,,,,,0.00,,,,,,,,,,0.00,,,,,,,,,
HI Auto Show 3/29/19-3/31/19,HI Auto Show 3/29/19-3/31/19,Shari Saiki,116235,3/29/2019 11:44:55 PM,David Kochi,HI,96817,Relax 2 Zero 3D - Hawaii,New Choco,New,1,0.00,5500.00,5500.00,CreditCard,,,"5 years parts, 1 year labor (Free)","Relax 2 Zero 3D - Hawaii,",No,,Hold,,,"Shari, Irene, Kim, Thomas, Ruben",Not Dispatched,1,4.71,DWA-9060USJ-9060BR,100.00,MzoB,,,,,,,,,0.00,,,,,,,,,,0.00,,,,,,,,,
HI Auto Show 3/29/19-3/31/19,HI Auto Show 3/29/19-3/31/19,Irene Gott,116236,3/30/2019 12:01:54 AM,Imelda Nakasone,HI,96707,Relax 2 Zero 3D - Hawaii,New Choco,New,1,0.00,4600.00,4600.00,CreditCard,,,"5 years parts, 1 year labor (Free)","Relax 2 Zero 3D - Hawaii,",No,,Scheduled,,Veteran discount (per Ruben),"Irene, Thomas, Shari, Lillian, Kim, Ruben",HI,1,4.71,DWA-9060USJ-9060BR,2000.00,LWht,,,,,,,,,0.00,,,,,,,,,,0.00,,,,,,,,,
HI Auto Show 3/29/19-3/31/19,HI Auto Show 3/29/19-3/31/19,Irene Gott,116237,3/30/2019 12:16:05 AM,Cyndi Kam,IL,96817,Relax 2 Zero 3D - Hawaii,New Choco,New,1,0.00,5000.00,5000.00,CreditCard,,,"5 years parts, 1 year labor (Free)","Relax 2 Zero 3D - Hawaii,",No,,Scheduled,,,"Irene, Lil, Shari, Thomas, Ruben, Kim",HI,1,4.71,DWA-9060USJ-9060BR,5000.00,m6ez,,,,,,,,,0.00,,,,,,,,,,0.00,,,,,,,,,
HI Auto Show 3/29/19-3/31/19,HI Auto Show 3/29/19-3/31/19,Shari Saiki,116238,3/30/2019 12:42:46 AM,John Scharsch,HI,96707,Legacy 3D - Hawaii,Demo Black,Demo,1,0.00,4600.00,4600.00,CreditCard,,,"5 years parts, 1 year labor (Free)","Legacy 3D - Hawaii,",No,,Hold,,,"Ruben, Thomas, Mike, Irene, Shari, Kim",Not Dispatched,1,4.71,DWA-9150USJ-9150BL-DEMO,100.00,VmvQ,,,,,,,,,0.00,,,,,,,,,,0.00,,,,,,,,,
HI Auto Show 3/29/19-3/31/19,HI Auto Show 3/29/19-3/31/19,Shari Saiki,116239,3/30/2019 12:56:46 AM,Annette Nishikawa,HI,96789,Legacy 3D - Hawaii,New Black,New,1,0.00,5500.00,5500.00,CreditCard,,,"5 years parts, 1 year labor (Free)","Legacy 3D - Hawaii,",No,,Hold,,,"Shari, Irene, Thomas, Lillian, Kim, Ruben",Not Dispatched,1,4.71,DWA-9150USJ-9150BL,100.00,EXPw,,,,,,,,,0.00,,,,,,,,,,0.00,,,,,,,,,
HI Auto Show 3/29/19-3/31/19,HI Auto Show 3/29/19-3/31/19,Shari Saiki,116245,3/30/2019 11:51:28 AM,Warren Inaba,HI,96789,Relax 2 Zero 3D - Hawaii,Demo Black,Demo,1,0.00,5000.00,5000.00,CreditCard,,,"5 years parts, 1 year labor (Free)","Relax 2 Zero 3D - Hawaii,",No,,Scheduled,,,"Shari, Kim, Irene, Lillian, Thomas, Ruben",HI,1,4.71,DWA-9060USJ-9060BL-DEMO,5000.00,UIEf,,,,,,,,,0.00,,,,,,,,,,0.00,,,,,,,,,
HI Auto Show 3/29/19-3/31/19,HI Auto Show 3/29/19-3/31/19,KIMBERLY KAM,116246,3/30/2019 11:59:03 AM,Irvin Kodama,HI,96817,Legacy 3D - Hawaii,New Choco,New,1,0.00,4800.00,4800.00,CreditCard,,,"5 years parts, 1 year labor (Free)","Legacy 3D - Hawaii,",No,,Scheduled,,,"Kim, Irene, Thomas, Lillian, Ruben, Shari, Thomas",HI,1,4.71,DWA-9150USJ-9150CH,4800.00,ircn,,,,,,,,,0.00,,,,,,,,,,0.00,,,,,,,,,
HI Auto Show 3/29/19-3/31/19,HI Auto Show 3/29/19-3/31/19,Ruben Cuatrona,116260,3/31/2019 12:26:21 AM,MARGOT PELEKAI,HI,96734,PEGASUS 2 SMART,New Black,New,1,0.00,6000.00,6000.00,CreditCard,,,"5 years parts, 1 year labor (Free)","PEGASUS 2 SMART,",No,,Cancelled,,2nd floor,"Ruben, Mike, Kim, Irene, Thomas, Shari
Cancelled order # 116260 Re- entered #116500 with new warranty info",HI,1,4.71,PEGS-2PEGS-2-BL,6000.00,ByaY,,,,,,,,,0.00,,,,,,,,,,0.00,,,,,,,,,
HI Auto Show 3/29/19-3/31/19,HI Auto Show 3/29/19-3/31/19,Shari Saiki,116261,3/31/2019 12:28:28 AM,Sidney Braddy,HI,96818,Relax 2 Zero 3D - Hawaii,Demo Choco,Demo,1,0.00,5000.00,5000.00,CreditCard,,,"5 years parts, 1 year labor (Free)","Relax 2 Zero 3D - Hawaii,",No,,Hold,,,"Shari, Ruben, Irene, Mike, Lillian, Thomas, Kim",Not Dispatched,1,4.71,DWA-9060USJ-9060BR-DEMO,100.00,64t7,,,,,,,,,0.00,,,,,,,,,,0.00,,,,,,,,,
HI Auto Show 3/29/19-3/31/19,HI Auto Show 3/29/19-3/31/19,Irene Gott,116262,3/31/2019 12:32:58 AM,NORMON & JENEE ODANI,HI,96782,Legacy 3D - Hawaii,New Black,New,1,0.00,4700.00,4700.00,CreditCard,,,"5 years parts, 1 year labor (Free)","Legacy 3D - Hawaii,",No,,Hold,,,"IRENE, KIM, LILLIAN, MIKE, THOMAS, SHARI, RUBEN",Not Dispatched,1,4.71,DWA-9150USJ-9150BL,100.00,NrIF,,,,,,,,,0.00,,,,,,,,,,0.00,,,,,,,,,
HI Auto Show 3/29/19-3/31/19,HI Auto Show 3/29/19-3/31/19,Lillian Shu,116263,3/31/2019 12:39:33 AM,MARY ANN GARCIA,HI,96707,Legacy 3D - Hawaii,Demo Choco,Demo,1,0.00,5000.00,5000.00,CreditCard,,,"5 years parts, 1 year labor (Free)","Legacy 3D - Hawaii,",No,,Hold,,,"Shari, Thomas, Ruben, Irene, Mike, Kim, Lillian",Not Dispatched,1,4.71,DWA-9150USJ-9150CH-DEMO,100.00,1dGZ,,,,,,,,,0.00,,,,,,,,,,0.00,,,,,,,,,
HI Auto Show 3/29/19-3/31/19,HI Auto Show 3/29/19-3/31/19,Ruben Cuatrona,116264,3/31/2019 12:45:37 AM,Richard Yoon,CA,92620,Relax 2 Zero 3D - Hawaii,New Black,New,1,0.00,4700.00,4700.00,CreditCard,,,"5 years parts, 1 year labor (Free)","Relax 2 Zero 3D - Hawaii,",No,,Hold,,"Customer will provide delivery address to Kansas City, MO","Ruben, Lillian, Mke, Thomas, Kim, Irene, Shari",Not Dispatched,1,4.71,DWA-9060USJ-9060BL,100.00,WBo6,,,,,,,,,0.00,,,,,,,,,,0.00,,,,,,,,,
HI Auto Show 3/29/19-3/31/19,HI Auto Show 3/29/19-3/31/19,Shari Saiki,116265,3/31/2019 12:45:57 AM,Darrin Lum,HI,96819,Majesty - Hawaii,Demo Black,Demo,1,0.00,2800.00,2800.00,CreditCard,,,"5 years parts, 1 year labor (Free)","Majesty - Hawaii,",No,,Scheduled,,,"Shari, Kim, Irene, Mike, Thomas, Ruben, Lillian",HI,1,4.71,MAJ-1010MAJ-1010-BL-DEMO,2800.00,52UJ,,,,,,,,,0.00,,,,,,,,,,0.00,,,,,,,,,
HI Auto Show 3/29/19-3/31/19,HI Auto Show 3/29/19-3/31/19,Lillian Shu,116266,3/31/2019 12:50:18 AM,Dustin Kaiahua,HI,96826,PEGASUS 2 SMART,Demo Black,Demo,1,0.00,5800.00,5800.00,CreditCard,,,"5 years parts, 1 year labor (Free)","PEGASUS 2 SMART,",No,,Hold,,,"Lillian, Kim, Irene, Mike, Thomas, Shari, Ruben",Not Dispatched,1,4.71,PEGS-2PEGS-2-BL-DEMO,100.00,HkEh,,,,,,,,,0.00,,,,,,,,,,0.00,,,,,,,,,
HI Auto Show 3/29/19-3/31/19,HI Auto Show 3/29/19-3/31/19,Thomas Motooka,116267,3/31/2019 12:55:06 AM,Natalie Kwa,HI,96821,Relax 2 Zero 3D - Hawaii,New Black,New,1,0.00,5000.00,5000.00,CreditCard,,,"5 years parts, 1 year labor (Free)","Relax 2 Zero 3D - Hawaii,",No,,Hold,,,"Thomas, Kim, Irene, Mike, Shari, Lillian, Ruben",Not Dispatched,1,4.71,DWA-9060USJ-9060BL,100.00,4R13,,,,,,,,,0.00,,,,,,,,,,0.00,,,,,,,,,
HI Auto Show 3/29/19-3/31/19,HI Auto Show 3/29/19-3/31/19,Irene Gott,116324,3/31/2019 8:34:04 PM,Peter Valenti,MI,49866,Relax 2 Zero 3D - Hawaii,New Choco,New,1,0.00,4800.00,4800.00,CreditCard,,,"5 years parts, 1 year labor (Free)","Relax 2 Zero 3D - Hawaii,",No,,Delivered,,,"Ruben, Mike, Lillian, Irene, Thomas, Natalie, Shari, Kim
4/3/19-Confirmed $4,800 in SQ. Delivery request after June 3rd- Hitomi
4/3/2019  Tina - Printed - note for HOLD until June 3rd
6/5-Customer called back and is ready for delivery-working on scheduling for customer.-Karen
6/6- Customer confirmed delivery for 6/17- 5:30pm-8pm.-Karen",IL,1,4.71,DWA-9060USJ-9060BR,4800.00,YURm,,,,,,,,,0.00,,,,,,,,,,0.00,,,,,,,,,
HI Auto Show 3/29/19-3/31/19,HI Auto Show 3/29/19-3/31/19,Lillian Shu,116325,3/31/2019 8:35:30 PM,Patrick Field,HI,96789,Relax 2 Zero 3D - Hawaii,Demo Black,Demo,1,0.00,4800.00,4800.00,CreditCard,,,"5 years parts, 1 year labor (Free)","Relax 2 Zero 3D - Hawaii,",No,,Hold,,,,Not Dispatched,1,4.71,DWA-9060USJ-9060BL-DEMO,100.00,QzFO,,,,,,,,,0.00,,,,,,,,,,0.00,,,,,,,,,
HI Auto Show 3/29/19-3/31/19,HI Auto Show 3/29/19-3/31/19,Ruben Cuatrona,116326,3/31/2019 8:42:39 PM,Richard Ong,HI,96706,Legacy 3D - Hawaii,New Black,New,1,0.00,4500.00,4500.00,Credit Card,Credit Card,,"5 years parts, 1 year labor (Free)","Legacy 3D - Hawaii,",No,,Cancelled,,,"Ruben, Thomas, Lillian, Mike, Kim, Irene, Natalie",Not Dispatched,1,4.71,DWA-9150USJ-9150BL,500.00,AdS4,,,,,,,,,-500.00,05113D,,,,,,,,,0.00,,,,,,,,,
HI Auto Show 3/29/19-3/31/19,HI Auto Show 3/29/19-3/31/19,Lillian Shu,116327,3/31/2019 8:49:06 PM,Danny Hernandez,HI,96707,Legacy 3D - Hawaii,New Choco,New,1,0.00,5500.00,5500.00,Synchrony,,,"5 years parts, 1 year labor (Free)","Legacy 3D - Hawaii,",No,,Scheduled,,,4/9Maritza-Customer had questions regarding synchrony and delivery. I confirmed everything on file was correct.Provided the customer with Hawaii branch number.  Address should be 724 Kakala St. Suite 1201,HI,1,4.71,DWA-9150USJ-9150CH,5500.00,,,6501723357056207,73421767,Hawaii,36 months,,,,0.00,,,,,,,,,,0.00,,,,,,,,,
HI Auto Show 3/29/19-3/31/19,HI Auto Show 3/29/19-3/31/19,NATALIE SALADINO,116328,3/31/2019 8:52:07 PM,Gary Okamura,HI,96816,PEGASUS 2 SMART,Demo Black,Demo,1,0.00,6400.00,6400.00,Credit Card,Credit Card,,"5 years parts, 1 year labor (Free)","PEGASUS 2 SMART,",No,,Cancelled,,,"Natalie, Irene, Lillian, Kim, Mike, Thomas, Ruben",Not Dispatched,1,4.71,PEGS-2PEGS-2-BL-DEMO,6400.00,AJiq,,,,,,,,,-6400.00,527960,,,,,,,,,0.00,,,,,,,,,
HI Auto Show 3/29/19-3/31/19,HI Auto Show 3/29/19-3/31/19,Irene Gott,116329,3/31/2019 8:58:11 PM,Keoki Lovell,HI,96744,Legacy 3D - Hawaii,New Choco,New,1,0.00,5500.00,5500.00,Credit Card,Credit Card,,"5 years parts, 1 year labor (Free)","Legacy 3D - Hawaii,",No,,Cancelled,,,,Not Dispatched,1,4.71,DWA-9150USJ-9150CH,2000.00,NHgi,,,,,,,,,-2000.00,03172R,,,,,,,,,0.00,,,,,,,,,
HI Auto Show 3/29/19-3/31/19,HI Auto Show 3/29/19-3/31/19,Irene Gott,116330,3/31/2019 8:59:04 PM,Chad Walker,HI,96710,PEGASUS 2 SMART,New Choco,New,1,0.00,6900.00,6900.00,CreditCard,,,"5 years parts, 1 year labor (Free)","PEGASUS 2 SMART,",No,,Delivered,,,"4/619 - Left Honolulu dock 
4/9/19 - Arrived at the Hilo dock",HI,1,4.71,PEGS-2PEGS-2-BR,6900.00,rd41,,,,,,,,,0.00,,,,,,,,,,0.00,,,,,,,,,
HI Auto Show 3/29/19-3/31/19,HI Auto Show 3/29/19-3/31/19,Thomas Motooka,116331,3/31/2019 9:08:05 PM,Douglas Tostrud,HI,96744,Legacy 3D - Hawaii,New Black,New,1,0.00,4500.00,4500.00,Synchrony,,,"5 years parts, 1 year labor (Free)","Legacy 3D - Hawaii,",No,,Scheduled,,,"****autho code# 310074****
04/11/19- Credit issued per Ruben's request will charge Monday 04/15/19 with promo for 48 mths-Cristina 1:33 pm",HI,1,4.71,DWA-9150USJ-9150BL,4500.00,,,6501723357056066,73418725,Hawaii,36 months,,,,0.00,,,,,,,,,,0.00,,,,,,,,,
HI Auto Show 3/29/19-3/31/19,HI Auto Show 3/29/19-3/31/19,Thomas Motooka,116332,3/31/2019 9:10:38 PM,William Weinhardt,HI,96707,Pegasus - Hawaii,New Black,New,1,0.00,5500.00,5500.00,Synchrony,,,"5 years parts, 1 year labor (Free)","Pegasus - Hawaii,",No,,Scheduled,,Please bring Pegasus flyer to delivery.,"Thomas, Irene, Mike, Natalie, Lillian, Ruben, Kim

***Synchrony Auth code: 003209***",HI,1,4.71,DWA-9400Pegasus-BL,5500.00,,,6501723357056074,73418771,Hawaii,36 months,,,,0.00,,,,,,,,,,0.00,,,,,,,,,
HI Auto Show 3/29/19-3/31/19,HI Auto Show 3/29/19-3/31/19,Irene Gott,116333,3/31/2019 9:15:08 PM,Norma Gayagas,HI,96701,Legacy 3D - Hawaii,New Black,New,1,0.00,4500.00,4500.00,Synchrony,,,"5 years parts, 1 year labor (Free)","Legacy 3D - Hawaii,",No,,Scheduled,,,,HI,1,4.71,DWA-9150USJ-9150BL,4500.00,,,6501723357056082,73418946,Hawaii,36 months,,,,0.00,,,,,,,,,,0.00,,,,,,,,,
HI Auto Show 3/29/19-3/31/19,HI Auto Show 3/29/19-3/31/19,Michael Sanchez,116334,3/31/2019 9:20:46 PM,Sara Hamakawa,HI,96825,PEGASUS 2 SMART,New Choco,New,1,0.00,6900.00,6900.00,CreditCard,,,"5 years parts, 2 years labor ($200)","PEGASUS 2 SMART,",No,,Delivered,,,"Mike, Ruben, Irene, Lillian, Natalie, Kim, Thomas",HI,1,4.71,PEGS-2PEGS-2-BR,6900.00,BR9j,,,,,,,,,0.00,,,,,,,,,,0.00,,,,,,,,,
HI Auto Show 3/29/19-3/31/19,HI Auto Show 3/29/19-3/31/19,NATALIE SALADINO,116335,3/31/2019 9:21:08 PM,Aaron Yahiku,HI,96744,Legacy 3D - Hawaii,New Black,New,1,0.00,5500.00,5500.00,CreditCard,,,"5 years parts, 1 year labor (Free)","Legacy 3D - Hawaii,",No,,Hold,,,,Not Dispatched,1,4.71,DWA-9150USJ-9150BL,100.00,4ZWw,,,,,,,,,0.00,,,,,,,,,,0.00,,,,,,,,,
HI Auto Show 3/29/19-3/31/19,HI Auto Show 3/29/19-3/31/19,Shari Saiki,116336,3/31/2019 9:27:29 PM,Benton Kamimoto,HI,96789,Relax 2 Zero 3D - Hawaii,New Black,New,1,0.00,5500.00,5500.00,CreditCard,,,"5 years parts, 1 year labor (Free)","Relax 2 Zero 3D - Hawaii,",No,,Hold,,,"Ruben, Shari, Thomas, Natalie, Lillian, Kim, Irene, Mike",Not Dispatched,1,4.71,DWA-9060USJ-9060BL,100.00,9P6U,,,,,,,,,0.00,,,,,,,,,,0.00,,,,,,,,,
HI Auto Show 3/29/19-3/31/19,HI Auto Show 3/29/19-3/31/19,Ruben Cuatrona,116337,3/31/2019 9:32:02 PM,Todd Hayashi,HI,96706,PEGASUS 2 SMART,New Black,New,1,0.00,7400.00,7400.00,Synchrony,,,"5 years parts, 5 years labor ($800)","PEGASUS 2 SMART,",No,,Scheduled,,,,HI,1,4.71,PEGS-2PEGS-2-BL,7400.00,,,6501723357056025,73416460,Hawaii,36 months,,,,0.00,,,,,,,,,,0.00,,,,,,,,,
HI Auto Show 3/29/19-3/31/19,HI Auto Show 3/29/19-3/31/19,Ruben Cuatrona,116404,4/3/2019 10:30:16 AM,MARK CLARK,AA,96734,Relax 2 Zero 3D - Hawaii,Demo Choco,Demo,1,0.00,4800.00,4800.00,Synchrony,,,"5 years parts, 1 year labor (Free)","Relax 2 Zero 3D - Hawaii,",No,,Scheduled,,,***AUTH CODE#: 003115***,HI,1,4.71,DWA-9060USJ-9060BR-DEMO,4500.00,,,6501723357055365,73387912,Hawaii,36 months,,,,0.00,,,,,,,,,,0.00,,,,,,,,,
HI Auto Show 3/29/19-3/31/19,HI Auto Show 3/29/19-3/31/19,Ruben Cuatrona,116500,4/8/2019 10:50:36 AM,Margot Pelekai,HI,96734,PEGASUS 2 SMART - Hawaii,New Black,New,1,0.00,6000.00,6000.00,CreditCard,,,"5 years parts, 2 years labor ($200)","PEGASUS 2 SMART - Hawaii,",No,,Scheduled,,,"04/08/19- Order Re- entered from order # 116260
Customer emailed and informed Ruben promised 5 yrs parts, 2 yrs labor; Per Ruben Warranty was approved to be upgraded.
-2nd Floor Delivery-",HI,1,4.71,PEGS-2PEGS-2-BL,6000.00,ByaY,,,,,,,,,0.00,,,,,,,,,,0.00,,,,,,,,,
HI Auto Show 3/29/19-3/31/19,HI Auto Show 3/29/19-3/31/19,Ruben Cuatrona,116734,4/15/2019 2:04:26 PM,STEVEN YOSHIZAWA,HI,96816,PEGASUS 2 SMART - Hawaii,New Black,New,1,0.00,6000.00,6000.00,Credit Card,,,"5 years parts, 2 years labor ($200)","PEGASUS 2 SMART - Hawaii,",No,4/22/2019 12:00:00 AM,Delivered,New,,,HI,1,4.71,PEGS-2PEGS-2-BL,6000.00,07174D,,,,,,,,,0.00,,,,,,,,,,0.00,,,,,,,,,
