﻿Original Event Name,Event Name,Sales Person,Order Number,Order Date,Customer Name,State,Zip,Product Name,Color,Product Status,QTY,Tax,Total Before Tax,Order Total,Primary Payment Method,Second Payment Method,Thirdl Payment Method,Warranty,Order Items,Pick up,Delivered On,Order Status,Chair Type,Order Notes,Private Note,Branch,No Tax,Actual Tax Rate,SKU,Primary Payment Balance,Primary Authorize Number,Primary Purchase Order Number,Primary Synchrony Account Number,Primary Synchrony Application Key,Primary Synchrony Account Info,Primary Synchrony Term,Second Payment Balance,Second Authorize Number,Second Purchase Order Number,Second Synchrony Account Number,Second Synchrony Application Key,Second Synchrony Account Info,Second SynchronyTerm,Third Payment Balance,Third Authorize Number,Third Purchase Order Number,Third Synchrony Account Number,Third Synchrony Application Key,Third Synchrony Account Info,Third Synchrony Term
"Sam's Club #6608 Phoenix, AZ 5/16-26/19(NV)","Sam's Club #6608 Phoenix, AZ 5/16-26/19(NV)",Joseph Chan,117427,5/17/2019 5:03:02 PM,Marylou Ramonett,AZ,85053,Foot Vibe Pro,,New,1,9.46,109.99,119.45,Credit Card,,,"2 years parts, 1 year labor for Small Items","Foot Vibe Pro,",YES,,Delivered,,,Pending Original- Cristina 05/18/19 11:24am,NV,0,8.60,USJ-871,119.45,TC# 9327 9958 2995 1345 6423 2,,,,,,0.00,,,,,,,0.00,,,,,,
"Sam's Club #6608 Phoenix, AZ 5/16-26/19(NV)","Sam's Club #6608 Phoenix, AZ 5/16-26/19(NV)",Joseph Chan,117428,5/17/2019 5:07:51 PM,Lorena Chauarria,AZ,85029,Foot Vibe Pro,,New,1,9.46,109.99,119.45,Credit Card,,,"2 years parts, 1 year labor (Free)","Foot Vibe Pro,",YES,,Delivered,,,pending original- Cristina 05/18/19 11:23,NV,0,8.60,USJ-871,119.45,TC# 3145 3319 1331 2081 7560 6,,,,,,0.00,,,,,,,0.00,,,,,,
"Sam's Club #6608 Phoenix, AZ 5/16-26/19(NV)","Sam's Club #6608 Phoenix, AZ 5/16-26/19(NV)",Joseph Chan,117492,5/20/2019 10:29:38 AM,Ion Vintilescu,AZ,85028,Foot Vibe Pro,,New,1,9.46,109.99,119.45,Credit Card,,,"2 years parts, 1 year labor (Free)","Foot Vibe Pro,",YES,,Delivered,,,Cleared= Cristina,NV,0,8.60,USJ-871,119.45,TC# 9217 9998 9975 1345 6423 2,,,,,,0.00,,,,,,,0.00,,,,,,
"Sam's Club #6608 Phoenix, AZ 5/16-26/19(NV)","Sam's Club #6608 Phoenix, AZ 5/16-26/19(NV)",Joseph Chan,117495,5/20/2019 1:21:27 PM,Jackie Rajabian,AZ,85258,Shogun Neck & Back Massger,New,New,1,17.20,199.98,217.18,Credit Card,,,"2 years parts, 1 year labor (Free)","Shogun Neck &amp; Back Massger,",YES,,New,,,,Not Dispatched,0,8.60,USJ-874USJ-874,217.18,TC#7357 9946 8975 1315 9420 2,,,,,,0.00,,,,,,,0.00,,,,,,
"Sam's Club #6608 Phoenix, AZ 5/16-26/19(NV)","Sam's Club #6608 Phoenix, AZ 5/16-26/19(NV)",Joseph Chan,117541,5/23/2019 3:06:28 PM,Paul Phillips,AZ,85306,Foot Vibe Pro,,New,2,18.92,219.98,238.90,Credit Card,,,"2 years parts, 1 year labor (Free)","Foot Vibe Pro,",YES,,New,,,,Not Dispatched,0,8.60,USJ-871,238.90,TC# 4820 2670 5648 978 7439 3,,,,,,0.00,,,,,,,0.00,,,,,,
"Sam's Club #6608 Phoenix, AZ 5/16-26/19(NV)","Sam's Club #6608 Phoenix, AZ 5/16-26/19(NV)",Joseph Chan,117546,5/24/2019 10:41:08 AM,Michelle Mitchell,AZ,85051,Foot Vibe Pro,,New,1,9.46,109.99,119.45,Credit Card,,,"2 years parts, 1 year labor (Free)","Foot Vibe Pro,",YES,,New,,,,Not Dispatched,0,8.60,USJ-871,119.45,TC# 8949 8862 6844 5907 2119 1,,,,,,0.00,,,,,,,0.00,,,,,,
"Sam's Club #6608 Phoenix, AZ 5/16-26/19(NV)","Sam's Club #6608 Phoenix, AZ 5/16-26/19(NV)",Joseph Chan,117559,5/25/2019 12:43:07 PM,Marshall Schroder,AZ,85029,Legacy 3D - Sam's Club,New Black,New,1,344.72,4758.39,5103.11,Synchrony,,,"3 years parts, 1 year labor (Free)","Legacy 3D - Sam's Club,",No,,New,,"Please call the 1st number (wife is Kelli) to schedule delivery, free white glove service included.",,Not Dispatched,0,8.60,DWA-9150DWA-9150BL,5103.11,,,5213331236780004,,,24 months,0.00,,,,,,,0.00,,,,,,
"Sam's Club #6608 Phoenix, AZ 5/16-26/19(NV)","Sam's Club #6608 Phoenix, AZ 5/16-26/19(NV)",Joseph Chan,117567,5/25/2019 5:20:32 PM,Manuel Vega,AZ,85023,Foot Vibe Pro,,New,1,9.46,109.99,119.45,Credit Card,,,"2 years parts, 1 year labor (Free)","Foot Vibe Pro,",YES,,New,,,,Not Dispatched,0,8.60,USJ-871,119.45,TC# 8509 8872 2844 5907 2119 1,,,,,,0.00,,,,,,,0.00,,,,,,
