﻿Original Event Name,Event Name,Sales Person,Order Number,Order Date,Customer Name,State,Zip,Product Name,Color,Product Status,QTY,Tax,Total Before Tax,Order Total,Primary Payment Method,Second Payment Method,Thirdl Payment Method,Warranty,Order Items,Pick up,Delivered On,Order Status,Chair Type,Order Notes,Private Note,Branch,No Tax,Actual Tax Rate,SKU,Primary Payment Balance,Primary Authorize Number,Primary Purchase Order Number,Primary Synchrony Account Number,Primary Synchrony Application Key,Primary Synchrony Account Info,Primary Synchrony Term,Second Payment Balance,Second Authorize Number,Second Purchase Order Number,Second Synchrony Account Number,Second Synchrony Application Key,Second Synchrony Account Info,Second SynchronyTerm,Third Payment Balance,Third Authorize Number,Third Purchase Order Number,Third Synchrony Account Number,Third Synchrony Application Key,Third Synchrony Account Info,Third Synchrony Term
"Sam's Club #6238 Owasso, OK (TX) 1/3-1/13/2019","Sam's Club #6238 Owasso, OK (TX) 1/3-1/13/2019",Hiroko Hudson,113872,1/4/2019 2:54:37 PM,Angela Thompson,OK,74021,Vitality Plate for Sam's,New,New,1,0.00,399.99,399.99,PurchaseOrder,PurchaseOrder,,"2 years parts, 1 year labor for Small Items","Vitality Plate for Sam's,",YES,,Delivered,,,,TX,1,8.92,USJ-849USJ-849,0.00,,375340529212644345741,,,,,0.00,,375340529212644345741,,,,,0.00,,,,,,
"Sam's Club #6238 Owasso, OK (TX) 1/3-1/13/2019","Sam's Club #6238 Owasso, OK (TX) 1/3-1/13/2019",Hiroko Hudson,113888,1/5/2019 12:07:53 PM,Eric Brown,OK,74055,Ninja Leg Massager 2,New,New,1,26.75,299.99,326.74,PurchaseOrder,,,"2 years parts, 1 year labor for Small Items","Ninja Leg Massager 2,",YES,,Delivered,,,,TX,0,8.92,USJ-880,0.00,,854779057505138807227,,,,,0.00,,,,,,,0.00,,,,,,
"Sam's Club #6238 Owasso, OK (TX) 1/3-1/13/2019","Sam's Club #6238 Owasso, OK (TX) 1/3-1/13/2019",Hiroko Hudson,113921,1/6/2019 10:08:29 AM,Darry L Leake,OK,74055,Vitality Plate for Sam's,New,New,1,35.67,399.99,435.66,PurchaseOrder,,,"2 years parts, 1 year labor for Small Items","Vitality Plate for Sam's,",YES,,Delivered,,,,TX,0,8.92,USJ-849USJ-849,0.00,,527330527202647370791,,,,,0.00,,,,,,,0.00,,,,,,
"Sam's Club #6238 Owasso, OK (TX) 1/3-1/13/2019","Sam's Club #6238 Owasso, OK (TX) 1/3-1/13/2019",Hiroko Hudson,113935,1/6/2019 3:28:16 PM,Stephanie Ramsey,OK,74051,Symphony,Demo (Box) Black,Demo,1,410.09,4599.00,5009.09,PurchaseOrder,,,"3 years parts, 1 year labor (Free)","Symphony,Chair Pad for Symphony,",No,,Scheduled,,,schedule to 1/14/2019. 1/7/2019 June,TX,0,8.92,USJ-9300Symphony-BW-DEMO,0.00,,7034801607089422608823,,,,,0.00,,,,,,,0.00,,,,,,
"Sam's Club #6238 Owasso, OK (TX) 1/3-1/13/2019","Sam's Club #6238 Owasso, OK (TX) 1/3-1/13/2019",Hiroko Hudson,114034,1/9/2019 11:29:22 AM,William Scott Green,OK,74006,Vitality Plate for Sam's,New,New,1,41.02,459.99,501.01,PurchaseOrder,,,"2 years parts, 1 year labor for Small Items","Vitality Plate for Sam's,",No,,New,,,"Please ship it ASAP .
Thanks",TX,0,8.92,USJ-849USJ-849,0.00,,177086885858976284364,,,,,0.00,,,,,,,0.00,,,,,,
"Sam's Club #6238 Owasso, OK (TX) 1/3-1/13/2019","Sam's Club #6238 Owasso, OK (TX) 1/3-1/13/2019",Hiroko Hudson,114036,1/9/2019 2:59:15 PM,Chris Clayton,OK,74055,Shogun Neck & Back Massger,New,New,1,17.83,199.98,217.81,PurchaseOrder,,,"2 years parts, 1 year labor for Small Items","Shogun Neck &amp; Back Massger,",YES,,Delivered,,,,TX,0,8.92,USJ-874USJ-874,0.00,,773799157585139816207,,,,,0.00,,,,,,,0.00,,,,,,
