﻿Date,Customer Name,State,Zipcode,Description,Product Number,Color,Product Status,Net,Shipping Fee,Gift Price,Financing Processing Fee,Order Total,Total Before Tax,Tax,Commission,Primary Payment Method,Primary Payment Balance,Primary Authorize Number,Primary Purchase Order Number,Primary Synchrony Account Number,Primary Synchrony Application Key,Primary Synchrony Account Info,Primary Synchrony Term,Second Payment Method,Second Payment Balance,Second Authorize Number,Second Purchase Order Number,Second Synchrony Account Number,Second Synchrony Application Key,Second Synchrony Account Info,Second Synchrony Term,Third Payment Method,Third Payment Balance,Third Authorize Number,Third Purchase Order Number,Third Synchrony Account Number,Third Synchrony Application Key,Third Synchrony Account Info,Third Synchrony Term,Delivery Date,Pick up,Warranty,Status,Chair Type,Original Event Name,Event Name,Synchrony Notes,Order Notes,Order Number,Private Note,Branch,No Tax,Actual Tax Rate
12/24/2018 9:22:26 AM,Mr & Mrs Dennis Sta Maria,CA,95023,Tourmaline Pad for Relax2Zero 3D,,,New,,,,,4200.00,4200.00,0.00,May Kam,CreditCard,4200.00,Receipt #0ixL,,,,,,,0.00,,,,,,,,0.00,,,,,,,1/10/2019 12:00:00 AM,No,no warranty,Delivered,New,WINTER FEST OC 12/20/18-1/6/19 COSTA MESA (CA),WINTER FEST OC 12/20/18-1/6/19 COSTA MESA (CA),,"Special discount for One time payment , manager approval",113679,"Confirmed $4,200 in Square. 12/24/18 Hitomi",CA,1,7.75
12/24/2018 9:22:26 AM,Mr & Mrs Dennis Sta Maria,CA,95023,Relax2Zero 3D,DWA-9060USJ-9060BL-DEMO,Demo Black,Demo,,,,,4200.00,4200.00,0.00,May Kam,CreditCard,4200.00,Receipt #0ixL,,,,,,,0.00,,,,,,,,0.00,,,,,,,1/10/2019 12:00:00 AM,No,"5 years parts, 1 year labor (Free)",Delivered,New,WINTER FEST OC 12/20/18-1/6/19 COSTA MESA (CA),WINTER FEST OC 12/20/18-1/6/19 COSTA MESA (CA),,"Special discount for One time payment , manager approval",113679,"Confirmed $4,200 in Square. 12/24/18 Hitomi",CA,1,7.75
12/24/2018 11:14:45 AM,Mr John Lowcher,CA,92672,Relax2Zero 3D,DWA-9060USJ-9060BL-DEMO,Demo Black,Demo,,,,,4200.00,4200.00,0.00,May Kam,Synchrony,4200.00,,,6019170813310387,98934562,Las Vegas,36 months,,0.00,,,,,,,,0.00,,,,,,,12/31/2018 12:00:00 AM,No,"5 years parts, 1 year labor (Free)",Delivered,Demo,WINTER FEST OC 12/20/18-1/6/19 COSTA MESA (CA),WINTER FEST OC 12/20/18-1/6/19 COSTA MESA (CA),"Authorization Code: 026097
PromoCode: 436","Pls make finance $4200 purchase, thanks",113691,"Confirmed SYNC($8,500) and original. ***Please charge $4,200 before delivery and sales draft signed.***12/24/18 Hitomi
1/3Delivery confirmation received. Still waiting on sales draft.
3/7Maritza- Called, texted, and emailed multiple times but no response.",CA,1,7.75
12/26/2018 9:47:29 PM,Bowen Song,CA,92675,Relax2Zero 3D,DWA-9060USJ-9060BL,New Black,New,,,,,4900.00,4900.00,0.00,Masa Otani,CreditCard,4900.00,An0i,,,,,,,0.00,,,,,,,,0.00,,,,,,,12/31/2018 12:00:00 AM,No,"3 years parts, 1 year labor (Free)",Delivered,New,WINTER FEST OC 12/20/18-1/6/19 COSTA MESA (CA),WINTER FEST OC 12/20/18-1/6/19 COSTA MESA (CA),,,113721,12/27Maritza- Payment cleared through square.,CA,1,7.75
12/27/2018 5:40:32 PM,Karen Aanderud,CA,90630,Relax2Zero 3D,DWA-9060USJ-9060BL,New Black,New,,,,,4900.00,4900.00,0.00,Masahiro Muku,CreditCard,4900.00,#nzbK,,,,,,,0.00,,,,,,,,0.00,,,,,,,1/4/2019 12:00:00 AM,No,"5 years parts, 1 year labor (Free)",Delivered,New,WINTER FEST OC 12/20/18-1/6/19 COSTA MESA (CA),WINTER FEST OC 12/20/18-1/6/19 COSTA MESA (CA),,,113731,"12/28Maritza- Confirmed 4900 on square.
**This is sold over the phone, please get customer's signature on the original receipt.** 1/7/2019 Riho
1/8Received Delivery confirmation. Will try to stop by and collect signature on original.
1/18Signature collected",CA,1,7.75
12/28/2018 7:31:24 AM,Mrs Lucia Sayas,CA,91605,Tourmaline Pad for Legacy,,,New,,,,,4500.00,4500.00,0.00,May Kam,Synchrony,4500.00,,,6019170813311880,98948508,Las Vegas,36 months,,0.00,,,,,,,,0.00,,,,,,,,No,no warranty,Hold,,WINTER FEST OC 12/20/18-1/6/19 COSTA MESA (CA),WINTER FEST OC 12/20/18-1/6/19 COSTA MESA (CA),,"For Account no , The customer will get card about Jan 5,2019 from Bank , Approved $5500 under Cristina help.",113741,"Cristina: Could u pls Help change Synchrony Bank application address from  vanowen   st to Wixom St, thank u so much for your time !
//Confirmed SYNC($5,500) and original. ***Please charge $4,500 before delivery and sales draft signed.*** 12/28/18 Hitomi
1/14Maritza- Transaction did not go through. Will inform customer that they will need to call Synchrony to verify their address. We spoke with Max from Synchrony @ 10:35AM to verify customer's address. Customer should received card by 1/23
2/4Maritza- Spoke with Kevin from customer service. He will be sending her card rush delivery and will be arriving in 3-5 business days.
3/7Maritza- Per customer place on hold due to sister being in accident",CA,1,7.75
12/28/2018 7:31:24 AM,Mrs Lucia Sayas,CA,91605,Relax2Zero 3D,DWA-9060USJ-9060BL-DEMO,Demo Black,Demo,,,,,4500.00,4500.00,0.00,May Kam,Synchrony,4500.00,,,6019170813311880,98948508,Las Vegas,36 months,,0.00,,,,,,,,0.00,,,,,,,,No,"5 years parts, 1 year labor (Free)",Hold,,WINTER FEST OC 12/20/18-1/6/19 COSTA MESA (CA),WINTER FEST OC 12/20/18-1/6/19 COSTA MESA (CA),,"For Account no , The customer will get card about Jan 5,2019 from Bank , Approved $5500 under Cristina help.",113741,"Cristina: Could u pls Help change Synchrony Bank application address from  vanowen   st to Wixom St, thank u so much for your time !
//Confirmed SYNC($5,500) and original. ***Please charge $4,500 before delivery and sales draft signed.*** 12/28/18 Hitomi
1/14Maritza- Transaction did not go through. Will inform customer that they will need to call Synchrony to verify their address. We spoke with Max from Synchrony @ 10:35AM to verify customer's address. Customer should received card by 1/23
2/4Maritza- Spoke with Kevin from customer service. He will be sending her card rush delivery and will be arriving in 3-5 business days.
3/7Maritza- Per customer place on hold due to sister being in accident",CA,1,7.75
12/28/2018 2:12:13 PM,Vilma Roman,CA,92821,PEGASUS 2 SMART,PEGS-2PEGS-2-BR,New Choco,New,,,,,6000.00,6000.00,0.00,Ruben Cuatrona,Synchrony,6000.00,,,6019170813308092,98878105,San Diego,48 months,,0.00,,,,,,,,0.00,,,,,,,1/2/2019 12:00:00 AM,No,"5 years parts, 2 years labor ($200)",Delivered,New,WINTER FEST OC 12/20/18-1/6/19 COSTA MESA (CA),WINTER FEST OC 12/20/18-1/6/19 COSTA MESA (CA),"Authorization Code
031149
PC:448",Financed - 48 months. Free delivery,113749,"Confirmed SYNC($6,600) and original. ***Please charge $6,000 before delivery and sales draft signed.***12/28/18 Hitomi
1/3Delivery confirmation received including sales draft",CA,1,7.75
12/28/2018 2:30:04 PM,Larry Williams,NJ,08501,Relax2Zero 3D,DWA-9060USJ-9060BL,New Black,New,,,,,4900.00,4900.00,0.00,Ruben Cuatrona,PurchaseOrder,4900.00,,#6CM9,,,,,,0.00,,,,,,,,0.00,,,,,,,1/7/2019 12:00:00 AM,No,"5 years parts, 2 years labor ($200)",Delivered,New,WINTER FEST OC 12/20/18-1/6/19 COSTA MESA (CA),WINTER FEST OC 12/20/18-1/6/19 COSTA MESA (CA),,Free delivery,113750,"#6CM9
//Confirmed $4,900.00 in Square. 12/28/18 Hitomi
scheduled to 1/7/2018. 12/31/2018 June
1/18Maritza Delivery confirmation received",TX,1,7.75
12/28/2018 2:39:26 PM,Patti Pollack,CA,95070,PEGASUS 2 SMART,PEGS-2PEGS-2-BR,New Choco,New,,,,,5000.00,5000.00,0.00,Ruben Cuatrona,PurchaseOrder,5000.00,,#n1h9,,,,,,0.00,,,,,,,,0.00,,,,,,,1/10/2019 12:00:00 AM,No,"5 years parts, 2 years labor ($200)",Delivered,New,WINTER FEST OC 12/20/18-1/6/19 COSTA MESA (CA),WINTER FEST OC 12/20/18-1/6/19 COSTA MESA (CA),,Free delivery (part of a 2 unit order),113751,"#n1h9
//Confirmed $5,000 in Square. 12/28/18 Hitomi",CA,1,7.75
12/28/2018 2:44:55 PM,Sherri Pollack,CA,95070,PEGASUS 2 SMART,PEGS-2PEGS-2-BR,New Choco,New,,,,,5000.00,5000.00,0.00,Ruben Cuatrona,PurchaseOrder,5000.00,,Receipt #zzoa,,,,,,0.00,,,,,,,,0.00,,,,,,,1/10/2019 12:00:00 AM,No,"5 years parts, 2 years labor ($200)",Delivered,New,WINTER FEST OC 12/20/18-1/6/19 COSTA MESA (CA),WINTER FEST OC 12/20/18-1/6/19 COSTA MESA (CA),,Free delivery (Part of a 2 unit order),113752,"#zz09
Confirmed $5,000 w/Receipt #zzoa in Square. 12/28/18 Hitomi",CA,1,7.75
12/28/2018 8:36:13 PM,Jasmine Truong,CA,92704,Legacy 3D,DWA-9150USJ-9150BL-DEMO,Demo Black,Demo,,,,,4200.00,4200.00,0.00,Masahiro Muku,Cash,4200.00,,,,,,,,0.00,,,,,,,,0.00,,,,,,,1/9/2019 12:00:00 AM,No,"5 years parts, 1 year labor (Free)",Delivered,New,WINTER FEST OC 12/20/18-1/6/19 COSTA MESA (CA),WINTER FEST OC 12/20/18-1/6/19 COSTA MESA (CA),,,113759,"Demo Box
Will confirm cash and chair condition . -- 12/31/2018 Asumi
//Muku is holding $4,200. He will bring cash on 1/2/19. Chair condition will be NEW (confirmed w/muku)- 12/31/18 @2;30 PM Hitomi
//Masa provided $4,200 cash to Yumi. Yumi provided cash to Pre.Michael. received Michael signature -- 1/2/19 Hitomi",CA,1,7.75
12/29/2018 12:13:02 PM,Dexter Phillip,MD,20746,PEGASUS 2 SMART,PEGS-2PEGS-2-BL,New Black,New,,,,,6900.00,6900.00,0.00,Masahiro Muku,Synchrony,6900.00,,,6019170813315402,99092279,San Diego,36 months,,0.00,,,,,,,,0.00,,,,,,,,No,"5 years parts, 1 year labor (Free)",Cancelled,,WINTER FEST OC 12/20/18-1/6/19 COSTA MESA (CA),WINTER FEST OC 12/20/18-1/6/19 COSTA MESA (CA),,,113765,"Confirmed synchlony approved $8,300. Need to confirm original. ---12/31/2018  Asumi
//Confirmed originals. ***Please charge $6,900 before delivery and sales draft signed. *** 12/31/18 @2:56 Hitomi
1/2Maritza Courtesy message sent @ 12:12PM
customer called for cancel the order  before the delivery date (1/16/2019), and refund the synchrony.  1/14/2019 June
//Masa informed cancellation ---1/14/19 Hitomi",TX,1,7.75
12/30/2018 10:34:43 PM,Michael Gerro,CA,92657,PEGASUS 2 SMART,PEGS-2PEGS-2-BR,New Choco,New,,,,,6200.00,6200.00,0.00,Joseph Chan,CreditCard,6200.00,#qVHn,,,,,,,0.00,,,,,,,,0.00,,,,,,,1/5/2019 12:00:00 AM,No,"3 years parts, 1 year labor (Free)",Delivered,New,WINTER FEST OC 12/20/18-1/6/19 COSTA MESA (CA),WINTER FEST OC 12/20/18-1/6/19 COSTA MESA (CA),,,113789,12/31Maritza Confirmed 6200 on square,CA,1,7.75
