﻿Date,CustomerName,State,Zipcode,Description,productNo,Color,IsDemo,Net,ShippingFee,GiftPrice,FinancingProcessingFee,Gross,Pre_tax,Tax,Commission,Primary Payment Method,Primary Payment Balance,Primary Authorize Number,Primary Purchase Order Number,Primary Synchrony Account Number,Primary Synchrony Application Key,Primary Synchrony AccountInfo,Primary SynchronyTerm,Secondly Payment Method,Secondly Payment Balance,Secondly Authorize Number,Secondly Purchase Order Number,Secondly Synchrony Account Number,Secondly Synchrony Application Key,Secondly Synchrony AccountInfo,Secondly SynchronyTerm,Thirdly Payment Method,Thirdly Payment Balance,Thirdly Authorize Number,Thirdly Purchase Order Number,Thirdly Synchrony Account Number,Thirdly Synchrony Application Key,Thirdly Synchrony AccountInfo,Thirdly SynchronyTerm,DeliveryDate,Ispickup,Warranty,Status,Event Name,Synchrony Notes,Order Notes,Order number,Private Note,Branch,IsNoTax,ActualTaxRate
4/28/2018 5:26:13 PM,Silvino Tinolo,CA,91342,Hands Free Bike,USJ-849NEW,New,New,,,,,249.99,228.30,21.69,Kamille Gines,PurchaseOrder,249.99,,TC# 863817570769436814463,,,,,,0.00,,,,,,,,0.00,,,,,,,,YES,"2 years parts, 1 year labor for Small Items",Delivered,Sam's Club #4824 4/26-5/6/18 (CA),,,105574,,CA,0,9.50
4/28/2018 5:36:05 PM,Justin Choi,CA,91350,Legacy for Sam's,DWA-9100DWA-9100CH,New Choco,New,,,,,3940.91,3599.00,341.91,Kamille Gines,PurchaseOrder,3940.91,,TC# 8327169997905619734651,,,,,,0.00,,,,,,,,0.00,,,,,,,5/3/2018 12:00:00 AM,No,"3 years parts, 1 year labor (Free)",Delivered,Sam's Club #4824 4/26-5/6/18 (CA),,,105575,"Please deliver new chair
4/30Printed",CA,0,9.50
4/30/2018 10:30:05 AM,William Gierhart,CA,91350,Hands Free Bike,USJ-849NEW,New,New,,,,,328.48,299.98,28.50,Kamille Gines,PurchaseOrder,328.48,,TC# 146202826222388030388,,,,,,0.00,,,,,,,,0.00,,,,,,,,YES,"2 years parts, 1 year labor (Free)",Delivered,Sam's Club #4824 4/26-5/6/18 (CA),,,105657,,CA,0,9.50
4/30/2018 10:34:09 AM,Solomon Pineda,CA,91354,Hands Free Bike,USJ-849NEW,New,New,,,,,273.73,249.98,23.75,Kamille Gines,PurchaseOrder,273.73,,Tc# 855817478759436811463,,,,,,0.00,,,,,,,,0.00,,,,,,,,YES,"2 years parts, 1 year labor (Free)",Delivered,Sam's Club #4824 4/26-5/6/18 (CA),,,105658,,CA,0,9.50
5/3/2018 9:57:19 AM,Daiwa Massage,CA,90249,Hands Free Bike,USJ-849NEW,New,New,,,,,273.74,249.99,23.75,Daisuke Ito,PurchaseOrder,273.74,,TC#1513 8001 0050 5651 8353 6,,,,,,0.00,,,,,,,,0.00,,,,,,,,YES,"2 years parts, 1 year labor for Small Items",Delivered,Sam's Club #4824 4/26-5/6/18 (CA),,,105729,TC#1513 8001 0050 5651 8353 6,CA,0,9.50
5/4/2018 11:17:16 AM,Mohammed Noor,CA,91387,Relax 2 Zero 1.0 for Sam's,USJ-9000USJ-9000BR,New Brown,New,,,,,3200.00,3200.00,0.00,Daisuke Ito,CreditCard,3200.00,,,,,,,,0.00,,,,,,,,0.00,,,,,,,,No,"3 years parts, 2 years labor ($200)",Cancelled,Sam's Club #4824 4/26-5/6/18 (CA),,Customer has a business account.,105759,"Approval #806608
TC #4447 8199 7995 4618 7596 01
CUSTOMER CANCELLED ORDER - 06/06/18 STEPHANY 
5/4Printed
5/16Maritza Customer is out of town Call back late May to schedule.",CA,1,9.50
5/4/2018 6:09:28 PM,Daiwa Massage,CA,90249,Vitality Plate for Sam's,USJ-849USJ-849,New,New,,,,,437.99,399.99,38.00,Daisuke Ito,CreditCard,437.99,,,,,,,,0.00,,,,,,,,0.00,,,,,,,,YES,"2 years parts, 1 year labor for Small Items",Delivered,Sam's Club #4824 4/26-5/6/18 (CA),,,105768,"Approval #0051G
TC #9294 5103 4131 5423 2396 4",CA,0,9.50
5/5/2018 10:27:33 AM,Daiwa Massage,CA,90249,Vitality Plate for Sam's,USJ-849USJ-849,New,New,,,,,503.69,459.99,43.70,Daisuke Ito,CreditCard,503.69,,,,,,,,0.00,,,,,,,,0.00,,,,,,,,YES,"2 years parts, 1 year labor for Small Items",Delivered,Sam's Club #4824 4/26-5/6/18 (CA),,,105782,"Approval #00889
TC #1510 7644 2688 0974 4906 9",CA,0,9.50
5/6/2018 9:53:38 AM,Daiwa Massage,CA,90249,Hands Free Bike,USJ-849NEW,New,New,,,,,273.73,249.98,23.75,Daisuke Ito,CreditCard,273.73,,,,,,,,0.00,,,,,,,,0.00,,,,,,,,YES,"2 years parts, 1 year labor (Free)",Delivered,Sam's Club #4824 4/26-5/6/18 (CA),,,105830,"Approval #041840
TC #1693 8091 2079 5631 8253 6",CA,0,9.50
5/6/2018 12:10:59 PM,Dennis Kapla,CA,91011,Legacy for Sam's,DWA-9100DWA-9100CH,New Choco,New,,,,,7881.81,7198.00,683.81,Daisuke Ito,CreditCard,7881.81,,,,,,,,0.00,,,,,,,,0.00,,,,,,,5/14/2018 12:00:00 AM,No,"3 years parts, 1 year labor (Free)",Delivered,Sam's Club #4824 4/26-5/6/18 (CA),,"Customer will be out of town from May 27th. Please deliver chairs by May 26th, if it is possible.",105842,"Approval #001662
TC #1548 0673 8374 7438 8646 43
5/7Printed",CA,0,9.50
5/6/2018 12:19:05 PM,Daiwa Massage,CA,90249,Vitality Plate for Sam's,USJ-849USJ-849,New,New,,,,,437.99,399.99,38.00,Daisuke Ito,PurchaseOrder,437.99,,,,,,,,0.00,,,,,,,,0.00,,,,,,,,YES,"2 years parts, 1 year labor for Small Items",Delivered,Sam's Club #4824 4/26-5/6/18 (CA),,,105843,TC#7165 9335 2371 7205 0774 2,CA,0,9.50
5/6/2018 5:38:17 PM,Daiwa Massage,CA,90249,Vitality Plate for Sam's,USJ-849USJ-849,New,New,,,,,437.99,399.99,38.00,Daisuke Ito,PurchaseOrder,437.99,,,,,,,,0.00,,,,,,,,0.00,,,,,,,,YES,"2 years parts, 1 year labor for Small Items",Delivered,Sam's Club #4824 4/26-5/6/18 (CA),,,105848,TC #8465 9365 9303 7265 9179 2,CA,0,9.50
5/6/2018 10:57:33 PM,Don Choi,CA,91354,Legacy for Sam's,DWA-9100DWA-9100CH,New Choco,New,,,,,3599.00,3599.00,0.00,Daisuke Ito,CreditCard,3599.00,,,,,,,PurchaseOrder,0.00,,TC #3923 7405 1302 9562 1205 46,,,,,,0.00,,,,,,,5/17/2018 12:00:00 AM,No,"3 years parts, 1 year labor (Free)",Delivered,Sam's Club #4824 4/26-5/6/18 (CA),,Customer has a business account.,105874,"Approval #001051
TC #3923 7405 1302 9562 1205 46
5/7Printed",CA,1,9.50
