﻿Original Event Name,Event Name,Sales Person,Order Number,Order Date,Customer Name,State,Zip,Product Name,Color,Product Status,QTY,Tax,Total Before Tax,Order Total,Primary Payment Method,Second Payment Method,Thirdl Payment Method,Warranty,Order Items,Pick up,Delivered On,Order Status,Chair Type,Order Notes,Private Note,Branch,No Tax,Actual Tax Rate,SKU,Primary Payment Balance,Primary Authorize Number,Primary Purchase Order Number,Primary Synchrony Account Number,Primary Synchrony Application Key,Primary Synchrony Account Info,Primary Synchrony Term,Second Payment Balance,Second Authorize Number,Second Purchase Order Number,Second Synchrony Account Number,Second Synchrony Application Key,Second Synchrony Account Info,Second SynchronyTerm,Third Payment Balance,Third Authorize Number,Third Purchase Order Number,Third Synchrony Account Number,Third Synchrony Application Key,Third Synchrony Account Info,Third Synchrony Term
Las Vegas SF Market (NV),Las Vegas SF Market (NV),Jovylyn Florea,109251,9/10/2018 4:27:49 PM,Boubacar Djallah,NV,89031,Legacy 3D,New Black,New,1,0.00,4500.00,4500.00,Synchrony,,,"3 years parts, 1 year labor (Free)","Legacy 3D,",No,9/11/2018 12:00:00 AM,Delivered,,,"Synchrony 8,500/ under NG, WAI YEE(wife,Per.Rex) .Talked to Rex, he already asked wife to have signed on sales draft. SSN is missing on synchrony application form. Rex will ask Jovylyn . - CONFIRMED SSN 9/11/18 Hitomi
per rex customer wants choco - stephany 09/11/18",NV,1,8.15,DWA-9150USJ-9150BL,4500.00,,,6019170813133383,94223063,Las Vegas,24 months,0.00,,,,,,,0.00,,,,,,
