﻿Original Event Name,Event Name,Sales Person,Order Number,Order Date,Customer Name,State,Zip,Product Name,Color,Product Status,QTY,Tax,Total Before Tax,Order Total,Primary Payment Method,Second Payment Method,Thirdl Payment Method,Warranty,Order Items,Pick up,Delivered On,Order Status,Order Notes,Private Note,Branch,No Tax,Actual Tax Rate,SKU,Primary Payment Balance,Primary Authorize Number,Primary Purchase Order Number,Primary Synchrony Account Number,Primary Synchrony Application Key,Primary Synchrony Account Info,Primary Synchrony Term,Second Payment Balance,Second Authorize Number,Second Purchase Order Number,Second Synchrony Account Number,Second Synchrony Application Key,Second Synchrony Account Info,Second SynchronyTerm,Third Payment Balance,Third Authorize Number,Third Purchase Order Number,Third Synchrony Account Number,Third Synchrony Application Key,Third Synchrony Account Info,Third Synchrony Term,First Name,Last Name,Email,Shipping Company,Shipping Address1,Shipping Address2,Shipping Suite,Shipping City,Shipping State,Shipping Zip,Shipping Country,Shipping Phone
"COVERED BRIDGE FESTIVAL 10/12-21/18 ROCKVILLE,IN (IL)","COVERED BRIDGE FESTIVAL 10/12-21/18 ROCKVILLE,IN (IL)",Billy Shea,110381,10/16/2018 7:58:18 AM,Joseph Kaplan,IL,60416,Relax2Zero 2.0,New Brown,New,1,0.00,4200.00,4200.00,Synchrony,,,"3 years parts, 1 year labor (Free)","Relax2Zero 2.0,",No,,Cancelled,,"Confirmed SYNC($8,500) and original. ***Please charge $4,200 before delivery and sales draft signed.***10/17/18 Hitomi
10/19Maritza Courtesy email + text sent @ 10:55AM",TX,1,7.00,USJ-9050USJ-9050BR,4200.00,,,6019170813185540,95587125,Huston,36 months,0.00,,,6019170813185540,95587125,San Diego,36 months,0.00,,,,,,,Joseph,Kaplan,dokap64@gmail.com,,385 S Marquise st,,,Diamond,IL,60416,United States,773 742 9250
"COVERED BRIDGE FESTIVAL 10/12-21/18 ROCKVILLE,IN (IL)","COVERED BRIDGE FESTIVAL 10/12-21/18 ROCKVILLE,IN (IL)",Billy Shea,110382,10/16/2018 8:23:43 AM,Diana Taylor,IN,47429,Legacy 3D,Demo Black,Demo,1,0.00,4200.00,4200.00,Synchrony,,,"3 years parts, 1 year labor (Free)","Legacy 3D,",No,,Called,,"Confirmed SYNC($8,500) and original. ***Please charge $4,200 before delivery and sales draft signed.*** 10/17/18 Hitomi
10/19Maritza Courtesy email + message sent @ 12:17PM",TX,1,7.00,DWA-9150USJ-9150BL-DEMO,4200.00,,,6019170813189963,95679763,Huston,36 months,0.00,,,,,,,0.00,,,,,,,Diana,Taylor,justice@bluemarble.net,,6133 N Shelly dr,,,Ellettsville,IN,47429,United States,812 369 0784
"COVERED BRIDGE FESTIVAL 10/12-21/18 ROCKVILLE,IN (IL)","COVERED BRIDGE FESTIVAL 10/12-21/18 ROCKVILLE,IN (IL)",Christoper Williams,110384,10/16/2018 8:42:38 AM,Bruce & Carol Gerhart,IN,46563,Legacy 3D,Demo Choco,Demo,1,0.00,4200.00,4200.00,Synchrony,,,"5 years parts, 1 year labor (Free)","Legacy 3D,",No,,Called,,"Make sure when they deliver the Chair pls let them sign the delivery form//Confirmed SYNC($8,500) under CAROL GERHART.synchrony application form is clear.***Please charge $4,200 before delivery and have sign on SALES DRAFT AND ORIGINAL SALES INVOICE.***10/17/18 Hitomi
10/19Maritza Courtesy message sent @ 12:19PM",TX,1,7.00,DWA-9150USJ-9150CH-DEMO,4200.00,,,6019170813189484,95670066,San Diego,36 months,0.00,,,,,,,0.00,,,,,,,Bruce & Carol,Gerhart,defaultmail@daiwamassage.com,,207 E Alexander st.,,,Plymouth,IN,46563,United States,574 936 8417
"COVERED BRIDGE FESTIVAL 10/12-21/18 ROCKVILLE,IN (IL)","COVERED BRIDGE FESTIVAL 10/12-21/18 ROCKVILLE,IN (IL)",Billy Shea,110385,10/16/2018 8:55:04 AM,Yvonne Sloan,IN,46259,Relax2Zero 2.0,Demo Brown,Demo,1,0.00,3300.00,3300.00,CreditCard,,,"3 years parts, 1 year labor (Free)","Relax2Zero 2.0,",No,,Called,,"Confirmed $3,300 in Square. 10/16/18 Hitomi
10/19Maritza Courtesy email + message sent at 12:25PM",TX,1,7.00,USJ-9050USJ-9050BR-DEMO,3300.00,Sq #2ZP5,,,,,,0.00,,,,,,,0.00,,,,,,,Yvonne,Sloan,ydsloan@gmail.com,,7352 kita dr,,,Indianapolis,IN,46259,United States,317 3714808
"COVERED BRIDGE FESTIVAL 10/12-21/18 ROCKVILLE,IN (IL)","COVERED BRIDGE FESTIVAL 10/12-21/18 ROCKVILLE,IN (IL)",Christoper Williams,110386,10/16/2018 9:10:31 AM,Darla Duckuitz,IL,61873,Legacy 3D,New Choco,New,1,0.00,4000.00,4000.00,Synchrony,,,"5 years parts, 1 year labor (Free)","Legacy 3D,",No,,Called,,"Confirmed SYNC($8,500) and original. **** Please charge $4,000 before delivery and have sales draft signed.***10/17/18 Hitomi
10/19Maritza Courtesy email + message sent @ 12:33PM",TX,1,7.00,DWA-9150USJ-9150CH,4000.00,,,6019170813188254,95648391,San Diego,36 months,0.00,,,,,,,0.00,,,,,,,Darla,Duckuitz,darladuckuitz@gmail.com,,613 Laurel dr,,,St Joseph,IL,61873,United States,217 369 7981
"COVERED BRIDGE FESTIVAL 10/12-21/18 ROCKVILLE,IN (IL)","COVERED BRIDGE FESTIVAL 10/12-21/18 ROCKVILLE,IN (IL)",Harmony Williams,110387,10/16/2018 9:16:45 AM,Dane Killman,FL,33897,Legacy 3D,New Choco,New,1,0.00,4000.00,4000.00,Synchrony,,,"5 years parts, 1 year labor (Free)","Legacy 3D,",No,,Hold,,"HOLD FOR NOW
Wait for customer advice
DO NOT SHIP
//Confirmed SYNC($5,000) and original. As stated above, place on hold 10/17/18 Hitomi",FL,1,7.00,DWA-9150USJ-9150CH,4000.00,,,6019170813188320,95649452,San Diego,36 months,0.00,,,,,,,0.00,,,,,,,Dane,Killman,defaultmail@daiwamassage.com,,846 Coventry rd,,,Davenport,FL,33897,United States,606 219 0881
"COVERED BRIDGE FESTIVAL 10/12-21/18 ROCKVILLE,IN (IL)","COVERED BRIDGE FESTIVAL 10/12-21/18 ROCKVILLE,IN (IL)",Rodrigo Malabunga,110398,10/17/2018 12:44:47 PM,Karen Douglas,IL,62454,Relax2Zero 2.0,New Black,New,1,0.00,3200.00,3200.00,CreditCard,Synchrony,,"5 years parts, 1 year labor (Free)","Relax2Zero 2.0,",No,,Called,,"ASAP delivery pls
3200.00 total priced
1000.00 down payment
2200.00 balanced (COD)
Either credit card or synchrony 
She approved for financing but we can’t charge the card until she receive thru mail
///#110398#110399#110400 are one order , going to different location./Confirmed $1,000 in SQ, SYNC($8,500) and original. Customer will pay remaining $2,200 in synchrony or credit card.**Please confirm payment method with customer once the delivery is scheduled.**10/18/18 Hitomi
10/19Maritza Courtesy email + message sent @ 12:39PM
Spoke with customer, since her synchrony shows decline, she said the remining balance $2200 will pay by credit card. 10/24/2018 June",TX,1,7.00,USJ-9050USJ-9050BL,1000.00,Sq #uEOZ,,,,,,2200.00,,,6019170813194419,95808720,Huston,24 months,0.00,,,,,,,Karen,Douglas,kjdholly@gmail.com,,307 w holly st,,,Robinson,IL,62454,United States,618 544 7671
"COVERED BRIDGE FESTIVAL 10/12-21/18 ROCKVILLE,IN (IL)","COVERED BRIDGE FESTIVAL 10/12-21/18 ROCKVILLE,IN (IL)",Rodrigo Malabunga,110399,10/17/2018 12:51:11 PM,Dianne Douglas,IL,62454,Relax2Zero 2.0,New Brown,New,1,0.00,3200.00,3200.00,Synchrony,,,"5 years parts, 1 year labor (Free)","Relax2Zero 2.0,",No,,Called,,"ASAP pls///#110398#110399#110400 are one order , going to different location./Confirmed SYNC($6,000) and original. ***Please charge $3,200 before delivery and have sales draft signed.***  10/18/18 Hitomi
10/19Maritza Courtesy message sent @ 12:41PM",TX,1,7.00,USJ-9050USJ-9050BR,3200.00,,,6019170813194393,95809061,San Diego,24 months,0.00,,,,,,,0.00,,,,,,,Dianne,Douglas,defaultmail@daiwamassage.com,,407 N Eagleton,,,Robinson,IL,62454,United States,618 553 5731
"COVERED BRIDGE FESTIVAL 10/12-21/18 ROCKVILLE,IN (IL)","COVERED BRIDGE FESTIVAL 10/12-21/18 ROCKVILLE,IN (IL)",Rodrigo Malabunga,110400,10/17/2018 12:56:29 PM,Connie Calvert,IL,62454,Relax2Zero 2.0,New Black,New,1,0.00,3200.00,3200.00,CreditCard,,,"5 years parts, 1 year labor (Free)","Relax2Zero 2.0,",No,,Called,,"ASAP Pls//#110398#110399#110400 are one order , going to different location./Confirmed $3,200 in Square. 10/18/18 Hitomi
10/19Maritza Courtesy email + message sent at 12:45PM",TX,1,7.00,USJ-9050USJ-9050BL,3200.00,Sq #vIHu,,,,,,0.00,,,,,,,0.00,,,,,,,Connie,Calvert,ccalvert5376@gmail.com,,8943 N 1100th street,,,Robinson,IL,62454,United States,618 554 3611
"COVERED BRIDGE FESTIVAL 10/12-21/18 ROCKVILLE,IN (IL)","COVERED BRIDGE FESTIVAL 10/12-21/18 ROCKVILLE,IN (IL)",Billy Shea,110403,10/18/2018 6:51:52 AM,James Knoebel,IN,46135,Legacy 3D,New Choco,New,1,0.00,4900.00,4900.00,Synchrony,,,"5 years parts, 1 year labor (Free)","Legacy 3D,",No,,Called,,"Confirmed SYNC($6,500) and original. ***Please charge $4,900 before delivery and sales draft signed.***10/18/18 Hitomi
10/19Maritza Courtesy message sent @ 12:48PM",TX,1,7.00,DWA-9150USJ-9150CH,4900.00,,,6019170813194484,95811645,Huston,36 months,0.00,,,,,,,0.00,,,,,,,James,Knoebel,defaultmail@daiwamassage.com,,5860 st rd 240 E,,,Greencastle,IN,46135,United States,765 720 0216
"COVERED BRIDGE FESTIVAL 10/12-21/18 ROCKVILLE,IN (IL)","COVERED BRIDGE FESTIVAL 10/12-21/18 ROCKVILLE,IN (IL)",Billy Shea,110404,10/18/2018 7:03:24 AM,Kelly Reynolds,IL,62075,Legacy 3D,New Black,New,1,0.00,4200.00,4200.00,CreditCard,,,"3 years parts, 1 year labor (Free)","Legacy 3D,",No,,Called,,"Confirmed $4,200 in Square. 10/18/18 Hitomi
10/19Maritza Courtesy email + message sent @ 3:09PM",TX,1,7.00,DWA-9150USJ-9150BL,4200.00,Sq #UGeW,,,,,,0.00,,,,,,,0.00,,,,,,,Kelly,Reynolds,kreynolds55@yahoo.com,,16233 E 22nd rd,,,Nokomis,IL,62075,United States,217 556 7367
"COVERED BRIDGE FESTIVAL 10/12-21/18 ROCKVILLE,IN (IL)","COVERED BRIDGE FESTIVAL 10/12-21/18 ROCKVILLE,IN (IL)",Billy Shea,110405,10/18/2018 7:12:09 AM,Rick Waltrip,IL,62474,Legacy 3D,Demo Choco,Demo,1,0.00,4200.00,4200.00,Synchrony,,,"5 years parts, 1 year labor (Free)","Legacy 3D,",No,,Called,,"Confirmed SYNC($6,500) and original.***Please charge $4,200 before delivery and sales draft signed.*** 10/18/18 Hitomi
10/19Maritza Courtesy email + message @ 3:18PM",TX,1,7.00,DWA-9150USJ-9150CH-DEMO,4200.00,,,6019170813193130,95761680,Huston,36 months,0.00,,,,,,,0.00,,,,,,,Rick,Waltrip,rwartrip@yahoo.com,,22980 Westfield rd,,,Wesfield,IL,62474,United States,217 967 5118
"COVERED BRIDGE FESTIVAL 10/12-21/18 ROCKVILLE,IN (IL)","COVERED BRIDGE FESTIVAL 10/12-21/18 ROCKVILLE,IN (IL)",Christoper Williams,110406,10/18/2018 7:18:20 AM,Robin Bender,IN,46368,Relax2Zero 2.0,New Black,New,1,0.00,3500.00,3500.00,Synchrony,,,"5 years parts, 1 year labor (Free)","Relax2Zero 2.0,",No,,Cancelled,,"Confirmed SYNC($6,000) and original.***Please charge $3,500 before delivery and sales draft signed.** **PLease deliver DEMO chair ***confirmed with Rod 10/18/18 Hitomi
10/19Maritza Courtesy email + message @ 3:21PM",TX,1,7.00,USJ-9050USJ-9050BL,3500.00,,,6019170813193387,95767141,San Diego,36 months,0.00,,,,,,,0.00,,,,,,,Robin,Bender,indianarobin1969@hotmail.com,,5970 Lexington ave,,,Portage,IN,46368,United States,219 808 8344
"COVERED BRIDGE FESTIVAL 10/12-21/18 ROCKVILLE,IN (IL)","COVERED BRIDGE FESTIVAL 10/12-21/18 ROCKVILLE,IN (IL)",Rodrigo Malabunga,110435,10/19/2018 7:50:59 AM,Georgette Marmie,IN,47460,Legacy 3D,New Choco,New,1,0.00,4000.00,4000.00,CreditCard,,,"5 years parts, 1 year labor (Free)","Legacy 3D,Chair Pad for Legacy 3D,Foot Pads for Legacy 3D,",No,,Called,,"Pls do not forget the EXTRA CHAIR PAD AND FOOT PADS//Confirmed $4,000 in Square. 10/19/18 Hitomi
10/19Maritza Courtesy email + message sent at 12:57PM",TX,1,7.00,DWA-9150USJ-9150CH,4000.00,Sq #Stwd,,,,,,0.00,,,,,,,0.00,,,,,,,Georgette,Marmie,krikitt1@hotmail.com,,1971 River rd,,,Spencer,IN,47460,United States,812 829 4291
"COVERED BRIDGE FESTIVAL 10/12-21/18 ROCKVILLE,IN (IL)","COVERED BRIDGE FESTIVAL 10/12-21/18 ROCKVILLE,IN (IL)",Billy Shea,110458,10/20/2018 6:24:10 AM,Sarah Scank,IN,47802,Pegasus,New Choco,New,1,0.00,5000.00,5000.00,CreditCard,,,"5 years parts, 1 year labor (Free)","Pegasus,",No,,Called,,"Confirmed $5,000 in Square. 10/22/18 Hitomi
10/22Maritza Courtesy email + message sent @ 1:07PM",TX,1,7.00,DWA-9400Pegasus-BR,5000.00,Sq #37GC,,,,,,0.00,,,,,,,0.00,,,,,,,Sarah,Scank,jwc1223@msn.com,,2633 1/2 S 7th st,,,Terre haute,IN,47802,United States,812 249 8434
"COVERED BRIDGE FESTIVAL 10/12-21/18 ROCKVILLE,IN (IL)","COVERED BRIDGE FESTIVAL 10/12-21/18 ROCKVILLE,IN (IL)",Christoper Williams,110459,10/20/2018 6:35:01 AM,Thomas Clutter,IL,62414,Relax2Zero 2.0,New Brown,New,1,0.00,3500.00,3500.00,Synchrony,,,"5 years parts, 1 year labor (Free)","Relax2Zero 2.0,",No,,Scheduled,,"will confirm synchrony 10/22/18 Hitomi//Confirmed SYNC($5,500) and original.***Please charge $3,500 before delivery and sales draft signed.***10/23/18 Hitomi
10/24Maritza Courtesy message sent @ 8:54AM",TX,1,7.00,USJ-9050USJ-9050BR,3500.00,,,6019170813197030,95892608,San Diego,36 months,0.00,,,,,,,0.00,,,,,,,Thomas,Clutter,defaultmail@daiwamassage.com,,2296 E 3300 ave,,,Beecher city,IL,62414,United States,217 343 9162
"COVERED BRIDGE FESTIVAL 10/12-21/18 ROCKVILLE,IN (IL)","COVERED BRIDGE FESTIVAL 10/12-21/18 ROCKVILLE,IN (IL)",Rodrigo Malabunga,110460,10/20/2018 6:41:56 AM,Steve & Daniel Turpin,IN,47446,Pegasus,New Black,New,1,0.00,5200.00,5200.00,Synchrony,,,"5 years parts, 2 years labor ($200)","Pegasus,",No,,Assigned,,"will confirm synchrony 10/22/18 Hitomi//CONfirmed SYNC($6,600) under DANIELLE TURPIN and original.***Please charge $5,200 before delivery and sales draft signed.***10/24/18 Hitomi
10/25Maritza Courtesy message sent @ 8:45AM",TX,1,7.00,DWA-9400Pegasus-BL,5200.00,,,6019170813197073,95893378,San Diego,48 months,0.00,,,,,,,0.00,,,,,,,Steve & Daniel,Turpin,defaultmail@daiwamassage.com,,325 country estate drive,,,Mitchell,IN,47446,United States,812 583 7562
"COVERED BRIDGE FESTIVAL 10/12-21/18 ROCKVILLE,IN (IL)","COVERED BRIDGE FESTIVAL 10/12-21/18 ROCKVILLE,IN (IL)",Billy Shea,110584,10/22/2018 11:43:16 AM,Joseph Thompson,IL,61858,Relax2Zero 2.0,New Black,New,1,0.00,4200.00,4200.00,CreditCard,CreditCard,,"3 years parts, 2 years labor ($200)","Relax2Zero 2.0,",No,,New,,"COnfirmed $4,200 in Square. 10/22/18 Hitomi",TX,1,7.00,USJ-9050USJ-9050BL,500.00,Receipt #qQlM,,,,,,3700.00,UH2X,,,,,,0.00,,,,,,,Joseph,Thompson,docford.18933@yahoo.com,,410 s Seymour st,,,Oakwood,IL,61858,United States,217 434 3673
"COVERED BRIDGE FESTIVAL 10/12-21/18 ROCKVILLE,IN (IL)","COVERED BRIDGE FESTIVAL 10/12-21/18 ROCKVILLE,IN (IL)",Billy Shea,110586,10/22/2018 11:52:55 AM,Greg Burch,IN,46103,Pegasus,New Black,New,1,0.00,4900.00,4900.00,CreditCard,COD,,"5 years parts, 2 years labor ($200)","Pegasus,",No,,New,,"$1095.00 down payment
$3805.00 COD
$4900.00 Total priced//COnfirmed $1,095. **COD $3,805***10/22/18 Hitomi",TX,1,7.00,DWA-9400Pegasus-BL,1095.00,Sq #nzJr,,,,,,3805.00,,,,,,,0.00,,,,,,,Greg,Burch,g.burch@aol.com,,5169 main st,,,Amo,IN,46103,United States,317 443 8035
"COVERED BRIDGE FESTIVAL 10/12-21/18 ROCKVILLE,IN (IL)","COVERED BRIDGE FESTIVAL 10/12-21/18 ROCKVILLE,IN (IL)",Billy Shea,110587,10/22/2018 11:57:41 AM,John Pettay,IN,47274,Relax2Zero 2.0,Demo Brown,Demo,1,0.00,3500.00,3500.00,Synchrony,,,"3 years parts, 1 year labor (Free)","Relax2Zero 2.0,",No,,New,,"will confirm synchrony 10/22/18 Hitomi//Confirmed SYNC($6,500) and original.***Please charge $3,500 before delivery and sales draft signed,***10/23/18 Hitomi",TX,1,7.00,USJ-9050USJ-9050BR-DEMO,3500.00,,,6019170813201065,95973349,Las Vegas,36 months,0.00,,,,,,,0.00,,,,,,,John,Pettay,defaultmail@daiwamassage.com,,12805 e 1100 n,,,Seymour,IN,47274,United States,812 569 1595
"COVERED BRIDGE FESTIVAL 10/12-21/18 ROCKVILLE,IN (IL)","COVERED BRIDGE FESTIVAL 10/12-21/18 ROCKVILLE,IN (IL)",Rodrigo Malabunga,110589,10/22/2018 12:09:02 PM,Craig Stump,IN,47834,Legacy 3D,New Black,New,1,0.00,3800.00,3800.00,CreditCard,,,"5 years parts, 1 year labor (Free)","Legacy 3D,",No,,New,,"COnfirmed $3,800 in Square. 10/22/18 Hitomi",TX,1,7.00,DWA-9150USJ-9150BL,3800.00,Receipt #0Pg8,,,,,,0.00,,,,,,,0.00,,,,,,,Craig,Stump,ca.stump69@gmail.com,,1622 w st. Rd 42,,,Brazil,IN,47834,United States,317 518 9068
"COVERED BRIDGE FESTIVAL 10/12-21/18 ROCKVILLE,IN (IL)","COVERED BRIDGE FESTIVAL 10/12-21/18 ROCKVILLE,IN (IL)",Billy Shea,110591,10/22/2018 12:15:00 PM,Milan Tyler,IN,47868,Legacy 3D,Demo Choco,Demo,1,0.00,4200.00,4200.00,Synchrony,,,"5 years parts, 1 year labor (Free)","Legacy 3D,",No,,New,,"will confirm synchrony 10/22/18 Hitomi//Confirmed SYNC($5,100) and original. ***Please charge $4,200 before delivery and have sales draft signed.***10/23/18 Hitomi",TX,1,7.00,DWA-9150USJ-9150CH-DEMO,4200.00,,,6019170813200646,95964337,Las Vegas,36 months,0.00,,,,,,,0.00,,,,,,,Milan,Tyler,defaultmail@daiwamassage.com,,5923 n country rd,,,Poland,IN,47868,United States,812 239 1314
"COVERED BRIDGE FESTIVAL 10/12-21/18 ROCKVILLE,IN (IL)","COVERED BRIDGE FESTIVAL 10/12-21/18 ROCKVILLE,IN (IL)",Rodrigo Malabunga,110592,10/22/2018 12:20:45 PM,Dr Dan Roome,IN,46143,Legacy 3D,New Black,New,1,0.00,4200.00,4200.00,Synchrony,,,"5 years parts, 1 year labor (Free)","Legacy 3D,",No,,New,,"will confirm synchrony 10/22/18 Hitomi//Confirmed SYNC($6,000) and original.***Please charge $4,200 before delivery and have sales draft signed.***10/23/18 Hitomi",TX,1,7.00,DWA-9150USJ-9150BL,4200.00,,,6019170813199715,95947649,San Diego,48 months,0.00,,,,,,,0.00,,,,,,,Dr Dan,Roome,defaultmail@daiwamassage.com,,106 bentwood dr,,,Green wood,IN,46143,United States,317 796 2587
"COVERED BRIDGE FESTIVAL 10/12-21/18 ROCKVILLE,IN (IL)","COVERED BRIDGE FESTIVAL 10/12-21/18 ROCKVILLE,IN (IL)",Christoper Williams,110612,10/23/2018 5:22:51 PM,Robin Bender,IN,46368,Relax2Zero 2.0,Demo Black,Demo,1,0.00,3500.00,3500.00,Synchrony,,,"5 years parts, 1 year labor (Free)","Relax2Zero 2.0,",No,,Called,,"Confirmed SYNC($6,000) and original.***Please charge $3,500 before delivery and sales draft signed.** **PLease deliver DEMO chair ***confirmed with Rod 10/18/18 Hitomi
10/19Maritza Courtesy email + message @ 3:21PM",TX,1,7.00,USJ-9050USJ-9050BL-DEMO,3500.00,,,6019170813193387,95767141,San Diego,36 months,0.00,,,,,,,0.00,,,,,,,Robin,Bender,indianarobin1969@hotmail.com,,5970 Lexington ave,,,Portage,IN,46368,United States,219-808-8344
