﻿Date,CustomerName,State,Zipcode,Description,productNo,Color,IsDemo,Net,ShippingFee,GiftPrice,FinancingProcessingFee,Gross,Pre_tax,Tax,Commission,Primary Payment Method,Primary Payment Balance,Primary Authorize Number,Primary Purchase Order Number,Primary Synchrony Account Number,Primary Synchrony Application Key,Primary Synchrony AccountInfo,Primary SynchronyTerm,Secondly Payment Method,Secondly Payment Balance,Secondly Authorize Number,Secondly Purchase Order Number,Secondly Synchrony Account Number,Secondly Synchrony Application Key,Secondly Synchrony AccountInfo,Secondly SynchronyTerm,Thirdly Payment Method,Thirdly Payment Balance,Thirdly Authorize Number,Thirdly Purchase Order Number,Thirdly Synchrony Account Number,Thirdly Synchrony Application Key,Thirdly Synchrony AccountInfo,Thirdly SynchronyTerm,DeliveryDate,Ispickup,Warranty,Status,Event Name,Synchrony Notes,Order Notes,Order number,Private Note,Branch,IsNoTax,ActualTaxRate
12/12/2017 3:11:22 PM,Wei Pin Chang,WA,98272,Legacy for Sam's,DWA-9100DWA-9100CH,Choco,New,,,,,3962.72,3668.00,294.72,Jason Liu,CreditCard,2000.00,01082R,,,,,,CreditCard,1962.50,001411,,,,,,,0.00,,,,,,,12/22/2017 12:00:00 AM,No,"3 years parts, 1 year labor (Free)",Delivered,Sam's Club Seattle #6687 12/7-17/17 (WA),,paid in full,102426,SCHEDULED ON DEC 21ST THUR 10:30AM-1:30PM （second team）,WA,0,10.10
12/12/2017 3:26:17 PM,Anthony Jonathan,WA,98023,Legacy for Sam's,DWA-9100DWA-9100SB,Sienna Brown,New,,,,,3962.72,3668.00,294.72,Jason Liu,CreditCard,3962.50,02403D,,,,,,,0.00,,,,,,,,0.00,,,,,,,12/21/2017 12:00:00 AM,No,"3 years parts, 1 year labor (Free)",Delivered,Sam's Club Seattle #6687 12/7-17/17 (WA),,paid in full,102428,SCHEDULED ON DEC 20TH WED 1PM-4PM,WA,0,10.10
12/17/2017 1:39:45 PM,Victoria Ibay,WA,98037,Legacy for Sam's,DWA-9100DWA-9100CH,Choco,New,,,,,9292.44,8440.00,852.44,Scott Ishikawa,PurchaseOrder,0.00,,0580626310238558947323,,,,,,0.00,,,,,,,,0.00,,,,,,,,No,"3 years parts, 3 years labor ($400)",Cancelled,Sam's Club Seattle #6687 12/7-17/17 (WA),,,102544,"Price of charge is $4733.20
I do not have clearance to give discounts on Daiwa.space to adjust price
My customer level does not allow discounts",Not Dispatched,0,10.10
12/17/2017 1:39:45 PM,Victoria Ibay,WA,98037,Daiwa Blanket,,,New,,,,,9292.44,8440.00,852.44,Scott Ishikawa,PurchaseOrder,0.00,,0580626310238558947323,,,,,,0.00,,,,,,,,0.00,,,,,,,,No,no warranty,Cancelled,Sam's Club Seattle #6687 12/7-17/17 (WA),,,102544,"Price of charge is $4733.20
I do not have clearance to give discounts on Daiwa.space to adjust price
My customer level does not allow discounts",Not Dispatched,0,10.10
12/17/2017 2:10:05 PM,Victoria Ibay,WA,98037,Legacy for Sam's,DWA-9100DWA-9100CH,Choco,New,,,,,44.44,0.00,44.44,Scott Ishikawa,PurchaseOrder,0.00,,0580626310238558947323,,,,,,0.00,,,,,,,,0.00,,,,,,,,No,"3 years parts, 3 years labor ($400)",Cancelled,Sam's Club Seattle #6687 12/7-17/17 (WA),,,102545,"Customers name is stuck on mine
I dont know how to change",WA,0,10.10
12/17/2017 2:10:05 PM,Victoria Ibay,WA,98037,Daiwa Blanket,,,New,,,,,44.44,0.00,44.44,Scott Ishikawa,PurchaseOrder,0.00,,0580626310238558947323,,,,,,0.00,,,,,,,,0.00,,,,,,,,No,no warranty,Cancelled,Sam's Club Seattle #6687 12/7-17/17 (WA),,,102545,"Customers name is stuck on mine
I dont know how to change",WA,0,10.10
12/18/2017 1:24:33 PM,Victoria Ibay,WA,98037,Legacy for Sam's,DWA-9100DWA-9100CH,Choco,New,,,,,4733.20,4299.00,434.20,Scott Ishikawa,PurchaseOrder,0.00,,0580626310238558947323,,,,,,0.00,,,,,,,,0.00,,,,,,,12/26/2017 12:00:00 AM,No,"3 years parts, 3 years labor ($400)",Delivered,Sam's Club Seattle #6687 12/7-17/17 (WA),,,102584,"Please ignore those orders 102544 and102545.
scheduled on Dec 26th",WA,0,10.10
12/18/2017 1:24:33 PM,Victoria Ibay,WA,98037,Daiwa Blanket,,,New,,,,,4733.20,4299.00,434.20,Scott Ishikawa,PurchaseOrder,0.00,,0580626310238558947323,,,,,,0.00,,,,,,,,0.00,,,,,,,12/26/2017 12:00:00 AM,No,no warranty,Delivered,Sam's Club Seattle #6687 12/7-17/17 (WA),,,102584,"Please ignore those orders 102544 and102545.
scheduled on Dec 26th",WA,0,10.10
12/19/2017 5:00:06 PM,Chien c Yeh,WA,98036,Legacy,DWA-9100DWA-9100CH,Choco Brown,New,,,,,3962.72,3668.00,294.72,Scott Ishikawa,PurchaseOrder,3962.50,001798,3453070391305882697717,,,,,,0.00,,,,,,,,0.00,,,,,,,1/17/2018 12:00:00 AM,No,"3 years parts, 1 year labor (Free)",Delivered,Sam's Club Seattle #6687 12/7-17/17 (WA),,"paid in full
invoice #2",102592,"Scott will update the TC#. 12/20/17 Riho
Only Available on Sunday Morning",WA,0,10.10
