﻿Date,CustomerName,State,Zipcode,Description,productNo,Color,IsDemo,Net,ShippingFee,GiftPrice,FinancingProcessingFee,Gross,Pre_tax,Tax,Commission,Primary Payment Method,Primary Payment Balance,Primary Authorize Number,Primary Purchase Order Number,Primary Synchrony Account Number,Primary Synchrony Application Key,Primary Synchrony AccountInfo,Primary SynchronyTerm,Secondly Payment Method,Secondly Payment Balance,Secondly Authorize Number,Secondly Purchase Order Number,Secondly Synchrony Account Number,Secondly Synchrony Application Key,Secondly Synchrony AccountInfo,Secondly SynchronyTerm,Thirdly Payment Method,Thirdly Payment Balance,Thirdly Authorize Number,Thirdly Purchase Order Number,Thirdly Synchrony Account Number,Thirdly Synchrony Application Key,Thirdly Synchrony AccountInfo,Thirdly SynchronyTerm,DeliveryDate,Ispickup,Warranty,Status,Event Name,Synchrony Notes,Order Notes,Order number,Private Note,Branch,IsNoTax,ActualTaxRate
11/9/2017 10:08:31 AM,Russ Nebhut,TX,79761,Relax2Zero 2.0 for Sam's,USJ-9050USJ-9050BR,Brown,New,,,,,3199.00,3012.36,186.64,Michael Wang,,3199.00,48513P,,,,,,,,,,,,,,,,,,,,,,11/10/2017 12:00:00 AM,No,"3 years parts, 1 year labor (Free)",Delivered,Sam's Club #6439 11/2-11/12/17 (TX),,1 Extra Chair Pad (Total:2) and 1 Blanket are promotional gift. Also 1 USB Flash is including.,101776,"This Order was referred from the demo at Sam's #6439 in last year.
**Will be shipped out from CA warehouse.**  ( STI: BR702900) 11/10/17",CA,,
11/9/2017 10:08:31 AM,Russ Nebhut,TX,79761,Daiwa Blanket,,,New,,,,,3199.00,3012.36,186.64,Michael Wang,,3199.00,48513P,,,,,,,,,,,,,,,,,,,,,,11/10/2017 12:00:00 AM,No,no warranty,Delivered,Sam's Club #6439 11/2-11/12/17 (TX),,1 Extra Chair Pad (Total:2) and 1 Blanket are promotional gift. Also 1 USB Flash is including.,101776,"This Order was referred from the demo at Sam's #6439 in last year.
**Will be shipped out from CA warehouse.**  ( STI: BR702900) 11/10/17",CA,,
11/9/2017 10:08:31 AM,Russ Nebhut,TX,79761,Chair Pad for Relax2Zero 2.0,,,New,,,,,3199.00,3012.36,186.64,Michael Wang,,3199.00,48513P,,,,,,,,,,,,,,,,,,,,,,11/10/2017 12:00:00 AM,No,no warranty,Delivered,Sam's Club #6439 11/2-11/12/17 (TX),,1 Extra Chair Pad (Total:2) and 1 Blanket are promotional gift. Also 1 USB Flash is including.,101776,"This Order was referred from the demo at Sam's #6439 in last year.
**Will be shipped out from CA warehouse.**  ( STI: BR702900) 11/10/17",CA,,
