﻿Original Event Name,Event Name,Sales Person,Order Number,Order Date,Customer Name,State,Zip,Product Name,Color,Product Status,QTY,Tax,Total Before Tax,Order Total,Primary Payment Method,Second Payment Method,Thirdl Payment Method,Warranty,Order Items,Pick up,Delivered On,Order Status,Chair Type,Order Notes,Private Note,Branch,No Tax,Actual Tax Rate,SKU,Primary Payment Balance,Primary Authorize Number,Primary Purchase Order Number,Primary Synchrony Account Number,Primary Synchrony Application Key,Primary Synchrony Account Info,Primary Synchrony Term,Second Payment Balance,Second Authorize Number,Second Purchase Order Number,Second Synchrony Account Number,Second Synchrony Application Key,Second Synchrony Account Info,Second SynchronyTerm,Third Payment Balance,Third Authorize Number,Third Purchase Order Number,Third Synchrony Account Number,Third Synchrony Application Key,Third Synchrony Account Info,Third Synchrony Term
"Sam's Club #6674 Elmsford, NY 5/2-12/19 (IL)","Sam's Club #6674 Elmsford, NY 5/2-12/19 (IL)",Michael Cuatrona,117321,5/13/2019 12:46:03 PM,Willie Morris,NY,10603,Legacy for Sam's,New Choco,New,1,0.00,4299.00,4299.00,Sam’s Club Synchrony,,,"3 years parts, 2 years labor ($200)","Legacy for Sam's,",No,,Scheduled,,"[MC MKTNG UPG +1] - as per Michael's request, an additional 1 year labor warranty would be added to the order at no extra cost. Total warranty 3 years parts and 2 years labor. Free delivery will apply - member willing to wait for the route to consolidate","SAMS synchrony- 3 years parts and 2 years labor
waiting on original- Cristina 05/13/19 3:30 pm
5/15Maritza- Customer called in asking for ETA. Have not yet been dispatched. Have informed him that delivery is estimated between 2-3 weeks. Please be advised that this customer is retired so his schedule is pretty much open as long as you give him a date/time ahead of time. Please give customer a courtesy call once it is dispatched. Number ending in 2019 is his home and 7593 is his cell.
05/16/19 Dispatched to Karen, and added to the list of chairs we  Need to ship - Crstina 3:04 pm
scheduled 05/31/19 1-6pm cristina (11am)",IL,1,7.38,DWA-9100DWA-9100CH,4299.00,,,,,,,0.00,,,,,,,0.00,,,,,,
"Sam's Club #6674 Elmsford, NY 5/2-12/19 (IL)","Sam's Club #6674 Elmsford, NY 5/2-12/19 (IL)",Michael Cuatrona,117322,5/13/2019 12:51:07 PM,Chan Young,NY,10532,Legacy for Sam's,New Black,New,1,0.00,4299.00,4299.00,Purchase Order,,,"3 years parts, 1 year labor (Free)","Legacy for Sam's,",No,,Scheduled,,[MC] - free delivery and assembly as per Michael. Take note and prepare for the 30 in entry for the doors.,"3 years parts and 1 year labor
Courtesy call/text completed 05/13/19 cristina 1:13 pm
5/14(11:44a): CC; left VM (customer called back){Waiting for inventory stock to schedule delivery}.-Karen
scheduled 05/31/19 12-5pm cristina 05/18 (11am)",IL,1,7.38,DWA-9100DWA-9100BL,4299.00,,4818 8578 6478 2459 1950 50,,,,,0.00,,,,,,,0.00,,,,,,
"Sam's Club #6674 Elmsford, NY 5/2-12/19 (IL)","Sam's Club #6674 Elmsford, NY 5/2-12/19 (IL)",Michael Cuatrona,117323,5/13/2019 12:57:55 PM,Norman Kinlock,NY,12589,Legacy for Sam's,New Black,New,2,634.10,8598.00,9232.10,Purchase Order,,,"3 years parts, 3 years labor ($400)","Legacy for Sam's,",No,,Scheduled,,"[MC mother's day promo UPG] -- as per Michael , the warranty would include a 3 year labor warranty for a total of 3 years parts and 3 years labor at no extra cost. Member willing to wait for the consolidation of the delivery route.","Delivery preference the week of May 20th.
3 years parts and 3 years labor
Original req; Courtesy call/text completed- Cristina 05/13/19 1:11 pm
5/14 (10:51A):CC; Left VM-Karen
scheduled 05/31/19 8-12 pm (2 Chairs) cristina 05/18 (11am)",IL,0,7.38,DWA-9100DWA-9100BL,9232.10,,8251 2046 0840 0186 9475 25,,,,,0.00,,,,,,,0.00,,,,,,
