﻿Order Number,Order Date,Event Name,Salesperson,SKU,Product Name,Color,QTY,Warranty,Payment Details,Tax,Order Total,Gross,Actual Shipping Cost,CustomerName,Shipping Address,Delivered On,Serial Number (TO Be),Note
100201,8/7/2017 11:58:39 PM,Referral(CA Office),Kaz Ohashi,DWA-9100DWA-9100BL,Legacy,Black,1,"3 years parts, 1 year labor (Free)",CreditCard ,259.00,3809.00,3809.00,0.00,SEONGSIK KIM,347-247-7462,,,Referral from Mr. DANIEL PARK.
100202,8/9/2017 7:53:55 PM,Sam's Club #4853,Tom Nguyen,DWA-9100DWA-9100BL-DEMO,Legacy for Sam's,Demo Black,1,"3 years parts, 1 year labor (Free)",CreditCard ,225.07,3824.07,3824.07,350.00,Cynthia Susser,303-791-2115,8/13/2017 12:00:00 AM,,"Order Date: 08/05/17
Sales Person: Tom/Keith"
100203,8/9/2017 8:39:46 PM,Sam's Club #4853,Tom Nguyen,DWA-9100DWA-9100CH-DEMO,Legacy for Sam's,Demo Choco,1,"3 years parts, 1 year labor (Free)",CreditCard ,225.07,3824.07,3824.07,350.00,Atulkymar Amin,303-693-1355,8/14/2017 12:00:00 AM,,"Order Date: 08/05/17
Sales Person: Tom/Keith
Color Changed to Beige"
100204,8/9/2017 9:13:21 PM,Sam's Club #8155,Michael Cuatrona,DWA-9100DWA-9100SB-DEMO,Legacy for Sam's,Demo Sienna Brown,1,"3 years parts, 1 year labor (Free)",CreditCard ,185.19,3784.19,3784.19,0.00,Kelly Lyons,386-688-3757,8/18/2017 12:00:00 AM,,"Order Date: 08/07/17
Deliver after Aug 14th"
100205,8/9/2017 9:28:46 PM,Sam's Club #8155,Tom Nguyen,DWA-9100DWA-9100BL,Legacy for Sam's,Black,1,"3 years parts, 2 years labor ($200)",CreditCard ,230.69,4529.69,4529.69,0.00,Dharmen Patel,352-346-3668,8/10/2017 12:00:00 AM,,Order Date: 08/07/17
100206,8/9/2017 9:33:07 PM,Sam's Club #8155,Michael Cuatrona,DWA-9100DWA-9100CH,Legacy for Sam's,Choco,1,"3 years parts, 1 year labor (Free)",CreditCard ,230.69,4529.69,4529.69,0.00,Scott Akins Kim,352-215-5694,8/10/2017 12:00:00 AM,,Order Date:08/05/17
100207,8/9/2017 9:42:15 PM,Sam's Club #4853,Tom Nguyen,DWA-9100DWA-9100CH-DEMO,Legacy for Sam's,Demo Choco,1,"3 years parts, 1 year labor (Free)",CreditCard ,225.07,3824.07,3824.07,350.00,Timothy D Lamonda,502-794-6812,8/13/2017 12:00:00 AM,,"Order Date: 08/05/17
Sales Person: Tom/Keith"
100208,8/9/2017 11:25:42 PM,Sam's Club #8280,Michael Wang,USJ-9050USJ-9050BL-DEMO,Relax2Zero 2.0 for Sam's,Demo Black,1,"3 years parts, 1 year labor (Free)",CreditCard ,202.04,3401.04,3401.04,350.00,Marc Zayas,915-276-0692,8/16/2017 12:00:00 AM,,"Order Date: 08/05/17
Please give black relax2zero 2.0 in a box."
100208,8/9/2017 11:25:42 PM,Sam's Club #8280,Michael Wang,,Chair Pad for Relax2Zero 2.0,,1,no warranty,CreditCard ,202.04,3401.04,3401.04,350.00,Marc Zayas,915-276-0692,8/16/2017 12:00:00 AM,,"Order Date: 08/05/17
Please give black relax2zero 2.0 in a box."
100208,8/9/2017 11:25:42 PM,Sam's Club #8280,Michael Wang,,Daiwa Blanket,,1,no warranty,CreditCard ,202.04,3401.04,3401.04,350.00,Marc Zayas,915-276-0692,8/16/2017 12:00:00 AM,,"Order Date: 08/05/17
Please give black relax2zero 2.0 in a box."
100209,8/10/2017 12:28:40 AM,Sam's Club #4853,Keith Kei,DWA-9100DWA-9100CH-DEMO,Legacy for Sam's,Demo Choco,1,"3 years parts, 1 year labor (Free)",CreditCard ,293.32,3892.32,3892.32,0.00,Theodore Kazmer,715-771-0409,,,"Order Date: 08/05/17
*Ship later around November to new address.
Please follow up later"
100210,8/10/2017 12:38:36 AM,Sam's Club #4853,Keith Kei,DWA-9100DWA-9100BL-DEMO,Legacy for Sam's,Demo Blue,1,"3 years parts, 1 year labor (Free)",CreditCard ,293.32,3892.32,3892.32,350.00,Fred Linneman,303-221-4501,9/2/2017 12:00:00 AM,,"Order Date: 08/06/17
Sales Person: Tom/Keith
*Please deliver after 08/29/17"
100211,8/10/2017 12:55:19 AM,Sam's Club #8190,Gary Cyrlin,DWA-9100DWA-9100BG-DEMO,Legacy for Sam's,Demo Beige,1,"3 years parts, 1 year labor (Free)",CreditCard ,296.92,3895.92,3895.92,350.00,Todd Collman,713-416-4198,8/16/2017 12:00:00 AM,,Order Date: 08/06/17
100211,8/10/2017 12:55:19 AM,Sam's Club #8190,Gary Cyrlin,,Chair Pad for Lagacy,,1,no warranty,CreditCard ,296.92,3895.92,3895.92,350.00,Todd Collman,713-416-4198,8/16/2017 12:00:00 AM,,Order Date: 08/06/17
100211,8/10/2017 12:55:19 AM,Sam's Club #8190,Gary Cyrlin,,Daiwa Blanket,,1,no warranty,CreditCard ,296.92,3895.92,3895.92,350.00,Todd Collman,713-416-4198,8/16/2017 12:00:00 AM,,Order Date: 08/06/17
100212,8/10/2017 1:12:27 AM,Sam's Club #6260,phuoc Van,DWA-9100DWA-9100CH,Legacy for Sam's,Choco,1,"3 years parts, 1 year labor (Free)",CreditCard ,419.15,4718.15,4718.15,350.00,Evelyn Crump,901-896-4947,8/13/2017 12:00:00 AM,,Order Date: 08/05/17
100212,8/10/2017 1:12:27 AM,Sam's Club #6260,phuoc Van,,Chair Pad for Lagacy,,1,no warranty,CreditCard ,419.15,4718.15,4718.15,350.00,Evelyn Crump,901-896-4947,8/13/2017 12:00:00 AM,,Order Date: 08/05/17
100213,8/10/2017 1:18:38 AM,Sam's Club #6260,phuoc Van,DWA-9100DWA-9100SB,Legacy for Sam's,Sienna Brown,1,"3 years parts, 1 year labor (Free)",CreditCard ,419.15,4718.15,4718.15,350.00,Rex Bobbitt,901-465-6545,8/13/2017 12:00:00 AM,,Order Date:08/06/17
100213,8/10/2017 1:18:38 AM,Sam's Club #6260,phuoc Van,,Chair Pad for Lagacy,,1,no warranty,CreditCard ,419.15,4718.15,4718.15,350.00,Rex Bobbitt,901-465-6545,8/13/2017 12:00:00 AM,,Order Date:08/06/17
100214,8/10/2017 1:37:45 AM,Sam's Club #8155,Michael Cuatrona,DWA-9100DWA-9100CH-DEMO,Legacy for Sam's,Demo Choco,1,"3 years parts, 1 year labor (Free)",CreditCard ,233.94,3832.94,3832.94,0.00,Kamal Mohammed,352-256-2030,,,"Order Date: 08/05/17
*Please ship a new chiar"
100215,8/10/2017 1:42:16 AM,Sam's Club #8155,Michael Cuatrona,DWA-9100DWA-9100BG-DEMO,Legacy for Sam's,Demo Beige,1,"3 years parts, 1 year labor (Free)",CreditCard ,233.94,3832.94,3832.94,0.00,Kelly Powess,352-642-2098,8/18/2017 12:00:00 AM,,"Order Date: 08/05/17
*Please ship a new chair"
100216,8/10/2017 1:53:21 AM,Sam's Club #8155,Michael Cuatrona,DWA-9100DWA-9100CH,Legacy for Sam's,Choco,1,"3 years parts, 1 year labor (Free)",CreditCard ,233.94,3832.94,3832.94,0.00,Joseph Brizzi,352-214-7093,8/18/2017 12:00:00 AM,,"Order Date: 08/05/17
*Please send a new chair"
100217,8/10/2017 4:38:31 PM,Sam's Club #8116,Christopher Spina,USJ-9050USJ-9050BL-DEMO,Relax2Zero 2.0 for Sam's,Demo Black,1,"3 years parts, 1 year labor (Free)",CreditCard ,223.93,3422.93,3422.93,0.00,Thany Yu,904-755-4852,8/10/2017 12:00:00 AM,,
100218,8/10/2017 4:47:55 PM,Sam's Club #6260,Phuoc Van,USJ-9050USJ-9050BL,Relax2Zero 2.0 for Sam's,Black,1,"3 years parts, 1 year labor (Free)",CreditCard ,380.25,4280.25,4280.25,350.00,Corey Coberly,660-864-5140,8/13/2017 12:00:00 AM,,
100219,8/10/2017 4:57:27 PM,Sam's Club #6260,Phuoc Van,USJ-9050USJ-9050BR,Relax2Zero 2.0 for Sam's,Brown,1,"3 years parts, 1 year labor (Free)",CreditCard ,380.25,4280.25,4280.25,350.00,Gloria W Cox,901-853-9732,8/14/2017 12:00:00 AM,,Order Date: 08/08/17
100220,8/10/2017 5:26:18 PM,Sam's Club #4853,Keith Kei,DWA-9100DWA-9100BL,Legacy for Sam's,Blue,1,"3 years parts, 1 year labor (Free)",CreditCard ,293.32,3892.32,3892.32,350.00,Terri Holt,303-720-2458,8/13/2017 12:00:00 AM,,Order Date: 08/01/17
100221,8/11/2017 1:12:42 AM,Sam's Club #6610 (CA),Kamille Krizzia,DWA-9100DWA-9100CH-DEMO,Legacy for Sam's,Demo Choco,1,"3 years parts, 1 year labor (Free)",CreditCard ,278.92,3877.92,3877.92,0.00,Micheal Man,562-673-2293,8/22/2017 12:00:00 AM,,*Please ship a new chair
100221,8/11/2017 1:12:42 AM,Sam's Club #6610 (CA),Kamille Krizzia,,Chair Pad for Lagacy,,1,no warranty,CreditCard ,278.92,3877.92,3877.92,0.00,Micheal Man,562-673-2293,8/22/2017 12:00:00 AM,,*Please ship a new chair
100222,8/11/2017 8:30:29 PM,Sam's Club #8155,Michael Cuatrona,DWA-9100DWA-9100BG-DEMO,Legacy for Sam's,Demo Beige,1,"3 years parts, 1 year labor (Free)",CreditCard ,233.94,3832.94,3832.94,0.00,Smita Gandhi,727-534-6768,8/18/2017 12:00:00 AM,,"Order Date: 08/06/17
*Please test the chair before delivery
Business Account: No Tax
Total Price: $3,599"
100223,8/12/2017 7:14:18 PM,Sam's Club #6235 (CA),Kohei Uno,DWA-9100DWA-9100SB-DEMO,Legacy for Sam's,Demo Sienna Brown,1,"3 years parts, 1 year labor (Free)",CreditCard ,220.80,3819.80,3819.80,0.00,Joey Escalante,619-600-2230,8/31/2017 12:00:00 AM,,"2nd Floor delivery. 
Receipt scan #9245 9437 5757 9845 9066 45"
100223,8/12/2017 7:14:18 PM,Sam's Club #6235 (CA),Kohei Uno,,Chair Pad for Lagacy,,1,no warranty,CreditCard ,220.80,3819.80,3819.80,0.00,Joey Escalante,619-600-2230,8/31/2017 12:00:00 AM,,"2nd Floor delivery. 
Receipt scan #9245 9437 5757 9845 9066 45"
100223,8/12/2017 7:14:18 PM,Sam's Club #6235 (CA),Kohei Uno,,Daiwa Blanket,,1,no warranty,CreditCard ,220.80,3819.80,3819.80,0.00,Joey Escalante,619-600-2230,8/31/2017 12:00:00 AM,,"2nd Floor delivery. 
Receipt scan #9245 9437 5757 9845 9066 45"
100223,8/12/2017 7:14:18 PM,Sam's Club #6235 (CA),Kohei Uno,,Foot Pads for Lagacy,,1,no warranty,CreditCard ,220.80,3819.80,3819.80,0.00,Joey Escalante,619-600-2230,8/31/2017 12:00:00 AM,,"2nd Floor delivery. 
Receipt scan #9245 9437 5757 9845 9066 45"
100233,8/14/2017 6:24:39 PM,Sam's Club #6610 (CA),Kamille Gines,DWA-9100DWA-9100BL-DEMO,Legacy for Sam's,Demo Black,1,"3 years parts, 1 year labor (Free)",CreditCard ,278.92,3877.92,3877.92,0.00,Thomas Ekelly,619-832-4921,8/13/2017 12:00:00 AM,,"Order Date : 08/11/17
Ship after the show."
100234,8/14/2017 6:42:44 PM,Sam's Club #6610 (CA),Kamille Gines,USJ-9050USJ-9050BR,Relax2Zero 2.0 for Sam's,Brown,1,"3 years parts, 1 year labor (Free)",CreditCard ,247.92,3446.92,3446.92,0.00,Jose Venegas,909-806-2051,8/22/2017 12:00:00 AM,,
100235,8/14/2017 7:04:18 PM,Sam's Club #6260 (TX),Phuoc Van,USJ-849USJ-849,Vitality Plate,New,1,"2 years parts, 1 year labor (Small Items)",CreditCard ,44.85,504.84,504.84,0.00,Charles Richardson,910-233-6261,,,
100237,8/15/2017 2:12:05 AM,Sam's Club #6260 (TX),Phuoc Van,DWA-9100DWA-9100BL,Legacy for Sam's,Black,1,"3 years parts, 1 year labor (Free)",CreditCard ,419.15,4718.15,4718.15,350.00,Tracy Beaver,901-258-2675,8/29/2017 12:00:00 AM,,Order Date: 08/12/17
100238,8/16/2017 6:26:33 PM,Sam's Club #8155,Michael Cuatrona,DWA-9100DWA-9100SB-DEMO,Legacy for Sam's,Demo Sienna Brown,1,"3 years parts, 1 year labor (Free)",CreditCard ,233.94,3832.94,3832.94,0.00,Tammy Coleman,352-354-5161,,,Customer will pick up a demo chair from the booth.
100239,8/16/2017 6:34:09 PM,Sam's Club #8155,Michael Cuatrona,DWA-9100DWA-9100SB,Legacy for Sam's,Sienna Brown,1,"3 years parts, 1 year labor (Free)",CreditCard ,233.94,3832.94,3832.94,0.00,Kimberly Dobbs,386-326-0567,,,Order Date:08/11/17
100240,8/16/2017 7:03:07 PM,Sam's Club #8155,Michael Cuatrona,DWA-9100DWA-9100SB,Legacy for Sam's,Sienna Brown,1,"3 years parts, 1 year labor (Free)",CreditCard ,233.94,3832.94,3832.94,0.00,Kimberly Dobbs,386-326-0567,8/13/2017 12:00:00 AM,,Order Date:08/11/17
100241,8/17/2017 7:14:31 PM,Sam's Club #4998 (FL),Jonathan Bhowani,USJ-9050USJ-9050BL,Relax2Zero 2.0 for Sam's,Black,1,"3 years parts, 1 year labor (Free)",CreditCard ,273.00,4173.00,4173.00,0.00,Test Order,1234567890,,,Test order. Please do not invoice.
100242,8/17/2017 9:42:37 PM,Sam's Club #4998 (FL),Jonathan Bhowani,DWA-9100DWA-9100CH,Legacy for Sam's,Choco,1,"3 years parts, 1 year labor (Free)",CreditCard ,300.93,4599.93,4599.93,0.00,Kristen Yorton,8062402838,9/1/2017 12:00:00 AM,,
100242,8/17/2017 9:42:37 PM,Sam's Club #4998 (FL),Jonathan Bhowani,,Chair Pad for Lagacy,,1,no warranty,CreditCard ,300.93,4599.93,4599.93,0.00,Kristen Yorton,8062402838,9/1/2017 12:00:00 AM,,
100243,8/17/2017 11:29:35 PM,Sam's Club #4998 (FL),Robert Shih,USJ-871,Foot Vides Pro,,1,"2 years parts, 1 year labor (Small Items)",Cash ,7.70,117.69,117.69,0.00,Richard Heitmeyer,3522081049,8/17/2017 12:00:00 AM,,
100244,8/18/2017 6:41:36 PM,Sam's Club #4998 (FL),Jonathan Bhowani,,Ninja Leg Massager,,1,"2 years parts, 1 year labor (Small Items)",CreditCard ,26.53,405.53,405.53,0.00,Don Fril,2074386844,8/18/2017 12:00:00 AM,,
100245,8/18/2017 7:47:16 PM,Sam's Club #4998 (FL),Jonathan Bhowani,,Ninja Leg Massager,,1,"2 years parts, 1 year labor (Small Items)",CreditCard ,26.53,405.53,405.53,0.00,Margaret Taylor,3172553177,,,Item given to customer upon purchase. Do not ship.
100246,8/18/2017 8:58:27 PM,Sam's Club #6335 (FL),Robert Shih,DWA-9100DWA-9100BL,Legacy for Sam's,Black,1,"3 years parts, 1 year labor (Free)",CreditCard ,300.93,4599.93,4599.93,0.00,Bob Hatcher,3526949573,9/1/2017 12:00:00 AM,,Thank you so much for shopping in the Sam's club Ocala #6335
100247,8/18/2017 11:59:09 PM,Sam's Club #6335 (FL),Robert Shih,DWA-9100DWA-9100BL,Legacy for Sam's,Black,1,"2 years parts, 1 year labor (Small Items)",CreditCard ,251.93,3850.93,3850.93,0.00,Zhou Zhu,3522355055,9/1/2017 12:00:00 AM,,"Please ship the NEW chair to the customer. 

Tax exam ."
100248,8/19/2017 2:17:46 AM,Sam's Club #4745 (TX),Kristy Tran,DWA-9100DWA-9100CH-DEMO,Legacy for Sam's,Demo Choco,1,"3 years parts, 1 year labor (Free)",CreditCard ,305.92,3904.92,3904.92,0.00,Marcia Wilcox,303-451-1935,,,
100248,8/19/2017 2:17:46 AM,Sam's Club #4745 (TX),Kristy Tran,,Chair Pad for Lagacy,,1,no warranty,CreditCard ,305.92,3904.92,3904.92,0.00,Marcia Wilcox,303-451-1935,,,
100249,8/19/2017 4:40:52 PM,Sam's Club #6335 (FL),Robert Shih,DWA-9100DWA-9100CH,Legacy for Sam's,Choco,1,"2 years parts, 1 year labor (Small Items)",CreditCard ,251.93,3850.93,3850.93,0.00,Stephen Curry,3528179817,9/1/2017 12:00:00 AM,,"Please ship the NEW chair to the customer.  

Thank you !

Robert."
100250,8/19/2017 4:42:52 PM,Sam's Club #4745 (TX),Kristy Tran,DWA-9100DWA-9100CH,Legacy for Sam's,Choco,1,"3 years parts, 1 year labor (Free)",CreditCard ,305.92,3904.92,3904.92,0.00,Marcia Wilcox,303-451-1935,,,Customer already cancelled order.
100251,8/19/2017 4:57:25 PM,Sam's Club #4745 8/17-8/27 (TX),Kristy Tran,USJ-871,Foot Vibe Pro,,1,"2 years parts, 1 year labor (Small Items)",CreditCard ,9.35,119.34,119.34,0.00,Evalee Winkler,720-479-8487,8/19/2017 12:00:00 AM,,
100252,8/19/2017 4:58:02 PM,Sam's Club #4998 (FL),Jonathan Bhowani,DWA-9100DWA-9100SB,Legacy for Sam's,Sienna Brown,1,"3 years parts, 1 year labor (Free)",CreditCard ,300.93,4599.93,4599.93,0.00,David Verhegge,5059342794,8/31/2017 12:00:00 AM,,
100253,8/19/2017 4:58:59 PM,Sam's Club #6335 (FL),Robert Shih,,Ninja Leg Massager,,1,"2 years parts, 1 year labor (Small Items)",Cash ,26.53,405.53,405.53,0.00,Richard Heitmeyer,3522081049,8/19/2017 12:00:00 AM,,The customer will pick up the leg massager in Jon's location #4998
100254,8/19/2017 5:23:17 PM,Sam's Club #4745 8/17-8/27 (TX),Mario Higareda,DWA-9100DWA-9100BL,Legacy for Sam's,Blue,2,"3 years parts, 1 year labor (Free)",CreditCard ,1360.00,17760.00,17760.00,0.00,Mario Higareda,3109860651,,,
100255,8/19/2017 5:51:07 PM,Sam's Club #6235 (CA),Kohei Uno,DWA-9100DWA-9100CH,Legacy for Sam's,Choco,1,"3 years parts, 3 years labor ($400)",CreditCard ,333.17,4632.17,4632.17,0.00,Raymond Leyba,619-816-5135,,,
100255,8/19/2017 5:51:07 PM,Sam's Club #6235 (CA),Kohei Uno,,Chair Pad for Lagacy,,1,no warranty,CreditCard ,333.17,4632.17,4632.17,0.00,Raymond Leyba,619-816-5135,,,
100255,8/19/2017 5:51:07 PM,Sam's Club #6235 (CA),Kohei Uno,,Daiwa Blanket,,1,no warranty,CreditCard ,333.17,4632.17,4632.17,0.00,Raymond Leyba,619-816-5135,,,
100256,8/19/2017 5:56:38 PM,Sam's Club #6335 (FL),Robert Shih,USJ-871,Foot Vibe Pro,,1,"2 years parts, 1 year labor (Small Items)",CreditCard ,7.70,117.69,117.69,0.00,Patrick Dios,3528176601,8/19/2017 12:00:00 AM,,"Thank you so much to shopping in the Sam's club Ocala . 

Robert ."
100257,8/19/2017 7:19:36 PM,Sam's Club #6335 (FL),Robert Shih,DWA-9100DWA-9100SB,Legacy for Sam's,Sienna Brown,1,"3 years parts, 1 year labor (Free)",CreditCard ,300.93,4599.93,4599.93,0.00,Dianne Doane-Bustetter,3522123304,9/1/2017 12:00:00 AM,,"Thank you for shopping in the Sam's club Ocala.  

Robert ."
100258,8/19/2017 8:06:47 PM,Sam's Club #6335 (FL),Robert Shih,USJ-9050USJ-9050BR,Relax2Zero 2.0 for Sam's,Brown,1,"3 years parts, 1 year labor (Free)",CreditCard ,273.00,4173.00,4173.00,0.00,Oscar Rivera,3524252219,,,"Thank you for shopping in the Sam's club Ocala . 

Robert ."
100259,8/19/2017 8:12:51 PM,Sam's Club #6335 (FL),Robert Shih,USJ-871,Foot Vibe Pro,,1,"2 years parts, 1 year labor (Small Items)",CreditCard ,7.70,117.69,117.69,0.00,Alice Dexter,3525537389,8/19/2017 12:00:00 AM,,"Thank you so much for shopping in the Sam's club Ocala!

Robert."
100260,8/19/2017 11:05:17 PM,Sam's Club #4745 8/17-8/27 (TX),Kristy Tran,DWA-9100DWA-9100CH,Legacy for Sam's,Choco,1,"3 years parts, 1 year labor (Free)",CreditCard ,365.42,4664.42,4664.42,350.00,Chan Ju Christy Lee,213-675-9477,8/28/2017 12:00:00 AM,,Customer is Tax Exempt
100261,8/19/2017 11:15:47 PM,Sam's Club #4745 8/17-8/27 (TX),Kristy Tran,USJ-871,Foot Vibe Pro,,1,"2 years parts, 1 year labor (Small Items)",CreditCard ,9.35,119.34,119.34,0.00,Jane Stephens,303-819-4290,8/19/2017 12:00:00 AM,,Invoice 4
100262,8/19/2017 11:26:41 PM,Sam's Club #4745 8/17-8/27 (TX),Kristy Tran,DWA-9100DWA-9100CH,Legacy for Sam's,Choco,1,"3 years parts, 1 year labor (Free)",CreditCard ,345.01,4404.00,4404.00,350.00,Barbara Vallejos,303-521-3424,8/28/2017 12:00:00 AM,,Customer already picked up.
100262,8/19/2017 11:26:41 PM,Sam's Club #4745 8/17-8/27 (TX),Kristy Tran,USJ-849USJ-849,Vitality Plate,New,1,"2 years parts, 1 year labor (Small Items)",CreditCard ,345.01,4404.00,4404.00,350.00,Barbara Vallejos,303-521-3424,8/28/2017 12:00:00 AM,,Customer already picked up.
100264,8/20/2017 1:08:08 AM,Sam's Club #4745 (TX),Kristy Tran,DWA-9100DWA-9100CH-DEMO,Legacy for Sam's,Demo Choco,1,"3 years parts, 1 year labor (Free)",CreditCard ,305.92,3904.92,3904.92,0.00,Barbara Vallejos,303-521-3424,,,"Order Date: 08/19/17
Customer picked up Vitality Plate at the store."
100266,8/20/2017 5:24:54 PM,Sam's Club #6235 (CA),Kohei Uno,DWA-9100DWA-9100SB-DEMO,Legacy for Sam's,Demo Sienna Brown,1,"3 years parts, 3 years labor ($400)",CreditCard ,278.92,3877.92,3877.92,0.00,Anthony Nguyen,619-777-0847,8/31/2017 12:00:00 AM,,
100266,8/20/2017 5:24:54 PM,Sam's Club #6235 (CA),Kohei Uno,,Chair Pad for Lagacy,,1,no warranty,CreditCard ,278.92,3877.92,3877.92,0.00,Anthony Nguyen,619-777-0847,8/31/2017 12:00:00 AM,,
100267,8/20/2017 5:57:44 PM,Sam's Club #6235 (CA),Kohei Uno,DWA-9100DWA-9100SB-DEMO,Legacy for Sam's,Demo Sienna Brown,1,"3 years parts, 3 years labor ($400)",CreditCard ,278.92,3877.92,3877.92,0.00,Anthony Nguyen,619-777-0847,8/31/2017 12:00:00 AM,,"***Please send NEW chair***
Deal for purchasing 2 chairs"
100267,8/20/2017 5:57:44 PM,Sam's Club #6235 (CA),Kohei Uno,,Chair Pad for Lagacy,,1,no warranty,CreditCard ,278.92,3877.92,3877.92,0.00,Anthony Nguyen,619-777-0847,8/31/2017 12:00:00 AM,,"***Please send NEW chair***
Deal for purchasing 2 chairs"
100268,8/20/2017 6:14:47 PM,Sam's Club #4998 (FL),Jonathan Bhowani,USJ-871,Foot Vibe Pro,,1,"2 years parts, 1 year labor (Small Items)",CreditCard ,7.70,117.69,117.69,0.00,Nina Geltz,4045089346,8/20/2017 12:00:00 AM,,Item given to customer upon purchase. Do not ship.
100269,8/20/2017 7:28:13 PM,Yolo County Fair 8/16-8/20 (CA),Kaz Ohashi,DWA-9060USJ-9060BL,Relax2Zero 3D,Black,1,"3 years parts, 1 year labor (Free)",Cash ,184.88,3484.88,3484.88,0.00,Mohammad Imran,530-312-2006,,,C.O.D CASH
100270,8/20/2017 7:29:42 PM,Sam's Club #6335 (FL),Robert Shih,DWA-9100DWA-9100SB,Legacy for Sam's,Sienna Brown,1,"2 years parts, 1 year labor (Small Items)",CreditCard ,251.93,3850.93,3850.93,0.00,Richard Kalback,3525286551,9/5/2017 12:00:00 AM,,"Thank you so much for shopping in the Sam's club Ocala. 

Please ship the NEW chair to the customer. 

Robert ."
100271,8/20/2017 7:59:14 PM,Sam's Club #4998 (FL),Jonathan Bhowani,,Ninja Leg Massager,,1,"2 years parts, 1 year labor (Small Items)",CreditCard ,26.53,405.53,405.53,0.00,Ted Robson,2077358808,,,Item given to customer upon purchase. Do not ship
100272,8/21/2017 3:26:10 PM,Sam's Club #4987 8/17-8/27 (TX),Tom Nguyen,DWA-9100DWA-9100CH-DEMO,Legacy for Sam's,Demo Choco,1,"3 years parts, 1 year labor (Free)",CreditCard ,297.28,3896.28,3896.28,350.00,Maria & Jhon Terela,3030-652-8881,8/20/2017 12:00:00 AM,,Order Date: 08/20/2017
100273,8/21/2017 3:54:03 PM,Sam's Club #4987 8/17-8/27 (TX),Tom Nguyen,DWA-9100DWA-9100CH-DEMO,Legacy for Sam's,Demo Choco,1,"3 years parts, 1 year labor (Free)",CreditCard ,297.28,3896.28,3896.28,350.00,Cargle McManas,303-772-2535,8/29/2017 12:00:00 AM,,"Order Date: 08/18/2017
Should delivery before 09/04/2017 or after 09/16/2017."
100274,8/21/2017 4:38:59 PM,Sam's Club #6335 (FL),Robert Shih,USJ-9050USJ-9050BR,Relax2Zero 2.0 for Sam's,Brown,1,"3 years parts, 1 year labor (Free)",CreditCard ,273.00,4173.00,4173.00,0.00,Oscar Rivera,352-425-2219,9/1/2017 12:00:00 AM,,
100275,8/21/2017 4:58:25 PM,Sam's Club #6335 (FL),Robert Shih,USJ-9050USJ-9050BR,Relax2Zero 2.0 for Sam's,Brown,1,"3 years parts, 1 year labor (Free)",CreditCard ,273.00,4173.00,4173.00,0.00,Vivi Serena,3525023228,9/21/2017 12:00:00 AM,,"Thank you so much for shopping in the Sam's club Ocala. 

Robert."
100276,8/21/2017 5:26:55 PM,Sam's Club #6235 (CA),Kohei Uno,USJ-9050USJ-9050BR,Relax2Zero 2.0 for Sam's,Brown,1,"3 years parts, 3 years labor ($400)",CreditCard ,302.25,4202.25,4202.25,0.00,Sandra Lara,619-475-4148,8/31/2017 12:00:00 AM,,***Please rush delivery for August 31st***
100276,8/21/2017 5:26:55 PM,Sam's Club #6235 (CA),Kohei Uno,,Chair Pad for Relax2Zero 2.0,,1,no warranty,CreditCard ,302.25,4202.25,4202.25,0.00,Sandra Lara,619-475-4148,8/31/2017 12:00:00 AM,,***Please rush delivery for August 31st***
100276,8/21/2017 5:26:55 PM,Sam's Club #6235 (CA),Kohei Uno,,Daiwa Blanket,,1,no warranty,CreditCard ,302.25,4202.25,4202.25,0.00,Sandra Lara,619-475-4148,8/31/2017 12:00:00 AM,,***Please rush delivery for August 31st***
100277,8/21/2017 9:00:02 PM,Sam's Club #6335 (FL),Robert Shih,USJ-871,Foot Vibe Pro,,1,"2 years parts, 1 year labor (Small Items)",CreditCard ,7.70,117.69,117.69,0.00,James Massey,3522034687,8/21/2017 12:00:00 AM,,
100278,8/22/2017 3:58:22 PM,Sam's Club #4745 8/17-8/27 (TX),Kristy Tran,DWA-9100DWA-9100BL,Legacy for Sam's,Black,1,"3 years parts, 1 year labor (Free)",CreditCard ,305.92,3904.92,3904.92,350.00,Keum S Chen,303-469-1977,8/28/2017 12:00:00 AM,,"Order Date: 08/21/2017
Tax Exempt Business Account"
100279,8/22/2017 4:24:20 PM,Sam's Club #8284 8/17-8/27 (TX),Ana Barrera,DWA-9100DWA-9100CH,Legacy for Sam's,Choco,1,"3 years parts, 1 year labor (Free)",CreditCard ,354.67,4653.67,4653.67,350.00,Charles Singuefield,903-849-4377,8/31/2017 12:00:00 AM,,Order Date: 08/21/2017
100280,8/22/2017 5:48:25 PM,Sam's Club #4998 (FL),Jonathan Bhowani,USJ-871,Foot Vibe Pro,,1,"2 years parts, 1 year labor (Small Items)",CreditCard ,7.70,117.69,117.69,0.00,Wayne Wilcox,7049956109,,,Item given to customer upon purchase. Do not ship.
100281,8/22/2017 6:08:42 PM,Sam's Club #4998 (FL),Jonathan Bhowani,DWA-9100DWA-9100CH,Legacy for Sam's,Choco,1,"3 years parts, 1 year labor (Free)",CreditCard ,300.93,4599.93,4599.93,0.00,Molly Quillin,5635646405,9/1/2017 12:00:00 AM,,
100281,8/22/2017 6:08:42 PM,Sam's Club #4998 (FL),Jonathan Bhowani,,Daiwa Blanket,,1,no warranty,CreditCard ,300.93,4599.93,4599.93,0.00,Molly Quillin,5635646405,9/1/2017 12:00:00 AM,,
100282,8/23/2017 5:29:15 PM,Kitsap County Fair 8/23-/27 (WA),Joseph Chan,DWA-9400Pegasus-BL,Pegasus,Black,1,"3 years parts, 1 year labor (Free)",CreditCard Cash,316.80,4786.80,4786.80,,John Sith,5411231234,,,"*Please deliver this chair later.
THIS IS TEST ORDER"
100283,8/23/2017 6:53:20 PM,Sam's Club #4998 (FL),Jonathan Bhowani,USJ-871,Foot Vibe Pro,,1,"2 years parts, 1 year labor (Small Items)",CreditCard ,7.70,117.69,117.69,0.00,Delio Rodriguez,3523479313,,,Item given to customer upon purchase. Do not ship.
100284,8/23/2017 7:57:25 PM,Sam's Club #4998 (FL),Robert Shih,DWA-9100DWA-9100CH,Legacy for Sam's,Choco,1,"3 years parts, 1 year labor (Free)",CreditCard ,300.93,4599.93,4599.93,0.00,Stacey Johlman,9098444522,,,"Thank you for shopping in the Sam's club Ocala #6335

Please on hold the deliver for the customer about 2 to 3 months.  Follow up with the customer every month ."
100288,8/24/2017 12:22:52 AM,Sam's Club #4998 (FL),Robert Shih,DWA-9100DWA-9100CH,Legacy for Sam's,Choco,1,"2 years parts, 1 year labor (Small Items)",CreditCard ,251.93,3850.93,3850.93,0.00,Ramanbhai Patel,5122175079,9/1/2017 12:00:00 AM,,"Thank you so much for shopping in the Sam's club Ocala #6335 .

Please ship the NEW chair to the customer as i promised.  Thank you .

Robert ."
100290,8/24/2017 9:15:02 PM,Sam's Club #4998 (FL),Jonathan Bhowani,,Ninja Leg Massager,,1,"2 years parts, 1 year labor (Small Items)",CreditCard ,26.53,405.53,405.53,0.00,Rajesh Gupta,4408211656,,,Item given to customer upon purchase. Do not ship.
100291,8/25/2017 12:14:52 AM,Sam's Club #4745 8/17-27 (TX),Kristy Tran,DWA-9100DWA-9100CH,Legacy for Sam's,Choco,1,"3 years parts, 1 year labor (Free)",CreditCard ,345.01,4404.00,4404.00,350.00,Barbara Vallejos,303-521-3424,8/28/2017 12:00:00 AM,,Customer picked up Vitality Plate
100291,8/25/2017 12:14:52 AM,Sam's Club #4745 8/17-27 (TX),Kristy Tran,USJ-849USJ-849,Vitality Plate,New,1,"2 years parts, 1 year labor (Small Items)",CreditCard ,345.01,4404.00,4404.00,350.00,Barbara Vallejos,303-521-3424,8/28/2017 12:00:00 AM,,Customer picked up Vitality Plate
100292,8/26/2017 8:06:06 PM,Sam's Club #4998 (FL),Jonathan Bhowani,DWA-9100DWA-9100SB-DEMO,Legacy for Sam's,Demo Sienna Brown,1,"3 years parts, 1 year labor (Free)",CreditCard ,251.93,3850.93,3850.93,0.00,Tom Malinak,3523075453,9/1/2017 12:00:00 AM,,SIENNA BROWN DEMO. call 30 minutes before delivery.
100293,8/26/2017 11:16:52 PM,Sam's Club #4998 (FL),Robert Shih,USJ-871,Foot Vibe Pro,,1,"2 years parts, 1 year labor (Small Items)",CreditCard ,7.70,117.69,117.69,0.00,Timothy Staub,3523621730,,,"Pierce covering Robert, and sold in event 6335, Sam's Club in Ocala"
100294,8/27/2017 1:24:38 AM,Sam's Club #8284 8/17-27 (TX),Chris Tavira,DWA-9100DWA-9100CH-DEMO,Legacy for Sam's,Demo Choco,1,"3 years parts, 1 year labor (Free)",CreditCard ,296.92,3895.92,3895.92,0.00,Naser Saghafi,903-245-2162,8/31/2017 12:00:00 AM,,Order Date: 08/26/2017
100295,8/27/2017 1:44:33 AM,Sam's Club #8184 (IL),Emily Dow,DWA-9100DWA-9100BL-DEMO,Legacy for Sam's,Demo Black,1,"3 years parts, 1 year labor (Free)",CreditCard ,287.92,3886.92,3886.92,350.00,Theresa Erol,262-515-5915,,,Order Date: 08/26/2017
100296,8/27/2017 1:59:32 AM,Sam's Club #8284 8/17-8/27 (TX),Chris Tavira,DWA-9100DWA-9100GD-DEMO,Legacy for Sam's,Demo Gold,1,"3 years parts, 1 year labor (Free)",CreditCard ,296.92,3895.92,3895.92,350.00,Leorard Adams,903-571-2222,8/31/2017 12:00:00 AM,,Order Date: 08/23/2017
100297,8/27/2017 2:10:49 AM,Sam's Club #8284 8/17-27 (TX),Chris Tavira,DWA-9100DWA-9100SB-DEMO,Legacy for Sam's,Demo Sienna Brown,1,"3 years parts, 1 year labor (Free)",CreditCard ,296.92,3895.92,3895.92,350.00,Andy Hieckman,903-316-1694,8/31/2017 12:00:00 AM,,"Order Date: 08/23/2017
Need to confirm color: Receipt says Brown. Choco or Sienna"
100298,8/27/2017 2:17:40 AM,Evergreen State Fair 8/24-9/4 (WA),Joseph Chan,DWA-9100DWA-9100BL-DEMO,Legacy,Demo Black,1,"3 years parts, 3 years labor ($400)",Synchrony CreditCard,331.20,3931.20,3931.20,0.00,Tameria Patzer,425-737-0638,,,C.O.D of $431.20 on pick up
100299,8/27/2017 5:02:02 AM,Sam's Club #8284 8/17-27 (TX),Chris Tavira,DWA-9100DWA-9100CH,Legacy for Sam's,Choco,1,"3 years parts, 1 year labor (Free)",CreditCard ,354.67,4653.67,4653.67,350.00,Robert Clarke,903-522-2100,8/31/2017 12:00:00 AM,,Order Date: 08/24/2017
100300,8/27/2017 5:26:37 AM,Sam's Club #8117 8/17-27 (TX),Gary Cyrlin,DWA-9100DWA-9100BG,Legacy for Sam's,Beige,1,"3 years parts, 1 year labor (Free)",CreditCard ,301.42,3900.42,3900.42,350.00,Nancy Cersonsky,303-810-7707,9/1/2017 12:00:00 AM,,Order Date: 08/25/2017
100300,8/27/2017 5:26:37 AM,Sam's Club #8117 8/17-27 (TX),Gary Cyrlin,,Chair Pad for Lagacy,,1,no warranty,CreditCard ,301.42,3900.42,3900.42,350.00,Nancy Cersonsky,303-810-7707,9/1/2017 12:00:00 AM,,Order Date: 08/25/2017
100300,8/27/2017 5:26:37 AM,Sam's Club #8117 8/17-27 (TX),Gary Cyrlin,,Daiwa Blanket,,1,no warranty,CreditCard ,301.42,3900.42,3900.42,350.00,Nancy Cersonsky,303-810-7707,9/1/2017 12:00:00 AM,,Order Date: 08/25/2017
100301,8/27/2017 5:37:14 AM,Sam's Club #8284 8/17-27 (TX),Chris Tavira,DWA-9100DWA-9100BL,Legacy for Sam's,Black,1,"3 years parts, 1 year labor (Free)",CreditCard ,354.67,4653.67,4653.67,0.00,Nan P. Ferguson,903-458-6044,,,"Order Date: 08/26/2017
Please call customer after 09/11. Will be out of town for a conference."
100302,8/27/2017 5:50:27 AM,Sam's Club #8117 8/17-27 (TX),Gary Cyrlin,DWA-9100DWA-9100CH,Legacy for Sam's,Choco,1,"3 years parts, 1 year labor (Free)",CreditCard ,360.04,4659.04,4659.04,350.00,Kevin Rutland,405-388-7255,9/1/2017 12:00:00 AM,,"Order Date: 08/26/2017
Free Blanket, Free Chair Pad
Business Account NO TAX: Total Price $4299.00"
100302,8/27/2017 5:50:27 AM,Sam's Club #8117 8/17-27 (TX),Gary Cyrlin,,Chair Pad for Lagacy,,1,no warranty,CreditCard ,360.04,4659.04,4659.04,350.00,Kevin Rutland,405-388-7255,9/1/2017 12:00:00 AM,,"Order Date: 08/26/2017
Free Blanket, Free Chair Pad
Business Account NO TAX: Total Price $4299.00"
100302,8/27/2017 5:50:27 AM,Sam's Club #8117 8/17-27 (TX),Gary Cyrlin,,Daiwa Blanket,,1,no warranty,CreditCard ,360.04,4659.04,4659.04,350.00,Kevin Rutland,405-388-7255,9/1/2017 12:00:00 AM,,"Order Date: 08/26/2017
Free Blanket, Free Chair Pad
Business Account NO TAX: Total Price $4299.00"
100303,8/27/2017 2:39:42 PM,Sam's Club #4998 (FL),Jonathan Bhowani,USJ-871,Foot Vibe Pro,,1,"2 years parts, 1 year labor (Small Items)",CreditCard ,7.70,117.69,117.69,0.00,Joe Janette,3527512662,,,Item given to customer upon purchase. Do not ship.
100304,8/27/2017 4:53:50 PM,Health and Wellness Carrollton Store 2017 (TX),Ting Ritchie,DWA-9060USJ-9060BL-DEMO,Relax2Zero 3D,Demo Black,1,"3 years parts, 1 year labor (Free)",Synchrony ,243.38,3943.38,3943.38,0.00,James Haynes,4072300101,8/28/2017 12:00:00 AM,,
100305,8/27/2017 5:20:30 PM,Sam's Club #8284 8/17-27 (TX),Chris Tavira,DWA-9100DWA-9100CH,Legacy for Sam's,Choco,1,"3 years parts, 1 year labor (Free)",CreditCard ,354.67,4653.67,4653.67,350.00,Kyle Roddy,7192059413,8/31/2017 12:00:00 AM,,Order Date: 08/27/2017
100306,8/28/2017 6:15:50 AM,Evergreen State Fair 8/24-9/4 (WA),Joseph Chan,DWA-9400Pegasus-BR-DEMO,Pegasus,Demo Choco Brown,1,"3 years parts, 3 years labor ($400)",CreditCard ,372.60,5172.60,5172.60,0.00,Michael Tipping,425-407-2143,8/31/2017 12:00:00 AM,,
100307,8/28/2017 6:23:08 AM,Evergreen State Fair 8/24-9/4 (WA),Joseph Chan,DWA-9060USJ-9060BL,Relax2Zero 3D,Black,1,"3 years parts, 3 years labor ($400)",Synchrony ,375.36,5205.36,5205.36,0.00,David Peccalaio,253-335-5814,8/31/2017 12:00:00 AM,,
100308,8/28/2017 7:35:30 PM,Sam's Club #8184 8/17-27 (IL),Emily Dow,DWA-9100DWA-9100CH-DEMO,Legacy for Sam's,Demo Choco,1,"3 years parts, 1 year labor (Free)",CreditCard ,287.92,3886.92,3886.92,0.00,Manoner Gandham,708-296-0914,,,Deliver to basement
100309,8/28/2017 7:45:27 PM,Sam's Club #8184 8/17-27 (IL),Emily Dow,DWA-9100DWA-9100BL,Legacy for Sam's,Black,1,"3 years parts, 3 years labor ($400)",CreditCard ,343.92,4642.92,4642.92,0.00,Maria Raminez,847-912-5733,,,Second Floors Delivery
100311,8/28/2017 9:55:05 PM,Sam's Club #4987 8/17-27 (TX),Tom Nguyen,DWA-9100DWA-9100BL,Legacy for Sam's,Black,1,"3 years parts, 1 year labor (Free)",CreditCard ,297.28,3896.28,3896.28,350.00,James Exendine,970-203-4456,9/3/2017 12:00:00 AM,,
100312,8/28/2017 10:01:33 PM,Sam's Club #4987 8/17-27 (TX),Tom Nguyen,DWA-9100DWA-9100CH-DEMO,Legacy for Sam's,Demo Choco,1,"3 years parts, 1 year labor (Free)",CreditCard ,297.28,3896.28,3896.28,350.00,Sharon Whitmore,303-774-8406,9/2/2017 12:00:00 AM,,
100313,8/28/2017 10:10:48 PM,Sam's Club #4745 8/17-27 (TX),Kristy Tran,USJ-9050USJ-9050BR,Relax2Zero 2.0 for Sam's,Brown,1,"3 years parts, 1 year labor (Free)",CreditCard ,331.50,4231.50,4231.50,350.00,Dorene Tadehara,720-685-8200,9/2/2017 12:00:00 AM,,"Please leave a voice massage.
Before Sep 11th or after Sep 14th afternoon 12-5pm prefer"
100314,8/28/2017 10:19:44 PM,Sam's Club #4745 8/17-27 (TX),Kristy Tran,USJ-9050USJ-9050BL-DEMO,Relax2Zero 2.0 for Sam's,Demo Black,1,"3 years parts, 1 year labor (Free)",CreditCard ,271.92,3470.92,3470.92,350.00,Mile High Pallet,303-451-6131,8/27/2017 12:00:00 AM,,
100317,8/29/2017 7:09:58 PM,Sam's Club #6363 8/24-9/2 (FL),Alex Brackelsberg,USJ-871,Foot Vibe Pro,,1,"2 years parts, 1 year labor (Small Items)",CreditCard ,7.70,117.69,117.69,0.00,Henry Helton,9047811724,,,
100319,8/29/2017 9:39:17 PM,Main office (CA),Kaz Ohashi,DWA-9060USJ-9060BL,Relax2Zero 3D,Black,1,"3 years parts, 3 years labor ($400)",CreditCard ,240.50,3590.50,3590.50,0.00,Aaron Barnhardt,6262775795,9/20/2017 12:00:00 AM,,
100319,8/29/2017 9:39:17 PM,Main office (CA),Kaz Ohashi,,Daiwa Blanket,,1,no warranty,CreditCard ,240.50,3590.50,3590.50,0.00,Aaron Barnhardt,6262775795,9/20/2017 12:00:00 AM,,
100320,8/29/2017 9:46:18 PM,Main office (CA),Kaz Ohashi,DWA-9060USJ-9060BL,Relax2Zero 3D,Black,1,"3 years parts, 3 years labor ($400)",CreditCard ,240.50,3590.50,3590.50,0.00,Ibe Chan Leung,310 6349360,9/1/2017 12:00:00 AM,,Friday delivery prefer
100320,8/29/2017 9:46:18 PM,Main office (CA),Kaz Ohashi,,Daiwa Blanket,,1,no warranty,CreditCard ,240.50,3590.50,3590.50,0.00,Ibe Chan Leung,310 6349360,9/1/2017 12:00:00 AM,,Friday delivery prefer
100321,8/29/2017 10:40:07 PM,Main office (CA),Kaz Ohashi,DWA-9060USJ-9060BL,Relax2Zero 3D,Black,1,"3 years parts, 3 years labor ($400)",CreditCard ,240.50,3590.50,3590.50,0.00,Tina Dang,626-782-2562,9/1/2017 12:00:00 AM,,"If tourmaline pad is stock pls 
ship to the customer

Friday delivery prefer in the morning"
100321,8/29/2017 10:40:07 PM,Main office (CA),Kaz Ohashi,,Chair Pad for Relax2Zero 3D,,1,no warranty,CreditCard ,240.50,3590.50,3590.50,0.00,Tina Dang,626-782-2562,9/1/2017 12:00:00 AM,,"If tourmaline pad is stock pls 
ship to the customer

Friday delivery prefer in the morning"
100322,8/29/2017 10:59:15 PM,Main office (CA),Kaz Ohashi,DWA-9060USJ-9060BL,Relax2Zero 3D,Black,1,"3 years parts, 3 years labor ($400)",CreditCard ,240.50,3590.50,3590.50,0.00,Liching Ulrey,13105277238,9/1/2017 12:00:00 AM,,"Friday Morning Shipping is preferrd. 
If we may get a stock for Tormalin pad please ship to the customer."
100323,8/30/2017 9:41:35 PM,Sam's Club #4745 8/17-27 (TX),Kristy Tran,DWA-9100DWA-9100CH,Legacy for Sam's,Choco,1,"3 years parts, 1 year labor (Free)",PURCHASEORDER ,365.42,4664.42,4664.42,0.00,Carol Deegan,720-327-7014,9/6/2017 12:00:00 AM,,
100324,8/31/2017 6:43:56 PM,Health&Wellness Factory AGM (CA),Jessica Phung,DWA-9150USJ-9150BL,Legacy 3D,Black,1,"3 years parts, 1 year labor (Free)",PURCHASEORDER ,319.38,4719.38,4719.38,0.00,Jessica Phung,1111111111,,,
100324,8/31/2017 6:43:56 PM,Health&Wellness Factory AGM (CA),Jessica Phung,,Chair Pad for Lagacy 3D,,1,no warranty,PURCHASEORDER ,319.38,4719.38,4719.38,0.00,Jessica Phung,1111111111,,,
100324,8/31/2017 6:43:56 PM,Health&Wellness Factory AGM (CA),Jessica Phung,,Daiwa Blanket,,1,no warranty,PURCHASEORDER ,319.38,4719.38,4719.38,0.00,Jessica Phung,1111111111,,,
100324,8/31/2017 6:43:56 PM,Health&Wellness Factory AGM (CA),Jessica Phung,,Foot Pads for Lagacy 3D,,1,no warranty,PURCHASEORDER ,319.38,4719.38,4719.38,0.00,Jessica Phung,1111111111,,,
100330,8/31/2017 10:58:17 PM,Sam's Club #6363 8/24-9/2 (FL),Jonathan Bhowani,USJ-9050USJ-9050BL-DEMO,Relax2Zero 2.0 for Sam's,Demo Black,1,"3 years parts, 1 year labor (Free)",CreditCard ,223.93,3422.93,3422.93,0.00,Troy Coffman,4075064244,9/20/2017 12:00:00 AM,,"-Demo black serial number: 0102001170006
-Include USB"
