﻿Original Event Name,Event Name,Sales Person,Order Number,Order Date,Customer Name,State,Zip,Product Name,Color,Product Status,QTY,Tax,Total Before Tax,Order Total,Primary Payment Method,Second Payment Method,Thirdl Payment Method,Warranty,Order Items,Pick up,Delivered On,Order Status,Chair Type,Order Notes,Private Note,Branch,No Tax,Actual Tax Rate,SKU,Primary Payment Balance,Primary Authorize Number,Primary Purchase Order Number,Primary Synchrony Account Number,Primary Synchrony Application Key,Primary Synchrony Account Info,Primary Synchrony Term,Second Payment Balance,Second Authorize Number,Second Purchase Order Number,Second Synchrony Account Number,Second Synchrony Application Key,Second Synchrony Account Info,Second SynchronyTerm,Third Payment Balance,Third Authorize Number,Third Purchase Order Number,Third Synchrony Account Number,Third Synchrony Application Key,Third Synchrony Account Info,Third Synchrony Term
"Sam's Club #4786 LOGAN,UT 5/23-6/2/19 (NV)","Sam's Club #4786 LOGAN,UT 5/23-6/2/19 (NV)",Ariel Milanes,117733,6/1/2019 10:38:44 PM,Jennifer Robinson,UT,84318,Vitality Plate for Sam's,New,New,1,32.20,459.99,492.19,Credit Card,,,"2 years parts, 1 year labor (Free)","Vitality Plate for Sam's,",YES,,Delivered,,,,NV,0,7.00,USJ-849USJ-849,492.19,TC# 5021-7423-1476-5877-7118-9,,,,,,0.00,,,,,,,0.00,,,,,,
"Sam's Club #4786 LOGAN,UT 5/23-6/2/19 (NV)","Sam's Club #4786 LOGAN,UT 5/23-6/2/19 (NV)",Ariel Milanes,117734,6/1/2019 10:49:41 PM,Susan Wallentine,UT,84341,Foot Vibe Pro,,New,1,7.70,109.99,117.69,Credit Card,,,"2 years parts, 1 year labor for Small Items","Foot Vibe Pro,",YES,,Delivered,,,,NV,0,7.00,USJ-871,117.69,TC# 7588-7702-7705-0553-0241-1,,,,,,0.00,,,,,,,0.00,,,,,,
"Sam's Club #4786 LOGAN,UT 5/23-6/2/19 (NV)","Sam's Club #4786 LOGAN,UT 5/23-6/2/19 (NV)",Ariel Milanes,117735,6/1/2019 10:58:14 PM,Ana Meza,UT,84321,Foot Vibe Pro,,New,1,7.70,109.99,117.69,Credit Card,,,"2 years parts, 1 year labor for Small Items","Foot Vibe Pro,",YES,,Delivered,,,,NV,0,7.00,USJ-871,117.69,TC# 4531-0481-9416-5807-1516-9,,,,,,0.00,,,,,,,0.00,,,,,,
"Sam's Club #4786 LOGAN,UT 5/23-6/2/19 (NV)","Sam's Club #4786 LOGAN,UT 5/23-6/2/19 (NV)",Ariel Milanes,117736,6/1/2019 11:06:10 PM,Kay Durrant,UT,84341,Foot Vibe Pro,,New,1,7.70,109.99,117.69,Credit Card,,,"2 years parts, 1 year labor for Small Items","Foot Vibe Pro,",YES,,Delivered,,,,NV,0,7.00,USJ-871,117.69,TC#5026-6548-8563-4120-3486-2,,,,,,0.00,,,,,,,0.00,,,,,,
"Sam's Club #4786 LOGAN,UT 5/23-6/2/19 (NV)","Sam's Club #4786 LOGAN,UT 5/23-6/2/19 (NV)",Ariel Milanes,117737,6/1/2019 11:39:47 PM,Jose Luz Juarez,UT,84319,Foot Vibe Pro,,New,1,7.70,109.99,117.69,Credit Card,,,"2 years parts, 1 year labor for Small Items","Foot Vibe Pro,",YES,,Delivered,,,,NV,0,7.00,USJ-871,117.69,TC#4491-4421-4430-5887-5519-9,,,,,,0.00,,,,,,,0.00,,,,,,
