﻿Original Event Name,Event Name,Sales Person,Order Number,Order Date,Customer Name,State,Zip,Product Name,Color,Product Status,QTY,Tax,Total Before Tax,Order Total,Primary Payment Method,Second Payment Method,Thirdl Payment Method,Warranty,Order Items,Pick up,Delivered On,Order Status,Chair Type,Order Notes,Private Note,Branch,No Tax,Actual Tax Rate,SKU,Primary Payment Balance,Primary Authorize Number,Primary Purchase Order Number,Primary Synchrony Account Number,Primary Synchrony Application Key,Primary Synchrony Account Info,Primary Synchrony Term,Primary Synchrony Primary ID,Primary Synchrony Issued State,Primary Synchrony Expiretion Date,Second Payment Balance,Second Authorize Number,Second Purchase Order Number,Second Synchrony Account Number,Second Synchrony Application Key,Second Synchrony Account Info,Second SynchronyTerm,Second Synchrony Primary ID,Second Synchrony Issued State,Second Synchrony Expiretion Date,Third Payment Balance,Third Authorize Number,Third Purchase Order Number,Third Synchrony Account Number,Third Synchrony Application Key,Third Synchrony Account Info,Third Synchrony Term,Third Synchrony Primary ID,Third Synchrony Issued State,Third Synchrony Expiretion Date
"Sam's Club #8243 Raymore, MO","Sam's Club #8243 Raymore, MO",Billy Shea,118299,6/25/2019 10:02:07 AM,Rick Moore,MO,64083,Relax 2 Zero 3D for Sam's,Demo (Box) Black[-700],Demo,1,281.27,3799.00,4080.27,Purchase Order,,,"3 years parts, 1 year labor (Free)","Relax 2 Zero 3D for Sam's,",No,,Scheduled,,,"Original received, Erika 6/25/19 4:20pm
6/27 (4:20pm)- Confirmed 7/23 9am-1:pm.-Karen",IL,0,9.23,DWA-9060DWA-9060BL-DEMO (Box),4080.27,,E9AC29807E197DE06,,,,,,,/,0.00,,,,,,,,,/,0.00,,,,,,,,,/
"Sam's Club #8243 Raymore, MO","Sam's Club #8243 Raymore, MO",Amit Bharam,118351,6/28/2019 7:20:31 AM,Illona Jeffers,MO,64034,Foot Vibe Pro,,New,1,10.15,109.99,120.14,Cash,,,"2 years parts, 1 year labor for Small Items","Foot Vibe Pro,",YES,,Delivered,,,,IL,0,9.23,USJ-871,119.00,,,,,,,,,/,0.00,,,,,,,,,/,0.00,,,,,,,,,/
"Sam's Club #8243 Raymore, MO","Sam's Club #8243 Raymore, MO",Amit Bharam,118352,6/28/2019 7:28:30 AM,Illona Jeffers,MO,64034,Shogun Neck & Back Massger,New,New,1,18.45,199.98,218.43,Purchase Order,,,"2 years parts, 1 year labor for Small Items","Shogun Neck &amp; Back Massger,",YES,,Delivered,,,"Customer bought two items, footvibe and Shogun",IL,0,9.23,USJ-874USJ-874,209.00,,426948638867491206556,,,,,,,/,0.00,,,,,,,,,/,0.00,,,,,,,,,/
"Sam's Club #8243 Raymore, MO","Sam's Club #8243 Raymore, MO",Amit Bharam,118353,6/28/2019 7:40:29 AM,Mona Smith,MO,64083,Foot Vibe Pro,,New,1,10.15,109.99,120.14,Purchase Order,,,"2 years parts, 1 year labor for Small Items","Foot Vibe Pro,",YES,,Delivered,,,,IL,0,9.23,USJ-871,120.00,,951779020973836692157,,,,,,,/,0.00,,,,,,,,,/,0.00,,,,,,,,,/
