﻿Original Event Name,Event Name,Sales Person,Order Number,Order Date,Customer Name,State,Zip,Product Name,Color,Product Status,QTY,Tax,Total Before Tax,Order Total,Primary Payment Method,Second Payment Method,Thirdl Payment Method,Warranty,Order Items,Pick up,Delivered On,Order Status,Chair Type,Order Notes,Private Note,Branch,No Tax,Actual Tax Rate,SKU,Primary Payment Balance,Primary Authorize Number,Primary Purchase Order Number,Primary Synchrony Account Number,Primary Synchrony Application Key,Primary Synchrony Account Info,Primary Synchrony Term,Second Payment Balance,Second Authorize Number,Second Purchase Order Number,Second Synchrony Account Number,Second Synchrony Application Key,Second Synchrony Account Info,Second SynchronyTerm,Third Payment Balance,Third Authorize Number,Third Purchase Order Number,Third Synchrony Account Number,Third Synchrony Application Key,Third Synchrony Account Info,Third Synchrony Term
HOUSTON HM SHOW 2/9 -2/11(TX),HOUSTON HM SHOW 2/9 -2/11(TX),Keith Kei,103640,2/11/2018 11:14:07 PM,Phyllis Kay Young,TX,77008,Pegasus,Black,New,1,323.90,4676.10,5000.00,CreditCard,,,"3 years parts, 1 year labor (Free)","Pegasus,",No,3/1/2018 12:00:00 AM,Delivered,,,"confirmed $5,000 in Square. 2/12/18 Hitomi",TX,0,8.25,DWA-9400Pegasus-BL,5000.00,Square Receipt # II71 Auth code: 02996D,,,,,,0.00,,,,,,,0.00,,,,,,
HOUSTON HM SHOW 2/9 -2/11(TX),HOUSTON HM SHOW 2/9 -2/11(TX),Keith Kei,103641,2/11/2018 11:27:11 PM,Kevin Chan Vilaiya,TX,77038,Legacy 3D,Choco Brown,New,1,217.21,3382.79,3600.00,Synchrony,,,"3 years parts, 1 year labor (Free)","Legacy 3D,",No,2/19/2018 12:00:00 AM,Delivered,,"Invoice # 3
Paid with Synchrony 36 months 0% interest rate.
Please process the sales on synchrony.","confirmed the account in Synchrony.($6,500) *Please charge before delivery.* 2/12/18 Hitomi",TX,0,8.25,DWA-9150USJ-9150CH,3600.00,,,6034610083091655,84770795,Huston,36 months,0.00,,,,,,,0.00,,,,,,
HOUSTON HM SHOW 2/9 -2/11(TX),HOUSTON HM SHOW 2/9 -2/11(TX),Keith Kei,103642,2/11/2018 11:34:46 PM,Houa Scott Xaiyavong,TX,77066,Legacy 3D,Choco Brown,New,1,217.21,3382.79,3600.00,Synchrony,,,"3 years parts, 1 year labor (Free)","Legacy 3D,",No,2/19/2018 12:00:00 AM,Delivered,,"Invoice #4
Paid with Synchrony 36 months 0% interest rate.","confirmed the account in Synchrony. ($8,500) *Please charge before delivery.* 2/12/18Hitomi",TX,0,8.25,DWA-9150USJ-9150CH,3600.00,,,6034610083091705,84771200,Huston,36 months,0.00,,,,,,,0.00,,,,,,
HOUSTON HM SHOW 2/9 -2/11(TX),HOUSTON HM SHOW 2/9 -2/11(TX),Phuoc Van,103664,2/12/2018 11:59:23 AM,Otha Johnson,TX,77523,Legacy 3D,Choco Brown,New,1,285.80,4214.20,4500.00,Synchrony,CreditCard,,"3 years parts, 1 year labor (Free)","Legacy 3D,",No,2/28/2018 12:00:00 AM,Delivered,,"Invoice #2
Gate Code 3123
Paid $300 deposit on March 28th 2015. Synchrony $4200 36 months zero interest rate.
Remaining Balance: $0.","Paid $300 deposit on March 28th 2015. Merchant ID: 000000001555386. Terminal ID: 04062961. Invoice #: 3100002. Batch # 000310. Approval Code: 490640.
The sale on Synchrony order had already been processed, for further information regarding the process of the order please contact sales person Phuoc Van (979)571-0821.",TX,0,8.25,DWA-9150USJ-9150CH,4200.00,,,6034610083090228,84741790,Huston,36 months,300.00,Approval Code 490640,,,,,,0.00,,,,,,
HOUSTON HM SHOW 2/9 -2/11(TX),HOUSTON HM SHOW 2/9 -2/11(TX),Yichuang (Debbie) Yang,103668,2/12/2018 12:36:47 PM,Joe Lucas,TX,77084,Legacy 3D,Demo Choco Brown,Demo,1,247.69,3752.31,4000.00,CreditCard,,,"3 years parts, 1 year labor (Free)","Legacy 3D,",No,3/14/2018 12:00:00 AM,Delivered,,"Invoice # 5
Paid in full.
Remaining balance $0.00
HOLD the order for 4 months and call before delivering, or wait until customer inform us for delivery.","Confirmed $4,000 in Square. 3/9/18 Hitomi
customer called to change color from Choco to Black. 3/12/2018",TX,0,8.25,DWA-9150USJ-9150CH-DEMO,4000.00,Square Receipt # 7MLn,,,,,,0.00,,,,,,,0.00,,,,,,
HOUSTON HM SHOW 2/9 -2/11(TX),HOUSTON HM SHOW 2/9 -2/11(TX),KHOA H,103670,2/12/2018 12:46:56 PM,Tina Green,TX,77433,Relax2Zero 3D,Choco Brown,New,1,247.69,3752.31,4000.00,CreditCard,CreditCard,,"3 years parts, 3 years labor ($400)","Relax2Zero 3D,",No,2/19/2018 12:00:00 AM,Delivered,,"Invoice # 6
Paid $1000 through Square.
Remaining balance $3000 COD.","The order had 3 years in home service, please contact sales person Khoa H (714)989-9331 for detail.
confirmed $1,000 in Square. 2/12/18 Hitomi
Square #001F - $3000 2/23/218 June
CONFIRMED COD CORRECT RECEIPT#430434 IN WELLS FARGO DEBIT. 3/15/18 HITOMI",TX,0,8.25,DWA-9060USJ-9060BR,1000.00,Square Receipt # HcV9,,,,,,3000.00,430434,,,,,,0.00,,,,,,
HOUSTON HM SHOW 2/9 -2/11(TX),HOUSTON HM SHOW 2/9 -2/11(TX),Xiongxiaojun Ji,103672,2/12/2018 1:24:27 PM,Patrick Kuh Lman,TX,77388,Pegasus,Black,New,1,314.09,4557.16,4871.25,Synchrony,,,"3 years parts, 1 year labor (Free)","Pegasus,",No,2/15/2018 12:00:00 AM,Delivered,,"Invoice # 7
Synchrony 36 months zero interest rate. please process the sales on synchrony.
Remaining balance $0.00","confirmed the account in Synchrony.($8,500) *Please charge before delivery.* 2/12/18 Hitomi
auth # 014529 2/23/2018 June",TX,0,8.25,DWA-9400Pegasus-BL,4871.25,,,6034610083092116,84777451,Huston,36 months,0.00,,,,,,,0.00,,,,,,
HOUSTON HM SHOW 2/9 -2/11(TX),HOUSTON HM SHOW 2/9 -2/11(TX),Phuoc Van,103675,2/12/2018 1:34:13 PM,Ron Ellis,TX,77388,Legacy 3D,Black,New,1,240.07,3659.93,3900.00,CreditCard,CreditCard,,"3 years parts, 1 year labor (Free)","Legacy 3D,",No,2/19/2018 12:00:00 AM,Delivered,,"Invoice # 8
Paid full with 2 credit card transaction.
$2500 Square Receipt # Mix7
$1400 Square Receipt # 2QpY","confirmed $2,500&$1,400 in Square. 2/12/18 Hitomi",TX,0,8.25,DWA-9150USJ-9150BL,2500.00,Square # Mix7,,,,,,1400.00,Square # 2QpY,,,,,,0.00,,,,,,
HOUSTON HM SHOW 2/9 -2/11(TX),HOUSTON HM SHOW 2/9 -2/11(TX),Phuoc Van,103677,2/12/2018 2:07:29 PM,Kelley Segovia,TX,77418,Legacy 3D,Choco Brown,New,1,240.07,3659.93,3900.00,Synchrony,,,"3 years parts, 1 year labor (Free)","Legacy 3D,",No,2/15/2018 12:00:00 AM,Delivered,,"Invoice # 9
Paid with Synchrony 36 months zero interest rate.
please process the sales on synchrony.","confirmed the account in Synchrony. (6,500)*Please charge before delivery.* 2/12/18 Hitomi
auth # 014963 2/23/2018 June cleared for 3900-06/13/18 stephany",TX,0,8.25,DWA-9150USJ-9150CH,3900.00,,,6034610083092935,84786290,Huston,36 months,0.00,,,,,,,0.00,,,,,,
HOUSTON HM SHOW 2/9 -2/11(TX),HOUSTON HM SHOW 2/9 -2/11(TX),Yichuang (Debbie) Yang,103679,2/12/2018 2:16:25 PM,Steven Paul Wolfe,TX,77386,Relax2Zero 3D,Demo Black,Demo,1,272.84,4057.16,4330.00,Synchrony,,,"3 years parts, 1 year labor (Free)","Relax2Zero 3D,",No,3/22/2018 12:00:00 AM,Delivered,,"Invoice # 10
Paid with Synchrony 36 months zero interest rate.
Please process sales on Synchrony.
Remaining Balance $0.00.
Primary Contact # 8325358802 Daisy.","Confirmed the account (approved $6500) in Synchrony TX. 2/12/18 Riho
*Please charge $4330 before delivery*
auth # 014955 2/23/2018 June
RECEIVED DELIVERY CONFIRMATION. DELIVERED ON 2/15/18.S/N:96160534D .3/22/18 Hitomi",TX,0,8.25,DWA-9060USJ-9060BL-DEMO,4330.00,,,6034610083092968,84786781,Huston,36 months,0.00,,,,,,,0.00,,,,,,
HOUSTON HM SHOW 2/9 -2/11(TX),HOUSTON HM SHOW 2/9 -2/11(TX),Yichuang (Debbie) Yang,103680,2/12/2018 2:30:02 PM,John T Myers,TX,77377,Relax2Zero 3D,Demo Black,Demo,1,272.84,4057.16,4330.00,Synchrony,,,"3 years parts, 1 year labor (Free)","Relax2Zero 3D,",No,2/15/2018 12:00:00 AM,Delivered,,"Invoice # 11
Paid with Synchrony 36 months zero interest rate.
please process the sales on synchrony.
Remaining balance $0.00.","Confirmed the account (approved $8500) in Synchrony TX. 2/12/18 Riho
*Please charge $4330 before delivery*
auth # 014782 2/23/218 June",TX,0,8.25,DWA-9060USJ-9060BL-DEMO,4330.00,,,6034610083093446,84792756,Huston,36 months,0.00,,,,,,,0.00,,,,,,
HOUSTON HM SHOW 2/9 -2/11(TX),HOUSTON HM SHOW 2/9 -2/11(TX),Keith Kei,103681,2/12/2018 2:36:01 PM,Henry Chen,TX,77051,Pegasus,Black,New,1,323.90,4676.10,5000.00,Cash,CreditCard,,"3 years parts, 1 year labor (Free)","Pegasus,",No,2/26/2018 12:00:00 AM,Delivered,,"Invoice # 12
Paid in full with $4300 cash
$700 Credit card.
Remaining balance $0.00.","$4300 cash received by Keith Kei, will be given to Mario Higareda.
confirmed $700 in Square and Mario will receive the cash next week. 2/13/18 Hitomi
$4300 cash was received by Mario. 2/26/18 Hitomi",TX,0,8.25,DWA-9400Pegasus-BL,4300.00,,,,,,,700.00,Square Receipt # 8YN4,,,,,,0.00,,,,,,
HOUSTON HM SHOW 2/9 -2/11(TX),HOUSTON HM SHOW 2/9 -2/11(TX),KHOA H,103682,2/12/2018 2:40:44 PM,Nicole Elder,TX,77401,Relax2Zero 3D,Choco Brown,New,1,285.80,4214.20,4500.00,CreditCard,,,"3 years parts, 1 year labor (Free)","Relax2Zero 3D,",No,2/20/2018 12:00:00 AM,Delivered,,"Invoice # 13
Paid in full with credit card.
remaining balance $0.00.",Confirmed $4500 in Square. 2/12/18 Riho,TX,0,8.25,DWA-9060USJ-9060BR,4500.00,Square Receipt # TMCe,,,,,,0.00,,,,,,,0.00,,,,,,
HOUSTON HM SHOW 2/9 -2/11(TX),HOUSTON HM SHOW 2/9 -2/11(TX),KHOA H,103683,2/12/2018 2:46:11 PM,Kim Sims,TX,77535,Relax2Zero 3D,Demo Choco Brown,Demo,1,247.69,3752.31,4000.00,Synchrony,,,"3 years parts, 1 year labor (Free)","Relax2Zero 3D,",No,2/15/2018 12:00:00 AM,Delivered,,"Invoice #14
Remaining balance $0.00.
Paid with Synchrony 36 months zero interest rate.
Please process the sales on Synchrony.","Confirmed the accont (Approved $4200) in Synchrony TX. 2/12/18 Riho
*Please charge $4000 upon delivery*
auth #: 014219 2/23/2018 June",TX,0,8.25,DWA-9060USJ-9060BR-DEMO,4000.00,,,6034610083095219,84820023,Huston,36 months,0.00,,,,,,,0.00,,,,,,
