﻿Order Number,Order Date,Event Name,Salesperson,SKU,Product Name,Color,QTY,Warranty,Payment Details,Tax,Order Total,Gross,Primary Payment Method,Primary Payment Balance,Primary Authorize Number,Primary Purchase Order Number,Primary Synchrony Account Number,Primary Synchrony Application Key,Primary Synchrony AccountInfo,Primary SynchronyTerm,Secondly Payment Method,Secondly Payment Balance,Secondly Authorize Number,Secondly Purchase Order Number,Secondly Synchrony Account Number,Secondly Synchrony Application Key,Secondly Synchrony AccountInfo,Secondly SynchronyTerm,Thirdly Payment Method,Thirdly Payment Balance,Thirdly Authorize Number,Thirdly Purchase Order Number,Thirdly Synchrony Account Number,Thirdly Synchrony Application Key,Thirdly Synchrony AccountInfo,Thirdly SynchronyTerm,Actual Shipping Cost,CustomerName,Shipping Address,Delivered On,Serial Number (TO Be),Note,Branch,IsNoTax,ActualTaxRate
103906,2/22/2018 12:12:19 PM,Raleigh Home Show 2/23-25/18 (FL),Alex Brackelsberg,USJ-9050USJ-9050BL,Relax2Zero 2.0,New Black,1,"3 years parts, 1 year labor (Free)",CUSTOM CreditCard,232.00,3432.00,3432.00,CreditCard,1716.00,R5gL,,,,,,CreditCard,1716.00,rkwP,,,,,,,0.00,,,,,,,0.00,Brian Bernard,9543258199,,,,FL,0,7.25
103919,2/23/2018 11:31:07 AM,Raleigh Home Show 2/23-25/18 (FL),Robert Shih,DWA-9150USJ-9150BL,Legacy 3D,New Black,1,"3 years parts, 1 year labor (Free)",CUSTOM ,293.63,5093.63,5093.63,Synchrony,5093.63,,,6034610083117674,85383714,Las Vegas,36 months,,0.00,,,,,,,,0.00,,,,,,,0.00,Karl Bernat,7243160214,,,Thank you very much for your business with us in Raleigh NC Home Show / Synchrony 36 months with 0% APR,FL,0,7.25
103929,2/24/2018 6:56:15 AM,Raleigh Home Show 2/23-25/18 (FL),Mitch Valdes,DWA-9400Pegasus-BL-DEMO,Pegasus,Demo Black,1,"3 years parts, 1 year labor (Free)",CUSTOM ,0.00,4900.00,4900.00,CreditCard,4900.00,Square# PjZ2,,,,,,,0.00,,,,,,,,0.00,,,,,,,0.00,Tim Dumas,9193252888,2/23/2018 12:00:00 AM,,Thank you very much for your business with us in Raleigh NC home show.,FL,1,7.25
103930,2/24/2018 7:04:44 AM,Raleigh Home Show 2/23-25/18 (FL),Robert Shih,DWA-9150USJ-9150BL-DEMO,Legacy 3D,Demo Black,1,"3 years parts, 1 year labor (Free)",CUSTOM ,228.38,4128.38,4128.38,PurchaseOrder,0.00,,,,,,,,0.00,,,,,,,,0.00,,,,,,,,Nathaniel Lorenzo,9193353528,,,Thank you very much for your business with us in Raleigh NC Home Show .,Not Dispatched,0,7.25
103931,2/24/2018 7:13:30 AM,Raleigh Home Show 2/23-25/18 (FL),Robert Shih,DWA-9150USJ-9150BL-DEMO,Legacy 3D,Demo Black,1,"3 years parts, 1 year labor (Free)",CUSTOM ,228.35,4128.00,4128.00,CreditCard,4128.00,Square# 806T,,,,,,,0.00,,,,,,,,0.00,,,,,,,0.00,Gary Campbell,6107373188,2/26/2018 12:00:00 AM,,Thank you very much for your business with us in Raleigh NC Home Show / Third floor deliver,FL,0,7.25
103949,2/25/2018 7:33:39 AM,Raleigh Home Show 2/23-25/18 (FL),Alex Brackelsberg,DWA-9060USJ-9060BL,Relax2Zero 3D,New Black,1,"3 years parts, 1 year labor (Free)",CUSTOM ,0.00,3800.00,3800.00,CreditCard,3800.00,Square # xHjh,,,,,,,0.00,,,,,,,,0.00,,,,,,,0.00,Mike Verian,9192156850,,,"Thank you very much for your business with us in Raleigh NC Home Show / Moving issue , Please on hold the deliver to May 25th , customer will provides new address on scheduling .",FL,1,7.25
103950,2/25/2018 7:51:37 AM,Raleigh Home Show 2/23-25/18 (FL),Alex Brackelsberg,DWA-9150USJ-9150BL,Legacy 3D,New Black,1,"3 years parts, 1 year labor (Free)",CUSTOM ,228.38,4128.38,4128.38,Synchrony,4128.38,,,6034610083120256,65437616,Huston,36 months,,0.00,,,,,,,,0.00,,,,,,,0.00,Cecil Strickland,9195393407,,,Thank you very much for your business with us in Raleigh NC Home Show / Synchrony 36 months 0%APR,FL,0,7.25
103951,2/25/2018 7:57:02 AM,Raleigh Home Show 2/23-25/18 (FL),Mitch Valdes,DWA-9400Pegasus-BL,Pegasus,New Black,1,"3 years parts, 1 year labor (Free)",CUSTOM ,0.00,5800.00,5800.00,Synchrony,5800.00,,,6034610083121023,85447244,Las Vegas,24 months,,0.00,,,,,,,,0.00,,,,,,,0.00,Milton White,7132081958,,,Thank you very much for your business with us in Raleigh NC Home Show / Synchrony 24 months with 0% APR,FL,1,7.25
103952,2/25/2018 8:05:21 AM,Raleigh Home Show 2/23-25/18 (FL),Mitch Valdes,DWA-9150USJ-9150BL-DEMO,Legacy 3D,Demo Black,1,"3 years parts, 1 year labor (Free)",CUSTOM ,0.00,3900.00,3900.00,CreditCard,3900.00,Square# lFsV,,,,,,,0.00,,,,,,,,0.00,,,,,,,0.00,Mike Moore,9198868761,2/25/2018 12:00:00 AM,,,FL,1,7.25
103953,2/25/2018 8:13:14 AM,Raleigh Home Show 2/23-25/18 (FL),Robert Shih,DWA-9150USJ-9150BL,Legacy 3D,New Black,1,"3 years parts, 1 year labor (Free)",CUSTOM ,0.00,3900.00,3900.00,CreditCard,50.00,Square# xQOP,,,,,,,0.00,,,,,,,,0.00,,,,,,,,Turner M. Slade,2523266740,,,"Thank you very much for your business with us in Raleigh NC Home Show / Please on hold the deliver,  customer will applying layaway later. / Deposited $50 , COD $1,950 , Layaway $1,900 12 months with 0% APR",Not Dispatched,1,7.25
103954,2/25/2018 8:20:11 AM,Raleigh Home Show 2/23-25/18 (FL),Robert Shih,DWA-9150USJ-9150BL,Legacy 3D,New Black,1,"3 years parts, 1 year labor (Free)",CUSTOM ,0.00,3900.00,3900.00,Synchrony,3900.00,,,6034610083121486,85453100,Las Vegas,36 months,,0.00,,,,,,,,0.00,,,,,,,0.00,Ron Faircloth,9102141159,,,Thank you very much for your business with us in Raleigh NC Home Show / Synchrony 36 months with 0% APR / Blanket has been picked up in the show.,FL,1,7.25
103954,2/25/2018 8:20:11 AM,Raleigh Home Show 2/23-25/18 (FL),Robert Shih,,Daiwa Blanket,,1,no warranty,CUSTOM ,0.00,3900.00,3900.00,Synchrony,3900.00,,,6034610083121486,85453100,Las Vegas,36 months,,0.00,,,,,,,,0.00,,,,,,,0.00,Ron Faircloth,9102141159,,,Thank you very much for your business with us in Raleigh NC Home Show / Synchrony 36 months with 0% APR / Blanket has been picked up in the show.,FL,1,7.25
103955,2/25/2018 8:25:45 AM,Raleigh Home Show 2/23-25/18 (FL),Robert Shih,DWA-9060USJ-9060BL,Relax2Zero 3D,New Black,1,"3 years parts, 1 year labor (Free)",CUSTOM ,293.63,5093.63,5093.63,PurchaseOrder,0.00,,,,,,,,0.00,,,,,,,,0.00,,,,,,,,Nicole A. Tillery,9192253123,,,"Thank you very much for your business with us in Raleigh NC Home Show / Please on hold the order till March, customer will applying for Synchrony 36 months 0% APR",Not Dispatched,0,7.25
103972,2/25/2018 6:12:57 PM,Raleigh Home Show 2/23-25/18 (FL),Robert Shih,DWA-9100DWA-9100BL,Legacy,New Black,1,"3 years parts, 1 year labor (Free)",CUSTOM ,0.00,3600.00,3600.00,Synchrony,3600.00,,,6034610083122518,85473152,Las Vegas,36 months,,0.00,,,,,,,,0.00,,,,,,,0.00,Richard Pulliam,4342229136,,,Thank you very much for your business with us in Raleigh NC Home Show / Synchrony 36 months 0% APR,FL,1,7.25
103973,2/25/2018 6:20:34 PM,Raleigh Home Show 2/23-25/18 (FL),Robert Shih,DWA-9150USJ-9150BL,Legacy 3D,New Black,1,"3 years parts, 1 year labor (Free)",CUSTOM ,293.63,5093.63,5093.63,PurchaseOrder,0.00,,,,,,,,0.00,,,,,,,,0.00,,,,,,,,Dwight O. Neely,9109776472,,,"Thank you very much for your business with us in Raleigh NC Home Show / Please on hold the order to April, customer will applying Synchrony 36 months with 0% APR.",Not Dispatched,0,7.25
103974,2/25/2018 6:27:10 PM,Raleigh Home Show 2/23-25/18 (FL),Robert Shih,DWA-9150USJ-9150BL,Legacy 3D,New Black,1,"3 years parts, 1 year labor (Free)",CUSTOM ,257.38,4557.38,4557.38,Synchrony,4557.38,,,6034610083123730,85488320,Las Vegas,36 months,,0.00,,,,,,,,0.00,,,,,,,0.00,Matthew R. Thompson,9196073205,,,Thank you very much for your business with us in Raleigh NC Home Show / Synchrony 36 months with 0% APR / Second floor deliver,FL,0,7.25
103975,2/25/2018 6:33:35 PM,Raleigh Home Show 2/23-25/18 (FL),Alex Brackelsberg,USJ-9050USJ-9050BE-DEMO,Relax2Zero 2.0,Demo Beige,1,"2 years parts, 1 year labor (Small Items)",CUSTOM ,0.00,3000.00,3000.00,CreditCard,3000.00,Square# nHZy,,,,,,,0.00,,,,,,,,0.00,,,,,,,0.00,Amanda Neal,9193021742,2/26/2018 12:00:00 AM,,Thank you very much for your business with us in Raleigh NC Home Show.,FL,1,7.25
103978,2/25/2018 8:52:12 PM,Raleigh Home Show 2/23-25/18 (FL),Alex Brackelsberg,DWA-9060USJ-9060BR-DEMO,Relax2Zero 3D,Demo Choco,1,"3 years parts, 1 year labor (Free)",CUSTOM ,228.35,4128.00,4128.00,CreditCard,4128.00,Square# KiiG,,,,,,,0.00,,,,,,,,0.00,,,,,,,0.00,Jereny Skates,4065813295,2/25/2018 12:00:00 AM,,Thank you very much for your business with us in Raleigh NC Home Show.,FL,0,7.25
103979,2/25/2018 8:59:16 PM,Raleigh Home Show 2/23-25/18 (FL),Mitch Valdes,DWA-9400Pegasus-BL-DEMO,Pegasus,Demo Black,1,"3 years parts, 1 year labor (Free)",CUSTOM ,271.88,4771.88,4771.88,Synchrony,4500.00,,,6034610083122559,85473877,Las Vegas,24 months,,0.00,,,,,,,,0.00,,,,,,,0.00,Jackie D'Ercole,9192011988,2/25/2018 12:00:00 AM,,Thank you very much for your business with us in Raleigh NC Home Show / Synchrony 24 months with 0% APR .,FL,0,7.25
