﻿Date,CustomerName,State,Zipcode,Description,productNo,Color,IsDemo,Net,ShippingFee,GiftPrice,FinancingProcessingFee,Gross,Pre_tax,Tax,Commission,Primary Payment Method,Primary Payment Balance,Primary Authorize Number,Primary Purchase Order Number,Primary Synchrony Account Number,Primary Synchrony Application Key,Primary Synchrony AccountInfo,Primary SynchronyTerm,Secondly Payment Method,Secondly Payment Balance,Secondly Authorize Number,Secondly Purchase Order Number,Secondly Synchrony Account Number,Secondly Synchrony Application Key,Secondly Synchrony AccountInfo,Secondly SynchronyTerm,Thirdly Payment Method,Thirdly Payment Balance,Thirdly Authorize Number,Thirdly Purchase Order Number,Thirdly Synchrony Account Number,Thirdly Synchrony Application Key,Thirdly Synchrony AccountInfo,Thirdly SynchronyTerm,DeliveryDate,Ispickup,Warranty,Status,Event Name,Synchrony Notes,Order Notes,Order number,Private Note,Branch,IsNoTax,ActualTaxRate
9/28/2017 3:47:24 PM,SHARON VAN DER WALDE,MI,48105,Legacy,DWA-9100DWA-9100CH,Choco Brown,New,,,,,3497.70,3330.00,167.70,Ruben Cuatrona,,3500.00,03928D,,,,,,,,,,,,,,,,,,,,,,10/15/2017 12:00:00 AM,No,"3 years parts, 1 year labor (Free)",Delivered,IAAPA ORLANDO (FOLLOW UP),,"Deliver Asap.
Ruben offered $3500.00.",100947,Confirmed the payment $3500.00 at WF. 9/28/17 Riho,TX,,
