﻿Date,CustomerName,State,Zipcode,Description,productNo,Color,Product Status,Net,ShippingFee,GiftPrice,FinancingProcessingFee,Order Total,Pre_tax,Tax,Commission,Primary Payment Method,Primary Payment Balance,Primary Authorize Number,Primary Purchase Order Number,Primary Synchrony Account Number,Primary Synchrony Application Key,Primary Synchrony AccountInfo,Primary SynchronyTerm,Secondly Payment Method,Secondly Payment Balance,Secondly Authorize Number,Secondly Purchase Order Number,Secondly Synchrony Account Number,Secondly Synchrony Application Key,Secondly Synchrony AccountInfo,Secondly SynchronyTerm,Thirdly Payment Method,Thirdly Payment Balance,Thirdly Authorize Number,Thirdly Purchase Order Number,Thirdly Synchrony Account Number,Thirdly Synchrony Application Key,Thirdly Synchrony AccountInfo,Thirdly SynchronyTerm,DeliveryDate,Pick up,Warranty,Status,Original Event Name,Event Name,Synchrony Notes,Order Notes,Order number,Private Note,Branch,No Tax,ActualTaxRate
10/9/2018 8:18:53 AM,Douglas L Jr. Arnett,OK,73008,Relax2Zero 3D,DWA-9060USJ-9060BL,New Black,New,,,,,4422.88,4154.76,268.12,Keith Kei,Synchrony,4422.88,,,6019170813179279,95400633,Huston,36 months,,0.00,,,,,,,,0.00,,,,,,,,No,"5 years parts, 1 year labor (Free)",Scheduled,"Balloon Fiesta (10/6-10/14/2018) Albuquerque, NM","Balloon Fiesta (10/6-10/14/2018) Albuquerque, NM",,,110207,"Please help recycle old chair.//Confirmed SYNC($6,500) and original.***Please charge $4,422.88 before delivery and sales draft signed.*** 10/9/18 Hitomi",TX,0,7.88
10/9/2018 8:31:57 AM,Mila Stahl,AZ,86025,Orbit,ORBT-1ORBT-1BL,New Black,New,,,,,3451.20,3254.01,197.19,Mario Higareda,Synchrony,3451.20,,,6019170813177356,95366705,Huston,48 months,,0.00,,,,,,,,0.00,,,,,,,,No,"5 years parts, 1 year labor (Free)",Assigned,"Balloon Fiesta (10/6-10/14/2018) Albuquerque, NM","Balloon Fiesta (10/6-10/14/2018) Albuquerque, NM",,,110208,"Confirmed SYNC($6,500) and original.***Please charge $3,451.20 before delivery and sales draft signed.*** 10/9/18 Hitomi",NV,0,7.88
10/9/2018 8:40:03 AM,Mary Diane Ponce,TX,78414,Legacy 3D,DWA-9150USJ-9150CH,New Choco,New,,,,,4746.50,4454.75,291.75,Keith Kei,Synchrony,4746.50,,,6019170813174791,95324068,Huston,48 months,,0.00,,,,,,,,0.00,,,,,,,,No,"3 years parts, 1 year labor (Free)",Assigned,"Balloon Fiesta (10/6-10/14/2018) Albuquerque, NM","Balloon Fiesta (10/6-10/14/2018) Albuquerque, NM",,,110209,"Confirmed SYNC($8,500) and original. ***Please charge $4,746.50 before delivery and sales draft signed.*** 10/9/18 Hitomi",TX,0,7.88
10/9/2018 8:48:40 AM,Audrey Ana-Christina Garcia,CO,80260,PEGASUS 2 SMART,PEGS-2PEGS-2-BR-DEMO,Demo Choco,Demo,,,,,5285.88,4954.76,331.12,Mario Higareda,Synchrony,5285.88,,,6019170813174932,95326023,Huston,48 months,,0.00,,,,,,,,0.00,,,,,,,,No,"5 years parts, 1 year labor (Free)",Scheduled,"Balloon Fiesta (10/6-10/14/2018) Albuquerque, NM","Balloon Fiesta (10/6-10/14/2018) Albuquerque, NM",,,110211,"Confirmed SYNC($5,800)and original.***Please charge $5,285.88 before delivery and sales draft signed.*** 10/9/18 Hitomi",TX,0,7.88
10/9/2018 8:58:47 AM,Judy Goldman,NM,87124,Legacy 3D,DWA-9150USJ-9150CH,New Choco,New,,,,,4853.25,4553.71,299.54,Mario Higareda,Synchrony,4853.25,,,6019170813175236,95331880,Huston,48 months,,0.00,,,,,,,,0.00,,,,,,,,No,"5 years parts, 1 year labor (Free)",Scheduled,"Balloon Fiesta (10/6-10/14/2018) Albuquerque, NM","Balloon Fiesta (10/6-10/14/2018) Albuquerque, NM",,,110213,"Confirmed SYNC($8,500) and original.***Please charge $4,853.25 before delivery and sales draft signed.*** 10/9/18 Hitomi",TX,0,7.88
10/9/2018 9:07:50 AM,Ana Bueno,TX,78957,PEGASUS 2 SMART,PEGS-2PEGS-2-BR-DEMO,Demo Choco,Demo,,,,,4500.00,4500.00,0.00,Mario Higareda,CreditCard,438.00,Receipt #TSrD,,,,,,COD,4062.00,,,,,,,,0.00,,,,,,,,No,"5 years parts, 1 year labor (Free)",Assigned,"Balloon Fiesta (10/6-10/14/2018) Albuquerque, NM","Balloon Fiesta (10/6-10/14/2018) Albuquerque, NM",,,110214,"Confirmed $438.00 in Square. *COD $4,062.00* 10/9/18 Hitomi",TX,1,7.88
10/9/2018 9:11:10 AM,Sean D Williamson,NM,87114,Legacy 3D,DWA-9150USJ-9150CH,New Choco,New,,,,,4500.00,4500.00,0.00,Mario Higareda,Cash,300.00,,,,,,,COD,4200.00,,,,,,,,0.00,,,,,,,,No,"5 years parts, 1 year labor (Free)",Scheduled,"Balloon Fiesta (10/6-10/14/2018) Albuquerque, NM","Balloon Fiesta (10/6-10/14/2018) Albuquerque, NM",,,110215,"Mario received $300 cash. *COD$4,200*. 10/9/18 Hitomi",TX,1,7.88
10/9/2018 9:41:09 AM,Azure R Schmidt,MN,56081,Legacy 3D,DWA-9150USJ-9150CH-DEMO,Demo Choco,Demo,,,,,4421.85,4153.80,268.05,Mario Higareda,Synchrony,4421.85,,,6019170813177315,95362658,Huston,48 months,,0.00,,,,,,,,0.00,,,,,,,,No,"5 years parts, 1 year labor (Free)",Assigned,"Balloon Fiesta (10/6-10/14/2018) Albuquerque, NM","Balloon Fiesta (10/6-10/14/2018) Albuquerque, NM",,,110216,"Confirmed SYNC($5,400) and original.***Please charge $4,421.85 before delivery and sales draft signed.***  10/9/18 Hitomi",TX,0,7.88
10/9/2018 9:52:59 AM,Jeese L Stough,MO,65079,Legacy 3D,DWA-9150USJ-9150CH-DEMO,Demo Choco,Demo,,,,,4422.88,4154.76,268.12,Keith Kei,Synchrony,4422.88,,,6019170813179501,95412148,Huston,48 months,,0.00,,,,,,,,0.00,,,,,,,,No,"5 years parts, 1 year labor (Free)",Scheduled,"Balloon Fiesta (10/6-10/14/2018) Albuquerque, NM","Balloon Fiesta (10/6-10/14/2018) Albuquerque, NM",,,110217,"Confirmed SYNC($5,400) under JEESE STOUGH and original.***Please charge $4,422.88 before delivery and sales draft signed.***  10/9/18 Hitomi",TX,0,7.88
10/9/2018 9:57:13 AM,Wilima Dabrowski,WY,82636,Legacy 3D,DWA-9150USJ-9150CH,New Choco,New,,,,,5176.80,4853.64,323.16,Mario Higareda,Synchrony,5176.80,,,6019170813179568,95412899,Huston,48 months,,0.00,,,,,,,,0.00,,,,,,,,No,"5 years parts, 1 year labor (Free)",Scheduled,"Balloon Fiesta (10/6-10/14/2018) Albuquerque, NM","Balloon Fiesta (10/6-10/14/2018) Albuquerque, NM",,,110218,"Confirmed SYNC($8,500) under MICHAEL DABROWSKI and original.***Please charge $5,176.80 before delivery and have sales draft signed by MICHAEL DABROWSKI *** assigned to TX(talked to June, TX will take care of the delivery).  10/9/18 Hitomi",TX,0,7.88
10/9/2018 10:04:20 AM,Hazem Issa,MN,55075,Legacy 3D,DWA-9150USJ-9150CH,New Choco,New,,,,,5178.00,4854.75,323.25,Mario Higareda,Synchrony,5178.00,,,6019170813179584,95413231,Huston,48 months,,0.00,,,,,,,,0.00,,,,,,,,No,"5 years parts, 1 year labor (Free)",Cancelled,"Balloon Fiesta (10/6-10/14/2018) Albuquerque, NM","Balloon Fiesta (10/6-10/14/2018) Albuquerque, NM",,,110219,"Confirmed SYNC($8,500) and original.***Please charge $5,178 before delivery and sales draft signed.*** 10/9/18 Hitomi",TX,0,7.88
10/9/2018 10:11:07 AM,Donna Niederkehr,MN,55410,PEGASUS 2 SMART,PEGS-2PEGS-2-BL,New Black,New,,,,,6255.30,5853.41,401.89,Mario Higareda,CreditCard,109.50,SqNd,,,,,,COD,6145.80,,,,,,,,0.00,,,,,,,,No,"5 years parts, 1 year labor (Free)",Assigned,"Balloon Fiesta (10/6-10/14/2018) Albuquerque, NM","Balloon Fiesta (10/6-10/14/2018) Albuquerque, NM",,,110220,"Confirmed $109.50 in Square. *COD $6,145.80* PLEASE CONFIRM CHAIR COLOR . 10/9/18 Hitomi
10/15/18-Courtesy call completed - customer mentioned she wanted her delivery in november/december 1:57 pm",TX,0,7.88
10/10/2018 8:31:56 AM,Lionel Chaltiel,NM,87108,Legacy 3D,DWA-9150USJ-9150BL,New Black,New,,,,,5178.00,4854.75,323.25,Xiongxiaojun Ji,CreditCard,5178.00,dlmo,,,,,,,0.00,,,,,,,,0.00,,,,,,,,No,"5 years parts, 1 year labor (Free)",Scheduled,"Balloon Fiesta (10/6-10/14/2018) Albuquerque, NM","Balloon Fiesta (10/6-10/14/2018) Albuquerque, NM",,,110238,"Confirmed $5,178.00 in Square. 10/10/18 Hitomi",TX,0,7.88
10/10/2018 8:37:06 AM,Dana Gyiffin,FL,32570,Legacy 3D,DWA-9150USJ-9150CH-DEMO,Demo Choco,Demo,,,,,3900.00,3900.00,0.00,Keith Kei,CreditCard,3900.00,6i6q,,,,,,,0.00,,,,,,,,0.00,,,,,,,,No,"5 years parts, 1 year labor (Free)",Assigned,"Balloon Fiesta (10/6-10/14/2018) Albuquerque, NM","Balloon Fiesta (10/6-10/14/2018) Albuquerque, NM",,,110239,"CC Josefina - 10/12/18 11:00am VM // MQ t.t. 1pm -would like asap, told her to expect week of 10/22
Confirmed $3,900.00 in Square. 10/10/18 Hitomi",FL,1,7.88
10/10/2018 4:20:45 PM,Hazem Issa,MN,55075,Legacy 3D,DWA-9150USJ-9150CH,New Choco,New,,,,,5178.00,5178.00,0.00,Mario Higareda,Synchrony,5178.00,,,6019170813179584,95413231,Huston,48 months,,0.00,,,,,,,,0.00,,,,,,,,No,"5 years parts, 1 year labor (Free)",Called,"Balloon Fiesta (10/6-10/14/2018) Albuquerque, NM","Balloon Fiesta (10/6-10/14/2018) Albuquerque, NM",,"Customer offered sale at $4,800 plus Tax $378.00  (Free White Glove Delivery) (Free Extended warranty 5 yrs parts 1 yr labor)",110244,Linked to order # 110219,TX,1,7.88
10/15/2018 8:25:02 AM,William Gazza,NV,89123,PEGASUS 2 SMART,PEGS-2PEGS-2-BR,New Choco,New,,,,,4800.00,4800.00,0.00,Mario Higareda,CreditCard,4800.00,Receipt #Dxzt,,,,,,,0.00,,,,,,,,0.00,,,,,,,,No,"5 years parts, 1 year labor (Free)",Assigned,"Balloon Fiesta (10/6-10/14/2018) Albuquerque, NM","Balloon Fiesta (10/6-10/14/2018) Albuquerque, NM",,,110345,"will confirm SQ# 10/15/18 Hitomi//Confirmed $4,800 (Receipt #Dxzt) in Square. 10/16/18 Hitomi",NV,1,7.88
10/15/2018 8:25:02 AM,William Gazza,NV,89123,Chair Pad for Pegasus,,,New,,,,,4800.00,4800.00,0.00,Mario Higareda,CreditCard,4800.00,Receipt #Dxzt,,,,,,,0.00,,,,,,,,0.00,,,,,,,,No,No Warranty,Assigned,"Balloon Fiesta (10/6-10/14/2018) Albuquerque, NM","Balloon Fiesta (10/6-10/14/2018) Albuquerque, NM",,,110345,"will confirm SQ# 10/15/18 Hitomi//Confirmed $4,800 (Receipt #Dxzt) in Square. 10/16/18 Hitomi",NV,1,7.88
10/15/2018 8:33:07 AM,Manuel Sanchez,NM,87114,Orbit,ORBT-1ORBT-1CH-DEMO,Demo Choco,Demo,,,,,2912.62,2912.62,0.00,Xiongxiaojun Ji,Synchrony,2912.62,,,6019170813189229,95663220,Huston,24 months,,0.00,,,,,,,,0.00,,,,,,,,No,"5 years parts, 1 year labor (Free)",New,"Balloon Fiesta (10/6-10/14/2018) Albuquerque, NM","Balloon Fiesta (10/6-10/14/2018) Albuquerque, NM",,,110347,"Confirmed SYNC($6,000) and original.***Please charge $2,912.62 before delivery and sales draft signed.***10/16/18 Hitomi",TX,1,7.88
10/15/2018 8:38:50 AM,Eric Donman,NH,03841,PEGASUS 2 SMART,PEGS-2PEGS-2-BR,New Choco,New,,,,,5500.00,5500.00,0.00,Keith Kei,CreditCard,5500.00,3BQA,,,,,,,0.00,,,,,,,,0.00,,,,,,,,No,"5 years parts, 1 year labor (Free)",Assigned,"Balloon Fiesta (10/6-10/14/2018) Albuquerque, NM","Balloon Fiesta (10/6-10/14/2018) Albuquerque, NM",,,110348,"Confirmed $5,500 in Square. 10/15/18 Hitomi
10/15/18- Cristina- Courtesy call completed- 1:50 pm",TX,1,7.88
10/15/2018 9:14:22 AM,Joan Foglia,FL,34786,Legacy 3D,DWA-9150USJ-9150CH,New Choco,New,,,,,3800.00,3577.35,222.65,Keith Kei,CreditCard,3800.00,X0Mn,,,,,,,0.00,,,,,,,,0.00,,,,,,,,No,"5 years parts, 1 year labor (Free)",Scheduled,"Balloon Fiesta (10/6-10/14/2018) Albuquerque, NM","Balloon Fiesta (10/6-10/14/2018) Albuquerque, NM",,,110354,"Confirmed $3,800 in Square. 10/15/18 Hitomi
10/15Maritza Courtesy messages sent to both numbers @1:03PM",FL,0,7.88
