﻿Date,CustomerName,State,Zipcode,Description,productNo,Color,IsDemo,Net,ShippingFee,GiftPrice,FinancingProcessingFee,Gross,Pre_tax,Tax,Commission,Primary Payment Method,Primary Payment Balance,Primary Authorize Number,Primary Purchase Order Number,Primary Synchrony Account Number,Primary Synchrony Application Key,Primary Synchrony AccountInfo,Primary SynchronyTerm,Secondly Payment Method,Secondly Payment Balance,Secondly Authorize Number,Secondly Purchase Order Number,Secondly Synchrony Account Number,Secondly Synchrony Application Key,Secondly Synchrony AccountInfo,Secondly SynchronyTerm,Thirdly Payment Method,Thirdly Payment Balance,Thirdly Authorize Number,Thirdly Purchase Order Number,Thirdly Synchrony Account Number,Thirdly Synchrony Application Key,Thirdly Synchrony AccountInfo,Thirdly SynchronyTerm,DeliveryDate,Ispickup,Warranty,Status,Event Name,Synchrony Notes,Order Notes,Order number,Private Note,Branch,IsNoTax,ActualTaxRate
11/30/2017 4:39:08 PM,Luis Navarro,TX,79830,Relax2Zero 2.0 for Sam's,USJ-9050USJ-9050BL,Black,New,,,,,3462.92,3199.00,263.92,Chris Tavira,,3462.92,E3EDB11E17A45679,,,,,,,,,,,,,,,,,,,,,,12/13/2017 12:00:00 AM,No,"3 years parts, 1 year labor (Free)",Delivered,"Sam's Club #6439 Odessa, TX 11/30-12/10/17 (TX)",,,102201,Invoice #20625,TX,0,8.25
12/1/2017 10:31:59 AM,Olga Acosta,TX,79762,Ninja Leg Massager,,,New,,,,,410.27,379.00,31.27,Chris Tavira,Cash,410.27,,,,,,,,0.00,,,,,,,,0.00,,,,,,,,YES,"2 years parts, 1 year labor (Small Items)",Delivered,"Sam's Club #6439 Odessa, TX 11/30-12/10/17 (TX)",,,102217,Invoice #20626,TX,0,8.25
12/5/2017 4:59:36 PM,Veronica Campos,TX,79772,Ninja Leg Massager,,,New,,,,,410.27,379.00,31.27,Chris Tavira,CreditCard,410.27,54D5B4CA0CD1195B,,,,,,,0.00,,,,,,,,0.00,,,,,,,,YES,"2 years parts, 1 year labor (Small Items)",Delivered,"Sam's Club #6439 Odessa, TX 11/30-12/10/17 (TX)",,Invoice #20629,102284,,TX,0,8.25
12/5/2017 5:04:13 PM,Rithiphoee Long,TX,79762,Ninja Leg Massager,,,New,,,,,410.27,379.00,31.27,Chris Tavira,CreditCard,410.27,001527,,,,,,,0.00,,,,,,,,0.00,,,,,,,,YES,"2 years parts, 1 year labor (Small Items)",Delivered,"Sam's Club #6439 Odessa, TX 11/30-12/10/17 (TX)",,Invoice #20634,102285,,TX,0,8.25
12/5/2017 5:10:20 PM,Marla Pallanez,TX,79830,Legacy for Sam's,DWA-9100DWA-9100BL,Black,New,,,,,3895.92,3599.00,296.92,Chris Tavira,CreditCard,3895.92,002447,,,,,,,0.00,,,,,,,,0.00,,,,,,,12/12/2017 12:00:00 AM,No,"3 years parts, 1 year labor (Free)",Delivered,"Sam's Club #6439 Odessa, TX 11/30-12/10/17 (TX)",,"Invoice #20632
Chair color: CHOCOLATE BROWN",102286,Chocolate is out of stock on website.,TX,0,8.25
12/5/2017 5:17:54 PM,Chris White,TX,79762,Legacy for Sam's,DWA-9100DWA-9100BL,Black,New,,,,,3895.92,3599.00,296.92,Chris Tavira,CreditCard,3895.92,00329P,,,,,,,0.00,,,,,,,,0.00,,,,,,,12/12/2017 12:00:00 AM,No,"3 years parts, 1 year labor (Free)",Delivered,"Sam's Club #6439 Odessa, TX 11/30-12/10/17 (TX)",,"Invoice #20636
Chair Color: CHOCOLATE BROWN",102287,Chocolate shows out of stock on website.,TX,0,8.25
12/5/2017 5:24:37 PM,Norma Rose,TX,79763,Legacy for Sam's,DWA-9100DWA-9100BL,Black,New,,,,,3895.92,3599.00,296.92,Chris Tavira,CreditCard,3895.92,07409D,,,,,,,0.00,,,,,,,,0.00,,,,,,,12/12/2017 12:00:00 AM,No,"3 years parts, 1 year labor (Free)",Delivered,"Sam's Club #6439 Odessa, TX 11/30-12/10/17 (TX)",,Invoice #20630,102288,,TX,0,8.25
12/6/2017 6:36:52 PM,Chris Balderas,AA,79766,Relax2Zero 2.0 for Sam's,USJ-9050USJ-9050BR,Brown,New,,,,,3462.92,3199.00,263.92,Chris Tavira,CreditCard,3462.92,06513D,,,,,,,0.00,,,,,,,,0.00,,,,,,,12/12/2017 12:00:00 AM,No,"3 years parts, 1 year labor (Free)",Delivered,"Sam's Club #6439 Odessa, TX 11/30-12/10/17 (TX)",,Invoice # 20631,102301,Correct state of Shipping address is TX. TC# 7866 3453 8572 7129 7144 98        12/7/17 Hitomi,TX,0,8.25
12/7/2017 4:05:42 PM,Eliseo Bello,TX,79761,Legacy for Sam's,DWA-9100DWA-9100SB,Sienna Brown,New,,,,,3895.92,3599.00,296.92,Chris Tavira,CreditCard,2000.00,TC# 5484 1219 9156 5263 5248 79,,,,,,Cash,1895.92,,,,,,,,0.00,,,,,,,12/11/2017 12:00:00 AM,No,"3 years parts, 1 year labor (Free)",Delivered,"Sam's Club #6439 Odessa, TX 11/30-12/10/17 (TX)",,Invoice #20638,102310,,TX,0,8.25
12/7/2017 4:11:46 PM,Omar Orozco,NM,88240,Legacy for Sam's,DWA-9100DWA-9100BL,Black,New,,,,,4653.67,4299.00,354.67,Chris Tavira,CreditCard,4653.67,TC# 1800 6363 0327 0750 2733 20,,,,,,,0.00,,,,,,,,0.00,,,,,,,12/21/2017 12:00:00 AM,No,"3 years parts, 1 year labor (Free)",Delivered,"Sam's Club #6439 Odessa, TX 11/30-12/10/17 (TX)",,Invoice #20627,102311,,TX,0,8.25
12/7/2017 4:16:07 PM,Omar Orozco,NM,88240,Ninja Leg Massager,,,New,,,,,410.27,379.00,31.27,Chris Tavira,CreditCard,410.27,TC# 1800 6363 0327 0750 2733 20,,,,,,,0.00,,,,,,,,0.00,,,,,,,,YES,"2 years parts, 1 year labor (Small Items)",Delivered,"Sam's Club #6439 Odessa, TX 11/30-12/10/17 (TX)",,Invoice #20639,102312,,TX,0,8.25
12/8/2017 6:12:13 PM,Darren Monthomery,TX,79761,Ninja Leg Massager,,,New,,,,,410.27,379.00,31.27,Chris Tavira,Cash,410.27,,,,,,,,0.00,,,,,,,,0.00,,,,,,,,YES,"2 years parts, 1 year labor (Small Items)",Delivered,"Sam's Club #6439 Odessa, TX 11/30-12/10/17 (TX)",,Invoice #20641,102328,,TX,0,8.25
12/8/2017 6:38:28 PM,Cheryl Switzer,TX,79762,Chair Pad for Legacy,,,New,,,,,3895.92,3599.00,296.92,Chris Tavira,CreditCard,3895.92,TC# 0711 2841 1209 0892 0855 31,,,,,,,0.00,,,,,,,,0.00,,,,,,,12/20/2017 12:00:00 AM,No,no warranty,Delivered,"Sam's Club #6439 Odessa, TX 11/30-12/10/17 (TX)",,"Invoice #20642
Chair Color: CHOCOLATE BROWN",102329,"Please help customer to sync phone with the Bluetooth on the chair.

Choco is out of stock on website, manually had to inpu on notes, chair Color is Choco",TX,0,8.25
12/8/2017 6:38:28 PM,Cheryl Switzer,TX,79762,Legacy for Sam's,DWA-9100DWA-9100BL,Black,New,,,,,3895.92,3599.00,296.92,Chris Tavira,CreditCard,3895.92,TC# 0711 2841 1209 0892 0855 31,,,,,,,0.00,,,,,,,,0.00,,,,,,,12/20/2017 12:00:00 AM,No,"3 years parts, 1 year labor (Free)",Delivered,"Sam's Club #6439 Odessa, TX 11/30-12/10/17 (TX)",,"Invoice #20642
Chair Color: CHOCOLATE BROWN",102329,"Please help customer to sync phone with the Bluetooth on the chair.

Choco is out of stock on website, manually had to inpu on notes, chair Color is Choco",TX,0,8.25
12/8/2017 6:43:24 PM,Ramon Saldivar,AA,79720,Ninja Leg Massager,,,New,,,,,410.27,379.00,31.27,Chris Tavira,CreditCard,410.27,TC# 5013 0075 1383 4883 1772 5,,,,,,,0.00,,,,,,,,0.00,,,,,,,,YES,"3 years parts, 1 year labor (Free)",Delivered,"Sam's Club #6439 Odessa, TX 11/30-12/10/17 (TX)",,Invoice #20637,102330,,TX,0,8.25
12/9/2017 5:32:32 PM,Mary Smith,TX,79756,Vitality Plate for Sam's,USJ-849USJ-849,New,New,,,,,497.94,459.99,37.95,Chris Tavira,CreditCard,497.94,TC# 4668 5774 5654 5146 5001 4,,,,,,,0.00,,,,,,,,0.00,,,,,,,,YES,"2 years parts, 1 year labor (Small Items)",Delivered,"Sam's Club #6439 Odessa, TX 11/30-12/10/17 (TX)",,Invoice # 20646,102346,,TX,0,8.25
12/9/2017 5:48:12 PM,Dona Scott,UT,84128,Ninja Leg Massager,,,New,,,,,410.27,379.00,31.27,Chris Tavira,CreditCard,410.27,TV# 9454 1149 3565 2665 3480 9,,,,,,,0.00,,,,,,,,0.00,,,,,,,,YES,"2 years parts, 1 year labor (Small Items)",Delivered,"Sam's Club #6439 Odessa, TX 11/30-12/10/17 (TX)",,Invoice #20640,102348,,NV,0,8.25
12/9/2017 5:55:44 PM,Ruben Hernandez,TX,79762,Legacy for Sam's,DWA-9100DWA-9100BL,Black,New,,,,,3895.92,3599.00,296.92,Chris Tavira,CreditCard,3895.92,TC# 4509 4989 2549 2936 4911 02,,,,,,,0.00,,,,,,,,0.00,,,,,,,12/22/2017 12:00:00 AM,No,"3 years parts, 1 year labor (Free)",Delivered,"Sam's Club #6439 Odessa, TX 11/30-12/10/17 (TX)",,"Invoice # 10643
Chair Color: CHOCOLATE BROWN",102349,Chocolate is out on website.,TX,0,8.25
12/10/2017 4:40:47 PM,Gary Frank,TX,79731,Legacy for Sam's,DWA-9100DWA-9100BL,Black,New,,,,,3895.92,3599.00,296.92,Chris Tavira,CreditCard,3895.92,TC# 5474 9210 9956 5263 5288 79,,,,,,,0.00,,,,,,,,0.00,,,,,,,12/20/2017 12:00:00 AM,No,"3 years parts, 1 year labor (Free)",Delivered,"Sam's Club #6439 Odessa, TX 11/30-12/10/17 (TX)",,Invoice #20645,102377,,TX,0,8.25
12/10/2017 4:40:47 PM,Gary Frank,TX,79731,Chair Pad for Legacy,,,New,,,,,3895.92,3599.00,296.92,Chris Tavira,CreditCard,3895.92,TC# 5474 9210 9956 5263 5288 79,,,,,,,0.00,,,,,,,,0.00,,,,,,,12/20/2017 12:00:00 AM,No,no warranty,Delivered,"Sam's Club #6439 Odessa, TX 11/30-12/10/17 (TX)",,Invoice #20645,102377,,TX,0,8.25
