﻿Original Event Name,Event Name,Sales Person,Order Number,Order Date,Customer Name,State,Zip,Product Name,Color,Product Status,QTY,Tax,Total Before Tax,Order Total,Primary Payment Method,Second Payment Method,Thirdl Payment Method,Warranty,Order Items,Pick up,Delivered On,Order Status,Chair Type,Order Notes,Private Note,Branch,No Tax,Actual Tax Rate,SKU,Primary Payment Balance,Primary Authorize Number,Primary Purchase Order Number,Primary Synchrony Account Number,Primary Synchrony Application Key,Primary Synchrony Account Info,Primary Synchrony Term,Second Payment Balance,Second Authorize Number,Second Purchase Order Number,Second Synchrony Account Number,Second Synchrony Application Key,Second Synchrony Account Info,Second SynchronyTerm,Third Payment Balance,Third Authorize Number,Third Purchase Order Number,Third Synchrony Account Number,Third Synchrony Application Key,Third Synchrony Account Info,Third Synchrony Term
"Sam's Club #6236 Rock Hill, SC 2/28-3/10/19 (FL)","Sam's Club #6236 Rock Hill, SC 2/28-3/10/19 (FL)",Michael Rowe,115370,2/28/2019 4:44:40 PM,Ted Buddy,SC,34513,Vitality Plate for Sam's,Demo[-60],Demo,1,0.00,579.97,579.97,PurchaseOrder,,,"2 years parts, 1 year labor for Small Items","Vitality Plate for Sam's,Shogun Neck &amp; Back Massger,",YES,,Delivered,,,,FL,1,7.00,USJ-849USJ-849-DEMO,579.97,,TC#387046616838375211384,,,,,0.00,,,,,,,0.00,,,,,,
"Sam's Club #6236 Rock Hill, SC 2/28-3/10/19 (FL)","Sam's Club #6236 Rock Hill, SC 2/28-3/10/19 (FL)",Michael Rowe,115370,2/28/2019 4:44:40 PM,Ted Buddy,SC,34513,Shogun Neck & Back Massger,Demo[-20],Demo,1,0.00,579.97,579.97,PurchaseOrder,,,"2 years parts, 1 year labor (Free)","Vitality Plate for Sam's,Shogun Neck &amp; Back Massger,",YES,,Delivered,,,,FL,1,7.00,USJ-874USJ-874-DEMO,579.97,,TC#387046616838375211384,,,,,0.00,,,,,,,0.00,,,,,,
"Sam's Club #6236 Rock Hill, SC 2/28-3/10/19 (FL)","Sam's Club #6236 Rock Hill, SC 2/28-3/10/19 (FL)",Michael Rowe,115404,3/2/2019 3:25:03 PM,Ed Doe,AL,54670,Shogun Neck & Back Massger,New,New,1,14.00,199.98,213.98,PurchaseOrder,,,"2 years parts, 1 year labor (Free)","Shogun Neck &amp; Back Massger,",YES,,Delivered,,,,FL,0,7.00,USJ-874USJ-874,199.98,,TC#583563666161600939675,,,,,0.00,,,,,,,0.00,,,,,,
"Sam's Club #6236 Rock Hill, SC 2/28-3/10/19 (FL)","Sam's Club #6236 Rock Hill, SC 2/28-3/10/19 (FL)",Michael Rowe,115427,3/3/2019 8:10:04 AM,Ted Smith,SC,23457,Shogun Neck & Back Massger,New,New,1,0.00,199.98,199.98,PurchaseOrder,,,"2 years parts, 1 year labor (Free)","Shogun Neck &amp; Back Massger,",YES,,Delivered,,,,FL,1,7.00,USJ-874USJ-874,199.98,,TC#898867002909055680058,,,,,0.00,,,,,,,0.00,,,,,,
"Sam's Club #6236 Rock Hill, SC 2/28-3/10/19 (FL)","Sam's Club #6236 Rock Hill, SC 2/28-3/10/19 (FL)",Michael Rowe,115433,3/3/2019 11:13:55 AM,Ann Lee,SC,65789,Ninja Leg Massager 2,Demo[-20.00],Demo,1,0.00,279.98,279.98,PurchaseOrder,,,"2 years parts, 1 year labor for Small Items","Ninja Leg Massager 2,",YES,,Delivered,,,,FL,1,7.00,USJ-880-Demo,279.98,,TC#595503064160602985605,,,,,0.00,,,,,,,0.00,,,,,,
"Sam's Club #6236 Rock Hill, SC 2/28-3/10/19 (FL)","Sam's Club #6236 Rock Hill, SC 2/28-3/10/19 (FL)",Michael Rowe,115449,3/4/2019 7:14:33 AM,Ted Winn,SC,56789,Ninja Leg Massager 2,Demo[-20.00],Demo,1,0.00,279.98,279.98,PurchaseOrder,,,"2 years parts, 1 year labor (Free)","Ninja Leg Massager 2,",YES,,Delivered,,,,FL,1,7.00,USJ-880-Demo,279.98,,TC#595503064160602985655,,,,,0.00,,,,,,,0.00,,,,,,
"Sam's Club #6236 Rock Hill, SC 2/28-3/10/19 (FL)","Sam's Club #6236 Rock Hill, SC 2/28-3/10/19 (FL)",Michael Rowe,115480,3/4/2019 11:34:39 AM,Ted Win,CO,90210,Ninja Leg Massager 2,New,New,1,0.00,299.98,299.98,PurchaseOrder,,,"2 years parts, 1 year labor for Small Items","Ninja Leg Massager 2,",YES,,Delivered,,,,TX,1,7.00,USJ-880,299.98,,TC#919553760161602906615,,,,,0.00,,,,,,,0.00,,,,,,
"Sam's Club #6236 Rock Hill, SC 2/28-3/10/19 (FL)","Sam's Club #6236 Rock Hill, SC 2/28-3/10/19 (FL)",Michael Rowe,115486,3/4/2019 3:46:16 PM,Lee Smith,AL,67567,Ninja Leg Massager 2,New,New,2,0.00,599.96,599.96,PurchaseOrder,PurchaseOrder,,"2 years parts, 1 year labor (Free)","Ninja Leg Massager 2,",YES,,Delivered,,,,FL,1,7.00,USJ-880,299.98,,TC#090124657678587083562,,,,,299.98,,TC#686807802985059641018,,,,,0.00,,,,,,
