﻿Original Event Name,Event Name,Sales Person,Order Number,Order Date,Customer Name,State,Zip,Product Name,Color,Product Status,QTY,Tax,Total Before Tax,Order Total,Primary Payment Method,Second Payment Method,Thirdl Payment Method,Warranty,Order Items,Pick up,Delivered On,Order Status,Chair Type,Order Notes,Private Note,Branch,No Tax,Actual Tax Rate,SKU,Primary Payment Balance,Primary Authorize Number,Primary Purchase Order Number,Primary Synchrony Account Number,Primary Synchrony Application Key,Primary Synchrony Account Info,Primary Synchrony Term,Second Payment Balance,Second Authorize Number,Second Purchase Order Number,Second Synchrony Account Number,Second Synchrony Application Key,Second Synchrony Account Info,Second SynchronyTerm,Third Payment Balance,Third Authorize Number,Third Purchase Order Number,Third Synchrony Account Number,Third Synchrony Application Key,Third Synchrony Account Info,Third Synchrony Term
"HOME IMPROVEMENT SHOW 4/5-7/19 COLUMBUS, OH (IL)","HOME IMPROVEMENT SHOW 4/5-7/19 COLUMBUS, OH (IL)",Winston Melgar,116432,4/6/2019 3:50:59 AM,Howard / Diana Hauks,OH,43202,Legacy 3D,Demo Choco,Demo,1,0.00,4000.00,4000.00,Synchrony,,,"5 years parts, 1 year labor (Free)","Legacy 3D,",No,4/7/2019 12:00:00 AM,Delivered,Demo,,"4/8/19-Confirmed SYNC $9,000 and original. According to invoice, Winston delivered on 4/7/18. will confirm delivery confirmation and sales draft .(Auth#007523)Hitomi
4/12/19-Received delivery confirmation and sales draft - Hitomi",TX,1,7.50,DWA-9150USJ-9150CH-DEMO,4000.00,,,6501723375091194,73654740,Huston,36 months,0.00,,,,,,,0.00,,,,,,
"HOME IMPROVEMENT SHOW 4/5-7/19 COLUMBUS, OH (IL)","HOME IMPROVEMENT SHOW 4/5-7/19 COLUMBUS, OH (IL)",May Kam,116433,4/6/2019 6:23:53 AM,Deb Steele,OH,43224,Legacy 3D,Demo Black,Demo,1,0.00,3500.00,3500.00,CreditCard,,,"5 years parts, 1 year labor (Free)","Legacy 3D,Tourmaline Pad for Legacy 3D,",No,,Scheduled,,"Special discount for one time payment, manager approval . Paid off","4/8/19-Confirmed $3,500.00 in SQ.  - Hitomi
4/9Maritza Courtesy message sent @ 12:13PM
4/10/2019 - Printed/Courtesy message sent - Tina
4/22/2019 Scheduled for Thurs May 2, 2019 8am to 12pm - Tina",TX,1,7.50,DWA-9150USJ-9150BL-DEMO,3500.00,j879,,,,,,0.00,,,,,,,0.00,,,,,,
"HOME IMPROVEMENT SHOW 4/5-7/19 COLUMBUS, OH (IL)","HOME IMPROVEMENT SHOW 4/5-7/19 COLUMBUS, OH (IL)",May Kam,116453,4/6/2019 7:28:14 PM,Mr william Miller,OH,43147,Legacy 3D,New Black,New,1,0.00,4500.00,4500.00,CreditCard,,,"5 years parts, 1 year labor (Free)","Legacy 3D,Tourmaline Pad for Legacy 3D,",No,,Scheduled,,"Special discount for one time payment
Another phone no is 6143747710","4/8/19- Confirmed $4,500 in SQ. - Hitomi
4/9Maritza- Courtesy message sent @ 12:17PM
4/10/2019 - Printed/Courtesy message sent - Tina
4/22/2019 Scheduled for May 1, 2019 2pm to 5pm Wednesday - Tina",TX,1,7.50,DWA-9150USJ-9150BL,4500.00,LRtK,,,,,,0.00,,,,,,,0.00,,,,,,
"HOME IMPROVEMENT SHOW 4/5-7/19 COLUMBUS, OH (IL)","HOME IMPROVEMENT SHOW 4/5-7/19 COLUMBUS, OH (IL)",May Kam,116457,4/7/2019 4:06:19 AM,Mr& Mrs John Stukey,OH,43031,Legacy 3D,New Choco,New,1,0.00,4500.00,4500.00,CreditCard,,,"5 years parts, 1 year labor (Free)","Legacy 3D,Tourmaline Pad for Legacy 3D,",No,,Called,,Special discount for one time payment .,"4/8/19-Confirmed $4,500 in SQ. - Hitomi
4/9Maritza- Courtesy message and email sent @ 1PM
4/10/2019 - Printed/Courtesy message sent - Tina",TX,1,7.50,DWA-9150USJ-9150CH,4500.00,WKLq,,,,,,0.00,,,,,,,0.00,,,,,,
"HOME IMPROVEMENT SHOW 4/5-7/19 COLUMBUS, OH (IL)","HOME IMPROVEMENT SHOW 4/5-7/19 COLUMBUS, OH (IL)",May Kam,116458,4/7/2019 4:17:14 AM,Mr & Mrs Paul Smith,OH,43033,Legacy 3D,Demo Choco,Demo,1,0.00,3996.00,3996.00,Synchrony,,,"5 years parts, 1 year labor (Free)","Legacy 3D,",No,4/7/2019 12:00:00 AM,Delivered,Demo,Will deliver by Winston today after show finished,"4/8/19-Confirmed SYNC$9,000 and original. Per.invoice , delivered by Winston on 4/7/19. will confirm delivery confirmation and sales draft(Auth#  007396) - Hitomi
4/12/19-Received delivery confirmation and sales draft- Hitomi",TX,1,7.50,DWA-9150USJ-9150CH-DEMO,3996.00,,,6501723375093471,73698639,Las Vegas,36 months,0.00,,,,,,,0.00,,,,,,
"HOME IMPROVEMENT SHOW 4/5-7/19 COLUMBUS, OH (IL)","HOME IMPROVEMENT SHOW 4/5-7/19 COLUMBUS, OH (IL)",Winston Melgar,116459,4/7/2019 6:26:13 AM,Bob Hilborn,OH,43147,Legacy 3D,New Black,New,1,0.00,4500.00,4500.00,CreditCard,,,"5 years parts, 1 year labor (Free)","Legacy 3D,Tourmaline Pad for Legacy 3D,",No,,Scheduled,,,"4/8/19- Confirmed $4,500 in SQ. - Hitomi
4/9Maritza- Courtesy message and email sent @ 2:13PM
4/10/2019 - Printed/Courtesy message sent - Tina
4/22/2019 Scheduled for Wed May 1 , 2019 3pm to 6pm - Tina
04/25/19- customer called in, He was confused about the delivery date on his chair, informed the customer that his appointment is next week and he re confirmed the date and time- Cristina 9:06 am",TX,1,7.50,DWA-9150USJ-9150BL,4500.00,Receipt #9I9Y,,,,,,0.00,,,,,,,0.00,,,,,,
"HOME IMPROVEMENT SHOW 4/5-7/19 COLUMBUS, OH (IL)","HOME IMPROVEMENT SHOW 4/5-7/19 COLUMBUS, OH (IL)",Winston Melgar,116468,4/7/2019 4:28:58 PM,William Spicer,OH,43334,Relax 2 Zero 3D,Demo Choco,Demo,1,0.00,3800.00,3800.00,Synchrony,,,"5 years parts, 1 year labor (Free)","Relax 2 Zero 3D,Foot Pads for Relax2Zero 3D,",No,4/8/2019 12:00:00 AM,Delivered,Demo,"Pls make finance purchasing $3800 , thanks. Winston will deliver chair at 5am on Apr 8,2019","4/8/19-Confirmed SYNC$6,500 and original. Per.invoice, delivered by Winston on 4/8/19. will confirm delivery confirmation and sales draft (Auth#007967) - Hitomi
4/15/19-Confirmed S/N, and sales receipt. - Hitomi",TX,1,7.50,DWA-9060USJ-9060BR-DEMO,3800.00,,,6501723375094479,73721409,Las Vegas,36 months,0.00,,,,,,,0.00,,,,,,
"HOME IMPROVEMENT SHOW 4/5-7/19 COLUMBUS, OH (IL)","HOME IMPROVEMENT SHOW 4/5-7/19 COLUMBUS, OH (IL)",May Kam,116469,4/7/2019 4:35:16 PM,Mr Paul Batory,OH,43119,Legacy 3D,New Black,New,1,0.00,4250.00,4250.00,CreditCard,COD,,"5 years parts, 1 year labor (Free)","Legacy 3D,Tourmaline Pad for Legacy 3D,",No,,Scheduled,,"Special discount for one time payment ,
Manager approval","4/8/19-Confirmed $2,125.00 in SQ. ***COD $2,125*** Hitomi
4/9Maritza- Courtesy email and message sent @ 2:19PM
4/10/2019 - Printed/Courtesy message sent - Tina
4/22/2019 Scheduled for Thurs May 2, 2019 12pm to 4pm - Tina",TX,1,7.50,DWA-9150USJ-9150BL,2125.00,#kfwv,,,,,,2125.00,,,,,,,0.00,,,,,,
"HOME IMPROVEMENT SHOW 4/5-7/19 COLUMBUS, OH (IL)","HOME IMPROVEMENT SHOW 4/5-7/19 COLUMBUS, OH (IL)",May Kam,116478,4/8/2019 6:07:07 AM,Karen Davis,OH,43102,Legacy 3D,New Black,New,1,0.00,4500.00,4500.00,Synchrony,,,"5 years parts, 1 year labor (Free)","Legacy 3D,Tourmaline Pad for Legacy 3D,",No,,Scheduled,,"Special discount for finance, manager approval .pls make finance $4500 purchase","another ph#614-834-1065
4/8/19-COnfirmed SYNC $9,000 and original. [DL:OH 08/10/219,CC: VISA:11/21] -***Please charge $4,500 /sales draft***-Hitomi
4/9Maritza- Courtesy email and messages sent to both numbers
4/10/2019 - Printed/Courtesy message sent - Tina
4/22/2019 Scheduled for Thurs May 2 2019 6pm to 8pm - Tina",TX,1,7.50,DWA-9150USJ-9150BL,4500.00,,,6501723375095112,73736309,Las Vegas,36 months,0.00,,,,,,,0.00,,,,,,
"HOME IMPROVEMENT SHOW 4/5-7/19 COLUMBUS, OH (IL)","HOME IMPROVEMENT SHOW 4/5-7/19 COLUMBUS, OH (IL)",May Kam,116482,4/8/2019 6:56:29 AM,Mrs KARen Steele,OH,43224,Legacy 3D,Demo Black,Demo,1,0.00,4000.00,4000.00,Synchrony,,,"5 years parts, 1 year labor (Free)","Legacy 3D,Tourmaline Pad for Legacy 3D,",No,,Cancelled,,"Pls make finance $4000 purchase, thanks","4/8/19-Confirmed SYNC$6,800 and original. [DL:OH 06/20, CC:MASTER 10/23]***Please charge $4,000/sales draft***-Hitomi
4/9Maritza- Courtesy message sent @ 2:27PM",TX,1,7.50,DWA-9150USJ-9150BL-DEMO,4000.00,,,6501723375095120,73736800,Las Vegas,36 months,0.00,,,,,,,0.00,,,,,,
"HOME IMPROVEMENT SHOW 4/5-7/19 COLUMBUS, OH (IL)","HOME IMPROVEMENT SHOW 4/5-7/19 COLUMBUS, OH (IL)",May Kam,116484,4/8/2019 7:07:37 AM,Mr & Mrs Tonya Henley,OH,43067,Legacy 3D,Demo Choco,Demo,1,0.00,3800.00,3800.00,CreditCard,COD,,"5 years parts, 1 year labor (Free)","Legacy 3D,Tourmaline Pad for Legacy 3D,",No,,Scheduled,,"Special discount for one time payment, manager approval .","4/8/19-Confirmed $200 in SQ. ***COD $3,600*** - Hitomi
4/9Maritza- Courtesy message sent @ 2:28PM
4/10/2019 - Printed/Courtesy message sent - Tina
4/22/2019 Scheduled for May 1, 2019 8am to 12pm Wednesday - Tina",TX,1,7.50,DWA-9150USJ-9150CH-DEMO,200.00,nQBa,,,,,,3600.00,,,,,,,0.00,,,,,,
"HOME IMPROVEMENT SHOW 4/5-7/19 COLUMBUS, OH (IL)","HOME IMPROVEMENT SHOW 4/5-7/19 COLUMBUS, OH (IL)",May Kam,116485,4/8/2019 7:35:56 AM,Mrs Kimberly R Reeder Heard,OH,43232,Legacy 3D,Demo Choco,Demo,1,0.00,3800.00,3800.00,CreditCard,COD,,"5 years parts, 1 year labor (Free)","Legacy 3D,Tourmaline Pad for Legacy 3D,",No,,Hold,,"Special discount , manager approval .Hold about a few month, since buying house, Mrs Reeder wants to apply finance $3750, gave her form  already, will send to us","4/8/19- Confirmed $50 in SQ. ***Remaining balance:$3,750.*** Place on hold -Hitomi",Not Dispatched,1,7.50,DWA-9150USJ-9150CH-DEMO,50.00,UUx3,,,,,,3750.00,,,,,,,0.00,,,,,,
"HOME IMPROVEMENT SHOW 4/5-7/19 COLUMBUS, OH (IL)","HOME IMPROVEMENT SHOW 4/5-7/19 COLUMBUS, OH (IL)",Winston Melgar,116486,4/8/2019 7:54:42 AM,John Stanley,OH,43123,Legacy 3D,New Choco,New,1,0.00,4000.00,4000.00,CreditCard,,,"3 years parts, 1 year labor (Free)","Legacy 3D,",No,,Scheduled,,"Special discount for one time payment , manager approval ; another phone is 7402442436","4/8/19-Confirmed $4,000.00 in SQ. - HItomi
4/9Maritza- Courtesy message sent @ 2:30PM
4/10/2019 - Printed/Courtesy message sent - Tina
4/22/2019 Scheduled for Thurs May 2, 2019 3pm tp 7pm -Tina",TX,1,7.50,DWA-9150USJ-9150CH,4000.00,nqrq,,,,,,0.00,,,,,,,0.00,,,,,,
"HOME IMPROVEMENT SHOW 4/5-7/19 COLUMBUS, OH (IL)","HOME IMPROVEMENT SHOW 4/5-7/19 COLUMBUS, OH (IL)",Winston Melgar,116487,4/8/2019 8:00:22 AM,James Shull,OH,43209,Legacy 3D,Demo Choco,Demo,1,0.00,4000.00,4000.00,CreditCard,COD,,"5 years parts, 1 year labor (Free)","Legacy 3D,",No,,Scheduled,,"Special discount for one time payment.
Balance $3500","ANOTHER PH#614-258-8848
4/8/19- Confirmed $500 in SQ, ***COD  $3,500***- HItomi
4/9Maritza- Courtesy message sent @ 2:32PM
4/10/2019 - Printed/Courtesy message sent - Tina
4/22/2019 Scheduled for Wed May 1, 2019 6pm tp 8pm -Tina",TX,1,7.50,DWA-9150USJ-9150CH-DEMO,500.00,XA5h,,,,,,3500.00,,,,,,,0.00,,,,,,
"HOME IMPROVEMENT SHOW 4/5-7/19 COLUMBUS, OH (IL)","HOME IMPROVEMENT SHOW 4/5-7/19 COLUMBUS, OH (IL)",May Kam,116549,4/9/2019 3:32:46 PM,Mr Dan West,OH,45701,Legacy 3D,New Choco,New,1,0.00,4065.00,4065.00,CreditCard,Synchrony,COD,"5 years parts, 1 year labor (Free)","Legacy 3D,Tourmaline Pad for Legacy 3D,",No,,Hold,,"Special Vendor discount , manager approval ; Pls hold about one month 
delivery , the customer will call May when he is ready . Thanks","Pls make finance $1500  for 24 month purchase , Thanks
4/9/19-Confirmed $1,000 in SQ and SYNC $1,500 original. [DL: OH 08/21 , CC: MASTERCARD 04/22]***Please charge $1,500/*sales draft/*COD$1,565*HOLD TILL MAY ADVISES  -Hitomi",TX,1,7.50,DWA-9150USJ-9150CH,1000.00,#vXyR,,,,,,1500.00,,,6501723375094925,73729021,Las Vegas,24 months,1565.00,,,,,,
"HOME IMPROVEMENT SHOW 4/5-7/19 COLUMBUS, OH (IL)","HOME IMPROVEMENT SHOW 4/5-7/19 COLUMBUS, OH (IL)",May Kam,116554,4/9/2019 5:30:12 PM,Mrs KARen Steele,OH,43224,Legacy 3D,New Black,New,1,0.00,4500.00,4500.00,Synchrony,,,"5 years parts, 1 year labor (Free)","Legacy 3D,Tourmaline Pad for Legacy 3D,",No,,Scheduled,,,"REVISED ORDER FOR #116482
4/9/19-PER.MAY, PRICE CHANGED TO $4,500 / CHAIR TYPE :NEW -HITOMI
4/8/19-Confirmed SYNC$6,800 and original. [DL:OH 06/20, CC:MASTER 10/23]***Please charge $4,500/sales draft***-Hitomi
4/9Maritza- Courtesy message sent @ 2:27PM
4/10/2019 - Printed/Courtesy message sent - Tina
4/22/2019 Scheduled for May 2, 2019 Thurs 9am to 11am -Tina",TX,1,7.50,DWA-9150USJ-9150BL,4500.00,,,6501723375095120,73736800,Las Vegas,36 months,0.00,,,,,,,0.00,,,,,,
"HOME IMPROVEMENT SHOW 4/5-7/19 COLUMBUS, OH (IL)","HOME IMPROVEMENT SHOW 4/5-7/19 COLUMBUS, OH (IL)",May Kam,117085,5/1/2019 6:28:35 PM,Mrs Lynn Jung,VA,22032,Legacy,New Choco,New,1,0.00,3400.00,3400.00,Credit Card,COD,,"3 years parts, 1 year labor (Free)","Legacy,",No,,New,,Special discount from Mr Kay Hong Family .,"5/2/19-Confirmed $200.00 inSQ. ***COD $3,200*** will confirm the branch -Hitomi",Not Dispatched,1,7.50,DWA-9100DWA-9100BU,200.00,4Z3b,,,,,,3200.00,,,,,,,0.00,,,,,,
