﻿Original Event Name,Event Name,Sales Person,Order Number,Order Date,Customer Name,State,Zip,Product Name,Color,Product Status,QTY,Tax,Total Before Tax,Order Total,Primary Payment Method,Second Payment Method,Thirdl Payment Method,Warranty,Order Items,Pick up,Delivered On,Order Status,Chair Type,Order Notes,Private Note,Branch,No Tax,Actual Tax Rate,SKU,Primary Payment Balance,Primary Authorize Number,Primary Purchase Order Number,Primary Synchrony Account Number,Primary Synchrony Application Key,Primary Synchrony Account Info,Primary Synchrony Term,Second Payment Balance,Second Authorize Number,Second Purchase Order Number,Second Synchrony Account Number,Second Synchrony Application Key,Second Synchrony Account Info,Second SynchronyTerm,Third Payment Balance,Third Authorize Number,Third Purchase Order Number,Third Synchrony Account Number,Third Synchrony Application Key,Third Synchrony Account Info,Third Synchrony Term
"CHRISTMAS BAZAAR 11/23-25 & 11/30-12/2/18 PORTLAND, OR (WA)","CHRISTMAS BAZAAR 11/23-25 & 11/30-12/2/18 PORTLAND, OR (WA)",Scott Ishikawa,112628,11/25/2018 9:35:56 AM,Carl Afterbuffalo,WA,98682,Relax2Zero 3D,New Black,New,1,0.00,4800.00,4800.00,Synchrony,,,"3 years parts, 1 year labor (Free)","Relax2Zero 3D,",No,11/27/2018 12:00:00 AM,Delivered,New,,"11/27/2018 delivery
//Synchrony approved $5,800. original needs to be confirmed 11/27/18 Hitomi
received synchrony original ,confirmed --11/30/18 Hitomi
synchrony charged $4800 026736",WA,1,0.00,DWA-9060USJ-9060BL,4800.00,,,6019170813261531,97601490,Las Vegas,36 months,0.00,,,,,,,0.00,,,,,,
"CHRISTMAS BAZAAR 11/23-25 & 11/30-12/2/18 PORTLAND, OR (WA)","CHRISTMAS BAZAAR 11/23-25 & 11/30-12/2/18 PORTLAND, OR (WA)",Jason Liu,112680,11/25/2018 4:17:01 PM,Stuart Sallee,OR,97058,Pegasus,New Choco,New,1,0.00,5800.00,5800.00,Synchrony,,,"3 years parts, 1 year labor (Free)","Pegasus,",No,11/27/2018 12:00:00 AM,Delivered,New,,"Received Synchrony original, confirmed --  11/30/18 Hitomi
synchrony approved $7,000. original needs to be confirmed 11/27/18 Hitomi",WA,0,0.00,DWA-9400Pegasus-BR,5800.00,,,6019708132654740,97674769,Las Vegas,36 months,0.00,,,,,,,0.00,,,,,,
"CHRISTMAS BAZAAR 11/23-25 & 11/30-12/2/18 PORTLAND, OR (WA)","CHRISTMAS BAZAAR 11/23-25 & 11/30-12/2/18 PORTLAND, OR (WA)",Scott Ishikawa,112869,12/3/2018 9:56:11 AM,Sean LeBlé,WA,98682,Relax2Zero 3D,New Choco,New,1,0.00,3800.00,3800.00,CreditCard,,,"3 years parts, 1 year labor (Free)","Daiwa Blanket,Relax2Zero 3D,",No,,Delivered,,,"Confirmed $3,800.00 in Square. 12/3/18 Hitomi
12/3Maritza Courtesy message sent @ 12:52PM
Scheduled 12/5/2019 between 8am to 10am Scott",WA,1,0.00,DWA-9060USJ-9060BR,3800.00,AZfy,,,,,,0.00,,,,,,,0.00,,,,,,
"CHRISTMAS BAZAAR 11/23-25 & 11/30-12/2/18 PORTLAND, OR (WA)","CHRISTMAS BAZAAR 11/23-25 & 11/30-12/2/18 PORTLAND, OR (WA)",Scott Ishikawa,112870,12/3/2018 10:01:54 AM,Brian Dietz,WA,98682,Relax2Zero 3D,New Choco,New,1,0.00,3800.00,3800.00,CreditCard,,,"3 years parts, 1 year labor (Free)","Relax2Zero 3D,Daiwa Blanket,",No,12/5/2018 12:00:00 AM,Delivered,New,Two Chair deal!!!!!,"Confirmed $3,800.00 in SQ. 12/3/18 Hitomi
12/3Maritza Courtesy message sent @ 12:53PM
Scheduled 12/5/2018 9am to 10am Scott
next door delivery first.",WA,1,0.00,DWA-9060USJ-9060BR,3800.00,Hoeg,,,,,,0.00,,,,,,,0.00,,,,,,
"CHRISTMAS BAZAAR 11/23-25 & 11/30-12/2/18 PORTLAND, OR (WA)","CHRISTMAS BAZAAR 11/23-25 & 11/30-12/2/18 PORTLAND, OR (WA)",Jason Liu,112871,12/3/2018 10:10:16 AM,Crystal Odum,WA,98664,PEGASUS 2 SMART,New Choco,New,1,0.00,6900.00,6900.00,CreditCard,Cash,,"5 years parts, 1 year labor (Free)","PEGASUS 2 SMART,",No,12/7/2018 12:00:00 AM,Delivered,New,BALANCE DUE COD  $6800,"COD $6800//Confirmed $100 in Square. ***COD $6,800*** 12/3/18 Hitomi
12/3Maritza Courtesy message sent @ 12:55PM
Scheduled 12/7 9am-11am Yoko
12/11/18- COD $6,800 cash is received by Scott on 12/8/18---Hitomi",WA,1,0.00,PEGS-2PEGS-2-BR,100.00,q5Lo,,,,,,6800.00,,,,,,,0.00,,,,,,
"CHRISTMAS BAZAAR 11/23-25 & 11/30-12/2/18 PORTLAND, OR (WA)","CHRISTMAS BAZAAR 11/23-25 & 11/30-12/2/18 PORTLAND, OR (WA)",Scott Ishikawa,112872,12/3/2018 10:17:13 AM,Chet Colm,WA,98671,Pegasus,New Choco,New,1,0.00,6500.00,6500.00,Cash,COD,,"3 years parts, 1 year labor (Free)","Pegasus,",No,,Hold,,COD BALANCE DUE $5780,"COD BALANCE $5780
Customer needs to return old chair first.  Then will call for schedule.",Not Dispatched,0,0.00,DWA-9400Pegasus-BR,20.00,,,,,,,5780.00,,,,,,,0.00,,,,,,
"CHRISTMAS BAZAAR 11/23-25 & 11/30-12/2/18 PORTLAND, OR (WA)","CHRISTMAS BAZAAR 11/23-25 & 11/30-12/2/18 PORTLAND, OR (WA)",Jason Liu,112873,12/3/2018 10:23:42 AM,Terresa Ferguson,ID,83661,Legacy 3D,New Choco,New,1,0.00,4900.00,4900.00,CreditCard,Synchrony,,"3 years parts, 1 year labor (Free)","Legacy 3D,",No,,Hold,,,Please do not apply for synchrony until customer calls in to confirm.,Not Dispatched,1,0.00,DWA-9150USJ-9150CH,50.00,Gh72,,,,,,4850.00,,,,,,36 months,0.00,,,,,,
