﻿Order Number,Order Date,Event Name,Salesperson,SKU,Product Name,Color,QTY,Warranty,Payment Details,Tax,Order Total,Gross,Primary Payment Method,Primary Payment Balance,Primary Authorize Number,Primary Purchase Order Number,Primary Synchrony Account Number,Primary Synchrony Application Key,Primary Synchrony AccountInfo,Primary SynchronyTerm,Secondly Payment Method,Secondly Payment Balance,Secondly Authorize Number,Secondly Purchase Order Number,Secondly Synchrony Account Number,Secondly Synchrony Application Key,Secondly Synchrony AccountInfo,Secondly SynchronyTerm,Thirdly Payment Method,Thirdly Payment Balance,Thirdly Authorize Number,Thirdly Purchase Order Number,Thirdly Synchrony Account Number,Thirdly Synchrony Application Key,Thirdly Synchrony AccountInfo,Thirdly SynchronyTerm,Actual Shipping Cost,CustomerName,Shipping Address,Delivered On,Serial Number (TO Be),Note,Branch,IsNoTax,ActualTaxRate,
107583,7/18/2018 3:16:58 PM,"Sam's Club #4786 LOGAN,UT 7/12-22/18 (NV)",Querubin Milanes,USJ-849USJ-849-DEMO,Vitality Plate for Sam's,Demo,1,"2 years parts, 1 year labor for Small Items",CUSTOM ,0.00,435.19,435.19,PurchaseOrder,435.19,,TC#9694 3132 5122 8424 5098 6,,,,,,0.00,,,,,,,,0.00,,,,,,,0.00,Daiwa Massage,3105382298,,,,CA,1,6.60,"Vitality Plate for Sam's,"
107584,7/18/2018 3:20:07 PM,"Sam's Club #4786 LOGAN,UT 7/12-22/18 (NV)",Querubin Milanes,USJ-849USJ-849-DEMO,Vitality Plate for Sam's,Demo,1,"2 years parts, 1 year labor for Small Items",CUSTOM ,0.00,435.19,435.19,PurchaseOrder,435.19,,tc# 2359 5869 3857 7524 1224 5,,,,,,0.00,,,,,,,,0.00,,,,,,,0.00,Daiwa Massage,3105382298,,,,CA,1,6.60,"Vitality Plate for Sam's,"
107587,7/18/2018 3:39:35 PM,"Sam's Club #4786 LOGAN,UT 7/12-22/18 (NV)",Querubin Milanes,USJ-874USJ-874-DEMO,Shogun Neck & Back Massger,Demo,1,"2 years parts, 1 year labor (Free)",CUSTOM ,11.88,191.86,191.86,CreditCard,191.86,TC 6808 5735 3769 0303 1645 1,,,,,,,0.00,,,,,,,,0.00,,,,,,,0.00,Daiwa Massage,3105382298,,,,CA,0,6.60,"Shogun Neck &amp; Back Massger,"
107588,7/18/2018 3:48:14 PM,"Sam's Club #4786 LOGAN,UT 7/12-22/18 (NV)",Querubin Milanes,USJ-849USJ-849-DEMO,Vitality Plate for Sam's,Demo,1,"2 years parts, 1 year labor (Free)",CUSTOM ,26.40,426.39,426.39,CreditCard,426.39,TC 7144 5112 2110 8474 1398 6,,,,,,,0.00,,,,,,,,0.00,,,,,,,0.00,Daiwa Massage,3105382298,,,,CA,0,6.60,"Vitality Plate for Sam's,"
107589,7/18/2018 3:54:05 PM,"Sam's Club #4786 LOGAN,UT 7/12-22/18 (NV)",Querubin Milanes,USJ-849USJ-849-DEMO,Vitality Plate for Sam's,Demo,1,"2 years parts, 1 year labor (Free)",CUSTOM ,26.40,426.39,426.39,CreditCard,426.39,TC 0990 0627 7668 3979 0407 5,,,,,,,0.00,,,,,,,,0.00,,,,,,,0.00,Daiwa Massage,3105382298,,,,CA,0,6.60,"Vitality Plate for Sam's,"
107590,7/18/2018 3:59:53 PM,"Sam's Club #4786 LOGAN,UT 7/12-22/18 (NV)",Querubin Milanes,USJ-874USJ-874-DEMO,Shogun Neck & Back Massger,Demo,1,"2 years parts, 1 year labor (Free)",CUSTOM ,11.88,191.86,191.86,CreditCard,191.86,TC 5025 1370 1351 6292 6577 4,,,,,,,0.00,,,,,,,,0.00,,,,,,,0.00,Daiwa Massage,3105382298,,,,CA,0,6.60,"Shogun Neck &amp; Back Massger,"
107592,7/18/2018 4:13:35 PM,"Sam's Club #4786 LOGAN,UT 7/12-22/18 (NV)",Querubin Milanes,DWA-9100DWA-9100CH-DEMO,Legacy for Sam's,Demo Choco,1,"3 years parts, 1 year labor (Free)",CUSTOM ,237.53,3836.53,3836.53,CreditCard,3836.53,TC 9285 0931 0337 1629 2897 64,,,,,,,0.00,,,,,,,,0.00,,,,,,,0.00,Patricia Argyle,435-757-4576,,,,NV,0,6.60,"Legacy for Sam's,"
107674,7/21/2018 6:16:56 PM,"Sam's Club #4786 LOGAN,UT 7/12-22/18 (NV)",Querubin Milanes,USJ-849USJ-849-DEMO,Vitality Plate for Sam's,Demo,1,"2 years parts, 1 year labor (Free)",CUSTOM ,26.40,426.39,426.39,CreditCard,426.39,TC 5213 1072 2132 7646 3157 8,,,,,,,0.00,,,,,,,,0.00,,,,,,,0.00,Daiwa Massage,3105382298,,,,CA,0,6.60,"Vitality Plate for Sam's,"
107675,7/21/2018 6:28:47 PM,"Sam's Club #4786 LOGAN,UT 7/12-22/18 (NV)",Querubin Milanes,DWA-9100DWA-9100BL-Box,Legacy for Sam's,Demo(Box) Black,1,"3 years parts, 1 year labor (Free)",CUSTOM ,237.53,3836.53,3836.53,CreditCard,3836.53,TC 7096 9750 3397 3407 0698 42,,,,,,,0.00,,,,,,,,0.00,,,,,,,0.00,Brett Broadhead,435-512-3355,,,,NV,0,6.60,"Legacy for Sam's,"
107725,7/22/2018 3:55:27 PM,"Sam's Club #4786 LOGAN,UT 7/12-22/18 (NV)",Querubin Milanes,USJ-849USJ-849-DEMO,Vitality Plate for Sam's,Demo,1,"2 years parts, 1 year labor (Free)",CUSTOM ,33.66,543.64,543.64,CreditCard,543.64,TC 7533 0042 1132 7666 8150 8,,,,,,,0.00,,,,,,,,0.00,,,,,,,0.00,Alfonso Estrada,435-890-6139,,,,NV,0,6.60,"Vitality Plate for Sam's,Foot Vibe Pro,"
107726,7/22/2018 3:59:44 PM,"Sam's Club #4786 LOGAN,UT 7/12-22/18 (NV)",Querubin Milanes,USJ-874USJ-874-DEMO,Shogun Neck & Back Massger,Demo,1,"2 years parts, 1 year labor (Free)",CUSTOM ,19.14,309.11,309.11,CreditCard,309.11,TC 3433 1082 1132 7686 1156 8,,,,,,,0.00,,,,,,,,0.00,,,,,,,0.00,Alfonso Estrada,435-890-6139,,,,TX,0,6.60,"Foot Vibe Pro,Shogun Neck &amp; Back Massger,"
107727,7/22/2018 4:10:44 PM,"Sam's Club #4786 LOGAN,UT 7/12-22/18 (NV)",Querubin Milanes,DWA-9100DWA-9100CH-DEMO,Legacy for Sam's,Demo Choco,1,"3 years parts, 1 year labor (Free)",CUSTOM ,237.53,3836.53,3836.53,CreditCard,3836.53,TC 5494 5510 0335 0845 4739 86,,,,,,,0.00,,,,,,,,0.00,,,,,,,,Olga Needham,307-739-9045,,,,Not Dispatched,0,6.60,"Legacy for Sam's,"
