﻿Date,Customer Name,State,Zipcode,Description,Product Number,Color,Product Status,Net,Shipping Fee,Gift Price,Financing Processing Fee,Order Total,Total Before Tax,Tax,Commission,Primary Payment Method,Primary Payment Balance,Primary Authorize Number,Primary Purchase Order Number,Primary Synchrony Account Number,Primary Synchrony Application Key,Primary Synchrony Account Info,Primary Synchrony Term,Second Payment Method,Second Payment Balance,Second Authorize Number,Second Purchase Order Number,Second Synchrony Account Number,Second Synchrony Application Key,Second Synchrony Account Info,Second Synchrony Term,Third Payment Method,Third Payment Balance,Third Authorize Number,Third Purchase Order Number,Third Synchrony Account Number,Third Synchrony Application Key,Third Synchrony Account Info,Third Synchrony Term,Delivery Date,Pick up,Warranty,Status,Chair Type,Original Event Name,Event Name,Synchrony Notes,Order Notes,Order Number,Private Note,Branch,No Tax,Actual Tax Rate
10/26/2018 3:59:13 PM,Dian Farmer,FL,34205,Hands Free Bike,USJ-849NEW,New,New,,,,,267.48,249.98,17.50,Hiroko Hudson,PurchaseOrder,0.00,,258154487278477616792,,,,,,0.00,,,,,,,,0.00,,,,,,,,YES,"2 years parts, 1 year labor for Small Items",Delivered,,Sam's Club #8201 Bradenton 10/25-11/4/18 (FL),Sam's Club #8201 Bradenton 10/25-11/4/18 (FL),,,110662,,FL,0,7.00
10/28/2018 8:38:12 AM,Prabin Mishra,FL,34221,Vitality Plate for Sam's,USJ-849USJ-849,New,New,,,,,427.99,399.99,28.00,Hiroko Hudson,PurchaseOrder,0.00,,813695631701501313029,,,,,,0.00,,,,,,,,0.00,,,,,,,,YES,"2 years parts, 1 year labor for Small Items",Delivered,,Sam's Club #8201 Bradenton 10/25-11/4/18 (FL),Sam's Club #8201 Bradenton 10/25-11/4/18 (FL),,,110697,,FL,0,7.00
10/28/2018 8:44:00 AM,Digna Maltinez,FL,34203,Hands Free Bike,USJ-849NEW,New,New,,,,,267.48,249.98,17.50,Hiroko Hudson,PurchaseOrder,0.00,,521573718910322108205,,,,,,0.00,,,,,,,,0.00,,,,,,,,YES,"2 years parts, 1 year labor for Small Items",Delivered,,Sam's Club #8201 Bradenton 10/25-11/4/18 (FL),Sam's Club #8201 Bradenton 10/25-11/4/18 (FL),,,110698,,FL,0,7.00
10/29/2018 8:18:35 AM,Lance Maasdarp,FL,33598,Hands Free Bike,USJ-849NEW,New,New,,,,,267.48,249.98,17.50,Hiroko Hudson,PurchaseOrder,0.00,,553563413960322177245,,,,,,0.00,,,,,,,,0.00,,,,,,,,YES,"2 years parts, 1 year labor for Small Items",Delivered,,Sam's Club #8201 Bradenton 10/25-11/4/18 (FL),Sam's Club #8201 Bradenton 10/25-11/4/18 (FL),,,110744,,FL,0,7.00
10/29/2018 4:11:39 PM,Elena Farkas,FL,34209,Vitality Plate for Sam's,USJ-849USJ-849,New,New,,,,,427.99,399.99,28.00,Hiroko Hudson,PurchaseOrder,0.00,,3302 0224 8174 2864 6587 0,,,,,,0.00,,,,,,,,0.00,,,,,,,,YES,"2 years parts, 1 year labor for Small Items",Delivered,,Sam's Club #8201 Bradenton 10/25-11/4/18 (FL),Sam's Club #8201 Bradenton 10/25-11/4/18 (FL),,,110755,,FL,0,7.00
10/30/2018 8:20:12 AM,Fayuan Zhang,FL,34203,Pegasus for Sam's,DWA-9400Pegasus-BL-BOX,Demo Black(Box)[-700],Demo,,,,,4798.00,4798.00,0.00,Hiroko Hudson,PurchaseOrder,0.00,,5883340320354062220661,,,,,,0.00,,,,,,,,0.00,,,,,,,,No,"3 years parts, 2 years labor ($200)",Scheduled,,Sam's Club #8201 Bradenton 10/25-11/4/18 (FL),Sam's Club #8201 Bradenton 10/25-11/4/18 (FL),,,110771,"First Floor
c.c. 11/2 2pm -MQ",FL,1,7.00
11/3/2018 12:48:32 PM,Bill Nimz,FL,34219,Pegasus for Sam's,DWA-9400Pegasus-BR-BOX,Demo Choco(Box)[-700],Demo,,,,,5133.86,4798.00,335.86,Hiroko Hudson,PurchaseOrder,0.00,,4917089553845912616187,,,,,,0.00,,,,,,,,0.00,,,,,,,,No,"3 years parts, 1 year labor (Free)",Scheduled,,Sam's Club #8201 Bradenton 10/25-11/4/18 (FL),Sam's Club #8201 Bradenton 10/25-11/4/18 (FL),,,110879,"CC Josefina - 11/7/18 4:20pm
First floor",FL,0,7.00
11/3/2018 12:57:27 PM,Mary Johnson,FL,34221,Vitality Plate for Sam's,USJ-849USJ-849,New,New,,,,,427.99,399.99,28.00,Hiroko Hudson,PurchaseOrder,0.00,,872695532731501317029,,,,,,0.00,,,,,,,,0.00,,,,,,,,YES,"2 years parts, 1 year labor for Small Items",Delivered,,Sam's Club #8201 Bradenton 10/25-11/4/18 (FL),Sam's Club #8201 Bradenton 10/25-11/4/18 (FL),,,110880,,FL,0,7.00
11/3/2018 2:48:32 PM,Maryann Atkins,FL,34221,Legacy for Sam's,DWA-9100DWA-9100SB-Box,Demo(Box) Sienna Brown[-700],Demo,,,,,3850.93,3599.00,251.93,Hiroko Hudson,PurchaseOrder,0.00,,1802752440156281462840,,,,,,0.00,,,,,,,,0.00,,,,,,,,No,"3 years parts, 1 year labor (Free)",Scheduled,,Sam's Club #8201 Bradenton 10/25-11/4/18 (FL),Sam's Club #8201 Bradenton 10/25-11/4/18 (FL),,,110886,"CC Josefina - 11/7/18 4:18pm VM
First floor",FL,0,7.00
11/4/2018 9:06:20 AM,Long Trieu,FL,34203,Hands Free Bike,USJ-849NEW,New,New,,,,,267.48,249.98,17.50,Hiroko Hudson,PurchaseOrder,0.00,,562563016930322178245,,,,,,0.00,,,,,,,,0.00,,,,,,,,YES,"2 years parts, 1 year labor for Small Items",Delivered,,Sam's Club #8201 Bradenton 10/25-11/4/18 (FL),Sam's Club #8201 Bradenton 10/25-11/4/18 (FL),,,110907,,FL,0,7.00
