﻿Date,CustomerName,State,Zipcode,Description,productNo,Color,Product Status,Net,ShippingFee,GiftPrice,FinancingProcessingFee,Order Total,Pre_tax,Tax,Commission,Primary Payment Method,Primary Payment Balance,Primary Authorize Number,Primary Purchase Order Number,Primary Synchrony Account Number,Primary Synchrony Application Key,Primary Synchrony AccountInfo,Primary SynchronyTerm,Secondly Payment Method,Secondly Payment Balance,Secondly Authorize Number,Secondly Purchase Order Number,Secondly Synchrony Account Number,Secondly Synchrony Application Key,Secondly Synchrony AccountInfo,Secondly SynchronyTerm,Thirdly Payment Method,Thirdly Payment Balance,Thirdly Authorize Number,Thirdly Purchase Order Number,Thirdly Synchrony Account Number,Thirdly Synchrony Application Key,Thirdly Synchrony AccountInfo,Thirdly SynchronyTerm,DeliveryDate,Pick up,Warranty,Status,Original Event Name,Event Name,Synchrony Notes,Order Notes,Order number,Private Note,Branch,No Tax,ActualTaxRate
10/4/2018 9:53:57 AM,U.S. JACLEAN INC.,CA,90249,Foot Vibe Pro,USJ-871,,New,,,,,118.79,109.99,8.80,Michael Wang,CreditCard,118.79,Tc# 394563042510526483712,,,,,,,0.00,,,,,,,,0.00,,,,,,,,YES,"2 years parts, 1 year labor for Small Items",Delivered,"Sam's Club #4872 Columbia, SC 10/4-14/18 (FL)","Sam's Club #4872 Columbia, SC 10/4-14/18 (FL)",,,110055,,CA,0,8.00
10/5/2018 1:48:50 PM,U.S. JACLEAN INC.,CA,90249,Foot Vibe Pro,USJ-871,,New,,,,,118.79,109.99,8.80,Michael Wang,CreditCard,118.79,Tc# 2282 5207 9036 0887 7031 8,,,,,,,0.00,,,,,,,,0.00,,,,,,,,YES,"2 years parts, 1 year labor for Small Items",Delivered,"Sam's Club #4872 Columbia, SC 10/4-14/18 (FL)","Sam's Club #4872 Columbia, SC 10/4-14/18 (FL)",,,110087,,CA,0,8.00
10/5/2018 5:25:49 PM,U.S. JACLEAN INC.,CA,90249,Foot Vibe Pro,USJ-871,,New,,,,,334.77,309.97,24.80,Michael Wang,CreditCard,334.77,Tc# 3363 3068 9194 1688 8255 6,,,,,,,0.00,,,,,,,,0.00,,,,,,,,YES,"2 years parts, 1 year labor for Small Items",Delivered,"Sam's Club #4872 Columbia, SC 10/4-14/18 (FL)","Sam's Club #4872 Columbia, SC 10/4-14/18 (FL)",,,110095,,CA,0,8.00
10/5/2018 5:25:49 PM,U.S. JACLEAN INC.,CA,90249,Shogun Neck & Back Massger,USJ-874USJ-874,New,New,,,,,334.77,309.97,24.80,Michael Wang,CreditCard,334.77,Tc# 3363 3068 9194 1688 8255 6,,,,,,,0.00,,,,,,,,0.00,,,,,,,,YES,"2 years parts, 1 year labor for Small Items",Delivered,"Sam's Club #4872 Columbia, SC 10/4-14/18 (FL)","Sam's Club #4872 Columbia, SC 10/4-14/18 (FL)",,,110095,,CA,0,8.00
10/6/2018 9:53:48 AM,U.S. JACLEAN INC.,CA,90249,Foot Vibe Pro,USJ-871,,New,,,,,334.77,309.97,24.80,Michael Wang,CreditCard,334.77,Tc# 8437 8960 7793 7100 0966 1,,,,,,,0.00,,,,,,,,0.00,,,,,,,,YES,"2 years parts, 1 year labor for Small Items",Delivered,"Sam's Club #4872 Columbia, SC 10/4-14/18 (FL)","Sam's Club #4872 Columbia, SC 10/4-14/18 (FL)",,,110099,,CA,0,8.00
10/6/2018 9:53:48 AM,U.S. JACLEAN INC.,CA,90249,Shogun Neck & Back Massger,USJ-874USJ-874,New,New,,,,,334.77,309.97,24.80,Michael Wang,CreditCard,334.77,Tc# 8437 8960 7793 7100 0966 1,,,,,,,0.00,,,,,,,,0.00,,,,,,,,YES,"2 years parts, 1 year labor for Small Items",Delivered,"Sam's Club #4872 Columbia, SC 10/4-14/18 (FL)","Sam's Club #4872 Columbia, SC 10/4-14/18 (FL)",,,110099,,CA,0,8.00
10/6/2018 11:44:12 AM,Mohamed Sadek,SC,29016,Daiwa Blanket,,,New,,,,,3454.92,3199.00,255.92,Michael Wang,CreditCard,3454.92,Tc# 8667 3493 0274 3717 0356 61,,,,,,,0.00,,,,,,,,0.00,,,,,,,,No,No Warranty,Scheduled,"Sam's Club #4872 Columbia, SC 10/4-14/18 (FL)","Sam's Club #4872 Columbia, SC 10/4-14/18 (FL)",,,110100,"CC Josefina - 10/10/18 10:50am
For the 2nd chair pad just give foam black chair pad.Please bring a total of 2 Daiwa blankets.1st floor delivery.",FL,0,8.00
10/6/2018 11:44:12 AM,Mohamed Sadek,SC,29016,Chair Pad for Relax2Zero 2.0,,,New,,,,,3454.92,3199.00,255.92,Michael Wang,CreditCard,3454.92,Tc# 8667 3493 0274 3717 0356 61,,,,,,,0.00,,,,,,,,0.00,,,,,,,,No,No Warranty,Scheduled,"Sam's Club #4872 Columbia, SC 10/4-14/18 (FL)","Sam's Club #4872 Columbia, SC 10/4-14/18 (FL)",,,110100,"CC Josefina - 10/10/18 10:50am
For the 2nd chair pad just give foam black chair pad.Please bring a total of 2 Daiwa blankets.1st floor delivery.",FL,0,8.00
10/6/2018 11:44:12 AM,Mohamed Sadek,SC,29016,Relax 2 Zero 2.0 for Sam's,USJ-9050USJ-9050BL-DEMO (Box),Demo (Box) Black[-701],Demo,,,,,3454.92,3199.00,255.92,Michael Wang,CreditCard,3454.92,Tc# 8667 3493 0274 3717 0356 61,,,,,,,0.00,,,,,,,,0.00,,,,,,,,No,"3 years parts, 1 year labor (Free)",Scheduled,"Sam's Club #4872 Columbia, SC 10/4-14/18 (FL)","Sam's Club #4872 Columbia, SC 10/4-14/18 (FL)",,,110100,"CC Josefina - 10/10/18 10:50am
For the 2nd chair pad just give foam black chair pad.Please bring a total of 2 Daiwa blankets.1st floor delivery.",FL,0,8.00
10/7/2018 1:54:54 PM,Meenakshi Singh,SC,29078,Legacy for Sam's,DWA-9100DWA-9100CH-Box,Demo(Box) Choco[-700],Demo,,,,,4200.09,3888.97,311.12,Michael Wang,CreditCard,4200.09,Tc# 3002 4428 8802 1086 7483 48,,,,,,,0.00,,,,,,,,0.00,,,,,,,,No,"3 years parts, 1 year labor (Free)",Assigned,"Sam's Club #4872 Columbia, SC 10/4-14/18 (FL)","Sam's Club #4872 Columbia, SC 10/4-14/18 (FL)",,,110138,"CC Josefina - 10/9/18 1:40pm (To schedule delivery call (803) 438-6023 ask for Tenisha) 
Shogun & FootVibe picked up - Confirmed with Michael


Please give 1 foam chair pad for shogun and chair.Wednesday morning deliveries preferred.Delivery to med spa.",FL,0,8.00
10/7/2018 1:54:54 PM,Meenakshi Singh,SC,29078,Daiwa Blanket,,,New,,,,,4200.09,3888.97,311.12,Michael Wang,CreditCard,4200.09,Tc# 3002 4428 8802 1086 7483 48,,,,,,,0.00,,,,,,,,0.00,,,,,,,,No,no warranty,Assigned,"Sam's Club #4872 Columbia, SC 10/4-14/18 (FL)","Sam's Club #4872 Columbia, SC 10/4-14/18 (FL)",,,110138,"CC Josefina - 10/9/18 1:40pm (To schedule delivery call (803) 438-6023 ask for Tenisha) 
Shogun & FootVibe picked up - Confirmed with Michael


Please give 1 foam chair pad for shogun and chair.Wednesday morning deliveries preferred.Delivery to med spa.",FL,0,8.00
10/7/2018 1:54:54 PM,Meenakshi Singh,SC,29078,Chair Pad for Legacy,,,New,,,,,4200.09,3888.97,311.12,Michael Wang,CreditCard,4200.09,Tc# 3002 4428 8802 1086 7483 48,,,,,,,0.00,,,,,,,,0.00,,,,,,,,No,no warranty,Assigned,"Sam's Club #4872 Columbia, SC 10/4-14/18 (FL)","Sam's Club #4872 Columbia, SC 10/4-14/18 (FL)",,,110138,"CC Josefina - 10/9/18 1:40pm (To schedule delivery call (803) 438-6023 ask for Tenisha) 
Shogun & FootVibe picked up - Confirmed with Michael


Please give 1 foam chair pad for shogun and chair.Wednesday morning deliveries preferred.Delivery to med spa.",FL,0,8.00
10/7/2018 1:54:54 PM,Meenakshi Singh,SC,29078,Foot Vibe Pro,USJ-871,,New,,,,,4200.09,3888.97,311.12,Michael Wang,CreditCard,4200.09,Tc# 3002 4428 8802 1086 7483 48,,,,,,,0.00,,,,,,,,0.00,,,,,,,,No,"2 years parts, 1 year labor for Small Items",Assigned,"Sam's Club #4872 Columbia, SC 10/4-14/18 (FL)","Sam's Club #4872 Columbia, SC 10/4-14/18 (FL)",,,110138,"CC Josefina - 10/9/18 1:40pm (To schedule delivery call (803) 438-6023 ask for Tenisha) 
Shogun & FootVibe picked up - Confirmed with Michael


Please give 1 foam chair pad for shogun and chair.Wednesday morning deliveries preferred.Delivery to med spa.",FL,0,8.00
10/7/2018 1:54:54 PM,Meenakshi Singh,SC,29078,Shogun Neck & Back Massger,USJ-874USJ-874-DEMO,Demo[-20],Demo,,,,,4200.09,3888.97,311.12,Michael Wang,CreditCard,4200.09,Tc# 3002 4428 8802 1086 7483 48,,,,,,,0.00,,,,,,,,0.00,,,,,,,,No,"2 years parts, 1 year labor for Small Items",Assigned,"Sam's Club #4872 Columbia, SC 10/4-14/18 (FL)","Sam's Club #4872 Columbia, SC 10/4-14/18 (FL)",,,110138,"CC Josefina - 10/9/18 1:40pm (To schedule delivery call (803) 438-6023 ask for Tenisha) 
Shogun & FootVibe picked up - Confirmed with Michael


Please give 1 foam chair pad for shogun and chair.Wednesday morning deliveries preferred.Delivery to med spa.",FL,0,8.00
10/7/2018 2:25:28 PM,Colin Welch,SC,29229,Foot Vibe Pro,USJ-871,,New,,,,,4005.71,3708.99,296.72,Michael Wang,CreditCard,4005.72,Tc# 1621 6347 7124 8270 9141 77,,,,,,,0.00,,,,,,,,0.00,,,,,,,,No,"2 years parts, 1 year labor for Small Items",Assigned,"Sam's Club #4872 Columbia, SC 10/4-14/18 (FL)","Sam's Club #4872 Columbia, SC 10/4-14/18 (FL)",,,110139,"CC Josefina - 10/9/18 1:38pm
Customer picked up FootVibe - confirmed with Michael
Important: 3rd floor delivery and customer would like the chair by end of October otherwise they won’t be back to Columbia until mid November.Give 1 extra foam pad to customer.",FL,0,8.00
10/7/2018 2:25:28 PM,Colin Welch,SC,29229,Legacy for Sam's,DWA-9100DWA-9100CH-Box,Demo(Box) Choco[-700],Demo,,,,,4005.71,3708.99,296.72,Michael Wang,CreditCard,4005.72,Tc# 1621 6347 7124 8270 9141 77,,,,,,,0.00,,,,,,,,0.00,,,,,,,,No,"3 years parts, 1 year labor (Free)",Assigned,"Sam's Club #4872 Columbia, SC 10/4-14/18 (FL)","Sam's Club #4872 Columbia, SC 10/4-14/18 (FL)",,,110139,"CC Josefina - 10/9/18 1:38pm
Customer picked up FootVibe - confirmed with Michael
Important: 3rd floor delivery and customer would like the chair by end of October otherwise they won’t be back to Columbia until mid November.Give 1 extra foam pad to customer.",FL,0,8.00
10/7/2018 2:25:28 PM,Colin Welch,SC,29229,Daiwa Blanket,,,New,,,,,4005.71,3708.99,296.72,Michael Wang,CreditCard,4005.72,Tc# 1621 6347 7124 8270 9141 77,,,,,,,0.00,,,,,,,,0.00,,,,,,,,No,no warranty,Assigned,"Sam's Club #4872 Columbia, SC 10/4-14/18 (FL)","Sam's Club #4872 Columbia, SC 10/4-14/18 (FL)",,,110139,"CC Josefina - 10/9/18 1:38pm
Customer picked up FootVibe - confirmed with Michael
Important: 3rd floor delivery and customer would like the chair by end of October otherwise they won’t be back to Columbia until mid November.Give 1 extra foam pad to customer.",FL,0,8.00
10/7/2018 2:25:28 PM,Colin Welch,SC,29229,Chair Pad for Legacy,,,New,,,,,4005.71,3708.99,296.72,Michael Wang,CreditCard,4005.72,Tc# 1621 6347 7124 8270 9141 77,,,,,,,0.00,,,,,,,,0.00,,,,,,,,No,no warranty,Assigned,"Sam's Club #4872 Columbia, SC 10/4-14/18 (FL)","Sam's Club #4872 Columbia, SC 10/4-14/18 (FL)",,,110139,"CC Josefina - 10/9/18 1:38pm
Customer picked up FootVibe - confirmed with Michael
Important: 3rd floor delivery and customer would like the chair by end of October otherwise they won’t be back to Columbia until mid November.Give 1 extra foam pad to customer.",FL,0,8.00
10/7/2018 2:33:25 PM,Robert Tomassetti,SC,29588,Legacy for Sam's,DWA-9100DWA-9100CH-Box,Demo(Box) Choco[-700],Demo,,,,,3886.92,3599.00,287.92,Michael Wang,CreditCard,3886.92,Tc# 7036 3053 0196 1909 2138 40,,,,,,,0.00,,,,,,,,0.00,,,,,,,,No,"3 years parts, 1 year labor (Free)",Scheduled,"Sam's Club #4872 Columbia, SC 10/4-14/18 (FL)","Sam's Club #4872 Columbia, SC 10/4-14/18 (FL)",,,110140,"CC Josefina - 10/8/18
Please give one extra foam chair pad.If possible customer wants delivery by Oct 17 otherwise he won’t be home until Nov 14.He doesn’t want to wait 1.5 months for delivery.",FL,0,8.00
10/7/2018 2:33:25 PM,Robert Tomassetti,SC,29588,Daiwa Blanket,,,New,,,,,3886.92,3599.00,287.92,Michael Wang,CreditCard,3886.92,Tc# 7036 3053 0196 1909 2138 40,,,,,,,0.00,,,,,,,,0.00,,,,,,,,No,no warranty,Scheduled,"Sam's Club #4872 Columbia, SC 10/4-14/18 (FL)","Sam's Club #4872 Columbia, SC 10/4-14/18 (FL)",,,110140,"CC Josefina - 10/8/18
Please give one extra foam chair pad.If possible customer wants delivery by Oct 17 otherwise he won’t be home until Nov 14.He doesn’t want to wait 1.5 months for delivery.",FL,0,8.00
10/7/2018 2:33:25 PM,Robert Tomassetti,SC,29588,Chair Pad for Legacy,,,New,,,,,3886.92,3599.00,287.92,Michael Wang,CreditCard,3886.92,Tc# 7036 3053 0196 1909 2138 40,,,,,,,0.00,,,,,,,,0.00,,,,,,,,No,no warranty,Scheduled,"Sam's Club #4872 Columbia, SC 10/4-14/18 (FL)","Sam's Club #4872 Columbia, SC 10/4-14/18 (FL)",,,110140,"CC Josefina - 10/8/18
Please give one extra foam chair pad.If possible customer wants delivery by Oct 17 otherwise he won’t be home until Nov 14.He doesn’t want to wait 1.5 months for delivery.",FL,0,8.00
10/7/2018 2:38:09 PM,U.S. JACLEAN INC.,CA,90249,Foot Vibe Pro,USJ-871,,New,,,,,118.79,109.99,8.80,Michael Wang,CreditCard,118.79,Tc# 0023 0036 2134 1648 8356 6,,,,,,,0.00,,,,,,,,0.00,,,,,,,,YES,"2 years parts, 1 year labor for Small Items",Delivered,"Sam's Club #4872 Columbia, SC 10/4-14/18 (FL)","Sam's Club #4872 Columbia, SC 10/4-14/18 (FL)",,,110141,,CA,0,8.00
10/8/2018 10:50:21 AM,U.S. JACLEAN INC.,CA,90249,Shogun Neck & Back Massger,USJ-874USJ-874,New,New,,,,,215.98,199.98,16.00,Michael Wang,CreditCard,215.98,Tc# 8097 9901 9783 7110 3864 1,,,,,,,0.00,,,,,,,,0.00,,,,,,,,YES,"2 years parts, 1 year labor for Small Items",Delivered,"Sam's Club #4872 Columbia, SC 10/4-14/18 (FL)","Sam's Club #4872 Columbia, SC 10/4-14/18 (FL)",,,110184,,CA,0,8.00
10/9/2018 10:48:15 AM,Leo Bethel,SC,29229,Daiwa Blanket,,,New,,,,,3454.92,3199.00,255.92,Michael Wang,CreditCard,3454.92,Tc# 9775 5834 2456 9525 4067 72,,,,,,,0.00,,,,,,,,0.00,,,,,,,,No,No Warranty,Scheduled,"Sam's Club #4872 Columbia, SC 10/4-14/18 (FL)","Sam's Club #4872 Columbia, SC 10/4-14/18 (FL)",,,110221,"CC Josefina - 10/10/18 10:40am
Please give customer an extra chair pad.",FL,0,8.00
10/9/2018 10:48:15 AM,Leo Bethel,SC,29229,Chair Pad for Relax2Zero 2.0,,,New,,,,,3454.92,3199.00,255.92,Michael Wang,CreditCard,3454.92,Tc# 9775 5834 2456 9525 4067 72,,,,,,,0.00,,,,,,,,0.00,,,,,,,,No,No Warranty,Scheduled,"Sam's Club #4872 Columbia, SC 10/4-14/18 (FL)","Sam's Club #4872 Columbia, SC 10/4-14/18 (FL)",,,110221,"CC Josefina - 10/10/18 10:40am
Please give customer an extra chair pad.",FL,0,8.00
10/9/2018 10:48:15 AM,Leo Bethel,SC,29229,Relax 2 Zero 2.0 for Sam's,USJ-9050USJ-9050BR-DEMO (Box),Demo (Box) Brown[-701],Demo,,,,,3454.92,3199.00,255.92,Michael Wang,CreditCard,3454.92,Tc# 9775 5834 2456 9525 4067 72,,,,,,,0.00,,,,,,,,0.00,,,,,,,,No,"3 years parts, 1 year labor (Free)",Scheduled,"Sam's Club #4872 Columbia, SC 10/4-14/18 (FL)","Sam's Club #4872 Columbia, SC 10/4-14/18 (FL)",,,110221,"CC Josefina - 10/10/18 10:40am
Please give customer an extra chair pad.",FL,0,8.00
10/9/2018 5:24:48 PM,U.S. JACLEAN INC.,CA,90249,Foot Vibe Pro,USJ-871,,New,,,,,118.79,109.99,8.80,Michael Wang,CreditCard,118.79,Tc# 9277 8961 6743 7140 5764 1,,,,,,,0.00,,,,,,,,0.00,,,,,,,,YES,"2 years parts, 1 year labor for Small Items",Delivered,"Sam's Club #4872 Columbia, SC 10/4-14/18 (FL)","Sam's Club #4872 Columbia, SC 10/4-14/18 (FL)",,,110232,,CA,0,8.00
10/11/2018 4:47:24 PM,U.S. JACLEAN INC.,CA,90249,Shogun Neck & Back Massger,USJ-874USJ-874-DEMO,Demo[-20],Demo,,,,,194.38,179.98,14.40,Michael Wang,CreditCard,194.38,Tc# 8667 7961 0783 7170 9861 1,,,,,,,0.00,,,,,,,,0.00,,,,,,,,YES,"2 years parts, 1 year labor for Small Items",Delivered,"Sam's Club #4872 Columbia, SC 10/4-14/18 (FL)","Sam's Club #4872 Columbia, SC 10/4-14/18 (FL)",,,110250,,CA,0,8.00
10/12/2018 6:43:44 AM,U.S. JACLEAN INC.,CA,90249,Shogun Neck & Back Massger,USJ-874USJ-874-DEMO,Demo[-20],Demo,,,,,194.38,179.98,14.40,Michael Wang,CreditCard,194.38,Tc# 3275 0382 3550 5224 9377 2,,,,,,,0.00,,,,,,,,0.00,,,,,,,,YES,"2 years parts, 1 year labor for Small Items",Delivered,"Sam's Club #4872 Columbia, SC 10/4-14/18 (FL)","Sam's Club #4872 Columbia, SC 10/4-14/18 (FL)",,,110252,,CA,0,8.00
10/12/2018 6:46:05 AM,U.S. JACLEAN INC.,CA,90249,Shogun Neck & Back Massger,USJ-874USJ-874-DEMO,Demo[-20],Demo,,,,,194.38,179.98,14.40,Michael Wang,CreditCard,194.38,Tc# 6400 7639 1437 4995 2800 9,,,,,,,0.00,,,,,,,,0.00,,,,,,,,YES,"2 years parts, 1 year labor for Small Items",Delivered,"Sam's Club #4872 Columbia, SC 10/4-14/18 (FL)","Sam's Club #4872 Columbia, SC 10/4-14/18 (FL)",,,110253,,CA,0,8.00
10/12/2018 6:48:19 AM,U.S. JACLEAN INC.,CA,90249,Foot Vibe Pro,USJ-871,,New,,,,,118.79,109.99,8.80,Michael Wang,CreditCard,118.79,Tc# 5186 5570 6941 9012 2380 0,,,,,,,0.00,,,,,,,,0.00,,,,,,,,YES,"2 years parts, 1 year labor for Small Items",Delivered,"Sam's Club #4872 Columbia, SC 10/4-14/18 (FL)","Sam's Club #4872 Columbia, SC 10/4-14/18 (FL)",,,110254,,CA,0,8.00
10/12/2018 6:51:57 AM,U.S. JACLEAN INC.,CA,90249,Foot Vibe Pro,USJ-871,,New,,,,,109.99,109.99,0.00,Michael Wang,CreditCard,109.99,Tc# 8429 7825 7617 6593 9929 5,,,,,,,0.00,,,,,,,,0.00,,,,,,,,YES,"2 years parts, 1 year labor for Small Items",Delivered,"Sam's Club #4872 Columbia, SC 10/4-14/18 (FL)","Sam's Club #4872 Columbia, SC 10/4-14/18 (FL)",,,110255,Customer is plus member so no tax.,CA,1,8.00
10/12/2018 9:05:36 AM,Gerald McMahan,SC,29016,Foot Vibe Pro,USJ-871,,New,,,,,118.79,109.99,8.80,Michael Wang,CreditCard,118.79,Tc# 3585 6382 2580 5234 4576 2,,,,,,,0.00,,,,,,,,0.00,,,,,,,,YES,"2 years parts, 1 year labor for Small Items",Delivered,"Sam's Club #4872 Columbia, SC 10/4-14/18 (FL)","Sam's Club #4872 Columbia, SC 10/4-14/18 (FL)",,,110256,Customer going on vacation on 10/22 to 10/28.If possible can the foot vibe arrive 10/29/18?,FL,0,8.00
10/12/2018 10:45:24 AM,Gail Crissinger,SC,29045,Foot Vibe Pro,USJ-871,,New,,,,,118.79,109.99,8.80,Michael Wang,CreditCard,118.79,Tc# 2452 2218 8016 0867 7138 8,,,,,,,0.00,,,,,,,,0.00,,,,,,,,YES,"2 years parts, 1 year labor for Small Items",Paid,"Sam's Club #4872 Columbia, SC 10/4-14/18 (FL)","Sam's Club #4872 Columbia, SC 10/4-14/18 (FL)",,,110257,Sold out of foot vibe please ship out foot vibe and email tracking number.//Please arrange the shipment.10/12/18 Hitomi,FL,0,8.00
10/12/2018 11:30:21 AM,Cynthia Lockridge,SC,29209,Orbit for Sam's ,ORBT-1ORBT-1CH-BOX,Demo Choco(Box)[-300],Demo,,,,,2913.84,2698.00,215.84,Michael Wang,CreditCard,2913.84,Tc# 0682 5629 8000 6085 7823 68,,,,,,,0.00,,,,,,,,0.00,,,,,,,,No,"3 years parts, 1 year labor (Free)",Paid,"Sam's Club #4872 Columbia, SC 10/4-14/18 (FL)","Sam's Club #4872 Columbia, SC 10/4-14/18 (FL)",,,110258,Please note this will be 2nd floor delivery.Also email address is lockridgece@yahoo.com.,FL,0,8.00
10/12/2018 11:30:21 AM,Cynthia Lockridge,SC,29209,Daiwa Blanket,,,New,,,,,2913.84,2698.00,215.84,Michael Wang,CreditCard,2913.84,Tc# 0682 5629 8000 6085 7823 68,,,,,,,0.00,,,,,,,,0.00,,,,,,,,No,no warranty,Paid,"Sam's Club #4872 Columbia, SC 10/4-14/18 (FL)","Sam's Club #4872 Columbia, SC 10/4-14/18 (FL)",,,110258,Please note this will be 2nd floor delivery.Also email address is lockridgece@yahoo.com.,FL,0,8.00
10/12/2018 11:30:21 AM,Cynthia Lockridge,SC,29209,Chair Pad for Legacy,,,New,,,,,2913.84,2698.00,215.84,Michael Wang,CreditCard,2913.84,Tc# 0682 5629 8000 6085 7823 68,,,,,,,0.00,,,,,,,,0.00,,,,,,,,No,no warranty,Paid,"Sam's Club #4872 Columbia, SC 10/4-14/18 (FL)","Sam's Club #4872 Columbia, SC 10/4-14/18 (FL)",,,110258,Please note this will be 2nd floor delivery.Also email address is lockridgece@yahoo.com.,FL,0,8.00
10/13/2018 11:30:20 AM,Lori Aamold,SC,29150,Legacy for Sam's,DWA-9100DWA-9100CH-Box,Demo(Box) Choco[-700],Demo,,,,,3886.92,3599.00,287.92,Michael Wang,CreditCard,3886.92,Tc# 1802 9828 8300 6080 7623 98,,,,,,,0.00,,,,,,,,0.00,,,,,,,,No,"3 years parts, 1 year labor (Free)",Assigned,"Sam's Club #4872 Columbia, SC 10/4-14/18 (FL)","Sam's Club #4872 Columbia, SC 10/4-14/18 (FL)",,,110268,"Just in case you can contact customer at aamold1@gmail.com
10/15Maritza Courtesy email + message sent @ 12:40PM",FL,0,8.00
10/13/2018 11:30:20 AM,Lori Aamold,SC,29150,Daiwa Blanket,,,New,,,,,3886.92,3599.00,287.92,Michael Wang,CreditCard,3886.92,Tc# 1802 9828 8300 6080 7623 98,,,,,,,0.00,,,,,,,,0.00,,,,,,,,No,no warranty,Assigned,"Sam's Club #4872 Columbia, SC 10/4-14/18 (FL)","Sam's Club #4872 Columbia, SC 10/4-14/18 (FL)",,,110268,"Just in case you can contact customer at aamold1@gmail.com
10/15Maritza Courtesy email + message sent @ 12:40PM",FL,0,8.00
10/13/2018 11:30:20 AM,Lori Aamold,SC,29150,Chair Pad for Legacy,,,New,,,,,3886.92,3599.00,287.92,Michael Wang,CreditCard,3886.92,Tc# 1802 9828 8300 6080 7623 98,,,,,,,0.00,,,,,,,,0.00,,,,,,,,No,no warranty,Assigned,"Sam's Club #4872 Columbia, SC 10/4-14/18 (FL)","Sam's Club #4872 Columbia, SC 10/4-14/18 (FL)",,,110268,"Just in case you can contact customer at aamold1@gmail.com
10/15Maritza Courtesy email + message sent @ 12:40PM",FL,0,8.00
10/13/2018 4:42:37 PM,Pearlie Downer,FL,34465,Foot Vibe Pro,USJ-871,,New,,,,,118.79,109.99,8.80,Michael Wang,CreditCard,118.79,Tc# 7627 5981 7723 7160 9766 1,,,,,,,0.00,,,,,,,,0.00,,,,,,,,YES,"2 years parts, 1 year labor for Small Items",Paid,"Sam's Club #4872 Columbia, SC 10/4-14/18 (FL)","Sam's Club #4872 Columbia, SC 10/4-14/18 (FL)",,,110274,Please ship customer 1 foot vibe and email tracking number.,FL,0,8.00
10/14/2018 1:32:53 PM,Ken Webber,SC,29229,Foot Vibe Pro,USJ-871,,New,,,,,313.17,289.97,23.20,Michael Wang,CreditCard,313.17,Tc# 0191 4477 4218 2799 4010 7,,,,,,,0.00,,,,,,,,0.00,,,,,,,10/15/2018 12:00:00 AM,YES,"2 years parts, 1 year labor for Small Items",Delivered,"Sam's Club #4872 Columbia, SC 10/4-14/18 (FL)","Sam's Club #4872 Columbia, SC 10/4-14/18 (FL)",,Please ship customer 1 Foot vibe and 1 black foam chair pad for Shogun massager.Please email customer tracking number.,110308,,FL,0,8.00
10/14/2018 1:32:53 PM,Ken Webber,SC,29229,Shogun Neck & Back Massger,USJ-874USJ-874-DEMO,Demo[-20],Demo,,,,,313.17,289.97,23.20,Michael Wang,CreditCard,313.17,Tc# 0191 4477 4218 2799 4010 7,,,,,,,0.00,,,,,,,,0.00,,,,,,,10/15/2018 12:00:00 AM,YES,"2 years parts, 1 year labor for Small Items",Delivered,"Sam's Club #4872 Columbia, SC 10/4-14/18 (FL)","Sam's Club #4872 Columbia, SC 10/4-14/18 (FL)",,Please ship customer 1 Foot vibe and 1 black foam chair pad for Shogun massager.Please email customer tracking number.,110308,,FL,0,8.00
