﻿Original Event Name,Event Name,Sales Person,Order Number,Order Date,Customer Name,State,Zip,Product Name,Color,Product Status,QTY,Tax,Total Before Tax,Order Total,Primary Payment Method,Second Payment Method,Thirdl Payment Method,Warranty,Order Items,Pick up,Delivered On,Order Status,Chair Type,Order Notes,Private Note,Branch,No Tax,Actual Tax Rate,SKU,Primary Payment Balance,Primary Authorize Number,Primary Purchase Order Number,Primary Synchrony Account Number,Primary Synchrony Application Key,Primary Synchrony Account Info,Primary Synchrony Term,Primary Synchrony Primary ID,Primary Synchrony Issued State,Primary Synchrony Expiretion Date,Second Payment Balance,Second Authorize Number,Second Purchase Order Number,Second Synchrony Account Number,Second Synchrony Application Key,Second Synchrony Account Info,Second SynchronyTerm,Second Synchrony Primary ID,Second Synchrony Issued State,Second Synchrony Expiretion Date,Third Payment Balance,Third Authorize Number,Third Purchase Order Number,Third Synchrony Account Number,Third Synchrony Application Key,Third Synchrony Account Info,Third Synchrony Term,Third Synchrony Primary ID,Third Synchrony Issued State,Third Synchrony Expiretion Date
Orlando Home & Garden Show 3/1-3/3/19 (FL),Orlando Home & Garden Show 3/1-3/3/19 (FL),Kristy Tran,115450,3/4/2019 7:32:19 AM,Dell Richards,FL,34731,Relax 2 Zero 3D,New Choco,New,1,258.75,4200.00,4458.75,Synchrony,,,"5 years parts, 1 year labor (Free)","Relax 2 Zero 3D,",No,3/20/2019 12:00:00 AM,Delivered,New,,"Confirmed SYNC$6,500 and original. ***Please charge $4,458.75 / sales draft ** 3/4/19 Hitomi
cc, Jamsin Carrizales, 3/5/19, 10:09am",FL,0,7.50,DWA-9060USJ-9060BR,4458.75,,,6501723375039375,72071866,Huston,36 months,,,,0.00,,,,,,,,,,0.00,,,,,,,,,
Orlando Home & Garden Show 3/1-3/3/19 (FL),Orlando Home & Garden Show 3/1-3/3/19 (FL),Kristy Tran,115451,3/4/2019 7:39:41 AM,Andrea Phillips,KY,42441,Relax 2 Zero 3D,New Choco,New,1,258.75,4200.00,4458.75,Synchrony,,,"5 years parts, 1 year labor (Free)","Relax 2 Zero 3D,",No,3/22/2019 12:00:00 AM,Delivered,New,,"Confirmed SYNC$8,500 and original. ***Please charge $4,458.75/sales draft *** 3/4/19 Hitomi
3/6Maritza Courtesy message sent @ 3:23PM",TX,0,7.50,DWA-9060USJ-9060BR,4458.75,,,6501723375038344,72055047,Huston,36 months,,,,0.00,,,,,,,,,,0.00,,,,,,,,,
Orlando Home & Garden Show 3/1-3/3/19 (FL),Orlando Home & Garden Show 3/1-3/3/19 (FL),Jennifer Tran,115453,3/4/2019 7:49:20 AM,Denis Quinones,FL,32703,Relax 2 Zero 3D,New Choco,New,1,258.75,4200.00,4458.75,Synchrony,,,"5 years parts, 1 year labor (Free)","Relax 2 Zero 3D,",No,3/11/2019 12:00:00 AM,Delivered,New,,"Confirmed SYNC$4,500 and original. ***Please charge $4,458.75 /sales draft **3*/4/19-Hitomi
cc, Jasmin Carrizales,3/5/9, 10:19am, VM",FL,0,7.50,DWA-9060USJ-9060BR,4458.75,,,6501723375037791,72044846,Huston,36 months,,,,0.00,,,,,,,,,,0.00,,,,,,,,,
Orlando Home & Garden Show 3/1-3/3/19 (FL),Orlando Home & Garden Show 3/1-3/3/19 (FL),Jennifer Tran,115455,3/4/2019 7:55:37 AM,Barbara Turcotte,FL,32724,Legacy 3D,New Choco,New,1,258.75,4200.00,4458.75,Synchrony,,,"5 years parts, 1 year labor (Free)","Legacy 3D,",No,,Hold,,*HOLD SYNCHRONY APPLICATION/PROCESS UNTIL SEPTEMBER 2019*,,Not Dispatched,0,7.50,DWA-9150USJ-9150CH,0.00,,,,,,,,,,0.00,,,,,,,,,,0.00,,,,,,,,,
Orlando Home & Garden Show 3/1-3/3/19 (FL),Orlando Home & Garden Show 3/1-3/3/19 (FL),Kristy Tran,115456,3/4/2019 7:57:05 AM,Mary Anne Newton,FL,32826,PEGASUS 2 SMART,Demo Black,Demo,1,303.75,4800.00,5103.75,CreditCard,,,"5 years parts, 1 year labor (Free)","PEGASUS 2 SMART,",No,3/11/2019 12:00:00 AM,Delivered,Demo,SN 1201001180228,"** Chair exchanged due to repairs unsuccessful** NEW S/N: 120100180011
Confirmed $5,103.75 in SQ. - 3/4/19 Hitomi
cc,Jasmin Carrizales, 3/4/19, 2:05pm",FL,0,7.50,PEGS-2PEGS-2-BL-DEMO,5103.75,Square #W2kb,,,,,,,,,0.00,,,,,,,,,,0.00,,,,,,,,,
Orlando Home & Garden Show 3/1-3/3/19 (FL),Orlando Home & Garden Show 3/1-3/3/19 (FL),Kristy Tran,115457,3/4/2019 8:03:50 AM,Leyda Sanchez,FL,34744,Legacy 3D,New Black,New,1,258.75,4200.00,4458.75,CreditCard,COD,,"5 years parts, 1 year labor (Free)","Legacy 3D,",No,,Hold,,"HOLD until May
Customer will possibly be interested in purchasing a floor model if we have one during that time.","COnfirmed $200 in SQ. ***COD$4,258.75*** place on hold until MAY - 3/4/19 Hitomi",FL,0,7.50,DWA-9150USJ-9150BL,200.00,Square #uJ4i,,,,,,,,,4258.75,,,,,,,,,,0.00,,,,,,,,,
Orlando Home & Garden Show 3/1-3/3/19 (FL),Orlando Home & Garden Show 3/1-3/3/19 (FL),Jennifer Tran,115462,3/4/2019 8:24:18 AM,Digna Ignacio,FL,32796,Legacy 3D,Demo Black,Demo,1,206.25,3500.00,3706.25,Synchrony,,,"5 years parts, 1 year labor (Free)","Legacy 3D,",No,3/20/2019 12:00:00 AM,Delivered,Demo,*Please deliver black Daiwa Legacy 3D demo S/N: 0202001170276*,"Confirmed SYNC$8,500 and original. ***Please charge $3,706.25/sales draft *** 3/4/19 Hitomi
CC, Jasmin Carrizales,3/5/19, 10:40am, VM",FL,0,7.50,DWA-9150USJ-9150BL-DEMO,3706.25,,,6501723375040456,72093991,Huston,24 months,,,,0.00,,,,,,,,,,0.00,,,,,,,,,
