﻿Date,CustomerName,State,Zipcode,Description,productNo,Color,IsDemo,Net,ShippingFee,GiftPrice,FinancingProcessingFee,Gross,Pre_tax,Tax,Commission,Primary Payment Method,Primary Payment Balance,Primary Authorize Number,Primary Purchase Order Number,Primary Synchrony Account Number,Primary Synchrony Application Key,Primary Synchrony AccountInfo,Primary SynchronyTerm,Secondly Payment Method,Secondly Payment Balance,Secondly Authorize Number,Secondly Purchase Order Number,Secondly Synchrony Account Number,Secondly Synchrony Application Key,Secondly Synchrony AccountInfo,Secondly SynchronyTerm,Thirdly Payment Method,Thirdly Payment Balance,Thirdly Authorize Number,Thirdly Purchase Order Number,Thirdly Synchrony Account Number,Thirdly Synchrony Application Key,Thirdly Synchrony AccountInfo,Thirdly SynchronyTerm,DeliveryDate,Ispickup,Warranty,Status,Event Name,Synchrony Notes,Order Notes,Order number,Private Note,Branch,IsNoTax,ActualTaxRate
11/30/2017 11:42:13 AM,Daiwa Massage,CA,90249,Vitality Plate for Sam's,USJ-849USJ-849-DEMO,Deomo,New,,,,,427.99,399.99,28.00,Michael Wang,,0.00,Paid in full 399.00,,,,,,,,,,,,,,,,,,,,,,,YES,"2 years parts, 1 year labor (Small Items)",Cancelled,Sam's Club #7658 11/30-12/10 (FL),,,102200,Made deal with customer gave customer new vitality plate for floor model price.Sold at Jacksonville Sam’s 8116.Please enter into Daiwa space system.  // will reenter with correct Sams Club #,CA,0,7.00
11/30/2017 5:41:17 PM,DeRoss Polhill,GA,31523,Vitality Plate for Sam's,USJ-849USJ-849-DEMO,Deomo,New,,,,,427.99,399.99,28.00,Robert Shih,,427.99,TC# 0829 9834 7464 5340 4535 1,,,,,,,,,,,,,,,,,,,,,,,YES,"2 years parts, 1 year labor (Small Items)",Delivered,Sam's Club #7658 11/30-12/10 (FL),,Thank you very much for your business with us in the Sam's club Brunswick GA / Store picked up,102205,,FL,0,7.00
12/5/2017 8:43:09 AM,Harold Hand,GA,31523,Relax2Zero 2.0 for Sam's,USJ-9050USJ-9050BL-DEMO,Demo Black,Demo,,,,,3422.93,3199.00,223.93,Robert Shih,CreditCard,3422.93,TC# 9775 0532 9194 1249 8064 56,,,,,,,0.00,,,,,,,,0.00,,,,,,,12/21/2017 12:00:00 AM,No,"2 years parts, 1 year labor (Small Items)",Delivered,Sam's Club #7658 11/30-12/10 (FL),,Thank you very much for your business with us in the Sam's club Brunswick GA / Deliver about 2 weeks / Customer will not in the town between 12/15 - 12/20 / (S/N) 95160645A,102278,,FL,0,7.00
12/5/2017 9:11:05 AM,Bill Reeves,GA,31525,Relax2Zero 2.0 for Sam's,USJ-9050USJ-9050BR-DEMO,Demo Brown,Demo,,,,,3422.93,3199.00,223.93,Robert Shih,CreditCard,3422.93,TC# 3543 4100 3331 2683 9488 17,,,,,,,0.00,,,,,,,,0.00,,,,,,,12/15/2017 12:00:00 AM,No,"2 years parts, 1 year labor (Small Items)",Delivered,Sam's Club #7658 11/30-12/10 (FL),,Thank you very much for your business with us in the Sam's club Brunswick GA / Deliver about 2 weeks / (S/N) 0102002170066,102279,,FL,0,7.00
12/5/2017 2:14:27 PM,Terry Smith,GA,31331,Relax2Zero 2.0 for Sam's,USJ-9050USJ-9050BR,Brown,New,,,,,3422.93,3199.00,223.93,Robert Shih,CreditCard,3422.93,TC# 9745 0538 9193 1249 0004 56,,,,,,,0.00,,,,,,,,0.00,,,,,,,12/14/2017 12:00:00 AM,No,"3 years parts, 1 year labor (Free)",Delivered,Sam's Club #7658 11/30-12/10 (FL),,Thank you very much for your business with us in the Sam's club Brunswick GA / Pls deliver the NEW one / Deliver about 2 weeks / Hose number  (912)-437-5745,102283,,FL,0,7.00
12/6/2017 9:03:57 AM,Vanessa Harris,GA,31516,Vitality Plate for Sam's,USJ-849USJ-849,New,New,,,,,427.99,399.99,28.00,Robert Shih,Cash,427.99,,,,,,,,0.00,,,,,,,,0.00,,,,,,,,YES,"2 years parts, 1 year labor (Small Items)",Delivered,Sam's Club #7658 11/30-12/10 (FL),,Thank you very much for your business with us in the Sam's club Brunswick GA / Store picked up / TC# 5923 1015 3362 6849 4588 7,102292,,FL,0,7.00
12/6/2017 2:10:37 PM,Vick Patel,GA,31523,Legacy for Sam's,DWA-9100DWA-9100BL,Black,New,,,,,3599.00,3599.00,0.00,Robert Shih,CreditCard,3599.00,TC# 6238 9577 4463 9319 2941 50,,,,,,,0.00,,,,,,,,0.00,,,,,,,12/20/2017 12:00:00 AM,No,"2 years parts, 1 year labor (Small Items)",Delivered,Sam's Club #7658 11/30-12/10 (FL),,Thank you very much for your business with us in the Sam's club Brunswick GA / Pls deliver the NEW one / Deliver about 2 weeks  / Tax exempt,102298,Color change to SIENNA BROWN,FL,1,7.00
12/6/2017 5:58:33 PM,Andrena Martin,GA,31525,Relax2Zero 2.0 for Sam's,USJ-9050USJ-9050BR-DEMO,Demo Brown,Demo,,,,,3422.93,3199.00,223.93,Robert Shih,CreditCard,3422.93,TC# 9755 1538 7792 1249 8074 56,,,,,,,0.00,,,,,,,,0.00,,,,,,,12/20/2017 12:00:00 AM,No,"2 years parts, 1 year labor (Small Items)",Delivered,Sam's Club #7658 11/30-12/10 (FL),,Thank you very much for your business with us in the Sam's club Brunswick GA / Deliver about 2 weeks,102300,"Pls see if we have DEMO Brown if not pls ship the NEW one .
*Customer name is ANITA",FL,0,7.00
12/7/2017 1:30:29 PM,Portia Jackson,GA,31527,Relax2Zero 2.0 for Sam's,USJ-9050USJ-9050BL-DEMO,Demo Black,Demo,,,,,3850.92,3598.99,251.93,Robert Shih,CreditCard,3850.92,TC# 7096 5658 8275 3029 6102 34,,,,,,,0.00,,,,,,,,0.00,,,,,,,12/20/2017 12:00:00 AM,No,"2 years parts, 1 year labor (Small Items)",Delivered,Sam's Club #7658 11/30-12/10 (FL),,Thank you very much for your business with us in the Sam's club Brunswick GA / Deliver about 2 weeks / Vitality plate has been picked up in store,102308,Pls see if we have Demo black  in the warehouse can be deliver. If not pls instead to the New one .,FL,0,7.00
12/7/2017 1:30:29 PM,Portia Jackson,GA,31527,Vitality Plate for Sam's,USJ-849USJ-849-DEMO,Deomo,New,,,,,3850.92,3598.99,251.93,Robert Shih,CreditCard,3850.92,TC# 7096 5658 8275 3029 6102 34,,,,,,,0.00,,,,,,,,0.00,,,,,,,12/20/2017 12:00:00 AM,No,"2 years parts, 1 year labor (Small Items)",Delivered,Sam's Club #7658 11/30-12/10 (FL),,Thank you very much for your business with us in the Sam's club Brunswick GA / Deliver about 2 weeks / Vitality plate has been picked up in store,102308,Pls see if we have Demo black  in the warehouse can be deliver. If not pls instead to the New one .,FL,0,7.00
12/9/2017 12:48:40 PM,Yvonne White,GA,31323,Vitality Plate for Sam's,USJ-849USJ-849-DEMO,Deomo,New,,,,,427.99,399.99,28.00,Robert Shih,CreditCard,427.99,TC# 2949 6872 3487 5390 9933 1,,,,,,,0.00,,,,,,,,0.00,,,,,,,,YES,"2 years parts, 1 year labor (Small Items)",Delivered,Sam's Club #7658 11/30-12/10 (FL),,Thank you very much for your business with us in the Sam's club Brunswick GA .,102342,,FL,0,7.00
12/9/2017 5:35:17 PM,Tanya Harrell,GA,31558,Relax2Zero 2.0 for Sam's,USJ-9050USJ-9050BR,Brown,New,,,,,3422.93,3199.00,223.93,Robert Shih,CreditCard,3422.93,TC# 5964 5316 9651 0465 7226 38,,,,,,,0.00,,,,,,,,0.00,,,,,,,1/3/2018 12:00:00 AM,No,"2 years parts, 1 year labor (Small Items)",Delivered,Sam's Club #7658 11/30-12/10 (FL),,Thank you very much for your business with us in the Sam's club Brunswick GA / Pls deliver the NEW one / Pls deliver the chair at first week of January.,102347,,FL,0,7.00
12/10/2017 10:56:59 AM,John Schwarz,GA,31313,Ninja Leg Massager,,,New,,,,,405.53,379.00,26.53,Robert Shih,CreditCard,405.53,TC# 9694 0169 1550 4657 7667 8,,,,,,,0.00,,,,,,,,0.00,,,,,,,,YES,"2 years parts, 1 year labor (Small Items)",Delivered,Sam's Club #7658 11/30-12/10 (FL),,Thank you very much for your business with us in the Sam's club Brunswick GA.,102370,,FL,0,7.00
12/10/2017 3:02:18 PM,Hoang Vo,GA,31525,Relax2Zero 2.0 for Sam's,USJ-9050USJ-9050BR,Brown,New,,,,,4173.00,3900.00,273.00,Robert Shih,CreditCard,4173.00,CT# 4788 4176 4664 9319 2921 60,,,,,,,0.00,,,,,,,,0.00,,,,,,,12/20/2017 12:00:00 AM,No,"3 years parts, 1 year labor (Free)",Delivered,Sam's Club #7658 11/30-12/10 (FL),,Thank you very much for your business with us in the Sam's club Brunswick GA / Deliver about 2 weeks,102376,,FL,0,7.00
