﻿Original Event Name,Event Name,Sales Person,Order Number,Order Date,Customer Name,State,Zip,Product Name,Color,Product Status,QTY,Tax,Total Before Tax,Order Total,Primary Payment Method,Second Payment Method,Thirdl Payment Method,Warranty,Order Items,Pick up,Delivered On,Order Status,Chair Type,Order Notes,Private Note,Branch,No Tax,Actual Tax Rate,SKU,Primary Payment Balance,Primary Authorize Number,Primary Purchase Order Number,Primary Synchrony Account Number,Primary Synchrony Application Key,Primary Synchrony Account Info,Primary Synchrony Term,Second Payment Balance,Second Authorize Number,Second Purchase Order Number,Second Synchrony Account Number,Second Synchrony Application Key,Second Synchrony Account Info,Second SynchronyTerm,Third Payment Balance,Third Authorize Number,Third Purchase Order Number,Third Synchrony Account Number,Third Synchrony Application Key,Third Synchrony Account Info,Third Synchrony Term
ORLANDO FALL HM & GD 8/10-12/18 ORLANDO (FL),ORLANDO FALL HM & GD 8/10-12/18 ORLANDO (FL),Alex Brackelsberg,108427,8/13/2018 6:10:47 AM,Nadine Fraser,FL,32812,Relax2Zero 3D,Demo Choco,Demo,1,210.56,3989.44,4200.00,Cash,CreditCard,,"3 years parts, 1 year labor (Free)","Relax2Zero 3D,",No,9/7/2018 12:00:00 AM,Delivered,,,"CC Josefina - 8/13/18 4:45pm 

Sold by Andres//talked to Andres, he is holding $100 cash. 8/13/18 Hitomi
//Maggie received $100 cash deposit on 8/13/18. Received cash confirmation. - 10/11/18 Hitomi",FL,0,6.50,DWA-9060USJ-9060BR-DEMO,100.00,,,,,,,4100.00,HOUSECALL PRO INV# 849,,,,,,0.00,,,,,,
ORLANDO FALL HM & GD 8/10-12/18 ORLANDO (FL),ORLANDO FALL HM & GD 8/10-12/18 ORLANDO (FL),Alex Brackelsberg,108428,8/13/2018 6:26:25 AM,Daniel Ickes,FL,34786,Legacy 3D,New Choco,New,1,228.87,4271.13,4500.00,Synchrony,,,"3 years parts, 1 year labor (Free)","Legacy 3D,",No,8/23/2018 12:00:00 AM,Delivered,,Synchrony 36 months 0% APR,"CC Josefina - 8/13/18 4pm VM

Confirmed synchrony account ($8500) and original. ***PLease charge before delivery and have sales draft signed. *** 8/13/18 Hitomi // ***Extra 1 year labor warranty added per Alex 8/20***",FL,0,6.50,DWA-9150USJ-9150CH,4500.00,,,6019170813078919,92863341,Huston,36 months,0.00,,,,,,,0.00,,,,,,
ORLANDO FALL HM & GD 8/10-12/18 ORLANDO (FL),ORLANDO FALL HM & GD 8/10-12/18 ORLANDO (FL),Alex Brackelsberg,108434,8/13/2018 6:41:13 AM,Tracey Snyder,FL,32821,Legacy 3D,Demo Black,Demo,1,210.56,3989.44,4200.00,Synchrony,,,"3 years parts, 1 year labor (Free)","Legacy 3D,Tourmaline Pad for Legacy 3D,",No,8/23/2018 12:00:00 AM,Delivered,,Tourmaline Pad free gift / Synchrony 36 months 0% APR,"CC Josefina - 8/13/18 3:55pm 

Sold by Andres//Confirmed synchrony account ($8500) and original. ***PLease charge before delivery and have sales draft signed.***8/13/18 Hitomi",FL,0,6.50,DWA-9150USJ-9150BL-DEMO,4200.00,,,6019170813076048,92826234,Huston,36 months,0.00,,,,,,,0.00,,,,,,
ORLANDO FALL HM & GD 8/10-12/18 ORLANDO (FL),ORLANDO FALL HM & GD 8/10-12/18 ORLANDO (FL),Alex Brackelsberg,108438,8/13/2018 6:54:13 AM,Peter Webb- O'Hallaran,FL,32828,Legacy 3D,Demo Choco,Demo,1,210.56,3989.44,4200.00,Synchrony,,,"3 years parts, 1 year labor (Free)","Legacy 3D,Chair Pad for Legacy 3D,",No,8/24/2018 12:00:00 AM,Delivered,,Free back pad w/ chair / Synchrony 36 months 0% APR,"CC Josefina - 8/13/18 
NEW PRICE $4,500 FOR NEW CHAIR
Sold by Andres//Confirmed synchrony account ($5100) and original. ***PLease charge before delivery and have sales draft signed. *** 8/13/18 Hitomi",FL,0,6.50,DWA-9150USJ-9150CH-DEMO,4500.00,,,6019170813078778,92861689,Huston,36 months,0.00,,,,,,,0.00,,,,,,
ORLANDO FALL HM & GD 8/10-12/18 ORLANDO (FL),ORLANDO FALL HM & GD 8/10-12/18 ORLANDO (FL),Alex Brackelsberg,108459,8/13/2018 1:38:56 PM,Burr Keathley,NC,28056,Legacy,New Choco,New,1,188.23,3645.77,3834.00,CreditCard,,,"3 years parts, 1 year labor (Free)","Legacy,",No,8/30/2018 12:00:00 AM,Delivered,,,"CC Josefina - 8/14/18 9:05am VM

Re-entered order under correct show//COnfirmed $3,834.00 i nSquare. 8/13/18 Hitomi",FL,0,6.50,DWA-9100DWA-9100BU,3834.00,NTZF,,,,,,0.00,,,,,,,0.00,,,,,,
