﻿Date,CustomerName,State,Zipcode,Description,productNo,Color,IsDemo,Net,ShippingFee,GiftPrice,FinancingProcessingFee,Gross,Pre_tax,Tax,Commission,Primary Payment Method,Primary Payment Balance,Primary Authorize Number,Primary Purchase Order Number,Primary Synchrony Account Number,Primary Synchrony Application Key,Primary Synchrony AccountInfo,Primary SynchronyTerm,Secondly Payment Method,Secondly Payment Balance,Secondly Authorize Number,Secondly Purchase Order Number,Secondly Synchrony Account Number,Secondly Synchrony Application Key,Secondly Synchrony AccountInfo,Secondly SynchronyTerm,Thirdly Payment Method,Thirdly Payment Balance,Thirdly Authorize Number,Thirdly Purchase Order Number,Thirdly Synchrony Account Number,Thirdly Synchrony Application Key,Thirdly Synchrony AccountInfo,Thirdly SynchronyTerm,DeliveryDate,Ispickup,Warranty,Status,Event Name,Synchrony Notes,Order Notes,Order number,Private Note,Branch,IsNoTax,ActualTaxRate
10/29/2017 9:28:34 PM,Julia Lynn,MO,63839,Relax2Zero 3D,DWA-9060USJ-9060BR,Choco Brown,New,,,,,4000.00,3724.83,275.17,Keith Kei,,4000.00,Sqaure #fyOZ Auth Code: 504528,,,,,,,,,,,,,,,,,,,,,,11/10/2017 12:00:00 AM,No,"3 years parts, 1 year labor (Free)",Delivered,Holiday Market Memphis 10/27-10/29 (TX),,"Invoice #1
Remaining Balance: $0 Paid in full.
Please call to confirm delivery direction, the address will not show up on GPS.",101623,Confirmed $4000 in square. 10/30/17 Riho,TX,,
10/29/2017 10:05:28 PM,James C Stout,TN,38016,Legacy,DWA-9100DWA-9100BL,Black,New,,,,,3823.75,3563.50,260.25,Xiongxiaojun Ji,,3823.75,,,6034610081600994,80338258,Huston,36 months,,,,,,,,,,,,,,,,,11/13/2017 12:00:00 AM,No,"3 years parts, 1 year labor (Free)",Delivered,Holiday Market Memphis 10/27-10/29 (TX),,"Invoice #2
Please process sales order on synchrony
36 months zero interest",101624,"Synchrony Cleared - please charge before delivery - 10/30/17  Stephany
CHARGED 11/02/17  AUTH 001647 - STEPHANY 11/15/17",TX,,
10/29/2017 10:37:31 PM,Kenneth R Sneed,TN,38023,Relax2Zero 3D,DWA-9060USJ-9060BR,Choco Brown,New,,,,,4370.00,4063.50,306.50,Keith Kei,,4370.00,,,6034610081601166,80339908,Huston,36 months,,,,,,,,,,,,,,,,,11/9/2017 12:00:00 AM,No,"3 years parts, 1 year labor (Free)",Delivered,Holiday Market Memphis 10/27-10/29 (TX),,"Invoice # 3
Remaining Balance: $0
Please process the sales order on synchrony
36 months zero interest
Call 9018706283 as primary delivery call
Give one free Daiwa Blanket as a gift.",101625,"10/30/17- cristina- [charge synchrony before deliver]
CHARGED 11/16/17 AUTH 016891 - 11/16/17 STEPHANY",TX,,
10/29/2017 10:37:31 PM,Kenneth R Sneed,TN,38023,Daiwa Blanket,,,New,,,,,4370.00,4063.50,306.50,Keith Kei,,4370.00,,,6034610081601166,80339908,Huston,36 months,,,,,,,,,,,,,,,,,11/9/2017 12:00:00 AM,No,no warranty,Delivered,Holiday Market Memphis 10/27-10/29 (TX),,"Invoice # 3
Remaining Balance: $0
Please process the sales order on synchrony
36 months zero interest
Call 9018706283 as primary delivery call
Give one free Daiwa Blanket as a gift.",101625,"10/30/17- cristina- [charge synchrony before deliver]
CHARGED 11/16/17 AUTH 016891 - 11/16/17 STEPHANY",TX,,
11/21/2017 3:19:54 PM,Joseph Lucas,OH,44039,Legacy,DWA-9100DWA-9100CR,Cream,New,,,,,3841.93,3580.14,261.79,Keith Kei,,3841.93,Square Receipt # 8yz0,,,,,,,,,,,,,,,,,,,,,,11/28/2017 12:00:00 AM,No,"3 years parts, 1 year labor (Free)",Delivered,Holiday Market Memphis 10/27-10/29 (TX),,"Invoice #4
Primary contact # : 2165980024
Paid in full through square
Remaining balance : $0
Please rush order",102036,"Please deliver as soon as possible.
SQUARE PAYMENT CLEARED BY ALICIA 11.21.17",TX,0,9.25
11/21/2017 3:32:44 PM,John Bittel,CO,80118,Legacy,DWA-9100DWA-9100CH,Choco Brown,New,,,,,3883.32,3618.03,265.29,Keith Kei,,3883.32,Sqaure Receipt #FC1m,,,,,,,,,,,,,,,,,,,,,,12/12/2017 12:00:00 AM,No,"3 years parts, 1 year labor (Free)",Delivered,Holiday Market Memphis 10/27-10/29 (TX),,"Invoice # 5
Paid in full through square credit card
Remaining balance: $0
Please rush order.",102037,"Please deliver as soon as possible.
SQUARE PAYMENT CLEARED BY ALICIA 11.21.17
Hold until 12/8/2017, customer out of town currently.",TX,0,9.25
