﻿Order Number,Order Date,Event Name,Salesperson,SKU,Product Name,Color,QTY,Warranty,Payment Details,Tax,Order Total,Gross,Primary Payment Method,Primary Payment Balance,Primary Authorize Number,Primary Purchase Order Number,Primary Synchrony Account Number,Primary Synchrony Application Key,Primary Synchrony AccountInfo,Primary SynchronyTerm,Secondly Payment Method,Secondly Payment Balance,Secondly Authorize Number,Secondly Purchase Order Number,Secondly Synchrony Account Number,Secondly Synchrony Application Key,Secondly Synchrony AccountInfo,Secondly SynchronyTerm,Thirdly Payment Method,Thirdly Payment Balance,Thirdly Authorize Number,Thirdly Purchase Order Number,Thirdly Synchrony Account Number,Thirdly Synchrony Application Key,Thirdly Synchrony AccountInfo,Thirdly SynchronyTerm,Actual Shipping Cost,CustomerName,Shipping Address,Delivered On,Serial Number (TO Be),Note,Branch,IsNoTax,ActualTaxRate
107713,7/22/2018 1:47:28 PM,"Sam's Club #6572 Knoxville,TN 7/12-22/18 (FL)",Rodrigo Malabunga,DWA-9100DWA-9100BL-DEMO,Legacy for Sam's,Demo Black,1,"3 years parts, 1 year labor (Free)",CUSTOM ,0.00,3931.91,3931.91,CreditCard,3931.91,Tc #2780426289448496571361,,,,,,,0.00,,,,,,,,0.00,,,,,,,0.00,Warren Hager,865 850 4483,,,,FL,1,9.25
107717,7/22/2018 2:01:00 PM,"Sam's Club #6572 Knoxville,TN 7/12-22/18 (FL)",Rodrigo Malabunga,DWA-9100DWA-9100BG-DEMO,Legacy for Sam's,Demo Beige,1,"3 years parts, 1 year labor (Free)",CUSTOM ,0.00,3931.91,3931.91,CreditCard,3931.91,TC #8483B34A9F4DC5FA,,,,,,,0.00,,,,,,,,0.00,,,,,,,0.00,Sherry Arnold,865 919 2198,,,,FL,1,9.25
107718,7/22/2018 2:09:27 PM,"Sam's Club #6572 Knoxville,TN 7/12-22/18 (FL)",Rodrigo Malabunga,DWA-9100DWA-9100BL,Legacy for Sam's,New Black,1,"3 years parts, 1 year labor (Free)",CUSTOM ,0.00,3931.91,3931.91,CreditCard,3931.91,TC #4782AAF623D9C889,,,,,,,0.00,,,,,,,,0.00,,,,,,,0.00,Steven Johnson,865 385 4672,,,,FL,1,9.25
