﻿Original Event Name,Event Name,Sales Person,Order Number,Order Date,Customer Name,State,Zip,Product Name,Color,Product Status,QTY,Tax,Total Before Tax,Order Total,Primary Payment Method,Second Payment Method,Thirdl Payment Method,Warranty,Order Items,Pick up,Delivered On,Order Status,Chair Type,Order Notes,Private Note,Branch,No Tax,Actual Tax Rate,SKU,Primary Payment Balance,Primary Authorize Number,Primary Purchase Order Number,Primary Synchrony Account Number,Primary Synchrony Application Key,Primary Synchrony Account Info,Primary Synchrony Term,Second Payment Balance,Second Authorize Number,Second Purchase Order Number,Second Synchrony Account Number,Second Synchrony Application Key,Second Synchrony Account Info,Second SynchronyTerm,Third Payment Balance,Third Authorize Number,Third Purchase Order Number,Third Synchrony Account Number,Third Synchrony Application Key,Third Synchrony Account Info,Third Synchrony Term
Island Pacific Store Demo (NV),Island Pacific Store Demo (NV),Rolly San Jose,115314,2/25/2019 12:09:16 AM,Bryan Gibson,NV,89118,Legacy,New Black,New,1,0.00,4200.00,4200.00,Synchrony,,,"3 years parts, 1 year labor (Free)","Legacy,",No,,Assigned,,,"Deliver asap
/2/25/19-will confirm sync -Hitomi
2/26/19-COnfirmed SYNC $5,100 /original.***Please charge $4,200 before delivery and sales draft signed.***-Hitomi

02/26/19 courtesy call / text completed- cristina",NV,1,8.25,DWA-9100DWA-9100BL,4200.00,,,6501723375029497,71763154,Las Vegas,36 months,0.00,,,,,,,0.00,,,,,,
Island Pacific Store Demo (NV),Island Pacific Store Demo (NV),Rolly San Jose,115315,2/25/2019 12:16:16 AM,Hanh Moulton,NV,89147,Ninja Leg Massager 2,New,New,1,0.00,299.98,299.98,Cash,,,"3 years parts, 1 year labor (Free)","Ninja Leg Massager 2,",YES,,Delivered,,,"will confirm cash - 2/25/19 Hitomi
2/26/19- Rolly deposited $300 cash to WF account. Hitomi
2/27/19-Yumi confirmed $300 deposit in our bank acct -Hitomi",NV,1,8.25,USJ-880,300.00,,,,,,,0.00,,,,,,,0.00,,,,,,
Island Pacific Store Demo (NV),Island Pacific Store Demo (NV),Rolly San Jose,115339,2/26/2019 1:02:31 AM,Robert Gamboa,NV,89103,Ninja Leg Massager 2,New,New,1,0.00,299.98,299.98,CreditCard,,,"3 years parts, 1 year labor (Free)","Ninja Leg Massager 2,",YES,,Delivered,,,COnfirmed $300.00 in SQ. - 2/26/19 Hitomi,NV,1,8.25,USJ-880,300.00,SQ# eY84,,,,,,0.00,,,,,,,0.00,,,,,,
