﻿Original Event Name,Event Name,Sales Person,Order Number,Order Date,Customer Name,State,Zip,Product Name,Color,Product Status,QTY,Tax,Total Before Tax,Order Total,Primary Payment Method,Second Payment Method,Thirdl Payment Method,Warranty,Order Items,Pick up,Delivered On,Order Status,Chair Type,Order Notes,Private Note,Branch,No Tax,Actual Tax Rate,SKU,Primary Payment Balance,Primary Authorize Number,Primary Purchase Order Number,Primary Synchrony Account Number,Primary Synchrony Application Key,Primary Synchrony Account Info,Primary Synchrony Term,Primary Synchrony Primary ID,Primary Synchrony Issued State,Primary Synchrony Expiretion Date,Second Payment Balance,Second Authorize Number,Second Purchase Order Number,Second Synchrony Account Number,Second Synchrony Application Key,Second Synchrony Account Info,Second SynchronyTerm,Second Synchrony Primary ID,Second Synchrony Issued State,Second Synchrony Expiretion Date,Third Payment Balance,Third Authorize Number,Third Purchase Order Number,Third Synchrony Account Number,Third Synchrony Application Key,Third Synchrony Account Info,Third Synchrony Term,Third Synchrony Primary ID,Third Synchrony Issued State,Third Synchrony Expiretion Date,First Name,Last Name,Email,Shipping Company,Shipping Address1,Shipping Address2,Shipping Suite,Shipping City,Shipping State,Shipping Zip,Shipping Country,Shipping Phone
"MARICOPA COUNTY HM & LND 10/19-21/18 SCOTTSDALE,AZ (NV)","MARICOPA COUNTY HM & LND 10/19-21/18 SCOTTSDALE,AZ (NV)",Abagail Stirling,110495,10/20/2018 8:58:10 PM,Mark Myer,AZ,85020,Legacy 3D,New Choco,New,1,0.00,4200.00,4200.00,CreditCard,,,"5 years parts, 1 year labor (Free)","Legacy 3D,",No,10/26/2018 12:00:00 AM,Delivered,,,"COnfirmed $4,200 in Square. 10/22/18 Hitomi
Received delivery confiramtion. Chair is NEW --- 2/6/19 Asumi",NV,1,7.95,DWA-9150USJ-9150CH,4200.00,j9rS,,,,,,,,,0.00,,,,,,,,,,0.00,,,,,,,,,,Mark,Myer,markmyer@gmail.com,,1910 E Linger Ln,,,phonix,AZ,85020,United States,303-917-7660
"MARICOPA COUNTY HM & LND 10/19-21/18 SCOTTSDALE,AZ (NV)","MARICOPA COUNTY HM & LND 10/19-21/18 SCOTTSDALE,AZ (NV)",David Wang,110497,10/20/2018 9:06:05 PM,Donald McBride,AZ,85087,Relax2Zero 3D,New Black,New,1,0.00,4200.00,4200.00,CreditCard,,,"5 years parts, 1 year labor (Free)","Relax2Zero 3D,",No,10/25/2018 12:00:00 AM,Delivered,,,"Confirmed $4,200 in Square. 10/22/18 Hitomi
Received delivery confiramtion. Chair is NEW --- 2/6/19 Asumi
Chair is NEW",NV,1,7.95,DWA-9060USJ-9060BL,4200.00,sn2Y,,,,,,,,,0.00,,,,,,,,,,0.00,,,,,,,,,,Donald,McBride,donmcbride55@gmail.com,,42838 N 3rd Ave,,,New River,AZ,85087,United States,480-239-9007
"MARICOPA COUNTY HM & LND 10/19-21/18 SCOTTSDALE,AZ (NV)","MARICOPA COUNTY HM & LND 10/19-21/18 SCOTTSDALE,AZ (NV)",David Wang,110498,10/20/2018 9:12:31 PM,Amir Kajtezovic,AZ,85016,Legacy 3D,Demo Black,Demo,1,0.00,3900.00,3900.00,CreditCard,,,"5 years parts, 1 year labor (Free)","Legacy 3D,",YES,10/19/2018 12:00:00 AM,Delivered,,,"customer picked up already!!! 
Serial number is 91171039D.
//Confirmed $3,900 in Square. will confirm pickup confirmation 10/22/18/ Hitomi//Received pickup confirmation. 10/23/18 Hitomi",NV,1,7.95,DWA-9150USJ-9150BL-DEMO,3900.00,W3Ca,,,,,,,,,0.00,,,,,,,,,,0.00,,,,,,,,,,Amir,Kajtezovic,amir.kajtez@gmail.com,,2177 E Lawrence Rd,,,Phoenix,AZ,85016,United States,602-300-2823
"MARICOPA COUNTY HM & LND 10/19-21/18 SCOTTSDALE,AZ (NV)","MARICOPA COUNTY HM & LND 10/19-21/18 SCOTTSDALE,AZ (NV)",Querubin Milanes,110499,10/20/2018 9:30:07 PM,Chris Brecht,AZ,85140,Relax2Zero 3D,New Choco,New,1,0.00,4200.00,4200.00,CreditCard,,,"5 years parts, 1 year labor (Free)","Relax2Zero 3D,",No,10/26/2018 12:00:00 AM,Delivered,,,"COnfirmed $4,200 in Square. 10/22/18 Hitomi",NV,1,7.95,DWA-9060USJ-9060BR,4200.00,9qHm,,,,,,,,,0.00,,,,,,,,,,0.00,,,,,,,,,,Chris,Brecht,chris@brechtgroop.build,,1240 W Dove tree Ave,,,Queen Creek,AZ,85140,United States,206-786-0824
"MARICOPA COUNTY HM & LND 10/19-21/18 SCOTTSDALE,AZ (NV)","MARICOPA COUNTY HM & LND 10/19-21/18 SCOTTSDALE,AZ (NV)",Querubin Milanes,110500,10/20/2018 10:03:57 PM,Allan Buenaventura,AZ,85297,Legacy,New Black,New,1,0.00,3600.00,3600.00,Synchrony,,,"3 years parts, 1 year labor (Free)","Legacy,",No,10/26/2018 12:00:00 AM,Delivered,,,"will confirm synchrony 10/22/18 Hitomi//COnfirmed SYNC($6,000) and original.***Please charge $3,600 before delivery and sales draft signed.***10/23/18 Hitomi
synchrony auth #024185 $4500 stephany 11/06/18",NV,1,7.95,DWA-9100DWA-9100BL,3600.00,rjU0,,6019170813200190,95953505,Las Vegas,36 months,,,,0.00,,,,,,,,,,0.00,,,,,,,,,,Allan,Buenaventura,hubs102x2@gmail.com,,3138 E. Blue Sage Court,,,Gilbert,AZ,85297,United States,480-993-2383
"MARICOPA COUNTY HM & LND 10/19-21/18 SCOTTSDALE,AZ (NV)","MARICOPA COUNTY HM & LND 10/19-21/18 SCOTTSDALE,AZ (NV)",David Wang,110566,10/22/2018 12:52:39 AM,Yali Chao,AZ,85224,Pegasus,New Choco,New,1,0.00,5000.00,5000.00,Synchrony,,,"5 years parts, 1 year labor (Free)","Pegasus,",No,10/26/2018 12:00:00 AM,Delivered,,,"!!! The customer is really picky.  Please send to the customer within a week!!! OR they will cancel the order!!! Thank you.
//Confirmed SYNC($6,500) and original. ***Please charge $5,000 before delivery and sales draft signed.***10/22/18 Hitomi
SYNCHRONY #024286 $5000 STEPHANY 11/06/18
Chair is NEW --- 2/6/19 Asumi",NV,1,7.95,DWA-9400Pegasus-BR,5000.00,,,6019170813202063,95988083,Las Vegas,48 months,,,,0.00,,,,,,,,,,0.00,,,,,,,,,,Yali,Chao,defaultmail@daiwamassage.com,,1590 E Kent Dr,,,Chandler,AZ,85224,United States,602-509-0287
"MARICOPA COUNTY HM & LND 10/19-21/18 SCOTTSDALE,AZ (NV)","MARICOPA COUNTY HM & LND 10/19-21/18 SCOTTSDALE,AZ (NV)",David Wang,110567,10/22/2018 1:07:34 AM,Tom Kelly,AZ,85254,Relax2Zero 3D,Demo Black,Demo,1,0.00,4000.00,4000.00,CreditCard,,,"5 years parts, 1 year labor (Free)","Relax2Zero 3D,",YES,10/21/2018 12:00:00 AM,Delivered,,,"customer Pick up. serial # 0103001180641. please send manual book!///COnfirmed $4,000 in Square. will confirm pick up confirmation 10/22/18 Hitomi//Received pickup confirmation 10/23/18Hitomi",NV,1,7.95,DWA-9060USJ-9060BL-DEMO,4000.00,Uzar,,,,,,,,,0.00,,,,,,,,,,0.00,,,,,,,,,,Tom,Kelly,coloradokellys@gmail.com,,6429 E Ludlow Dr,,,Scottsdale,AZ,85254,United States,720-838-9632
"MARICOPA COUNTY HM & LND 10/19-21/18 SCOTTSDALE,AZ (NV)","MARICOPA COUNTY HM & LND 10/19-21/18 SCOTTSDALE,AZ (NV)",Abagail Stirling,110568,10/22/2018 1:15:14 AM,Natalie Friend,AZ,85297,Pegasus,New Choco,New,1,0.00,5200.00,5200.00,Synchrony,,,"5 years parts, 1 year labor (Free)","Pegasus,",No,10/26/2018 12:00:00 AM,Delivered,,,"Confirmed SYNC($8,500) and original. ***Please charge $5,200 before delivery and sales draft signed.***10/22/18 Hitomi 
synchrony charged auth #024152 $5200 - stephany 11/05/18",NV,1,7.95,DWA-9400Pegasus-BR,5200.00,,,6019170813201396,95978643,Las Vegas,48 months,,,,0.00,,,,,,,,,,0.00,,,,,,,,,,Natalie,Friend,natalie.friend@bannerhealth.com,,4047 E Sidewinder Ct,,,Gilbert,AZ,85297,United States,480-279-5453
"MARICOPA COUNTY HM & LND 10/19-21/18 SCOTTSDALE,AZ (NV)","MARICOPA COUNTY HM & LND 10/19-21/18 SCOTTSDALE,AZ (NV)",Querubin Milanes,110569,10/22/2018 1:16:08 AM,Rainer Willingham,AZ,85375,Legacy,Demo Black,Demo,1,0.00,3000.00,3000.00,CreditCard,,,"3 years parts, 1 year labor (Free)","Legacy,",YES,10/27/2018 12:00:00 AM,Delivered,,,"Please Deliver the Legacy Black Demo as soon as possible. Thank you.//COnfirmed $3,000 in Square. 10/22/18 Hitomi
Received delivery confirmation. chair is demo --- 2/6/19 Asumi",NV,1,7.95,DWA-9100DWA-9100BL-DEMO,3000.00,YCsW,,,,,,,,,0.00,,,,,,,,,,0.00,,,,,,,,,,Rainer,Willingham,lindadwillingham@aol.com,,20039 N. Crown Ridge Street,,,Sun City West,AZ,85375,United States,253-606-9280
"MARICOPA COUNTY HM & LND 10/19-21/18 SCOTTSDALE,AZ (NV)","MARICOPA COUNTY HM & LND 10/19-21/18 SCOTTSDALE,AZ (NV)",Querubin Milanes,110570,10/22/2018 1:35:43 AM,Trent Colwel,AZ,85044,Pegasus,New Choco,New,1,0.00,5200.00,5200.00,CreditCard,,,"3 years parts, 1 year labor (Free)","Pegasus,",No,10/25/2018 12:00:00 AM,Delivered,,,"Please deliver a new Pegasus Choco//COnfirmed $5,200 in Square. 10/22/18 Hitomi",NV,1,7.95,DWA-9400Pegasus-BR,5200.00,HUNB,,,,,,,,,0.00,,,,,,,,,,0.00,,,,,,,,,,Trent,Colwel,daiwa@vicpylon.com,,4140 E. Cathedral Rock Dr.,,,Phoenix,AZ,85044,United States,602-505-3636
"MARICOPA COUNTY HM & LND 10/19-21/18 SCOTTSDALE,AZ (NV)","MARICOPA COUNTY HM & LND 10/19-21/18 SCOTTSDALE,AZ (NV)",Querubin Milanes,110571,10/22/2018 1:46:49 AM,Clayton Joyce Kuchinba,AZ,85254,Legacy,Demo Gold,Demo,1,0.00,3000.00,3000.00,CreditCard,,,"3 years parts, 1 year labor (Free)","Legacy,",YES,10/21/2018 12:00:00 AM,Delivered,,,"COnfirmed $3,000 in Square. will confirm if its pickup 10/22/18 Hitomi//Received pickup confirmation 10/23/18 Hitomi",NV,1,7.95,DWA-9100DWA-9100GD-DEMO,3000.00,Receipt #rjU0,,,,,,,,,0.00,,,,,,,,,,0.00,,,,,,,,,,Clayton Joyce,Kuchinba,fut4ag@hotmail.com,,7009 E. Acoma Drive,,,Scottsdale,AZ,85254,United States,306-421-3231
"MARICOPA COUNTY HM & LND 10/19-21/18 SCOTTSDALE,AZ (NV)","MARICOPA COUNTY HM & LND 10/19-21/18 SCOTTSDALE,AZ (NV)",Abagail Stirling,110601,10/22/2018 10:45:35 PM,justin higley,AZ,85022,Relax2Zero 3D,New Choco,New,1,0.00,4500.00,4500.00,Synchrony,,,"5 years parts, 1 year labor (Free)","Relax2Zero 3D,",No,10/26/2018 12:00:00 AM,Delivered,,,"COnfirmed SYNC($6,500) and original.***Please charge $4,500 before delivery and sales draft signed.***10/23/18 Hitomi
SYNCHRONY AUTH #110601 $4500 - STEPHANY 11/05/18",NV,1,7.95,DWA-9060USJ-9060BR,4500.00,,,6019170813203541,96040740,Las Vegas,36 months,,,,0.00,,,,,,,,,,0.00,,,,,,,,,,justin,higley,justin@blindingpros.com,,332 E tierra buena ln,,,phoenix,AZ,85022,United States,602-317-9736
"MARICOPA COUNTY HM & LND 10/19-21/18 SCOTTSDALE,AZ (NV)","MARICOPA COUNTY HM & LND 10/19-21/18 SCOTTSDALE,AZ (NV)",Querubin Milanes,112561,11/22/2018 7:20:34 PM,Rainer Willingham,WA,98498,Legacy,New Black,New,1,0.00,3500.00,3500.00,CreditCard,COD,,"5 years parts, 1 year labor (Free)","Legacy,",No,,Scheduled,,,"Legacy New Black Chair, Deposit $200.00 (#9bZ1). Please Collect the Balance of $3300.00 (COD). Please deliver Between December 15 to 20, 2018. This is a follow-Up/Repeat Order of my Customer. Thank you.

///Confirmed $200.00 in SQ.*** COD$3,300.*** 11/23/18 Hitomi

11/29Maritza- Scott spoke with customer but customer will be home mid December.

12/13/18- Customer called in wanting to know status on his order and update us that his daughter will be home for his delivery her name is Lisa and her number is (253)733-8700 ( Please do not tell her husband; The chair is a surprise for him) (PS I TEXTED YOU THIS SCOTT) - Cristina 5:05 pm",WA,1,7.95,DWA-9100DWA-9100BL,200.00,9bZ1,,,,,,,,,3300.00,,,,,,,,,,0.00,,,,,,,,,,Daiwa,Massage,sales@daiwamassage.com,,29 Country Club Drive,,,Lakewood,WA,98498,United States,253-606-9280
