﻿Date,CustomerName,State,Zipcode,Description,productNo,Color,IsDemo,Net,ShippingFee,GiftPrice,FinancingProcessingFee,Gross,Pre_tax,Tax,Commission,Primary Payment Method,Primary Payment Balance,Primary Authorize Number,Primary Purchase Order Number,Primary Synchrony Account Number,Primary Synchrony Application Key,Primary Synchrony AccountInfo,Primary SynchronyTerm,Secondly Payment Method,Secondly Payment Balance,Secondly Authorize Number,Secondly Purchase Order Number,Secondly Synchrony Account Number,Secondly Synchrony Application Key,Secondly Synchrony AccountInfo,Secondly SynchronyTerm,Thirdly Payment Method,Thirdly Payment Balance,Thirdly Authorize Number,Thirdly Purchase Order Number,Thirdly Synchrony Account Number,Thirdly Synchrony Application Key,Thirdly Synchrony AccountInfo,Thirdly SynchronyTerm,DeliveryDate,Ispickup,Warranty,Status,Event Name,Synchrony Notes,Order Notes,Order number,Private Note,Branch,IsNoTax,ActualTaxRate
2/14/2018 12:07:13 PM,Norman Pelican,FL,32569,Relax2Zero 2.0 for Sam's,USJ-9050USJ-9050BL,Black,New,,,,,3390.94,3199.00,191.94,Michael Cuatrona,PurchaseOrder,3390.94,,8817 5393 6258 5916 2372 58,,,,,,0.00,,,,,,,,0.00,,,,,,,,No,"3 years parts, 1 year labor (Free)",Cancelled,Sam's Club #6361 Ft. Walton 2/8-2/18 (FL),,[SPEC] customer went on a trip -  please deliver after 02/17; as per Michael's instruction please upgrade the order to a brand new unit at no extra cost,103717,"Order # 1 - Please contact the customer after 02/17 for delivery and send a new unit, thanks
cancelled 2/22 per Michael C -Maggie",FL,0,6.00
2/14/2018 12:16:13 PM,Terry Yates,FL,32542,Relax2Zero 2.0 for Sam's,USJ-9050USJ-9050BR,Brown,New,,,,,3390.94,3199.00,191.94,Michael Cuatrona,PurchaseOrder,3390.94,,5574 3210 9009 0149 8238 05,,,,,,0.00,,,,,,,,0.00,,,,,,,3/7/2018 12:00:00 AM,No,"3 years parts, 1 year labor (Free)",Delivered,Sam's Club #6361 Ft. Walton 2/8-2/18 (FL),,[MIL] - the demo order was upgrade to a brand new unit at no extra cost as per Michael,103719,Order #2 please send a brand new unit and call for the delivery schedule,FL,0,6.00
2/14/2018 12:25:07 PM,Bellaty Rintala,FL,32550,Legacy for Sam's,DWA-9100DWA-9100CH,Choco,New,,,,,3814.94,3599.00,215.94,Michael Cuatrona,PurchaseOrder,3814.94,,2960 4661 0584 5690 3783 02,,,,,,0.00,,,,,,,,0.00,,,,,,,3/6/2018 12:00:00 AM,No,"3 years parts, 1 year labor (Free)",Delivered,Sam's Club #6361 Ft. Walton 2/8-2/18 (FL),,[SPEC] - please upgrade the demo order to a brand new unit at no extra cost as per Michael,103720,Order # 3 - please send a brand new unit,FL,0,6.00
2/15/2018 12:43:28 PM,Jonnie Blaylock Jr.,FL,32547,Legacy for Sam's,DWA-9100DWA-9100BL,Blue,New,,,,,3814.94,3599.00,215.94,Michael Cuatrona,PurchaseOrder,3814.94,,6368 8775 4193 9734 0520 46,,,,,,0.00,,,,,,,,0.00,,,,,,,3/6/2018 12:00:00 AM,No,"3 years parts, 1 year labor (Free)",Delivered,Sam's Club #6361 Ft. Walton 2/8-2/18 (FL),,[MIL] - demo order upgraded to brand new unit (blue) at no extra cost as per Michael,103726,Order# 4 Please send a new unit,FL,0,6.00
2/16/2018 7:44:01 PM,James Dudgeon,FL,32578,Relax2Zero 2.0 for Sam's,USJ-9050USJ-9050BE,Beige,New,,,,,3390.94,3199.00,191.94,Michael Cuatrona,PurchaseOrder,3390.94,,5524 9217 9407 5149 8248 05,,,,,,0.00,,,,,,,,0.00,,,,,,,3/7/2018 12:00:00 AM,No,"3 years parts, 1 year labor (Free)",Delivered,Sam's Club #6361 Ft. Walton 2/8-2/18 (FL),,[SPEC] -  demo order upgraded to a brand new (beige) unit at no extra cost as per Michael,103749,Order # 5 please send a new unit,FL,0,6.00
2/16/2018 7:49:42 PM,George and Yongran Thomsen,FL,32580,Legacy for Sam's,DWA-9100DWA-9100CH,Choco,New,,,,,4556.94,4299.00,257.94,Michael Cuatrona,PurchaseOrder,4556.94,,5953 9903 5823 2065 7437 73,,,,,,0.00,,,,,,,,0.00,,,,,,,3/7/2018 12:00:00 AM,No,"3 years parts, 3 years labor ($400)",Delivered,Sam's Club #6361 Ft. Walton 2/8-2/18 (FL),,"[SPEC - MC] warranty upgraded from (3 years parts, 1 year labor) to (3 years parts and 3 years labor) at no extra cost - please apply code as per Michael",103750,Order # 6 - 3 years labor,FL,0,6.00
2/16/2018 7:54:49 PM,Abu Mridha,FL,32563,Relax2Zero 2.0 for Sam's,USJ-9050USJ-9050BR,Brown,New,,,,,3199.00,3199.00,0.00,Michael Cuatrona,PurchaseOrder,3199.00,,1282 9627 3841 4284 9419 61,,,,,,0.00,,,,,,,,0.00,,,,,,,3/6/2018 12:00:00 AM,No,"3 years parts, 1 year labor (Free)",Delivered,Sam's Club #6361 Ft. Walton 2/8-2/18 (FL),,[MKTNG - MC] demo order upgraded to a brand new unit at no extra cost as per Michael,103751,Order # 7 - Please send a new unit,FL,1,6.00
2/19/2018 9:06:52 AM,Charles Williams,FL,32579,Relax2Zero 2.0 for Sam's,USJ-9050USJ-9050BR,Brown,New,,,,,3390.94,3199.00,191.94,Michael Cuatrona,PurchaseOrder,3390.94,,1122 7624 3443 4283 9619 41,,,,,,0.00,,,,,,,,0.00,,,,,,,,No,"3 years parts, 1 year labor (Free)",Scheduled,Sam's Club #6361 Ft. Walton 2/8-2/18 (FL),,[SPECMKTNG] - demo order upgraded to brand new unit at no extra cost as per Michael,103858,Order # 8 - please send a new unit,FL,0,6.00
2/19/2018 9:41:00 AM,David Osborn,FL,32566,Legacy for Sam's,DWA-9100DWA-9100CH,Choco,New,,,,,3814.94,3599.00,215.94,Michael Cuatrona,PurchaseOrder,3814.94,,9275 4933 7117 1326 6196 39,,,,,,0.00,,,,,,,,0.00,,,,,,,3/6/2018 12:00:00 AM,No,"3 years parts, 1 year labor (Free)",Delivered,Sam's Club #6361 Ft. Walton 2/8-2/18 (FL),,[MIL - mc] demo order upgraded to a brand new unit at no extra cost as per Michael,103859,Order # 9 - please send a new unit,FL,0,6.00
2/19/2018 9:51:08 AM,Glenn Whittaker,FL,32548,Relax2Zero 2.0 for Sam's,USJ-9050USJ-9050BR,Brown,New,,,,,3390.94,3199.00,191.94,Michael Cuatrona,PurchaseOrder,3390.94,,1182 7622 3545 4283 9699 41,,,,,,0.00,,,,,,,,0.00,,,,,,,4/23/2018 12:00:00 AM,No,"3 years parts, 1 year labor (Free)",Delivered,Sam's Club #6361 Ft. Walton 2/8-2/18 (FL),,[SPECMKTNG] - demo order upgraded to a brand new unit as per Michael,103860,Order # 10 - please send a brand new unit,FL,0,6.00
2/19/2018 10:12:11 AM,Kevin Dunworth,FL,32579,Relax2Zero 2.0 for Sam's,USJ-9050USJ-9050BR,Brown,New,,,,,3390.94,3199.00,191.94,Michael Cuatrona,PurchaseOrder,3390.94,,2210 9762 0683 2690 3793 82,,,,,,0.00,,,,,,,,0.00,,,,,,,,No,"3 years parts, 1 year labor (Free)",Scheduled,Sam's Club #6361 Ft. Walton 2/8-2/18 (FL),,[OVRDE] demo order upgraded to a brand new unit at no extra cost as per Michael,103861,Order #11 - please send a new unit,FL,0,6.00
2/19/2018 10:32:15 AM,Betty Schaus,FL,32548,Legacy for Sam's,DWA-9100DWA-9100CH,Choco,New,,,,,3814.94,3599.00,215.94,Michael Cuatrona,PurchaseOrder,3814.94,,4579 9880 2871 4852 1951 24,,,,,,0.00,,,,,,,,0.00,,,,,,,3/6/2018 12:00:00 AM,No,"3 years parts, 1 year labor (Free)",Delivered,Sam's Club #6361 Ft. Walton 2/8-2/18 (FL),,[OVRDE SPEC] - demo order upgraded to a brand new unit at no extra cost as per Michael,103862,Order # 12 - please send a new unit,FL,0,6.00
2/19/2018 10:38:05 AM,Wendy Ng,FL,32563,Relax2Zero 2.0 for Sam's,USJ-9050USJ-9050BR,Brown,New,,,,,3900.00,3900.00,0.00,Michael Cuatrona,PurchaseOrder,3900.00,,0831 8643 1661 1476 5695 60,,,,,,0.00,,,,,,,,0.00,,,,,,,,No,"3 years parts, 2 years labor ($200)",Scheduled,Sam's Club #6361 Ft. Walton 2/8-2/18 (FL),,"[SPEC MKTNG] original warranty ( 3 years parts, 1 year labor) -> upgraded to (3 years parts, 2 years labor**) at mo extra cost as per Michael",103863,Order # 13 - 2 years labor,FL,1,6.00
2/19/2018 2:54:15 PM,Pyong Yun,FL,32548,Legacy for Sam's,DWA-9100DWA-9100CH,Choco,New,,,,,3814.94,3599.00,215.94,Michael Cuatrona,PurchaseOrder,3814.94,,1852 6229 3443 3283 9679 31,,,,,,0.00,,,,,,,,0.00,,,,,,,3/6/2018 12:00:00 AM,No,"3 years parts, 1 year labor (Free)",Delivered,Sam's Club #6361 Ft. Walton 2/8-2/18 (FL),,[SPEC MKTNG] - demo order upgraded to brand new unit at no extra cost as per Michael,103870,"Order #14 - please send a brand new unit
02/19/18-Cristina- assigned",FL,0,6.00
2/20/2018 8:15:30 AM,Jason Poole,FL,32539,Relax2Zero 2.0 for Sam's,USJ-9050USJ-9050BR,New Brown,New,,,,,3390.94,3199.00,191.94,Michael Cuatrona,PurchaseOrder,3390.94,,3333 4407 5027 3065 7467 23,,,,,,0.00,,,,,,,,0.00,,,,,,,,No,"3 years parts, 1 year labor (Free)",Assigned,Sam's Club #6361 Ft. Walton 2/8-2/18 (FL),,[MKTNG MC] - demo order upgraded to a brand new unit at no extra cost as per Michael,103884,Order # 15 - please send a new unit,FL,0,6.00
2/20/2018 8:30:01 AM,Dave Carr,FL,32578,Relax2Zero 2.0 for Sam's,USJ-9050USJ-9050BR,New Brown,New,,,,,4134.00,3900.00,234.00,Michael Cuatrona,PurchaseOrder,4134.00,,5063 2306 9121 9062 7247 53,,,,,,0.00,,,,,,,,0.00,,,,,,,,No,"3 years parts, 2 years labor ($200)",Called,Sam's Club #6361 Ft. Walton 2/8-2/18 (FL),,"[MKTNG MC] - original warranty upgraded from ( 3 years parts, 1 year labor) to ( 3 years parts, 2 years labor) at no extra cost as per Michael; add an extra back pad as well",103885,"Order # 16 Please add an extra back pad, thanks",FL,0,6.00
