﻿Original Event Name,Event Name,Sales Person,Order Number,Order Date,Customer Name,State,Zip,Product Name,Color,Product Status,QTY,Tax,Total Before Tax,Order Total,Primary Payment Method,Second Payment Method,Thirdl Payment Method,Warranty,Order Items,Pick up,Delivered On,Order Status,Chair Type,Order Notes,Private Note,Branch,No Tax,Actual Tax Rate,SKU,Primary Payment Balance,Primary Authorize Number,Primary Purchase Order Number,Primary Synchrony Account Number,Primary Synchrony Application Key,Primary Synchrony Account Info,Primary Synchrony Term,Primary Synchrony Primary ID,Primary Synchrony Issued State,Primary Synchrony Expiretion Date,Second Payment Balance,Second Authorize Number,Second Purchase Order Number,Second Synchrony Account Number,Second Synchrony Application Key,Second Synchrony Account Info,Second SynchronyTerm,Second Synchrony Primary ID,Second Synchrony Issued State,Second Synchrony Expiretion Date,Third Payment Balance,Third Authorize Number,Third Purchase Order Number,Third Synchrony Account Number,Third Synchrony Application Key,Third Synchrony Account Info,Third Synchrony Term,Third Synchrony Primary ID,Third Synchrony Issued State,Third Synchrony Expiretion Date
NBAA-BACE 10/22-24/19,NBAA-BACE 10/22-24/19,Rolly San Jose,122030,10/22/2019 10:34:21 PM,David blake Spry,ID,83634,PEGASUS 2 SMART,New Choco,New,1,0.00,7030.00,7030.00,Synchrony,,,"5 years parts, 1 year labor (Free)","PEGASUS 2 SMART,",No,,New,,,"Pls deliver 2 weeks from Oct 22, 2019
Sync account verified. Credit avail $9000. Remaining bal $7030. Charge sync acct, have sales draft signed-Erika 10/23/19 9:52am",Not Dispatched,1,8.25,PEGS-2PEGS-2-BR,7030.00,,,6501723375379243,82865613,Las Vegas,48 months,Driver’s License,ID,02/2024,0.00,,,,,,,,,/,0.00,,,,,,,,,/
NBAA-BACE 10/22-24/19,NBAA-BACE 10/22-24/19,Robert Shih,122031,10/22/2019 10:40:41 PM,John Topliff,KS,67735,Legacy 4,Demo Choco,Demo,1,0.00,4800.00,4800.00,Credit Card,,,"5 years parts, 1 year labor (Free)","Legacy 4,",No,,Assigned,,,"Pls deliver within 2 -3 weeks from Oct 22, 2019
Original received. $4800 verified on SQ. Paid in full-Erika 10/23/19 9:35am
cc/text completed-Erika 10/23",TX,1,8.25,LGCY-4LGCY-4CH-DEMO,4800.00,SQ# apdm,,,,,,,,/,0.00,,,,,,,,,/,0.00,,,,,,,,,/
NBAA-BACE 10/22-24/19,NBAA-BACE 10/22-24/19,Robert Shih,122051,10/23/2019 4:21:54 PM,John Hall,WA,98056,Legacy 4,Demo Black,Demo,1,0.00,5192.00,5192.00,Credit Card,,,"5 years parts, 1 year labor (Free)","Legacy 4,",No,,Hold,,"Pls hold , customer will take the wife to Kent office to try the chair / 48 months 0% APR",,Not Dispatched,1,8.25,LGCY-4LGCY-4BL-DEMO,300.00,SQ# PFTL,,,,,,,,/,0.00,,,,,,,,,/,0.00,,,,,,,,,/
NBAA-BACE 10/22-24/19,NBAA-BACE 10/22-24/19,Robert Shih,122052,10/23/2019 4:28:01 PM,Dayton Lehman,VA,22207,Legacy 4,New Black,New,1,453.75,5500.00,5953.75,Synchrony,,,"5 years parts, 1 year labor (Free)","Legacy 4,",No,,Assigned,,48 months 0% APR / Downstairs delivery.,"Charged the wrong percentage of sales tax. (Pls disregard remaining balance)
Synchrony original verified. Credit avail $8500. Remaining bal $5948. Charge sync acct, have sales draft signed-Erika 10/24/19 9:00am
cc/text completed-Erika 10/24",IL,0,8.25,LGCY-4LGCY-4BL,5948.00,,,6501723375380779,82923826,San Diego,48 months,Driver’s License,VA,05/2027,0.00,,,,,,,,,/,0.00,,,,,,,,,/
