﻿Original Event Name,Event Name,Sales Person,Order Number,Order Date,Customer Name,State,Zip,Product Name,Color,Product Status,QTY,Tax,Total Before Tax,Order Total,Primary Payment Method,Second Payment Method,Thirdl Payment Method,Warranty,Order Items,Pick up,Delivered On,Order Status,Chair Type,Order Notes,Private Note,Branch,No Tax,Actual Tax Rate,SKU,Primary Payment Balance,Primary Authorize Number,Primary Purchase Order Number,Primary Synchrony Account Number,Primary Synchrony Application Key,Primary Synchrony Account Info,Primary Synchrony Term,Primary Synchrony Primary ID,Primary Synchrony Issued State,Primary Synchrony Expiretion Date,Second Payment Balance,Second Authorize Number,Second Purchase Order Number,Second Synchrony Account Number,Second Synchrony Application Key,Second Synchrony Account Info,Second SynchronyTerm,Second Synchrony Primary ID,Second Synchrony Issued State,Second Synchrony Expiretion Date,Third Payment Balance,Third Authorize Number,Third Purchase Order Number,Third Synchrony Account Number,Third Synchrony Application Key,Third Synchrony Account Info,Third Synchrony Term,Third Synchrony Primary ID,Third Synchrony Issued State,Third Synchrony Expiretion Date
American Academy of Anti-Aging (A4M) 12/13-15/19 LV,American Academy of Anti-Aging (A4M) 12/13-15/19 LV,May Kam,123021,12/13/2019 9:46:49 PM,Barbara Schever,FL,33064,Majesty,New Choco,New,1,0.00,3139.00,3139.00,Credit Card,Credit Card,,"5 years parts, 1 year labor (Free)","Majesty,",No,12/30/2019 12:00:00 AM,Delivered,New,Special discount for one family bought two chairs together. With order #43166,"Original received. $200 verified on SQ. Remaining bal $2939. Collect COD @ delivery-Erika 12/16/19 3:35pm
CC, Jasmin Carrizales, 12/17/19, 5:45pm, VM
Delivery conf completed, cod paid in housecall-Erika 1/7/20",FL,1,8.25,MAJ-1010MAJ-1010-BR,200.00,UQKP,,,,,,,,/,2939.00,House call Pro,,,,,,,,/,0.00,,,,,,,,,/
American Academy of Anti-Aging (A4M) 12/13-15/19 LV,American Academy of Anti-Aging (A4M) 12/13-15/19 LV,May Kam,123022,12/13/2019 9:55:58 PM,David Schever,FL,33308,Majesty,New Choco,New,1,0.00,3139.00,3139.00,Credit Card,Credit Card,,"5 years parts, 1 year labor (Free)","Majesty,",No,12/30/2019 12:00:00 AM,Delivered,New,Special discount with order #123021  which one family bought two chairs together,"Original received. $200 verified on SQ. Remaining bal $2939. Collect COD @ delivery-Erika 12/16/19 3:26pm
CC, Jasmin Carrizales, 12/17/19, 5:48pm, VM
Delivery conf completed cod verified on housecall-Erika 1/7/20",FL,1,8.25,MAJ-1010MAJ-1010-BR,200.00,yLQr,,,,,,,,/,2939.00,House call Pro,,,,,,,,/,0.00,,,,,,,,,/
American Academy of Anti-Aging (A4M) 12/13-15/19 LV,American Academy of Anti-Aging (A4M) 12/13-15/19 LV,May Kam,123023,12/13/2019 10:08:08 PM,Jarah Felton,WY,83001,Majesty,Demo Black,Demo,1,0.00,2915.00,2915.00,Credit Card,COD,,"5 years parts, 1 year labor (Free)","Majesty,Tourmaline Pad for Majesty,",No,,Cancelled,,"Special discount for one time payment , manager approval","Per sales rep May, customer has canceled. May gave customer her refund of $200-Erika 12/16/19 5:25pm",Not Dispatched,1,8.25,MAJ-1010MAJ-1010-BL-DEMO,200.00,S3hN,,,,,,,,/,2715.00,,,,,,,,,/,0.00,,,,,,,,,/
American Academy of Anti-Aging (A4M) 12/13-15/19 LV,American Academy of Anti-Aging (A4M) 12/13-15/19 LV,Joseph Chan,123025,12/13/2019 11:49:19 PM,Dean Yannello,FL,34655,Legacy 4,New Black,New,1,314.09,4557.16,4871.25,Synchrony,,,"5 years parts, 1 year labor (Free)","Legacy 4,",No,1/8/2020 12:00:00 AM,Delivered,New,,"Synchrony original verified. Credit avail $6500. Remaining bal $4871.25. Charge sync acct, have sales draft signed-Erika 12/16/19 11:50am Pls create sync application & have customer sign on it
CC, Jasmin Carrizales, 12/19/19, 5:42pm, VM",FL,0,8.25,LGCY-4LGCY-4BL,4871.25,,,6501723375456991,85477784,San Diego,36 months,Driver’s License,GA,03/2021,0.00,,,,,,,,,/,0.00,,,,,,,,,/
American Academy of Anti-Aging (A4M) 12/13-15/19 LV,American Academy of Anti-Aging (A4M) 12/13-15/19 LV,Joseph Chan,123026,12/13/2019 11:55:34 PM,Harold Gaskill,TX,75225,Majesty,New Choco,New,1,231.59,3557.16,3788.75,Credit Card,,,"5 years parts, 1 year labor (Free)","Majesty,",No,12/30/2019 12:00:00 AM,Delivered,New,,"Original received $3788.75 verified on SQ-Erika 12/16/19 11:52am
cc/text completed-Erika 12/17
Printed - Tina 12/18/2019
out of town 12/20-12/29 we will schedule once customer comes back in town - Tina 12/20/2019
Schedule for Mon 11-2PM 12/30/2019 -tina 12/26/2019
Delivery conf completed-Erika 1/2/20 2:57pm",TX,0,8.25,MAJ-1010MAJ-1010-BR,3788.75,#YzMo,,,,,,,,/,0.00,,,,,,,,,/,0.00,,,,,,,,,/
American Academy of Anti-Aging (A4M) 12/13-15/19 LV,American Academy of Anti-Aging (A4M) 12/13-15/19 LV,Joseph Chan,123030,12/14/2019 8:55:25 AM,Aaron Ketcher,AZ,85297,Majesty,New Black,New,1,231.59,3557.16,3788.75,Synchrony,,,"5 years parts, 1 year labor (Free)","Majesty,",No,,Scheduled,,,"Synchrony account verified. Credit avail $4000. Remaining balance $3788.75. Charge sync acct, have sales draft signed-Erika 12/17/19 9:46am
cc/text completed-Erika 12/17",CA,0,8.25,MAJ-1010MAJ-1010-BL,3788.75,,,6501723375456801,85472687,San Diego,36 months,Driver’s License,AZ,07/2027,0.00,,,,,,,,,/,0.00,,,,,,,,,/
American Academy of Anti-Aging (A4M) 12/13-15/19 LV,American Academy of Anti-Aging (A4M) 12/13-15/19 LV,May Kam,123040,12/14/2019 9:07:26 PM,Andrew Chia,CA,92354,Majesty,Demo Black,Demo,1,0.00,2700.00,2700.00,Credit Card,Credit Card,,"5 years parts, 1 year labor (Free)","Majesty,Tourmaline Pad for Majesty,",No,12/20/2019 12:00:00 AM,Delivered,Demo,"Special discount for one time payment , manager approval","Original received. $200 verified on SQ. Remaining balance $2500. Collect COD @ delivery-Erika 12/16/19 10:48am
12/16Printed
scheduled 12/20 12-3
12/27Maritza- Delivery confirmation received COD confirmed through square",CA,1,8.25,MAJ-1010MAJ-1010-BL-DEMO,200.00,7Bbl,,,,,,,,/,2500.00,housecall pro,,,,,,,,/,0.00,,,,,,,,,/
American Academy of Anti-Aging (A4M) 12/13-15/19 LV,American Academy of Anti-Aging (A4M) 12/13-15/19 LV,May Kam,123041,12/14/2019 9:30:22 PM,Joel & Tina Clarifield,CA,91316,Majesty,New Black,New,1,0.00,2700.00,2700.00,Credit Card,,,"5 years parts, 1 year labor (Free)","Majesty,Tourmaline Pad for Majesty,",No,12/23/2019 12:00:00 AM,Delivered,New,"Special discount for one time payment, manager approval","Original received. $2700 verified on SQ.-Erika 12/16/19 10:40am
12/16Printed
scheduled 12/23 11-1
12/27Maritza- Delivery confirmation received",CA,1,8.25,MAJ-1010MAJ-1010-BL,2700.00,sTT2,,,,,,,,/,0.00,,,,,,,,,/,0.00,,,,,,,,,/
American Academy of Anti-Aging (A4M) 12/13-15/19 LV,American Academy of Anti-Aging (A4M) 12/13-15/19 LV,May Kam,123042,12/14/2019 9:47:07 PM,May Bonnin,CA,93311,Majesty,New Choco,New,1,0.00,3200.00,3200.00,Credit Card,COD,,"5 years parts, 1 year labor (Free)","Majesty,Daiwa Blanket,",No,,Cancelled,,"Special discount for one time payment , manager approval; Request delivery on Dec 26,2019","Original received. $200 verified on SQ. Remaining bal $3000. Collect COD @ delivery-Erika 12/16/19 10:35am
12/16Printed
scheduled 12/26 9:30-12:30
rescheduled due to weather conditions 12/27 10-12
12/27Maritza- Cancelled order issued refund.",CA,1,8.25,MAJ-1010MAJ-1010-BR,200.00,qpO7,,,,,,,,/,0.00,,,,,,,,,/,0.00,,,,,,,,,/
American Academy of Anti-Aging (A4M) 12/13-15/19 LV,American Academy of Anti-Aging (A4M) 12/13-15/19 LV,Rolly San Jose,123043,12/14/2019 10:19:22 PM,Iris Hines,TX,76901,Relax 2 Zero 3D,New Black,New,1,0.00,4763.00,4763.00,Synchrony,,,"5 years parts, 1 year labor (Free)","Relax 2 Zero 3D,",No,12/27/2019 12:00:00 AM,Delivered,New,,"Pls deliver within 2 weeks from Dec 16
Synchrony acct verified. Credit avail $5800. Remaining bal $4763. Charge sync acct, have sales draft signed-Erika 12/16/19 1:59pm
cc/text completed-Erika 12/17
Printed - Tina 12/18/2019
12/22 - Alysa - Customer confirmed delivery Friday 12/27 between 1-4PM. Synchrony Authorization Code
019429
Delivery conf completed, sales draft signed-Erika 1/3/20",TX,1,8.25,DWA-9060USJ-9060BL,4763.00,,,6501723375457304,85489129,San Diego,36 months,Driver’s License,TX,12/2020,0.00,,,,,,,,,/,0.00,,,,,,,,,/
American Academy of Anti-Aging (A4M) 12/13-15/19 LV,American Academy of Anti-Aging (A4M) 12/13-15/19 LV,Rolly San Jose,123044,12/14/2019 10:24:17 PM,Laura Killoran,CO,80218,Hubble,New Black,New,1,0.00,5845.00,5845.00,Synchrony,,,"5 years parts, 1 year labor (Free)","Hubble,",No,12/30/2019 12:00:00 AM,Delivered,New,,"Pls deliver within 2 weeks from Dec 14
Synchrony original verified. Credit avail $7500. Remaining bal $5845. Charge sync acct, have sales draft signed-Erika 12/16/19 2:19pm
cc/text completed-Erika 12/17
Printed - Tina 12/18/2019
Scheduled for Monday 12/30/2019 12-2pm -Tina 12/23/2019
Delivery conf completed sales draft signed-Erika 1/2/20",TX,1,8.25,HUBL-1HUBL-1BL,5845.00,,,6501723375458690,85524908,San Diego,48 months,Driver’s License,CO,03/2024,0.00,,,,,,,,,/,0.00,,,,,,,,,/
American Academy of Anti-Aging (A4M) 12/13-15/19 LV,American Academy of Anti-Aging (A4M) 12/13-15/19 LV,Joseph Chan,123045,12/14/2019 10:52:17 PM,Carol Isaacson,UT,84129,Legacy 4,New Black,New,1,314.09,4557.16,4871.25,Synchrony,,,"5 years parts, 1 year labor (Free)","Legacy 4,",No,12/20/2019 12:00:00 AM,Delivered,New,,"Sync account verified.  Credit avail $7000. Remaining bal $4871.25. Charge sync acct, have sales draft signed-Erika 12/16/19 3:47pm
CC/phone call 12/16-Nondi 12/16
Scheduled on 12/20 (1-4)- Nondi 12/17
Delivery conf completed, sales draft signed-Erika 1/3/2020",NV,0,8.25,LGCY-4LGCY-4BL,4871.25,,,6501723375458435,85518646,San Diego,24 months,Driver’s License,UT,11/2023,0.00,,,,,,,,,/,0.00,,,,,,,,,/
American Academy of Anti-Aging (A4M) 12/13-15/19 LV,American Academy of Anti-Aging (A4M) 12/13-15/19 LV,Joseph Chan,123046,12/14/2019 11:02:44 PM,Ronald Drucker,FL,33024,Legacy 4,New Choco,New,1,314.09,4557.16,4871.25,Check,,,"5 years parts, 1 year labor (Free)","Legacy 4,",No,,Called,,"Customer is closing a property in 2 weeks, will run credit after that, 0% for 36 months subject to credit approval. Please hold.","Pls place on hold until customer closes property. Sales rep will follow up-Erika 12/16/19
CC, Jasmin Carrizales, 12/17/19, 5:50pm, VM
Spoke with sales rep. customer is not ready yet 1/7/20 JC",FL,0,8.25,LGCY-4LGCY-4CH,0.00,,,,,,,,,/,0.00,,,,,,,,,/,0.00,,,,,,,,,/
American Academy of Anti-Aging (A4M) 12/13-15/19 LV,American Academy of Anti-Aging (A4M) 12/13-15/19 LV,Joseph Chan,123047,12/14/2019 11:09:23 PM,Michelle Davis,NV,89149,Legacy 4,Demo Choco,Demo,1,256.34,3857.16,4113.50,Synchrony,,,"5 years parts, 1 year labor (Free)","Legacy 4,",No,12/19/2019 12:00:00 AM,Delivered,Demo,,"Synchrony account verified. Credit avail $9000. Remaining bal $4113.50. Charge sync acct, have sales draft signed-Erika 12/16/19 3:50pm
Scheduled on 12/19 (11-2)-Nondi 12/17
Delivery conf completed, sales draft signed-Erika 1/3/2020",NV,0,8.25,LGCY-4LGCY-4CH-DEMO,4113.50,,,6501723375458641,85522891,San Diego,36 months,Driver’s License,NV,05/2026,0.00,,,,,,,,,/,0.00,,,,,,,,,/
American Academy of Anti-Aging (A4M) 12/13-15/19 LV,American Academy of Anti-Aging (A4M) 12/13-15/19 LV,Juan Ochoa,123068,12/15/2019 1:15:53 PM,KEIICHI SATO,CA,90621,Majesty,New Choco,New,1,0.00,3000.00,3000.00,Credit Card,,,"5 years parts, 1 year labor (Free)","Majesty,",No,,Cancelled,,,"Original received $3000 verified on SQ-Erika 12/17/19 1:31pm
12/18Printed
12/18Maritza- Cancelled over phone will refund money.",CA,1,8.25,MAJ-1010MAJ-1010-BR,3000.00,3XIJ,,,,,,,,/,0.00,,,,,,,,,/,0.00,,,,,,,,,/
American Academy of Anti-Aging (A4M) 12/13-15/19 LV,American Academy of Anti-Aging (A4M) 12/13-15/19 LV,Joseph Chan,123069,12/15/2019 1:17:44 PM,Domingo Moteiva,FL,33156,Legacy 4,New Black,New,1,309.80,4505.20,4815.00,Credit Card,,,"5 years parts, 1 year labor (Free)","Legacy 4,",No,12/30/2019 12:00:00 AM,Delivered,New,,"Original received. $4815 verified on Sq-Erika 12/16/19 3:56pm
Domingo Moteiva (305)720-7111
CC, Jasmin Carrizales, 12/17/19, 5:52pm/Av. Anytime
Delivery conf completed-Erika 1/3/20",FL,0,8.25,LGCY-4LGCY-4BL,4815.00,#caXP,,,,,,,,/,0.00,,,,,,,,,/,0.00,,,,,,,,,/
American Academy of Anti-Aging (A4M) 12/13-15/19 LV,American Academy of Anti-Aging (A4M) 12/13-15/19 LV,Juan Ochoa,123072,12/15/2019 1:51:57 PM,JODI WESTFALL,OH,45236,Majesty,New Choco,New,2,0.00,6000.00,6000.00,Credit Card,,,"5 years parts, 1 year labor (Free)","Majesty,",No,,Hold,,,"Original received. $6000 verified on SQ. -Erika 12/18/19
cc/text completed-Erika 12/18
12/19-CC; LVM-Yanira
12/29-customer wants to wait another month and follow up in Feb. -Karen",IL,1,8.25,MAJ-1010MAJ-1010-BR,6000.00,Pkys,,,,,,,,/,0.00,,,,,,,,,/,0.00,,,,,,,,,/
American Academy of Anti-Aging (A4M) 12/13-15/19 LV,American Academy of Anti-Aging (A4M) 12/13-15/19 LV,Juan Ochoa,123073,12/15/2019 1:56:15 PM,KATHY CUBINE,TX,76904,Legacy 4,New Choco,New,1,0.00,4000.00,4000.00,Credit Card,,,"5 years parts, 1 year labor (Free)","Legacy 4,",No,12/22/2019 12:00:00 AM,Delivered,New,,"Original received. $4000 verified on SQ.-Erika 12/18/19 
cc/text completed-Erika 12/18
12/19 - Alysa - Printed
Scheduled for Sunday 12/22/2019 2-6pm - Tina 12/20/2019
Delivery conf completed-Erika 1/3/20",TX,1,8.25,LGCY-4LGCY-4CH,4000.00,W5pP,,,,,,,,/,0.00,,,,,,,,,/,0.00,,,,,,,,,/
American Academy of Anti-Aging (A4M) 12/13-15/19 LV,American Academy of Anti-Aging (A4M) 12/13-15/19 LV,Joseph Chan,123077,12/15/2019 3:10:59 PM,Rajesh Grover,CA,92014,Majesty,New Choco,New,1,0.00,2750.00,2750.00,Synchrony,,,"5 years parts, 1 year labor (Free)","Majesty,",No,12/21/2019 12:00:00 AM,Delivered,New,,"Synchrony original verified. Credit avail $3700. Remaining balance $2750. Charge sync acct., have sales draft signed-Erika 12/16/19 10:29am
12/16Printed
scheduled 12/21 9:00-11
12/27Maritza- Delivery confirmation received with sales draft",CA,1,8.25,MAJ-1010MAJ-1010-BR,2750.00,,,6501723375460258,85562678,San Diego,18 months,Driver’s License,CA,05/2020,0.00,,,,,,,,,/,0.00,,,,,,,,,/
American Academy of Anti-Aging (A4M) 12/13-15/19 LV,American Academy of Anti-Aging (A4M) 12/13-15/19 LV,Rolly San Jose,123081,12/15/2019 4:35:48 PM,Stephen Center,CA,92101,Relax 2 Zero 3D,Demo Black,Demo,1,0.00,4546.00,4546.00,Synchrony,,,"5 years parts, 1 year labor (Free)","Relax 2 Zero 3D,",No,,Scheduled,,,"Pls pick up old chair when you deliver. Call after Jan 7 for schedule  delivery appointment. Customer is going on a vacation trip.
Synchrony acct verified. Credit avail $8500. Remaining bal $4546. Charge sync acct, have sales draft signed-Erika 12/16/19 11:15am
12/16Printed
scheduled 1/10 2-4",CA,1,8.25,DWA-9060USJ-9060BL-DEMO,4546.00,,,6501723375459995,85559923,San Diego,36 months,Driver’s License,CA,10/2020,0.00,,,,,,,,,/,0.00,,,,,,,,,/
American Academy of Anti-Aging (A4M) 12/13-15/19 LV,American Academy of Anti-Aging (A4M) 12/13-15/19 LV,Rolly San Jose,123084,12/15/2019 4:42:37 PM,Dalal Akoury,SC,29577,Relax 2 Zero 3D,Demo Black,Demo,1,0.00,3500.00,3500.00,Credit Card,,,"5 years parts, 1 year labor (Free)","Relax 2 Zero 3D,",No,,Scheduled,,,"Pls deliver within 2 weeks from Dec 15
Original received. $3500 verified on Sq. -Erika 12/16/19 11:32am
CC, Jasmin Carrizales, 12/16/19, 5:29pm/Av. Mon.-Thurs. Between 9am-5pm",FL,1,8.25,DWA-9060USJ-9060BL-DEMO,3500.00,SQ# OZHs,,,,,,,,/,0.00,,,,,,,,,/,0.00,,,,,,,,,/
American Academy of Anti-Aging (A4M) 12/13-15/19 LV,American Academy of Anti-Aging (A4M) 12/13-15/19 LV,Rolly San Jose,123087,12/15/2019 4:53:45 PM,Mary susan Mata,CA,91304,Relax 2 Zero 3D,New Black,New,1,0.00,4200.00,4200.00,Synchrony,,,"5 years parts, 1 year labor (Free)","Relax 2 Zero 3D,",No,12/23/2019 12:00:00 AM,Delivered,New,,"Pls deliver within 2 weeks from Dec 16
Original received. Credit avail $8500, remaining bal $4200. charge sync acct, have sales draft signed.-Erika 12/16/19 3:12pm
12/16Printed
scheduled 12/23 10-12 Charged synchrony for total amount 8400 with walfrido mata
12/27Maritza- Delivery confirmation received with sales draft",CA,1,8.25,DWA-9060USJ-9060BL,4200.00,,,6501723375460043,85560321,San Diego,36 months,Driver’s License,CA,09/2022,0.00,,,,,,,,,/,0.00,,,,,,,,,/
American Academy of Anti-Aging (A4M) 12/13-15/19 LV,American Academy of Anti-Aging (A4M) 12/13-15/19 LV,Rolly San Jose,123090,12/15/2019 4:58:19 PM,Lorna Scerri,CA,92883,Relax 2 Zero 3D,New Black,New,1,0.00,4200.00,4200.00,Synchrony,,,"5 years parts, 1 year labor (Free)","Relax 2 Zero 3D,",No,1/7/2020 12:00:00 AM,Delivered,New,,"Pls deliver within 2 weeks from Dec 16
Synchrony original verified. Credit avail $7000. remaining balance $4200. charge sync acct, have sales draft signed-Erika 12/16/19 11:02am
12/16Printed
Deliver on 1/7-8 noon
scheduled 1/7 2:30-3:30
1/8Maritza- Delivery confirmation received with all signatures attached.",CA,1,8.25,DWA-9060USJ-9060BL,4200.00,,,6501723375460167,85561499,San Diego,36 months,Driver’s License,CA,09/2022,0.00,,,,,,,,,/,0.00,,,,,,,,,/
American Academy of Anti-Aging (A4M) 12/13-15/19 LV,American Academy of Anti-Aging (A4M) 12/13-15/19 LV,May Kam,123094,12/16/2019 6:23:42 AM,Derick McConnell,GA,30501,Majesty,Demo Black,Demo,1,0.00,2500.00,2500.00,Credit Card,COD,,"5 years parts, 1 year labor (Free)","Majesty,",No,,Scheduled,,Vendor Special discount,"Original received. $500 verified on SQ. Remaining bal $2000. Collect COD @ delivery-Erika 12/16/19 3:01pm
CC, Jasmin Carrizales, 12/17/19, 5:54pm/Av. Mon.-Fri 9am-5pm",FL,1,8.25,MAJ-1010MAJ-1010-BL-DEMO,500.00,F94Z,,,,,,,,/,0.00,,,,,,,,,/,0.00,,,,,,,,,/
American Academy of Anti-Aging (A4M) 12/13-15/19 LV,American Academy of Anti-Aging (A4M) 12/13-15/19 LV,May Kam,123095,12/16/2019 6:32:19 AM,Dr Cornell Peters,GA,31210,Legacy 4,Demo Black,Demo,1,0.00,3500.00,3500.00,Credit Card,COD,,"5 years parts, 1 year labor (Free)","Legacy 4,",No,,Scheduled,,"Special discount for one time payment,
Manager approval ; when deliver chair, will pay $1500 .","Original received. $2000 verified on SQ. Remaining bal $1500. Collect COD @ delivery-Erika 12/16/19 3:06pm
CC, Jasmin Carrizales, 12/17/19, 11:47pm, VM",FL,1,8.25,LGCY-4LGCY-4BL-DEMO,2000.00,hWeW,,,,,,,,/,0.00,,,,,,,,,/,0.00,,,,,,,,,/
American Academy of Anti-Aging (A4M) 12/13-15/19 LV,American Academy of Anti-Aging (A4M) 12/13-15/19 LV,May Kam,123096,12/16/2019 6:40:51 AM,Mr Mark Young,FL,33301,Legacy 4,Demo Black,Demo,1,0.00,3788.00,3788.00,Credit Card,Credit Card,,"5 years parts, 1 year labor (Free)","Legacy 4,Tourmaline Pad for Legacy 3D,",No,1/3/2020 12:00:00 AM,Delivered,New,Special discount for vendor one time payment,"Original received. $500 verified on SQ. Remaining bal $3288. Collect COD @ delivery-Erika 12/16/19 2:47pm
12/18Maritza -Stephany took call and was asking for ETA. Have emailed  FL with request.
Jasmin Carrizales, 12/19/19, VM Trying to schedule 12/30/19 3:30pm-6:30pm
Delivery conf completed, COD paid on housecall by credit card-Erika 1/7/20",FL,1,8.25,LGCY-4LGCY-4BL-DEMO,500.00,h4Xl,,,,,,,,/,3288.00,House call Pro,,,,,,,,/,0.00,,,,,,,,,/
American Academy of Anti-Aging (A4M) 12/13-15/19 LV,American Academy of Anti-Aging (A4M) 12/13-15/19 LV,May Kam,123097,12/16/2019 6:50:09 AM,Mr Tivoli,AZ,85022,Majesty,New Black,New,1,0.00,3500.00,3500.00,Credit Card,,,"5 years parts, 1 year labor (Free)","Majesty,",No,,Scheduled,,"Paid off; Billing Address : 24838 N 42nd Ln , Glendale AZ 85310",Original received. $3500 verified on SQ.-Erika 12/17/19 10:03am,CA,1,8.25,MAJ-1010MAJ-1010-BL,3500.00,qWjR,,,,,,,,/,0.00,,,,,,,,,/,0.00,,,,,,,,,/
American Academy of Anti-Aging (A4M) 12/13-15/19 LV,American Academy of Anti-Aging (A4M) 12/13-15/19 LV,May Kam,123098,12/16/2019 7:06:10 AM,Ms Tricia,CA,90293,Majesty,New Black,New,1,0.00,3788.00,3788.00,Credit Card,Credit Card,,"5 years parts, 1 year labor (Free)","Majesty,",No,12/19/2019 12:00:00 AM,Delivered,New,"Request delivery before Dec 21,2019, since will be out of USA after that, thanks","Original received. $500 verified on SQ. Remaining bal $3288, Collect COD @ delivery-Erika 12/16/19 10:56am
12/16Printed
scheduled 12/19 2-4
12/19Maritza- Omar called to charge COD 3288 over the phone.
12/27Maritza- Delivery confirmation received. Verified COD on SQ",CA,1,8.25,MAJ-1010MAJ-1010-BL,500.00,fgiT,,,,,,,,/,3288.00,#Suqu,,,,,,,,/,0.00,,,,,,,,,/
American Academy of Anti-Aging (A4M) 12/13-15/19 LV,American Academy of Anti-Aging (A4M) 12/13-15/19 LV,May Kam,123111,12/16/2019 10:23:15 AM,Mr & Mrs Robin B Mascari,MT,59715,Majesty,Demo Black,Demo,1,0.00,2900.00,2900.00,Credit Card,,,"5 years parts, 1 year labor (Free)","Majesty,",No,,Printed,,"Special vendor discount , manager approval","Original received $2900 verified on Sq-Erika 12/17/19 9:13am
Dispatched to WA 12/18/19 -Cristina @ 2:48 pm",WA,1,8.25,MAJ-1010MAJ-1010-BL-DEMO,2900.00,Fyd1,,,,,,,,/,0.00,,,,,,,,,/,0.00,,,,,,,,,/
American Academy of Anti-Aging (A4M) 12/13-15/19 LV,American Academy of Anti-Aging (A4M) 12/13-15/19 LV,Rolly San Jose,123119,12/16/2019 12:56:52 PM,Mary susan/walfrido Mata/cruz,CA,90620,Relax 2 Zero 3D,New Black,New,1,0.00,4200.00,4200.00,Synchrony,,,"5 years parts, 1 year labor (Free)","Relax 2 Zero 3D,",No,12/23/2019 12:00:00 AM,Delivered,New,,"Pls deliver within 2 weeks from Dec 16
Synchrony account verified. Credit avail $8500. Remaining bal $4200. Charge sync acct, have sales draft signed-Erika 12/16/19 3:19pm
12/16Printed
scheduled 1-4 charged on Mary Susan Mata account
12/27Maritza- Delivery confirmation received with sales draft",CA,1,8.25,DWA-9060USJ-9060BL,4200.00,,,6501723375460043,85560321,San Diego,36 months,Driver’s License,CA,09/2022,0.00,,,,,,,,,/,0.00,,,,,,,,,/
American Academy of Anti-Aging (A4M) 12/13-15/19 LV,American Academy of Anti-Aging (A4M) 12/13-15/19 LV,Joseph Chan,123331,12/30/2019 9:34:33 AM,Justin Nahama,CA,92129,Majesty,New Choco,New,1,0.00,2750.00,2750.00,Credit Card,,,"5 years parts, 1 year labor ($300)","Majesty,",No,,Scheduled,,,"---Original received. $2750 verified on SQ-Erika 12/30/19 10:10am
12/30Printed Customers signature on original
scheduled 1/10 11-1",CA,1,8.25,MAJ-1010MAJ-1010-BR,2750.00,#zjcy,,,,,,,,/,0.00,,,,,,,,,/,0.00,,,,,,,,,/
American Academy of Anti-Aging (A4M) 12/13-15/19 LV,American Academy of Anti-Aging (A4M) 12/13-15/19 LV,May Kam,123338,12/30/2019 10:47:23 AM,May Bonnin,CA,93311,Majesty,New Choco,New,1,0.00,2900.00,2900.00,Credit Card,Credit Card,,"5 years parts, 1 year labor ($300)","Majesty,Daiwa Blanket,",No,1/2/2020 12:00:00 AM,Delivered,New,"Special discount for one time payment, manager approval","12/30Maritza- Customer cancelled order (123042). Sales rep was able to save the sale by giving discount. This is the updated order. Deposit was confirmed on Square.

*Free chair pad for inconvenience.

12/31scheduled 1/2 9:30-11:30 changed color to BLACK
1/8Maritza- Delivery confirmation received confirmed COD 2700 on HC",CA,1,8.25,MAJ-1010MAJ-1010-BR,200.00,#EldM,,,,,,,,/,2700.00,housecall pro,,,,,,,,/,0.00,,,,,,,,,/
