﻿Original Event Name,Event Name,Sales Person,Order Number,Order Date,Customer Name,State,Zip,Product Name,Color,Product Status,QTY,Tax,Total Before Tax,Order Total,Primary Payment Method,Second Payment Method,Thirdl Payment Method,Warranty,Order Items,Pick up,Delivered On,Order Status,Chair Type,Order Notes,Private Note,Branch,No Tax,Actual Tax Rate,SKU,Primary Payment Balance,Primary Authorize Number,Primary Purchase Order Number,Primary Synchrony Account Number,Primary Synchrony Application Key,Primary Synchrony Account Info,Primary Synchrony Term,Primary Synchrony Primary ID,Primary Synchrony Issued State,Primary Synchrony Expiretion Date,Second Payment Balance,Second Authorize Number,Second Purchase Order Number,Second Synchrony Account Number,Second Synchrony Application Key,Second Synchrony Account Info,Second SynchronyTerm,Second Synchrony Primary ID,Second Synchrony Issued State,Second Synchrony Expiretion Date,Third Payment Balance,Third Authorize Number,Third Purchase Order Number,Third Synchrony Account Number,Third Synchrony Application Key,Third Synchrony Account Info,Third Synchrony Term,Third Synchrony Primary ID,Third Synchrony Issued State,Third Synchrony Expiretion Date
"Antelope Valley Fair 8/16-25/19 Lancaster, CA","Antelope Valley Fair 8/16-25/19 Lancaster, CA",Bernabe Villaflor,120417,8/22/2019 1:29:03 PM,James Reeves,CA,93551,Legacy,Demo Black,Demo,1,0.00,4650.00,4650.00,Synchrony,,,"4 years parts, 1 years labor ($150)","Legacy,",YES,,Cancelled,,,"Warranty includes 4 years parts; 1 year labor.  Customer will pick up item on 8/25, the last day of AV Fair. Thank you.
-Synchrony original verified. Credit available $6500. Remaining balance $4650. Charge synchrony account upon delivery, have sales draft signed-Erika 8/22/19 1:48pm
Disregard this order. Wrong amount inputted. NEW ORDER#120420-Erika 8/22/19 3:25pm",Not Dispatched,1,9.50,DWA-9100DWA-9100BL-DEMO,0.00,,,6501723375280813,79778364,,36 months,Driver’s License,CA,11/2022,0.00,,,,,,,,,/,0.00,,,,,,,,,/
"Antelope Valley Fair 8/16-25/19 Lancaster, CA","Antelope Valley Fair 8/16-25/19 Lancaster, CA",Bernabe Villaflor,120420,8/22/2019 3:17:06 PM,James Reeves,CA,93551,Legacy,Demo Black,Demo,1,0.00,4000.00,4000.00,Synchrony,,,"4 years parts, 1 years labor ($150)","Legacy,",YES,8/30/2019 12:00:00 AM,Delivered,New,,"Warranty includes 4 years parts; 1 year labor.  Customer will pick up item on 8/25, the last day of AV Fair. Thank you.
-Synchrony original verified. Credit available $6500. Remaining balance $4000. Charge synchrony account upon delivery, have sales draft signed-Erika 8/22/19 1:48pm
8/27Maritza- Chair has not been picked up. Chris and Bernie will be in contact with customer to see if he would like to pick up chair from the Gardena warehouse.
scheduled 8/30 2:30-4:30
9/6Maritza- Delivery confirmation received with signed sales draft. Chair was delivered per sales rep request and also upgraded to NEW per reps request. Have logged in commissions file.",CA,1,9.50,DWA-9100DWA-9100BL-DEMO,4000.00,,,6501723375280813,79778364,San Diego,36 months,Driver’s License,CA,11/2022,0.00,,,,,,,,,/,0.00,,,,,,,,,/
