﻿Date,CustomerName,State,Zipcode,Description,productNo,Color,IsDemo,Net,ShippingFee,GiftPrice,FinancingProcessingFee,Gross,Pre_tax,Tax,Commission,Primary Payment Method,Primary Payment Balance,Primary Authorize Number,Primary Purchase Order Number,Primary Synchrony Account Number,Primary Synchrony Application Key,Primary Synchrony AccountInfo,Primary SynchronyTerm,Secondly Payment Method,Secondly Payment Balance,Secondly Authorize Number,Secondly Purchase Order Number,Secondly Synchrony Account Number,Secondly Synchrony Application Key,Secondly Synchrony AccountInfo,Secondly SynchronyTerm,Thirdly Payment Method,Thirdly Payment Balance,Thirdly Authorize Number,Thirdly Purchase Order Number,Thirdly Synchrony Account Number,Thirdly Synchrony Application Key,Thirdly Synchrony AccountInfo,Thirdly SynchronyTerm,DeliveryDate,Ispickup,Warranty,Status,Event Name,Synchrony Notes,Order Notes,Order number,Private Note,Branch,IsNoTax,ActualTaxRate
1/6/2018 9:40:26 AM,Chloye Billingsley,TX,76055,Legacy for Sam's,DWA-9100DWA-9100BL,Blue,New,,,,,3895.92,3599.00,296.92,Kamille Gines,CreditCard,3895.92,Tc#9225603419121125308285,,,,,,,0.00,,,,,,,,0.00,,,,,,,1/16/2018 12:00:00 AM,No,"3 years parts, 1 year labor (Free)",Delivered,"Sam's Club #8210 Burleson, TX 1/4-14/18",,,102749,"Ship new chair
David Wallace training",TX,0,8.25
1/6/2018 6:44:17 PM,Steven Patterson,TX,76028,Legacy for Sam's,DWA-9100DWA-9100CH,Choco,New,,,,,3895.92,3599.00,296.92,Kamille Gines,CreditCard,3895.92,TC# 3653740621278261042691,,,,,,,0.00,,,,,,,,0.00,,,,,,,1/16/2018 12:00:00 AM,No,"3 years parts, 1 year labor (Free)",Delivered,"Sam's Club #8210 Burleson, TX 1/4-14/18",,,102763,,TX,0,8.25
1/6/2018 6:54:14 PM,Michael Wessel,AK,99645,Relax2Zero 2.0 for Sam's,USJ-9050USJ-9050BL,Black,New,,,,,3462.92,3199.00,263.92,Kamille Gines,CreditCard,3462.92,TC# 1382992340444480261800,,,,,,,0.00,,,,,,,,0.00,,,,,,,,No,"3 years parts, 1 year labor (Free)",Assigned,"Sam's Club #8210 Burleson, TX 1/4-14/18",,,102764,"Ship new chair
Alicia is taking over this order. 1/9/18 Hitomi",CA,0,8.25
1/7/2018 8:44:48 PM,Jennifer Willis,TX,76031,Legacy for Sam's,DWA-9100DWA-9100CH,Choco,New,,,,,4653.67,4299.00,354.67,Kamille Gines,CreditCard,4653.67,TC# 3912752640444487291810,,,,,,,0.00,,,,,,,,0.00,,,,,,,1/12/2018 12:00:00 AM,No,"3 years parts, 1 year labor (Free)",Scheduled,"Sam's Club #8210 Burleson, TX 1/4-14/18",,,102784,Extra Pad,TX,0,8.25
1/7/2018 8:53:15 PM,Casey Barton,TX,76028,Legacy for Sam's,DWA-9100DWA-9100SB,Sienna Brown,New,,,,,3895.92,3599.00,296.92,Kamille Gines,CreditCard,3895.92,TC# 7096215434323309519069,,,,,,,0.00,,,,,,,,0.00,,,,,,,,No,"3 years parts, 1 year labor (Free)",Called,"Sam's Club #8210 Burleson, TX 1/4-14/18",,,102786,"Deliver March 1, 2018",TX,0,8.25
1/9/2018 8:23:24 AM,Abilda Barrera,TX,76033,Relax2Zero 2.0 for Sam's,USJ-9050USJ-9050BR,Brown,New,,,,,3199.01,2955.21,243.80,Kamille Gines,CreditCard,3199.00,TC# 7596015938333303534019,,,,,,,0.00,,,,,,,,0.00,,,,,,,1/16/2017 12:00:00 AM,No,"3 years parts, 1 year labor (Free)",Delivered,"Sam's Club #8210 Burleson, TX 1/4-14/18",,,102803,"Deliver new chair
They are Tax Exempt",TX,0,8.25
1/14/2018 4:58:00 PM,David Norton,TX,76028,Legacy for Sam's,DWA-9100DWA-9100CH,Choco,New,,,,,3895.92,3599.00,296.92,Kamille Gines,CreditCard,3895.92,TC# 0791084549666672480732,,,,,,,0.00,,,,,,,,0.00,,,,,,,1/19/2018 12:00:00 AM,No,"3 years parts, 1 year labor (Free)",Delivered,"Sam's Club #8210 Burleson, TX 1/4-14/18",,,102961,Please deliver new chair,TX,0,8.25
1/14/2018 5:04:41 PM,Charlotte Apodaca,TX,76119,Relax2Zero 2.0 for Sam's,USJ-9050USJ-9050BR,Brown,New,,,,,3462.92,3199.00,263.92,Kamille Gines,CreditCard,3462.92,TC# 9745963439164125301255,,,,,,,0.00,,,,,,,,0.00,,,,,,,,No,"3 years parts, 1 year labor (Free)",Cancelled,"Sam's Club #8210 Burleson, TX 1/4-14/18",,,102962,"Please deliver new chair
01/23/18-Cristina- Spoke to customer and she advised that she got her refund from Sams",TX,0,8.25
1/14/2018 5:09:08 PM,Dameshia Mosley,TX,76028,Relax2Zero 2.0 for Sam's,USJ-9050USJ-9050BL,Black,New,,,,,3462.92,3199.00,263.92,Kamille Gines,CreditCard,3462.92,TC# 7836845054383309518099,,,,,,,0.00,,,,,,,,0.00,,,,,,,,No,"3 years parts, 1 year labor (Free)",Scheduled,"Sam's Club #8210 Burleson, TX 1/4-14/18",,,102963,"Please deliver new chair
2nd Floor",TX,0,8.25
1/14/2018 5:13:48 PM,Tracy Cable,TX,76028,Relax2Zero 2.0 for Sam's,USJ-9050USJ-9050BL-DEMO,Demo Black,Demo,,,,,3462.92,3199.00,263.92,Kamille Gines,CreditCard,3462.92,TC# 2000036460835894678944,,,,,,,0.00,,,,,,,,0.00,,,,,,,,No,"3 years parts, 1 year labor (Free)",Scheduled,"Sam's Club #8210 Burleson, TX 1/4-14/18",,,102964,Deliver the Demo Chair,TX,0,8.25
