﻿Order Number,Order Date,Original Event Name,Event Name,Salesperson,SKU,Product Name,Color,QTY,Warranty,Payment Details,Tax,Order Total,Gross,Primary Payment Method,Primary Payment Balance,Primary Authorize Number,Primary Purchase Order Number,Primary Synchrony Account Number,Primary Synchrony Application Key,Primary Synchrony AccountInfo,Primary SynchronyTerm,Secondly Payment Method,Secondly Payment Balance,Secondly Authorize Number,Secondly Purchase Order Number,Secondly Synchrony Account Number,Secondly Synchrony Application Key,Secondly Synchrony AccountInfo,Secondly SynchronyTerm,Thirdly Payment Method,Thirdly Payment Balance,Thirdly Authorize Number,Thirdly Purchase Order Number,Thirdly Synchrony Account Number,Thirdly Synchrony Application Key,Thirdly Synchrony AccountInfo,Thirdly SynchronyTerm,Actual Shipping Cost,CustomerName,Shipping Address,Delivered On,Serial Number (TO Be),Note,Branch,IsNoTax,ActualTaxRate
109796,9/24/2018 9:13:12 AM,ICE SPA 9/23-24/18 LONG BEACH (CA),ICE SPA 9/23-24/18 LONG BEACH (CA),Rodrigo Malabunga,DWA-9400Pegasus2.0-BR,Pegasus 2.0,New Choco,1,"5 years parts, 3 years labor ($400)",CUSTOM ,0.00,7000.00,7000.00,CreditCard,7000.00,Sq #3Qu3,,,,,,,0.00,,,,,,,,0.00,,,,,,,0.00,Shelly Page,512 809 1890,9/28/2018 12:00:00 AM,,,FL,1,10.25
109800,9/24/2018 9:20:55 AM,ICE SPA 9/23-24/18 LONG BEACH (CA),ICE SPA 9/23-24/18 LONG BEACH (CA),Rodrigo Malabunga,DWA-9150USJ-9150BL,Legacy 3D,New Black,1,"5 years parts, 2 years labor ($200)",CUSTOM ,0.00,4420.00,4420.00,CreditCard,4420.00,Sq #UFHL,,,,,,,0.00,,,,,,,,0.00,,,,,,,0.00,Eric Hense,810 610 6677,,,,TX,1,10.25
109845,9/25/2018 11:39:06 AM,ICE SPA 9/23-24/18 LONG BEACH (CA),ICE SPA 9/23-24/18 LONG BEACH (CA),Rodrigo Malabunga,DWA-9400Pegasus2.0-BR,Pegasus 2.0,New Choco,1,"5 years parts, 2 years labor ($200)",CUSTOM CreditCard,0.00,5500.00,5500.00,CreditCard,1500.00,Sq #J8xd,,,,,,CreditCard,4000.00,Sq #rU3K,,,,,,,0.00,,,,,,,0.00,Abrahao Neto,714 697 3510,,,,CA,1,10.25
109846,9/25/2018 11:46:24 AM,ICE SPA 9/23-24/18 LONG BEACH (CA),ICE SPA 9/23-24/18 LONG BEACH (CA),Rodrigo Malabunga,DWA-9400Pegasus2.0-BR,Pegasus 2.0,New Choco,1,"5 years parts, 2 years labor ($200)",CUSTOM CreditCard,0.00,6000.00,6000.00,CreditCard,1000.00,Sq #K5Mu,,,,,,CreditCard,1000.00,Sq #TaNA,,,,,,COD,4000.00,,,,,,,0.00,Vivian Nguyen,714 679 6736,,,,CA,1,10.25
109857,9/25/2018 2:49:05 PM,ICE SPA 9/23-24/18 LONG BEACH (CA),ICE SPA 9/23-24/18 LONG BEACH (CA),Rodrigo Malabunga,DWA-9400Pegasus2.0-BR,Pegasus 2.0,New Choco,1,"5 years parts, 3 years labor ($400)",CUSTOM ,0.00,7500.00,7500.00,Synchrony,7500.00,,,6019170813156632,94824563,San Diego,36 months,,0.00,,,,,,,,0.00,,,,,,,0.00,Huong Ngo,858 752 3131,,,,Not Dispatched,1,10.25
109862,9/25/2018 4:48:32 PM,ICE SPA 9/23-24/18 LONG BEACH (CA),ICE SPA 9/23-24/18 LONG BEACH (CA),Rodrigo Malabunga,DWA-9400Pegasus2.0-BR,Pegasus 2.0,New Choco,1,"5 years parts, 3 years labor ($400)",CUSTOM ,0.00,7500.00,7500.00,Synchrony,7500.00,,,6019170813156632,94824563,San Diego,36 months,,0.00,,,,,,,,0.00,,,,,,,0.00,Huong Ngo,858 752 3131,,,,CA,1,10.25
