﻿Original Event Name,Event Name,Sales Person,Order Number,Order Date,Customer Name,State,Zip,Product Name,Color,Product Status,QTY,Tax,Total Before Tax,Order Total,Primary Payment Method,Second Payment Method,Thirdl Payment Method,Warranty,Order Items,Pick up,Delivered On,Order Status,Chair Type,Order Notes,Private Note,Branch,No Tax,Actual Tax Rate,SKU,Primary Payment Balance,Primary Authorize Number,Primary Purchase Order Number,Primary Synchrony Account Number,Primary Synchrony Application Key,Primary Synchrony Account Info,Primary Synchrony Term,Second Payment Balance,Second Authorize Number,Second Purchase Order Number,Second Synchrony Account Number,Second Synchrony Application Key,Second Synchrony Account Info,Second SynchronyTerm,Third Payment Balance,Third Authorize Number,Third Purchase Order Number,Third Synchrony Account Number,Third Synchrony Application Key,Third Synchrony Account Info,Third Synchrony Term
AAPD 5/25-5/27 '18 (HI),AAPD 5/25-5/27 '18 (HI),Ruben Cuatrona,106507,5/31/2018 2:18:12 PM,MONISHA GAGNAJE,WA,98683,Legacy 3D,New Choco,New,1,0.00,4400.00,4400.00,Synchrony,,,"3 years parts, 3 years labor ($400)","Tourmaline Pad for Legacy 3D,Legacy 3D,",No,6/6/2018 12:00:00 AM,Delivered,,,"CUSTOMER WOULD LIKE RECLINER MOVED TO GARAGE PLEASE HELP.
CHARGED SYNCHRONY $4400  # 031819 - STEPHANY 05/31/18",WA,1,4.50,DWA-9150USJ-9150CH,4400.00,,,6034610083307390,89688211,Las Vegas,36 months,0.00,,,,,,,0.00,,,,,,
AAPD 5/25-5/27 '18 (HI),AAPD 5/25-5/27 '18 (HI),Ruben Cuatrona,106508,5/31/2018 2:20:14 PM,SOPIHA TAN,WA,98662,Relax2Zero 3D,New Black,New,1,0.00,4000.00,4000.00,CreditCard,COD,,"3 years parts, 1 year labor (Free)","Relax2Zero 3D,",No,,Cancelled,,"Please mail customer pink receipt.
**Balance Due $3,500**","Confirmed the deposit $500(auth#30764G) on Wells Fargo. 5/31/18 Riho
Due to entering wrong customer name, revised to order #106510.",WA,1,4.50,DWA-9060USJ-9060BL,500.00,30764G,,,,,,3500.00,,,,,,,0.00,,,,,,
AAPD 5/25-5/27 '18 (HI),AAPD 5/25-5/27 '18 (HI),Ruben Cuatrona,106509,5/31/2018 2:27:24 PM,HANI EID,WA,98642,Legacy 3D,Demo Choco,Demo,1,0.00,3700.00,3700.00,CreditCard,,,"3 years parts, 1 year labor (Free)","Legacy 3D,",No,6/5/2018 12:00:00 AM,Delivered,,Paid in full.,"Confirmed transaction for $3,700 (auth#872195) on Wells Fargo. 5/31/18 Riho",WA,1,4.50,DWA-9150USJ-9150CH-DEMO,3700.00,872195,,,,,,0.00,,,,,,,0.00,,,,,,
AAPD 5/25-5/27 '18 (HI),AAPD 5/25-5/27 '18 (HI),Ruben Cuatrona,106510,5/31/2018 2:36:51 PM,SOPHIA TAN,WA,98662,Relax2Zero 3D,New Black,New,1,146.25,4000.00,4146.25,CreditCard,COD,,"3 years parts, 1 year labor (Free)","Relax2Zero 3D,",No,,Cancelled,,"Please mail customer pink receipt.
**Balance Due $3,500**","Confirmed transaction for $500 (auth#30764G) on Wells Fargo. 5/31/18 Riho
**Total amount is $4,000, waved the Tax**
CUSTOMER EMAILED, SHE'S NOT READY AND WILL CONTACT US ONCE SHE'S READY - 06/01/18 STEPHANY",WA,0,4.50,DWA-9060USJ-9060BL,500.00,30764G,,,,,,3500.00,,,,,,,0.00,,,,,,
AAPD 5/25-5/27 '18 (HI),AAPD 5/25-5/27 '18 (HI),Ruben Cuatrona,106512,5/31/2018 2:55:18 PM,QUYEN HUYNH,OR,97024,Relax2Zero 3D,New Black,New,1,0.00,4000.00,4000.00,CreditCard,COD,,"3 years parts, 1 year labor (Free)","Relax2Zero 3D,",No,,Hold,,"**Balance Due $3,500**","Confirmed $500 (auth#027307) on Wells Fargo. 5/31/18 Riho
CUSTOMER IS NOT READY WILL CALL ONCE READY PLS HOLD - 06/01/18 STEPHANY",WA,1,4.50,DWA-9060USJ-9060BL,500.00,027307,,,,,,3500.00,,,,,,,0.00,,,,,,
AAPD 5/25-5/27 '18 (HI),AAPD 5/25-5/27 '18 (HI),Ruben Cuatrona,106513,5/31/2018 3:11:48 PM,JENNA KHOURY,CA,92078,Legacy 3D,New Black,New,1,0.00,4200.00,4200.00,CreditCard,,,"3 years parts, 1 year labor (Free)","Legacy 3D,",No,6/6/2018 12:00:00 AM,Delivered,,Paid in full.,"Confirmed $4,200/Auth#106513 on Wells Fargo. 5/31/18 Riho",CA,1,4.50,DWA-9150USJ-9150BL,4200.00,08849G,,,,,,0.00,,,,,,,0.00,,,,,,
AAPD 5/25-5/27 '18 (HI),AAPD 5/25-5/27 '18 (HI),Ruben Cuatrona,106514,5/31/2018 3:33:59 PM,KARINA GAMBOA,MB,R3P 2N4,Legacy 3D,New Choco,New,1,0.00,4200.00,4200.00,CreditCard,,,3 Years Parts (International),"Legacy 3D,",No,,Delivered,,*Drop Ship*,"Confirmed $4,200 (Auth#031784) on Wells Fargo. 5/31/18 Riho
6/1 Maritza Courtesy call @10:47AM Have also sent out email with info on broker fees. Sent an email to Noemi from Carson Customs",CA,1,4.50,DWA-9150USJ-9150CH,4200.00,031784,,,,,,0.00,,,,,,,0.00,,,,,,
AAPD 5/25-5/27 '18 (HI),AAPD 5/25-5/27 '18 (HI),Thomas Motooka,108250,8/9/2018 1:30:57 PM,Reid Higashihara,HI,96789,Relax2Zero 3D,New Black,New,1,0.00,4600.00,4600.00,Cash,Cash,,"3 years parts, 1 year labor (Free)","Relax2Zero 3D,Chair Pad for Relax2Zero 3D,Foot Pads for Relax2Zero 3D,",No,,Hold,,,,Not Dispatched,1,4.50,DWA-9060USJ-9060BL,100.00,,,,,,,0.00,,,,,,,0.00,,,,,,
AAPD 5/25-5/27 '18 (HI),AAPD 5/25-5/27 '18 (HI),Thomas Motooka,108251,8/9/2018 1:42:52 PM,Shari S,HI,96813,Solace,,New,1,0.00,3500.00,3500.00,Check,,,"3 years parts, 1 year labor (Free)","Solace,",No,,Cancelled,,,test,Not Dispatched,1,4.50,SOL-1,100.00,,,,,,,0.00,,,,,,,0.00,,,,,,
