﻿Date,CustomerName,State,Zipcode,Description,productNo,Color,IsDemo,Net,ShippingFee,GiftPrice,FinancingProcessingFee,Gross,Pre_tax,Tax,Commission,Primary Payment Method,Primary Payment Balance,Primary Authorize Number,Primary Purchase Order Number,Primary Synchrony Account Number,Primary Synchrony Application Key,Primary Synchrony AccountInfo,Primary SynchronyTerm,Secondly Payment Method,Secondly Payment Balance,Secondly Authorize Number,Secondly Purchase Order Number,Secondly Synchrony Account Number,Secondly Synchrony Application Key,Secondly Synchrony AccountInfo,Secondly SynchronyTerm,Thirdly Payment Method,Thirdly Payment Balance,Thirdly Authorize Number,Thirdly Purchase Order Number,Thirdly Synchrony Account Number,Thirdly Synchrony Application Key,Thirdly Synchrony AccountInfo,Thirdly SynchronyTerm,DeliveryDate,Ispickup,Warranty,Status,Event Name,Synchrony Notes,Order Notes,Order number,Private Note,Branch,IsNoTax,ActualTaxRate
2/14/2018 8:39:43 AM,James K. Shipley,TX,77071,Relax2Zero 2.0 for Sam's,USJ-9050USJ-9050BL,Black,New,,,,,0.00,0.00,0.00,Patrick Khanh,,0.00,,,,,,,,0.00,,,,,,,,0.00,,,,,,,,No,"3 years parts, 1 year labor (Free)",Cancelled,"Sam's Club #8246 Stafford Meadows, TX",,will call for delivery,103716,"new No damage
Sales forget input price. He will redo it. Please cancel this order. 2/14/2018 June",Not Dispatched,0,8.25
2/14/2018 8:39:43 AM,James K. Shipley,TX,77071,Daiwa Blanket,,,New,,,,,0.00,0.00,0.00,Patrick Khanh,,0.00,,,,,,,,0.00,,,,,,,,0.00,,,,,,,,No,no warranty,Cancelled,"Sam's Club #8246 Stafford Meadows, TX",,will call for delivery,103716,"new No damage
Sales forget input price. He will redo it. Please cancel this order. 2/14/2018 June",Not Dispatched,0,8.25
2/14/2018 8:39:43 AM,James K. Shipley,TX,77071,Chair Pad for Relax2Zero 2.0,,,New,,,,,0.00,0.00,0.00,Patrick Khanh,,0.00,,,,,,,,0.00,,,,,,,,0.00,,,,,,,,No,no warranty,Cancelled,"Sam's Club #8246 Stafford Meadows, TX",,will call for delivery,103716,"new No damage
Sales forget input price. He will redo it. Please cancel this order. 2/14/2018 June",Not Dispatched,0,8.25
2/14/2018 8:39:43 AM,James K. Shipley,TX,77071,Foot Pads for Relax2Zero 2.0,,,New,,,,,0.00,0.00,0.00,Patrick Khanh,,0.00,,,,,,,,0.00,,,,,,,,0.00,,,,,,,,No,no warranty,Cancelled,"Sam's Club #8246 Stafford Meadows, TX",,will call for delivery,103716,"new No damage
Sales forget input price. He will redo it. Please cancel this order. 2/14/2018 June",Not Dispatched,0,8.25
2/19/2018 8:28:56 AM,Rafio Ali Maknojia,TX,77479,Legacy for Sam's,DWA-9100DWA-9100CH,Choco,New,,,,,3599.00,3599.00,0.00,Yichuang (Debbie) Yang,CreditCard,3599.00,2180076225830398083974,,,,,,,0.00,,,,,,,,0.00,,,,,,,2/13/2018 12:00:00 AM,No,"3 years parts, 1 year labor (Free)",Delivered,"Sam's Club #8246 Stafford Meadows, TX",,,103848,,TX,1,8.25
2/21/2018 7:55:42 AM,James Shipley,TX,77071,Relax2Zero 2.0 for Sam's,USJ-9050USJ-9050BL,New Black,New,,,,,3462.92,3462.92,0.00,Patrick Khanh,CreditCard,3462.92,8637729484526217632177,,,,,,,0.00,,,,,,,,0.00,,,,,,,,No,"3 years parts, 1 year labor (Free)",Scheduled,"Sam's Club #8246 Stafford Meadows, TX",,,103893,,TX,1,8.25
