﻿Original Event Name,Event Name,Sales Person,Order Number,Order Date,Customer Name,State,Zip,Product Name,Color,Product Status,QTY,Tax,Total Before Tax,Order Total,Primary Payment Method,Second Payment Method,Thirdl Payment Method,Warranty,Order Items,Pick up,Delivered On,Order Status,Chair Type,Order Notes,Private Note,Branch,No Tax,Actual Tax Rate,SKU,Primary Payment Balance,Primary Authorize Number,Primary Purchase Order Number,Primary Synchrony Account Number,Primary Synchrony Application Key,Primary Synchrony Account Info,Primary Synchrony Term,Second Payment Balance,Second Authorize Number,Second Purchase Order Number,Second Synchrony Account Number,Second Synchrony Application Key,Second Synchrony Account Info,Second SynchronyTerm,Third Payment Balance,Third Authorize Number,Third Purchase Order Number,Third Synchrony Account Number,Third Synchrony Application Key,Third Synchrony Account Info,Third Synchrony Term
"ALABAMA NATIONAL FAIR 9/28-10/8/18 Montgomery, AL (IL)","ALABAMA NATIONAL FAIR 9/28-10/8/18 Montgomery, AL (FL)",Alex Brackelsberg,109985,10/1/2018 8:57:30 AM,Kathy Godwin,AL,36022,Legacy 3D,New Black,New,1,0.00,4100.00,4100.00,Cash,CreditCard,,"5 years parts, 1 year labor (Free)","Legacy 3D,",No,10/23/2018 12:00:00 AM,Delivered,,4000 COD. Two extra back pads black. Deliver to business after the 20th of October,"CORRECT #: 334-399-1976
CC Josefina - 10/1/18 4:45pm (Deliver after October 20th)
$100 cash is with Alex.Please send cash confirmation . COD $4,000. 10/1/18 Hitomi
10/31Maritza- delivery and COD confirmation received.
11/2/18 Hitomi received cash confirmation : Maggie received $100 cash on 10/12/18",FL,1,10.00,DWA-9150USJ-9150BL,100.00,,,,,,,4000.00,housecall pro,,,,,,0.00,,,,,,
"ALABAMA NATIONAL FAIR 9/28-10/8/18 Montgomery, AL (IL)","ALABAMA NATIONAL FAIR 9/28-10/8/18 Montgomery, AL (FL)",Alex Brackelsberg,109988,10/1/2018 9:02:05 AM,LaToya Hughes,AL,36116,Relax2Zero 3D,New Choco,New,1,0.00,4150.00,4150.00,CreditCard,,,"5 years parts, 1 year labor (Free)","Relax2Zero 3D,",No,10/12/2018 12:00:00 AM,Delivered,,Second floor delivery.,"CC Josefina - 10/1/18 1:55pm
COnfirmed $4,150 in Square. 10/1/18 Hitomi",FL,1,10.00,DWA-9060USJ-9060BR,4150.00,#OAf9,,,,,,0.00,,,,,,,0.00,,,,,,
"ALABAMA NATIONAL FAIR 9/28-10/8/18 Montgomery, AL (IL)","ALABAMA NATIONAL FAIR 9/28-10/8/18 Montgomery, AL (FL)",Alex Brackelsberg,109990,10/1/2018 9:08:16 AM,Misty Hines,AL,36066,Legacy 3D,New Black,New,1,400.00,4000.00,4400.00,CreditCard,Synchrony,,"5 years parts, 1 year labor (Free)","Legacy 3D,",No,,Cancelled,,Deliver after November 2nd moving into new home that day.,Moving address on fakes space different than synchrony,Not Dispatched,0,10.00,DWA-9150USJ-9150BL,500.00,#NLid,,,,,,3500.00,,,,95087056,Huston,36 months,0.00,,,,,,
"ALABAMA NATIONAL FAIR 9/28-10/8/18 Montgomery, AL (IL)","ALABAMA NATIONAL FAIR 9/28-10/8/18 Montgomery, AL (FL)",Robert Shih,109991,10/1/2018 9:12:49 AM,Kevin Relter,AL,36092,Legacy 3D,New Choco,New,1,0.00,4500.00,4500.00,Cash,CreditCard,,"5 years parts, 1 year labor (Free)","Legacy 3D,",No,10/12/2018 12:00:00 AM,Delivered,,"Dear Kevin family . 

Thank you for being part of Daiwa family / Cash Discount / COD $4,400","CC Josefina - 10/1/18 4:30pm
$100 cash is with Alex.Please send cash confirmation.  COD $4,400. 10/1/18 Hitomi
11/2/18 Hitomi received cash confirmation : Maggie received $100 cash on 10/12/18.",FL,1,10.00,DWA-9150USJ-9150CH,100.00,,,,,,,4400.00,housecall pro,,,,,,0.00,,,,,,
"ALABAMA NATIONAL FAIR 9/28-10/8/18 Montgomery, AL (IL)","ALABAMA NATIONAL FAIR 9/28-10/8/18 Montgomery, AL (FL)",Alex Brackelsberg,109992,10/1/2018 9:15:06 AM,Misty Hines,AL,36066,Legacy 3D,New Black,New,1,0.00,4000.00,4000.00,CreditCard,Synchrony,,"5 years parts, 1 year labor (Free)","Legacy 3D,",No,,Cancelled,,Deliver after November 2nd to new home,"Address different on Daiwa space than synchrony//Confirmed $500 in Square, SYNC ($3,500) and original. ***Please charge $3,500 before delivery and sales draft signed.***Please follow up Nov delivery and confirm delivery address. Place on hold. 10/1/18 Hitomi",FL,1,10.00,DWA-9150USJ-9150BL,500.00,NLid,,,,,,3500.00,,,6019170813167001,95087056,Huston,36 months,0.00,,,,,,
"ALABAMA NATIONAL FAIR 9/28-10/8/18 Montgomery, AL (IL)","ALABAMA NATIONAL FAIR 9/28-10/8/18 Montgomery, AL (FL)",Robert Shih,109993,10/1/2018 9:20:17 AM,Bobby J. Mathis,AL,36117,Relax2Zero 3D,New Choco,New,1,0.00,4500.00,4500.00,Synchrony,,,"5 years parts, 1 year labor (Free)","Relax2Zero 3D,",No,10/12/2018 12:00:00 AM,Delivered,,"Dear Bobby ,

Thank you for being part of Daiwa family / Synchrony 36 months 0% APR","CC Josefina - 10/1/18 3:50pm TXT

Confirmed SYNC($4,800) and original. ***Please charge $4,500 before delivery and have sales draft signed.*** 10/1/18 Hitomi",FL,1,10.00,DWA-9060USJ-9060BR,4500.00,,,6019170813166573,95081936,San Diego,36 months,0.00,,,,,,,0.00,,,,,,
"ALABAMA NATIONAL FAIR 9/28-10/8/18 Montgomery, AL (IL)","ALABAMA NATIONAL FAIR 9/28-10/8/18 Montgomery, AL (FL)",Alex Brackelsberg,110084,10/5/2018 12:26:40 PM,Kelly Sanchez,AL,36022,Relax2Zero 3D,New Black,New,1,0.00,4200.00,4200.00,Synchrony,,,"5 years parts, 1 year labor (Free)","Relax2Zero 3D,",No,10/23/2018 12:00:00 AM,Delivered,,Military discount,"CC Josefina - 10/12/18 9:35am

Confirmed sync ($6,500). will confirm original. 10/8/18 Hitomi//Confirmed original.***Please charge $4,200 before delivery and sales draft signed.***10/10/18 Hitomi
10/30Maritza confirmed sales draft and delivery confirmation.",FL,1,10.00,DWA-9060USJ-9060BL,4200.00,,,6019170813173207,95271740,Huston,36 months,0.00,,,,,,,0.00,,,,,,
"ALABAMA NATIONAL FAIR 9/28-10/8/18 Montgomery, AL (IL)","ALABAMA NATIONAL FAIR 9/28-10/8/18 Montgomery, AL (FL)",Alex Brackelsberg,110212,10/9/2018 8:49:38 AM,Matthew Carden,AL,36078,Relax2Zero 3D,Demo Choco,Demo,1,0.00,3500.00,3500.00,Synchrony,,,"5 years parts, 1 year labor (Free)","Relax2Zero 3D,",No,10/8/2018 12:00:00 AM,Delivered,,"First responder discount, delivered by alex after show on 10/8/18","Confirmed SYNC($3,500) . ORIGINAL NEEDS TO BE CONFIRMED . 10/9/18 Hitomi//Confirmed original and delivery confirmation. will confirm charge and sales draft. 10/10/18 Hitomi",FL,1,10.00,DWA-9060USJ-9060BR-DEMO,3500.00,,,6019170813178453,95383539,Huston,36 months,0.00,,,,,,,0.00,,,,,,
