﻿Date,Customer Name,State,Zipcode,Description,Product Number,Color,Product Status,Net,Shipping Fee,Gift Price,Financing Processing Fee,Order Total,Total Before Tax,Tax,Commission,Primary Payment Method,Primary Payment Balance,Primary Authorize Number,Primary Purchase Order Number,Primary Synchrony Account Number,Primary Synchrony Application Key,Primary Synchrony Account Info,Primary Synchrony Term,Second Payment Method,Second Payment Balance,Second Authorize Number,Second Purchase Order Number,Second Synchrony Account Number,Second Synchrony Application Key,Second Synchrony Account Info,Second Synchrony Term,Third Payment Method,Third Payment Balance,Third Authorize Number,Third Purchase Order Number,Third Synchrony Account Number,Third Synchrony Application Key,Third Synchrony Account Info,Third Synchrony Term,Delivery Date,Pick up,Warranty,Status,Chair Type,Original Event Name,Event Name,Synchrony Notes,Order Notes,Order Number,Private Note,Branch,No Tax,Actual Tax Rate
8/19/2018 6:49:40 PM,Mr & Mrs Dimazana Eric B,NV,89136,Legacy 3D,DWA-9150USJ-9150BL,New Black,New,,,,,3850.00,3850.00,0.00,May Kam,CreditCard,100.00,# nVwt,,,,,,COD,3750.00,,,,,,,,0.00,,,,,,,8/30/2018 12:00:00 AM,No,"3 years parts, 1 year labor (Free)",Delivered,,Island Pacific 8/16-20/18 Las Vegas (NV),Island Pacific 8/16-20/18 Las Vegas (NV),,One time payment special discount.,108616,"Confirmed $100.00 in Square. COD $3,750. 8/20/18 Hitomi
8/21Maritza Courtesy text @ 10:12AM",NV,1,8.25
8/19/2018 6:49:40 PM,Mr & Mrs Dimazana Eric B,NV,89136,Tourmaline Pad for Legacy 3D,,,New,,,,,3850.00,3850.00,0.00,May Kam,CreditCard,100.00,# nVwt,,,,,,COD,3750.00,,,,,,,,0.00,,,,,,,8/30/2018 12:00:00 AM,No,no warranty,Delivered,,Island Pacific 8/16-20/18 Las Vegas (NV),Island Pacific 8/16-20/18 Las Vegas (NV),,One time payment special discount.,108616,"Confirmed $100.00 in Square. COD $3,750. 8/20/18 Hitomi
8/21Maritza Courtesy text @ 10:12AM",NV,1,8.25
8/19/2018 7:16:56 PM,Mrs Teresita Bragado,NV,89148,Legacy 3D,DWA-9150USJ-9150BL-DEMO,Demo Black,Demo,,,,,3400.00,3400.00,0.00,May Kam,Cash,200.00,,,,,,,COD,3200.00,,,,,,,,0.00,,,,,,,8/22/2018 12:00:00 AM,No,"3 years parts, 1 year labor (Free)",Delivered,,Island Pacific 8/16-20/18 Las Vegas (NV),Island Pacific 8/16-20/18 Las Vegas (NV),,Special discount for one time payment,108620,"May has $200 cash as deposit and will submit on Aug 28,2018. COD$3,200. - 8/20/18 Hitomi
8/21Maritza Courtesy text+email @ 10:42AM
Pres. MK received $200 cash from May. 8/30/18 Riho",NV,1,8.25
8/19/2018 7:16:56 PM,Mrs Teresita Bragado,NV,89148,Daiwa Blanket,,,New,,,,,3400.00,3400.00,0.00,May Kam,Cash,200.00,,,,,,,COD,3200.00,,,,,,,,0.00,,,,,,,8/22/2018 12:00:00 AM,No,no warranty,Delivered,,Island Pacific 8/16-20/18 Las Vegas (NV),Island Pacific 8/16-20/18 Las Vegas (NV),,Special discount for one time payment,108620,"May has $200 cash as deposit and will submit on Aug 28,2018. COD$3,200. - 8/20/18 Hitomi
8/21Maritza Courtesy text+email @ 10:42AM
Pres. MK received $200 cash from May. 8/30/18 Riho",NV,1,8.25
8/19/2018 7:16:56 PM,Mrs Teresita Bragado,NV,89148,Tourmaline Pad for Legacy 3D,,,New,,,,,3400.00,3400.00,0.00,May Kam,Cash,200.00,,,,,,,COD,3200.00,,,,,,,,0.00,,,,,,,8/22/2018 12:00:00 AM,No,no warranty,Delivered,,Island Pacific 8/16-20/18 Las Vegas (NV),Island Pacific 8/16-20/18 Las Vegas (NV),,Special discount for one time payment,108620,"May has $200 cash as deposit and will submit on Aug 28,2018. COD$3,200. - 8/20/18 Hitomi
8/21Maritza Courtesy text+email @ 10:42AM
Pres. MK received $200 cash from May. 8/30/18 Riho",NV,1,8.25
8/21/2018 12:09:24 AM,Mr Chua Rocky Johnross Balasabas,NV,89084,Legacy 3D,DWA-9150USJ-9150CH,New Choco,New,,,,,4168.00,4168.00,0.00,May Kam,Synchrony,4168.00,,,6019170813092159,93204551,Huston,36 months,,0.00,,,,,,,,0.00,,,,,,,8/26/2018 12:00:00 AM,No,"3 years parts, 1 year labor (Free)",Delivered,,Island Pacific 8/16-20/18 Las Vegas (NV),Island Pacific 8/16-20/18 Las Vegas (NV),,,108654,"Confirmed synchrony account  (6000) under JOHN ROSS BALASABAS and original. PLease charge before delivery and have saled draft signed. May is requesting weekend delivery.8/21/18 Hitomi
8/21Maritza Courtesy text+email@ 11:17AM emailed NV branch about weekend delivery.
Hitomi-talked to Kohei , the earliest they can do is 8/28/Tue.  asked to let the customer know.
CHARGED SYNCHRONY #024577 $4168 - STEPHANY 08/24/18",NV,1,8.25
8/21/2018 12:09:24 AM,Mr Chua Rocky Johnross Balasabas,NV,89084,Tourmaline Pad for Legacy 3D,,,New,,,,,4168.00,4168.00,0.00,May Kam,Synchrony,4168.00,,,6019170813092159,93204551,Huston,36 months,,0.00,,,,,,,,0.00,,,,,,,8/26/2018 12:00:00 AM,No,no warranty,Delivered,,Island Pacific 8/16-20/18 Las Vegas (NV),Island Pacific 8/16-20/18 Las Vegas (NV),,,108654,"Confirmed synchrony account  (6000) under JOHN ROSS BALASABAS and original. PLease charge before delivery and have saled draft signed. May is requesting weekend delivery.8/21/18 Hitomi
8/21Maritza Courtesy text+email@ 11:17AM emailed NV branch about weekend delivery.
Hitomi-talked to Kohei , the earliest they can do is 8/28/Tue.  asked to let the customer know.
CHARGED SYNCHRONY #024577 $4168 - STEPHANY 08/24/18",NV,1,8.25
8/21/2018 12:19:25 AM,Mr Romeo Torres,NV,89178,Legacy 3D,DWA-9150USJ-9150BL-DEMO,Demo Black,Demo,,,,,3550.00,3550.00,0.00,May Kam,Cash,100.00,,,,,,,Cash,3450.00,,,,,,,,0.00,,,,,,,8/28/2018 12:00:00 AM,No,"3 years parts, 1 year labor (Free)",Delivered,,Island Pacific 8/16-20/18 Las Vegas (NV),Island Pacific 8/16-20/18 Las Vegas (NV),,,108655,"will confirm $100 cash after May is back. COD$3,450. 8/21/18 Hitomi
8/21Maritza Courtesy text @ 11:21AM
Pres. MK received $100 cash from May. 8/30/18 Riho
Kohei received $3,450 cash 8/30/18 Hitomi",NV,1,8.25
8/21/2018 12:19:25 AM,Mr Romeo Torres,NV,89178,Tourmaline Pad for Legacy 3D,,,New,,,,,3550.00,3550.00,0.00,May Kam,Cash,100.00,,,,,,,Cash,3450.00,,,,,,,,0.00,,,,,,,8/28/2018 12:00:00 AM,No,no warranty,Delivered,,Island Pacific 8/16-20/18 Las Vegas (NV),Island Pacific 8/16-20/18 Las Vegas (NV),,,108655,"will confirm $100 cash after May is back. COD$3,450. 8/21/18 Hitomi
8/21Maritza Courtesy text @ 11:21AM
Pres. MK received $100 cash from May. 8/30/18 Riho
Kohei received $3,450 cash 8/30/18 Hitomi",NV,1,8.25
8/21/2018 12:35:31 AM,Mrs Maria Cortez,NV,89134,Legacy 3D,DWA-9150USJ-9150CH-DEMO,Demo Choco,Demo,,,,,3735.00,3735.00,0.00,May Kam,Synchrony,3735.00,,,6019170813093181,93227768,Huston,36 months,,0.00,,,,,,,,0.00,,,,,,,8/28/2018 12:00:00 AM,No,"3 years parts, 1 year labor (Free)",Delivered,,Island Pacific 8/16-20/18 Las Vegas (NV),Island Pacific 8/16-20/18 Las Vegas (NV),"Auth#028091-08/28/2018 12:01:44
8/30/18 Hitomi confirmed $3,735.00 was charged for 36 months.received sals draft. ","Pls make finance $3735 purchase, Thanks! Another phone is 702-586-0031",108656,"Confirmed synchrony account (6000) ORIGINAL NEEDS TO BE CONFIRMED 8/21/18 Hitomi ///Confirmed original invoice & form 8/22/18-Riho
8/22Maritza Courtesy text @ 11:50AM",NV,1,8.25
8/21/2018 12:35:31 AM,Mrs Maria Cortez,NV,89134,Tourmaline Pad for Legacy 3D,,,New,,,,,3735.00,3735.00,0.00,May Kam,Synchrony,3735.00,,,6019170813093181,93227768,Huston,36 months,,0.00,,,,,,,,0.00,,,,,,,8/28/2018 12:00:00 AM,No,no warranty,Delivered,,Island Pacific 8/16-20/18 Las Vegas (NV),Island Pacific 8/16-20/18 Las Vegas (NV),"Auth#028091-08/28/2018 12:01:44
8/30/18 Hitomi confirmed $3,735.00 was charged for 36 months.received sals draft. ","Pls make finance $3735 purchase, Thanks! Another phone is 702-586-0031",108656,"Confirmed synchrony account (6000) ORIGINAL NEEDS TO BE CONFIRMED 8/21/18 Hitomi ///Confirmed original invoice & form 8/22/18-Riho
8/22Maritza Courtesy text @ 11:50AM",NV,1,8.25
8/21/2018 12:58:30 AM,Mr Dung chau,NV,89148,Legacy 3D,DWA-9150USJ-9150BL,New Black,New,,,,,4168.00,4168.00,0.00,May Kam,Synchrony,4168.00,,,6019170813093595,93236984,Huston,36 months,,0.00,,,,,,,,0.00,,,,,,,8/26/2018 12:00:00 AM,No,"3 years parts, 1 year labor (Free)",Delivered,,Island Pacific 8/16-20/18 Las Vegas (NV),Island Pacific 8/16-20/18 Las Vegas (NV),,"Pls make finance $4168 purchase, Thanks",108657,"Confirmed synchrony account (6000) ORIGINAL NEEDS TO BE CONFIRMED 8/21/18 Hitomi ///Confirmed original invoice & form 8/22/18-Riho
8/22Maritza Courtesy text @ 11:51AM
08/24/18 CHARGED SYNCHRONY $4168 #024219 STEPHANY",NV,1,8.25
8/21/2018 6:55:54 AM,Mr Marcelo B Tacliad JR,NV,89148,Legacy 3D,DWA-9150USJ-9150BL,New Black,New,,,,,4168.00,4168.00,0.00,May Kam,CreditCard,100.00,#ErhP,,,,,,COD,4068.00,,,,,,,,0.00,,,,,,,,No,"3 years parts, 1 year labor (Free)",Hold,,Island Pacific 8/16-20/18 Las Vegas (NV),Island Pacific 8/16-20/18 Las Vegas (NV),,"Before delivery, need confirm color again . Thanks !Pls hold 6 month about, because moving new house. The customer may need finance. Another phone is 7024999273, Thanks",108658,"Confirmed $100 in Square.COD $4,068. -place on hold - 8/21/18 Hitomi

11/2/18: Customer wants us to Hold chair for 1 year because moving to another home next year. Please call October 2019 - Laura",NV,1,8.25
8/21/2018 6:55:54 AM,Mr Marcelo B Tacliad JR,NV,89148,Tourmaline Pad for Legacy 3D,,,New,,,,,4168.00,4168.00,0.00,May Kam,CreditCard,100.00,#ErhP,,,,,,COD,4068.00,,,,,,,,0.00,,,,,,,,No,no warranty,Hold,,Island Pacific 8/16-20/18 Las Vegas (NV),Island Pacific 8/16-20/18 Las Vegas (NV),,"Before delivery, need confirm color again . Thanks !Pls hold 6 month about, because moving new house. The customer may need finance. Another phone is 7024999273, Thanks",108658,"Confirmed $100 in Square.COD $4,068. -place on hold - 8/21/18 Hitomi

11/2/18: Customer wants us to Hold chair for 1 year because moving to another home next year. Please call October 2019 - Laura",NV,1,8.25
8/21/2018 7:27:36 AM,Mr & Mrs Felicia craft,MS,39501,Legacy 3D,DWA-9150USJ-9150BL,New Black,New,,,,,11165.00,11165.00,0.00,May Kam,CreditCard,100.00,#BRxy,,,,,,COD,11065.00,,,,,,,,0.00,,,,,,,,No,"3 years parts, 1 year labor (Free)",Hold,,Island Pacific 8/16-20/18 Las Vegas (NV),Island Pacific 8/16-20/18 Las Vegas (NV),,"Before delivery , pls charge balance $11065, thanks . Special discount for one family bought 6 chairs .",108659,"Confirmed $100 deposit is cleared in Square. COD $11,065. - place on hold- 8/21/18 Hitomi",TX,1,8.25
8/21/2018 7:44:31 AM,Mr & Mrs Felicia Craft,MS,39501,Legacy 3D,DWA-9150USJ-9150CH,New Choco,New,,,,,11165.00,11165.00,0.00,May Kam,CreditCard,100.00,#BRxy,,,,,,COD,11065.00,,,,,,,,0.00,,,,,,,,No,"3 years parts, 1 year labor (Free)",Hold,,Island Pacific 8/16-20/18 Las Vegas (NV),Island Pacific 8/16-20/18 Las Vegas (NV),,"Before delivery, pls charge balance $11065; hold about 2 month for new place. Special discount for one family bought 6 chairs  ( with order #108659) manager approval .",108660,"Confirmed $100 deposit is cleared in Square. COD $11,065. - place on hold- 8/21/18 Hitomi",TX,1,8.25
8/28/2018 8:36:09 PM,Mr Kofi Amissah,NV,89113,Legacy 3D,DWA-9150USJ-9150CH-DEMO,Demo Choco,Demo,,,,,3450.00,3450.00,0.00,May Kam,Synchrony,2000.00,,,6019170813093587,93236377,Huston,24 months,CreditCard,1450.00,Four month payment,,,,,,,0.00,,,,,,,,No,"3 years parts, 1 year labor (Free)",Hold,,Island Pacific 8/16-20/18 Las Vegas (NV),Island Pacific 8/16-20/18 Las Vegas (NV),,"Pls charge $362.50 on Sep.5th, 2018,
Once pay off $1450,  pls make purchase  finance $2000, then deliver chair.",108861,"COnfirmed synchrony account (2,000) and original. $1,450 before LAYAWAY for 4 month. (asked Stephany with email  to start before LAYAWAY) ***Once pay off $1450, please schedule and charge $2,000 before delivery , have sales draft signed. ****8/29/18 Hitomi",NV,1,8.25
8/28/2018 8:36:09 PM,Mr Kofi Amissah,NV,89113,Tourmaline Pad for Legacy 3D,,,New,,,,,3450.00,3450.00,0.00,May Kam,Synchrony,2000.00,,,6019170813093587,93236377,Huston,24 months,CreditCard,1450.00,Four month payment,,,,,,,0.00,,,,,,,,No,no warranty,Hold,,Island Pacific 8/16-20/18 Las Vegas (NV),Island Pacific 8/16-20/18 Las Vegas (NV),,"Pls charge $362.50 on Sep.5th, 2018,
Once pay off $1450,  pls make purchase  finance $2000, then deliver chair.",108861,"COnfirmed synchrony account (2,000) and original. $1,450 before LAYAWAY for 4 month. (asked Stephany with email  to start before LAYAWAY) ***Once pay off $1450, please schedule and charge $2,000 before delivery , have sales draft signed. ****8/29/18 Hitomi",NV,1,8.25
11/26/2018 8:51:24 AM,Joseph Mcdevitt,NV,89128,Legacy,DWA-9100DWA-9100BU,New Choco,New,,,,,3788.00,3788.00,0.00,Rolly San Jose,Synchrony,3788.00,,,6019170813266464,97688519,Huston,36 months,,0.00,,,,,,,,0.00,,,,,,,12/6/2018 12:00:00 AM,No,"5 years parts, 1 year labor (Free)",Delivered,New,Island Pacific Store Demo (NV),Island Pacific Store Demo (NV),"Confirmed synchrony charged $3,788.00 in texas account. 
Auth# 005839  --- 2/7/19 Asumi",,112702,"Confirmed SYNC($8,500) and original.*** PLease charge $3,788 before delivery and sales draft signed.***11/26/18 Hitomi
11/29Maritza- Courtesy message sent @ 4:50PM
12/5 Kohei - Synchrony charged $3788.
 Received delivery confirmation and sales draft ---2/7/19 Asumi",NV,1,8.25
11/26/2018 8:56:55 AM,Richard De vera,NV,89117,Majesty,MAJ-1010MAJ-1010-BR,New Choco,New,,,,,3788.00,3788.00,0.00,Rolly San Jose,Synchrony,3788.00,,,6019170813261903,97608807,Huston,36 months,,0.00,,,,,,,,0.00,,,,,,,12/5/2018 12:00:00 AM,No,"5 years parts, 1 year labor (Free)",Delivered,New,Island Pacific Store Demo (NV),Island Pacific Store Demo (NV),"12/6/18 COnfirmed $3,788.00 was charged 36 months,(TX acct) / Authorization#005722 /sales draft is confirmed --Hitomi 
",,112704,"Deliver asap//Confirmed SYNC($8,500) and original. ***Please charge $3,788 before delivery and sales draft signed*** 11/26/18 Hitomi
11/29Maritza- Courtesy messages sent @ 4:52PM
Delivered by Rex 12/5/18",NV,1,8.25
11/26/2018 9:03:01 AM,Corazon Palmer,NV,89129,Majesty,MAJ-1010MAJ-1010-BL,New Black,New,,,,,3000.00,3000.00,0.00,Rolly San Jose,Synchrony,3000.00,,,6019170813259147,97543663,Huston,36 months,,0.00,,,,,,,,0.00,,,,,,,,No,"3 years parts, 1 year labor (Free)",Cancelled,,Island Pacific Store Demo (NV),Island Pacific Store Demo (NV),,,112707,"Pls call first on dec 3 before delivery.//Confirmed SYNC($8,500) and original. ***Please charge $3,000 before delivery and sales draft signed.***11/26/18 Hitomi
11/29Maritza- Courtesy message sent @ 4:54PM
11/30Maritza- Customer would like to put order on hold. Waiting for approval from doctor will reach out to Rolly. Hold until Dec. 21, 2018",NV,1,8.25
