﻿Date,CustomerName,State,Zipcode,Description,productNo,Color,IsDemo,Net,ShippingFee,GiftPrice,FinancingProcessingFee,Gross,Pre_tax,Tax,Commission,Primary Payment Method,Primary Payment Balance,Primary Authorize Number,Primary Purchase Order Number,Primary Synchrony Account Number,Primary Synchrony Application Key,Primary Synchrony AccountInfo,Primary SynchronyTerm,Secondly Payment Method,Secondly Payment Balance,Secondly Authorize Number,Secondly Purchase Order Number,Secondly Synchrony Account Number,Secondly Synchrony Application Key,Secondly Synchrony AccountInfo,Secondly SynchronyTerm,Thirdly Payment Method,Thirdly Payment Balance,Thirdly Authorize Number,Thirdly Purchase Order Number,Thirdly Synchrony Account Number,Thirdly Synchrony Application Key,Thirdly Synchrony AccountInfo,Thirdly SynchronyTerm,DeliveryDate,Ispickup,Warranty,Status,Event Name,Synchrony Notes,Order Notes,Order number,Private Note,Branch,IsNoTax,ActualTaxRate
7/12/2018 4:07:38 PM,Teresa Shafer,GA,30269,Legacy for Sam's,DWA-9100DWA-9100CH,New Choco,New,,,,,3850.93,3599.00,251.93,Michael Wang,CreditCard,3850.93,Tc# 4529 4084 9988 9954 5902 73,,,,,,,0.00,,,,,,,,0.00,,,,,,,,No,"3 years parts, 1 year labor (Free)",Assigned,"Sam's Club #4789 Sharpsburg, GA 7/12-22/18 (FL)",,Please give customer a new chair.Customer will be out of town from 7/13 to 7/20 so please deliver after 7/20.Delivery could be 1st floor or basement.,107376,7/13Maritza Courtesy call @ 11:26AM,FL,0,7.00
7/12/2018 4:07:38 PM,Teresa Shafer,GA,30269,Daiwa Blanket,,,New,,,,,3850.93,3599.00,251.93,Michael Wang,CreditCard,3850.93,Tc# 4529 4084 9988 9954 5902 73,,,,,,,0.00,,,,,,,,0.00,,,,,,,,No,no warranty,Assigned,"Sam's Club #4789 Sharpsburg, GA 7/12-22/18 (FL)",,Please give customer a new chair.Customer will be out of town from 7/13 to 7/20 so please deliver after 7/20.Delivery could be 1st floor or basement.,107376,7/13Maritza Courtesy call @ 11:26AM,FL,0,7.00
7/12/2018 4:07:38 PM,Teresa Shafer,GA,30269,Chair Pad for Legacy,,,New,,,,,3850.93,3599.00,251.93,Michael Wang,CreditCard,3850.93,Tc# 4529 4084 9988 9954 5902 73,,,,,,,0.00,,,,,,,,0.00,,,,,,,,No,no warranty,Assigned,"Sam's Club #4789 Sharpsburg, GA 7/12-22/18 (FL)",,Please give customer a new chair.Customer will be out of town from 7/13 to 7/20 so please deliver after 7/20.Delivery could be 1st floor or basement.,107376,7/13Maritza Courtesy call @ 11:26AM,FL,0,7.00
7/13/2018 8:59:43 AM,Coley Jones,GA,36265,Shogun Neck & Back Massger,USJ-874USJ-874,New,New,,,,,213.98,199.98,14.00,Michael Wang,CreditCard,213.98,Tc# 0011 4418 4428 8727 6117 9,,,,,,,0.00,,,,,,,,0.00,,,,,,,,YES,"2 years parts, 1 year labor for Small Items",Delivered,"Sam's Club #4789 Sharpsburg, GA 7/12-22/18 (FL)",,,107389,,FL,0,7.00
7/13/2018 5:48:12 PM,Jibby Ratliff,CA,37615,Foot Vibe Pro,USJ-871,,New,,,,,331.67,309.97,21.70,Michael Wang,CreditCard,331.67,Tc# 1432 1256 8236 6878 9032 7,,,,,,,0.00,,,,,,,,0.00,,,,,,,,YES,"2 years parts, 1 year labor for Small Items",Delivered,"Sam's Club #4789 Sharpsburg, GA 7/12-22/18 (FL)",,,107395,,CA,0,7.00
7/13/2018 5:48:12 PM,Jibby Ratliff,CA,37615,Shogun Neck & Back Massger,USJ-874USJ-874,New,New,,,,,331.67,309.97,21.70,Michael Wang,CreditCard,331.67,Tc# 1432 1256 8236 6878 9032 7,,,,,,,0.00,,,,,,,,0.00,,,,,,,,YES,"2 years parts, 1 year labor for Small Items",Delivered,"Sam's Club #4789 Sharpsburg, GA 7/12-22/18 (FL)",,,107395,,CA,0,7.00
7/14/2018 9:33:53 AM,Wayne Wisner,GA,30269,Foot Vibe Pro,USJ-871,,New,,,,,117.69,109.99,7.70,Michael Wang,CreditCard,117.69,Tc# 8609 8899 5829 9595 1623 3,,,,,,,0.00,,,,,,,,0.00,,,,,,,,YES,"2 years parts, 1 year labor for Small Items",Delivered,"Sam's Club #4789 Sharpsburg, GA 7/12-22/18 (FL)",,,107409,,FL,0,7.00
7/14/2018 11:38:07 AM,Beverly Wallace,GA,30213,Vitality Plate for Sam's,USJ-849USJ-849,New,New,,,,,427.99,399.99,28.00,Michael Wang,CreditCard,427.99,Tc# 2809 6899 9849 9595 9423 3,,,,,,,0.00,,,,,,,,0.00,,,,,,,,YES,"2 years parts, 1 year labor for Small Items",Delivered,"Sam's Club #4789 Sharpsburg, GA 7/12-22/18 (FL)",,,107411,Gave New for floor model price.,FL,0,7.00
7/14/2018 12:08:46 PM,Arturo Benevelos,GA,30171,Foot Vibe Pro,USJ-871,,New,,,,,117.69,109.99,7.70,Michael Wang,CreditCard,117.69,Tc# 7528 7745 2795 5353 0741 1,,,,,,,0.00,,,,,,,,0.00,,,,,,,,YES,"2 years parts, 1 year labor for Small Items",Delivered,"Sam's Club #4789 Sharpsburg, GA 7/12-22/18 (FL)",,,107414,,FL,0,7.00
7/14/2018 12:21:28 PM,John Talley,GA,30215,Vitality Plate for Sam's,USJ-849USJ-849,New,New,,,,,427.99,399.99,28.00,Michael Wang,CreditCard,427.99,Tc# 6047 7953 5963 3131 3860 0,,,,,,,0.00,,,,,,,,0.00,,,,,,,,YES,"2 years parts, 1 year labor for Small Items",Delivered,"Sam's Club #4789 Sharpsburg, GA 7/12-22/18 (FL)",,,107415,Gave New for floor model price.,FL,0,7.00
7/14/2018 5:46:06 PM,Joycelyn Lee,FL,33169,Shogun Neck & Back Massger,USJ-874USJ-874,New,New,,,,,427.96,399.96,28.00,Michael Wang,CreditCard,427.96,Tc# 7885 5390 6310 0262 0374 4,,,,,,,0.00,,,,,,,,0.00,,,,,,,,YES,"2 years parts, 1 year labor for Small Items",Delivered,"Sam's Club #4789 Sharpsburg, GA 7/12-22/18 (FL)",,,107425,Please ship both shogun neck and back massages to customer in Miami.I told her 10 business days to receive.If you think longer than 10 business days please call her let her know.Sold out of shogun so we need to ship to customer.Will Gardena office or Orlando office ship?//will arrange shipment 7/16/18 Hitomi--printed,CA,0,7.00
7/15/2018 9:39:32 AM,Renee Lindsay,GA,30290,Legacy for Sam's,DWA-9100DWA-9100CH,New Choco,New,,,,,3784.43,3599.00,185.43,Michael Wang,CreditCard,3850.93,Tc# 8157 2492 3897 3318 1366 50,,,,,,,0.00,,,,,,,,0.00,,,,,,,,No,"3 years parts, 1 year labor (Free)",Assigned,"Sam's Club #4789 Sharpsburg, GA 7/12-22/18 (FL)",,Balance is paid off.Please ignore the -66.50 remaining balance.2nd floor delivery included.Will request to company to see if possible to bring customer’s old Massage chair from 2nd floor to 1st floor.,107444,Please include 2nd floor delivery.Customer requesting help moving her old Massage chair from the 2nd floor to the first floor if possible.Give Customer new chair for floor model price.,FL,0,7.00
7/15/2018 9:39:32 AM,Renee Lindsay,GA,30290,Daiwa Blanket,,,New,,,,,3784.43,3599.00,185.43,Michael Wang,CreditCard,3850.93,Tc# 8157 2492 3897 3318 1366 50,,,,,,,0.00,,,,,,,,0.00,,,,,,,,No,no warranty,Assigned,"Sam's Club #4789 Sharpsburg, GA 7/12-22/18 (FL)",,Balance is paid off.Please ignore the -66.50 remaining balance.2nd floor delivery included.Will request to company to see if possible to bring customer’s old Massage chair from 2nd floor to 1st floor.,107444,Please include 2nd floor delivery.Customer requesting help moving her old Massage chair from the 2nd floor to the first floor if possible.Give Customer new chair for floor model price.,FL,0,7.00
7/15/2018 9:39:32 AM,Renee Lindsay,GA,30290,Chair Pad for Legacy,,,New,,,,,3784.43,3599.00,185.43,Michael Wang,CreditCard,3850.93,Tc# 8157 2492 3897 3318 1366 50,,,,,,,0.00,,,,,,,,0.00,,,,,,,,No,no warranty,Assigned,"Sam's Club #4789 Sharpsburg, GA 7/12-22/18 (FL)",,Balance is paid off.Please ignore the -66.50 remaining balance.2nd floor delivery included.Will request to company to see if possible to bring customer’s old Massage chair from 2nd floor to 1st floor.,107444,Please include 2nd floor delivery.Customer requesting help moving her old Massage chair from the 2nd floor to the first floor if possible.Give Customer new chair for floor model price.,FL,0,7.00
7/15/2018 11:45:59 AM,Phillip Cates,GA,30214,Shogun Neck & Back Massger,USJ-874USJ-874,New,New,,,,,213.98,199.98,14.00,Michael Wang,CreditCard,213.98,Tc# 6519 4889 1889 9515 5124 3,,,,,,,0.00,,,,,,,,0.00,,,,,,,,YES,"2 years parts, 1 year labor for Small Items",Delivered,"Sam's Club #4789 Sharpsburg, GA 7/12-22/18 (FL)",,,107447,Please ship to customer house.Customer not home from work till 5pm est please make sure it is dropped off 5pm or after.///will arrange shipment  7/16/18 Hitomi,CA,0,7.00
7/15/2018 1:36:39 PM,Stewart Yokota,GA,30215,Shogun Neck & Back Massger,USJ-874USJ-874,New,New,,,,,213.98,199.98,14.00,Michael Wang,CreditCard,213.98,Tc# 3084 1122 1192 2444 2595 6,,,,,,,0.00,,,,,,,,0.00,,,,,,,,YES,"2 years parts, 1 year labor for Small Items",Delivered,"Sam's Club #4789 Sharpsburg, GA 7/12-22/18 (FL)",,,107449,Please ship to customer.Sold out of shogun.///will arrange shipment 7/16/18 Hitomi-printed,CA,0,7.00
7/15/2018 3:26:27 PM,Mark Roshak,GA,30269,Shogun Neck & Back Massger,USJ-874USJ-874,New,New,,,,,213.98,199.98,14.00,Michael Wang,CreditCard,213.98,Tc# 4430 3687 9687 7919 7601 5,,,,,,,0.00,,,,,,,,0.00,,,,,,,7/16/2018 12:00:00 AM,YES,"2 years parts, 1 year labor for Small Items",Delivered,"Sam's Club #4789 Sharpsburg, GA 7/12-22/18 (FL)",,,107460,Please ship to customer’s house.//will take care of shipment.7/16/18 Hitomi,CA,0,7.00
7/16/2018 11:57:49 AM,Daiwa Massage,CA,90249,Foot Vibe Pro,USJ-871,,New,,,,,117.69,109.99,7.70,Michael Wang,CreditCard,117.69,Tc# 6450 3657 0647 7929 2009 5,,,,,,,0.00,,,,,,,,0.00,,,,,,,,YES,"2 years parts, 1 year labor for Small Items",Delivered,"Sam's Club #4789 Sharpsburg, GA 7/12-22/18 (FL)",,,107514,,CA,0,7.00
7/16/2018 5:01:17 PM,Daiwa Massage,CA,90249,Foot Vibe Pro,USJ-871,,New,,,,,117.69,109.99,7.70,Michael Wang,CreditCard,117.69,Tc# 1164 8152 6132 2464 9090 6,,,,,,,0.00,,,,,,,,0.00,,,,,,,,YES,"2 years parts, 1 year labor for Small Items",Delivered,"Sam's Club #4789 Sharpsburg, GA 7/12-22/18 (FL)",,,107519,,CA,0,7.00
7/17/2018 10:11:57 AM,Sharon Smith,GA,30215,Foot Vibe Pro,USJ-871,,New,,,,,117.69,109.99,7.70,Michael Wang,CreditCard,117.69,Tc# 1744 5132 4132 2454 6092 6,,,,,,,0.00,,,,,,,,0.00,,,,,,,,YES,"2 years parts, 1 year labor for Small Items",Delivered,"Sam's Club #4789 Sharpsburg, GA 7/12-22/18 (FL)",,,107544,,FL,0,7.00
7/18/2018 1:19:30 PM,John Brit,GA,30269,Foot Vibe Pro,USJ-871,,New,,,,,117.69,109.99,7.70,Michael Wang,CreditCard,117.69,Tc# 6399 7869 2869 9575 8020 3,,,,,,,0.00,,,,,,,,0.00,,,,,,,,YES,"2 years parts, 1 year labor for Small Items",Delivered,"Sam's Club #4789 Sharpsburg, GA 7/12-22/18 (FL)",,,107574,,FL,0,7.00
7/19/2018 1:05:57 PM,Daiwa Massage,CA,90249,Foot Vibe Pro,USJ-871,,New,,,,,117.69,109.99,7.70,Michael Wang,CreditCard,117.69,Tc# 4880 3688 1438 7919 3604 5,,,,,,,0.00,,,,,,,,0.00,,,,,,,,YES,"2 years parts, 1 year labor for Small Items",Delivered,"Sam's Club #4789 Sharpsburg, GA 7/12-22/18 (FL)",,,107616,,CA,0,7.00
7/20/2018 5:46:46 PM,Anthony Stewart,GA,30269,Foot Vibe Pro,USJ-871,,New,,,,,331.67,309.97,21.70,Michael Wang,CreditCard,331.67,Tc# 0141 7416 5248 8747 1412 9,,,,,,,0.00,,,,,,,,0.00,,,,,,,,YES,"2 years parts, 1 year labor for Small Items",New,"Sam's Club #4789 Sharpsburg, GA 7/12-22/18 (FL)",,,107641,I sold out of shogun and foot vibe pro please ship to customer.I told customer 10 biz days to receive.,Not Dispatched,0,7.00
7/20/2018 5:46:46 PM,Anthony Stewart,GA,30269,Shogun Neck & Back Massger,USJ-874USJ-874,New,New,,,,,331.67,309.97,21.70,Michael Wang,CreditCard,331.67,Tc# 0141 7416 5248 8747 1412 9,,,,,,,0.00,,,,,,,,0.00,,,,,,,,YES,"2 years parts, 1 year labor for Small Items",New,"Sam's Club #4789 Sharpsburg, GA 7/12-22/18 (FL)",,,107641,I sold out of shogun and foot vibe pro please ship to customer.I told customer 10 biz days to receive.,Not Dispatched,0,7.00
7/21/2018 11:03:26 AM,Gary Wilshire,GA,30263,Foot Vibe Pro,USJ-871,,New,,,,,331.67,309.97,21.70,Michael Wang,CreditCard,331.67,Tc# 4588 1729 1885 5383 7444 1,,,,,,,0.00,,,,,,,,0.00,,,,,,,,YES,"2 years parts, 1 year labor for Small Items",New,"Sam's Club #4789 Sharpsburg, GA 7/12-22/18 (FL)",,,107656,Please ship free to customer and email tracking number.,Not Dispatched,0,7.00
7/21/2018 11:03:26 AM,Gary Wilshire,GA,30263,Shogun Neck & Back Massger,USJ-874USJ-874,New,New,,,,,331.67,309.97,21.70,Michael Wang,CreditCard,331.67,Tc# 4588 1729 1885 5383 7444 1,,,,,,,0.00,,,,,,,,0.00,,,,,,,,YES,"2 years parts, 1 year labor for Small Items",New,"Sam's Club #4789 Sharpsburg, GA 7/12-22/18 (FL)",,,107656,Please ship free to customer and email tracking number.,Not Dispatched,0,7.00
7/21/2018 4:21:10 PM,Martin Dawson,GA,30290,Shogun Neck & Back Massger,USJ-874USJ-874,New,New,,,,,213.98,199.98,14.00,Michael Wang,CreditCard,213.98,Tc# 4469 0847 5669 9545 3227 3,,,,,,,0.00,,,,,,,,0.00,,,,,,,,YES,"2 years parts, 1 year labor for Small Items",New,"Sam's Club #4789 Sharpsburg, GA 7/12-22/18 (FL)",,,107666,,Not Dispatched,0,7.00
7/21/2018 5:22:28 PM,David Roman,GA,30269,Shogun Neck & Back Massger,USJ-874USJ-874,New,New,,,,,213.98,199.98,14.00,Michael Wang,CreditCard,213.98,Tc# 8388 3769 3809 5363 0749 1,,,,,,,0.00,,,,,,,,0.00,,,,,,,,YES,"2 years parts, 1 year labor for Small Items",New,"Sam's Club #4789 Sharpsburg, GA 7/12-22/18 (FL)",,Please ship 1 shogun to customer.,107670,,Not Dispatched,0,7.00
7/22/2018 10:36:16 AM,Daiwa Massage,CA,90249,Shogun Neck & Back Massger,USJ-874USJ-874-DEMO,Demo,Demo,,,,,192.58,179.98,12.60,Michael Wang,CreditCard,192.58,Tc# 9787 3975 3793 3111 4967 0,,,,,,,0.00,,,,,,,,0.00,,,,,,,,YES,"2 years parts, 1 year labor for Small Items",New,"Sam's Club #4789 Sharpsburg, GA 7/12-22/18 (FL)",,,107701,Customer picked up floor model.,Not Dispatched,0,7.00
7/22/2018 10:46:57 AM,Simon Orobor,GA,30214,Foot Vibe Pro,USJ-871,,New,,,,,331.67,309.97,21.70,Michael Wang,CreditCard,331.67,Tc# 9095 9381 1550 0242 6673 4,,,,,,,0.00,,,,,,,,0.00,,,,,,,,YES,"2 years parts, 1 year labor for Small Items",New,"Sam's Club #4789 Sharpsburg, GA 7/12-22/18 (FL)",,Please ship 1 foot vibe and 1 shogun massager free to customer.,107704,,Not Dispatched,0,7.00
7/22/2018 10:46:57 AM,Simon Orobor,GA,30214,Shogun Neck & Back Massger,USJ-874USJ-874,New,New,,,,,331.67,309.97,21.70,Michael Wang,CreditCard,331.67,Tc# 9095 9381 1550 0242 6673 4,,,,,,,0.00,,,,,,,,0.00,,,,,,,,YES,"2 years parts, 1 year labor for Small Items",New,"Sam's Club #4789 Sharpsburg, GA 7/12-22/18 (FL)",,Please ship 1 foot vibe and 1 shogun massager free to customer.,107704,,Not Dispatched,0,7.00
