﻿Original Event Name,Event Name,Sales Person,Order Number,Order Date,Customer Name,State,Zip,Product Name,Color,Product Status,QTY,Tax,Total Before Tax,Order Total,Primary Payment Method,Second Payment Method,Thirdl Payment Method,Warranty,Order Items,Pick up,Delivered On,Order Status,Chair Type,Order Notes,Private Note,Branch,No Tax,Actual Tax Rate,SKU,Primary Payment Balance,Primary Authorize Number,Primary Purchase Order Number,Primary Synchrony Account Number,Primary Synchrony Application Key,Primary Synchrony Account Info,Primary Synchrony Term,Primary Synchrony Primary ID,Primary Synchrony Issued State,Primary Synchrony Expiretion Date,Second Payment Balance,Second Authorize Number,Second Purchase Order Number,Second Synchrony Account Number,Second Synchrony Application Key,Second Synchrony Account Info,Second SynchronyTerm,Second Synchrony Primary ID,Second Synchrony Issued State,Second Synchrony Expiretion Date,Third Payment Balance,Third Authorize Number,Third Purchase Order Number,Third Synchrony Account Number,Third Synchrony Application Key,Third Synchrony Account Info,Third Synchrony Term,Third Synchrony Primary ID,Third Synchrony Issued State,Third Synchrony Expiretion Date
"Sams Club #6245 Harker Heights, TX","Sams Club #6245 Harker Heights, TX",Chris Tavira,120184,8/11/2019 10:32:30 AM,Florence Turner,TX,76542,Shogun Neck & Back Massger,Demo[-20],Demo,1,14.85,179.98,194.83,Credit Card,,,"2 years parts, 1 year labor for Small Items","Shogun Neck &amp; Back Massger,",YES,,Delivered,,Invoice # 0011278,,TX,0,8.25,USJ-874USJ-874-DEMO,194.83,TC #?244114527268381105592,,,,,,,,/,0.00,,,,,,,,,/,0.00,,,,,,,,,/
"Sams Club #6245 Harker Heights, TX","Sams Club #6245 Harker Heights, TX",Chris Tavira,120185,8/11/2019 10:39:38 AM,Diana Cline,TX,78642,Vitality Plate for Sam's,Demo[-60],Demo,1,33.00,399.99,432.99,Credit Card,,,"2 years parts, 1 year labor for Small Items","Vitality Plate for Sam's,",YES,,Delivered,,Invoice # 0011272,,TX,0,8.25,USJ-849USJ-849-DEMO,432.99,TC # 228948069647099292166,,,,,,,,/,0.00,,,,,,,,,/,0.00,,,,,,,,,/
"Sams Club #6245 Harker Heights, TX","Sams Club #6245 Harker Heights, TX",Chris Tavira,120186,8/11/2019 10:45:40 AM,Peola Green,TX,76549,Vitality Plate for Sam's,Demo[-60],Demo,1,33.00,399.99,432.99,Credit Card,,,"2 years parts, 1 year labor for Small Items","Vitality Plate for Sam's,",YES,,Delivered,,Invoice # 0011273,,TX,0,8.25,USJ-849USJ-849-DEMO,432.99,TC # 743573250590808701645,,,,,,,,/,0.00,,,,,,,,,/,0.00,,,,,,,,,/
"Sams Club #6245 Harker Heights, TX","Sams Club #6245 Harker Heights, TX",Chris Tavira,120191,8/11/2019 1:43:39 PM,David Davis,TX,76549,Ninja Leg Massager 2,Demo[-20.00],Demo,1,23.10,279.98,303.08,Credit Card,,,"2 years parts, 1 year labor (Free)","Ninja Leg Massager 2,",YES,,Delivered,,Invoice # 0011144,,TX,0,8.25,USJ-880-Demo,303.08,TC # 571461330390725909803,,,,,,,,/,0.00,,,,,,,,,/,0.00,,,,,,,,,/
"Sams Club #6245 Harker Heights, TX","Sams Club #6245 Harker Heights, TX",Chris Tavira,120192,8/11/2019 1:51:43 PM,Chong Walker,AA,76522,Vitality Plate for Sam's,Demo[-60],Demo,1,33.00,399.99,432.99,Credit Card,,,"2 years parts, 1 year labor for Small Items","Vitality Plate for Sam's,",YES,,Delivered,,Invoice # 0011143,,CA,0,8.25,USJ-849USJ-849-DEMO,432.99,TC # 437837185895257450098,,,,,,,,/,0.00,,,,,,,,,/,0.00,,,,,,,,,/
"Sams Club #6245 Harker Heights, TX","Sams Club #6245 Harker Heights, TX",Chris Tavira,120193,8/11/2019 2:01:00 PM,Jeff Hopke,TX,76513,Foot Vibe Pro,,New,1,9.90,119.98,129.88,Credit Card,,,"2 years parts, 1 year labor for Small Items","Foot Vibe Pro,",YES,,Delivered,,Invoice #0011154,,TX,0,8.25,USJ-871,129.88,TC # 856928266639098274156,,,,,,,,/,0.00,,,,,,,,,/,0.00,,,,,,,,,/
"Sams Club #6245 Harker Heights, TX","Sams Club #6245 Harker Heights, TX",Chris Tavira,120195,8/11/2019 3:13:32 PM,Pablo Villanueva,TX,76542,Foot Vibe Pro,,New,1,9.90,119.98,129.88,Credit Card,,,"2 years parts, 1 year labor for Small Items","Foot Vibe Pro,",YES,,Delivered,,Invoice # 0011158,,TX,0,8.25,USJ-871,129.88,TC # 141340815112943510711,,,,,,,,/,0.00,,,,,,,,,/,0.00,,,,,,,,,/
"Sams Club #6245 Harker Heights, TX","Sams Club #6245 Harker Heights, TX",Chris Tavira,120198,8/11/2019 5:45:55 PM,Geroald Parker,TX,76543,Ninja Leg Massager 2,Demo[-20.00],Demo,1,37.95,459.96,497.91,Credit Card,,,"2 years parts, 1 year labor for Small Items","Shogun Neck &amp; Back Massger,Ninja Leg Massager 2,",YES,,Delivered,,"Invoice # 0011142
Invoice # 0011145",,TX,0,8.25,USJ-880-Demo,497.91,TC # 795491334330728981863,,,,,,,,/,0.00,,,,,,,,,/,0.00,,,,,,,,,/
"Sams Club #6245 Harker Heights, TX","Sams Club #6245 Harker Heights, TX",Chris Tavira,120198,8/11/2019 5:45:55 PM,Geroald Parker,TX,76543,Shogun Neck & Back Massger,Demo[-20],Demo,1,37.95,459.96,497.91,Credit Card,,,"2 years parts, 1 year labor for Small Items","Shogun Neck &amp; Back Massger,Ninja Leg Massager 2,",YES,,Delivered,,"Invoice # 0011142
Invoice # 0011145",,TX,0,8.25,USJ-874USJ-874-DEMO,497.91,TC # 795491334330728981863,,,,,,,,/,0.00,,,,,,,,,/,0.00,,,,,,,,,/
"Sams Club #6245 Harker Heights, TX","Sams Club #6245 Harker Heights, TX",Chris Tavira,120199,8/11/2019 5:50:43 PM,David Pressley,TX,76522,Hubble for Sam's,Demo Choco(Box)[-500],Demo,1,412.34,4998.00,5410.34,Credit Card,,,"3 years parts, 1 year labor (Free)","Hubble for Sam's,",No,8/27/2019 12:00:00 AM,Delivered,New,Invoice # 0011161,"Original received.-Erika 8/12/19 10:27am
courtesy call completed-Erika 8/13/19 11:44am
8/19 - Alysa - Printed - Customer confirmed delivery Tuesday 8/27 between 5-8PM.
Delivery conf completed paid in full-Erika 8/29/19 1:47pm",TX,0,8.25,HUBL-1HUBL-1CH-BOX,5410.34,TC # 0209688768689092241176,,,,,,,,/,0.00,,,,,,,,,/,0.00,,,,,,,,,/
"Sams Club #6245 Harker Heights, TX","Sams Club #6245 Harker Heights, TX",Chris Tavira,120200,8/11/2019 6:01:27 PM,Rosalind Rooks,TX,76543,PEGASUS 2 SMART - Sam's,New Choco,New,1,552.59,6698.00,7250.59,Sam’s Club Synchrony,Credit Card,,"3 years parts, 1 year labor (Free)","PEGASUS 2 SMART - Sam's,Shogun Neck &amp; Back Massger,",No,8/27/2019 12:00:00 AM,Delivered,New,Invoice # 0011164,"Free Shogun on delivery
-Original received-Erika 8/12/19 10:18am
courtesy call completed-Erika 8/13/19 11:47am
8/19 - Alysa - Printed - Customer confirmed delivery Tuesday 8/27 between 1-4PM.
Delivery conf completed-Erika 8/29/19 2:10pm",TX,0,8.25,PEGS-2PEGS-2-BR,5000.00,,,,,,,,,/,2250.59,TC # 3669628967634093251116,,,,,,,,/,0.00,,,,,,,,,/
"Sams Club #6245 Harker Heights, TX","Sams Club #6245 Harker Heights, TX",Chris Tavira,120200,8/11/2019 6:01:27 PM,Rosalind Rooks,TX,76543,Shogun Neck & Back Massger,Demo[-20],Demo,1,552.59,6698.00,7250.59,Sam’s Club Synchrony,Credit Card,,"2 years parts, 1 year labor for Small Items","PEGASUS 2 SMART - Sam's,Shogun Neck &amp; Back Massger,",No,8/27/2019 12:00:00 AM,Delivered,New,Invoice # 0011164,"Free Shogun on delivery
-Original received-Erika 8/12/19 10:18am
courtesy call completed-Erika 8/13/19 11:47am
8/19 - Alysa - Printed - Customer confirmed delivery Tuesday 8/27 between 1-4PM.
Delivery conf completed-Erika 8/29/19 2:10pm",TX,0,8.25,USJ-874USJ-874-DEMO,5000.00,,,,,,,,,/,2250.59,TC # 3669628967634093251116,,,,,,,,/,0.00,,,,,,,,,/
"Sams Club #6245 Harker Heights, TX","Sams Club #6245 Harker Heights, TX",Chris Tavira,120201,8/11/2019 6:06:40 PM,Edmond Benitez,TX,76522,Ninja Leg Massager 2,Demo[-20.00],Demo,1,37.95,459.96,497.91,Credit Card,,,"2 years parts, 1 year labor for Small Items","Ninja Leg Massager 2,Shogun Neck &amp; Back Massger,",YES,,Delivered,,Invoice # 0011279,,TX,0,8.25,USJ-880-Demo,497.91,TC # 899583952551800773675,,,,,,,,/,0.00,,,,,,,,,/,0.00,,,,,,,,,/
"Sams Club #6245 Harker Heights, TX","Sams Club #6245 Harker Heights, TX",Chris Tavira,120201,8/11/2019 6:06:40 PM,Edmond Benitez,TX,76522,Shogun Neck & Back Massger,Demo[-20],Demo,1,37.95,459.96,497.91,Credit Card,,,"2 years parts, 1 year labor for Small Items","Ninja Leg Massager 2,Shogun Neck &amp; Back Massger,",YES,,Delivered,,Invoice # 0011279,,TX,0,8.25,USJ-874USJ-874-DEMO,497.91,TC # 899583952551800773675,,,,,,,,/,0.00,,,,,,,,,/,0.00,,,,,,,,,/
"Sams Club #6245 Harker Heights, TX","Sams Club #6245 Harker Heights, TX",Chris Tavira,120202,8/11/2019 6:11:09 PM,Elvia Talavera,TX,76542,Orbit for Sam's ,New Black,New,1,272.09,3298.00,3570.09,Sam’s Club Synchrony,,,"2 years parts, 1 year labor (Free)","Orbit for Sam's ,",No,,Cancelled,,Invoice # 0011175,"Customer called that spelling for the last name is incorrect;
Requesting a new invoice.-Cristina 08/12/19 9:07 am",Not Dispatched,0,8.25,ORBT-1ORBT-1BL,3570.09,TC,,,,,,,,/,0.00,,,,,,,,,/,0.00,,,,,,,,,/
"Sams Club #6245 Harker Heights, TX","Sams Club #6245 Harker Heights, TX",Chris Tavira,120223,8/12/2019 9:21:44 AM,Elvia Paularena,TX,76542,Orbit for Sam's ,New Black,New,1,272.09,3298.00,3570.09,Sam’s Club Synchrony,,,"3 years parts, 1 year labor (Free)","Orbit for Sam's ,",No,8/27/2019 12:00:00 AM,Delivered,New,,"Original received-Erika 8/12/19 3:10pm
courtesy call completed-Erika 8/13/19 11:49am
8/19 - Alysa - Printed
Delivery conf completed. Paid in full-Erika 8/29/19 1:55pm",TX,0,8.25,ORBT-1ORBT-1BL,3570.09,,,,,,,,,/,0.00,,,,,,,,,/,0.00,,,,,,,,,/
"Sams Club #6245 Harker Heights, TX","Sams Club #6245 Harker Heights, TX",Chris Tavira,120254,8/13/2019 1:59:16 PM,Pettys Pettys,TX,76548,Ninja Leg Massager 2,New,New,1,24.75,299.98,324.73,Credit Card,,,"2 years parts, 1 year labor for Small Items","Ninja Leg Massager 2,",YES,,Delivered,,Invoice # 0011147,,TX,0,8.25,USJ-880,324.73,TC # 987523252560802788675,,,,,,,,/,0.00,,,,,,,,,/,0.00,,,,,,,,,/
"Sams Club #6245 Harker Heights, TX","Sams Club #6245 Harker Heights, TX",Chris Tavira,120299,8/16/2019 10:31:28 AM,Eagle Eagle,TX,76548,Foot Vibe Pro,,New,1,9.90,119.98,129.88,Credit Card,,,"2 years parts, 1 year labor for Small Items","Foot Vibe Pro,",YES,,Delivered,,Invoice # 0011159,,TX,0,8.25,USJ-871,129.88,TC # 495144729203387186582,,,,,,,,/,0.00,,,,,,,,,/,0.00,,,,,,,,,/
"Sams Club #6245 Harker Heights, TX","Sams Club #6245 Harker Heights, TX",Chris Tavira,120301,8/16/2019 10:55:50 AM,Vickie Silva,TX,76541,Ninja Leg Massager 2,Demo[-20.00],Demo,1,23.10,279.98,303.08,Credit Card,,,"2 years parts, 1 year labor for Small Items","Ninja Leg Massager 2,",YES,,Delivered,,Invoice # 0011149,,TX,0,8.25,USJ-880-Demo,303.08,TC # 862625298911611878439,,,,,,,,/,0.00,,,,,,,,,/,0.00,,,,,,,,,/
"Sams Club #6245 Harker Heights, TX","Sams Club #6245 Harker Heights, TX",Chris Tavira,120302,8/16/2019 11:02:15 AM,Angelika Babcock,TX,76522,Orbit for Sam's ,Demo Choco(Box)[-400],Demo,1,239.09,2898.00,3137.09,Credit Card,,,"3 years parts, 1 year labor (Free)","Orbit for Sam's ,",No,8/27/2019 12:00:00 AM,Delivered,New,Invoice # 0011177,"Original received-Erika 8/16/19 11:53am
courtesy call completed-Erika 8/16/19 1:53pm
8/19 - Alysa - Printed - Customer confirmed delivery Tuesday 8/27 between 4-7PM
Delivery conf completed-Erika 8/29/19 1:53pm",TX,0,8.25,ORBT-1ORBT-1CH-BOX,3137.09,TC # 7586275396911611838429,,,,,,,,/,0.00,,,,,,,,,/,0.00,,,,,,,,,/
"Sams Club #6245 Harker Heights, TX","Sams Club #6245 Harker Heights, TX",Chris Tavira,120351,8/18/2019 8:25:48 AM,Kun Lee,TX,76543,Foot Vibe Pro,,New,1,9.90,119.98,129.88,Credit Card,,,"2 years parts, 1 year labor for Small Items","Foot Vibe Pro,",YES,,Delivered,,Invoice # 0011156,,TX,0,8.25,USJ-871,129.88,TC # 592563857571803797685,,,,,,,,/,0.00,,,,,,,,,/,0.00,,,,,,,,,/
"Sams Club #6245 Harker Heights, TX","Sams Club #6245 Harker Heights, TX",Chris Tavira,120352,8/18/2019 8:30:20 AM,Kamesha Webber,TX,76549,Shogun Neck & Back Massger,Demo[-20],Demo,1,14.85,179.98,194.83,Credit Card,,,"2 years parts, 1 year labor for Small Items","Shogun Neck &amp; Back Massger,",YES,,Delivered,,Invoice # 00111280,,TX,0,8.25,USJ-874USJ-874-DEMO,194.83,TC # 319066940408179040304,,,,,,,,/,0.00,,,,,,,,,/,0.00,,,,,,,,,/
"Sams Club #6245 Harker Heights, TX","Sams Club #6245 Harker Heights, TX",Chris Tavira,120353,8/18/2019 8:33:47 AM,Kamesha Webber,TX,76549,Ninja Leg Massager 2,Demo[-20.00],Demo,1,23.10,279.98,303.08,Credit Card,,,"2 years parts, 1 year labor for Small Items","Ninja Leg Massager 2,",YES,,Delivered,,Invoice #0011151,,TX,0,8.25,USJ-880-Demo,303.08,TC # 319066940408179040304,,,,,,,,/,0.00,,,,,,,,,/,0.00,,,,,,,,,/
"Sams Club #6245 Harker Heights, TX","Sams Club #6245 Harker Heights, TX",Chris Tavira,120354,8/18/2019 8:48:47 AM,Carolyn Stewart,TX,76541,Ninja Leg Massager 2,New,New,1,24.75,299.98,324.73,Credit Card,,,"2 years parts, 1 year labor for Small Items","Ninja Leg Massager 2,",YES,,Delivered,,Invoice # 0011148,,TX,0,8.25,USJ-880,324.73,TC # 287046343437172056304,,,,,,,,/,0.00,,,,,,,,,/,0.00,,,,,,,,,/
"Sams Club #6245 Harker Heights, TX","Sams Club #6245 Harker Heights, TX",Chris Tavira,120355,8/18/2019 8:54:40 AM,Marilon Frost,TX,76542,Hubble for Sam's,Demo Choco(Box)[-500],Demo,1,412.34,4998.00,5410.34,Credit Card,,,"2 years parts, 1 year labor (Free)","Hubble for Sam's,",No,8/27/2019 12:00:00 AM,Delivered,New,Invoice # 0011162,"Original received-Erika 8/19/19 10:59am Pls note warranty is 3 years parts 1 year Labor
8/19 - Alysa - Printed
8/20 - Alysa - Customer confirmed delivery Tuesday 8/27 between 2-5PM.
Delivery conf completed. Paid in full-Erika 8/29/19 2:04pm",TX,0,8.25,HUBL-1HUBL-1CH-BOX,5410.34,TC # 4447369971785430638277,,,,,,,,/,0.00,,,,,,,,,/,0.00,,,,,,,,,/
"Sams Club #6245 Harker Heights, TX","Sams Club #6245 Harker Heights, TX",Chris Tavira,120357,8/18/2019 8:58:17 AM,Member Member,TX,76548,Foot Vibe Pro,,New,1,9.90,119.98,129.88,Credit Card,,,"2 years parts, 1 year labor for Small Items","Foot Vibe Pro,",YES,,Delivered,,Invoice # 0011170,,TX,0,8.25,USJ-871,129.88,TC # 320503552591803719665,,,,,,,,/,0.00,,,,,,,,,/,0.00,,,,,,,,,/
"Sams Club #6245 Harker Heights, TX","Sams Club #6245 Harker Heights, TX",Chris Tavira,120453,8/25/2019 9:18:25 AM,Amelia Smith,TX,76548,Foot Vibe Pro,,New,1,9.90,119.98,129.88,Credit Card,,,"2 years parts, 1 year labor for Small Items","Foot Vibe Pro,",YES,,Delivered,,Invoice # 0011171,8/26 - Alysa - Printed,TX,0,8.25,USJ-871,129.88,TC # 548573998590801756615,,,,,,,,/,0.00,,,,,,,,,/,0.00,,,,,,,,,/
"Sams Club #6245 Harker Heights, TX","Sams Club #6245 Harker Heights, TX",Chris Tavira,120454,8/25/2019 9:26:15 AM,Hwa Reeves,TX,76539,Legacy for Sam's,Demo(Box) Sienna Brown[-500],Demo,1,321.59,3898.00,4219.59,Credit Card,,,"3 years parts, 1 year labor (Free)","Legacy for Sam's,",No,8/28/2019 12:00:00 AM,Delivered,New,Invoice # 0011181,"8/26 - Alysa - Printed
original received-Erika 8/26/19 9:53am
8/26 - Alysa - Customer confirmed delivery Wed. 8/28 between 8-12PM.
Delivery conf completed. Paid in full-Erika 8/29/19 12:30pm",TX,0,8.25,DWA-9100DWA-9100SB-Box,4219.59,TC # 4858007366829251474078,,,,,,,,/,0.00,,,,,,,,,/,0.00,,,,,,,,,/
"Sams Club #6245 Harker Heights, TX","Sams Club #6245 Harker Heights, TX",Chris Tavira,120458,8/25/2019 10:45:25 AM,Ivette Quinñones,TX,76548,Legacy for Sam's,New Choco,New,1,362.84,4398.00,4760.84,Sam’s Club Synchrony,,,"3 years parts, 1 year labor (Free)","Legacy for Sam's,",No,8/28/2019 12:00:00 AM,Delivered,New,Invoice # 0011182,"8/26 - Alysa - Printed
Original received.-Erika 8/26/19 9:52am
Delivery conf completed. Paid in full-Erika 8/29/19 12:24pm
8/30 - Alysa - Driver & Customer informed me the remote is defective (Reading ""OFF""). Shipped customer new remote, tracking number: 776122806880 - Return Label tracking number: 776122874119",TX,0,8.25,DWA-9100DWA-9100CH,4760.84,TC # 9654681154315729944803,,,,,,,,/,0.00,,,,,,,,,/,0.00,,,,,,,,,/
"Sams Club #6245 Harker Heights, TX","Sams Club #6245 Harker Heights, TX",Chris Tavira,120467,8/25/2019 3:17:29 PM,Diana White,TX,76548,Ninja Leg Massager 2,Demo[-20.00],Demo,1,23.10,279.98,303.08,Credit Card,,,"2 years parts, 1 year labor for Small Items","Ninja Leg Massager 2,",YES,,Delivered,,Invoice #0011274,8/26 - Alysa - Printed,TX,0,8.25,USJ-880-Demo,303.08,536401755322724905853,,,,,,,,/,0.00,,,,,,,,,/,0.00,,,,,,,,,/
"Sams Club #6245 Harker Heights, TX","Sams Club #6245 Harker Heights, TX",Chris Tavira,121633,10/6/2019 2:44:30 PM,Theary Ros,TX,76549,Vitality Plate for Sam's,Demo[-60],Demo,1,33.00,399.99,432.99,Credit Card,,,"2 years parts, 1 year labor for Small Items","Vitality Plate for Sam's,",YES,,New,,Invoice # 19078,,Not Dispatched,0,8.25,USJ-849USJ-849-DEMO,432.99,TC # 776523841548803791685,,,,,,,,/,0.00,,,,,,,,,/,0.00,,,,,,,,,/
"Sams Club #6245 Harker Heights, TX","Sams Club #6245 Harker Heights, TX",Chris Tavira,121634,10/6/2019 2:50:10 PM,Tracy Johnson,TX,76548,Shogun Neck & Back Massger,Demo[-20],Demo,1,14.85,179.98,194.83,Credit Card,,,"2 years parts, 1 year labor for Small Items","Shogun Neck &amp; Back Massger,",YES,,New,,Invoice # 19061,,Not Dispatched,0,8.25,USJ-874USJ-874-DEMO,194.83,TC # 005026053478178053344,,,,,,,,/,0.00,,,,,,,,,/,0.00,,,,,,,,,/
"Sams Club #6245 Harker Heights, TX","Sams Club #6245 Harker Heights, TX",Chris Tavira,121635,10/6/2019 2:57:56 PM,Jolinda Baird,TX,76542,Shogun Neck & Back Massger,Demo[-20],Demo,1,14.85,179.98,194.83,Credit Card,,,"2 years parts, 1 year labor for Small Items","Shogun Neck &amp; Back Massger,",YES,,New,,Invoice # 19067,,Not Dispatched,0,8.25,USJ-874USJ-874-DEMO,194.83,TC # 117242379064562350950,,,,,,,,/,0.00,,,,,,,,,/,0.00,,,,,,,,,/
"Sams Club #6245 Harker Heights, TX","Sams Club #6245 Harker Heights, TX",Chris Tavira,121636,10/6/2019 3:02:04 PM,Kristina Hunter,TX,76542,Ninja Leg Massager 2,Demo[-20.00],Demo,1,23.10,279.98,303.08,Credit Card,,,"2 years parts, 1 year labor for Small Items","Ninja Leg Massager 2,",YES,,New,,Invoice # 5285,,Not Dispatched,0,8.25,USJ-880-Demo,303.08,TC # 443028838609097250166,,,,,,,,/,0.00,,,,,,,,,/,0.00,,,,,,,,,/
"Sams Club #6245 Harker Heights, TX","Sams Club #6245 Harker Heights, TX",Chris Tavira,121637,10/6/2019 3:05:59 PM,April Reeves,TX,76542,Ninja Leg Massager 2,Demo[-20.00],Demo,1,23.10,279.98,303.08,Credit Card,,,"2 years parts, 1 year labor for Small Items","Ninja Leg Massager 2,",YES,,New,,Invoice # 5284,,Not Dispatched,0,8.25,USJ-880-Demo,303.08,TC # 178232578064550310930,,,,,,,,/,0.00,,,,,,,,,/,0.00,,,,,,,,,/
"Sams Club #6245 Harker Heights, TX","Sams Club #6245 Harker Heights, TX",Chris Tavira,121638,10/6/2019 3:10:10 PM,Debra Pugh,TX,76513,Orbit for Sam's ,Demo Choco[-400],Demo,1,239.09,2898.00,3137.09,Sam’s Club Synchrony,,,"2 years parts, 1 year labor (Free)","Orbit for Sam's ,",No,,New,,Invoice # 0011190,Original received.-Erika 10/7/19 10:50am,TX,0,8.25,ORBT-1ORBT-1CH-DEMO,3137.09,,,,,,,,,/,0.00,,,,,,,,,/,0.00,,,,,,,,,/
"Sams Club #6245 Harker Heights, TX","Sams Club #6245 Harker Heights, TX",Chris Tavira,121639,10/6/2019 3:14:55 PM,Phillip Brown,TX,76513,PEGASUS 2 SMART - Sam's,New Choco,New,1,552.59,6698.00,7250.59,Credit Card,,,"3 years parts, 2 years labor ($200)","PEGASUS 2 SMART - Sam's,Daiwa Blanket,",No,,New,,Invoice # 0011219,Original received. -Erika 10/7/19 10:50am,TX,0,8.25,PEGS-2PEGS-2-BR,7250.59,TC # 9221734192216388130562,,,,,,,,/,0.00,,,,,,,,,/,0.00,,,,,,,,,/
"Sams Club #6245 Harker Heights, TX","Sams Club #6245 Harker Heights, TX",Chris Tavira,121640,10/6/2019 3:19:11 PM,Anthony Vaughters,TX,76542,Ninja Leg Massager 2,Demo[-20.00],Demo,1,23.10,279.98,303.08,Credit Card,,,"2 years parts, 1 year labor for Small Items","Ninja Leg Massager 2,",YES,,New,,Invoice # 5283,,Not Dispatched,0,8.25,USJ-880-Demo,303.08,TC # 178242176096568343910,,,,,,,,/,0.00,,,,,,,,,/,0.00,,,,,,,,,/
"Sams Club #6245 Harker Heights, TX","Sams Club #6245 Harker Heights, TX",Chris Tavira,121641,10/6/2019 3:23:06 PM,Marie Brewer,TX,76543,Hubble for Sam's,New Choco,New,1,453.59,5498.00,5951.59,Sam’s Club Synchrony,,,"3 years parts, 1 year labor (Free)","Hubble for Sam's,Daiwa Blanket,",No,,New,,Invoice # 0011079,Original received-Erika 10/7/19 10:47am,TX,0,8.25,HUBL-1HUBL-1CH,5951.59,,,,,,,,,/,0.00,,,,,,,,,/,0.00,,,,,,,,,/
