﻿Original Event Name,Event Name,Sales Person,Order Number,Order Date,Customer Name,State,Zip,Product Name,Color,Product Status,QTY,Tax,Total Before Tax,Order Total,Primary Payment Method,Second Payment Method,Thirdl Payment Method,Warranty,Order Items,Pick up,Delivered On,Order Status,Chair Type,Order Notes,Private Note,Branch,No Tax,Actual Tax Rate,SKU,Primary Payment Balance,Primary Authorize Number,Primary Purchase Order Number,Primary Synchrony Account Number,Primary Synchrony Application Key,Primary Synchrony Account Info,Primary Synchrony Term,Second Payment Balance,Second Authorize Number,Second Purchase Order Number,Second Synchrony Account Number,Second Synchrony Application Key,Second Synchrony Account Info,Second SynchronyTerm,Third Payment Balance,Third Authorize Number,Third Purchase Order Number,Third Synchrony Account Number,Third Synchrony Application Key,Third Synchrony Account Info,Third Synchrony Term
"RED RIVER VALLEY SPORTSMEN'S SHOW 2/28-3/3/19 Fargo, ND (IL)","RED RIVER VALLEY SPORTSMEN'S SHOW 2/28-3/3/19 Fargo, ND (IL)",Noni Ignacio,115452,3/4/2019 7:41:23 AM,Todd Kalpakoff,ND,58078,Legacy 3D,New Choco,New,1,0.00,4900.00,4900.00,Synchrony,,,"5 years parts, 1 year labor (Free)","Legacy 3D,",No,3/30/2019 12:00:00 AM,Delivered,New,,"Confirmed SYNC$4,900 and original.  ***Please charge $4,900/salse draft*** confirmed w/Mario , assigning to TX/IL branch 3/4/19 Hitomi
3/6Maritza- Courtesy message @ 3:26PM
According to sales person Noni, offer $200 discount to customer due to reschedule issue. 3/25/2019 June
$200 refunded by Synchrony. 3/25/2019 June",TX,1,7.50,DWA-9150USJ-9150CH,4700.00,,,6501723375040159,72083363,Las Vegas,48 months,0.00,,,,,,,0.00,,,,,,
"RED RIVER VALLEY SPORTSMEN'S SHOW 2/28-3/3/19 Fargo, ND (IL)","RED RIVER VALLEY SPORTSMEN'S SHOW 2/28-3/3/19 Fargo, ND (IL)",Noni Ignacio,115454,3/4/2019 7:50:49 AM,Jamie Bernard,ND,58081,Legacy 3D,New Black,New,1,0.00,4900.00,4900.00,Synchrony,,,"5 years parts, 1 year labor (Free)","Legacy 3D,",No,3/30/2019 12:00:00 AM,Delivered,New,2 to 3 weeks delivery,"Confirmed SYNC$8,500 and original. *** Please charge $4,900/sales draft*** Confirmed /Mario , assigning to TX/IL branch 3/4/19 Hitomi
3/6Maritza- Courtesy message sent @ 3:27PM",TX,1,7.50,DWA-9150USJ-9150BL,4900.00,,,6501723375040167,72083958,Las Vegas,36 months,0.00,,,,,,,0.00,,,,,,
"RED RIVER VALLEY SPORTSMEN'S SHOW 2/28-3/3/19 Fargo, ND (IL)","RED RIVER VALLEY SPORTSMEN'S SHOW 2/28-3/3/19 Fargo, ND (IL)",Noni Ignacio,115458,3/4/2019 8:13:12 AM,Robert Hvinden,ND,58801,Pegasus,New Choco,New,1,0.00,5000.00,5000.00,CreditCard,,,"5 years parts, 1 year labor (Free)","Pegasus,",No,3/31/2019 12:00:00 AM,Delivered,New,2 to 3 weeks delivery,"Confirmed 5,000(transact 2/28) in WF. Confirmed w/Mario , assigning to TX/IL 3/4/19 Hitomi
3/6Maritza Courtesy message sent @ 3:39PM",TX,1,7.50,DWA-9400Pegasus-BR,5000.00,09551Z,,,,,,0.00,,,,,,,0.00,,,,,,
