﻿Original Event Name,Event Name,Sales Person,Order Number,Order Date,Customer Name,State,Zip,Product Name,Color,Product Status,QTY,Tax,Total Before Tax,Order Total,Primary Payment Method,Second Payment Method,Thirdl Payment Method,Warranty,Order Items,Pick up,Delivered On,Order Status,Chair Type,Order Notes,Private Note,Branch,No Tax,Actual Tax Rate,SKU,Primary Payment Balance,Primary Authorize Number,Primary Purchase Order Number,Primary Synchrony Account Number,Primary Synchrony Application Key,Primary Synchrony Account Info,Primary Synchrony Term,Second Payment Balance,Second Authorize Number,Second Purchase Order Number,Second Synchrony Account Number,Second Synchrony Application Key,Second Synchrony Account Info,Second SynchronyTerm,Third Payment Balance,Third Authorize Number,Third Purchase Order Number,Third Synchrony Account Number,Third Synchrony Application Key,Third Synchrony Account Info,Third Synchrony Term
"Sam's Club #6269 Harlingen, TX (2/21-3/3/2019)","Sam's Club #6269 Harlingen, TX (2/21-3/3/2019)",Patrick Khanh,115328,2/25/2019 10:05:03 AM,Mary Salazar,TX,78552,Shogun Neck & Back Massger,New,New,1,16.50,199.98,216.48,CreditCard,,,"2 years parts, 1 year labor for Small Items","Shogun Neck &amp; Back Massger,",YES,,Delivered,,,She added an additional 3 yr warranty @register,TX,0,8.25,USJ-874USJ-874,238.00,TC#2231 0463 1666 8865 6057 2,,,,,,0.00,,,,,,,0.00,,,,,,
"Sam's Club #6269 Harlingen, TX (2/21-3/3/2019)","Sam's Club #6269 Harlingen, TX (2/21-3/3/2019)",Patrick Khanh,115342,2/26/2019 10:50:46 AM,Huoi Han Tran,TX,78552,Vitality Plate for Sam's,Demo[-60],Demo,1,33.00,399.99,432.99,CreditCard,,,"2 years parts, 1 year labor for Small Items","Vitality Plate for Sam's,",YES,,Delivered,,,2/26/19 Hitomi,TX,0,8.25,USJ-849USJ-849-DEMO,432.99,TC# 1607 5954 7595 3312 3822 7,,,,,,0.00,,,,,,,0.00,,,,,,
"Sam's Club #6269 Harlingen, TX (2/21-3/3/2019)","Sam's Club #6269 Harlingen, TX (2/21-3/3/2019)",Patrick Khanh,115436,3/3/2019 1:28:11 PM,Salvador Acevedo,TX,77799,Ninja Leg Massager 2,New,New,1,24.75,299.98,324.73,CreditCard,,,"2 years parts, 1 year labor for Small Items","Ninja Leg Massager 2,",YES,,Delivered,,,,TX,0,8.25,USJ-880,324.73,TC# 2860 7663 5887 7723 7832 4,,,,,,0.00,,,,,,,0.00,,,,,,
