﻿Original Event Name,Event Name,Sales Person,Order Number,Order Date,Customer Name,State,Zip,Product Name,Color,Product Status,QTY,Tax,Total Before Tax,Order Total,Primary Payment Method,Second Payment Method,Thirdl Payment Method,Warranty,Order Items,Pick up,Delivered On,Order Status,Chair Type,Order Notes,Private Note,Branch,No Tax,Actual Tax Rate,SKU,Primary Payment Balance,Primary Authorize Number,Primary Purchase Order Number,Primary Synchrony Account Number,Primary Synchrony Application Key,Primary Synchrony Account Info,Primary Synchrony Term,Primary Synchrony Primary ID,Primary Synchrony Issued State,Primary Synchrony Expiretion Date,Second Payment Balance,Second Authorize Number,Second Purchase Order Number,Second Synchrony Account Number,Second Synchrony Application Key,Second Synchrony Account Info,Second SynchronyTerm,Second Synchrony Primary ID,Second Synchrony Issued State,Second Synchrony Expiretion Date,Third Payment Balance,Third Authorize Number,Third Purchase Order Number,Third Synchrony Account Number,Third Synchrony Application Key,Third Synchrony Account Info,Third Synchrony Term,Third Synchrony Primary ID,Third Synchrony Issued State,Third Synchrony Expiretion Date
Topsfield Fair 10/4-14/19,Topsfield Fair 10/4-14/19,Winston Melgar,121694,10/8/2019 9:16:08 AM,Angela Decker,MA,01970,Legacy 4,New Black,New,1,0.00,4800.00,4800.00,Synchrony,,,"5 years parts, 1 year labor (Free)","Legacy 4,",No,,Called,,,"Synchrony original verified. Credit avail $8400. Remaining balance $4800. Charge sync acc, have sales draft signed-Erika 10/8/19 2:23pm
cc/text completed-Erika 10/8
10/09 - CC Customer to inform of order received - Karina",IL,1,6.25,LGCY-4LGCY-4BL,4800.00,,,6501723375357736,82170805,San Diego,48 months,Driver’s License,MA,12/2020,0.00,,,,,,,,,/,0.00,,,,,,,,,/
Topsfield Fair 10/4-14/19,Topsfield Fair 10/4-14/19,Winston Melgar,121697,10/8/2019 9:31:52 AM,peter keys,MA,02180,Relax 2 Zero 3D,Demo Choco,Demo,1,0.00,3800.00,3800.00,Synchrony,,,"5 years parts, 2 years labor ($200)","Relax 2 Zero 3D,",No,,Cancelled,,,"please deliver different chair demo same my display has defect whole parts. same color brown thank you.
-Synchrony original verified (key appl). credit avail $8300. remaining balance $3800. Charge sync acc, have sales draft signed-Erika 10/8/19 2:01pm
cc/text completed-Erika 10/8
10/09 - CC Customer to inform of order received LVM - Karina
10/30-Customer says he does not want a synchrony credit card and does not want to finance the chair; advised customer to speak to Sales Rep Winston to further discuss. -Waiting on sales rep to notify if cancelled or not.-Karen",IL,1,6.25,DWA-9060USJ-9060BR-DEMO,3800.00,,,,82170241,San Diego,48 months,Driver’s License,MA,07/2024,0.00,,,,,,,,,/,0.00,,,,,,,,,/
Topsfield Fair 10/4-14/19,Topsfield Fair 10/4-14/19,Winston Melgar,121699,10/8/2019 9:38:40 AM,Gregorios Angelidis,MA,02026,Legacy 4,New Choco,New,1,0.00,4000.00,4000.00,Synchrony,,,"5 years parts, 2 years labor ($200)","Legacy 4,",No,,Scheduled,,,"Synchrony original verified. Credit avail $8300. Remaining balance $4000. Charge sync acc, have sales draft signed-Erika 10/8/19 2:30pm
cc/text completed-Erika 10/8/19
10/09 - CC Customer to inform of order received - Karina
10/18 - CC Customer Confirmed Delivery for Saturday 10/26/2019 9:00A-1:00P - Karina",IL,1,6.25,LGCY-4LGCY-4CH,4000.00,,,6501723375357744,82171559,San Diego,36 months,Driver’s License,MA,03/2022,0.00,,,,,,,,,/,0.00,,,,,,,,,/
Topsfield Fair 10/4-14/19,Topsfield Fair 10/4-14/19,Winston Melgar,121700,10/8/2019 9:54:20 AM,Michael Jones,MA,02148,PEGASUS 2 SMART,Demo Choco,Demo,1,0.00,5300.00,5300.00,Synchrony,Credit Card,Credit Card,"5 years parts, 2 years labor ($200)","PEGASUS 2 SMART,",No,,Scheduled,,,"he deposited $500 credit card payment 
($4,200) synchrony 48 months he has to wait for the card 7-10 business days and $600 remaining balance has to pay through his credit card he's gonna call me for credit acct #. 
please replace the left arm the massage chair. thank you.

SQ amount verified of $500 &600. Per sales rep Winston customer will call him to provide acc #.  Will place on hold for now-Erika 10/8
Acc # was inputted. sync acc verified.  Credit avail $4200. Remaining bal $ 4200. Charge sync acc, have sales draft signed-Erika 10/16/19 10:40AM
CC/Text completed-Erika 10/16 
10/17 CC Customer to inform of order received LVM  - Karina
10/30- Confirmed delivery for 11/7 4:00pm-8:00pm-Karen",IL,1,6.25,PEGS-2PEGS-2-BR-DEMO,4200.00,,,6501723375357827,82171089,San Diego,48 months,Passport,MA,10/2027,500.00,#n7GV,,,,,,,,/,600.00,J7BO,,,,,,,,/
Topsfield Fair 10/4-14/19,Topsfield Fair 10/4-14/19,Winston Melgar,121758,10/12/2019 9:40:13 AM,Mary P Dy,IL,60527,Legacy 3D,New Black,New,1,0.00,3800.00,3800.00,Credit Card,Credit Card,,"5 years parts, 2 years labor ($200)","Legacy 3D,",No,,Scheduled,,,"costumer paid with 2 different card  the first card was $1,800 #pUWB and the 2nd on was $2000 #TFpK thank you
---Original received. Sq amount verified of $1800 & $2000. Paid in full-Erika 10/16/19 10:01am
*Receive sig on invoice* cc/text completed-Erika 10/16
10/17 CC Customer to inform of order received unable to leave VM box is full text sent - Karina
10/22- Customer confirmed delivery for 10/29 10:30am-2pm-Karina",IL,1,6.25,DWA-9150USJ-9150BL,1800.00,#pUWB,,,,,,,,/,2000.00,#TFpK,,,,,,,,/,0.00,,,,,,,,,/
Topsfield Fair 10/4-14/19,Topsfield Fair 10/4-14/19,Winston Melgar,121821,10/13/2019 7:35:33 PM,Thomas @Marry Henderson,MA,01930,PEGASUS 2 SMART,New Black,New,1,0.00,5800.00,5800.00,Synchrony,,,"5 years parts, 2 years labor ($200)","PEGASUS 2 SMART,",No,,Called,,,"Synchrony original verified. Credit avail $9000. Remaining bal $5800. Charge sync acc, have sales draft signed-Erika 10/16/19 10:30am
cc/text completed-Erika 10/16
10/17-CC; spoke to customer regarding scheduling-Karen",IL,1,6.25,PEGS-2PEGS-2-BL,5800.00,,,6501723375367156,82470430,Huston,48 months,Driver’s License,MA,09/2021,0.00,,,,,,,,,/,0.00,,,,,,,,,/
