﻿Original Event Name,Event Name,Sales Person,Order Number,Order Date,Customer Name,State,Zip,Product Name,Color,Product Status,QTY,Tax,Total Before Tax,Order Total,Primary Payment Method,Second Payment Method,Thirdl Payment Method,Warranty,Order Items,Pick up,Delivered On,Order Status,Chair Type,Order Notes,Private Note,Branch,No Tax,Actual Tax Rate,SKU,Primary Payment Balance,Primary Authorize Number,Primary Purchase Order Number,Primary Synchrony Account Number,Primary Synchrony Application Key,Primary Synchrony Account Info,Primary Synchrony Term,Second Payment Balance,Second Authorize Number,Second Purchase Order Number,Second Synchrony Account Number,Second Synchrony Application Key,Second Synchrony Account Info,Second SynchronyTerm,Third Payment Balance,Third Authorize Number,Third Purchase Order Number,Third Synchrony Account Number,Third Synchrony Application Key,Third Synchrony Account Info,Third Synchrony Term
Sam's Club #4972 Port St. Lucie 11/1-11/18 (FL),Sam's Club #4972 Port St. Lucie 11/1-11/18 (FL),Ruben Cuatrona,112066,11/9/2018 8:08:42 AM,Ronnie Rucks,FL,34947,Legacy for Sam's,Demo Sienna Brown[-700],Demo,1,233.94,3599.00,3832.94,PurchaseOrder,,,"3 years parts, 2 years labor ($200)","Legacy for Sam's,",No,,Scheduled,,3 years parts / 2 years labor,"New//CORRECT CHAIR TYPE IS DEMO(BOX). CONFIRMED WITH RUBEN. PLEASE DELIVER NEW CHAIR   11/9/18 HItomi
11/9Maritza- Courtesy message and email sent @ 10:50AM",FL,0,6.50,DWA-9100DWA-9100SB-DEMO,3832.94,,3673 4301 2437 2165 8475 14,,,,,0.00,,,,,,,0.00,,,,,,
Sam's Club #4972 Port St. Lucie 11/1-11/18 (FL),Sam's Club #4972 Port St. Lucie 11/1-11/18 (FL),Ruben Cuatrona,112244,11/12/2018 7:23:01 AM,Chris Wolsen,FL,34990,Relax 2 Zero 2.0 for Sam's,Demo (Box) Beige[-701],Demo,1,207.94,3199.00,3406.94,PurchaseOrder,,,"3 years parts, 1 year labor (Free)","Relax 2 Zero 2.0 for Sam's,",No,,Assigned,,New unit,CC Josefina - 11/14/18 10:35am VM,FL,0,6.50,USJ-9050USJ-9050BE-DEMO (Box),3406.94,,2060 9866 8826 8490 5740 37,,,,,0.00,,,,,,,0.00,,,,,,
Sam's Club #4972 Port St. Lucie 11/1-11/18 (FL),Sam's Club #4972 Port St. Lucie 11/1-11/18 (FL),Ruben Cuatrona,112245,11/12/2018 7:28:32 AM,Joyce Juris,FL,34953,Legacy for Sam's,New Choco,New,1,279.44,4299.00,4578.44,PurchaseOrder,,,"3 years parts, 2 years labor ($200)","Legacy for Sam's,",No,,Scheduled,,"**Deliver a Legacy 3D DWA-9150**
Warranty: 3 years parts and 2 years labor
Deliver before Nov 20.","CC Josefina - 11/12/18 2:35pm (scheduled)
Deliver a Brown Legacy 3d before Nov 20
//11/13/18 Spoke to Hide, okay to process-Hitomi",FL,0,6.50,DWA-9100DWA-9100CH,4578.44,,3582 4727 2417 4083 7393 86,,,,,0.00,,,,,,,0.00,,,,,,
Sam's Club #4972 Port St. Lucie 11/1-11/18 (FL),Sam's Club #4972 Port St. Lucie 11/1-11/18 (FL),Ruben Cuatrona,112247,11/12/2018 7:33:51 AM,Carol Daigle,FL,34945,Legacy for Sam's,Demo(Box) Choco[-700],Demo,1,233.94,3599.00,3832.94,PurchaseOrder,,,"3 years parts, 2 years labor ($200)","Legacy for Sam's,",No,,Assigned,,"Deliver a new unit.
Warranty: 3 years parts and 2 years labor",CC Josefina - 11/14/18 10:45am VM,FL,0,6.50,DWA-9100DWA-9100CH-Box,3823.94,,7056 5755 5370 7908 2108 91,,,,,0.00,,,,,,,0.00,,,,,,
Sam's Club #4972 Port St. Lucie 11/1-11/18 (FL),Sam's Club #4972 Port St. Lucie 11/1-11/18 (FL),Ruben Cuatrona,112248,11/12/2018 7:38:52 AM,Flavio Rosa,FL,34952,Orbit for Sam's ,Demo Choco(Box)[-300],Demo,1,175.37,2698.00,2873.37,PurchaseOrder,,,"3 years parts, 2 years labor ($200)","Orbit for Sam's ,",No,,Scheduled,,"Deliver a new brown Orbit. Thursday deliver only. 
Warranty: 3 years parts 2 years labor",,FL,0,6.50,ORBT-1ORBT-1CH-BOX,2873.37,,8348 8170 7963 6831 1634 65,,,,,0.00,,,,,,,0.00,,,,,,
Sam's Club #4972 Port St. Lucie 11/1-11/18 (FL),Sam's Club #4972 Port St. Lucie 11/1-11/18 (FL),Ruben Cuatrona,112254,11/12/2018 8:04:49 AM,Charlene Moore,FL,34986,Orbit for Sam's ,Demo Black(Box)[-300],Demo,1,175.37,2698.00,2873.37,PurchaseOrder,,,"3 years parts, 3 years labor ($400)","Orbit for Sam's ,",No,,Assigned,,"Deliver a brand new black Orbit.
Warranty: 3 years parts 3 years labor",CC Josefina - 11/14/18 10:42am VM,FL,0,6.50,ORBT-1DORBT-1BL-BOX,2873.37,,2701 0949 4407 0279 9071 08,,,,,0.00,,,,,,,0.00,,,,,,
Sam's Club #4972 Port St. Lucie 11/1-11/18 (FL),Sam's Club #4972 Port St. Lucie 11/1-11/18 (FL),Ruben Cuatrona,112259,11/12/2018 8:32:35 AM,Earl Emerson,FL,34953,Legacy for Sam's,New Black,New,1,279.44,4299.00,4578.44,PurchaseOrder,,,"3 years parts, 2 years labor ($200)","Legacy for Sam's,",No,,Scheduled,,"3 years labor and 2 years labor.
Show the customer how to use upon delivery","CC Josefina - 11/12/18 3pm (scheduled)
Show the customer how to use the chair upon delivery",FL,0,6.50,DWA-9100DWA-9100BL,4578.44,,5923 5801 0230 2165 8515 64,,,,,0.00,,,,,,,0.00,,,,,,
Sam's Club #4972 Port St. Lucie 11/1-11/18 (FL),Sam's Club #4972 Port St. Lucie 11/1-11/18 (FL),Ruben Cuatrona,112263,11/12/2018 9:04:20 AM,Joseph Stallone,FL,34987,Orbit for Sam's ,Demo Choco(Box)[-300],Demo,1,175.37,2698.00,2873.37,PurchaseOrder,,,"3 years parts, 2 years labor ($200)","Orbit for Sam's ,",No,,Cancelled,,"Deliver a new black Orbit.
Warranty: 3 years parts 2 years labor",will double check the color - Hitomi,Not Dispatched,0,6.50,ORBT-1ORBT-1CH-BOX,2873.37,,1623 5804 0136 3168 8365 34,,,,,0.00,,,,,,,0.00,,,,,,
Sam's Club #4972 Port St. Lucie 11/1-11/18 (FL),Sam's Club #4972 Port St. Lucie 11/1-11/18 (FL),Ruben Cuatrona,112265,11/12/2018 10:41:29 AM,Mercedes DeGuzman,FL,34953,Legacy for Sam's,New Choco,New,1,279.44,4299.00,4578.44,PurchaseOrder,,,"3 years parts, 3 years labor ($400)","Legacy for Sam's,Foot Vibe Pro,",No,,Assigned,,"Send a brown Legacy 3D and a free foot vibe.
Warranty: 3 years parts 3 years labor","CC Josefina - 11/14/18 10:46am VM

will confirm w/Hide if it is okay to upgrade- 11/12/18 Hitomi//Spoke to Hide. Okay to process. 11/13/18 Hitomi",FL,0,6.50,DWA-9100DWA-9100CH,4578.44,,8686 6255 5472 8908 2848 01,,,,,0.00,,,,,,,0.00,,,,,,
Sam's Club #4972 Port St. Lucie 11/1-11/18 (FL),Sam's Club #4972 Port St. Lucie 11/1-11/18 (FL),Ruben Cuatrona,112265,11/12/2018 10:41:29 AM,Mercedes DeGuzman,FL,34953,Foot Vibe Pro,,New,1,279.44,4299.00,4578.44,PurchaseOrder,,,"2 years parts, 1 year labor for Small Items","Legacy for Sam's,Foot Vibe Pro,",No,,Assigned,,"Send a brown Legacy 3D and a free foot vibe.
Warranty: 3 years parts 3 years labor","CC Josefina - 11/14/18 10:46am VM

will confirm w/Hide if it is okay to upgrade- 11/12/18 Hitomi//Spoke to Hide. Okay to process. 11/13/18 Hitomi",FL,0,6.50,USJ-871,4578.44,,8686 6255 5472 8908 2848 01,,,,,0.00,,,,,,,0.00,,,,,,
Sam's Club #4972 Port St. Lucie 11/1-11/18 (FL),Sam's Club #4972 Port St. Lucie 11/1-11/18 (FL),Ruben Cuatrona,112267,11/12/2018 10:49:32 AM,Lautoe Giovanni,FL,34953,Relax 2 Zero 2.0 for Sam's,Demo Black[-701],Demo,1,207.94,3199.00,3406.94,PurchaseOrder,,,"3 years parts, 1 year labor (Free)","Relax 2 Zero 2.0 for Sam's,",No,,Assigned,,"Deliver the black relax2zero 2.0 demo
Warranty: 3 years parts 1 year labor",CC Josefina - 11/14/18 10:38pm VM,FL,0,6.50,USJ-9050USJ-9050BL-DEMO,3406.94,,5744 7012 1853 5349 6289 82,,,,,0.00,,,,,,,0.00,,,,,,
Sam's Club #4972 Port St. Lucie 11/1-11/18 (FL),Sam's Club #4972 Port St. Lucie 11/1-11/18 (FL),Ruben Cuatrona,112268,11/12/2018 10:53:23 AM,John/Karen Drayson,FL,34953,Orbit for Sam's ,Demo Black(Box)[-300],Demo,1,175.37,2698.00,2873.37,PurchaseOrder,,,"3 years parts, 2 years labor ($200)","Orbit for Sam's ,",No,,Scheduled,,"Deliver a brand new black Orbit.
Warranty: 3 years parts, 2 years labor",CC Josefina - 11/14/18 10:35am VM,FL,0,6.50,ORBT-1DORBT-1BL-BOX,2873.37,,1643 9808 0738 6158 8375 34,,,,,0.00,,,,,,,0.00,,,,,,
Sam's Club #4972 Port St. Lucie 11/1-11/18 (FL),Sam's Club #4972 Port St. Lucie 11/1-11/18 (FL),Ruben Cuatrona,112272,11/12/2018 1:30:08 PM,Joseph Stallone,FL,34987,Orbit for Sam's ,Demo Black(Box)[-300],Demo,1,175.37,2698.00,2873.37,PurchaseOrder,,,"3 years parts, 2 years labor ($200)","Orbit for Sam's ,",No,,Assigned,,"Deliver a new black Orbit.
Warranty: 3 years parts 2 years labor","CC Josefina - 11/13/18 2:20pm
TEL#CORRECTION : 954-614-9282",FL,0,6.50,ORBT-1DORBT-1BL-BOX,2873.37,,1623 5804 0136 3168 8365 34,,,,,0.00,,,,,,,0.00,,,,,,
