﻿Original Event Name,Event Name,Sales Person,Order Number,Order Date,Customer Name,State,Zip,Product Name,Color,Product Status,QTY,Tax,Total Before Tax,Order Total,Primary Payment Method,Second Payment Method,Thirdl Payment Method,Warranty,Order Items,Pick up,Delivered On,Order Status,Chair Type,Order Notes,Private Note,Branch,No Tax,Actual Tax Rate,SKU,Primary Payment Balance,Primary Authorize Number,Primary Purchase Order Number,Primary Synchrony Account Number,Primary Synchrony Application Key,Primary Synchrony Account Info,Primary Synchrony Term,Second Payment Balance,Second Authorize Number,Second Purchase Order Number,Second Synchrony Account Number,Second Synchrony Application Key,Second Synchrony Account Info,Second SynchronyTerm,Third Payment Balance,Third Authorize Number,Third Purchase Order Number,Third Synchrony Account Number,Third Synchrony Application Key,Third Synchrony Account Info,Third Synchrony Term
"Mitsuwa Chair Event Plano, TX (4/26-5/5/2019)","Mitsuwa Chair Event Plano, TX (4/26-5/5/2019)",Jennifer Tran,117101,5/3/2019 8:57:54 PM,Nobuyuki Mokko,TX,75013,Legacy 3D,New Black,New,1,0.00,4000.00,4000.00,Cash,Cash,,"3 years parts, 1 year labor (Free)","Legacy 3D,",No,5/10/2019 12:00:00 AM,Delivered,New,"*Deliver May 10th before 3pm*
*CASH ON DELIVERY NO CHECKS NO CARDS*","*Jennifer Tran holding $2,000 Cash Deposit*
5/6/19 Confirmed w/June , office received $2,000 cash. Please send confirmation later. ***COD  $2,000****-Hitomi
Printed - Tina 5/6/2019
5/8/19-Received $2,000 cash confirmation signed by Mario.***COD 2,000***-Hitomi",TX,1,8.25,DWA-9150USJ-9150BL,2000.00,,,,,,,2000.00,,,,,,,0.00,,,,,,
"Mitsuwa Chair Event Plano, TX (4/26-5/5/2019)","Mitsuwa Chair Event Plano, TX (4/26-5/5/2019)",Jennifer Tran,117102,5/3/2019 9:01:52 PM,William Sanitate,TX,75094,Solace,New Choco,New,1,0.00,3000.00,3000.00,Credit Card,Cash,,"3 years parts, 1 year labor (Free)","Solace,",No,5/10/2019 12:00:00 AM,Delivered,New,*CASH ON DELIVERY NO CHECKS NO CARDS*,"5/6/19-Confirmed $100.00 in SQ. ***COD$2,900***-Hitomi
5/6/2019 Printed and courtesy message sent - Tina
5/7/2019 - scheduled to Friday 5/10 between 10-12PM. June",TX,1,8.25,SOL-1SOL-1-CH,100.00,#LeZ6,,,,,,2900.00,,,,,,,0.00,,,,,,
"Mitsuwa Chair Event Plano, TX (4/26-5/5/2019)","Mitsuwa Chair Event Plano, TX (4/26-5/5/2019)",Jennifer Tran,117178,5/5/2019 7:41:52 PM,Maria Elsie Doucet,TX,75071,Solace,New Choco,New,1,0.00,2900.00,2900.00,Credit Card,,,"3 years parts, 1 year labor (Free)","Solace,",No,,Scheduled,,"*Delivery Preferrably Saturdays*
*FREE FOAM PAD INCLUDED*","*FREE FOAM PAD INCLUDED* (PLEASE BRING WHEN CHAIR IS DELIVERED)
5/6/19-COnfirmed $2,900 in SQ. -Hitomi
5/6/2019 Printed and courtesy message sent - Tina
5/7/2019 - Scheduled to 5/10/2019 between 2-4PM. June",TX,1,8.25,SOL-1SOL-1-CH,2900.00,#KMTq,,,,,,0.00,,,,,,,0.00,,,,,,
