﻿Date,CustomerName,State,Zipcode,Description,productNo,Color,Product Status,Net,ShippingFee,GiftPrice,FinancingProcessingFee,Order Total,Pre_tax,Tax,Commission,Primary Payment Method,Primary Payment Balance,Primary Authorize Number,Primary Purchase Order Number,Primary Synchrony Account Number,Primary Synchrony Application Key,Primary Synchrony AccountInfo,Primary SynchronyTerm,Secondly Payment Method,Secondly Payment Balance,Secondly Authorize Number,Secondly Purchase Order Number,Secondly Synchrony Account Number,Secondly Synchrony Application Key,Secondly Synchrony AccountInfo,Secondly SynchronyTerm,Thirdly Payment Method,Thirdly Payment Balance,Thirdly Authorize Number,Thirdly Purchase Order Number,Thirdly Synchrony Account Number,Thirdly Synchrony Application Key,Thirdly Synchrony AccountInfo,Thirdly SynchronyTerm,DeliveryDate,Pick up,Warranty,Status,Original Event Name,Event Name,Synchrony Notes,Order Notes,Order number,Private Note,Branch,No Tax,ActualTaxRate
10/5/2018 2:45:21 PM,Don Folker,IA,52626,Relax2Zero 3D,DWA-9060USJ-9060BR,New Choco,New,,,,,4900.00,4900.00,0.00,Rolly San Jose,CreditCard,4900.00,07595C,,,,,,,0.00,,,,,,,,0.00,,,,,,,,No,"3 years parts, 1 year labor (Free)",Cancelled,AFTER SHOW (WA),AFTER SHOW (WA),,,110089,"Pls deliver 2-3 weeks from oct 5, 2018. This is after show sales for Iowa fair
10/05/18- cristina will be re-entering the order due to wrong event name. 3:32",TX,1,10.00
10/6/2018 3:45:22 PM,John Anton,WA,98208,PEGASUS 2 SMART,PEGS-2PEGS-2-BR,New Choco,New,,,,,4900.00,4900.00,0.00,Scott Ishikawa,CreditCard,4900.00,lXJG,,,,,,,0.00,,,,,,,,0.00,,,,,,,10/9/2018 12:00:00 AM,No,"5 years parts, 3 years labor ($400)",Delivered,AFTER SHOW (WA),AFTER SHOW (WA),,,110103,"**EVENT:NEX EVERETT 10/4-7/18**
Please add Tourmaline pad
Event is NEX Everett Oct 2018
10/8Maritza- Confirmed 4900 on square.",WA,1,10.00
10/6/2018 4:12:01 PM,Keith and Kay Simmons,WA,98223,Legacy 3D,DWA-9150USJ-9150CH,New Choco,New,,,,,3800.00,3800.00,0.00,Scott Ishikawa,CreditCard,3800.00,47wj,,,,,,,0.00,,,,,,,,0.00,,,,,,,10/11/2018 12:00:00 AM,No,"5 years parts, 1 year labor (Free)",Delivered,AFTER SHOW (WA),AFTER SHOW (WA),,,110104,"**EVENT:NEX EVERETT 10/4-7/18**
10/8Maritza- Confirmed 3800 on square.",WA,1,10.00
10/6/2018 4:20:59 PM,Maria Gress,WA,98270,Legacy 3D,DWA-9150USJ-9150BL,New Black,New,,,,,4500.00,4500.00,0.00,Scott Ishikawa,Cash,20.00,,,,,,,,0.00,,,,,,,,0.00,,,,,,,,No,"5 years parts, 2 years labor ($200)",Hold,AFTER SHOW (WA),AFTER SHOW (WA),,,110105,"**EVENT:NEX EVERETT 10/4-7/18**Sold at NEX Everett
Husband is deployed.  Will come to office 6 month, 3/2019//Per.Scott, $20 might be returned. He will keep in update. Place on Hold 10/8/18 Hitomi//Scott received $20 cash , received cash confirmation. 10/10/18 Hitomi",WA,1,10.00
