﻿Original Event Name,Event Name,Sales Person,Order Number,Order Date,Customer Name,State,Zip,Product Name,Color,Product Status,QTY,Tax,Total Before Tax,Order Total,Primary Payment Method,Second Payment Method,Thirdl Payment Method,Warranty,Order Items,Pick up,Delivered On,Order Status,Chair Type,Order Notes,Private Note,Branch,No Tax,Actual Tax Rate,SKU,Primary Payment Balance,Primary Authorize Number,Primary Purchase Order Number,Primary Synchrony Account Number,Primary Synchrony Application Key,Primary Synchrony Account Info,Primary Synchrony Term,Second Payment Balance,Second Authorize Number,Second Purchase Order Number,Second Synchrony Account Number,Second Synchrony Application Key,Second Synchrony Account Info,Second SynchronyTerm,Third Payment Balance,Third Authorize Number,Third Purchase Order Number,Third Synchrony Account Number,Third Synchrony Application Key,Third Synchrony Account Info,Third Synchrony Term
Island Pacific Store Demo (NV),Island Pacific Store Demo (NV),Rolly San Jose,112702,11/26/2018 8:51:24 AM,Joseph Mcdevitt,NV,89128,Legacy,New Choco,New,1,0.00,3788.00,3788.00,Synchrony,,,"5 years parts, 1 year labor (Free)","Legacy,",No,,Assigned,,,"Confirmed SYNC($8,500) and original.*** PLease charge $3,788 before delivery and sales draft signed.***11/26/18 Hitomi
11/29Maritza- Courtesy message sent @ 4:50PM",NV,1,8.25,DWA-9100DWA-9100BU,3788.00,,,6019170813266464,97688519,Huston,36 months,0.00,,,,,,,0.00,,,,,,
Island Pacific Store Demo (NV),Island Pacific Store Demo (NV),Rolly San Jose,112704,11/26/2018 8:56:55 AM,Richard De vera,NV,89117,Majesty,New Choco,New,1,0.00,3788.00,3788.00,Synchrony,,,"5 years parts, 1 year labor (Free)","Majesty,",No,,Assigned,,,"Deliver asap//Confirmed SYNC($8,500) and original. ***Please charge $3,788 before delivery and sales draft signed*** 11/26/18 Hitomi
11/29Maritza- Courtesy messages sent @ 4:52PM",NV,1,8.25,MAJ-1010MAJ-1010-BR,3788.00,,,6019170813261903,97608807,Huston,36 months,0.00,,,,,,,0.00,,,,,,
Island Pacific Store Demo (NV),Island Pacific Store Demo (NV),Rolly San Jose,112707,11/26/2018 9:03:01 AM,Corazon Palmer,NV,89129,Majesty,New Black,New,1,0.00,3000.00,3000.00,Synchrony,,,"3 years parts, 1 year labor (Free)","Majesty,",No,,Hold,,,"Pls call first on dec 3 before delivery.//Confirmed SYNC($8,500) and original. ***Please charge $3,000 before delivery and sales draft signed.***11/26/18 Hitomi
11/29Maritza- Courtesy message sent @ 4:54PM
11/30Maritza- Customer would like to put order on hold. Waiting for approval from doctor will reach out to Rolly. Hold until Dec. 21, 2018",NV,1,8.25,MAJ-1010MAJ-1010-BL,3000.00,,,6019170813259147,97543663,Huston,36 months,0.00,,,,,,,0.00,,,,,,
