﻿Original Event Name,Event Name,Sales Person,Order Number,Order Date,Customer Name,State,Zip,Product Name,Color,Product Status,QTY,Tax,Total Before Tax,Order Total,Primary Payment Method,Second Payment Method,Thirdl Payment Method,Warranty,Order Items,Pick up,Delivered On,Order Status,Chair Type,Order Notes,Private Note,Branch,No Tax,Actual Tax Rate,SKU,Primary Payment Balance,Primary Authorize Number,Primary Purchase Order Number,Primary Synchrony Account Number,Primary Synchrony Application Key,Primary Synchrony Account Info,Primary Synchrony Term,Second Payment Balance,Second Authorize Number,Second Purchase Order Number,Second Synchrony Account Number,Second Synchrony Application Key,Second Synchrony Account Info,Second SynchronyTerm,Third Payment Balance,Third Authorize Number,Third Purchase Order Number,Third Synchrony Account Number,Third Synchrony Application Key,Third Synchrony Account Info,Third Synchrony Term
"SOUTHEASTERN CT HM&GD SHOW 2/22-24/19 Uncasville, CT (IL)","SOUTHEASTERN CT HM&GD SHOW 2/22-24/19 Uncasville, CT (IL)",Joseph Chan,115214,2/22/2019 5:01:05 PM,Kevin Lessard,ME,04064,PEGASUS 2 SMART,New Choco,New,1,0.00,6900.00,6900.00,CreditCard,,,"5 years parts, 2 years labor ($200)","PEGASUS 2 SMART,",No,3/21/2019 12:00:00 AM,Delivered,New,,"Confirmed $6,900.00 in Square. - 2/25/19 Hitomi
2/26Maritza- Courtesy message sent @ 5:27PM",TX,1,6.35,PEGS-2PEGS-2-BR,6900.00,#4WKD,,,,,,0.00,,,,,,,0.00,,,,,,
"SOUTHEASTERN CT HM&GD SHOW 2/22-24/19 Uncasville, CT (IL)","SOUTHEASTERN CT HM&GD SHOW 2/22-24/19 Uncasville, CT (IL)",Joseph Chan,115238,2/23/2019 4:31:50 PM,Brete Morgan,CT,06357,Relax 2 Zero 3D,New Black,New,1,0.00,4300.00,4300.00,CreditCard,,,"5 years parts, 2 years labor ($200)","Relax 2 Zero 3D,",No,4/2/2019 12:00:00 AM,Delivered,New,,"Confirmed $4,300.00 in Square. - 2/25/19 Hitomi
Please make sure: Deliver with the most updated software for R2Z-3D. 2/25/19 Riho
2/27Maritza Courtesy message sent @ 8:48",TX,1,6.35,DWA-9060USJ-9060BL,4300.00,Q9cU,,,,,,0.00,,,,,,,0.00,,,,,,
"SOUTHEASTERN CT HM&GD SHOW 2/22-24/19 Uncasville, CT (IL)","SOUTHEASTERN CT HM&GD SHOW 2/22-24/19 Uncasville, CT (IL)",Joseph Chan,115239,2/23/2019 4:35:47 PM,Patrick Spurgeon,CT,06042,Legacy 3D,New Black,New,1,0.00,4500.00,4500.00,Synchrony,,,"5 years parts, 2 years labor ($200)","Legacy 3D,",No,3/28/2019 12:00:00 AM,Delivered,New,,"Confirmed SYNC$8,500/original. ***Please charge $4,500 before delivery and sales draft signed.***- 2/25/19 Hitomi
2/27Maritza Courtesy message sent @ 8:50",TX,1,6.35,DWA-9150USJ-9150BL,4500.00,,,6501723375029145,71755534,Las Vegas,36 months,0.00,,,,,,,0.00,,,,,,
"SOUTHEASTERN CT HM&GD SHOW 2/22-24/19 Uncasville, CT (IL)","SOUTHEASTERN CT HM&GD SHOW 2/22-24/19 Uncasville, CT (IL)",Joseph Chan,115317,2/25/2019 7:49:10 AM,Brian Farrell,CT,06776,Legacy 3D,New Black,New,1,0.00,4900.00,4900.00,CreditCard,CreditCard,,"5 years parts, 2 years labor ($200)","Legacy 3D,",No,3/28/2019 12:00:00 AM,Delivered,New,Balance of $4400 - C.O.D.,"Confirmed $500.00 in SQ. ***COD$4,400.*** -2/25/19 Hitomi
2/27Maritza Courtesy message sent @ 11:30
3/6Maritza- Called in for status
Printed -3/6/2019",TX,1,6.35,DWA-9150USJ-9150BL,500.00,#66IL,,,,,,4400.00,#JFW4,,,,,,0.00,,,,,,
