﻿Original Event Name,Event Name,Sales Person,Order Number,Order Date,Customer Name,State,Zip,Product Name,Color,Product Status,QTY,Tax,Total Before Tax,Order Total,Primary Payment Method,Second Payment Method,Thirdl Payment Method,Warranty,Order Items,Pick up,Delivered On,Order Status,Chair Type,Order Notes,Private Note,Branch,No Tax,Actual Tax Rate,SKU,Primary Payment Balance,Primary Authorize Number,Primary Purchase Order Number,Primary Synchrony Account Number,Primary Synchrony Application Key,Primary Synchrony Account Info,Primary Synchrony Term,Second Payment Balance,Second Authorize Number,Second Purchase Order Number,Second Synchrony Account Number,Second Synchrony Application Key,Second Synchrony Account Info,Second SynchronyTerm,Third Payment Balance,Third Authorize Number,Third Purchase Order Number,Third Synchrony Account Number,Third Synchrony Application Key,Third Synchrony Account Info,Third Synchrony Term
"Sam's Club #4969 Bentonville, AR (3/21-3/31/3019) TX","Sam's Club #4969 Bentonville, AR (3/21-3/31/3019) TX",Chris Tavira,116162,3/25/2019 7:25:03 PM,Adarsha Rangarajan,AR,72712,Shogun Neck & Back Massger,New,New,1,19.00,199.98,218.98,CreditCard,,,"2 years parts, 1 year labor for Small Items","Shogun Neck &amp; Back Massger,",YES,,Delivered,,Invoice # 0037881,,TX,0,9.50,USJ-874USJ-874,218.98,TC # 096154075666886533148,,,,,,0.00,,,,,,,0.00,,,,,,
"Sam's Club #4969 Bentonville, AR (3/21-3/31/3019) TX","Sam's Club #4969 Bentonville, AR (3/21-3/31/3019) TX",Chris Tavira,116163,3/25/2019 7:30:18 PM,Eula Wilson,AR,72756,Shogun Neck & Back Massger,New,New,1,19.00,199.98,218.98,CreditCard,,,"2 years parts, 1 year labor for Small Items","Shogun Neck &amp; Back Massger,",YES,,Delivered,,Invoice # 0037882,,TX,0,9.50,USJ-874USJ-874,218.98,TC # 688938658719992168269,,,,,,0.00,,,,,,,0.00,,,,,,
"Sam's Club #4969 Bentonville, AR (3/21-3/31/3019) TX","Sam's Club #4969 Bentonville, AR (3/21-3/31/3019) TX",Chris Tavira,116164,3/25/2019 7:35:05 PM,Sujay Annaresdy,AR,72712,Shogun Neck & Back Massger,New,New,1,19.00,199.98,218.98,CreditCard,,,"2 years parts, 1 year labor for Small Items","Shogun Neck &amp; Back Massger,",YES,,Delivered,,Invoice # 0037883,,TX,0,9.50,USJ-874USJ-874,218.98,TC # 040212985476668939366,,,,,,0.00,,,,,,,0.00,,,,,,
"Sam's Club #4969 Bentonville, AR (3/21-3/31/3019) TX","Sam's Club #4969 Bentonville, AR (3/21-3/31/3019) TX",Chris Tavira,116165,3/25/2019 7:41:41 PM,Cynthia Davis,AR,72756,Ninja Leg Massager 2,New,New,1,28.50,299.98,328.48,CreditCard,,,"2 years parts, 1 year labor for Small Items","Ninja Leg Massager 2,",YES,,Delivered,,Invoice # 0037891,,TX,0,9.50,USJ-880,328.48,TC # 160154071667888510108,,,,,,0.00,,,,,,,0.00,,,,,,
"Sam's Club #4969 Bentonville, AR (3/21-3/31/3019) TX","Sam's Club #4969 Bentonville, AR (3/21-3/31/3019) TX",Chris Tavira,116166,3/25/2019 7:46:24 PM,Jeremy Drake,AR,72712,Shogun Neck & Back Massger,New,New,1,19.00,199.98,218.98,CreditCard,,,"2 years parts, 1 year labor for Small Items","Shogun Neck &amp; Back Massger,",YES,,Delivered,,Invoice #0037884,,TX,0,9.50,USJ-874USJ-874,218.98,TC # 230114471698881540118,,,,,,0.00,,,,,,,0.00,,,,,,
"Sam's Club #4969 Bentonville, AR (3/21-3/31/3019) TX","Sam's Club #4969 Bentonville, AR (3/21-3/31/3019) TX",Chris Tavira,116167,3/25/2019 7:54:17 PM,Saval Owen,AR,72756,Relax 2 Zero 3D for Sam's,Demo Brown[-701],Demo,1,360.81,3798.00,4158.81,CreditCard,,,"3 years parts, 1 year labor (Free)","Relax 2 Zero 3D for Sam's,",No,,Called,,Invoice # 0037942,"Floor Model Choco
SN 0103002181227
03/29/19 - Courtesy call/ text completed- Cristina 10 am
Printed by June at 3/27/2019
Customer out of town from 4/10-4/15/2019. 4/10/2019 June",TX,0,9.50,DWA-9060DWA-9060BR-DEMO,4158.81,TC # 7305783726131003608700,,,,,,0.00,,,,,,,0.00,,,,,,
"Sam's Club #4969 Bentonville, AR (3/21-3/31/3019) TX","Sam's Club #4969 Bentonville, AR (3/21-3/31/3019) TX",Chris Tavira,116209,3/28/2019 10:47:45 AM,Nancy Roche,AR,72712,Orbit for Sam's ,New Choco,New,1,284.81,2998.00,3282.81,CreditCard,,,"3 years parts, 1 year labor (Free)","Orbit for Sam's ,",No,,Scheduled,,Invoice # 0037950,"3/29Maritza Courtesy message sent @ 4:12PM
4/5/2019 Scheduled for April 11, 2019 Thursday between 5pm to 8pm - Tina",TX,0,9.50,ORBT-1ORBT-1CH,3282.81,TC # 3323730660284441740584,,,,,,0.00,,,,,,,0.00,,,,,,
"Sam's Club #4969 Bentonville, AR (3/21-3/31/3019) TX","Sam's Club #4969 Bentonville, AR (3/21-3/31/3019) TX",Chris Tavira,116294,3/31/2019 2:46:45 PM,John Tippetts,AR,72712,PEGASUS 2 SMART - Sam's,Demo Choco,Demo,1,522.41,5499.00,6021.41,CreditCard,,,"3 years parts, 1 year labor (Free)","PEGASUS 2 SMART - Sam's,",No,,Scheduled,,Invoice # 0037943,"Choco Demo Serial:
1201002180084
4/2Maritza- Courtesy message sent @ 11:27AM
4/3/2019 Print / Courtesy message done - Tina
4/5/2019 - customer asked to upgrade chair to new, notified the customer that they can call the sales person (Chris) and he will let me know once the customer does the upgrade. Contacted Chris to let him know the customer will call. Scheduled for April 11, 2019 (4pm to 7pm) - Tina",TX,0,9.50,PEGS-2PEGS-2-BR-DEMO,6021.41,TC # 2597379717583339264693,,,,,,0.00,,,,,,,0.00,,,,,,
"Sam's Club #4969 Bentonville, AR (3/21-3/31/3019) TX","Sam's Club #4969 Bentonville, AR (3/21-3/31/3019) TX",Chris Tavira,116295,3/31/2019 2:50:46 PM,James & Keila Payne,AR,72714,Ninja Leg Massager 2,New,New,1,28.50,299.98,328.48,CreditCard,,,"2 years parts, 1 year labor for Small Items","Ninja Leg Massager 2,",YES,,Delivered,,Invoice # 0037893,,TX,0,9.50,USJ-880,328.48,TC # 680553924120006689720,,,,,,0.00,,,,,,,0.00,,,,,,
"Sam's Club #4969 Bentonville, AR (3/21-3/31/3019) TX","Sam's Club #4969 Bentonville, AR (3/21-3/31/3019) TX",Chris Tavira,116297,3/31/2019 2:57:13 PM,Sonia Aguilar,AR,72758,Ninja Leg Massager 2,Demo[-20.00],Demo,1,26.60,279.98,306.58,CreditCard,,,"2 years parts, 1 year labor for Small Items","Ninja Leg Massager 2,",YES,,Delivered,,Invoice # 0037894,,TX,0,9.50,USJ-880-Demo,306.58,TC # 267026598838771342077,,,,,,0.00,,,,,,,0.00,,,,,,
"Sam's Club #4969 Bentonville, AR (3/21-3/31/3019) TX","Sam's Club #4969 Bentonville, AR (3/21-3/31/3019) TX",Chris Tavira,116299,3/31/2019 3:02:59 PM,Anthony Megie,AR,72701,Shogun Neck & Back Massger,Demo[-20],Demo,1,17.10,179.98,197.08,CreditCard,,,"2 years parts, 1 year labor for Small Items","Shogun Neck &amp; Back Massger,",YES,,Delivered,,Invoice # 0037888,,TX,0,9.50,USJ-874USJ-874-DEMO,197.08,TC # 795857235929533097415,,,,,,0.00,,,,,,,0.00,,,,,,
"Sam's Club #4969 Bentonville, AR (3/21-3/31/3019) TX","Sam's Club #4969 Bentonville, AR (3/21-3/31/3019) TX",Chris Tavira,116300,3/31/2019 3:09:56 PM,Gary Boatman,AR,72715,Orbit for Sam's ,Demo Black[-300],Demo,1,256.31,2698.00,2954.31,CreditCard,,,"3 years parts, 1 year labor (Free)","Orbit for Sam's ,",No,,Scheduled,,Invoice # 0037945,"Demo Black SN:
1101001180111
4/2Maritza Courtesy message and email sent @ 11:34AM
4/3/2019 Print / Courtesy message done - Tina
4/5/2019 Scheduled for April 12, 2019 -Tina",TX,0,9.50,ORBT-1ORBT-1BL-DEMO,2954.31,TC # 4790816179807776328007,,,,,,0.00,,,,,,,0.00,,,,,,
"Sam's Club #4969 Bentonville, AR (3/21-3/31/3019) TX","Sam's Club #4969 Bentonville, AR (3/21-3/31/3019) TX",Chris Tavira,116301,3/31/2019 3:21:54 PM,Shawna Douglas,AR,72750,Shogun Neck & Back Massger,New,New,1,19.00,199.98,218.98,CreditCard,,,"2 years parts, 1 year labor (Free)","Shogun Neck &amp; Back Massger,",YES,,Delivered,,Invoice # 0037887,,TX,0,9.50,USJ-874USJ-874,218.98,TC # 865769231541336298653,,,,,,0.00,,,,,,,0.00,,,,,,
"Sam's Club #4969 Bentonville, AR (3/21-3/31/3019) TX","Sam's Club #4969 Bentonville, AR (3/21-3/31/3019) TX",Chris Tavira,116303,3/31/2019 3:54:37 PM,Charlie Thomason,KY,42134,Shogun Neck & Back Massger,Demo[-20],Demo,1,17.10,179.98,197.08,CreditCard,,,"2 years parts, 1 year labor for Small Items","Shogun Neck &amp; Back Massger,",YES,,Delivered,,Invoice # 0037889,,TX,0,9.50,USJ-874USJ-874-DEMO,197.08,TC # 965739936505331256603,,,,,,0.00,,,,,,,0.00,,,,,,
"Sam's Club #4969 Bentonville, AR (3/21-3/31/3019) TX","Sam's Club #4969 Bentonville, AR (3/21-3/31/3019) TX",Chris Tavira,116305,3/31/2019 4:07:45 PM,Regina Grayer,AR,72751,Shogun Neck & Back Massger,Demo[-20],Demo,1,17.10,179.98,197.08,CreditCard,,,"2 years parts, 1 year labor for Small Items","Shogun Neck &amp; Back Massger,",YES,,Delivered,,,,TX,0,9.50,USJ-874USJ-874-DEMO,197.08,TC # 905739739513331259603,,,,,,0.00,,,,,,,0.00,,,,,,
"Sam's Club #4969 Bentonville, AR (3/21-3/31/3019) TX","Sam's Club #4969 Bentonville, AR (3/21-3/31/3019) TX",Chris Tavira,116306,3/31/2019 4:11:56 PM,Raejean Williams,AR,72751,Shogun Neck & Back Massger,Demo[-20],Demo,1,17.10,179.98,197.08,CreditCard,,,"2 years parts, 1 year labor for Small Items","Shogun Neck &amp; Back Massger,",YES,,Delivered,,Invoice # 0037954,,TX,0,9.50,USJ-874USJ-874-DEMO,197.08,TC # 867998498759995178239,,,,,,0.00,,,,,,,0.00,,,,,,
"Sam's Club #4969 Bentonville, AR (3/21-3/31/3019) TX","Sam's Club #4969 Bentonville, AR (3/21-3/31/3019) TX",Chris Tavira,116388,4/2/2019 2:17:50 PM,Robert Wren,AR,72715,Relax 2 Zero 3D for Sam's,Demo (Box) Brown[-701],Demo,1,360.81,3798.00,4158.81,CreditCard,,,"3 years parts, 1 year labor (Free)","Relax 2 Zero 3D for Sam's,",No,,Scheduled,,"Invoice # 0037959
Free Shogun upon delivery","4/3/2019 Print / Courtesy message done - Tina
4/5/2019 - Scheduled for Thursday April 11, 2019 6-9PM -Tina",TX,0,9.50,DWA-9060DWA-9060BR-DEMO (Box),4158.81,TC# 6947769133518332231613,,,,,,0.00,,,,,,,0.00,,,,,,
