﻿Original Event Name,Event Name,Sales Person,Order Number,Order Date,Customer Name,State,Zip,Product Name,Color,Product Status,QTY,Tax,Total Before Tax,Order Total,Primary Payment Method,Second Payment Method,Thirdl Payment Method,Warranty,Order Items,Pick up,Delivered On,Order Status,Chair Type,Order Notes,Private Note,Branch,No Tax,Actual Tax Rate,SKU,Primary Payment Balance,Primary Authorize Number,Primary Purchase Order Number,Primary Synchrony Account Number,Primary Synchrony Application Key,Primary Synchrony Account Info,Primary Synchrony Term,Primary Synchrony Primary ID,Primary Synchrony Issued State,Primary Synchrony Expiretion Date,Second Payment Balance,Second Authorize Number,Second Purchase Order Number,Second Synchrony Account Number,Second Synchrony Application Key,Second Synchrony Account Info,Second SynchronyTerm,Second Synchrony Primary ID,Second Synchrony Issued State,Second Synchrony Expiretion Date,Third Payment Balance,Third Authorize Number,Third Purchase Order Number,Third Synchrony Account Number,Third Synchrony Application Key,Third Synchrony Account Info,Third Synchrony Term,Third Synchrony Primary ID,Third Synchrony Issued State,Third Synchrony Expiretion Date
"Sam's Club #8299 Plano, TX (TX)","Sam's Club #8299 Plano, TX (TX)",Xavier (Yussy) Flores,123205,12/22/2019 9:05:08 AM,Ali Kashanian,TX,75035,Relax 2 Zero 3D for Sam's,Demo (Box) Brown[-500],Demo,1,354.59,4298.00,4652.59,Purchase Order,,,"5 years parts, 1 year labor ($300)","Relax 2 Zero 3D for Sam's,",No,,Scheduled,,,"*Free Gift VITALITY PLATE upon delivery.
Original received-Erika 12/23/19 pls confirm chair color the invoice says black
Printed - Tina 12/23/2019
Called customer and they confirmed that the chair color was BLACK, Scheduled for 12/23/2019 2-4PM Monday - Tina 12/23/2019",TX,0,8.25,DWA-9060DWA-9060BR-DEMO (Box),0.00,,5713960593355440461611,,,,,,,/,0.00,,,,,,,,,/,0.00,,,,,,,,,/
