﻿Date,Customer Name,State,Zipcode,Description,Product Number,Color,Product Status,Net,Shipping Fee,Gift Price,Financing Processing Fee,Order Total,Total Before Tax,Tax,Commission,Primary Payment Method,Primary Payment Balance,Primary Authorize Number,Primary Purchase Order Number,Primary Synchrony Account Number,Primary Synchrony Application Key,Primary Synchrony Account Info,Primary Synchrony Term,Second Payment Method,Second Payment Balance,Second Authorize Number,Second Purchase Order Number,Second Synchrony Account Number,Second Synchrony Application Key,Second Synchrony Account Info,Second Synchrony Term,Third Payment Method,Third Payment Balance,Third Authorize Number,Third Purchase Order Number,Third Synchrony Account Number,Third Synchrony Application Key,Third Synchrony Account Info,Third Synchrony Term,Delivery Date,Pick up,Warranty,Status,Chair Type,Original Event Name,Event Name,Synchrony Notes,Order Notes,Order Number,Private Note,Branch,No Tax,Actual Tax Rate
9/15/2018 5:05:08 PM,Karen Tobok,WI,53005,Legacy for Sam's,DWA-9100DWA-9100SB-DEMO,Demo Sienna Brown,Demo,,,,,3782.55,3599.00,183.55,Miku Yamaguchi,PurchaseOrder,0.00,,Tc 0961 7746 3523 6173 5337 24,,,,,,0.00,,,,,,,,0.00,,,,,,,9/24/2018 12:00:00 AM,No,"3 years parts, 1 year labor (Free)",Delivered,,"Sam's Club #8164 Waukesha, WI 9/13-16/18 (IL)","Sam's Club #8164 Waukesha, WI 9/13-16/18 (IL)",,,109392,9/17Maritza Courtesy call @ 4:26PM,TX,0,5.10
9/15/2018 5:11:22 PM,BRIAN Laak,WI,53066,Shogun Neck & Back Massger,USJ-874USJ-874,New,New,,,,,210.18,199.98,10.20,Miku Yamaguchi,PurchaseOrder,0.00,,Tc 4390 6651 6468 0993 64986,,,,,,0.00,,,,,,,,0.00,,,,,,,,YES,"2 years parts, 1 year labor for Small Items",Delivered,,"Sam's Club #8164 Waukesha, WI 9/13-16/18 (IL)","Sam's Club #8164 Waukesha, WI 9/13-16/18 (IL)",,,109393,,TX,0,5.10
9/17/2018 8:31:45 AM,Carol Weaver,WI,53227,Foot Vibe Pro,USJ-871,,New,,,,,115.60,109.99,5.61,Miku Yamaguchi,PurchaseOrder,0.00,,9437 9974 9765 6152 22149,,,,,,0.00,,,,,,,,0.00,,,,,,,,YES,"2 years parts, 1 year labor (Free)",Delivered,,"Sam's Club #8164 Waukesha, WI 9/13-16/18 (IL)","Sam's Club #8164 Waukesha, WI 9/13-16/18 (IL)",,,109483,,TX,0,5.10
9/17/2018 10:39:23 AM,Rong Liu,WI,53045,Shogun Neck & Back Massger,USJ-874USJ-874,New,New,,,,,210.18,199.98,10.20,Miku Yamaguchi,PurchaseOrder,0.00,,9736 6564 1931 8084 1809 5,,,,,,0.00,,,,,,,,0.00,,,,,,,,YES,"2 years parts, 1 year labor (Free)",Delivered,,"Sam's Club #8164 Waukesha, WI 9/13-16/18 (IL)","Sam's Club #8164 Waukesha, WI 9/13-16/18 (IL)",,,109495,,TX,0,5.10
9/18/2018 12:51:23 PM,Curtis Otto,WI,53130,Pegasus for Sam's,DWA-9400Pegasus-BR-NEW,New Choco,New,,,,,5778.40,5498.00,280.40,Miku Yamaguchi,PurchaseOrder,0.00,,Tc 5842 2123 9509 4383 9418 02,,,,,,0.00,,,,,,,,0.00,,,,,,,9/24/2018 12:00:00 AM,No,"3 years parts, 1 year labor (Free)",Delivered,,"Sam's Club #8164 Waukesha, WI 9/13-16/18 (IL)","Sam's Club #8164 Waukesha, WI 9/13-16/18 (IL)",,,109554,"Please inform warranty is  3 years parts, 1 year labor ( sales rep put 2 yrs parts, 1 yr labor on invoice mistakely)
9/19Maritza Courtesy call @ 3:25PM informed him of the 3 years parts 1 year labor warranty.",TX,0,5.10
9/19/2018 4:43:22 PM,ARUNA Singh,WI,53045,Foot Vibe Pro,USJ-871,,New,,,,,115.60,109.99,5.61,Miku Yamaguchi,PurchaseOrder,0.00,,Tc 1613 7077 3104 5647 75640,,,,,,0.00,,,,,,,,0.00,,,,,,,,YES,"2 years parts, 1 year labor (Free)",Delivered,,"Sam's Club #8164 Waukesha, WI 9/13-16/18 (IL)","Sam's Club #8164 Waukesha, WI 9/13-16/18 (IL)",,,109572,,TX,0,5.10
9/22/2018 11:05:11 AM,Michelle Venti,WI,53189,Legacy for Sam's,DWA-9100DWA-9100CH-DEMO,Demo Choco[-700],Demo,,,,,3782.55,3599.00,183.55,Miku Yamaguchi,PurchaseOrder,0.00,,Tc 8037 4191 2379 5614 2471 79,,,,,,0.00,,,,,,,,0.00,,,,,,,,No,"3 years parts, 1 year labor (Free)",Scheduled,,"Sam's Club #8164 Waukesha, WI 9/13-16/18 (IL)","Sam's Club #8164 Waukesha, WI 9/13-16/18 (IL)",,,109652,,TX,0,5.10
9/23/2018 11:48:47 AM,JOSEPH Jarvis,WI,53045,Legacy for Sam's,DWA-9100DWA-9100CH-DEMO,Demo Choco[-700],Demo,,,,,3782.55,3599.00,183.55,Miku Yamaguchi,PurchaseOrder,0.00,,Tc 8037 4191 2379 5614 2471 79,,,,,,0.00,,,,,,,,0.00,,,,,,,10/7/2018 12:00:00 AM,No,"3 years parts, 1 year labor (Free)",Delivered,,"Sam's Club #8164 Waukesha, WI 9/13-16/18 (IL)","Sam's Club #8164 Waukesha, WI 9/13-16/18 (IL)",,,109716,called 9/26/2018 June,TX,0,5.10
9/23/2018 11:58:10 AM,Lidia Sobierajski,WI,53186,Relax 2 Zero 2.0 for Sam's,USJ-9050USJ-9050BR-DEMO,Demo Brown[-701],Demo,,,,,3362.15,3199.00,163.15,Miku Yamaguchi,PurchaseOrder,0.00,,Tc 7796 4459 4399 1806 4580 95,,,,,,0.00,,,,,,,,0.00,,,,,,,,No,"3 years parts, 1 year labor (Free)",Scheduled,,"Sam's Club #8164 Waukesha, WI 9/13-16/18 (IL)","Sam's Club #8164 Waukesha, WI 9/13-16/18 (IL)",,,109717,,TX,0,5.10
