﻿Original Event Name,Event Name,Sales Person,Order Number,Order Date,Customer Name,State,Zip,Product Name,Color,Product Status,QTY,Tax,Total Before Tax,Order Total,Primary Payment Method,Second Payment Method,Thirdl Payment Method,Warranty,Order Items,Pick up,Delivered On,Order Status,Chair Type,Order Notes,Private Note,Branch,No Tax,Actual Tax Rate,SKU,Primary Payment Balance,Primary Authorize Number,Primary Purchase Order Number,Primary Synchrony Account Number,Primary Synchrony Application Key,Primary Synchrony Account Info,Primary Synchrony Term,Second Payment Balance,Second Authorize Number,Second Purchase Order Number,Second Synchrony Account Number,Second Synchrony Application Key,Second Synchrony Account Info,Second SynchronyTerm,Third Payment Balance,Third Authorize Number,Third Purchase Order Number,Third Synchrony Account Number,Third Synchrony Application Key,Third Synchrony Account Info,Third Synchrony Term
Sam's Club #6261 Las Vegas 5/23-6/2/19 (NV),Sam's Club #6261 Las Vegas 5/23-6/2/19 (NV),Rolly San Jose,117551,5/24/2019 5:08:43 PM,Sariya Tainguong,NV,89074,Legacy for Sam's,New Choco,New,1,0.00,4608.07,4608.07,Sam’s Club Synchrony,,,"5 years parts, 1 year labor (Free)","Legacy for Sam's,",No,,Assigned,,,"Pls deliver within 2 weeks from today, May 24

Original Received Erika 5/28/19 10:55 am",NV,1,8.25,DWA-9100DWA-9100CH,4608.07,,,,,,,0.00,,,,,,,0.00,,,,,,
Sam's Club #6261 Las Vegas 5/23-6/2/19 (NV),Sam's Club #6261 Las Vegas 5/23-6/2/19 (NV),Rolly San Jose,117624,5/28/2019 1:39:26 AM,Anthony Do,NV,89123,Relax 2 Zero 2.0 for Sam's,New Black,New,1,0.00,4221.75,4221.75,Credit Card,,,"5 years parts, 1 year labor (Free)","Relax 2 Zero 2.0 for Sam's,",No,,Assigned,,,"Pls ship with the chair 1 free dual tapper. Deliver within 2 weeks from May 27

Original Received.  Erika 5/28/19 11:00 am",NV,1,8.25,USJ-9050USJ-9050BL,4221.75,TC# 0470546604677671355364,,,,,,0.00,,,,,,,0.00,,,,,,
Sam's Club #6261 Las Vegas 5/23-6/2/19 (NV),Sam's Club #6261 Las Vegas 5/23-6/2/19 (NV),Rolly San Jose,117625,5/28/2019 1:43:10 AM,Daniel Torres,NV,89074,Foot Vibe Pro,,New,1,0.00,109.99,109.99,Credit Card,,,"2 years parts, 1 year labor (Free)","Foot Vibe Pro,",YES,,Delivered,,,Unit was picked up,NV,1,8.25,USJ-871,119.06,TC# 645066004677673385374,,,,,,0.00,,,,,,,0.00,,,,,,
Sam's Club #6261 Las Vegas 5/23-6/2/19 (NV),Sam's Club #6261 Las Vegas 5/23-6/2/19 (NV),Rolly San Jose,117647,5/28/2019 6:47:14 PM,Seema Virdi,NV,89052,Legacy for Sam's,New Choco,New,1,0.00,4653.67,4653.67,Credit Card,,,"5 years parts, 1 year labor (Free)","Legacy for Sam's,",No,,Assigned,,,"Deliver within 2 weeks from May 28.
Original received. Erika 5/29/19 8:56am",NV,1,8.25,DWA-9100DWA-9100CH,4653.67,TC# 6287149668963930224287,,,,,,0.00,,,,,,,0.00,,,,,,
Sam's Club #6261 Las Vegas 5/23-6/2/19 (NV),Sam's Club #6261 Las Vegas 5/23-6/2/19 (NV),Rolly San Jose,117671,5/29/2019 6:25:19 PM,Bang hee Myung,NV,89052,Legacy for Sam's,New Choco,New,1,0.00,4221.73,4221.73,Credit Card,,,"5 years parts, 1 year labor (Free)","Legacy for Sam's,",No,,Assigned,,,Original received. Erika 5/30/19 10:35am,NV,1,8.25,DWA-9100DWA-9100CH,4221.75,TC# 4888587340755752011078,,,,,,0.00,,,,,,,0.00,,,,,,
Sam's Club #6261 Las Vegas 5/23-6/2/19 (NV),Sam's Club #6261 Las Vegas 5/23-6/2/19 (NV),Rolly San Jose,117672,5/29/2019 6:29:07 PM,Atnafu Hutado,NV,89118,Foot Vibe Pro,,New,1,0.00,109.99,109.99,Credit Card,,,"2 years parts, 1 year labor (Free)","Foot Vibe Pro,",YES,,Delivered,,,,NV,1,8.25,USJ-871,119.06,TC# 310533470390306616605,,,,,,0.00,,,,,,,0.00,,,,,,
Sam's Club #6261 Las Vegas 5/23-6/2/19 (NV),Sam's Club #6261 Las Vegas 5/23-6/2/19 (NV),Rolly San Jose,117673,5/30/2019 2:00:36 AM,Thuy Nguyen,NV,89074,Relax 2 Zero 2.0 for Sam's,New Brown,New,1,0.00,4221.75,4221.75,Credit Card,,,"5 years parts, 1 year labor (Free)","Relax 2 Zero 2.0 for Sam's,",No,,Assigned,,,"Pls deliver free dual tapper with the chair within 2 weeks from May 29.
Original Received. 5/30/19 10:37am",NV,1,8.25,USJ-9050USJ-9050BR,4221.75,TC# 7515053575319308644635,,,,,,0.00,,,,,,,0.00,,,,,,
