﻿Original Event Name,Event Name,Sales Person,Order Number,Order Date,Customer Name,State,Zip,Product Name,Color,Product Status,QTY,Tax,Total Before Tax,Order Total,Primary Payment Method,Second Payment Method,Thirdl Payment Method,Warranty,Order Items,Pick up,Delivered On,Order Status,Chair Type,Order Notes,Private Note,Branch,No Tax,Actual Tax Rate,SKU,Primary Payment Balance,Primary Authorize Number,Primary Purchase Order Number,Primary Synchrony Account Number,Primary Synchrony Application Key,Primary Synchrony Account Info,Primary Synchrony Term,Second Payment Balance,Second Authorize Number,Second Purchase Order Number,Second Synchrony Account Number,Second Synchrony Application Key,Second Synchrony Account Info,Second SynchronyTerm,Third Payment Balance,Third Authorize Number,Third Purchase Order Number,Third Synchrony Account Number,Third Synchrony Application Key,Third Synchrony Account Info,Third Synchrony Term
"Sam's Club #6423 Wallkill, NY 5/2-12/19 (IL)","Sam's Club #6423 Wallkill, NY 5/2-12/19 (IL)",Gregory Hickey,117166,5/5/2019 5:24:45 PM,Denise Cohen,NY,10941,Foot Vibe Pro,,New,1,56.06,689.96,746.02,Credit Card,,,"2 years parts, 1 year labor for Small Items","Vitality Plate for Sam's,Shogun Neck &amp; Back Massger,Foot Vibe Pro,",No,,Assigned,,"Please mail ASAP both the VITALITY PLATE, and the FOOT VIBE.
Customer took the shogun with already..","5/6/19-WILL SHIP IT OUT FROM IL. -HITOMI
will update trk# once it is shipped -Hitomi",IL,0,8.13,USJ-871,746.02,TC 3309 1876 8877 4906 9819 2,,,,,,0.00,,,,,,,0.00,,,,,,
"Sam's Club #6423 Wallkill, NY 5/2-12/19 (IL)","Sam's Club #6423 Wallkill, NY 5/2-12/19 (IL)",Gregory Hickey,117166,5/5/2019 5:24:45 PM,Denise Cohen,NY,10941,Shogun Neck & Back Massger,Demo[-20],Demo,1,56.06,689.96,746.02,Credit Card,,,"2 years parts, 1 year labor for Small Items","Vitality Plate for Sam's,Shogun Neck &amp; Back Massger,Foot Vibe Pro,",No,,Assigned,,"Please mail ASAP both the VITALITY PLATE, and the FOOT VIBE.
Customer took the shogun with already..","5/6/19-WILL SHIP IT OUT FROM IL. -HITOMI
will update trk# once it is shipped -Hitomi",IL,0,8.13,USJ-874USJ-874-DEMO,746.02,TC 3309 1876 8877 4906 9819 2,,,,,,0.00,,,,,,,0.00,,,,,,
"Sam's Club #6423 Wallkill, NY 5/2-12/19 (IL)","Sam's Club #6423 Wallkill, NY 5/2-12/19 (IL)",Gregory Hickey,117166,5/5/2019 5:24:45 PM,Denise Cohen,NY,10941,Vitality Plate for Sam's,Demo[-60],Demo,1,56.06,689.96,746.02,Credit Card,,,"2 years parts, 1 year labor for Small Items","Vitality Plate for Sam's,Shogun Neck &amp; Back Massger,Foot Vibe Pro,",No,,Assigned,,"Please mail ASAP both the VITALITY PLATE, and the FOOT VIBE.
Customer took the shogun with already..","5/6/19-WILL SHIP IT OUT FROM IL. -HITOMI
will update trk# once it is shipped -Hitomi",IL,0,8.13,USJ-849USJ-849-DEMO,746.02,TC 3309 1876 8877 4906 9819 2,,,,,,0.00,,,,,,,0.00,,,,,,
"Sam's Club #6423 Wallkill, NY 5/2-12/19 (IL)","Sam's Club #6423 Wallkill, NY 5/2-12/19 (IL)",Gregory Hickey,117168,5/5/2019 5:32:36 PM,Sharon Anderson,NY,12561,Foot Vibe Pro,,New,1,8.94,109.99,118.93,Credit Card,,,"2 years parts, 1 year labor for Small Items","Foot Vibe Pro,",No,,Assigned,,NEED to mail the product ASAP.,"5/6/19-WILL SHIP IT OUT FROM IL. -HITOMI
will update trk# once it is shipped -Hitomi",IL,0,8.13,USJ-871,118.93,TC 7128 7738 4719 6568 5203 4,,,,,,0.00,,,,,,,0.00,,,,,,
"Sam's Club #6423 Wallkill, NY 5/2-12/19 (IL)","Sam's Club #6423 Wallkill, NY 5/2-12/19 (IL)",Gregory Hickey,117169,5/5/2019 5:40:03 PM,Jose Soto,NY,12543,Vitality Plate for Sam's,Demo[-60],Demo,1,32.50,399.99,432.49,Credit Card,,,"2 years parts, 1 year labor for Small Items","Vitality Plate for Sam's,",No,,Assigned,,NEED to mail the product ASAP.,"5/6/19-WILL SHIP IT OUT FROM IL. -HITOMI
will update trk# once it is shipped -Hitomi",IL,0,8.13,USJ-849USJ-849-DEMO,432.49,TC 7485 9325 1311 9005 7365 7,,,,,,0.00,,,,,,,0.00,,,,,,
"Sam's Club #6423 Wallkill, NY 5/2-12/19 (IL)","Sam's Club #6423 Wallkill, NY 5/2-12/19 (IL)",Gregory Hickey,117171,5/5/2019 5:45:26 PM,Michael Shoken,NY,11234,Vitality Plate for Sam's,Demo[-60],Demo,1,32.50,399.99,432.49,Credit Card,,,"2 years parts, 1 year labor for Small Items","Vitality Plate for Sam's,",No,,Assigned,,"NEED to mail the product ASAP.
Guest will cancel if it takes too long","5/6/19--WILL SHIP IT OUT FROM IL. -HITOMI
will update trk# once it is shipped -Hitomi",IL,0,8.13,USJ-849USJ-849-DEMO,432.49,TC 7285 9375 7341 9005 7865 7,,,,,,0.00,,,,,,,0.00,,,,,,
"Sam's Club #6423 Wallkill, NY 5/2-12/19 (IL)","Sam's Club #6423 Wallkill, NY 5/2-12/19 (IL)",Gregory Hickey,117172,5/5/2019 5:52:11 PM,Mayco Hernandez,NY,12779,Shogun Neck & Back Massger,Demo[-20],Demo,1,14.62,179.98,194.60,Credit Card,,,"2 years parts, 1 year labor for Small Items","Shogun Neck &amp; Back Massger,",No,,Delivered,,Customer took item with,5/6/19 Confirmed w/Gregory that item was picked up -Hitomi,IL,0,8.13,USJ-874USJ-874-DEMO,194.60,TC 1274 2193 9160 5203 8789 9,,,,,,0.00,,,,,,,0.00,,,,,,
"Sam's Club #6423 Wallkill, NY 5/2-12/19 (IL)","Sam's Club #6423 Wallkill, NY 5/2-12/19 (IL)",Gregory Hickey,117174,5/5/2019 5:56:59 PM,John White,NY,12549,Shogun Neck & Back Massger,Demo[-20],Demo,1,14.62,179.98,194.60,Credit Card,,,"2 years parts, 1 year labor for Small Items","Shogun Neck &amp; Back Massger,",YES,,Delivered,,Customer took item with,,IL,0,8.13,USJ-874USJ-874-DEMO,194.60,TC 4210 3654 4647 2794 4436 0,,,,,,0.00,,,,,,,0.00,,,,,,
"Sam's Club #6423 Wallkill, NY 5/2-12/19 (IL)","Sam's Club #6423 Wallkill, NY 5/2-12/19 (IL)",Gregory Hickey,117175,5/5/2019 6:03:35 PM,Michelle Vargas,NY,12783,Foot Vibe Pro,,New,1,8.94,109.99,118.93,Credit Card,,,"2 years parts, 1 year labor for Small Items","Foot Vibe Pro,",No,,Assigned,,NEED to mail the product ASAP.,"5/6/19--WILL SHIP IT OUT FROM IL. -HITOMI
will update trk# once it is shipped -Hitomi",IL,0,8.13,USJ-871,118.93,TC 6710 6654 0658 2724 7139 0,,,,,,0.00,,,,,,,0.00,,,,,,
"Sam's Club #6423 Wallkill, NY 5/2-12/19 (IL)","Sam's Club #6423 Wallkill, NY 5/2-12/19 (IL)",Gregory Hickey,117179,5/5/2019 7:46:48 PM,Jashubhai Chaudhary,NY,12747,Shogun Neck & Back Massger,New,New,1,16.25,199.98,216.23,Credit Card,,,"2 years parts, 1 year labor for Small Items","Shogun Neck &amp; Back Massger,",YES,,Delivered,,Customer took item with,,TX,0,8.13,USJ-874USJ-874,215.98,TC 7875 1365 3370 9045 5663 7,,,,,,0.00,,,,,,,0.00,,,,,,
"Sam's Club #6423 Wallkill, NY 5/2-12/19 (IL)","Sam's Club #6423 Wallkill, NY 5/2-12/19 (IL)",Gregory Hickey,117180,5/5/2019 7:54:25 PM,Steven Morra,NY,12701,Legacy 3D - Sam's Club,New Black,New,1,381.79,4699.00,5080.79,Credit Card,,,"3 years parts, 1 year labor (Free)","Vitality Plate for Sam's,Legacy 3D - Sam's Club,",No,,Called,,Deliver the Vitality Plate with the chair.  Thank you.,5/6/2019 Printed and courtesy message sent - Tina,TX,0,8.13,DWA-9150DWA-9150BL,5080.79,TC 1880 0969 4666 8277 4533 80,,,,,,0.00,,,,,,,0.00,,,,,,
"Sam's Club #6423 Wallkill, NY 5/2-12/19 (IL)","Sam's Club #6423 Wallkill, NY 5/2-12/19 (IL)",Gregory Hickey,117180,5/5/2019 7:54:25 PM,Steven Morra,NY,12701,Vitality Plate for Sam's,Demo[-60],Demo,1,381.79,4699.00,5080.79,Credit Card,,,"2 years parts, 1 year labor for Small Items","Vitality Plate for Sam's,Legacy 3D - Sam's Club,",No,,Called,,Deliver the Vitality Plate with the chair.  Thank you.,5/6/2019 Printed and courtesy message sent - Tina,TX,0,8.13,USJ-849USJ-849-DEMO,5080.79,TC 1880 0969 4666 8277 4533 80,,,,,,0.00,,,,,,,0.00,,,,,,
"Sam's Club #6423 Wallkill, NY 5/2-12/19 (IL)","Sam's Club #6423 Wallkill, NY 5/2-12/19 (IL)",Gregory Hickey,117205,5/6/2019 9:50:21 PM,Duk Paik,NY,12775,Orbit for Sam's ,Demo Choco(Box)[-300],Demo,1,219.21,2698.00,2917.21,Credit Card,,,"3 years parts, 1 year labor (Free)","Orbit for Sam's ,Shogun Neck &amp; Back Massger,",No,,Called,,Please send Shogun with Chair.,"Printed - Tina 5/8/2019
5/8Maritza- Courtesy message sent @ 9AM",TX,0,8.13,ORBT-1ORBT-1CH-BOX,2917.21,TC 1413 7502 1907 2344 1637 25,,,,,,0.00,,,,,,,0.00,,,,,,
"Sam's Club #6423 Wallkill, NY 5/2-12/19 (IL)","Sam's Club #6423 Wallkill, NY 5/2-12/19 (IL)",Gregory Hickey,117205,5/6/2019 9:50:21 PM,Duk Paik,NY,12775,Shogun Neck & Back Massger,New,New,1,219.21,2698.00,2917.21,Credit Card,,,"2 years parts, 1 year labor for Small Items","Orbit for Sam's ,Shogun Neck &amp; Back Massger,",No,,Called,,Please send Shogun with Chair.,"Printed - Tina 5/8/2019
5/8Maritza- Courtesy message sent @ 9AM",TX,0,8.13,USJ-874USJ-874,2917.21,TC 1413 7502 1907 2344 1637 25,,,,,,0.00,,,,,,,0.00,,,,,,
"Sam's Club #6423 Wallkill, NY 5/2-12/19 (IL)","Sam's Club #6423 Wallkill, NY 5/2-12/19 (IL)",Gregory Hickey,117221,5/7/2019 8:02:08 PM,Bill Shepard,PA,18337,Legacy 3D - Sam's Club,Demo(Box) Black[-700],Demo,1,324.92,3999.00,4323.92,Credit Card,,,"3 years parts, 1 year labor (Free)","Legacy 3D - Sam's Club,",No,,Assigned,,Set up in basement.  (man Cave),5/8Maritza- Courtesy message sent @ 9:04AM,TX,0,8.13,DWA-9150DWA-9150BL-Box,4323.92,TC 1091 9243 2847 6082 2815 01,,,,,,0.00,,,,,,,0.00,,,,,,
