﻿Original Event Name,Event Name,Sales Person,Order Number,Order Date,Customer Name,State,Zip,Product Name,Color,Product Status,QTY,Tax,Total Before Tax,Order Total,Primary Payment Method,Second Payment Method,Thirdl Payment Method,Warranty,Order Items,Pick up,Delivered On,Order Status,Chair Type,Order Notes,Private Note,Branch,No Tax,Actual Tax Rate,SKU,Primary Payment Balance,Primary Authorize Number,Primary Purchase Order Number,Primary Synchrony Account Number,Primary Synchrony Application Key,Primary Synchrony Account Info,Primary Synchrony Term,Primary Synchrony Primary ID,Primary Synchrony Issued State,Primary Synchrony Expiretion Date,Second Payment Balance,Second Authorize Number,Second Purchase Order Number,Second Synchrony Account Number,Second Synchrony Application Key,Second Synchrony Account Info,Second SynchronyTerm,Second Synchrony Primary ID,Second Synchrony Issued State,Second Synchrony Expiretion Date,Third Payment Balance,Third Authorize Number,Third Purchase Order Number,Third Synchrony Account Number,Third Synchrony Application Key,Third Synchrony Account Info,Third Synchrony Term,Third Synchrony Primary ID,Third Synchrony Issued State,Third Synchrony Expiretion Date
"PNDC 6/20-21/19 Bellevue, WA","PNDC 6/20-21/19 Bellevue, WA",Scott Ishikawa,118200,6/22/2019 10:16:34 AM,Daniel Chong,WA,98059,PEGASUS 2 SMART,New Black,New,1,0.00,6900.00,6900.00,Credit Card,Credit Card,,"5 years parts, 3 years labor ($400)","PEGASUS 2 SMART,",No,6/27/2019 12:00:00 AM,Delivered,New,"COD $6,800","Hold until old chair is picked up by Costco.
SQ amount verified. Will place invoice on the hold folder. Erika 6/25/19
Scheduled for June 27, 2019 between 9am-11am
Delivery conf. completed. Paid in full. Erika 7/2/19 9:14am

Received & Confirmed the invoice and the delivery confirmation. 8/21/19 Riho",WA,1,10.00,PEGS-2PEGS-2-BL,100.00,Square #yNHj,,,,,,,,/,6800.00,#cFLv,,,,,,,,/,0.00,,,,,,,,,/
"PNDC 6/20-21/19 Bellevue, WA","PNDC 6/20-21/19 Bellevue, WA",Scott Ishikawa,118201,6/22/2019 10:34:31 AM,Lakewood Smile Dental Adam Yang,WA,98499,PEGASUS 2 SMART,New Choco,New,1,0.00,6900.00,6900.00,Synchrony,,,"5 years parts, 3 years labor ($400)","PEGASUS 2 SMART,",No,6/24/2019 12:00:00 AM,Delivered,New,,Original Synchrony received. Account has been charged for the amount of $6900 and delivered already. Delivery conf. completed. Sales draft received. Synchrony auth #023065. Erika 6/25/19 11:24am,WA,1,10.00,PEGS-2PEGS-2-BR,6900.00,,,6501723375200654,77156815,San Diego,36 months,Driver’s License,WA,04/2024,0.00,,,,,,,,,/,0.00,,,,,,,,,/
"PNDC 6/20-21/19 Bellevue, WA","PNDC 6/20-21/19 Bellevue, WA",Scott Ishikawa,118202,6/22/2019 10:46:16 AM,Parvin Abedi,WA,98388,PEGASUS 2 SMART,New Black,New,1,0.00,6900.00,6900.00,Credit Card,COD,,"5 years parts, 3 years labor ($400)","PEGASUS 2 SMART,",No,,Cancelled,,Added 2 addition years on Labor Warranty.,Please Mention added warranty on courtesy call.,Not Dispatched,1,10.00,PEGS-2PEGS-2-BL,100.00,Square #GOwl,,,,,,,,/,6800.00,,,,,,,,,/,0.00,,,,,,,,,/
"PNDC 6/20-21/19 Bellevue, WA","PNDC 6/20-21/19 Bellevue, WA",Scott Ishikawa,118203,6/22/2019 10:53:01 AM,Mark Stockwell,WA,98208,PEGASUS 2 SMART,New Black,New,1,0.00,6900.00,6900.00,Credit Card,COD,,"5 years parts, 3 years labor ($400)","PEGASUS 2 SMART,",No,,Cancelled,,,"Hold do not call.  Customer will call Scott.
Make appointment for wife to come to office.
SQ amount verified. Will place invoice on the hold folder. Erika 6/25/19
Chair does not fit in House or office.  Cancelled chair on 6/28/2019.
Reversed charge on SQ of $100 on 6/28/2019 by Scott",WA,1,10.00,PEGS-2PEGS-2-BL,100.00,Square #Asbj,,,,,,,,/,6800.00,,,,,,,,,/,0.00,,,,,,,,,/
"PNDC 6/20-21/19 Bellevue, WA","PNDC 6/20-21/19 Bellevue, WA",Scott Ishikawa,118208,6/22/2019 11:04:53 AM,Terr Puett,WA,98723,Legacy 3D,New Black,New,1,0.00,4800.00,4800.00,Credit Card,COD,,"5 years parts, 3 years labor ($400)","Legacy 3D,",No,,Hold,,,"Hold Customer's Husband will come to office try and fill out Synchrony forms.
36 months 0%
SQ amount verified. Will place invoice on the hold folder. Erika 6/25/19",WA,1,10.00,DWA-9150USJ-9150BL,25.00,Square #OEqg,,,,,,,,/,4775.00,,,,,,,,,/,0.00,,,,,,,,,/
"PNDC 6/20-21/19 Bellevue, WA","PNDC 6/20-21/19 Bellevue, WA",Scott Ishikawa,118209,6/22/2019 11:11:50 AM,Young Park,WA,98056,Legacy 3D,New Choco,New,1,0.00,4800.00,4800.00,Credit Card,Synchrony,,"5 years parts, 3 years labor ($400)","Legacy 3D,",No,6/24/2019 12:00:00 AM,Delivered,New,"Hold, customer's wife will come to office to try and fill out synchrony forms.
36 months 0%","Scheduled June 24 2019 at 4pm
Synchrony signed and processed on June 23 2019
-SQ amount verified, $25. Synchrony account verified, sales draft received and was charged already amount of $4775.  Delivery conf received and completed. Auth#023319 Erika 6/25/19 11:39am",WA,1,10.00,DWA-9150USJ-9150CH,25.00,Square #7FaH,,,,,,,,/,4775.00,,,6501723375203773,77215489,San Diego,36 months,Driver’s License,WA,09/2020,0.00,,,,,,,,,/
"PNDC 6/20-21/19 Bellevue, WA","PNDC 6/20-21/19 Bellevue, WA",Scott Ishikawa,118210,6/22/2019 11:19:17 AM,MeeAe Hong,WA,98087,Legacy 3D,New Choco,New,1,0.00,4800.00,4800.00,Credit Card,COD,,"5 years parts, 3 years labor ($400)","Legacy 3D,",No,,Hold,,,"Hold, husband will come to office and try chair.
SQ amount verified. Will place invoice on the hold folder. Erika 6/25/19",WA,1,10.00,DWA-9150USJ-9150CH,20.00,Square #915N,,,,,,,,/,4780.00,,,,,,,,,/,0.00,,,,,,,,,/
"PNDC 6/20-21/19 Bellevue, WA","PNDC 6/20-21/19 Bellevue, WA",Scott Ishikawa,118211,6/22/2019 11:28:47 AM,Michelle Miller,WA,98031,PEGASUS 2 SMART,New Black,New,1,0.00,5900.00,5900.00,Credit Card,COD,,"5 years parts, 3 years labor ($400)","PEGASUS 2 SMART,",No,,Cancelled,,"$1,000 discount for trade in.","Hold, husband will come to office and try chair first.
$1,000 discount for Loyalty Trade In.
Please pick up old chair.
SQ amount verified. Will place invoice on the hold folder. Erika 6/25/19
Order was cancelled.  Scott Refunded $100 July 4th 2019.",WA,1,10.00,PEGS-2PEGS-2-BL,100.00,Square #YiyF,,,,,,,,/,5800.00,,,,,,,,,/,0.00,,,,,,,,,/
"PNDC 6/20-21/19 Bellevue, WA","PNDC 6/20-21/19 Bellevue, WA",Scott Ishikawa,118243,6/23/2019 5:48:53 PM,Parvin Abedi,WA,98388,PEGASUS 2 SMART,New Choco,New,1,0.00,5000.00,5000.00,Credit Card,Cash,,"3 years parts, 2 years labor ($200)","PEGASUS 2 SMART,",No,6/24/2019 12:00:00 AM,Delivered,New,,"Warranty is 5 yearrs parts and 2 yrs labors. 
Scheduled June 24 2019 10am-12pm
Cash Deal Discount.
Original received. SQ. amount verified $100. $4900 was collected @ delivery. Delivery conf received. Paid in full. $5000. Erika 6/25/19 11:32am

Received & Confirmed the invoice and the delivery confirmation. Confirmed Scott's sign for the COD $4,900 cash.  8/23/19 Riho",WA,1,10.00,PEGS-2PEGS-2-BR,100.00,Square #GOwI,,,,,,,,/,4900.00,,,,,,,,,/,0.00,,,,,,,,,/
"PNDC 6/20-21/19 Bellevue, WA","PNDC 6/20-21/19 Bellevue, WA",Scott Ishikawa,118707,7/15/2019 12:08:26 PM,Bang Yi,CA,98271,Legacy 3D,New Choco,New,1,0.00,4800.00,4800.00,Credit Card,Credit Card,,"5 years parts, 3 years labor ($400)","Legacy 3D,Tourmaline Pad for Legacy 3D,",No,7/21/2019 12:00:00 AM,Delivered,New,,"Schedule after July 20th, 2019
Referral PNDC Dr. Young Park
-Original received. SQ. amount verified. remaining balance $4700. COD @ delivery. PLS NOTE ITS WA STATE. Erika 7/17/19 8:51am
Courtesy call completed - Cristina 07/19/19
Delivered on 7/21/19  - Yoko

Confirmed customer signature on invoice. COD $4,700 confirmed on SQ #eBMC.
Attached delivery confirmation to invoice, verified delivery and payment, marked as delivered and passed complete invoice to Erika - Arisa 8/1/19 12:00pm

Received & Confirmed the invoice and the delivery confirmation. Payment details for COD hasn't updated, so I verified the payment and updated. 8/16/19 Riho",WA,1,10.00,DWA-9150USJ-9150CH,100.00,Square #mNX7,,,,,,,,/,4700.00,eBMC,,,,,,,,/,0.00,,,,,,,,,/
"PNDC 6/20-21/19 Bellevue, WA","PNDC 6/20-21/19 Bellevue, WA",Scott Ishikawa,118758,7/17/2019 6:40:25 PM,YOUNG LIM,WA,98056,Legacy 3D,New Choco,New,1,0.00,4800.00,4800.00,Synchrony,,,"5 years parts, 3 years labor ($400)","Legacy 3D,",No,7/21/2019 12:00:00 AM,Delivered,New,,"SCHEDULED FOR SUN 7/21/2019

Attached delivery confirmation to invoice, verified delivery and payment, marked as delivered and passed complete invoice to Erika - Arisa 8/1/19 11:49am",WA,1,10.00,DWA-9150USJ-9150CH,4800.00,,,6501723375238514,78362489,Las Vegas,36 months,Driver’s License,WA,01/2026,0.00,,,,,,,,,/,0.00,,,,,,,,,/
