﻿Date,Customer Name,State,Zipcode,Description,Product Number,Color,Product Status,Net,Shipping Fee,Gift Price,Financing Processing Fee,Order Total,Total Before Tax,Tax,Commission,Primary Payment Method,Primary Payment Balance,Primary Authorize Number,Primary Purchase Order Number,Primary Synchrony Account Number,Primary Synchrony Application Key,Primary Synchrony Account Info,Primary Synchrony Term,Second Payment Method,Second Payment Balance,Second Authorize Number,Second Purchase Order Number,Second Synchrony Account Number,Second Synchrony Application Key,Second Synchrony Account Info,Second Synchrony Term,Third Payment Method,Third Payment Balance,Third Authorize Number,Third Purchase Order Number,Third Synchrony Account Number,Third Synchrony Application Key,Third Synchrony Account Info,Third Synchrony Term,Delivery Date,Pick up,Warranty,Status,Chair Type,Original Event Name,Event Name,Synchrony Notes,Order Notes,Order Number,Private Note,Branch,No Tax,Actual Tax Rate
1/17/2018 2:51:58 PM,Hunter Jerome Weakley,AZ,85373,Legacy for Sam's,DWA-9100DWA-9100SB,Sienna Brown,New,,,,,3930.11,3599.00,331.11,Laser Howell,PurchaseOrder,0.00,,3473-5803-0520-2160-3455-48,,,,,,0.00,,,,,,,,0.00,,,,,,,1/25/2018 12:00:00 AM,No,"3 years parts, 1 year labor (Free)",Delivered,,Sam's Club #4732 Glendale (AZ),Sam's Club #4732 Glendale (AZ),,"Please Deliver new chair.
Please confirm color of chair upon scheduling set up date/time w/ customer/s.",103053,01/18/18-Cristina- re dispatched to LV per Hide's Request.,NV,0,9.20
1/17/2018 3:04:50 PM,Zerita Woody,AZ,85308,Legacy for Sam's,DWA-9100DWA-9100CH,Choco,New,,,,,3930.11,3599.00,331.11,Laser Howell,PurchaseOrder,0.00,,5214-6513-1109-0342-5369-46,,,,,,0.00,,,,,,,,0.00,,,,,,,1/31/2018 12:00:00 AM,No,"3 years parts, 1 year labor (Free)",Delivered,,Sam's Club #4732 Glendale (AZ),Sam's Club #4732 Glendale (AZ),,Please deliver a New chair,103054,"re-dispatched CA 1/24/18 Hitomi
01/26/18-printed",CA,0,9.20
1/18/2018 11:13:23 AM,Kelly Weiss,AZ,85308,Legacy for Sam's,DWA-9100DWA-9100CH,Choco,New,,,,,3930.11,3599.00,331.11,Laser Howell,PurchaseOrder,0.00,,7166-2752-5634-5905-7598-32,,,,,,0.00,,,,,,,,0.00,,,,,,,1/31/2018 12:00:00 AM,No,"3 years parts, 1 year labor (Free)",Delivered,,Sam's Club #4732 Glendale (AZ),Sam's Club #4732 Glendale (AZ),,"please deliver brand new chair.
& please confirm chair color upon scheduling the delivery date and time.",103065,"re-dispatched CA 1/24/18
01/26/18-printed",CA,0,9.20
1/19/2018 10:43:14 AM,Amanda Hadaway,AZ,85388,Legacy for Sam's,DWA-9100DWA-9100CH,Choco,New,,,,,3930.11,3599.00,331.11,Laser Howell,PurchaseOrder,0.00,,5234-4514-1402-7341-5129-06,,,,,,0.00,,,,,,,,0.00,,,,,,,2/1/2018 12:00:00 AM,No,"3 years parts, 1 year labor (Free)",Delivered,,Sam's Club #4732 Glendale (AZ),Sam's Club #4732 Glendale (AZ),,please deliver brand new chair.,103084,"01/24/18- redispatched to CA
01/26/18-printed",CA,0,9.20
1/20/2018 6:24:18 PM,Lester Hochstetler,AZ,85383,Legacy for Sam's,DWA-9100DWA-9100CH,Choco,New,,,,,4694.51,4299.00,395.51,Laser Howell,PurchaseOrder,0.00,,5294-0218-3805-0340-5049-26,,,,,,0.00,,,,,,,,0.00,,,,,,,2/1/2018 12:00:00 AM,No,"3 years parts, 1 year labor (Free)",Delivered,,Sam's Club #4732 Glendale (AZ),Sam's Club #4732 Glendale (AZ),,please deliver brand new chair,103104,"re-dispatched CA 1/24/18 Hitomi
01/26/18-printed",CA,0,9.20
1/23/2018 9:50:49 AM,Machelle Eller,AZ,85048,Vitality Plate for Sam's,USJ-849USJ-849,New,New,,,,,459.99,459.99,0.00,Harmony Daiwa,CreditCard,0.00,,,,,,,,0.00,,,,,,,,0.00,,,,,,,,YES,"3 years parts, 1 year labor (Free)",Delivered,,Sam's Club #4732 Glendale (AZ),Sam's Club #4732 Glendale (AZ),,,103203,TC# 144184621684079476532 ..I don't see our store location in sams club Arizona for tax part,NV,1,9.20
3/19/2018 3:41:01 PM,Robert Johnson,UT,84321,Legacy for Sam's,DWA-9100DWA-9100BL,New Black,New,,,,,3930.11,3599.00,331.11,Laser Howell,PurchaseOrder,0.00,,4539-5488-3271-2154-5012-13,,,,,,0.00,,,,,,,,0.00,,,,,,,4/4/2018 12:00:00 AM,No,"3 years parts, 1 year labor (Free)",Delivered,,Sam's Club #4732 Glendale (AZ),Sam's Club #4732 Glendale (AZ),,"please deliver brand new Black Legacy
please confirm address upon scheduling delivery appointment",104626,,NV,0,9.20
