﻿Original Event Name,Event Name,Sales Person,Order Number,Order Date,Customer Name,State,Zip,Product Name,Color,Product Status,QTY,Tax,Total Before Tax,Order Total,Primary Payment Method,Second Payment Method,Thirdl Payment Method,Warranty,Order Items,Pick up,Delivered On,Order Status,Chair Type,Order Notes,Private Note,Branch,No Tax,Actual Tax Rate,SKU,Primary Payment Balance,Primary Authorize Number,Primary Purchase Order Number,Primary Synchrony Account Number,Primary Synchrony Application Key,Primary Synchrony Account Info,Primary Synchrony Term,Primary Synchrony Primary ID,Primary Synchrony Issued State,Primary Synchrony Expiretion Date,Second Payment Balance,Second Authorize Number,Second Purchase Order Number,Second Synchrony Account Number,Second Synchrony Application Key,Second Synchrony Account Info,Second SynchronyTerm,Second Synchrony Primary ID,Second Synchrony Issued State,Second Synchrony Expiretion Date,Third Payment Balance,Third Authorize Number,Third Purchase Order Number,Third Synchrony Account Number,Third Synchrony Application Key,Third Synchrony Account Info,Third Synchrony Term,Third Synchrony Primary ID,Third Synchrony Issued State,Third Synchrony Expiretion Date
New Orleans Dental (5/9-5/10/2019) TX,New Orleans Dental (5/9-5/10/2019) TX,Mario Higareda,117327,5/13/2019 2:57:08 PM,Karen Mouton,TX,77523,Legacy 4,Demo Black,Demo,1,0.00,3800.00,3800.00,Synchrony,,,"5 years parts, 1 year labor (Free)","Legacy 4,",No,5/28/2019 12:00:00 AM,Delivered,Demo,,"Please charge $3,800 for 36 months *CORRECTION Customer wanted BROWN CHOCO LEGACY 4 Demo* - Tina 5/15/2019
Requested originals- Cristina 05/13 2:59 pm
Originals verified available credit $9000 please charge account upon delivery and have sales draft signed- Cristina 05/15/19 9pm
5/16Maritza- Courtesy message sent @ 11:17AM
5/16 - Alysa - Customer confirmed delivery Wed. 5/22 between 4-8PM
06/17 Delivery confirmation received - Cristina 5:14 pm",TX,1,9.45,LGCY-4LGCY-4BL-DEMO,0.00,,,6501723375142773,75299880,Huston,36 months,,,,0.00,,,,,,,,,,0.00,,,,,,,,,
