﻿Original Event Name,Event Name,Sales Person,Order Number,Order Date,Customer Name,State,Zip,Product Name,Color,Product Status,QTY,Tax,Total Before Tax,Order Total,Primary Payment Method,Second Payment Method,Thirdl Payment Method,Warranty,Order Items,Pick up,Delivered On,Order Status,Chair Type,Order Notes,Private Note,Branch,No Tax,Actual Tax Rate,SKU,Primary Payment Balance,Primary Authorize Number,Primary Purchase Order Number,Primary Synchrony Account Number,Primary Synchrony Application Key,Primary Synchrony Account Info,Primary Synchrony Term,Second Payment Balance,Second Authorize Number,Second Purchase Order Number,Second Synchrony Account Number,Second Synchrony Application Key,Second Synchrony Account Info,Second SynchronyTerm,Third Payment Balance,Third Authorize Number,Third Purchase Order Number,Third Synchrony Account Number,Third Synchrony Application Key,Third Synchrony Account Info,Third Synchrony Term
AMERICA'S BEAUTY SHOW 3/30-4/1/19 CHICAGO (IL),AMERICA'S BEAUTY SHOW 3/30-4/1/19 CHICAGO (IL),Ilene Maynard,116338,4/1/2019 3:22:06 AM,Rebecca Yarnell,OH,45875,Legacy 3D,New Black,New,1,0.00,4900.00,4900.00,Synchrony,,,"5 years parts, 1 year labor (Free)","Legacy 3D,",No,,Cancelled,,"Pls make finance $4500 purchase, thanks","4/1/19- will confirm sync- Hitomi 
4/2/19- Confirmed total amount is $4,500 . Revised to #116392 - Hitomi",Not Dispatched,1,10.25,DWA-9150USJ-9150BL,4500.00,,,6501723375085097,73423214,Las Vegas,36 months,0.00,,,,,,,0.00,,,,,,
AMERICA'S BEAUTY SHOW 3/30-4/1/19 CHICAGO (IL),AMERICA'S BEAUTY SHOW 3/30-4/1/19 CHICAGO (IL),Abagail Stirling,116339,4/1/2019 3:32:22 AM,Tammy Scott,IN,47725,Relax 2 Zero 3D,New Choco,New,1,0.00,4500.00,4500.00,Synchrony,,,"5 years parts, 1 year labor (Free)","Relax 2 Zero 3D,",No,,New,,"Pls make finance $4500 purchase, thanks","Dear Team : Could u pls help check synchrony account no is correct, thanks
4/1/19-will confirm sync - Hitomi
4/2/19-Confirmed SYNC$8,500 and original. ***Please charge $4,500/sales draft***-Hitomi",TX,1,10.25,DWA-9060USJ-9060BR,4500.00,,,6501723375088510,73423271,Las Vegas,36 months,0.00,,,,,,,0.00,,,,,,
MIAMI-DADE COUNTY FAIR 3/14-4/7/19 MIAMI (FL),MIAMI-DADE COUNTY FAIR 3/14-4/7/19 MIAMI (FL),Rodrigo Malabunga,116340,4/1/2019 6:09:38 AM,Maritza Miguez,FL,33135,Shogun Neck & Back Massger,New,New,1,0.00,199.98,199.98,CreditCard,,,"1 year parts, 1 year labor (Free)","Shogun Neck &amp; Back Massger,",YES,,Delivered,,,4/1/19-COnfirmed $200.00 in SQ. -Hitomi,FL,1,7.00,USJ-874USJ-874,200.00,KQKs,,,,,,0.00,,,,,,,0.00,,,,,,
MIAMI-DADE COUNTY FAIR 3/14-4/7/19 MIAMI (FL),MIAMI-DADE COUNTY FAIR 3/14-4/7/19 MIAMI (FL),Rodrigo Malabunga,116341,4/1/2019 6:15:28 AM,Lance Dorian,FL,33134,Ninja Leg Massager 2,New,New,1,0.00,299.98,299.98,CreditCard,,,"2 years parts, 1 year labor for Small Items","Ninja Leg Massager 2,",YES,,Delivered,,,4/1/19- Confirmed $300.00 in SQ.-Hitomi,FL,1,7.00,USJ-880,300.00,Sq #lKWB,,,,,,0.00,,,,,,,0.00,,,,,,
MIAMI-DADE COUNTY FAIR 3/14-4/7/19 MIAMI (FL),MIAMI-DADE COUNTY FAIR 3/14-4/7/19 MIAMI (FL),Rodrigo Malabunga,116342,4/1/2019 6:21:55 AM,Maria / Victor Penafiel,FL,33029,PEGASUS 2 SMART,New Choco,New,1,0.00,6500.00,6500.00,Synchrony,,,"5 years parts, 3 years labor ($400)","PEGASUS 2 SMART,",No,,Assigned,,,"2nd floor delivery/Deliver next week Monday or Tuesday the customer living for out of the country
4/1/19-Confirmed SYNC$7,200 under MARIA PENAFIEL and original. ***Please charge $6,500/sales draft***-Hitomi
CC, Jasmin Carrizales, 4/1/19, 4:20pm",FL,1,7.00,PEGS-2PEGS-2-BR,6500.00,,,6501723375085022,73419079,Las Vegas,36 months,0.00,,,,,,,0.00,,,,,,
"Sam's Club #8211 Douglasville, GA 3/28-4/7/19 (FL)","Sam's Club #8211 Douglasville, GA 3/28-4/7/19 (FL)",Alex Brackelsberg,116343,4/1/2019 6:35:11 AM,Ray Jury,FL,30135,Pegasus for Sam's,Demo Choco(Box)[-700],Demo,1,335.86,4798.00,5133.86,CreditCard,,,"3 years parts, 1 year labor (Free)","Pegasus for Sam's,",No,,Assigned,,Free vitality plate.,"CC, Jasmin Carrizales, 4/1/19, 4:17pm, VM",FL,0,7.00,DWA-9400Pegasus-BR-BOX,0.00,4947589333588932911187,,,,,,0.00,,,,,,,0.00,,,,,,
"Sam's Club #6444 Evanston, IL 3/21-31/19 (IL)","Sam's Club #6444 Evanston, IL 3/21-31/19 (IL)",Noni Ignacio,116344,4/1/2019 6:36:40 AM,Linnette Nieves,IL,60660,Legacy 3D - Sam's Club,Demo(Box) Black[-700],Demo,1,399.90,3999.00,4398.90,PurchaseOrder,,,"3 years parts, 1 year labor (Free)","Legacy 3D - Sam's Club,",No,,Assigned,,PLEASE DELIVER ASAP IF POSSIBLE. LOCAL DELIVERY,4/2Maritza- Courtesy message sent @ 9:10AM,TX,0,10.00,DWA-9150DWA-9150BL-Box,0.00,,TC# 3112-1627-8440-5364-3609-83,,,,,0.00,,,,,,,0.00,,,,,,
"Sam's Club #8211 Douglasville, GA 3/28-4/7/19 (FL)","Sam's Club #8211 Douglasville, GA 3/28-4/7/19 (FL)",Alex Brackelsberg,116345,4/1/2019 6:40:44 AM,Daniel Reyes,GA,30134,Relax 2 Zero 2.0 for Sam's,Demo (Box) Black[-701],Demo,1,223.93,3199.00,3422.93,CreditCard,,,"3 years parts, 1 year labor (Free)","Relax 2 Zero 2.0 for Sam's,",No,,Assigned,,,"CC, Jasmin Carrizales, 4/1/19, 4:15pm, VM",FL,0,7.00,USJ-9050USJ-9050BL-DEMO (Box),0.00,0161824478648480481722,,,,,,0.00,,,,,,,0.00,,,,,,
"Sam's Club #6444 Evanston, IL 3/21-31/19 (IL)","Sam's Club #6444 Evanston, IL 3/21-31/19 (IL)",Noni Ignacio,116346,4/1/2019 6:43:47 AM,Socorro Moreno,IL,60626,Ninja Leg Massager 2,Demo[-20.00],Demo,1,28.00,279.98,307.98,PurchaseOrder,,,"2 years parts, 1 year labor for Small Items","Ninja Leg Massager 2,",YES,,Delivered,,Pick up,,TX,0,10.00,USJ-880-Demo,0.00,,TC# 3563-2066-3219-5465-4178-5,,,,,0.00,,,,,,,0.00,,,,,,
"Sam's Club #6444 Evanston, IL 3/21-31/19 (IL)","Sam's Club #6444 Evanston, IL 3/21-31/19 (IL)",Noni Ignacio,116347,4/1/2019 6:49:53 AM,Socorro Moreno,IL,60626,Shogun Neck & Back Massger,New,New,1,20.00,199.98,219.98,PurchaseOrder,,,"2 years parts, 1 year labor (Free)","Shogun Neck &amp; Back Massger,",YES,,Delivered,,Pick up,,TX,0,10.00,USJ-874USJ-874,0.00,,TC# 3544-1144-5037-9249-2382-9,,,,,0.00,,,,,,,0.00,,,,,,
"Sam's Club #6444 Evanston, IL 3/21-31/19 (IL)","Sam's Club #6444 Evanston, IL 3/21-31/19 (IL)",Noni Ignacio,116348,4/1/2019 6:55:58 AM,Alfredo Flores,IL,60625,Vitality Plate for Sam's,Demo[-60],Demo,1,40.00,399.99,439.99,PurchaseOrder,,,"2 years parts, 1 year labor (Free)","Vitality Plate for Sam's,",YES,,Delivered,,Pick up,,TX,0,10.00,USJ-849USJ-849-DEMO,0.00,,TC# 5563-3016-0222-5445-4774-5,,,,,0.00,,,,,,,0.00,,,,,,
"Sam's Club #6444 Evanston, IL 3/21-31/19 (IL)","Sam's Club #6444 Evanston, IL 3/21-31/19 (IL)",Noni Ignacio,116349,4/1/2019 7:03:44 AM,Kirby Rene,IL,60202,Shogun Neck & Back Massger,New,New,1,20.00,199.98,219.98,PurchaseOrder,,,"2 years parts, 1 year labor (Free)","Shogun Neck &amp; Back Massger,",YES,,Delivered,,Pick up,,TX,0,10.00,USJ-874USJ-874,0.00,,TC# 4690-6649-0841-0790-7437-0,,,,,0.00,,,,,,,0.00,,,,,,
"Sam's Club #6444 Evanston, IL 3/21-31/19 (IL)","Sam's Club #6444 Evanston, IL 3/21-31/19 (IL)",Noni Ignacio,116350,4/1/2019 7:09:47 AM,Kirby Rene,IL,60202,Vitality Plate for Sam's,Demo[-60],Demo,1,40.00,399.99,439.99,PurchaseOrder,,,"2 years parts, 1 year labor for Small Items","Vitality Plate for Sam's,",YES,,Delivered,,Pick up,,TX,0,10.00,USJ-849USJ-849-DEMO,0.00,,TC#5443-3026-9219-5445-4174-5,,,,,0.00,,,,,,,0.00,,,,,,
"Sam's Club #6444 Evanston, IL 3/21-31/19 (IL)","Sam's Club #6444 Evanston, IL 3/21-31/19 (IL)",Noni Ignacio,116351,4/1/2019 7:17:18 AM,Yawa Adsaley,IL,60626,Shogun Neck & Back Massger,New,New,1,20.00,199.98,219.98,PurchaseOrder,,,"2 years parts, 1 year labor for Small Items","Shogun Neck &amp; Back Massger,",YES,,Delivered,,Pick up,,TX,0,10.00,USJ-874USJ-874,0.00,,TC# 1863-0086-6242-5465-4774-5,,,,,0.00,,,,,,,0.00,,,,,,
"Sam's Club #6444 Evanston, IL 3/21-31/19 (IL)","Sam's Club #6444 Evanston, IL 3/21-31/19 (IL)",Noni Ignacio,116352,4/1/2019 7:22:47 AM,Hafeez Abbasi,IL,60077,Shogun Neck & Back Massger,Demo[-20],Demo,1,18.00,179.98,197.98,PurchaseOrder,,,"2 years parts, 1 year labor for Small Items","Shogun Neck &amp; Back Massger,",YES,,Delivered,,Pick up,,TX,0,10.00,USJ-874USJ-874-DEMO,0.00,,TC# 3555-4342-0138-7027-0560-7,,,,,0.00,,,,,,,0.00,,,,,,
AMERICA'S BEAUTY SHOW 3/30-4/1/19 CHICAGO (IL),AMERICA'S BEAUTY SHOW 3/30-4/1/19 CHICAGO (IL),Ilene Maynard,116353,4/1/2019 7:24:30 AM,Lori Anne DiDonato,NC,28031,Legacy 3D,New Choco,New,1,0.00,4500.00,4500.00,CreditCard,Synchrony,,"5 years parts, 1 year labor (Free)","Legacy 3D,",No,,New,,,"4/1/19-Confirmed $500.00 in SQ. will confirm sync -Hitomi
4/2/19-Confirmed SYNC$6,500 and original. ***Please charge $4,000/sales draft*** -Hitomi",FL,1,10.25,DWA-9150USJ-9150CH,500.00,Sq# G5DC,,,,,,4000.00,,,6501723375085220,73427687,Las Vegas,36 months,0.00,,,,,,
Sam's Club #6257 Las Vegas 3/21-31/19 (NV),Sam's Club #6257 Las Vegas 3/21-31/19 (NV),Querubin Milanes,116354,4/1/2019 7:27:09 AM,Brenda Valdez,NV,89131,Legacy for Sam's,New Choco,New,1,354.67,4299.00,4653.67,CreditCard,,,"3 years parts, 1 year labor (Free)","Legacy for Sam's,",No,,Assigned,,,"Please Deliver a New Legacy Choco Chair. Thank you.
4/1/19-will confirm the chair model - Hitomi",NV,0,8.25,DWA-9100DWA-9100CH,4653.67,TC 3912 6524 8245 6767 5939 10,,,,,,0.00,,,,,,,0.00,,,,,,
"Sam's Club #6444 Evanston, IL 3/21-31/19 (IL)","Sam's Club #6444 Evanston, IL 3/21-31/19 (IL)",Noni Ignacio,116355,4/1/2019 7:27:57 AM,George Galvan,IL,60525,Shogun Neck & Back Massger,New,New,1,20.00,199.98,219.98,PurchaseOrder,,,"2 years parts, 1 year labor for Small Items","Shogun Neck &amp; Back Massger,",YES,,Delivered,,Pick up,,TX,0,10.00,USJ-874USJ-874,0.00,,TC# 9246-5590-9396-8108-1941-8,,,,,0.00,,,,,,,0.00,,,,,,
"Sam's Club #6444 Evanston, IL 3/21-31/19 (IL)","Sam's Club #6444 Evanston, IL 3/21-31/19 (IL)",Noni Ignacio,116356,4/1/2019 7:33:56 AM,Nestor Bolando,IL,60077,Shogun Neck & Back Massger,New,New,1,20.00,199.98,219.98,PurchaseOrder,,,"2 years parts, 1 year labor for Small Items","Shogun Neck &amp; Back Massger,",YES,,Delivered,,Pick up,,TX,0,10.00,USJ-874USJ-874,0.00,,TC# 7627-9911-4515-6316-3623-6,,,,,0.00,,,,,,,0.00,,,,,,
AMERICA'S BEAUTY SHOW 3/30-4/1/19 CHICAGO (IL),AMERICA'S BEAUTY SHOW 3/30-4/1/19 CHICAGO (IL),Ilene Maynard,116357,4/1/2019 7:49:10 AM,Simply Beautiful Salon/Danielle Withouse,MO,65101,Legacy 3D,New Black,New,1,0.00,4500.00,4500.00,Synchrony,,,"5 years parts, 1 year labor (Free)","Legacy 3D,",No,,New,,,"4/1/19-will confirm sync -Hitomi
4/2/19-Confirmed SYNC$8,500 under DANIELLE WITHOUSE and original. ***Please charge $4,500/sales draft ***-Hitomi",TX,1,10.25,DWA-9150USJ-9150BL,4500.00,,,6501723375085246,73428701,Las Vegas,36 months,0.00,,,6501723375085246,73428701,Las Vegas,36 months,0.00,,,,,,
"Sam's Club #8262 San Antonio, TX (3/28-4/7/2019)","Sam's Club #8262 San Antonio, TX (3/28-4/7/2019)",Javar Berton,116358,4/1/2019 8:11:02 AM,Brandilyn Makshanoff,TX,78109,Shogun Neck & Back Massger,New,New,1,0.00,199.98,199.98,CreditCard,,,"2 years parts, 1 year labor (Free)","Shogun Neck &amp; Back Massger,",YES,,Delivered,,,,TX,1,8.25,USJ-874USJ-874,216.48,TC# 3024-4144-3032-3208-9745-3,,,,,,0.00,,,,,,,0.00,,,,,,
"Sam's Club #8262 San Antonio, TX (3/28-4/7/2019)","Sam's Club #8262 San Antonio, TX (3/28-4/7/2019)",Javar Berton,116359,4/1/2019 8:23:27 AM,Joshua Smith,TX,78239,Orbit for Sam's ,New Choco,New,1,0.00,2998.00,2998.00,CreditCard,,,"3 years parts, 1 year labor (Free)","Orbit for Sam's ,",No,,New,,,,TX,1,8.25,ORBT-1ORBT-1CH,0.00,TC# 4659-7287-9971-4692-1415-06,,,,,,0.00,,,,,,,0.00,,,,,,
"Sam's Club #8208 Lenexa, KS (3/21-3/31/2019) TX","Sam's Club #8208 Lenexa, KS (3/21-3/31/2019) TX",Rolly San Jose,116360,4/1/2019 9:09:16 AM,Yanet Escorcia,KS,66215,Ninja Leg Massager 2,New,New,1,0.00,299.98,299.98,CreditCard,,,"2 years parts, 1 year labor (Free)","Ninja Leg Massager 2,",YES,,Delivered,,,,TX,1,10.48,USJ-880,0.00,TC# 322310849254643227661,,,,,,0.00,,,,,,,0.00,,,,,,
"Sam's Club #8208 Lenexa, KS (3/21-3/31/2019) TX","Sam's Club #8208 Lenexa, KS (3/21-3/31/2019) TX",Rolly San Jose,116361,4/1/2019 9:16:30 AM,Eddy Henriquez,KS,66102,Relax 2 Zero 2.0 for Sam's,New Brown,New,1,0.00,4264.65,4264.65,CreditCard,,,"3 years parts, 1 year labor (Free)","Relax 2 Zero 2.0 for Sam's,",No,,New,,,"Forgot to get copy of the receipt but I got the TC#
4/1/19-**Please let Rolly know once the schedule is made **-Hitomi
Printed - Tina 4/1/2019",TX,1,10.48,USJ-9050USJ-9050BR,4264.65,TC# 8916545116381016355090,,,,,,0.00,,,,,,,0.00,,,,,,
"Sam's Club #8208 Lenexa, KS (3/21-3/31/2019) TX","Sam's Club #8208 Lenexa, KS (3/21-3/31/2019) TX",Rolly San Jose,116362,4/1/2019 9:24:44 AM,Annette Walker,KS,66030,Relax 2 Zero 2.0 for Sam's,New Brown,New,1,0.00,4264.65,4264.65,CreditCard,,,"5 years parts, 1 year labor (Free)","Relax 2 Zero 2.0 for Sam's,",No,,New,,,"She is available mondays, wed, Friday’s to call for appt and receive deliveries. Pls deliver 2-3 weeks from March 31, 2019 or earlier",TX,1,10.48,USJ-9050USJ-9050BR,4264.65,TC# 8916545116381016344089,,,,,,0.00,,,,,,,0.00,,,,,,
"Sam's Club #8272 Colorado Springs, CO (3/28-4/7/2019)","Sam's Club #8272 Colorado Springs, CO (3/28-4/7/2019)",Xiongxiaojun Ji,116363,4/1/2019 9:41:24 AM,Omar Thorne,CO,80916,Shogun Neck & Back Massger,New,New,1,29.21,309.97,339.18,PurchaseOrder,,,"2 years parts, 1 year labor for Small Items","Foot Vibe Pro,Shogun Neck &amp; Back Massger,",No,,Delivered,,,"Please ship it as soon as possible. 
According to the low inventory in Tx, please ship from California.
4/1/19- will ship out from CA- Hitomi",CA,0,9.42,USJ-874USJ-874,339.18,,TC#701675104393910259019,,,,,0.00,,,,,,,0.00,,,,,,
Greater Frisco Home & Garden (3/29*3/31/2019) TX,Greater Frisco Home & Garden (3/29*3/31/2019) TX,Tom Nguyen,116364,4/1/2019 9:42:47 AM,Li Hong Wang,TX,75062,Relax 2 Zero 3D,New Choco,New,1,243.38,3700.00,3943.38,Synchrony,,,"5 years parts, 1 year labor (Free)","Relax 2 Zero 3D,",No,,New,,Please gift free 1 Eye Buddy and 2 Eye Steam mask.,"Customer is cancelling the chair from Osim and use that sychrony to buy from us.
Customer only available for delivery on Tuesday and Wednesday only
Synchrony Account # 6019190592138981 
Key # 073404086
4/1/19 - Printed - Alysa
4/1/19-Credit available only 	$21.00 -Hitomi",Not Dispatched,0,8.25,DWA-9060USJ-9060BR,3943.38,,,6019190592138981,,,36 months,0.00,,,,,,,0.00,,,,,,
"Sam's Club #8272 Colorado Springs, CO (3/28-4/7/2019)","Sam's Club #8272 Colorado Springs, CO (3/28-4/7/2019)",Xiongxiaojun Ji,116366,4/1/2019 9:50:35 AM,Sunye Smith,CO,80911,Orbit for Sam's ,New Choco,New,1,282.53,2998.00,3280.53,PurchaseOrder,,,"3 years parts, 1 year labor (Free)","Orbit for Sam's ,",No,,New,,,,TX,0,9.42,ORBT-1ORBT-1CH,3280.53,,TC#1062882589454061753840,,,,,0.00,,,,,,,0.00,,,,,,
"Sam's Club #6449 Paducah, KY 3/28-4/7/19 (IL)","Sam's Club #6449 Paducah, KY 3/28-4/7/19 (IL)",Michael Wang,116367,4/1/2019 9:58:44 AM,Larry Bugg,KY,42031,Shogun Neck & Back Massger,New,New,1,18.60,309.97,328.57,CreditCard,,,"2 years parts, 1 year labor for Small Items","Foot Vibe Pro,Shogun Neck &amp; Back Massger,",No,,Delivered,,,"Please ship out to customer from Gardena office and text tracking number.
4/1/19-will ship out from CA office. - Hitomi",CA,0,6.00,USJ-874USJ-874,328.57,Tc# 4689 6869 1729 9932 0815 2,,,,,,0.00,,,,,,,0.00,,,,,,
"Sam's Club #6549 Pueblo, CO (3/28-4/7/2019) TX","Sam's Club #6549 Pueblo, CO (3/28-4/7/2019) TX",Patrick Khanh,116368,4/1/2019 2:13:16 PM,Dena DeJoy,CO,81008,Pegasus for Sam's,New Black,New,1,417.85,5498.00,5915.85,CreditCard,,,"3 years parts, 1 year labor (Free)","Pegasus for Sam's,",No,,New,,,,TX,0,7.60,DWA-9400Pegasus-BL-NEW,5915.85,TC# 5682 2223 6447 3665 3899 55,,,,,,0.00,,,,,,,0.00,,,,,,
"Sam's Club #6455 Oxnard, CA 3/14-24/19 (CA)","Sam's Club #6455 Oxnard, CA 3/14-24/19 (CA)",Hiroko Hudson,116370,4/1/2019 2:25:57 PM,Ramino Garcia,CA,93036,Shogun Neck & Back Massger,New,New,1,13.95,179.98,193.93,PurchaseOrder,,,"2 years parts, 1 year labor for Small Items","Shogun Neck &amp; Back Massger,",YES,,Delivered,,,,CA,0,7.75,USJ-874USJ-874,0.00,,176968452707096092122,,,,,0.00,,,,,,,0.00,,,,,,
"Sam's Club #6455 Oxnard, CA 3/14-24/19 (CA)","Sam's Club #6455 Oxnard, CA 3/14-24/19 (CA)",Hiroko Hudson,116371,4/1/2019 2:30:44 PM,Ramino Garcia,CA,93036,Vitality Plate for Sam's,New,New,1,31.00,399.99,430.99,PurchaseOrder,,,"2 years parts, 1 year labor for Small Items","Vitality Plate for Sam's,",YES,,Delivered,,,,CA,0,7.75,USJ-849USJ-849,0.00,,176968452707096092122,,,,,0.00,,,,,,,0.00,,,,,,
AMERICA'S BEAUTY SHOW 3/30-4/1/19 CHICAGO (IL),AMERICA'S BEAUTY SHOW 3/30-4/1/19 CHICAGO (IL),May Kam,116372,4/1/2019 2:32:29 PM,Mrs Chrystalin Sherrell,SC,29201,Legacy 3D,Demo Black,Demo,1,0.00,3800.00,3800.00,CreditCard,COD,PurchaseOrder,"5 years parts, 1 year labor (Free)","Legacy 3D,Tourmaline Pad for Legacy 3D,",No,,New,,"Special discount for monthly payment, manager approval","4/1/19-Confirmed $200.00 in SQ. ***COD $1,800/LAYAWAY$1,800*** .LAYAWAY form needs to be signed - Hitomi",Not Dispatched,1,10.25,DWA-9150USJ-9150BL-DEMO,200.00,uYmL,,,,,,1800.00,,,,,,,1800.00,,Monthly payment,,,,
"Sam's Club #8213 Columbus, GA 3/28-4/7/19 (FL)","Sam's Club #8213 Columbus, GA 3/28-4/7/19 (FL)",Scott Black,116373,4/1/2019 3:18:40 PM,Brian Thompson,AL,36869,Symphony  - Sam's Club,Demo Black[-700],Demo,1,367.92,4599.00,4966.92,CreditCard,,,"3 years parts, 1 year labor (Free)","Symphony  - Sam's Club,",YES,,New,,,"customer pick up, $45 was removed from price by Sam's as a discount for opening a credit card.
4/1/19-will confirm pickup -Hitomi",Not Dispatched,0,8.00,USJ-9300Symphony-BL-DEMO,0.00,TC 3612682887451166258810,,,,,,0.00,,,,,,,0.00,,,,,,
Greater Frisco Home & Garden (3/29*3/31/2019) TX,Greater Frisco Home & Garden (3/29*3/31/2019) TX,Kristy Tran,116374,4/1/2019 3:21:52 PM,David Simpson,TX,75166,Legacy 4,New Choco,New,1,284.63,4200.00,4484.63,Synchrony,,,"5 years parts, 1 year labor (Free)","Legacy 4,",No,,Scheduled,,,"4/1/19-Customer changed qyt of chair from #116292. SYNC$7,500 and original. ***Please charge $4,484.63/ sales draft*** -Hitomi",TX,0,8.25,LGCY-4LGCY-4CH,4484.63,,,6501723375083043,73378805,Huston,36 months,0.00,,,,,,,0.00,,,,,,
"Sam's Club #8213 Columbus, GA 3/28-4/7/19 (FL)","Sam's Club #8213 Columbus, GA 3/28-4/7/19 (FL)",Scott Black,116375,4/1/2019 3:28:25 PM,Peggy Chambliss,AL,36874,Legacy for Sam's,Demo Choco[-700],Demo,1,287.92,3599.00,3886.92,CreditCard,,,"3 years parts, 1 year labor (Free)","Legacy for Sam's,",No,,Assigned,,,"CC, Jasmin Carrizales, 4/2/19, 9:39am
**Deliver on a Thursday or the weekend.**",FL,0,8.00,DWA-9100DWA-9100CH-DEMO,0.00,4549758895727496898516,,,,,,0.00,,,,,,,0.00,,,,,,
