﻿Date,Customer Name,State,Zipcode,Description,Product Number,Color,Product Status,Net,Shipping Fee,Gift Price,Financing Processing Fee,Order Total,Total Before Tax,Tax,Commission,Primary Payment Method,Primary Payment Balance,Primary Authorize Number,Primary Purchase Order Number,Primary Synchrony Account Number,Primary Synchrony Application Key,Primary Synchrony Account Info,Primary Synchrony Term,Second Payment Method,Second Payment Balance,Second Authorize Number,Second Purchase Order Number,Second Synchrony Account Number,Second Synchrony Application Key,Second Synchrony Account Info,Second Synchrony Term,Third Payment Method,Third Payment Balance,Third Authorize Number,Third Purchase Order Number,Third Synchrony Account Number,Third Synchrony Application Key,Third Synchrony Account Info,Third Synchrony Term,Delivery Date,Pick up,Warranty,Status,Chair Type,Original Event Name,Event Name,Synchrony Notes,Order Notes,Order Number,Private Note,Branch,No Tax,Actual Tax Rate
10/20/2018 8:23:26 PM,James Logson,FL,32244,Legacy for Sam's,DWA-9100DWA-9100SB,New Sienna Brown,New,,,,,4599.93,4299.00,300.93,Hunt Zhang,CreditCard,4599.93,2099498097614454191194,,,,,,,0.00,,,,,,,,0.00,,,,,,,,No,"3 years parts, 1 year labor (Free)",Scheduled,,Sam's Club #6363  Youngerman Cir./Jacksonville 10/18-28/18 (FL),Sam's Club #6363  Youngerman Cir./Jacksonville 10/18-28/18 (FL),,,110490,"CC Josefina - 10/22/18 4:15pm ( call back in 3 weeks when they've moved into their new house)

The customer is gonna change the shipping address. Be sure to double check where they want the chairs to be delivered to.",FL,0,7.00
10/28/2018 9:09:04 PM,Roosevelt Lewis,FL,32221,Shogun Neck & Back Massger,USJ-874USJ-874,New,New,,,,,213.98,199.98,14.00,Hunt Zhang,CreditCard,235.26,617948372427451161104,,,,,,,0.00,,,,,,,,0.00,,,,,,,,YES,"2 years parts, 1 year labor for Small Items",Delivered,,Sam's Club #6363  Youngerman Cir./Jacksonville 10/18-28/18 (FL),Sam's Club #6363  Youngerman Cir./Jacksonville 10/18-28/18 (FL),,,110739,,FL,0,7.00
10/28/2018 9:17:21 PM,Jim Glil,FL,32043,Shogun Neck & Back Massger,USJ-874USJ-874,New,New,,,,,331.67,309.97,21.70,Hunt Zhang,CreditCard,331.67,899789650865810222298,,,,,,,0.00,,,,,,,,0.00,,,,,,,,YES,"2 years parts, 1 year labor for Small Items",Delivered,,Sam's Club #6363  Youngerman Cir./Jacksonville 10/18-28/18 (FL),Sam's Club #6363  Youngerman Cir./Jacksonville 10/18-28/18 (FL),,,110740,,FL,0,7.00
10/28/2018 9:17:21 PM,Jim Glil,FL,32043,Foot Vibe Pro,USJ-871,,New,,,,,331.67,309.97,21.70,Hunt Zhang,CreditCard,331.67,899789650865810222298,,,,,,,0.00,,,,,,,,0.00,,,,,,,,YES,"2 years parts, 1 year labor for Small Items",Delivered,,Sam's Club #6363  Youngerman Cir./Jacksonville 10/18-28/18 (FL),Sam's Club #6363  Youngerman Cir./Jacksonville 10/18-28/18 (FL),,,110740,,FL,0,7.00
10/28/2018 9:25:19 PM,Carl Mccormick,FL,32205,Legacy for Sam's,DWA-9100DWA-9100CH-Box,Demo(Box) Choco[-700],Demo,,,,,4064.91,3798.98,265.93,Hunt Zhang,CreditCard,3850.93,4579808572442454191174,,,,,,,0.00,,,,,,,,0.00,,,,,,,11/7/2018 12:00:00 AM,No,"3 years parts, 1 year labor (Free)",Delivered,New,Sam's Club #6363  Youngerman Cir./Jacksonville 10/18-28/18 (FL),Sam's Club #6363  Youngerman Cir./Jacksonville 10/18-28/18 (FL),,,110741,"CC Josefina - 11/1/18 4:00pm
11/8Maritza- Delivery confirmation received.",FL,0,7.00
10/28/2018 9:25:19 PM,Carl Mccormick,FL,32205,Shogun Neck & Back Massger,USJ-874USJ-874,New,New,,,,,4064.91,3798.98,265.93,Hunt Zhang,CreditCard,3850.93,4579808572442454191174,,,,,,,0.00,,,,,,,,0.00,,,,,,,11/7/2018 12:00:00 AM,No,"2 years parts, 1 year labor (Free)",Delivered,New,Sam's Club #6363  Youngerman Cir./Jacksonville 10/18-28/18 (FL),Sam's Club #6363  Youngerman Cir./Jacksonville 10/18-28/18 (FL),,,110741,"CC Josefina - 11/1/18 4:00pm
11/8Maritza- Delivery confirmation received.",FL,0,7.00
