﻿Date,CustomerName,State,Description,productNo,Color,IsDemo,Net,Tax,ShippingFee,GiftPrice,FinancingProcessingFee,Gross,Commission,PaymentMethod,Primary Payment Balance,Secondary Payment Method,DeliveryDate,Ispickup,Warranty,Status
8/7/2017 11:58:39 PM,SEONGSIK KIM,NY,Legacy,DWA-9100DWA-9100BL,Black,New,,259.00,,,,3809.00,Kaz Ohashi,CreditCard,,,,No,"3 years parts, 1 year labor (Free)",Delivered
8/9/2017 7:53:55 PM,Cynthia Susser,CO,Legacy for Sam's,DWA-9100DWA-9100BL-DEMO,Demo Black,New,,225.07,,,,3824.07,Tom Nguyen,CreditCard,,,8/13/2017 12:00:00 AM,No,"3 years parts, 1 year labor (Free)",Delivered
8/9/2017 8:39:46 PM,Atulkymar Amin,CO,Legacy for Sam's,DWA-9100DWA-9100CH-DEMO,Demo Choco,New,,225.07,,,,3824.07,Tom Nguyen,CreditCard,,,8/14/2017 12:00:00 AM,No,"3 years parts, 1 year labor (Free)",Delivered
8/9/2017 9:13:21 PM,Kelly Lyons,FL,Legacy for Sam's,DWA-9100DWA-9100SB-DEMO,Demo Sienna Brown,New,,185.19,,,,3784.19,Michael Cuatrona,CreditCard,,,8/18/2017 12:00:00 AM,No,"3 years parts, 1 year labor (Free)",Delivered
8/9/2017 9:28:46 PM,Dharmen Patel,FL,Legacy for Sam's,DWA-9100DWA-9100BL,Black,New,,230.69,,,,4529.69,Tom Nguyen,CreditCard,,,8/10/2017 12:00:00 AM,No,"3 years parts, 2 years labor ($200)",Delivered
8/9/2017 9:33:07 PM,Scott Akins Kim,FL,Legacy for Sam's,DWA-9100DWA-9100CH,Choco,New,,230.69,,,,4529.69,Michael Cuatrona,CreditCard,,,8/10/2017 12:00:00 AM,No,"3 years parts, 1 year labor (Free)",Delivered
8/9/2017 9:42:15 PM,Timothy D Lamonda,CO,Legacy for Sam's,DWA-9100DWA-9100CH-DEMO,Demo Choco,New,,225.07,,,,3824.07,Tom Nguyen,CreditCard,,,8/13/2017 12:00:00 AM,No,"3 years parts, 1 year labor (Free)",Delivered
8/9/2017 11:25:42 PM,Marc Zayas,TX,Relax2Zero 2.0 for Sam's,USJ-9050USJ-9050BL-DEMO,Demo Black,New,,202.04,,,,3401.04,Michael Wang,CreditCard,,,8/16/2017 12:00:00 AM,No,"3 years parts, 1 year labor (Free)",Delivered
8/9/2017 11:25:42 PM,Marc Zayas,TX,Chair Pad for Relax2Zero 2.0,,,New,,202.04,,,,3401.04,Michael Wang,CreditCard,,,8/16/2017 12:00:00 AM,No,no warranty,Delivered
8/9/2017 11:25:42 PM,Marc Zayas,TX,Daiwa Blanket,,,New,,202.04,,,,3401.04,Michael Wang,CreditCard,,,8/16/2017 12:00:00 AM,No,no warranty,Delivered
8/10/2017 12:28:40 AM,Theodore Kazmer,CO,Legacy for Sam's,DWA-9100DWA-9100CH-DEMO,Demo Choco,New,,293.32,,,,3892.32,Keith Kei,CreditCard,,,,No,"3 years parts, 1 year labor (Free)",Cancelled
8/10/2017 12:38:36 AM,Fred Linneman,CO,Legacy for Sam's,DWA-9100DWA-9100BL-DEMO,Demo Blue,New,,293.32,,,,3892.32,Keith Kei,CreditCard,,,9/2/2017 12:00:00 AM,No,"3 years parts, 1 year labor (Free)",Delivered
8/10/2017 12:55:19 AM,Todd Collman,TX,Legacy for Sam's,DWA-9100DWA-9100BG-DEMO,Demo Beige,New,,296.92,,,,3895.92,Gary Cyrlin,CreditCard,,,8/16/2017 12:00:00 AM,No,"3 years parts, 1 year labor (Free)",Delivered
8/10/2017 12:55:19 AM,Todd Collman,TX,Chair Pad for Lagacy,,,New,,296.92,,,,3895.92,Gary Cyrlin,CreditCard,,,8/16/2017 12:00:00 AM,No,no warranty,Delivered
8/10/2017 12:55:19 AM,Todd Collman,TX,Daiwa Blanket,,,New,,296.92,,,,3895.92,Gary Cyrlin,CreditCard,,,8/16/2017 12:00:00 AM,No,no warranty,Delivered
8/10/2017 1:12:27 AM,Evelyn Crump,TN,Legacy for Sam's,DWA-9100DWA-9100CH,Choco,New,,419.15,,,,4718.15,phuoc Van,CreditCard,,,8/13/2017 12:00:00 AM,No,"3 years parts, 1 year labor (Free)",Delivered
8/10/2017 1:12:27 AM,Evelyn Crump,TN,Chair Pad for Lagacy,,,New,,419.15,,,,4718.15,phuoc Van,CreditCard,,,8/13/2017 12:00:00 AM,No,no warranty,Delivered
8/10/2017 1:18:38 AM,Rex Bobbitt,TN,Legacy for Sam's,DWA-9100DWA-9100SB,Sienna Brown,New,,419.15,,,,4718.15,phuoc Van,CreditCard,,,8/13/2017 12:00:00 AM,No,"3 years parts, 1 year labor (Free)",Delivered
8/10/2017 1:18:38 AM,Rex Bobbitt,TN,Chair Pad for Lagacy,,,New,,419.15,,,,4718.15,phuoc Van,CreditCard,,,8/13/2017 12:00:00 AM,No,no warranty,Delivered
8/10/2017 1:37:45 AM,Kamal Mohammed,FL,Legacy for Sam's,DWA-9100DWA-9100CH-DEMO,Demo Choco,New,,233.94,,,,3832.94,Michael Cuatrona,CreditCard,,,,No,"3 years parts, 1 year labor (Free)",Dispatched / Shipped
8/10/2017 1:42:16 AM,Kelly Powess,FL,Legacy for Sam's,DWA-9100DWA-9100BG-DEMO,Demo Beige,New,,233.94,,,,3832.94,Michael Cuatrona,CreditCard,,,8/18/2017 12:00:00 AM,No,"3 years parts, 1 year labor (Free)",Delivered
8/10/2017 1:53:21 AM,Joseph Brizzi,FL,Legacy for Sam's,DWA-9100DWA-9100CH,Choco,New,,233.94,,,,3832.94,Michael Cuatrona,CreditCard,,,8/18/2017 12:00:00 AM,No,"3 years parts, 1 year labor (Free)",Delivered
8/10/2017 4:38:31 PM,Thany Yu,FL,Relax2Zero 2.0 for Sam's,USJ-9050USJ-9050BL-DEMO,Demo Black,New,,223.93,,,,3422.93,Christopher Spina,CreditCard,,,8/10/2017 12:00:00 AM,No,"3 years parts, 1 year labor (Free)",Delivered
8/10/2017 4:47:55 PM,Corey Coberly,TN,Relax2Zero 2.0 for Sam's,USJ-9050USJ-9050BL,Black,New,,380.25,,,,4280.25,Phuoc Van,CreditCard,,,8/13/2017 12:00:00 AM,No,"3 years parts, 1 year labor (Free)",Delivered
8/10/2017 4:57:27 PM,Gloria W Cox,AA,Relax2Zero 2.0 for Sam's,USJ-9050USJ-9050BR,Brown,New,,380.25,,,,4280.25,Phuoc Van,CreditCard,,,8/14/2017 12:00:00 AM,No,"3 years parts, 1 year labor (Free)",Delivered
8/10/2017 5:26:18 PM,Terri Holt,CO,Legacy for Sam's,DWA-9100DWA-9100BL,Blue,New,,293.32,,,,3892.32,Keith Kei,CreditCard,,,8/13/2017 12:00:00 AM,No,"3 years parts, 1 year labor (Free)",Delivered
8/11/2017 1:12:42 AM,Micheal Man,CA,Legacy for Sam's,DWA-9100DWA-9100CH-DEMO,Demo Choco,New,,278.92,,,,3877.92,Kamille Krizzia,CreditCard,,,8/22/2017 12:00:00 AM,No,"3 years parts, 1 year labor (Free)",Delivered
8/11/2017 1:12:42 AM,Micheal Man,CA,Chair Pad for Lagacy,,,New,,278.92,,,,3877.92,Kamille Krizzia,CreditCard,,,8/22/2017 12:00:00 AM,No,no warranty,Delivered
8/11/2017 8:30:29 PM,Smita Gandhi,FL,Legacy for Sam's,DWA-9100DWA-9100BG-DEMO,Demo Beige,New,,233.94,,,,3832.94,Michael Cuatrona,CreditCard,,,8/18/2017 12:00:00 AM,No,"3 years parts, 1 year labor (Free)",Delivered
8/12/2017 7:14:18 PM,Joey Escalante,CA,Legacy for Sam's,DWA-9100DWA-9100SB-DEMO,Demo Sienna Brown,New,,220.80,,,,3819.80,Kohei Uno,CreditCard,,,8/31/2017 12:00:00 AM,No,"3 years parts, 1 year labor (Free)",Delivered
8/12/2017 7:14:18 PM,Joey Escalante,CA,Chair Pad for Lagacy,,,New,,220.80,,,,3819.80,Kohei Uno,CreditCard,,,8/31/2017 12:00:00 AM,No,no warranty,Delivered
8/12/2017 7:14:18 PM,Joey Escalante,CA,Daiwa Blanket,,,New,,220.80,,,,3819.80,Kohei Uno,CreditCard,,,8/31/2017 12:00:00 AM,No,no warranty,Delivered
8/12/2017 7:14:18 PM,Joey Escalante,CA,Foot Pads for Lagacy,,,New,,220.80,,,,3819.80,Kohei Uno,CreditCard,,,8/31/2017 12:00:00 AM,No,no warranty,Delivered
8/14/2017 6:24:39 PM,Thomas Ekelly,CA,Legacy for Sam's,DWA-9100DWA-9100BL-DEMO,Demo Black,New,,278.92,,,,3877.92,Kamille Gines,CreditCard,0.00,,8/13/2017 12:00:00 AM,No,"3 years parts, 1 year labor (Free)",Delivered
8/14/2017 6:42:44 PM,Jose Venegas,CA,Relax2Zero 2.0 for Sam's,USJ-9050USJ-9050BR,Brown,New,,247.92,,,,3446.92,Kamille Gines,CreditCard,0.00,,8/22/2017 12:00:00 AM,No,"3 years parts, 1 year labor (Free)",Delivered
8/14/2017 7:04:18 PM,Charles Richardson,TN,Vitality Plate,USJ-849USJ-849,New,New,,44.85,,,,504.84,Phuoc Van,CreditCard,0.00,,,No,"2 years parts, 1 year labor (Small Items)",Dispatched / Shipped
8/15/2017 2:12:05 AM,Tracy Beaver,TN,Legacy for Sam's,DWA-9100DWA-9100BL,Black,New,,419.15,,,,4718.15,Phuoc Van,CreditCard,0.00,,8/29/2017 12:00:00 AM,No,"3 years parts, 1 year labor (Free)",Delivered
8/16/2017 6:26:33 PM,Tammy Coleman,FL,Legacy for Sam's,DWA-9100DWA-9100SB-DEMO,Demo Sienna Brown,New,,233.94,,,,3832.94,Michael Cuatrona,CreditCard,0.00,,,YES,"3 years parts, 1 year labor (Free)",Cancelled
8/16/2017 6:34:09 PM,Kimberly Dobbs,FL,Legacy for Sam's,DWA-9100DWA-9100SB,Sienna Brown,New,,233.94,,,,3832.94,Michael Cuatrona,CreditCard,0.00,,,No,"3 years parts, 1 year labor (Free)",Cancelled
8/16/2017 7:03:07 PM,Kimberly Dobbs,FL,Legacy for Sam's,DWA-9100DWA-9100SB,Sienna Brown,New,,233.94,,,,3832.94,Michael Cuatrona,CreditCard,0.00,,8/13/2017 12:00:00 AM,No,"3 years parts, 1 year labor (Free)",Delivered
8/17/2017 7:14:31 PM,Test Order,FL,Relax2Zero 2.0 for Sam's,USJ-9050USJ-9050BL,Black,New,,273.00,,,,4173.00,Jonathan Bhowani,CreditCard,0.00,,,No,"3 years parts, 1 year labor (Free)",Cancelled
8/17/2017 9:42:37 PM,Kristen Yorton,FL,Legacy for Sam's,DWA-9100DWA-9100CH,Choco,New,,300.93,,,,4599.93,Jonathan Bhowani,CreditCard,0.00,,9/1/2017 12:00:00 AM,No,"3 years parts, 1 year labor (Free)",Delivered
8/17/2017 9:42:37 PM,Kristen Yorton,FL,Chair Pad for Lagacy,,,New,,300.93,,,,4599.93,Jonathan Bhowani,CreditCard,0.00,,9/1/2017 12:00:00 AM,No,no warranty,Delivered
8/17/2017 11:29:35 PM,Richard Heitmeyer,FL,Foot Vides Pro,USJ-871,,New,,7.70,,,,117.69,Robert Shih,Cash,117.69,,8/17/2017 12:00:00 AM,No,"2 years parts, 1 year labor (Small Items)",Delivered
8/18/2017 6:41:36 PM,Don Fril,FL,Ninja Leg Massager,,,New,,26.53,,,,405.53,Jonathan Bhowani,CreditCard,0.00,,8/18/2017 12:00:00 AM,YES,"2 years parts, 1 year labor (Small Items)",Delivered
8/18/2017 7:47:16 PM,Margaret Taylor,FL,Ninja Leg Massager,,,New,,26.53,,,,405.53,Jonathan Bhowani,CreditCard,0.00,,,YES,"2 years parts, 1 year labor (Small Items)",Delivered
8/18/2017 8:58:27 PM,Bob Hatcher,FL,Legacy for Sam's,DWA-9100DWA-9100BL,Black,New,,300.93,,,,4599.93,Robert Shih,CreditCard,4599.93,,9/1/2017 12:00:00 AM,No,"3 years parts, 1 year labor (Free)",Delivered
8/18/2017 11:59:09 PM,Zhou Zhu,FL,Legacy for Sam's,DWA-9100DWA-9100BL,Black,New,,251.93,,,,3850.93,Robert Shih,CreditCard,0.00,,9/1/2017 12:00:00 AM,No,"2 years parts, 1 year labor (Small Items)",Delivered
8/19/2017 2:17:46 AM,Marcia Wilcox,CO,Legacy for Sam's,DWA-9100DWA-9100CH-DEMO,Demo Choco,New,,305.92,,,,3904.92,Kristy Tran,CreditCard,0.00,,,No,"3 years parts, 1 year labor (Free)",Cancelled
8/19/2017 2:17:46 AM,Marcia Wilcox,CO,Chair Pad for Lagacy,,,New,,305.92,,,,3904.92,Kristy Tran,CreditCard,0.00,,,No,no warranty,Cancelled
8/19/2017 4:40:52 PM,Stephen Curry,FL,Legacy for Sam's,DWA-9100DWA-9100CH,Choco,New,,251.93,,,,3850.93,Robert Shih,CreditCard,0.00,,9/1/2017 12:00:00 AM,No,"2 years parts, 1 year labor (Small Items)",Delivered
8/19/2017 4:42:52 PM,Marcia Wilcox,CO,Legacy for Sam's,DWA-9100DWA-9100CH,Choco,New,,305.92,,,,3904.92,Kristy Tran,CreditCard,0.00,,,No,"3 years parts, 1 year labor (Free)",Dispatched / Shipped
8/19/2017 4:57:25 PM,Evalee Winkler,CO,Foot Vibe Pro,USJ-871,,New,,9.35,,,,119.34,Kristy Tran,CreditCard,0.00,,,YES,"2 years parts, 1 year labor (Small Items)",Dispatched / Shipped
8/19/2017 4:58:02 PM,David Verhegge,FL,Legacy for Sam's,DWA-9100DWA-9100SB,Sienna Brown,New,,300.93,,,,4599.93,Jonathan Bhowani,CreditCard,0.00,,8/31/2017 12:00:00 AM,No,"3 years parts, 1 year labor (Free)",Delivered
8/19/2017 4:58:59 PM,Richard Heitmeyer,FL,Ninja Leg Massager,,,New,,26.53,,,,405.53,Robert Shih,Cash,0.00,,8/19/2017 12:00:00 AM,YES,"2 years parts, 1 year labor (Small Items)",Delivered
8/19/2017 5:23:17 PM,Mario Higareda,TX,Legacy for Sam's,DWA-9100DWA-9100BL,Blue,New,,1360.00,,,,17760.00,Mario Higareda,CreditCard,0.00,,,No,"3 years parts, 1 year labor (Free)",Cancelled
8/19/2017 5:51:07 PM,Raymond Leyba,CA,Legacy for Sam's,DWA-9100DWA-9100CH,Choco,New,,333.17,,,,4632.17,Kohei Uno,CreditCard,0.00,,,No,"3 years parts, 3 years labor ($400)",Dispatched / Shipped
8/19/2017 5:51:07 PM,Raymond Leyba,CA,Chair Pad for Lagacy,,,New,,333.17,,,,4632.17,Kohei Uno,CreditCard,0.00,,,No,no warranty,Dispatched / Shipped
8/19/2017 5:51:07 PM,Raymond Leyba,CA,Daiwa Blanket,,,New,,333.17,,,,4632.17,Kohei Uno,CreditCard,0.00,,,No,no warranty,Dispatched / Shipped
8/19/2017 5:56:38 PM,Patrick Dios,FL,Foot Vibe Pro,USJ-871,,New,,7.70,,,,117.69,Robert Shih,CreditCard,0.00,,8/19/2017 12:00:00 AM,YES,"2 years parts, 1 year labor (Small Items)",Delivered
8/19/2017 7:19:36 PM,Dianne Doane-Bustetter,FL,Legacy for Sam's,DWA-9100DWA-9100SB,Sienna Brown,New,,300.93,,,,4599.93,Robert Shih,CreditCard,0.00,,9/1/2017 12:00:00 AM,No,"3 years parts, 1 year labor (Free)",Delivered
8/19/2017 8:06:47 PM,Oscar Rivera,FL,Relax2Zero 2.0 for Sam's,USJ-9050USJ-9050BR,Brown,New,,273.00,,,,4173.00,Robert Shih,CreditCard,0.00,,,No,"3 years parts, 1 year labor (Free)",Cancelled
8/19/2017 8:12:51 PM,Alice Dexter,FL,Foot Vibe Pro,USJ-871,,New,,7.70,,,,117.69,Robert Shih,CreditCard,0.00,,8/19/2017 12:00:00 AM,YES,"2 years parts, 1 year labor (Small Items)",Delivered
8/19/2017 11:05:17 PM,Chan Ju Christy Lee,CO,Legacy for Sam's,DWA-9100DWA-9100CH,Choco,New,,365.42,,,,4664.42,Kristy Tran,CreditCard,0.00,,,No,"3 years parts, 1 year labor (Free)",Dispatched / Shipped
8/19/2017 11:15:47 PM,Jane Stephens,CO,Foot Vibe Pro,USJ-871,,New,,9.35,,,,119.34,Kristy Tran,CreditCard,0.00,,,YES,"2 years parts, 1 year labor (Small Items)",Dispatched / Shipped
8/19/2017 11:26:41 PM,Barbara Vallejos,CO,Legacy for Sam's,DWA-9100DWA-9100CH,Choco,New,,345.01,,,,4404.00,Kristy Tran,CreditCard,0.00,,,No,"3 years parts, 1 year labor (Free)",Dispatched / Shipped
8/19/2017 11:26:41 PM,Barbara Vallejos,CO,Vitality Plate,USJ-849USJ-849,New,New,,345.01,,,,4404.00,Kristy Tran,CreditCard,0.00,,,No,"2 years parts, 1 year labor (Small Items)",Dispatched / Shipped
8/20/2017 1:08:08 AM,Barbara Vallejos,CO,Legacy for Sam's,DWA-9100DWA-9100CH-DEMO,Demo Choco,New,,305.92,,,,3904.92,Kristy Tran,CreditCard,0.00,,,No,"3 years parts, 1 year labor (Free)",Cancelled
8/20/2017 5:24:54 PM,Anthony Nguyen,CA,Legacy for Sam's,DWA-9100DWA-9100SB-DEMO,Demo Sienna Brown,New,,278.92,,,,3877.92,Kohei Uno,CreditCard,0.00,,8/31/2017 12:00:00 AM,No,"3 years parts, 3 years labor ($400)",Delivered
8/20/2017 5:24:54 PM,Anthony Nguyen,CA,Chair Pad for Lagacy,,,New,,278.92,,,,3877.92,Kohei Uno,CreditCard,0.00,,8/31/2017 12:00:00 AM,No,no warranty,Delivered
8/20/2017 5:57:44 PM,Anthony Nguyen,CA,Legacy for Sam's,DWA-9100DWA-9100SB-DEMO,Demo Sienna Brown,New,,278.92,,,,3877.92,Kohei Uno,CreditCard,0.00,,8/31/2017 12:00:00 AM,No,"3 years parts, 3 years labor ($400)",Delivered
8/20/2017 5:57:44 PM,Anthony Nguyen,CA,Chair Pad for Lagacy,,,New,,278.92,,,,3877.92,Kohei Uno,CreditCard,0.00,,8/31/2017 12:00:00 AM,No,no warranty,Delivered
8/20/2017 6:14:47 PM,Nina Geltz,FL,Foot Vibe Pro,USJ-871,,New,,7.70,,,,117.69,Jonathan Bhowani,CreditCard,0.00,,8/20/2017 12:00:00 AM,YES,"2 years parts, 1 year labor (Small Items)",Delivered
8/20/2017 7:28:13 PM,Mohammad Imran,CA,Relax2Zero 3D,DWA-9060USJ-9060BL,Black,New,,184.88,,,,3484.88,Kaz Ohashi,Cash,100.00,,,No,"3 years parts, 1 year labor (Free)",Dispatched / Shipped
8/20/2017 7:29:42 PM,Richard Kalback,FL,Legacy for Sam's,DWA-9100DWA-9100SB,Sienna Brown,New,,251.93,,,,3850.93,Robert Shih,CreditCard,0.00,,9/5/2017 12:00:00 AM,No,"2 years parts, 1 year labor (Small Items)",Delivered
8/20/2017 7:59:14 PM,Ted Robson,FL,Ninja Leg Massager,,,New,,26.53,,,,405.53,Jonathan Bhowani,CreditCard,0.00,,,YES,"2 years parts, 1 year labor (Small Items)",Delivered
8/21/2017 3:26:10 PM,Maria & Jhon Terela,CO,Legacy for Sam's,DWA-9100DWA-9100CH-DEMO,Demo Choco,New,,297.28,,,,3896.28,Tom Nguyen,CreditCard,0.00,,,No,"3 years parts, 1 year labor (Free)",Dispatched / Shipped
8/21/2017 3:54:03 PM,Cargle McManas,CO,Legacy for Sam's,DWA-9100DWA-9100CH-DEMO,Demo Choco,New,,297.28,,,,3896.28,Tom Nguyen,CreditCard,0.00,,,No,"3 years parts, 1 year labor (Free)",Dispatched / Shipped
8/21/2017 4:38:59 PM,Oscar Rivera,FL,Relax2Zero 2.0 for Sam's,USJ-9050USJ-9050BR,Brown,New,,273.00,,,,4173.00,Robert Shih,CreditCard,0.00,,9/1/2017 12:00:00 AM,No,"3 years parts, 1 year labor (Free)",Delivered
8/21/2017 4:58:25 PM,Vivi Serena,FL,Relax2Zero 2.0 for Sam's,USJ-9050USJ-9050BR,Brown,New,,273.00,,,,4173.00,Robert Shih,CreditCard,0.00,,,No,"3 years parts, 1 year labor (Free)",Dispatched / Shipped
8/21/2017 5:26:55 PM,Sandra Lara,CA,Relax2Zero 2.0 for Sam's,USJ-9050USJ-9050BR,Brown,New,,302.25,,,,4202.25,Kohei Uno,CreditCard,0.00,,8/31/2017 12:00:00 AM,No,"3 years parts, 3 years labor ($400)",Delivered
8/21/2017 5:26:55 PM,Sandra Lara,CA,Chair Pad for Relax2Zero 2.0,,,New,,302.25,,,,4202.25,Kohei Uno,CreditCard,0.00,,8/31/2017 12:00:00 AM,No,no warranty,Delivered
8/21/2017 5:26:55 PM,Sandra Lara,CA,Daiwa Blanket,,,New,,302.25,,,,4202.25,Kohei Uno,CreditCard,0.00,,8/31/2017 12:00:00 AM,No,no warranty,Delivered
8/21/2017 9:00:02 PM,James Massey,FL,Foot Vibe Pro,USJ-871,,New,,7.70,,,,117.69,Robert Shih,CreditCard,0.00,,8/21/2017 12:00:00 AM,YES,"2 years parts, 1 year labor (Small Items)",Delivered
8/22/2017 3:58:22 PM,Keum S Chen,CO,Legacy for Sam's,DWA-9100DWA-9100BL,Black,New,,305.92,,,,3904.92,Kristy Tran,CreditCard,0.00,,,No,"3 years parts, 1 year labor (Free)",Dispatched / Shipped
8/22/2017 4:24:20 PM,Charles Singuefield,TX,Legacy for Sam's,DWA-9100DWA-9100CH,Choco,New,,354.67,,,,4653.67,Ana Barrera,CreditCard,0.00,,,No,"3 years parts, 1 year labor (Free)",Dispatched / Shipped
8/22/2017 5:48:25 PM,Wayne Wilcox,FL,Foot Vibe Pro,USJ-871,,New,,7.70,,,,117.69,Jonathan Bhowani,CreditCard,0.00,,,YES,"2 years parts, 1 year labor (Small Items)",Delivered
8/22/2017 6:08:42 PM,Molly Quillin,FL,Legacy for Sam's,DWA-9100DWA-9100CH,Choco,New,,300.93,,,,4599.93,Jonathan Bhowani,CreditCard,0.00,,9/1/2017 12:00:00 AM,No,"3 years parts, 1 year labor (Free)",Delivered
8/22/2017 6:08:42 PM,Molly Quillin,FL,Daiwa Blanket,,,New,,300.93,,,,4599.93,Jonathan Bhowani,CreditCard,0.00,,9/1/2017 12:00:00 AM,No,no warranty,Delivered
8/23/2017 5:29:15 PM,John Sith,CA,Pegasus,DWA-9400Pegasus-BL,Black,New,,316.80,,,,4786.80,Joseph Chan,CreditCard,200.00,Cash,,No,"3 years parts, 1 year labor (Free)",Hold
8/23/2017 6:53:20 PM,Delio Rodriguez,FL,Foot Vibe Pro,USJ-871,,New,,7.70,,,,117.69,Jonathan Bhowani,CreditCard,0.00,,,YES,"2 years parts, 1 year labor (Small Items)",Delivered
8/23/2017 7:57:25 PM,Stacey Johlman,FL,Legacy for Sam's,DWA-9100DWA-9100CH,Choco,New,,300.93,,,,4599.93,Robert Shih,CreditCard,0.00,,,No,"3 years parts, 1 year labor (Free)",Hold
8/24/2017 12:22:52 AM,Ramanbhai Patel,FL,Legacy for Sam's,DWA-9100DWA-9100CH,Choco,New,,251.93,,,,3850.93,Robert Shih,CreditCard,0.00,,9/1/2017 12:00:00 AM,No,"2 years parts, 1 year labor (Small Items)",Delivered
8/24/2017 9:15:02 PM,Rajesh Gupta,FL,Ninja Leg Massager,,,New,,26.53,,,,405.53,Jonathan Bhowani,CreditCard,0.00,,,YES,"2 years parts, 1 year labor (Small Items)",Delivered
8/25/2017 12:14:52 AM,Barbara Vallejos,CO,Legacy for Sam's,DWA-9100DWA-9100CH,Choco,New,,345.01,,,,4404.00,Kristy Tran,CreditCard,0.00,,,No,"3 years parts, 1 year labor (Free)",Dispatched / Shipped
8/25/2017 12:14:52 AM,Barbara Vallejos,CO,Vitality Plate,USJ-849USJ-849,New,New,,345.01,,,,4404.00,Kristy Tran,CreditCard,0.00,,,No,"2 years parts, 1 year labor (Small Items)",Dispatched / Shipped
8/26/2017 8:06:06 PM,Tom Malinak,FL,Legacy for Sam's,DWA-9100DWA-9100SB-DEMO,Demo Sienna Brown,New,,251.93,,,,3850.93,Jonathan Bhowani,CreditCard,0.00,,9/1/2017 12:00:00 AM,No,"3 years parts, 1 year labor (Free)",Delivered
8/26/2017 11:16:52 PM,Timothy Staub,FL,Foot Vibe Pro,USJ-871,,New,,7.70,,,,117.69,Robert Shih,CreditCard,0.00,,,YES,"2 years parts, 1 year labor (Small Items)",Delivered
8/27/2017 1:24:38 AM,Naser Saghafi,TX,Legacy for Sam's,DWA-9100DWA-9100CH-DEMO,Demo Choco,New,,296.92,,,,3895.92,Chris Tavira,CreditCard,0.00,,,No,"3 years parts, 1 year labor (Free)",Dispatched / Shipped
8/27/2017 1:44:33 AM,Theresa Erol,IL,Legacy for Sam's,DWA-9100DWA-9100BL-DEMO,Demo Black,New,,287.92,,,,3886.92,Emily Dow,CreditCard,0.00,,,No,"3 years parts, 1 year labor (Free)",Dispatched / Shipped
8/27/2017 1:59:32 AM,Leorard Adams,TX,Legacy for Sam's,DWA-9100DWA-9100GD-DEMO,Demo Gold,New,,296.92,,,,3895.92,Chris Tavira,CreditCard,0.00,,,No,"3 years parts, 1 year labor (Free)",Dispatched / Shipped
8/27/2017 2:10:49 AM,Andy Hieckman,TX,Legacy for Sam's,DWA-9100DWA-9100SB-DEMO,Demo Sienna Brown,New,,296.92,,,,3895.92,Chris Tavira,CreditCard,0.00,,,No,"3 years parts, 1 year labor (Free)",Dispatched / Shipped
8/27/2017 2:17:40 AM,Tameria Patzer,WA,Legacy,DWA-9100DWA-9100BL-DEMO,Demo Black,New,,331.20,,,,3931.20,Joseph Chan,Synchrony,431.20,CreditCard,,YES,"3 years parts, 3 years labor ($400)",Dispatched / Shipped
8/27/2017 5:02:02 AM,Robert Clarke,TX,Legacy for Sam's,DWA-9100DWA-9100CH,Choco,New,,354.67,,,,4653.67,Chris Tavira,CreditCard,0.00,,,No,"3 years parts, 1 year labor (Free)",Dispatched / Shipped
8/27/2017 5:26:37 AM,Nancy Cersonsky,OK,Legacy for Sam's,DWA-9100DWA-9100BG,Beige,New,,301.42,,,,3900.42,Gary Cyrlin,CreditCard,0.00,,9/1/2017 12:00:00 AM,No,"3 years parts, 1 year labor (Free)",Delivered
8/27/2017 5:26:37 AM,Nancy Cersonsky,OK,Chair Pad for Lagacy,,,New,,301.42,,,,3900.42,Gary Cyrlin,CreditCard,0.00,,9/1/2017 12:00:00 AM,No,no warranty,Delivered
8/27/2017 5:26:37 AM,Nancy Cersonsky,OK,Daiwa Blanket,,,New,,301.42,,,,3900.42,Gary Cyrlin,CreditCard,0.00,,9/1/2017 12:00:00 AM,No,no warranty,Delivered
8/27/2017 5:37:14 AM,Nan P. Ferguson,TX,Legacy for Sam's,DWA-9100DWA-9100BL,Black,New,,354.67,,,,4653.67,Chris Tavira,CreditCard,0.00,,,No,"3 years parts, 1 year labor (Free)",Dispatched / Shipped
8/27/2017 5:50:27 AM,Kevin Rutland,OK,Legacy for Sam's,DWA-9100DWA-9100CH,Choco,New,,360.04,,,,4659.04,Gary Cyrlin,CreditCard,0.00,,9/1/2017 12:00:00 AM,No,"3 years parts, 1 year labor (Free)",Delivered
8/27/2017 5:50:27 AM,Kevin Rutland,OK,Chair Pad for Lagacy,,,New,,360.04,,,,4659.04,Gary Cyrlin,CreditCard,0.00,,9/1/2017 12:00:00 AM,No,no warranty,Delivered
8/27/2017 5:50:27 AM,Kevin Rutland,OK,Daiwa Blanket,,,New,,360.04,,,,4659.04,Gary Cyrlin,CreditCard,0.00,,9/1/2017 12:00:00 AM,No,no warranty,Delivered
8/27/2017 2:39:42 PM,Joe Janette,FL,Foot Vibe Pro,USJ-871,,New,,7.70,,,,117.69,Jonathan Bhowani,CreditCard,0.00,,,YES,"2 years parts, 1 year labor (Small Items)",Delivered
8/27/2017 4:53:50 PM,James Haynes,FL,Relax2Zero 3D,DWA-9060USJ-9060BL-DEMO,Demo Black,New,,243.38,,,,3943.38,Ting Ritchie,Synchrony,0.00,,8/28/2017 12:00:00 AM,No,"3 years parts, 1 year labor (Free)",Delivered
8/27/2017 5:20:30 PM,Kyle Roddy,TX,Legacy for Sam's,DWA-9100DWA-9100CH,Choco,New,,354.67,,,,4653.67,Chris Tavira,CreditCard,0.00,,,No,"3 years parts, 1 year labor (Free)",Dispatched / Shipped
8/28/2017 6:15:50 AM,Michael Tipping,WA,Pegasus,DWA-9400Pegasus-BR-DEMO,Demo Choco Brown,New,,372.60,,,,5172.60,Joseph Chan,CreditCard,5241.60,,8/31/2017 12:00:00 AM,No,"3 years parts, 3 years labor ($400)",Delivered
8/28/2017 6:23:08 AM,David Peccalaio,WA,Relax2Zero 3D,DWA-9060USJ-9060BL,Black,New,,375.36,,,,5205.36,Joseph Chan,Synchrony,4560.00,,8/31/2017 12:00:00 AM,No,"3 years parts, 3 years labor ($400)",Delivered
8/28/2017 7:35:30 PM,Manoner Gandham,IL,Legacy for Sam's,DWA-9100DWA-9100CH-DEMO,Demo Choco,New,,287.92,,,,3886.92,Emily Dow,CreditCard,3886.92,,,No,"3 years parts, 1 year labor (Free)",Dispatched / Shipped
8/28/2017 7:45:27 PM,Maria Raminez,IL,Legacy for Sam's,DWA-9100DWA-9100BL,Black,New,,343.92,,,,4642.92,Emily Dow,CreditCard,4642.92,,,No,"3 years parts, 3 years labor ($400)",Dispatched / Shipped
8/28/2017 9:55:05 PM,James Exendine,CO,Legacy for Sam's,DWA-9100DWA-9100BL,Black,New,,297.28,,,,3896.28,Tom Nguyen,CreditCard,3896.28,,9/3/2017 12:00:00 AM,No,"3 years parts, 1 year labor (Free)",Delivered
8/28/2017 10:01:33 PM,Sharon Whitmore,CO,Legacy for Sam's,DWA-9100DWA-9100CH-DEMO,Demo Choco,New,,297.28,,,,3896.28,Tom Nguyen,CreditCard,3896.28,,9/2/2017 12:00:00 AM,No,"3 years parts, 1 year labor (Free)",Delivered
8/28/2017 10:10:48 PM,Dorene Tadehara,CO,Relax2Zero 2.0 for Sam's,USJ-9050USJ-9050BR,Brown,New,,331.50,,,,4231.50,Kristy Tran,CreditCard,4231.60,,9/2/2017 12:00:00 AM,No,"3 years parts, 1 year labor (Free)",Dispatched / Shipped
8/28/2017 10:19:44 PM,Mile High Pallet,AA,Relax2Zero 2.0 for Sam's,USJ-9050USJ-9050BL-DEMO,Demo Black,New,,271.92,,,,3470.92,Kristy Tran,CreditCard,3470.92,,,No,"3 years parts, 1 year labor (Free)",Dispatched / Shipped
8/29/2017 7:09:58 PM,Henry Helton,FL,Foot Vibe Pro,USJ-871,,New,,7.70,,,,117.69,Alex Brackelsberg,CreditCard,0.00,,,YES,"2 years parts, 1 year labor (Small Items)",Delivered
8/29/2017 9:39:17 PM,Aaron Barnhardt,CA,Relax2Zero 3D,DWA-9060USJ-9060BL,Black,New,,240.50,,,,3590.50,Kaz Ohashi,CreditCard,3590.50,,,No,"3 years parts, 3 years labor ($400)",Dispatched / Shipped
8/29/2017 9:39:17 PM,Aaron Barnhardt,CA,Daiwa Blanket,,,New,,240.50,,,,3590.50,Kaz Ohashi,CreditCard,3590.50,,,No,no warranty,Dispatched / Shipped
8/29/2017 9:46:18 PM,Ibe Chan Leung,CA,Relax2Zero 3D,DWA-9060USJ-9060BL,Black,New,,240.50,,,,3590.50,Kaz Ohashi,CreditCard,3590.50,,9/1/2017 12:00:00 AM,No,"3 years parts, 3 years labor ($400)",Delivered
8/29/2017 9:46:18 PM,Ibe Chan Leung,CA,Daiwa Blanket,,,New,,240.50,,,,3590.50,Kaz Ohashi,CreditCard,3590.50,,9/1/2017 12:00:00 AM,No,no warranty,Delivered
8/29/2017 10:40:07 PM,Tina Dang,CA,Relax2Zero 3D,DWA-9060USJ-9060BL,Black,New,,240.50,,,,3590.50,Kaz Ohashi,CreditCard,3590.50,,9/1/2017 12:00:00 AM,No,"3 years parts, 3 years labor ($400)",Delivered
8/29/2017 10:40:07 PM,Tina Dang,CA,Chair Pad for Relax2Zero 3D,,,New,,240.50,,,,3590.50,Kaz Ohashi,CreditCard,3590.50,,9/1/2017 12:00:00 AM,No,no warranty,Delivered
8/29/2017 10:59:15 PM,Liching Ulrey,CA,Relax2Zero 3D,DWA-9060USJ-9060BL,Black,New,,240.50,,,,3590.50,Kaz Ohashi,CreditCard,3590.50,,9/1/2017 12:00:00 AM,No,"3 years parts, 3 years labor ($400)",Delivered
8/30/2017 9:41:35 PM,Carol Deegan,TX,Legacy for Sam's,DWA-9100DWA-9100CH,Choco,New,,365.42,,,,4664.42,Kristy Tran,PURCHASEORDER,0.00,,9/6/2017 12:00:00 AM,No,"3 years parts, 1 year labor (Free)",Dispatched / Shipped
8/31/2017 6:43:56 PM,Jessica Phung,CA,Legacy 3D,DWA-9150USJ-9150BL,Black,New,,319.38,,,,4719.38,Jessica Phung,PURCHASEORDER,0.00,,,No,"3 years parts, 1 year labor (Free)",Cancelled
8/31/2017 6:43:56 PM,Jessica Phung,CA,Chair Pad for Lagacy 3D,,,New,,319.38,,,,4719.38,Jessica Phung,PURCHASEORDER,0.00,,,No,no warranty,Cancelled
8/31/2017 6:43:56 PM,Jessica Phung,CA,Daiwa Blanket,,,New,,319.38,,,,4719.38,Jessica Phung,PURCHASEORDER,0.00,,,No,no warranty,Cancelled
8/31/2017 6:43:56 PM,Jessica Phung,CA,Foot Pads for Lagacy 3D,,,New,,319.38,,,,4719.38,Jessica Phung,PURCHASEORDER,0.00,,,No,no warranty,Cancelled
8/31/2017 10:58:17 PM,Troy Coffman,FL,Relax2Zero 2.0 for Sam's,USJ-9050USJ-9050BL-DEMO,Demo Black,New,,223.93,,,,3422.93,Jonathan Bhowani,CreditCard,3422.93,,,No,"3 years parts, 1 year labor (Free)",Dispatched / Shipped
