﻿Original Event Name,Event Name,Sales Person,Order Number,Order Date,Customer Name,State,Zip,Product Name,Color,Product Status,QTY,Tax,Total Before Tax,Order Total,Primary Payment Method,Second Payment Method,Thirdl Payment Method,Warranty,Order Items,Pick up,Delivered On,Order Status,Chair Type,Order Notes,Private Note,Branch,No Tax,Actual Tax Rate,SKU,Primary Payment Balance,Primary Authorize Number,Primary Purchase Order Number,Primary Synchrony Account Number,Primary Synchrony Application Key,Primary Synchrony Account Info,Primary Synchrony Term,Primary Synchrony Primary ID,Primary Synchrony Issued State,Primary Synchrony Expiretion Date,Second Payment Balance,Second Authorize Number,Second Purchase Order Number,Second Synchrony Account Number,Second Synchrony Application Key,Second Synchrony Account Info,Second SynchronyTerm,Second Synchrony Primary ID,Second Synchrony Issued State,Second Synchrony Expiretion Date,Third Payment Balance,Third Authorize Number,Third Purchase Order Number,Third Synchrony Account Number,Third Synchrony Application Key,Third Synchrony Account Info,Third Synchrony Term,Third Synchrony Primary ID,Third Synchrony Issued State,Third Synchrony Expiretion Date
"Sam's Club #6361 Ft. Walton Beach, FL","Sam's Club #6361 Ft. Walton Beach, FL",Alex Brackelsberg,117982,6/12/2019 5:58:22 PM,Charles Wilson,FL,32547,Relax 2 Zero 2.0 for Sam's,Demo (Box) Black[-701],Demo,1,207.94,3199.00,3406.94,Credit Card,,,"3 years parts, 3 years labor ($400)","Relax 2 Zero 2.0 for Sam's,",No,,Scheduled,,,"Original received. Erika 6/13/19 9:25am
CC, Jasmin Carrizales, 6/13/19, 5:42pm, VM",FL,0,6.50,USJ-9050USJ-9050BL-DEMO (Box),0.00,2080266332698679320332,,,,,,,,,0.00,,,,,,,,,,0.00,,,,,,,,,
"Sam's Club #6361 Ft. Walton Beach, FL","Sam's Club #6361 Ft. Walton Beach, FL",Alex Brackelsberg,117990,6/13/2019 12:13:51 PM,Lynn Cornelison,FL,32569,Legacy for Sam's,Demo Black[-700],Demo,1,233.94,3599.00,3832.94,Credit Card,,,"3 years parts, 3 years labor ($400)","Legacy for Sam's,",No,,Scheduled,,,"--Original received. Erika 6/13/19 12:25pm
CC, Jasmin Carrizales, 6/13/19, 5:47pm, Av. 6/24-After 11am+6/25-All Day",FL,0,6.50,DWA-9100DWA-9100BL-DEMO,3832.94,6388467402739754054086,,,,,,,,,0.00,,,,,,,,,,0.00,,,,,,,,,
"Sam's Club #6361 Ft. Walton Beach, FL","Sam's Club #6361 Ft. Walton Beach, FL",Alex Brackelsberg,118028,6/14/2019 5:39:56 PM,Tom Mastin,FL,32578,Foot Vibe Pro,,New,1,7.15,109.99,117.14,Credit Card,,,"2 years parts, 1 year labor (Free)","Foot Vibe Pro,",YES,,Delivered,,Customer picked up at the store,,FL,0,6.50,USJ-871,0.00,107451386162124808885,,,,,,,,,0.00,,,,,,,,,,0.00,,,,,,,,,
"Sam's Club #6361 Ft. Walton Beach, FL","Sam's Club #6361 Ft. Walton Beach, FL",Alex Brackelsberg,118029,6/14/2019 5:44:06 PM,Rollan Moriak,FL,32569,Legacy for Sam's,Demo Choco[-700],Demo,1,233.94,3599.00,3832.94,Credit Card,,,"3 years parts, 3 years labor ($400)","Legacy for Sam's,",No,,Cancelled,,Military discount.,"Sales rep customer made a mistake. Should be demo box (new).this order will be canceled.
New order# 118126.",Not Dispatched,0,6.50,DWA-9100DWA-9100CH-DEMO,3832.94,6388267100745754054086,,,,,,,,,0.00,,,,,,,,,,0.00,,,,,,,,,
"Sam's Club #6361 Ft. Walton Beach, FL","Sam's Club #6361 Ft. Walton Beach, FL",Alex Brackelsberg,118063,6/16/2019 8:01:17 AM,Chae Santos,FL,32548,Relax 2 Zero 2.0 for Sam's,Demo Black[-701],Demo,1,207.94,3199.00,3406.94,Sam’s Club Synchrony,,,"3 years parts, 3 years labor ($400)","Relax 2 Zero 2.0 for Sam's,",No,6/15/2019 12:00:00 AM,Delivered,Demo,Deliver after show,Original received. Erika 6/17/19 11:36am,FL,0,6.50,USJ-9050USJ-9050BL-DEMO,3406.94,,,,,,,,,,0.00,,,,,,,,,,0.00,,,,,,,,,
"Sam's Club #6361 Ft. Walton Beach, FL","Sam's Club #6361 Ft. Walton Beach, FL",Alex Brackelsberg,118064,6/16/2019 8:05:07 AM,Tim Ryan,FL,32536,Legacy for Sam's,Demo(Box) Choco[-700],Demo,1,233.94,3599.00,3832.94,Sam’s Club Synchrony,,,"3 years parts, 3 years labor ($400)","Legacy for Sam's,",No,,Scheduled,,,"--Original received. Erika 6/17/19 11:43am
CC, Jasmin Carrizales, 6/17/19, 4:05pm/Av. Anytime Call wife when scheduled/850-612-2057",FL,0,6.50,DWA-9100DWA-9100CH-Box,3832.94,,,,,,,,,,0.00,,,,,,,,,,0.00,,,,,,,,,
"Sam's Club #6361 Ft. Walton Beach, FL","Sam's Club #6361 Ft. Walton Beach, FL",Alex Brackelsberg,118065,6/16/2019 8:09:14 AM,Carla Gutierrez,FL,32566,Legacy for Sam's,Demo(Box) Sienna Brown[-700],Demo,1,233.94,3599.00,3832.94,Credit Card,,,"3 years parts, 3 years labor ($400)","Legacy for Sam's,",No,,Called,,Free ninja leg massager.,"-Original received. Erika 6/17/19 11:45am
Per Sales rep request free Free ninja leg massager.(alex)",FL,0,6.50,DWA-9100DWA-9100SB-Box,3832.94,0761504658498481585520,,,,,,,,,0.00,,,,,,,,,,0.00,,,,,,,,,
"Sam's Club #6361 Ft. Walton Beach, FL","Sam's Club #6361 Ft. Walton Beach, FL",Alex Brackelsberg,118107,6/17/2019 1:18:23 PM,Julie Roberts,FL,32547,Legacy for Sam's,Demo(Box) Choco[-700],Demo,1,233.94,3599.00,3832.94,Sam’s Club Synchrony,,,"3 years parts, 3 years labor ($400)","Legacy for Sam's,",No,,Scheduled,,"Free white glove delivery / warranty: 3 years parts, 3 years labor","Sams Synchrony
Original received. Erika 6/17/19 3:32pm",FL,0,6.50,DWA-9100DWA-9100CH-Box,3832.94,,,,,,,,,,0.00,,,,,,,,,,0.00,,,,,,,,,
"Sam's Club #6361 Ft. Walton Beach, FL","Sam's Club #6361 Ft. Walton Beach, FL",Alex Brackelsberg,118108,6/17/2019 1:23:28 PM,Angelo Pearson,FL,32566,Legacy for Sam's,Demo(Box) Choco[-700],Demo,1,233.94,3599.00,3832.94,Sam’s Club Synchrony,,,"3 years parts, 3 years labor ($400)","Legacy for Sam's,",No,,Scheduled,,"Free white glove delivery / warranty: 3 year parts, 3 year labor","Sams Club Synchrony / Deliver new
Original received. Erika 6/17/19 3:33pm",FL,0,6.50,DWA-9100DWA-9100CH-Box,3832.94,,,,,,,,,,0.00,,,,,,,,,,0.00,,,,,,,,,
"Sam's Club #6361 Ft. Walton Beach, FL","Sam's Club #6361 Ft. Walton Beach, FL",Alex Brackelsberg,118126,6/18/2019 2:51:33 PM,Rollan Moriak,FL,32569,Legacy for Sam's,Demo(Box) Choco[-700],Demo,1,0.00,3832.94,3832.94,Purchase Order,,,"3 years parts, 3 years labor ($400)","Legacy for Sam's,",No,,Called,,,"Military discount, Alex
---Original received. Erika 6/18/19 2:57pm",FL,1,6.50,DWA-9100DWA-9100CH-Box,3832.94,,TC#6388267100745754054086,,,,,,,,0.00,,,,,,,,,,0.00,,,,,,,,,
