﻿Date,Customer Name,State,Zipcode,Description,Product Number,Color,Product Status,Net,Shipping Fee,Gift Price,Financing Processing Fee,Order Total,Total Before Tax,Tax,Commission,Primary Payment Method,Primary Payment Balance,Primary Authorize Number,Primary Purchase Order Number,Primary Synchrony Account Number,Primary Synchrony Application Key,Primary Synchrony Account Info,Primary Synchrony Term,Second Payment Method,Second Payment Balance,Second Authorize Number,Second Purchase Order Number,Second Synchrony Account Number,Second Synchrony Application Key,Second Synchrony Account Info,Second Synchrony Term,Third Payment Method,Third Payment Balance,Third Authorize Number,Third Purchase Order Number,Third Synchrony Account Number,Third Synchrony Application Key,Third Synchrony Account Info,Third Synchrony Term,Delivery Date,Pick up,Warranty,Status,Chair Type,Original Event Name,Event Name,Synchrony Notes,Order Notes,Order Number,Private Note,Branch,No Tax,Actual Tax Rate
1/17/2018 2:51:58 PM,Hunter Jerome Weakley,AZ,85373,Legacy for Sam's,DWA-9100DWA-9100SB,Sienna Brown,New,,,,,3930.11,3599.00,331.11,Laser Howell,PurchaseOrder,0.00,,3473-5803-0520-2160-3455-48,,,,,,0.00,,,,,,,,0.00,,,,,,,1/25/2018 12:00:00 AM,No,"3 years parts, 1 year labor (Free)",Delivered,,Sam's Club #4732 Glendale (AZ),Sam's Club #4732 Glendale (AZ),,"Please Deliver new chair.
Please confirm color of chair upon scheduling set up date/time w/ customer/s.",103053,01/18/18-Cristina- re dispatched to LV per Hide's Request.,NV,0,9.20
1/17/2018 3:04:50 PM,Zerita Woody,AZ,85308,Legacy for Sam's,DWA-9100DWA-9100CH,Choco,New,,,,,3930.11,3599.00,331.11,Laser Howell,PurchaseOrder,0.00,,5214-6513-1109-0342-5369-46,,,,,,0.00,,,,,,,,0.00,,,,,,,1/31/2018 12:00:00 AM,No,"3 years parts, 1 year labor (Free)",Delivered,,Sam's Club #4732 Glendale (AZ),Sam's Club #4732 Glendale (AZ),,Please deliver a New chair,103054,"re-dispatched CA 1/24/18 Hitomi
01/26/18-printed",CA,0,9.20
1/18/2018 11:13:23 AM,Kelly Weiss,AZ,85308,Legacy for Sam's,DWA-9100DWA-9100CH,Choco,New,,,,,3930.11,3599.00,331.11,Laser Howell,PurchaseOrder,0.00,,7166-2752-5634-5905-7598-32,,,,,,0.00,,,,,,,,0.00,,,,,,,1/31/2018 12:00:00 AM,No,"3 years parts, 1 year labor (Free)",Delivered,,Sam's Club #4732 Glendale (AZ),Sam's Club #4732 Glendale (AZ),,"please deliver brand new chair.
& please confirm chair color upon scheduling the delivery date and time.",103065,"re-dispatched CA 1/24/18
01/26/18-printed",CA,0,9.20
1/19/2018 10:43:14 AM,Amanda Hadaway,AZ,85388,Legacy for Sam's,DWA-9100DWA-9100CH,Choco,New,,,,,3930.11,3599.00,331.11,Laser Howell,PurchaseOrder,0.00,,5234-4514-1402-7341-5129-06,,,,,,0.00,,,,,,,,0.00,,,,,,,2/1/2018 12:00:00 AM,No,"3 years parts, 1 year labor (Free)",Delivered,,Sam's Club #4732 Glendale (AZ),Sam's Club #4732 Glendale (AZ),,please deliver brand new chair.,103084,"01/24/18- redispatched to CA
01/26/18-printed",CA,0,9.20
1/20/2018 6:24:18 PM,Lester Hochstetler,AZ,85383,Legacy for Sam's,DWA-9100DWA-9100CH,Choco,New,,,,,4694.51,4299.00,395.51,Laser Howell,PurchaseOrder,0.00,,5294-0218-3805-0340-5049-26,,,,,,0.00,,,,,,,,0.00,,,,,,,2/1/2018 12:00:00 AM,No,"3 years parts, 1 year labor (Free)",Delivered,,Sam's Club #4732 Glendale (AZ),Sam's Club #4732 Glendale (AZ),,please deliver brand new chair,103104,"re-dispatched CA 1/24/18 Hitomi
01/26/18-printed",CA,0,9.20
1/23/2018 9:50:49 AM,Machelle Eller,AZ,85048,Vitality Plate for Sam's,USJ-849USJ-849,New,New,,,,,459.99,459.99,0.00,Harmony Daiwa,CreditCard,0.00,,,,,,,,0.00,,,,,,,,0.00,,,,,,,,YES,"3 years parts, 1 year labor (Free)",Delivered,,Sam's Club #4732 Glendale (AZ),Sam's Club #4732 Glendale (AZ),,,103203,TC# 144184621684079476532 ..I don't see our store location in sams club Arizona for tax part,NV,1,9.20
3/19/2018 3:41:01 PM,Robert Johnson,UT,84321,Legacy for Sam's,DWA-9100DWA-9100BL,New Black,New,,,,,3930.11,3599.00,331.11,Laser Howell,PurchaseOrder,0.00,,4539-5488-3271-2154-5012-13,,,,,,0.00,,,,,,,,0.00,,,,,,,4/4/2018 12:00:00 AM,No,"3 years parts, 1 year labor (Free)",Delivered,,Sam's Club #4732 Glendale (AZ),Sam's Club #4732 Glendale (AZ),,"please deliver brand new Black Legacy
please confirm address upon scheduling delivery appointment",104626,,NV,0,9.20
7/12/2018 6:57:04 PM,Dale McNab,AZ,85308,Legacy for Sam's,DWA-9100DWA-9100CH,New Choco,New,,,,,4694.51,4299.00,395.51,Kohei Uno,CreditCard,4694.51,Approval# 001209,,,,,,,0.00,,,,,,,,0.00,,,,,,,8/2/2018 12:00:00 AM,No,"3 years parts, 1 year labor (Free)",Delivered,,"Sam's Club #4732 Glendale, AZ 7/12-22/18 (NV)","Sam's Club #4732 Glendale, AZ 7/12-22/18 (NV)",,,107378,"TC#1901 0348 8340 6277 0931 49
7/13Maritza Courtesy call @ 11:32AM
07/24- Re- Dispatched to CA - sched 08/01-03-Cristina
7/24PRINTED
08/16/18 CHAIR REPLACEMENT NEW SERIAL #0201002181100 - STEPHANY",CA,0,9.20
7/16/2018 10:23:26 AM,Daiwa Massage,CA,90249,Foot Vibe Pro,USJ-871,,New,,,,,1015.49,929.94,85.55,Satoshi Nakajima,CreditCard,1015.49,,,,,,,,0.00,,,,,,,,0.00,,,,,,,,YES,"2 years parts, 1 year labor (Free)",Delivered,,"Sam's Club #4732 Glendale, AZ 7/12-22/18 (NV)","Sam's Club #4732 Glendale, AZ 7/12-22/18 (NV)",,,107501,"TC# 611036879628493251065

TC# 676709937953714862660

TV# 221262565244083159397

TC# 227573600391529995734",CA,0,9.20
7/16/2018 10:23:26 AM,Daiwa Massage,CA,90249,Vitality Plate for Sam's,USJ-849USJ-849,New,New,,,,,1015.49,929.94,85.55,Satoshi Nakajima,CreditCard,1015.49,,,,,,,,0.00,,,,,,,,0.00,,,,,,,,YES,"2 years parts, 1 year labor for Small Items",Delivered,,"Sam's Club #4732 Glendale, AZ 7/12-22/18 (NV)","Sam's Club #4732 Glendale, AZ 7/12-22/18 (NV)",,,107501,"TC# 611036879628493251065

TC# 676709937953714862660

TV# 221262565244083159397

TC# 227573600391529995734",CA,0,9.20
7/16/2018 10:23:26 AM,Daiwa Massage,CA,90249,Shogun Neck & Back Massger,USJ-874USJ-874-DEMO,Demo,Demo,,,,,1015.49,929.94,85.55,Satoshi Nakajima,CreditCard,1015.49,,,,,,,,0.00,,,,,,,,0.00,,,,,,,,YES,"2 years parts, 1 year labor for Small Items",Delivered,,"Sam's Club #4732 Glendale, AZ 7/12-22/18 (NV)","Sam's Club #4732 Glendale, AZ 7/12-22/18 (NV)",,,107501,"TC# 611036879628493251065

TC# 676709937953714862660

TV# 221262565244083159397

TC# 227573600391529995734",CA,0,9.20
7/17/2018 10:09:58 AM,Lloyd Cadle,CA,90249,Shogun Neck & Back Massger,USJ-874USJ-874,New,New,,,,,218.38,199.98,18.40,Satoshi Nakajima,CreditCard,0.00,,,,,,,,0.00,,,,,,,,0.00,,,,,,,,YES,"2 years parts, 1 year labor for Small Items",Delivered,,"Sam's Club #4732 Glendale, AZ 7/12-22/18 (NV)","Sam's Club #4732 Glendale, AZ 7/12-22/18 (NV)",,,107543,TC# 912605219543900797892,CA,0,9.20
7/17/2018 11:16:10 AM,Todd Garrett,AZ,85374,Legacy for Sam's,DWA-9100DWA-9100BL,New Black,New,,,,,4694.51,4299.00,395.51,Satoshi Nakajima,CreditCard,4694.51,Appt # 341096,,,,,,,0.00,,,,,,,,0.00,,,,,,,8/12/2018 12:00:00 AM,No,"3 years parts, 1 year labor (Free)",Delivered,,"Sam's Club #4732 Glendale, AZ 7/12-22/18 (NV)","Sam's Club #4732 Glendale, AZ 7/12-22/18 (NV)",,,107545,"TC# 3942862363294082153337
7/18Maritza Courtesy call at 9:48AM
07/24- Re- Dispatched to CA - sched 08/01-03-Cristina
7/24PRINTED
7/25Maritza Tried to schedule for 7/1 but will be gone August 1-6th. NV please deliver asap. Re-Dispatched",NV,0,9.20
7/17/2018 11:16:10 AM,Todd Garrett,AZ,85374,Daiwa Blanket,,,New,,,,,4694.51,4299.00,395.51,Satoshi Nakajima,CreditCard,4694.51,Appt # 341096,,,,,,,0.00,,,,,,,,0.00,,,,,,,8/12/2018 12:00:00 AM,No,no warranty,Delivered,,"Sam's Club #4732 Glendale, AZ 7/12-22/18 (NV)","Sam's Club #4732 Glendale, AZ 7/12-22/18 (NV)",,,107545,"TC# 3942862363294082153337
7/18Maritza Courtesy call at 9:48AM
07/24- Re- Dispatched to CA - sched 08/01-03-Cristina
7/24PRINTED
7/25Maritza Tried to schedule for 7/1 but will be gone August 1-6th. NV please deliver asap. Re-Dispatched",NV,0,9.20
7/20/2018 7:56:53 PM,Daiwa Massage,CA,90249,Shogun Neck & Back Massger,USJ-874USJ-874-DEMO,Demo,Demo,,,,,196.54,179.98,16.56,Satoshi Nakajima,CreditCard,196.54,Appr# 688499,,,,,,,0.00,,,,,,,,0.00,,,,,,,,YES,"2 years parts, 1 year labor for Small Items",Delivered,,"Sam's Club #4732 Glendale, AZ 7/12-22/18 (NV)","Sam's Club #4732 Glendale, AZ 7/12-22/18 (NV)",,,107647,TC# 808998376637652404213,CA,0,9.20
7/21/2018 11:09:22 AM,Khanh Mai,AZ,85303,Relax 2 Zero 2.0 for Sam's,USJ-9050USJ-9050BL-DEMO (Box),Demo (Box) Black,Demo,,,,,3494.40,3200.00,294.40,Satoshi Nakajima,CreditCard,3493.31,Approval # 021619,,,,,,,0.00,,,,,,,,0.00,,,,,,,8/2/2018 12:00:00 AM,No,"3 years parts, 1 year labor (Free)",Delivered,,"Sam's Club #4732 Glendale, AZ 7/12-22/18 (NV)","Sam's Club #4732 Glendale, AZ 7/12-22/18 (NV)",,1 Blanket free,107657,"TC# 9765503710531523996794
7/24mARITZA COURTESY CALL @ 11:09am
07/24- Re- Dispatched to CA - sched 08/01-03-Cristina
7/24PRINTED",CA,0,9.20
7/21/2018 11:09:22 AM,Khanh Mai,AZ,85303,Daiwa Blanket,,,New,,,,,3494.40,3200.00,294.40,Satoshi Nakajima,CreditCard,3493.31,Approval # 021619,,,,,,,0.00,,,,,,,,0.00,,,,,,,8/2/2018 12:00:00 AM,No,no warranty,Delivered,,"Sam's Club #4732 Glendale, AZ 7/12-22/18 (NV)","Sam's Club #4732 Glendale, AZ 7/12-22/18 (NV)",,1 Blanket free,107657,"TC# 9765503710531523996794
7/24mARITZA COURTESY CALL @ 11:09am
07/24- Re- Dispatched to CA - sched 08/01-03-Cristina
7/24PRINTED",CA,0,9.20
7/21/2018 1:56:12 PM,Daiwa Massage,CA,90249,Foot Vibe Pro,USJ-871,,New,,,,,436.76,399.96,36.80,Satoshi Nakajima,CreditCard,436.76,Appr # 978462 Appr # 099486,,,,,,,0.00,,,,,,,,0.00,,,,,,,,YES,"2 years parts, 1 year labor for Small Items",Delivered,,"Sam's Club #4732 Glendale, AZ 7/12-22/18 (NV)","Sam's Club #4732 Glendale, AZ 7/12-22/18 (NV)",,"TC# 785563412561523947784
TC# 816998071627652406213",107658,,CA,0,9.20
7/21/2018 1:56:12 PM,Daiwa Massage,CA,90249,Shogun Neck & Back Massger,USJ-874USJ-874-DEMO,Demo,Demo,,,,,436.76,399.96,36.80,Satoshi Nakajima,CreditCard,436.76,Appr # 978462 Appr # 099486,,,,,,,0.00,,,,,,,,0.00,,,,,,,,YES,"2 years parts, 1 year labor for Small Items",Delivered,,"Sam's Club #4732 Glendale, AZ 7/12-22/18 (NV)","Sam's Club #4732 Glendale, AZ 7/12-22/18 (NV)",,"TC# 785563412561523947784
TC# 816998071627652406213",107658,,CA,0,9.20
7/22/2018 8:19:50 AM,Daiwa Massage,CA,90249,Shogun Neck & Back Massger,USJ-874USJ-874,New,New,,,,,218.38,199.98,18.40,Satoshi Nakajima,CreditCard,218.38,Appr# 765826,,,,,,,0.00,,,,,,,,0.00,,,,,,,,YES,"2 years parts, 1 year labor for Small Items",Delivered,,"Sam's Club #4732 Glendale, AZ 7/12-22/18 (NV)","Sam's Club #4732 Glendale, AZ 7/12-22/18 (NV)",,,107694,TC# 828827192875835672441,CA,0,9.20
7/22/2018 3:11:44 PM,Julie Zieler,AZ,85381,Legacy for Sam's,DWA-9100DWA-9100BL-Box,Demo(Box) Black,Demo,,,,,3930.11,3599.00,331.11,Satoshi Nakajima,CreditCard,3930.11,Appr# 150850,,,,,,,0.00,,,,,,,,0.00,,,,,,,8/2/2018 12:00:00 AM,No,"3 years parts, 1 year labor (Free)",Delivered,,"Sam's Club #4732 Glendale, AZ 7/12-22/18 (NV)","Sam's Club #4732 Glendale, AZ 7/12-22/18 (NV)",,,107723,"TC# 7176775532983905756832
07/24- Re- Dispatched to CA - sched 08/01-03-Cristina
7/24PRINTED",CA,0,9.20
